<?xml version="1.0" encoding="utf-8" standalone="no"?>
<!DOCTYPE svg PUBLIC "-//W3C//DTD SVG 1.1//EN"
  "http://www.w3.org/Graphics/SVG/1.1/DTD/svg11.dtd">
<!-- Created with matplotlib (http://matplotlib.org/) -->
<svg height="345.6pt" version="1.1" viewBox="0 0 460.8 345.6" width="460.8pt" xmlns="http://www.w3.org/2000/svg" xmlns:xlink="http://www.w3.org/1999/xlink">
 <defs>
  <style type="text/css">
*{stroke-linecap:butt;stroke-linejoin:round;}
  </style>
 </defs>
 <g id="figure_1">
  <g id="patch_1">
   <path d="M 0 345.6 
L 460.8 345.6 
L 460.8 0 
L 0 0 
z
" style="fill:#ffffff;"/>
  </g>
  <g id="axes_1">
   <g id="CircleCollection_1">
    <path clip-path="url(#p2d3551f94d)" d="M 149.618136 209.274669 
C 151.394881 209.274669 153.099093 208.568761 154.355441 207.312413 
C 155.611789 206.056065 156.317697 204.351852 156.317697 202.575108 
C 156.317697 200.798364 155.611789 199.094151 154.355441 197.837803 
C 153.099093 196.581455 151.394881 195.875547 149.618136 195.875547 
C 147.841392 195.875547 146.137179 196.581455 144.880831 197.837803 
C 143.624483 199.094151 142.918575 200.798364 142.918575 202.575108 
C 142.918575 204.351852 143.624483 206.056065 144.880831 207.312413 
C 146.137179 208.568761 147.841392 209.274669 149.618136 209.274669 
z
" style="fill:#84d44b;"/>
    <path clip-path="url(#p2d3551f94d)" d="M 298.454488 287.667881 
C 300.19122 287.667881 301.857054 286.97787 303.08511 285.749815 
C 304.313165 284.521759 305.003176 282.855925 305.003176 281.119193 
C 305.003176 279.38246 304.313165 277.716626 303.08511 276.488571 
C 301.857054 275.260516 300.19122 274.570504 298.454488 274.570504 
C 296.717755 274.570504 295.051921 275.260516 293.823866 276.488571 
C 292.595811 277.716626 291.905799 279.38246 291.905799 281.119193 
C 291.905799 282.855925 292.595811 284.521759 293.823866 285.749815 
C 295.051921 286.97787 296.717755 287.667881 298.454488 287.667881 
z
" style="fill:#25ac82;"/>
    <path clip-path="url(#p2d3551f94d)" d="M 318.741515 252.416246 
C 320.470806 252.416246 322.129502 251.729192 323.352295 250.506399 
C 324.575088 249.283606 325.262142 247.62491 325.262142 245.89562 
C 325.262142 244.166329 324.575088 242.507633 323.352295 241.28484 
C 322.129502 240.062047 320.470806 239.374993 318.741515 239.374993 
C 317.012225 239.374993 315.353529 240.062047 314.130736 241.28484 
C 312.907943 242.507633 312.220889 244.166329 312.220889 245.89562 
C 312.220889 247.62491 312.907943 249.283606 314.130736 250.506399 
C 315.353529 251.729192 317.012225 252.416246 318.741515 252.416246 
z
" style="fill:#2ab07f;"/>
    <path clip-path="url(#p2d3551f94d)" d="M 173.177405 73.426362 
C 174.8167 73.426362 176.389075 72.775063 177.548232 71.615906 
C 178.707389 70.456749 179.358688 68.884374 179.358688 67.245078 
C 179.358688 65.605783 178.707389 64.033408 177.548232 62.874251 
C 176.389075 61.715094 174.8167 61.063795 173.177405 61.063795 
C 171.538109 61.063795 169.965734 61.715094 168.806577 62.874251 
C 167.64742 64.033408 166.996121 65.605783 166.996121 67.245078 
C 166.996121 68.884374 167.64742 70.456749 168.806577 71.615906 
C 169.965734 72.775063 171.538109 73.426362 173.177405 73.426362 
z
" style="fill:#440154;"/>
    <path clip-path="url(#p2d3551f94d)" d="M 290.062475 144.299517 
C 291.790553 144.299517 293.448086 143.612945 294.670021 142.391009 
C 295.891957 141.169074 296.57853 139.511541 296.57853 137.783463 
C 296.57853 136.055385 295.891957 134.397852 294.670021 133.175916 
C 293.448086 131.95398 291.790553 131.267408 290.062475 131.267408 
C 288.334397 131.267408 286.676864 131.95398 285.454928 133.175916 
C 284.232992 134.397852 283.54642 136.055385 283.54642 137.783463 
C 283.54642 139.511541 284.232992 141.169074 285.454928 142.391009 
C 286.676864 143.612945 288.334397 144.299517 290.062475 144.299517 
z
" style="fill:#93d741;"/>
    <path clip-path="url(#p2d3551f94d)" d="M 163.151829 170.634572 
C 164.917132 170.634572 166.610371 169.933209 167.858628 168.684952 
C 169.106886 167.436694 169.808248 165.743456 169.808248 163.978153 
C 169.808248 162.21285 169.106886 160.519611 167.858628 159.271354 
C 166.610371 158.023096 164.917132 157.321734 163.151829 157.321734 
C 161.386526 157.321734 159.693288 158.023096 158.44503 159.271354 
C 157.196772 160.519611 156.49541 162.21285 156.49541 163.978153 
C 156.49541 165.743456 157.196772 167.436694 158.44503 168.684952 
C 159.693288 169.933209 161.386526 170.634572 163.151829 170.634572 
z
" style="fill:#440256;"/>
    <path clip-path="url(#p2d3551f94d)" d="M 302.883562 183.307396 
C 304.62398 183.307396 306.29335 182.61592 307.524011 181.385259 
C 308.754673 180.154597 309.446148 178.485227 309.446148 176.744809 
C 309.446148 175.004391 308.754673 173.335021 307.524011 172.10436 
C 306.29335 170.873698 304.62398 170.182223 302.883562 170.182223 
C 301.143143 170.182223 299.473774 170.873698 298.243112 172.10436 
C 297.012451 173.335021 296.320975 175.004391 296.320975 176.744809 
C 296.320975 178.485227 297.012451 180.154597 298.243112 181.385259 
C 299.473774 182.61592 301.143143 183.307396 302.883562 183.307396 
z
" style="fill:#228d8d;"/>
    <path clip-path="url(#p2d3551f94d)" d="M 153.058606 245.63958 
C 154.841377 245.63958 156.55137 244.931278 157.811979 243.670669 
C 159.072588 242.41006 159.78089 240.700067 159.78089 238.917296 
C 159.78089 237.134525 159.072588 235.424532 157.811979 234.163923 
C 156.55137 232.903314 154.841377 232.195011 153.058606 232.195011 
C 151.275835 232.195011 149.565842 232.903314 148.305233 234.163923 
C 147.044624 235.424532 146.336321 237.134525 146.336321 238.917296 
C 146.336321 240.700067 147.044624 242.41006 148.305233 243.670669 
C 149.565842 244.931278 151.275835 245.63958 153.058606 245.63958 
z
" style="fill:#1f968b;"/>
    <path clip-path="url(#p2d3551f94d)" d="M 329.855219 216.832954 
C 331.582582 216.832954 333.239429 216.146665 334.460859 214.925236 
C 335.682288 213.703806 336.368577 212.046959 336.368577 210.319596 
C 336.368577 208.592233 335.682288 206.935387 334.460859 205.713957 
C 333.239429 204.492527 331.582582 203.806238 329.855219 203.806238 
C 328.127857 203.806238 326.47101 204.492527 325.24958 205.713957 
C 324.02815 206.935387 323.341861 208.592233 323.341861 210.319596 
C 323.341861 212.046959 324.02815 213.703806 325.24958 214.925236 
C 326.47101 216.146665 328.127857 216.832954 329.855219 216.832954 
z
" style="fill:#4ac16d;"/>
    <path clip-path="url(#p2d3551f94d)" d="M 219.736883 61.670935 
C 221.361629 61.670935 222.920049 61.025417 224.068918 59.876548 
C 225.217787 58.727679 225.863305 57.169259 225.863305 55.544513 
C 225.863305 53.919767 225.217787 52.361347 224.068918 51.212478 
C 222.920049 50.063609 221.361629 49.41809 219.736883 49.41809 
C 218.112137 49.41809 216.553717 50.063609 215.404848 51.212478 
C 214.255979 52.361347 213.61046 53.919767 213.61046 55.544513 
C 213.61046 57.169259 214.255979 58.727679 215.404848 59.876548 
C 216.553717 61.025417 218.112137 61.670935 219.736883 61.670935 
z
" style="fill:#e7e419;"/>
    <path clip-path="url(#p2d3551f94d)" d="M 215.655428 122.702146 
C 217.382817 122.702146 219.039689 122.015847 220.261138 120.794398 
C 221.482586 119.57295 222.168885 117.916078 222.168885 116.188689 
C 222.168885 114.4613 221.482586 112.804427 220.261138 111.582979 
C 219.039689 110.36153 217.382817 109.675232 215.655428 109.675232 
C 213.928039 109.675232 212.271167 110.36153 211.049718 111.582979 
C 209.82827 112.804427 209.141971 114.4613 209.141971 116.188689 
C 209.141971 117.916078 209.82827 119.57295 211.049718 120.794398 
C 212.271167 122.015847 213.928039 122.702146 215.655428 122.702146 
z
" style="fill:#482173;"/>
    <path clip-path="url(#p2d3551f94d)" d="M 256.976846 299.759697 
C 258.722276 299.759697 260.396453 299.06623 261.630659 297.832024 
C 262.864864 296.597819 263.558331 294.923642 263.558331 293.178211 
C 263.558331 291.432781 262.864864 289.758604 261.630659 288.524398 
C 260.396453 287.290193 258.722276 286.596726 256.976846 286.596726 
C 255.231415 286.596726 253.557238 287.290193 252.323033 288.524398 
C 251.088827 289.758604 250.39536 291.432781 250.39536 293.178211 
C 250.39536 294.923642 251.088827 296.597819 252.323033 297.832024 
C 253.557238 299.06623 255.231415 299.759697 256.976846 299.759697 
z
" style="fill:#3bbb75;"/>
    <path clip-path="url(#p2d3551f94d)" d="M 177.211007 278.455244 
C 178.981161 278.455244 180.679052 277.751954 181.93074 276.500266 
C 183.182428 275.248578 183.885718 273.550687 183.885718 271.780533 
C 183.885718 270.010379 183.182428 268.312488 181.93074 267.0608 
C 180.679052 265.809112 178.981161 265.105823 177.211007 265.105823 
C 175.440853 265.105823 173.742962 265.809112 172.491274 267.0608 
C 171.239586 268.312488 170.536297 270.010379 170.536297 271.780533 
C 170.536297 273.550687 171.239586 275.248578 172.491274 276.500266 
C 173.742962 277.751954 175.440853 278.455244 177.211007 278.455244 
z
" style="fill:#34b679;"/>
    <path clip-path="url(#p2d3551f94d)" d="M 212.197656 159.744373 
C 213.965168 159.744373 215.660525 159.042133 216.910345 157.792314 
C 218.160164 156.542494 218.862404 154.847137 218.862404 153.079625 
C 218.862404 151.312113 218.160164 149.616756 216.910345 148.366937 
C 215.660525 147.117117 213.965168 146.414877 212.197656 146.414877 
C 210.430144 146.414877 208.734787 147.117117 207.484967 148.366937 
C 206.235148 149.616756 205.532908 151.312113 205.532908 153.079625 
C 205.532908 154.847137 206.235148 156.542494 207.484967 157.792314 
C 208.734787 159.042133 210.430144 159.744373 212.197656 159.744373 
z
" style="fill:#443a83;"/>
    <path clip-path="url(#p2d3551f94d)" d="M 128.875563 60.096219 
C 130.48103 60.096219 132.020957 59.45836 133.156194 58.323123 
C 134.291431 57.187887 134.92929 55.647959 134.92929 54.042492 
C 134.92929 52.437024 134.291431 50.897097 133.156194 49.76186 
C 132.020957 48.626623 130.48103 47.988764 128.875563 47.988764 
C 127.270095 47.988764 125.730168 48.626623 124.594931 49.76186 
C 123.459694 50.897097 122.821835 52.437024 122.821835 54.042492 
C 122.821835 55.647959 123.459694 57.187887 124.594931 58.323123 
C 125.730168 59.45836 127.270095 60.096219 128.875563 60.096219 
z
" style="fill:#fde725;"/>
    <path clip-path="url(#p2d3551f94d)" d="M 138.763124 138.885719 
C 140.488881 138.885719 142.144188 138.200069 143.364482 136.979774 
C 144.584777 135.75948 145.270427 134.104173 145.270427 132.378416 
C 145.270427 130.652659 144.584777 128.997352 143.364482 127.777057 
C 142.144188 126.556763 140.488881 125.871112 138.763124 125.871112 
C 137.037367 125.871112 135.38206 126.556763 134.161765 127.777057 
C 132.941471 128.997352 132.25582 130.652659 132.25582 132.378416 
C 132.25582 134.104173 132.941471 135.75948 134.161765 136.979774 
C 135.38206 138.200069 137.037367 138.885719 138.763124 138.885719 
z
" style="fill:#453581;"/>
    <path clip-path="url(#p2d3551f94d)" d="M 258.048918 173.434653 
C 259.817266 173.434653 261.513425 172.732081 262.763836 171.48167 
C 264.014247 170.231259 264.716819 168.5351 264.716819 166.766751 
C 264.716819 164.998403 264.014247 163.302244 262.763836 162.051833 
C 261.513425 160.801422 259.817266 160.09885 258.048918 160.09885 
C 256.28057 160.09885 254.58441 160.801422 253.333999 162.051833 
C 252.083588 163.302244 251.381016 164.998403 251.381016 166.766751 
C 251.381016 168.5351 252.083588 170.231259 253.333999 171.48167 
C 254.58441 172.732081 256.28057 173.434653 258.048918 173.434653 
z
" style="fill:#75d054;"/>
    <path clip-path="url(#p2d3551f94d)" d="M 211.298682 301.613712 
C 213.061402 301.613712 214.752163 300.913376 215.998594 299.666945 
C 217.245026 298.420514 217.945362 296.729753 217.945362 294.967033 
C 217.945362 293.204313 217.245026 291.513552 215.998594 290.26712 
C 214.752163 289.020689 213.061402 288.320353 211.298682 288.320353 
C 209.535962 288.320353 207.845201 289.020689 206.59877 290.26712 
C 205.352339 291.513552 204.652003 293.204313 204.652003 294.967033 
C 204.652003 296.729753 205.352339 298.420514 206.59877 299.666945 
C 207.845201 300.913376 209.535962 301.613712 211.298682 301.613712 
z
" style="fill:#24aa83;"/>
    <path clip-path="url(#p2d3551f94d)" d="M 89.930132 76.613985 
C 91.542001 76.613985 93.088069 75.973583 94.227832 74.833819 
C 95.367596 73.694056 96.007998 72.147988 96.007998 70.536119 
C 96.007998 68.92425 95.367596 67.378182 94.227832 66.238418 
C 93.088069 65.098655 91.542001 64.458253 89.930132 64.458253 
C 88.318263 64.458253 86.772195 65.098655 85.632432 66.238418 
C 84.492668 67.378182 83.852266 68.92425 83.852266 70.536119 
C 83.852266 72.147988 84.492668 73.694056 85.632432 74.833819 
C 86.772195 75.973583 88.318263 76.613985 89.930132 76.613985 
z
" style="fill:#67cc5c;"/>
    <path clip-path="url(#p2d3551f94d)" d="M 262.448949 112.008977 
C 264.14923 112.008977 265.780101 111.333449 266.982381 110.131168 
C 268.184661 108.928888 268.86019 107.298017 268.86019 105.597737 
C 268.86019 103.897456 268.184661 102.266585 266.982381 101.064305 
C 265.780101 99.862025 264.14923 99.186496 262.448949 99.186496 
C 260.748668 99.186496 259.117797 99.862025 257.915517 101.064305 
C 256.713237 102.266585 256.037708 103.897456 256.037708 105.597737 
C 256.037708 107.298017 256.713237 108.928888 257.915517 110.131168 
C 259.117797 111.333449 260.748668 112.008977 262.448949 112.008977 
z
" style="fill:#46337f;"/>
    <path clip-path="url(#p2d3551f94d)" d="M 172.543242 107.835284 
C 174.241189 107.835284 175.869822 107.160683 177.070452 105.960053 
C 178.271082 104.759423 178.945683 103.13079 178.945683 101.432843 
C 178.945683 99.734896 178.271082 98.106263 177.070452 96.905633 
C 175.869822 95.705003 174.241189 95.030402 172.543242 95.030402 
C 170.845295 95.030402 169.216662 95.705003 168.016032 96.905633 
C 166.815402 98.106263 166.140801 99.734896 166.140801 101.432843 
C 166.140801 103.13079 166.815402 104.759423 168.016032 105.960053 
C 169.216662 107.160683 170.845295 107.835284 172.543242 107.835284 
z
" style="fill:#2c728e;"/>
    <path clip-path="url(#p2d3551f94d)" d="M 257.506881 78.050796 
C 259.154326 78.050796 260.734517 77.39626 261.899436 76.23134 
C 263.064355 75.066421 263.718892 73.48623 263.718892 71.838785 
C 263.718892 70.191341 263.064355 68.61115 261.899436 67.44623 
C 260.734517 66.281311 259.154326 65.626775 257.506881 65.626775 
C 255.859437 65.626775 254.279245 66.281311 253.114326 67.44623 
C 251.949407 68.61115 251.29487 70.191341 251.29487 71.838785 
C 251.29487 73.48623 251.949407 75.066421 253.114326 76.23134 
C 254.279245 77.39626 255.859437 78.050796 257.506881 78.050796 
z
" style="fill:#b2dd2d;"/>
    <path clip-path="url(#p2d3551f94d)" d="M 91.795272 134.158993 
C 93.495227 134.158993 95.125786 133.483594 96.327836 132.281544 
C 97.529886 131.079494 98.205285 129.448935 98.205285 127.74898 
C 98.205285 126.049024 97.529886 124.418466 96.327836 123.216416 
C 95.125786 122.014366 93.495227 121.338967 91.795272 121.338967 
C 90.095316 121.338967 88.464758 122.014366 87.262708 123.216416 
C 86.060658 124.418466 85.385259 126.049024 85.385259 127.74898 
C 85.385259 129.448935 86.060658 131.079494 87.262708 132.281544 
C 88.464758 133.483594 90.095316 134.158993 91.795272 134.158993 
z
" style="fill:#ece51b;"/>
    <path clip-path="url(#p2d3551f94d)" d="M 71.023323 106.413001 
C 72.684352 106.413001 74.277573 105.753067 75.452098 104.578542 
C 76.626622 103.404018 77.286556 101.810797 77.286556 100.149768 
C 77.286556 98.48874 76.626622 96.895519 75.452098 95.720994 
C 74.277573 94.546469 72.684352 93.886536 71.023323 93.886536 
C 69.362295 93.886536 67.769074 94.546469 66.594549 95.720994 
C 65.420025 96.895519 64.760091 98.48874 64.760091 100.149768 
C 64.760091 101.810797 65.420025 103.404018 66.594549 104.578542 
C 67.769074 105.753067 69.362295 106.413001 71.023323 106.413001 
z
" style="fill:#75d054;"/>
   </g>
   <g id="text_1">
    <!-- Structure #2341, $E_N$=-183.87eV, ΔE=0.06eV -->
    <defs>
     <path d="M 53.515625 70.515625 
L 53.515625 60.890625 
Q 47.90625 63.578125 42.921875 64.890625 
Q 37.9375 66.21875 33.296875 66.21875 
Q 25.25 66.21875 20.875 63.09375 
Q 16.5 59.96875 16.5 54.203125 
Q 16.5 49.359375 19.40625 46.890625 
Q 22.3125 44.4375 30.421875 42.921875 
L 36.375 41.703125 
Q 47.40625 39.59375 52.65625 34.296875 
Q 57.90625 29 57.90625 20.125 
Q 57.90625 9.515625 50.796875 4.046875 
Q 43.703125 -1.421875 29.984375 -1.421875 
Q 24.8125 -1.421875 18.96875 -0.25 
Q 13.140625 0.921875 6.890625 3.21875 
L 6.890625 13.375 
Q 12.890625 10.015625 18.65625 8.296875 
Q 24.421875 6.59375 29.984375 6.59375 
Q 38.421875 6.59375 43.015625 9.90625 
Q 47.609375 13.234375 47.609375 19.390625 
Q 47.609375 24.75 44.3125 27.78125 
Q 41.015625 30.8125 33.5 32.328125 
L 27.484375 33.5 
Q 16.453125 35.6875 11.515625 40.375 
Q 6.59375 45.0625 6.59375 53.421875 
Q 6.59375 63.09375 13.40625 68.65625 
Q 20.21875 74.21875 32.171875 74.21875 
Q 37.3125 74.21875 42.625 73.28125 
Q 47.953125 72.359375 53.515625 70.515625 
z
" id="DejaVuSans-53"/>
     <path d="M 18.3125 70.21875 
L 18.3125 54.6875 
L 36.8125 54.6875 
L 36.8125 47.703125 
L 18.3125 47.703125 
L 18.3125 18.015625 
Q 18.3125 11.328125 20.140625 9.421875 
Q 21.96875 7.515625 27.59375 7.515625 
L 36.8125 7.515625 
L 36.8125 0 
L 27.59375 0 
Q 17.1875 0 13.234375 3.875 
Q 9.28125 7.765625 9.28125 18.015625 
L 9.28125 47.703125 
L 2.6875 47.703125 
L 2.6875 54.6875 
L 9.28125 54.6875 
L 9.28125 70.21875 
z
" id="DejaVuSans-74"/>
     <path d="M 41.109375 46.296875 
Q 39.59375 47.171875 37.8125 47.578125 
Q 36.03125 48 33.890625 48 
Q 26.265625 48 22.1875 43.046875 
Q 18.109375 38.09375 18.109375 28.8125 
L 18.109375 0 
L 9.078125 0 
L 9.078125 54.6875 
L 18.109375 54.6875 
L 18.109375 46.1875 
Q 20.953125 51.171875 25.484375 53.578125 
Q 30.03125 56 36.53125 56 
Q 37.453125 56 38.578125 55.875 
Q 39.703125 55.765625 41.0625 55.515625 
z
" id="DejaVuSans-72"/>
     <path d="M 8.5 21.578125 
L 8.5 54.6875 
L 17.484375 54.6875 
L 17.484375 21.921875 
Q 17.484375 14.15625 20.5 10.265625 
Q 23.53125 6.390625 29.59375 6.390625 
Q 36.859375 6.390625 41.078125 11.03125 
Q 45.3125 15.671875 45.3125 23.6875 
L 45.3125 54.6875 
L 54.296875 54.6875 
L 54.296875 0 
L 45.3125 0 
L 45.3125 8.40625 
Q 42.046875 3.421875 37.71875 1 
Q 33.40625 -1.421875 27.6875 -1.421875 
Q 18.265625 -1.421875 13.375 4.4375 
Q 8.5 10.296875 8.5 21.578125 
z
M 31.109375 56 
z
" id="DejaVuSans-75"/>
     <path d="M 48.78125 52.59375 
L 48.78125 44.1875 
Q 44.96875 46.296875 41.140625 47.34375 
Q 37.3125 48.390625 33.40625 48.390625 
Q 24.65625 48.390625 19.8125 42.84375 
Q 14.984375 37.3125 14.984375 27.296875 
Q 14.984375 17.28125 19.8125 11.734375 
Q 24.65625 6.203125 33.40625 6.203125 
Q 37.3125 6.203125 41.140625 7.25 
Q 44.96875 8.296875 48.78125 10.40625 
L 48.78125 2.09375 
Q 45.015625 0.34375 40.984375 -0.53125 
Q 36.96875 -1.421875 32.421875 -1.421875 
Q 20.0625 -1.421875 12.78125 6.34375 
Q 5.515625 14.109375 5.515625 27.296875 
Q 5.515625 40.671875 12.859375 48.328125 
Q 20.21875 56 33.015625 56 
Q 37.15625 56 41.109375 55.140625 
Q 45.0625 54.296875 48.78125 52.59375 
z
" id="DejaVuSans-63"/>
     <path d="M 56.203125 29.59375 
L 56.203125 25.203125 
L 14.890625 25.203125 
Q 15.484375 15.921875 20.484375 11.0625 
Q 25.484375 6.203125 34.421875 6.203125 
Q 39.59375 6.203125 44.453125 7.46875 
Q 49.3125 8.734375 54.109375 11.28125 
L 54.109375 2.78125 
Q 49.265625 0.734375 44.1875 -0.34375 
Q 39.109375 -1.421875 33.890625 -1.421875 
Q 20.796875 -1.421875 13.15625 6.1875 
Q 5.515625 13.8125 5.515625 26.8125 
Q 5.515625 40.234375 12.765625 48.109375 
Q 20.015625 56 32.328125 56 
Q 43.359375 56 49.78125 48.890625 
Q 56.203125 41.796875 56.203125 29.59375 
z
M 47.21875 32.234375 
Q 47.125 39.59375 43.09375 43.984375 
Q 39.0625 48.390625 32.421875 48.390625 
Q 24.90625 48.390625 20.390625 44.140625 
Q 15.875 39.890625 15.1875 32.171875 
z
" id="DejaVuSans-65"/>
     <path id="DejaVuSans-20"/>
     <path d="M 51.125 44 
L 36.921875 44 
L 32.8125 27.6875 
L 47.125 27.6875 
z
M 43.796875 71.78125 
L 38.71875 51.515625 
L 52.984375 51.515625 
L 58.109375 71.78125 
L 65.921875 71.78125 
L 60.890625 51.515625 
L 76.125 51.515625 
L 76.125 44 
L 58.984375 44 
L 54.984375 27.6875 
L 70.515625 27.6875 
L 70.515625 20.21875 
L 53.078125 20.21875 
L 48 0 
L 40.1875 0 
L 45.21875 20.21875 
L 30.90625 20.21875 
L 25.875 0 
L 18.015625 0 
L 23.09375 20.21875 
L 7.71875 20.21875 
L 7.71875 27.6875 
L 24.90625 27.6875 
L 29 44 
L 13.28125 44 
L 13.28125 51.515625 
L 30.90625 51.515625 
L 35.890625 71.78125 
z
" id="DejaVuSans-23"/>
     <path d="M 19.1875 8.296875 
L 53.609375 8.296875 
L 53.609375 0 
L 7.328125 0 
L 7.328125 8.296875 
Q 12.9375 14.109375 22.625 23.890625 
Q 32.328125 33.6875 34.8125 36.53125 
Q 39.546875 41.84375 41.421875 45.53125 
Q 43.3125 49.21875 43.3125 52.78125 
Q 43.3125 58.59375 39.234375 62.25 
Q 35.15625 65.921875 28.609375 65.921875 
Q 23.96875 65.921875 18.8125 64.3125 
Q 13.671875 62.703125 7.8125 59.421875 
L 7.8125 69.390625 
Q 13.765625 71.78125 18.9375 73 
Q 24.125 74.21875 28.421875 74.21875 
Q 39.75 74.21875 46.484375 68.546875 
Q 53.21875 62.890625 53.21875 53.421875 
Q 53.21875 48.921875 51.53125 44.890625 
Q 49.859375 40.875 45.40625 35.40625 
Q 44.1875 33.984375 37.640625 27.21875 
Q 31.109375 20.453125 19.1875 8.296875 
z
" id="DejaVuSans-32"/>
     <path d="M 40.578125 39.3125 
Q 47.65625 37.796875 51.625 33 
Q 55.609375 28.21875 55.609375 21.1875 
Q 55.609375 10.40625 48.1875 4.484375 
Q 40.765625 -1.421875 27.09375 -1.421875 
Q 22.515625 -1.421875 17.65625 -0.515625 
Q 12.796875 0.390625 7.625 2.203125 
L 7.625 11.71875 
Q 11.71875 9.328125 16.59375 8.109375 
Q 21.484375 6.890625 26.8125 6.890625 
Q 36.078125 6.890625 40.9375 10.546875 
Q 45.796875 14.203125 45.796875 21.1875 
Q 45.796875 27.640625 41.28125 31.265625 
Q 36.765625 34.90625 28.71875 34.90625 
L 20.21875 34.90625 
L 20.21875 43.015625 
L 29.109375 43.015625 
Q 36.375 43.015625 40.234375 45.921875 
Q 44.09375 48.828125 44.09375 54.296875 
Q 44.09375 59.90625 40.109375 62.90625 
Q 36.140625 65.921875 28.71875 65.921875 
Q 24.65625 65.921875 20.015625 65.03125 
Q 15.375 64.15625 9.8125 62.3125 
L 9.8125 71.09375 
Q 15.4375 72.65625 20.34375 73.4375 
Q 25.25 74.21875 29.59375 74.21875 
Q 40.828125 74.21875 47.359375 69.109375 
Q 53.90625 64.015625 53.90625 55.328125 
Q 53.90625 49.265625 50.4375 45.09375 
Q 46.96875 40.921875 40.578125 39.3125 
z
" id="DejaVuSans-33"/>
     <path d="M 37.796875 64.3125 
L 12.890625 25.390625 
L 37.796875 25.390625 
z
M 35.203125 72.90625 
L 47.609375 72.90625 
L 47.609375 25.390625 
L 58.015625 25.390625 
L 58.015625 17.1875 
L 47.609375 17.1875 
L 47.609375 0 
L 37.796875 0 
L 37.796875 17.1875 
L 4.890625 17.1875 
L 4.890625 26.703125 
z
" id="DejaVuSans-34"/>
     <path d="M 12.40625 8.296875 
L 28.515625 8.296875 
L 28.515625 63.921875 
L 10.984375 60.40625 
L 10.984375 69.390625 
L 28.421875 72.90625 
L 38.28125 72.90625 
L 38.28125 8.296875 
L 54.390625 8.296875 
L 54.390625 0 
L 12.40625 0 
z
" id="DejaVuSans-31"/>
     <path d="M 11.71875 12.40625 
L 22.015625 12.40625 
L 22.015625 4 
L 14.015625 -11.625 
L 7.71875 -11.625 
L 11.71875 4 
z
" id="DejaVuSans-2c"/>
     <path d="M 16.890625 72.90625 
L 62.984375 72.90625 
L 61.375 64.59375 
L 25.09375 64.59375 
L 20.90625 43.015625 
L 55.71875 43.015625 
L 54.109375 34.71875 
L 19.28125 34.71875 
L 14.203125 8.296875 
L 51.3125 8.296875 
L 49.703125 0 
L 2.6875 0 
z
" id="DejaVuSans-Oblique-45"/>
     <path d="M 16.890625 72.90625 
L 30.171875 72.90625 
L 50.296875 10.40625 
L 62.5 72.90625 
L 72.125 72.90625 
L 57.90625 0 
L 44.578125 0 
L 24.515625 62.890625 
L 12.3125 0 
L 2.6875 0 
z
" id="DejaVuSans-Oblique-4e"/>
     <path d="M 10.59375 45.40625 
L 73.1875 45.40625 
L 73.1875 37.203125 
L 10.59375 37.203125 
z
M 10.59375 25.484375 
L 73.1875 25.484375 
L 73.1875 17.1875 
L 10.59375 17.1875 
z
" id="DejaVuSans-3d"/>
     <path d="M 4.890625 31.390625 
L 31.203125 31.390625 
L 31.203125 23.390625 
L 4.890625 23.390625 
z
" id="DejaVuSans-2d"/>
     <path d="M 31.78125 34.625 
Q 24.75 34.625 20.71875 30.859375 
Q 16.703125 27.09375 16.703125 20.515625 
Q 16.703125 13.921875 20.71875 10.15625 
Q 24.75 6.390625 31.78125 6.390625 
Q 38.8125 6.390625 42.859375 10.171875 
Q 46.921875 13.96875 46.921875 20.515625 
Q 46.921875 27.09375 42.890625 30.859375 
Q 38.875 34.625 31.78125 34.625 
z
M 21.921875 38.8125 
Q 15.578125 40.375 12.03125 44.71875 
Q 8.5 49.078125 8.5 55.328125 
Q 8.5 64.0625 14.71875 69.140625 
Q 20.953125 74.21875 31.78125 74.21875 
Q 42.671875 74.21875 48.875 69.140625 
Q 55.078125 64.0625 55.078125 55.328125 
Q 55.078125 49.078125 51.53125 44.71875 
Q 48 40.375 41.703125 38.8125 
Q 48.828125 37.15625 52.796875 32.3125 
Q 56.78125 27.484375 56.78125 20.515625 
Q 56.78125 9.90625 50.3125 4.234375 
Q 43.84375 -1.421875 31.78125 -1.421875 
Q 19.734375 -1.421875 13.25 4.234375 
Q 6.78125 9.90625 6.78125 20.515625 
Q 6.78125 27.484375 10.78125 32.3125 
Q 14.796875 37.15625 21.921875 38.8125 
z
M 18.3125 54.390625 
Q 18.3125 48.734375 21.84375 45.5625 
Q 25.390625 42.390625 31.78125 42.390625 
Q 38.140625 42.390625 41.71875 45.5625 
Q 45.3125 48.734375 45.3125 54.390625 
Q 45.3125 60.0625 41.71875 63.234375 
Q 38.140625 66.40625 31.78125 66.40625 
Q 25.390625 66.40625 21.84375 63.234375 
Q 18.3125 60.0625 18.3125 54.390625 
z
" id="DejaVuSans-38"/>
     <path d="M 10.6875 12.40625 
L 21 12.40625 
L 21 0 
L 10.6875 0 
z
" id="DejaVuSans-2e"/>
     <path d="M 8.203125 72.90625 
L 55.078125 72.90625 
L 55.078125 68.703125 
L 28.609375 0 
L 18.3125 0 
L 43.21875 64.59375 
L 8.203125 64.59375 
z
" id="DejaVuSans-37"/>
     <path d="M 28.609375 0 
L 0.78125 72.90625 
L 11.078125 72.90625 
L 34.1875 11.53125 
L 57.328125 72.90625 
L 67.578125 72.90625 
L 39.796875 0 
z
" id="DejaVuSans-56"/>
     <path d="M 34.1875 63.1875 
L 14.15625 8.203125 
L 54.25 8.203125 
z
M 0.78125 0 
L 28.609375 72.90625 
L 39.796875 72.90625 
L 67.578125 0 
z
" id="DejaVuSans-394"/>
     <path d="M 9.8125 72.90625 
L 55.90625 72.90625 
L 55.90625 64.59375 
L 19.671875 64.59375 
L 19.671875 43.015625 
L 54.390625 43.015625 
L 54.390625 34.71875 
L 19.671875 34.71875 
L 19.671875 8.296875 
L 56.78125 8.296875 
L 56.78125 0 
L 9.8125 0 
z
" id="DejaVuSans-45"/>
     <path d="M 31.78125 66.40625 
Q 24.171875 66.40625 20.328125 58.90625 
Q 16.5 51.421875 16.5 36.375 
Q 16.5 21.390625 20.328125 13.890625 
Q 24.171875 6.390625 31.78125 6.390625 
Q 39.453125 6.390625 43.28125 13.890625 
Q 47.125 21.390625 47.125 36.375 
Q 47.125 51.421875 43.28125 58.90625 
Q 39.453125 66.40625 31.78125 66.40625 
z
M 31.78125 74.21875 
Q 44.046875 74.21875 50.515625 64.515625 
Q 56.984375 54.828125 56.984375 36.375 
Q 56.984375 17.96875 50.515625 8.265625 
Q 44.046875 -1.421875 31.78125 -1.421875 
Q 19.53125 -1.421875 13.0625 8.265625 
Q 6.59375 17.96875 6.59375 36.375 
Q 6.59375 54.828125 13.0625 64.515625 
Q 19.53125 74.21875 31.78125 74.21875 
z
" id="DejaVuSans-30"/>
     <path d="M 33.015625 40.375 
Q 26.375 40.375 22.484375 35.828125 
Q 18.609375 31.296875 18.609375 23.390625 
Q 18.609375 15.53125 22.484375 10.953125 
Q 26.375 6.390625 33.015625 6.390625 
Q 39.65625 6.390625 43.53125 10.953125 
Q 47.40625 15.53125 47.40625 23.390625 
Q 47.40625 31.296875 43.53125 35.828125 
Q 39.65625 40.375 33.015625 40.375 
z
M 52.59375 71.296875 
L 52.59375 62.3125 
Q 48.875 64.0625 45.09375 64.984375 
Q 41.3125 65.921875 37.59375 65.921875 
Q 27.828125 65.921875 22.671875 59.328125 
Q 17.53125 52.734375 16.796875 39.40625 
Q 19.671875 43.65625 24.015625 45.921875 
Q 28.375 48.1875 33.59375 48.1875 
Q 44.578125 48.1875 50.953125 41.515625 
Q 57.328125 34.859375 57.328125 23.390625 
Q 57.328125 12.15625 50.6875 5.359375 
Q 44.046875 -1.421875 33.015625 -1.421875 
Q 20.359375 -1.421875 13.671875 8.265625 
Q 6.984375 17.96875 6.984375 36.375 
Q 6.984375 53.65625 15.1875 63.9375 
Q 23.390625 74.21875 37.203125 74.21875 
Q 40.921875 74.21875 44.703125 73.484375 
Q 48.484375 72.75 52.59375 71.296875 
z
" id="DejaVuSans-36"/>
    </defs>
    <g transform="translate(65.388 35.472)scale(0.12 -0.12)">
     <use transform="translate(0 0.78125)" xlink:href="#DejaVuSans-53"/>
     <use transform="translate(63.476562 0.78125)" xlink:href="#DejaVuSans-74"/>
     <use transform="translate(102.685547 0.78125)" xlink:href="#DejaVuSans-72"/>
     <use transform="translate(143.798828 0.78125)" xlink:href="#DejaVuSans-75"/>
     <use transform="translate(207.177734 0.78125)" xlink:href="#DejaVuSans-63"/>
     <use transform="translate(262.158203 0.78125)" xlink:href="#DejaVuSans-74"/>
     <use transform="translate(301.367188 0.78125)" xlink:href="#DejaVuSans-75"/>
     <use transform="translate(364.746094 0.78125)" xlink:href="#DejaVuSans-72"/>
     <use transform="translate(405.859375 0.78125)" xlink:href="#DejaVuSans-65"/>
     <use transform="translate(467.382812 0.78125)" xlink:href="#DejaVuSans-20"/>
     <use transform="translate(499.169922 0.78125)" xlink:href="#DejaVuSans-23"/>
     <use transform="translate(582.958984 0.78125)" xlink:href="#DejaVuSans-32"/>
     <use transform="translate(646.582031 0.78125)" xlink:href="#DejaVuSans-33"/>
     <use transform="translate(710.205078 0.78125)" xlink:href="#DejaVuSans-34"/>
     <use transform="translate(773.828125 0.78125)" xlink:href="#DejaVuSans-31"/>
     <use transform="translate(837.451172 0.78125)" xlink:href="#DejaVuSans-2c"/>
     <use transform="translate(869.238281 0.78125)" xlink:href="#DejaVuSans-20"/>
     <use transform="translate(901.025391 0.78125)" xlink:href="#DejaVuSans-Oblique-45"/>
     <use transform="translate(964.208984 -15.625)scale(0.7)" xlink:href="#DejaVuSans-Oblique-4e"/>
     <use transform="translate(1019.306641 0.78125)" xlink:href="#DejaVuSans-3d"/>
     <use transform="translate(1103.095703 0.78125)" xlink:href="#DejaVuSans-2d"/>
     <use transform="translate(1139.179688 0.78125)" xlink:href="#DejaVuSans-31"/>
     <use transform="translate(1202.802734 0.78125)" xlink:href="#DejaVuSans-38"/>
     <use transform="translate(1266.425781 0.78125)" xlink:href="#DejaVuSans-33"/>
     <use transform="translate(1330.048828 0.78125)" xlink:href="#DejaVuSans-2e"/>
     <use transform="translate(1361.804688 0.78125)" xlink:href="#DejaVuSans-38"/>
     <use transform="translate(1425.427734 0.78125)" xlink:href="#DejaVuSans-37"/>
     <use transform="translate(1489.050781 0.78125)" xlink:href="#DejaVuSans-65"/>
     <use transform="translate(1550.574219 0.78125)" xlink:href="#DejaVuSans-56"/>
     <use transform="translate(1618.982422 0.78125)" xlink:href="#DejaVuSans-2c"/>
     <use transform="translate(1650.769531 0.78125)" xlink:href="#DejaVuSans-20"/>
     <use transform="translate(1682.556641 0.78125)" xlink:href="#DejaVuSans-394"/>
     <use transform="translate(1750.964844 0.78125)" xlink:href="#DejaVuSans-45"/>
     <use transform="translate(1814.148438 0.78125)" xlink:href="#DejaVuSans-3d"/>
     <use transform="translate(1897.9375 0.78125)" xlink:href="#DejaVuSans-30"/>
     <use transform="translate(1961.560547 0.78125)" xlink:href="#DejaVuSans-2e"/>
     <use transform="translate(1993.347656 0.78125)" xlink:href="#DejaVuSans-30"/>
     <use transform="translate(2056.970703 0.78125)" xlink:href="#DejaVuSans-36"/>
     <use transform="translate(2120.59375 0.78125)" xlink:href="#DejaVuSans-65"/>
     <use transform="translate(2182.117188 0.78125)" xlink:href="#DejaVuSans-56"/>
    </g>
   </g>
  </g>
  <g id="axes_2">
   <g id="patch_2">
    <path clip-path="url(#p55b644f4aa)" d="M 361.152 307.584 
L 361.152 306.5445 
L 361.152 42.5115 
L 361.152 41.472 
L 374.4576 41.472 
L 374.4576 42.5115 
L 374.4576 306.5445 
L 374.4576 307.584 
z
" style="fill:#ffffff;stroke:#ffffff;stroke-linejoin:miter;stroke-width:0.01;"/>
   </g>
   <image height="265.68" id="image5c2e8503f7" transform="scale(1 -1)translate(0 -265.68)" width="12.96" x="361.44" xlink:href="data:image/png;base64,
iVBORw0KGgoAAAANSUhEUgAAABIAAAFxCAYAAAB+2fgXAAAABHNCSVQICAgIfAhkiAAAAeVJREFUeJztncmNw0AQA2ckheYQNv9QLIfQ8ygsCgQ7AEI8+jAs2Puz/94F1LP2ReCsZ18bAWIeZ5XaGRBE7VnbptG+KI101FYyNSiQG2oRITXKNaX9uclOdi2XWjftVE32CZCO2ou5Bj1TcCBr/1zB9ge7Fq0Rg2NM9pvbtG+ua1QgsRYhDy0ISEiNc40BEibbSI0Coj5CBGtkpFbXJiAjNZlrwhuSOv2M1DjXbEdEciBt1JSDDQKKpmZr2rr2j0DBGpXaWEJq3bQzEPIS26r9J+Wzv9Tm8o3aajRXqc3VUXsApKNWjeZq0x4ABVNbm7lrszVigDqP5vIl2+eaT2yfRkL7g+dRcNPqjohkjaCvRVBq0H2U3LQrOJCx9kdTg4B8oxZzzTdqdYHEngjUCAPyUctN9sVRq2sTECW2UKNLd2jVtRmo1A6AhMmWaSRcR8nUdIHUuVb75zJS218EyEitro1At69pIdeSk30Lkw0FktNImGyZRhy1O5galmxd03LUsHWk06jUZiCq+5Wb1kZNN4+wJxJuWt8RAW5am2sYNZ9rYCBzZ3buPKJ2P5Yj4Toy3keyIyJbIxs1rml1byCA84gpch5RQNB7Q0qNMGq2Hy4BXdNR41yz/cEEJfZzUz96r9PoB0okjeQ8y9TkAAAAAElFTkSuQmCC" y="-41.76"/>
   <g id="matplotlib.axis_1"/>
   <g id="matplotlib.axis_2">
    <g id="ytick_1">
     <g id="line2d_1">
      <defs>
       <path d="M 0 0 
L 3.5 0 
" id="m2e7b7c54ad" style="stroke:#000000;stroke-width:0.8;"/>
      </defs>
      <g>
       <use style="stroke:#000000;stroke-width:0.8;" x="374.4576" xlink:href="#m2e7b7c54ad" y="306.927294"/>
      </g>
     </g>
     <g id="text_2">
      <!-- −8.75 -->
      <defs>
       <path d="M 10.59375 35.5 
L 73.1875 35.5 
L 73.1875 27.203125 
L 10.59375 27.203125 
z
" id="DejaVuSans-2212"/>
       <path d="M 10.796875 72.90625 
L 49.515625 72.90625 
L 49.515625 64.59375 
L 19.828125 64.59375 
L 19.828125 46.734375 
Q 21.96875 47.46875 24.109375 47.828125 
Q 26.265625 48.1875 28.421875 48.1875 
Q 40.625 48.1875 47.75 41.5 
Q 54.890625 34.8125 54.890625 23.390625 
Q 54.890625 11.625 47.5625 5.09375 
Q 40.234375 -1.421875 26.90625 -1.421875 
Q 22.3125 -1.421875 17.546875 -0.640625 
Q 12.796875 0.140625 7.71875 1.703125 
L 7.71875 11.625 
Q 12.109375 9.234375 16.796875 8.0625 
Q 21.484375 6.890625 26.703125 6.890625 
Q 35.15625 6.890625 40.078125 11.328125 
Q 45.015625 15.765625 45.015625 23.390625 
Q 45.015625 31 40.078125 35.4375 
Q 35.15625 39.890625 26.703125 39.890625 
Q 22.75 39.890625 18.8125 39.015625 
Q 14.890625 38.140625 10.796875 36.28125 
z
" id="DejaVuSans-35"/>
      </defs>
      <g transform="translate(381.4576 310.726513)scale(0.1 -0.1)">
       <use xlink:href="#DejaVuSans-2212"/>
       <use x="83.789062" xlink:href="#DejaVuSans-38"/>
       <use x="147.412109" xlink:href="#DejaVuSans-2e"/>
       <use x="179.199219" xlink:href="#DejaVuSans-37"/>
       <use x="242.822266" xlink:href="#DejaVuSans-35"/>
      </g>
     </g>
    </g>
    <g id="ytick_2">
     <g id="line2d_2">
      <g>
       <use style="stroke:#000000;stroke-width:0.8;" x="374.4576" xlink:href="#m2e7b7c54ad" y="272.219336"/>
      </g>
     </g>
     <g id="text_3">
      <!-- −8.50 -->
      <g transform="translate(381.4576 276.018555)scale(0.1 -0.1)">
       <use xlink:href="#DejaVuSans-2212"/>
       <use x="83.789062" xlink:href="#DejaVuSans-38"/>
       <use x="147.412109" xlink:href="#DejaVuSans-2e"/>
       <use x="179.199219" xlink:href="#DejaVuSans-35"/>
       <use x="242.822266" xlink:href="#DejaVuSans-30"/>
      </g>
     </g>
    </g>
    <g id="ytick_3">
     <g id="line2d_3">
      <g>
       <use style="stroke:#000000;stroke-width:0.8;" x="374.4576" xlink:href="#m2e7b7c54ad" y="237.511378"/>
      </g>
     </g>
     <g id="text_4">
      <!-- −8.25 -->
      <g transform="translate(381.4576 241.310596)scale(0.1 -0.1)">
       <use xlink:href="#DejaVuSans-2212"/>
       <use x="83.789062" xlink:href="#DejaVuSans-38"/>
       <use x="147.412109" xlink:href="#DejaVuSans-2e"/>
       <use x="179.199219" xlink:href="#DejaVuSans-32"/>
       <use x="242.822266" xlink:href="#DejaVuSans-35"/>
      </g>
     </g>
    </g>
    <g id="ytick_4">
     <g id="line2d_4">
      <g>
       <use style="stroke:#000000;stroke-width:0.8;" x="374.4576" xlink:href="#m2e7b7c54ad" y="202.803419"/>
      </g>
     </g>
     <g id="text_5">
      <!-- −8.00 -->
      <g transform="translate(381.4576 206.602638)scale(0.1 -0.1)">
       <use xlink:href="#DejaVuSans-2212"/>
       <use x="83.789062" xlink:href="#DejaVuSans-38"/>
       <use x="147.412109" xlink:href="#DejaVuSans-2e"/>
       <use x="179.199219" xlink:href="#DejaVuSans-30"/>
       <use x="242.822266" xlink:href="#DejaVuSans-30"/>
      </g>
     </g>
    </g>
    <g id="ytick_5">
     <g id="line2d_5">
      <g>
       <use style="stroke:#000000;stroke-width:0.8;" x="374.4576" xlink:href="#m2e7b7c54ad" y="168.095461"/>
      </g>
     </g>
     <g id="text_6">
      <!-- −7.75 -->
      <g transform="translate(381.4576 171.89468)scale(0.1 -0.1)">
       <use xlink:href="#DejaVuSans-2212"/>
       <use x="83.789062" xlink:href="#DejaVuSans-37"/>
       <use x="147.412109" xlink:href="#DejaVuSans-2e"/>
       <use x="179.199219" xlink:href="#DejaVuSans-37"/>
       <use x="242.822266" xlink:href="#DejaVuSans-35"/>
      </g>
     </g>
    </g>
    <g id="ytick_6">
     <g id="line2d_6">
      <g>
       <use style="stroke:#000000;stroke-width:0.8;" x="374.4576" xlink:href="#m2e7b7c54ad" y="133.387503"/>
      </g>
     </g>
     <g id="text_7">
      <!-- −7.50 -->
      <g transform="translate(381.4576 137.186722)scale(0.1 -0.1)">
       <use xlink:href="#DejaVuSans-2212"/>
       <use x="83.789062" xlink:href="#DejaVuSans-37"/>
       <use x="147.412109" xlink:href="#DejaVuSans-2e"/>
       <use x="179.199219" xlink:href="#DejaVuSans-35"/>
       <use x="242.822266" xlink:href="#DejaVuSans-30"/>
      </g>
     </g>
    </g>
    <g id="ytick_7">
     <g id="line2d_7">
      <g>
       <use style="stroke:#000000;stroke-width:0.8;" x="374.4576" xlink:href="#m2e7b7c54ad" y="98.679545"/>
      </g>
     </g>
     <g id="text_8">
      <!-- −7.25 -->
      <g transform="translate(381.4576 102.478763)scale(0.1 -0.1)">
       <use xlink:href="#DejaVuSans-2212"/>
       <use x="83.789062" xlink:href="#DejaVuSans-37"/>
       <use x="147.412109" xlink:href="#DejaVuSans-2e"/>
       <use x="179.199219" xlink:href="#DejaVuSans-32"/>
       <use x="242.822266" xlink:href="#DejaVuSans-35"/>
      </g>
     </g>
    </g>
    <g id="ytick_8">
     <g id="line2d_8">
      <g>
       <use style="stroke:#000000;stroke-width:0.8;" x="374.4576" xlink:href="#m2e7b7c54ad" y="63.971586"/>
      </g>
     </g>
     <g id="text_9">
      <!-- −7.00 -->
      <g transform="translate(381.4576 67.770805)scale(0.1 -0.1)">
       <use xlink:href="#DejaVuSans-2212"/>
       <use x="83.789062" xlink:href="#DejaVuSans-37"/>
       <use x="147.412109" xlink:href="#DejaVuSans-2e"/>
       <use x="179.199219" xlink:href="#DejaVuSans-30"/>
       <use x="242.822266" xlink:href="#DejaVuSans-30"/>
      </g>
     </g>
    </g>
    <g id="text_10">
     <!-- Energy [eV] -->
     <defs>
      <path d="M 54.890625 33.015625 
L 54.890625 0 
L 45.90625 0 
L 45.90625 32.71875 
Q 45.90625 40.484375 42.875 44.328125 
Q 39.84375 48.1875 33.796875 48.1875 
Q 26.515625 48.1875 22.3125 43.546875 
Q 18.109375 38.921875 18.109375 30.90625 
L 18.109375 0 
L 9.078125 0 
L 9.078125 54.6875 
L 18.109375 54.6875 
L 18.109375 46.1875 
Q 21.34375 51.125 25.703125 53.5625 
Q 30.078125 56 35.796875 56 
Q 45.21875 56 50.046875 50.171875 
Q 54.890625 44.34375 54.890625 33.015625 
z
" id="DejaVuSans-6e"/>
      <path d="M 45.40625 27.984375 
Q 45.40625 37.75 41.375 43.109375 
Q 37.359375 48.484375 30.078125 48.484375 
Q 22.859375 48.484375 18.828125 43.109375 
Q 14.796875 37.75 14.796875 27.984375 
Q 14.796875 18.265625 18.828125 12.890625 
Q 22.859375 7.515625 30.078125 7.515625 
Q 37.359375 7.515625 41.375 12.890625 
Q 45.40625 18.265625 45.40625 27.984375 
z
M 54.390625 6.78125 
Q 54.390625 -7.171875 48.1875 -13.984375 
Q 42 -20.796875 29.203125 -20.796875 
Q 24.46875 -20.796875 20.265625 -20.09375 
Q 16.0625 -19.390625 12.109375 -17.921875 
L 12.109375 -9.1875 
Q 16.0625 -11.328125 19.921875 -12.34375 
Q 23.78125 -13.375 27.78125 -13.375 
Q 36.625 -13.375 41.015625 -8.765625 
Q 45.40625 -4.15625 45.40625 5.171875 
L 45.40625 9.625 
Q 42.625 4.78125 38.28125 2.390625 
Q 33.9375 0 27.875 0 
Q 17.828125 0 11.671875 7.65625 
Q 5.515625 15.328125 5.515625 27.984375 
Q 5.515625 40.671875 11.671875 48.328125 
Q 17.828125 56 27.875 56 
Q 33.9375 56 38.28125 53.609375 
Q 42.625 51.21875 45.40625 46.390625 
L 45.40625 54.6875 
L 54.390625 54.6875 
z
" id="DejaVuSans-67"/>
      <path d="M 32.171875 -5.078125 
Q 28.375 -14.84375 24.75 -17.8125 
Q 21.140625 -20.796875 15.09375 -20.796875 
L 7.90625 -20.796875 
L 7.90625 -13.28125 
L 13.1875 -13.28125 
Q 16.890625 -13.28125 18.9375 -11.515625 
Q 21 -9.765625 23.484375 -3.21875 
L 25.09375 0.875 
L 2.984375 54.6875 
L 12.5 54.6875 
L 29.59375 11.921875 
L 46.6875 54.6875 
L 56.203125 54.6875 
z
" id="DejaVuSans-79"/>
      <path d="M 8.59375 75.984375 
L 29.296875 75.984375 
L 29.296875 69 
L 17.578125 69 
L 17.578125 -6.203125 
L 29.296875 -6.203125 
L 29.296875 -13.1875 
L 8.59375 -13.1875 
z
" id="DejaVuSans-5b"/>
      <path d="M 30.421875 75.984375 
L 30.421875 -13.1875 
L 9.71875 -13.1875 
L 9.71875 -6.203125 
L 21.390625 -6.203125 
L 21.390625 69 
L 9.71875 69 
L 9.71875 75.984375 
z
" id="DejaVuSans-5d"/>
     </defs>
     <g transform="translate(423.70135 204.108469)rotate(-90)scale(0.1 -0.1)">
      <use xlink:href="#DejaVuSans-45"/>
      <use x="63.183594" xlink:href="#DejaVuSans-6e"/>
      <use x="126.5625" xlink:href="#DejaVuSans-65"/>
      <use x="188.085938" xlink:href="#DejaVuSans-72"/>
      <use x="229.183594" xlink:href="#DejaVuSans-67"/>
      <use x="292.660156" xlink:href="#DejaVuSans-79"/>
      <use x="351.839844" xlink:href="#DejaVuSans-20"/>
      <use x="383.626953" xlink:href="#DejaVuSans-5b"/>
      <use x="422.640625" xlink:href="#DejaVuSans-65"/>
      <use x="484.164062" xlink:href="#DejaVuSans-56"/>
      <use x="552.572266" xlink:href="#DejaVuSans-5d"/>
     </g>
    </g>
   </g>
   <g id="patch_3">
    <path d="M 361.152 307.584 
L 361.152 306.5445 
L 361.152 42.5115 
L 361.152 41.472 
L 374.4576 41.472 
L 374.4576 42.5115 
L 374.4576 306.5445 
L 374.4576 307.584 
z
" style="fill:none;stroke:#000000;stroke-linejoin:miter;stroke-width:0.8;"/>
   </g>
  </g>
 </g>
 <defs>
  <clipPath id="p2d3551f94d">
   <rect height="266.112" width="285.696" x="57.6" y="41.472"/>
  </clipPath>
  <clipPath id="p55b644f4aa">
   <rect height="266.112" width="13.3056" x="361.152" y="41.472"/>
  </clipPath>
 </defs>
</svg>
