<?xml version="1.0" encoding="utf-8" standalone="no"?>
<!DOCTYPE svg PUBLIC "-//W3C//DTD SVG 1.1//EN"
  "http://www.w3.org/Graphics/SVG/1.1/DTD/svg11.dtd">
<!-- Created with matplotlib (http://matplotlib.org/) -->
<svg height="345.6pt" version="1.1" viewBox="0 0 460.8 345.6" width="460.8pt" xmlns="http://www.w3.org/2000/svg" xmlns:xlink="http://www.w3.org/1999/xlink">
 <defs>
  <style type="text/css">
*{stroke-linecap:butt;stroke-linejoin:round;}
  </style>
 </defs>
 <g id="figure_1">
  <g id="patch_1">
   <path d="M 0 345.6 
L 460.8 345.6 
L 460.8 0 
L 0 0 
z
" style="fill:#ffffff;"/>
  </g>
  <g id="axes_1">
   <g id="CircleCollection_1">
    <path clip-path="url(#pae1c1021b4)" d="M 107.091466 232.510864 
C 108.863736 232.510864 110.563656 231.806734 111.81684 230.55355 
C 113.070024 229.300366 113.774154 227.600446 113.774154 225.828176 
C 113.774154 224.055906 113.070024 222.355986 111.81684 221.102802 
C 110.563656 219.849618 108.863736 219.145488 107.091466 219.145488 
C 105.319196 219.145488 103.619276 219.849618 102.366092 221.102802 
C 101.112908 222.355986 100.408778 224.055906 100.408778 225.828176 
C 100.408778 227.600446 101.112908 229.300366 102.366092 230.55355 
C 103.619276 231.806734 105.319196 232.510864 107.091466 232.510864 
z
" style="fill:#440256;"/>
    <path clip-path="url(#pae1c1021b4)" d="M 72.475952 157.937266 
C 74.270478 157.937266 75.991747 157.224293 77.260669 155.955371 
C 78.529591 154.68645 79.242564 152.965181 79.242564 151.170654 
C 79.242564 149.376128 78.529591 147.654859 77.260669 146.385937 
C 75.991747 145.117015 74.270478 144.404042 72.475952 144.404042 
C 70.681425 144.404042 68.960156 145.117015 67.691234 146.385937 
C 66.422313 147.654859 65.70934 149.376128 65.70934 151.170654 
C 65.70934 152.965181 66.422313 154.68645 67.691234 155.955371 
C 68.960156 157.224293 70.681425 157.937266 72.475952 157.937266 
z
" style="fill:#22a884;"/>
    <path clip-path="url(#pae1c1021b4)" d="M 194.574622 132.924603 
C 196.355373 132.924603 198.063429 132.217103 199.32261 130.957922 
C 200.581791 129.698741 201.289291 127.990685 201.289291 126.209934 
C 201.289291 124.429183 200.581791 122.721127 199.32261 121.461946 
C 198.063429 120.202765 196.355373 119.495265 194.574622 119.495265 
C 192.793871 119.495265 191.085815 120.202765 189.826634 121.461946 
C 188.567453 122.721127 187.859953 124.429183 187.859953 126.209934 
C 187.859953 127.990685 188.567453 129.698741 189.826634 130.957922 
C 191.085815 132.217103 192.793871 132.924603 194.574622 132.924603 
z
" style="fill:#440154;"/>
    <path clip-path="url(#pae1c1021b4)" d="M 110.399674 128.576261 
C 112.194976 128.576261 113.916988 127.86298 115.186458 126.59351 
C 116.455927 125.32404 117.169208 123.602028 117.169208 121.806727 
C 117.169208 120.011425 116.455927 118.289413 115.186458 117.019943 
C 113.916988 115.750474 112.194976 115.037193 110.399674 115.037193 
C 108.604373 115.037193 106.882361 115.750474 105.612891 117.019943 
C 104.343421 118.289413 103.63014 120.011425 103.63014 121.806727 
C 103.63014 123.602028 104.343421 125.32404 105.612891 126.59351 
C 106.882361 127.86298 108.604373 128.576261 110.399674 128.576261 
z
" style="fill:#450457;"/>
    <path clip-path="url(#pae1c1021b4)" d="M 329.854792 102.244028 
C 331.63016 102.244028 333.333053 101.538667 334.588428 100.283292 
C 335.843803 99.027916 336.549165 97.325023 336.549165 95.549655 
C 336.549165 93.774286 335.843803 92.071393 334.588428 90.816018 
C 333.333053 89.560643 331.63016 88.855282 329.854792 88.855282 
C 328.079423 88.855282 326.37653 89.560643 325.121155 90.816018 
C 323.86578 92.071393 323.160419 93.774286 323.160419 95.549655 
C 323.160419 97.325023 323.86578 99.027916 325.121155 100.283292 
C 326.37653 101.538667 328.079423 102.244028 329.854792 102.244028 
z
" style="fill:#1f968b;"/>
    <path clip-path="url(#pae1c1021b4)" d="M 291.276213 79.007064 
C 293.059395 79.007064 294.769783 78.298598 296.030683 77.037698 
C 297.291583 75.776798 298.000049 74.06641 298.000049 72.283228 
C 298.000049 70.500046 297.291583 68.789658 296.030683 67.528758 
C 294.769783 66.267858 293.059395 65.559392 291.276213 65.559392 
C 289.493031 65.559392 287.782643 66.267858 286.521743 67.528758 
C 285.260843 68.789658 284.552377 70.500046 284.552377 72.283228 
C 284.552377 74.06641 285.260843 75.776798 286.521743 77.037698 
C 287.782643 78.298598 289.493031 79.007064 291.276213 79.007064 
z
" style="fill:#2a768e;"/>
    <path clip-path="url(#pae1c1021b4)" d="M 159.601038 61.010873 
C 161.404985 61.010873 163.13529 60.294157 164.410873 59.018574 
C 165.686457 57.74299 166.403173 56.012685 166.403173 54.208738 
C 166.403173 52.40479 165.686457 50.674485 164.410873 49.398902 
C 163.13529 48.123318 161.404985 47.406603 159.601038 47.406603 
C 157.79709 47.406603 156.066785 48.123318 154.791202 49.398902 
C 153.515618 50.674485 152.798902 52.40479 152.798902 54.208738 
C 152.798902 56.012685 153.515618 57.74299 154.791202 59.018574 
C 156.066785 60.294157 157.79709 61.010873 159.601038 61.010873 
z
" style="fill:#25ab82;"/>
    <path clip-path="url(#pae1c1021b4)" d="M 248.296656 73.839203 
C 250.084986 73.839203 251.800312 73.128692 253.064852 71.864151 
C 254.329392 70.599611 255.039903 68.884286 255.039903 67.095956 
C 255.039903 65.307626 254.329392 63.5923 253.064852 62.32776 
C 251.800312 61.063219 250.084986 60.352708 248.296656 60.352708 
C 246.508326 60.352708 244.793001 61.063219 243.52846 62.32776 
C 242.26392 63.5923 241.553409 65.307626 241.553409 67.095956 
C 241.553409 68.884286 242.26392 70.599611 243.52846 71.864151 
C 244.793001 73.128692 246.508326 73.839203 248.296656 73.839203 
z
" style="fill:#2db27d;"/>
    <path clip-path="url(#pae1c1021b4)" d="M 241.148668 297.793251 
C 242.894188 297.793251 244.568451 297.099749 245.802719 295.86548 
C 247.036988 294.631211 247.730491 292.956948 247.730491 291.211429 
C 247.730491 289.465909 247.036988 287.791646 245.802719 286.557377 
C 244.568451 285.323108 242.894188 284.629606 241.148668 284.629606 
C 239.403148 284.629606 237.728885 285.323108 236.494616 286.557377 
C 235.260348 287.791646 234.566845 289.465909 234.566845 291.211429 
C 234.566845 292.956948 235.260348 294.631211 236.494616 295.86548 
C 237.728885 297.099749 239.403148 297.793251 241.148668 297.793251 
z
" style="fill:#26ad81;"/>
    <path clip-path="url(#pae1c1021b4)" d="M 312.090337 188.956621 
C 313.848724 188.956621 315.535328 188.258007 316.778694 187.01464 
C 318.022061 185.771273 318.720675 184.084669 318.720675 182.326283 
C 318.720675 180.567897 318.022061 178.881293 316.778694 177.637926 
C 315.535328 176.394559 313.848724 175.695945 312.090337 175.695945 
C 310.331951 175.695945 308.645347 176.394559 307.40198 177.637926 
C 306.158614 178.881293 305.459999 180.567897 305.459999 182.326283 
C 305.459999 184.084669 306.158614 185.771273 307.40198 187.01464 
C 308.645347 188.258007 310.331951 188.956621 312.090337 188.956621 
z
" style="fill:#2cb17e;"/>
    <path clip-path="url(#pae1c1021b4)" d="M 202.032469 82.810324 
C 203.824492 82.810324 205.54336 82.098345 206.810511 80.831194 
C 208.077663 79.564042 208.789642 77.845174 208.789642 76.053151 
C 208.789642 74.261128 208.077663 72.54226 206.810511 71.275108 
C 205.54336 70.007956 203.824492 69.295978 202.032469 69.295978 
C 200.240445 69.295978 198.521577 70.007956 197.254426 71.275108 
C 195.987274 72.54226 195.275296 74.261128 195.275296 76.053151 
C 195.275296 77.845174 195.987274 79.564042 197.254426 80.831194 
C 198.521577 82.098345 200.240445 82.810324 202.032469 82.810324 
z
" style="fill:#46075a;"/>
    <path clip-path="url(#pae1c1021b4)" d="M 71.043546 201.552039 
C 72.828034 201.552039 74.539675 200.843054 75.801499 199.58123 
C 77.063323 198.319407 77.772308 196.607766 77.772308 194.823277 
C 77.772308 193.038789 77.063323 191.327148 75.801499 190.065324 
C 74.539675 188.803501 72.828034 188.094516 71.043546 188.094516 
C 69.259057 188.094516 67.547417 188.803501 66.285593 190.065324 
C 65.023769 191.327148 64.314784 193.038789 64.314784 194.823277 
C 64.314784 196.607766 65.023769 198.319407 66.285593 199.58123 
C 67.547417 200.843054 69.259057 201.552039 71.043546 201.552039 
z
" style="fill:#22a785;"/>
    <path clip-path="url(#pae1c1021b4)" d="M 234.00786 157.952523 
C 235.777546 157.952523 237.474989 157.249419 238.726346 155.998062 
C 239.977703 154.746705 240.680806 153.049263 240.680806 151.279577 
C 240.680806 149.509891 239.977703 147.812449 238.726346 146.561092 
C 237.474989 145.309735 235.777546 144.606631 234.00786 144.606631 
C 232.238174 144.606631 230.540732 145.309735 229.289375 146.561092 
C 228.038018 147.812449 227.334914 149.509891 227.334914 151.279577 
C 227.334914 153.049263 228.038018 154.746705 229.289375 155.998062 
C 230.540732 157.249419 232.238174 157.952523 234.00786 157.952523 
z
" style="fill:#fde725;"/>
    <path clip-path="url(#pae1c1021b4)" d="M 151.56206 156.682519 
C 153.344067 156.682519 155.053328 155.97452 156.313397 154.714451 
C 157.573466 153.454381 158.281465 151.745121 158.281465 149.963114 
C 158.281465 148.181106 157.573466 146.471846 156.313397 145.211776 
C 155.053328 143.951707 153.344067 143.243708 151.56206 143.243708 
C 149.780053 143.243708 148.070792 143.951707 146.810723 145.211776 
C 145.550653 146.471846 144.842655 148.181106 144.842655 149.963114 
C 144.842655 151.745121 145.550653 153.454381 146.810723 154.714451 
C 148.070792 155.97452 149.780053 156.682519 151.56206 156.682519 
z
" style="fill:#472c7a;"/>
    <path clip-path="url(#pae1c1021b4)" d="M 121.599924 80.92355 
C 123.405185 80.92355 125.136749 80.206312 126.413261 78.9298 
C 127.689773 77.653289 128.40701 75.921724 128.40701 74.116464 
C 128.40701 72.311203 127.689773 70.579639 126.413261 69.303127 
C 125.136749 68.026615 123.405185 67.309377 121.599924 67.309377 
C 119.794664 67.309377 118.063099 68.026615 116.786587 69.303127 
C 115.510076 70.579639 114.792838 72.311203 114.792838 74.116464 
C 114.792838 75.921724 115.510076 77.653289 116.786587 78.9298 
C 118.063099 80.206312 119.794664 80.92355 121.599924 80.92355 
z
" style="fill:#26ad81;"/>
    <path clip-path="url(#pae1c1021b4)" d="M 193.173107 231.830419 
C 194.934282 231.830419 196.62356 231.130697 197.868899 229.885358 
C 199.114237 228.64002 199.81396 226.950741 199.81396 225.189567 
C 199.81396 223.428392 199.114237 221.739113 197.868899 220.493775 
C 196.62356 219.248436 194.934282 218.548714 193.173107 218.548714 
C 191.411933 218.548714 189.722654 219.248436 188.477316 220.493775 
C 187.231977 221.739113 186.532255 223.428392 186.532255 225.189567 
C 186.532255 226.950741 187.231977 228.64002 188.477316 229.885358 
C 189.722654 231.130697 191.411933 231.830419 193.173107 231.830419 
z
" style="fill:#472d7b;"/>
    <path clip-path="url(#pae1c1021b4)" d="M 235.066025 205.877938 
C 236.827162 205.877938 238.516405 205.178231 239.761717 203.932919 
C 241.007029 202.687607 241.706736 200.998364 241.706736 199.237227 
C 241.706736 197.47609 241.007029 195.786847 239.761717 194.541535 
C 238.516405 193.296223 236.827162 192.596516 235.066025 192.596516 
C 233.304888 192.596516 231.615645 193.296223 230.370333 194.541535 
C 229.125021 195.786847 228.425314 197.47609 228.425314 199.237227 
C 228.425314 200.998364 229.125021 202.687607 230.370333 203.932919 
C 231.615645 205.178231 233.304888 205.877938 235.066025 205.877938 
z
" style="fill:#440256;"/>
    <path clip-path="url(#pae1c1021b4)" d="M 151.183096 206.668858 
C 152.9544 206.668858 154.653395 205.965111 155.905896 204.71261 
C 157.158398 203.460108 157.862144 201.761113 157.862144 199.989809 
C 157.862144 198.218505 157.158398 196.51951 155.905896 195.267009 
C 154.653395 194.014507 152.9544 193.31076 151.183096 193.31076 
C 149.411791 193.31076 147.712797 194.014507 146.460295 195.267009 
C 145.207794 196.51951 144.504047 198.218505 144.504047 199.989809 
C 144.504047 201.761113 145.207794 203.460108 146.460295 204.71261 
C 147.712797 205.965111 149.411791 206.668858 151.183096 206.668858 
z
" style="fill:#433d84;"/>
    <path clip-path="url(#pae1c1021b4)" d="M 280.757904 225.236176 
C 282.512178 225.236176 284.194838 224.539196 285.435297 223.298737 
C 286.675756 222.058278 287.372736 220.375618 287.372736 218.621344 
C 287.372736 216.86707 286.675756 215.18441 285.435297 213.943951 
C 284.194838 212.703492 282.512178 212.006512 280.757904 212.006512 
C 279.00363 212.006512 277.32097 212.703492 276.080511 213.943951 
C 274.840052 215.18441 274.143072 216.86707 274.143072 218.621344 
C 274.143072 220.375618 274.840052 222.058278 276.080511 223.298737 
C 277.32097 224.539196 279.00363 225.236176 280.757904 225.236176 
z
" style="fill:#450559;"/>
    <path clip-path="url(#pae1c1021b4)" d="M 195.66194 282.960375 
C 197.414039 282.960375 199.094612 282.264259 200.333532 281.025338 
C 201.572453 279.786417 202.268569 278.105844 202.268569 276.353746 
C 202.268569 274.601648 201.572453 272.921075 200.333532 271.682154 
C 199.094612 270.443233 197.414039 269.747117 195.66194 269.747117 
C 193.909842 269.747117 192.229269 270.443233 190.990348 271.682154 
C 189.751428 272.921075 189.055312 274.601648 189.055312 276.353746 
C 189.055312 278.105844 189.751428 279.786417 190.990348 281.025338 
C 192.229269 282.264259 193.909842 282.960375 195.66194 282.960375 
z
" style="fill:#450457;"/>
    <path clip-path="url(#pae1c1021b4)" d="M 114.631878 280.406104 
C 116.3939 280.406104 118.083991 279.706045 119.329928 278.460108 
C 120.575865 277.214171 121.275924 275.52408 121.275924 273.762059 
C 121.275924 272.000037 120.575865 270.309946 119.329928 269.064009 
C 118.083991 267.818072 116.3939 267.118013 114.631878 267.118013 
C 112.869857 267.118013 111.179766 267.818072 109.933829 269.064009 
C 108.687892 270.309946 107.987833 272.000037 107.987833 273.762059 
C 107.987833 275.52408 108.687892 277.214171 109.933829 278.460108 
C 111.179766 279.706045 112.869857 280.406104 114.631878 280.406104 
z
" style="fill:#22a785;"/>
    <path clip-path="url(#pae1c1021b4)" d="M 151.791052 301.477768 
C 153.54475 301.477768 155.226856 300.781017 156.466908 299.540966 
C 157.706959 298.300914 158.40371 296.618808 158.40371 294.86511 
C 158.40371 293.111413 157.706959 291.429306 156.466908 290.189255 
C 155.226856 288.949204 153.54475 288.252452 151.791052 288.252452 
C 150.037355 288.252452 148.355248 288.949204 147.115197 290.189255 
C 145.875146 291.429306 145.178394 293.111413 145.178394 294.86511 
C 145.178394 296.618808 145.875146 298.300914 147.115197 299.540966 
C 148.355248 300.781017 150.037355 301.477768 151.791052 301.477768 
z
" style="fill:#23a983;"/>
    <path clip-path="url(#pae1c1021b4)" d="M 329.588325 148.222234 
C 331.353451 148.222234 333.04652 147.520942 334.294652 146.272809 
C 335.542784 145.024677 336.244076 143.331608 336.244076 141.566483 
C 336.244076 139.801357 335.542784 138.108289 334.294652 136.860156 
C 333.04652 135.612024 331.353451 134.910732 329.588325 134.910732 
C 327.8232 134.910732 326.130131 135.612024 324.881999 136.860156 
C 323.633866 138.108289 322.932574 139.801357 322.932574 141.566483 
C 322.932574 143.331608 323.633866 145.024677 324.881999 146.272809 
C 326.130131 147.520942 327.8232 148.222234 329.588325 148.222234 
z
" style="fill:#2a768e;"/>
    <path clip-path="url(#pae1c1021b4)" d="M 277.133749 274.248777 
C 278.880009 274.248777 280.554983 273.554981 281.789775 272.320188 
C 283.024568 271.085396 283.718364 269.410423 283.718364 267.664162 
C 283.718364 265.917902 283.024568 264.242929 281.789775 263.008136 
C 280.554983 261.773344 278.880009 261.079547 277.133749 261.079547 
C 275.387489 261.079547 273.712516 261.773344 272.477723 263.008136 
C 271.242931 264.242929 270.549134 265.917902 270.549134 267.664162 
C 270.549134 269.410423 271.242931 271.085396 272.477723 272.320188 
C 273.712516 273.554981 275.387489 274.248777 277.133749 274.248777 
z
" style="fill:#25ab82;"/>
   </g>
   <g id="text_1">
    <!-- Structure #5488, $E_N$=-185.52eV, ΔE=-0.17eV -->
    <defs>
     <path d="M 53.515625 70.515625 
L 53.515625 60.890625 
Q 47.90625 63.578125 42.921875 64.890625 
Q 37.9375 66.21875 33.296875 66.21875 
Q 25.25 66.21875 20.875 63.09375 
Q 16.5 59.96875 16.5 54.203125 
Q 16.5 49.359375 19.40625 46.890625 
Q 22.3125 44.4375 30.421875 42.921875 
L 36.375 41.703125 
Q 47.40625 39.59375 52.65625 34.296875 
Q 57.90625 29 57.90625 20.125 
Q 57.90625 9.515625 50.796875 4.046875 
Q 43.703125 -1.421875 29.984375 -1.421875 
Q 24.8125 -1.421875 18.96875 -0.25 
Q 13.140625 0.921875 6.890625 3.21875 
L 6.890625 13.375 
Q 12.890625 10.015625 18.65625 8.296875 
Q 24.421875 6.59375 29.984375 6.59375 
Q 38.421875 6.59375 43.015625 9.90625 
Q 47.609375 13.234375 47.609375 19.390625 
Q 47.609375 24.75 44.3125 27.78125 
Q 41.015625 30.8125 33.5 32.328125 
L 27.484375 33.5 
Q 16.453125 35.6875 11.515625 40.375 
Q 6.59375 45.0625 6.59375 53.421875 
Q 6.59375 63.09375 13.40625 68.65625 
Q 20.21875 74.21875 32.171875 74.21875 
Q 37.3125 74.21875 42.625 73.28125 
Q 47.953125 72.359375 53.515625 70.515625 
z
" id="DejaVuSans-53"/>
     <path d="M 18.3125 70.21875 
L 18.3125 54.6875 
L 36.8125 54.6875 
L 36.8125 47.703125 
L 18.3125 47.703125 
L 18.3125 18.015625 
Q 18.3125 11.328125 20.140625 9.421875 
Q 21.96875 7.515625 27.59375 7.515625 
L 36.8125 7.515625 
L 36.8125 0 
L 27.59375 0 
Q 17.1875 0 13.234375 3.875 
Q 9.28125 7.765625 9.28125 18.015625 
L 9.28125 47.703125 
L 2.6875 47.703125 
L 2.6875 54.6875 
L 9.28125 54.6875 
L 9.28125 70.21875 
z
" id="DejaVuSans-74"/>
     <path d="M 41.109375 46.296875 
Q 39.59375 47.171875 37.8125 47.578125 
Q 36.03125 48 33.890625 48 
Q 26.265625 48 22.1875 43.046875 
Q 18.109375 38.09375 18.109375 28.8125 
L 18.109375 0 
L 9.078125 0 
L 9.078125 54.6875 
L 18.109375 54.6875 
L 18.109375 46.1875 
Q 20.953125 51.171875 25.484375 53.578125 
Q 30.03125 56 36.53125 56 
Q 37.453125 56 38.578125 55.875 
Q 39.703125 55.765625 41.0625 55.515625 
z
" id="DejaVuSans-72"/>
     <path d="M 8.5 21.578125 
L 8.5 54.6875 
L 17.484375 54.6875 
L 17.484375 21.921875 
Q 17.484375 14.15625 20.5 10.265625 
Q 23.53125 6.390625 29.59375 6.390625 
Q 36.859375 6.390625 41.078125 11.03125 
Q 45.3125 15.671875 45.3125 23.6875 
L 45.3125 54.6875 
L 54.296875 54.6875 
L 54.296875 0 
L 45.3125 0 
L 45.3125 8.40625 
Q 42.046875 3.421875 37.71875 1 
Q 33.40625 -1.421875 27.6875 -1.421875 
Q 18.265625 -1.421875 13.375 4.4375 
Q 8.5 10.296875 8.5 21.578125 
z
M 31.109375 56 
z
" id="DejaVuSans-75"/>
     <path d="M 48.78125 52.59375 
L 48.78125 44.1875 
Q 44.96875 46.296875 41.140625 47.34375 
Q 37.3125 48.390625 33.40625 48.390625 
Q 24.65625 48.390625 19.8125 42.84375 
Q 14.984375 37.3125 14.984375 27.296875 
Q 14.984375 17.28125 19.8125 11.734375 
Q 24.65625 6.203125 33.40625 6.203125 
Q 37.3125 6.203125 41.140625 7.25 
Q 44.96875 8.296875 48.78125 10.40625 
L 48.78125 2.09375 
Q 45.015625 0.34375 40.984375 -0.53125 
Q 36.96875 -1.421875 32.421875 -1.421875 
Q 20.0625 -1.421875 12.78125 6.34375 
Q 5.515625 14.109375 5.515625 27.296875 
Q 5.515625 40.671875 12.859375 48.328125 
Q 20.21875 56 33.015625 56 
Q 37.15625 56 41.109375 55.140625 
Q 45.0625 54.296875 48.78125 52.59375 
z
" id="DejaVuSans-63"/>
     <path d="M 56.203125 29.59375 
L 56.203125 25.203125 
L 14.890625 25.203125 
Q 15.484375 15.921875 20.484375 11.0625 
Q 25.484375 6.203125 34.421875 6.203125 
Q 39.59375 6.203125 44.453125 7.46875 
Q 49.3125 8.734375 54.109375 11.28125 
L 54.109375 2.78125 
Q 49.265625 0.734375 44.1875 -0.34375 
Q 39.109375 -1.421875 33.890625 -1.421875 
Q 20.796875 -1.421875 13.15625 6.1875 
Q 5.515625 13.8125 5.515625 26.8125 
Q 5.515625 40.234375 12.765625 48.109375 
Q 20.015625 56 32.328125 56 
Q 43.359375 56 49.78125 48.890625 
Q 56.203125 41.796875 56.203125 29.59375 
z
M 47.21875 32.234375 
Q 47.125 39.59375 43.09375 43.984375 
Q 39.0625 48.390625 32.421875 48.390625 
Q 24.90625 48.390625 20.390625 44.140625 
Q 15.875 39.890625 15.1875 32.171875 
z
" id="DejaVuSans-65"/>
     <path id="DejaVuSans-20"/>
     <path d="M 51.125 44 
L 36.921875 44 
L 32.8125 27.6875 
L 47.125 27.6875 
z
M 43.796875 71.78125 
L 38.71875 51.515625 
L 52.984375 51.515625 
L 58.109375 71.78125 
L 65.921875 71.78125 
L 60.890625 51.515625 
L 76.125 51.515625 
L 76.125 44 
L 58.984375 44 
L 54.984375 27.6875 
L 70.515625 27.6875 
L 70.515625 20.21875 
L 53.078125 20.21875 
L 48 0 
L 40.1875 0 
L 45.21875 20.21875 
L 30.90625 20.21875 
L 25.875 0 
L 18.015625 0 
L 23.09375 20.21875 
L 7.71875 20.21875 
L 7.71875 27.6875 
L 24.90625 27.6875 
L 29 44 
L 13.28125 44 
L 13.28125 51.515625 
L 30.90625 51.515625 
L 35.890625 71.78125 
z
" id="DejaVuSans-23"/>
     <path d="M 10.796875 72.90625 
L 49.515625 72.90625 
L 49.515625 64.59375 
L 19.828125 64.59375 
L 19.828125 46.734375 
Q 21.96875 47.46875 24.109375 47.828125 
Q 26.265625 48.1875 28.421875 48.1875 
Q 40.625 48.1875 47.75 41.5 
Q 54.890625 34.8125 54.890625 23.390625 
Q 54.890625 11.625 47.5625 5.09375 
Q 40.234375 -1.421875 26.90625 -1.421875 
Q 22.3125 -1.421875 17.546875 -0.640625 
Q 12.796875 0.140625 7.71875 1.703125 
L 7.71875 11.625 
Q 12.109375 9.234375 16.796875 8.0625 
Q 21.484375 6.890625 26.703125 6.890625 
Q 35.15625 6.890625 40.078125 11.328125 
Q 45.015625 15.765625 45.015625 23.390625 
Q 45.015625 31 40.078125 35.4375 
Q 35.15625 39.890625 26.703125 39.890625 
Q 22.75 39.890625 18.8125 39.015625 
Q 14.890625 38.140625 10.796875 36.28125 
z
" id="DejaVuSans-35"/>
     <path d="M 37.796875 64.3125 
L 12.890625 25.390625 
L 37.796875 25.390625 
z
M 35.203125 72.90625 
L 47.609375 72.90625 
L 47.609375 25.390625 
L 58.015625 25.390625 
L 58.015625 17.1875 
L 47.609375 17.1875 
L 47.609375 0 
L 37.796875 0 
L 37.796875 17.1875 
L 4.890625 17.1875 
L 4.890625 26.703125 
z
" id="DejaVuSans-34"/>
     <path d="M 31.78125 34.625 
Q 24.75 34.625 20.71875 30.859375 
Q 16.703125 27.09375 16.703125 20.515625 
Q 16.703125 13.921875 20.71875 10.15625 
Q 24.75 6.390625 31.78125 6.390625 
Q 38.8125 6.390625 42.859375 10.171875 
Q 46.921875 13.96875 46.921875 20.515625 
Q 46.921875 27.09375 42.890625 30.859375 
Q 38.875 34.625 31.78125 34.625 
z
M 21.921875 38.8125 
Q 15.578125 40.375 12.03125 44.71875 
Q 8.5 49.078125 8.5 55.328125 
Q 8.5 64.0625 14.71875 69.140625 
Q 20.953125 74.21875 31.78125 74.21875 
Q 42.671875 74.21875 48.875 69.140625 
Q 55.078125 64.0625 55.078125 55.328125 
Q 55.078125 49.078125 51.53125 44.71875 
Q 48 40.375 41.703125 38.8125 
Q 48.828125 37.15625 52.796875 32.3125 
Q 56.78125 27.484375 56.78125 20.515625 
Q 56.78125 9.90625 50.3125 4.234375 
Q 43.84375 -1.421875 31.78125 -1.421875 
Q 19.734375 -1.421875 13.25 4.234375 
Q 6.78125 9.90625 6.78125 20.515625 
Q 6.78125 27.484375 10.78125 32.3125 
Q 14.796875 37.15625 21.921875 38.8125 
z
M 18.3125 54.390625 
Q 18.3125 48.734375 21.84375 45.5625 
Q 25.390625 42.390625 31.78125 42.390625 
Q 38.140625 42.390625 41.71875 45.5625 
Q 45.3125 48.734375 45.3125 54.390625 
Q 45.3125 60.0625 41.71875 63.234375 
Q 38.140625 66.40625 31.78125 66.40625 
Q 25.390625 66.40625 21.84375 63.234375 
Q 18.3125 60.0625 18.3125 54.390625 
z
" id="DejaVuSans-38"/>
     <path d="M 11.71875 12.40625 
L 22.015625 12.40625 
L 22.015625 4 
L 14.015625 -11.625 
L 7.71875 -11.625 
L 11.71875 4 
z
" id="DejaVuSans-2c"/>
     <path d="M 16.890625 72.90625 
L 62.984375 72.90625 
L 61.375 64.59375 
L 25.09375 64.59375 
L 20.90625 43.015625 
L 55.71875 43.015625 
L 54.109375 34.71875 
L 19.28125 34.71875 
L 14.203125 8.296875 
L 51.3125 8.296875 
L 49.703125 0 
L 2.6875 0 
z
" id="DejaVuSans-Oblique-45"/>
     <path d="M 16.890625 72.90625 
L 30.171875 72.90625 
L 50.296875 10.40625 
L 62.5 72.90625 
L 72.125 72.90625 
L 57.90625 0 
L 44.578125 0 
L 24.515625 62.890625 
L 12.3125 0 
L 2.6875 0 
z
" id="DejaVuSans-Oblique-4e"/>
     <path d="M 10.59375 45.40625 
L 73.1875 45.40625 
L 73.1875 37.203125 
L 10.59375 37.203125 
z
M 10.59375 25.484375 
L 73.1875 25.484375 
L 73.1875 17.1875 
L 10.59375 17.1875 
z
" id="DejaVuSans-3d"/>
     <path d="M 4.890625 31.390625 
L 31.203125 31.390625 
L 31.203125 23.390625 
L 4.890625 23.390625 
z
" id="DejaVuSans-2d"/>
     <path d="M 12.40625 8.296875 
L 28.515625 8.296875 
L 28.515625 63.921875 
L 10.984375 60.40625 
L 10.984375 69.390625 
L 28.421875 72.90625 
L 38.28125 72.90625 
L 38.28125 8.296875 
L 54.390625 8.296875 
L 54.390625 0 
L 12.40625 0 
z
" id="DejaVuSans-31"/>
     <path d="M 10.6875 12.40625 
L 21 12.40625 
L 21 0 
L 10.6875 0 
z
" id="DejaVuSans-2e"/>
     <path d="M 19.1875 8.296875 
L 53.609375 8.296875 
L 53.609375 0 
L 7.328125 0 
L 7.328125 8.296875 
Q 12.9375 14.109375 22.625 23.890625 
Q 32.328125 33.6875 34.8125 36.53125 
Q 39.546875 41.84375 41.421875 45.53125 
Q 43.3125 49.21875 43.3125 52.78125 
Q 43.3125 58.59375 39.234375 62.25 
Q 35.15625 65.921875 28.609375 65.921875 
Q 23.96875 65.921875 18.8125 64.3125 
Q 13.671875 62.703125 7.8125 59.421875 
L 7.8125 69.390625 
Q 13.765625 71.78125 18.9375 73 
Q 24.125 74.21875 28.421875 74.21875 
Q 39.75 74.21875 46.484375 68.546875 
Q 53.21875 62.890625 53.21875 53.421875 
Q 53.21875 48.921875 51.53125 44.890625 
Q 49.859375 40.875 45.40625 35.40625 
Q 44.1875 33.984375 37.640625 27.21875 
Q 31.109375 20.453125 19.1875 8.296875 
z
" id="DejaVuSans-32"/>
     <path d="M 28.609375 0 
L 0.78125 72.90625 
L 11.078125 72.90625 
L 34.1875 11.53125 
L 57.328125 72.90625 
L 67.578125 72.90625 
L 39.796875 0 
z
" id="DejaVuSans-56"/>
     <path d="M 34.1875 63.1875 
L 14.15625 8.203125 
L 54.25 8.203125 
z
M 0.78125 0 
L 28.609375 72.90625 
L 39.796875 72.90625 
L 67.578125 0 
z
" id="DejaVuSans-394"/>
     <path d="M 9.8125 72.90625 
L 55.90625 72.90625 
L 55.90625 64.59375 
L 19.671875 64.59375 
L 19.671875 43.015625 
L 54.390625 43.015625 
L 54.390625 34.71875 
L 19.671875 34.71875 
L 19.671875 8.296875 
L 56.78125 8.296875 
L 56.78125 0 
L 9.8125 0 
z
" id="DejaVuSans-45"/>
     <path d="M 31.78125 66.40625 
Q 24.171875 66.40625 20.328125 58.90625 
Q 16.5 51.421875 16.5 36.375 
Q 16.5 21.390625 20.328125 13.890625 
Q 24.171875 6.390625 31.78125 6.390625 
Q 39.453125 6.390625 43.28125 13.890625 
Q 47.125 21.390625 47.125 36.375 
Q 47.125 51.421875 43.28125 58.90625 
Q 39.453125 66.40625 31.78125 66.40625 
z
M 31.78125 74.21875 
Q 44.046875 74.21875 50.515625 64.515625 
Q 56.984375 54.828125 56.984375 36.375 
Q 56.984375 17.96875 50.515625 8.265625 
Q 44.046875 -1.421875 31.78125 -1.421875 
Q 19.53125 -1.421875 13.0625 8.265625 
Q 6.59375 17.96875 6.59375 36.375 
Q 6.59375 54.828125 13.0625 64.515625 
Q 19.53125 74.21875 31.78125 74.21875 
z
" id="DejaVuSans-30"/>
     <path d="M 8.203125 72.90625 
L 55.078125 72.90625 
L 55.078125 68.703125 
L 28.609375 0 
L 18.3125 0 
L 43.21875 64.59375 
L 8.203125 64.59375 
z
" id="DejaVuSans-37"/>
    </defs>
    <g transform="translate(63.228 35.472)scale(0.12 -0.12)">
     <use transform="translate(0 0.78125)" xlink:href="#DejaVuSans-53"/>
     <use transform="translate(63.476562 0.78125)" xlink:href="#DejaVuSans-74"/>
     <use transform="translate(102.685547 0.78125)" xlink:href="#DejaVuSans-72"/>
     <use transform="translate(143.798828 0.78125)" xlink:href="#DejaVuSans-75"/>
     <use transform="translate(207.177734 0.78125)" xlink:href="#DejaVuSans-63"/>
     <use transform="translate(262.158203 0.78125)" xlink:href="#DejaVuSans-74"/>
     <use transform="translate(301.367188 0.78125)" xlink:href="#DejaVuSans-75"/>
     <use transform="translate(364.746094 0.78125)" xlink:href="#DejaVuSans-72"/>
     <use transform="translate(405.859375 0.78125)" xlink:href="#DejaVuSans-65"/>
     <use transform="translate(467.382812 0.78125)" xlink:href="#DejaVuSans-20"/>
     <use transform="translate(499.169922 0.78125)" xlink:href="#DejaVuSans-23"/>
     <use transform="translate(582.958984 0.78125)" xlink:href="#DejaVuSans-35"/>
     <use transform="translate(646.582031 0.78125)" xlink:href="#DejaVuSans-34"/>
     <use transform="translate(710.205078 0.78125)" xlink:href="#DejaVuSans-38"/>
     <use transform="translate(773.828125 0.78125)" xlink:href="#DejaVuSans-38"/>
     <use transform="translate(837.451172 0.78125)" xlink:href="#DejaVuSans-2c"/>
     <use transform="translate(869.238281 0.78125)" xlink:href="#DejaVuSans-20"/>
     <use transform="translate(901.025391 0.78125)" xlink:href="#DejaVuSans-Oblique-45"/>
     <use transform="translate(964.208984 -15.625)scale(0.7)" xlink:href="#DejaVuSans-Oblique-4e"/>
     <use transform="translate(1019.306641 0.78125)" xlink:href="#DejaVuSans-3d"/>
     <use transform="translate(1103.095703 0.78125)" xlink:href="#DejaVuSans-2d"/>
     <use transform="translate(1139.179688 0.78125)" xlink:href="#DejaVuSans-31"/>
     <use transform="translate(1202.802734 0.78125)" xlink:href="#DejaVuSans-38"/>
     <use transform="translate(1266.425781 0.78125)" xlink:href="#DejaVuSans-35"/>
     <use transform="translate(1330.048828 0.78125)" xlink:href="#DejaVuSans-2e"/>
     <use transform="translate(1361.835938 0.78125)" xlink:href="#DejaVuSans-35"/>
     <use transform="translate(1425.458984 0.78125)" xlink:href="#DejaVuSans-32"/>
     <use transform="translate(1489.082031 0.78125)" xlink:href="#DejaVuSans-65"/>
     <use transform="translate(1550.605469 0.78125)" xlink:href="#DejaVuSans-56"/>
     <use transform="translate(1619.013672 0.78125)" xlink:href="#DejaVuSans-2c"/>
     <use transform="translate(1650.800781 0.78125)" xlink:href="#DejaVuSans-20"/>
     <use transform="translate(1682.587891 0.78125)" xlink:href="#DejaVuSans-394"/>
     <use transform="translate(1750.996094 0.78125)" xlink:href="#DejaVuSans-45"/>
     <use transform="translate(1814.179688 0.78125)" xlink:href="#DejaVuSans-3d"/>
     <use transform="translate(1897.96875 0.78125)" xlink:href="#DejaVuSans-2d"/>
     <use transform="translate(1934.052734 0.78125)" xlink:href="#DejaVuSans-30"/>
     <use transform="translate(1997.675781 0.78125)" xlink:href="#DejaVuSans-2e"/>
     <use transform="translate(2029.462891 0.78125)" xlink:href="#DejaVuSans-31"/>
     <use transform="translate(2093.085938 0.78125)" xlink:href="#DejaVuSans-37"/>
     <use transform="translate(2156.708984 0.78125)" xlink:href="#DejaVuSans-65"/>
     <use transform="translate(2218.232422 0.78125)" xlink:href="#DejaVuSans-56"/>
    </g>
   </g>
  </g>
  <g id="axes_2">
   <g id="patch_2">
    <path clip-path="url(#p0d805ec46b)" d="M 361.152 307.584 
L 361.152 306.5445 
L 361.152 42.5115 
L 361.152 41.472 
L 374.4576 41.472 
L 374.4576 42.5115 
L 374.4576 306.5445 
L 374.4576 307.584 
z
" style="fill:#ffffff;stroke:#ffffff;stroke-linejoin:miter;stroke-width:0.01;"/>
   </g>
   <image height="265.68" id="imagece7d878c7f" transform="scale(1 -1)translate(0 -265.68)" width="12.96" x="361.44" xlink:href="data:image/png;base64,
iVBORw0KGgoAAAANSUhEUgAAABIAAAFxCAYAAAB+2fgXAAAABHNCSVQICAgIfAhkiAAAAeVJREFUeJztncmNw0AQA2ckheYQNv9QLIfQ8ygsCgQ7AEI8+jAs2Puz/94F1LP2ReCsZ18bAWIeZ5XaGRBE7VnbptG+KI101FYyNSiQG2oRITXKNaX9uclOdi2XWjftVE32CZCO2ou5Bj1TcCBr/1zB9ge7Fq0Rg2NM9pvbtG+ua1QgsRYhDy0ISEiNc40BEibbSI0Coj5CBGtkpFbXJiAjNZlrwhuSOv2M1DjXbEdEciBt1JSDDQKKpmZr2rr2j0DBGpXaWEJq3bQzEPIS26r9J+Wzv9Tm8o3aajRXqc3VUXsApKNWjeZq0x4ABVNbm7lrszVigDqP5vIl2+eaT2yfRkL7g+dRcNPqjohkjaCvRVBq0H2U3LQrOJCx9kdTg4B8oxZzzTdqdYHEngjUCAPyUctN9sVRq2sTECW2UKNLd2jVtRmo1A6AhMmWaSRcR8nUdIHUuVb75zJS218EyEitro1At69pIdeSk30Lkw0FktNImGyZRhy1O5galmxd03LUsHWk06jUZiCq+5Wb1kZNN4+wJxJuWt8RAW5am2sYNZ9rYCBzZ3buPKJ2P5Yj4Toy3keyIyJbIxs1rml1byCA84gpch5RQNB7Q0qNMGq2Hy4BXdNR41yz/cEEJfZzUz96r9PoB0okjeQ8y9TkAAAAAElFTkSuQmCC" y="-41.76"/>
   <g id="matplotlib.axis_1"/>
   <g id="matplotlib.axis_2">
    <g id="ytick_1">
     <g id="line2d_1">
      <defs>
       <path d="M 0 0 
L 3.5 0 
" id="mee65f16ff9" style="stroke:#000000;stroke-width:0.8;"/>
      </defs>
      <g>
       <use style="stroke:#000000;stroke-width:0.8;" x="374.4576" xlink:href="#mee65f16ff9" y="278.235316"/>
      </g>
     </g>
     <g id="text_2">
      <!-- −8.5 -->
      <defs>
       <path d="M 10.59375 35.5 
L 73.1875 35.5 
L 73.1875 27.203125 
L 10.59375 27.203125 
z
" id="DejaVuSans-2212"/>
      </defs>
      <g transform="translate(381.4576 282.034534)scale(0.1 -0.1)">
       <use xlink:href="#DejaVuSans-2212"/>
       <use x="83.789062" xlink:href="#DejaVuSans-38"/>
       <use x="147.412109" xlink:href="#DejaVuSans-2e"/>
       <use x="179.199219" xlink:href="#DejaVuSans-35"/>
      </g>
     </g>
    </g>
    <g id="ytick_2">
     <g id="line2d_2">
      <g>
       <use style="stroke:#000000;stroke-width:0.8;" x="374.4576" xlink:href="#mee65f16ff9" y="232.978687"/>
      </g>
     </g>
     <g id="text_3">
      <!-- −8.0 -->
      <g transform="translate(381.4576 236.777906)scale(0.1 -0.1)">
       <use xlink:href="#DejaVuSans-2212"/>
       <use x="83.789062" xlink:href="#DejaVuSans-38"/>
       <use x="147.412109" xlink:href="#DejaVuSans-2e"/>
       <use x="179.199219" xlink:href="#DejaVuSans-30"/>
      </g>
     </g>
    </g>
    <g id="ytick_3">
     <g id="line2d_3">
      <g>
       <use style="stroke:#000000;stroke-width:0.8;" x="374.4576" xlink:href="#mee65f16ff9" y="187.722059"/>
      </g>
     </g>
     <g id="text_4">
      <!-- −7.5 -->
      <g transform="translate(381.4576 191.521278)scale(0.1 -0.1)">
       <use xlink:href="#DejaVuSans-2212"/>
       <use x="83.789062" xlink:href="#DejaVuSans-37"/>
       <use x="147.412109" xlink:href="#DejaVuSans-2e"/>
       <use x="179.199219" xlink:href="#DejaVuSans-35"/>
      </g>
     </g>
    </g>
    <g id="ytick_4">
     <g id="line2d_4">
      <g>
       <use style="stroke:#000000;stroke-width:0.8;" x="374.4576" xlink:href="#mee65f16ff9" y="142.465431"/>
      </g>
     </g>
     <g id="text_5">
      <!-- −7.0 -->
      <g transform="translate(381.4576 146.26465)scale(0.1 -0.1)">
       <use xlink:href="#DejaVuSans-2212"/>
       <use x="83.789062" xlink:href="#DejaVuSans-37"/>
       <use x="147.412109" xlink:href="#DejaVuSans-2e"/>
       <use x="179.199219" xlink:href="#DejaVuSans-30"/>
      </g>
     </g>
    </g>
    <g id="ytick_5">
     <g id="line2d_5">
      <g>
       <use style="stroke:#000000;stroke-width:0.8;" x="374.4576" xlink:href="#mee65f16ff9" y="97.208803"/>
      </g>
     </g>
     <g id="text_6">
      <!-- −6.5 -->
      <defs>
       <path d="M 33.015625 40.375 
Q 26.375 40.375 22.484375 35.828125 
Q 18.609375 31.296875 18.609375 23.390625 
Q 18.609375 15.53125 22.484375 10.953125 
Q 26.375 6.390625 33.015625 6.390625 
Q 39.65625 6.390625 43.53125 10.953125 
Q 47.40625 15.53125 47.40625 23.390625 
Q 47.40625 31.296875 43.53125 35.828125 
Q 39.65625 40.375 33.015625 40.375 
z
M 52.59375 71.296875 
L 52.59375 62.3125 
Q 48.875 64.0625 45.09375 64.984375 
Q 41.3125 65.921875 37.59375 65.921875 
Q 27.828125 65.921875 22.671875 59.328125 
Q 17.53125 52.734375 16.796875 39.40625 
Q 19.671875 43.65625 24.015625 45.921875 
Q 28.375 48.1875 33.59375 48.1875 
Q 44.578125 48.1875 50.953125 41.515625 
Q 57.328125 34.859375 57.328125 23.390625 
Q 57.328125 12.15625 50.6875 5.359375 
Q 44.046875 -1.421875 33.015625 -1.421875 
Q 20.359375 -1.421875 13.671875 8.265625 
Q 6.984375 17.96875 6.984375 36.375 
Q 6.984375 53.65625 15.1875 63.9375 
Q 23.390625 74.21875 37.203125 74.21875 
Q 40.921875 74.21875 44.703125 73.484375 
Q 48.484375 72.75 52.59375 71.296875 
z
" id="DejaVuSans-36"/>
      </defs>
      <g transform="translate(381.4576 101.008022)scale(0.1 -0.1)">
       <use xlink:href="#DejaVuSans-2212"/>
       <use x="83.789062" xlink:href="#DejaVuSans-36"/>
       <use x="147.412109" xlink:href="#DejaVuSans-2e"/>
       <use x="179.199219" xlink:href="#DejaVuSans-35"/>
      </g>
     </g>
    </g>
    <g id="ytick_6">
     <g id="line2d_6">
      <g>
       <use style="stroke:#000000;stroke-width:0.8;" x="374.4576" xlink:href="#mee65f16ff9" y="51.952175"/>
      </g>
     </g>
     <g id="text_7">
      <!-- −6.0 -->
      <g transform="translate(381.4576 55.751393)scale(0.1 -0.1)">
       <use xlink:href="#DejaVuSans-2212"/>
       <use x="83.789062" xlink:href="#DejaVuSans-36"/>
       <use x="147.412109" xlink:href="#DejaVuSans-2e"/>
       <use x="179.199219" xlink:href="#DejaVuSans-30"/>
      </g>
     </g>
    </g>
    <g id="text_8">
     <!-- Energy [eV] -->
     <defs>
      <path d="M 54.890625 33.015625 
L 54.890625 0 
L 45.90625 0 
L 45.90625 32.71875 
Q 45.90625 40.484375 42.875 44.328125 
Q 39.84375 48.1875 33.796875 48.1875 
Q 26.515625 48.1875 22.3125 43.546875 
Q 18.109375 38.921875 18.109375 30.90625 
L 18.109375 0 
L 9.078125 0 
L 9.078125 54.6875 
L 18.109375 54.6875 
L 18.109375 46.1875 
Q 21.34375 51.125 25.703125 53.5625 
Q 30.078125 56 35.796875 56 
Q 45.21875 56 50.046875 50.171875 
Q 54.890625 44.34375 54.890625 33.015625 
z
" id="DejaVuSans-6e"/>
      <path d="M 45.40625 27.984375 
Q 45.40625 37.75 41.375 43.109375 
Q 37.359375 48.484375 30.078125 48.484375 
Q 22.859375 48.484375 18.828125 43.109375 
Q 14.796875 37.75 14.796875 27.984375 
Q 14.796875 18.265625 18.828125 12.890625 
Q 22.859375 7.515625 30.078125 7.515625 
Q 37.359375 7.515625 41.375 12.890625 
Q 45.40625 18.265625 45.40625 27.984375 
z
M 54.390625 6.78125 
Q 54.390625 -7.171875 48.1875 -13.984375 
Q 42 -20.796875 29.203125 -20.796875 
Q 24.46875 -20.796875 20.265625 -20.09375 
Q 16.0625 -19.390625 12.109375 -17.921875 
L 12.109375 -9.1875 
Q 16.0625 -11.328125 19.921875 -12.34375 
Q 23.78125 -13.375 27.78125 -13.375 
Q 36.625 -13.375 41.015625 -8.765625 
Q 45.40625 -4.15625 45.40625 5.171875 
L 45.40625 9.625 
Q 42.625 4.78125 38.28125 2.390625 
Q 33.9375 0 27.875 0 
Q 17.828125 0 11.671875 7.65625 
Q 5.515625 15.328125 5.515625 27.984375 
Q 5.515625 40.671875 11.671875 48.328125 
Q 17.828125 56 27.875 56 
Q 33.9375 56 38.28125 53.609375 
Q 42.625 51.21875 45.40625 46.390625 
L 45.40625 54.6875 
L 54.390625 54.6875 
z
" id="DejaVuSans-67"/>
      <path d="M 32.171875 -5.078125 
Q 28.375 -14.84375 24.75 -17.8125 
Q 21.140625 -20.796875 15.09375 -20.796875 
L 7.90625 -20.796875 
L 7.90625 -13.28125 
L 13.1875 -13.28125 
Q 16.890625 -13.28125 18.9375 -11.515625 
Q 21 -9.765625 23.484375 -3.21875 
L 25.09375 0.875 
L 2.984375 54.6875 
L 12.5 54.6875 
L 29.59375 11.921875 
L 46.6875 54.6875 
L 56.203125 54.6875 
z
" id="DejaVuSans-79"/>
      <path d="M 8.59375 75.984375 
L 29.296875 75.984375 
L 29.296875 69 
L 17.578125 69 
L 17.578125 -6.203125 
L 29.296875 -6.203125 
L 29.296875 -13.1875 
L 8.59375 -13.1875 
z
" id="DejaVuSans-5b"/>
      <path d="M 30.421875 75.984375 
L 30.421875 -13.1875 
L 9.71875 -13.1875 
L 9.71875 -6.203125 
L 21.390625 -6.203125 
L 21.390625 69 
L 9.71875 69 
L 9.71875 75.984375 
z
" id="DejaVuSans-5d"/>
     </defs>
     <g transform="translate(417.33885 204.108469)rotate(-90)scale(0.1 -0.1)">
      <use xlink:href="#DejaVuSans-45"/>
      <use x="63.183594" xlink:href="#DejaVuSans-6e"/>
      <use x="126.5625" xlink:href="#DejaVuSans-65"/>
      <use x="188.085938" xlink:href="#DejaVuSans-72"/>
      <use x="229.183594" xlink:href="#DejaVuSans-67"/>
      <use x="292.660156" xlink:href="#DejaVuSans-79"/>
      <use x="351.839844" xlink:href="#DejaVuSans-20"/>
      <use x="383.626953" xlink:href="#DejaVuSans-5b"/>
      <use x="422.640625" xlink:href="#DejaVuSans-65"/>
      <use x="484.164062" xlink:href="#DejaVuSans-56"/>
      <use x="552.572266" xlink:href="#DejaVuSans-5d"/>
     </g>
    </g>
   </g>
   <g id="patch_3">
    <path d="M 361.152 307.584 
L 361.152 306.5445 
L 361.152 42.5115 
L 361.152 41.472 
L 374.4576 41.472 
L 374.4576 42.5115 
L 374.4576 306.5445 
L 374.4576 307.584 
z
" style="fill:none;stroke:#000000;stroke-linejoin:miter;stroke-width:0.8;"/>
   </g>
  </g>
 </g>
 <defs>
  <clipPath id="pae1c1021b4">
   <rect height="266.112" width="285.696" x="57.6" y="41.472"/>
  </clipPath>
  <clipPath id="p0d805ec46b">
   <rect height="266.112" width="13.3056" x="361.152" y="41.472"/>
  </clipPath>
 </defs>
</svg>
