<?xml version="1.0" encoding="utf-8" standalone="no"?>
<!DOCTYPE svg PUBLIC "-//W3C//DTD SVG 1.1//EN"
  "http://www.w3.org/Graphics/SVG/1.1/DTD/svg11.dtd">
<!-- Created with matplotlib (http://matplotlib.org/) -->
<svg height="345.6pt" version="1.1" viewBox="0 0 460.8 345.6" width="460.8pt" xmlns="http://www.w3.org/2000/svg" xmlns:xlink="http://www.w3.org/1999/xlink">
 <defs>
  <style type="text/css">
*{stroke-linecap:butt;stroke-linejoin:round;}
  </style>
 </defs>
 <g id="figure_1">
  <g id="patch_1">
   <path d="M 0 345.6 
L 460.8 345.6 
L 460.8 0 
L 0 0 
z
" style="fill:#ffffff;"/>
  </g>
  <g id="axes_1">
   <g id="CircleCollection_1">
    <path clip-path="url(#p6784c8d607)" d="M 99.054139 113.818836 
C 100.87726 113.818836 102.625955 113.094503 103.915096 111.805362 
C 105.204237 110.516221 105.92857 108.767526 105.92857 106.944405 
C 105.92857 105.121285 105.204237 103.372589 103.915096 102.083448 
C 102.625955 100.794308 100.87726 100.069974 99.054139 100.069974 
C 97.231019 100.069974 95.482323 100.794308 94.193183 102.083448 
C 92.904042 103.372589 92.179708 105.121285 92.179708 106.944405 
C 92.179708 108.767526 92.904042 110.516221 94.193183 111.805362 
C 95.482323 113.094503 97.231019 113.818836 99.054139 113.818836 
z
" style="fill:#24868e;"/>
    <path clip-path="url(#p6784c8d607)" d="M 269.437112 263.76337 
C 271.193173 263.76337 272.877547 263.065679 274.119269 261.823957 
C 275.360992 260.582234 276.058682 258.89786 276.058682 257.1418 
C 276.058682 255.385739 275.360992 253.701365 274.119269 252.459642 
C 272.877547 251.21792 271.193173 250.520229 269.437112 250.520229 
C 267.681051 250.520229 265.996678 251.21792 264.754955 252.459642 
C 263.513232 253.701365 262.815542 255.385739 262.815542 257.1418 
C 262.815542 258.89786 263.513232 260.582234 264.754955 261.823957 
C 265.996678 263.065679 267.681051 263.76337 269.437112 263.76337 
z
" style="fill:#440154;"/>
    <path clip-path="url(#p6784c8d607)" d="M 157.442357 212.709443 
C 159.127878 212.709443 160.744591 212.039779 161.936434 210.847935 
C 163.128278 209.656092 163.797942 208.039379 163.797942 206.353857 
C 163.797942 204.668336 163.128278 203.051623 161.936434 201.85978 
C 160.744591 200.667936 159.127878 199.998272 157.442357 199.998272 
C 155.756835 199.998272 154.140122 200.667936 152.948279 201.85978 
C 151.756435 203.051623 151.086771 204.668336 151.086771 206.353857 
C 151.086771 208.039379 151.756435 209.656092 152.948279 210.847935 
C 154.140122 212.039779 155.756835 212.709443 157.442357 212.709443 
z
" style="fill:#453581;"/>
    <path clip-path="url(#p6784c8d607)" d="M 161.182615 111.125836 
C 162.867235 111.125836 164.483085 110.45653 165.674291 109.265323 
C 166.865498 108.074117 167.534804 106.458267 167.534804 104.773647 
C 167.534804 103.089026 166.865498 101.473177 165.674291 100.28197 
C 164.483085 99.090764 162.867235 98.421457 161.182615 98.421457 
C 159.497994 98.421457 157.882145 99.090764 156.690939 100.28197 
C 155.499732 101.473177 154.830425 103.089026 154.830425 104.773647 
C 154.830425 106.458267 155.499732 108.074117 156.690939 109.265323 
C 157.882145 110.45653 159.497994 111.125836 161.182615 111.125836 
z
" style="fill:#453581;"/>
    <path clip-path="url(#p6784c8d607)" d="M 312.309081 254.590708 
C 314.119158 254.590708 315.855342 253.871557 317.13526 252.59164 
C 318.415177 251.311722 319.134328 249.575538 319.134328 247.765461 
C 319.134328 245.955385 318.415177 244.2192 317.13526 242.939283 
C 315.855342 241.659366 314.119158 240.940214 312.309081 240.940214 
C 310.499005 240.940214 308.76282 241.659366 307.482903 242.939283 
C 306.202986 244.2192 305.483835 245.955385 305.483835 247.765461 
C 305.483835 249.575538 306.202986 251.311722 307.482903 252.59164 
C 308.76282 253.871557 310.499005 254.590708 312.309081 254.590708 
z
" style="fill:#23888e;"/>
    <path clip-path="url(#p6784c8d607)" d="M 98.546566 166.063933 
C 100.324154 166.063933 102.029175 165.35769 103.286119 164.100746 
C 104.543063 162.843802 105.249305 161.138781 105.249305 159.361194 
C 105.249305 157.583607 104.543063 155.878585 103.286119 154.621642 
C 102.029175 153.364698 100.324154 152.658455 98.546566 152.658455 
C 96.768979 152.658455 95.063958 153.364698 93.807014 154.621642 
C 92.55007 155.878585 91.843828 157.583607 91.843828 159.361194 
C 91.843828 161.138781 92.55007 162.843802 93.807014 164.100746 
C 95.063958 165.35769 96.768979 166.063933 98.546566 166.063933 
z
" style="fill:#463480;"/>
    <path clip-path="url(#p6784c8d607)" d="M 128.034223 159.285864 
C 129.734575 159.285864 131.365514 158.610307 132.567844 157.407977 
C 133.770175 156.205646 134.445732 154.574707 134.445732 152.874355 
C 134.445732 151.174003 133.770175 149.543064 132.567844 148.340733 
C 131.365514 147.138403 129.734575 146.462846 128.034223 146.462846 
C 126.333871 146.462846 124.702932 147.138403 123.500601 148.340733 
C 122.298271 149.543064 121.622714 151.174003 121.622714 152.874355 
C 121.622714 154.574707 122.298271 156.205646 123.500601 157.407977 
C 124.702932 158.610307 126.333871 159.285864 128.034223 159.285864 
z
" style="fill:#472d7b;"/>
    <path clip-path="url(#p6784c8d607)" d="M 172.744057 69.322599 
C 174.497448 69.322599 176.17926 68.62597 177.419095 67.386135 
C 178.658929 66.146301 179.355559 64.464488 179.355559 62.711097 
C 179.355559 60.957706 178.658929 59.275894 177.419095 58.036059 
C 176.17926 56.796225 174.497448 56.099595 172.744057 56.099595 
C 170.990666 56.099595 169.308854 56.796225 168.069019 58.036059 
C 166.829185 59.275894 166.132555 60.957706 166.132555 62.711097 
C 166.132555 64.464488 166.829185 66.146301 168.069019 67.386135 
C 169.308854 68.62597 170.990666 69.322599 172.744057 69.322599 
z
" style="fill:#433d84;"/>
    <path clip-path="url(#p6784c8d607)" d="M 208.519163 134.902655 
C 210.168209 134.902655 211.749937 134.247482 212.915989 133.08143 
C 214.082041 131.915378 214.737214 130.33365 214.737214 128.684604 
C 214.737214 127.035557 214.082041 125.45383 212.915989 124.287778 
C 211.749937 123.121726 210.168209 122.466553 208.519163 122.466553 
C 206.870117 122.466553 205.288389 123.121726 204.122337 124.287778 
C 202.956285 125.45383 202.301112 127.035557 202.301112 128.684604 
C 202.301112 130.33365 202.956285 131.915378 204.122337 133.08143 
C 205.288389 134.247482 206.870117 134.902655 208.519163 134.902655 
z
" style="fill:#46307e;"/>
    <path clip-path="url(#p6784c8d607)" d="M 315.081938 149.276734 
C 316.885839 149.276734 318.6161 148.560036 319.891651 147.284486 
C 321.167201 146.008935 321.883899 144.278674 321.883899 142.474773 
C 321.883899 140.670872 321.167201 138.940611 319.891651 137.66506 
C 318.6161 136.38951 316.885839 135.672812 315.081938 135.672812 
C 313.278037 135.672812 311.547776 136.38951 310.272225 137.66506 
C 308.996675 138.940611 308.279977 140.670872 308.279977 142.474773 
C 308.279977 144.278674 308.996675 146.008935 310.272225 147.284486 
C 311.547776 148.560036 313.278037 149.276734 315.081938 149.276734 
z
" style="fill:#471063;"/>
    <path clip-path="url(#p6784c8d607)" d="M 132.544711 73.800236 
C 134.356825 73.800236 136.094965 73.080275 137.376323 71.798917 
C 138.657682 70.517558 139.377643 68.779418 139.377643 66.967304 
C 139.377643 65.155189 138.657682 63.417049 137.376323 62.135691 
C 136.094965 60.854332 134.356825 60.134371 132.544711 60.134371 
C 130.732596 60.134371 128.994456 60.854332 127.713098 62.135691 
C 126.431739 63.417049 125.711778 65.155189 125.711778 66.967304 
C 125.711778 68.779418 126.431739 70.517558 127.713098 71.798917 
C 128.994456 73.080275 130.732596 73.800236 132.544711 73.800236 
z
" style="fill:#23888e;"/>
    <path clip-path="url(#p6784c8d607)" d="M 283.51364 156.439478 
C 285.241193 156.439478 286.898223 155.753114 288.119788 154.53155 
C 289.341352 153.309985 290.027716 151.652955 290.027716 149.925402 
C 290.027716 148.197849 289.341352 146.540819 288.119788 145.319254 
C 286.898223 144.09769 285.241193 143.411326 283.51364 143.411326 
C 281.786087 143.411326 280.129057 144.09769 278.907492 145.319254 
C 277.685928 146.540819 276.999564 148.197849 276.999564 149.925402 
C 276.999564 151.652955 277.685928 153.309985 278.907492 154.53155 
C 280.129057 155.753114 281.786087 156.439478 283.51364 156.439478 
z
" style="fill:#443983;"/>
    <path clip-path="url(#p6784c8d607)" d="M 209.747865 196.66016 
C 211.407299 196.66016 212.99899 196.00086 214.172387 194.827463 
C 215.345785 193.654065 216.005085 192.062374 216.005085 190.40294 
C 216.005085 188.743506 215.345785 187.151814 214.172387 185.978417 
C 212.99899 184.80502 211.407299 184.14572 209.747865 184.14572 
C 208.08843 184.14572 206.496739 184.80502 205.323342 185.978417 
C 204.149945 187.151814 203.490644 188.743506 203.490644 190.40294 
C 203.490644 192.062374 204.149945 193.654065 205.323342 194.827463 
C 206.496739 196.00086 208.08843 196.66016 209.747865 196.66016 
z
" style="fill:#3e4c8a;"/>
    <path clip-path="url(#p6784c8d607)" d="M 178.642764 297.836902 
C 180.406249 297.836902 182.097742 297.136263 183.344714 295.889291 
C 184.591686 294.642319 185.292325 292.950826 185.292325 291.187341 
C 185.292325 289.423857 184.591686 287.732363 183.344714 286.485392 
C 182.097742 285.23842 180.406249 284.537781 178.642764 284.537781 
C 176.87928 284.537781 175.187786 285.23842 173.940815 286.485392 
C 172.693843 287.732363 171.993204 289.423857 171.993204 291.187341 
C 171.993204 292.950826 172.693843 294.642319 173.940815 295.889291 
C 175.187786 297.136263 176.87928 297.836902 178.642764 297.836902 
z
" style="fill:#2b758e;"/>
    <path clip-path="url(#p6784c8d607)" d="M 97.840143 230.382679 
C 99.638178 230.382679 101.362812 229.668312 102.634215 228.396909 
C 103.905618 227.125507 104.619985 225.400872 104.619985 223.602837 
C 104.619985 221.804802 103.905618 220.080167 102.634215 218.808765 
C 101.362812 217.537362 99.638178 216.822995 97.840143 216.822995 
C 96.042108 216.822995 94.317473 217.537362 93.046071 218.808765 
C 91.774668 220.080167 91.060301 221.804802 91.060301 223.602837 
C 91.060301 225.400872 91.774668 227.125507 93.046071 228.396909 
C 94.317473 229.668312 96.042108 230.382679 97.840143 230.382679 
z
" style="fill:#482878;"/>
    <path clip-path="url(#p6784c8d607)" d="M 229.847031 67.439788 
C 231.60674 67.439788 233.294613 66.740648 234.538916 65.496345 
C 235.783218 64.252043 236.482358 62.56417 236.482358 60.80446 
C 236.482358 59.044751 235.783218 57.356878 234.538916 56.112575 
C 233.294613 54.868273 231.60674 54.169133 229.847031 54.169133 
C 228.087321 54.169133 226.399448 54.868273 225.155146 56.112575 
C 223.910843 57.356878 223.211703 59.044751 223.211703 60.80446 
C 223.211703 62.56417 223.910843 64.252043 225.155146 65.496345 
C 226.399448 66.740648 228.087321 67.439788 229.847031 67.439788 
z
" style="fill:#443a83;"/>
    <path clip-path="url(#p6784c8d607)" d="M 140.871979 256.210261 
C 142.617667 256.210261 144.292091 255.516692 145.526478 254.282304 
C 146.760866 253.047917 147.454435 251.373493 147.454435 249.627805 
C 147.454435 247.882117 146.760866 246.207693 145.526478 244.973305 
C 144.292091 243.738918 142.617667 243.045348 140.871979 243.045348 
C 139.126291 243.045348 137.451867 243.738918 136.217479 244.973305 
C 134.983092 246.207693 134.289523 247.882117 134.289523 249.627805 
C 134.289523 251.373493 134.983092 253.047917 136.217479 254.282304 
C 137.451867 255.516692 139.126291 256.210261 140.871979 256.210261 
z
" style="fill:#472e7c;"/>
    <path clip-path="url(#p6784c8d607)" d="M 305.704016 94.024653 
C 307.543202 94.024653 309.307307 93.293937 310.607807 91.993436 
C 311.908308 90.692936 312.639024 88.928831 312.639024 87.089645 
C 312.639024 85.250459 311.908308 83.486354 310.607807 82.185853 
C 309.307307 80.885353 307.543202 80.154636 305.704016 80.154636 
C 303.86483 80.154636 302.100725 80.885353 300.800224 82.185853 
C 299.499723 83.486354 298.769007 85.250459 298.769007 87.089645 
C 298.769007 88.928831 299.499723 90.692936 300.800224 91.993436 
C 302.100725 93.293937 303.86483 94.024653 305.704016 94.024653 
z
" style="fill:#24878e;"/>
    <path clip-path="url(#p6784c8d607)" d="M 329.77675 205.793903 
C 331.6081 205.793903 333.364689 205.0663 334.659649 203.77134 
C 335.954609 202.47638 336.682212 200.71979 336.682212 198.88844 
C 336.682212 197.05709 335.954609 195.300501 334.659649 194.005541 
C 333.364689 192.71058 331.6081 191.982977 329.77675 191.982977 
C 327.9454 191.982977 326.18881 192.71058 324.89385 194.005541 
C 323.59889 195.300501 322.871287 197.05709 322.871287 198.88844 
C 322.871287 200.71979 323.59889 202.47638 324.89385 203.77134 
C 326.18881 205.0663 327.9454 205.793903 329.77675 205.793903 
z
" style="fill:#25838e;"/>
    <path clip-path="url(#p6784c8d607)" d="M 226.735912 301.350498 
C 228.498119 301.350498 230.188388 300.650366 231.434457 299.404297 
C 232.680526 298.158228 233.380658 296.467959 233.380658 294.705752 
C 233.380658 292.943544 232.680526 291.253275 231.434457 290.007206 
C 230.188388 288.761138 228.498119 288.061005 226.735912 288.061005 
C 224.973704 288.061005 223.283435 288.761138 222.037367 290.007206 
C 220.791298 291.253275 220.091165 292.943544 220.091165 294.705752 
C 220.091165 296.467959 220.791298 298.158228 222.037367 299.404297 
C 223.283435 300.650366 224.973704 301.350498 226.735912 301.350498 
z
" style="fill:#277e8e;"/>
    <path clip-path="url(#p6784c8d607)" d="M 71.124702 264.065563 
C 72.974782 264.065563 74.749336 263.330519 76.057539 262.022315 
C 77.365743 260.714112 78.100788 258.939557 78.100788 257.089478 
C 78.100788 255.239398 77.365743 253.464844 76.057539 252.156641 
C 74.749336 250.848437 72.974782 250.113392 71.124702 250.113392 
C 69.274623 250.113392 67.500068 250.848437 66.191865 252.156641 
C 64.883661 253.464844 64.148617 255.239398 64.148617 257.089478 
C 64.148617 258.939557 64.883661 260.714112 66.191865 262.022315 
C 67.500068 263.330519 69.274623 264.065563 71.124702 264.065563 
z
" style="fill:#fde725;"/>
    <path clip-path="url(#p6784c8d607)" d="M 258.805155 211.45872 
C 260.510274 211.45872 262.145785 210.781269 263.351486 209.575568 
C 264.557187 208.369867 265.234637 206.734356 265.234637 205.029237 
C 265.234637 203.324118 264.557187 201.688607 263.351486 200.482906 
C 262.145785 199.277205 260.510274 198.599754 258.805155 198.599754 
C 257.100036 198.599754 255.464525 199.277205 254.258824 200.482906 
C 253.053123 201.688607 252.375672 203.324118 252.375672 205.029237 
C 252.375672 206.734356 253.053123 208.369867 254.258824 209.575568 
C 255.464525 210.781269 257.100036 211.45872 258.805155 211.45872 
z
" style="fill:#414287;"/>
    <path clip-path="url(#p6784c8d607)" d="M 267.91028 61.246074 
C 269.732061 61.246074 271.479472 60.522273 272.767666 59.234079 
C 274.05586 57.945885 274.779661 56.198474 274.779661 54.376693 
C 274.779661 52.554912 274.05586 50.807501 272.767666 49.519307 
C 271.479472 48.231113 269.732061 47.507312 267.91028 47.507312 
C 266.088499 47.507312 264.341088 48.231113 263.052894 49.519307 
C 261.764701 50.807501 261.040899 52.554912 261.040899 54.376693 
C 261.040899 56.198474 261.764701 57.945885 263.052894 59.234079 
C 264.341088 60.522273 266.088499 61.246074 267.91028 61.246074 
z
" style="fill:#25838e;"/>
    <path clip-path="url(#p6784c8d607)" d="M 249.436259 110.311597 
C 251.135446 110.311597 252.765268 109.636502 253.966775 108.434996 
C 255.168282 107.233489 255.843376 105.603667 255.843376 103.90448 
C 255.843376 102.205293 255.168282 100.575471 253.966775 99.373965 
C 252.765268 98.172458 251.135446 97.497364 249.436259 97.497364 
C 247.737072 97.497364 246.107251 98.172458 244.905744 99.373965 
C 243.704237 100.575471 243.029143 102.205293 243.029143 103.90448 
C 243.029143 105.603667 243.704237 107.233489 244.905744 108.434996 
C 246.107251 109.636502 247.737072 110.311597 249.436259 110.311597 
z
" style="fill:#472d7b;"/>
   </g>
   <g id="text_1">
    <!-- Structure #4831, $E_N$=-185.26eV, ΔE=0.17eV -->
    <defs>
     <path d="M 53.515625 70.515625 
L 53.515625 60.890625 
Q 47.90625 63.578125 42.921875 64.890625 
Q 37.9375 66.21875 33.296875 66.21875 
Q 25.25 66.21875 20.875 63.09375 
Q 16.5 59.96875 16.5 54.203125 
Q 16.5 49.359375 19.40625 46.890625 
Q 22.3125 44.4375 30.421875 42.921875 
L 36.375 41.703125 
Q 47.40625 39.59375 52.65625 34.296875 
Q 57.90625 29 57.90625 20.125 
Q 57.90625 9.515625 50.796875 4.046875 
Q 43.703125 -1.421875 29.984375 -1.421875 
Q 24.8125 -1.421875 18.96875 -0.25 
Q 13.140625 0.921875 6.890625 3.21875 
L 6.890625 13.375 
Q 12.890625 10.015625 18.65625 8.296875 
Q 24.421875 6.59375 29.984375 6.59375 
Q 38.421875 6.59375 43.015625 9.90625 
Q 47.609375 13.234375 47.609375 19.390625 
Q 47.609375 24.75 44.3125 27.78125 
Q 41.015625 30.8125 33.5 32.328125 
L 27.484375 33.5 
Q 16.453125 35.6875 11.515625 40.375 
Q 6.59375 45.0625 6.59375 53.421875 
Q 6.59375 63.09375 13.40625 68.65625 
Q 20.21875 74.21875 32.171875 74.21875 
Q 37.3125 74.21875 42.625 73.28125 
Q 47.953125 72.359375 53.515625 70.515625 
z
" id="DejaVuSans-53"/>
     <path d="M 18.3125 70.21875 
L 18.3125 54.6875 
L 36.8125 54.6875 
L 36.8125 47.703125 
L 18.3125 47.703125 
L 18.3125 18.015625 
Q 18.3125 11.328125 20.140625 9.421875 
Q 21.96875 7.515625 27.59375 7.515625 
L 36.8125 7.515625 
L 36.8125 0 
L 27.59375 0 
Q 17.1875 0 13.234375 3.875 
Q 9.28125 7.765625 9.28125 18.015625 
L 9.28125 47.703125 
L 2.6875 47.703125 
L 2.6875 54.6875 
L 9.28125 54.6875 
L 9.28125 70.21875 
z
" id="DejaVuSans-74"/>
     <path d="M 41.109375 46.296875 
Q 39.59375 47.171875 37.8125 47.578125 
Q 36.03125 48 33.890625 48 
Q 26.265625 48 22.1875 43.046875 
Q 18.109375 38.09375 18.109375 28.8125 
L 18.109375 0 
L 9.078125 0 
L 9.078125 54.6875 
L 18.109375 54.6875 
L 18.109375 46.1875 
Q 20.953125 51.171875 25.484375 53.578125 
Q 30.03125 56 36.53125 56 
Q 37.453125 56 38.578125 55.875 
Q 39.703125 55.765625 41.0625 55.515625 
z
" id="DejaVuSans-72"/>
     <path d="M 8.5 21.578125 
L 8.5 54.6875 
L 17.484375 54.6875 
L 17.484375 21.921875 
Q 17.484375 14.15625 20.5 10.265625 
Q 23.53125 6.390625 29.59375 6.390625 
Q 36.859375 6.390625 41.078125 11.03125 
Q 45.3125 15.671875 45.3125 23.6875 
L 45.3125 54.6875 
L 54.296875 54.6875 
L 54.296875 0 
L 45.3125 0 
L 45.3125 8.40625 
Q 42.046875 3.421875 37.71875 1 
Q 33.40625 -1.421875 27.6875 -1.421875 
Q 18.265625 -1.421875 13.375 4.4375 
Q 8.5 10.296875 8.5 21.578125 
z
M 31.109375 56 
z
" id="DejaVuSans-75"/>
     <path d="M 48.78125 52.59375 
L 48.78125 44.1875 
Q 44.96875 46.296875 41.140625 47.34375 
Q 37.3125 48.390625 33.40625 48.390625 
Q 24.65625 48.390625 19.8125 42.84375 
Q 14.984375 37.3125 14.984375 27.296875 
Q 14.984375 17.28125 19.8125 11.734375 
Q 24.65625 6.203125 33.40625 6.203125 
Q 37.3125 6.203125 41.140625 7.25 
Q 44.96875 8.296875 48.78125 10.40625 
L 48.78125 2.09375 
Q 45.015625 0.34375 40.984375 -0.53125 
Q 36.96875 -1.421875 32.421875 -1.421875 
Q 20.0625 -1.421875 12.78125 6.34375 
Q 5.515625 14.109375 5.515625 27.296875 
Q 5.515625 40.671875 12.859375 48.328125 
Q 20.21875 56 33.015625 56 
Q 37.15625 56 41.109375 55.140625 
Q 45.0625 54.296875 48.78125 52.59375 
z
" id="DejaVuSans-63"/>
     <path d="M 56.203125 29.59375 
L 56.203125 25.203125 
L 14.890625 25.203125 
Q 15.484375 15.921875 20.484375 11.0625 
Q 25.484375 6.203125 34.421875 6.203125 
Q 39.59375 6.203125 44.453125 7.46875 
Q 49.3125 8.734375 54.109375 11.28125 
L 54.109375 2.78125 
Q 49.265625 0.734375 44.1875 -0.34375 
Q 39.109375 -1.421875 33.890625 -1.421875 
Q 20.796875 -1.421875 13.15625 6.1875 
Q 5.515625 13.8125 5.515625 26.8125 
Q 5.515625 40.234375 12.765625 48.109375 
Q 20.015625 56 32.328125 56 
Q 43.359375 56 49.78125 48.890625 
Q 56.203125 41.796875 56.203125 29.59375 
z
M 47.21875 32.234375 
Q 47.125 39.59375 43.09375 43.984375 
Q 39.0625 48.390625 32.421875 48.390625 
Q 24.90625 48.390625 20.390625 44.140625 
Q 15.875 39.890625 15.1875 32.171875 
z
" id="DejaVuSans-65"/>
     <path id="DejaVuSans-20"/>
     <path d="M 51.125 44 
L 36.921875 44 
L 32.8125 27.6875 
L 47.125 27.6875 
z
M 43.796875 71.78125 
L 38.71875 51.515625 
L 52.984375 51.515625 
L 58.109375 71.78125 
L 65.921875 71.78125 
L 60.890625 51.515625 
L 76.125 51.515625 
L 76.125 44 
L 58.984375 44 
L 54.984375 27.6875 
L 70.515625 27.6875 
L 70.515625 20.21875 
L 53.078125 20.21875 
L 48 0 
L 40.1875 0 
L 45.21875 20.21875 
L 30.90625 20.21875 
L 25.875 0 
L 18.015625 0 
L 23.09375 20.21875 
L 7.71875 20.21875 
L 7.71875 27.6875 
L 24.90625 27.6875 
L 29 44 
L 13.28125 44 
L 13.28125 51.515625 
L 30.90625 51.515625 
L 35.890625 71.78125 
z
" id="DejaVuSans-23"/>
     <path d="M 37.796875 64.3125 
L 12.890625 25.390625 
L 37.796875 25.390625 
z
M 35.203125 72.90625 
L 47.609375 72.90625 
L 47.609375 25.390625 
L 58.015625 25.390625 
L 58.015625 17.1875 
L 47.609375 17.1875 
L 47.609375 0 
L 37.796875 0 
L 37.796875 17.1875 
L 4.890625 17.1875 
L 4.890625 26.703125 
z
" id="DejaVuSans-34"/>
     <path d="M 31.78125 34.625 
Q 24.75 34.625 20.71875 30.859375 
Q 16.703125 27.09375 16.703125 20.515625 
Q 16.703125 13.921875 20.71875 10.15625 
Q 24.75 6.390625 31.78125 6.390625 
Q 38.8125 6.390625 42.859375 10.171875 
Q 46.921875 13.96875 46.921875 20.515625 
Q 46.921875 27.09375 42.890625 30.859375 
Q 38.875 34.625 31.78125 34.625 
z
M 21.921875 38.8125 
Q 15.578125 40.375 12.03125 44.71875 
Q 8.5 49.078125 8.5 55.328125 
Q 8.5 64.0625 14.71875 69.140625 
Q 20.953125 74.21875 31.78125 74.21875 
Q 42.671875 74.21875 48.875 69.140625 
Q 55.078125 64.0625 55.078125 55.328125 
Q 55.078125 49.078125 51.53125 44.71875 
Q 48 40.375 41.703125 38.8125 
Q 48.828125 37.15625 52.796875 32.3125 
Q 56.78125 27.484375 56.78125 20.515625 
Q 56.78125 9.90625 50.3125 4.234375 
Q 43.84375 -1.421875 31.78125 -1.421875 
Q 19.734375 -1.421875 13.25 4.234375 
Q 6.78125 9.90625 6.78125 20.515625 
Q 6.78125 27.484375 10.78125 32.3125 
Q 14.796875 37.15625 21.921875 38.8125 
z
M 18.3125 54.390625 
Q 18.3125 48.734375 21.84375 45.5625 
Q 25.390625 42.390625 31.78125 42.390625 
Q 38.140625 42.390625 41.71875 45.5625 
Q 45.3125 48.734375 45.3125 54.390625 
Q 45.3125 60.0625 41.71875 63.234375 
Q 38.140625 66.40625 31.78125 66.40625 
Q 25.390625 66.40625 21.84375 63.234375 
Q 18.3125 60.0625 18.3125 54.390625 
z
" id="DejaVuSans-38"/>
     <path d="M 40.578125 39.3125 
Q 47.65625 37.796875 51.625 33 
Q 55.609375 28.21875 55.609375 21.1875 
Q 55.609375 10.40625 48.1875 4.484375 
Q 40.765625 -1.421875 27.09375 -1.421875 
Q 22.515625 -1.421875 17.65625 -0.515625 
Q 12.796875 0.390625 7.625 2.203125 
L 7.625 11.71875 
Q 11.71875 9.328125 16.59375 8.109375 
Q 21.484375 6.890625 26.8125 6.890625 
Q 36.078125 6.890625 40.9375 10.546875 
Q 45.796875 14.203125 45.796875 21.1875 
Q 45.796875 27.640625 41.28125 31.265625 
Q 36.765625 34.90625 28.71875 34.90625 
L 20.21875 34.90625 
L 20.21875 43.015625 
L 29.109375 43.015625 
Q 36.375 43.015625 40.234375 45.921875 
Q 44.09375 48.828125 44.09375 54.296875 
Q 44.09375 59.90625 40.109375 62.90625 
Q 36.140625 65.921875 28.71875 65.921875 
Q 24.65625 65.921875 20.015625 65.03125 
Q 15.375 64.15625 9.8125 62.3125 
L 9.8125 71.09375 
Q 15.4375 72.65625 20.34375 73.4375 
Q 25.25 74.21875 29.59375 74.21875 
Q 40.828125 74.21875 47.359375 69.109375 
Q 53.90625 64.015625 53.90625 55.328125 
Q 53.90625 49.265625 50.4375 45.09375 
Q 46.96875 40.921875 40.578125 39.3125 
z
" id="DejaVuSans-33"/>
     <path d="M 12.40625 8.296875 
L 28.515625 8.296875 
L 28.515625 63.921875 
L 10.984375 60.40625 
L 10.984375 69.390625 
L 28.421875 72.90625 
L 38.28125 72.90625 
L 38.28125 8.296875 
L 54.390625 8.296875 
L 54.390625 0 
L 12.40625 0 
z
" id="DejaVuSans-31"/>
     <path d="M 11.71875 12.40625 
L 22.015625 12.40625 
L 22.015625 4 
L 14.015625 -11.625 
L 7.71875 -11.625 
L 11.71875 4 
z
" id="DejaVuSans-2c"/>
     <path d="M 16.890625 72.90625 
L 62.984375 72.90625 
L 61.375 64.59375 
L 25.09375 64.59375 
L 20.90625 43.015625 
L 55.71875 43.015625 
L 54.109375 34.71875 
L 19.28125 34.71875 
L 14.203125 8.296875 
L 51.3125 8.296875 
L 49.703125 0 
L 2.6875 0 
z
" id="DejaVuSans-Oblique-45"/>
     <path d="M 16.890625 72.90625 
L 30.171875 72.90625 
L 50.296875 10.40625 
L 62.5 72.90625 
L 72.125 72.90625 
L 57.90625 0 
L 44.578125 0 
L 24.515625 62.890625 
L 12.3125 0 
L 2.6875 0 
z
" id="DejaVuSans-Oblique-4e"/>
     <path d="M 10.59375 45.40625 
L 73.1875 45.40625 
L 73.1875 37.203125 
L 10.59375 37.203125 
z
M 10.59375 25.484375 
L 73.1875 25.484375 
L 73.1875 17.1875 
L 10.59375 17.1875 
z
" id="DejaVuSans-3d"/>
     <path d="M 4.890625 31.390625 
L 31.203125 31.390625 
L 31.203125 23.390625 
L 4.890625 23.390625 
z
" id="DejaVuSans-2d"/>
     <path d="M 10.796875 72.90625 
L 49.515625 72.90625 
L 49.515625 64.59375 
L 19.828125 64.59375 
L 19.828125 46.734375 
Q 21.96875 47.46875 24.109375 47.828125 
Q 26.265625 48.1875 28.421875 48.1875 
Q 40.625 48.1875 47.75 41.5 
Q 54.890625 34.8125 54.890625 23.390625 
Q 54.890625 11.625 47.5625 5.09375 
Q 40.234375 -1.421875 26.90625 -1.421875 
Q 22.3125 -1.421875 17.546875 -0.640625 
Q 12.796875 0.140625 7.71875 1.703125 
L 7.71875 11.625 
Q 12.109375 9.234375 16.796875 8.0625 
Q 21.484375 6.890625 26.703125 6.890625 
Q 35.15625 6.890625 40.078125 11.328125 
Q 45.015625 15.765625 45.015625 23.390625 
Q 45.015625 31 40.078125 35.4375 
Q 35.15625 39.890625 26.703125 39.890625 
Q 22.75 39.890625 18.8125 39.015625 
Q 14.890625 38.140625 10.796875 36.28125 
z
" id="DejaVuSans-35"/>
     <path d="M 10.6875 12.40625 
L 21 12.40625 
L 21 0 
L 10.6875 0 
z
" id="DejaVuSans-2e"/>
     <path d="M 19.1875 8.296875 
L 53.609375 8.296875 
L 53.609375 0 
L 7.328125 0 
L 7.328125 8.296875 
Q 12.9375 14.109375 22.625 23.890625 
Q 32.328125 33.6875 34.8125 36.53125 
Q 39.546875 41.84375 41.421875 45.53125 
Q 43.3125 49.21875 43.3125 52.78125 
Q 43.3125 58.59375 39.234375 62.25 
Q 35.15625 65.921875 28.609375 65.921875 
Q 23.96875 65.921875 18.8125 64.3125 
Q 13.671875 62.703125 7.8125 59.421875 
L 7.8125 69.390625 
Q 13.765625 71.78125 18.9375 73 
Q 24.125 74.21875 28.421875 74.21875 
Q 39.75 74.21875 46.484375 68.546875 
Q 53.21875 62.890625 53.21875 53.421875 
Q 53.21875 48.921875 51.53125 44.890625 
Q 49.859375 40.875 45.40625 35.40625 
Q 44.1875 33.984375 37.640625 27.21875 
Q 31.109375 20.453125 19.1875 8.296875 
z
" id="DejaVuSans-32"/>
     <path d="M 33.015625 40.375 
Q 26.375 40.375 22.484375 35.828125 
Q 18.609375 31.296875 18.609375 23.390625 
Q 18.609375 15.53125 22.484375 10.953125 
Q 26.375 6.390625 33.015625 6.390625 
Q 39.65625 6.390625 43.53125 10.953125 
Q 47.40625 15.53125 47.40625 23.390625 
Q 47.40625 31.296875 43.53125 35.828125 
Q 39.65625 40.375 33.015625 40.375 
z
M 52.59375 71.296875 
L 52.59375 62.3125 
Q 48.875 64.0625 45.09375 64.984375 
Q 41.3125 65.921875 37.59375 65.921875 
Q 27.828125 65.921875 22.671875 59.328125 
Q 17.53125 52.734375 16.796875 39.40625 
Q 19.671875 43.65625 24.015625 45.921875 
Q 28.375 48.1875 33.59375 48.1875 
Q 44.578125 48.1875 50.953125 41.515625 
Q 57.328125 34.859375 57.328125 23.390625 
Q 57.328125 12.15625 50.6875 5.359375 
Q 44.046875 -1.421875 33.015625 -1.421875 
Q 20.359375 -1.421875 13.671875 8.265625 
Q 6.984375 17.96875 6.984375 36.375 
Q 6.984375 53.65625 15.1875 63.9375 
Q 23.390625 74.21875 37.203125 74.21875 
Q 40.921875 74.21875 44.703125 73.484375 
Q 48.484375 72.75 52.59375 71.296875 
z
" id="DejaVuSans-36"/>
     <path d="M 28.609375 0 
L 0.78125 72.90625 
L 11.078125 72.90625 
L 34.1875 11.53125 
L 57.328125 72.90625 
L 67.578125 72.90625 
L 39.796875 0 
z
" id="DejaVuSans-56"/>
     <path d="M 34.1875 63.1875 
L 14.15625 8.203125 
L 54.25 8.203125 
z
M 0.78125 0 
L 28.609375 72.90625 
L 39.796875 72.90625 
L 67.578125 0 
z
" id="DejaVuSans-394"/>
     <path d="M 9.8125 72.90625 
L 55.90625 72.90625 
L 55.90625 64.59375 
L 19.671875 64.59375 
L 19.671875 43.015625 
L 54.390625 43.015625 
L 54.390625 34.71875 
L 19.671875 34.71875 
L 19.671875 8.296875 
L 56.78125 8.296875 
L 56.78125 0 
L 9.8125 0 
z
" id="DejaVuSans-45"/>
     <path d="M 31.78125 66.40625 
Q 24.171875 66.40625 20.328125 58.90625 
Q 16.5 51.421875 16.5 36.375 
Q 16.5 21.390625 20.328125 13.890625 
Q 24.171875 6.390625 31.78125 6.390625 
Q 39.453125 6.390625 43.28125 13.890625 
Q 47.125 21.390625 47.125 36.375 
Q 47.125 51.421875 43.28125 58.90625 
Q 39.453125 66.40625 31.78125 66.40625 
z
M 31.78125 74.21875 
Q 44.046875 74.21875 50.515625 64.515625 
Q 56.984375 54.828125 56.984375 36.375 
Q 56.984375 17.96875 50.515625 8.265625 
Q 44.046875 -1.421875 31.78125 -1.421875 
Q 19.53125 -1.421875 13.0625 8.265625 
Q 6.59375 17.96875 6.59375 36.375 
Q 6.59375 54.828125 13.0625 64.515625 
Q 19.53125 74.21875 31.78125 74.21875 
z
" id="DejaVuSans-30"/>
     <path d="M 8.203125 72.90625 
L 55.078125 72.90625 
L 55.078125 68.703125 
L 28.609375 0 
L 18.3125 0 
L 43.21875 64.59375 
L 8.203125 64.59375 
z
" id="DejaVuSans-37"/>
    </defs>
    <g transform="translate(65.388 35.472)scale(0.12 -0.12)">
     <use transform="translate(0 0.78125)" xlink:href="#DejaVuSans-53"/>
     <use transform="translate(63.476562 0.78125)" xlink:href="#DejaVuSans-74"/>
     <use transform="translate(102.685547 0.78125)" xlink:href="#DejaVuSans-72"/>
     <use transform="translate(143.798828 0.78125)" xlink:href="#DejaVuSans-75"/>
     <use transform="translate(207.177734 0.78125)" xlink:href="#DejaVuSans-63"/>
     <use transform="translate(262.158203 0.78125)" xlink:href="#DejaVuSans-74"/>
     <use transform="translate(301.367188 0.78125)" xlink:href="#DejaVuSans-75"/>
     <use transform="translate(364.746094 0.78125)" xlink:href="#DejaVuSans-72"/>
     <use transform="translate(405.859375 0.78125)" xlink:href="#DejaVuSans-65"/>
     <use transform="translate(467.382812 0.78125)" xlink:href="#DejaVuSans-20"/>
     <use transform="translate(499.169922 0.78125)" xlink:href="#DejaVuSans-23"/>
     <use transform="translate(582.958984 0.78125)" xlink:href="#DejaVuSans-34"/>
     <use transform="translate(646.582031 0.78125)" xlink:href="#DejaVuSans-38"/>
     <use transform="translate(710.205078 0.78125)" xlink:href="#DejaVuSans-33"/>
     <use transform="translate(773.828125 0.78125)" xlink:href="#DejaVuSans-31"/>
     <use transform="translate(837.451172 0.78125)" xlink:href="#DejaVuSans-2c"/>
     <use transform="translate(869.238281 0.78125)" xlink:href="#DejaVuSans-20"/>
     <use transform="translate(901.025391 0.78125)" xlink:href="#DejaVuSans-Oblique-45"/>
     <use transform="translate(964.208984 -15.625)scale(0.7)" xlink:href="#DejaVuSans-Oblique-4e"/>
     <use transform="translate(1019.306641 0.78125)" xlink:href="#DejaVuSans-3d"/>
     <use transform="translate(1103.095703 0.78125)" xlink:href="#DejaVuSans-2d"/>
     <use transform="translate(1139.179688 0.78125)" xlink:href="#DejaVuSans-31"/>
     <use transform="translate(1202.802734 0.78125)" xlink:href="#DejaVuSans-38"/>
     <use transform="translate(1266.425781 0.78125)" xlink:href="#DejaVuSans-35"/>
     <use transform="translate(1330.048828 0.78125)" xlink:href="#DejaVuSans-2e"/>
     <use transform="translate(1361.757812 0.78125)" xlink:href="#DejaVuSans-32"/>
     <use transform="translate(1425.380859 0.78125)" xlink:href="#DejaVuSans-36"/>
     <use transform="translate(1489.003906 0.78125)" xlink:href="#DejaVuSans-65"/>
     <use transform="translate(1550.527344 0.78125)" xlink:href="#DejaVuSans-56"/>
     <use transform="translate(1618.935547 0.78125)" xlink:href="#DejaVuSans-2c"/>
     <use transform="translate(1650.722656 0.78125)" xlink:href="#DejaVuSans-20"/>
     <use transform="translate(1682.509766 0.78125)" xlink:href="#DejaVuSans-394"/>
     <use transform="translate(1750.917969 0.78125)" xlink:href="#DejaVuSans-45"/>
     <use transform="translate(1814.101562 0.78125)" xlink:href="#DejaVuSans-3d"/>
     <use transform="translate(1897.890625 0.78125)" xlink:href="#DejaVuSans-30"/>
     <use transform="translate(1961.513672 0.78125)" xlink:href="#DejaVuSans-2e"/>
     <use transform="translate(1993.300781 0.78125)" xlink:href="#DejaVuSans-31"/>
     <use transform="translate(2056.923828 0.78125)" xlink:href="#DejaVuSans-37"/>
     <use transform="translate(2120.546875 0.78125)" xlink:href="#DejaVuSans-65"/>
     <use transform="translate(2182.070312 0.78125)" xlink:href="#DejaVuSans-56"/>
    </g>
   </g>
  </g>
  <g id="axes_2">
   <g id="patch_2">
    <path clip-path="url(#p7bb6ae147e)" d="M 361.152 307.584 
L 361.152 306.5445 
L 361.152 42.5115 
L 361.152 41.472 
L 374.4576 41.472 
L 374.4576 42.5115 
L 374.4576 306.5445 
L 374.4576 307.584 
z
" style="fill:#ffffff;stroke:#ffffff;stroke-linejoin:miter;stroke-width:0.01;"/>
   </g>
   <image height="265.68" id="image85413df32d" transform="scale(1 -1)translate(0 -265.68)" width="12.96" x="361.44" xlink:href="data:image/png;base64,
iVBORw0KGgoAAAANSUhEUgAAABIAAAFxCAYAAAB+2fgXAAAABHNCSVQICAgIfAhkiAAAAeVJREFUeJztncmNw0AQA2ckheYQNv9QLIfQ8ygsCgQ7AEI8+jAs2Puz/94F1LP2ReCsZ18bAWIeZ5XaGRBE7VnbptG+KI101FYyNSiQG2oRITXKNaX9uclOdi2XWjftVE32CZCO2ou5Bj1TcCBr/1zB9ge7Fq0Rg2NM9pvbtG+ua1QgsRYhDy0ISEiNc40BEibbSI0Coj5CBGtkpFbXJiAjNZlrwhuSOv2M1DjXbEdEciBt1JSDDQKKpmZr2rr2j0DBGpXaWEJq3bQzEPIS26r9J+Wzv9Tm8o3aajRXqc3VUXsApKNWjeZq0x4ABVNbm7lrszVigDqP5vIl2+eaT2yfRkL7g+dRcNPqjohkjaCvRVBq0H2U3LQrOJCx9kdTg4B8oxZzzTdqdYHEngjUCAPyUctN9sVRq2sTECW2UKNLd2jVtRmo1A6AhMmWaSRcR8nUdIHUuVb75zJS218EyEitro1At69pIdeSk30Lkw0FktNImGyZRhy1O5galmxd03LUsHWk06jUZiCq+5Wb1kZNN4+wJxJuWt8RAW5am2sYNZ9rYCBzZ3buPKJ2P5Yj4Toy3keyIyJbIxs1rml1byCA84gpch5RQNB7Q0qNMGq2Hy4BXdNR41yz/cEEJfZzUz96r9PoB0okjeQ8y9TkAAAAAElFTkSuQmCC" y="-41.76"/>
   <g id="matplotlib.axis_1"/>
   <g id="matplotlib.axis_2">
    <g id="ytick_1">
     <g id="line2d_1">
      <defs>
       <path d="M 0 0 
L 3.5 0 
" id="m43384dd8f0" style="stroke:#000000;stroke-width:0.8;"/>
      </defs>
      <g>
       <use style="stroke:#000000;stroke-width:0.8;" x="374.4576" xlink:href="#m43384dd8f0" y="282.997165"/>
      </g>
     </g>
     <g id="text_2">
      <!-- −8.5 -->
      <defs>
       <path d="M 10.59375 35.5 
L 73.1875 35.5 
L 73.1875 27.203125 
L 10.59375 27.203125 
z
" id="DejaVuSans-2212"/>
      </defs>
      <g transform="translate(381.4576 286.796383)scale(0.1 -0.1)">
       <use xlink:href="#DejaVuSans-2212"/>
       <use x="83.789062" xlink:href="#DejaVuSans-38"/>
       <use x="147.412109" xlink:href="#DejaVuSans-2e"/>
       <use x="179.199219" xlink:href="#DejaVuSans-35"/>
      </g>
     </g>
    </g>
    <g id="ytick_2">
     <g id="line2d_2">
      <g>
       <use style="stroke:#000000;stroke-width:0.8;" x="374.4576" xlink:href="#m43384dd8f0" y="251.539456"/>
      </g>
     </g>
     <g id="text_3">
      <!-- −8.0 -->
      <g transform="translate(381.4576 255.338674)scale(0.1 -0.1)">
       <use xlink:href="#DejaVuSans-2212"/>
       <use x="83.789062" xlink:href="#DejaVuSans-38"/>
       <use x="147.412109" xlink:href="#DejaVuSans-2e"/>
       <use x="179.199219" xlink:href="#DejaVuSans-30"/>
      </g>
     </g>
    </g>
    <g id="ytick_3">
     <g id="line2d_3">
      <g>
       <use style="stroke:#000000;stroke-width:0.8;" x="374.4576" xlink:href="#m43384dd8f0" y="220.081746"/>
      </g>
     </g>
     <g id="text_4">
      <!-- −7.5 -->
      <g transform="translate(381.4576 223.880965)scale(0.1 -0.1)">
       <use xlink:href="#DejaVuSans-2212"/>
       <use x="83.789062" xlink:href="#DejaVuSans-37"/>
       <use x="147.412109" xlink:href="#DejaVuSans-2e"/>
       <use x="179.199219" xlink:href="#DejaVuSans-35"/>
      </g>
     </g>
    </g>
    <g id="ytick_4">
     <g id="line2d_4">
      <g>
       <use style="stroke:#000000;stroke-width:0.8;" x="374.4576" xlink:href="#m43384dd8f0" y="188.624037"/>
      </g>
     </g>
     <g id="text_5">
      <!-- −7.0 -->
      <g transform="translate(381.4576 192.423256)scale(0.1 -0.1)">
       <use xlink:href="#DejaVuSans-2212"/>
       <use x="83.789062" xlink:href="#DejaVuSans-37"/>
       <use x="147.412109" xlink:href="#DejaVuSans-2e"/>
       <use x="179.199219" xlink:href="#DejaVuSans-30"/>
      </g>
     </g>
    </g>
    <g id="ytick_5">
     <g id="line2d_5">
      <g>
       <use style="stroke:#000000;stroke-width:0.8;" x="374.4576" xlink:href="#m43384dd8f0" y="157.166328"/>
      </g>
     </g>
     <g id="text_6">
      <!-- −6.5 -->
      <g transform="translate(381.4576 160.965547)scale(0.1 -0.1)">
       <use xlink:href="#DejaVuSans-2212"/>
       <use x="83.789062" xlink:href="#DejaVuSans-36"/>
       <use x="147.412109" xlink:href="#DejaVuSans-2e"/>
       <use x="179.199219" xlink:href="#DejaVuSans-35"/>
      </g>
     </g>
    </g>
    <g id="ytick_6">
     <g id="line2d_6">
      <g>
       <use style="stroke:#000000;stroke-width:0.8;" x="374.4576" xlink:href="#m43384dd8f0" y="125.708619"/>
      </g>
     </g>
     <g id="text_7">
      <!-- −6.0 -->
      <g transform="translate(381.4576 129.507838)scale(0.1 -0.1)">
       <use xlink:href="#DejaVuSans-2212"/>
       <use x="83.789062" xlink:href="#DejaVuSans-36"/>
       <use x="147.412109" xlink:href="#DejaVuSans-2e"/>
       <use x="179.199219" xlink:href="#DejaVuSans-30"/>
      </g>
     </g>
    </g>
    <g id="ytick_7">
     <g id="line2d_7">
      <g>
       <use style="stroke:#000000;stroke-width:0.8;" x="374.4576" xlink:href="#m43384dd8f0" y="94.25091"/>
      </g>
     </g>
     <g id="text_8">
      <!-- −5.5 -->
      <g transform="translate(381.4576 98.050129)scale(0.1 -0.1)">
       <use xlink:href="#DejaVuSans-2212"/>
       <use x="83.789062" xlink:href="#DejaVuSans-35"/>
       <use x="147.412109" xlink:href="#DejaVuSans-2e"/>
       <use x="179.199219" xlink:href="#DejaVuSans-35"/>
      </g>
     </g>
    </g>
    <g id="ytick_8">
     <g id="line2d_8">
      <g>
       <use style="stroke:#000000;stroke-width:0.8;" x="374.4576" xlink:href="#m43384dd8f0" y="62.793201"/>
      </g>
     </g>
     <g id="text_9">
      <!-- −5.0 -->
      <g transform="translate(381.4576 66.59242)scale(0.1 -0.1)">
       <use xlink:href="#DejaVuSans-2212"/>
       <use x="83.789062" xlink:href="#DejaVuSans-35"/>
       <use x="147.412109" xlink:href="#DejaVuSans-2e"/>
       <use x="179.199219" xlink:href="#DejaVuSans-30"/>
      </g>
     </g>
    </g>
    <g id="text_10">
     <!-- Energy [eV] -->
     <defs>
      <path d="M 54.890625 33.015625 
L 54.890625 0 
L 45.90625 0 
L 45.90625 32.71875 
Q 45.90625 40.484375 42.875 44.328125 
Q 39.84375 48.1875 33.796875 48.1875 
Q 26.515625 48.1875 22.3125 43.546875 
Q 18.109375 38.921875 18.109375 30.90625 
L 18.109375 0 
L 9.078125 0 
L 9.078125 54.6875 
L 18.109375 54.6875 
L 18.109375 46.1875 
Q 21.34375 51.125 25.703125 53.5625 
Q 30.078125 56 35.796875 56 
Q 45.21875 56 50.046875 50.171875 
Q 54.890625 44.34375 54.890625 33.015625 
z
" id="DejaVuSans-6e"/>
      <path d="M 45.40625 27.984375 
Q 45.40625 37.75 41.375 43.109375 
Q 37.359375 48.484375 30.078125 48.484375 
Q 22.859375 48.484375 18.828125 43.109375 
Q 14.796875 37.75 14.796875 27.984375 
Q 14.796875 18.265625 18.828125 12.890625 
Q 22.859375 7.515625 30.078125 7.515625 
Q 37.359375 7.515625 41.375 12.890625 
Q 45.40625 18.265625 45.40625 27.984375 
z
M 54.390625 6.78125 
Q 54.390625 -7.171875 48.1875 -13.984375 
Q 42 -20.796875 29.203125 -20.796875 
Q 24.46875 -20.796875 20.265625 -20.09375 
Q 16.0625 -19.390625 12.109375 -17.921875 
L 12.109375 -9.1875 
Q 16.0625 -11.328125 19.921875 -12.34375 
Q 23.78125 -13.375 27.78125 -13.375 
Q 36.625 -13.375 41.015625 -8.765625 
Q 45.40625 -4.15625 45.40625 5.171875 
L 45.40625 9.625 
Q 42.625 4.78125 38.28125 2.390625 
Q 33.9375 0 27.875 0 
Q 17.828125 0 11.671875 7.65625 
Q 5.515625 15.328125 5.515625 27.984375 
Q 5.515625 40.671875 11.671875 48.328125 
Q 17.828125 56 27.875 56 
Q 33.9375 56 38.28125 53.609375 
Q 42.625 51.21875 45.40625 46.390625 
L 45.40625 54.6875 
L 54.390625 54.6875 
z
" id="DejaVuSans-67"/>
      <path d="M 32.171875 -5.078125 
Q 28.375 -14.84375 24.75 -17.8125 
Q 21.140625 -20.796875 15.09375 -20.796875 
L 7.90625 -20.796875 
L 7.90625 -13.28125 
L 13.1875 -13.28125 
Q 16.890625 -13.28125 18.9375 -11.515625 
Q 21 -9.765625 23.484375 -3.21875 
L 25.09375 0.875 
L 2.984375 54.6875 
L 12.5 54.6875 
L 29.59375 11.921875 
L 46.6875 54.6875 
L 56.203125 54.6875 
z
" id="DejaVuSans-79"/>
      <path d="M 8.59375 75.984375 
L 29.296875 75.984375 
L 29.296875 69 
L 17.578125 69 
L 17.578125 -6.203125 
L 29.296875 -6.203125 
L 29.296875 -13.1875 
L 8.59375 -13.1875 
z
" id="DejaVuSans-5b"/>
      <path d="M 30.421875 75.984375 
L 30.421875 -13.1875 
L 9.71875 -13.1875 
L 9.71875 -6.203125 
L 21.390625 -6.203125 
L 21.390625 69 
L 9.71875 69 
L 9.71875 75.984375 
z
" id="DejaVuSans-5d"/>
     </defs>
     <g transform="translate(417.33885 204.108469)rotate(-90)scale(0.1 -0.1)">
      <use xlink:href="#DejaVuSans-45"/>
      <use x="63.183594" xlink:href="#DejaVuSans-6e"/>
      <use x="126.5625" xlink:href="#DejaVuSans-65"/>
      <use x="188.085938" xlink:href="#DejaVuSans-72"/>
      <use x="229.183594" xlink:href="#DejaVuSans-67"/>
      <use x="292.660156" xlink:href="#DejaVuSans-79"/>
      <use x="351.839844" xlink:href="#DejaVuSans-20"/>
      <use x="383.626953" xlink:href="#DejaVuSans-5b"/>
      <use x="422.640625" xlink:href="#DejaVuSans-65"/>
      <use x="484.164062" xlink:href="#DejaVuSans-56"/>
      <use x="552.572266" xlink:href="#DejaVuSans-5d"/>
     </g>
    </g>
   </g>
   <g id="patch_3">
    <path d="M 361.152 307.584 
L 361.152 306.5445 
L 361.152 42.5115 
L 361.152 41.472 
L 374.4576 41.472 
L 374.4576 42.5115 
L 374.4576 306.5445 
L 374.4576 307.584 
z
" style="fill:none;stroke:#000000;stroke-linejoin:miter;stroke-width:0.8;"/>
   </g>
  </g>
 </g>
 <defs>
  <clipPath id="p6784c8d607">
   <rect height="266.112" width="285.696" x="57.6" y="41.472"/>
  </clipPath>
  <clipPath id="p7bb6ae147e">
   <rect height="266.112" width="13.3056" x="361.152" y="41.472"/>
  </clipPath>
 </defs>
</svg>
