<?xml version="1.0" encoding="utf-8" standalone="no"?>
<!DOCTYPE svg PUBLIC "-//W3C//DTD SVG 1.1//EN"
  "http://www.w3.org/Graphics/SVG/1.1/DTD/svg11.dtd">
<!-- Created with matplotlib (http://matplotlib.org/) -->
<svg height="345.6pt" version="1.1" viewBox="0 0 460.8 345.6" width="460.8pt" xmlns="http://www.w3.org/2000/svg" xmlns:xlink="http://www.w3.org/1999/xlink">
 <defs>
  <style type="text/css">
*{stroke-linecap:butt;stroke-linejoin:round;}
  </style>
 </defs>
 <g id="figure_1">
  <g id="patch_1">
   <path d="M 0 345.6 
L 460.8 345.6 
L 460.8 0 
L 0 0 
z
" style="fill:#ffffff;"/>
  </g>
  <g id="axes_1">
   <g id="CircleCollection_1">
    <path clip-path="url(#pacb8a85d80)" d="M 290.946366 235.679942 
C 292.744032 235.679942 294.468312 234.965722 295.739454 233.69458 
C 297.010596 232.423438 297.724816 230.699158 297.724816 228.901492 
C 297.724816 227.103826 297.010596 225.379546 295.739454 224.108404 
C 294.468312 222.837262 292.744032 222.123042 290.946366 222.123042 
C 289.1487 222.123042 287.42442 222.837262 286.153278 224.108404 
C 284.882136 225.379546 284.167916 227.103826 284.167916 228.901492 
C 284.167916 230.699158 284.882136 232.423438 286.153278 233.69458 
C 287.42442 234.965722 289.1487 235.679942 290.946366 235.679942 
z
" style="fill:#48186a;"/>
    <path clip-path="url(#pacb8a85d80)" d="M 143.844246 133.689491 
C 145.559159 133.689491 147.204065 133.008149 148.416692 131.795522 
C 149.629318 130.582896 150.310661 128.93799 150.310661 127.223077 
C 150.310661 125.508163 149.629318 123.863258 148.416692 122.650631 
C 147.204065 121.438004 145.559159 120.756662 143.844246 120.756662 
C 142.129333 120.756662 140.484427 121.438004 139.2718 122.650631 
C 138.059174 123.863258 137.377831 125.508163 137.377831 127.223077 
C 137.377831 128.93799 138.059174 130.582896 139.2718 131.795522 
C 140.484427 133.008149 142.129333 133.689491 143.844246 133.689491 
z
" style="fill:#33628d;"/>
    <path clip-path="url(#pacb8a85d80)" d="M 88.109903 140.931591 
C 89.843232 140.931591 91.505802 140.242932 92.73145 139.017283 
C 93.957099 137.791635 94.645758 136.129065 94.645758 134.395736 
C 94.645758 132.662408 93.957099 130.999838 92.73145 129.77419 
C 91.505802 128.548541 89.843232 127.859882 88.109903 127.859882 
C 86.376574 127.859882 84.714005 128.548541 83.488356 129.77419 
C 82.262708 130.999838 81.574049 132.662408 81.574049 134.395736 
C 81.574049 136.129065 82.262708 137.791635 83.488356 139.017283 
C 84.714005 140.242932 86.376574 140.931591 88.109903 140.931591 
z
" style="fill:#2a788e;"/>
    <path clip-path="url(#pacb8a85d80)" d="M 99.267414 266.310869 
C 101.072726 266.310869 102.804339 265.593611 104.080887 264.317064 
C 105.357435 263.040516 106.074693 261.308902 106.074693 259.503591 
C 106.074693 257.698279 105.357435 255.966666 104.080887 254.690118 
C 102.804339 253.41357 101.072726 252.696312 99.267414 252.696312 
C 97.462103 252.696312 95.73049 253.41357 94.453942 254.690118 
C 93.177394 255.966666 92.460136 257.698279 92.460136 259.503591 
C 92.460136 261.308902 93.177394 263.040516 94.453942 264.317064 
C 95.73049 265.593611 97.462103 266.310869 99.267414 266.310869 
z
" style="fill:#2eb37c;"/>
    <path clip-path="url(#pacb8a85d80)" d="M 175.863944 169.304905 
C 177.597207 169.304905 179.259713 168.616272 180.485315 167.390671 
C 181.710917 166.165069 182.39955 164.502562 182.39955 162.7693 
C 182.39955 161.036037 181.710917 159.373531 180.485315 158.147929 
C 179.259713 156.922327 177.597207 156.233694 175.863944 156.233694 
C 174.130682 156.233694 172.468175 156.922327 171.242573 158.147929 
C 170.016971 159.373531 169.328339 161.036037 169.328339 162.7693 
C 169.328339 164.502562 170.016971 166.165069 171.242573 167.390671 
C 172.468175 168.616272 174.130682 169.304905 175.863944 169.304905 
z
" style="fill:#440154;"/>
    <path clip-path="url(#pacb8a85d80)" d="M 329.800454 107.963368 
C 331.554405 107.963368 333.236756 107.266516 334.476987 106.026285 
C 335.717218 104.786054 336.41407 103.103703 336.41407 101.349751 
C 336.41407 99.5958 335.717218 97.913449 334.476987 96.673218 
C 333.236756 95.432987 331.554405 94.736135 329.800454 94.736135 
C 328.046502 94.736135 326.364151 95.432987 325.12392 96.673218 
C 323.883689 97.913449 323.186837 99.5958 323.186837 101.349751 
C 323.186837 103.103703 323.883689 104.786054 325.12392 106.026285 
C 326.364151 107.266516 328.046502 107.963368 329.800454 107.963368 
z
" style="fill:#fbe723;"/>
    <path clip-path="url(#pacb8a85d80)" d="M 239.053046 301.777961 
C 240.889263 301.777961 242.650521 301.048424 243.948922 299.750023 
C 245.247323 298.451621 245.97686 296.690364 245.97686 294.854147 
C 245.97686 293.01793 245.247323 291.256673 243.948922 289.958272 
C 242.650521 288.65987 240.889263 287.930334 239.053046 287.930334 
C 237.21683 287.930334 235.455572 288.65987 234.157171 289.958272 
C 232.85877 291.256673 232.129233 293.01793 232.129233 294.854147 
C 232.129233 296.690364 232.85877 298.451621 234.157171 299.750023 
C 235.455572 301.048424 237.21683 301.777961 239.053046 301.777961 
z
" style="fill:#25ac82;"/>
    <path clip-path="url(#pacb8a85d80)" d="M 71.096957 180.985744 
C 72.855764 180.985744 74.542772 180.286962 75.786437 179.043298 
C 77.030101 177.799633 77.728883 176.112625 77.728883 174.353818 
C 77.728883 172.59501 77.030101 170.908002 75.786437 169.664337 
C 74.542772 168.420673 72.855764 167.721891 71.096957 167.721891 
C 69.338149 167.721891 67.651141 168.420673 66.407476 169.664337 
C 65.163812 170.908002 64.46503 172.59501 64.46503 174.353818 
C 64.46503 176.112625 65.163812 177.799633 66.407476 179.043298 
C 67.651141 180.286962 69.338149 180.985744 71.096957 180.985744 
z
" style="fill:#69cd5b;"/>
    <path clip-path="url(#pacb8a85d80)" d="M 322.030065 158.556329 
C 323.798542 158.556329 325.494825 157.853705 326.745327 156.603203 
C 327.995829 155.352701 328.698452 153.656419 328.698452 151.887942 
C 328.698452 150.119465 327.995829 148.423182 326.745327 147.17268 
C 325.494825 145.922178 323.798542 145.219555 322.030065 145.219555 
C 320.261588 145.219555 318.565305 145.922178 317.314803 147.17268 
C 316.064301 148.423182 315.361678 150.119465 315.361678 151.887942 
C 315.361678 153.656419 316.064301 155.352701 317.314803 156.603203 
C 318.565305 157.853705 320.261588 158.556329 322.030065 158.556329 
z
" style="fill:#2a778e;"/>
    <path clip-path="url(#pacb8a85d80)" d="M 135.062325 293.940759 
C 136.885213 293.940759 138.633686 293.216518 139.922662 291.927542 
C 141.211638 290.638565 141.935879 288.890093 141.935879 287.067205 
C 141.935879 285.244317 141.211638 283.495845 139.922662 282.206869 
C 138.633686 280.917893 136.885213 280.193652 135.062325 280.193652 
C 133.239438 280.193652 131.490965 280.917893 130.201989 282.206869 
C 128.913013 283.495845 128.188772 285.244317 128.188772 287.067205 
C 128.188772 288.890093 128.913013 290.638565 130.201989 291.927542 
C 131.490965 293.216518 133.239438 293.940759 135.062325 293.940759 
z
" style="fill:#26ad81;"/>
    <path clip-path="url(#pacb8a85d80)" d="M 329.359123 200.911056 
C 331.151048 200.911056 332.869822 200.199117 334.136904 198.932035 
C 335.403987 197.664952 336.115926 195.946179 336.115926 194.154254 
C 336.115926 192.362329 335.403987 190.643555 334.136904 189.376473 
C 332.869822 188.10939 331.151048 187.397451 329.359123 187.397451 
C 327.567198 187.397451 325.848425 188.10939 324.581342 189.376473 
C 323.31426 190.643555 322.602321 192.362329 322.602321 194.154254 
C 322.602321 195.946179 323.31426 197.664952 324.581342 198.932035 
C 325.848425 200.199117 327.567198 200.911056 329.359123 200.911056 
z
" style="fill:#60ca60;"/>
    <path clip-path="url(#pacb8a85d80)" d="M 270.049059 142.430367 
C 271.791235 142.430367 273.46229 141.738193 274.694194 140.506289 
C 275.926098 139.274384 276.618272 137.603329 276.618272 135.861153 
C 276.618272 134.118978 275.926098 132.447922 274.694194 131.216018 
C 273.46229 129.984114 271.791235 129.29194 270.049059 129.29194 
C 268.306883 129.29194 266.635828 129.984114 265.403924 131.216018 
C 264.172019 132.447922 263.479846 134.118978 263.479846 135.861153 
C 263.479846 137.603329 264.172019 139.274384 265.403924 140.506289 
C 266.635828 141.738193 268.306883 142.430367 270.049059 142.430367 
z
" style="fill:#365c8d;"/>
    <path clip-path="url(#pacb8a85d80)" d="M 154.414152 212.124957 
C 156.17324 212.124957 157.860517 211.426063 159.104381 210.1822 
C 160.348244 208.938337 161.047137 207.251059 161.047137 205.491971 
C 161.047137 203.732883 160.348244 202.045606 159.104381 200.801742 
C 157.860517 199.557879 156.17324 198.858986 154.414152 198.858986 
C 152.655063 198.858986 150.967786 199.557879 149.723923 200.801742 
C 148.48006 202.045606 147.781166 203.732883 147.781166 205.491971 
C 147.781166 207.251059 148.48006 208.938337 149.723923 210.1822 
C 150.967786 211.426063 152.655063 212.124957 154.414152 212.124957 
z
" style="fill:#481467;"/>
    <path clip-path="url(#pacb8a85d80)" d="M 279.560822 94.201427 
C 281.293395 94.201427 282.95524 93.513068 284.180354 92.287954 
C 285.405468 91.06284 286.093826 89.400996 286.093826 87.668423 
C 286.093826 85.93585 285.405468 84.274006 284.180354 83.048892 
C 282.95524 81.823778 281.293395 81.135419 279.560822 81.135419 
C 277.828249 81.135419 276.166405 81.823778 274.941291 83.048892 
C 273.716177 84.274006 273.027818 85.93585 273.027818 87.668423 
C 273.027818 89.400996 273.716177 91.06284 274.941291 92.287954 
C 276.166405 93.513068 277.828249 94.201427 279.560822 94.201427 
z
" style="fill:#424086;"/>
    <path clip-path="url(#pacb8a85d80)" d="M 100.910215 220.905064 
C 102.684259 220.905064 104.385881 220.200229 105.640319 218.94579 
C 106.894758 217.691352 107.599593 215.98973 107.599593 214.215686 
C 107.599593 212.441642 106.894758 210.74002 105.640319 209.485582 
C 104.385881 208.231143 102.684259 207.526308 100.910215 207.526308 
C 99.136171 207.526308 97.434549 208.231143 96.180111 209.485582 
C 94.925672 210.74002 94.220837 212.441642 94.220837 214.215686 
C 94.220837 215.98973 94.925672 217.691352 96.180111 218.94579 
C 97.434549 220.200229 99.136171 220.905064 100.910215 220.905064 
z
" style="fill:#48186a;"/>
    <path clip-path="url(#pacb8a85d80)" d="M 188.798938 287.016002 
C 190.615833 287.016002 192.358557 286.294142 193.643296 285.009404 
C 194.928034 283.724665 195.649894 281.981941 195.649894 280.165046 
C 195.649894 278.348151 194.928034 276.605426 193.643296 275.320688 
C 192.358557 274.035949 190.615833 273.314089 188.798938 273.314089 
C 186.982043 273.314089 185.239318 274.035949 183.95458 275.320688 
C 182.669841 276.605426 181.947981 278.348151 181.947981 280.165046 
C 181.947981 281.981941 182.669841 283.724665 183.95458 285.009404 
C 185.239318 286.294142 186.982043 287.016002 188.798938 287.016002 
z
" style="fill:#481f70;"/>
    <path clip-path="url(#pacb8a85d80)" d="M 145.294821 84.279779 
C 147.005172 84.279779 148.645702 83.60025 149.855102 82.390849 
C 151.064503 81.181448 151.744033 79.540919 151.744033 77.830568 
C 151.744033 76.120217 151.064503 74.479688 149.855102 73.270287 
C 148.645702 72.060886 147.005172 71.381357 145.294821 71.381357 
C 143.58447 71.381357 141.943941 72.060886 140.73454 73.270287 
C 139.52514 74.479688 138.84561 76.120217 138.84561 77.830568 
C 138.84561 79.540919 139.52514 81.181448 140.73454 82.390849 
C 141.943941 83.60025 143.58447 84.279779 145.294821 84.279779 
z
" style="fill:#414287;"/>
    <path clip-path="url(#pacb8a85d80)" d="M 93.514053 89.652958 
C 95.248909 89.652958 96.912944 88.963692 98.139673 87.736963 
C 99.366401 86.510234 100.055667 84.8462 100.055667 83.111343 
C 100.055667 81.376487 99.366401 79.712452 98.139673 78.485724 
C 96.912944 77.258995 95.248909 76.569729 93.514053 76.569729 
C 91.779196 76.569729 90.115162 77.258995 88.888433 78.485724 
C 87.661704 79.712452 86.972439 81.376487 86.972439 83.111343 
C 86.972439 84.8462 87.661704 86.510234 88.888433 87.736963 
C 90.115162 88.963692 91.779196 89.652958 93.514053 89.652958 
z
" style="fill:#fde725;"/>
    <path clip-path="url(#pacb8a85d80)" d="M 191.532586 60.616161 
C 193.245013 60.616161 194.887534 59.935806 196.098402 58.724938 
C 197.309271 57.514069 197.989625 55.871548 197.989625 54.159121 
C 197.989625 52.446694 197.309271 50.804173 196.098402 49.593305 
C 194.887534 48.382436 193.245013 47.702082 191.532586 47.702082 
C 189.820159 47.702082 188.177638 48.382436 186.966769 49.593305 
C 185.755901 50.804173 185.075546 52.446694 185.075546 54.159121 
C 185.075546 55.871548 185.755901 57.514069 186.966769 58.724938 
C 188.177638 59.935806 189.820159 60.616161 191.532586 60.616161 
z
" style="fill:#20928c;"/>
    <path clip-path="url(#pacb8a85d80)" d="M 280.889555 280.158364 
C 282.717827 280.158364 284.471465 279.431983 285.764248 278.139199 
C 287.057032 276.846415 287.783413 275.092778 287.783413 273.264505 
C 287.783413 271.436233 287.057032 269.682595 285.764248 268.389812 
C 284.471465 267.097028 282.717827 266.370647 280.889555 266.370647 
C 279.061282 266.370647 277.307645 267.097028 276.014861 268.389812 
C 274.722077 269.682595 273.995696 271.436233 273.995696 273.264505 
C 273.995696 275.092778 274.722077 276.846415 276.014861 278.139199 
C 277.307645 279.431983 279.061282 280.158364 280.889555 280.158364 
z
" style="fill:#2db27d;"/>
    <path clip-path="url(#pacb8a85d80)" d="M 242.114498 219.07468 
C 243.883949 219.07468 245.581166 218.37167 246.832357 217.120479 
C 248.083548 215.869288 248.786559 214.172071 248.786559 212.40262 
C 248.786559 210.633169 248.083548 208.935951 246.832357 207.68476 
C 245.581166 206.433569 243.883949 205.730559 242.114498 205.730559 
C 240.345047 205.730559 238.64783 206.433569 237.396639 207.68476 
C 236.145448 208.935951 235.442437 210.633169 235.442437 212.40262 
C 235.442437 214.172071 236.145448 215.869288 237.396639 217.120479 
C 238.64783 218.37167 240.345047 219.07468 242.114498 219.07468 
z
" style="fill:#481467;"/>
    <path clip-path="url(#pacb8a85d80)" d="M 195.004001 242.459907 
C 196.782879 242.459907 198.489138 241.753151 199.746995 240.495295 
C 201.004851 239.237438 201.711607 237.531179 201.711607 235.752301 
C 201.711607 233.973423 201.004851 232.267164 199.746995 231.009308 
C 198.489138 229.751451 196.782879 229.044696 195.004001 229.044696 
C 193.225124 229.044696 191.518865 229.751451 190.261008 231.009308 
C 189.003151 232.267164 188.296396 233.973423 188.296396 235.752301 
C 188.296396 237.531179 189.003151 239.237438 190.261008 240.495295 
C 191.518865 241.753151 193.225124 242.459907 195.004001 242.459907 
z
" style="fill:#471365;"/>
    <path clip-path="url(#pacb8a85d80)" d="M 231.397021 173.509613 
C 233.137837 173.509613 234.807588 172.817979 236.038531 171.587037 
C 237.269473 170.356094 237.961107 168.686343 237.961107 166.945527 
C 237.961107 165.204711 237.269473 163.534961 236.038531 162.304018 
C 234.807588 161.073075 233.137837 160.381442 231.397021 160.381442 
C 229.656206 160.381442 227.986455 161.073075 226.755512 162.304018 
C 225.52457 163.534961 224.832936 165.204711 224.832936 166.945527 
C 224.832936 168.686343 225.52457 170.356094 226.755512 171.587037 
C 227.986455 172.817979 229.656206 173.509613 231.397021 173.509613 
z
" style="fill:#440154;"/>
    <path clip-path="url(#pacb8a85d80)" d="M 239.55165 63.856271 
C 241.26932 63.856271 242.91687 63.173834 244.131446 61.959258 
C 245.346022 60.744682 246.028459 59.097132 246.028459 57.379462 
C 246.028459 55.661792 245.346022 54.014243 244.131446 52.799667 
C 242.91687 51.585091 241.26932 50.902653 239.55165 50.902653 
C 237.833981 50.902653 236.186431 51.585091 234.971855 52.799667 
C 233.757279 54.014243 233.074841 55.661792 233.074841 57.379462 
C 233.074841 59.097132 233.757279 60.744682 234.971855 61.959258 
C 236.186431 63.173834 237.833981 63.856271 239.55165 63.856271 
z
" style="fill:#21908d;"/>
   </g>
   <g id="text_1">
    <!-- Structure #2457, $E_N$=-184.09eV, ΔE=-0.16eV -->
    <defs>
     <path d="M 53.515625 70.515625 
L 53.515625 60.890625 
Q 47.90625 63.578125 42.921875 64.890625 
Q 37.9375 66.21875 33.296875 66.21875 
Q 25.25 66.21875 20.875 63.09375 
Q 16.5 59.96875 16.5 54.203125 
Q 16.5 49.359375 19.40625 46.890625 
Q 22.3125 44.4375 30.421875 42.921875 
L 36.375 41.703125 
Q 47.40625 39.59375 52.65625 34.296875 
Q 57.90625 29 57.90625 20.125 
Q 57.90625 9.515625 50.796875 4.046875 
Q 43.703125 -1.421875 29.984375 -1.421875 
Q 24.8125 -1.421875 18.96875 -0.25 
Q 13.140625 0.921875 6.890625 3.21875 
L 6.890625 13.375 
Q 12.890625 10.015625 18.65625 8.296875 
Q 24.421875 6.59375 29.984375 6.59375 
Q 38.421875 6.59375 43.015625 9.90625 
Q 47.609375 13.234375 47.609375 19.390625 
Q 47.609375 24.75 44.3125 27.78125 
Q 41.015625 30.8125 33.5 32.328125 
L 27.484375 33.5 
Q 16.453125 35.6875 11.515625 40.375 
Q 6.59375 45.0625 6.59375 53.421875 
Q 6.59375 63.09375 13.40625 68.65625 
Q 20.21875 74.21875 32.171875 74.21875 
Q 37.3125 74.21875 42.625 73.28125 
Q 47.953125 72.359375 53.515625 70.515625 
z
" id="DejaVuSans-53"/>
     <path d="M 18.3125 70.21875 
L 18.3125 54.6875 
L 36.8125 54.6875 
L 36.8125 47.703125 
L 18.3125 47.703125 
L 18.3125 18.015625 
Q 18.3125 11.328125 20.140625 9.421875 
Q 21.96875 7.515625 27.59375 7.515625 
L 36.8125 7.515625 
L 36.8125 0 
L 27.59375 0 
Q 17.1875 0 13.234375 3.875 
Q 9.28125 7.765625 9.28125 18.015625 
L 9.28125 47.703125 
L 2.6875 47.703125 
L 2.6875 54.6875 
L 9.28125 54.6875 
L 9.28125 70.21875 
z
" id="DejaVuSans-74"/>
     <path d="M 41.109375 46.296875 
Q 39.59375 47.171875 37.8125 47.578125 
Q 36.03125 48 33.890625 48 
Q 26.265625 48 22.1875 43.046875 
Q 18.109375 38.09375 18.109375 28.8125 
L 18.109375 0 
L 9.078125 0 
L 9.078125 54.6875 
L 18.109375 54.6875 
L 18.109375 46.1875 
Q 20.953125 51.171875 25.484375 53.578125 
Q 30.03125 56 36.53125 56 
Q 37.453125 56 38.578125 55.875 
Q 39.703125 55.765625 41.0625 55.515625 
z
" id="DejaVuSans-72"/>
     <path d="M 8.5 21.578125 
L 8.5 54.6875 
L 17.484375 54.6875 
L 17.484375 21.921875 
Q 17.484375 14.15625 20.5 10.265625 
Q 23.53125 6.390625 29.59375 6.390625 
Q 36.859375 6.390625 41.078125 11.03125 
Q 45.3125 15.671875 45.3125 23.6875 
L 45.3125 54.6875 
L 54.296875 54.6875 
L 54.296875 0 
L 45.3125 0 
L 45.3125 8.40625 
Q 42.046875 3.421875 37.71875 1 
Q 33.40625 -1.421875 27.6875 -1.421875 
Q 18.265625 -1.421875 13.375 4.4375 
Q 8.5 10.296875 8.5 21.578125 
z
M 31.109375 56 
z
" id="DejaVuSans-75"/>
     <path d="M 48.78125 52.59375 
L 48.78125 44.1875 
Q 44.96875 46.296875 41.140625 47.34375 
Q 37.3125 48.390625 33.40625 48.390625 
Q 24.65625 48.390625 19.8125 42.84375 
Q 14.984375 37.3125 14.984375 27.296875 
Q 14.984375 17.28125 19.8125 11.734375 
Q 24.65625 6.203125 33.40625 6.203125 
Q 37.3125 6.203125 41.140625 7.25 
Q 44.96875 8.296875 48.78125 10.40625 
L 48.78125 2.09375 
Q 45.015625 0.34375 40.984375 -0.53125 
Q 36.96875 -1.421875 32.421875 -1.421875 
Q 20.0625 -1.421875 12.78125 6.34375 
Q 5.515625 14.109375 5.515625 27.296875 
Q 5.515625 40.671875 12.859375 48.328125 
Q 20.21875 56 33.015625 56 
Q 37.15625 56 41.109375 55.140625 
Q 45.0625 54.296875 48.78125 52.59375 
z
" id="DejaVuSans-63"/>
     <path d="M 56.203125 29.59375 
L 56.203125 25.203125 
L 14.890625 25.203125 
Q 15.484375 15.921875 20.484375 11.0625 
Q 25.484375 6.203125 34.421875 6.203125 
Q 39.59375 6.203125 44.453125 7.46875 
Q 49.3125 8.734375 54.109375 11.28125 
L 54.109375 2.78125 
Q 49.265625 0.734375 44.1875 -0.34375 
Q 39.109375 -1.421875 33.890625 -1.421875 
Q 20.796875 -1.421875 13.15625 6.1875 
Q 5.515625 13.8125 5.515625 26.8125 
Q 5.515625 40.234375 12.765625 48.109375 
Q 20.015625 56 32.328125 56 
Q 43.359375 56 49.78125 48.890625 
Q 56.203125 41.796875 56.203125 29.59375 
z
M 47.21875 32.234375 
Q 47.125 39.59375 43.09375 43.984375 
Q 39.0625 48.390625 32.421875 48.390625 
Q 24.90625 48.390625 20.390625 44.140625 
Q 15.875 39.890625 15.1875 32.171875 
z
" id="DejaVuSans-65"/>
     <path id="DejaVuSans-20"/>
     <path d="M 51.125 44 
L 36.921875 44 
L 32.8125 27.6875 
L 47.125 27.6875 
z
M 43.796875 71.78125 
L 38.71875 51.515625 
L 52.984375 51.515625 
L 58.109375 71.78125 
L 65.921875 71.78125 
L 60.890625 51.515625 
L 76.125 51.515625 
L 76.125 44 
L 58.984375 44 
L 54.984375 27.6875 
L 70.515625 27.6875 
L 70.515625 20.21875 
L 53.078125 20.21875 
L 48 0 
L 40.1875 0 
L 45.21875 20.21875 
L 30.90625 20.21875 
L 25.875 0 
L 18.015625 0 
L 23.09375 20.21875 
L 7.71875 20.21875 
L 7.71875 27.6875 
L 24.90625 27.6875 
L 29 44 
L 13.28125 44 
L 13.28125 51.515625 
L 30.90625 51.515625 
L 35.890625 71.78125 
z
" id="DejaVuSans-23"/>
     <path d="M 19.1875 8.296875 
L 53.609375 8.296875 
L 53.609375 0 
L 7.328125 0 
L 7.328125 8.296875 
Q 12.9375 14.109375 22.625 23.890625 
Q 32.328125 33.6875 34.8125 36.53125 
Q 39.546875 41.84375 41.421875 45.53125 
Q 43.3125 49.21875 43.3125 52.78125 
Q 43.3125 58.59375 39.234375 62.25 
Q 35.15625 65.921875 28.609375 65.921875 
Q 23.96875 65.921875 18.8125 64.3125 
Q 13.671875 62.703125 7.8125 59.421875 
L 7.8125 69.390625 
Q 13.765625 71.78125 18.9375 73 
Q 24.125 74.21875 28.421875 74.21875 
Q 39.75 74.21875 46.484375 68.546875 
Q 53.21875 62.890625 53.21875 53.421875 
Q 53.21875 48.921875 51.53125 44.890625 
Q 49.859375 40.875 45.40625 35.40625 
Q 44.1875 33.984375 37.640625 27.21875 
Q 31.109375 20.453125 19.1875 8.296875 
z
" id="DejaVuSans-32"/>
     <path d="M 37.796875 64.3125 
L 12.890625 25.390625 
L 37.796875 25.390625 
z
M 35.203125 72.90625 
L 47.609375 72.90625 
L 47.609375 25.390625 
L 58.015625 25.390625 
L 58.015625 17.1875 
L 47.609375 17.1875 
L 47.609375 0 
L 37.796875 0 
L 37.796875 17.1875 
L 4.890625 17.1875 
L 4.890625 26.703125 
z
" id="DejaVuSans-34"/>
     <path d="M 10.796875 72.90625 
L 49.515625 72.90625 
L 49.515625 64.59375 
L 19.828125 64.59375 
L 19.828125 46.734375 
Q 21.96875 47.46875 24.109375 47.828125 
Q 26.265625 48.1875 28.421875 48.1875 
Q 40.625 48.1875 47.75 41.5 
Q 54.890625 34.8125 54.890625 23.390625 
Q 54.890625 11.625 47.5625 5.09375 
Q 40.234375 -1.421875 26.90625 -1.421875 
Q 22.3125 -1.421875 17.546875 -0.640625 
Q 12.796875 0.140625 7.71875 1.703125 
L 7.71875 11.625 
Q 12.109375 9.234375 16.796875 8.0625 
Q 21.484375 6.890625 26.703125 6.890625 
Q 35.15625 6.890625 40.078125 11.328125 
Q 45.015625 15.765625 45.015625 23.390625 
Q 45.015625 31 40.078125 35.4375 
Q 35.15625 39.890625 26.703125 39.890625 
Q 22.75 39.890625 18.8125 39.015625 
Q 14.890625 38.140625 10.796875 36.28125 
z
" id="DejaVuSans-35"/>
     <path d="M 8.203125 72.90625 
L 55.078125 72.90625 
L 55.078125 68.703125 
L 28.609375 0 
L 18.3125 0 
L 43.21875 64.59375 
L 8.203125 64.59375 
z
" id="DejaVuSans-37"/>
     <path d="M 11.71875 12.40625 
L 22.015625 12.40625 
L 22.015625 4 
L 14.015625 -11.625 
L 7.71875 -11.625 
L 11.71875 4 
z
" id="DejaVuSans-2c"/>
     <path d="M 16.890625 72.90625 
L 62.984375 72.90625 
L 61.375 64.59375 
L 25.09375 64.59375 
L 20.90625 43.015625 
L 55.71875 43.015625 
L 54.109375 34.71875 
L 19.28125 34.71875 
L 14.203125 8.296875 
L 51.3125 8.296875 
L 49.703125 0 
L 2.6875 0 
z
" id="DejaVuSans-Oblique-45"/>
     <path d="M 16.890625 72.90625 
L 30.171875 72.90625 
L 50.296875 10.40625 
L 62.5 72.90625 
L 72.125 72.90625 
L 57.90625 0 
L 44.578125 0 
L 24.515625 62.890625 
L 12.3125 0 
L 2.6875 0 
z
" id="DejaVuSans-Oblique-4e"/>
     <path d="M 10.59375 45.40625 
L 73.1875 45.40625 
L 73.1875 37.203125 
L 10.59375 37.203125 
z
M 10.59375 25.484375 
L 73.1875 25.484375 
L 73.1875 17.1875 
L 10.59375 17.1875 
z
" id="DejaVuSans-3d"/>
     <path d="M 4.890625 31.390625 
L 31.203125 31.390625 
L 31.203125 23.390625 
L 4.890625 23.390625 
z
" id="DejaVuSans-2d"/>
     <path d="M 12.40625 8.296875 
L 28.515625 8.296875 
L 28.515625 63.921875 
L 10.984375 60.40625 
L 10.984375 69.390625 
L 28.421875 72.90625 
L 38.28125 72.90625 
L 38.28125 8.296875 
L 54.390625 8.296875 
L 54.390625 0 
L 12.40625 0 
z
" id="DejaVuSans-31"/>
     <path d="M 31.78125 34.625 
Q 24.75 34.625 20.71875 30.859375 
Q 16.703125 27.09375 16.703125 20.515625 
Q 16.703125 13.921875 20.71875 10.15625 
Q 24.75 6.390625 31.78125 6.390625 
Q 38.8125 6.390625 42.859375 10.171875 
Q 46.921875 13.96875 46.921875 20.515625 
Q 46.921875 27.09375 42.890625 30.859375 
Q 38.875 34.625 31.78125 34.625 
z
M 21.921875 38.8125 
Q 15.578125 40.375 12.03125 44.71875 
Q 8.5 49.078125 8.5 55.328125 
Q 8.5 64.0625 14.71875 69.140625 
Q 20.953125 74.21875 31.78125 74.21875 
Q 42.671875 74.21875 48.875 69.140625 
Q 55.078125 64.0625 55.078125 55.328125 
Q 55.078125 49.078125 51.53125 44.71875 
Q 48 40.375 41.703125 38.8125 
Q 48.828125 37.15625 52.796875 32.3125 
Q 56.78125 27.484375 56.78125 20.515625 
Q 56.78125 9.90625 50.3125 4.234375 
Q 43.84375 -1.421875 31.78125 -1.421875 
Q 19.734375 -1.421875 13.25 4.234375 
Q 6.78125 9.90625 6.78125 20.515625 
Q 6.78125 27.484375 10.78125 32.3125 
Q 14.796875 37.15625 21.921875 38.8125 
z
M 18.3125 54.390625 
Q 18.3125 48.734375 21.84375 45.5625 
Q 25.390625 42.390625 31.78125 42.390625 
Q 38.140625 42.390625 41.71875 45.5625 
Q 45.3125 48.734375 45.3125 54.390625 
Q 45.3125 60.0625 41.71875 63.234375 
Q 38.140625 66.40625 31.78125 66.40625 
Q 25.390625 66.40625 21.84375 63.234375 
Q 18.3125 60.0625 18.3125 54.390625 
z
" id="DejaVuSans-38"/>
     <path d="M 10.6875 12.40625 
L 21 12.40625 
L 21 0 
L 10.6875 0 
z
" id="DejaVuSans-2e"/>
     <path d="M 31.78125 66.40625 
Q 24.171875 66.40625 20.328125 58.90625 
Q 16.5 51.421875 16.5 36.375 
Q 16.5 21.390625 20.328125 13.890625 
Q 24.171875 6.390625 31.78125 6.390625 
Q 39.453125 6.390625 43.28125 13.890625 
Q 47.125 21.390625 47.125 36.375 
Q 47.125 51.421875 43.28125 58.90625 
Q 39.453125 66.40625 31.78125 66.40625 
z
M 31.78125 74.21875 
Q 44.046875 74.21875 50.515625 64.515625 
Q 56.984375 54.828125 56.984375 36.375 
Q 56.984375 17.96875 50.515625 8.265625 
Q 44.046875 -1.421875 31.78125 -1.421875 
Q 19.53125 -1.421875 13.0625 8.265625 
Q 6.59375 17.96875 6.59375 36.375 
Q 6.59375 54.828125 13.0625 64.515625 
Q 19.53125 74.21875 31.78125 74.21875 
z
" id="DejaVuSans-30"/>
     <path d="M 10.984375 1.515625 
L 10.984375 10.5 
Q 14.703125 8.734375 18.5 7.8125 
Q 22.3125 6.890625 25.984375 6.890625 
Q 35.75 6.890625 40.890625 13.453125 
Q 46.046875 20.015625 46.78125 33.40625 
Q 43.953125 29.203125 39.59375 26.953125 
Q 35.25 24.703125 29.984375 24.703125 
Q 19.046875 24.703125 12.671875 31.3125 
Q 6.296875 37.9375 6.296875 49.421875 
Q 6.296875 60.640625 12.9375 67.421875 
Q 19.578125 74.21875 30.609375 74.21875 
Q 43.265625 74.21875 49.921875 64.515625 
Q 56.59375 54.828125 56.59375 36.375 
Q 56.59375 19.140625 48.40625 8.859375 
Q 40.234375 -1.421875 26.421875 -1.421875 
Q 22.703125 -1.421875 18.890625 -0.6875 
Q 15.09375 0.046875 10.984375 1.515625 
z
M 30.609375 32.421875 
Q 37.25 32.421875 41.125 36.953125 
Q 45.015625 41.5 45.015625 49.421875 
Q 45.015625 57.28125 41.125 61.84375 
Q 37.25 66.40625 30.609375 66.40625 
Q 23.96875 66.40625 20.09375 61.84375 
Q 16.21875 57.28125 16.21875 49.421875 
Q 16.21875 41.5 20.09375 36.953125 
Q 23.96875 32.421875 30.609375 32.421875 
z
" id="DejaVuSans-39"/>
     <path d="M 28.609375 0 
L 0.78125 72.90625 
L 11.078125 72.90625 
L 34.1875 11.53125 
L 57.328125 72.90625 
L 67.578125 72.90625 
L 39.796875 0 
z
" id="DejaVuSans-56"/>
     <path d="M 34.1875 63.1875 
L 14.15625 8.203125 
L 54.25 8.203125 
z
M 0.78125 0 
L 28.609375 72.90625 
L 39.796875 72.90625 
L 67.578125 0 
z
" id="DejaVuSans-394"/>
     <path d="M 9.8125 72.90625 
L 55.90625 72.90625 
L 55.90625 64.59375 
L 19.671875 64.59375 
L 19.671875 43.015625 
L 54.390625 43.015625 
L 54.390625 34.71875 
L 19.671875 34.71875 
L 19.671875 8.296875 
L 56.78125 8.296875 
L 56.78125 0 
L 9.8125 0 
z
" id="DejaVuSans-45"/>
     <path d="M 33.015625 40.375 
Q 26.375 40.375 22.484375 35.828125 
Q 18.609375 31.296875 18.609375 23.390625 
Q 18.609375 15.53125 22.484375 10.953125 
Q 26.375 6.390625 33.015625 6.390625 
Q 39.65625 6.390625 43.53125 10.953125 
Q 47.40625 15.53125 47.40625 23.390625 
Q 47.40625 31.296875 43.53125 35.828125 
Q 39.65625 40.375 33.015625 40.375 
z
M 52.59375 71.296875 
L 52.59375 62.3125 
Q 48.875 64.0625 45.09375 64.984375 
Q 41.3125 65.921875 37.59375 65.921875 
Q 27.828125 65.921875 22.671875 59.328125 
Q 17.53125 52.734375 16.796875 39.40625 
Q 19.671875 43.65625 24.015625 45.921875 
Q 28.375 48.1875 33.59375 48.1875 
Q 44.578125 48.1875 50.953125 41.515625 
Q 57.328125 34.859375 57.328125 23.390625 
Q 57.328125 12.15625 50.6875 5.359375 
Q 44.046875 -1.421875 33.015625 -1.421875 
Q 20.359375 -1.421875 13.671875 8.265625 
Q 6.984375 17.96875 6.984375 36.375 
Q 6.984375 53.65625 15.1875 63.9375 
Q 23.390625 74.21875 37.203125 74.21875 
Q 40.921875 74.21875 44.703125 73.484375 
Q 48.484375 72.75 52.59375 71.296875 
z
" id="DejaVuSans-36"/>
    </defs>
    <g transform="translate(63.228 35.472)scale(0.12 -0.12)">
     <use transform="translate(0 0.78125)" xlink:href="#DejaVuSans-53"/>
     <use transform="translate(63.476562 0.78125)" xlink:href="#DejaVuSans-74"/>
     <use transform="translate(102.685547 0.78125)" xlink:href="#DejaVuSans-72"/>
     <use transform="translate(143.798828 0.78125)" xlink:href="#DejaVuSans-75"/>
     <use transform="translate(207.177734 0.78125)" xlink:href="#DejaVuSans-63"/>
     <use transform="translate(262.158203 0.78125)" xlink:href="#DejaVuSans-74"/>
     <use transform="translate(301.367188 0.78125)" xlink:href="#DejaVuSans-75"/>
     <use transform="translate(364.746094 0.78125)" xlink:href="#DejaVuSans-72"/>
     <use transform="translate(405.859375 0.78125)" xlink:href="#DejaVuSans-65"/>
     <use transform="translate(467.382812 0.78125)" xlink:href="#DejaVuSans-20"/>
     <use transform="translate(499.169922 0.78125)" xlink:href="#DejaVuSans-23"/>
     <use transform="translate(582.958984 0.78125)" xlink:href="#DejaVuSans-32"/>
     <use transform="translate(646.582031 0.78125)" xlink:href="#DejaVuSans-34"/>
     <use transform="translate(710.205078 0.78125)" xlink:href="#DejaVuSans-35"/>
     <use transform="translate(773.71875 0.78125)" xlink:href="#DejaVuSans-37"/>
     <use transform="translate(837.341797 0.78125)" xlink:href="#DejaVuSans-2c"/>
     <use transform="translate(869.128906 0.78125)" xlink:href="#DejaVuSans-20"/>
     <use transform="translate(900.916016 0.78125)" xlink:href="#DejaVuSans-Oblique-45"/>
     <use transform="translate(964.099609 -15.625)scale(0.7)" xlink:href="#DejaVuSans-Oblique-4e"/>
     <use transform="translate(1019.197266 0.78125)" xlink:href="#DejaVuSans-3d"/>
     <use transform="translate(1102.986328 0.78125)" xlink:href="#DejaVuSans-2d"/>
     <use transform="translate(1139.070312 0.78125)" xlink:href="#DejaVuSans-31"/>
     <use transform="translate(1202.693359 0.78125)" xlink:href="#DejaVuSans-38"/>
     <use transform="translate(1266.316406 0.78125)" xlink:href="#DejaVuSans-34"/>
     <use transform="translate(1329.939453 0.78125)" xlink:href="#DejaVuSans-2e"/>
     <use transform="translate(1361.726562 0.78125)" xlink:href="#DejaVuSans-30"/>
     <use transform="translate(1425.349609 0.78125)" xlink:href="#DejaVuSans-39"/>
     <use transform="translate(1488.972656 0.78125)" xlink:href="#DejaVuSans-65"/>
     <use transform="translate(1550.496094 0.78125)" xlink:href="#DejaVuSans-56"/>
     <use transform="translate(1618.904297 0.78125)" xlink:href="#DejaVuSans-2c"/>
     <use transform="translate(1650.691406 0.78125)" xlink:href="#DejaVuSans-20"/>
     <use transform="translate(1682.478516 0.78125)" xlink:href="#DejaVuSans-394"/>
     <use transform="translate(1750.886719 0.78125)" xlink:href="#DejaVuSans-45"/>
     <use transform="translate(1814.070312 0.78125)" xlink:href="#DejaVuSans-3d"/>
     <use transform="translate(1897.859375 0.78125)" xlink:href="#DejaVuSans-2d"/>
     <use transform="translate(1933.943359 0.78125)" xlink:href="#DejaVuSans-30"/>
     <use transform="translate(1997.566406 0.78125)" xlink:href="#DejaVuSans-2e"/>
     <use transform="translate(2029.353516 0.78125)" xlink:href="#DejaVuSans-31"/>
     <use transform="translate(2092.976562 0.78125)" xlink:href="#DejaVuSans-36"/>
     <use transform="translate(2156.599609 0.78125)" xlink:href="#DejaVuSans-65"/>
     <use transform="translate(2218.123047 0.78125)" xlink:href="#DejaVuSans-56"/>
    </g>
   </g>
  </g>
  <g id="axes_2">
   <g id="patch_2">
    <path clip-path="url(#pffd0f80ab9)" d="M 361.152 307.584 
L 361.152 306.5445 
L 361.152 42.5115 
L 361.152 41.472 
L 374.4576 41.472 
L 374.4576 42.5115 
L 374.4576 306.5445 
L 374.4576 307.584 
z
" style="fill:#ffffff;stroke:#ffffff;stroke-linejoin:miter;stroke-width:0.01;"/>
   </g>
   <image height="265.68" id="image545b304aeb" transform="scale(1 -1)translate(0 -265.68)" width="12.96" x="361.44" xlink:href="data:image/png;base64,
iVBORw0KGgoAAAANSUhEUgAAABIAAAFxCAYAAAB+2fgXAAAABHNCSVQICAgIfAhkiAAAAeVJREFUeJztncmNw0AQA2ckheYQNv9QLIfQ8ygsCgQ7AEI8+jAs2Puz/94F1LP2ReCsZ18bAWIeZ5XaGRBE7VnbptG+KI101FYyNSiQG2oRITXKNaX9uclOdi2XWjftVE32CZCO2ou5Bj1TcCBr/1zB9ge7Fq0Rg2NM9pvbtG+ua1QgsRYhDy0ISEiNc40BEibbSI0Coj5CBGtkpFbXJiAjNZlrwhuSOv2M1DjXbEdEciBt1JSDDQKKpmZr2rr2j0DBGpXaWEJq3bQzEPIS26r9J+Wzv9Tm8o3aajRXqc3VUXsApKNWjeZq0x4ABVNbm7lrszVigDqP5vIl2+eaT2yfRkL7g+dRcNPqjohkjaCvRVBq0H2U3LQrOJCx9kdTg4B8oxZzzTdqdYHEngjUCAPyUctN9sVRq2sTECW2UKNLd2jVtRmo1A6AhMmWaSRcR8nUdIHUuVb75zJS218EyEitro1At69pIdeSk30Lkw0FktNImGyZRhy1O5galmxd03LUsHWk06jUZiCq+5Wb1kZNN4+wJxJuWt8RAW5am2sYNZ9rYCBzZ3buPKJ2P5Yj4Toy3keyIyJbIxs1rml1byCA84gpch5RQNB7Q0qNMGq2Hy4BXdNR41yz/cEEJfZzUz96r9PoB0okjeQ8y9TkAAAAAElFTkSuQmCC" y="-41.76"/>
   <g id="matplotlib.axis_1"/>
   <g id="matplotlib.axis_2">
    <g id="ytick_1">
     <g id="line2d_1">
      <defs>
       <path d="M 0 0 
L 3.5 0 
" id="m47b06b539e" style="stroke:#000000;stroke-width:0.8;"/>
      </defs>
      <g>
       <use style="stroke:#000000;stroke-width:0.8;" x="374.4576" xlink:href="#m47b06b539e" y="280.879645"/>
      </g>
     </g>
     <g id="text_2">
      <!-- −8.5 -->
      <defs>
       <path d="M 10.59375 35.5 
L 73.1875 35.5 
L 73.1875 27.203125 
L 10.59375 27.203125 
z
" id="DejaVuSans-2212"/>
      </defs>
      <g transform="translate(381.4576 284.678864)scale(0.1 -0.1)">
       <use xlink:href="#DejaVuSans-2212"/>
       <use x="83.789062" xlink:href="#DejaVuSans-38"/>
       <use x="147.412109" xlink:href="#DejaVuSans-2e"/>
       <use x="179.199219" xlink:href="#DejaVuSans-35"/>
      </g>
     </g>
    </g>
    <g id="ytick_2">
     <g id="line2d_2">
      <g>
       <use style="stroke:#000000;stroke-width:0.8;" x="374.4576" xlink:href="#m47b06b539e" y="235.510531"/>
      </g>
     </g>
     <g id="text_3">
      <!-- −8.0 -->
      <g transform="translate(381.4576 239.309749)scale(0.1 -0.1)">
       <use xlink:href="#DejaVuSans-2212"/>
       <use x="83.789062" xlink:href="#DejaVuSans-38"/>
       <use x="147.412109" xlink:href="#DejaVuSans-2e"/>
       <use x="179.199219" xlink:href="#DejaVuSans-30"/>
      </g>
     </g>
    </g>
    <g id="ytick_3">
     <g id="line2d_3">
      <g>
       <use style="stroke:#000000;stroke-width:0.8;" x="374.4576" xlink:href="#m47b06b539e" y="190.141416"/>
      </g>
     </g>
     <g id="text_4">
      <!-- −7.5 -->
      <g transform="translate(381.4576 193.940635)scale(0.1 -0.1)">
       <use xlink:href="#DejaVuSans-2212"/>
       <use x="83.789062" xlink:href="#DejaVuSans-37"/>
       <use x="147.412109" xlink:href="#DejaVuSans-2e"/>
       <use x="179.199219" xlink:href="#DejaVuSans-35"/>
      </g>
     </g>
    </g>
    <g id="ytick_4">
     <g id="line2d_4">
      <g>
       <use style="stroke:#000000;stroke-width:0.8;" x="374.4576" xlink:href="#m47b06b539e" y="144.772301"/>
      </g>
     </g>
     <g id="text_5">
      <!-- −7.0 -->
      <g transform="translate(381.4576 148.57152)scale(0.1 -0.1)">
       <use xlink:href="#DejaVuSans-2212"/>
       <use x="83.789062" xlink:href="#DejaVuSans-37"/>
       <use x="147.412109" xlink:href="#DejaVuSans-2e"/>
       <use x="179.199219" xlink:href="#DejaVuSans-30"/>
      </g>
     </g>
    </g>
    <g id="ytick_5">
     <g id="line2d_5">
      <g>
       <use style="stroke:#000000;stroke-width:0.8;" x="374.4576" xlink:href="#m47b06b539e" y="99.403187"/>
      </g>
     </g>
     <g id="text_6">
      <!-- −6.5 -->
      <g transform="translate(381.4576 103.202405)scale(0.1 -0.1)">
       <use xlink:href="#DejaVuSans-2212"/>
       <use x="83.789062" xlink:href="#DejaVuSans-36"/>
       <use x="147.412109" xlink:href="#DejaVuSans-2e"/>
       <use x="179.199219" xlink:href="#DejaVuSans-35"/>
      </g>
     </g>
    </g>
    <g id="ytick_6">
     <g id="line2d_6">
      <g>
       <use style="stroke:#000000;stroke-width:0.8;" x="374.4576" xlink:href="#m47b06b539e" y="54.034072"/>
      </g>
     </g>
     <g id="text_7">
      <!-- −6.0 -->
      <g transform="translate(381.4576 57.833291)scale(0.1 -0.1)">
       <use xlink:href="#DejaVuSans-2212"/>
       <use x="83.789062" xlink:href="#DejaVuSans-36"/>
       <use x="147.412109" xlink:href="#DejaVuSans-2e"/>
       <use x="179.199219" xlink:href="#DejaVuSans-30"/>
      </g>
     </g>
    </g>
    <g id="text_8">
     <!-- Energy [eV] -->
     <defs>
      <path d="M 54.890625 33.015625 
L 54.890625 0 
L 45.90625 0 
L 45.90625 32.71875 
Q 45.90625 40.484375 42.875 44.328125 
Q 39.84375 48.1875 33.796875 48.1875 
Q 26.515625 48.1875 22.3125 43.546875 
Q 18.109375 38.921875 18.109375 30.90625 
L 18.109375 0 
L 9.078125 0 
L 9.078125 54.6875 
L 18.109375 54.6875 
L 18.109375 46.1875 
Q 21.34375 51.125 25.703125 53.5625 
Q 30.078125 56 35.796875 56 
Q 45.21875 56 50.046875 50.171875 
Q 54.890625 44.34375 54.890625 33.015625 
z
" id="DejaVuSans-6e"/>
      <path d="M 45.40625 27.984375 
Q 45.40625 37.75 41.375 43.109375 
Q 37.359375 48.484375 30.078125 48.484375 
Q 22.859375 48.484375 18.828125 43.109375 
Q 14.796875 37.75 14.796875 27.984375 
Q 14.796875 18.265625 18.828125 12.890625 
Q 22.859375 7.515625 30.078125 7.515625 
Q 37.359375 7.515625 41.375 12.890625 
Q 45.40625 18.265625 45.40625 27.984375 
z
M 54.390625 6.78125 
Q 54.390625 -7.171875 48.1875 -13.984375 
Q 42 -20.796875 29.203125 -20.796875 
Q 24.46875 -20.796875 20.265625 -20.09375 
Q 16.0625 -19.390625 12.109375 -17.921875 
L 12.109375 -9.1875 
Q 16.0625 -11.328125 19.921875 -12.34375 
Q 23.78125 -13.375 27.78125 -13.375 
Q 36.625 -13.375 41.015625 -8.765625 
Q 45.40625 -4.15625 45.40625 5.171875 
L 45.40625 9.625 
Q 42.625 4.78125 38.28125 2.390625 
Q 33.9375 0 27.875 0 
Q 17.828125 0 11.671875 7.65625 
Q 5.515625 15.328125 5.515625 27.984375 
Q 5.515625 40.671875 11.671875 48.328125 
Q 17.828125 56 27.875 56 
Q 33.9375 56 38.28125 53.609375 
Q 42.625 51.21875 45.40625 46.390625 
L 45.40625 54.6875 
L 54.390625 54.6875 
z
" id="DejaVuSans-67"/>
      <path d="M 32.171875 -5.078125 
Q 28.375 -14.84375 24.75 -17.8125 
Q 21.140625 -20.796875 15.09375 -20.796875 
L 7.90625 -20.796875 
L 7.90625 -13.28125 
L 13.1875 -13.28125 
Q 16.890625 -13.28125 18.9375 -11.515625 
Q 21 -9.765625 23.484375 -3.21875 
L 25.09375 0.875 
L 2.984375 54.6875 
L 12.5 54.6875 
L 29.59375 11.921875 
L 46.6875 54.6875 
L 56.203125 54.6875 
z
" id="DejaVuSans-79"/>
      <path d="M 8.59375 75.984375 
L 29.296875 75.984375 
L 29.296875 69 
L 17.578125 69 
L 17.578125 -6.203125 
L 29.296875 -6.203125 
L 29.296875 -13.1875 
L 8.59375 -13.1875 
z
" id="DejaVuSans-5b"/>
      <path d="M 30.421875 75.984375 
L 30.421875 -13.1875 
L 9.71875 -13.1875 
L 9.71875 -6.203125 
L 21.390625 -6.203125 
L 21.390625 69 
L 9.71875 69 
L 9.71875 75.984375 
z
" id="DejaVuSans-5d"/>
     </defs>
     <g transform="translate(417.33885 204.108469)rotate(-90)scale(0.1 -0.1)">
      <use xlink:href="#DejaVuSans-45"/>
      <use x="63.183594" xlink:href="#DejaVuSans-6e"/>
      <use x="126.5625" xlink:href="#DejaVuSans-65"/>
      <use x="188.085938" xlink:href="#DejaVuSans-72"/>
      <use x="229.183594" xlink:href="#DejaVuSans-67"/>
      <use x="292.660156" xlink:href="#DejaVuSans-79"/>
      <use x="351.839844" xlink:href="#DejaVuSans-20"/>
      <use x="383.626953" xlink:href="#DejaVuSans-5b"/>
      <use x="422.640625" xlink:href="#DejaVuSans-65"/>
      <use x="484.164062" xlink:href="#DejaVuSans-56"/>
      <use x="552.572266" xlink:href="#DejaVuSans-5d"/>
     </g>
    </g>
   </g>
   <g id="patch_3">
    <path d="M 361.152 307.584 
L 361.152 306.5445 
L 361.152 42.5115 
L 361.152 41.472 
L 374.4576 41.472 
L 374.4576 42.5115 
L 374.4576 306.5445 
L 374.4576 307.584 
z
" style="fill:none;stroke:#000000;stroke-linejoin:miter;stroke-width:0.8;"/>
   </g>
  </g>
 </g>
 <defs>
  <clipPath id="pacb8a85d80">
   <rect height="266.112" width="285.696" x="57.6" y="41.472"/>
  </clipPath>
  <clipPath id="pffd0f80ab9">
   <rect height="266.112" width="13.3056" x="361.152" y="41.472"/>
  </clipPath>
 </defs>
</svg>
