<?xml version="1.0" encoding="utf-8" standalone="no"?>
<!DOCTYPE svg PUBLIC "-//W3C//DTD SVG 1.1//EN"
  "http://www.w3.org/Graphics/SVG/1.1/DTD/svg11.dtd">
<!-- Created with matplotlib (http://matplotlib.org/) -->
<svg height="345.6pt" version="1.1" viewBox="0 0 460.8 345.6" width="460.8pt" xmlns="http://www.w3.org/2000/svg" xmlns:xlink="http://www.w3.org/1999/xlink">
 <defs>
  <style type="text/css">
*{stroke-linecap:butt;stroke-linejoin:round;}
  </style>
 </defs>
 <g id="figure_1">
  <g id="patch_1">
   <path d="M 0 345.6 
L 460.8 345.6 
L 460.8 0 
L 0 0 
z
" style="fill:#ffffff;"/>
  </g>
  <g id="axes_1">
   <g id="CircleCollection_1">
    <path clip-path="url(#p21f211964a)" d="M 95.298778 258.782035 
C 97.075928 258.782035 98.780529 258.075965 100.037164 256.819331 
C 101.293799 255.562696 101.999868 253.858094 101.999868 252.080944 
C 101.999868 250.303795 101.293799 248.599193 100.037164 247.342558 
C 98.780529 246.085924 97.075928 245.379854 95.298778 245.379854 
C 93.521628 245.379854 91.817026 246.085924 90.560392 247.342558 
C 89.303757 248.599193 88.597688 250.303795 88.597688 252.080944 
C 88.597688 253.858094 89.303757 255.562696 90.560392 256.819331 
C 91.817026 258.075965 93.521628 258.782035 95.298778 258.782035 
z
" style="fill:#22a785;"/>
    <path clip-path="url(#p21f211964a)" d="M 244.349597 256.17682 
C 246.115413 256.17682 247.809144 255.475254 249.057764 254.226633 
C 250.306385 252.978013 251.007951 251.284282 251.007951 249.518466 
C 251.007951 247.75265 250.306385 246.058919 249.057764 244.810299 
C 247.809144 243.561678 246.115413 242.860112 244.349597 242.860112 
C 242.583781 242.860112 240.890051 243.561678 239.64143 244.810299 
C 238.392809 246.058919 237.691243 247.75265 237.691243 249.518466 
C 237.691243 251.284282 238.392809 252.978013 239.64143 254.226633 
C 240.890051 255.475254 242.583781 256.17682 244.349597 256.17682 
z
" style="fill:#481c6e;"/>
    <path clip-path="url(#p21f211964a)" d="M 184.206605 142.09108 
C 185.993247 142.09108 187.706953 141.38124 188.970299 140.117893 
C 190.233645 138.854547 190.943486 137.140841 190.943486 135.354199 
C 190.943486 133.567558 190.233645 131.853852 188.970299 130.590505 
C 187.706953 129.327159 185.993247 128.617319 184.206605 128.617319 
C 182.419964 128.617319 180.706258 129.327159 179.442911 130.590505 
C 178.179565 131.853852 177.469725 133.567558 177.469725 135.354199 
C 177.469725 137.140841 178.179565 138.854547 179.442911 140.117893 
C 180.706258 141.38124 182.419964 142.09108 184.206605 142.09108 
z
" style="fill:#2b758e;"/>
    <path clip-path="url(#p21f211964a)" d="M 301.24431 125.468426 
C 303.019295 125.468426 304.721821 124.763217 305.976925 123.508113 
C 307.232029 122.253009 307.937238 120.550483 307.937238 118.775498 
C 307.937238 117.000513 307.232029 115.297987 305.976925 114.042883 
C 304.721821 112.787779 303.019295 112.08257 301.24431 112.08257 
C 299.469325 112.08257 297.766799 112.787779 296.511695 114.042883 
C 295.256591 115.297987 294.551382 117.000513 294.551382 118.775498 
C 294.551382 120.550483 295.256591 122.253009 296.511695 123.508113 
C 297.766799 124.763217 299.469325 125.468426 301.24431 125.468426 
z
" style="fill:#34618d;"/>
    <path clip-path="url(#p21f211964a)" d="M 151.987641 62.48244 
C 153.79311 62.48244 155.524876 61.765119 156.801536 60.488459 
C 158.078195 59.211799 158.795516 57.480034 158.795516 55.674564 
C 158.795516 53.869095 158.078195 52.137329 156.801536 50.86067 
C 155.524876 49.58401 153.79311 48.866689 151.987641 48.866689 
C 150.182171 48.866689 148.450406 49.58401 147.173746 50.86067 
C 145.897086 52.137329 145.179765 53.869095 145.179765 55.674564 
C 145.179765 57.480034 145.897086 59.211799 147.173746 60.488459 
C 148.450406 61.765119 150.182171 62.48244 151.987641 62.48244 
z
" style="fill:#23a983;"/>
    <path clip-path="url(#p21f211964a)" d="M 76.812598 219.988854 
C 78.599437 219.988854 80.313332 219.278935 81.576818 218.015449 
C 82.840303 216.751963 83.550222 215.038068 83.550222 213.251229 
C 83.550222 211.46439 82.840303 209.750495 81.576818 208.487009 
C 80.313332 207.223523 78.599437 206.513605 76.812598 206.513605 
C 75.025759 206.513605 73.311864 207.223523 72.048378 208.487009 
C 70.784892 209.750495 70.074973 211.46439 70.074973 213.251229 
C 70.074973 215.038068 70.784892 216.751963 72.048378 218.015449 
C 73.311864 219.278935 75.025759 219.988854 76.812598 219.988854 
z
" style="fill:#2db27d;"/>
    <path clip-path="url(#p21f211964a)" d="M 212.405326 218.174058 
C 214.180337 218.174058 215.882887 217.468839 217.138009 216.213717 
C 218.393132 214.958594 219.098351 213.256044 219.098351 211.481033 
C 219.098351 209.706022 218.393132 208.003472 217.138009 206.748349 
C 215.882887 205.493227 214.180337 204.788008 212.405326 204.788008 
C 210.630315 204.788008 208.927765 205.493227 207.672642 206.748349 
C 206.41752 208.003472 205.7123 209.706022 205.7123 211.481033 
C 205.7123 213.256044 206.41752 214.958594 207.672642 216.213717 
C 208.927765 217.468839 210.630315 218.174058 212.405326 218.174058 
z
" style="fill:#482677;"/>
    <path clip-path="url(#p21f211964a)" d="M 74.429553 90.839715 
C 76.243264 90.839715 77.982933 90.11912 79.265421 88.836633 
C 80.547908 87.554146 81.268502 85.814476 81.268502 84.000766 
C 81.268502 82.187055 80.547908 80.447385 79.265421 79.164898 
C 77.982933 77.882411 76.243264 77.161816 74.429553 77.161816 
C 72.615842 77.161816 70.876172 77.882411 69.593685 79.164898 
C 68.311198 80.447385 67.590603 82.187055 67.590603 84.000766 
C 67.590603 85.814476 68.311198 87.554146 69.593685 88.836633 
C 70.876172 90.11912 72.615842 90.839715 74.429553 90.839715 
z
" style="fill:#228b8d;"/>
    <path clip-path="url(#p21f211964a)" d="M 71.048294 133.371079 
C 72.854194 133.371079 74.586373 132.653588 75.863337 131.376623 
C 77.140301 130.099659 77.857793 128.367481 77.857793 126.561581 
C 77.857793 124.755681 77.140301 123.023502 75.863337 121.746538 
C 74.586373 120.469574 72.854194 119.752082 71.048294 119.752082 
C 69.242394 119.752082 67.510216 120.469574 66.233252 121.746538 
C 64.956287 123.023502 64.238796 124.755681 64.238796 126.561581 
C 64.238796 128.367481 64.956287 130.099659 66.233252 131.376623 
C 67.510216 132.653588 69.242394 133.371079 71.048294 133.371079 
z
" style="fill:#22a785;"/>
    <path clip-path="url(#p21f211964a)" d="M 276.131648 85.700474 
C 277.923633 85.700474 279.642463 84.988511 280.909587 83.721387 
C 282.176711 82.454263 282.888674 80.735433 282.888674 78.943449 
C 282.888674 77.151464 282.176711 75.432634 280.909587 74.16551 
C 279.642463 72.898386 277.923633 72.186423 276.131648 72.186423 
C 274.339664 72.186423 272.620834 72.898386 271.35371 74.16551 
C 270.086586 75.432634 269.374623 77.151464 269.374623 78.943449 
C 269.374623 80.735433 270.086586 82.454263 271.35371 83.721387 
C 272.620834 84.988511 274.339664 85.700474 276.131648 85.700474 
z
" style="fill:#21918c;"/>
    <path clip-path="url(#p21f211964a)" d="M 174.547354 301.508252 
C 176.307774 301.508252 177.996329 300.808829 179.241134 299.564024 
C 180.48594 298.319219 181.185362 296.630664 181.185362 294.870244 
C 181.185362 293.109823 180.48594 291.421268 179.241134 290.176463 
C 177.996329 288.931658 176.307774 288.232236 174.547354 288.232236 
C 172.786934 288.232236 171.098379 288.931658 169.853574 290.176463 
C 168.608768 291.421268 167.909346 293.109823 167.909346 294.870244 
C 167.909346 296.630664 168.608768 298.319219 169.853574 299.564024 
C 171.098379 300.808829 172.786934 301.508252 174.547354 301.508252 
z
" style="fill:#25ab82;"/>
    <path clip-path="url(#p21f211964a)" d="M 144.434437 176.630939 
C 146.221448 176.630939 147.935509 175.920952 149.199116 174.657345 
C 150.462724 173.393737 151.172711 171.679676 151.172711 169.892665 
C 151.172711 168.105654 150.462724 166.391594 149.199116 165.127986 
C 147.935509 163.864378 146.221448 163.154391 144.434437 163.154391 
C 142.647426 163.154391 140.933365 163.864378 139.669758 165.127986 
C 138.40615 166.391594 137.696163 168.105654 137.696163 169.892665 
C 137.696163 171.679676 138.40615 173.393737 139.669758 174.657345 
C 140.933365 175.920952 142.647426 176.630939 144.434437 176.630939 
z
" style="fill:#2a768e;"/>
    <path clip-path="url(#p21f211964a)" d="M 189.582242 92.370738 
C 191.377721 92.370738 193.099903 91.657387 194.369499 90.387791 
C 195.639094 89.118196 196.352445 87.396014 196.352445 85.600535 
C 196.352445 83.805056 195.639094 82.082874 194.369499 80.813278 
C 193.099903 79.543683 191.377721 78.830332 189.582242 78.830332 
C 187.786763 78.830332 186.064581 79.543683 184.794986 80.813278 
C 183.52539 82.082874 182.812039 83.805056 182.812039 85.600535 
C 182.812039 87.396014 183.52539 89.118196 184.794986 90.387791 
C 186.064581 91.657387 187.786763 92.370738 189.582242 92.370738 
z
" style="fill:#440154;"/>
    <path clip-path="url(#p21f211964a)" d="M 94.588639 175.35196 
C 96.38218 175.35196 98.102503 174.639379 99.370728 173.371154 
C 100.638952 172.102929 101.351534 170.382606 101.351534 168.589065 
C 101.351534 166.795525 100.638952 165.075202 99.370728 163.806977 
C 98.102503 162.538752 96.38218 161.826171 94.588639 161.826171 
C 92.795099 161.826171 91.074775 162.538752 89.806551 163.806977 
C 88.538326 165.075202 87.825745 166.795525 87.825745 168.589065 
C 87.825745 170.382606 88.538326 172.102929 89.806551 173.371154 
C 91.074775 174.639379 92.795099 175.35196 94.588639 175.35196 
z
" style="fill:#46075a;"/>
    <path clip-path="url(#p21f211964a)" d="M 224.74885 170.956971 
C 226.525634 170.956971 228.229884 170.251047 229.48626 168.994671 
C 230.742636 167.738296 231.448559 166.034045 231.448559 164.257262 
C 231.448559 162.480478 230.742636 160.776227 229.48626 159.519852 
C 228.229884 158.263476 226.525634 157.557552 224.74885 157.557552 
C 222.972067 157.557552 221.267816 158.263476 220.01144 159.519852 
C 218.755065 160.776227 218.049141 162.480478 218.049141 164.257262 
C 218.049141 166.034045 218.755065 167.738296 220.01144 168.994671 
C 221.267816 170.251047 222.972067 170.956971 224.74885 170.956971 
z
" style="fill:#472d7b;"/>
    <path clip-path="url(#p21f211964a)" d="M 216.820725 296.066114 
C 218.579602 296.066114 220.266677 295.367305 221.510391 294.123591 
C 222.754105 292.879877 223.452914 291.192802 223.452914 289.433925 
C 223.452914 287.675049 222.754105 285.987974 221.510391 284.74426 
C 220.266677 283.500546 218.579602 282.801737 216.820725 282.801737 
C 215.061848 282.801737 213.374774 283.500546 212.13106 284.74426 
C 210.887346 285.987974 210.188537 287.675049 210.188537 289.433925 
C 210.188537 291.192802 210.887346 292.879877 212.13106 294.123591 
C 213.374774 295.367305 215.061848 296.066114 216.820725 296.066114 
z
" style="fill:#2cb17e;"/>
    <path clip-path="url(#p21f211964a)" d="M 234.828863 76.61631 
C 236.6241 76.61631 238.346051 75.903055 239.615475 74.633631 
C 240.884899 73.364207 241.598155 71.642256 241.598155 69.847019 
C 241.598155 68.051782 240.884899 66.329832 239.615475 65.060407 
C 238.346051 63.790983 236.6241 63.077728 234.828863 63.077728 
C 233.033626 63.077728 231.311676 63.790983 230.042252 65.060407 
C 228.772827 66.329832 228.059572 68.051782 228.059572 69.847019 
C 228.059572 71.642256 228.772827 73.364207 230.042252 74.633631 
C 231.311676 75.903055 233.033626 76.61631 234.828863 76.61631 
z
" style="fill:#24aa83;"/>
    <path clip-path="url(#p21f211964a)" d="M 290.748941 245.019879 
C 292.52074 245.019879 294.22021 244.315936 295.473061 243.063085 
C 296.725912 241.810234 297.429855 240.110764 297.429855 238.338965 
C 297.429855 236.567166 296.725912 234.867697 295.473061 233.614845 
C 294.22021 232.361994 292.52074 231.658051 290.748941 231.658051 
C 288.977142 231.658051 287.277672 232.361994 286.024821 233.614845 
C 284.77197 234.867697 284.068027 236.567166 284.068027 238.338965 
C 284.068027 240.110764 284.77197 241.810234 286.024821 243.063085 
C 287.277672 244.315936 288.977142 245.019879 290.748941 245.019879 
z
" style="fill:#89d548;"/>
    <path clip-path="url(#p21f211964a)" d="M 270.624992 163.337332 
C 272.38131 163.337332 274.065931 162.63954 275.307836 161.397635 
C 276.549741 160.15573 277.247534 158.471109 277.247534 156.71479 
C 277.247534 154.958471 276.549741 153.27385 275.307836 152.031945 
C 274.065931 150.79004 272.38131 150.092248 270.624992 150.092248 
C 268.868673 150.092248 267.184052 150.79004 265.942147 152.031945 
C 264.700242 153.27385 264.002449 154.958471 264.002449 156.71479 
C 264.002449 158.471109 264.700242 160.15573 265.942147 161.397635 
C 267.184052 162.63954 268.868673 163.337332 270.624992 163.337332 
z
" style="fill:#33638d;"/>
    <path clip-path="url(#p21f211964a)" d="M 164.419995 221.610096 
C 166.198926 221.610096 167.905236 220.903319 169.163131 219.645425 
C 170.421025 218.387531 171.127802 216.68122 171.127802 214.902289 
C 171.127802 213.123358 170.421025 211.417047 169.163131 210.159153 
C 167.905236 208.901259 166.198926 208.194482 164.419995 208.194482 
C 162.641063 208.194482 160.934753 208.901259 159.676859 210.159153 
C 158.418964 211.417047 157.712187 213.123358 157.712187 214.902289 
C 157.712187 216.68122 158.418964 218.387531 159.676859 219.645425 
C 160.934753 220.903319 162.641063 221.610096 164.419995 221.610096 
z
" style="fill:#453581;"/>
    <path clip-path="url(#p21f211964a)" d="M 141.941019 266.484893 
C 143.713088 266.484893 145.412816 265.780843 146.665857 264.527801 
C 147.918899 263.274759 148.622949 261.575031 148.622949 259.802963 
C 148.622949 258.030894 147.918899 256.331167 146.665857 255.078125 
C 145.412816 253.825083 143.713088 253.121033 141.941019 253.121033 
C 140.168951 253.121033 138.469223 253.825083 137.216182 255.078125 
C 135.96314 256.331167 135.25909 258.030894 135.25909 259.802963 
C 135.25909 261.575031 135.96314 263.274759 137.216182 264.527801 
C 138.469223 265.780843 140.168951 266.484893 141.941019 266.484893 
z
" style="fill:#471365;"/>
    <path clip-path="url(#p21f211964a)" d="M 110.328539 61.04812 
C 112.143393 61.04812 113.88416 60.327071 115.167456 59.043775 
C 116.450752 57.760479 117.171801 56.019712 117.171801 54.204858 
C 117.171801 52.390004 116.450752 50.649237 115.167456 49.365941 
C 113.88416 48.082645 112.143393 47.361596 110.328539 47.361596 
C 108.513684 47.361596 106.772917 48.082645 105.489621 49.365941 
C 104.206326 50.649237 103.485276 52.390004 103.485276 54.204858 
C 103.485276 56.019712 104.206326 57.760479 105.489621 59.043775 
C 106.772917 60.327071 108.513684 61.04812 110.328539 61.04812 
z
" style="fill:#228b8d;"/>
    <path clip-path="url(#p21f211964a)" d="M 329.84786 161.570377 
C 331.653158 161.570377 333.38476 160.853124 334.661299 159.576585 
C 335.937838 158.300046 336.655091 156.568445 336.655091 154.763146 
C 336.655091 152.957847 335.937838 151.226246 334.661299 149.949707 
C 333.38476 148.673167 331.653158 147.955915 329.84786 147.955915 
C 328.042561 147.955915 326.310959 148.673167 325.03442 149.949707 
C 323.757881 151.226246 323.040629 152.957847 323.040629 154.763146 
C 323.040629 156.568445 323.757881 158.300046 325.03442 159.576585 
C 326.310959 160.853124 328.042561 161.570377 329.84786 161.570377 
z
" style="fill:#fde725;"/>
    <path clip-path="url(#p21f211964a)" d="M 303.81756 200.697457 
C 305.582218 200.697457 307.274838 199.996351 308.522639 198.74855 
C 309.770441 197.500748 310.471547 195.808129 310.471547 194.043471 
C 310.471547 192.278813 309.770441 190.586194 308.522639 189.338392 
C 307.274838 188.090591 305.582218 187.389485 303.81756 187.389485 
C 302.052903 187.389485 300.360283 188.090591 299.112481 189.338392 
C 297.86468 190.586194 297.163574 192.278813 297.163574 194.043471 
C 297.163574 195.808129 297.86468 197.500748 299.112481 198.74855 
C 300.360283 199.996351 302.052903 200.697457 303.81756 200.697457 
z
" style="fill:#2f6b8e;"/>
   </g>
   <g id="text_1">
    <!-- Structure #115, $E_N$=-184.11eV, ΔE=0.16eV -->
    <defs>
     <path d="M 53.515625 70.515625 
L 53.515625 60.890625 
Q 47.90625 63.578125 42.921875 64.890625 
Q 37.9375 66.21875 33.296875 66.21875 
Q 25.25 66.21875 20.875 63.09375 
Q 16.5 59.96875 16.5 54.203125 
Q 16.5 49.359375 19.40625 46.890625 
Q 22.3125 44.4375 30.421875 42.921875 
L 36.375 41.703125 
Q 47.40625 39.59375 52.65625 34.296875 
Q 57.90625 29 57.90625 20.125 
Q 57.90625 9.515625 50.796875 4.046875 
Q 43.703125 -1.421875 29.984375 -1.421875 
Q 24.8125 -1.421875 18.96875 -0.25 
Q 13.140625 0.921875 6.890625 3.21875 
L 6.890625 13.375 
Q 12.890625 10.015625 18.65625 8.296875 
Q 24.421875 6.59375 29.984375 6.59375 
Q 38.421875 6.59375 43.015625 9.90625 
Q 47.609375 13.234375 47.609375 19.390625 
Q 47.609375 24.75 44.3125 27.78125 
Q 41.015625 30.8125 33.5 32.328125 
L 27.484375 33.5 
Q 16.453125 35.6875 11.515625 40.375 
Q 6.59375 45.0625 6.59375 53.421875 
Q 6.59375 63.09375 13.40625 68.65625 
Q 20.21875 74.21875 32.171875 74.21875 
Q 37.3125 74.21875 42.625 73.28125 
Q 47.953125 72.359375 53.515625 70.515625 
z
" id="DejaVuSans-53"/>
     <path d="M 18.3125 70.21875 
L 18.3125 54.6875 
L 36.8125 54.6875 
L 36.8125 47.703125 
L 18.3125 47.703125 
L 18.3125 18.015625 
Q 18.3125 11.328125 20.140625 9.421875 
Q 21.96875 7.515625 27.59375 7.515625 
L 36.8125 7.515625 
L 36.8125 0 
L 27.59375 0 
Q 17.1875 0 13.234375 3.875 
Q 9.28125 7.765625 9.28125 18.015625 
L 9.28125 47.703125 
L 2.6875 47.703125 
L 2.6875 54.6875 
L 9.28125 54.6875 
L 9.28125 70.21875 
z
" id="DejaVuSans-74"/>
     <path d="M 41.109375 46.296875 
Q 39.59375 47.171875 37.8125 47.578125 
Q 36.03125 48 33.890625 48 
Q 26.265625 48 22.1875 43.046875 
Q 18.109375 38.09375 18.109375 28.8125 
L 18.109375 0 
L 9.078125 0 
L 9.078125 54.6875 
L 18.109375 54.6875 
L 18.109375 46.1875 
Q 20.953125 51.171875 25.484375 53.578125 
Q 30.03125 56 36.53125 56 
Q 37.453125 56 38.578125 55.875 
Q 39.703125 55.765625 41.0625 55.515625 
z
" id="DejaVuSans-72"/>
     <path d="M 8.5 21.578125 
L 8.5 54.6875 
L 17.484375 54.6875 
L 17.484375 21.921875 
Q 17.484375 14.15625 20.5 10.265625 
Q 23.53125 6.390625 29.59375 6.390625 
Q 36.859375 6.390625 41.078125 11.03125 
Q 45.3125 15.671875 45.3125 23.6875 
L 45.3125 54.6875 
L 54.296875 54.6875 
L 54.296875 0 
L 45.3125 0 
L 45.3125 8.40625 
Q 42.046875 3.421875 37.71875 1 
Q 33.40625 -1.421875 27.6875 -1.421875 
Q 18.265625 -1.421875 13.375 4.4375 
Q 8.5 10.296875 8.5 21.578125 
z
M 31.109375 56 
z
" id="DejaVuSans-75"/>
     <path d="M 48.78125 52.59375 
L 48.78125 44.1875 
Q 44.96875 46.296875 41.140625 47.34375 
Q 37.3125 48.390625 33.40625 48.390625 
Q 24.65625 48.390625 19.8125 42.84375 
Q 14.984375 37.3125 14.984375 27.296875 
Q 14.984375 17.28125 19.8125 11.734375 
Q 24.65625 6.203125 33.40625 6.203125 
Q 37.3125 6.203125 41.140625 7.25 
Q 44.96875 8.296875 48.78125 10.40625 
L 48.78125 2.09375 
Q 45.015625 0.34375 40.984375 -0.53125 
Q 36.96875 -1.421875 32.421875 -1.421875 
Q 20.0625 -1.421875 12.78125 6.34375 
Q 5.515625 14.109375 5.515625 27.296875 
Q 5.515625 40.671875 12.859375 48.328125 
Q 20.21875 56 33.015625 56 
Q 37.15625 56 41.109375 55.140625 
Q 45.0625 54.296875 48.78125 52.59375 
z
" id="DejaVuSans-63"/>
     <path d="M 56.203125 29.59375 
L 56.203125 25.203125 
L 14.890625 25.203125 
Q 15.484375 15.921875 20.484375 11.0625 
Q 25.484375 6.203125 34.421875 6.203125 
Q 39.59375 6.203125 44.453125 7.46875 
Q 49.3125 8.734375 54.109375 11.28125 
L 54.109375 2.78125 
Q 49.265625 0.734375 44.1875 -0.34375 
Q 39.109375 -1.421875 33.890625 -1.421875 
Q 20.796875 -1.421875 13.15625 6.1875 
Q 5.515625 13.8125 5.515625 26.8125 
Q 5.515625 40.234375 12.765625 48.109375 
Q 20.015625 56 32.328125 56 
Q 43.359375 56 49.78125 48.890625 
Q 56.203125 41.796875 56.203125 29.59375 
z
M 47.21875 32.234375 
Q 47.125 39.59375 43.09375 43.984375 
Q 39.0625 48.390625 32.421875 48.390625 
Q 24.90625 48.390625 20.390625 44.140625 
Q 15.875 39.890625 15.1875 32.171875 
z
" id="DejaVuSans-65"/>
     <path id="DejaVuSans-20"/>
     <path d="M 51.125 44 
L 36.921875 44 
L 32.8125 27.6875 
L 47.125 27.6875 
z
M 43.796875 71.78125 
L 38.71875 51.515625 
L 52.984375 51.515625 
L 58.109375 71.78125 
L 65.921875 71.78125 
L 60.890625 51.515625 
L 76.125 51.515625 
L 76.125 44 
L 58.984375 44 
L 54.984375 27.6875 
L 70.515625 27.6875 
L 70.515625 20.21875 
L 53.078125 20.21875 
L 48 0 
L 40.1875 0 
L 45.21875 20.21875 
L 30.90625 20.21875 
L 25.875 0 
L 18.015625 0 
L 23.09375 20.21875 
L 7.71875 20.21875 
L 7.71875 27.6875 
L 24.90625 27.6875 
L 29 44 
L 13.28125 44 
L 13.28125 51.515625 
L 30.90625 51.515625 
L 35.890625 71.78125 
z
" id="DejaVuSans-23"/>
     <path d="M 12.40625 8.296875 
L 28.515625 8.296875 
L 28.515625 63.921875 
L 10.984375 60.40625 
L 10.984375 69.390625 
L 28.421875 72.90625 
L 38.28125 72.90625 
L 38.28125 8.296875 
L 54.390625 8.296875 
L 54.390625 0 
L 12.40625 0 
z
" id="DejaVuSans-31"/>
     <path d="M 10.796875 72.90625 
L 49.515625 72.90625 
L 49.515625 64.59375 
L 19.828125 64.59375 
L 19.828125 46.734375 
Q 21.96875 47.46875 24.109375 47.828125 
Q 26.265625 48.1875 28.421875 48.1875 
Q 40.625 48.1875 47.75 41.5 
Q 54.890625 34.8125 54.890625 23.390625 
Q 54.890625 11.625 47.5625 5.09375 
Q 40.234375 -1.421875 26.90625 -1.421875 
Q 22.3125 -1.421875 17.546875 -0.640625 
Q 12.796875 0.140625 7.71875 1.703125 
L 7.71875 11.625 
Q 12.109375 9.234375 16.796875 8.0625 
Q 21.484375 6.890625 26.703125 6.890625 
Q 35.15625 6.890625 40.078125 11.328125 
Q 45.015625 15.765625 45.015625 23.390625 
Q 45.015625 31 40.078125 35.4375 
Q 35.15625 39.890625 26.703125 39.890625 
Q 22.75 39.890625 18.8125 39.015625 
Q 14.890625 38.140625 10.796875 36.28125 
z
" id="DejaVuSans-35"/>
     <path d="M 11.71875 12.40625 
L 22.015625 12.40625 
L 22.015625 4 
L 14.015625 -11.625 
L 7.71875 -11.625 
L 11.71875 4 
z
" id="DejaVuSans-2c"/>
     <path d="M 16.890625 72.90625 
L 62.984375 72.90625 
L 61.375 64.59375 
L 25.09375 64.59375 
L 20.90625 43.015625 
L 55.71875 43.015625 
L 54.109375 34.71875 
L 19.28125 34.71875 
L 14.203125 8.296875 
L 51.3125 8.296875 
L 49.703125 0 
L 2.6875 0 
z
" id="DejaVuSans-Oblique-45"/>
     <path d="M 16.890625 72.90625 
L 30.171875 72.90625 
L 50.296875 10.40625 
L 62.5 72.90625 
L 72.125 72.90625 
L 57.90625 0 
L 44.578125 0 
L 24.515625 62.890625 
L 12.3125 0 
L 2.6875 0 
z
" id="DejaVuSans-Oblique-4e"/>
     <path d="M 10.59375 45.40625 
L 73.1875 45.40625 
L 73.1875 37.203125 
L 10.59375 37.203125 
z
M 10.59375 25.484375 
L 73.1875 25.484375 
L 73.1875 17.1875 
L 10.59375 17.1875 
z
" id="DejaVuSans-3d"/>
     <path d="M 4.890625 31.390625 
L 31.203125 31.390625 
L 31.203125 23.390625 
L 4.890625 23.390625 
z
" id="DejaVuSans-2d"/>
     <path d="M 31.78125 34.625 
Q 24.75 34.625 20.71875 30.859375 
Q 16.703125 27.09375 16.703125 20.515625 
Q 16.703125 13.921875 20.71875 10.15625 
Q 24.75 6.390625 31.78125 6.390625 
Q 38.8125 6.390625 42.859375 10.171875 
Q 46.921875 13.96875 46.921875 20.515625 
Q 46.921875 27.09375 42.890625 30.859375 
Q 38.875 34.625 31.78125 34.625 
z
M 21.921875 38.8125 
Q 15.578125 40.375 12.03125 44.71875 
Q 8.5 49.078125 8.5 55.328125 
Q 8.5 64.0625 14.71875 69.140625 
Q 20.953125 74.21875 31.78125 74.21875 
Q 42.671875 74.21875 48.875 69.140625 
Q 55.078125 64.0625 55.078125 55.328125 
Q 55.078125 49.078125 51.53125 44.71875 
Q 48 40.375 41.703125 38.8125 
Q 48.828125 37.15625 52.796875 32.3125 
Q 56.78125 27.484375 56.78125 20.515625 
Q 56.78125 9.90625 50.3125 4.234375 
Q 43.84375 -1.421875 31.78125 -1.421875 
Q 19.734375 -1.421875 13.25 4.234375 
Q 6.78125 9.90625 6.78125 20.515625 
Q 6.78125 27.484375 10.78125 32.3125 
Q 14.796875 37.15625 21.921875 38.8125 
z
M 18.3125 54.390625 
Q 18.3125 48.734375 21.84375 45.5625 
Q 25.390625 42.390625 31.78125 42.390625 
Q 38.140625 42.390625 41.71875 45.5625 
Q 45.3125 48.734375 45.3125 54.390625 
Q 45.3125 60.0625 41.71875 63.234375 
Q 38.140625 66.40625 31.78125 66.40625 
Q 25.390625 66.40625 21.84375 63.234375 
Q 18.3125 60.0625 18.3125 54.390625 
z
" id="DejaVuSans-38"/>
     <path d="M 37.796875 64.3125 
L 12.890625 25.390625 
L 37.796875 25.390625 
z
M 35.203125 72.90625 
L 47.609375 72.90625 
L 47.609375 25.390625 
L 58.015625 25.390625 
L 58.015625 17.1875 
L 47.609375 17.1875 
L 47.609375 0 
L 37.796875 0 
L 37.796875 17.1875 
L 4.890625 17.1875 
L 4.890625 26.703125 
z
" id="DejaVuSans-34"/>
     <path d="M 10.6875 12.40625 
L 21 12.40625 
L 21 0 
L 10.6875 0 
z
" id="DejaVuSans-2e"/>
     <path d="M 28.609375 0 
L 0.78125 72.90625 
L 11.078125 72.90625 
L 34.1875 11.53125 
L 57.328125 72.90625 
L 67.578125 72.90625 
L 39.796875 0 
z
" id="DejaVuSans-56"/>
     <path d="M 34.1875 63.1875 
L 14.15625 8.203125 
L 54.25 8.203125 
z
M 0.78125 0 
L 28.609375 72.90625 
L 39.796875 72.90625 
L 67.578125 0 
z
" id="DejaVuSans-394"/>
     <path d="M 9.8125 72.90625 
L 55.90625 72.90625 
L 55.90625 64.59375 
L 19.671875 64.59375 
L 19.671875 43.015625 
L 54.390625 43.015625 
L 54.390625 34.71875 
L 19.671875 34.71875 
L 19.671875 8.296875 
L 56.78125 8.296875 
L 56.78125 0 
L 9.8125 0 
z
" id="DejaVuSans-45"/>
     <path d="M 31.78125 66.40625 
Q 24.171875 66.40625 20.328125 58.90625 
Q 16.5 51.421875 16.5 36.375 
Q 16.5 21.390625 20.328125 13.890625 
Q 24.171875 6.390625 31.78125 6.390625 
Q 39.453125 6.390625 43.28125 13.890625 
Q 47.125 21.390625 47.125 36.375 
Q 47.125 51.421875 43.28125 58.90625 
Q 39.453125 66.40625 31.78125 66.40625 
z
M 31.78125 74.21875 
Q 44.046875 74.21875 50.515625 64.515625 
Q 56.984375 54.828125 56.984375 36.375 
Q 56.984375 17.96875 50.515625 8.265625 
Q 44.046875 -1.421875 31.78125 -1.421875 
Q 19.53125 -1.421875 13.0625 8.265625 
Q 6.59375 17.96875 6.59375 36.375 
Q 6.59375 54.828125 13.0625 64.515625 
Q 19.53125 74.21875 31.78125 74.21875 
z
" id="DejaVuSans-30"/>
     <path d="M 33.015625 40.375 
Q 26.375 40.375 22.484375 35.828125 
Q 18.609375 31.296875 18.609375 23.390625 
Q 18.609375 15.53125 22.484375 10.953125 
Q 26.375 6.390625 33.015625 6.390625 
Q 39.65625 6.390625 43.53125 10.953125 
Q 47.40625 15.53125 47.40625 23.390625 
Q 47.40625 31.296875 43.53125 35.828125 
Q 39.65625 40.375 33.015625 40.375 
z
M 52.59375 71.296875 
L 52.59375 62.3125 
Q 48.875 64.0625 45.09375 64.984375 
Q 41.3125 65.921875 37.59375 65.921875 
Q 27.828125 65.921875 22.671875 59.328125 
Q 17.53125 52.734375 16.796875 39.40625 
Q 19.671875 43.65625 24.015625 45.921875 
Q 28.375 48.1875 33.59375 48.1875 
Q 44.578125 48.1875 50.953125 41.515625 
Q 57.328125 34.859375 57.328125 23.390625 
Q 57.328125 12.15625 50.6875 5.359375 
Q 44.046875 -1.421875 33.015625 -1.421875 
Q 20.359375 -1.421875 13.671875 8.265625 
Q 6.984375 17.96875 6.984375 36.375 
Q 6.984375 53.65625 15.1875 63.9375 
Q 23.390625 74.21875 37.203125 74.21875 
Q 40.921875 74.21875 44.703125 73.484375 
Q 48.484375 72.75 52.59375 71.296875 
z
" id="DejaVuSans-36"/>
    </defs>
    <g transform="translate(69.228 35.472)scale(0.12 -0.12)">
     <use transform="translate(0 0.78125)" xlink:href="#DejaVuSans-53"/>
     <use transform="translate(63.476562 0.78125)" xlink:href="#DejaVuSans-74"/>
     <use transform="translate(102.685547 0.78125)" xlink:href="#DejaVuSans-72"/>
     <use transform="translate(143.798828 0.78125)" xlink:href="#DejaVuSans-75"/>
     <use transform="translate(207.177734 0.78125)" xlink:href="#DejaVuSans-63"/>
     <use transform="translate(262.158203 0.78125)" xlink:href="#DejaVuSans-74"/>
     <use transform="translate(301.367188 0.78125)" xlink:href="#DejaVuSans-75"/>
     <use transform="translate(364.746094 0.78125)" xlink:href="#DejaVuSans-72"/>
     <use transform="translate(405.859375 0.78125)" xlink:href="#DejaVuSans-65"/>
     <use transform="translate(467.382812 0.78125)" xlink:href="#DejaVuSans-20"/>
     <use transform="translate(499.169922 0.78125)" xlink:href="#DejaVuSans-23"/>
     <use transform="translate(582.958984 0.78125)" xlink:href="#DejaVuSans-31"/>
     <use transform="translate(646.582031 0.78125)" xlink:href="#DejaVuSans-31"/>
     <use transform="translate(710.205078 0.78125)" xlink:href="#DejaVuSans-35"/>
     <use transform="translate(773.828125 0.78125)" xlink:href="#DejaVuSans-2c"/>
     <use transform="translate(805.615234 0.78125)" xlink:href="#DejaVuSans-20"/>
     <use transform="translate(837.402344 0.78125)" xlink:href="#DejaVuSans-Oblique-45"/>
     <use transform="translate(900.585938 -15.625)scale(0.7)" xlink:href="#DejaVuSans-Oblique-4e"/>
     <use transform="translate(955.683594 0.78125)" xlink:href="#DejaVuSans-3d"/>
     <use transform="translate(1039.472656 0.78125)" xlink:href="#DejaVuSans-2d"/>
     <use transform="translate(1075.556641 0.78125)" xlink:href="#DejaVuSans-31"/>
     <use transform="translate(1139.179688 0.78125)" xlink:href="#DejaVuSans-38"/>
     <use transform="translate(1202.802734 0.78125)" xlink:href="#DejaVuSans-34"/>
     <use transform="translate(1266.425781 0.78125)" xlink:href="#DejaVuSans-2e"/>
     <use transform="translate(1298.212891 0.78125)" xlink:href="#DejaVuSans-31"/>
     <use transform="translate(1361.835938 0.78125)" xlink:href="#DejaVuSans-31"/>
     <use transform="translate(1425.458984 0.78125)" xlink:href="#DejaVuSans-65"/>
     <use transform="translate(1486.982422 0.78125)" xlink:href="#DejaVuSans-56"/>
     <use transform="translate(1555.390625 0.78125)" xlink:href="#DejaVuSans-2c"/>
     <use transform="translate(1587.177734 0.78125)" xlink:href="#DejaVuSans-20"/>
     <use transform="translate(1618.964844 0.78125)" xlink:href="#DejaVuSans-394"/>
     <use transform="translate(1687.373047 0.78125)" xlink:href="#DejaVuSans-45"/>
     <use transform="translate(1750.556641 0.78125)" xlink:href="#DejaVuSans-3d"/>
     <use transform="translate(1834.345703 0.78125)" xlink:href="#DejaVuSans-30"/>
     <use transform="translate(1897.96875 0.78125)" xlink:href="#DejaVuSans-2e"/>
     <use transform="translate(1929.755859 0.78125)" xlink:href="#DejaVuSans-31"/>
     <use transform="translate(1993.378906 0.78125)" xlink:href="#DejaVuSans-36"/>
     <use transform="translate(2057.001953 0.78125)" xlink:href="#DejaVuSans-65"/>
     <use transform="translate(2118.525391 0.78125)" xlink:href="#DejaVuSans-56"/>
    </g>
   </g>
  </g>
  <g id="axes_2">
   <g id="patch_2">
    <path clip-path="url(#p714244a271)" d="M 361.152 307.584 
L 361.152 306.5445 
L 361.152 42.5115 
L 361.152 41.472 
L 374.4576 41.472 
L 374.4576 42.5115 
L 374.4576 306.5445 
L 374.4576 307.584 
z
" style="fill:#ffffff;stroke:#ffffff;stroke-linejoin:miter;stroke-width:0.01;"/>
   </g>
   <image height="265.68" id="image7828479faa" transform="scale(1 -1)translate(0 -265.68)" width="12.96" x="361.44" xlink:href="data:image/png;base64,
iVBORw0KGgoAAAANSUhEUgAAABIAAAFxCAYAAAB+2fgXAAAABHNCSVQICAgIfAhkiAAAAeVJREFUeJztncmNw0AQA2ckheYQNv9QLIfQ8ygsCgQ7AEI8+jAs2Puz/94F1LP2ReCsZ18bAWIeZ5XaGRBE7VnbptG+KI101FYyNSiQG2oRITXKNaX9uclOdi2XWjftVE32CZCO2ou5Bj1TcCBr/1zB9ge7Fq0Rg2NM9pvbtG+ua1QgsRYhDy0ISEiNc40BEibbSI0Coj5CBGtkpFbXJiAjNZlrwhuSOv2M1DjXbEdEciBt1JSDDQKKpmZr2rr2j0DBGpXaWEJq3bQzEPIS26r9J+Wzv9Tm8o3aajRXqc3VUXsApKNWjeZq0x4ABVNbm7lrszVigDqP5vIl2+eaT2yfRkL7g+dRcNPqjohkjaCvRVBq0H2U3LQrOJCx9kdTg4B8oxZzzTdqdYHEngjUCAPyUctN9sVRq2sTECW2UKNLd2jVtRmo1A6AhMmWaSRcR8nUdIHUuVb75zJS218EyEitro1At69pIdeSk30Lkw0FktNImGyZRhy1O5galmxd03LUsHWk06jUZiCq+5Wb1kZNN4+wJxJuWt8RAW5am2sYNZ9rYCBzZ3buPKJ2P5Yj4Toy3keyIyJbIxs1rml1byCA84gpch5RQNB7Q0qNMGq2Hy4BXdNR41yz/cEEJfZzUz96r9PoB0okjeQ8y9TkAAAAAElFTkSuQmCC" y="-41.76"/>
   <g id="matplotlib.axis_1"/>
   <g id="matplotlib.axis_2">
    <g id="ytick_1">
     <g id="line2d_1">
      <defs>
       <path d="M 0 0 
L 3.5 0 
" id="m0a3d68f0b0" style="stroke:#000000;stroke-width:0.8;"/>
      </defs>
      <g>
       <use style="stroke:#000000;stroke-width:0.8;" x="374.4576" xlink:href="#m0a3d68f0b0" y="268.194598"/>
      </g>
     </g>
     <g id="text_2">
      <!-- −8.5 -->
      <defs>
       <path d="M 10.59375 35.5 
L 73.1875 35.5 
L 73.1875 27.203125 
L 10.59375 27.203125 
z
" id="DejaVuSans-2212"/>
      </defs>
      <g transform="translate(381.4576 271.993817)scale(0.1 -0.1)">
       <use xlink:href="#DejaVuSans-2212"/>
       <use x="83.789062" xlink:href="#DejaVuSans-38"/>
       <use x="147.412109" xlink:href="#DejaVuSans-2e"/>
       <use x="179.199219" xlink:href="#DejaVuSans-35"/>
      </g>
     </g>
    </g>
    <g id="ytick_2">
     <g id="line2d_2">
      <g>
       <use style="stroke:#000000;stroke-width:0.8;" x="374.4576" xlink:href="#m0a3d68f0b0" y="225.933418"/>
      </g>
     </g>
     <g id="text_3">
      <!-- −8.0 -->
      <g transform="translate(381.4576 229.732637)scale(0.1 -0.1)">
       <use xlink:href="#DejaVuSans-2212"/>
       <use x="83.789062" xlink:href="#DejaVuSans-38"/>
       <use x="147.412109" xlink:href="#DejaVuSans-2e"/>
       <use x="179.199219" xlink:href="#DejaVuSans-30"/>
      </g>
     </g>
    </g>
    <g id="ytick_3">
     <g id="line2d_3">
      <g>
       <use style="stroke:#000000;stroke-width:0.8;" x="374.4576" xlink:href="#m0a3d68f0b0" y="183.672237"/>
      </g>
     </g>
     <g id="text_4">
      <!-- −7.5 -->
      <defs>
       <path d="M 8.203125 72.90625 
L 55.078125 72.90625 
L 55.078125 68.703125 
L 28.609375 0 
L 18.3125 0 
L 43.21875 64.59375 
L 8.203125 64.59375 
z
" id="DejaVuSans-37"/>
      </defs>
      <g transform="translate(381.4576 187.471456)scale(0.1 -0.1)">
       <use xlink:href="#DejaVuSans-2212"/>
       <use x="83.789062" xlink:href="#DejaVuSans-37"/>
       <use x="147.412109" xlink:href="#DejaVuSans-2e"/>
       <use x="179.199219" xlink:href="#DejaVuSans-35"/>
      </g>
     </g>
    </g>
    <g id="ytick_4">
     <g id="line2d_4">
      <g>
       <use style="stroke:#000000;stroke-width:0.8;" x="374.4576" xlink:href="#m0a3d68f0b0" y="141.411057"/>
      </g>
     </g>
     <g id="text_5">
      <!-- −7.0 -->
      <g transform="translate(381.4576 145.210276)scale(0.1 -0.1)">
       <use xlink:href="#DejaVuSans-2212"/>
       <use x="83.789062" xlink:href="#DejaVuSans-37"/>
       <use x="147.412109" xlink:href="#DejaVuSans-2e"/>
       <use x="179.199219" xlink:href="#DejaVuSans-30"/>
      </g>
     </g>
    </g>
    <g id="ytick_5">
     <g id="line2d_5">
      <g>
       <use style="stroke:#000000;stroke-width:0.8;" x="374.4576" xlink:href="#m0a3d68f0b0" y="99.149877"/>
      </g>
     </g>
     <g id="text_6">
      <!-- −6.5 -->
      <g transform="translate(381.4576 102.949095)scale(0.1 -0.1)">
       <use xlink:href="#DejaVuSans-2212"/>
       <use x="83.789062" xlink:href="#DejaVuSans-36"/>
       <use x="147.412109" xlink:href="#DejaVuSans-2e"/>
       <use x="179.199219" xlink:href="#DejaVuSans-35"/>
      </g>
     </g>
    </g>
    <g id="ytick_6">
     <g id="line2d_6">
      <g>
       <use style="stroke:#000000;stroke-width:0.8;" x="374.4576" xlink:href="#m0a3d68f0b0" y="56.888696"/>
      </g>
     </g>
     <g id="text_7">
      <!-- −6.0 -->
      <g transform="translate(381.4576 60.687915)scale(0.1 -0.1)">
       <use xlink:href="#DejaVuSans-2212"/>
       <use x="83.789062" xlink:href="#DejaVuSans-36"/>
       <use x="147.412109" xlink:href="#DejaVuSans-2e"/>
       <use x="179.199219" xlink:href="#DejaVuSans-30"/>
      </g>
     </g>
    </g>
    <g id="text_8">
     <!-- Energy [eV] -->
     <defs>
      <path d="M 54.890625 33.015625 
L 54.890625 0 
L 45.90625 0 
L 45.90625 32.71875 
Q 45.90625 40.484375 42.875 44.328125 
Q 39.84375 48.1875 33.796875 48.1875 
Q 26.515625 48.1875 22.3125 43.546875 
Q 18.109375 38.921875 18.109375 30.90625 
L 18.109375 0 
L 9.078125 0 
L 9.078125 54.6875 
L 18.109375 54.6875 
L 18.109375 46.1875 
Q 21.34375 51.125 25.703125 53.5625 
Q 30.078125 56 35.796875 56 
Q 45.21875 56 50.046875 50.171875 
Q 54.890625 44.34375 54.890625 33.015625 
z
" id="DejaVuSans-6e"/>
      <path d="M 45.40625 27.984375 
Q 45.40625 37.75 41.375 43.109375 
Q 37.359375 48.484375 30.078125 48.484375 
Q 22.859375 48.484375 18.828125 43.109375 
Q 14.796875 37.75 14.796875 27.984375 
Q 14.796875 18.265625 18.828125 12.890625 
Q 22.859375 7.515625 30.078125 7.515625 
Q 37.359375 7.515625 41.375 12.890625 
Q 45.40625 18.265625 45.40625 27.984375 
z
M 54.390625 6.78125 
Q 54.390625 -7.171875 48.1875 -13.984375 
Q 42 -20.796875 29.203125 -20.796875 
Q 24.46875 -20.796875 20.265625 -20.09375 
Q 16.0625 -19.390625 12.109375 -17.921875 
L 12.109375 -9.1875 
Q 16.0625 -11.328125 19.921875 -12.34375 
Q 23.78125 -13.375 27.78125 -13.375 
Q 36.625 -13.375 41.015625 -8.765625 
Q 45.40625 -4.15625 45.40625 5.171875 
L 45.40625 9.625 
Q 42.625 4.78125 38.28125 2.390625 
Q 33.9375 0 27.875 0 
Q 17.828125 0 11.671875 7.65625 
Q 5.515625 15.328125 5.515625 27.984375 
Q 5.515625 40.671875 11.671875 48.328125 
Q 17.828125 56 27.875 56 
Q 33.9375 56 38.28125 53.609375 
Q 42.625 51.21875 45.40625 46.390625 
L 45.40625 54.6875 
L 54.390625 54.6875 
z
" id="DejaVuSans-67"/>
      <path d="M 32.171875 -5.078125 
Q 28.375 -14.84375 24.75 -17.8125 
Q 21.140625 -20.796875 15.09375 -20.796875 
L 7.90625 -20.796875 
L 7.90625 -13.28125 
L 13.1875 -13.28125 
Q 16.890625 -13.28125 18.9375 -11.515625 
Q 21 -9.765625 23.484375 -3.21875 
L 25.09375 0.875 
L 2.984375 54.6875 
L 12.5 54.6875 
L 29.59375 11.921875 
L 46.6875 54.6875 
L 56.203125 54.6875 
z
" id="DejaVuSans-79"/>
      <path d="M 8.59375 75.984375 
L 29.296875 75.984375 
L 29.296875 69 
L 17.578125 69 
L 17.578125 -6.203125 
L 29.296875 -6.203125 
L 29.296875 -13.1875 
L 8.59375 -13.1875 
z
" id="DejaVuSans-5b"/>
      <path d="M 30.421875 75.984375 
L 30.421875 -13.1875 
L 9.71875 -13.1875 
L 9.71875 -6.203125 
L 21.390625 -6.203125 
L 21.390625 69 
L 9.71875 69 
L 9.71875 75.984375 
z
" id="DejaVuSans-5d"/>
     </defs>
     <g transform="translate(417.33885 204.108469)rotate(-90)scale(0.1 -0.1)">
      <use xlink:href="#DejaVuSans-45"/>
      <use x="63.183594" xlink:href="#DejaVuSans-6e"/>
      <use x="126.5625" xlink:href="#DejaVuSans-65"/>
      <use x="188.085938" xlink:href="#DejaVuSans-72"/>
      <use x="229.183594" xlink:href="#DejaVuSans-67"/>
      <use x="292.660156" xlink:href="#DejaVuSans-79"/>
      <use x="351.839844" xlink:href="#DejaVuSans-20"/>
      <use x="383.626953" xlink:href="#DejaVuSans-5b"/>
      <use x="422.640625" xlink:href="#DejaVuSans-65"/>
      <use x="484.164062" xlink:href="#DejaVuSans-56"/>
      <use x="552.572266" xlink:href="#DejaVuSans-5d"/>
     </g>
    </g>
   </g>
   <g id="patch_3">
    <path d="M 361.152 307.584 
L 361.152 306.5445 
L 361.152 42.5115 
L 361.152 41.472 
L 374.4576 41.472 
L 374.4576 42.5115 
L 374.4576 306.5445 
L 374.4576 307.584 
z
" style="fill:none;stroke:#000000;stroke-linejoin:miter;stroke-width:0.8;"/>
   </g>
  </g>
 </g>
 <defs>
  <clipPath id="p21f211964a">
   <rect height="266.112" width="285.696" x="57.6" y="41.472"/>
  </clipPath>
  <clipPath id="p714244a271">
   <rect height="266.112" width="13.3056" x="361.152" y="41.472"/>
  </clipPath>
 </defs>
</svg>
