<?xml version="1.0" encoding="utf-8" standalone="no"?>
<!DOCTYPE svg PUBLIC "-//W3C//DTD SVG 1.1//EN"
  "http://www.w3.org/Graphics/SVG/1.1/DTD/svg11.dtd">
<!-- Created with matplotlib (http://matplotlib.org/) -->
<svg height="345.6pt" version="1.1" viewBox="0 0 460.8 345.6" width="460.8pt" xmlns="http://www.w3.org/2000/svg" xmlns:xlink="http://www.w3.org/1999/xlink">
 <defs>
  <style type="text/css">
*{stroke-linecap:butt;stroke-linejoin:round;}
  </style>
 </defs>
 <g id="figure_1">
  <g id="patch_1">
   <path d="M 0 345.6 
L 460.8 345.6 
L 460.8 0 
L 0 0 
z
" style="fill:#ffffff;"/>
  </g>
  <g id="axes_1">
   <g id="CircleCollection_1">
    <path clip-path="url(#p4eb60b5b74)" d="M 329.975835 125.279389 
C 331.674648 125.279389 333.304111 124.604444 334.505353 123.403201 
C 335.706595 122.201959 336.381541 120.572497 336.381541 118.873684 
C 336.381541 117.174871 335.706595 115.545408 334.505353 114.344166 
C 333.304111 113.142924 331.674648 112.467978 329.975835 112.467978 
C 328.277022 112.467978 326.64756 113.142924 325.446317 114.344166 
C 324.245075 115.545408 323.57013 117.174871 323.57013 118.873684 
C 323.57013 120.572497 324.245075 122.201959 325.446317 123.403201 
C 326.64756 124.604444 328.277022 125.279389 329.975835 125.279389 
z
" style="fill:#fde725;"/>
    <path clip-path="url(#p4eb60b5b74)" d="M 99.571849 265.290315 
C 101.322505 265.290315 103.001695 264.594772 104.239596 263.356871 
C 105.477497 262.11897 106.17304 260.43978 106.17304 258.689123 
C 106.17304 256.938467 105.477497 255.259277 104.239596 254.021376 
C 103.001695 252.783475 101.322505 252.087932 99.571849 252.087932 
C 97.821192 252.087932 96.142003 252.783475 94.904102 254.021376 
C 93.666201 255.259277 92.970657 256.938467 92.970657 258.689123 
C 92.970657 260.43978 93.666201 262.11897 94.904102 263.356871 
C 96.142003 264.594772 97.821192 265.290315 99.571849 265.290315 
z
" style="fill:#1f948c;"/>
    <path clip-path="url(#p4eb60b5b74)" d="M 148.805537 60.849757 
C 150.573072 60.849757 152.268451 60.147508 153.518287 58.897672 
C 154.768123 57.647836 155.470372 55.952457 155.470372 54.184922 
C 155.470372 52.417387 154.768123 50.722008 153.518287 49.472172 
C 152.268451 48.222336 150.573072 47.520086 148.805537 47.520086 
C 147.038002 47.520086 145.342622 48.222336 144.092786 49.472172 
C 142.84295 50.722008 142.140701 52.417387 142.140701 54.184922 
C 142.140701 55.952457 142.84295 57.647836 144.092786 58.897672 
C 145.342622 60.147508 147.038002 60.849757 148.805537 60.849757 
z
" style="fill:#228d8d;"/>
    <path clip-path="url(#p4eb60b5b74)" d="M 268.022594 144.771883 
C 269.784318 144.771883 271.474123 144.071943 272.71985 142.826216 
C 273.965577 141.580489 274.665517 139.890684 274.665517 138.12896 
C 274.665517 136.367236 273.965577 134.677431 272.71985 133.431704 
C 271.474123 132.185977 269.784318 131.486037 268.022594 131.486037 
C 266.26087 131.486037 264.571065 132.185977 263.325338 133.431704 
C 262.079611 134.677431 261.379671 136.367236 261.379671 138.12896 
C 261.379671 139.890684 262.079611 141.580489 263.325338 142.826216 
C 264.571065 144.071943 266.26087 144.771883 268.022594 144.771883 
z
" style="fill:#3a548c;"/>
    <path clip-path="url(#p4eb60b5b74)" d="M 180.693647 195.536883 
C 182.478181 195.536883 184.189866 194.82788 185.451723 193.566024 
C 186.713579 192.304167 187.422582 190.592482 187.422582 188.807948 
C 187.422582 187.023413 186.713579 185.311728 185.451723 184.049872 
C 184.189866 182.788015 182.478181 182.079012 180.693647 182.079012 
C 178.909112 182.079012 177.197427 182.788015 175.935571 184.049872 
C 174.673714 185.311728 173.964711 187.023413 173.964711 188.807948 
C 173.964711 190.592482 174.673714 192.304167 175.935571 193.566024 
C 177.197427 194.82788 178.909112 195.536883 180.693647 195.536883 
z
" style="fill:#46307e;"/>
    <path clip-path="url(#p4eb60b5b74)" d="M 222.325491 261.897389 
C 224.105976 261.897389 225.813775 261.189995 227.072768 259.931003 
C 228.33176 258.67201 229.039154 256.964211 229.039154 255.183726 
C 229.039154 253.403242 228.33176 251.695443 227.072768 250.43645 
C 225.813775 249.177458 224.105976 248.470064 222.325491 248.470064 
C 220.545007 248.470064 218.837208 249.177458 217.578215 250.43645 
C 216.319223 251.695443 215.611829 253.403242 215.611829 255.183726 
C 215.611829 256.964211 216.319223 258.67201 217.578215 259.931003 
C 218.837208 261.189995 220.545007 261.897389 222.325491 261.897389 
z
" style="fill:#1e9c89;"/>
    <path clip-path="url(#p4eb60b5b74)" d="M 146.468215 217.801465 
C 148.243689 217.801465 149.946683 217.096062 151.202132 215.840612 
C 152.457582 214.585162 153.162985 212.882168 153.162985 211.106694 
C 153.162985 209.33122 152.457582 207.628226 151.202132 206.372776 
C 149.946683 205.117327 148.243689 204.411923 146.468215 204.411923 
C 144.692741 204.411923 142.989746 205.117327 141.734297 206.372776 
C 140.478847 207.628226 139.773444 209.33122 139.773444 211.106694 
C 139.773444 212.882168 140.478847 214.585162 141.734297 215.840612 
C 142.989746 217.096062 144.692741 217.801465 146.468215 217.801465 
z
" style="fill:#453581;"/>
    <path clip-path="url(#p4eb60b5b74)" d="M 70.928862 141.023901 
C 72.671914 141.023901 74.343809 140.33138 75.576333 139.098856 
C 76.808857 137.866332 77.501379 136.194436 77.501379 134.451385 
C 77.501379 132.708333 76.808857 131.036437 75.576333 129.803913 
C 74.343809 128.57139 72.671914 127.878868 70.928862 127.878868 
C 69.18581 127.878868 67.513915 128.57139 66.281391 129.803913 
C 65.048867 131.036437 64.356345 132.708333 64.356345 134.451385 
C 64.356345 136.194436 65.048867 137.866332 66.281391 139.098856 
C 67.513915 140.33138 69.18581 141.023901 70.928862 141.023901 
z
" style="fill:#218e8d;"/>
    <path clip-path="url(#p4eb60b5b74)" d="M 174.204147 146.263483 
C 175.989847 146.263483 177.702649 145.554017 178.965329 144.291337 
C 180.22801 143.028656 180.937476 141.315854 180.937476 139.530154 
C 180.937476 137.744455 180.22801 136.031652 178.965329 134.768972 
C 177.702649 133.506292 175.989847 132.796826 174.204147 132.796826 
C 172.418447 132.796826 170.705645 133.506292 169.442965 134.768972 
C 168.180284 136.031652 167.470818 137.744455 167.470818 139.530154 
C 167.470818 141.315854 168.180284 143.028656 169.442965 144.291337 
C 170.705645 145.554017 172.418447 146.263483 174.204147 146.263483 
z
" style="fill:#471063;"/>
    <path clip-path="url(#p4eb60b5b74)" d="M 86.265662 102.781833 
C 88.013633 102.781833 89.690247 102.087357 90.92625 100.851355 
C 92.162252 99.615352 92.856728 97.938738 92.856728 96.190767 
C 92.856728 94.442796 92.162252 92.766182 90.92625 91.53018 
C 89.690247 90.294178 88.013633 89.599702 86.265662 89.599702 
C 84.517691 89.599702 82.841077 90.294178 81.605075 91.53018 
C 80.369073 92.766182 79.674596 94.442796 79.674596 96.190767 
C 79.674596 97.938738 80.369073 99.615352 81.605075 100.851355 
C 82.841077 102.087357 84.517691 102.781833 86.265662 102.781833 
z
" style="fill:#228d8d;"/>
    <path clip-path="url(#p4eb60b5b74)" d="M 300.502614 135.084741 
C 302.237247 135.084741 303.901067 134.395564 305.127637 133.168994 
C 306.354207 131.942423 307.043384 130.278603 307.043384 128.543971 
C 307.043384 126.809338 306.354207 125.145518 305.127637 123.918948 
C 303.901067 122.692378 302.237247 122.003201 300.502614 122.003201 
C 298.767982 122.003201 297.104162 122.692378 295.877592 123.918948 
C 294.651021 125.145518 293.961845 126.809338 293.961845 128.543971 
C 293.961845 130.278603 294.651021 131.942423 295.877592 133.168994 
C 297.104162 134.395564 298.767982 135.084741 300.502614 135.084741 
z
" style="fill:#38598c;"/>
    <path clip-path="url(#p4eb60b5b74)" d="M 161.622108 301.531016 
C 163.388212 301.531016 165.082218 300.829335 166.331042 299.580511 
C 167.579866 298.331688 168.281546 296.637681 168.281546 294.871578 
C 168.281546 293.105474 167.579866 291.411468 166.331042 290.162644 
C 165.082218 288.91382 163.388212 288.21214 161.622108 288.21214 
C 159.856005 288.21214 158.161999 288.91382 156.913175 290.162644 
C 155.664351 291.411468 154.962671 293.105474 154.962671 294.871578 
C 154.962671 296.637681 155.664351 298.331688 156.913175 299.580511 
C 158.161999 300.829335 159.856005 301.531016 161.622108 301.531016 
z
" style="fill:#1f978b;"/>
    <path clip-path="url(#p4eb60b5b74)" d="M 77.41449 233.629426 
C 79.157938 233.629426 80.830213 232.936746 82.063017 231.703943 
C 83.29582 230.471139 83.9885 228.798864 83.9885 227.055416 
C 83.9885 225.311968 83.29582 223.639693 82.063017 222.406889 
C 80.830213 221.174085 79.157938 220.481406 77.41449 220.481406 
C 75.671042 220.481406 73.998767 221.174085 72.765963 222.406889 
C 71.533159 223.639693 70.84048 225.311968 70.84048 227.055416 
C 70.84048 228.798864 71.533159 230.471139 72.765963 231.703943 
C 73.998767 232.936746 75.671042 233.629426 77.41449 233.629426 
z
" style="fill:#23888e;"/>
    <path clip-path="url(#p4eb60b5b74)" d="M 240.075245 175.91011 
C 241.856419 175.91011 243.564881 175.202442 244.824361 173.942961 
C 246.083842 172.683481 246.79151 170.975019 246.79151 169.193844 
C 246.79151 167.41267 246.083842 165.704208 244.824361 164.444727 
C 243.564881 163.185247 241.856419 162.477579 240.075245 162.477579 
C 238.29407 162.477579 236.585608 163.185247 235.326128 164.444727 
C 234.066647 165.704208 233.358979 167.41267 233.358979 169.193844 
C 233.358979 170.975019 234.066647 172.683481 235.326128 173.942961 
C 236.585608 175.202442 238.29407 175.91011 240.075245 175.91011 
z
" style="fill:#2f6b8e;"/>
    <path clip-path="url(#p4eb60b5b74)" d="M 136.315645 265.53743 
C 138.079962 265.53743 139.772254 264.83646 141.019814 263.5889 
C 142.267374 262.34134 142.968345 260.649047 142.968345 258.884731 
C 142.968345 257.120414 142.267374 255.428122 141.019814 254.180562 
C 139.772254 252.933002 138.079962 252.232032 136.315645 252.232032 
C 134.551329 252.232032 132.859037 252.933002 131.611476 254.180562 
C 130.363916 255.428122 129.662946 257.120414 129.662946 258.884731 
C 129.662946 260.649047 130.363916 262.34134 131.611476 263.5889 
C 132.859037 264.83646 134.551329 265.53743 136.315645 265.53743 
z
" style="fill:#450457;"/>
    <path clip-path="url(#p4eb60b5b74)" d="M 121.986309 94.376626 
C 123.750692 94.376626 125.443047 93.675629 126.690654 92.428022 
C 127.938261 91.180415 128.639258 89.488059 128.639258 87.723677 
C 128.639258 85.959294 127.938261 84.266938 126.690654 83.019331 
C 125.443047 81.771724 123.750692 81.070728 121.986309 81.070728 
C 120.221926 81.070728 118.529571 81.771724 117.281964 83.019331 
C 116.034357 84.266938 115.33336 85.959294 115.33336 87.723677 
C 115.33336 89.488059 116.034357 91.180415 117.281964 92.428022 
C 118.529571 93.675629 120.221926 94.376626 121.986309 94.376626 
z
" style="fill:#470e61;"/>
    <path clip-path="url(#p4eb60b5b74)" d="M 84.912893 186.019115 
C 86.663949 186.019115 88.343521 185.323413 89.581704 184.08523 
C 90.819887 182.847047 91.515589 181.167474 91.515589 179.416419 
C 91.515589 177.665363 90.819887 175.985791 89.581704 174.747608 
C 88.343521 173.509424 86.663949 172.813723 84.912893 172.813723 
C 83.161838 172.813723 81.482265 173.509424 80.244082 174.747608 
C 79.005899 175.985791 78.310197 177.665363 78.310197 179.416419 
C 78.310197 181.167474 79.005899 182.847047 80.244082 184.08523 
C 81.482265 185.323413 83.161838 186.019115 84.912893 186.019115 
z
" style="fill:#460a5d;"/>
    <path clip-path="url(#p4eb60b5b74)" d="M 138.147497 138.387119 
C 139.924326 138.387119 141.62862 137.681177 142.885028 136.42477 
C 144.141435 135.168362 144.847377 133.464068 144.847377 131.687239 
C 144.847377 129.91041 144.141435 128.206117 142.885028 126.949709 
C 141.62862 125.693301 139.924326 124.98736 138.147497 124.98736 
C 136.370669 124.98736 134.666375 125.693301 133.409967 126.949709 
C 132.153559 128.206117 131.447618 129.91041 131.447618 131.687239 
C 131.447618 133.464068 132.153559 135.168362 133.409967 136.42477 
C 134.666375 137.681177 136.370669 138.387119 138.147497 138.387119 
z
" style="fill:#440256;"/>
    <path clip-path="url(#p4eb60b5b74)" d="M 121.23576 181.478052 
C 123.006308 181.478052 124.704576 180.774606 125.956542 179.522641 
C 127.208508 178.270675 127.911954 176.572406 127.911954 174.801859 
C 127.911954 173.031312 127.208508 171.333043 125.956542 170.081077 
C 124.704576 168.829111 123.006308 168.125665 121.23576 168.125665 
C 119.465213 168.125665 117.766945 168.829111 116.514979 170.081077 
C 115.263013 171.333043 114.559567 173.031312 114.559567 174.801859 
C 114.559567 176.572406 115.263013 178.270675 116.514979 179.522641 
C 117.766945 180.774606 119.465213 181.478052 121.23576 181.478052 
z
" style="fill:#470e61;"/>
    <path clip-path="url(#p4eb60b5b74)" d="M 233.278959 129.059358 
C 235.059604 129.059358 236.767558 128.3519 238.026664 127.092794 
C 239.28577 125.833688 239.993227 124.125734 239.993227 122.345089 
C 239.993227 120.564445 239.28577 118.856491 238.026664 117.597385 
C 236.767558 116.338279 235.059604 115.630821 233.278959 115.630821 
C 231.498314 115.630821 229.79036 116.338279 228.531254 117.597385 
C 227.272148 118.856491 226.564691 120.564445 226.564691 122.345089 
C 226.564691 124.125734 227.272148 125.833688 228.531254 127.092794 
C 229.79036 128.3519 231.498314 129.059358 233.278959 129.059358 
z
" style="fill:#32658e;"/>
    <path clip-path="url(#p4eb60b5b74)" d="M 215.317654 213.373769 
C 217.100863 213.373769 218.811276 212.665293 220.072195 211.404374 
C 221.333114 210.143455 222.041591 208.433041 222.041591 206.649832 
C 222.041591 204.866624 221.333114 203.15621 220.072195 201.895291 
C 218.811276 200.634372 217.100863 199.925896 215.317654 199.925896 
C 213.534445 199.925896 211.824032 200.634372 210.563113 201.895291 
C 209.302194 203.15621 208.593717 204.866624 208.593717 206.649832 
C 208.593717 208.433041 209.302194 210.143455 210.563113 211.404374 
C 211.824032 212.665293 213.534445 213.373769 215.317654 213.373769 
z
" style="fill:#440154;"/>
    <path clip-path="url(#p4eb60b5b74)" d="M 180.998278 67.587641 
C 182.773809 67.587641 184.476858 66.882215 185.732348 65.626725 
C 186.987838 64.371235 187.693264 62.668187 187.693264 60.892656 
C 187.693264 59.117125 186.987838 57.414076 185.732348 56.158586 
C 184.476858 54.903096 182.773809 54.19767 180.998278 54.19767 
C 179.222748 54.19767 177.519699 54.903096 176.264209 56.158586 
C 175.008719 57.414076 174.303293 59.117125 174.303293 60.892656 
C 174.303293 62.668187 175.008719 64.371235 176.264209 65.626725 
C 177.519699 66.882215 179.222748 67.587641 180.998278 67.587641 
z
" style="fill:#218f8d;"/>
    <path clip-path="url(#p4eb60b5b74)" d="M 193.22372 285.138801 
C 194.997704 285.138801 196.699269 284.433989 197.953665 283.179593 
C 199.208061 281.925197 199.912872 280.223632 199.912872 278.449648 
C 199.912872 276.675665 199.208061 274.9741 197.953665 273.719704 
C 196.699269 272.465308 194.997704 271.760496 193.22372 271.760496 
C 191.449736 271.760496 189.748171 272.465308 188.493775 273.719704 
C 187.239379 274.9741 186.534568 276.675665 186.534568 278.449648 
C 186.534568 280.223632 187.239379 281.925197 188.493775 283.179593 
C 189.748171 284.433989 191.449736 285.138801 193.22372 285.138801 
z
" style="fill:#306a8e;"/>
    <path clip-path="url(#p4eb60b5b74)" d="M 199.135769 109.942162 
C 200.918668 109.942162 202.628784 109.233809 203.889483 107.97311 
C 205.150183 106.71241 205.858536 105.002294 205.858536 103.219396 
C 205.858536 101.436497 205.150183 99.726382 203.889483 98.465682 
C 202.628784 97.204982 200.918668 96.496629 199.135769 96.496629 
C 197.352871 96.496629 195.642755 97.204982 194.382056 98.465682 
C 193.121356 99.726382 192.413003 101.436497 192.413003 103.219396 
C 192.413003 105.002294 193.121356 106.71241 194.382056 107.97311 
C 195.642755 109.233809 197.352871 109.942162 199.135769 109.942162 
z
" style="fill:#46085c;"/>
   </g>
   <g id="text_1">
    <!-- Structure #9493, $E_N$=-184.57eV, ΔE=-0.45eV -->
    <defs>
     <path d="M 53.515625 70.515625 
L 53.515625 60.890625 
Q 47.90625 63.578125 42.921875 64.890625 
Q 37.9375 66.21875 33.296875 66.21875 
Q 25.25 66.21875 20.875 63.09375 
Q 16.5 59.96875 16.5 54.203125 
Q 16.5 49.359375 19.40625 46.890625 
Q 22.3125 44.4375 30.421875 42.921875 
L 36.375 41.703125 
Q 47.40625 39.59375 52.65625 34.296875 
Q 57.90625 29 57.90625 20.125 
Q 57.90625 9.515625 50.796875 4.046875 
Q 43.703125 -1.421875 29.984375 -1.421875 
Q 24.8125 -1.421875 18.96875 -0.25 
Q 13.140625 0.921875 6.890625 3.21875 
L 6.890625 13.375 
Q 12.890625 10.015625 18.65625 8.296875 
Q 24.421875 6.59375 29.984375 6.59375 
Q 38.421875 6.59375 43.015625 9.90625 
Q 47.609375 13.234375 47.609375 19.390625 
Q 47.609375 24.75 44.3125 27.78125 
Q 41.015625 30.8125 33.5 32.328125 
L 27.484375 33.5 
Q 16.453125 35.6875 11.515625 40.375 
Q 6.59375 45.0625 6.59375 53.421875 
Q 6.59375 63.09375 13.40625 68.65625 
Q 20.21875 74.21875 32.171875 74.21875 
Q 37.3125 74.21875 42.625 73.28125 
Q 47.953125 72.359375 53.515625 70.515625 
z
" id="DejaVuSans-53"/>
     <path d="M 18.3125 70.21875 
L 18.3125 54.6875 
L 36.8125 54.6875 
L 36.8125 47.703125 
L 18.3125 47.703125 
L 18.3125 18.015625 
Q 18.3125 11.328125 20.140625 9.421875 
Q 21.96875 7.515625 27.59375 7.515625 
L 36.8125 7.515625 
L 36.8125 0 
L 27.59375 0 
Q 17.1875 0 13.234375 3.875 
Q 9.28125 7.765625 9.28125 18.015625 
L 9.28125 47.703125 
L 2.6875 47.703125 
L 2.6875 54.6875 
L 9.28125 54.6875 
L 9.28125 70.21875 
z
" id="DejaVuSans-74"/>
     <path d="M 41.109375 46.296875 
Q 39.59375 47.171875 37.8125 47.578125 
Q 36.03125 48 33.890625 48 
Q 26.265625 48 22.1875 43.046875 
Q 18.109375 38.09375 18.109375 28.8125 
L 18.109375 0 
L 9.078125 0 
L 9.078125 54.6875 
L 18.109375 54.6875 
L 18.109375 46.1875 
Q 20.953125 51.171875 25.484375 53.578125 
Q 30.03125 56 36.53125 56 
Q 37.453125 56 38.578125 55.875 
Q 39.703125 55.765625 41.0625 55.515625 
z
" id="DejaVuSans-72"/>
     <path d="M 8.5 21.578125 
L 8.5 54.6875 
L 17.484375 54.6875 
L 17.484375 21.921875 
Q 17.484375 14.15625 20.5 10.265625 
Q 23.53125 6.390625 29.59375 6.390625 
Q 36.859375 6.390625 41.078125 11.03125 
Q 45.3125 15.671875 45.3125 23.6875 
L 45.3125 54.6875 
L 54.296875 54.6875 
L 54.296875 0 
L 45.3125 0 
L 45.3125 8.40625 
Q 42.046875 3.421875 37.71875 1 
Q 33.40625 -1.421875 27.6875 -1.421875 
Q 18.265625 -1.421875 13.375 4.4375 
Q 8.5 10.296875 8.5 21.578125 
z
M 31.109375 56 
z
" id="DejaVuSans-75"/>
     <path d="M 48.78125 52.59375 
L 48.78125 44.1875 
Q 44.96875 46.296875 41.140625 47.34375 
Q 37.3125 48.390625 33.40625 48.390625 
Q 24.65625 48.390625 19.8125 42.84375 
Q 14.984375 37.3125 14.984375 27.296875 
Q 14.984375 17.28125 19.8125 11.734375 
Q 24.65625 6.203125 33.40625 6.203125 
Q 37.3125 6.203125 41.140625 7.25 
Q 44.96875 8.296875 48.78125 10.40625 
L 48.78125 2.09375 
Q 45.015625 0.34375 40.984375 -0.53125 
Q 36.96875 -1.421875 32.421875 -1.421875 
Q 20.0625 -1.421875 12.78125 6.34375 
Q 5.515625 14.109375 5.515625 27.296875 
Q 5.515625 40.671875 12.859375 48.328125 
Q 20.21875 56 33.015625 56 
Q 37.15625 56 41.109375 55.140625 
Q 45.0625 54.296875 48.78125 52.59375 
z
" id="DejaVuSans-63"/>
     <path d="M 56.203125 29.59375 
L 56.203125 25.203125 
L 14.890625 25.203125 
Q 15.484375 15.921875 20.484375 11.0625 
Q 25.484375 6.203125 34.421875 6.203125 
Q 39.59375 6.203125 44.453125 7.46875 
Q 49.3125 8.734375 54.109375 11.28125 
L 54.109375 2.78125 
Q 49.265625 0.734375 44.1875 -0.34375 
Q 39.109375 -1.421875 33.890625 -1.421875 
Q 20.796875 -1.421875 13.15625 6.1875 
Q 5.515625 13.8125 5.515625 26.8125 
Q 5.515625 40.234375 12.765625 48.109375 
Q 20.015625 56 32.328125 56 
Q 43.359375 56 49.78125 48.890625 
Q 56.203125 41.796875 56.203125 29.59375 
z
M 47.21875 32.234375 
Q 47.125 39.59375 43.09375 43.984375 
Q 39.0625 48.390625 32.421875 48.390625 
Q 24.90625 48.390625 20.390625 44.140625 
Q 15.875 39.890625 15.1875 32.171875 
z
" id="DejaVuSans-65"/>
     <path id="DejaVuSans-20"/>
     <path d="M 51.125 44 
L 36.921875 44 
L 32.8125 27.6875 
L 47.125 27.6875 
z
M 43.796875 71.78125 
L 38.71875 51.515625 
L 52.984375 51.515625 
L 58.109375 71.78125 
L 65.921875 71.78125 
L 60.890625 51.515625 
L 76.125 51.515625 
L 76.125 44 
L 58.984375 44 
L 54.984375 27.6875 
L 70.515625 27.6875 
L 70.515625 20.21875 
L 53.078125 20.21875 
L 48 0 
L 40.1875 0 
L 45.21875 20.21875 
L 30.90625 20.21875 
L 25.875 0 
L 18.015625 0 
L 23.09375 20.21875 
L 7.71875 20.21875 
L 7.71875 27.6875 
L 24.90625 27.6875 
L 29 44 
L 13.28125 44 
L 13.28125 51.515625 
L 30.90625 51.515625 
L 35.890625 71.78125 
z
" id="DejaVuSans-23"/>
     <path d="M 10.984375 1.515625 
L 10.984375 10.5 
Q 14.703125 8.734375 18.5 7.8125 
Q 22.3125 6.890625 25.984375 6.890625 
Q 35.75 6.890625 40.890625 13.453125 
Q 46.046875 20.015625 46.78125 33.40625 
Q 43.953125 29.203125 39.59375 26.953125 
Q 35.25 24.703125 29.984375 24.703125 
Q 19.046875 24.703125 12.671875 31.3125 
Q 6.296875 37.9375 6.296875 49.421875 
Q 6.296875 60.640625 12.9375 67.421875 
Q 19.578125 74.21875 30.609375 74.21875 
Q 43.265625 74.21875 49.921875 64.515625 
Q 56.59375 54.828125 56.59375 36.375 
Q 56.59375 19.140625 48.40625 8.859375 
Q 40.234375 -1.421875 26.421875 -1.421875 
Q 22.703125 -1.421875 18.890625 -0.6875 
Q 15.09375 0.046875 10.984375 1.515625 
z
M 30.609375 32.421875 
Q 37.25 32.421875 41.125 36.953125 
Q 45.015625 41.5 45.015625 49.421875 
Q 45.015625 57.28125 41.125 61.84375 
Q 37.25 66.40625 30.609375 66.40625 
Q 23.96875 66.40625 20.09375 61.84375 
Q 16.21875 57.28125 16.21875 49.421875 
Q 16.21875 41.5 20.09375 36.953125 
Q 23.96875 32.421875 30.609375 32.421875 
z
" id="DejaVuSans-39"/>
     <path d="M 37.796875 64.3125 
L 12.890625 25.390625 
L 37.796875 25.390625 
z
M 35.203125 72.90625 
L 47.609375 72.90625 
L 47.609375 25.390625 
L 58.015625 25.390625 
L 58.015625 17.1875 
L 47.609375 17.1875 
L 47.609375 0 
L 37.796875 0 
L 37.796875 17.1875 
L 4.890625 17.1875 
L 4.890625 26.703125 
z
" id="DejaVuSans-34"/>
     <path d="M 40.578125 39.3125 
Q 47.65625 37.796875 51.625 33 
Q 55.609375 28.21875 55.609375 21.1875 
Q 55.609375 10.40625 48.1875 4.484375 
Q 40.765625 -1.421875 27.09375 -1.421875 
Q 22.515625 -1.421875 17.65625 -0.515625 
Q 12.796875 0.390625 7.625 2.203125 
L 7.625 11.71875 
Q 11.71875 9.328125 16.59375 8.109375 
Q 21.484375 6.890625 26.8125 6.890625 
Q 36.078125 6.890625 40.9375 10.546875 
Q 45.796875 14.203125 45.796875 21.1875 
Q 45.796875 27.640625 41.28125 31.265625 
Q 36.765625 34.90625 28.71875 34.90625 
L 20.21875 34.90625 
L 20.21875 43.015625 
L 29.109375 43.015625 
Q 36.375 43.015625 40.234375 45.921875 
Q 44.09375 48.828125 44.09375 54.296875 
Q 44.09375 59.90625 40.109375 62.90625 
Q 36.140625 65.921875 28.71875 65.921875 
Q 24.65625 65.921875 20.015625 65.03125 
Q 15.375 64.15625 9.8125 62.3125 
L 9.8125 71.09375 
Q 15.4375 72.65625 20.34375 73.4375 
Q 25.25 74.21875 29.59375 74.21875 
Q 40.828125 74.21875 47.359375 69.109375 
Q 53.90625 64.015625 53.90625 55.328125 
Q 53.90625 49.265625 50.4375 45.09375 
Q 46.96875 40.921875 40.578125 39.3125 
z
" id="DejaVuSans-33"/>
     <path d="M 11.71875 12.40625 
L 22.015625 12.40625 
L 22.015625 4 
L 14.015625 -11.625 
L 7.71875 -11.625 
L 11.71875 4 
z
" id="DejaVuSans-2c"/>
     <path d="M 16.890625 72.90625 
L 62.984375 72.90625 
L 61.375 64.59375 
L 25.09375 64.59375 
L 20.90625 43.015625 
L 55.71875 43.015625 
L 54.109375 34.71875 
L 19.28125 34.71875 
L 14.203125 8.296875 
L 51.3125 8.296875 
L 49.703125 0 
L 2.6875 0 
z
" id="DejaVuSans-Oblique-45"/>
     <path d="M 16.890625 72.90625 
L 30.171875 72.90625 
L 50.296875 10.40625 
L 62.5 72.90625 
L 72.125 72.90625 
L 57.90625 0 
L 44.578125 0 
L 24.515625 62.890625 
L 12.3125 0 
L 2.6875 0 
z
" id="DejaVuSans-Oblique-4e"/>
     <path d="M 10.59375 45.40625 
L 73.1875 45.40625 
L 73.1875 37.203125 
L 10.59375 37.203125 
z
M 10.59375 25.484375 
L 73.1875 25.484375 
L 73.1875 17.1875 
L 10.59375 17.1875 
z
" id="DejaVuSans-3d"/>
     <path d="M 4.890625 31.390625 
L 31.203125 31.390625 
L 31.203125 23.390625 
L 4.890625 23.390625 
z
" id="DejaVuSans-2d"/>
     <path d="M 12.40625 8.296875 
L 28.515625 8.296875 
L 28.515625 63.921875 
L 10.984375 60.40625 
L 10.984375 69.390625 
L 28.421875 72.90625 
L 38.28125 72.90625 
L 38.28125 8.296875 
L 54.390625 8.296875 
L 54.390625 0 
L 12.40625 0 
z
" id="DejaVuSans-31"/>
     <path d="M 31.78125 34.625 
Q 24.75 34.625 20.71875 30.859375 
Q 16.703125 27.09375 16.703125 20.515625 
Q 16.703125 13.921875 20.71875 10.15625 
Q 24.75 6.390625 31.78125 6.390625 
Q 38.8125 6.390625 42.859375 10.171875 
Q 46.921875 13.96875 46.921875 20.515625 
Q 46.921875 27.09375 42.890625 30.859375 
Q 38.875 34.625 31.78125 34.625 
z
M 21.921875 38.8125 
Q 15.578125 40.375 12.03125 44.71875 
Q 8.5 49.078125 8.5 55.328125 
Q 8.5 64.0625 14.71875 69.140625 
Q 20.953125 74.21875 31.78125 74.21875 
Q 42.671875 74.21875 48.875 69.140625 
Q 55.078125 64.0625 55.078125 55.328125 
Q 55.078125 49.078125 51.53125 44.71875 
Q 48 40.375 41.703125 38.8125 
Q 48.828125 37.15625 52.796875 32.3125 
Q 56.78125 27.484375 56.78125 20.515625 
Q 56.78125 9.90625 50.3125 4.234375 
Q 43.84375 -1.421875 31.78125 -1.421875 
Q 19.734375 -1.421875 13.25 4.234375 
Q 6.78125 9.90625 6.78125 20.515625 
Q 6.78125 27.484375 10.78125 32.3125 
Q 14.796875 37.15625 21.921875 38.8125 
z
M 18.3125 54.390625 
Q 18.3125 48.734375 21.84375 45.5625 
Q 25.390625 42.390625 31.78125 42.390625 
Q 38.140625 42.390625 41.71875 45.5625 
Q 45.3125 48.734375 45.3125 54.390625 
Q 45.3125 60.0625 41.71875 63.234375 
Q 38.140625 66.40625 31.78125 66.40625 
Q 25.390625 66.40625 21.84375 63.234375 
Q 18.3125 60.0625 18.3125 54.390625 
z
" id="DejaVuSans-38"/>
     <path d="M 10.6875 12.40625 
L 21 12.40625 
L 21 0 
L 10.6875 0 
z
" id="DejaVuSans-2e"/>
     <path d="M 10.796875 72.90625 
L 49.515625 72.90625 
L 49.515625 64.59375 
L 19.828125 64.59375 
L 19.828125 46.734375 
Q 21.96875 47.46875 24.109375 47.828125 
Q 26.265625 48.1875 28.421875 48.1875 
Q 40.625 48.1875 47.75 41.5 
Q 54.890625 34.8125 54.890625 23.390625 
Q 54.890625 11.625 47.5625 5.09375 
Q 40.234375 -1.421875 26.90625 -1.421875 
Q 22.3125 -1.421875 17.546875 -0.640625 
Q 12.796875 0.140625 7.71875 1.703125 
L 7.71875 11.625 
Q 12.109375 9.234375 16.796875 8.0625 
Q 21.484375 6.890625 26.703125 6.890625 
Q 35.15625 6.890625 40.078125 11.328125 
Q 45.015625 15.765625 45.015625 23.390625 
Q 45.015625 31 40.078125 35.4375 
Q 35.15625 39.890625 26.703125 39.890625 
Q 22.75 39.890625 18.8125 39.015625 
Q 14.890625 38.140625 10.796875 36.28125 
z
" id="DejaVuSans-35"/>
     <path d="M 8.203125 72.90625 
L 55.078125 72.90625 
L 55.078125 68.703125 
L 28.609375 0 
L 18.3125 0 
L 43.21875 64.59375 
L 8.203125 64.59375 
z
" id="DejaVuSans-37"/>
     <path d="M 28.609375 0 
L 0.78125 72.90625 
L 11.078125 72.90625 
L 34.1875 11.53125 
L 57.328125 72.90625 
L 67.578125 72.90625 
L 39.796875 0 
z
" id="DejaVuSans-56"/>
     <path d="M 34.1875 63.1875 
L 14.15625 8.203125 
L 54.25 8.203125 
z
M 0.78125 0 
L 28.609375 72.90625 
L 39.796875 72.90625 
L 67.578125 0 
z
" id="DejaVuSans-394"/>
     <path d="M 9.8125 72.90625 
L 55.90625 72.90625 
L 55.90625 64.59375 
L 19.671875 64.59375 
L 19.671875 43.015625 
L 54.390625 43.015625 
L 54.390625 34.71875 
L 19.671875 34.71875 
L 19.671875 8.296875 
L 56.78125 8.296875 
L 56.78125 0 
L 9.8125 0 
z
" id="DejaVuSans-45"/>
     <path d="M 31.78125 66.40625 
Q 24.171875 66.40625 20.328125 58.90625 
Q 16.5 51.421875 16.5 36.375 
Q 16.5 21.390625 20.328125 13.890625 
Q 24.171875 6.390625 31.78125 6.390625 
Q 39.453125 6.390625 43.28125 13.890625 
Q 47.125 21.390625 47.125 36.375 
Q 47.125 51.421875 43.28125 58.90625 
Q 39.453125 66.40625 31.78125 66.40625 
z
M 31.78125 74.21875 
Q 44.046875 74.21875 50.515625 64.515625 
Q 56.984375 54.828125 56.984375 36.375 
Q 56.984375 17.96875 50.515625 8.265625 
Q 44.046875 -1.421875 31.78125 -1.421875 
Q 19.53125 -1.421875 13.0625 8.265625 
Q 6.59375 17.96875 6.59375 36.375 
Q 6.59375 54.828125 13.0625 64.515625 
Q 19.53125 74.21875 31.78125 74.21875 
z
" id="DejaVuSans-30"/>
    </defs>
    <g transform="translate(63.228 35.472)scale(0.12 -0.12)">
     <use transform="translate(0 0.78125)" xlink:href="#DejaVuSans-53"/>
     <use transform="translate(63.476562 0.78125)" xlink:href="#DejaVuSans-74"/>
     <use transform="translate(102.685547 0.78125)" xlink:href="#DejaVuSans-72"/>
     <use transform="translate(143.798828 0.78125)" xlink:href="#DejaVuSans-75"/>
     <use transform="translate(207.177734 0.78125)" xlink:href="#DejaVuSans-63"/>
     <use transform="translate(262.158203 0.78125)" xlink:href="#DejaVuSans-74"/>
     <use transform="translate(301.367188 0.78125)" xlink:href="#DejaVuSans-75"/>
     <use transform="translate(364.746094 0.78125)" xlink:href="#DejaVuSans-72"/>
     <use transform="translate(405.859375 0.78125)" xlink:href="#DejaVuSans-65"/>
     <use transform="translate(467.382812 0.78125)" xlink:href="#DejaVuSans-20"/>
     <use transform="translate(499.169922 0.78125)" xlink:href="#DejaVuSans-23"/>
     <use transform="translate(582.958984 0.78125)" xlink:href="#DejaVuSans-39"/>
     <use transform="translate(646.582031 0.78125)" xlink:href="#DejaVuSans-34"/>
     <use transform="translate(710.205078 0.78125)" xlink:href="#DejaVuSans-39"/>
     <use transform="translate(773.828125 0.78125)" xlink:href="#DejaVuSans-33"/>
     <use transform="translate(837.451172 0.78125)" xlink:href="#DejaVuSans-2c"/>
     <use transform="translate(869.238281 0.78125)" xlink:href="#DejaVuSans-20"/>
     <use transform="translate(901.025391 0.78125)" xlink:href="#DejaVuSans-Oblique-45"/>
     <use transform="translate(964.208984 -15.625)scale(0.7)" xlink:href="#DejaVuSans-Oblique-4e"/>
     <use transform="translate(1019.306641 0.78125)" xlink:href="#DejaVuSans-3d"/>
     <use transform="translate(1103.095703 0.78125)" xlink:href="#DejaVuSans-2d"/>
     <use transform="translate(1139.179688 0.78125)" xlink:href="#DejaVuSans-31"/>
     <use transform="translate(1202.802734 0.78125)" xlink:href="#DejaVuSans-38"/>
     <use transform="translate(1266.425781 0.78125)" xlink:href="#DejaVuSans-34"/>
     <use transform="translate(1330.048828 0.78125)" xlink:href="#DejaVuSans-2e"/>
     <use transform="translate(1361.835938 0.78125)" xlink:href="#DejaVuSans-35"/>
     <use transform="translate(1425.349609 0.78125)" xlink:href="#DejaVuSans-37"/>
     <use transform="translate(1488.972656 0.78125)" xlink:href="#DejaVuSans-65"/>
     <use transform="translate(1550.496094 0.78125)" xlink:href="#DejaVuSans-56"/>
     <use transform="translate(1618.904297 0.78125)" xlink:href="#DejaVuSans-2c"/>
     <use transform="translate(1650.691406 0.78125)" xlink:href="#DejaVuSans-20"/>
     <use transform="translate(1682.478516 0.78125)" xlink:href="#DejaVuSans-394"/>
     <use transform="translate(1750.886719 0.78125)" xlink:href="#DejaVuSans-45"/>
     <use transform="translate(1814.070312 0.78125)" xlink:href="#DejaVuSans-3d"/>
     <use transform="translate(1897.859375 0.78125)" xlink:href="#DejaVuSans-2d"/>
     <use transform="translate(1933.943359 0.78125)" xlink:href="#DejaVuSans-30"/>
     <use transform="translate(1997.566406 0.78125)" xlink:href="#DejaVuSans-2e"/>
     <use transform="translate(2029.353516 0.78125)" xlink:href="#DejaVuSans-34"/>
     <use transform="translate(2092.976562 0.78125)" xlink:href="#DejaVuSans-35"/>
     <use transform="translate(2156.599609 0.78125)" xlink:href="#DejaVuSans-65"/>
     <use transform="translate(2218.123047 0.78125)" xlink:href="#DejaVuSans-56"/>
    </g>
   </g>
  </g>
  <g id="axes_2">
   <g id="patch_2">
    <path clip-path="url(#pfe9dcc1b20)" d="M 361.152 307.584 
L 361.152 306.5445 
L 361.152 42.5115 
L 361.152 41.472 
L 374.4576 41.472 
L 374.4576 42.5115 
L 374.4576 306.5445 
L 374.4576 307.584 
z
" style="fill:#ffffff;stroke:#ffffff;stroke-linejoin:miter;stroke-width:0.01;"/>
   </g>
   <image height="265.68" id="imaged26e0f07fc" transform="scale(1 -1)translate(0 -265.68)" width="12.96" x="361.44" xlink:href="data:image/png;base64,
iVBORw0KGgoAAAANSUhEUgAAABIAAAFxCAYAAAB+2fgXAAAABHNCSVQICAgIfAhkiAAAAeVJREFUeJztncmNw0AQA2ckheYQNv9QLIfQ8ygsCgQ7AEI8+jAs2Puz/94F1LP2ReCsZ18bAWIeZ5XaGRBE7VnbptG+KI101FYyNSiQG2oRITXKNaX9uclOdi2XWjftVE32CZCO2ou5Bj1TcCBr/1zB9ge7Fq0Rg2NM9pvbtG+ua1QgsRYhDy0ISEiNc40BEibbSI0Coj5CBGtkpFbXJiAjNZlrwhuSOv2M1DjXbEdEciBt1JSDDQKKpmZr2rr2j0DBGpXaWEJq3bQzEPIS26r9J+Wzv9Tm8o3aajRXqc3VUXsApKNWjeZq0x4ABVNbm7lrszVigDqP5vIl2+eaT2yfRkL7g+dRcNPqjohkjaCvRVBq0H2U3LQrOJCx9kdTg4B8oxZzzTdqdYHEngjUCAPyUctN9sVRq2sTECW2UKNLd2jVtRmo1A6AhMmWaSRcR8nUdIHUuVb75zJS218EyEitro1At69pIdeSk30Lkw0FktNImGyZRhy1O5galmxd03LUsHWk06jUZiCq+5Wb1kZNN4+wJxJuWt8RAW5am2sYNZ9rYCBzZ3buPKJ2P5Yj4Toy3keyIyJbIxs1rml1byCA84gpch5RQNB7Q0qNMGq2Hy4BXdNR41yz/cEEJfZzUz96r9PoB0okjeQ8y9TkAAAAAElFTkSuQmCC" y="-41.76"/>
   <g id="matplotlib.axis_1"/>
   <g id="matplotlib.axis_2">
    <g id="ytick_1">
     <g id="line2d_1">
      <defs>
       <path d="M 0 0 
L 3.5 0 
" id="m83b2ef79e5" style="stroke:#000000;stroke-width:0.8;"/>
      </defs>
      <g>
       <use style="stroke:#000000;stroke-width:0.8;" x="374.4576" xlink:href="#m83b2ef79e5" y="287.653462"/>
      </g>
     </g>
     <g id="text_2">
      <!-- −8.5 -->
      <defs>
       <path d="M 10.59375 35.5 
L 73.1875 35.5 
L 73.1875 27.203125 
L 10.59375 27.203125 
z
" id="DejaVuSans-2212"/>
      </defs>
      <g transform="translate(381.4576 291.452681)scale(0.1 -0.1)">
       <use xlink:href="#DejaVuSans-2212"/>
       <use x="83.789062" xlink:href="#DejaVuSans-38"/>
       <use x="147.412109" xlink:href="#DejaVuSans-2e"/>
       <use x="179.199219" xlink:href="#DejaVuSans-35"/>
      </g>
     </g>
    </g>
    <g id="ytick_2">
     <g id="line2d_2">
      <g>
       <use style="stroke:#000000;stroke-width:0.8;" x="374.4576" xlink:href="#m83b2ef79e5" y="251.844867"/>
      </g>
     </g>
     <g id="text_3">
      <!-- −8.0 -->
      <g transform="translate(381.4576 255.644086)scale(0.1 -0.1)">
       <use xlink:href="#DejaVuSans-2212"/>
       <use x="83.789062" xlink:href="#DejaVuSans-38"/>
       <use x="147.412109" xlink:href="#DejaVuSans-2e"/>
       <use x="179.199219" xlink:href="#DejaVuSans-30"/>
      </g>
     </g>
    </g>
    <g id="ytick_3">
     <g id="line2d_3">
      <g>
       <use style="stroke:#000000;stroke-width:0.8;" x="374.4576" xlink:href="#m83b2ef79e5" y="216.036272"/>
      </g>
     </g>
     <g id="text_4">
      <!-- −7.5 -->
      <g transform="translate(381.4576 219.83549)scale(0.1 -0.1)">
       <use xlink:href="#DejaVuSans-2212"/>
       <use x="83.789062" xlink:href="#DejaVuSans-37"/>
       <use x="147.412109" xlink:href="#DejaVuSans-2e"/>
       <use x="179.199219" xlink:href="#DejaVuSans-35"/>
      </g>
     </g>
    </g>
    <g id="ytick_4">
     <g id="line2d_4">
      <g>
       <use style="stroke:#000000;stroke-width:0.8;" x="374.4576" xlink:href="#m83b2ef79e5" y="180.227677"/>
      </g>
     </g>
     <g id="text_5">
      <!-- −7.0 -->
      <g transform="translate(381.4576 184.026895)scale(0.1 -0.1)">
       <use xlink:href="#DejaVuSans-2212"/>
       <use x="83.789062" xlink:href="#DejaVuSans-37"/>
       <use x="147.412109" xlink:href="#DejaVuSans-2e"/>
       <use x="179.199219" xlink:href="#DejaVuSans-30"/>
      </g>
     </g>
    </g>
    <g id="ytick_5">
     <g id="line2d_5">
      <g>
       <use style="stroke:#000000;stroke-width:0.8;" x="374.4576" xlink:href="#m83b2ef79e5" y="144.419081"/>
      </g>
     </g>
     <g id="text_6">
      <!-- −6.5 -->
      <defs>
       <path d="M 33.015625 40.375 
Q 26.375 40.375 22.484375 35.828125 
Q 18.609375 31.296875 18.609375 23.390625 
Q 18.609375 15.53125 22.484375 10.953125 
Q 26.375 6.390625 33.015625 6.390625 
Q 39.65625 6.390625 43.53125 10.953125 
Q 47.40625 15.53125 47.40625 23.390625 
Q 47.40625 31.296875 43.53125 35.828125 
Q 39.65625 40.375 33.015625 40.375 
z
M 52.59375 71.296875 
L 52.59375 62.3125 
Q 48.875 64.0625 45.09375 64.984375 
Q 41.3125 65.921875 37.59375 65.921875 
Q 27.828125 65.921875 22.671875 59.328125 
Q 17.53125 52.734375 16.796875 39.40625 
Q 19.671875 43.65625 24.015625 45.921875 
Q 28.375 48.1875 33.59375 48.1875 
Q 44.578125 48.1875 50.953125 41.515625 
Q 57.328125 34.859375 57.328125 23.390625 
Q 57.328125 12.15625 50.6875 5.359375 
Q 44.046875 -1.421875 33.015625 -1.421875 
Q 20.359375 -1.421875 13.671875 8.265625 
Q 6.984375 17.96875 6.984375 36.375 
Q 6.984375 53.65625 15.1875 63.9375 
Q 23.390625 74.21875 37.203125 74.21875 
Q 40.921875 74.21875 44.703125 73.484375 
Q 48.484375 72.75 52.59375 71.296875 
z
" id="DejaVuSans-36"/>
      </defs>
      <g transform="translate(381.4576 148.2183)scale(0.1 -0.1)">
       <use xlink:href="#DejaVuSans-2212"/>
       <use x="83.789062" xlink:href="#DejaVuSans-36"/>
       <use x="147.412109" xlink:href="#DejaVuSans-2e"/>
       <use x="179.199219" xlink:href="#DejaVuSans-35"/>
      </g>
     </g>
    </g>
    <g id="ytick_6">
     <g id="line2d_6">
      <g>
       <use style="stroke:#000000;stroke-width:0.8;" x="374.4576" xlink:href="#m83b2ef79e5" y="108.610486"/>
      </g>
     </g>
     <g id="text_7">
      <!-- −6.0 -->
      <g transform="translate(381.4576 112.409705)scale(0.1 -0.1)">
       <use xlink:href="#DejaVuSans-2212"/>
       <use x="83.789062" xlink:href="#DejaVuSans-36"/>
       <use x="147.412109" xlink:href="#DejaVuSans-2e"/>
       <use x="179.199219" xlink:href="#DejaVuSans-30"/>
      </g>
     </g>
    </g>
    <g id="ytick_7">
     <g id="line2d_7">
      <g>
       <use style="stroke:#000000;stroke-width:0.8;" x="374.4576" xlink:href="#m83b2ef79e5" y="72.801891"/>
      </g>
     </g>
     <g id="text_8">
      <!-- −5.5 -->
      <g transform="translate(381.4576 76.60111)scale(0.1 -0.1)">
       <use xlink:href="#DejaVuSans-2212"/>
       <use x="83.789062" xlink:href="#DejaVuSans-35"/>
       <use x="147.412109" xlink:href="#DejaVuSans-2e"/>
       <use x="179.199219" xlink:href="#DejaVuSans-35"/>
      </g>
     </g>
    </g>
    <g id="text_9">
     <!-- Energy [eV] -->
     <defs>
      <path d="M 54.890625 33.015625 
L 54.890625 0 
L 45.90625 0 
L 45.90625 32.71875 
Q 45.90625 40.484375 42.875 44.328125 
Q 39.84375 48.1875 33.796875 48.1875 
Q 26.515625 48.1875 22.3125 43.546875 
Q 18.109375 38.921875 18.109375 30.90625 
L 18.109375 0 
L 9.078125 0 
L 9.078125 54.6875 
L 18.109375 54.6875 
L 18.109375 46.1875 
Q 21.34375 51.125 25.703125 53.5625 
Q 30.078125 56 35.796875 56 
Q 45.21875 56 50.046875 50.171875 
Q 54.890625 44.34375 54.890625 33.015625 
z
" id="DejaVuSans-6e"/>
      <path d="M 45.40625 27.984375 
Q 45.40625 37.75 41.375 43.109375 
Q 37.359375 48.484375 30.078125 48.484375 
Q 22.859375 48.484375 18.828125 43.109375 
Q 14.796875 37.75 14.796875 27.984375 
Q 14.796875 18.265625 18.828125 12.890625 
Q 22.859375 7.515625 30.078125 7.515625 
Q 37.359375 7.515625 41.375 12.890625 
Q 45.40625 18.265625 45.40625 27.984375 
z
M 54.390625 6.78125 
Q 54.390625 -7.171875 48.1875 -13.984375 
Q 42 -20.796875 29.203125 -20.796875 
Q 24.46875 -20.796875 20.265625 -20.09375 
Q 16.0625 -19.390625 12.109375 -17.921875 
L 12.109375 -9.1875 
Q 16.0625 -11.328125 19.921875 -12.34375 
Q 23.78125 -13.375 27.78125 -13.375 
Q 36.625 -13.375 41.015625 -8.765625 
Q 45.40625 -4.15625 45.40625 5.171875 
L 45.40625 9.625 
Q 42.625 4.78125 38.28125 2.390625 
Q 33.9375 0 27.875 0 
Q 17.828125 0 11.671875 7.65625 
Q 5.515625 15.328125 5.515625 27.984375 
Q 5.515625 40.671875 11.671875 48.328125 
Q 17.828125 56 27.875 56 
Q 33.9375 56 38.28125 53.609375 
Q 42.625 51.21875 45.40625 46.390625 
L 45.40625 54.6875 
L 54.390625 54.6875 
z
" id="DejaVuSans-67"/>
      <path d="M 32.171875 -5.078125 
Q 28.375 -14.84375 24.75 -17.8125 
Q 21.140625 -20.796875 15.09375 -20.796875 
L 7.90625 -20.796875 
L 7.90625 -13.28125 
L 13.1875 -13.28125 
Q 16.890625 -13.28125 18.9375 -11.515625 
Q 21 -9.765625 23.484375 -3.21875 
L 25.09375 0.875 
L 2.984375 54.6875 
L 12.5 54.6875 
L 29.59375 11.921875 
L 46.6875 54.6875 
L 56.203125 54.6875 
z
" id="DejaVuSans-79"/>
      <path d="M 8.59375 75.984375 
L 29.296875 75.984375 
L 29.296875 69 
L 17.578125 69 
L 17.578125 -6.203125 
L 29.296875 -6.203125 
L 29.296875 -13.1875 
L 8.59375 -13.1875 
z
" id="DejaVuSans-5b"/>
      <path d="M 30.421875 75.984375 
L 30.421875 -13.1875 
L 9.71875 -13.1875 
L 9.71875 -6.203125 
L 21.390625 -6.203125 
L 21.390625 69 
L 9.71875 69 
L 9.71875 75.984375 
z
" id="DejaVuSans-5d"/>
     </defs>
     <g transform="translate(417.33885 204.108469)rotate(-90)scale(0.1 -0.1)">
      <use xlink:href="#DejaVuSans-45"/>
      <use x="63.183594" xlink:href="#DejaVuSans-6e"/>
      <use x="126.5625" xlink:href="#DejaVuSans-65"/>
      <use x="188.085938" xlink:href="#DejaVuSans-72"/>
      <use x="229.183594" xlink:href="#DejaVuSans-67"/>
      <use x="292.660156" xlink:href="#DejaVuSans-79"/>
      <use x="351.839844" xlink:href="#DejaVuSans-20"/>
      <use x="383.626953" xlink:href="#DejaVuSans-5b"/>
      <use x="422.640625" xlink:href="#DejaVuSans-65"/>
      <use x="484.164062" xlink:href="#DejaVuSans-56"/>
      <use x="552.572266" xlink:href="#DejaVuSans-5d"/>
     </g>
    </g>
   </g>
   <g id="patch_3">
    <path d="M 361.152 307.584 
L 361.152 306.5445 
L 361.152 42.5115 
L 361.152 41.472 
L 374.4576 41.472 
L 374.4576 42.5115 
L 374.4576 306.5445 
L 374.4576 307.584 
z
" style="fill:none;stroke:#000000;stroke-linejoin:miter;stroke-width:0.8;"/>
   </g>
  </g>
 </g>
 <defs>
  <clipPath id="p4eb60b5b74">
   <rect height="266.112" width="285.696" x="57.6" y="41.472"/>
  </clipPath>
  <clipPath id="pfe9dcc1b20">
   <rect height="266.112" width="13.3056" x="361.152" y="41.472"/>
  </clipPath>
 </defs>
</svg>
