<?xml version="1.0" encoding="utf-8" standalone="no"?>
<!DOCTYPE svg PUBLIC "-//W3C//DTD SVG 1.1//EN"
  "http://www.w3.org/Graphics/SVG/1.1/DTD/svg11.dtd">
<!-- Created with matplotlib (http://matplotlib.org/) -->
<svg height="345.6pt" version="1.1" viewBox="0 0 460.8 345.6" width="460.8pt" xmlns="http://www.w3.org/2000/svg" xmlns:xlink="http://www.w3.org/1999/xlink">
 <defs>
  <style type="text/css">
*{stroke-linecap:butt;stroke-linejoin:round;}
  </style>
 </defs>
 <g id="figure_1">
  <g id="patch_1">
   <path d="M 0 345.6 
L 460.8 345.6 
L 460.8 0 
L 0 0 
z
" style="fill:#ffffff;"/>
  </g>
  <g id="axes_1">
   <g id="CircleCollection_1">
    <path clip-path="url(#pbd6772f9a1)" d="M 261.057018 287.640348 
C 262.827372 287.640348 264.525455 286.936979 265.777284 285.68515 
C 267.029113 284.43332 267.732482 282.735237 267.732482 280.964884 
C 267.732482 279.19453 267.029113 277.496447 265.777284 276.244618 
C 264.525455 274.992789 262.827372 274.28942 261.057018 274.28942 
C 259.286665 274.28942 257.588582 274.992789 256.336752 276.244618 
C 255.084923 277.496447 254.381554 279.19453 254.381554 280.964884 
C 254.381554 282.735237 255.084923 284.43332 256.336752 285.68515 
C 257.588582 286.936979 259.286665 287.640348 261.057018 287.640348 
z
" style="fill:#26828e;"/>
    <path clip-path="url(#pbd6772f9a1)" d="M 167.208517 117.569483 
C 168.981159 117.569483 170.681437 116.865205 171.934884 115.611758 
C 173.188331 114.358311 173.892609 112.658033 173.892609 110.885391 
C 173.892609 109.112749 173.188331 107.412472 171.934884 106.159025 
C 170.681437 104.905577 168.981159 104.201299 167.208517 104.201299 
C 165.435875 104.201299 163.735597 104.905577 162.48215 106.159025 
C 161.228703 107.412472 160.524425 109.112749 160.524425 110.885391 
C 160.524425 112.658033 161.228703 114.358311 162.48215 115.611758 
C 163.735597 116.865205 165.435875 117.569483 167.208517 117.569483 
z
" style="fill:#481769;"/>
    <path clip-path="url(#pbd6772f9a1)" d="M 279.953817 204.153199 
C 281.698601 204.153199 283.372157 203.459989 284.605905 202.226241 
C 285.839653 200.992493 286.532863 199.318937 286.532863 197.574153 
C 286.532863 195.82937 285.839653 194.155814 284.605905 192.922065 
C 283.372157 191.688317 281.698601 190.995108 279.953817 190.995108 
C 278.209034 190.995108 276.535478 191.688317 275.301729 192.922065 
C 274.067981 194.155814 273.374772 195.82937 273.374772 197.574153 
C 273.374772 199.318937 274.067981 200.992493 275.301729 202.226241 
C 276.535478 203.459989 278.209034 204.153199 279.953817 204.153199 
z
" style="fill:#440154;"/>
    <path clip-path="url(#pbd6772f9a1)" d="M 329.992758 140.7762 
C 331.686351 140.7762 333.310807 140.103329 334.508358 138.905778 
C 335.705909 137.708227 336.37878 136.083771 336.37878 134.390178 
C 336.37878 132.696585 335.705909 131.07213 334.508358 129.874579 
C 333.310807 128.677028 331.686351 128.004156 329.992758 128.004156 
C 328.299166 128.004156 326.67471 128.677028 325.477159 129.874579 
C 324.279608 131.07213 323.606737 132.696585 323.606737 134.390178 
C 323.606737 136.083771 324.279608 137.708227 325.477159 138.905778 
C 326.67471 140.103329 328.299166 140.7762 329.992758 140.7762 
z
" style="fill:#38b977;"/>
    <path clip-path="url(#pbd6772f9a1)" d="M 167.788869 280.480864 
C 169.588579 280.480864 171.314819 279.765831 172.587406 278.493245 
C 173.859993 277.220658 174.575025 275.494417 174.575025 273.694708 
C 174.575025 271.894998 173.859993 270.168758 172.587406 268.896171 
C 171.314819 267.623584 169.588579 266.908552 167.788869 266.908552 
C 165.98916 266.908552 164.262919 267.623584 162.990333 268.896171 
C 161.717746 270.168758 161.002714 271.894998 161.002714 273.694708 
C 161.002714 275.494417 161.717746 277.220658 162.990333 278.493245 
C 164.262919 279.765831 165.98916 280.480864 167.788869 280.480864 
z
" style="fill:#238a8d;"/>
    <path clip-path="url(#pbd6772f9a1)" d="M 238.911596 92.322063 
C 240.647977 92.322063 242.313474 91.632192 243.541281 90.404385 
C 244.769087 89.176578 245.458959 87.511081 245.458959 85.7747 
C 245.458959 84.038319 244.769087 82.372822 243.541281 81.145015 
C 242.313474 79.917208 240.647977 79.227337 238.911596 79.227337 
C 237.175215 79.227337 235.509717 79.917208 234.281911 81.145015 
C 233.054104 82.372822 232.364232 84.038319 232.364232 85.7747 
C 232.364232 87.511081 233.054104 89.176578 234.281911 90.404385 
C 235.509717 91.632192 237.175215 92.322063 238.911596 92.322063 
z
" style="fill:#440154;"/>
    <path clip-path="url(#pbd6772f9a1)" d="M 103.486132 163.898259 
C 105.284591 163.898259 107.009632 163.183724 108.281335 161.912021 
C 109.553037 160.640319 110.267573 158.915278 110.267573 157.116818 
C 110.267573 155.318359 109.553037 153.593318 108.281335 152.321616 
C 107.009632 151.049913 105.284591 150.335378 103.486132 150.335378 
C 101.687673 150.335378 99.962632 151.049913 98.690929 152.321616 
C 97.419226 153.593318 96.704691 155.318359 96.704691 157.116818 
C 96.704691 158.915278 97.419226 160.640319 98.690929 161.912021 
C 99.962632 163.183724 101.687673 163.898259 103.486132 163.898259 
z
" style="fill:#32648e;"/>
    <path clip-path="url(#pbd6772f9a1)" d="M 246.323761 189.859603 
C 248.080496 189.859603 249.765516 189.161645 251.007715 187.919446 
C 252.249914 186.677247 252.947872 184.992227 252.947872 183.235493 
C 252.947872 181.478758 252.249914 179.793738 251.007715 178.551539 
C 249.765516 177.30934 248.080496 176.611382 246.323761 176.611382 
C 244.567026 176.611382 242.882007 177.30934 241.639808 178.551539 
C 240.397609 179.793738 239.69965 181.478758 239.69965 183.235493 
C 239.69965 184.992227 240.397609 186.677247 241.639808 187.919446 
C 242.882007 189.161645 244.567026 189.859603 246.323761 189.859603 
z
" style="fill:#453581;"/>
    <path clip-path="url(#pbd6772f9a1)" d="M 181.073833 70.519985 
C 182.829937 70.519985 184.514352 69.822277 185.756105 68.580524 
C 186.997858 67.338771 187.695566 65.654356 187.695566 63.898252 
C 187.695566 62.142147 186.997858 60.457732 185.756105 59.215979 
C 184.514352 57.974226 182.829937 57.276519 181.073833 57.276519 
C 179.317729 57.276519 177.633314 57.974226 176.391561 59.215979 
C 175.149807 60.457732 174.4521 62.142147 174.4521 63.898252 
C 174.4521 65.654356 175.149807 67.338771 176.391561 68.580524 
C 177.633314 69.822277 179.317729 70.519985 181.073833 70.519985 
z
" style="fill:#25848e;"/>
    <path clip-path="url(#pbd6772f9a1)" d="M 194.399715 152.187584 
C 196.170453 152.187584 197.868904 151.484063 199.121005 150.231962 
C 200.373105 148.979862 201.076627 147.281411 201.076627 145.510673 
C 201.076627 143.739935 200.373105 142.041484 199.121005 140.789384 
C 197.868904 139.537283 196.170453 138.833762 194.399715 138.833762 
C 192.628978 138.833762 190.930527 139.537283 189.678426 140.789384 
C 188.426326 142.041484 187.722804 143.739935 187.722804 145.510673 
C 187.722804 147.281411 188.426326 148.979862 189.678426 150.231962 
C 190.930527 151.484063 192.628978 152.187584 194.399715 152.187584 
z
" style="fill:#48186a;"/>
    <path clip-path="url(#pbd6772f9a1)" d="M 222.032392 226.656278 
C 223.806776 226.656278 225.508726 225.951307 226.763405 224.696628 
C 228.018084 223.441949 228.723054 221.74 228.723054 219.965615 
C 228.723054 218.191231 228.018084 216.489282 226.763405 215.234603 
C 225.508726 213.979923 223.806776 213.274953 222.032392 213.274953 
C 220.258008 213.274953 218.556059 213.979923 217.301379 215.234603 
C 216.0467 216.489282 215.34173 218.191231 215.34173 219.965615 
C 215.34173 221.74 216.0467 223.441949 217.301379 224.696628 
C 218.556059 225.951307 220.258008 226.656278 222.032392 226.656278 
z
" style="fill:#481f70;"/>
    <path clip-path="url(#pbd6772f9a1)" d="M 273.177591 87.379216 
C 274.896497 87.379216 276.545233 86.696287 277.760683 85.480837 
C 278.976133 84.265387 279.659061 82.616652 279.659061 80.897746 
C 279.659061 79.17884 278.976133 77.530105 277.760683 76.314655 
C 276.545233 75.099205 274.896497 74.416277 273.177591 74.416277 
C 271.458686 74.416277 269.80995 75.099205 268.5945 76.314655 
C 267.37905 77.530105 266.696122 79.17884 266.696122 80.897746 
C 266.696122 82.616652 267.37905 84.265387 268.5945 85.480837 
C 269.80995 86.696287 271.458686 87.379216 273.177591 87.379216 
z
" style="fill:#27808e;"/>
    <path clip-path="url(#pbd6772f9a1)" d="M 211.059878 60.78902 
C 212.801749 60.78902 214.472511 60.096968 215.7042 58.865279 
C 216.935888 57.633591 217.62794 55.962828 217.62794 54.220958 
C 217.62794 52.479088 216.935888 50.808325 215.7042 49.576637 
C 214.472511 48.344948 212.801749 47.652896 211.059878 47.652896 
C 209.318008 47.652896 207.647245 48.344948 206.415557 49.576637 
C 205.183868 50.808325 204.491816 52.479088 204.491816 54.220958 
C 204.491816 55.962828 205.183868 57.633591 206.415557 58.865279 
C 207.647245 60.096968 209.318008 60.78902 211.059878 60.78902 
z
" style="fill:#228b8d;"/>
    <path clip-path="url(#pbd6772f9a1)" d="M 283.129288 255.706046 
C 284.885006 255.706046 286.569051 255.008492 287.810531 253.767012 
C 289.052012 252.525531 289.749566 250.841486 289.749566 249.085768 
C 289.749566 247.33005 289.052012 245.646005 287.810531 244.404524 
C 286.569051 243.163044 284.885006 242.46549 283.129288 242.46549 
C 281.373569 242.46549 279.689524 243.163044 278.448044 244.404524 
C 277.206564 245.646005 276.509009 247.33005 276.509009 249.085768 
C 276.509009 250.841486 277.206564 252.525531 278.448044 253.767012 
C 279.689524 255.008492 281.373569 255.706046 283.129288 255.706046 
z
" style="fill:#218e8d;"/>
    <path clip-path="url(#pbd6772f9a1)" d="M 299.547221 111.565562 
C 301.25367 111.565562 302.890457 110.887582 304.097098 109.680941 
C 305.30374 108.474299 305.981719 106.837512 305.981719 105.131063 
C 305.981719 103.424614 305.30374 101.787827 304.097098 100.581186 
C 302.890457 99.374544 301.25367 98.696565 299.547221 98.696565 
C 297.840772 98.696565 296.203985 99.374544 294.997343 100.581186 
C 293.790702 101.787827 293.112722 103.424614 293.112722 105.131063 
C 293.112722 106.837512 293.790702 108.474299 294.997343 109.680941 
C 296.203985 110.887582 297.840772 111.565562 299.547221 111.565562 
z
" style="fill:#38588c;"/>
    <path clip-path="url(#pbd6772f9a1)" d="M 134.230404 193.588013 
C 136.028181 193.588013 137.752568 192.873749 139.023789 191.602528 
C 140.295009 190.331308 141.009274 188.606921 141.009274 186.809144 
C 141.009274 185.011367 140.295009 183.28698 139.023789 182.015759 
C 137.752568 180.744539 136.028181 180.030275 134.230404 180.030275 
C 132.432627 180.030275 130.70824 180.744539 129.43702 182.015759 
C 128.1658 183.28698 127.451535 185.011367 127.451535 186.809144 
C 127.451535 188.606921 128.1658 190.331308 129.43702 191.602528 
C 130.70824 192.873749 132.432627 193.588013 134.230404 193.588013 
z
" style="fill:#34608d;"/>
    <path clip-path="url(#pbd6772f9a1)" d="M 159.906843 229.177078 
C 161.702301 229.177078 163.424463 228.463735 164.694044 227.194155 
C 165.963624 225.924574 166.676967 224.202412 166.676967 222.406954 
C 166.676967 220.611496 165.963624 218.889334 164.694044 217.619753 
C 163.424463 216.350173 161.702301 215.63683 159.906843 215.63683 
C 158.111385 215.63683 156.389223 216.350173 155.119643 217.619753 
C 153.850062 218.889334 153.136719 220.611496 153.136719 222.406954 
C 153.136719 224.202412 153.850062 225.924574 155.119643 227.194155 
C 156.389223 228.463735 158.111385 229.177078 159.906843 229.177078 
z
" style="fill:#481a6c;"/>
    <path clip-path="url(#pbd6772f9a1)" d="M 190.520187 204.024246 
C 192.302254 204.024246 194.011573 203.316223 195.271686 202.056111 
C 196.531798 200.795999 197.239821 199.08668 197.239821 197.304612 
C 197.239821 195.522544 196.531798 193.813225 195.271686 192.553113 
C 194.011573 191.293001 192.302254 190.584978 190.520187 190.584978 
C 188.738119 190.584978 187.0288 191.293001 185.768688 192.553113 
C 184.508575 193.813225 183.800552 195.522544 183.800552 197.304612 
C 183.800552 199.08668 184.508575 200.795999 185.768688 202.056111 
C 187.0288 203.316223 188.738119 204.024246 190.520187 204.024246 
z
" style="fill:#471063;"/>
    <path clip-path="url(#pbd6772f9a1)" d="M 304.936738 168.584117 
C 306.6571 168.584117 308.307232 167.90061 309.523711 166.68413 
C 310.740191 165.46765 311.423698 163.817518 311.423698 162.097156 
C 311.423698 160.376795 310.740191 158.726663 309.523711 157.510183 
C 308.307232 156.293703 306.6571 155.610196 304.936738 155.610196 
C 303.216376 155.610196 301.566244 156.293703 300.349764 157.510183 
C 299.133285 158.726663 298.449778 160.376795 298.449778 162.097156 
C 298.449778 163.817518 299.133285 165.46765 300.349764 166.68413 
C 301.566244 167.90061 303.216376 168.584117 304.936738 168.584117 
z
" style="fill:#2a778e;"/>
    <path clip-path="url(#pbd6772f9a1)" d="M 228.068397 141.576303 
C 229.82215 141.576303 231.50431 140.87953 232.7444 139.639439 
C 233.984491 138.399349 234.681264 136.717189 234.681264 134.963436 
C 234.681264 133.209683 233.984491 131.527523 232.7444 130.287432 
C 231.50431 129.047342 229.82215 128.350568 228.068397 128.350568 
C 226.314644 128.350568 224.632484 129.047342 223.392393 130.287432 
C 222.152303 131.527523 221.455529 133.209683 221.455529 134.963436 
C 221.455529 136.717189 222.152303 138.399349 223.392393 139.639439 
C 224.632484 140.87953 226.314644 141.576303 228.068397 141.576303 
z
" style="fill:#46327e;"/>
    <path clip-path="url(#pbd6772f9a1)" d="M 137.580351 143.966994 
C 139.368101 143.966994 141.082871 143.256713 142.347001 141.992583 
C 143.611132 140.728452 144.321412 139.013683 144.321412 137.225932 
C 144.321412 135.438182 143.611132 133.723412 142.347001 132.459282 
C 141.082871 131.195151 139.368101 130.48487 137.580351 130.48487 
C 135.7926 130.48487 134.077831 131.195151 132.8137 132.459282 
C 131.54957 133.723412 130.839289 135.438182 130.839289 137.225932 
C 130.839289 139.013683 131.54957 140.728452 132.8137 141.992583 
C 134.077831 143.256713 135.7926 143.966994 137.580351 143.966994 
z
" style="fill:#33638d;"/>
    <path clip-path="url(#pbd6772f9a1)" d="M 70.923668 156.957792 
C 72.726368 156.957792 74.455477 156.241572 75.730178 154.96687 
C 77.00488 153.692169 77.7211 151.96306 77.7211 150.16036 
C 77.7211 148.357659 77.00488 146.62855 75.730178 145.353849 
C 74.455477 144.079147 72.726368 143.362927 70.923668 143.362927 
C 69.120968 143.362927 67.391859 144.079147 66.117157 145.353849 
C 64.842456 146.62855 64.126235 148.357659 64.126235 150.16036 
C 64.126235 151.96306 64.842456 153.692169 66.117157 154.96687 
C 67.391859 156.241572 69.120968 156.957792 70.923668 156.957792 
z
" style="fill:#fde725;"/>
    <path clip-path="url(#pbd6772f9a1)" d="M 226.978544 279.710515 
C 228.759589 279.710515 230.467926 279.002898 231.727315 277.74351 
C 232.986704 276.484121 233.694321 274.775783 233.694321 272.994738 
C 233.694321 271.213694 232.986704 269.505356 231.727315 268.245967 
C 230.467926 266.986579 228.759589 266.278962 226.978544 266.278962 
C 225.197499 266.278962 223.489162 266.986579 222.229773 268.245967 
C 220.970384 269.505356 220.262768 271.213694 220.262768 272.994738 
C 220.262768 274.775783 220.970384 276.484121 222.229773 277.74351 
C 223.489162 279.002898 225.197499 279.710515 226.978544 279.710515 
z
" style="fill:#481a6c;"/>
    <path clip-path="url(#pbd6772f9a1)" d="M 195.44213 301.580284 
C 197.236176 301.580284 198.956984 300.867502 200.225566 299.59892 
C 201.494148 298.330338 202.206931 296.60953 202.206931 294.815483 
C 202.206931 293.021437 201.494148 291.300629 200.225566 290.032047 
C 198.956984 288.763465 197.236176 288.050683 195.44213 288.050683 
C 193.648083 288.050683 191.927275 288.763465 190.658693 290.032047 
C 189.390111 291.300629 188.677329 293.021437 188.677329 294.815483 
C 188.677329 296.60953 189.390111 298.330338 190.658693 299.59892 
C 191.927275 300.867502 193.648083 301.580284 195.44213 301.580284 
z
" style="fill:#25858e;"/>
   </g>
   <g id="text_1">
    <!-- Structure #549, $E_N$=-184.12eV, ΔE=0.12eV -->
    <defs>
     <path d="M 53.515625 70.515625 
L 53.515625 60.890625 
Q 47.90625 63.578125 42.921875 64.890625 
Q 37.9375 66.21875 33.296875 66.21875 
Q 25.25 66.21875 20.875 63.09375 
Q 16.5 59.96875 16.5 54.203125 
Q 16.5 49.359375 19.40625 46.890625 
Q 22.3125 44.4375 30.421875 42.921875 
L 36.375 41.703125 
Q 47.40625 39.59375 52.65625 34.296875 
Q 57.90625 29 57.90625 20.125 
Q 57.90625 9.515625 50.796875 4.046875 
Q 43.703125 -1.421875 29.984375 -1.421875 
Q 24.8125 -1.421875 18.96875 -0.25 
Q 13.140625 0.921875 6.890625 3.21875 
L 6.890625 13.375 
Q 12.890625 10.015625 18.65625 8.296875 
Q 24.421875 6.59375 29.984375 6.59375 
Q 38.421875 6.59375 43.015625 9.90625 
Q 47.609375 13.234375 47.609375 19.390625 
Q 47.609375 24.75 44.3125 27.78125 
Q 41.015625 30.8125 33.5 32.328125 
L 27.484375 33.5 
Q 16.453125 35.6875 11.515625 40.375 
Q 6.59375 45.0625 6.59375 53.421875 
Q 6.59375 63.09375 13.40625 68.65625 
Q 20.21875 74.21875 32.171875 74.21875 
Q 37.3125 74.21875 42.625 73.28125 
Q 47.953125 72.359375 53.515625 70.515625 
z
" id="DejaVuSans-53"/>
     <path d="M 18.3125 70.21875 
L 18.3125 54.6875 
L 36.8125 54.6875 
L 36.8125 47.703125 
L 18.3125 47.703125 
L 18.3125 18.015625 
Q 18.3125 11.328125 20.140625 9.421875 
Q 21.96875 7.515625 27.59375 7.515625 
L 36.8125 7.515625 
L 36.8125 0 
L 27.59375 0 
Q 17.1875 0 13.234375 3.875 
Q 9.28125 7.765625 9.28125 18.015625 
L 9.28125 47.703125 
L 2.6875 47.703125 
L 2.6875 54.6875 
L 9.28125 54.6875 
L 9.28125 70.21875 
z
" id="DejaVuSans-74"/>
     <path d="M 41.109375 46.296875 
Q 39.59375 47.171875 37.8125 47.578125 
Q 36.03125 48 33.890625 48 
Q 26.265625 48 22.1875 43.046875 
Q 18.109375 38.09375 18.109375 28.8125 
L 18.109375 0 
L 9.078125 0 
L 9.078125 54.6875 
L 18.109375 54.6875 
L 18.109375 46.1875 
Q 20.953125 51.171875 25.484375 53.578125 
Q 30.03125 56 36.53125 56 
Q 37.453125 56 38.578125 55.875 
Q 39.703125 55.765625 41.0625 55.515625 
z
" id="DejaVuSans-72"/>
     <path d="M 8.5 21.578125 
L 8.5 54.6875 
L 17.484375 54.6875 
L 17.484375 21.921875 
Q 17.484375 14.15625 20.5 10.265625 
Q 23.53125 6.390625 29.59375 6.390625 
Q 36.859375 6.390625 41.078125 11.03125 
Q 45.3125 15.671875 45.3125 23.6875 
L 45.3125 54.6875 
L 54.296875 54.6875 
L 54.296875 0 
L 45.3125 0 
L 45.3125 8.40625 
Q 42.046875 3.421875 37.71875 1 
Q 33.40625 -1.421875 27.6875 -1.421875 
Q 18.265625 -1.421875 13.375 4.4375 
Q 8.5 10.296875 8.5 21.578125 
z
M 31.109375 56 
z
" id="DejaVuSans-75"/>
     <path d="M 48.78125 52.59375 
L 48.78125 44.1875 
Q 44.96875 46.296875 41.140625 47.34375 
Q 37.3125 48.390625 33.40625 48.390625 
Q 24.65625 48.390625 19.8125 42.84375 
Q 14.984375 37.3125 14.984375 27.296875 
Q 14.984375 17.28125 19.8125 11.734375 
Q 24.65625 6.203125 33.40625 6.203125 
Q 37.3125 6.203125 41.140625 7.25 
Q 44.96875 8.296875 48.78125 10.40625 
L 48.78125 2.09375 
Q 45.015625 0.34375 40.984375 -0.53125 
Q 36.96875 -1.421875 32.421875 -1.421875 
Q 20.0625 -1.421875 12.78125 6.34375 
Q 5.515625 14.109375 5.515625 27.296875 
Q 5.515625 40.671875 12.859375 48.328125 
Q 20.21875 56 33.015625 56 
Q 37.15625 56 41.109375 55.140625 
Q 45.0625 54.296875 48.78125 52.59375 
z
" id="DejaVuSans-63"/>
     <path d="M 56.203125 29.59375 
L 56.203125 25.203125 
L 14.890625 25.203125 
Q 15.484375 15.921875 20.484375 11.0625 
Q 25.484375 6.203125 34.421875 6.203125 
Q 39.59375 6.203125 44.453125 7.46875 
Q 49.3125 8.734375 54.109375 11.28125 
L 54.109375 2.78125 
Q 49.265625 0.734375 44.1875 -0.34375 
Q 39.109375 -1.421875 33.890625 -1.421875 
Q 20.796875 -1.421875 13.15625 6.1875 
Q 5.515625 13.8125 5.515625 26.8125 
Q 5.515625 40.234375 12.765625 48.109375 
Q 20.015625 56 32.328125 56 
Q 43.359375 56 49.78125 48.890625 
Q 56.203125 41.796875 56.203125 29.59375 
z
M 47.21875 32.234375 
Q 47.125 39.59375 43.09375 43.984375 
Q 39.0625 48.390625 32.421875 48.390625 
Q 24.90625 48.390625 20.390625 44.140625 
Q 15.875 39.890625 15.1875 32.171875 
z
" id="DejaVuSans-65"/>
     <path id="DejaVuSans-20"/>
     <path d="M 51.125 44 
L 36.921875 44 
L 32.8125 27.6875 
L 47.125 27.6875 
z
M 43.796875 71.78125 
L 38.71875 51.515625 
L 52.984375 51.515625 
L 58.109375 71.78125 
L 65.921875 71.78125 
L 60.890625 51.515625 
L 76.125 51.515625 
L 76.125 44 
L 58.984375 44 
L 54.984375 27.6875 
L 70.515625 27.6875 
L 70.515625 20.21875 
L 53.078125 20.21875 
L 48 0 
L 40.1875 0 
L 45.21875 20.21875 
L 30.90625 20.21875 
L 25.875 0 
L 18.015625 0 
L 23.09375 20.21875 
L 7.71875 20.21875 
L 7.71875 27.6875 
L 24.90625 27.6875 
L 29 44 
L 13.28125 44 
L 13.28125 51.515625 
L 30.90625 51.515625 
L 35.890625 71.78125 
z
" id="DejaVuSans-23"/>
     <path d="M 10.796875 72.90625 
L 49.515625 72.90625 
L 49.515625 64.59375 
L 19.828125 64.59375 
L 19.828125 46.734375 
Q 21.96875 47.46875 24.109375 47.828125 
Q 26.265625 48.1875 28.421875 48.1875 
Q 40.625 48.1875 47.75 41.5 
Q 54.890625 34.8125 54.890625 23.390625 
Q 54.890625 11.625 47.5625 5.09375 
Q 40.234375 -1.421875 26.90625 -1.421875 
Q 22.3125 -1.421875 17.546875 -0.640625 
Q 12.796875 0.140625 7.71875 1.703125 
L 7.71875 11.625 
Q 12.109375 9.234375 16.796875 8.0625 
Q 21.484375 6.890625 26.703125 6.890625 
Q 35.15625 6.890625 40.078125 11.328125 
Q 45.015625 15.765625 45.015625 23.390625 
Q 45.015625 31 40.078125 35.4375 
Q 35.15625 39.890625 26.703125 39.890625 
Q 22.75 39.890625 18.8125 39.015625 
Q 14.890625 38.140625 10.796875 36.28125 
z
" id="DejaVuSans-35"/>
     <path d="M 37.796875 64.3125 
L 12.890625 25.390625 
L 37.796875 25.390625 
z
M 35.203125 72.90625 
L 47.609375 72.90625 
L 47.609375 25.390625 
L 58.015625 25.390625 
L 58.015625 17.1875 
L 47.609375 17.1875 
L 47.609375 0 
L 37.796875 0 
L 37.796875 17.1875 
L 4.890625 17.1875 
L 4.890625 26.703125 
z
" id="DejaVuSans-34"/>
     <path d="M 10.984375 1.515625 
L 10.984375 10.5 
Q 14.703125 8.734375 18.5 7.8125 
Q 22.3125 6.890625 25.984375 6.890625 
Q 35.75 6.890625 40.890625 13.453125 
Q 46.046875 20.015625 46.78125 33.40625 
Q 43.953125 29.203125 39.59375 26.953125 
Q 35.25 24.703125 29.984375 24.703125 
Q 19.046875 24.703125 12.671875 31.3125 
Q 6.296875 37.9375 6.296875 49.421875 
Q 6.296875 60.640625 12.9375 67.421875 
Q 19.578125 74.21875 30.609375 74.21875 
Q 43.265625 74.21875 49.921875 64.515625 
Q 56.59375 54.828125 56.59375 36.375 
Q 56.59375 19.140625 48.40625 8.859375 
Q 40.234375 -1.421875 26.421875 -1.421875 
Q 22.703125 -1.421875 18.890625 -0.6875 
Q 15.09375 0.046875 10.984375 1.515625 
z
M 30.609375 32.421875 
Q 37.25 32.421875 41.125 36.953125 
Q 45.015625 41.5 45.015625 49.421875 
Q 45.015625 57.28125 41.125 61.84375 
Q 37.25 66.40625 30.609375 66.40625 
Q 23.96875 66.40625 20.09375 61.84375 
Q 16.21875 57.28125 16.21875 49.421875 
Q 16.21875 41.5 20.09375 36.953125 
Q 23.96875 32.421875 30.609375 32.421875 
z
" id="DejaVuSans-39"/>
     <path d="M 11.71875 12.40625 
L 22.015625 12.40625 
L 22.015625 4 
L 14.015625 -11.625 
L 7.71875 -11.625 
L 11.71875 4 
z
" id="DejaVuSans-2c"/>
     <path d="M 16.890625 72.90625 
L 62.984375 72.90625 
L 61.375 64.59375 
L 25.09375 64.59375 
L 20.90625 43.015625 
L 55.71875 43.015625 
L 54.109375 34.71875 
L 19.28125 34.71875 
L 14.203125 8.296875 
L 51.3125 8.296875 
L 49.703125 0 
L 2.6875 0 
z
" id="DejaVuSans-Oblique-45"/>
     <path d="M 16.890625 72.90625 
L 30.171875 72.90625 
L 50.296875 10.40625 
L 62.5 72.90625 
L 72.125 72.90625 
L 57.90625 0 
L 44.578125 0 
L 24.515625 62.890625 
L 12.3125 0 
L 2.6875 0 
z
" id="DejaVuSans-Oblique-4e"/>
     <path d="M 10.59375 45.40625 
L 73.1875 45.40625 
L 73.1875 37.203125 
L 10.59375 37.203125 
z
M 10.59375 25.484375 
L 73.1875 25.484375 
L 73.1875 17.1875 
L 10.59375 17.1875 
z
" id="DejaVuSans-3d"/>
     <path d="M 4.890625 31.390625 
L 31.203125 31.390625 
L 31.203125 23.390625 
L 4.890625 23.390625 
z
" id="DejaVuSans-2d"/>
     <path d="M 12.40625 8.296875 
L 28.515625 8.296875 
L 28.515625 63.921875 
L 10.984375 60.40625 
L 10.984375 69.390625 
L 28.421875 72.90625 
L 38.28125 72.90625 
L 38.28125 8.296875 
L 54.390625 8.296875 
L 54.390625 0 
L 12.40625 0 
z
" id="DejaVuSans-31"/>
     <path d="M 31.78125 34.625 
Q 24.75 34.625 20.71875 30.859375 
Q 16.703125 27.09375 16.703125 20.515625 
Q 16.703125 13.921875 20.71875 10.15625 
Q 24.75 6.390625 31.78125 6.390625 
Q 38.8125 6.390625 42.859375 10.171875 
Q 46.921875 13.96875 46.921875 20.515625 
Q 46.921875 27.09375 42.890625 30.859375 
Q 38.875 34.625 31.78125 34.625 
z
M 21.921875 38.8125 
Q 15.578125 40.375 12.03125 44.71875 
Q 8.5 49.078125 8.5 55.328125 
Q 8.5 64.0625 14.71875 69.140625 
Q 20.953125 74.21875 31.78125 74.21875 
Q 42.671875 74.21875 48.875 69.140625 
Q 55.078125 64.0625 55.078125 55.328125 
Q 55.078125 49.078125 51.53125 44.71875 
Q 48 40.375 41.703125 38.8125 
Q 48.828125 37.15625 52.796875 32.3125 
Q 56.78125 27.484375 56.78125 20.515625 
Q 56.78125 9.90625 50.3125 4.234375 
Q 43.84375 -1.421875 31.78125 -1.421875 
Q 19.734375 -1.421875 13.25 4.234375 
Q 6.78125 9.90625 6.78125 20.515625 
Q 6.78125 27.484375 10.78125 32.3125 
Q 14.796875 37.15625 21.921875 38.8125 
z
M 18.3125 54.390625 
Q 18.3125 48.734375 21.84375 45.5625 
Q 25.390625 42.390625 31.78125 42.390625 
Q 38.140625 42.390625 41.71875 45.5625 
Q 45.3125 48.734375 45.3125 54.390625 
Q 45.3125 60.0625 41.71875 63.234375 
Q 38.140625 66.40625 31.78125 66.40625 
Q 25.390625 66.40625 21.84375 63.234375 
Q 18.3125 60.0625 18.3125 54.390625 
z
" id="DejaVuSans-38"/>
     <path d="M 10.6875 12.40625 
L 21 12.40625 
L 21 0 
L 10.6875 0 
z
" id="DejaVuSans-2e"/>
     <path d="M 19.1875 8.296875 
L 53.609375 8.296875 
L 53.609375 0 
L 7.328125 0 
L 7.328125 8.296875 
Q 12.9375 14.109375 22.625 23.890625 
Q 32.328125 33.6875 34.8125 36.53125 
Q 39.546875 41.84375 41.421875 45.53125 
Q 43.3125 49.21875 43.3125 52.78125 
Q 43.3125 58.59375 39.234375 62.25 
Q 35.15625 65.921875 28.609375 65.921875 
Q 23.96875 65.921875 18.8125 64.3125 
Q 13.671875 62.703125 7.8125 59.421875 
L 7.8125 69.390625 
Q 13.765625 71.78125 18.9375 73 
Q 24.125 74.21875 28.421875 74.21875 
Q 39.75 74.21875 46.484375 68.546875 
Q 53.21875 62.890625 53.21875 53.421875 
Q 53.21875 48.921875 51.53125 44.890625 
Q 49.859375 40.875 45.40625 35.40625 
Q 44.1875 33.984375 37.640625 27.21875 
Q 31.109375 20.453125 19.1875 8.296875 
z
" id="DejaVuSans-32"/>
     <path d="M 28.609375 0 
L 0.78125 72.90625 
L 11.078125 72.90625 
L 34.1875 11.53125 
L 57.328125 72.90625 
L 67.578125 72.90625 
L 39.796875 0 
z
" id="DejaVuSans-56"/>
     <path d="M 34.1875 63.1875 
L 14.15625 8.203125 
L 54.25 8.203125 
z
M 0.78125 0 
L 28.609375 72.90625 
L 39.796875 72.90625 
L 67.578125 0 
z
" id="DejaVuSans-394"/>
     <path d="M 9.8125 72.90625 
L 55.90625 72.90625 
L 55.90625 64.59375 
L 19.671875 64.59375 
L 19.671875 43.015625 
L 54.390625 43.015625 
L 54.390625 34.71875 
L 19.671875 34.71875 
L 19.671875 8.296875 
L 56.78125 8.296875 
L 56.78125 0 
L 9.8125 0 
z
" id="DejaVuSans-45"/>
     <path d="M 31.78125 66.40625 
Q 24.171875 66.40625 20.328125 58.90625 
Q 16.5 51.421875 16.5 36.375 
Q 16.5 21.390625 20.328125 13.890625 
Q 24.171875 6.390625 31.78125 6.390625 
Q 39.453125 6.390625 43.28125 13.890625 
Q 47.125 21.390625 47.125 36.375 
Q 47.125 51.421875 43.28125 58.90625 
Q 39.453125 66.40625 31.78125 66.40625 
z
M 31.78125 74.21875 
Q 44.046875 74.21875 50.515625 64.515625 
Q 56.984375 54.828125 56.984375 36.375 
Q 56.984375 17.96875 50.515625 8.265625 
Q 44.046875 -1.421875 31.78125 -1.421875 
Q 19.53125 -1.421875 13.0625 8.265625 
Q 6.59375 17.96875 6.59375 36.375 
Q 6.59375 54.828125 13.0625 64.515625 
Q 19.53125 74.21875 31.78125 74.21875 
z
" id="DejaVuSans-30"/>
    </defs>
    <g transform="translate(69.228 35.472)scale(0.12 -0.12)">
     <use transform="translate(0 0.78125)" xlink:href="#DejaVuSans-53"/>
     <use transform="translate(63.476562 0.78125)" xlink:href="#DejaVuSans-74"/>
     <use transform="translate(102.685547 0.78125)" xlink:href="#DejaVuSans-72"/>
     <use transform="translate(143.798828 0.78125)" xlink:href="#DejaVuSans-75"/>
     <use transform="translate(207.177734 0.78125)" xlink:href="#DejaVuSans-63"/>
     <use transform="translate(262.158203 0.78125)" xlink:href="#DejaVuSans-74"/>
     <use transform="translate(301.367188 0.78125)" xlink:href="#DejaVuSans-75"/>
     <use transform="translate(364.746094 0.78125)" xlink:href="#DejaVuSans-72"/>
     <use transform="translate(405.859375 0.78125)" xlink:href="#DejaVuSans-65"/>
     <use transform="translate(467.382812 0.78125)" xlink:href="#DejaVuSans-20"/>
     <use transform="translate(499.169922 0.78125)" xlink:href="#DejaVuSans-23"/>
     <use transform="translate(582.958984 0.78125)" xlink:href="#DejaVuSans-35"/>
     <use transform="translate(646.582031 0.78125)" xlink:href="#DejaVuSans-34"/>
     <use transform="translate(710.205078 0.78125)" xlink:href="#DejaVuSans-39"/>
     <use transform="translate(773.828125 0.78125)" xlink:href="#DejaVuSans-2c"/>
     <use transform="translate(805.615234 0.78125)" xlink:href="#DejaVuSans-20"/>
     <use transform="translate(837.402344 0.78125)" xlink:href="#DejaVuSans-Oblique-45"/>
     <use transform="translate(900.585938 -15.625)scale(0.7)" xlink:href="#DejaVuSans-Oblique-4e"/>
     <use transform="translate(955.683594 0.78125)" xlink:href="#DejaVuSans-3d"/>
     <use transform="translate(1039.472656 0.78125)" xlink:href="#DejaVuSans-2d"/>
     <use transform="translate(1075.556641 0.78125)" xlink:href="#DejaVuSans-31"/>
     <use transform="translate(1139.179688 0.78125)" xlink:href="#DejaVuSans-38"/>
     <use transform="translate(1202.802734 0.78125)" xlink:href="#DejaVuSans-34"/>
     <use transform="translate(1266.425781 0.78125)" xlink:href="#DejaVuSans-2e"/>
     <use transform="translate(1298.212891 0.78125)" xlink:href="#DejaVuSans-31"/>
     <use transform="translate(1361.835938 0.78125)" xlink:href="#DejaVuSans-32"/>
     <use transform="translate(1425.458984 0.78125)" xlink:href="#DejaVuSans-65"/>
     <use transform="translate(1486.982422 0.78125)" xlink:href="#DejaVuSans-56"/>
     <use transform="translate(1555.390625 0.78125)" xlink:href="#DejaVuSans-2c"/>
     <use transform="translate(1587.177734 0.78125)" xlink:href="#DejaVuSans-20"/>
     <use transform="translate(1618.964844 0.78125)" xlink:href="#DejaVuSans-394"/>
     <use transform="translate(1687.373047 0.78125)" xlink:href="#DejaVuSans-45"/>
     <use transform="translate(1750.556641 0.78125)" xlink:href="#DejaVuSans-3d"/>
     <use transform="translate(1834.345703 0.78125)" xlink:href="#DejaVuSans-30"/>
     <use transform="translate(1897.96875 0.78125)" xlink:href="#DejaVuSans-2e"/>
     <use transform="translate(1929.755859 0.78125)" xlink:href="#DejaVuSans-31"/>
     <use transform="translate(1993.378906 0.78125)" xlink:href="#DejaVuSans-32"/>
     <use transform="translate(2057.001953 0.78125)" xlink:href="#DejaVuSans-65"/>
     <use transform="translate(2118.525391 0.78125)" xlink:href="#DejaVuSans-56"/>
    </g>
   </g>
  </g>
  <g id="axes_2">
   <g id="patch_2">
    <path clip-path="url(#p0820a21a92)" d="M 361.152 307.584 
L 361.152 306.5445 
L 361.152 42.5115 
L 361.152 41.472 
L 374.4576 41.472 
L 374.4576 42.5115 
L 374.4576 306.5445 
L 374.4576 307.584 
z
" style="fill:#ffffff;stroke:#ffffff;stroke-linejoin:miter;stroke-width:0.01;"/>
   </g>
   <image height="265.68" id="image094f5d16d5" transform="scale(1 -1)translate(0 -265.68)" width="12.96" x="361.44" xlink:href="data:image/png;base64,
iVBORw0KGgoAAAANSUhEUgAAABIAAAFxCAYAAAB+2fgXAAAABHNCSVQICAgIfAhkiAAAAeVJREFUeJztncmNw0AQA2ckheYQNv9QLIfQ8ygsCgQ7AEI8+jAs2Puz/94F1LP2ReCsZ18bAWIeZ5XaGRBE7VnbptG+KI101FYyNSiQG2oRITXKNaX9uclOdi2XWjftVE32CZCO2ou5Bj1TcCBr/1zB9ge7Fq0Rg2NM9pvbtG+ua1QgsRYhDy0ISEiNc40BEibbSI0Coj5CBGtkpFbXJiAjNZlrwhuSOv2M1DjXbEdEciBt1JSDDQKKpmZr2rr2j0DBGpXaWEJq3bQzEPIS26r9J+Wzv9Tm8o3aajRXqc3VUXsApKNWjeZq0x4ABVNbm7lrszVigDqP5vIl2+eaT2yfRkL7g+dRcNPqjohkjaCvRVBq0H2U3LQrOJCx9kdTg4B8oxZzzTdqdYHEngjUCAPyUctN9sVRq2sTECW2UKNLd2jVtRmo1A6AhMmWaSRcR8nUdIHUuVb75zJS218EyEitro1At69pIdeSk30Lkw0FktNImGyZRhy1O5galmxd03LUsHWk06jUZiCq+5Wb1kZNN4+wJxJuWt8RAW5am2sYNZ9rYCBzZ3buPKJ2P5Yj4Toy3keyIyJbIxs1rml1byCA84gpch5RQNB7Q0qNMGq2Hy4BXdNR41yz/cEEJfZzUz96r9PoB0okjeQ8y9TkAAAAAElFTkSuQmCC" y="-41.76"/>
   <g id="matplotlib.axis_1"/>
   <g id="matplotlib.axis_2">
    <g id="ytick_1">
     <g id="line2d_1">
      <defs>
       <path d="M 0 0 
L 3.5 0 
" id="m1d58f2bae3" style="stroke:#000000;stroke-width:0.8;"/>
      </defs>
      <g>
       <use style="stroke:#000000;stroke-width:0.8;" x="374.4576" xlink:href="#m1d58f2bae3" y="280.101212"/>
      </g>
     </g>
     <g id="text_2">
      <!-- −8.5 -->
      <defs>
       <path d="M 10.59375 35.5 
L 73.1875 35.5 
L 73.1875 27.203125 
L 10.59375 27.203125 
z
" id="DejaVuSans-2212"/>
      </defs>
      <g transform="translate(381.4576 283.900431)scale(0.1 -0.1)">
       <use xlink:href="#DejaVuSans-2212"/>
       <use x="83.789062" xlink:href="#DejaVuSans-38"/>
       <use x="147.412109" xlink:href="#DejaVuSans-2e"/>
       <use x="179.199219" xlink:href="#DejaVuSans-35"/>
      </g>
     </g>
    </g>
    <g id="ytick_2">
     <g id="line2d_2">
      <g>
       <use style="stroke:#000000;stroke-width:0.8;" x="374.4576" xlink:href="#m1d58f2bae3" y="248.609868"/>
      </g>
     </g>
     <g id="text_3">
      <!-- −8.0 -->
      <g transform="translate(381.4576 252.409087)scale(0.1 -0.1)">
       <use xlink:href="#DejaVuSans-2212"/>
       <use x="83.789062" xlink:href="#DejaVuSans-38"/>
       <use x="147.412109" xlink:href="#DejaVuSans-2e"/>
       <use x="179.199219" xlink:href="#DejaVuSans-30"/>
      </g>
     </g>
    </g>
    <g id="ytick_3">
     <g id="line2d_3">
      <g>
       <use style="stroke:#000000;stroke-width:0.8;" x="374.4576" xlink:href="#m1d58f2bae3" y="217.118525"/>
      </g>
     </g>
     <g id="text_4">
      <!-- −7.5 -->
      <defs>
       <path d="M 8.203125 72.90625 
L 55.078125 72.90625 
L 55.078125 68.703125 
L 28.609375 0 
L 18.3125 0 
L 43.21875 64.59375 
L 8.203125 64.59375 
z
" id="DejaVuSans-37"/>
      </defs>
      <g transform="translate(381.4576 220.917743)scale(0.1 -0.1)">
       <use xlink:href="#DejaVuSans-2212"/>
       <use x="83.789062" xlink:href="#DejaVuSans-37"/>
       <use x="147.412109" xlink:href="#DejaVuSans-2e"/>
       <use x="179.199219" xlink:href="#DejaVuSans-35"/>
      </g>
     </g>
    </g>
    <g id="ytick_4">
     <g id="line2d_4">
      <g>
       <use style="stroke:#000000;stroke-width:0.8;" x="374.4576" xlink:href="#m1d58f2bae3" y="185.627181"/>
      </g>
     </g>
     <g id="text_5">
      <!-- −7.0 -->
      <g transform="translate(381.4576 189.4264)scale(0.1 -0.1)">
       <use xlink:href="#DejaVuSans-2212"/>
       <use x="83.789062" xlink:href="#DejaVuSans-37"/>
       <use x="147.412109" xlink:href="#DejaVuSans-2e"/>
       <use x="179.199219" xlink:href="#DejaVuSans-30"/>
      </g>
     </g>
    </g>
    <g id="ytick_5">
     <g id="line2d_5">
      <g>
       <use style="stroke:#000000;stroke-width:0.8;" x="374.4576" xlink:href="#m1d58f2bae3" y="154.135837"/>
      </g>
     </g>
     <g id="text_6">
      <!-- −6.5 -->
      <defs>
       <path d="M 33.015625 40.375 
Q 26.375 40.375 22.484375 35.828125 
Q 18.609375 31.296875 18.609375 23.390625 
Q 18.609375 15.53125 22.484375 10.953125 
Q 26.375 6.390625 33.015625 6.390625 
Q 39.65625 6.390625 43.53125 10.953125 
Q 47.40625 15.53125 47.40625 23.390625 
Q 47.40625 31.296875 43.53125 35.828125 
Q 39.65625 40.375 33.015625 40.375 
z
M 52.59375 71.296875 
L 52.59375 62.3125 
Q 48.875 64.0625 45.09375 64.984375 
Q 41.3125 65.921875 37.59375 65.921875 
Q 27.828125 65.921875 22.671875 59.328125 
Q 17.53125 52.734375 16.796875 39.40625 
Q 19.671875 43.65625 24.015625 45.921875 
Q 28.375 48.1875 33.59375 48.1875 
Q 44.578125 48.1875 50.953125 41.515625 
Q 57.328125 34.859375 57.328125 23.390625 
Q 57.328125 12.15625 50.6875 5.359375 
Q 44.046875 -1.421875 33.015625 -1.421875 
Q 20.359375 -1.421875 13.671875 8.265625 
Q 6.984375 17.96875 6.984375 36.375 
Q 6.984375 53.65625 15.1875 63.9375 
Q 23.390625 74.21875 37.203125 74.21875 
Q 40.921875 74.21875 44.703125 73.484375 
Q 48.484375 72.75 52.59375 71.296875 
z
" id="DejaVuSans-36"/>
      </defs>
      <g transform="translate(381.4576 157.935056)scale(0.1 -0.1)">
       <use xlink:href="#DejaVuSans-2212"/>
       <use x="83.789062" xlink:href="#DejaVuSans-36"/>
       <use x="147.412109" xlink:href="#DejaVuSans-2e"/>
       <use x="179.199219" xlink:href="#DejaVuSans-35"/>
      </g>
     </g>
    </g>
    <g id="ytick_6">
     <g id="line2d_6">
      <g>
       <use style="stroke:#000000;stroke-width:0.8;" x="374.4576" xlink:href="#m1d58f2bae3" y="122.644493"/>
      </g>
     </g>
     <g id="text_7">
      <!-- −6.0 -->
      <g transform="translate(381.4576 126.443712)scale(0.1 -0.1)">
       <use xlink:href="#DejaVuSans-2212"/>
       <use x="83.789062" xlink:href="#DejaVuSans-36"/>
       <use x="147.412109" xlink:href="#DejaVuSans-2e"/>
       <use x="179.199219" xlink:href="#DejaVuSans-30"/>
      </g>
     </g>
    </g>
    <g id="ytick_7">
     <g id="line2d_7">
      <g>
       <use style="stroke:#000000;stroke-width:0.8;" x="374.4576" xlink:href="#m1d58f2bae3" y="91.153149"/>
      </g>
     </g>
     <g id="text_8">
      <!-- −5.5 -->
      <g transform="translate(381.4576 94.952368)scale(0.1 -0.1)">
       <use xlink:href="#DejaVuSans-2212"/>
       <use x="83.789062" xlink:href="#DejaVuSans-35"/>
       <use x="147.412109" xlink:href="#DejaVuSans-2e"/>
       <use x="179.199219" xlink:href="#DejaVuSans-35"/>
      </g>
     </g>
    </g>
    <g id="ytick_8">
     <g id="line2d_8">
      <g>
       <use style="stroke:#000000;stroke-width:0.8;" x="374.4576" xlink:href="#m1d58f2bae3" y="59.661806"/>
      </g>
     </g>
     <g id="text_9">
      <!-- −5.0 -->
      <g transform="translate(381.4576 63.461024)scale(0.1 -0.1)">
       <use xlink:href="#DejaVuSans-2212"/>
       <use x="83.789062" xlink:href="#DejaVuSans-35"/>
       <use x="147.412109" xlink:href="#DejaVuSans-2e"/>
       <use x="179.199219" xlink:href="#DejaVuSans-30"/>
      </g>
     </g>
    </g>
    <g id="text_10">
     <!-- Energy [eV] -->
     <defs>
      <path d="M 54.890625 33.015625 
L 54.890625 0 
L 45.90625 0 
L 45.90625 32.71875 
Q 45.90625 40.484375 42.875 44.328125 
Q 39.84375 48.1875 33.796875 48.1875 
Q 26.515625 48.1875 22.3125 43.546875 
Q 18.109375 38.921875 18.109375 30.90625 
L 18.109375 0 
L 9.078125 0 
L 9.078125 54.6875 
L 18.109375 54.6875 
L 18.109375 46.1875 
Q 21.34375 51.125 25.703125 53.5625 
Q 30.078125 56 35.796875 56 
Q 45.21875 56 50.046875 50.171875 
Q 54.890625 44.34375 54.890625 33.015625 
z
" id="DejaVuSans-6e"/>
      <path d="M 45.40625 27.984375 
Q 45.40625 37.75 41.375 43.109375 
Q 37.359375 48.484375 30.078125 48.484375 
Q 22.859375 48.484375 18.828125 43.109375 
Q 14.796875 37.75 14.796875 27.984375 
Q 14.796875 18.265625 18.828125 12.890625 
Q 22.859375 7.515625 30.078125 7.515625 
Q 37.359375 7.515625 41.375 12.890625 
Q 45.40625 18.265625 45.40625 27.984375 
z
M 54.390625 6.78125 
Q 54.390625 -7.171875 48.1875 -13.984375 
Q 42 -20.796875 29.203125 -20.796875 
Q 24.46875 -20.796875 20.265625 -20.09375 
Q 16.0625 -19.390625 12.109375 -17.921875 
L 12.109375 -9.1875 
Q 16.0625 -11.328125 19.921875 -12.34375 
Q 23.78125 -13.375 27.78125 -13.375 
Q 36.625 -13.375 41.015625 -8.765625 
Q 45.40625 -4.15625 45.40625 5.171875 
L 45.40625 9.625 
Q 42.625 4.78125 38.28125 2.390625 
Q 33.9375 0 27.875 0 
Q 17.828125 0 11.671875 7.65625 
Q 5.515625 15.328125 5.515625 27.984375 
Q 5.515625 40.671875 11.671875 48.328125 
Q 17.828125 56 27.875 56 
Q 33.9375 56 38.28125 53.609375 
Q 42.625 51.21875 45.40625 46.390625 
L 45.40625 54.6875 
L 54.390625 54.6875 
z
" id="DejaVuSans-67"/>
      <path d="M 32.171875 -5.078125 
Q 28.375 -14.84375 24.75 -17.8125 
Q 21.140625 -20.796875 15.09375 -20.796875 
L 7.90625 -20.796875 
L 7.90625 -13.28125 
L 13.1875 -13.28125 
Q 16.890625 -13.28125 18.9375 -11.515625 
Q 21 -9.765625 23.484375 -3.21875 
L 25.09375 0.875 
L 2.984375 54.6875 
L 12.5 54.6875 
L 29.59375 11.921875 
L 46.6875 54.6875 
L 56.203125 54.6875 
z
" id="DejaVuSans-79"/>
      <path d="M 8.59375 75.984375 
L 29.296875 75.984375 
L 29.296875 69 
L 17.578125 69 
L 17.578125 -6.203125 
L 29.296875 -6.203125 
L 29.296875 -13.1875 
L 8.59375 -13.1875 
z
" id="DejaVuSans-5b"/>
      <path d="M 30.421875 75.984375 
L 30.421875 -13.1875 
L 9.71875 -13.1875 
L 9.71875 -6.203125 
L 21.390625 -6.203125 
L 21.390625 69 
L 9.71875 69 
L 9.71875 75.984375 
z
" id="DejaVuSans-5d"/>
     </defs>
     <g transform="translate(417.33885 204.108469)rotate(-90)scale(0.1 -0.1)">
      <use xlink:href="#DejaVuSans-45"/>
      <use x="63.183594" xlink:href="#DejaVuSans-6e"/>
      <use x="126.5625" xlink:href="#DejaVuSans-65"/>
      <use x="188.085938" xlink:href="#DejaVuSans-72"/>
      <use x="229.183594" xlink:href="#DejaVuSans-67"/>
      <use x="292.660156" xlink:href="#DejaVuSans-79"/>
      <use x="351.839844" xlink:href="#DejaVuSans-20"/>
      <use x="383.626953" xlink:href="#DejaVuSans-5b"/>
      <use x="422.640625" xlink:href="#DejaVuSans-65"/>
      <use x="484.164062" xlink:href="#DejaVuSans-56"/>
      <use x="552.572266" xlink:href="#DejaVuSans-5d"/>
     </g>
    </g>
   </g>
   <g id="patch_3">
    <path d="M 361.152 307.584 
L 361.152 306.5445 
L 361.152 42.5115 
L 361.152 41.472 
L 374.4576 41.472 
L 374.4576 42.5115 
L 374.4576 306.5445 
L 374.4576 307.584 
z
" style="fill:none;stroke:#000000;stroke-linejoin:miter;stroke-width:0.8;"/>
   </g>
  </g>
 </g>
 <defs>
  <clipPath id="pbd6772f9a1">
   <rect height="266.112" width="285.696" x="57.6" y="41.472"/>
  </clipPath>
  <clipPath id="p0820a21a92">
   <rect height="266.112" width="13.3056" x="361.152" y="41.472"/>
  </clipPath>
 </defs>
</svg>
