features/G1_0.05_0_17.6.pickle
features/G1_20_0_17.6.pickle
features/G1_2_0_17.6.pickle
features/G1_40_0_17.6.pickle
features/G1_4_0_17.6.pickle
features/G1_80_0_17.6.pickle
features/G1_8_0_17.6.pickle
features/G2_0.005_1_-1_17.6.pickle
features/G2_0.005_1_1_17.6.pickle
features/G2_0.005_2_-1_17.6.pickle
features/G2_0.005_2_1_17.6.pickle
features/G2_0.005_4_-1_17.6.pickle
features/G2_0.005_4_1_17.6.pickle
