<?xml version="1.0" encoding="utf-8" standalone="no"?>
<!DOCTYPE svg PUBLIC "-//W3C//DTD SVG 1.1//EN"
  "http://www.w3.org/Graphics/SVG/1.1/DTD/svg11.dtd">
<!-- Created with matplotlib (http://matplotlib.org/) -->
<svg height="345.6pt" version="1.1" viewBox="0 0 460.8 345.6" width="460.8pt" xmlns="http://www.w3.org/2000/svg" xmlns:xlink="http://www.w3.org/1999/xlink">
 <defs>
  <style type="text/css">
*{stroke-linecap:butt;stroke-linejoin:round;}
  </style>
 </defs>
 <g id="figure_1">
  <g id="patch_1">
   <path d="M 0 345.6 
L 460.8 345.6 
L 460.8 0 
L 0 0 
z
" style="fill:#ffffff;"/>
  </g>
  <g id="axes_1">
   <g id="CircleCollection_1">
    <path clip-path="url(#p9c890f36a9)" d="M 296.432329 179.271092 
C 298.232014 179.271092 299.958231 178.556069 301.230801 177.2835 
C 302.50337 176.01093 303.218393 174.284713 303.218393 172.485028 
C 303.218393 170.685343 302.50337 168.959126 301.230801 167.686557 
C 299.958231 166.413987 298.232014 165.698965 296.432329 165.698965 
C 294.632644 165.698965 292.906428 166.413987 291.633858 167.686557 
C 290.361289 168.959126 289.646266 170.685343 289.646266 172.485028 
C 289.646266 174.284713 290.361289 176.01093 291.633858 177.2835 
C 292.906428 178.556069 294.632644 179.271092 296.432329 179.271092 
z
" style="fill:#375a8c;"/>
    <path clip-path="url(#p9c890f36a9)" d="M 170.84138 172.458532 
C 172.62011 172.458532 174.326226 171.751835 175.583978 170.494084 
C 176.841729 169.236332 177.548426 167.530216 177.548426 165.751487 
C 177.548426 163.972757 176.841729 162.266641 175.583978 161.008889 
C 174.326226 159.751138 172.62011 159.044441 170.84138 159.044441 
C 169.062651 159.044441 167.356534 159.751138 166.098783 161.008889 
C 164.841031 162.266641 164.134335 163.972757 164.134335 165.751487 
C 164.134335 167.530216 164.841031 169.236332 166.098783 170.494084 
C 167.356534 171.751835 169.062651 172.458532 170.84138 172.458532 
z
" style="fill:#38598c;"/>
    <path clip-path="url(#p9c890f36a9)" d="M 239.737487 127.91428 
C 241.518702 127.91428 243.227203 127.206596 244.486712 125.947086 
C 245.746221 124.687577 246.453906 122.979076 246.453906 121.197861 
C 246.453906 119.416646 245.746221 117.708145 244.486712 116.448635 
C 243.227203 115.189126 241.518702 114.481442 239.737487 114.481442 
C 237.956272 114.481442 236.247771 115.189126 234.988261 116.448635 
C 233.728752 117.708145 233.021068 119.416646 233.021068 121.197861 
C 233.021068 122.979076 233.728752 124.687577 234.988261 125.947086 
C 236.247771 127.206596 237.956272 127.91428 239.737487 127.91428 
z
" style="fill:#440154;"/>
    <path clip-path="url(#p9c890f36a9)" d="M 295.078786 301.92511 
C 296.902958 301.92511 298.652662 301.200359 299.942546 299.910475 
C 301.23243 298.62059 301.957181 296.870887 301.957181 295.046715 
C 301.957181 293.222543 301.23243 291.47284 299.942546 290.182955 
C 298.652662 288.893071 296.902958 288.16832 295.078786 288.16832 
C 293.254615 288.16832 291.504911 288.893071 290.215027 290.182955 
C 288.925143 291.47284 288.200392 293.222543 288.200392 295.046715 
C 288.200392 296.870887 288.925143 298.62059 290.215027 299.910475 
C 291.504911 301.200359 293.254615 301.92511 295.078786 301.92511 
z
" style="fill:#fde725;"/>
    <path clip-path="url(#p9c890f36a9)" d="M 138.385456 84.278176 
C 140.14526 84.278176 141.833224 83.578998 143.077594 82.334629 
C 144.321963 81.090259 145.021141 79.402295 145.021141 77.642491 
C 145.021141 75.882687 144.321963 74.194722 143.077594 72.950353 
C 141.833224 71.705983 140.14526 71.006806 138.385456 71.006806 
C 136.625651 71.006806 134.937687 71.705983 133.693318 72.950353 
C 132.448948 74.194722 131.749771 75.882687 131.749771 77.642491 
C 131.749771 79.402295 132.448948 81.090259 133.693318 82.334629 
C 134.937687 83.578998 136.625651 84.278176 138.385456 84.278176 
z
" style="fill:#482979;"/>
    <path clip-path="url(#p9c890f36a9)" d="M 151.175873 119.127667 
C 152.942552 119.127667 154.63711 118.425758 155.886341 117.176527 
C 157.135571 115.927296 157.83748 114.232738 157.83748 112.466059 
C 157.83748 110.69938 157.135571 109.004822 155.886341 107.755592 
C 154.63711 106.506361 152.942552 105.804452 151.175873 105.804452 
C 149.409194 105.804452 147.714636 106.506361 146.465405 107.755592 
C 145.216175 109.004822 144.514266 110.69938 144.514266 112.466059 
C 144.514266 114.232738 145.216175 115.927296 146.465405 117.176527 
C 147.714636 118.425758 149.409194 119.127667 151.175873 119.127667 
z
" style="fill:#3a538b;"/>
    <path clip-path="url(#p9c890f36a9)" d="M 279.965603 273.448575 
C 281.776584 273.448575 283.513635 272.729064 284.794192 271.448507 
C 286.074749 270.16795 286.79426 268.430898 286.79426 266.619917 
C 286.79426 264.808936 286.074749 263.071884 284.794192 261.791327 
C 283.513635 260.51077 281.776584 259.79126 279.965603 259.79126 
C 278.154622 259.79126 276.41757 260.51077 275.137013 261.791327 
C 273.856456 263.071884 273.136945 264.808936 273.136945 266.619917 
C 273.136945 268.430898 273.856456 270.16795 275.137013 271.448507 
C 276.41757 272.729064 278.154622 273.448575 279.965603 273.448575 
z
" style="fill:#365c8d;"/>
    <path clip-path="url(#p9c890f36a9)" d="M 214.699749 74.111599 
C 216.46631 74.111599 218.160754 73.409737 219.409901 72.16059 
C 220.659048 70.911443 221.36091 69.216999 221.36091 67.450438 
C 221.36091 65.683878 220.659048 63.989433 219.409901 62.740287 
C 218.160754 61.49114 216.46631 60.789278 214.699749 60.789278 
C 212.933189 60.789278 211.238744 61.49114 209.989598 62.740287 
C 208.740451 63.989433 208.038589 65.683878 208.038589 67.450438 
C 208.038589 69.216999 208.740451 70.911443 209.989598 72.16059 
C 211.238744 73.409737 212.933189 74.111599 214.699749 74.111599 
z
" style="fill:#306a8e;"/>
    <path clip-path="url(#p9c890f36a9)" d="M 183.283154 206.031082 
C 185.06831 206.031082 186.780591 205.321832 188.042886 204.059537 
C 189.305182 202.797241 190.014432 201.08496 190.014432 199.299805 
C 190.014432 197.514649 189.305182 195.802368 188.042886 194.540072 
C 186.780591 193.277777 185.06831 192.568527 183.283154 192.568527 
C 181.497999 192.568527 179.785718 193.277777 178.523422 194.540072 
C 177.261126 195.802368 176.551877 197.514649 176.551877 199.299805 
C 176.551877 201.08496 177.261126 202.797241 178.523422 204.059537 
C 179.785718 205.321832 181.497999 206.031082 183.283154 206.031082 
z
" style="fill:#46085c;"/>
    <path clip-path="url(#p9c890f36a9)" d="M 87.58736 86.175919 
C 89.342668 86.175919 91.026319 85.478528 92.26751 84.237338 
C 93.5087 82.996148 94.206091 81.312497 94.206091 79.557189 
C 94.206091 77.801881 93.5087 76.118229 92.26751 74.877039 
C 91.026319 73.635849 89.342668 72.938458 87.58736 72.938458 
C 85.832052 72.938458 84.148401 73.635849 82.907211 74.877039 
C 81.666021 76.118229 80.96863 77.801881 80.96863 79.557189 
C 80.96863 81.312497 81.666021 82.996148 82.907211 84.237338 
C 84.148401 85.478528 85.832052 86.175919 87.58736 86.175919 
z
" style="fill:#31b57b;"/>
    <path clip-path="url(#p9c890f36a9)" d="M 120.476545 170.078444 
C 122.248789 170.078444 123.948685 169.374324 125.20185 168.121158 
C 126.455016 166.867992 127.159136 165.168096 127.159136 163.395852 
C 127.159136 161.623608 126.455016 159.923712 125.20185 158.670547 
C 123.948685 157.417381 122.248789 156.713261 120.476545 156.713261 
C 118.704301 156.713261 117.004405 157.417381 115.751239 158.670547 
C 114.498073 159.923712 113.793953 161.623608 113.793953 163.395852 
C 113.793953 165.168096 114.498073 166.867992 115.751239 168.121158 
C 117.004405 169.374324 118.704301 170.078444 120.476545 170.078444 
z
" style="fill:#48186a;"/>
    <path clip-path="url(#p9c890f36a9)" d="M 329.829142 153.809848 
C 331.634836 153.809848 333.366815 153.092439 334.643633 151.815621 
C 335.920451 150.538803 336.637861 148.806823 336.637861 147.00113 
C 336.637861 145.195437 335.920451 143.463457 334.643633 142.186639 
C 333.366815 140.909821 331.634836 140.192412 329.829142 140.192412 
C 328.023449 140.192412 326.291469 140.909821 325.014652 142.186639 
C 323.737834 143.463457 323.020424 145.195437 323.020424 147.00113 
C 323.020424 148.806823 323.737834 150.538803 325.014652 151.815621 
C 326.291469 153.092439 328.023449 153.809848 329.829142 153.809848 
z
" style="fill:#44bf70;"/>
    <path clip-path="url(#p9c890f36a9)" d="M 247.968845 94.729141 
C 249.744232 94.729141 251.447142 94.023773 252.702531 92.768384 
C 253.957919 91.512996 254.663287 89.810086 254.663287 88.034699 
C 254.663287 86.259312 253.957919 84.556401 252.702531 83.301013 
C 251.447142 82.045625 249.744232 81.340256 247.968845 81.340256 
C 246.193458 81.340256 244.490547 82.045625 243.235159 83.301013 
C 241.979771 84.556401 241.274402 86.259312 241.274402 88.034699 
C 241.274402 89.810086 241.979771 91.512996 243.235159 92.768384 
C 244.490547 94.023773 246.193458 94.729141 247.968845 94.729141 
z
" style="fill:#1e9b8a;"/>
    <path clip-path="url(#p9c890f36a9)" d="M 107.712035 137.360742 
C 109.476853 137.360742 111.169625 136.659572 112.41754 135.411658 
C 113.665454 134.163743 114.366624 132.47097 114.366624 130.706153 
C 114.366624 128.941335 113.665454 127.248563 112.41754 126.000648 
C 111.169625 124.752734 109.476853 124.051564 107.712035 124.051564 
C 105.947217 124.051564 104.254445 124.752734 103.00653 126.000648 
C 101.758616 127.248563 101.057446 128.941335 101.057446 130.706153 
C 101.057446 132.47097 101.758616 134.163743 103.00653 135.411658 
C 104.254445 136.659572 105.947217 137.360742 107.712035 137.360742 
z
" style="fill:#482878;"/>
    <path clip-path="url(#p9c890f36a9)" d="M 228.569265 219.206489 
C 230.36222 219.206489 232.081982 218.49414 233.349793 217.226329 
C 234.617604 215.958518 235.329953 214.238756 235.329953 212.445801 
C 235.329953 210.652846 234.617604 208.933084 233.349793 207.665273 
C 232.081982 206.397462 230.36222 205.685113 228.569265 205.685113 
C 226.776309 205.685113 225.056547 206.397462 223.788736 207.665273 
C 222.520925 208.933084 221.808577 210.652846 221.808577 212.445801 
C 221.808577 214.238756 222.520925 215.958518 223.788736 217.226329 
C 225.056547 218.49414 226.776309 219.206489 228.569265 219.206489 
z
" style="fill:#34618d;"/>
    <path clip-path="url(#p9c890f36a9)" d="M 140.489331 223.599113 
C 142.271458 223.599113 143.980834 222.891066 145.240988 221.630912 
C 146.501142 220.370758 147.209189 218.661382 147.209189 216.879255 
C 147.209189 215.097128 146.501142 213.387752 145.240988 212.127598 
C 143.980834 210.867444 142.271458 210.159397 140.489331 210.159397 
C 138.707204 210.159397 136.997829 210.867444 135.737675 212.127598 
C 134.47752 213.387752 133.769474 215.097128 133.769474 216.879255 
C 133.769474 218.661382 134.47752 220.370758 135.737675 221.630912 
C 136.997829 222.891066 138.707204 223.599113 140.489331 223.599113 
z
" style="fill:#26828e;"/>
    <path clip-path="url(#p9c890f36a9)" d="M 265.383766 242.927446 
C 267.186076 242.927446 268.91481 242.211381 270.189235 240.936956 
C 271.46366 239.662531 272.179725 237.933797 272.179725 236.131487 
C 272.179725 234.329178 271.46366 232.600444 270.189235 231.326018 
C 268.91481 230.051593 267.186076 229.335528 265.383766 229.335528 
C 263.581457 229.335528 261.852723 230.051593 260.578297 231.326018 
C 259.303872 232.600444 258.587807 234.329178 258.587807 236.131487 
C 258.587807 237.933797 259.303872 239.662531 260.578297 240.936956 
C 261.852723 242.211381 263.581457 242.927446 265.383766 242.927446 
z
" style="fill:#39568c;"/>
    <path clip-path="url(#p9c890f36a9)" d="M 191.701165 139.223098 
C 193.477026 139.223098 195.180392 138.51754 196.436115 137.261817 
C 197.691839 136.006094 198.397396 134.302728 198.397396 132.526867 
C 198.397396 130.751006 197.691839 129.04764 196.436115 127.791917 
C 195.180392 126.536193 193.477026 125.830636 191.701165 125.830636 
C 189.925304 125.830636 188.221939 126.536193 186.966215 127.791917 
C 185.710492 129.04764 185.004935 130.751006 185.004935 132.526867 
C 185.004935 134.302728 185.710492 136.006094 186.966215 137.261817 
C 188.221939 138.51754 189.925304 139.223098 191.701165 139.223098 
z
" style="fill:#414487;"/>
    <path clip-path="url(#p9c890f36a9)" d="M 100.640873 200.92735 
C 102.415226 200.92735 104.117144 200.222392 105.371801 198.967735 
C 106.626457 197.713079 107.331415 196.011161 107.331415 194.236808 
C 107.331415 192.462456 106.626457 190.760538 105.371801 189.505881 
C 104.117144 188.251224 102.415226 187.546267 100.640873 187.546267 
C 98.866521 187.546267 97.164603 188.251224 95.909946 189.505881 
C 94.65529 190.760538 93.950332 192.462456 93.950332 194.236808 
C 93.950332 196.011161 94.65529 197.713079 95.909946 198.967735 
C 97.164603 200.222392 98.866521 200.92735 100.640873 200.92735 
z
" style="fill:#287d8e;"/>
    <path clip-path="url(#p9c890f36a9)" d="M 274.813921 209.682073 
C 276.612415 209.682073 278.337489 208.967524 279.609216 207.695797 
C 280.880943 206.42407 281.595492 204.698996 281.595492 202.900502 
C 281.595492 201.102008 280.880943 199.376934 279.609216 198.105207 
C 278.337489 196.83348 276.612415 196.118931 274.813921 196.118931 
C 273.015428 196.118931 271.290354 196.83348 270.018627 198.105207 
C 268.7469 199.376934 268.03235 201.102008 268.03235 202.900502 
C 268.03235 204.698996 268.7469 206.42407 270.018627 207.695797 
C 271.290354 208.967524 273.015428 209.682073 274.813921 209.682073 
z
" style="fill:#375a8c;"/>
    <path clip-path="url(#p9c890f36a9)" d="M 71.053978 114.633678 
C 72.81129 114.633678 74.496864 113.935491 75.739471 112.692884 
C 76.982078 111.450277 77.680265 109.764703 77.680265 108.007392 
C 77.680265 106.25008 76.982078 104.564507 75.739471 103.3219 
C 74.496864 102.079293 72.81129 101.381105 71.053978 101.381105 
C 69.296667 101.381105 67.611093 102.079293 66.368486 103.3219 
C 65.125879 104.564507 64.427692 106.25008 64.427692 108.007392 
C 64.427692 109.764703 65.125879 111.450277 66.368486 112.692884 
C 67.611093 113.935491 69.296667 114.633678 71.053978 114.633678 
z
" style="fill:#24aa83;"/>
    <path clip-path="url(#p9c890f36a9)" d="M 172.726549 60.627577 
C 174.485899 60.627577 176.173428 59.92858 177.417476 58.684532 
C 178.661525 57.440483 179.360522 55.752954 179.360522 53.993604 
C 179.360522 52.234254 178.661525 50.546725 177.417476 49.302676 
C 176.173428 48.058628 174.485899 47.359631 172.726549 47.359631 
C 170.967198 47.359631 169.27967 48.058628 168.035621 49.302676 
C 166.791572 50.546725 166.092575 52.234254 166.092575 53.993604 
C 166.092575 55.752954 166.791572 57.440483 168.035621 58.684532 
C 169.27967 59.92858 170.967198 60.627577 172.726549 60.627577 
z
" style="fill:#20938c;"/>
    <path clip-path="url(#p9c890f36a9)" d="M 279.961294 148.695507 
C 281.754151 148.695507 283.473819 147.983197 284.741561 146.715456 
C 286.009302 145.447714 286.721612 143.728046 286.721612 141.935189 
C 286.721612 140.142331 286.009302 138.422663 284.741561 137.154922 
C 283.473819 135.88718 281.754151 135.17487 279.961294 135.17487 
C 278.168436 135.17487 276.448768 135.88718 275.181027 137.154922 
C 273.913285 138.422663 273.200975 140.142331 273.200975 141.935189 
C 273.200975 143.728046 273.913285 145.447714 275.181027 146.715456 
C 276.448768 147.983197 278.168436 148.695507 279.961294 148.695507 
z
" style="fill:#2f6b8e;"/>
    <path clip-path="url(#p9c890f36a9)" d="M 93.452372 233.974431 
C 95.230349 233.974431 96.935745 233.268033 98.192964 232.010814 
C 99.450184 230.753594 100.156582 229.048199 100.156582 227.270222 
C 100.156582 225.492244 99.450184 223.786849 98.192964 222.529629 
C 96.935745 221.27241 95.230349 220.566012 93.452372 220.566012 
C 91.674395 220.566012 89.969 221.27241 88.71178 222.529629 
C 87.45456 223.786849 86.748162 225.492244 86.748162 227.270222 
C 86.748162 229.048199 87.45456 230.753594 88.71178 232.010814 
C 89.969 233.268033 91.674395 233.974431 93.452372 233.974431 
z
" style="fill:#46c06f;"/>
   </g>
   <g id="text_1">
    <!-- Structure #4156, $E_N$=-179.12eV, ΔE=-0.36eV -->
    <defs>
     <path d="M 53.515625 70.515625 
L 53.515625 60.890625 
Q 47.90625 63.578125 42.921875 64.890625 
Q 37.9375 66.21875 33.296875 66.21875 
Q 25.25 66.21875 20.875 63.09375 
Q 16.5 59.96875 16.5 54.203125 
Q 16.5 49.359375 19.40625 46.890625 
Q 22.3125 44.4375 30.421875 42.921875 
L 36.375 41.703125 
Q 47.40625 39.59375 52.65625 34.296875 
Q 57.90625 29 57.90625 20.125 
Q 57.90625 9.515625 50.796875 4.046875 
Q 43.703125 -1.421875 29.984375 -1.421875 
Q 24.8125 -1.421875 18.96875 -0.25 
Q 13.140625 0.921875 6.890625 3.21875 
L 6.890625 13.375 
Q 12.890625 10.015625 18.65625 8.296875 
Q 24.421875 6.59375 29.984375 6.59375 
Q 38.421875 6.59375 43.015625 9.90625 
Q 47.609375 13.234375 47.609375 19.390625 
Q 47.609375 24.75 44.3125 27.78125 
Q 41.015625 30.8125 33.5 32.328125 
L 27.484375 33.5 
Q 16.453125 35.6875 11.515625 40.375 
Q 6.59375 45.0625 6.59375 53.421875 
Q 6.59375 63.09375 13.40625 68.65625 
Q 20.21875 74.21875 32.171875 74.21875 
Q 37.3125 74.21875 42.625 73.28125 
Q 47.953125 72.359375 53.515625 70.515625 
z
" id="DejaVuSans-53"/>
     <path d="M 18.3125 70.21875 
L 18.3125 54.6875 
L 36.8125 54.6875 
L 36.8125 47.703125 
L 18.3125 47.703125 
L 18.3125 18.015625 
Q 18.3125 11.328125 20.140625 9.421875 
Q 21.96875 7.515625 27.59375 7.515625 
L 36.8125 7.515625 
L 36.8125 0 
L 27.59375 0 
Q 17.1875 0 13.234375 3.875 
Q 9.28125 7.765625 9.28125 18.015625 
L 9.28125 47.703125 
L 2.6875 47.703125 
L 2.6875 54.6875 
L 9.28125 54.6875 
L 9.28125 70.21875 
z
" id="DejaVuSans-74"/>
     <path d="M 41.109375 46.296875 
Q 39.59375 47.171875 37.8125 47.578125 
Q 36.03125 48 33.890625 48 
Q 26.265625 48 22.1875 43.046875 
Q 18.109375 38.09375 18.109375 28.8125 
L 18.109375 0 
L 9.078125 0 
L 9.078125 54.6875 
L 18.109375 54.6875 
L 18.109375 46.1875 
Q 20.953125 51.171875 25.484375 53.578125 
Q 30.03125 56 36.53125 56 
Q 37.453125 56 38.578125 55.875 
Q 39.703125 55.765625 41.0625 55.515625 
z
" id="DejaVuSans-72"/>
     <path d="M 8.5 21.578125 
L 8.5 54.6875 
L 17.484375 54.6875 
L 17.484375 21.921875 
Q 17.484375 14.15625 20.5 10.265625 
Q 23.53125 6.390625 29.59375 6.390625 
Q 36.859375 6.390625 41.078125 11.03125 
Q 45.3125 15.671875 45.3125 23.6875 
L 45.3125 54.6875 
L 54.296875 54.6875 
L 54.296875 0 
L 45.3125 0 
L 45.3125 8.40625 
Q 42.046875 3.421875 37.71875 1 
Q 33.40625 -1.421875 27.6875 -1.421875 
Q 18.265625 -1.421875 13.375 4.4375 
Q 8.5 10.296875 8.5 21.578125 
z
M 31.109375 56 
z
" id="DejaVuSans-75"/>
     <path d="M 48.78125 52.59375 
L 48.78125 44.1875 
Q 44.96875 46.296875 41.140625 47.34375 
Q 37.3125 48.390625 33.40625 48.390625 
Q 24.65625 48.390625 19.8125 42.84375 
Q 14.984375 37.3125 14.984375 27.296875 
Q 14.984375 17.28125 19.8125 11.734375 
Q 24.65625 6.203125 33.40625 6.203125 
Q 37.3125 6.203125 41.140625 7.25 
Q 44.96875 8.296875 48.78125 10.40625 
L 48.78125 2.09375 
Q 45.015625 0.34375 40.984375 -0.53125 
Q 36.96875 -1.421875 32.421875 -1.421875 
Q 20.0625 -1.421875 12.78125 6.34375 
Q 5.515625 14.109375 5.515625 27.296875 
Q 5.515625 40.671875 12.859375 48.328125 
Q 20.21875 56 33.015625 56 
Q 37.15625 56 41.109375 55.140625 
Q 45.0625 54.296875 48.78125 52.59375 
z
" id="DejaVuSans-63"/>
     <path d="M 56.203125 29.59375 
L 56.203125 25.203125 
L 14.890625 25.203125 
Q 15.484375 15.921875 20.484375 11.0625 
Q 25.484375 6.203125 34.421875 6.203125 
Q 39.59375 6.203125 44.453125 7.46875 
Q 49.3125 8.734375 54.109375 11.28125 
L 54.109375 2.78125 
Q 49.265625 0.734375 44.1875 -0.34375 
Q 39.109375 -1.421875 33.890625 -1.421875 
Q 20.796875 -1.421875 13.15625 6.1875 
Q 5.515625 13.8125 5.515625 26.8125 
Q 5.515625 40.234375 12.765625 48.109375 
Q 20.015625 56 32.328125 56 
Q 43.359375 56 49.78125 48.890625 
Q 56.203125 41.796875 56.203125 29.59375 
z
M 47.21875 32.234375 
Q 47.125 39.59375 43.09375 43.984375 
Q 39.0625 48.390625 32.421875 48.390625 
Q 24.90625 48.390625 20.390625 44.140625 
Q 15.875 39.890625 15.1875 32.171875 
z
" id="DejaVuSans-65"/>
     <path id="DejaVuSans-20"/>
     <path d="M 51.125 44 
L 36.921875 44 
L 32.8125 27.6875 
L 47.125 27.6875 
z
M 43.796875 71.78125 
L 38.71875 51.515625 
L 52.984375 51.515625 
L 58.109375 71.78125 
L 65.921875 71.78125 
L 60.890625 51.515625 
L 76.125 51.515625 
L 76.125 44 
L 58.984375 44 
L 54.984375 27.6875 
L 70.515625 27.6875 
L 70.515625 20.21875 
L 53.078125 20.21875 
L 48 0 
L 40.1875 0 
L 45.21875 20.21875 
L 30.90625 20.21875 
L 25.875 0 
L 18.015625 0 
L 23.09375 20.21875 
L 7.71875 20.21875 
L 7.71875 27.6875 
L 24.90625 27.6875 
L 29 44 
L 13.28125 44 
L 13.28125 51.515625 
L 30.90625 51.515625 
L 35.890625 71.78125 
z
" id="DejaVuSans-23"/>
     <path d="M 37.796875 64.3125 
L 12.890625 25.390625 
L 37.796875 25.390625 
z
M 35.203125 72.90625 
L 47.609375 72.90625 
L 47.609375 25.390625 
L 58.015625 25.390625 
L 58.015625 17.1875 
L 47.609375 17.1875 
L 47.609375 0 
L 37.796875 0 
L 37.796875 17.1875 
L 4.890625 17.1875 
L 4.890625 26.703125 
z
" id="DejaVuSans-34"/>
     <path d="M 12.40625 8.296875 
L 28.515625 8.296875 
L 28.515625 63.921875 
L 10.984375 60.40625 
L 10.984375 69.390625 
L 28.421875 72.90625 
L 38.28125 72.90625 
L 38.28125 8.296875 
L 54.390625 8.296875 
L 54.390625 0 
L 12.40625 0 
z
" id="DejaVuSans-31"/>
     <path d="M 10.796875 72.90625 
L 49.515625 72.90625 
L 49.515625 64.59375 
L 19.828125 64.59375 
L 19.828125 46.734375 
Q 21.96875 47.46875 24.109375 47.828125 
Q 26.265625 48.1875 28.421875 48.1875 
Q 40.625 48.1875 47.75 41.5 
Q 54.890625 34.8125 54.890625 23.390625 
Q 54.890625 11.625 47.5625 5.09375 
Q 40.234375 -1.421875 26.90625 -1.421875 
Q 22.3125 -1.421875 17.546875 -0.640625 
Q 12.796875 0.140625 7.71875 1.703125 
L 7.71875 11.625 
Q 12.109375 9.234375 16.796875 8.0625 
Q 21.484375 6.890625 26.703125 6.890625 
Q 35.15625 6.890625 40.078125 11.328125 
Q 45.015625 15.765625 45.015625 23.390625 
Q 45.015625 31 40.078125 35.4375 
Q 35.15625 39.890625 26.703125 39.890625 
Q 22.75 39.890625 18.8125 39.015625 
Q 14.890625 38.140625 10.796875 36.28125 
z
" id="DejaVuSans-35"/>
     <path d="M 33.015625 40.375 
Q 26.375 40.375 22.484375 35.828125 
Q 18.609375 31.296875 18.609375 23.390625 
Q 18.609375 15.53125 22.484375 10.953125 
Q 26.375 6.390625 33.015625 6.390625 
Q 39.65625 6.390625 43.53125 10.953125 
Q 47.40625 15.53125 47.40625 23.390625 
Q 47.40625 31.296875 43.53125 35.828125 
Q 39.65625 40.375 33.015625 40.375 
z
M 52.59375 71.296875 
L 52.59375 62.3125 
Q 48.875 64.0625 45.09375 64.984375 
Q 41.3125 65.921875 37.59375 65.921875 
Q 27.828125 65.921875 22.671875 59.328125 
Q 17.53125 52.734375 16.796875 39.40625 
Q 19.671875 43.65625 24.015625 45.921875 
Q 28.375 48.1875 33.59375 48.1875 
Q 44.578125 48.1875 50.953125 41.515625 
Q 57.328125 34.859375 57.328125 23.390625 
Q 57.328125 12.15625 50.6875 5.359375 
Q 44.046875 -1.421875 33.015625 -1.421875 
Q 20.359375 -1.421875 13.671875 8.265625 
Q 6.984375 17.96875 6.984375 36.375 
Q 6.984375 53.65625 15.1875 63.9375 
Q 23.390625 74.21875 37.203125 74.21875 
Q 40.921875 74.21875 44.703125 73.484375 
Q 48.484375 72.75 52.59375 71.296875 
z
" id="DejaVuSans-36"/>
     <path d="M 11.71875 12.40625 
L 22.015625 12.40625 
L 22.015625 4 
L 14.015625 -11.625 
L 7.71875 -11.625 
L 11.71875 4 
z
" id="DejaVuSans-2c"/>
     <path d="M 16.890625 72.90625 
L 62.984375 72.90625 
L 61.375 64.59375 
L 25.09375 64.59375 
L 20.90625 43.015625 
L 55.71875 43.015625 
L 54.109375 34.71875 
L 19.28125 34.71875 
L 14.203125 8.296875 
L 51.3125 8.296875 
L 49.703125 0 
L 2.6875 0 
z
" id="DejaVuSans-Oblique-45"/>
     <path d="M 16.890625 72.90625 
L 30.171875 72.90625 
L 50.296875 10.40625 
L 62.5 72.90625 
L 72.125 72.90625 
L 57.90625 0 
L 44.578125 0 
L 24.515625 62.890625 
L 12.3125 0 
L 2.6875 0 
z
" id="DejaVuSans-Oblique-4e"/>
     <path d="M 10.59375 45.40625 
L 73.1875 45.40625 
L 73.1875 37.203125 
L 10.59375 37.203125 
z
M 10.59375 25.484375 
L 73.1875 25.484375 
L 73.1875 17.1875 
L 10.59375 17.1875 
z
" id="DejaVuSans-3d"/>
     <path d="M 4.890625 31.390625 
L 31.203125 31.390625 
L 31.203125 23.390625 
L 4.890625 23.390625 
z
" id="DejaVuSans-2d"/>
     <path d="M 8.203125 72.90625 
L 55.078125 72.90625 
L 55.078125 68.703125 
L 28.609375 0 
L 18.3125 0 
L 43.21875 64.59375 
L 8.203125 64.59375 
z
" id="DejaVuSans-37"/>
     <path d="M 10.984375 1.515625 
L 10.984375 10.5 
Q 14.703125 8.734375 18.5 7.8125 
Q 22.3125 6.890625 25.984375 6.890625 
Q 35.75 6.890625 40.890625 13.453125 
Q 46.046875 20.015625 46.78125 33.40625 
Q 43.953125 29.203125 39.59375 26.953125 
Q 35.25 24.703125 29.984375 24.703125 
Q 19.046875 24.703125 12.671875 31.3125 
Q 6.296875 37.9375 6.296875 49.421875 
Q 6.296875 60.640625 12.9375 67.421875 
Q 19.578125 74.21875 30.609375 74.21875 
Q 43.265625 74.21875 49.921875 64.515625 
Q 56.59375 54.828125 56.59375 36.375 
Q 56.59375 19.140625 48.40625 8.859375 
Q 40.234375 -1.421875 26.421875 -1.421875 
Q 22.703125 -1.421875 18.890625 -0.6875 
Q 15.09375 0.046875 10.984375 1.515625 
z
M 30.609375 32.421875 
Q 37.25 32.421875 41.125 36.953125 
Q 45.015625 41.5 45.015625 49.421875 
Q 45.015625 57.28125 41.125 61.84375 
Q 37.25 66.40625 30.609375 66.40625 
Q 23.96875 66.40625 20.09375 61.84375 
Q 16.21875 57.28125 16.21875 49.421875 
Q 16.21875 41.5 20.09375 36.953125 
Q 23.96875 32.421875 30.609375 32.421875 
z
" id="DejaVuSans-39"/>
     <path d="M 10.6875 12.40625 
L 21 12.40625 
L 21 0 
L 10.6875 0 
z
" id="DejaVuSans-2e"/>
     <path d="M 19.1875 8.296875 
L 53.609375 8.296875 
L 53.609375 0 
L 7.328125 0 
L 7.328125 8.296875 
Q 12.9375 14.109375 22.625 23.890625 
Q 32.328125 33.6875 34.8125 36.53125 
Q 39.546875 41.84375 41.421875 45.53125 
Q 43.3125 49.21875 43.3125 52.78125 
Q 43.3125 58.59375 39.234375 62.25 
Q 35.15625 65.921875 28.609375 65.921875 
Q 23.96875 65.921875 18.8125 64.3125 
Q 13.671875 62.703125 7.8125 59.421875 
L 7.8125 69.390625 
Q 13.765625 71.78125 18.9375 73 
Q 24.125 74.21875 28.421875 74.21875 
Q 39.75 74.21875 46.484375 68.546875 
Q 53.21875 62.890625 53.21875 53.421875 
Q 53.21875 48.921875 51.53125 44.890625 
Q 49.859375 40.875 45.40625 35.40625 
Q 44.1875 33.984375 37.640625 27.21875 
Q 31.109375 20.453125 19.1875 8.296875 
z
" id="DejaVuSans-32"/>
     <path d="M 28.609375 0 
L 0.78125 72.90625 
L 11.078125 72.90625 
L 34.1875 11.53125 
L 57.328125 72.90625 
L 67.578125 72.90625 
L 39.796875 0 
z
" id="DejaVuSans-56"/>
     <path d="M 34.1875 63.1875 
L 14.15625 8.203125 
L 54.25 8.203125 
z
M 0.78125 0 
L 28.609375 72.90625 
L 39.796875 72.90625 
L 67.578125 0 
z
" id="DejaVuSans-394"/>
     <path d="M 9.8125 72.90625 
L 55.90625 72.90625 
L 55.90625 64.59375 
L 19.671875 64.59375 
L 19.671875 43.015625 
L 54.390625 43.015625 
L 54.390625 34.71875 
L 19.671875 34.71875 
L 19.671875 8.296875 
L 56.78125 8.296875 
L 56.78125 0 
L 9.8125 0 
z
" id="DejaVuSans-45"/>
     <path d="M 31.78125 66.40625 
Q 24.171875 66.40625 20.328125 58.90625 
Q 16.5 51.421875 16.5 36.375 
Q 16.5 21.390625 20.328125 13.890625 
Q 24.171875 6.390625 31.78125 6.390625 
Q 39.453125 6.390625 43.28125 13.890625 
Q 47.125 21.390625 47.125 36.375 
Q 47.125 51.421875 43.28125 58.90625 
Q 39.453125 66.40625 31.78125 66.40625 
z
M 31.78125 74.21875 
Q 44.046875 74.21875 50.515625 64.515625 
Q 56.984375 54.828125 56.984375 36.375 
Q 56.984375 17.96875 50.515625 8.265625 
Q 44.046875 -1.421875 31.78125 -1.421875 
Q 19.53125 -1.421875 13.0625 8.265625 
Q 6.59375 17.96875 6.59375 36.375 
Q 6.59375 54.828125 13.0625 64.515625 
Q 19.53125 74.21875 31.78125 74.21875 
z
" id="DejaVuSans-30"/>
     <path d="M 40.578125 39.3125 
Q 47.65625 37.796875 51.625 33 
Q 55.609375 28.21875 55.609375 21.1875 
Q 55.609375 10.40625 48.1875 4.484375 
Q 40.765625 -1.421875 27.09375 -1.421875 
Q 22.515625 -1.421875 17.65625 -0.515625 
Q 12.796875 0.390625 7.625 2.203125 
L 7.625 11.71875 
Q 11.71875 9.328125 16.59375 8.109375 
Q 21.484375 6.890625 26.8125 6.890625 
Q 36.078125 6.890625 40.9375 10.546875 
Q 45.796875 14.203125 45.796875 21.1875 
Q 45.796875 27.640625 41.28125 31.265625 
Q 36.765625 34.90625 28.71875 34.90625 
L 20.21875 34.90625 
L 20.21875 43.015625 
L 29.109375 43.015625 
Q 36.375 43.015625 40.234375 45.921875 
Q 44.09375 48.828125 44.09375 54.296875 
Q 44.09375 59.90625 40.109375 62.90625 
Q 36.140625 65.921875 28.71875 65.921875 
Q 24.65625 65.921875 20.015625 65.03125 
Q 15.375 64.15625 9.8125 62.3125 
L 9.8125 71.09375 
Q 15.4375 72.65625 20.34375 73.4375 
Q 25.25 74.21875 29.59375 74.21875 
Q 40.828125 74.21875 47.359375 69.109375 
Q 53.90625 64.015625 53.90625 55.328125 
Q 53.90625 49.265625 50.4375 45.09375 
Q 46.96875 40.921875 40.578125 39.3125 
z
" id="DejaVuSans-33"/>
    </defs>
    <g transform="translate(63.228 35.472)scale(0.12 -0.12)">
     <use transform="translate(0 0.78125)" xlink:href="#DejaVuSans-53"/>
     <use transform="translate(63.476562 0.78125)" xlink:href="#DejaVuSans-74"/>
     <use transform="translate(102.685547 0.78125)" xlink:href="#DejaVuSans-72"/>
     <use transform="translate(143.798828 0.78125)" xlink:href="#DejaVuSans-75"/>
     <use transform="translate(207.177734 0.78125)" xlink:href="#DejaVuSans-63"/>
     <use transform="translate(262.158203 0.78125)" xlink:href="#DejaVuSans-74"/>
     <use transform="translate(301.367188 0.78125)" xlink:href="#DejaVuSans-75"/>
     <use transform="translate(364.746094 0.78125)" xlink:href="#DejaVuSans-72"/>
     <use transform="translate(405.859375 0.78125)" xlink:href="#DejaVuSans-65"/>
     <use transform="translate(467.382812 0.78125)" xlink:href="#DejaVuSans-20"/>
     <use transform="translate(499.169922 0.78125)" xlink:href="#DejaVuSans-23"/>
     <use transform="translate(582.958984 0.78125)" xlink:href="#DejaVuSans-34"/>
     <use transform="translate(646.582031 0.78125)" xlink:href="#DejaVuSans-31"/>
     <use transform="translate(710.205078 0.78125)" xlink:href="#DejaVuSans-35"/>
     <use transform="translate(773.828125 0.78125)" xlink:href="#DejaVuSans-36"/>
     <use transform="translate(837.451172 0.78125)" xlink:href="#DejaVuSans-2c"/>
     <use transform="translate(869.238281 0.78125)" xlink:href="#DejaVuSans-20"/>
     <use transform="translate(901.025391 0.78125)" xlink:href="#DejaVuSans-Oblique-45"/>
     <use transform="translate(964.208984 -15.625)scale(0.7)" xlink:href="#DejaVuSans-Oblique-4e"/>
     <use transform="translate(1019.306641 0.78125)" xlink:href="#DejaVuSans-3d"/>
     <use transform="translate(1103.095703 0.78125)" xlink:href="#DejaVuSans-2d"/>
     <use transform="translate(1139.179688 0.78125)" xlink:href="#DejaVuSans-31"/>
     <use transform="translate(1202.802734 0.78125)" xlink:href="#DejaVuSans-37"/>
     <use transform="translate(1266.425781 0.78125)" xlink:href="#DejaVuSans-39"/>
     <use transform="translate(1330.048828 0.78125)" xlink:href="#DejaVuSans-2e"/>
     <use transform="translate(1361.835938 0.78125)" xlink:href="#DejaVuSans-31"/>
     <use transform="translate(1425.458984 0.78125)" xlink:href="#DejaVuSans-32"/>
     <use transform="translate(1489.082031 0.78125)" xlink:href="#DejaVuSans-65"/>
     <use transform="translate(1550.605469 0.78125)" xlink:href="#DejaVuSans-56"/>
     <use transform="translate(1619.013672 0.78125)" xlink:href="#DejaVuSans-2c"/>
     <use transform="translate(1650.800781 0.78125)" xlink:href="#DejaVuSans-20"/>
     <use transform="translate(1682.587891 0.78125)" xlink:href="#DejaVuSans-394"/>
     <use transform="translate(1750.996094 0.78125)" xlink:href="#DejaVuSans-45"/>
     <use transform="translate(1814.179688 0.78125)" xlink:href="#DejaVuSans-3d"/>
     <use transform="translate(1897.96875 0.78125)" xlink:href="#DejaVuSans-2d"/>
     <use transform="translate(1934.052734 0.78125)" xlink:href="#DejaVuSans-30"/>
     <use transform="translate(1997.675781 0.78125)" xlink:href="#DejaVuSans-2e"/>
     <use transform="translate(2029.462891 0.78125)" xlink:href="#DejaVuSans-33"/>
     <use transform="translate(2093.085938 0.78125)" xlink:href="#DejaVuSans-36"/>
     <use transform="translate(2156.708984 0.78125)" xlink:href="#DejaVuSans-65"/>
     <use transform="translate(2218.232422 0.78125)" xlink:href="#DejaVuSans-56"/>
    </g>
   </g>
  </g>
  <g id="axes_2">
   <g id="patch_2">
    <path clip-path="url(#pefe20e3e5c)" d="M 361.152 307.584 
L 361.152 306.5445 
L 361.152 42.5115 
L 361.152 41.472 
L 374.4576 41.472 
L 374.4576 42.5115 
L 374.4576 306.5445 
L 374.4576 307.584 
z
" style="fill:#ffffff;stroke:#ffffff;stroke-linejoin:miter;stroke-width:0.01;"/>
   </g>
   <image height="265.68" id="imagea88bcf303e" transform="scale(1 -1)translate(0 -265.68)" width="12.96" x="361.44" xlink:href="data:image/png;base64,
iVBORw0KGgoAAAANSUhEUgAAABIAAAFxCAYAAAB+2fgXAAAABHNCSVQICAgIfAhkiAAAAeVJREFUeJztncmNw0AQA2ckheYQNv9QLIfQ8ygsCgQ7AEI8+jAs2Puz/94F1LP2ReCsZ18bAWIeZ5XaGRBE7VnbptG+KI101FYyNSiQG2oRITXKNaX9uclOdi2XWjftVE32CZCO2ou5Bj1TcCBr/1zB9ge7Fq0Rg2NM9pvbtG+ua1QgsRYhDy0ISEiNc40BEibbSI0Coj5CBGtkpFbXJiAjNZlrwhuSOv2M1DjXbEdEciBt1JSDDQKKpmZr2rr2j0DBGpXaWEJq3bQzEPIS26r9J+Wzv9Tm8o3aajRXqc3VUXsApKNWjeZq0x4ABVNbm7lrszVigDqP5vIl2+eaT2yfRkL7g+dRcNPqjohkjaCvRVBq0H2U3LQrOJCx9kdTg4B8oxZzzTdqdYHEngjUCAPyUctN9sVRq2sTECW2UKNLd2jVtRmo1A6AhMmWaSRcR8nUdIHUuVb75zJS218EyEitro1At69pIdeSk30Lkw0FktNImGyZRhy1O5galmxd03LUsHWk06jUZiCq+5Wb1kZNN4+wJxJuWt8RAW5am2sYNZ9rYCBzZ3buPKJ2P5Yj4Toy3keyIyJbIxs1rml1byCA84gpch5RQNB7Q0qNMGq2Hy4BXdNR41yz/cEEJfZzUz96r9PoB0okjeQ8y9TkAAAAAElFTkSuQmCC" y="-41.76"/>
   <g id="matplotlib.axis_1"/>
   <g id="matplotlib.axis_2">
    <g id="ytick_1">
     <g id="line2d_1">
      <defs>
       <path d="M 0 0 
L 3.5 0 
" id="m18be46a89e" style="stroke:#000000;stroke-width:0.8;"/>
      </defs>
      <g>
       <use style="stroke:#000000;stroke-width:0.8;" x="374.4576" xlink:href="#m18be46a89e" y="281.415228"/>
      </g>
     </g>
     <g id="text_2">
      <!-- −8.5 -->
      <defs>
       <path d="M 10.59375 35.5 
L 73.1875 35.5 
L 73.1875 27.203125 
L 10.59375 27.203125 
z
" id="DejaVuSans-2212"/>
       <path d="M 31.78125 34.625 
Q 24.75 34.625 20.71875 30.859375 
Q 16.703125 27.09375 16.703125 20.515625 
Q 16.703125 13.921875 20.71875 10.15625 
Q 24.75 6.390625 31.78125 6.390625 
Q 38.8125 6.390625 42.859375 10.171875 
Q 46.921875 13.96875 46.921875 20.515625 
Q 46.921875 27.09375 42.890625 30.859375 
Q 38.875 34.625 31.78125 34.625 
z
M 21.921875 38.8125 
Q 15.578125 40.375 12.03125 44.71875 
Q 8.5 49.078125 8.5 55.328125 
Q 8.5 64.0625 14.71875 69.140625 
Q 20.953125 74.21875 31.78125 74.21875 
Q 42.671875 74.21875 48.875 69.140625 
Q 55.078125 64.0625 55.078125 55.328125 
Q 55.078125 49.078125 51.53125 44.71875 
Q 48 40.375 41.703125 38.8125 
Q 48.828125 37.15625 52.796875 32.3125 
Q 56.78125 27.484375 56.78125 20.515625 
Q 56.78125 9.90625 50.3125 4.234375 
Q 43.84375 -1.421875 31.78125 -1.421875 
Q 19.734375 -1.421875 13.25 4.234375 
Q 6.78125 9.90625 6.78125 20.515625 
Q 6.78125 27.484375 10.78125 32.3125 
Q 14.796875 37.15625 21.921875 38.8125 
z
M 18.3125 54.390625 
Q 18.3125 48.734375 21.84375 45.5625 
Q 25.390625 42.390625 31.78125 42.390625 
Q 38.140625 42.390625 41.71875 45.5625 
Q 45.3125 48.734375 45.3125 54.390625 
Q 45.3125 60.0625 41.71875 63.234375 
Q 38.140625 66.40625 31.78125 66.40625 
Q 25.390625 66.40625 21.84375 63.234375 
Q 18.3125 60.0625 18.3125 54.390625 
z
" id="DejaVuSans-38"/>
      </defs>
      <g transform="translate(381.4576 285.214447)scale(0.1 -0.1)">
       <use xlink:href="#DejaVuSans-2212"/>
       <use x="83.789062" xlink:href="#DejaVuSans-38"/>
       <use x="147.412109" xlink:href="#DejaVuSans-2e"/>
       <use x="179.199219" xlink:href="#DejaVuSans-35"/>
      </g>
     </g>
    </g>
    <g id="ytick_2">
     <g id="line2d_2">
      <g>
       <use style="stroke:#000000;stroke-width:0.8;" x="374.4576" xlink:href="#m18be46a89e" y="247.286705"/>
      </g>
     </g>
     <g id="text_3">
      <!-- −8.0 -->
      <g transform="translate(381.4576 251.085924)scale(0.1 -0.1)">
       <use xlink:href="#DejaVuSans-2212"/>
       <use x="83.789062" xlink:href="#DejaVuSans-38"/>
       <use x="147.412109" xlink:href="#DejaVuSans-2e"/>
       <use x="179.199219" xlink:href="#DejaVuSans-30"/>
      </g>
     </g>
    </g>
    <g id="ytick_3">
     <g id="line2d_3">
      <g>
       <use style="stroke:#000000;stroke-width:0.8;" x="374.4576" xlink:href="#m18be46a89e" y="213.158183"/>
      </g>
     </g>
     <g id="text_4">
      <!-- −7.5 -->
      <g transform="translate(381.4576 216.957402)scale(0.1 -0.1)">
       <use xlink:href="#DejaVuSans-2212"/>
       <use x="83.789062" xlink:href="#DejaVuSans-37"/>
       <use x="147.412109" xlink:href="#DejaVuSans-2e"/>
       <use x="179.199219" xlink:href="#DejaVuSans-35"/>
      </g>
     </g>
    </g>
    <g id="ytick_4">
     <g id="line2d_4">
      <g>
       <use style="stroke:#000000;stroke-width:0.8;" x="374.4576" xlink:href="#m18be46a89e" y="179.02966"/>
      </g>
     </g>
     <g id="text_5">
      <!-- −7.0 -->
      <g transform="translate(381.4576 182.828879)scale(0.1 -0.1)">
       <use xlink:href="#DejaVuSans-2212"/>
       <use x="83.789062" xlink:href="#DejaVuSans-37"/>
       <use x="147.412109" xlink:href="#DejaVuSans-2e"/>
       <use x="179.199219" xlink:href="#DejaVuSans-30"/>
      </g>
     </g>
    </g>
    <g id="ytick_5">
     <g id="line2d_5">
      <g>
       <use style="stroke:#000000;stroke-width:0.8;" x="374.4576" xlink:href="#m18be46a89e" y="144.901138"/>
      </g>
     </g>
     <g id="text_6">
      <!-- −6.5 -->
      <g transform="translate(381.4576 148.700357)scale(0.1 -0.1)">
       <use xlink:href="#DejaVuSans-2212"/>
       <use x="83.789062" xlink:href="#DejaVuSans-36"/>
       <use x="147.412109" xlink:href="#DejaVuSans-2e"/>
       <use x="179.199219" xlink:href="#DejaVuSans-35"/>
      </g>
     </g>
    </g>
    <g id="ytick_6">
     <g id="line2d_6">
      <g>
       <use style="stroke:#000000;stroke-width:0.8;" x="374.4576" xlink:href="#m18be46a89e" y="110.772615"/>
      </g>
     </g>
     <g id="text_7">
      <!-- −6.0 -->
      <g transform="translate(381.4576 114.571834)scale(0.1 -0.1)">
       <use xlink:href="#DejaVuSans-2212"/>
       <use x="83.789062" xlink:href="#DejaVuSans-36"/>
       <use x="147.412109" xlink:href="#DejaVuSans-2e"/>
       <use x="179.199219" xlink:href="#DejaVuSans-30"/>
      </g>
     </g>
    </g>
    <g id="ytick_7">
     <g id="line2d_7">
      <g>
       <use style="stroke:#000000;stroke-width:0.8;" x="374.4576" xlink:href="#m18be46a89e" y="76.644093"/>
      </g>
     </g>
     <g id="text_8">
      <!-- −5.5 -->
      <g transform="translate(381.4576 80.443312)scale(0.1 -0.1)">
       <use xlink:href="#DejaVuSans-2212"/>
       <use x="83.789062" xlink:href="#DejaVuSans-35"/>
       <use x="147.412109" xlink:href="#DejaVuSans-2e"/>
       <use x="179.199219" xlink:href="#DejaVuSans-35"/>
      </g>
     </g>
    </g>
    <g id="ytick_8">
     <g id="line2d_8">
      <g>
       <use style="stroke:#000000;stroke-width:0.8;" x="374.4576" xlink:href="#m18be46a89e" y="42.51557"/>
      </g>
     </g>
     <g id="text_9">
      <!-- −5.0 -->
      <g transform="translate(381.4576 46.314789)scale(0.1 -0.1)">
       <use xlink:href="#DejaVuSans-2212"/>
       <use x="83.789062" xlink:href="#DejaVuSans-35"/>
       <use x="147.412109" xlink:href="#DejaVuSans-2e"/>
       <use x="179.199219" xlink:href="#DejaVuSans-30"/>
      </g>
     </g>
    </g>
    <g id="text_10">
     <!-- Energy [eV] -->
     <defs>
      <path d="M 54.890625 33.015625 
L 54.890625 0 
L 45.90625 0 
L 45.90625 32.71875 
Q 45.90625 40.484375 42.875 44.328125 
Q 39.84375 48.1875 33.796875 48.1875 
Q 26.515625 48.1875 22.3125 43.546875 
Q 18.109375 38.921875 18.109375 30.90625 
L 18.109375 0 
L 9.078125 0 
L 9.078125 54.6875 
L 18.109375 54.6875 
L 18.109375 46.1875 
Q 21.34375 51.125 25.703125 53.5625 
Q 30.078125 56 35.796875 56 
Q 45.21875 56 50.046875 50.171875 
Q 54.890625 44.34375 54.890625 33.015625 
z
" id="DejaVuSans-6e"/>
      <path d="M 45.40625 27.984375 
Q 45.40625 37.75 41.375 43.109375 
Q 37.359375 48.484375 30.078125 48.484375 
Q 22.859375 48.484375 18.828125 43.109375 
Q 14.796875 37.75 14.796875 27.984375 
Q 14.796875 18.265625 18.828125 12.890625 
Q 22.859375 7.515625 30.078125 7.515625 
Q 37.359375 7.515625 41.375 12.890625 
Q 45.40625 18.265625 45.40625 27.984375 
z
M 54.390625 6.78125 
Q 54.390625 -7.171875 48.1875 -13.984375 
Q 42 -20.796875 29.203125 -20.796875 
Q 24.46875 -20.796875 20.265625 -20.09375 
Q 16.0625 -19.390625 12.109375 -17.921875 
L 12.109375 -9.1875 
Q 16.0625 -11.328125 19.921875 -12.34375 
Q 23.78125 -13.375 27.78125 -13.375 
Q 36.625 -13.375 41.015625 -8.765625 
Q 45.40625 -4.15625 45.40625 5.171875 
L 45.40625 9.625 
Q 42.625 4.78125 38.28125 2.390625 
Q 33.9375 0 27.875 0 
Q 17.828125 0 11.671875 7.65625 
Q 5.515625 15.328125 5.515625 27.984375 
Q 5.515625 40.671875 11.671875 48.328125 
Q 17.828125 56 27.875 56 
Q 33.9375 56 38.28125 53.609375 
Q 42.625 51.21875 45.40625 46.390625 
L 45.40625 54.6875 
L 54.390625 54.6875 
z
" id="DejaVuSans-67"/>
      <path d="M 32.171875 -5.078125 
Q 28.375 -14.84375 24.75 -17.8125 
Q 21.140625 -20.796875 15.09375 -20.796875 
L 7.90625 -20.796875 
L 7.90625 -13.28125 
L 13.1875 -13.28125 
Q 16.890625 -13.28125 18.9375 -11.515625 
Q 21 -9.765625 23.484375 -3.21875 
L 25.09375 0.875 
L 2.984375 54.6875 
L 12.5 54.6875 
L 29.59375 11.921875 
L 46.6875 54.6875 
L 56.203125 54.6875 
z
" id="DejaVuSans-79"/>
      <path d="M 8.59375 75.984375 
L 29.296875 75.984375 
L 29.296875 69 
L 17.578125 69 
L 17.578125 -6.203125 
L 29.296875 -6.203125 
L 29.296875 -13.1875 
L 8.59375 -13.1875 
z
" id="DejaVuSans-5b"/>
      <path d="M 30.421875 75.984375 
L 30.421875 -13.1875 
L 9.71875 -13.1875 
L 9.71875 -6.203125 
L 21.390625 -6.203125 
L 21.390625 69 
L 9.71875 69 
L 9.71875 75.984375 
z
" id="DejaVuSans-5d"/>
     </defs>
     <g transform="translate(417.33885 204.108469)rotate(-90)scale(0.1 -0.1)">
      <use xlink:href="#DejaVuSans-45"/>
      <use x="63.183594" xlink:href="#DejaVuSans-6e"/>
      <use x="126.5625" xlink:href="#DejaVuSans-65"/>
      <use x="188.085938" xlink:href="#DejaVuSans-72"/>
      <use x="229.183594" xlink:href="#DejaVuSans-67"/>
      <use x="292.660156" xlink:href="#DejaVuSans-79"/>
      <use x="351.839844" xlink:href="#DejaVuSans-20"/>
      <use x="383.626953" xlink:href="#DejaVuSans-5b"/>
      <use x="422.640625" xlink:href="#DejaVuSans-65"/>
      <use x="484.164062" xlink:href="#DejaVuSans-56"/>
      <use x="552.572266" xlink:href="#DejaVuSans-5d"/>
     </g>
    </g>
   </g>
   <g id="patch_3">
    <path d="M 361.152 307.584 
L 361.152 306.5445 
L 361.152 42.5115 
L 361.152 41.472 
L 374.4576 41.472 
L 374.4576 42.5115 
L 374.4576 306.5445 
L 374.4576 307.584 
z
" style="fill:none;stroke:#000000;stroke-linejoin:miter;stroke-width:0.8;"/>
   </g>
  </g>
 </g>
 <defs>
  <clipPath id="p9c890f36a9">
   <rect height="266.112" width="285.696" x="57.6" y="41.472"/>
  </clipPath>
  <clipPath id="pefe20e3e5c">
   <rect height="266.112" width="13.3056" x="361.152" y="41.472"/>
  </clipPath>
 </defs>
</svg>
