<?xml version="1.0" encoding="utf-8" standalone="no"?>
<!DOCTYPE svg PUBLIC "-//W3C//DTD SVG 1.1//EN"
  "http://www.w3.org/Graphics/SVG/1.1/DTD/svg11.dtd">
<!-- Created with matplotlib (http://matplotlib.org/) -->
<svg height="345.6pt" version="1.1" viewBox="0 0 460.8 345.6" width="460.8pt" xmlns="http://www.w3.org/2000/svg" xmlns:xlink="http://www.w3.org/1999/xlink">
 <defs>
  <style type="text/css">
*{stroke-linecap:butt;stroke-linejoin:round;}
  </style>
 </defs>
 <g id="figure_1">
  <g id="patch_1">
   <path d="M 0 345.6 
L 460.8 345.6 
L 460.8 0 
L 0 0 
z
" style="fill:#ffffff;"/>
  </g>
  <g id="axes_1">
   <g id="CircleCollection_1">
    <path clip-path="url(#p311a2fde34)" d="M 156.385354 232.517257 
C 158.118273 232.517257 159.78045 231.828761 161.00581 230.603402 
C 162.231169 229.378042 162.919665 227.715865 162.919665 225.982946 
C 162.919665 224.250026 162.231169 222.587849 161.00581 221.362489 
C 159.78045 220.13713 158.118273 219.448634 156.385354 219.448634 
C 154.652434 219.448634 152.990257 220.13713 151.764897 221.362489 
C 150.539538 222.587849 149.851042 224.250026 149.851042 225.982946 
C 149.851042 227.715865 150.539538 229.378042 151.764897 230.603402 
C 152.990257 231.828761 154.652434 232.517257 156.385354 232.517257 
z
" style="fill:#2b748e;"/>
    <path clip-path="url(#p311a2fde34)" d="M 84.040763 154.840111 
C 85.816066 154.840111 87.518897 154.134776 88.774226 152.879447 
C 90.029554 151.624118 90.73489 149.921288 90.73489 148.145985 
C 90.73489 146.370682 90.029554 144.667852 88.774226 143.412523 
C 87.518897 142.157194 85.816066 141.451859 84.040763 141.451859 
C 82.26546 141.451859 80.56263 142.157194 79.307301 143.412523 
C 78.051973 144.667852 77.346637 146.370682 77.346637 148.145985 
C 77.346637 149.921288 78.051973 151.624118 79.307301 152.879447 
C 80.56263 154.134776 82.26546 154.840111 84.040763 154.840111 
z
" style="fill:#287d8e;"/>
    <path clip-path="url(#p311a2fde34)" d="M 261.729877 279.213008 
C 263.506413 279.213008 265.210426 278.507183 266.466627 277.250983 
C 267.722827 275.994782 268.428652 274.290769 268.428652 272.514233 
C 268.428652 270.737698 267.722827 269.033685 266.466627 267.777484 
C 265.210426 266.521284 263.506413 265.815459 261.729877 265.815459 
C 259.953342 265.815459 258.249329 266.521284 256.993128 267.777484 
C 255.736928 269.033685 255.031103 270.737698 255.031103 272.514233 
C 255.031103 274.290769 255.736928 275.994782 256.993128 277.250983 
C 258.249329 278.507183 259.953342 279.213008 261.729877 279.213008 
z
" style="fill:#440154;"/>
    <path clip-path="url(#p311a2fde34)" d="M 287.156499 226.43942 
C 288.831288 226.43942 290.437707 225.774019 291.621962 224.589764 
C 292.806217 223.40551 293.471617 221.79909 293.471617 220.124301 
C 293.471617 218.449513 292.806217 216.843093 291.621962 215.658839 
C 290.437707 214.474584 288.831288 213.809183 287.156499 213.809183 
C 285.48171 213.809183 283.875291 214.474584 282.691036 215.658839 
C 281.506782 216.843093 280.841381 218.449513 280.841381 220.124301 
C 280.841381 221.79909 281.506782 223.40551 282.691036 224.589764 
C 283.875291 225.774019 285.48171 226.43942 287.156499 226.43942 
z
" style="fill:#2f6c8e;"/>
    <path clip-path="url(#p311a2fde34)" d="M 102.941322 114.546185 
C 104.70049 114.546185 106.387844 113.84726 107.631763 112.60334 
C 108.875683 111.35942 109.574608 109.672066 109.574608 107.912898 
C 109.574608 106.15373 108.875683 104.466376 107.631763 103.222456 
C 106.387844 101.978537 104.70049 101.279612 102.941322 101.279612 
C 101.182153 101.279612 99.494799 101.978537 98.25088 103.222456 
C 97.00696 104.466376 96.308035 106.15373 96.308035 107.912898 
C 96.308035 109.672066 97.00696 111.35942 98.25088 112.60334 
C 99.494799 113.84726 101.182153 114.546185 102.941322 114.546185 
z
" style="fill:#2a778e;"/>
    <path clip-path="url(#p311a2fde34)" d="M 244.698083 250.630693 
C 246.400098 250.630693 248.032632 249.954475 249.236138 248.750969 
C 250.439644 247.547463 251.115862 245.914929 251.115862 244.212914 
C 251.115862 242.510899 250.439644 240.878365 249.236138 239.674859 
C 248.032632 238.471353 246.400098 237.795135 244.698083 237.795135 
C 242.996068 237.795135 241.363534 238.471353 240.160028 239.674859 
C 238.956522 240.878365 238.280304 242.510899 238.280304 244.212914 
C 238.280304 245.914929 238.956522 247.547463 240.160028 248.750969 
C 241.363534 249.954475 242.996068 250.630693 244.698083 250.630693 
z
" style="fill:#3e4989;"/>
    <path clip-path="url(#p311a2fde34)" d="M 329.798167 142.278517 
C 331.612486 142.278517 333.35274 141.55768 334.635658 140.274762 
C 335.918575 138.991845 336.639412 137.251591 336.639412 135.437272 
C 336.639412 133.622953 335.918575 131.882699 334.635658 130.599781 
C 333.35274 129.316864 331.612486 128.596027 329.798167 128.596027 
C 327.983848 128.596027 326.243594 129.316864 324.960676 130.599781 
C 323.677759 131.882699 322.956922 133.622953 322.956922 135.437272 
C 322.956922 137.251591 323.677759 138.991845 324.960676 140.274762 
C 326.243594 141.55768 327.983848 142.278517 329.798167 142.278517 
z
" style="fill:#23898e;"/>
    <path clip-path="url(#p311a2fde34)" d="M 321.319902 177.655772 
C 323.077182 177.655772 324.762726 176.957597 326.005311 175.715012 
C 327.247896 174.472427 327.946071 172.786884 327.946071 171.029603 
C 327.946071 169.272323 327.247896 167.586779 326.005311 166.344194 
C 324.762726 165.101609 323.077182 164.403434 321.319902 164.403434 
C 319.562621 164.403434 317.877078 165.101609 316.634493 166.344194 
C 315.391908 167.586779 314.693733 169.272323 314.693733 171.029603 
C 314.693733 172.786884 315.391908 174.472427 316.634493 175.715012 
C 317.877078 176.957597 319.562621 177.655772 321.319902 177.655772 
z
" style="fill:#433e85;"/>
    <path clip-path="url(#p311a2fde34)" d="M 278.370772 178.671962 
C 280.065345 178.671962 281.69074 177.998701 282.888984 176.800458 
C 284.087227 175.602214 284.760488 173.976819 284.760488 172.282246 
C 284.760488 170.587673 284.087227 168.962278 282.888984 167.764034 
C 281.69074 166.565791 280.065345 165.89253 278.370772 165.89253 
C 276.676199 165.89253 275.050804 166.565791 273.85256 167.764034 
C 272.654317 168.962278 271.981056 170.587673 271.981056 172.282246 
C 271.981056 173.976819 272.654317 175.602214 273.85256 176.800458 
C 275.050804 177.998701 276.676199 178.671962 278.370772 178.671962 
z
" style="fill:#2d708e;"/>
    <path clip-path="url(#p311a2fde34)" d="M 277.682645 71.267813 
C 279.515976 71.267813 281.274466 70.539423 282.570828 69.243062 
C 283.867189 67.9467 284.595579 66.18821 284.595579 64.354879 
C 284.595579 62.521547 283.867189 60.763057 282.570828 59.466696 
C 281.274466 58.170335 279.515976 57.441945 277.682645 57.441945 
C 275.849313 57.441945 274.090823 58.170335 272.794462 59.466696 
C 271.498101 60.763057 270.769711 62.521547 270.769711 64.354879 
C 270.769711 66.18821 271.498101 67.9467 272.794462 69.243062 
C 274.090823 70.539423 275.849313 71.267813 277.682645 71.267813 
z
" style="fill:#2d718e;"/>
    <path clip-path="url(#p311a2fde34)" d="M 174.974072 299.376462 
C 176.797307 299.376462 178.546112 298.652083 179.835333 297.362861 
C 181.124554 296.07364 181.848933 294.324835 181.848933 292.5016 
C 181.848933 290.678366 181.124554 288.929561 179.835333 287.640339 
C 178.546112 286.351118 176.797307 285.626739 174.974072 285.626739 
C 173.150838 285.626739 171.402033 286.351118 170.112811 287.640339 
C 168.82359 288.929561 168.099211 290.678366 168.099211 292.5016 
C 168.099211 294.324835 168.82359 296.07364 170.112811 297.362861 
C 171.402033 298.652083 173.150838 299.376462 174.974072 299.376462 
z
" style="fill:#218f8d;"/>
    <path clip-path="url(#p311a2fde34)" d="M 108.118754 230.021581 
C 109.896674 230.021581 111.602014 229.315206 112.859193 228.058027 
C 114.116372 226.800848 114.822747 225.095508 114.822747 223.317588 
C 114.822747 221.539669 114.116372 219.834329 112.859193 218.57715 
C 111.602014 217.31997 109.896674 216.613596 108.118754 216.613596 
C 106.340835 216.613596 104.635495 217.31997 103.378315 218.57715 
C 102.121136 219.834329 101.414761 221.539669 101.414761 223.317588 
C 101.414761 225.095508 102.121136 226.800848 103.378315 228.058027 
C 104.635495 229.315206 106.340835 230.021581 108.118754 230.021581 
z
" style="fill:#2f6c8e;"/>
    <path clip-path="url(#p311a2fde34)" d="M 221.665172 301.702251 
C 223.483165 301.702251 225.226942 300.979955 226.512457 299.69444 
C 227.797972 298.408925 228.520268 296.665148 228.520268 294.847155 
C 228.520268 293.029163 227.797972 291.285385 226.512457 289.999871 
C 225.226942 288.714356 223.483165 287.992059 221.665172 287.992059 
C 219.847179 287.992059 218.103402 288.714356 216.817887 289.999871 
C 215.532372 291.285385 214.810076 293.029163 214.810076 294.847155 
C 214.810076 296.665148 215.532372 298.408925 216.817887 299.69444 
C 218.103402 300.979955 219.847179 301.702251 221.665172 301.702251 
z
" style="fill:#1f9f88;"/>
    <path clip-path="url(#p311a2fde34)" d="M 324.390002 228.371262 
C 326.140377 228.371262 327.819298 227.67583 329.057001 226.438128 
C 330.294703 225.200425 330.990135 223.521505 330.990135 221.771129 
C 330.990135 220.020753 330.294703 218.341832 329.057001 217.10413 
C 327.819298 215.866427 326.140377 215.170995 324.390002 215.170995 
C 322.639626 215.170995 320.960705 215.866427 319.723003 217.10413 
C 318.4853 218.341832 317.789868 220.020753 317.789868 221.771129 
C 317.789868 223.521505 318.4853 225.200425 319.723003 226.438128 
C 320.960705 227.67583 322.639626 228.371262 324.390002 228.371262 
z
" style="fill:#355e8d;"/>
    <path clip-path="url(#p311a2fde34)" d="M 198.980466 84.593308 
C 200.739899 84.593308 202.427507 83.894278 203.671614 82.650171 
C 204.915721 81.406065 205.614751 79.718457 205.614751 77.959024 
C 205.614751 76.199591 204.915721 74.511983 203.671614 73.267876 
C 202.427507 72.023769 200.739899 71.324739 198.980466 71.324739 
C 197.221033 71.324739 195.533425 72.023769 194.289318 73.267876 
C 193.045212 74.511983 192.346181 76.199591 192.346181 77.959024 
C 192.346181 79.718457 193.045212 81.406065 194.289318 82.650171 
C 195.533425 83.894278 197.221033 84.593308 198.980466 84.593308 
z
" style="fill:#34618d;"/>
    <path clip-path="url(#p311a2fde34)" d="M 311.06946 265.537 
C 312.870954 265.537 314.598905 264.821259 315.872753 263.547411 
C 317.146601 262.273563 317.862342 260.545611 317.862342 258.744118 
C 317.862342 256.942625 317.146601 255.214673 315.872753 253.940825 
C 314.598905 252.666977 312.870954 251.951236 311.06946 251.951236 
C 309.267967 251.951236 307.540016 252.666977 306.266167 253.940825 
C 304.992319 255.214673 304.276578 256.942625 304.276578 258.744118 
C 304.276578 260.545611 304.992319 262.273563 306.266167 263.547411 
C 307.540016 264.821259 309.267967 265.537 311.06946 265.537 
z
" style="fill:#fde725;"/>
    <path clip-path="url(#p311a2fde34)" d="M 71.091856 198.409251 
C 72.884979 198.409251 74.604903 197.696836 75.872833 196.428906 
C 77.140762 195.160976 77.853178 193.441053 77.853178 191.647929 
C 77.853178 189.854805 77.140762 188.134882 75.872833 186.866952 
C 74.604903 185.599022 72.884979 184.886607 71.091856 184.886607 
C 69.298732 184.886607 67.578809 185.599022 66.310879 186.866952 
C 65.042949 188.134882 64.330533 189.854805 64.330533 191.647929 
C 64.330533 193.441053 65.042949 195.160976 66.310879 196.428906 
C 67.578809 197.696836 69.298732 198.409251 71.091856 198.409251 
z
" style="fill:#23898e;"/>
    <path clip-path="url(#p311a2fde34)" d="M 223.852569 170.334422 
C 225.553423 170.334422 227.184843 169.658666 228.387528 168.455981 
C 229.590213 167.253296 230.26597 165.621876 230.26597 163.921022 
C 230.26597 162.220168 229.590213 160.588748 228.387528 159.386063 
C 227.184843 158.183378 225.553423 157.507622 223.852569 157.507622 
C 222.151716 157.507622 220.520295 158.183378 219.31761 159.386063 
C 218.114925 160.588748 217.439169 162.220168 217.439169 163.921022 
C 217.439169 165.621876 218.114925 167.253296 219.31761 168.455981 
C 220.520295 169.658666 222.151716 170.334422 223.852569 170.334422 
z
" style="fill:#470d60;"/>
    <path clip-path="url(#p311a2fde34)" d="M 198.718675 129.500081 
C 200.438497 129.500081 202.088112 128.816788 203.30421 127.600691 
C 204.520307 126.384593 205.2036 124.734978 205.2036 123.015156 
C 205.2036 121.295334 204.520307 119.64572 203.30421 118.429622 
C 202.088112 117.213524 200.438497 116.530231 198.718675 116.530231 
C 196.998853 116.530231 195.349239 117.213524 194.133141 118.429622 
C 192.917043 119.64572 192.23375 121.295334 192.23375 123.015156 
C 192.23375 124.734978 192.917043 126.384593 194.133141 127.600691 
C 195.349239 128.816788 196.998853 129.500081 198.718675 129.500081 
z
" style="fill:#2d708e;"/>
    <path clip-path="url(#p311a2fde34)" d="M 153.079264 106.314407 
C 154.823852 106.314407 156.497221 105.621275 157.730831 104.387665 
C 158.964441 103.154055 159.657573 101.480685 159.657573 99.736097 
C 159.657573 97.991509 158.964441 96.31814 157.730831 95.08453 
C 156.497221 93.85092 154.823852 93.157788 153.079264 93.157788 
C 151.334676 93.157788 149.661307 93.85092 148.427697 95.08453 
C 147.194087 96.31814 146.500955 97.991509 146.500955 99.736097 
C 146.500955 101.480685 147.194087 103.154055 148.427697 104.387665 
C 149.661307 105.621275 151.334676 106.314407 153.079264 106.314407 
z
" style="fill:#34608d;"/>
    <path clip-path="url(#p311a2fde34)" d="M 235.139502 61.012159 
C 236.944936 61.012159 238.676667 60.294852 239.953302 59.018217 
C 241.229937 57.741583 241.947243 56.009852 241.947243 54.204418 
C 241.947243 52.398984 241.229937 50.667253 239.953302 49.390618 
C 238.676667 48.113984 236.944936 47.396677 235.139502 47.396677 
C 233.334068 47.396677 231.602337 48.113984 230.325703 49.390618 
C 229.049068 50.667253 228.331762 52.398984 228.331762 54.204418 
C 228.331762 56.009852 229.049068 57.741583 230.325703 59.018217 
C 231.602337 60.294852 233.334068 61.012159 235.139502 61.012159 
z
" style="fill:#228d8d;"/>
    <path clip-path="url(#p311a2fde34)" d="M 202.403518 217.45204 
C 204.105759 217.45204 205.73851 216.775733 206.942177 215.572066 
C 208.145843 214.3684 208.822151 212.735649 208.822151 211.033407 
C 208.822151 209.331166 208.145843 207.698414 206.942177 206.494748 
C 205.73851 205.291081 204.105759 204.614774 202.403518 204.614774 
C 200.701276 204.614774 199.068525 205.291081 197.864859 206.494748 
C 196.661192 207.698414 195.984884 209.331166 195.984884 211.033407 
C 195.984884 212.735649 196.661192 214.3684 197.864859 215.572066 
C 199.068525 216.775733 200.701276 217.45204 202.403518 217.45204 
z
" style="fill:#470e61;"/>
    <path clip-path="url(#p311a2fde34)" d="M 314.830104 102.473248 
C 316.664646 102.473248 318.424296 101.744377 319.721513 100.44716 
C 321.01873 99.149944 321.747601 97.390293 321.747601 95.555751 
C 321.747601 93.72121 321.01873 91.961559 319.721513 90.664342 
C 318.424296 89.367125 316.664646 88.638254 314.830104 88.638254 
C 312.995563 88.638254 311.235912 89.367125 309.938695 90.664342 
C 308.641478 91.961559 307.912607 93.72121 307.912607 95.555751 
C 307.912607 97.390293 308.641478 99.149944 309.938695 100.44716 
C 311.235912 101.744377 312.995563 102.473248 314.830104 102.473248 
z
" style="fill:#2e6e8e;"/>
    <path clip-path="url(#p311a2fde34)" d="M 140.083443 269.157767 
C 141.869854 269.157767 143.583339 268.448019 144.846522 267.184835 
C 146.109705 265.921652 146.819454 264.208167 146.819454 262.421756 
C 146.819454 260.635345 146.109705 258.92186 144.846522 257.658677 
C 143.583339 256.395494 141.869854 255.685745 140.083443 255.685745 
C 138.297032 255.685745 136.583547 256.395494 135.320364 257.658677 
C 134.05718 258.92186 133.347432 260.635345 133.347432 262.421756 
C 133.347432 264.208167 134.05718 265.921652 135.320364 267.184835 
C 136.583547 268.448019 138.297032 269.157767 140.083443 269.157767 
z
" style="fill:#2f6c8e;"/>
   </g>
   <g id="text_1">
    <!-- Structure #7792, $E_N$=-181.61eV, ΔE=0.22eV -->
    <defs>
     <path d="M 53.515625 70.515625 
L 53.515625 60.890625 
Q 47.90625 63.578125 42.921875 64.890625 
Q 37.9375 66.21875 33.296875 66.21875 
Q 25.25 66.21875 20.875 63.09375 
Q 16.5 59.96875 16.5 54.203125 
Q 16.5 49.359375 19.40625 46.890625 
Q 22.3125 44.4375 30.421875 42.921875 
L 36.375 41.703125 
Q 47.40625 39.59375 52.65625 34.296875 
Q 57.90625 29 57.90625 20.125 
Q 57.90625 9.515625 50.796875 4.046875 
Q 43.703125 -1.421875 29.984375 -1.421875 
Q 24.8125 -1.421875 18.96875 -0.25 
Q 13.140625 0.921875 6.890625 3.21875 
L 6.890625 13.375 
Q 12.890625 10.015625 18.65625 8.296875 
Q 24.421875 6.59375 29.984375 6.59375 
Q 38.421875 6.59375 43.015625 9.90625 
Q 47.609375 13.234375 47.609375 19.390625 
Q 47.609375 24.75 44.3125 27.78125 
Q 41.015625 30.8125 33.5 32.328125 
L 27.484375 33.5 
Q 16.453125 35.6875 11.515625 40.375 
Q 6.59375 45.0625 6.59375 53.421875 
Q 6.59375 63.09375 13.40625 68.65625 
Q 20.21875 74.21875 32.171875 74.21875 
Q 37.3125 74.21875 42.625 73.28125 
Q 47.953125 72.359375 53.515625 70.515625 
z
" id="DejaVuSans-53"/>
     <path d="M 18.3125 70.21875 
L 18.3125 54.6875 
L 36.8125 54.6875 
L 36.8125 47.703125 
L 18.3125 47.703125 
L 18.3125 18.015625 
Q 18.3125 11.328125 20.140625 9.421875 
Q 21.96875 7.515625 27.59375 7.515625 
L 36.8125 7.515625 
L 36.8125 0 
L 27.59375 0 
Q 17.1875 0 13.234375 3.875 
Q 9.28125 7.765625 9.28125 18.015625 
L 9.28125 47.703125 
L 2.6875 47.703125 
L 2.6875 54.6875 
L 9.28125 54.6875 
L 9.28125 70.21875 
z
" id="DejaVuSans-74"/>
     <path d="M 41.109375 46.296875 
Q 39.59375 47.171875 37.8125 47.578125 
Q 36.03125 48 33.890625 48 
Q 26.265625 48 22.1875 43.046875 
Q 18.109375 38.09375 18.109375 28.8125 
L 18.109375 0 
L 9.078125 0 
L 9.078125 54.6875 
L 18.109375 54.6875 
L 18.109375 46.1875 
Q 20.953125 51.171875 25.484375 53.578125 
Q 30.03125 56 36.53125 56 
Q 37.453125 56 38.578125 55.875 
Q 39.703125 55.765625 41.0625 55.515625 
z
" id="DejaVuSans-72"/>
     <path d="M 8.5 21.578125 
L 8.5 54.6875 
L 17.484375 54.6875 
L 17.484375 21.921875 
Q 17.484375 14.15625 20.5 10.265625 
Q 23.53125 6.390625 29.59375 6.390625 
Q 36.859375 6.390625 41.078125 11.03125 
Q 45.3125 15.671875 45.3125 23.6875 
L 45.3125 54.6875 
L 54.296875 54.6875 
L 54.296875 0 
L 45.3125 0 
L 45.3125 8.40625 
Q 42.046875 3.421875 37.71875 1 
Q 33.40625 -1.421875 27.6875 -1.421875 
Q 18.265625 -1.421875 13.375 4.4375 
Q 8.5 10.296875 8.5 21.578125 
z
M 31.109375 56 
z
" id="DejaVuSans-75"/>
     <path d="M 48.78125 52.59375 
L 48.78125 44.1875 
Q 44.96875 46.296875 41.140625 47.34375 
Q 37.3125 48.390625 33.40625 48.390625 
Q 24.65625 48.390625 19.8125 42.84375 
Q 14.984375 37.3125 14.984375 27.296875 
Q 14.984375 17.28125 19.8125 11.734375 
Q 24.65625 6.203125 33.40625 6.203125 
Q 37.3125 6.203125 41.140625 7.25 
Q 44.96875 8.296875 48.78125 10.40625 
L 48.78125 2.09375 
Q 45.015625 0.34375 40.984375 -0.53125 
Q 36.96875 -1.421875 32.421875 -1.421875 
Q 20.0625 -1.421875 12.78125 6.34375 
Q 5.515625 14.109375 5.515625 27.296875 
Q 5.515625 40.671875 12.859375 48.328125 
Q 20.21875 56 33.015625 56 
Q 37.15625 56 41.109375 55.140625 
Q 45.0625 54.296875 48.78125 52.59375 
z
" id="DejaVuSans-63"/>
     <path d="M 56.203125 29.59375 
L 56.203125 25.203125 
L 14.890625 25.203125 
Q 15.484375 15.921875 20.484375 11.0625 
Q 25.484375 6.203125 34.421875 6.203125 
Q 39.59375 6.203125 44.453125 7.46875 
Q 49.3125 8.734375 54.109375 11.28125 
L 54.109375 2.78125 
Q 49.265625 0.734375 44.1875 -0.34375 
Q 39.109375 -1.421875 33.890625 -1.421875 
Q 20.796875 -1.421875 13.15625 6.1875 
Q 5.515625 13.8125 5.515625 26.8125 
Q 5.515625 40.234375 12.765625 48.109375 
Q 20.015625 56 32.328125 56 
Q 43.359375 56 49.78125 48.890625 
Q 56.203125 41.796875 56.203125 29.59375 
z
M 47.21875 32.234375 
Q 47.125 39.59375 43.09375 43.984375 
Q 39.0625 48.390625 32.421875 48.390625 
Q 24.90625 48.390625 20.390625 44.140625 
Q 15.875 39.890625 15.1875 32.171875 
z
" id="DejaVuSans-65"/>
     <path id="DejaVuSans-20"/>
     <path d="M 51.125 44 
L 36.921875 44 
L 32.8125 27.6875 
L 47.125 27.6875 
z
M 43.796875 71.78125 
L 38.71875 51.515625 
L 52.984375 51.515625 
L 58.109375 71.78125 
L 65.921875 71.78125 
L 60.890625 51.515625 
L 76.125 51.515625 
L 76.125 44 
L 58.984375 44 
L 54.984375 27.6875 
L 70.515625 27.6875 
L 70.515625 20.21875 
L 53.078125 20.21875 
L 48 0 
L 40.1875 0 
L 45.21875 20.21875 
L 30.90625 20.21875 
L 25.875 0 
L 18.015625 0 
L 23.09375 20.21875 
L 7.71875 20.21875 
L 7.71875 27.6875 
L 24.90625 27.6875 
L 29 44 
L 13.28125 44 
L 13.28125 51.515625 
L 30.90625 51.515625 
L 35.890625 71.78125 
z
" id="DejaVuSans-23"/>
     <path d="M 8.203125 72.90625 
L 55.078125 72.90625 
L 55.078125 68.703125 
L 28.609375 0 
L 18.3125 0 
L 43.21875 64.59375 
L 8.203125 64.59375 
z
" id="DejaVuSans-37"/>
     <path d="M 10.984375 1.515625 
L 10.984375 10.5 
Q 14.703125 8.734375 18.5 7.8125 
Q 22.3125 6.890625 25.984375 6.890625 
Q 35.75 6.890625 40.890625 13.453125 
Q 46.046875 20.015625 46.78125 33.40625 
Q 43.953125 29.203125 39.59375 26.953125 
Q 35.25 24.703125 29.984375 24.703125 
Q 19.046875 24.703125 12.671875 31.3125 
Q 6.296875 37.9375 6.296875 49.421875 
Q 6.296875 60.640625 12.9375 67.421875 
Q 19.578125 74.21875 30.609375 74.21875 
Q 43.265625 74.21875 49.921875 64.515625 
Q 56.59375 54.828125 56.59375 36.375 
Q 56.59375 19.140625 48.40625 8.859375 
Q 40.234375 -1.421875 26.421875 -1.421875 
Q 22.703125 -1.421875 18.890625 -0.6875 
Q 15.09375 0.046875 10.984375 1.515625 
z
M 30.609375 32.421875 
Q 37.25 32.421875 41.125 36.953125 
Q 45.015625 41.5 45.015625 49.421875 
Q 45.015625 57.28125 41.125 61.84375 
Q 37.25 66.40625 30.609375 66.40625 
Q 23.96875 66.40625 20.09375 61.84375 
Q 16.21875 57.28125 16.21875 49.421875 
Q 16.21875 41.5 20.09375 36.953125 
Q 23.96875 32.421875 30.609375 32.421875 
z
" id="DejaVuSans-39"/>
     <path d="M 19.1875 8.296875 
L 53.609375 8.296875 
L 53.609375 0 
L 7.328125 0 
L 7.328125 8.296875 
Q 12.9375 14.109375 22.625 23.890625 
Q 32.328125 33.6875 34.8125 36.53125 
Q 39.546875 41.84375 41.421875 45.53125 
Q 43.3125 49.21875 43.3125 52.78125 
Q 43.3125 58.59375 39.234375 62.25 
Q 35.15625 65.921875 28.609375 65.921875 
Q 23.96875 65.921875 18.8125 64.3125 
Q 13.671875 62.703125 7.8125 59.421875 
L 7.8125 69.390625 
Q 13.765625 71.78125 18.9375 73 
Q 24.125 74.21875 28.421875 74.21875 
Q 39.75 74.21875 46.484375 68.546875 
Q 53.21875 62.890625 53.21875 53.421875 
Q 53.21875 48.921875 51.53125 44.890625 
Q 49.859375 40.875 45.40625 35.40625 
Q 44.1875 33.984375 37.640625 27.21875 
Q 31.109375 20.453125 19.1875 8.296875 
z
" id="DejaVuSans-32"/>
     <path d="M 11.71875 12.40625 
L 22.015625 12.40625 
L 22.015625 4 
L 14.015625 -11.625 
L 7.71875 -11.625 
L 11.71875 4 
z
" id="DejaVuSans-2c"/>
     <path d="M 16.890625 72.90625 
L 62.984375 72.90625 
L 61.375 64.59375 
L 25.09375 64.59375 
L 20.90625 43.015625 
L 55.71875 43.015625 
L 54.109375 34.71875 
L 19.28125 34.71875 
L 14.203125 8.296875 
L 51.3125 8.296875 
L 49.703125 0 
L 2.6875 0 
z
" id="DejaVuSans-Oblique-45"/>
     <path d="M 16.890625 72.90625 
L 30.171875 72.90625 
L 50.296875 10.40625 
L 62.5 72.90625 
L 72.125 72.90625 
L 57.90625 0 
L 44.578125 0 
L 24.515625 62.890625 
L 12.3125 0 
L 2.6875 0 
z
" id="DejaVuSans-Oblique-4e"/>
     <path d="M 10.59375 45.40625 
L 73.1875 45.40625 
L 73.1875 37.203125 
L 10.59375 37.203125 
z
M 10.59375 25.484375 
L 73.1875 25.484375 
L 73.1875 17.1875 
L 10.59375 17.1875 
z
" id="DejaVuSans-3d"/>
     <path d="M 4.890625 31.390625 
L 31.203125 31.390625 
L 31.203125 23.390625 
L 4.890625 23.390625 
z
" id="DejaVuSans-2d"/>
     <path d="M 12.40625 8.296875 
L 28.515625 8.296875 
L 28.515625 63.921875 
L 10.984375 60.40625 
L 10.984375 69.390625 
L 28.421875 72.90625 
L 38.28125 72.90625 
L 38.28125 8.296875 
L 54.390625 8.296875 
L 54.390625 0 
L 12.40625 0 
z
" id="DejaVuSans-31"/>
     <path d="M 31.78125 34.625 
Q 24.75 34.625 20.71875 30.859375 
Q 16.703125 27.09375 16.703125 20.515625 
Q 16.703125 13.921875 20.71875 10.15625 
Q 24.75 6.390625 31.78125 6.390625 
Q 38.8125 6.390625 42.859375 10.171875 
Q 46.921875 13.96875 46.921875 20.515625 
Q 46.921875 27.09375 42.890625 30.859375 
Q 38.875 34.625 31.78125 34.625 
z
M 21.921875 38.8125 
Q 15.578125 40.375 12.03125 44.71875 
Q 8.5 49.078125 8.5 55.328125 
Q 8.5 64.0625 14.71875 69.140625 
Q 20.953125 74.21875 31.78125 74.21875 
Q 42.671875 74.21875 48.875 69.140625 
Q 55.078125 64.0625 55.078125 55.328125 
Q 55.078125 49.078125 51.53125 44.71875 
Q 48 40.375 41.703125 38.8125 
Q 48.828125 37.15625 52.796875 32.3125 
Q 56.78125 27.484375 56.78125 20.515625 
Q 56.78125 9.90625 50.3125 4.234375 
Q 43.84375 -1.421875 31.78125 -1.421875 
Q 19.734375 -1.421875 13.25 4.234375 
Q 6.78125 9.90625 6.78125 20.515625 
Q 6.78125 27.484375 10.78125 32.3125 
Q 14.796875 37.15625 21.921875 38.8125 
z
M 18.3125 54.390625 
Q 18.3125 48.734375 21.84375 45.5625 
Q 25.390625 42.390625 31.78125 42.390625 
Q 38.140625 42.390625 41.71875 45.5625 
Q 45.3125 48.734375 45.3125 54.390625 
Q 45.3125 60.0625 41.71875 63.234375 
Q 38.140625 66.40625 31.78125 66.40625 
Q 25.390625 66.40625 21.84375 63.234375 
Q 18.3125 60.0625 18.3125 54.390625 
z
" id="DejaVuSans-38"/>
     <path d="M 10.6875 12.40625 
L 21 12.40625 
L 21 0 
L 10.6875 0 
z
" id="DejaVuSans-2e"/>
     <path d="M 33.015625 40.375 
Q 26.375 40.375 22.484375 35.828125 
Q 18.609375 31.296875 18.609375 23.390625 
Q 18.609375 15.53125 22.484375 10.953125 
Q 26.375 6.390625 33.015625 6.390625 
Q 39.65625 6.390625 43.53125 10.953125 
Q 47.40625 15.53125 47.40625 23.390625 
Q 47.40625 31.296875 43.53125 35.828125 
Q 39.65625 40.375 33.015625 40.375 
z
M 52.59375 71.296875 
L 52.59375 62.3125 
Q 48.875 64.0625 45.09375 64.984375 
Q 41.3125 65.921875 37.59375 65.921875 
Q 27.828125 65.921875 22.671875 59.328125 
Q 17.53125 52.734375 16.796875 39.40625 
Q 19.671875 43.65625 24.015625 45.921875 
Q 28.375 48.1875 33.59375 48.1875 
Q 44.578125 48.1875 50.953125 41.515625 
Q 57.328125 34.859375 57.328125 23.390625 
Q 57.328125 12.15625 50.6875 5.359375 
Q 44.046875 -1.421875 33.015625 -1.421875 
Q 20.359375 -1.421875 13.671875 8.265625 
Q 6.984375 17.96875 6.984375 36.375 
Q 6.984375 53.65625 15.1875 63.9375 
Q 23.390625 74.21875 37.203125 74.21875 
Q 40.921875 74.21875 44.703125 73.484375 
Q 48.484375 72.75 52.59375 71.296875 
z
" id="DejaVuSans-36"/>
     <path d="M 28.609375 0 
L 0.78125 72.90625 
L 11.078125 72.90625 
L 34.1875 11.53125 
L 57.328125 72.90625 
L 67.578125 72.90625 
L 39.796875 0 
z
" id="DejaVuSans-56"/>
     <path d="M 34.1875 63.1875 
L 14.15625 8.203125 
L 54.25 8.203125 
z
M 0.78125 0 
L 28.609375 72.90625 
L 39.796875 72.90625 
L 67.578125 0 
z
" id="DejaVuSans-394"/>
     <path d="M 9.8125 72.90625 
L 55.90625 72.90625 
L 55.90625 64.59375 
L 19.671875 64.59375 
L 19.671875 43.015625 
L 54.390625 43.015625 
L 54.390625 34.71875 
L 19.671875 34.71875 
L 19.671875 8.296875 
L 56.78125 8.296875 
L 56.78125 0 
L 9.8125 0 
z
" id="DejaVuSans-45"/>
     <path d="M 31.78125 66.40625 
Q 24.171875 66.40625 20.328125 58.90625 
Q 16.5 51.421875 16.5 36.375 
Q 16.5 21.390625 20.328125 13.890625 
Q 24.171875 6.390625 31.78125 6.390625 
Q 39.453125 6.390625 43.28125 13.890625 
Q 47.125 21.390625 47.125 36.375 
Q 47.125 51.421875 43.28125 58.90625 
Q 39.453125 66.40625 31.78125 66.40625 
z
M 31.78125 74.21875 
Q 44.046875 74.21875 50.515625 64.515625 
Q 56.984375 54.828125 56.984375 36.375 
Q 56.984375 17.96875 50.515625 8.265625 
Q 44.046875 -1.421875 31.78125 -1.421875 
Q 19.53125 -1.421875 13.0625 8.265625 
Q 6.59375 17.96875 6.59375 36.375 
Q 6.59375 54.828125 13.0625 64.515625 
Q 19.53125 74.21875 31.78125 74.21875 
z
" id="DejaVuSans-30"/>
    </defs>
    <g transform="translate(65.388 35.472)scale(0.12 -0.12)">
     <use transform="translate(0 0.78125)" xlink:href="#DejaVuSans-53"/>
     <use transform="translate(63.476562 0.78125)" xlink:href="#DejaVuSans-74"/>
     <use transform="translate(102.685547 0.78125)" xlink:href="#DejaVuSans-72"/>
     <use transform="translate(143.798828 0.78125)" xlink:href="#DejaVuSans-75"/>
     <use transform="translate(207.177734 0.78125)" xlink:href="#DejaVuSans-63"/>
     <use transform="translate(262.158203 0.78125)" xlink:href="#DejaVuSans-74"/>
     <use transform="translate(301.367188 0.78125)" xlink:href="#DejaVuSans-75"/>
     <use transform="translate(364.746094 0.78125)" xlink:href="#DejaVuSans-72"/>
     <use transform="translate(405.859375 0.78125)" xlink:href="#DejaVuSans-65"/>
     <use transform="translate(467.382812 0.78125)" xlink:href="#DejaVuSans-20"/>
     <use transform="translate(499.169922 0.78125)" xlink:href="#DejaVuSans-23"/>
     <use transform="translate(582.958984 0.78125)" xlink:href="#DejaVuSans-37"/>
     <use transform="translate(646.566406 0.78125)" xlink:href="#DejaVuSans-37"/>
     <use transform="translate(710.189453 0.78125)" xlink:href="#DejaVuSans-39"/>
     <use transform="translate(773.796875 0.78125)" xlink:href="#DejaVuSans-32"/>
     <use transform="translate(837.419922 0.78125)" xlink:href="#DejaVuSans-2c"/>
     <use transform="translate(869.207031 0.78125)" xlink:href="#DejaVuSans-20"/>
     <use transform="translate(900.994141 0.78125)" xlink:href="#DejaVuSans-Oblique-45"/>
     <use transform="translate(964.177734 -15.625)scale(0.7)" xlink:href="#DejaVuSans-Oblique-4e"/>
     <use transform="translate(1019.275391 0.78125)" xlink:href="#DejaVuSans-3d"/>
     <use transform="translate(1103.064453 0.78125)" xlink:href="#DejaVuSans-2d"/>
     <use transform="translate(1139.148438 0.78125)" xlink:href="#DejaVuSans-31"/>
     <use transform="translate(1202.771484 0.78125)" xlink:href="#DejaVuSans-38"/>
     <use transform="translate(1266.394531 0.78125)" xlink:href="#DejaVuSans-31"/>
     <use transform="translate(1330.017578 0.78125)" xlink:href="#DejaVuSans-2e"/>
     <use transform="translate(1361.804688 0.78125)" xlink:href="#DejaVuSans-36"/>
     <use transform="translate(1425.427734 0.78125)" xlink:href="#DejaVuSans-31"/>
     <use transform="translate(1489.050781 0.78125)" xlink:href="#DejaVuSans-65"/>
     <use transform="translate(1550.574219 0.78125)" xlink:href="#DejaVuSans-56"/>
     <use transform="translate(1618.982422 0.78125)" xlink:href="#DejaVuSans-2c"/>
     <use transform="translate(1650.769531 0.78125)" xlink:href="#DejaVuSans-20"/>
     <use transform="translate(1682.556641 0.78125)" xlink:href="#DejaVuSans-394"/>
     <use transform="translate(1750.964844 0.78125)" xlink:href="#DejaVuSans-45"/>
     <use transform="translate(1814.148438 0.78125)" xlink:href="#DejaVuSans-3d"/>
     <use transform="translate(1897.9375 0.78125)" xlink:href="#DejaVuSans-30"/>
     <use transform="translate(1961.560547 0.78125)" xlink:href="#DejaVuSans-2e"/>
     <use transform="translate(1993.269531 0.78125)" xlink:href="#DejaVuSans-32"/>
     <use transform="translate(2056.892578 0.78125)" xlink:href="#DejaVuSans-32"/>
     <use transform="translate(2120.515625 0.78125)" xlink:href="#DejaVuSans-65"/>
     <use transform="translate(2182.039062 0.78125)" xlink:href="#DejaVuSans-56"/>
    </g>
   </g>
  </g>
  <g id="axes_2">
   <g id="patch_2">
    <path clip-path="url(#p8b31b7c578)" d="M 361.152 307.584 
L 361.152 306.5445 
L 361.152 42.5115 
L 361.152 41.472 
L 374.4576 41.472 
L 374.4576 42.5115 
L 374.4576 306.5445 
L 374.4576 307.584 
z
" style="fill:#ffffff;stroke:#ffffff;stroke-linejoin:miter;stroke-width:0.01;"/>
   </g>
   <image height="265.68" id="image5a22eb3d82" transform="scale(1 -1)translate(0 -265.68)" width="12.96" x="361.44" xlink:href="data:image/png;base64,
iVBORw0KGgoAAAANSUhEUgAAABIAAAFxCAYAAAB+2fgXAAAABHNCSVQICAgIfAhkiAAAAeVJREFUeJztncmNw0AQA2ckheYQNv9QLIfQ8ygsCgQ7AEI8+jAs2Puz/94F1LP2ReCsZ18bAWIeZ5XaGRBE7VnbptG+KI101FYyNSiQG2oRITXKNaX9uclOdi2XWjftVE32CZCO2ou5Bj1TcCBr/1zB9ge7Fq0Rg2NM9pvbtG+ua1QgsRYhDy0ISEiNc40BEibbSI0Coj5CBGtkpFbXJiAjNZlrwhuSOv2M1DjXbEdEciBt1JSDDQKKpmZr2rr2j0DBGpXaWEJq3bQzEPIS26r9J+Wzv9Tm8o3aajRXqc3VUXsApKNWjeZq0x4ABVNbm7lrszVigDqP5vIl2+eaT2yfRkL7g+dRcNPqjohkjaCvRVBq0H2U3LQrOJCx9kdTg4B8oxZzzTdqdYHEngjUCAPyUctN9sVRq2sTECW2UKNLd2jVtRmo1A6AhMmWaSRcR8nUdIHUuVb75zJS218EyEitro1At69pIdeSk30Lkw0FktNImGyZRhy1O5galmxd03LUsHWk06jUZiCq+5Wb1kZNN4+wJxJuWt8RAW5am2sYNZ9rYCBzZ3buPKJ2P5Yj4Toy3keyIyJbIxs1rml1byCA84gpch5RQNB7Q0qNMGq2Hy4BXdNR41yz/cEEJfZzUz96r9PoB0okjeQ8y9TkAAAAAElFTkSuQmCC" y="-41.76"/>
   <g id="matplotlib.axis_1"/>
   <g id="matplotlib.axis_2">
    <g id="ytick_1">
     <g id="line2d_1">
      <defs>
       <path d="M 0 0 
L 3.5 0 
" id="m5567787ab6" style="stroke:#000000;stroke-width:0.8;"/>
      </defs>
      <g>
       <use style="stroke:#000000;stroke-width:0.8;" x="374.4576" xlink:href="#m5567787ab6" y="257.506398"/>
      </g>
     </g>
     <g id="text_2">
      <!-- −8.0 -->
      <defs>
       <path d="M 10.59375 35.5 
L 73.1875 35.5 
L 73.1875 27.203125 
L 10.59375 27.203125 
z
" id="DejaVuSans-2212"/>
      </defs>
      <g transform="translate(381.4576 261.305616)scale(0.1 -0.1)">
       <use xlink:href="#DejaVuSans-2212"/>
       <use x="83.789062" xlink:href="#DejaVuSans-38"/>
       <use x="147.412109" xlink:href="#DejaVuSans-2e"/>
       <use x="179.199219" xlink:href="#DejaVuSans-30"/>
      </g>
     </g>
    </g>
    <g id="ytick_2">
     <g id="line2d_2">
      <g>
       <use style="stroke:#000000;stroke-width:0.8;" x="374.4576" xlink:href="#m5567787ab6" y="205.658633"/>
      </g>
     </g>
     <g id="text_3">
      <!-- −7.5 -->
      <defs>
       <path d="M 10.796875 72.90625 
L 49.515625 72.90625 
L 49.515625 64.59375 
L 19.828125 64.59375 
L 19.828125 46.734375 
Q 21.96875 47.46875 24.109375 47.828125 
Q 26.265625 48.1875 28.421875 48.1875 
Q 40.625 48.1875 47.75 41.5 
Q 54.890625 34.8125 54.890625 23.390625 
Q 54.890625 11.625 47.5625 5.09375 
Q 40.234375 -1.421875 26.90625 -1.421875 
Q 22.3125 -1.421875 17.546875 -0.640625 
Q 12.796875 0.140625 7.71875 1.703125 
L 7.71875 11.625 
Q 12.109375 9.234375 16.796875 8.0625 
Q 21.484375 6.890625 26.703125 6.890625 
Q 35.15625 6.890625 40.078125 11.328125 
Q 45.015625 15.765625 45.015625 23.390625 
Q 45.015625 31 40.078125 35.4375 
Q 35.15625 39.890625 26.703125 39.890625 
Q 22.75 39.890625 18.8125 39.015625 
Q 14.890625 38.140625 10.796875 36.28125 
z
" id="DejaVuSans-35"/>
      </defs>
      <g transform="translate(381.4576 209.457851)scale(0.1 -0.1)">
       <use xlink:href="#DejaVuSans-2212"/>
       <use x="83.789062" xlink:href="#DejaVuSans-37"/>
       <use x="147.412109" xlink:href="#DejaVuSans-2e"/>
       <use x="179.199219" xlink:href="#DejaVuSans-35"/>
      </g>
     </g>
    </g>
    <g id="ytick_3">
     <g id="line2d_3">
      <g>
       <use style="stroke:#000000;stroke-width:0.8;" x="374.4576" xlink:href="#m5567787ab6" y="153.810868"/>
      </g>
     </g>
     <g id="text_4">
      <!-- −7.0 -->
      <g transform="translate(381.4576 157.610087)scale(0.1 -0.1)">
       <use xlink:href="#DejaVuSans-2212"/>
       <use x="83.789062" xlink:href="#DejaVuSans-37"/>
       <use x="147.412109" xlink:href="#DejaVuSans-2e"/>
       <use x="179.199219" xlink:href="#DejaVuSans-30"/>
      </g>
     </g>
    </g>
    <g id="ytick_4">
     <g id="line2d_4">
      <g>
       <use style="stroke:#000000;stroke-width:0.8;" x="374.4576" xlink:href="#m5567787ab6" y="101.963103"/>
      </g>
     </g>
     <g id="text_5">
      <!-- −6.5 -->
      <g transform="translate(381.4576 105.762322)scale(0.1 -0.1)">
       <use xlink:href="#DejaVuSans-2212"/>
       <use x="83.789062" xlink:href="#DejaVuSans-36"/>
       <use x="147.412109" xlink:href="#DejaVuSans-2e"/>
       <use x="179.199219" xlink:href="#DejaVuSans-35"/>
      </g>
     </g>
    </g>
    <g id="ytick_5">
     <g id="line2d_5">
      <g>
       <use style="stroke:#000000;stroke-width:0.8;" x="374.4576" xlink:href="#m5567787ab6" y="50.115338"/>
      </g>
     </g>
     <g id="text_6">
      <!-- −6.0 -->
      <g transform="translate(381.4576 53.914557)scale(0.1 -0.1)">
       <use xlink:href="#DejaVuSans-2212"/>
       <use x="83.789062" xlink:href="#DejaVuSans-36"/>
       <use x="147.412109" xlink:href="#DejaVuSans-2e"/>
       <use x="179.199219" xlink:href="#DejaVuSans-30"/>
      </g>
     </g>
    </g>
    <g id="text_7">
     <!-- Energy [eV] -->
     <defs>
      <path d="M 54.890625 33.015625 
L 54.890625 0 
L 45.90625 0 
L 45.90625 32.71875 
Q 45.90625 40.484375 42.875 44.328125 
Q 39.84375 48.1875 33.796875 48.1875 
Q 26.515625 48.1875 22.3125 43.546875 
Q 18.109375 38.921875 18.109375 30.90625 
L 18.109375 0 
L 9.078125 0 
L 9.078125 54.6875 
L 18.109375 54.6875 
L 18.109375 46.1875 
Q 21.34375 51.125 25.703125 53.5625 
Q 30.078125 56 35.796875 56 
Q 45.21875 56 50.046875 50.171875 
Q 54.890625 44.34375 54.890625 33.015625 
z
" id="DejaVuSans-6e"/>
      <path d="M 45.40625 27.984375 
Q 45.40625 37.75 41.375 43.109375 
Q 37.359375 48.484375 30.078125 48.484375 
Q 22.859375 48.484375 18.828125 43.109375 
Q 14.796875 37.75 14.796875 27.984375 
Q 14.796875 18.265625 18.828125 12.890625 
Q 22.859375 7.515625 30.078125 7.515625 
Q 37.359375 7.515625 41.375 12.890625 
Q 45.40625 18.265625 45.40625 27.984375 
z
M 54.390625 6.78125 
Q 54.390625 -7.171875 48.1875 -13.984375 
Q 42 -20.796875 29.203125 -20.796875 
Q 24.46875 -20.796875 20.265625 -20.09375 
Q 16.0625 -19.390625 12.109375 -17.921875 
L 12.109375 -9.1875 
Q 16.0625 -11.328125 19.921875 -12.34375 
Q 23.78125 -13.375 27.78125 -13.375 
Q 36.625 -13.375 41.015625 -8.765625 
Q 45.40625 -4.15625 45.40625 5.171875 
L 45.40625 9.625 
Q 42.625 4.78125 38.28125 2.390625 
Q 33.9375 0 27.875 0 
Q 17.828125 0 11.671875 7.65625 
Q 5.515625 15.328125 5.515625 27.984375 
Q 5.515625 40.671875 11.671875 48.328125 
Q 17.828125 56 27.875 56 
Q 33.9375 56 38.28125 53.609375 
Q 42.625 51.21875 45.40625 46.390625 
L 45.40625 54.6875 
L 54.390625 54.6875 
z
" id="DejaVuSans-67"/>
      <path d="M 32.171875 -5.078125 
Q 28.375 -14.84375 24.75 -17.8125 
Q 21.140625 -20.796875 15.09375 -20.796875 
L 7.90625 -20.796875 
L 7.90625 -13.28125 
L 13.1875 -13.28125 
Q 16.890625 -13.28125 18.9375 -11.515625 
Q 21 -9.765625 23.484375 -3.21875 
L 25.09375 0.875 
L 2.984375 54.6875 
L 12.5 54.6875 
L 29.59375 11.921875 
L 46.6875 54.6875 
L 56.203125 54.6875 
z
" id="DejaVuSans-79"/>
      <path d="M 8.59375 75.984375 
L 29.296875 75.984375 
L 29.296875 69 
L 17.578125 69 
L 17.578125 -6.203125 
L 29.296875 -6.203125 
L 29.296875 -13.1875 
L 8.59375 -13.1875 
z
" id="DejaVuSans-5b"/>
      <path d="M 30.421875 75.984375 
L 30.421875 -13.1875 
L 9.71875 -13.1875 
L 9.71875 -6.203125 
L 21.390625 -6.203125 
L 21.390625 69 
L 9.71875 69 
L 9.71875 75.984375 
z
" id="DejaVuSans-5d"/>
     </defs>
     <g transform="translate(417.33885 204.108469)rotate(-90)scale(0.1 -0.1)">
      <use xlink:href="#DejaVuSans-45"/>
      <use x="63.183594" xlink:href="#DejaVuSans-6e"/>
      <use x="126.5625" xlink:href="#DejaVuSans-65"/>
      <use x="188.085938" xlink:href="#DejaVuSans-72"/>
      <use x="229.183594" xlink:href="#DejaVuSans-67"/>
      <use x="292.660156" xlink:href="#DejaVuSans-79"/>
      <use x="351.839844" xlink:href="#DejaVuSans-20"/>
      <use x="383.626953" xlink:href="#DejaVuSans-5b"/>
      <use x="422.640625" xlink:href="#DejaVuSans-65"/>
      <use x="484.164062" xlink:href="#DejaVuSans-56"/>
      <use x="552.572266" xlink:href="#DejaVuSans-5d"/>
     </g>
    </g>
   </g>
   <g id="patch_3">
    <path d="M 361.152 307.584 
L 361.152 306.5445 
L 361.152 42.5115 
L 361.152 41.472 
L 374.4576 41.472 
L 374.4576 42.5115 
L 374.4576 306.5445 
L 374.4576 307.584 
z
" style="fill:none;stroke:#000000;stroke-linejoin:miter;stroke-width:0.8;"/>
   </g>
  </g>
 </g>
 <defs>
  <clipPath id="p311a2fde34">
   <rect height="266.112" width="285.696" x="57.6" y="41.472"/>
  </clipPath>
  <clipPath id="p8b31b7c578">
   <rect height="266.112" width="13.3056" x="361.152" y="41.472"/>
  </clipPath>
 </defs>
</svg>
