<?xml version="1.0" encoding="utf-8" standalone="no"?>
<!DOCTYPE svg PUBLIC "-//W3C//DTD SVG 1.1//EN"
  "http://www.w3.org/Graphics/SVG/1.1/DTD/svg11.dtd">
<!-- Created with matplotlib (http://matplotlib.org/) -->
<svg height="345.6pt" version="1.1" viewBox="0 0 460.8 345.6" width="460.8pt" xmlns="http://www.w3.org/2000/svg" xmlns:xlink="http://www.w3.org/1999/xlink">
 <defs>
  <style type="text/css">
*{stroke-linecap:butt;stroke-linejoin:round;}
  </style>
 </defs>
 <g id="figure_1">
  <g id="patch_1">
   <path d="M 0 345.6 
L 460.8 345.6 
L 460.8 0 
L 0 0 
z
" style="fill:#ffffff;"/>
  </g>
  <g id="axes_1">
   <g id="CircleCollection_1">
    <path clip-path="url(#p9d54224ba6)" d="M 92.278969 283.854946 
C 94.109002 283.854946 95.864328 283.127867 97.158357 281.833838 
C 98.452386 280.539809 99.179466 278.784483 99.179466 276.95445 
C 99.179466 275.124417 98.452386 273.369091 97.158357 272.075062 
C 95.864328 270.781033 94.109002 270.053953 92.278969 270.053953 
C 90.448936 270.053953 88.69361 270.781033 87.399581 272.075062 
C 86.105552 273.369091 85.378472 275.124417 85.378472 276.95445 
C 85.378472 278.784483 86.105552 280.539809 87.399581 281.833838 
C 88.69361 283.127867 90.448936 283.854946 92.278969 283.854946 
z
" style="fill:#2c728e;"/>
    <path clip-path="url(#p9d54224ba6)" d="M 184.263943 235.626286 
C 186.024221 235.626286 187.71264 234.92692 188.957344 233.682216 
C 190.202049 232.437511 190.901415 230.749092 190.901415 228.988814 
C 190.901415 227.228536 190.202049 225.540118 188.957344 224.295413 
C 187.71264 223.050709 186.024221 222.351343 184.263943 222.351343 
C 182.503665 222.351343 180.815246 223.050709 179.570542 224.295413 
C 178.325837 225.540118 177.626471 227.228536 177.626471 228.988814 
C 177.626471 230.749092 178.325837 232.437511 179.570542 233.682216 
C 180.815246 234.92692 182.503665 235.626286 184.263943 235.626286 
z
" style="fill:#2c718e;"/>
    <path clip-path="url(#p9d54224ba6)" d="M 196.369938 197.665285 
C 198.108656 197.665285 199.776395 196.974485 201.005854 195.745025 
C 202.235314 194.515566 202.926114 192.847827 202.926114 191.109109 
C 202.926114 189.37039 202.235314 187.702652 201.005854 186.473192 
C 199.776395 185.243733 198.108656 184.552933 196.369938 184.552933 
C 194.631219 184.552933 192.963481 185.243733 191.734021 186.473192 
C 190.504562 187.702652 189.813762 189.37039 189.813762 191.109109 
C 189.813762 192.847827 190.504562 194.515566 191.734021 195.745025 
C 192.963481 196.974485 194.631219 197.665285 196.369938 197.665285 
z
" style="fill:#453882;"/>
    <path clip-path="url(#p9d54224ba6)" d="M 329.996133 161.813047 
C 331.869642 161.813047 333.666668 161.068695 334.991439 159.743924 
C 336.316209 158.419154 337.060562 156.622127 337.060562 154.748618 
C 337.060562 152.87511 336.316209 151.078083 334.991439 149.753313 
C 333.666668 148.428542 331.869642 147.684189 329.996133 147.684189 
C 328.122625 147.684189 326.325598 148.428542 325.000827 149.753313 
C 323.676057 151.078083 322.931704 152.87511 322.931704 154.748618 
C 322.931704 156.622127 323.676057 158.419154 325.000827 159.743924 
C 326.325598 161.068695 328.122625 161.813047 329.996133 161.813047 
z
" style="fill:#fde725;"/>
    <path clip-path="url(#p9d54224ba6)" d="M 118.502343 301.759803 
C 120.319465 301.759803 122.062407 301.037853 123.347305 299.752954 
C 124.632204 298.468055 125.354154 296.725114 125.354154 294.907992 
C 125.354154 293.090871 124.632204 291.347929 123.347305 290.06303 
C 122.062407 288.778131 120.319465 288.056181 118.502343 288.056181 
C 116.685222 288.056181 114.94228 288.778131 113.657381 290.06303 
C 112.372482 291.347929 111.650532 293.090871 111.650532 294.907992 
C 111.650532 296.725114 112.372482 298.468055 113.657381 299.752954 
C 114.94228 301.037853 116.685222 301.759803 118.502343 301.759803 
z
" style="fill:#32658e;"/>
    <path clip-path="url(#p9d54224ba6)" d="M 252.687542 179.392166 
C 254.459936 179.392166 256.159975 178.687987 257.413247 177.434715 
C 258.666518 176.181444 259.370698 174.481404 259.370698 172.709011 
C 259.370698 170.936617 258.666518 169.236578 257.413247 167.983306 
C 256.159975 166.730035 254.459936 166.025855 252.687542 166.025855 
C 250.915149 166.025855 249.215109 166.730035 247.961838 167.983306 
C 246.708566 169.236578 246.004387 170.936617 246.004387 172.709011 
C 246.004387 174.481404 246.708566 176.181444 247.961838 177.434715 
C 249.215109 178.687987 250.915149 179.392166 252.687542 179.392166 
z
" style="fill:#32658e;"/>
    <path clip-path="url(#p9d54224ba6)" d="M 278.451799 174.314446 
C 280.255672 174.314446 281.985905 173.59776 283.261436 172.32223 
C 284.536966 171.046699 285.253652 169.316466 285.253652 167.512593 
C 285.253652 165.70872 284.536966 163.978487 283.261436 162.702956 
C 281.985905 161.427426 280.255672 160.71074 278.451799 160.71074 
C 276.647927 160.71074 274.917693 161.427426 273.642163 162.702956 
C 272.366632 163.978487 271.649946 165.70872 271.649946 167.512593 
C 271.649946 169.316466 272.366632 171.046699 273.642163 172.32223 
C 274.917693 173.59776 276.647927 174.314446 278.451799 174.314446 
z
" style="fill:#39568c;"/>
    <path clip-path="url(#p9d54224ba6)" d="M 225.260117 173.779623 
C 227.001497 173.779623 228.671789 173.087766 229.90313 171.856424 
C 231.134471 170.625083 231.826329 168.954791 231.826329 167.213411 
C 231.826329 165.472032 231.134471 163.80174 229.90313 162.570398 
C 228.671789 161.339057 227.001497 160.6472 225.260117 160.6472 
C 223.518737 160.6472 221.848446 161.339057 220.617104 162.570398 
C 219.385763 163.80174 218.693905 165.472032 218.693905 167.213411 
C 218.693905 168.954791 219.385763 170.625083 220.617104 171.856424 
C 221.848446 173.087766 223.518737 173.779623 225.260117 173.779623 
z
" style="fill:#404588;"/>
    <path clip-path="url(#p9d54224ba6)" d="M 152.458742 140.633659 
C 154.164482 140.633659 155.800589 139.955961 157.00673 138.749821 
C 158.212871 137.54368 158.890569 135.907573 158.890569 134.201832 
C 158.890569 132.496092 158.212871 130.859984 157.00673 129.653844 
C 155.800589 128.447703 154.164482 127.770005 152.458742 127.770005 
C 150.753001 127.770005 149.116894 128.447703 147.910753 129.653844 
C 146.704612 130.859984 146.026915 132.496092 146.026915 134.201832 
C 146.026915 135.907573 146.704612 137.54368 147.910753 138.749821 
C 149.116894 139.955961 150.753001 140.633659 152.458742 140.633659 
z
" style="fill:#440154;"/>
    <path clip-path="url(#p9d54224ba6)" d="M 210.126913 92.985504 
C 211.817809 92.985504 213.439677 92.313704 214.635321 91.11806 
C 215.830964 89.922416 216.502764 88.300548 216.502764 86.609652 
C 216.502764 84.918757 215.830964 83.296888 214.635321 82.101245 
C 213.439677 80.905601 211.817809 80.233801 210.126913 80.233801 
C 208.436017 80.233801 206.814149 80.905601 205.618505 82.101245 
C 204.422862 83.296888 203.751062 84.918757 203.751062 86.609652 
C 203.751062 88.300548 204.422862 89.922416 205.618505 91.11806 
C 206.814149 92.313704 208.436017 92.985504 210.126913 92.985504 
z
" style="fill:#1e9c89;"/>
    <path clip-path="url(#p9d54224ba6)" d="M 157.564081 60.216313 
C 159.189631 60.216313 160.748822 59.570475 161.898259 58.421038 
C 163.047697 57.271601 163.693535 55.71241 163.693535 54.08686 
C 163.693535 52.46131 163.047697 50.90212 161.898259 49.752682 
C 160.748822 48.603245 159.189631 47.957407 157.564081 47.957407 
C 155.938531 47.957407 154.379341 48.603245 153.229903 49.752682 
C 152.080466 50.90212 151.434628 52.46131 151.434628 54.08686 
C 151.434628 55.71241 152.080466 57.271601 153.229903 58.421038 
C 154.379341 59.570475 155.938531 60.216313 157.564081 60.216313 
z
" style="fill:#4ac16d;"/>
    <path clip-path="url(#p9d54224ba6)" d="M 144.703147 289.400075 
C 146.503136 289.400075 148.229644 288.684932 149.502429 287.412148 
C 150.775213 286.139364 151.490356 284.412856 151.490356 282.612867 
C 151.490356 280.812878 150.775213 279.08637 149.502429 277.813586 
C 148.229644 276.540802 146.503136 275.825658 144.703147 275.825658 
C 142.903159 275.825658 141.176651 276.540802 139.903866 277.813586 
C 138.631082 279.08637 137.915939 280.812878 137.915939 282.612867 
C 137.915939 284.412856 138.631082 286.139364 139.903866 287.412148 
C 141.176651 288.684932 142.903159 289.400075 144.703147 289.400075 
z
" style="fill:#31668e;"/>
    <path clip-path="url(#p9d54224ba6)" d="M 104.78938 162.155489 
C 106.542881 162.155489 108.2248 161.458816 109.464713 160.218903 
C 110.704625 158.97899 111.401299 157.297072 111.401299 155.54357 
C 111.401299 153.790069 110.704625 152.108151 109.464713 150.868238 
C 108.2248 149.628325 106.542881 148.931652 104.78938 148.931652 
C 103.035879 148.931652 101.35396 149.628325 100.114047 150.868238 
C 98.874135 152.108151 98.177461 153.790069 98.177461 155.54357 
C 98.177461 157.297072 98.874135 158.97899 100.114047 160.218903 
C 101.35396 161.458816 103.035879 162.155489 104.78938 162.155489 
z
" style="fill:#433e85;"/>
    <path clip-path="url(#p9d54224ba6)" d="M 155.614155 98.182466 
C 157.284716 98.182466 158.88708 97.518745 160.068345 96.33748 
C 161.24961 95.156215 161.913331 93.553851 161.913331 91.88329 
C 161.913331 90.21273 161.24961 88.610366 160.068345 87.429101 
C 158.88708 86.247836 157.284716 85.584115 155.614155 85.584115 
C 153.943594 85.584115 152.341231 86.247836 151.159966 87.429101 
C 149.978701 88.610366 149.31498 90.21273 149.31498 91.88329 
C 149.31498 93.553851 149.978701 95.156215 151.159966 96.33748 
C 152.341231 97.518745 153.943594 98.182466 155.614155 98.182466 
z
" style="fill:#287d8e;"/>
    <path clip-path="url(#p9d54224ba6)" d="M 304.780039 169.550595 
C 306.617943 169.550595 308.380819 168.820388 309.680414 167.520794 
C 310.980008 166.221199 311.710215 164.458323 311.710215 162.620419 
C 311.710215 160.782515 310.980008 159.019639 309.680414 157.720045 
C 308.380819 156.42045 306.617943 155.690243 304.780039 155.690243 
C 302.942135 155.690243 301.179259 156.42045 299.879665 157.720045 
C 298.58007 159.019639 297.849863 160.782515 297.849863 162.620419 
C 297.849863 164.458323 298.58007 166.221199 299.879665 167.520794 
C 301.179259 168.820388 302.942135 169.550595 304.780039 169.550595 
z
" style="fill:#31678e;"/>
    <path clip-path="url(#p9d54224ba6)" d="M 70.892473 257.610546 
C 72.721817 257.610546 74.476483 256.883739 75.770025 255.590197 
C 77.063567 254.296655 77.790373 252.54199 77.790373 250.712645 
C 77.790373 248.8833 77.063567 247.128635 75.770025 245.835093 
C 74.476483 244.541551 72.721817 243.814744 70.892473 243.814744 
C 69.063128 243.814744 67.308462 244.541551 66.01492 245.835093 
C 64.721378 247.128635 63.994572 248.8833 63.994572 250.712645 
C 63.994572 252.54199 64.721378 254.296655 66.01492 255.590197 
C 67.308462 256.883739 69.063128 257.610546 70.892473 257.610546 
z
" style="fill:#306a8e;"/>
    <path clip-path="url(#p9d54224ba6)" d="M 208.989508 135.837002 
C 210.697142 135.837002 212.335065 135.158552 213.542545 133.951073 
C 214.750024 132.743593 215.428474 131.10567 215.428474 129.398036 
C 215.428474 127.690403 214.750024 126.052479 213.542545 124.845 
C 212.335065 123.637521 210.697142 122.959071 208.989508 122.959071 
C 207.281875 122.959071 205.643951 123.637521 204.436472 124.845 
C 203.228993 126.052479 202.550543 127.690403 202.550543 129.398036 
C 202.550543 131.10567 203.228993 132.743593 204.436472 133.951073 
C 205.643951 135.158552 207.281875 135.837002 208.989508 135.837002 
z
" style="fill:#424086;"/>
    <path clip-path="url(#p9d54224ba6)" d="M 168.051307 266.998112 
C 169.828349 266.998112 171.532848 266.292086 172.789407 265.035527 
C 174.045966 263.778968 174.751993 262.074469 174.751993 260.297426 
C 174.751993 258.520383 174.045966 256.815885 172.789407 255.559326 
C 171.532848 254.302767 169.828349 253.59674 168.051307 253.59674 
C 166.274264 253.59674 164.569765 254.302767 163.313206 255.559326 
C 162.056647 256.815885 161.35062 258.520383 161.35062 260.297426 
C 161.35062 262.074469 162.056647 263.778968 163.313206 265.035527 
C 164.569765 266.292086 166.274264 266.998112 168.051307 266.998112 
z
" style="fill:#39568c;"/>
    <path clip-path="url(#p9d54224ba6)" d="M 184.826862 75.929008 
C 186.48866 75.929008 188.08262 75.268768 189.257689 74.093699 
C 190.432758 72.91863 191.092997 71.324671 191.092997 69.662873 
C 191.092997 68.001074 190.432758 66.407115 189.257689 65.232046 
C 188.08262 64.056977 186.48866 63.396737 184.826862 63.396737 
C 183.165063 63.396737 181.571104 64.056977 180.396035 65.232046 
C 179.220966 66.407115 178.560726 68.001074 178.560726 69.662873 
C 178.560726 71.324671 179.220966 72.91863 180.396035 74.093699 
C 181.571104 75.268768 183.165063 75.929008 184.826862 75.929008 
z
" style="fill:#32648e;"/>
    <path clip-path="url(#p9d54224ba6)" d="M 182.029515 159.523014 
C 183.739256 159.523014 185.379201 158.843727 186.588171 157.634757 
C 187.797141 156.425788 188.476428 154.785843 188.476428 153.076101 
C 188.476428 151.36636 187.797141 149.726415 186.588171 148.517445 
C 185.379201 147.308476 183.739256 146.629188 182.029515 146.629188 
C 180.319774 146.629188 178.679829 147.308476 177.470859 148.517445 
C 176.261889 149.726415 175.582602 151.36636 175.582602 153.076101 
C 175.582602 154.785843 176.261889 156.425788 177.470859 157.634757 
C 178.679829 158.843727 180.319774 159.523014 182.029515 159.523014 
z
" style="fill:#3e4989;"/>
    <path clip-path="url(#p9d54224ba6)" d="M 78.562951 180.268851 
C 80.344999 180.268851 82.054299 179.560835 83.314398 178.300737 
C 84.574497 177.040638 85.282512 175.331338 85.282512 173.549289 
C 85.282512 171.767241 84.574497 170.05794 83.314398 168.797842 
C 82.054299 167.537743 80.344999 166.829728 78.562951 166.829728 
C 76.780902 166.829728 75.071602 167.537743 73.811503 168.797842 
C 72.551404 170.05794 71.843389 171.767241 71.843389 173.549289 
C 71.843389 175.331338 72.551404 177.040638 73.811503 178.300737 
C 75.071602 179.560835 76.780902 180.268851 78.562951 180.268851 
z
" style="fill:#2a778e;"/>
    <path clip-path="url(#p9d54224ba6)" d="M 131.913898 148.395714 
C 133.700428 148.395714 135.414027 147.685918 136.677295 146.42265 
C 137.940562 145.159383 138.650358 143.445784 138.650358 141.659254 
C 138.650358 139.872724 137.940562 138.159125 136.677295 136.895858 
C 135.414027 135.63259 133.700428 134.922794 131.913898 134.922794 
C 130.127368 134.922794 128.413769 135.63259 127.150502 136.895858 
C 125.887234 138.159125 125.177438 139.872724 125.177438 141.659254 
C 125.177438 143.445784 125.887234 145.159383 127.150502 146.42265 
C 128.413769 147.685918 130.127368 148.395714 131.913898 148.395714 
z
" style="fill:#63cb5f;"/>
    <path clip-path="url(#p9d54224ba6)" d="M 125.140381 167.57224 
C 126.824625 167.57224 128.440113 166.903083 129.631053 165.712143 
C 130.821993 164.521202 131.49115 162.905714 131.49115 161.221471 
C 131.49115 159.537227 130.821993 157.921739 129.631053 156.730799 
C 128.440113 155.539858 126.824625 154.870701 125.140381 154.870701 
C 123.456137 154.870701 121.840649 155.539858 120.649709 156.730799 
C 119.458769 157.921739 118.789612 159.537227 118.789612 161.221471 
C 118.789612 162.905714 119.458769 164.521202 120.649709 165.712143 
C 121.840649 166.903083 123.456137 167.57224 125.140381 167.57224 
z
" style="fill:#5cc863;"/>
    <path clip-path="url(#p9d54224ba6)" d="M 72.068256 216.432983 
C 73.8779 216.432983 75.613669 215.714004 76.89328 214.434393 
C 78.172891 213.154782 78.89187 211.419013 78.89187 209.609369 
C 78.89187 207.799726 78.172891 206.063957 76.89328 204.784346 
C 75.613669 203.504734 73.8779 202.785755 72.068256 202.785755 
C 70.258613 202.785755 68.522844 203.504734 67.243233 204.784346 
C 65.963622 206.063957 65.244643 207.799726 65.244643 209.609369 
C 65.244643 211.419013 65.963622 213.154782 67.243233 214.434393 
C 68.522844 215.714004 70.258613 216.432983 72.068256 216.432983 
z
" style="fill:#306a8e;"/>
   </g>
   <g id="text_1">
    <!-- Structure #8970, $E_N$=-177.52eV, ΔE=0.19eV -->
    <defs>
     <path d="M 53.515625 70.515625 
L 53.515625 60.890625 
Q 47.90625 63.578125 42.921875 64.890625 
Q 37.9375 66.21875 33.296875 66.21875 
Q 25.25 66.21875 20.875 63.09375 
Q 16.5 59.96875 16.5 54.203125 
Q 16.5 49.359375 19.40625 46.890625 
Q 22.3125 44.4375 30.421875 42.921875 
L 36.375 41.703125 
Q 47.40625 39.59375 52.65625 34.296875 
Q 57.90625 29 57.90625 20.125 
Q 57.90625 9.515625 50.796875 4.046875 
Q 43.703125 -1.421875 29.984375 -1.421875 
Q 24.8125 -1.421875 18.96875 -0.25 
Q 13.140625 0.921875 6.890625 3.21875 
L 6.890625 13.375 
Q 12.890625 10.015625 18.65625 8.296875 
Q 24.421875 6.59375 29.984375 6.59375 
Q 38.421875 6.59375 43.015625 9.90625 
Q 47.609375 13.234375 47.609375 19.390625 
Q 47.609375 24.75 44.3125 27.78125 
Q 41.015625 30.8125 33.5 32.328125 
L 27.484375 33.5 
Q 16.453125 35.6875 11.515625 40.375 
Q 6.59375 45.0625 6.59375 53.421875 
Q 6.59375 63.09375 13.40625 68.65625 
Q 20.21875 74.21875 32.171875 74.21875 
Q 37.3125 74.21875 42.625 73.28125 
Q 47.953125 72.359375 53.515625 70.515625 
z
" id="DejaVuSans-53"/>
     <path d="M 18.3125 70.21875 
L 18.3125 54.6875 
L 36.8125 54.6875 
L 36.8125 47.703125 
L 18.3125 47.703125 
L 18.3125 18.015625 
Q 18.3125 11.328125 20.140625 9.421875 
Q 21.96875 7.515625 27.59375 7.515625 
L 36.8125 7.515625 
L 36.8125 0 
L 27.59375 0 
Q 17.1875 0 13.234375 3.875 
Q 9.28125 7.765625 9.28125 18.015625 
L 9.28125 47.703125 
L 2.6875 47.703125 
L 2.6875 54.6875 
L 9.28125 54.6875 
L 9.28125 70.21875 
z
" id="DejaVuSans-74"/>
     <path d="M 41.109375 46.296875 
Q 39.59375 47.171875 37.8125 47.578125 
Q 36.03125 48 33.890625 48 
Q 26.265625 48 22.1875 43.046875 
Q 18.109375 38.09375 18.109375 28.8125 
L 18.109375 0 
L 9.078125 0 
L 9.078125 54.6875 
L 18.109375 54.6875 
L 18.109375 46.1875 
Q 20.953125 51.171875 25.484375 53.578125 
Q 30.03125 56 36.53125 56 
Q 37.453125 56 38.578125 55.875 
Q 39.703125 55.765625 41.0625 55.515625 
z
" id="DejaVuSans-72"/>
     <path d="M 8.5 21.578125 
L 8.5 54.6875 
L 17.484375 54.6875 
L 17.484375 21.921875 
Q 17.484375 14.15625 20.5 10.265625 
Q 23.53125 6.390625 29.59375 6.390625 
Q 36.859375 6.390625 41.078125 11.03125 
Q 45.3125 15.671875 45.3125 23.6875 
L 45.3125 54.6875 
L 54.296875 54.6875 
L 54.296875 0 
L 45.3125 0 
L 45.3125 8.40625 
Q 42.046875 3.421875 37.71875 1 
Q 33.40625 -1.421875 27.6875 -1.421875 
Q 18.265625 -1.421875 13.375 4.4375 
Q 8.5 10.296875 8.5 21.578125 
z
M 31.109375 56 
z
" id="DejaVuSans-75"/>
     <path d="M 48.78125 52.59375 
L 48.78125 44.1875 
Q 44.96875 46.296875 41.140625 47.34375 
Q 37.3125 48.390625 33.40625 48.390625 
Q 24.65625 48.390625 19.8125 42.84375 
Q 14.984375 37.3125 14.984375 27.296875 
Q 14.984375 17.28125 19.8125 11.734375 
Q 24.65625 6.203125 33.40625 6.203125 
Q 37.3125 6.203125 41.140625 7.25 
Q 44.96875 8.296875 48.78125 10.40625 
L 48.78125 2.09375 
Q 45.015625 0.34375 40.984375 -0.53125 
Q 36.96875 -1.421875 32.421875 -1.421875 
Q 20.0625 -1.421875 12.78125 6.34375 
Q 5.515625 14.109375 5.515625 27.296875 
Q 5.515625 40.671875 12.859375 48.328125 
Q 20.21875 56 33.015625 56 
Q 37.15625 56 41.109375 55.140625 
Q 45.0625 54.296875 48.78125 52.59375 
z
" id="DejaVuSans-63"/>
     <path d="M 56.203125 29.59375 
L 56.203125 25.203125 
L 14.890625 25.203125 
Q 15.484375 15.921875 20.484375 11.0625 
Q 25.484375 6.203125 34.421875 6.203125 
Q 39.59375 6.203125 44.453125 7.46875 
Q 49.3125 8.734375 54.109375 11.28125 
L 54.109375 2.78125 
Q 49.265625 0.734375 44.1875 -0.34375 
Q 39.109375 -1.421875 33.890625 -1.421875 
Q 20.796875 -1.421875 13.15625 6.1875 
Q 5.515625 13.8125 5.515625 26.8125 
Q 5.515625 40.234375 12.765625 48.109375 
Q 20.015625 56 32.328125 56 
Q 43.359375 56 49.78125 48.890625 
Q 56.203125 41.796875 56.203125 29.59375 
z
M 47.21875 32.234375 
Q 47.125 39.59375 43.09375 43.984375 
Q 39.0625 48.390625 32.421875 48.390625 
Q 24.90625 48.390625 20.390625 44.140625 
Q 15.875 39.890625 15.1875 32.171875 
z
" id="DejaVuSans-65"/>
     <path id="DejaVuSans-20"/>
     <path d="M 51.125 44 
L 36.921875 44 
L 32.8125 27.6875 
L 47.125 27.6875 
z
M 43.796875 71.78125 
L 38.71875 51.515625 
L 52.984375 51.515625 
L 58.109375 71.78125 
L 65.921875 71.78125 
L 60.890625 51.515625 
L 76.125 51.515625 
L 76.125 44 
L 58.984375 44 
L 54.984375 27.6875 
L 70.515625 27.6875 
L 70.515625 20.21875 
L 53.078125 20.21875 
L 48 0 
L 40.1875 0 
L 45.21875 20.21875 
L 30.90625 20.21875 
L 25.875 0 
L 18.015625 0 
L 23.09375 20.21875 
L 7.71875 20.21875 
L 7.71875 27.6875 
L 24.90625 27.6875 
L 29 44 
L 13.28125 44 
L 13.28125 51.515625 
L 30.90625 51.515625 
L 35.890625 71.78125 
z
" id="DejaVuSans-23"/>
     <path d="M 31.78125 34.625 
Q 24.75 34.625 20.71875 30.859375 
Q 16.703125 27.09375 16.703125 20.515625 
Q 16.703125 13.921875 20.71875 10.15625 
Q 24.75 6.390625 31.78125 6.390625 
Q 38.8125 6.390625 42.859375 10.171875 
Q 46.921875 13.96875 46.921875 20.515625 
Q 46.921875 27.09375 42.890625 30.859375 
Q 38.875 34.625 31.78125 34.625 
z
M 21.921875 38.8125 
Q 15.578125 40.375 12.03125 44.71875 
Q 8.5 49.078125 8.5 55.328125 
Q 8.5 64.0625 14.71875 69.140625 
Q 20.953125 74.21875 31.78125 74.21875 
Q 42.671875 74.21875 48.875 69.140625 
Q 55.078125 64.0625 55.078125 55.328125 
Q 55.078125 49.078125 51.53125 44.71875 
Q 48 40.375 41.703125 38.8125 
Q 48.828125 37.15625 52.796875 32.3125 
Q 56.78125 27.484375 56.78125 20.515625 
Q 56.78125 9.90625 50.3125 4.234375 
Q 43.84375 -1.421875 31.78125 -1.421875 
Q 19.734375 -1.421875 13.25 4.234375 
Q 6.78125 9.90625 6.78125 20.515625 
Q 6.78125 27.484375 10.78125 32.3125 
Q 14.796875 37.15625 21.921875 38.8125 
z
M 18.3125 54.390625 
Q 18.3125 48.734375 21.84375 45.5625 
Q 25.390625 42.390625 31.78125 42.390625 
Q 38.140625 42.390625 41.71875 45.5625 
Q 45.3125 48.734375 45.3125 54.390625 
Q 45.3125 60.0625 41.71875 63.234375 
Q 38.140625 66.40625 31.78125 66.40625 
Q 25.390625 66.40625 21.84375 63.234375 
Q 18.3125 60.0625 18.3125 54.390625 
z
" id="DejaVuSans-38"/>
     <path d="M 10.984375 1.515625 
L 10.984375 10.5 
Q 14.703125 8.734375 18.5 7.8125 
Q 22.3125 6.890625 25.984375 6.890625 
Q 35.75 6.890625 40.890625 13.453125 
Q 46.046875 20.015625 46.78125 33.40625 
Q 43.953125 29.203125 39.59375 26.953125 
Q 35.25 24.703125 29.984375 24.703125 
Q 19.046875 24.703125 12.671875 31.3125 
Q 6.296875 37.9375 6.296875 49.421875 
Q 6.296875 60.640625 12.9375 67.421875 
Q 19.578125 74.21875 30.609375 74.21875 
Q 43.265625 74.21875 49.921875 64.515625 
Q 56.59375 54.828125 56.59375 36.375 
Q 56.59375 19.140625 48.40625 8.859375 
Q 40.234375 -1.421875 26.421875 -1.421875 
Q 22.703125 -1.421875 18.890625 -0.6875 
Q 15.09375 0.046875 10.984375 1.515625 
z
M 30.609375 32.421875 
Q 37.25 32.421875 41.125 36.953125 
Q 45.015625 41.5 45.015625 49.421875 
Q 45.015625 57.28125 41.125 61.84375 
Q 37.25 66.40625 30.609375 66.40625 
Q 23.96875 66.40625 20.09375 61.84375 
Q 16.21875 57.28125 16.21875 49.421875 
Q 16.21875 41.5 20.09375 36.953125 
Q 23.96875 32.421875 30.609375 32.421875 
z
" id="DejaVuSans-39"/>
     <path d="M 8.203125 72.90625 
L 55.078125 72.90625 
L 55.078125 68.703125 
L 28.609375 0 
L 18.3125 0 
L 43.21875 64.59375 
L 8.203125 64.59375 
z
" id="DejaVuSans-37"/>
     <path d="M 31.78125 66.40625 
Q 24.171875 66.40625 20.328125 58.90625 
Q 16.5 51.421875 16.5 36.375 
Q 16.5 21.390625 20.328125 13.890625 
Q 24.171875 6.390625 31.78125 6.390625 
Q 39.453125 6.390625 43.28125 13.890625 
Q 47.125 21.390625 47.125 36.375 
Q 47.125 51.421875 43.28125 58.90625 
Q 39.453125 66.40625 31.78125 66.40625 
z
M 31.78125 74.21875 
Q 44.046875 74.21875 50.515625 64.515625 
Q 56.984375 54.828125 56.984375 36.375 
Q 56.984375 17.96875 50.515625 8.265625 
Q 44.046875 -1.421875 31.78125 -1.421875 
Q 19.53125 -1.421875 13.0625 8.265625 
Q 6.59375 17.96875 6.59375 36.375 
Q 6.59375 54.828125 13.0625 64.515625 
Q 19.53125 74.21875 31.78125 74.21875 
z
" id="DejaVuSans-30"/>
     <path d="M 11.71875 12.40625 
L 22.015625 12.40625 
L 22.015625 4 
L 14.015625 -11.625 
L 7.71875 -11.625 
L 11.71875 4 
z
" id="DejaVuSans-2c"/>
     <path d="M 16.890625 72.90625 
L 62.984375 72.90625 
L 61.375 64.59375 
L 25.09375 64.59375 
L 20.90625 43.015625 
L 55.71875 43.015625 
L 54.109375 34.71875 
L 19.28125 34.71875 
L 14.203125 8.296875 
L 51.3125 8.296875 
L 49.703125 0 
L 2.6875 0 
z
" id="DejaVuSans-Oblique-45"/>
     <path d="M 16.890625 72.90625 
L 30.171875 72.90625 
L 50.296875 10.40625 
L 62.5 72.90625 
L 72.125 72.90625 
L 57.90625 0 
L 44.578125 0 
L 24.515625 62.890625 
L 12.3125 0 
L 2.6875 0 
z
" id="DejaVuSans-Oblique-4e"/>
     <path d="M 10.59375 45.40625 
L 73.1875 45.40625 
L 73.1875 37.203125 
L 10.59375 37.203125 
z
M 10.59375 25.484375 
L 73.1875 25.484375 
L 73.1875 17.1875 
L 10.59375 17.1875 
z
" id="DejaVuSans-3d"/>
     <path d="M 4.890625 31.390625 
L 31.203125 31.390625 
L 31.203125 23.390625 
L 4.890625 23.390625 
z
" id="DejaVuSans-2d"/>
     <path d="M 12.40625 8.296875 
L 28.515625 8.296875 
L 28.515625 63.921875 
L 10.984375 60.40625 
L 10.984375 69.390625 
L 28.421875 72.90625 
L 38.28125 72.90625 
L 38.28125 8.296875 
L 54.390625 8.296875 
L 54.390625 0 
L 12.40625 0 
z
" id="DejaVuSans-31"/>
     <path d="M 10.6875 12.40625 
L 21 12.40625 
L 21 0 
L 10.6875 0 
z
" id="DejaVuSans-2e"/>
     <path d="M 10.796875 72.90625 
L 49.515625 72.90625 
L 49.515625 64.59375 
L 19.828125 64.59375 
L 19.828125 46.734375 
Q 21.96875 47.46875 24.109375 47.828125 
Q 26.265625 48.1875 28.421875 48.1875 
Q 40.625 48.1875 47.75 41.5 
Q 54.890625 34.8125 54.890625 23.390625 
Q 54.890625 11.625 47.5625 5.09375 
Q 40.234375 -1.421875 26.90625 -1.421875 
Q 22.3125 -1.421875 17.546875 -0.640625 
Q 12.796875 0.140625 7.71875 1.703125 
L 7.71875 11.625 
Q 12.109375 9.234375 16.796875 8.0625 
Q 21.484375 6.890625 26.703125 6.890625 
Q 35.15625 6.890625 40.078125 11.328125 
Q 45.015625 15.765625 45.015625 23.390625 
Q 45.015625 31 40.078125 35.4375 
Q 35.15625 39.890625 26.703125 39.890625 
Q 22.75 39.890625 18.8125 39.015625 
Q 14.890625 38.140625 10.796875 36.28125 
z
" id="DejaVuSans-35"/>
     <path d="M 19.1875 8.296875 
L 53.609375 8.296875 
L 53.609375 0 
L 7.328125 0 
L 7.328125 8.296875 
Q 12.9375 14.109375 22.625 23.890625 
Q 32.328125 33.6875 34.8125 36.53125 
Q 39.546875 41.84375 41.421875 45.53125 
Q 43.3125 49.21875 43.3125 52.78125 
Q 43.3125 58.59375 39.234375 62.25 
Q 35.15625 65.921875 28.609375 65.921875 
Q 23.96875 65.921875 18.8125 64.3125 
Q 13.671875 62.703125 7.8125 59.421875 
L 7.8125 69.390625 
Q 13.765625 71.78125 18.9375 73 
Q 24.125 74.21875 28.421875 74.21875 
Q 39.75 74.21875 46.484375 68.546875 
Q 53.21875 62.890625 53.21875 53.421875 
Q 53.21875 48.921875 51.53125 44.890625 
Q 49.859375 40.875 45.40625 35.40625 
Q 44.1875 33.984375 37.640625 27.21875 
Q 31.109375 20.453125 19.1875 8.296875 
z
" id="DejaVuSans-32"/>
     <path d="M 28.609375 0 
L 0.78125 72.90625 
L 11.078125 72.90625 
L 34.1875 11.53125 
L 57.328125 72.90625 
L 67.578125 72.90625 
L 39.796875 0 
z
" id="DejaVuSans-56"/>
     <path d="M 34.1875 63.1875 
L 14.15625 8.203125 
L 54.25 8.203125 
z
M 0.78125 0 
L 28.609375 72.90625 
L 39.796875 72.90625 
L 67.578125 0 
z
" id="DejaVuSans-394"/>
     <path d="M 9.8125 72.90625 
L 55.90625 72.90625 
L 55.90625 64.59375 
L 19.671875 64.59375 
L 19.671875 43.015625 
L 54.390625 43.015625 
L 54.390625 34.71875 
L 19.671875 34.71875 
L 19.671875 8.296875 
L 56.78125 8.296875 
L 56.78125 0 
L 9.8125 0 
z
" id="DejaVuSans-45"/>
    </defs>
    <g transform="translate(65.388 35.472)scale(0.12 -0.12)">
     <use transform="translate(0 0.78125)" xlink:href="#DejaVuSans-53"/>
     <use transform="translate(63.476562 0.78125)" xlink:href="#DejaVuSans-74"/>
     <use transform="translate(102.685547 0.78125)" xlink:href="#DejaVuSans-72"/>
     <use transform="translate(143.798828 0.78125)" xlink:href="#DejaVuSans-75"/>
     <use transform="translate(207.177734 0.78125)" xlink:href="#DejaVuSans-63"/>
     <use transform="translate(262.158203 0.78125)" xlink:href="#DejaVuSans-74"/>
     <use transform="translate(301.367188 0.78125)" xlink:href="#DejaVuSans-75"/>
     <use transform="translate(364.746094 0.78125)" xlink:href="#DejaVuSans-72"/>
     <use transform="translate(405.859375 0.78125)" xlink:href="#DejaVuSans-65"/>
     <use transform="translate(467.382812 0.78125)" xlink:href="#DejaVuSans-20"/>
     <use transform="translate(499.169922 0.78125)" xlink:href="#DejaVuSans-23"/>
     <use transform="translate(582.958984 0.78125)" xlink:href="#DejaVuSans-38"/>
     <use transform="translate(646.582031 0.78125)" xlink:href="#DejaVuSans-39"/>
     <use transform="translate(710.205078 0.78125)" xlink:href="#DejaVuSans-37"/>
     <use transform="translate(773.828125 0.78125)" xlink:href="#DejaVuSans-30"/>
     <use transform="translate(837.451172 0.78125)" xlink:href="#DejaVuSans-2c"/>
     <use transform="translate(869.238281 0.78125)" xlink:href="#DejaVuSans-20"/>
     <use transform="translate(901.025391 0.78125)" xlink:href="#DejaVuSans-Oblique-45"/>
     <use transform="translate(964.208984 -15.625)scale(0.7)" xlink:href="#DejaVuSans-Oblique-4e"/>
     <use transform="translate(1019.306641 0.78125)" xlink:href="#DejaVuSans-3d"/>
     <use transform="translate(1103.095703 0.78125)" xlink:href="#DejaVuSans-2d"/>
     <use transform="translate(1139.179688 0.78125)" xlink:href="#DejaVuSans-31"/>
     <use transform="translate(1202.802734 0.78125)" xlink:href="#DejaVuSans-37"/>
     <use transform="translate(1266.410156 0.78125)" xlink:href="#DejaVuSans-37"/>
     <use transform="translate(1330.033203 0.78125)" xlink:href="#DejaVuSans-2e"/>
     <use transform="translate(1361.820312 0.78125)" xlink:href="#DejaVuSans-35"/>
     <use transform="translate(1425.443359 0.78125)" xlink:href="#DejaVuSans-32"/>
     <use transform="translate(1489.066406 0.78125)" xlink:href="#DejaVuSans-65"/>
     <use transform="translate(1550.589844 0.78125)" xlink:href="#DejaVuSans-56"/>
     <use transform="translate(1618.998047 0.78125)" xlink:href="#DejaVuSans-2c"/>
     <use transform="translate(1650.785156 0.78125)" xlink:href="#DejaVuSans-20"/>
     <use transform="translate(1682.572266 0.78125)" xlink:href="#DejaVuSans-394"/>
     <use transform="translate(1750.980469 0.78125)" xlink:href="#DejaVuSans-45"/>
     <use transform="translate(1814.164062 0.78125)" xlink:href="#DejaVuSans-3d"/>
     <use transform="translate(1897.953125 0.78125)" xlink:href="#DejaVuSans-30"/>
     <use transform="translate(1961.576172 0.78125)" xlink:href="#DejaVuSans-2e"/>
     <use transform="translate(1993.363281 0.78125)" xlink:href="#DejaVuSans-31"/>
     <use transform="translate(2056.986328 0.78125)" xlink:href="#DejaVuSans-39"/>
     <use transform="translate(2120.609375 0.78125)" xlink:href="#DejaVuSans-65"/>
     <use transform="translate(2182.132812 0.78125)" xlink:href="#DejaVuSans-56"/>
    </g>
   </g>
  </g>
  <g id="axes_2">
   <g id="patch_2">
    <path clip-path="url(#p3c8a952869)" d="M 361.152 307.584 
L 361.152 306.5445 
L 361.152 42.5115 
L 361.152 41.472 
L 374.4576 41.472 
L 374.4576 42.5115 
L 374.4576 306.5445 
L 374.4576 307.584 
z
" style="fill:#ffffff;stroke:#ffffff;stroke-linejoin:miter;stroke-width:0.01;"/>
   </g>
   <image height="265.68" id="image6c8c40485a" transform="scale(1 -1)translate(0 -265.68)" width="12.96" x="361.44" xlink:href="data:image/png;base64,
iVBORw0KGgoAAAANSUhEUgAAABIAAAFxCAYAAAB+2fgXAAAABHNCSVQICAgIfAhkiAAAAeVJREFUeJztncmNw0AQA2ckheYQNv9QLIfQ8ygsCgQ7AEI8+jAs2Puz/94F1LP2ReCsZ18bAWIeZ5XaGRBE7VnbptG+KI101FYyNSiQG2oRITXKNaX9uclOdi2XWjftVE32CZCO2ou5Bj1TcCBr/1zB9ge7Fq0Rg2NM9pvbtG+ua1QgsRYhDy0ISEiNc40BEibbSI0Coj5CBGtkpFbXJiAjNZlrwhuSOv2M1DjXbEdEciBt1JSDDQKKpmZr2rr2j0DBGpXaWEJq3bQzEPIS26r9J+Wzv9Tm8o3aajRXqc3VUXsApKNWjeZq0x4ABVNbm7lrszVigDqP5vIl2+eaT2yfRkL7g+dRcNPqjohkjaCvRVBq0H2U3LQrOJCx9kdTg4B8oxZzzTdqdYHEngjUCAPyUctN9sVRq2sTECW2UKNLd2jVtRmo1A6AhMmWaSRcR8nUdIHUuVb75zJS218EyEitro1At69pIdeSk30Lkw0FktNImGyZRhy1O5galmxd03LUsHWk06jUZiCq+5Wb1kZNN4+wJxJuWt8RAW5am2sYNZ9rYCBzZ3buPKJ2P5Yj4Toy3keyIyJbIxs1rml1byCA84gpch5RQNB7Q0qNMGq2Hy4BXdNR41yz/cEEJfZzUz96r9PoB0okjeQ8y9TkAAAAAElFTkSuQmCC" y="-41.76"/>
   <g id="matplotlib.axis_1"/>
   <g id="matplotlib.axis_2">
    <g id="ytick_1">
     <g id="line2d_1">
      <defs>
       <path d="M 0 0 
L 3.5 0 
" id="mdf57d4c251" style="stroke:#000000;stroke-width:0.8;"/>
      </defs>
      <g>
       <use style="stroke:#000000;stroke-width:0.8;" x="374.4576" xlink:href="#mdf57d4c251" y="283.795952"/>
      </g>
     </g>
     <g id="text_2">
      <!-- −8.5 -->
      <defs>
       <path d="M 10.59375 35.5 
L 73.1875 35.5 
L 73.1875 27.203125 
L 10.59375 27.203125 
z
" id="DejaVuSans-2212"/>
      </defs>
      <g transform="translate(381.4576 287.595171)scale(0.1 -0.1)">
       <use xlink:href="#DejaVuSans-2212"/>
       <use x="83.789062" xlink:href="#DejaVuSans-38"/>
       <use x="147.412109" xlink:href="#DejaVuSans-2e"/>
       <use x="179.199219" xlink:href="#DejaVuSans-35"/>
      </g>
     </g>
    </g>
    <g id="ytick_2">
     <g id="line2d_2">
      <g>
       <use style="stroke:#000000;stroke-width:0.8;" x="374.4576" xlink:href="#mdf57d4c251" y="248.660987"/>
      </g>
     </g>
     <g id="text_3">
      <!-- −8.0 -->
      <g transform="translate(381.4576 252.460206)scale(0.1 -0.1)">
       <use xlink:href="#DejaVuSans-2212"/>
       <use x="83.789062" xlink:href="#DejaVuSans-38"/>
       <use x="147.412109" xlink:href="#DejaVuSans-2e"/>
       <use x="179.199219" xlink:href="#DejaVuSans-30"/>
      </g>
     </g>
    </g>
    <g id="ytick_3">
     <g id="line2d_3">
      <g>
       <use style="stroke:#000000;stroke-width:0.8;" x="374.4576" xlink:href="#mdf57d4c251" y="213.526023"/>
      </g>
     </g>
     <g id="text_4">
      <!-- −7.5 -->
      <g transform="translate(381.4576 217.325242)scale(0.1 -0.1)">
       <use xlink:href="#DejaVuSans-2212"/>
       <use x="83.789062" xlink:href="#DejaVuSans-37"/>
       <use x="147.412109" xlink:href="#DejaVuSans-2e"/>
       <use x="179.199219" xlink:href="#DejaVuSans-35"/>
      </g>
     </g>
    </g>
    <g id="ytick_4">
     <g id="line2d_4">
      <g>
       <use style="stroke:#000000;stroke-width:0.8;" x="374.4576" xlink:href="#mdf57d4c251" y="178.391058"/>
      </g>
     </g>
     <g id="text_5">
      <!-- −7.0 -->
      <g transform="translate(381.4576 182.190277)scale(0.1 -0.1)">
       <use xlink:href="#DejaVuSans-2212"/>
       <use x="83.789062" xlink:href="#DejaVuSans-37"/>
       <use x="147.412109" xlink:href="#DejaVuSans-2e"/>
       <use x="179.199219" xlink:href="#DejaVuSans-30"/>
      </g>
     </g>
    </g>
    <g id="ytick_5">
     <g id="line2d_5">
      <g>
       <use style="stroke:#000000;stroke-width:0.8;" x="374.4576" xlink:href="#mdf57d4c251" y="143.256094"/>
      </g>
     </g>
     <g id="text_6">
      <!-- −6.5 -->
      <defs>
       <path d="M 33.015625 40.375 
Q 26.375 40.375 22.484375 35.828125 
Q 18.609375 31.296875 18.609375 23.390625 
Q 18.609375 15.53125 22.484375 10.953125 
Q 26.375 6.390625 33.015625 6.390625 
Q 39.65625 6.390625 43.53125 10.953125 
Q 47.40625 15.53125 47.40625 23.390625 
Q 47.40625 31.296875 43.53125 35.828125 
Q 39.65625 40.375 33.015625 40.375 
z
M 52.59375 71.296875 
L 52.59375 62.3125 
Q 48.875 64.0625 45.09375 64.984375 
Q 41.3125 65.921875 37.59375 65.921875 
Q 27.828125 65.921875 22.671875 59.328125 
Q 17.53125 52.734375 16.796875 39.40625 
Q 19.671875 43.65625 24.015625 45.921875 
Q 28.375 48.1875 33.59375 48.1875 
Q 44.578125 48.1875 50.953125 41.515625 
Q 57.328125 34.859375 57.328125 23.390625 
Q 57.328125 12.15625 50.6875 5.359375 
Q 44.046875 -1.421875 33.015625 -1.421875 
Q 20.359375 -1.421875 13.671875 8.265625 
Q 6.984375 17.96875 6.984375 36.375 
Q 6.984375 53.65625 15.1875 63.9375 
Q 23.390625 74.21875 37.203125 74.21875 
Q 40.921875 74.21875 44.703125 73.484375 
Q 48.484375 72.75 52.59375 71.296875 
z
" id="DejaVuSans-36"/>
      </defs>
      <g transform="translate(381.4576 147.055312)scale(0.1 -0.1)">
       <use xlink:href="#DejaVuSans-2212"/>
       <use x="83.789062" xlink:href="#DejaVuSans-36"/>
       <use x="147.412109" xlink:href="#DejaVuSans-2e"/>
       <use x="179.199219" xlink:href="#DejaVuSans-35"/>
      </g>
     </g>
    </g>
    <g id="ytick_6">
     <g id="line2d_6">
      <g>
       <use style="stroke:#000000;stroke-width:0.8;" x="374.4576" xlink:href="#mdf57d4c251" y="108.121129"/>
      </g>
     </g>
     <g id="text_7">
      <!-- −6.0 -->
      <g transform="translate(381.4576 111.920348)scale(0.1 -0.1)">
       <use xlink:href="#DejaVuSans-2212"/>
       <use x="83.789062" xlink:href="#DejaVuSans-36"/>
       <use x="147.412109" xlink:href="#DejaVuSans-2e"/>
       <use x="179.199219" xlink:href="#DejaVuSans-30"/>
      </g>
     </g>
    </g>
    <g id="ytick_7">
     <g id="line2d_7">
      <g>
       <use style="stroke:#000000;stroke-width:0.8;" x="374.4576" xlink:href="#mdf57d4c251" y="72.986164"/>
      </g>
     </g>
     <g id="text_8">
      <!-- −5.5 -->
      <g transform="translate(381.4576 76.785383)scale(0.1 -0.1)">
       <use xlink:href="#DejaVuSans-2212"/>
       <use x="83.789062" xlink:href="#DejaVuSans-35"/>
       <use x="147.412109" xlink:href="#DejaVuSans-2e"/>
       <use x="179.199219" xlink:href="#DejaVuSans-35"/>
      </g>
     </g>
    </g>
    <g id="text_9">
     <!-- Energy [eV] -->
     <defs>
      <path d="M 54.890625 33.015625 
L 54.890625 0 
L 45.90625 0 
L 45.90625 32.71875 
Q 45.90625 40.484375 42.875 44.328125 
Q 39.84375 48.1875 33.796875 48.1875 
Q 26.515625 48.1875 22.3125 43.546875 
Q 18.109375 38.921875 18.109375 30.90625 
L 18.109375 0 
L 9.078125 0 
L 9.078125 54.6875 
L 18.109375 54.6875 
L 18.109375 46.1875 
Q 21.34375 51.125 25.703125 53.5625 
Q 30.078125 56 35.796875 56 
Q 45.21875 56 50.046875 50.171875 
Q 54.890625 44.34375 54.890625 33.015625 
z
" id="DejaVuSans-6e"/>
      <path d="M 45.40625 27.984375 
Q 45.40625 37.75 41.375 43.109375 
Q 37.359375 48.484375 30.078125 48.484375 
Q 22.859375 48.484375 18.828125 43.109375 
Q 14.796875 37.75 14.796875 27.984375 
Q 14.796875 18.265625 18.828125 12.890625 
Q 22.859375 7.515625 30.078125 7.515625 
Q 37.359375 7.515625 41.375 12.890625 
Q 45.40625 18.265625 45.40625 27.984375 
z
M 54.390625 6.78125 
Q 54.390625 -7.171875 48.1875 -13.984375 
Q 42 -20.796875 29.203125 -20.796875 
Q 24.46875 -20.796875 20.265625 -20.09375 
Q 16.0625 -19.390625 12.109375 -17.921875 
L 12.109375 -9.1875 
Q 16.0625 -11.328125 19.921875 -12.34375 
Q 23.78125 -13.375 27.78125 -13.375 
Q 36.625 -13.375 41.015625 -8.765625 
Q 45.40625 -4.15625 45.40625 5.171875 
L 45.40625 9.625 
Q 42.625 4.78125 38.28125 2.390625 
Q 33.9375 0 27.875 0 
Q 17.828125 0 11.671875 7.65625 
Q 5.515625 15.328125 5.515625 27.984375 
Q 5.515625 40.671875 11.671875 48.328125 
Q 17.828125 56 27.875 56 
Q 33.9375 56 38.28125 53.609375 
Q 42.625 51.21875 45.40625 46.390625 
L 45.40625 54.6875 
L 54.390625 54.6875 
z
" id="DejaVuSans-67"/>
      <path d="M 32.171875 -5.078125 
Q 28.375 -14.84375 24.75 -17.8125 
Q 21.140625 -20.796875 15.09375 -20.796875 
L 7.90625 -20.796875 
L 7.90625 -13.28125 
L 13.1875 -13.28125 
Q 16.890625 -13.28125 18.9375 -11.515625 
Q 21 -9.765625 23.484375 -3.21875 
L 25.09375 0.875 
L 2.984375 54.6875 
L 12.5 54.6875 
L 29.59375 11.921875 
L 46.6875 54.6875 
L 56.203125 54.6875 
z
" id="DejaVuSans-79"/>
      <path d="M 8.59375 75.984375 
L 29.296875 75.984375 
L 29.296875 69 
L 17.578125 69 
L 17.578125 -6.203125 
L 29.296875 -6.203125 
L 29.296875 -13.1875 
L 8.59375 -13.1875 
z
" id="DejaVuSans-5b"/>
      <path d="M 30.421875 75.984375 
L 30.421875 -13.1875 
L 9.71875 -13.1875 
L 9.71875 -6.203125 
L 21.390625 -6.203125 
L 21.390625 69 
L 9.71875 69 
L 9.71875 75.984375 
z
" id="DejaVuSans-5d"/>
     </defs>
     <g transform="translate(417.33885 204.108469)rotate(-90)scale(0.1 -0.1)">
      <use xlink:href="#DejaVuSans-45"/>
      <use x="63.183594" xlink:href="#DejaVuSans-6e"/>
      <use x="126.5625" xlink:href="#DejaVuSans-65"/>
      <use x="188.085938" xlink:href="#DejaVuSans-72"/>
      <use x="229.183594" xlink:href="#DejaVuSans-67"/>
      <use x="292.660156" xlink:href="#DejaVuSans-79"/>
      <use x="351.839844" xlink:href="#DejaVuSans-20"/>
      <use x="383.626953" xlink:href="#DejaVuSans-5b"/>
      <use x="422.640625" xlink:href="#DejaVuSans-65"/>
      <use x="484.164062" xlink:href="#DejaVuSans-56"/>
      <use x="552.572266" xlink:href="#DejaVuSans-5d"/>
     </g>
    </g>
   </g>
   <g id="patch_3">
    <path d="M 361.152 307.584 
L 361.152 306.5445 
L 361.152 42.5115 
L 361.152 41.472 
L 374.4576 41.472 
L 374.4576 42.5115 
L 374.4576 306.5445 
L 374.4576 307.584 
z
" style="fill:none;stroke:#000000;stroke-linejoin:miter;stroke-width:0.8;"/>
   </g>
  </g>
 </g>
 <defs>
  <clipPath id="p9d54224ba6">
   <rect height="266.112" width="285.696" x="57.6" y="41.472"/>
  </clipPath>
  <clipPath id="p3c8a952869">
   <rect height="266.112" width="13.3056" x="361.152" y="41.472"/>
  </clipPath>
 </defs>
</svg>
