<?xml version="1.0" encoding="utf-8" standalone="no"?>
<!DOCTYPE svg PUBLIC "-//W3C//DTD SVG 1.1//EN"
  "http://www.w3.org/Graphics/SVG/1.1/DTD/svg11.dtd">
<!-- Created with matplotlib (http://matplotlib.org/) -->
<svg height="345.6pt" version="1.1" viewBox="0 0 460.8 345.6" width="460.8pt" xmlns="http://www.w3.org/2000/svg" xmlns:xlink="http://www.w3.org/1999/xlink">
 <defs>
  <style type="text/css">
*{stroke-linecap:butt;stroke-linejoin:round;}
  </style>
 </defs>
 <g id="figure_1">
  <g id="patch_1">
   <path d="M 0 345.6 
L 460.8 345.6 
L 460.8 0 
L 0 0 
z
" style="fill:#ffffff;"/>
  </g>
  <g id="axes_1">
   <g id="CircleCollection_1">
    <path clip-path="url(#pc744ea4868)" d="M 149.385999 288.167725 
C 151.197232 288.167725 152.934525 287.448115 154.215259 286.16738 
C 155.495994 284.886646 156.215604 283.149353 156.215604 281.33812 
C 156.215604 279.526888 155.495994 277.789595 154.215259 276.50886 
C 152.934525 275.228126 151.197232 274.508516 149.385999 274.508516 
C 147.574767 274.508516 145.837474 275.228126 144.556739 276.50886 
C 143.276005 277.789595 142.556394 279.526888 142.556394 281.33812 
C 142.556394 283.149353 143.276005 284.886646 144.556739 286.16738 
C 145.837474 287.448115 147.574767 288.167725 149.385999 288.167725 
z
" style="fill:#423f85;"/>
    <path clip-path="url(#pc744ea4868)" d="M 236.482105 254.586025 
C 238.306285 254.586025 240.055996 253.86127 241.345886 252.571381 
C 242.635775 251.281491 243.36053 249.53178 243.36053 247.7076 
C 243.36053 245.88342 242.635775 244.133709 241.345886 242.843819 
C 240.055996 241.55393 238.306285 240.829175 236.482105 240.829175 
C 234.657925 240.829175 232.908214 241.55393 231.618324 242.843819 
C 230.328435 244.133709 229.60368 245.88342 229.60368 247.7076 
C 229.60368 249.53178 230.328435 251.281491 231.618324 252.571381 
C 232.908214 253.86127 234.657925 254.586025 236.482105 254.586025 
z
" style="fill:#30698e;"/>
    <path clip-path="url(#pc744ea4868)" d="M 303.360035 80.902773 
C 305.092304 80.902773 306.753856 80.214535 307.978755 78.989636 
C 309.203654 77.764737 309.891892 76.103185 309.891892 74.370916 
C 309.891892 72.638647 309.203654 70.977095 307.978755 69.752196 
C 306.753856 68.527297 305.092304 67.83906 303.360035 67.83906 
C 301.627767 67.83906 299.966214 68.527297 298.741315 69.752196 
C 297.516416 70.977095 296.828179 72.638647 296.828179 74.370916 
C 296.828179 76.103185 297.516416 77.764737 298.741315 78.989636 
C 299.966214 80.214535 301.627767 80.902773 303.360035 80.902773 
z
" style="fill:#25838e;"/>
    <path clip-path="url(#pc744ea4868)" d="M 173.92023 192.787451 
C 175.764187 192.787451 177.532869 192.054839 178.836744 190.750964 
C 180.140618 189.44709 180.87323 187.678408 180.87323 185.834451 
C 180.87323 183.990494 180.140618 182.221813 178.836744 180.917938 
C 177.532869 179.614064 175.764187 178.881452 173.92023 178.881452 
C 172.076273 178.881452 170.307592 179.614064 169.003717 180.917938 
C 167.699843 182.221813 166.967231 183.990494 166.967231 185.834451 
C 166.967231 187.678408 167.699843 189.44709 169.003717 190.750964 
C 170.307592 192.054839 172.076273 192.787451 173.92023 192.787451 
z
" style="fill:#470e61;"/>
    <path clip-path="url(#pc744ea4868)" d="M 127.484703 180.490382 
C 129.20938 180.490382 130.863651 179.80516 132.083182 178.585629 
C 133.302713 177.366099 133.987934 175.711828 133.987934 173.987151 
C 133.987934 172.262474 133.302713 170.608203 132.083182 169.388672 
C 130.863651 168.169141 129.20938 167.48392 127.484703 167.48392 
C 125.760026 167.48392 124.105755 168.169141 122.886225 169.388672 
C 121.666694 170.608203 120.981472 172.262474 120.981472 173.987151 
C 120.981472 175.711828 121.666694 177.366099 122.886225 178.585629 
C 124.105755 179.80516 125.760026 180.490382 127.484703 180.490382 
z
" style="fill:#fde725;"/>
    <path clip-path="url(#pc744ea4868)" d="M 300.946352 169.9722 
C 302.702792 169.9722 304.38753 169.274359 305.629522 168.032368 
C 306.871513 166.790376 307.569354 165.105639 307.569354 163.349198 
C 307.569354 161.592757 306.871513 159.908019 305.629522 158.666028 
C 304.38753 157.424037 302.702792 156.726195 300.946352 156.726195 
C 299.189911 156.726195 297.505173 157.424037 296.263182 158.666028 
C 295.021191 159.908019 294.323349 161.592757 294.323349 163.349198 
C 294.323349 165.105639 295.021191 166.790376 296.263182 168.032368 
C 297.505173 169.274359 299.189911 169.9722 300.946352 169.9722 
z
" style="fill:#481b6d;"/>
    <path clip-path="url(#pc744ea4868)" d="M 251.143424 156.107742 
C 252.933534 156.107742 254.650566 155.396524 255.916365 154.130725 
C 257.182163 152.864926 257.893382 151.147894 257.893382 149.357784 
C 257.893382 147.567675 257.182163 145.850642 255.916365 144.584844 
C 254.650566 143.319045 252.933534 142.607827 251.143424 142.607827 
C 249.353315 142.607827 247.636282 143.319045 246.370483 144.584844 
C 245.104685 145.850642 244.393467 147.567675 244.393467 149.357784 
C 244.393467 151.147894 245.104685 152.864926 246.370483 154.130725 
C 247.636282 155.396524 249.353315 156.107742 251.143424 156.107742 
z
" style="fill:#375a8c;"/>
    <path clip-path="url(#pc744ea4868)" d="M 150.789971 145.52045 
C 152.605804 145.52045 154.347509 144.799012 155.631497 143.515024 
C 156.915484 142.231037 157.636922 140.489332 157.636922 138.673499 
C 157.636922 136.857666 156.915484 135.115961 155.631497 133.831974 
C 154.347509 132.547986 152.605804 131.826548 150.789971 131.826548 
C 148.974139 131.826548 147.232434 132.547986 145.948446 133.831974 
C 144.664458 135.115961 143.943021 136.857666 143.943021 138.673499 
C 143.943021 140.489332 144.664458 142.231037 145.948446 143.515024 
C 147.232434 144.799012 148.974139 145.52045 150.789971 145.52045 
z
" style="fill:#463480;"/>
    <path clip-path="url(#pc744ea4868)" d="M 277.581444 267.529951 
C 279.34879 267.529951 281.043988 266.827777 282.29369 265.578074 
C 283.543393 264.328372 284.245567 262.633174 284.245567 260.865828 
C 284.245567 259.098481 283.543393 257.403283 282.29369 256.153581 
C 281.043988 254.903878 279.34879 254.201704 277.581444 254.201704 
C 275.814097 254.201704 274.118899 254.903878 272.869197 256.153581 
C 271.619494 257.403283 270.91732 259.098481 270.91732 260.865828 
C 270.91732 262.633174 271.619494 264.328372 272.869197 265.578074 
C 274.118899 266.827777 275.814097 267.529951 277.581444 267.529951 
z
" style="fill:#2f6c8e;"/>
    <path clip-path="url(#pc744ea4868)" d="M 138.571662 234.309594 
C 140.410849 234.309594 142.174956 233.578877 143.475458 232.278375 
C 144.775959 230.977873 145.506676 229.213767 145.506676 227.374579 
C 145.506676 225.535392 144.775959 223.771286 143.475458 222.470784 
C 142.174956 221.170282 140.410849 220.439565 138.571662 220.439565 
C 136.732475 220.439565 134.968368 221.170282 133.667867 222.470784 
C 132.367365 223.771286 131.636648 225.535392 131.636648 227.374579 
C 131.636648 229.213767 132.367365 230.977873 133.667867 232.278375 
C 134.968368 233.578877 136.732475 234.309594 138.571662 234.309594 
z
" style="fill:#3a548c;"/>
    <path clip-path="url(#pc744ea4868)" d="M 258.779271 60.831924 
C 260.516586 60.831924 262.182978 60.141681 263.411445 58.913214 
C 264.639912 57.684747 265.330155 56.018355 265.330155 54.28104 
C 265.330155 52.543725 264.639912 50.877333 263.411445 49.648866 
C 262.182978 48.420399 260.516586 47.730156 258.779271 47.730156 
C 257.041956 47.730156 255.375564 48.420399 254.147097 49.648866 
C 252.91863 50.877333 252.228387 52.543725 252.228387 54.28104 
C 252.228387 56.018355 252.91863 57.684747 254.147097 58.913214 
C 255.375564 60.141681 257.041956 60.831924 258.779271 60.831924 
z
" style="fill:#42be71;"/>
    <path clip-path="url(#pc744ea4868)" d="M 93.753618 212.357192 
C 95.546899 212.357192 97.266973 211.644715 98.535013 210.376674 
C 99.803054 209.108633 100.515532 207.388559 100.515532 205.595279 
C 100.515532 203.801998 99.803054 202.081925 98.535013 200.813884 
C 97.266973 199.545843 95.546899 198.833365 93.753618 198.833365 
C 91.960338 198.833365 90.240264 199.545843 88.972223 200.813884 
C 87.704183 202.081925 86.991705 203.801998 86.991705 205.595279 
C 86.991705 207.388559 87.704183 209.108633 88.972223 210.376674 
C 90.240264 211.644715 91.960338 212.357192 93.753618 212.357192 
z
" style="fill:#2e6d8e;"/>
    <path clip-path="url(#pc744ea4868)" d="M 175.36411 98.253897 
C 177.147284 98.253897 178.857664 97.545435 180.118559 96.28454 
C 181.379453 95.023646 182.087916 93.313266 182.087916 91.530092 
C 182.087916 89.746918 181.379453 88.036538 180.118559 86.775644 
C 178.857664 85.514749 177.147284 84.806287 175.36411 84.806287 
C 173.580936 84.806287 171.870556 85.514749 170.609662 86.775644 
C 169.348768 88.036538 168.640305 89.746918 168.640305 91.530092 
C 168.640305 93.313266 169.348768 95.023646 170.609662 96.28454 
C 171.870556 97.545435 173.580936 98.253897 175.36411 98.253897 
z
" style="fill:#433e85;"/>
    <path clip-path="url(#pc744ea4868)" d="M 104.151713 298.840383 
C 105.918601 298.840383 107.61336 298.138391 108.862739 296.889012 
C 110.112117 295.639634 110.81411 293.944875 110.81411 292.177987 
C 110.81411 290.411098 110.112117 288.716339 108.862739 287.466961 
C 107.61336 286.217582 105.918601 285.51559 104.151713 285.51559 
C 102.384825 285.51559 100.690066 286.217582 99.440687 287.466961 
C 98.191309 288.716339 97.489317 290.411098 97.489317 292.177987 
C 97.489317 293.944875 98.191309 295.639634 99.440687 296.889012 
C 100.690066 298.138391 102.384825 298.840383 104.151713 298.840383 
z
" style="fill:#46c06f;"/>
    <path clip-path="url(#pc744ea4868)" d="M 228.27904 101.623963 
C 230.053388 101.623963 231.755302 100.919006 233.009956 99.664353 
C 234.26461 98.409699 234.969566 96.707785 234.969566 94.933436 
C 234.969566 93.159088 234.26461 91.457174 233.009956 90.20252 
C 231.755302 88.947866 230.053388 88.24291 228.27904 88.24291 
C 226.504691 88.24291 224.802777 88.947866 223.548123 90.20252 
C 222.293469 91.457174 221.588513 93.159088 221.588513 94.933436 
C 221.588513 96.707785 222.293469 98.409699 223.548123 99.664353 
C 224.802777 100.919006 226.504691 101.623963 228.27904 101.623963 
z
" style="fill:#482576;"/>
    <path clip-path="url(#pc744ea4868)" d="M 201.596682 297.279789 
C 203.400574 297.279789 205.130825 296.563095 206.406369 295.287551 
C 207.681913 294.012007 208.398607 292.281756 208.398607 290.477864 
C 208.398607 288.673973 207.681913 286.943721 206.406369 285.668177 
C 205.130825 284.392633 203.400574 283.67594 201.596682 283.67594 
C 199.792791 283.67594 198.062539 284.392633 196.786995 285.668177 
C 195.511451 286.943721 194.794757 288.673973 194.794757 290.477864 
C 194.794757 292.281756 195.511451 294.012007 196.786995 295.287551 
C 198.062539 296.563095 199.792791 297.279789 201.596682 297.279789 
z
" style="fill:#355f8d;"/>
    <path clip-path="url(#pc744ea4868)" d="M 224.273329 198.554358 
C 226.101659 198.554358 227.855352 197.827954 229.148176 196.53513 
C 230.441001 195.242305 231.167404 193.488613 231.167404 191.660283 
C 231.167404 189.831953 230.441001 188.07826 229.148176 186.785436 
C 227.855352 185.492611 226.101659 184.766208 224.273329 184.766208 
C 222.444999 184.766208 220.691307 185.492611 219.398482 186.785436 
C 218.105658 188.07826 217.379254 189.831953 217.379254 191.660283 
C 217.379254 193.488613 218.105658 195.242305 219.398482 196.53513 
C 220.691307 197.827954 222.444999 198.554358 224.273329 198.554358 
z
" style="fill:#440154;"/>
    <path clip-path="url(#pc744ea4868)" d="M 235.422802 301.313657 
C 237.15649 301.313657 238.819404 300.624856 240.045307 299.398953 
C 241.27121 298.173051 241.960011 296.510137 241.960011 294.776449 
C 241.960011 293.042761 241.27121 291.379846 240.045307 290.153944 
C 238.819404 288.928041 237.15649 288.23924 235.422802 288.23924 
C 233.689114 288.23924 232.0262 288.928041 230.800298 290.153944 
C 229.574395 291.379846 228.885594 293.042761 228.885594 294.776449 
C 228.885594 296.510137 229.574395 298.173051 230.800298 299.398953 
C 232.0262 300.624856 233.689114 301.313657 235.422802 301.313657 
z
" style="fill:#b5de2b;"/>
    <path clip-path="url(#pc744ea4868)" d="M 132.946639 69.664716 
C 134.700154 69.664716 136.382086 68.968037 137.622008 67.728115 
C 138.86193 66.488192 139.558609 64.806261 139.558609 63.052746 
C 139.558609 61.299231 138.86193 59.617299 137.622008 58.377377 
C 136.382086 57.137455 134.700154 56.440776 132.946639 56.440776 
C 131.193124 56.440776 129.511193 57.137455 128.27127 58.377377 
C 127.031348 59.617299 126.334669 61.299231 126.334669 63.052746 
C 126.334669 64.806261 127.031348 66.488192 128.27127 67.728115 
C 129.511193 68.968037 131.193124 69.664716 132.946639 69.664716 
z
" style="fill:#3fbc73;"/>
    <path clip-path="url(#pc744ea4868)" d="M 306.543715 226.417816 
C 308.290998 226.417816 309.966951 225.723613 311.202467 224.488097 
C 312.437982 223.252582 313.132185 221.576628 313.132185 219.829346 
C 313.132185 218.082063 312.437982 216.406109 311.202467 215.170594 
C 309.966951 213.935079 308.290998 213.240876 306.543715 213.240876 
C 304.796432 213.240876 303.120479 213.935079 301.884963 215.170594 
C 300.649448 216.406109 299.955245 218.082063 299.955245 219.829346 
C 299.955245 221.576628 300.649448 223.252582 301.884963 224.488097 
C 303.120479 225.723613 304.796432 226.417816 306.543715 226.417816 
z
" style="fill:#50c46a;"/>
    <path clip-path="url(#pc744ea4868)" d="M 91.047356 94.028505 
C 92.801596 94.028505 94.484224 93.331538 95.72466 92.091102 
C 96.965095 90.850667 97.662062 89.168039 97.662062 87.413798 
C 97.662062 85.659558 96.965095 83.97693 95.72466 82.736494 
C 94.484224 81.496059 92.801596 80.799092 91.047356 80.799092 
C 89.293115 80.799092 87.610487 81.496059 86.370052 82.736494 
C 85.129616 83.97693 84.432649 85.659558 84.432649 87.413798 
C 84.432649 89.168039 85.129616 90.850667 86.370052 92.091102 
C 87.610487 93.331538 89.293115 94.028505 91.047356 94.028505 
z
" style="fill:#7fd34e;"/>
    <path clip-path="url(#pc744ea4868)" d="M 329.829128 124.873532 
C 331.556868 124.873532 333.214078 124.187094 334.435775 122.965396 
C 335.657472 121.743699 336.343911 120.08649 336.343911 118.358749 
C 336.343911 116.631008 335.657472 114.973798 334.435775 113.752101 
C 333.214078 112.530404 331.556868 111.843965 329.829128 111.843965 
C 328.101387 111.843965 326.444177 112.530404 325.22248 113.752101 
C 324.000783 114.973798 323.314344 116.631008 323.314344 118.358749 
C 323.314344 120.08649 324.000783 121.743699 325.22248 122.965396 
C 326.444177 124.187094 328.101387 124.873532 329.829128 124.873532 
z
" style="fill:#3aba76;"/>
    <path clip-path="url(#pc744ea4868)" d="M 71.076278 262.499439 
C 72.837823 262.499439 74.527458 261.799569 75.773059 260.553968 
C 77.01866 259.308368 77.718529 257.618733 77.718529 255.857187 
C 77.718529 254.095642 77.01866 252.406007 75.773059 251.160406 
C 74.527458 249.914805 72.837823 249.214936 71.076278 249.214936 
C 69.314732 249.214936 67.625097 249.914805 66.379496 251.160406 
C 65.133895 252.406007 64.434026 254.095642 64.434026 255.857187 
C 64.434026 257.618733 65.133895 259.308368 66.379496 260.553968 
C 67.625097 261.799569 69.314732 262.499439 71.076278 262.499439 
z
" style="fill:#50c46a;"/>
    <path clip-path="url(#pc744ea4868)" d="M 97.908688 149.40993 
C 99.700451 149.40993 101.419068 148.698055 102.686035 147.431088 
C 103.953003 146.164121 104.664877 144.445503 104.664877 142.653741 
C 104.664877 140.861979 103.953003 139.143361 102.686035 137.876394 
C 101.419068 136.609427 99.700451 135.897552 97.908688 135.897552 
C 96.116926 135.897552 94.398309 136.609427 93.131341 137.876394 
C 91.864374 139.143361 91.152499 140.861979 91.152499 142.653741 
C 91.152499 144.445503 91.864374 146.164121 93.131341 147.431088 
C 94.398309 148.698055 96.116926 149.40993 97.908688 149.40993 
z
" style="fill:#2f6c8e;"/>
   </g>
   <g id="text_1">
    <!-- Structure #5518, $E_N$=-178.16eV, ΔE=0.12eV -->
    <defs>
     <path d="M 53.515625 70.515625 
L 53.515625 60.890625 
Q 47.90625 63.578125 42.921875 64.890625 
Q 37.9375 66.21875 33.296875 66.21875 
Q 25.25 66.21875 20.875 63.09375 
Q 16.5 59.96875 16.5 54.203125 
Q 16.5 49.359375 19.40625 46.890625 
Q 22.3125 44.4375 30.421875 42.921875 
L 36.375 41.703125 
Q 47.40625 39.59375 52.65625 34.296875 
Q 57.90625 29 57.90625 20.125 
Q 57.90625 9.515625 50.796875 4.046875 
Q 43.703125 -1.421875 29.984375 -1.421875 
Q 24.8125 -1.421875 18.96875 -0.25 
Q 13.140625 0.921875 6.890625 3.21875 
L 6.890625 13.375 
Q 12.890625 10.015625 18.65625 8.296875 
Q 24.421875 6.59375 29.984375 6.59375 
Q 38.421875 6.59375 43.015625 9.90625 
Q 47.609375 13.234375 47.609375 19.390625 
Q 47.609375 24.75 44.3125 27.78125 
Q 41.015625 30.8125 33.5 32.328125 
L 27.484375 33.5 
Q 16.453125 35.6875 11.515625 40.375 
Q 6.59375 45.0625 6.59375 53.421875 
Q 6.59375 63.09375 13.40625 68.65625 
Q 20.21875 74.21875 32.171875 74.21875 
Q 37.3125 74.21875 42.625 73.28125 
Q 47.953125 72.359375 53.515625 70.515625 
z
" id="DejaVuSans-53"/>
     <path d="M 18.3125 70.21875 
L 18.3125 54.6875 
L 36.8125 54.6875 
L 36.8125 47.703125 
L 18.3125 47.703125 
L 18.3125 18.015625 
Q 18.3125 11.328125 20.140625 9.421875 
Q 21.96875 7.515625 27.59375 7.515625 
L 36.8125 7.515625 
L 36.8125 0 
L 27.59375 0 
Q 17.1875 0 13.234375 3.875 
Q 9.28125 7.765625 9.28125 18.015625 
L 9.28125 47.703125 
L 2.6875 47.703125 
L 2.6875 54.6875 
L 9.28125 54.6875 
L 9.28125 70.21875 
z
" id="DejaVuSans-74"/>
     <path d="M 41.109375 46.296875 
Q 39.59375 47.171875 37.8125 47.578125 
Q 36.03125 48 33.890625 48 
Q 26.265625 48 22.1875 43.046875 
Q 18.109375 38.09375 18.109375 28.8125 
L 18.109375 0 
L 9.078125 0 
L 9.078125 54.6875 
L 18.109375 54.6875 
L 18.109375 46.1875 
Q 20.953125 51.171875 25.484375 53.578125 
Q 30.03125 56 36.53125 56 
Q 37.453125 56 38.578125 55.875 
Q 39.703125 55.765625 41.0625 55.515625 
z
" id="DejaVuSans-72"/>
     <path d="M 8.5 21.578125 
L 8.5 54.6875 
L 17.484375 54.6875 
L 17.484375 21.921875 
Q 17.484375 14.15625 20.5 10.265625 
Q 23.53125 6.390625 29.59375 6.390625 
Q 36.859375 6.390625 41.078125 11.03125 
Q 45.3125 15.671875 45.3125 23.6875 
L 45.3125 54.6875 
L 54.296875 54.6875 
L 54.296875 0 
L 45.3125 0 
L 45.3125 8.40625 
Q 42.046875 3.421875 37.71875 1 
Q 33.40625 -1.421875 27.6875 -1.421875 
Q 18.265625 -1.421875 13.375 4.4375 
Q 8.5 10.296875 8.5 21.578125 
z
M 31.109375 56 
z
" id="DejaVuSans-75"/>
     <path d="M 48.78125 52.59375 
L 48.78125 44.1875 
Q 44.96875 46.296875 41.140625 47.34375 
Q 37.3125 48.390625 33.40625 48.390625 
Q 24.65625 48.390625 19.8125 42.84375 
Q 14.984375 37.3125 14.984375 27.296875 
Q 14.984375 17.28125 19.8125 11.734375 
Q 24.65625 6.203125 33.40625 6.203125 
Q 37.3125 6.203125 41.140625 7.25 
Q 44.96875 8.296875 48.78125 10.40625 
L 48.78125 2.09375 
Q 45.015625 0.34375 40.984375 -0.53125 
Q 36.96875 -1.421875 32.421875 -1.421875 
Q 20.0625 -1.421875 12.78125 6.34375 
Q 5.515625 14.109375 5.515625 27.296875 
Q 5.515625 40.671875 12.859375 48.328125 
Q 20.21875 56 33.015625 56 
Q 37.15625 56 41.109375 55.140625 
Q 45.0625 54.296875 48.78125 52.59375 
z
" id="DejaVuSans-63"/>
     <path d="M 56.203125 29.59375 
L 56.203125 25.203125 
L 14.890625 25.203125 
Q 15.484375 15.921875 20.484375 11.0625 
Q 25.484375 6.203125 34.421875 6.203125 
Q 39.59375 6.203125 44.453125 7.46875 
Q 49.3125 8.734375 54.109375 11.28125 
L 54.109375 2.78125 
Q 49.265625 0.734375 44.1875 -0.34375 
Q 39.109375 -1.421875 33.890625 -1.421875 
Q 20.796875 -1.421875 13.15625 6.1875 
Q 5.515625 13.8125 5.515625 26.8125 
Q 5.515625 40.234375 12.765625 48.109375 
Q 20.015625 56 32.328125 56 
Q 43.359375 56 49.78125 48.890625 
Q 56.203125 41.796875 56.203125 29.59375 
z
M 47.21875 32.234375 
Q 47.125 39.59375 43.09375 43.984375 
Q 39.0625 48.390625 32.421875 48.390625 
Q 24.90625 48.390625 20.390625 44.140625 
Q 15.875 39.890625 15.1875 32.171875 
z
" id="DejaVuSans-65"/>
     <path id="DejaVuSans-20"/>
     <path d="M 51.125 44 
L 36.921875 44 
L 32.8125 27.6875 
L 47.125 27.6875 
z
M 43.796875 71.78125 
L 38.71875 51.515625 
L 52.984375 51.515625 
L 58.109375 71.78125 
L 65.921875 71.78125 
L 60.890625 51.515625 
L 76.125 51.515625 
L 76.125 44 
L 58.984375 44 
L 54.984375 27.6875 
L 70.515625 27.6875 
L 70.515625 20.21875 
L 53.078125 20.21875 
L 48 0 
L 40.1875 0 
L 45.21875 20.21875 
L 30.90625 20.21875 
L 25.875 0 
L 18.015625 0 
L 23.09375 20.21875 
L 7.71875 20.21875 
L 7.71875 27.6875 
L 24.90625 27.6875 
L 29 44 
L 13.28125 44 
L 13.28125 51.515625 
L 30.90625 51.515625 
L 35.890625 71.78125 
z
" id="DejaVuSans-23"/>
     <path d="M 10.796875 72.90625 
L 49.515625 72.90625 
L 49.515625 64.59375 
L 19.828125 64.59375 
L 19.828125 46.734375 
Q 21.96875 47.46875 24.109375 47.828125 
Q 26.265625 48.1875 28.421875 48.1875 
Q 40.625 48.1875 47.75 41.5 
Q 54.890625 34.8125 54.890625 23.390625 
Q 54.890625 11.625 47.5625 5.09375 
Q 40.234375 -1.421875 26.90625 -1.421875 
Q 22.3125 -1.421875 17.546875 -0.640625 
Q 12.796875 0.140625 7.71875 1.703125 
L 7.71875 11.625 
Q 12.109375 9.234375 16.796875 8.0625 
Q 21.484375 6.890625 26.703125 6.890625 
Q 35.15625 6.890625 40.078125 11.328125 
Q 45.015625 15.765625 45.015625 23.390625 
Q 45.015625 31 40.078125 35.4375 
Q 35.15625 39.890625 26.703125 39.890625 
Q 22.75 39.890625 18.8125 39.015625 
Q 14.890625 38.140625 10.796875 36.28125 
z
" id="DejaVuSans-35"/>
     <path d="M 12.40625 8.296875 
L 28.515625 8.296875 
L 28.515625 63.921875 
L 10.984375 60.40625 
L 10.984375 69.390625 
L 28.421875 72.90625 
L 38.28125 72.90625 
L 38.28125 8.296875 
L 54.390625 8.296875 
L 54.390625 0 
L 12.40625 0 
z
" id="DejaVuSans-31"/>
     <path d="M 31.78125 34.625 
Q 24.75 34.625 20.71875 30.859375 
Q 16.703125 27.09375 16.703125 20.515625 
Q 16.703125 13.921875 20.71875 10.15625 
Q 24.75 6.390625 31.78125 6.390625 
Q 38.8125 6.390625 42.859375 10.171875 
Q 46.921875 13.96875 46.921875 20.515625 
Q 46.921875 27.09375 42.890625 30.859375 
Q 38.875 34.625 31.78125 34.625 
z
M 21.921875 38.8125 
Q 15.578125 40.375 12.03125 44.71875 
Q 8.5 49.078125 8.5 55.328125 
Q 8.5 64.0625 14.71875 69.140625 
Q 20.953125 74.21875 31.78125 74.21875 
Q 42.671875 74.21875 48.875 69.140625 
Q 55.078125 64.0625 55.078125 55.328125 
Q 55.078125 49.078125 51.53125 44.71875 
Q 48 40.375 41.703125 38.8125 
Q 48.828125 37.15625 52.796875 32.3125 
Q 56.78125 27.484375 56.78125 20.515625 
Q 56.78125 9.90625 50.3125 4.234375 
Q 43.84375 -1.421875 31.78125 -1.421875 
Q 19.734375 -1.421875 13.25 4.234375 
Q 6.78125 9.90625 6.78125 20.515625 
Q 6.78125 27.484375 10.78125 32.3125 
Q 14.796875 37.15625 21.921875 38.8125 
z
M 18.3125 54.390625 
Q 18.3125 48.734375 21.84375 45.5625 
Q 25.390625 42.390625 31.78125 42.390625 
Q 38.140625 42.390625 41.71875 45.5625 
Q 45.3125 48.734375 45.3125 54.390625 
Q 45.3125 60.0625 41.71875 63.234375 
Q 38.140625 66.40625 31.78125 66.40625 
Q 25.390625 66.40625 21.84375 63.234375 
Q 18.3125 60.0625 18.3125 54.390625 
z
" id="DejaVuSans-38"/>
     <path d="M 11.71875 12.40625 
L 22.015625 12.40625 
L 22.015625 4 
L 14.015625 -11.625 
L 7.71875 -11.625 
L 11.71875 4 
z
" id="DejaVuSans-2c"/>
     <path d="M 16.890625 72.90625 
L 62.984375 72.90625 
L 61.375 64.59375 
L 25.09375 64.59375 
L 20.90625 43.015625 
L 55.71875 43.015625 
L 54.109375 34.71875 
L 19.28125 34.71875 
L 14.203125 8.296875 
L 51.3125 8.296875 
L 49.703125 0 
L 2.6875 0 
z
" id="DejaVuSans-Oblique-45"/>
     <path d="M 16.890625 72.90625 
L 30.171875 72.90625 
L 50.296875 10.40625 
L 62.5 72.90625 
L 72.125 72.90625 
L 57.90625 0 
L 44.578125 0 
L 24.515625 62.890625 
L 12.3125 0 
L 2.6875 0 
z
" id="DejaVuSans-Oblique-4e"/>
     <path d="M 10.59375 45.40625 
L 73.1875 45.40625 
L 73.1875 37.203125 
L 10.59375 37.203125 
z
M 10.59375 25.484375 
L 73.1875 25.484375 
L 73.1875 17.1875 
L 10.59375 17.1875 
z
" id="DejaVuSans-3d"/>
     <path d="M 4.890625 31.390625 
L 31.203125 31.390625 
L 31.203125 23.390625 
L 4.890625 23.390625 
z
" id="DejaVuSans-2d"/>
     <path d="M 8.203125 72.90625 
L 55.078125 72.90625 
L 55.078125 68.703125 
L 28.609375 0 
L 18.3125 0 
L 43.21875 64.59375 
L 8.203125 64.59375 
z
" id="DejaVuSans-37"/>
     <path d="M 10.6875 12.40625 
L 21 12.40625 
L 21 0 
L 10.6875 0 
z
" id="DejaVuSans-2e"/>
     <path d="M 33.015625 40.375 
Q 26.375 40.375 22.484375 35.828125 
Q 18.609375 31.296875 18.609375 23.390625 
Q 18.609375 15.53125 22.484375 10.953125 
Q 26.375 6.390625 33.015625 6.390625 
Q 39.65625 6.390625 43.53125 10.953125 
Q 47.40625 15.53125 47.40625 23.390625 
Q 47.40625 31.296875 43.53125 35.828125 
Q 39.65625 40.375 33.015625 40.375 
z
M 52.59375 71.296875 
L 52.59375 62.3125 
Q 48.875 64.0625 45.09375 64.984375 
Q 41.3125 65.921875 37.59375 65.921875 
Q 27.828125 65.921875 22.671875 59.328125 
Q 17.53125 52.734375 16.796875 39.40625 
Q 19.671875 43.65625 24.015625 45.921875 
Q 28.375 48.1875 33.59375 48.1875 
Q 44.578125 48.1875 50.953125 41.515625 
Q 57.328125 34.859375 57.328125 23.390625 
Q 57.328125 12.15625 50.6875 5.359375 
Q 44.046875 -1.421875 33.015625 -1.421875 
Q 20.359375 -1.421875 13.671875 8.265625 
Q 6.984375 17.96875 6.984375 36.375 
Q 6.984375 53.65625 15.1875 63.9375 
Q 23.390625 74.21875 37.203125 74.21875 
Q 40.921875 74.21875 44.703125 73.484375 
Q 48.484375 72.75 52.59375 71.296875 
z
" id="DejaVuSans-36"/>
     <path d="M 28.609375 0 
L 0.78125 72.90625 
L 11.078125 72.90625 
L 34.1875 11.53125 
L 57.328125 72.90625 
L 67.578125 72.90625 
L 39.796875 0 
z
" id="DejaVuSans-56"/>
     <path d="M 34.1875 63.1875 
L 14.15625 8.203125 
L 54.25 8.203125 
z
M 0.78125 0 
L 28.609375 72.90625 
L 39.796875 72.90625 
L 67.578125 0 
z
" id="DejaVuSans-394"/>
     <path d="M 9.8125 72.90625 
L 55.90625 72.90625 
L 55.90625 64.59375 
L 19.671875 64.59375 
L 19.671875 43.015625 
L 54.390625 43.015625 
L 54.390625 34.71875 
L 19.671875 34.71875 
L 19.671875 8.296875 
L 56.78125 8.296875 
L 56.78125 0 
L 9.8125 0 
z
" id="DejaVuSans-45"/>
     <path d="M 31.78125 66.40625 
Q 24.171875 66.40625 20.328125 58.90625 
Q 16.5 51.421875 16.5 36.375 
Q 16.5 21.390625 20.328125 13.890625 
Q 24.171875 6.390625 31.78125 6.390625 
Q 39.453125 6.390625 43.28125 13.890625 
Q 47.125 21.390625 47.125 36.375 
Q 47.125 51.421875 43.28125 58.90625 
Q 39.453125 66.40625 31.78125 66.40625 
z
M 31.78125 74.21875 
Q 44.046875 74.21875 50.515625 64.515625 
Q 56.984375 54.828125 56.984375 36.375 
Q 56.984375 17.96875 50.515625 8.265625 
Q 44.046875 -1.421875 31.78125 -1.421875 
Q 19.53125 -1.421875 13.0625 8.265625 
Q 6.59375 17.96875 6.59375 36.375 
Q 6.59375 54.828125 13.0625 64.515625 
Q 19.53125 74.21875 31.78125 74.21875 
z
" id="DejaVuSans-30"/>
     <path d="M 19.1875 8.296875 
L 53.609375 8.296875 
L 53.609375 0 
L 7.328125 0 
L 7.328125 8.296875 
Q 12.9375 14.109375 22.625 23.890625 
Q 32.328125 33.6875 34.8125 36.53125 
Q 39.546875 41.84375 41.421875 45.53125 
Q 43.3125 49.21875 43.3125 52.78125 
Q 43.3125 58.59375 39.234375 62.25 
Q 35.15625 65.921875 28.609375 65.921875 
Q 23.96875 65.921875 18.8125 64.3125 
Q 13.671875 62.703125 7.8125 59.421875 
L 7.8125 69.390625 
Q 13.765625 71.78125 18.9375 73 
Q 24.125 74.21875 28.421875 74.21875 
Q 39.75 74.21875 46.484375 68.546875 
Q 53.21875 62.890625 53.21875 53.421875 
Q 53.21875 48.921875 51.53125 44.890625 
Q 49.859375 40.875 45.40625 35.40625 
Q 44.1875 33.984375 37.640625 27.21875 
Q 31.109375 20.453125 19.1875 8.296875 
z
" id="DejaVuSans-32"/>
    </defs>
    <g transform="translate(65.388 35.472)scale(0.12 -0.12)">
     <use transform="translate(0 0.78125)" xlink:href="#DejaVuSans-53"/>
     <use transform="translate(63.476562 0.78125)" xlink:href="#DejaVuSans-74"/>
     <use transform="translate(102.685547 0.78125)" xlink:href="#DejaVuSans-72"/>
     <use transform="translate(143.798828 0.78125)" xlink:href="#DejaVuSans-75"/>
     <use transform="translate(207.177734 0.78125)" xlink:href="#DejaVuSans-63"/>
     <use transform="translate(262.158203 0.78125)" xlink:href="#DejaVuSans-74"/>
     <use transform="translate(301.367188 0.78125)" xlink:href="#DejaVuSans-75"/>
     <use transform="translate(364.746094 0.78125)" xlink:href="#DejaVuSans-72"/>
     <use transform="translate(405.859375 0.78125)" xlink:href="#DejaVuSans-65"/>
     <use transform="translate(467.382812 0.78125)" xlink:href="#DejaVuSans-20"/>
     <use transform="translate(499.169922 0.78125)" xlink:href="#DejaVuSans-23"/>
     <use transform="translate(582.958984 0.78125)" xlink:href="#DejaVuSans-35"/>
     <use transform="translate(646.582031 0.78125)" xlink:href="#DejaVuSans-35"/>
     <use transform="translate(710.205078 0.78125)" xlink:href="#DejaVuSans-31"/>
     <use transform="translate(773.828125 0.78125)" xlink:href="#DejaVuSans-38"/>
     <use transform="translate(837.451172 0.78125)" xlink:href="#DejaVuSans-2c"/>
     <use transform="translate(869.238281 0.78125)" xlink:href="#DejaVuSans-20"/>
     <use transform="translate(901.025391 0.78125)" xlink:href="#DejaVuSans-Oblique-45"/>
     <use transform="translate(964.208984 -15.625)scale(0.7)" xlink:href="#DejaVuSans-Oblique-4e"/>
     <use transform="translate(1019.306641 0.78125)" xlink:href="#DejaVuSans-3d"/>
     <use transform="translate(1103.095703 0.78125)" xlink:href="#DejaVuSans-2d"/>
     <use transform="translate(1139.179688 0.78125)" xlink:href="#DejaVuSans-31"/>
     <use transform="translate(1202.802734 0.78125)" xlink:href="#DejaVuSans-37"/>
     <use transform="translate(1266.425781 0.78125)" xlink:href="#DejaVuSans-38"/>
     <use transform="translate(1330.048828 0.78125)" xlink:href="#DejaVuSans-2e"/>
     <use transform="translate(1361.835938 0.78125)" xlink:href="#DejaVuSans-31"/>
     <use transform="translate(1425.458984 0.78125)" xlink:href="#DejaVuSans-36"/>
     <use transform="translate(1489.082031 0.78125)" xlink:href="#DejaVuSans-65"/>
     <use transform="translate(1550.605469 0.78125)" xlink:href="#DejaVuSans-56"/>
     <use transform="translate(1619.013672 0.78125)" xlink:href="#DejaVuSans-2c"/>
     <use transform="translate(1650.800781 0.78125)" xlink:href="#DejaVuSans-20"/>
     <use transform="translate(1682.587891 0.78125)" xlink:href="#DejaVuSans-394"/>
     <use transform="translate(1750.996094 0.78125)" xlink:href="#DejaVuSans-45"/>
     <use transform="translate(1814.179688 0.78125)" xlink:href="#DejaVuSans-3d"/>
     <use transform="translate(1897.96875 0.78125)" xlink:href="#DejaVuSans-30"/>
     <use transform="translate(1961.591797 0.78125)" xlink:href="#DejaVuSans-2e"/>
     <use transform="translate(1993.378906 0.78125)" xlink:href="#DejaVuSans-31"/>
     <use transform="translate(2057.001953 0.78125)" xlink:href="#DejaVuSans-32"/>
     <use transform="translate(2120.625 0.78125)" xlink:href="#DejaVuSans-65"/>
     <use transform="translate(2182.148438 0.78125)" xlink:href="#DejaVuSans-56"/>
    </g>
   </g>
  </g>
  <g id="axes_2">
   <g id="patch_2">
    <path clip-path="url(#p0405191925)" d="M 361.152 307.584 
L 361.152 306.5445 
L 361.152 42.5115 
L 361.152 41.472 
L 374.4576 41.472 
L 374.4576 42.5115 
L 374.4576 306.5445 
L 374.4576 307.584 
z
" style="fill:#ffffff;stroke:#ffffff;stroke-linejoin:miter;stroke-width:0.01;"/>
   </g>
   <image height="265.68" id="image9275fb35ea" transform="scale(1 -1)translate(0 -265.68)" width="12.96" x="361.44" xlink:href="data:image/png;base64,
iVBORw0KGgoAAAANSUhEUgAAABIAAAFxCAYAAAB+2fgXAAAABHNCSVQICAgIfAhkiAAAAeVJREFUeJztncmNw0AQA2ckheYQNv9QLIfQ8ygsCgQ7AEI8+jAs2Puz/94F1LP2ReCsZ18bAWIeZ5XaGRBE7VnbptG+KI101FYyNSiQG2oRITXKNaX9uclOdi2XWjftVE32CZCO2ou5Bj1TcCBr/1zB9ge7Fq0Rg2NM9pvbtG+ua1QgsRYhDy0ISEiNc40BEibbSI0Coj5CBGtkpFbXJiAjNZlrwhuSOv2M1DjXbEdEciBt1JSDDQKKpmZr2rr2j0DBGpXaWEJq3bQzEPIS26r9J+Wzv9Tm8o3aajRXqc3VUXsApKNWjeZq0x4ABVNbm7lrszVigDqP5vIl2+eaT2yfRkL7g+dRcNPqjohkjaCvRVBq0H2U3LQrOJCx9kdTg4B8oxZzzTdqdYHEngjUCAPyUctN9sVRq2sTECW2UKNLd2jVtRmo1A6AhMmWaSRcR8nUdIHUuVb75zJS218EyEitro1At69pIdeSk30Lkw0FktNImGyZRhy1O5galmxd03LUsHWk06jUZiCq+5Wb1kZNN4+wJxJuWt8RAW5am2sYNZ9rYCBzZ3buPKJ2P5Yj4Toy3keyIyJbIxs1rml1byCA84gpch5RQNB7Q0qNMGq2Hy4BXdNR41yz/cEEJfZzUz96r9PoB0okjeQ8y9TkAAAAAElFTkSuQmCC" y="-41.76"/>
   <g id="matplotlib.axis_1"/>
   <g id="matplotlib.axis_2">
    <g id="ytick_1">
     <g id="line2d_1">
      <defs>
       <path d="M 0 0 
L 3.5 0 
" id="m88363e51aa" style="stroke:#000000;stroke-width:0.8;"/>
      </defs>
      <g>
       <use style="stroke:#000000;stroke-width:0.8;" x="374.4576" xlink:href="#m88363e51aa" y="277.353918"/>
      </g>
     </g>
     <g id="text_2">
      <!-- −8.5 -->
      <defs>
       <path d="M 10.59375 35.5 
L 73.1875 35.5 
L 73.1875 27.203125 
L 10.59375 27.203125 
z
" id="DejaVuSans-2212"/>
      </defs>
      <g transform="translate(381.4576 281.153137)scale(0.1 -0.1)">
       <use xlink:href="#DejaVuSans-2212"/>
       <use x="83.789062" xlink:href="#DejaVuSans-38"/>
       <use x="147.412109" xlink:href="#DejaVuSans-2e"/>
       <use x="179.199219" xlink:href="#DejaVuSans-35"/>
      </g>
     </g>
    </g>
    <g id="ytick_2">
     <g id="line2d_2">
      <g>
       <use style="stroke:#000000;stroke-width:0.8;" x="374.4576" xlink:href="#m88363e51aa" y="238.246764"/>
      </g>
     </g>
     <g id="text_3">
      <!-- −8.0 -->
      <g transform="translate(381.4576 242.045983)scale(0.1 -0.1)">
       <use xlink:href="#DejaVuSans-2212"/>
       <use x="83.789062" xlink:href="#DejaVuSans-38"/>
       <use x="147.412109" xlink:href="#DejaVuSans-2e"/>
       <use x="179.199219" xlink:href="#DejaVuSans-30"/>
      </g>
     </g>
    </g>
    <g id="ytick_3">
     <g id="line2d_3">
      <g>
       <use style="stroke:#000000;stroke-width:0.8;" x="374.4576" xlink:href="#m88363e51aa" y="199.13961"/>
      </g>
     </g>
     <g id="text_4">
      <!-- −7.5 -->
      <g transform="translate(381.4576 202.938829)scale(0.1 -0.1)">
       <use xlink:href="#DejaVuSans-2212"/>
       <use x="83.789062" xlink:href="#DejaVuSans-37"/>
       <use x="147.412109" xlink:href="#DejaVuSans-2e"/>
       <use x="179.199219" xlink:href="#DejaVuSans-35"/>
      </g>
     </g>
    </g>
    <g id="ytick_4">
     <g id="line2d_4">
      <g>
       <use style="stroke:#000000;stroke-width:0.8;" x="374.4576" xlink:href="#m88363e51aa" y="160.032456"/>
      </g>
     </g>
     <g id="text_5">
      <!-- −7.0 -->
      <g transform="translate(381.4576 163.831674)scale(0.1 -0.1)">
       <use xlink:href="#DejaVuSans-2212"/>
       <use x="83.789062" xlink:href="#DejaVuSans-37"/>
       <use x="147.412109" xlink:href="#DejaVuSans-2e"/>
       <use x="179.199219" xlink:href="#DejaVuSans-30"/>
      </g>
     </g>
    </g>
    <g id="ytick_5">
     <g id="line2d_5">
      <g>
       <use style="stroke:#000000;stroke-width:0.8;" x="374.4576" xlink:href="#m88363e51aa" y="120.925302"/>
      </g>
     </g>
     <g id="text_6">
      <!-- −6.5 -->
      <g transform="translate(381.4576 124.72452)scale(0.1 -0.1)">
       <use xlink:href="#DejaVuSans-2212"/>
       <use x="83.789062" xlink:href="#DejaVuSans-36"/>
       <use x="147.412109" xlink:href="#DejaVuSans-2e"/>
       <use x="179.199219" xlink:href="#DejaVuSans-35"/>
      </g>
     </g>
    </g>
    <g id="ytick_6">
     <g id="line2d_6">
      <g>
       <use style="stroke:#000000;stroke-width:0.8;" x="374.4576" xlink:href="#m88363e51aa" y="81.818148"/>
      </g>
     </g>
     <g id="text_7">
      <!-- −6.0 -->
      <g transform="translate(381.4576 85.617366)scale(0.1 -0.1)">
       <use xlink:href="#DejaVuSans-2212"/>
       <use x="83.789062" xlink:href="#DejaVuSans-36"/>
       <use x="147.412109" xlink:href="#DejaVuSans-2e"/>
       <use x="179.199219" xlink:href="#DejaVuSans-30"/>
      </g>
     </g>
    </g>
    <g id="ytick_7">
     <g id="line2d_7">
      <g>
       <use style="stroke:#000000;stroke-width:0.8;" x="374.4576" xlink:href="#m88363e51aa" y="42.710993"/>
      </g>
     </g>
     <g id="text_8">
      <!-- −5.5 -->
      <g transform="translate(381.4576 46.510212)scale(0.1 -0.1)">
       <use xlink:href="#DejaVuSans-2212"/>
       <use x="83.789062" xlink:href="#DejaVuSans-35"/>
       <use x="147.412109" xlink:href="#DejaVuSans-2e"/>
       <use x="179.199219" xlink:href="#DejaVuSans-35"/>
      </g>
     </g>
    </g>
    <g id="text_9">
     <!-- Energy [eV] -->
     <defs>
      <path d="M 54.890625 33.015625 
L 54.890625 0 
L 45.90625 0 
L 45.90625 32.71875 
Q 45.90625 40.484375 42.875 44.328125 
Q 39.84375 48.1875 33.796875 48.1875 
Q 26.515625 48.1875 22.3125 43.546875 
Q 18.109375 38.921875 18.109375 30.90625 
L 18.109375 0 
L 9.078125 0 
L 9.078125 54.6875 
L 18.109375 54.6875 
L 18.109375 46.1875 
Q 21.34375 51.125 25.703125 53.5625 
Q 30.078125 56 35.796875 56 
Q 45.21875 56 50.046875 50.171875 
Q 54.890625 44.34375 54.890625 33.015625 
z
" id="DejaVuSans-6e"/>
      <path d="M 45.40625 27.984375 
Q 45.40625 37.75 41.375 43.109375 
Q 37.359375 48.484375 30.078125 48.484375 
Q 22.859375 48.484375 18.828125 43.109375 
Q 14.796875 37.75 14.796875 27.984375 
Q 14.796875 18.265625 18.828125 12.890625 
Q 22.859375 7.515625 30.078125 7.515625 
Q 37.359375 7.515625 41.375 12.890625 
Q 45.40625 18.265625 45.40625 27.984375 
z
M 54.390625 6.78125 
Q 54.390625 -7.171875 48.1875 -13.984375 
Q 42 -20.796875 29.203125 -20.796875 
Q 24.46875 -20.796875 20.265625 -20.09375 
Q 16.0625 -19.390625 12.109375 -17.921875 
L 12.109375 -9.1875 
Q 16.0625 -11.328125 19.921875 -12.34375 
Q 23.78125 -13.375 27.78125 -13.375 
Q 36.625 -13.375 41.015625 -8.765625 
Q 45.40625 -4.15625 45.40625 5.171875 
L 45.40625 9.625 
Q 42.625 4.78125 38.28125 2.390625 
Q 33.9375 0 27.875 0 
Q 17.828125 0 11.671875 7.65625 
Q 5.515625 15.328125 5.515625 27.984375 
Q 5.515625 40.671875 11.671875 48.328125 
Q 17.828125 56 27.875 56 
Q 33.9375 56 38.28125 53.609375 
Q 42.625 51.21875 45.40625 46.390625 
L 45.40625 54.6875 
L 54.390625 54.6875 
z
" id="DejaVuSans-67"/>
      <path d="M 32.171875 -5.078125 
Q 28.375 -14.84375 24.75 -17.8125 
Q 21.140625 -20.796875 15.09375 -20.796875 
L 7.90625 -20.796875 
L 7.90625 -13.28125 
L 13.1875 -13.28125 
Q 16.890625 -13.28125 18.9375 -11.515625 
Q 21 -9.765625 23.484375 -3.21875 
L 25.09375 0.875 
L 2.984375 54.6875 
L 12.5 54.6875 
L 29.59375 11.921875 
L 46.6875 54.6875 
L 56.203125 54.6875 
z
" id="DejaVuSans-79"/>
      <path d="M 8.59375 75.984375 
L 29.296875 75.984375 
L 29.296875 69 
L 17.578125 69 
L 17.578125 -6.203125 
L 29.296875 -6.203125 
L 29.296875 -13.1875 
L 8.59375 -13.1875 
z
" id="DejaVuSans-5b"/>
      <path d="M 30.421875 75.984375 
L 30.421875 -13.1875 
L 9.71875 -13.1875 
L 9.71875 -6.203125 
L 21.390625 -6.203125 
L 21.390625 69 
L 9.71875 69 
L 9.71875 75.984375 
z
" id="DejaVuSans-5d"/>
     </defs>
     <g transform="translate(417.33885 204.108469)rotate(-90)scale(0.1 -0.1)">
      <use xlink:href="#DejaVuSans-45"/>
      <use x="63.183594" xlink:href="#DejaVuSans-6e"/>
      <use x="126.5625" xlink:href="#DejaVuSans-65"/>
      <use x="188.085938" xlink:href="#DejaVuSans-72"/>
      <use x="229.183594" xlink:href="#DejaVuSans-67"/>
      <use x="292.660156" xlink:href="#DejaVuSans-79"/>
      <use x="351.839844" xlink:href="#DejaVuSans-20"/>
      <use x="383.626953" xlink:href="#DejaVuSans-5b"/>
      <use x="422.640625" xlink:href="#DejaVuSans-65"/>
      <use x="484.164062" xlink:href="#DejaVuSans-56"/>
      <use x="552.572266" xlink:href="#DejaVuSans-5d"/>
     </g>
    </g>
   </g>
   <g id="patch_3">
    <path d="M 361.152 307.584 
L 361.152 306.5445 
L 361.152 42.5115 
L 361.152 41.472 
L 374.4576 41.472 
L 374.4576 42.5115 
L 374.4576 306.5445 
L 374.4576 307.584 
z
" style="fill:none;stroke:#000000;stroke-linejoin:miter;stroke-width:0.8;"/>
   </g>
  </g>
 </g>
 <defs>
  <clipPath id="pc744ea4868">
   <rect height="266.112" width="285.696" x="57.6" y="41.472"/>
  </clipPath>
  <clipPath id="p0405191925">
   <rect height="266.112" width="13.3056" x="361.152" y="41.472"/>
  </clipPath>
 </defs>
</svg>
