<?xml version="1.0" encoding="utf-8" standalone="no"?>
<!DOCTYPE svg PUBLIC "-//W3C//DTD SVG 1.1//EN"
  "http://www.w3.org/Graphics/SVG/1.1/DTD/svg11.dtd">
<!-- Created with matplotlib (http://matplotlib.org/) -->
<svg height="345.6pt" version="1.1" viewBox="0 0 460.8 345.6" width="460.8pt" xmlns="http://www.w3.org/2000/svg" xmlns:xlink="http://www.w3.org/1999/xlink">
 <defs>
  <style type="text/css">
*{stroke-linecap:butt;stroke-linejoin:round;}
  </style>
 </defs>
 <g id="figure_1">
  <g id="patch_1">
   <path d="M 0 345.6 
L 460.8 345.6 
L 460.8 0 
L 0 0 
z
" style="fill:#ffffff;"/>
  </g>
  <g id="axes_1">
   <g id="CircleCollection_1">
    <path clip-path="url(#p818288bad8)" d="M 329.78706 192.730706 
C 331.512388 192.730706 333.167283 192.045226 334.387274 190.825235 
C 335.607265 189.605244 336.292745 187.950349 336.292745 186.225022 
C 336.292745 184.499694 335.607265 182.844799 334.387274 181.624808 
C 333.167283 180.404817 331.512388 179.719337 329.78706 179.719337 
C 328.061733 179.719337 326.406838 180.404817 325.186847 181.624808 
C 323.966856 182.844799 323.281376 184.499694 323.281376 186.225022 
C 323.281376 187.950349 323.966856 189.605244 325.186847 190.825235 
C 326.406838 192.045226 328.061733 192.730706 329.78706 192.730706 
z
" style="fill:#22a884;"/>
    <path clip-path="url(#p818288bad8)" d="M 109.380985 215.549742 
C 111.199586 215.549742 112.943947 214.827204 114.229892 213.541259 
C 115.515838 212.255314 116.238375 210.510953 116.238375 208.692352 
C 116.238375 206.87375 115.515838 205.129389 114.229892 203.843444 
C 112.943947 202.557499 111.199586 201.834961 109.380985 201.834961 
C 107.562383 201.834961 105.818022 202.557499 104.532077 203.843444 
C 103.246132 205.129389 102.523594 206.87375 102.523594 208.692352 
C 102.523594 210.510953 103.246132 212.255314 104.532077 213.541259 
C 105.818022 214.827204 107.562383 215.549742 109.380985 215.549742 
z
" style="fill:#46075a;"/>
    <path clip-path="url(#p818288bad8)" d="M 88.033285 82.884501 
C 89.722466 82.884501 91.342691 82.213382 92.537122 81.01895 
C 93.731554 79.824519 94.402673 78.204295 94.402673 76.515113 
C 94.402673 74.825932 93.731554 73.205708 92.537122 72.011276 
C 91.342691 70.816844 89.722466 70.145726 88.033285 70.145726 
C 86.344104 70.145726 84.72388 70.816844 83.529448 72.011276 
C 82.335016 73.205708 81.663897 74.825932 81.663897 76.515113 
C 81.663897 78.204295 82.335016 79.824519 83.529448 81.01895 
C 84.72388 82.213382 86.344104 82.884501 88.033285 82.884501 
z
" style="fill:#48c16e;"/>
    <path clip-path="url(#p818288bad8)" d="M 133.529222 173.697026 
C 135.376204 173.697026 137.147786 172.963212 138.453799 171.657199 
C 139.759812 170.351186 140.493626 168.579604 140.493626 166.732623 
C 140.493626 164.885641 139.759812 163.114059 138.453799 161.808046 
C 137.147786 160.502033 135.376204 159.76822 133.529222 159.76822 
C 131.682241 159.76822 129.910659 160.502033 128.604646 161.808046 
C 127.298633 163.114059 126.564819 164.885641 126.564819 166.732623 
C 126.564819 168.579604 127.298633 170.351186 128.604646 171.657199 
C 129.910659 172.963212 131.682241 173.697026 133.529222 173.697026 
z
" style="fill:#481d6f;"/>
    <path clip-path="url(#p818288bad8)" d="M 90.122029 118.504571 
C 91.864399 118.504571 93.535641 117.81232 94.767683 116.580279 
C 95.999724 115.348237 96.691975 113.676995 96.691975 111.934625 
C 96.691975 110.192256 95.999724 108.521014 94.767683 107.288972 
C 93.535641 106.056931 91.864399 105.36468 90.122029 105.36468 
C 88.379659 105.36468 86.708418 106.056931 85.476376 107.288972 
C 84.244335 108.521014 83.552084 110.192256 83.552084 111.934625 
C 83.552084 113.676995 84.244335 115.348237 85.476376 116.580279 
C 86.708418 117.81232 88.379659 118.504571 90.122029 118.504571 
z
" style="fill:#d8e219;"/>
    <path clip-path="url(#p818288bad8)" d="M 281.746253 120.863018 
C 283.535873 120.863018 285.252436 120.151994 286.517889 118.886541 
C 287.783341 117.621089 288.494365 115.904526 288.494365 114.114906 
C 288.494365 112.325286 287.783341 110.608723 286.517889 109.343271 
C 285.252436 108.077818 283.535873 107.366794 281.746253 107.366794 
C 279.956633 107.366794 278.24007 108.077818 276.974618 109.343271 
C 275.709165 110.608723 274.998142 112.325286 274.998142 114.114906 
C 274.998142 115.904526 275.709165 117.621089 276.974618 118.886541 
C 278.24007 120.151994 279.956633 120.863018 281.746253 120.863018 
z
" style="fill:#75d054;"/>
    <path clip-path="url(#p818288bad8)" d="M 217.966142 144.559266 
C 219.862709 144.559266 221.681853 143.805752 223.022928 142.464676 
C 224.364003 141.123601 225.117517 139.304457 225.117517 137.40789 
C 225.117517 135.511323 224.364003 133.69218 223.022928 132.351104 
C 221.681853 131.010029 219.862709 130.256515 217.966142 130.256515 
C 216.069575 130.256515 214.250431 131.010029 212.909356 132.351104 
C 211.568281 133.69218 210.814767 135.511323 210.814767 137.40789 
C 210.814767 139.304457 211.568281 141.123601 212.909356 142.464676 
C 214.250431 143.805752 216.069575 144.559266 217.966142 144.559266 
z
" style="fill:#c8e020;"/>
    <path clip-path="url(#p818288bad8)" d="M 286.036943 273.540008 
C 287.733084 273.540008 289.359984 272.866124 290.559338 271.666771 
C 291.758691 270.467418 292.432575 268.840518 292.432575 267.144376 
C 292.432575 265.448235 291.758691 263.821335 290.559338 262.621982 
C 289.359984 261.422629 287.733084 260.748744 286.036943 260.748744 
C 284.340801 260.748744 282.713901 261.422629 281.514548 262.621982 
C 280.315195 263.821335 279.641311 265.448235 279.641311 267.144376 
C 279.641311 268.840518 280.315195 270.467418 281.514548 271.666771 
C 282.713901 272.866124 284.340801 273.540008 286.036943 273.540008 
z
" style="fill:#1f968b;"/>
    <path clip-path="url(#p818288bad8)" d="M 134.917148 60.517941 
C 136.600889 60.517941 138.215895 59.848984 139.406479 58.658399 
C 140.597064 57.467815 141.266021 55.852809 141.266021 54.169068 
C 141.266021 52.485328 140.597064 50.870322 139.406479 49.679737 
C 138.215895 48.489153 136.600889 47.820196 134.917148 47.820196 
C 133.233408 47.820196 131.618402 48.489153 130.427817 49.679737 
C 129.237233 50.870322 128.568276 52.485328 128.568276 54.169068 
C 128.568276 55.852809 129.237233 57.467815 130.427817 58.658399 
C 131.618402 59.848984 133.233408 60.517941 134.917148 60.517941 
z
" style="fill:#8bd646;"/>
    <path clip-path="url(#p818288bad8)" d="M 178.897436 172.488694 
C 180.793852 172.488694 182.612852 171.73524 183.953821 170.394271 
C 185.29479 169.053302 186.048244 167.234302 186.048244 165.337886 
C 186.048244 163.441469 185.29479 161.62247 183.953821 160.281501 
C 182.612852 158.940532 180.793852 158.187078 178.897436 158.187078 
C 177.001019 158.187078 175.18202 158.940532 173.841051 160.281501 
C 172.500082 161.62247 171.746628 163.441469 171.746628 165.337886 
C 171.746628 167.234302 172.500082 169.053302 173.841051 170.394271 
C 175.18202 171.73524 177.001019 172.488694 178.897436 172.488694 
z
" style="fill:#b5de2b;"/>
    <path clip-path="url(#p818288bad8)" d="M 163.870637 286.158865 
C 165.664062 286.158865 167.384274 285.44633 168.652417 284.178187 
C 169.920559 282.910044 170.633095 281.189832 170.633095 279.396407 
C 170.633095 277.602983 169.920559 275.882771 168.652417 274.614628 
C 167.384274 273.346485 165.664062 272.63395 163.870637 272.63395 
C 162.077213 272.63395 160.357001 273.346485 159.088858 274.614628 
C 157.820715 275.882771 157.10818 277.602983 157.10818 279.396407 
C 157.10818 281.189832 157.820715 282.910044 159.088858 284.178187 
C 160.357001 285.44633 162.077213 286.158865 163.870637 286.158865 
z
" style="fill:#bade28;"/>
    <path clip-path="url(#p818288bad8)" d="M 240.464189 292.61175 
C 242.161267 292.61175 243.789066 291.937494 244.989082 290.737478 
C 246.189098 289.537462 246.863354 287.909663 246.863354 286.212585 
C 246.863354 284.515506 246.189098 282.887707 244.989082 281.687691 
C 243.789066 280.487676 242.161267 279.813419 240.464189 279.813419 
C 238.76711 279.813419 237.139311 280.487676 235.939295 281.687691 
C 234.73928 282.887707 234.065023 284.515506 234.065023 286.212585 
C 234.065023 287.909663 234.73928 289.537462 235.939295 290.737478 
C 237.139311 291.937494 238.76711 292.61175 240.464189 292.61175 
z
" style="fill:#7fd34e;"/>
    <path clip-path="url(#p818288bad8)" d="M 131.756063 130.71718 
C 133.552583 130.71718 135.275763 130.003415 136.546094 128.733084 
C 137.816425 127.462753 138.53019 125.739573 138.53019 123.943053 
C 138.53019 122.146534 137.816425 120.423353 136.546094 119.153022 
C 135.275763 117.882691 133.552583 117.168926 131.756063 117.168926 
C 129.959544 117.168926 128.236363 117.882691 126.966032 119.153022 
C 125.695701 120.423353 124.981937 122.146534 124.981937 123.943053 
C 124.981937 125.739573 125.695701 127.462753 126.966032 128.733084 
C 128.236363 130.003415 129.959544 130.71718 131.756063 130.71718 
z
" style="fill:#355e8d;"/>
    <path clip-path="url(#p818288bad8)" d="M 311.062498 151.965448 
C 312.819076 151.965448 314.503946 151.267552 315.746034 150.025464 
C 316.988123 148.783376 317.686019 147.098506 317.686019 145.341928 
C 317.686019 143.58535 316.988123 141.90048 315.746034 140.658392 
C 314.503946 139.416303 312.819076 138.718407 311.062498 138.718407 
C 309.30592 138.718407 307.62105 139.416303 306.378962 140.658392 
C 305.136874 141.90048 304.438978 143.58535 304.438978 145.341928 
C 304.438978 147.098506 305.136874 148.783376 306.378962 150.025464 
C 307.62105 151.267552 309.30592 151.965448 311.062498 151.965448 
z
" style="fill:#21a685;"/>
    <path clip-path="url(#p818288bad8)" d="M 186.623265 301.340864 
C 188.337781 301.340864 189.982306 300.65968 191.194653 299.447333 
C 192.406999 298.234987 193.088184 296.590462 193.088184 294.875945 
C 193.088184 293.161429 192.406999 291.516903 191.194653 290.304557 
C 189.982306 289.092211 188.337781 288.411026 186.623265 288.411026 
C 184.908748 288.411026 183.264223 289.092211 182.051876 290.304557 
C 180.83953 291.516903 180.158346 293.161429 180.158346 294.875945 
C 180.158346 296.590462 180.83953 298.234987 182.051876 299.447333 
C 183.264223 300.65968 184.908748 301.340864 186.623265 301.340864 
z
" style="fill:#440154;"/>
    <path clip-path="url(#p818288bad8)" d="M 313.98894 233.83881 
C 315.695401 233.83881 317.3322 233.160826 318.53885 231.954176 
C 319.745501 230.747525 320.423485 229.110726 320.423485 227.404265 
C 320.423485 225.697804 319.745501 224.061005 318.53885 222.854354 
C 317.3322 221.647704 315.695401 220.96972 313.98894 220.96972 
C 312.282478 220.96972 310.64568 221.647704 309.439029 222.854354 
C 308.232379 224.061005 307.554395 225.697804 307.554395 227.404265 
C 307.554395 229.110726 308.232379 230.747525 309.439029 231.954176 
C 310.64568 233.160826 312.282478 233.83881 313.98894 233.83881 
z
" style="fill:#26ad81;"/>
    <path clip-path="url(#p818288bad8)" d="M 71.116472 217.60031 
C 72.866662 217.60031 74.545403 216.904953 75.782974 215.667382 
C 77.020544 214.429812 77.715902 212.75107 77.715902 211.000881 
C 77.715902 209.250692 77.020544 207.57195 75.782974 206.33438 
C 74.545403 205.096809 72.866662 204.401451 71.116472 204.401451 
C 69.366283 204.401451 67.687542 205.096809 66.449971 206.33438 
C 65.2124 207.57195 64.517043 209.250692 64.517043 211.000881 
C 64.517043 212.75107 65.2124 214.429812 66.449971 215.667382 
C 67.687542 216.904953 69.366283 217.60031 71.116472 217.60031 
z
" style="fill:#e2e418;"/>
    <path clip-path="url(#p818288bad8)" d="M 231.236008 117.75463 
C 233.063075 117.75463 234.815557 117.028728 236.107488 115.736797 
C 237.39942 114.444865 238.125321 112.692384 238.125321 110.865317 
C 238.125321 109.03825 237.39942 107.285768 236.107488 105.993837 
C 234.815557 104.701905 233.063075 103.976004 231.236008 103.976004 
C 229.408941 103.976004 227.65646 104.701905 226.364528 105.993837 
C 225.072597 107.285768 224.346695 109.03825 224.346695 110.865317 
C 224.346695 112.692384 225.072597 114.444865 226.364528 115.736797 
C 227.65646 117.028728 229.408941 117.75463 231.236008 117.75463 
z
" style="fill:#471063;"/>
    <path clip-path="url(#p818288bad8)" d="M 95.060158 282.487899 
C 96.697833 282.487899 98.268654 281.837244 99.426665 280.679232 
C 100.584677 279.521221 101.235332 277.9504 101.235332 276.312725 
C 101.235332 274.67505 100.584677 273.104229 99.426665 271.946218 
C 98.268654 270.788207 96.697833 270.137551 95.060158 270.137551 
C 93.422483 270.137551 91.851662 270.788207 90.693651 271.946218 
C 89.53564 273.104229 88.884984 274.67505 88.884984 276.312725 
C 88.884984 277.9504 89.53564 279.521221 90.693651 280.679232 
C 91.851662 281.837244 93.422483 282.487899 95.060158 282.487899 
z
" style="fill:#28ae80;"/>
    <path clip-path="url(#p818288bad8)" d="M 133.706965 259.912384 
C 135.54271 259.912384 137.303514 259.183035 138.601581 257.884967 
C 139.899649 256.5869 140.628997 254.826096 140.628997 252.990352 
C 140.628997 251.154607 139.899649 249.393803 138.601581 248.095736 
C 137.303514 246.797669 135.54271 246.06832 133.706965 246.06832 
C 131.871221 246.06832 130.110417 246.797669 128.81235 248.095736 
C 127.514282 249.393803 126.784933 251.154607 126.784933 252.990352 
C 126.784933 254.826096 127.514282 256.5869 128.81235 257.884967 
C 130.110417 259.183035 131.871221 259.912384 133.706965 259.912384 
z
" style="fill:#9bd93c;"/>
    <path clip-path="url(#p818288bad8)" d="M 182.059962 100.855494 
C 183.844182 100.855494 185.555566 100.146616 186.8172 98.884982 
C 188.078834 97.623348 188.787712 95.911964 188.787712 94.127744 
C 188.787712 92.343524 188.078834 90.63214 186.8172 89.370506 
C 185.555566 88.108872 183.844182 87.399994 182.059962 87.399994 
C 180.275742 87.399994 178.564358 88.108872 177.302724 89.370506 
C 176.04109 90.63214 175.332212 92.343524 175.332212 94.127744 
C 175.332212 95.911964 176.04109 97.623348 177.302724 98.884982 
C 178.564358 100.146616 180.275742 100.855494 182.059962 100.855494 
z
" style="fill:#2f6b8e;"/>
    <path clip-path="url(#p818288bad8)" d="M 180.389424 63.805637 
C 182.113175 63.805637 183.766558 63.120784 184.985434 61.901908 
C 186.20431 60.683032 186.889163 59.029649 186.889163 57.305898 
C 186.889163 55.582147 186.20431 53.928764 184.985434 52.709888 
C 183.766558 51.491012 182.113175 50.806159 180.389424 50.806159 
C 178.665673 50.806159 177.012291 51.491012 175.793415 52.709888 
C 174.574539 53.928764 173.889685 55.582147 173.889685 57.305898 
C 173.889685 59.029649 174.574539 60.683032 175.793415 61.901908 
C 177.012291 63.120784 178.665673 63.805637 180.389424 63.805637 
z
" style="fill:#f4e61e;"/>
    <path clip-path="url(#p818288bad8)" d="M 144.04709 294.079916 
C 145.699898 294.079916 147.285235 293.423249 148.453947 292.254536 
C 149.622659 291.085824 150.279327 289.500488 150.279327 287.847679 
C 150.279327 286.194871 149.622659 284.609534 148.453947 283.440822 
C 147.285235 282.27211 145.699898 281.615442 144.04709 281.615442 
C 142.394281 281.615442 140.808945 282.27211 139.640233 283.440822 
C 138.471521 284.609534 137.814853 286.194871 137.814853 287.847679 
C 137.814853 289.500488 138.471521 291.085824 139.640233 292.254536 
C 140.808945 293.423249 142.394281 294.079916 144.04709 294.079916 
z
" style="fill:#fde725;"/>
    <path clip-path="url(#p818288bad8)" d="M 77.512211 244.228656 
C 79.196566 244.228656 80.81216 243.559455 82.003179 242.368436 
C 83.194198 241.177418 83.863399 239.561823 83.863399 237.877468 
C 83.863399 236.193114 83.194198 234.577519 82.003179 233.3865 
C 80.81216 232.195482 79.196566 231.526281 77.512211 231.526281 
C 75.827856 231.526281 74.212262 232.195482 73.021243 233.3865 
C 71.830224 234.577519 71.161023 236.193114 71.161023 237.877468 
C 71.161023 239.561823 71.830224 241.177418 73.021243 242.368436 
C 74.212262 243.559455 75.827856 244.228656 77.512211 244.228656 
z
" style="fill:#6ccd5a;"/>
   </g>
   <g id="text_1">
    <!-- Structure #8733, $E_N$=-180.17eV, ΔE=0.29eV -->
    <defs>
     <path d="M 53.515625 70.515625 
L 53.515625 60.890625 
Q 47.90625 63.578125 42.921875 64.890625 
Q 37.9375 66.21875 33.296875 66.21875 
Q 25.25 66.21875 20.875 63.09375 
Q 16.5 59.96875 16.5 54.203125 
Q 16.5 49.359375 19.40625 46.890625 
Q 22.3125 44.4375 30.421875 42.921875 
L 36.375 41.703125 
Q 47.40625 39.59375 52.65625 34.296875 
Q 57.90625 29 57.90625 20.125 
Q 57.90625 9.515625 50.796875 4.046875 
Q 43.703125 -1.421875 29.984375 -1.421875 
Q 24.8125 -1.421875 18.96875 -0.25 
Q 13.140625 0.921875 6.890625 3.21875 
L 6.890625 13.375 
Q 12.890625 10.015625 18.65625 8.296875 
Q 24.421875 6.59375 29.984375 6.59375 
Q 38.421875 6.59375 43.015625 9.90625 
Q 47.609375 13.234375 47.609375 19.390625 
Q 47.609375 24.75 44.3125 27.78125 
Q 41.015625 30.8125 33.5 32.328125 
L 27.484375 33.5 
Q 16.453125 35.6875 11.515625 40.375 
Q 6.59375 45.0625 6.59375 53.421875 
Q 6.59375 63.09375 13.40625 68.65625 
Q 20.21875 74.21875 32.171875 74.21875 
Q 37.3125 74.21875 42.625 73.28125 
Q 47.953125 72.359375 53.515625 70.515625 
z
" id="DejaVuSans-53"/>
     <path d="M 18.3125 70.21875 
L 18.3125 54.6875 
L 36.8125 54.6875 
L 36.8125 47.703125 
L 18.3125 47.703125 
L 18.3125 18.015625 
Q 18.3125 11.328125 20.140625 9.421875 
Q 21.96875 7.515625 27.59375 7.515625 
L 36.8125 7.515625 
L 36.8125 0 
L 27.59375 0 
Q 17.1875 0 13.234375 3.875 
Q 9.28125 7.765625 9.28125 18.015625 
L 9.28125 47.703125 
L 2.6875 47.703125 
L 2.6875 54.6875 
L 9.28125 54.6875 
L 9.28125 70.21875 
z
" id="DejaVuSans-74"/>
     <path d="M 41.109375 46.296875 
Q 39.59375 47.171875 37.8125 47.578125 
Q 36.03125 48 33.890625 48 
Q 26.265625 48 22.1875 43.046875 
Q 18.109375 38.09375 18.109375 28.8125 
L 18.109375 0 
L 9.078125 0 
L 9.078125 54.6875 
L 18.109375 54.6875 
L 18.109375 46.1875 
Q 20.953125 51.171875 25.484375 53.578125 
Q 30.03125 56 36.53125 56 
Q 37.453125 56 38.578125 55.875 
Q 39.703125 55.765625 41.0625 55.515625 
z
" id="DejaVuSans-72"/>
     <path d="M 8.5 21.578125 
L 8.5 54.6875 
L 17.484375 54.6875 
L 17.484375 21.921875 
Q 17.484375 14.15625 20.5 10.265625 
Q 23.53125 6.390625 29.59375 6.390625 
Q 36.859375 6.390625 41.078125 11.03125 
Q 45.3125 15.671875 45.3125 23.6875 
L 45.3125 54.6875 
L 54.296875 54.6875 
L 54.296875 0 
L 45.3125 0 
L 45.3125 8.40625 
Q 42.046875 3.421875 37.71875 1 
Q 33.40625 -1.421875 27.6875 -1.421875 
Q 18.265625 -1.421875 13.375 4.4375 
Q 8.5 10.296875 8.5 21.578125 
z
M 31.109375 56 
z
" id="DejaVuSans-75"/>
     <path d="M 48.78125 52.59375 
L 48.78125 44.1875 
Q 44.96875 46.296875 41.140625 47.34375 
Q 37.3125 48.390625 33.40625 48.390625 
Q 24.65625 48.390625 19.8125 42.84375 
Q 14.984375 37.3125 14.984375 27.296875 
Q 14.984375 17.28125 19.8125 11.734375 
Q 24.65625 6.203125 33.40625 6.203125 
Q 37.3125 6.203125 41.140625 7.25 
Q 44.96875 8.296875 48.78125 10.40625 
L 48.78125 2.09375 
Q 45.015625 0.34375 40.984375 -0.53125 
Q 36.96875 -1.421875 32.421875 -1.421875 
Q 20.0625 -1.421875 12.78125 6.34375 
Q 5.515625 14.109375 5.515625 27.296875 
Q 5.515625 40.671875 12.859375 48.328125 
Q 20.21875 56 33.015625 56 
Q 37.15625 56 41.109375 55.140625 
Q 45.0625 54.296875 48.78125 52.59375 
z
" id="DejaVuSans-63"/>
     <path d="M 56.203125 29.59375 
L 56.203125 25.203125 
L 14.890625 25.203125 
Q 15.484375 15.921875 20.484375 11.0625 
Q 25.484375 6.203125 34.421875 6.203125 
Q 39.59375 6.203125 44.453125 7.46875 
Q 49.3125 8.734375 54.109375 11.28125 
L 54.109375 2.78125 
Q 49.265625 0.734375 44.1875 -0.34375 
Q 39.109375 -1.421875 33.890625 -1.421875 
Q 20.796875 -1.421875 13.15625 6.1875 
Q 5.515625 13.8125 5.515625 26.8125 
Q 5.515625 40.234375 12.765625 48.109375 
Q 20.015625 56 32.328125 56 
Q 43.359375 56 49.78125 48.890625 
Q 56.203125 41.796875 56.203125 29.59375 
z
M 47.21875 32.234375 
Q 47.125 39.59375 43.09375 43.984375 
Q 39.0625 48.390625 32.421875 48.390625 
Q 24.90625 48.390625 20.390625 44.140625 
Q 15.875 39.890625 15.1875 32.171875 
z
" id="DejaVuSans-65"/>
     <path id="DejaVuSans-20"/>
     <path d="M 51.125 44 
L 36.921875 44 
L 32.8125 27.6875 
L 47.125 27.6875 
z
M 43.796875 71.78125 
L 38.71875 51.515625 
L 52.984375 51.515625 
L 58.109375 71.78125 
L 65.921875 71.78125 
L 60.890625 51.515625 
L 76.125 51.515625 
L 76.125 44 
L 58.984375 44 
L 54.984375 27.6875 
L 70.515625 27.6875 
L 70.515625 20.21875 
L 53.078125 20.21875 
L 48 0 
L 40.1875 0 
L 45.21875 20.21875 
L 30.90625 20.21875 
L 25.875 0 
L 18.015625 0 
L 23.09375 20.21875 
L 7.71875 20.21875 
L 7.71875 27.6875 
L 24.90625 27.6875 
L 29 44 
L 13.28125 44 
L 13.28125 51.515625 
L 30.90625 51.515625 
L 35.890625 71.78125 
z
" id="DejaVuSans-23"/>
     <path d="M 31.78125 34.625 
Q 24.75 34.625 20.71875 30.859375 
Q 16.703125 27.09375 16.703125 20.515625 
Q 16.703125 13.921875 20.71875 10.15625 
Q 24.75 6.390625 31.78125 6.390625 
Q 38.8125 6.390625 42.859375 10.171875 
Q 46.921875 13.96875 46.921875 20.515625 
Q 46.921875 27.09375 42.890625 30.859375 
Q 38.875 34.625 31.78125 34.625 
z
M 21.921875 38.8125 
Q 15.578125 40.375 12.03125 44.71875 
Q 8.5 49.078125 8.5 55.328125 
Q 8.5 64.0625 14.71875 69.140625 
Q 20.953125 74.21875 31.78125 74.21875 
Q 42.671875 74.21875 48.875 69.140625 
Q 55.078125 64.0625 55.078125 55.328125 
Q 55.078125 49.078125 51.53125 44.71875 
Q 48 40.375 41.703125 38.8125 
Q 48.828125 37.15625 52.796875 32.3125 
Q 56.78125 27.484375 56.78125 20.515625 
Q 56.78125 9.90625 50.3125 4.234375 
Q 43.84375 -1.421875 31.78125 -1.421875 
Q 19.734375 -1.421875 13.25 4.234375 
Q 6.78125 9.90625 6.78125 20.515625 
Q 6.78125 27.484375 10.78125 32.3125 
Q 14.796875 37.15625 21.921875 38.8125 
z
M 18.3125 54.390625 
Q 18.3125 48.734375 21.84375 45.5625 
Q 25.390625 42.390625 31.78125 42.390625 
Q 38.140625 42.390625 41.71875 45.5625 
Q 45.3125 48.734375 45.3125 54.390625 
Q 45.3125 60.0625 41.71875 63.234375 
Q 38.140625 66.40625 31.78125 66.40625 
Q 25.390625 66.40625 21.84375 63.234375 
Q 18.3125 60.0625 18.3125 54.390625 
z
" id="DejaVuSans-38"/>
     <path d="M 8.203125 72.90625 
L 55.078125 72.90625 
L 55.078125 68.703125 
L 28.609375 0 
L 18.3125 0 
L 43.21875 64.59375 
L 8.203125 64.59375 
z
" id="DejaVuSans-37"/>
     <path d="M 40.578125 39.3125 
Q 47.65625 37.796875 51.625 33 
Q 55.609375 28.21875 55.609375 21.1875 
Q 55.609375 10.40625 48.1875 4.484375 
Q 40.765625 -1.421875 27.09375 -1.421875 
Q 22.515625 -1.421875 17.65625 -0.515625 
Q 12.796875 0.390625 7.625 2.203125 
L 7.625 11.71875 
Q 11.71875 9.328125 16.59375 8.109375 
Q 21.484375 6.890625 26.8125 6.890625 
Q 36.078125 6.890625 40.9375 10.546875 
Q 45.796875 14.203125 45.796875 21.1875 
Q 45.796875 27.640625 41.28125 31.265625 
Q 36.765625 34.90625 28.71875 34.90625 
L 20.21875 34.90625 
L 20.21875 43.015625 
L 29.109375 43.015625 
Q 36.375 43.015625 40.234375 45.921875 
Q 44.09375 48.828125 44.09375 54.296875 
Q 44.09375 59.90625 40.109375 62.90625 
Q 36.140625 65.921875 28.71875 65.921875 
Q 24.65625 65.921875 20.015625 65.03125 
Q 15.375 64.15625 9.8125 62.3125 
L 9.8125 71.09375 
Q 15.4375 72.65625 20.34375 73.4375 
Q 25.25 74.21875 29.59375 74.21875 
Q 40.828125 74.21875 47.359375 69.109375 
Q 53.90625 64.015625 53.90625 55.328125 
Q 53.90625 49.265625 50.4375 45.09375 
Q 46.96875 40.921875 40.578125 39.3125 
z
" id="DejaVuSans-33"/>
     <path d="M 11.71875 12.40625 
L 22.015625 12.40625 
L 22.015625 4 
L 14.015625 -11.625 
L 7.71875 -11.625 
L 11.71875 4 
z
" id="DejaVuSans-2c"/>
     <path d="M 16.890625 72.90625 
L 62.984375 72.90625 
L 61.375 64.59375 
L 25.09375 64.59375 
L 20.90625 43.015625 
L 55.71875 43.015625 
L 54.109375 34.71875 
L 19.28125 34.71875 
L 14.203125 8.296875 
L 51.3125 8.296875 
L 49.703125 0 
L 2.6875 0 
z
" id="DejaVuSans-Oblique-45"/>
     <path d="M 16.890625 72.90625 
L 30.171875 72.90625 
L 50.296875 10.40625 
L 62.5 72.90625 
L 72.125 72.90625 
L 57.90625 0 
L 44.578125 0 
L 24.515625 62.890625 
L 12.3125 0 
L 2.6875 0 
z
" id="DejaVuSans-Oblique-4e"/>
     <path d="M 10.59375 45.40625 
L 73.1875 45.40625 
L 73.1875 37.203125 
L 10.59375 37.203125 
z
M 10.59375 25.484375 
L 73.1875 25.484375 
L 73.1875 17.1875 
L 10.59375 17.1875 
z
" id="DejaVuSans-3d"/>
     <path d="M 4.890625 31.390625 
L 31.203125 31.390625 
L 31.203125 23.390625 
L 4.890625 23.390625 
z
" id="DejaVuSans-2d"/>
     <path d="M 12.40625 8.296875 
L 28.515625 8.296875 
L 28.515625 63.921875 
L 10.984375 60.40625 
L 10.984375 69.390625 
L 28.421875 72.90625 
L 38.28125 72.90625 
L 38.28125 8.296875 
L 54.390625 8.296875 
L 54.390625 0 
L 12.40625 0 
z
" id="DejaVuSans-31"/>
     <path d="M 31.78125 66.40625 
Q 24.171875 66.40625 20.328125 58.90625 
Q 16.5 51.421875 16.5 36.375 
Q 16.5 21.390625 20.328125 13.890625 
Q 24.171875 6.390625 31.78125 6.390625 
Q 39.453125 6.390625 43.28125 13.890625 
Q 47.125 21.390625 47.125 36.375 
Q 47.125 51.421875 43.28125 58.90625 
Q 39.453125 66.40625 31.78125 66.40625 
z
M 31.78125 74.21875 
Q 44.046875 74.21875 50.515625 64.515625 
Q 56.984375 54.828125 56.984375 36.375 
Q 56.984375 17.96875 50.515625 8.265625 
Q 44.046875 -1.421875 31.78125 -1.421875 
Q 19.53125 -1.421875 13.0625 8.265625 
Q 6.59375 17.96875 6.59375 36.375 
Q 6.59375 54.828125 13.0625 64.515625 
Q 19.53125 74.21875 31.78125 74.21875 
z
" id="DejaVuSans-30"/>
     <path d="M 10.6875 12.40625 
L 21 12.40625 
L 21 0 
L 10.6875 0 
z
" id="DejaVuSans-2e"/>
     <path d="M 28.609375 0 
L 0.78125 72.90625 
L 11.078125 72.90625 
L 34.1875 11.53125 
L 57.328125 72.90625 
L 67.578125 72.90625 
L 39.796875 0 
z
" id="DejaVuSans-56"/>
     <path d="M 34.1875 63.1875 
L 14.15625 8.203125 
L 54.25 8.203125 
z
M 0.78125 0 
L 28.609375 72.90625 
L 39.796875 72.90625 
L 67.578125 0 
z
" id="DejaVuSans-394"/>
     <path d="M 9.8125 72.90625 
L 55.90625 72.90625 
L 55.90625 64.59375 
L 19.671875 64.59375 
L 19.671875 43.015625 
L 54.390625 43.015625 
L 54.390625 34.71875 
L 19.671875 34.71875 
L 19.671875 8.296875 
L 56.78125 8.296875 
L 56.78125 0 
L 9.8125 0 
z
" id="DejaVuSans-45"/>
     <path d="M 19.1875 8.296875 
L 53.609375 8.296875 
L 53.609375 0 
L 7.328125 0 
L 7.328125 8.296875 
Q 12.9375 14.109375 22.625 23.890625 
Q 32.328125 33.6875 34.8125 36.53125 
Q 39.546875 41.84375 41.421875 45.53125 
Q 43.3125 49.21875 43.3125 52.78125 
Q 43.3125 58.59375 39.234375 62.25 
Q 35.15625 65.921875 28.609375 65.921875 
Q 23.96875 65.921875 18.8125 64.3125 
Q 13.671875 62.703125 7.8125 59.421875 
L 7.8125 69.390625 
Q 13.765625 71.78125 18.9375 73 
Q 24.125 74.21875 28.421875 74.21875 
Q 39.75 74.21875 46.484375 68.546875 
Q 53.21875 62.890625 53.21875 53.421875 
Q 53.21875 48.921875 51.53125 44.890625 
Q 49.859375 40.875 45.40625 35.40625 
Q 44.1875 33.984375 37.640625 27.21875 
Q 31.109375 20.453125 19.1875 8.296875 
z
" id="DejaVuSans-32"/>
     <path d="M 10.984375 1.515625 
L 10.984375 10.5 
Q 14.703125 8.734375 18.5 7.8125 
Q 22.3125 6.890625 25.984375 6.890625 
Q 35.75 6.890625 40.890625 13.453125 
Q 46.046875 20.015625 46.78125 33.40625 
Q 43.953125 29.203125 39.59375 26.953125 
Q 35.25 24.703125 29.984375 24.703125 
Q 19.046875 24.703125 12.671875 31.3125 
Q 6.296875 37.9375 6.296875 49.421875 
Q 6.296875 60.640625 12.9375 67.421875 
Q 19.578125 74.21875 30.609375 74.21875 
Q 43.265625 74.21875 49.921875 64.515625 
Q 56.59375 54.828125 56.59375 36.375 
Q 56.59375 19.140625 48.40625 8.859375 
Q 40.234375 -1.421875 26.421875 -1.421875 
Q 22.703125 -1.421875 18.890625 -0.6875 
Q 15.09375 0.046875 10.984375 1.515625 
z
M 30.609375 32.421875 
Q 37.25 32.421875 41.125 36.953125 
Q 45.015625 41.5 45.015625 49.421875 
Q 45.015625 57.28125 41.125 61.84375 
Q 37.25 66.40625 30.609375 66.40625 
Q 23.96875 66.40625 20.09375 61.84375 
Q 16.21875 57.28125 16.21875 49.421875 
Q 16.21875 41.5 20.09375 36.953125 
Q 23.96875 32.421875 30.609375 32.421875 
z
" id="DejaVuSans-39"/>
    </defs>
    <g transform="translate(65.388 35.472)scale(0.12 -0.12)">
     <use transform="translate(0 0.78125)" xlink:href="#DejaVuSans-53"/>
     <use transform="translate(63.476562 0.78125)" xlink:href="#DejaVuSans-74"/>
     <use transform="translate(102.685547 0.78125)" xlink:href="#DejaVuSans-72"/>
     <use transform="translate(143.798828 0.78125)" xlink:href="#DejaVuSans-75"/>
     <use transform="translate(207.177734 0.78125)" xlink:href="#DejaVuSans-63"/>
     <use transform="translate(262.158203 0.78125)" xlink:href="#DejaVuSans-74"/>
     <use transform="translate(301.367188 0.78125)" xlink:href="#DejaVuSans-75"/>
     <use transform="translate(364.746094 0.78125)" xlink:href="#DejaVuSans-72"/>
     <use transform="translate(405.859375 0.78125)" xlink:href="#DejaVuSans-65"/>
     <use transform="translate(467.382812 0.78125)" xlink:href="#DejaVuSans-20"/>
     <use transform="translate(499.169922 0.78125)" xlink:href="#DejaVuSans-23"/>
     <use transform="translate(582.958984 0.78125)" xlink:href="#DejaVuSans-38"/>
     <use transform="translate(646.582031 0.78125)" xlink:href="#DejaVuSans-37"/>
     <use transform="translate(710.205078 0.78125)" xlink:href="#DejaVuSans-33"/>
     <use transform="translate(773.828125 0.78125)" xlink:href="#DejaVuSans-33"/>
     <use transform="translate(837.451172 0.78125)" xlink:href="#DejaVuSans-2c"/>
     <use transform="translate(869.238281 0.78125)" xlink:href="#DejaVuSans-20"/>
     <use transform="translate(901.025391 0.78125)" xlink:href="#DejaVuSans-Oblique-45"/>
     <use transform="translate(964.208984 -15.625)scale(0.7)" xlink:href="#DejaVuSans-Oblique-4e"/>
     <use transform="translate(1019.306641 0.78125)" xlink:href="#DejaVuSans-3d"/>
     <use transform="translate(1103.095703 0.78125)" xlink:href="#DejaVuSans-2d"/>
     <use transform="translate(1139.179688 0.78125)" xlink:href="#DejaVuSans-31"/>
     <use transform="translate(1202.802734 0.78125)" xlink:href="#DejaVuSans-38"/>
     <use transform="translate(1266.425781 0.78125)" xlink:href="#DejaVuSans-30"/>
     <use transform="translate(1330.048828 0.78125)" xlink:href="#DejaVuSans-2e"/>
     <use transform="translate(1361.835938 0.78125)" xlink:href="#DejaVuSans-31"/>
     <use transform="translate(1425.458984 0.78125)" xlink:href="#DejaVuSans-37"/>
     <use transform="translate(1489.082031 0.78125)" xlink:href="#DejaVuSans-65"/>
     <use transform="translate(1550.605469 0.78125)" xlink:href="#DejaVuSans-56"/>
     <use transform="translate(1619.013672 0.78125)" xlink:href="#DejaVuSans-2c"/>
     <use transform="translate(1650.800781 0.78125)" xlink:href="#DejaVuSans-20"/>
     <use transform="translate(1682.587891 0.78125)" xlink:href="#DejaVuSans-394"/>
     <use transform="translate(1750.996094 0.78125)" xlink:href="#DejaVuSans-45"/>
     <use transform="translate(1814.179688 0.78125)" xlink:href="#DejaVuSans-3d"/>
     <use transform="translate(1897.96875 0.78125)" xlink:href="#DejaVuSans-30"/>
     <use transform="translate(1961.591797 0.78125)" xlink:href="#DejaVuSans-2e"/>
     <use transform="translate(1993.300781 0.78125)" xlink:href="#DejaVuSans-32"/>
     <use transform="translate(2056.908203 0.78125)" xlink:href="#DejaVuSans-39"/>
     <use transform="translate(2120.53125 0.78125)" xlink:href="#DejaVuSans-65"/>
     <use transform="translate(2182.054688 0.78125)" xlink:href="#DejaVuSans-56"/>
    </g>
   </g>
  </g>
  <g id="axes_2">
   <g id="patch_2">
    <path clip-path="url(#p604f15f99b)" d="M 361.152 307.584 
L 361.152 306.5445 
L 361.152 42.5115 
L 361.152 41.472 
L 374.4576 41.472 
L 374.4576 42.5115 
L 374.4576 306.5445 
L 374.4576 307.584 
z
" style="fill:#ffffff;stroke:#ffffff;stroke-linejoin:miter;stroke-width:0.01;"/>
   </g>
   <image height="265.68" id="image075f45f3d2" transform="scale(1 -1)translate(0 -265.68)" width="12.96" x="361.44" xlink:href="data:image/png;base64,
iVBORw0KGgoAAAANSUhEUgAAABIAAAFxCAYAAAB+2fgXAAAABHNCSVQICAgIfAhkiAAAAeVJREFUeJztncmNw0AQA2ckheYQNv9QLIfQ8ygsCgQ7AEI8+jAs2Puz/94F1LP2ReCsZ18bAWIeZ5XaGRBE7VnbptG+KI101FYyNSiQG2oRITXKNaX9uclOdi2XWjftVE32CZCO2ou5Bj1TcCBr/1zB9ge7Fq0Rg2NM9pvbtG+ua1QgsRYhDy0ISEiNc40BEibbSI0Coj5CBGtkpFbXJiAjNZlrwhuSOv2M1DjXbEdEciBt1JSDDQKKpmZr2rr2j0DBGpXaWEJq3bQzEPIS26r9J+Wzv9Tm8o3aajRXqc3VUXsApKNWjeZq0x4ABVNbm7lrszVigDqP5vIl2+eaT2yfRkL7g+dRcNPqjohkjaCvRVBq0H2U3LQrOJCx9kdTg4B8oxZzzTdqdYHEngjUCAPyUctN9sVRq2sTECW2UKNLd2jVtRmo1A6AhMmWaSRcR8nUdIHUuVb75zJS218EyEitro1At69pIdeSk30Lkw0FktNImGyZRhy1O5galmxd03LUsHWk06jUZiCq+5Wb1kZNN4+wJxJuWt8RAW5am2sYNZ9rYCBzZ3buPKJ2P5Yj4Toy3keyIyJbIxs1rml1byCA84gpch5RQNB7Q0qNMGq2Hy4BXdNR41yz/cEEJfZzUz96r9PoB0okjeQ8y9TkAAAAAElFTkSuQmCC" y="-41.76"/>
   <g id="matplotlib.axis_1"/>
   <g id="matplotlib.axis_2">
    <g id="ytick_1">
     <g id="line2d_1">
      <defs>
       <path d="M 0 0 
L 3.5 0 
" id="m75b3baad45" style="stroke:#000000;stroke-width:0.8;"/>
      </defs>
      <g>
       <use style="stroke:#000000;stroke-width:0.8;" x="374.4576" xlink:href="#m75b3baad45" y="306.592107"/>
      </g>
     </g>
     <g id="text_2">
      <!-- −9.0 -->
      <defs>
       <path d="M 10.59375 35.5 
L 73.1875 35.5 
L 73.1875 27.203125 
L 10.59375 27.203125 
z
" id="DejaVuSans-2212"/>
      </defs>
      <g transform="translate(381.4576 310.391326)scale(0.1 -0.1)">
       <use xlink:href="#DejaVuSans-2212"/>
       <use x="83.789062" xlink:href="#DejaVuSans-39"/>
       <use x="147.412109" xlink:href="#DejaVuSans-2e"/>
       <use x="179.199219" xlink:href="#DejaVuSans-30"/>
      </g>
     </g>
    </g>
    <g id="ytick_2">
     <g id="line2d_2">
      <g>
       <use style="stroke:#000000;stroke-width:0.8;" x="374.4576" xlink:href="#m75b3baad45" y="250.925502"/>
      </g>
     </g>
     <g id="text_3">
      <!-- −8.5 -->
      <defs>
       <path d="M 10.796875 72.90625 
L 49.515625 72.90625 
L 49.515625 64.59375 
L 19.828125 64.59375 
L 19.828125 46.734375 
Q 21.96875 47.46875 24.109375 47.828125 
Q 26.265625 48.1875 28.421875 48.1875 
Q 40.625 48.1875 47.75 41.5 
Q 54.890625 34.8125 54.890625 23.390625 
Q 54.890625 11.625 47.5625 5.09375 
Q 40.234375 -1.421875 26.90625 -1.421875 
Q 22.3125 -1.421875 17.546875 -0.640625 
Q 12.796875 0.140625 7.71875 1.703125 
L 7.71875 11.625 
Q 12.109375 9.234375 16.796875 8.0625 
Q 21.484375 6.890625 26.703125 6.890625 
Q 35.15625 6.890625 40.078125 11.328125 
Q 45.015625 15.765625 45.015625 23.390625 
Q 45.015625 31 40.078125 35.4375 
Q 35.15625 39.890625 26.703125 39.890625 
Q 22.75 39.890625 18.8125 39.015625 
Q 14.890625 38.140625 10.796875 36.28125 
z
" id="DejaVuSans-35"/>
      </defs>
      <g transform="translate(381.4576 254.724721)scale(0.1 -0.1)">
       <use xlink:href="#DejaVuSans-2212"/>
       <use x="83.789062" xlink:href="#DejaVuSans-38"/>
       <use x="147.412109" xlink:href="#DejaVuSans-2e"/>
       <use x="179.199219" xlink:href="#DejaVuSans-35"/>
      </g>
     </g>
    </g>
    <g id="ytick_3">
     <g id="line2d_3">
      <g>
       <use style="stroke:#000000;stroke-width:0.8;" x="374.4576" xlink:href="#m75b3baad45" y="195.258897"/>
      </g>
     </g>
     <g id="text_4">
      <!-- −8.0 -->
      <g transform="translate(381.4576 199.058115)scale(0.1 -0.1)">
       <use xlink:href="#DejaVuSans-2212"/>
       <use x="83.789062" xlink:href="#DejaVuSans-38"/>
       <use x="147.412109" xlink:href="#DejaVuSans-2e"/>
       <use x="179.199219" xlink:href="#DejaVuSans-30"/>
      </g>
     </g>
    </g>
    <g id="ytick_4">
     <g id="line2d_4">
      <g>
       <use style="stroke:#000000;stroke-width:0.8;" x="374.4576" xlink:href="#m75b3baad45" y="139.592291"/>
      </g>
     </g>
     <g id="text_5">
      <!-- −7.5 -->
      <g transform="translate(381.4576 143.39151)scale(0.1 -0.1)">
       <use xlink:href="#DejaVuSans-2212"/>
       <use x="83.789062" xlink:href="#DejaVuSans-37"/>
       <use x="147.412109" xlink:href="#DejaVuSans-2e"/>
       <use x="179.199219" xlink:href="#DejaVuSans-35"/>
      </g>
     </g>
    </g>
    <g id="ytick_5">
     <g id="line2d_5">
      <g>
       <use style="stroke:#000000;stroke-width:0.8;" x="374.4576" xlink:href="#m75b3baad45" y="83.925686"/>
      </g>
     </g>
     <g id="text_6">
      <!-- −7.0 -->
      <g transform="translate(381.4576 87.724905)scale(0.1 -0.1)">
       <use xlink:href="#DejaVuSans-2212"/>
       <use x="83.789062" xlink:href="#DejaVuSans-37"/>
       <use x="147.412109" xlink:href="#DejaVuSans-2e"/>
       <use x="179.199219" xlink:href="#DejaVuSans-30"/>
      </g>
     </g>
    </g>
    <g id="text_7">
     <!-- Energy [eV] -->
     <defs>
      <path d="M 54.890625 33.015625 
L 54.890625 0 
L 45.90625 0 
L 45.90625 32.71875 
Q 45.90625 40.484375 42.875 44.328125 
Q 39.84375 48.1875 33.796875 48.1875 
Q 26.515625 48.1875 22.3125 43.546875 
Q 18.109375 38.921875 18.109375 30.90625 
L 18.109375 0 
L 9.078125 0 
L 9.078125 54.6875 
L 18.109375 54.6875 
L 18.109375 46.1875 
Q 21.34375 51.125 25.703125 53.5625 
Q 30.078125 56 35.796875 56 
Q 45.21875 56 50.046875 50.171875 
Q 54.890625 44.34375 54.890625 33.015625 
z
" id="DejaVuSans-6e"/>
      <path d="M 45.40625 27.984375 
Q 45.40625 37.75 41.375 43.109375 
Q 37.359375 48.484375 30.078125 48.484375 
Q 22.859375 48.484375 18.828125 43.109375 
Q 14.796875 37.75 14.796875 27.984375 
Q 14.796875 18.265625 18.828125 12.890625 
Q 22.859375 7.515625 30.078125 7.515625 
Q 37.359375 7.515625 41.375 12.890625 
Q 45.40625 18.265625 45.40625 27.984375 
z
M 54.390625 6.78125 
Q 54.390625 -7.171875 48.1875 -13.984375 
Q 42 -20.796875 29.203125 -20.796875 
Q 24.46875 -20.796875 20.265625 -20.09375 
Q 16.0625 -19.390625 12.109375 -17.921875 
L 12.109375 -9.1875 
Q 16.0625 -11.328125 19.921875 -12.34375 
Q 23.78125 -13.375 27.78125 -13.375 
Q 36.625 -13.375 41.015625 -8.765625 
Q 45.40625 -4.15625 45.40625 5.171875 
L 45.40625 9.625 
Q 42.625 4.78125 38.28125 2.390625 
Q 33.9375 0 27.875 0 
Q 17.828125 0 11.671875 7.65625 
Q 5.515625 15.328125 5.515625 27.984375 
Q 5.515625 40.671875 11.671875 48.328125 
Q 17.828125 56 27.875 56 
Q 33.9375 56 38.28125 53.609375 
Q 42.625 51.21875 45.40625 46.390625 
L 45.40625 54.6875 
L 54.390625 54.6875 
z
" id="DejaVuSans-67"/>
      <path d="M 32.171875 -5.078125 
Q 28.375 -14.84375 24.75 -17.8125 
Q 21.140625 -20.796875 15.09375 -20.796875 
L 7.90625 -20.796875 
L 7.90625 -13.28125 
L 13.1875 -13.28125 
Q 16.890625 -13.28125 18.9375 -11.515625 
Q 21 -9.765625 23.484375 -3.21875 
L 25.09375 0.875 
L 2.984375 54.6875 
L 12.5 54.6875 
L 29.59375 11.921875 
L 46.6875 54.6875 
L 56.203125 54.6875 
z
" id="DejaVuSans-79"/>
      <path d="M 8.59375 75.984375 
L 29.296875 75.984375 
L 29.296875 69 
L 17.578125 69 
L 17.578125 -6.203125 
L 29.296875 -6.203125 
L 29.296875 -13.1875 
L 8.59375 -13.1875 
z
" id="DejaVuSans-5b"/>
      <path d="M 30.421875 75.984375 
L 30.421875 -13.1875 
L 9.71875 -13.1875 
L 9.71875 -6.203125 
L 21.390625 -6.203125 
L 21.390625 69 
L 9.71875 69 
L 9.71875 75.984375 
z
" id="DejaVuSans-5d"/>
     </defs>
     <g transform="translate(417.33885 204.108469)rotate(-90)scale(0.1 -0.1)">
      <use xlink:href="#DejaVuSans-45"/>
      <use x="63.183594" xlink:href="#DejaVuSans-6e"/>
      <use x="126.5625" xlink:href="#DejaVuSans-65"/>
      <use x="188.085938" xlink:href="#DejaVuSans-72"/>
      <use x="229.183594" xlink:href="#DejaVuSans-67"/>
      <use x="292.660156" xlink:href="#DejaVuSans-79"/>
      <use x="351.839844" xlink:href="#DejaVuSans-20"/>
      <use x="383.626953" xlink:href="#DejaVuSans-5b"/>
      <use x="422.640625" xlink:href="#DejaVuSans-65"/>
      <use x="484.164062" xlink:href="#DejaVuSans-56"/>
      <use x="552.572266" xlink:href="#DejaVuSans-5d"/>
     </g>
    </g>
   </g>
   <g id="patch_3">
    <path d="M 361.152 307.584 
L 361.152 306.5445 
L 361.152 42.5115 
L 361.152 41.472 
L 374.4576 41.472 
L 374.4576 42.5115 
L 374.4576 306.5445 
L 374.4576 307.584 
z
" style="fill:none;stroke:#000000;stroke-linejoin:miter;stroke-width:0.8;"/>
   </g>
  </g>
 </g>
 <defs>
  <clipPath id="p818288bad8">
   <rect height="266.112" width="285.696" x="57.6" y="41.472"/>
  </clipPath>
  <clipPath id="p604f15f99b">
   <rect height="266.112" width="13.3056" x="361.152" y="41.472"/>
  </clipPath>
 </defs>
</svg>
