<?xml version="1.0" encoding="utf-8" standalone="no"?>
<!DOCTYPE svg PUBLIC "-//W3C//DTD SVG 1.1//EN"
  "http://www.w3.org/Graphics/SVG/1.1/DTD/svg11.dtd">
<!-- Created with matplotlib (http://matplotlib.org/) -->
<svg height="345.6pt" version="1.1" viewBox="0 0 460.8 345.6" width="460.8pt" xmlns="http://www.w3.org/2000/svg" xmlns:xlink="http://www.w3.org/1999/xlink">
 <defs>
  <style type="text/css">
*{stroke-linecap:butt;stroke-linejoin:round;}
  </style>
 </defs>
 <g id="figure_1">
  <g id="patch_1">
   <path d="M 0 345.6 
L 460.8 345.6 
L 460.8 0 
L 0 0 
z
" style="fill:#ffffff;"/>
  </g>
  <g id="axes_1">
   <g id="CircleCollection_1">
    <path clip-path="url(#p73924850a6)" d="M 230.24731 60.964358 
C 232.093284 60.964358 233.863901 60.230945 235.169202 58.925644 
C 236.474504 57.620343 237.207917 55.849726 237.207917 54.003751 
C 237.207917 52.157777 236.474504 50.38716 235.169202 49.081859 
C 233.863901 47.776557 232.093284 47.043144 230.24731 47.043144 
C 228.401335 47.043144 226.630718 47.776557 225.325417 49.081859 
C 224.020116 50.38716 223.286703 52.157777 223.286703 54.003751 
C 223.286703 55.849726 224.020116 57.620343 225.325417 58.925644 
C 226.630718 60.230945 228.401335 60.964358 230.24731 60.964358 
z
" style="fill:#35b779;"/>
    <path clip-path="url(#p73924850a6)" d="M 110.773092 259.106145 
C 112.558848 259.106145 114.271706 258.396657 115.534426 257.133936 
C 116.797147 255.871215 117.506635 254.158358 117.506635 252.372602 
C 117.506635 250.586845 116.797147 248.873988 115.534426 247.611267 
C 114.271706 246.348547 112.558848 245.639058 110.773092 245.639058 
C 108.987335 245.639058 107.274478 246.348547 106.011757 247.611267 
C 104.749037 248.873988 104.039548 250.586845 104.039548 252.372602 
C 104.039548 254.158358 104.749037 255.871215 106.011757 257.133936 
C 107.274478 258.396657 108.987335 259.106145 110.773092 259.106145 
z
" style="fill:#98d83e;"/>
    <path clip-path="url(#p73924850a6)" d="M 110.467684 227.854997 
C 112.272714 227.854997 114.004058 227.137851 115.280407 225.861503 
C 116.556755 224.585154 117.273901 222.85381 117.273901 221.04878 
C 117.273901 219.24375 116.556755 217.512407 115.280407 216.236058 
C 114.004058 214.959709 112.272714 214.242563 110.467684 214.242563 
C 108.662655 214.242563 106.931311 214.959709 105.654962 216.236058 
C 104.378613 217.512407 103.661467 219.24375 103.661467 221.04878 
C 103.661467 222.85381 104.378613 224.585154 105.654962 225.861503 
C 106.931311 227.137851 108.662655 227.854997 110.467684 227.854997 
z
" style="fill:#414487;"/>
    <path clip-path="url(#p73924850a6)" d="M 183.674788 74.921226 
C 185.532187 74.921226 187.313762 74.183274 188.627142 72.869894 
C 189.940522 71.556514 190.678474 69.774939 190.678474 67.91754 
C 190.678474 66.06014 189.940522 64.278565 188.627142 62.965185 
C 187.313762 61.651805 185.532187 60.913853 183.674788 60.913853 
C 181.817388 60.913853 180.035813 61.651805 178.722433 62.965185 
C 177.409053 64.278565 176.671101 66.06014 176.671101 67.91754 
C 176.671101 69.774939 177.409053 71.556514 178.722433 72.869894 
C 180.035813 74.183274 181.817388 74.921226 183.674788 74.921226 
z
" style="fill:#5cc863;"/>
    <path clip-path="url(#p73924850a6)" d="M 163.787446 176.227876 
C 165.597875 176.227876 167.334397 175.508585 168.614564 174.228418 
C 169.894731 172.948251 170.614022 171.211729 170.614022 169.4013 
C 170.614022 167.590871 169.894731 165.854349 168.614564 164.574182 
C 167.334397 163.294016 165.597875 162.574724 163.787446 162.574724 
C 161.977017 162.574724 160.240495 163.294016 158.960328 164.574182 
C 157.680161 165.854349 156.96087 167.590871 156.96087 169.4013 
C 156.96087 171.211729 157.680161 172.948251 158.960328 174.228418 
C 160.240495 175.508585 161.977017 176.227876 163.787446 176.227876 
z
" style="fill:#5ac864;"/>
    <path clip-path="url(#p73924850a6)" d="M 299.256727 167.97739 
C 301.007916 167.97739 302.687616 167.281636 303.925893 166.043359 
C 305.164171 164.805081 305.859925 163.125381 305.859925 161.374192 
C 305.859925 159.623004 305.164171 157.943304 303.925893 156.705026 
C 302.687616 155.466749 301.007916 154.770994 299.256727 154.770994 
C 297.505539 154.770994 295.825839 155.466749 294.587561 156.705026 
C 293.349284 157.943304 292.653529 159.623004 292.653529 161.374192 
C 292.653529 163.125381 293.349284 164.805081 294.587561 166.043359 
C 295.825839 167.281636 297.505539 167.97739 299.256727 167.97739 
z
" style="fill:#bddf26;"/>
    <path clip-path="url(#p73924850a6)" d="M 176.691537 301.588367 
C 178.417417 301.588367 180.072843 300.902668 181.293225 299.682286 
C 182.513607 298.461904 183.199307 296.806478 183.199307 295.080598 
C 183.199307 293.354717 182.513607 291.699291 181.293225 290.478909 
C 180.072843 289.258527 178.417417 288.572828 176.691537 288.572828 
C 174.965656 288.572828 173.31023 289.258527 172.089849 290.478909 
C 170.869467 291.699291 170.183767 293.354717 170.183767 295.080598 
C 170.183767 296.806478 170.869467 298.461904 172.089849 299.682286 
C 173.31023 300.902668 174.965656 301.588367 176.691537 301.588367 
z
" style="fill:#2fb47c;"/>
    <path clip-path="url(#p73924850a6)" d="M 120.643876 156.733378 
C 122.486979 156.733378 124.254842 156.001105 125.558112 154.697835 
C 126.861383 153.394564 127.593656 151.626701 127.593656 149.783598 
C 127.593656 147.940495 126.861383 146.172632 125.558112 144.869362 
C 124.254842 143.566091 122.486979 142.833818 120.643876 142.833818 
C 118.800773 142.833818 117.03291 143.566091 115.729639 144.869362 
C 114.426369 146.172632 113.694096 147.940495 113.694096 149.783598 
C 113.694096 151.626701 114.426369 153.394564 115.729639 154.697835 
C 117.03291 156.001105 118.800773 156.733378 120.643876 156.733378 
z
" style="fill:#46307e;"/>
    <path clip-path="url(#p73924850a6)" d="M 210.59452 193.189411 
C 212.372904 193.189411 214.078689 192.482852 215.336197 191.225344 
C 216.593704 189.967837 217.300264 188.262051 217.300264 186.483667 
C 217.300264 184.705283 216.593704 182.999498 215.336197 181.741991 
C 214.078689 180.484483 212.372904 179.777924 210.59452 179.777924 
C 208.816136 179.777924 207.110351 180.484483 205.852843 181.741991 
C 204.595336 182.999498 203.888776 184.705283 203.888776 186.483667 
C 203.888776 188.262051 204.595336 189.967837 205.852843 191.225344 
C 207.110351 192.482852 208.816136 193.189411 210.59452 193.189411 
z
" style="fill:#65cb5e;"/>
    <path clip-path="url(#p73924850a6)" d="M 329.75717 111.699007 
C 331.523791 111.699007 333.218294 110.997122 334.467483 109.747932 
C 335.716673 108.498742 336.418559 106.80424 336.418559 105.037619 
C 336.418559 103.270998 335.716673 101.576496 334.467483 100.327306 
C 333.218294 99.078117 331.523791 98.376231 329.75717 98.376231 
C 327.990549 98.376231 326.296047 99.078117 325.046857 100.327306 
C 323.797668 101.576496 323.095782 103.270998 323.095782 105.037619 
C 323.095782 106.80424 323.797668 108.498742 325.046857 109.747932 
C 326.296047 110.997122 327.990549 111.699007 329.75717 111.699007 
z
" style="fill:#5ac864;"/>
    <path clip-path="url(#p73924850a6)" d="M 319.279875 83.69872 
C 321.069668 83.69872 322.786398 82.987628 324.051973 81.722053 
C 325.317548 80.456477 326.028641 78.739748 326.028641 76.949955 
C 326.028641 75.160161 325.317548 73.443432 324.051973 72.177857 
C 322.786398 70.912282 321.069668 70.201189 319.279875 70.201189 
C 317.490081 70.201189 315.773352 70.912282 314.507777 72.177857 
C 313.242202 73.443432 312.531109 75.160161 312.531109 76.949955 
C 312.531109 78.739748 313.242202 80.456477 314.507777 81.722053 
C 315.773352 82.987628 317.490081 83.69872 319.279875 83.69872 
z
" style="fill:#34b679;"/>
    <path clip-path="url(#p73924850a6)" d="M 322.754455 141.847457 
C 324.510294 141.847457 326.194455 141.149855 327.436021 139.908289 
C 328.677586 138.666723 329.375189 136.982563 329.375189 135.226724 
C 329.375189 133.470885 328.677586 131.786724 327.436021 130.545158 
C 326.194455 129.303593 324.510294 128.60599 322.754455 128.60599 
C 320.998616 128.60599 319.314456 129.303593 318.07289 130.545158 
C 316.831324 131.786724 316.133722 133.470885 316.133722 135.226724 
C 316.133722 136.982563 316.831324 138.666723 318.07289 139.908289 
C 319.314456 141.149855 320.998616 141.847457 322.754455 141.847457 
z
" style="fill:#1fa187;"/>
    <path clip-path="url(#p73924850a6)" d="M 71.161027 206.231393 
C 72.998603 206.231393 74.761164 205.501317 76.060526 204.201954 
C 77.359889 202.902592 78.089966 201.140031 78.089966 199.302454 
C 78.089966 197.464878 77.359889 195.702317 76.060526 194.402955 
C 74.761164 193.103592 72.998603 192.373515 71.161027 192.373515 
C 69.32345 192.373515 67.560889 193.103592 66.261527 194.402955 
C 64.962164 195.702317 64.232088 197.464878 64.232088 199.302454 
C 64.232088 201.140031 64.962164 202.902592 66.261527 204.201954 
C 67.560889 205.501317 69.32345 206.231393 71.161027 206.231393 
z
" style="fill:#f1e51d;"/>
    <path clip-path="url(#p73924850a6)" d="M 287.681101 223.741939 
C 289.404327 223.741939 291.057205 223.057294 292.27571 221.83879 
C 293.494214 220.620286 294.178859 218.967407 294.178859 217.244182 
C 294.178859 215.520956 293.494214 213.868078 292.27571 212.649573 
C 291.057205 211.431069 289.404327 210.746424 287.681101 210.746424 
C 285.957876 210.746424 284.304997 211.431069 283.086493 212.649573 
C 281.867989 213.868078 281.183344 215.520956 281.183344 217.244182 
C 281.183344 218.967407 281.867989 220.620286 283.086493 221.83879 
C 284.304997 223.057294 285.957876 223.741939 287.681101 223.741939 
z
" style="fill:#addc30;"/>
    <path clip-path="url(#p73924850a6)" d="M 128.725097 125.396907 
C 130.582532 125.396907 132.364141 124.65894 133.677546 123.345535 
C 134.990951 122.03213 135.728918 120.250521 135.728918 118.393086 
C 135.728918 116.535651 134.990951 114.754042 133.677546 113.440637 
C 132.364141 112.127232 130.582532 111.389265 128.725097 111.389265 
C 126.867662 111.389265 125.086052 112.127232 123.772647 113.440637 
C 122.459242 114.754042 121.721276 116.535651 121.721276 118.393086 
C 121.721276 120.250521 122.459242 122.03213 123.772647 123.345535 
C 125.086052 124.65894 126.867662 125.396907 128.725097 125.396907 
z
" style="fill:#9dd93b;"/>
    <path clip-path="url(#p73924850a6)" d="M 278.801675 65.644266 
C 280.614711 65.644266 282.353734 64.923939 283.635744 63.641928 
C 284.917755 62.359918 285.638082 60.620895 285.638082 58.807858 
C 285.638082 56.994822 284.917755 55.255799 283.635744 53.973788 
C 282.353734 52.691778 280.614711 51.971451 278.801675 51.971451 
C 276.988638 51.971451 275.249615 52.691778 273.967605 53.973788 
C 272.685594 55.255799 271.965267 56.994822 271.965267 58.807858 
C 271.965267 60.620895 272.685594 62.359918 273.967605 63.641928 
C 275.249615 64.923939 276.988638 65.644266 278.801675 65.644266 
z
" style="fill:#86d549;"/>
    <path clip-path="url(#p73924850a6)" d="M 227.781697 294.326159 
C 229.487434 294.326159 231.123537 293.648462 232.329676 292.442324 
C 233.535814 291.236186 234.21351 289.600082 234.21351 287.894345 
C 234.21351 286.188609 233.535814 284.552505 232.329676 283.346367 
C 231.123537 282.140229 229.487434 281.462532 227.781697 281.462532 
C 226.07596 281.462532 224.439856 282.140229 223.233718 283.346367 
C 222.02758 284.552505 221.349884 286.188609 221.349884 287.894345 
C 221.349884 289.600082 222.02758 291.236186 223.233718 292.442324 
C 224.439856 293.648462 226.07596 294.326159 227.781697 294.326159 
z
" style="fill:#95d840;"/>
    <path clip-path="url(#p73924850a6)" d="M 285.321105 252.260235 
C 287.02748 252.260235 288.664196 251.582285 289.870785 250.375696 
C 291.077375 249.169107 291.755324 247.532391 291.755324 245.826016 
C 291.755324 244.119641 291.077375 242.482925 289.870785 241.276336 
C 288.664196 240.069746 287.02748 239.391797 285.321105 239.391797 
C 283.61473 239.391797 281.978014 240.069746 280.771425 241.276336 
C 279.564836 242.482925 278.886886 244.119641 278.886886 245.826016 
C 278.886886 247.532391 279.564836 249.169107 280.771425 250.375696 
C 281.978014 251.582285 283.61473 252.260235 285.321105 252.260235 
z
" style="fill:#2db27d;"/>
    <path clip-path="url(#p73924850a6)" d="M 267.108464 194.932367 
C 268.859065 194.932367 270.538201 194.236846 271.776062 192.998985 
C 273.013924 191.761124 273.709445 190.081987 273.709445 188.331387 
C 273.709445 186.580787 273.013924 184.901651 271.776062 183.663789 
C 270.538201 182.425928 268.859065 181.730407 267.108464 181.730407 
C 265.357864 181.730407 263.678728 182.425928 262.440866 183.663789 
C 261.203005 184.901651 260.507484 186.580787 260.507484 188.331387 
C 260.507484 190.081987 261.203005 191.761124 262.440866 192.998985 
C 263.678728 194.236846 265.357864 194.932367 267.108464 194.932367 
z
" style="fill:#440154;"/>
    <path clip-path="url(#p73924850a6)" d="M 74.716314 177.635863 
C 76.568778 177.635863 78.345619 176.899872 79.655509 175.589982 
C 80.965398 174.280092 81.70139 172.503251 81.70139 170.650787 
C 81.70139 168.798323 80.965398 167.021482 79.655509 165.711592 
C 78.345619 164.401703 76.568778 163.665711 74.716314 163.665711 
C 72.86385 163.665711 71.087009 164.401703 69.777119 165.711592 
C 68.467229 167.021482 67.731238 168.798323 67.731238 170.650787 
C 67.731238 172.503251 68.467229 174.280092 69.777119 175.589982 
C 71.087009 176.899872 72.86385 177.635863 74.716314 177.635863 
z
" style="fill:#fde725;"/>
    <path clip-path="url(#p73924850a6)" d="M 149.077691 98.498036 
C 150.942133 98.498036 152.730464 97.757286 154.048823 96.438926 
C 155.367183 95.120566 156.107934 93.332236 156.107934 91.467793 
C 156.107934 89.603351 155.367183 87.815021 154.048823 86.496661 
C 152.730464 85.178301 150.942133 84.43755 149.077691 84.43755 
C 147.213249 84.43755 145.424918 85.178301 144.106559 86.496661 
C 142.788199 87.815021 142.047448 89.603351 142.047448 91.467793 
C 142.047448 93.332236 142.788199 95.120566 144.106559 96.438926 
C 145.424918 97.757286 147.213249 98.498036 149.077691 98.498036 
z
" style="fill:#20a386;"/>
    <path clip-path="url(#p73924850a6)" d="M 141.367376 280.719936 
C 143.124254 280.719936 144.809411 280.021921 146.051711 278.779621 
C 147.294011 277.537321 147.992026 275.852164 147.992026 274.095286 
C 147.992026 272.338408 147.294011 270.653251 146.051711 269.410951 
C 144.809411 268.168651 143.124254 267.470636 141.367376 267.470636 
C 139.610498 267.470636 137.925341 268.168651 136.683041 269.410951 
C 135.44074 270.653251 134.742726 272.338408 134.742726 274.095286 
C 134.742726 275.852164 135.44074 277.537321 136.683041 278.779621 
C 137.925341 280.021921 139.610498 280.719936 141.367376 280.719936 
z
" style="fill:#3bbb75;"/>
    <path clip-path="url(#p73924850a6)" d="M 159.046749 207.80735 
C 160.839948 207.80735 162.559944 207.094904 163.827927 205.826921 
C 165.09591 204.558938 165.808355 202.838943 165.808355 201.045744 
C 165.808355 199.252545 165.09591 197.53255 163.827927 196.264567 
C 162.559944 194.996584 160.839948 194.284138 159.046749 194.284138 
C 157.253551 194.284138 155.533555 194.996584 154.265572 196.264567 
C 152.997589 197.53255 152.285144 199.252545 152.285144 201.045744 
C 152.285144 202.838943 152.997589 204.558938 154.265572 205.826921 
C 155.533555 207.094904 157.253551 207.80735 159.046749 207.80735 
z
" style="fill:#50c46a;"/>
    <path clip-path="url(#p73924850a6)" d="M 276.737764 282.755364 
C 278.427681 282.755364 280.048612 282.083953 281.243564 280.889001 
C 282.438516 279.694049 283.109927 278.073119 283.109927 276.383201 
C 283.109927 274.693284 282.438516 273.072353 281.243564 271.877401 
C 280.048612 270.682449 278.427681 270.011038 276.737764 270.011038 
C 275.047846 270.011038 273.426916 270.682449 272.231964 271.877401 
C 271.037012 273.072353 270.3656 274.693284 270.3656 276.383201 
C 270.3656 278.073119 271.037012 279.694049 272.231964 280.889001 
C 273.426916 282.083953 275.047846 282.755364 276.737764 282.755364 
z
" style="fill:#52c569;"/>
   </g>
   <g id="text_1">
    <!-- Structure #2953, $E_N$=-182.48eV, ΔE=-0.07eV -->
    <defs>
     <path d="M 53.515625 70.515625 
L 53.515625 60.890625 
Q 47.90625 63.578125 42.921875 64.890625 
Q 37.9375 66.21875 33.296875 66.21875 
Q 25.25 66.21875 20.875 63.09375 
Q 16.5 59.96875 16.5 54.203125 
Q 16.5 49.359375 19.40625 46.890625 
Q 22.3125 44.4375 30.421875 42.921875 
L 36.375 41.703125 
Q 47.40625 39.59375 52.65625 34.296875 
Q 57.90625 29 57.90625 20.125 
Q 57.90625 9.515625 50.796875 4.046875 
Q 43.703125 -1.421875 29.984375 -1.421875 
Q 24.8125 -1.421875 18.96875 -0.25 
Q 13.140625 0.921875 6.890625 3.21875 
L 6.890625 13.375 
Q 12.890625 10.015625 18.65625 8.296875 
Q 24.421875 6.59375 29.984375 6.59375 
Q 38.421875 6.59375 43.015625 9.90625 
Q 47.609375 13.234375 47.609375 19.390625 
Q 47.609375 24.75 44.3125 27.78125 
Q 41.015625 30.8125 33.5 32.328125 
L 27.484375 33.5 
Q 16.453125 35.6875 11.515625 40.375 
Q 6.59375 45.0625 6.59375 53.421875 
Q 6.59375 63.09375 13.40625 68.65625 
Q 20.21875 74.21875 32.171875 74.21875 
Q 37.3125 74.21875 42.625 73.28125 
Q 47.953125 72.359375 53.515625 70.515625 
z
" id="DejaVuSans-53"/>
     <path d="M 18.3125 70.21875 
L 18.3125 54.6875 
L 36.8125 54.6875 
L 36.8125 47.703125 
L 18.3125 47.703125 
L 18.3125 18.015625 
Q 18.3125 11.328125 20.140625 9.421875 
Q 21.96875 7.515625 27.59375 7.515625 
L 36.8125 7.515625 
L 36.8125 0 
L 27.59375 0 
Q 17.1875 0 13.234375 3.875 
Q 9.28125 7.765625 9.28125 18.015625 
L 9.28125 47.703125 
L 2.6875 47.703125 
L 2.6875 54.6875 
L 9.28125 54.6875 
L 9.28125 70.21875 
z
" id="DejaVuSans-74"/>
     <path d="M 41.109375 46.296875 
Q 39.59375 47.171875 37.8125 47.578125 
Q 36.03125 48 33.890625 48 
Q 26.265625 48 22.1875 43.046875 
Q 18.109375 38.09375 18.109375 28.8125 
L 18.109375 0 
L 9.078125 0 
L 9.078125 54.6875 
L 18.109375 54.6875 
L 18.109375 46.1875 
Q 20.953125 51.171875 25.484375 53.578125 
Q 30.03125 56 36.53125 56 
Q 37.453125 56 38.578125 55.875 
Q 39.703125 55.765625 41.0625 55.515625 
z
" id="DejaVuSans-72"/>
     <path d="M 8.5 21.578125 
L 8.5 54.6875 
L 17.484375 54.6875 
L 17.484375 21.921875 
Q 17.484375 14.15625 20.5 10.265625 
Q 23.53125 6.390625 29.59375 6.390625 
Q 36.859375 6.390625 41.078125 11.03125 
Q 45.3125 15.671875 45.3125 23.6875 
L 45.3125 54.6875 
L 54.296875 54.6875 
L 54.296875 0 
L 45.3125 0 
L 45.3125 8.40625 
Q 42.046875 3.421875 37.71875 1 
Q 33.40625 -1.421875 27.6875 -1.421875 
Q 18.265625 -1.421875 13.375 4.4375 
Q 8.5 10.296875 8.5 21.578125 
z
M 31.109375 56 
z
" id="DejaVuSans-75"/>
     <path d="M 48.78125 52.59375 
L 48.78125 44.1875 
Q 44.96875 46.296875 41.140625 47.34375 
Q 37.3125 48.390625 33.40625 48.390625 
Q 24.65625 48.390625 19.8125 42.84375 
Q 14.984375 37.3125 14.984375 27.296875 
Q 14.984375 17.28125 19.8125 11.734375 
Q 24.65625 6.203125 33.40625 6.203125 
Q 37.3125 6.203125 41.140625 7.25 
Q 44.96875 8.296875 48.78125 10.40625 
L 48.78125 2.09375 
Q 45.015625 0.34375 40.984375 -0.53125 
Q 36.96875 -1.421875 32.421875 -1.421875 
Q 20.0625 -1.421875 12.78125 6.34375 
Q 5.515625 14.109375 5.515625 27.296875 
Q 5.515625 40.671875 12.859375 48.328125 
Q 20.21875 56 33.015625 56 
Q 37.15625 56 41.109375 55.140625 
Q 45.0625 54.296875 48.78125 52.59375 
z
" id="DejaVuSans-63"/>
     <path d="M 56.203125 29.59375 
L 56.203125 25.203125 
L 14.890625 25.203125 
Q 15.484375 15.921875 20.484375 11.0625 
Q 25.484375 6.203125 34.421875 6.203125 
Q 39.59375 6.203125 44.453125 7.46875 
Q 49.3125 8.734375 54.109375 11.28125 
L 54.109375 2.78125 
Q 49.265625 0.734375 44.1875 -0.34375 
Q 39.109375 -1.421875 33.890625 -1.421875 
Q 20.796875 -1.421875 13.15625 6.1875 
Q 5.515625 13.8125 5.515625 26.8125 
Q 5.515625 40.234375 12.765625 48.109375 
Q 20.015625 56 32.328125 56 
Q 43.359375 56 49.78125 48.890625 
Q 56.203125 41.796875 56.203125 29.59375 
z
M 47.21875 32.234375 
Q 47.125 39.59375 43.09375 43.984375 
Q 39.0625 48.390625 32.421875 48.390625 
Q 24.90625 48.390625 20.390625 44.140625 
Q 15.875 39.890625 15.1875 32.171875 
z
" id="DejaVuSans-65"/>
     <path id="DejaVuSans-20"/>
     <path d="M 51.125 44 
L 36.921875 44 
L 32.8125 27.6875 
L 47.125 27.6875 
z
M 43.796875 71.78125 
L 38.71875 51.515625 
L 52.984375 51.515625 
L 58.109375 71.78125 
L 65.921875 71.78125 
L 60.890625 51.515625 
L 76.125 51.515625 
L 76.125 44 
L 58.984375 44 
L 54.984375 27.6875 
L 70.515625 27.6875 
L 70.515625 20.21875 
L 53.078125 20.21875 
L 48 0 
L 40.1875 0 
L 45.21875 20.21875 
L 30.90625 20.21875 
L 25.875 0 
L 18.015625 0 
L 23.09375 20.21875 
L 7.71875 20.21875 
L 7.71875 27.6875 
L 24.90625 27.6875 
L 29 44 
L 13.28125 44 
L 13.28125 51.515625 
L 30.90625 51.515625 
L 35.890625 71.78125 
z
" id="DejaVuSans-23"/>
     <path d="M 19.1875 8.296875 
L 53.609375 8.296875 
L 53.609375 0 
L 7.328125 0 
L 7.328125 8.296875 
Q 12.9375 14.109375 22.625 23.890625 
Q 32.328125 33.6875 34.8125 36.53125 
Q 39.546875 41.84375 41.421875 45.53125 
Q 43.3125 49.21875 43.3125 52.78125 
Q 43.3125 58.59375 39.234375 62.25 
Q 35.15625 65.921875 28.609375 65.921875 
Q 23.96875 65.921875 18.8125 64.3125 
Q 13.671875 62.703125 7.8125 59.421875 
L 7.8125 69.390625 
Q 13.765625 71.78125 18.9375 73 
Q 24.125 74.21875 28.421875 74.21875 
Q 39.75 74.21875 46.484375 68.546875 
Q 53.21875 62.890625 53.21875 53.421875 
Q 53.21875 48.921875 51.53125 44.890625 
Q 49.859375 40.875 45.40625 35.40625 
Q 44.1875 33.984375 37.640625 27.21875 
Q 31.109375 20.453125 19.1875 8.296875 
z
" id="DejaVuSans-32"/>
     <path d="M 10.984375 1.515625 
L 10.984375 10.5 
Q 14.703125 8.734375 18.5 7.8125 
Q 22.3125 6.890625 25.984375 6.890625 
Q 35.75 6.890625 40.890625 13.453125 
Q 46.046875 20.015625 46.78125 33.40625 
Q 43.953125 29.203125 39.59375 26.953125 
Q 35.25 24.703125 29.984375 24.703125 
Q 19.046875 24.703125 12.671875 31.3125 
Q 6.296875 37.9375 6.296875 49.421875 
Q 6.296875 60.640625 12.9375 67.421875 
Q 19.578125 74.21875 30.609375 74.21875 
Q 43.265625 74.21875 49.921875 64.515625 
Q 56.59375 54.828125 56.59375 36.375 
Q 56.59375 19.140625 48.40625 8.859375 
Q 40.234375 -1.421875 26.421875 -1.421875 
Q 22.703125 -1.421875 18.890625 -0.6875 
Q 15.09375 0.046875 10.984375 1.515625 
z
M 30.609375 32.421875 
Q 37.25 32.421875 41.125 36.953125 
Q 45.015625 41.5 45.015625 49.421875 
Q 45.015625 57.28125 41.125 61.84375 
Q 37.25 66.40625 30.609375 66.40625 
Q 23.96875 66.40625 20.09375 61.84375 
Q 16.21875 57.28125 16.21875 49.421875 
Q 16.21875 41.5 20.09375 36.953125 
Q 23.96875 32.421875 30.609375 32.421875 
z
" id="DejaVuSans-39"/>
     <path d="M 10.796875 72.90625 
L 49.515625 72.90625 
L 49.515625 64.59375 
L 19.828125 64.59375 
L 19.828125 46.734375 
Q 21.96875 47.46875 24.109375 47.828125 
Q 26.265625 48.1875 28.421875 48.1875 
Q 40.625 48.1875 47.75 41.5 
Q 54.890625 34.8125 54.890625 23.390625 
Q 54.890625 11.625 47.5625 5.09375 
Q 40.234375 -1.421875 26.90625 -1.421875 
Q 22.3125 -1.421875 17.546875 -0.640625 
Q 12.796875 0.140625 7.71875 1.703125 
L 7.71875 11.625 
Q 12.109375 9.234375 16.796875 8.0625 
Q 21.484375 6.890625 26.703125 6.890625 
Q 35.15625 6.890625 40.078125 11.328125 
Q 45.015625 15.765625 45.015625 23.390625 
Q 45.015625 31 40.078125 35.4375 
Q 35.15625 39.890625 26.703125 39.890625 
Q 22.75 39.890625 18.8125 39.015625 
Q 14.890625 38.140625 10.796875 36.28125 
z
" id="DejaVuSans-35"/>
     <path d="M 40.578125 39.3125 
Q 47.65625 37.796875 51.625 33 
Q 55.609375 28.21875 55.609375 21.1875 
Q 55.609375 10.40625 48.1875 4.484375 
Q 40.765625 -1.421875 27.09375 -1.421875 
Q 22.515625 -1.421875 17.65625 -0.515625 
Q 12.796875 0.390625 7.625 2.203125 
L 7.625 11.71875 
Q 11.71875 9.328125 16.59375 8.109375 
Q 21.484375 6.890625 26.8125 6.890625 
Q 36.078125 6.890625 40.9375 10.546875 
Q 45.796875 14.203125 45.796875 21.1875 
Q 45.796875 27.640625 41.28125 31.265625 
Q 36.765625 34.90625 28.71875 34.90625 
L 20.21875 34.90625 
L 20.21875 43.015625 
L 29.109375 43.015625 
Q 36.375 43.015625 40.234375 45.921875 
Q 44.09375 48.828125 44.09375 54.296875 
Q 44.09375 59.90625 40.109375 62.90625 
Q 36.140625 65.921875 28.71875 65.921875 
Q 24.65625 65.921875 20.015625 65.03125 
Q 15.375 64.15625 9.8125 62.3125 
L 9.8125 71.09375 
Q 15.4375 72.65625 20.34375 73.4375 
Q 25.25 74.21875 29.59375 74.21875 
Q 40.828125 74.21875 47.359375 69.109375 
Q 53.90625 64.015625 53.90625 55.328125 
Q 53.90625 49.265625 50.4375 45.09375 
Q 46.96875 40.921875 40.578125 39.3125 
z
" id="DejaVuSans-33"/>
     <path d="M 11.71875 12.40625 
L 22.015625 12.40625 
L 22.015625 4 
L 14.015625 -11.625 
L 7.71875 -11.625 
L 11.71875 4 
z
" id="DejaVuSans-2c"/>
     <path d="M 16.890625 72.90625 
L 62.984375 72.90625 
L 61.375 64.59375 
L 25.09375 64.59375 
L 20.90625 43.015625 
L 55.71875 43.015625 
L 54.109375 34.71875 
L 19.28125 34.71875 
L 14.203125 8.296875 
L 51.3125 8.296875 
L 49.703125 0 
L 2.6875 0 
z
" id="DejaVuSans-Oblique-45"/>
     <path d="M 16.890625 72.90625 
L 30.171875 72.90625 
L 50.296875 10.40625 
L 62.5 72.90625 
L 72.125 72.90625 
L 57.90625 0 
L 44.578125 0 
L 24.515625 62.890625 
L 12.3125 0 
L 2.6875 0 
z
" id="DejaVuSans-Oblique-4e"/>
     <path d="M 10.59375 45.40625 
L 73.1875 45.40625 
L 73.1875 37.203125 
L 10.59375 37.203125 
z
M 10.59375 25.484375 
L 73.1875 25.484375 
L 73.1875 17.1875 
L 10.59375 17.1875 
z
" id="DejaVuSans-3d"/>
     <path d="M 4.890625 31.390625 
L 31.203125 31.390625 
L 31.203125 23.390625 
L 4.890625 23.390625 
z
" id="DejaVuSans-2d"/>
     <path d="M 12.40625 8.296875 
L 28.515625 8.296875 
L 28.515625 63.921875 
L 10.984375 60.40625 
L 10.984375 69.390625 
L 28.421875 72.90625 
L 38.28125 72.90625 
L 38.28125 8.296875 
L 54.390625 8.296875 
L 54.390625 0 
L 12.40625 0 
z
" id="DejaVuSans-31"/>
     <path d="M 31.78125 34.625 
Q 24.75 34.625 20.71875 30.859375 
Q 16.703125 27.09375 16.703125 20.515625 
Q 16.703125 13.921875 20.71875 10.15625 
Q 24.75 6.390625 31.78125 6.390625 
Q 38.8125 6.390625 42.859375 10.171875 
Q 46.921875 13.96875 46.921875 20.515625 
Q 46.921875 27.09375 42.890625 30.859375 
Q 38.875 34.625 31.78125 34.625 
z
M 21.921875 38.8125 
Q 15.578125 40.375 12.03125 44.71875 
Q 8.5 49.078125 8.5 55.328125 
Q 8.5 64.0625 14.71875 69.140625 
Q 20.953125 74.21875 31.78125 74.21875 
Q 42.671875 74.21875 48.875 69.140625 
Q 55.078125 64.0625 55.078125 55.328125 
Q 55.078125 49.078125 51.53125 44.71875 
Q 48 40.375 41.703125 38.8125 
Q 48.828125 37.15625 52.796875 32.3125 
Q 56.78125 27.484375 56.78125 20.515625 
Q 56.78125 9.90625 50.3125 4.234375 
Q 43.84375 -1.421875 31.78125 -1.421875 
Q 19.734375 -1.421875 13.25 4.234375 
Q 6.78125 9.90625 6.78125 20.515625 
Q 6.78125 27.484375 10.78125 32.3125 
Q 14.796875 37.15625 21.921875 38.8125 
z
M 18.3125 54.390625 
Q 18.3125 48.734375 21.84375 45.5625 
Q 25.390625 42.390625 31.78125 42.390625 
Q 38.140625 42.390625 41.71875 45.5625 
Q 45.3125 48.734375 45.3125 54.390625 
Q 45.3125 60.0625 41.71875 63.234375 
Q 38.140625 66.40625 31.78125 66.40625 
Q 25.390625 66.40625 21.84375 63.234375 
Q 18.3125 60.0625 18.3125 54.390625 
z
" id="DejaVuSans-38"/>
     <path d="M 10.6875 12.40625 
L 21 12.40625 
L 21 0 
L 10.6875 0 
z
" id="DejaVuSans-2e"/>
     <path d="M 37.796875 64.3125 
L 12.890625 25.390625 
L 37.796875 25.390625 
z
M 35.203125 72.90625 
L 47.609375 72.90625 
L 47.609375 25.390625 
L 58.015625 25.390625 
L 58.015625 17.1875 
L 47.609375 17.1875 
L 47.609375 0 
L 37.796875 0 
L 37.796875 17.1875 
L 4.890625 17.1875 
L 4.890625 26.703125 
z
" id="DejaVuSans-34"/>
     <path d="M 28.609375 0 
L 0.78125 72.90625 
L 11.078125 72.90625 
L 34.1875 11.53125 
L 57.328125 72.90625 
L 67.578125 72.90625 
L 39.796875 0 
z
" id="DejaVuSans-56"/>
     <path d="M 34.1875 63.1875 
L 14.15625 8.203125 
L 54.25 8.203125 
z
M 0.78125 0 
L 28.609375 72.90625 
L 39.796875 72.90625 
L 67.578125 0 
z
" id="DejaVuSans-394"/>
     <path d="M 9.8125 72.90625 
L 55.90625 72.90625 
L 55.90625 64.59375 
L 19.671875 64.59375 
L 19.671875 43.015625 
L 54.390625 43.015625 
L 54.390625 34.71875 
L 19.671875 34.71875 
L 19.671875 8.296875 
L 56.78125 8.296875 
L 56.78125 0 
L 9.8125 0 
z
" id="DejaVuSans-45"/>
     <path d="M 31.78125 66.40625 
Q 24.171875 66.40625 20.328125 58.90625 
Q 16.5 51.421875 16.5 36.375 
Q 16.5 21.390625 20.328125 13.890625 
Q 24.171875 6.390625 31.78125 6.390625 
Q 39.453125 6.390625 43.28125 13.890625 
Q 47.125 21.390625 47.125 36.375 
Q 47.125 51.421875 43.28125 58.90625 
Q 39.453125 66.40625 31.78125 66.40625 
z
M 31.78125 74.21875 
Q 44.046875 74.21875 50.515625 64.515625 
Q 56.984375 54.828125 56.984375 36.375 
Q 56.984375 17.96875 50.515625 8.265625 
Q 44.046875 -1.421875 31.78125 -1.421875 
Q 19.53125 -1.421875 13.0625 8.265625 
Q 6.59375 17.96875 6.59375 36.375 
Q 6.59375 54.828125 13.0625 64.515625 
Q 19.53125 74.21875 31.78125 74.21875 
z
" id="DejaVuSans-30"/>
     <path d="M 8.203125 72.90625 
L 55.078125 72.90625 
L 55.078125 68.703125 
L 28.609375 0 
L 18.3125 0 
L 43.21875 64.59375 
L 8.203125 64.59375 
z
" id="DejaVuSans-37"/>
    </defs>
    <g transform="translate(63.228 35.472)scale(0.12 -0.12)">
     <use transform="translate(0 0.78125)" xlink:href="#DejaVuSans-53"/>
     <use transform="translate(63.476562 0.78125)" xlink:href="#DejaVuSans-74"/>
     <use transform="translate(102.685547 0.78125)" xlink:href="#DejaVuSans-72"/>
     <use transform="translate(143.798828 0.78125)" xlink:href="#DejaVuSans-75"/>
     <use transform="translate(207.177734 0.78125)" xlink:href="#DejaVuSans-63"/>
     <use transform="translate(262.158203 0.78125)" xlink:href="#DejaVuSans-74"/>
     <use transform="translate(301.367188 0.78125)" xlink:href="#DejaVuSans-75"/>
     <use transform="translate(364.746094 0.78125)" xlink:href="#DejaVuSans-72"/>
     <use transform="translate(405.859375 0.78125)" xlink:href="#DejaVuSans-65"/>
     <use transform="translate(467.382812 0.78125)" xlink:href="#DejaVuSans-20"/>
     <use transform="translate(499.169922 0.78125)" xlink:href="#DejaVuSans-23"/>
     <use transform="translate(582.958984 0.78125)" xlink:href="#DejaVuSans-32"/>
     <use transform="translate(646.566406 0.78125)" xlink:href="#DejaVuSans-39"/>
     <use transform="translate(710.189453 0.78125)" xlink:href="#DejaVuSans-35"/>
     <use transform="translate(773.8125 0.78125)" xlink:href="#DejaVuSans-33"/>
     <use transform="translate(837.435547 0.78125)" xlink:href="#DejaVuSans-2c"/>
     <use transform="translate(869.222656 0.78125)" xlink:href="#DejaVuSans-20"/>
     <use transform="translate(901.009766 0.78125)" xlink:href="#DejaVuSans-Oblique-45"/>
     <use transform="translate(964.193359 -15.625)scale(0.7)" xlink:href="#DejaVuSans-Oblique-4e"/>
     <use transform="translate(1019.291016 0.78125)" xlink:href="#DejaVuSans-3d"/>
     <use transform="translate(1103.080078 0.78125)" xlink:href="#DejaVuSans-2d"/>
     <use transform="translate(1139.164062 0.78125)" xlink:href="#DejaVuSans-31"/>
     <use transform="translate(1202.787109 0.78125)" xlink:href="#DejaVuSans-38"/>
     <use transform="translate(1266.410156 0.78125)" xlink:href="#DejaVuSans-32"/>
     <use transform="translate(1330.033203 0.78125)" xlink:href="#DejaVuSans-2e"/>
     <use transform="translate(1361.820312 0.78125)" xlink:href="#DejaVuSans-34"/>
     <use transform="translate(1425.443359 0.78125)" xlink:href="#DejaVuSans-38"/>
     <use transform="translate(1489.066406 0.78125)" xlink:href="#DejaVuSans-65"/>
     <use transform="translate(1550.589844 0.78125)" xlink:href="#DejaVuSans-56"/>
     <use transform="translate(1618.998047 0.78125)" xlink:href="#DejaVuSans-2c"/>
     <use transform="translate(1650.785156 0.78125)" xlink:href="#DejaVuSans-20"/>
     <use transform="translate(1682.572266 0.78125)" xlink:href="#DejaVuSans-394"/>
     <use transform="translate(1750.980469 0.78125)" xlink:href="#DejaVuSans-45"/>
     <use transform="translate(1814.164062 0.78125)" xlink:href="#DejaVuSans-3d"/>
     <use transform="translate(1897.953125 0.78125)" xlink:href="#DejaVuSans-2d"/>
     <use transform="translate(1934.037109 0.78125)" xlink:href="#DejaVuSans-30"/>
     <use transform="translate(1997.660156 0.78125)" xlink:href="#DejaVuSans-2e"/>
     <use transform="translate(2029.447266 0.78125)" xlink:href="#DejaVuSans-30"/>
     <use transform="translate(2093.070312 0.78125)" xlink:href="#DejaVuSans-37"/>
     <use transform="translate(2156.693359 0.78125)" xlink:href="#DejaVuSans-65"/>
     <use transform="translate(2218.216797 0.78125)" xlink:href="#DejaVuSans-56"/>
    </g>
   </g>
  </g>
  <g id="axes_2">
   <g id="patch_2">
    <path clip-path="url(#pcdf423c50f)" d="M 361.152 307.584 
L 361.152 306.5445 
L 361.152 42.5115 
L 361.152 41.472 
L 374.4576 41.472 
L 374.4576 42.5115 
L 374.4576 306.5445 
L 374.4576 307.584 
z
" style="fill:#ffffff;stroke:#ffffff;stroke-linejoin:miter;stroke-width:0.01;"/>
   </g>
   <image height="265.68" id="image7c9583d858" transform="scale(1 -1)translate(0 -265.68)" width="12.96" x="361.44" xlink:href="data:image/png;base64,
iVBORw0KGgoAAAANSUhEUgAAABIAAAFxCAYAAAB+2fgXAAAABHNCSVQICAgIfAhkiAAAAeVJREFUeJztncmNw0AQA2ckheYQNv9QLIfQ8ygsCgQ7AEI8+jAs2Puz/94F1LP2ReCsZ18bAWIeZ5XaGRBE7VnbptG+KI101FYyNSiQG2oRITXKNaX9uclOdi2XWjftVE32CZCO2ou5Bj1TcCBr/1zB9ge7Fq0Rg2NM9pvbtG+ua1QgsRYhDy0ISEiNc40BEibbSI0Coj5CBGtkpFbXJiAjNZlrwhuSOv2M1DjXbEdEciBt1JSDDQKKpmZr2rr2j0DBGpXaWEJq3bQzEPIS26r9J+Wzv9Tm8o3aajRXqc3VUXsApKNWjeZq0x4ABVNbm7lrszVigDqP5vIl2+eaT2yfRkL7g+dRcNPqjohkjaCvRVBq0H2U3LQrOJCx9kdTg4B8oxZzzTdqdYHEngjUCAPyUctN9sVRq2sTECW2UKNLd2jVtRmo1A6AhMmWaSRcR8nUdIHUuVb75zJS218EyEitro1At69pIdeSk30Lkw0FktNImGyZRhy1O5galmxd03LUsHWk06jUZiCq+5Wb1kZNN4+wJxJuWt8RAW5am2sYNZ9rYCBzZ3buPKJ2P5Yj4Toy3keyIyJbIxs1rml1byCA84gpch5RQNB7Q0qNMGq2Hy4BXdNR41yz/cEEJfZzUz96r9PoB0okjeQ8y9TkAAAAAElFTkSuQmCC" y="-41.76"/>
   <g id="matplotlib.axis_1"/>
   <g id="matplotlib.axis_2">
    <g id="ytick_1">
     <g id="line2d_1">
      <defs>
       <path d="M 0 0 
L 3.5 0 
" id="ma1990283f8" style="stroke:#000000;stroke-width:0.8;"/>
      </defs>
      <g>
       <use style="stroke:#000000;stroke-width:0.8;" x="374.4576" xlink:href="#ma1990283f8" y="279.998282"/>
      </g>
     </g>
     <g id="text_2">
      <!-- −9.0 -->
      <defs>
       <path d="M 10.59375 35.5 
L 73.1875 35.5 
L 73.1875 27.203125 
L 10.59375 27.203125 
z
" id="DejaVuSans-2212"/>
      </defs>
      <g transform="translate(381.4576 283.797501)scale(0.1 -0.1)">
       <use xlink:href="#DejaVuSans-2212"/>
       <use x="83.789062" xlink:href="#DejaVuSans-39"/>
       <use x="147.412109" xlink:href="#DejaVuSans-2e"/>
       <use x="179.199219" xlink:href="#DejaVuSans-30"/>
      </g>
     </g>
    </g>
    <g id="ytick_2">
     <g id="line2d_2">
      <g>
       <use style="stroke:#000000;stroke-width:0.8;" x="374.4576" xlink:href="#ma1990283f8" y="224.933974"/>
      </g>
     </g>
     <g id="text_3">
      <!-- −8.5 -->
      <g transform="translate(381.4576 228.733193)scale(0.1 -0.1)">
       <use xlink:href="#DejaVuSans-2212"/>
       <use x="83.789062" xlink:href="#DejaVuSans-38"/>
       <use x="147.412109" xlink:href="#DejaVuSans-2e"/>
       <use x="179.199219" xlink:href="#DejaVuSans-35"/>
      </g>
     </g>
    </g>
    <g id="ytick_3">
     <g id="line2d_3">
      <g>
       <use style="stroke:#000000;stroke-width:0.8;" x="374.4576" xlink:href="#ma1990283f8" y="169.869666"/>
      </g>
     </g>
     <g id="text_4">
      <!-- −8.0 -->
      <g transform="translate(381.4576 173.668885)scale(0.1 -0.1)">
       <use xlink:href="#DejaVuSans-2212"/>
       <use x="83.789062" xlink:href="#DejaVuSans-38"/>
       <use x="147.412109" xlink:href="#DejaVuSans-2e"/>
       <use x="179.199219" xlink:href="#DejaVuSans-30"/>
      </g>
     </g>
    </g>
    <g id="ytick_4">
     <g id="line2d_4">
      <g>
       <use style="stroke:#000000;stroke-width:0.8;" x="374.4576" xlink:href="#ma1990283f8" y="114.805358"/>
      </g>
     </g>
     <g id="text_5">
      <!-- −7.5 -->
      <g transform="translate(381.4576 118.604577)scale(0.1 -0.1)">
       <use xlink:href="#DejaVuSans-2212"/>
       <use x="83.789062" xlink:href="#DejaVuSans-37"/>
       <use x="147.412109" xlink:href="#DejaVuSans-2e"/>
       <use x="179.199219" xlink:href="#DejaVuSans-35"/>
      </g>
     </g>
    </g>
    <g id="ytick_5">
     <g id="line2d_5">
      <g>
       <use style="stroke:#000000;stroke-width:0.8;" x="374.4576" xlink:href="#ma1990283f8" y="59.74105"/>
      </g>
     </g>
     <g id="text_6">
      <!-- −7.0 -->
      <g transform="translate(381.4576 63.540269)scale(0.1 -0.1)">
       <use xlink:href="#DejaVuSans-2212"/>
       <use x="83.789062" xlink:href="#DejaVuSans-37"/>
       <use x="147.412109" xlink:href="#DejaVuSans-2e"/>
       <use x="179.199219" xlink:href="#DejaVuSans-30"/>
      </g>
     </g>
    </g>
    <g id="text_7">
     <!-- Energy [eV] -->
     <defs>
      <path d="M 54.890625 33.015625 
L 54.890625 0 
L 45.90625 0 
L 45.90625 32.71875 
Q 45.90625 40.484375 42.875 44.328125 
Q 39.84375 48.1875 33.796875 48.1875 
Q 26.515625 48.1875 22.3125 43.546875 
Q 18.109375 38.921875 18.109375 30.90625 
L 18.109375 0 
L 9.078125 0 
L 9.078125 54.6875 
L 18.109375 54.6875 
L 18.109375 46.1875 
Q 21.34375 51.125 25.703125 53.5625 
Q 30.078125 56 35.796875 56 
Q 45.21875 56 50.046875 50.171875 
Q 54.890625 44.34375 54.890625 33.015625 
z
" id="DejaVuSans-6e"/>
      <path d="M 45.40625 27.984375 
Q 45.40625 37.75 41.375 43.109375 
Q 37.359375 48.484375 30.078125 48.484375 
Q 22.859375 48.484375 18.828125 43.109375 
Q 14.796875 37.75 14.796875 27.984375 
Q 14.796875 18.265625 18.828125 12.890625 
Q 22.859375 7.515625 30.078125 7.515625 
Q 37.359375 7.515625 41.375 12.890625 
Q 45.40625 18.265625 45.40625 27.984375 
z
M 54.390625 6.78125 
Q 54.390625 -7.171875 48.1875 -13.984375 
Q 42 -20.796875 29.203125 -20.796875 
Q 24.46875 -20.796875 20.265625 -20.09375 
Q 16.0625 -19.390625 12.109375 -17.921875 
L 12.109375 -9.1875 
Q 16.0625 -11.328125 19.921875 -12.34375 
Q 23.78125 -13.375 27.78125 -13.375 
Q 36.625 -13.375 41.015625 -8.765625 
Q 45.40625 -4.15625 45.40625 5.171875 
L 45.40625 9.625 
Q 42.625 4.78125 38.28125 2.390625 
Q 33.9375 0 27.875 0 
Q 17.828125 0 11.671875 7.65625 
Q 5.515625 15.328125 5.515625 27.984375 
Q 5.515625 40.671875 11.671875 48.328125 
Q 17.828125 56 27.875 56 
Q 33.9375 56 38.28125 53.609375 
Q 42.625 51.21875 45.40625 46.390625 
L 45.40625 54.6875 
L 54.390625 54.6875 
z
" id="DejaVuSans-67"/>
      <path d="M 32.171875 -5.078125 
Q 28.375 -14.84375 24.75 -17.8125 
Q 21.140625 -20.796875 15.09375 -20.796875 
L 7.90625 -20.796875 
L 7.90625 -13.28125 
L 13.1875 -13.28125 
Q 16.890625 -13.28125 18.9375 -11.515625 
Q 21 -9.765625 23.484375 -3.21875 
L 25.09375 0.875 
L 2.984375 54.6875 
L 12.5 54.6875 
L 29.59375 11.921875 
L 46.6875 54.6875 
L 56.203125 54.6875 
z
" id="DejaVuSans-79"/>
      <path d="M 8.59375 75.984375 
L 29.296875 75.984375 
L 29.296875 69 
L 17.578125 69 
L 17.578125 -6.203125 
L 29.296875 -6.203125 
L 29.296875 -13.1875 
L 8.59375 -13.1875 
z
" id="DejaVuSans-5b"/>
      <path d="M 30.421875 75.984375 
L 30.421875 -13.1875 
L 9.71875 -13.1875 
L 9.71875 -6.203125 
L 21.390625 -6.203125 
L 21.390625 69 
L 9.71875 69 
L 9.71875 75.984375 
z
" id="DejaVuSans-5d"/>
     </defs>
     <g transform="translate(417.33885 204.108469)rotate(-90)scale(0.1 -0.1)">
      <use xlink:href="#DejaVuSans-45"/>
      <use x="63.183594" xlink:href="#DejaVuSans-6e"/>
      <use x="126.5625" xlink:href="#DejaVuSans-65"/>
      <use x="188.085938" xlink:href="#DejaVuSans-72"/>
      <use x="229.183594" xlink:href="#DejaVuSans-67"/>
      <use x="292.660156" xlink:href="#DejaVuSans-79"/>
      <use x="351.839844" xlink:href="#DejaVuSans-20"/>
      <use x="383.626953" xlink:href="#DejaVuSans-5b"/>
      <use x="422.640625" xlink:href="#DejaVuSans-65"/>
      <use x="484.164062" xlink:href="#DejaVuSans-56"/>
      <use x="552.572266" xlink:href="#DejaVuSans-5d"/>
     </g>
    </g>
   </g>
   <g id="patch_3">
    <path d="M 361.152 307.584 
L 361.152 306.5445 
L 361.152 42.5115 
L 361.152 41.472 
L 374.4576 41.472 
L 374.4576 42.5115 
L 374.4576 306.5445 
L 374.4576 307.584 
z
" style="fill:none;stroke:#000000;stroke-linejoin:miter;stroke-width:0.8;"/>
   </g>
  </g>
 </g>
 <defs>
  <clipPath id="p73924850a6">
   <rect height="266.112" width="285.696" x="57.6" y="41.472"/>
  </clipPath>
  <clipPath id="pcdf423c50f">
   <rect height="266.112" width="13.3056" x="361.152" y="41.472"/>
  </clipPath>
 </defs>
</svg>
