<?xml version="1.0" encoding="utf-8" standalone="no"?>
<!DOCTYPE svg PUBLIC "-//W3C//DTD SVG 1.1//EN"
  "http://www.w3.org/Graphics/SVG/1.1/DTD/svg11.dtd">
<!-- Created with matplotlib (http://matplotlib.org/) -->
<svg height="345.6pt" version="1.1" viewBox="0 0 460.8 345.6" width="460.8pt" xmlns="http://www.w3.org/2000/svg" xmlns:xlink="http://www.w3.org/1999/xlink">
 <defs>
  <style type="text/css">
*{stroke-linecap:butt;stroke-linejoin:round;}
  </style>
 </defs>
 <g id="figure_1">
  <g id="patch_1">
   <path d="M 0 345.6 
L 460.8 345.6 
L 460.8 0 
L 0 0 
z
" style="fill:#ffffff;"/>
  </g>
  <g id="axes_1">
   <g id="CircleCollection_1">
    <path clip-path="url(#p113ac268fd)" d="M 330.099856 181.228689 
C 331.532459 181.228689 332.90658 180.65951 333.919583 179.646506 
C 334.932587 178.633502 335.501766 177.259382 335.501766 175.826778 
C 335.501766 174.394175 334.932587 173.020054 333.919583 172.007051 
C 332.90658 170.994047 331.532459 170.424868 330.099856 170.424868 
C 328.667252 170.424868 327.293131 170.994047 326.280128 172.007051 
C 325.267124 173.020054 324.697945 174.394175 324.697945 175.826778 
C 324.697945 177.259382 325.267124 178.633502 326.280128 179.646506 
C 327.293131 180.65951 328.667252 181.228689 330.099856 181.228689 
z
" style="fill:#fde725;"/>
    <path clip-path="url(#p113ac268fd)" d="M 108.130398 297.889324 
C 109.82953 297.889324 111.459299 297.214252 112.660767 296.012784 
C 113.862234 294.811316 114.537307 293.181548 114.537307 291.482416 
C 114.537307 289.783284 113.862234 288.153515 112.660767 286.952048 
C 111.459299 285.75058 109.82953 285.075508 108.130398 285.075508 
C 106.431266 285.075508 104.801498 285.75058 103.60003 286.952048 
C 102.398562 288.153515 101.72349 289.783284 101.72349 291.482416 
C 101.72349 293.181548 102.398562 294.811316 103.60003 296.012784 
C 104.801498 297.214252 106.431266 297.889324 108.130398 297.889324 
z
" style="fill:#2c718e;"/>
    <path clip-path="url(#p113ac268fd)" d="M 132.169177 61.319611 
C 134.071611 61.319611 135.896382 60.563766 137.241606 59.218542 
C 138.58683 57.873318 139.342675 56.048546 139.342675 54.146112 
C 139.342675 52.243678 138.58683 50.418907 137.241606 49.073683 
C 135.896382 47.728459 134.071611 46.972614 132.169177 46.972614 
C 130.266743 46.972614 128.441972 47.728459 127.096748 49.073683 
C 125.751524 50.418907 124.995679 52.243678 124.995679 54.146112 
C 124.995679 56.048546 125.751524 57.873318 127.096748 59.218542 
C 128.441972 60.563766 130.266743 61.319611 132.169177 61.319611 
z
" style="fill:#56c667;"/>
    <path clip-path="url(#p113ac268fd)" d="M 115.380814 94.377591 
C 117.271444 94.377591 119.084893 93.626435 120.42177 92.289558 
C 121.758648 90.952681 122.509803 89.139231 122.509803 87.248601 
C 122.509803 85.357971 121.758648 83.544522 120.42177 82.207645 
C 119.084893 80.870768 117.271444 80.119612 115.380814 80.119612 
C 113.490184 80.119612 111.676734 80.870768 110.339857 82.207645 
C 109.00298 83.544522 108.251825 85.357971 108.251825 87.248601 
C 108.251825 89.139231 109.00298 90.952681 110.339857 92.289558 
C 111.676734 93.626435 113.490184 94.377591 115.380814 94.377591 
z
" style="fill:#2c728e;"/>
    <path clip-path="url(#p113ac268fd)" d="M 260.891995 213.986266 
C 262.410256 213.986266 263.866537 213.383055 264.94011 212.309482 
C 266.013683 211.235909 266.616894 209.779628 266.616894 208.261367 
C 266.616894 206.743106 266.013683 205.286824 264.94011 204.213251 
C 263.866537 203.139679 262.410256 202.536467 260.891995 202.536467 
C 259.373734 202.536467 257.917452 203.139679 256.843879 204.213251 
C 255.770307 205.286824 255.167095 206.743106 255.167095 208.261367 
C 255.167095 209.779628 255.770307 211.235909 256.843879 212.309482 
C 257.917452 213.383055 259.373734 213.986266 260.891995 213.986266 
z
" style="fill:#2e6f8e;"/>
    <path clip-path="url(#p113ac268fd)" d="M 156.467731 118.1196 
C 158.278789 118.1196 160.015914 117.400059 161.296525 116.119448 
C 162.577136 114.838837 163.296677 113.101712 163.296677 111.290654 
C 163.296677 109.479596 162.577136 107.742471 161.296525 106.46186 
C 160.015914 105.181248 158.278789 104.461708 156.467731 104.461708 
C 154.656673 104.461708 152.919548 105.181248 151.638937 106.46186 
C 150.358325 107.742471 149.638785 109.479596 149.638785 111.290654 
C 149.638785 113.101712 150.358325 114.838837 151.638937 116.119448 
C 152.919548 117.400059 154.656673 118.1196 156.467731 118.1196 
z
" style="fill:#2c718e;"/>
    <path clip-path="url(#p113ac268fd)" d="M 83.049177 152.706687 
C 84.923374 152.706687 86.72106 151.962061 88.046317 150.636804 
C 89.371574 149.311546 90.1162 147.51386 90.1162 145.639663 
C 90.1162 143.765467 89.371574 141.96778 88.046317 140.642523 
C 86.72106 139.317266 84.923374 138.57264 83.049177 138.57264 
C 81.174981 138.57264 79.377294 139.317266 78.052037 140.642523 
C 76.72678 141.96778 75.982154 143.765467 75.982154 145.639663 
C 75.982154 147.51386 76.72678 149.311546 78.052037 150.636804 
C 79.377294 151.962061 81.174981 152.706687 83.049177 152.706687 
z
" style="fill:#2e6d8e;"/>
    <path clip-path="url(#p113ac268fd)" d="M 283.293749 202.529102 
C 284.784077 202.529102 286.213566 201.936989 287.267387 200.883168 
C 288.321208 199.829347 288.913321 198.399858 288.913321 196.90953 
C 288.913321 195.419202 288.321208 193.989713 287.267387 192.935892 
C 286.213566 191.882071 284.784077 191.289958 283.293749 191.289958 
C 281.803421 191.289958 280.373932 191.882071 279.320111 192.935892 
C 278.26629 193.989713 277.674177 195.419202 277.674177 196.90953 
C 277.674177 198.399858 278.26629 199.829347 279.320111 200.883168 
C 280.373932 201.936989 281.803421 202.529102 283.293749 202.529102 
z
" style="fill:#2f6c8e;"/>
    <path clip-path="url(#p113ac268fd)" d="M 174.27684 269.66939 
C 175.89966 269.66939 177.456231 269.024637 178.603738 267.87713 
C 179.751245 266.729623 180.395998 265.173051 180.395998 263.550232 
C 180.395998 261.927412 179.751245 260.37084 178.603738 259.223333 
C 177.456231 258.075827 175.89966 257.431074 174.27684 257.431074 
C 172.65402 257.431074 171.097449 258.075827 169.949942 259.223333 
C 168.802435 260.37084 168.157682 261.927412 168.157682 263.550232 
C 168.157682 265.173051 168.802435 266.729623 169.949942 267.87713 
C 171.097449 269.024637 172.65402 269.66939 174.27684 269.66939 
z
" style="fill:#1f958b;"/>
    <path clip-path="url(#p113ac268fd)" d="M 76.340967 256.28481 
C 78.125426 256.28481 79.837037 255.575837 81.09884 254.314035 
C 82.360642 253.052232 83.069615 251.340621 83.069615 249.556162 
C 83.069615 247.771704 82.360642 246.060093 81.09884 244.79829 
C 79.837037 243.536488 78.125426 242.827515 76.340967 242.827515 
C 74.556509 242.827515 72.844897 243.536488 71.583095 244.79829 
C 70.321292 246.060093 69.61232 247.771704 69.61232 249.556162 
C 69.61232 251.340621 70.321292 253.052232 71.583095 254.314035 
C 72.844897 255.575837 74.556509 256.28481 76.340967 256.28481 
z
" style="fill:#2c728e;"/>
    <path clip-path="url(#p113ac268fd)" d="M 176.326362 174.956592 
C 178.047042 174.956592 179.69748 174.272959 180.914185 173.056254 
C 182.13089 171.839549 182.814524 170.189111 182.814524 168.46843 
C 182.814524 166.747749 182.13089 165.097312 180.914185 163.880607 
C 179.69748 162.663902 178.047042 161.980268 176.326362 161.980268 
C 174.605681 161.980268 172.955243 162.663902 171.738538 163.880607 
C 170.521833 165.097312 169.838199 166.747749 169.838199 168.46843 
C 169.838199 170.189111 170.521833 171.839549 171.738538 173.056254 
C 172.955243 174.272959 174.605681 174.956592 176.326362 174.956592 
z
" style="fill:#31688e;"/>
    <path clip-path="url(#p113ac268fd)" d="M 88.134892 283.172227 
C 89.877423 283.172227 91.548819 282.479912 92.780974 281.247757 
C 94.013129 280.015601 94.705444 278.344205 94.705444 276.601674 
C 94.705444 274.859144 94.013129 273.187748 92.780974 271.955592 
C 91.548819 270.723437 89.877423 270.031122 88.134892 270.031122 
C 86.392361 270.031122 84.720965 270.723437 83.48881 271.955592 
C 82.256654 273.187748 81.564339 274.859144 81.564339 276.601674 
C 81.564339 278.344205 82.256654 280.015601 83.48881 281.247757 
C 84.720965 282.479912 86.392361 283.172227 88.134892 283.172227 
z
" style="fill:#2b758e;"/>
    <path clip-path="url(#p113ac268fd)" d="M 191.943501 237.651918 
C 193.569281 237.651918 195.128693 237.005989 196.278294 235.856388 
C 197.427894 234.706788 198.073824 233.147376 198.073824 231.521595 
C 198.073824 229.895815 197.427894 228.336403 196.278294 227.186802 
C 195.128693 226.037202 193.569281 225.391272 191.943501 225.391272 
C 190.31772 225.391272 188.758308 226.037202 187.608708 227.186802 
C 186.459107 228.336403 185.813178 229.895815 185.813178 231.521595 
C 185.813178 233.147376 186.459107 234.706788 187.608708 235.856388 
C 188.758308 237.005989 190.31772 237.651918 191.943501 237.651918 
z
" style="fill:#440154;"/>
    <path clip-path="url(#p113ac268fd)" d="M 237.859629 224.458877 
C 239.411065 224.458877 240.899166 223.842485 241.996197 222.745455 
C 243.093228 221.648424 243.70962 220.160322 243.70962 218.608887 
C 243.70962 217.057451 243.093228 215.56935 241.996197 214.472319 
C 240.899166 213.375288 239.411065 212.758896 237.859629 212.758896 
C 236.308193 212.758896 234.820092 213.375288 233.723061 214.472319 
C 232.626031 215.56935 232.009639 217.057451 232.009639 218.608887 
C 232.009639 220.160322 232.626031 221.648424 233.723061 222.745455 
C 234.820092 223.842485 236.308193 224.458877 237.859629 224.458877 
z
" style="fill:#31688e;"/>
    <path clip-path="url(#p113ac268fd)" d="M 306.656487 191.313196 
C 308.117316 191.313196 309.518511 190.732802 310.551473 189.69984 
C 311.584435 188.666878 312.164829 187.265684 312.164829 185.804855 
C 312.164829 184.344025 311.584435 182.942831 310.551473 181.909869 
C 309.518511 180.876907 308.117316 180.296513 306.656487 180.296513 
C 305.195658 180.296513 303.794464 180.876907 302.761502 181.909869 
C 301.728539 182.942831 301.148146 184.344025 301.148146 185.804855 
C 301.148146 187.265684 301.728539 188.666878 302.761502 189.69984 
C 303.794464 190.732802 305.195658 191.313196 306.656487 191.313196 
z
" style="fill:#297b8e;"/>
    <path clip-path="url(#p113ac268fd)" d="M 153.682884 288.503043 
C 155.321123 288.503043 156.892485 287.852163 158.050895 286.693753 
C 159.209305 285.535343 159.860185 283.963981 159.860185 282.325741 
C 159.860185 280.687502 159.209305 279.11614 158.050895 277.95773 
C 156.892485 276.799319 155.321123 276.14844 153.682884 276.14844 
C 152.044644 276.14844 150.473282 276.799319 149.314872 277.95773 
C 148.156462 279.11614 147.505582 280.687502 147.505582 282.325741 
C 147.505582 283.963981 148.156462 285.535343 149.314872 286.693753 
C 150.473282 287.852163 152.044644 288.503043 153.682884 288.503043 
z
" style="fill:#2f6c8e;"/>
    <path clip-path="url(#p113ac268fd)" d="M 96.325079 121.485639 
C 98.213025 121.485639 100.0239 120.73555 101.358879 119.400571 
C 102.693858 118.065592 103.443947 116.254717 103.443947 114.366771 
C 103.443947 112.478825 102.693858 110.667951 101.358879 109.332971 
C 100.0239 107.997992 98.213025 107.247903 96.325079 107.247903 
C 94.437134 107.247903 92.626259 107.997992 91.29128 109.332971 
C 89.9563 110.667951 89.206212 112.478825 89.206212 114.366771 
C 89.206212 116.254717 89.9563 118.065592 91.29128 119.400571 
C 92.626259 120.73555 94.437134 121.485639 96.325079 121.485639 
z
" style="fill:#2c738e;"/>
    <path clip-path="url(#p113ac268fd)" d="M 141.946391 93.231914 
C 143.80332 93.231914 145.584444 92.494148 146.897491 91.181101 
C 148.210538 89.868054 148.948304 88.08693 148.948304 86.230001 
C 148.948304 84.373072 148.210538 82.591948 146.897491 81.278901 
C 145.584444 79.965854 143.80332 79.228088 141.946391 79.228088 
C 140.089463 79.228088 138.308339 79.965854 136.995292 81.278901 
C 135.682245 82.591948 134.944479 84.373072 134.944479 86.230001 
C 134.944479 88.08693 135.682245 89.868054 136.995292 91.181101 
C 138.308339 92.494148 140.089463 93.231914 141.946391 93.231914 
z
" style="fill:#2c738e;"/>
    <path clip-path="url(#p113ac268fd)" d="M 70.853459 222.802576 
C 72.677131 222.802576 74.426354 222.078024 75.715885 220.788493 
C 77.005415 219.498963 77.729967 217.749739 77.729967 215.926068 
C 77.729967 214.102397 77.005415 212.353173 75.715885 211.063643 
C 74.426354 209.774112 72.677131 209.04956 70.853459 209.04956 
C 69.029788 209.04956 67.280564 209.774112 65.991034 211.063643 
C 64.701504 212.353173 63.976951 214.102397 63.976951 215.926068 
C 63.976951 217.749739 64.701504 219.498963 65.991034 220.788493 
C 67.280564 222.078024 69.029788 222.802576 70.853459 222.802576 
z
" style="fill:#2c728e;"/>
    <path clip-path="url(#p113ac268fd)" d="M 73.950093 187.762303 
C 75.80228 187.762303 77.578856 187.026421 78.88855 185.716727 
C 80.198244 184.407033 80.934126 182.630457 80.934126 180.77827 
C 80.934126 178.926083 80.198244 177.149507 78.88855 175.839813 
C 77.578856 174.530119 75.80228 173.794237 73.950093 173.794237 
C 72.097906 173.794237 70.32133 174.530119 69.011636 175.839813 
C 67.701942 177.149507 66.96606 178.926083 66.96606 180.77827 
C 66.96606 182.630457 67.701942 184.407033 69.011636 185.716727 
C 70.32133 187.026421 72.097906 187.762303 73.950093 187.762303 
z
" style="fill:#2d718e;"/>
    <path clip-path="url(#p113ac268fd)" d="M 166.61893 145.122747 
C 168.386231 145.122747 170.081386 144.420591 171.331057 143.17092 
C 172.580727 141.921249 173.282884 140.226095 173.282884 138.458793 
C 173.282884 136.691492 172.580727 134.996337 171.331057 133.746667 
C 170.081386 132.496996 168.386231 131.79484 166.61893 131.79484 
C 164.851629 131.79484 163.156474 132.496996 161.906804 133.746667 
C 160.657133 134.996337 159.954977 136.691492 159.954977 138.458793 
C 159.954977 140.226095 160.657133 141.921249 161.906804 143.17092 
C 163.156474 144.420591 164.851629 145.122747 166.61893 145.122747 
z
" style="fill:#2e6e8e;"/>
    <path clip-path="url(#p113ac268fd)" d="M 130.22335 301.253748 
C 131.886476 301.253748 133.481708 300.592982 134.657716 299.416974 
C 135.833723 298.240967 136.49449 296.645734 136.49449 294.982609 
C 136.49449 293.319483 135.833723 291.724251 134.657716 290.548243 
C 133.481708 289.372236 131.886476 288.711469 130.22335 288.711469 
C 128.560225 288.711469 126.964992 289.372236 125.788985 290.548243 
C 124.612977 291.724251 123.952211 293.319483 123.952211 294.982609 
C 123.952211 296.645734 124.612977 298.240967 125.788985 299.416974 
C 126.964992 300.592982 128.560225 301.253748 130.22335 301.253748 
z
" style="fill:#2a778e;"/>
    <path clip-path="url(#p113ac268fd)" d="M 184.094979 204.149711 
C 185.77158 204.149711 187.379737 203.48359 188.565273 202.298055 
C 189.750809 201.112519 190.416929 199.504361 190.416929 197.827761 
C 190.416929 196.15116 189.750809 194.543003 188.565273 193.357467 
C 187.379737 192.171931 185.77158 191.50581 184.094979 191.50581 
C 182.418378 191.50581 180.810221 192.171931 179.624685 193.357467 
C 178.439149 194.543003 177.773029 196.15116 177.773029 197.827761 
C 177.773029 199.504361 178.439149 201.112519 179.624685 202.298055 
C 180.810221 203.48359 182.418378 204.149711 184.094979 204.149711 
z
" style="fill:#20938c;"/>
    <path clip-path="url(#p113ac268fd)" d="M 215.950912 235.535797 
C 217.532802 235.535797 219.050115 234.907305 220.168681 233.78874 
C 221.287246 232.670175 221.915737 231.152862 221.915737 229.570972 
C 221.915737 227.989082 221.287246 226.471769 220.168681 225.353204 
C 219.050115 224.234639 217.532802 223.606147 215.950912 223.606147 
C 214.369022 223.606147 212.85171 224.234639 211.733144 225.353204 
C 210.614579 226.471769 209.986088 227.989082 209.986088 229.570972 
C 209.986088 231.152862 210.614579 232.670175 211.733144 233.78874 
C 212.85171 234.907305 214.369022 235.535797 215.950912 235.535797 
z
" style="fill:#20928c;"/>
   </g>
   <g id="text_1">
    <!-- Structure #8168, $E_N$=-181.38eV, ΔE=0.11eV -->
    <defs>
     <path d="M 53.515625 70.515625 
L 53.515625 60.890625 
Q 47.90625 63.578125 42.921875 64.890625 
Q 37.9375 66.21875 33.296875 66.21875 
Q 25.25 66.21875 20.875 63.09375 
Q 16.5 59.96875 16.5 54.203125 
Q 16.5 49.359375 19.40625 46.890625 
Q 22.3125 44.4375 30.421875 42.921875 
L 36.375 41.703125 
Q 47.40625 39.59375 52.65625 34.296875 
Q 57.90625 29 57.90625 20.125 
Q 57.90625 9.515625 50.796875 4.046875 
Q 43.703125 -1.421875 29.984375 -1.421875 
Q 24.8125 -1.421875 18.96875 -0.25 
Q 13.140625 0.921875 6.890625 3.21875 
L 6.890625 13.375 
Q 12.890625 10.015625 18.65625 8.296875 
Q 24.421875 6.59375 29.984375 6.59375 
Q 38.421875 6.59375 43.015625 9.90625 
Q 47.609375 13.234375 47.609375 19.390625 
Q 47.609375 24.75 44.3125 27.78125 
Q 41.015625 30.8125 33.5 32.328125 
L 27.484375 33.5 
Q 16.453125 35.6875 11.515625 40.375 
Q 6.59375 45.0625 6.59375 53.421875 
Q 6.59375 63.09375 13.40625 68.65625 
Q 20.21875 74.21875 32.171875 74.21875 
Q 37.3125 74.21875 42.625 73.28125 
Q 47.953125 72.359375 53.515625 70.515625 
z
" id="DejaVuSans-53"/>
     <path d="M 18.3125 70.21875 
L 18.3125 54.6875 
L 36.8125 54.6875 
L 36.8125 47.703125 
L 18.3125 47.703125 
L 18.3125 18.015625 
Q 18.3125 11.328125 20.140625 9.421875 
Q 21.96875 7.515625 27.59375 7.515625 
L 36.8125 7.515625 
L 36.8125 0 
L 27.59375 0 
Q 17.1875 0 13.234375 3.875 
Q 9.28125 7.765625 9.28125 18.015625 
L 9.28125 47.703125 
L 2.6875 47.703125 
L 2.6875 54.6875 
L 9.28125 54.6875 
L 9.28125 70.21875 
z
" id="DejaVuSans-74"/>
     <path d="M 41.109375 46.296875 
Q 39.59375 47.171875 37.8125 47.578125 
Q 36.03125 48 33.890625 48 
Q 26.265625 48 22.1875 43.046875 
Q 18.109375 38.09375 18.109375 28.8125 
L 18.109375 0 
L 9.078125 0 
L 9.078125 54.6875 
L 18.109375 54.6875 
L 18.109375 46.1875 
Q 20.953125 51.171875 25.484375 53.578125 
Q 30.03125 56 36.53125 56 
Q 37.453125 56 38.578125 55.875 
Q 39.703125 55.765625 41.0625 55.515625 
z
" id="DejaVuSans-72"/>
     <path d="M 8.5 21.578125 
L 8.5 54.6875 
L 17.484375 54.6875 
L 17.484375 21.921875 
Q 17.484375 14.15625 20.5 10.265625 
Q 23.53125 6.390625 29.59375 6.390625 
Q 36.859375 6.390625 41.078125 11.03125 
Q 45.3125 15.671875 45.3125 23.6875 
L 45.3125 54.6875 
L 54.296875 54.6875 
L 54.296875 0 
L 45.3125 0 
L 45.3125 8.40625 
Q 42.046875 3.421875 37.71875 1 
Q 33.40625 -1.421875 27.6875 -1.421875 
Q 18.265625 -1.421875 13.375 4.4375 
Q 8.5 10.296875 8.5 21.578125 
z
M 31.109375 56 
z
" id="DejaVuSans-75"/>
     <path d="M 48.78125 52.59375 
L 48.78125 44.1875 
Q 44.96875 46.296875 41.140625 47.34375 
Q 37.3125 48.390625 33.40625 48.390625 
Q 24.65625 48.390625 19.8125 42.84375 
Q 14.984375 37.3125 14.984375 27.296875 
Q 14.984375 17.28125 19.8125 11.734375 
Q 24.65625 6.203125 33.40625 6.203125 
Q 37.3125 6.203125 41.140625 7.25 
Q 44.96875 8.296875 48.78125 10.40625 
L 48.78125 2.09375 
Q 45.015625 0.34375 40.984375 -0.53125 
Q 36.96875 -1.421875 32.421875 -1.421875 
Q 20.0625 -1.421875 12.78125 6.34375 
Q 5.515625 14.109375 5.515625 27.296875 
Q 5.515625 40.671875 12.859375 48.328125 
Q 20.21875 56 33.015625 56 
Q 37.15625 56 41.109375 55.140625 
Q 45.0625 54.296875 48.78125 52.59375 
z
" id="DejaVuSans-63"/>
     <path d="M 56.203125 29.59375 
L 56.203125 25.203125 
L 14.890625 25.203125 
Q 15.484375 15.921875 20.484375 11.0625 
Q 25.484375 6.203125 34.421875 6.203125 
Q 39.59375 6.203125 44.453125 7.46875 
Q 49.3125 8.734375 54.109375 11.28125 
L 54.109375 2.78125 
Q 49.265625 0.734375 44.1875 -0.34375 
Q 39.109375 -1.421875 33.890625 -1.421875 
Q 20.796875 -1.421875 13.15625 6.1875 
Q 5.515625 13.8125 5.515625 26.8125 
Q 5.515625 40.234375 12.765625 48.109375 
Q 20.015625 56 32.328125 56 
Q 43.359375 56 49.78125 48.890625 
Q 56.203125 41.796875 56.203125 29.59375 
z
M 47.21875 32.234375 
Q 47.125 39.59375 43.09375 43.984375 
Q 39.0625 48.390625 32.421875 48.390625 
Q 24.90625 48.390625 20.390625 44.140625 
Q 15.875 39.890625 15.1875 32.171875 
z
" id="DejaVuSans-65"/>
     <path id="DejaVuSans-20"/>
     <path d="M 51.125 44 
L 36.921875 44 
L 32.8125 27.6875 
L 47.125 27.6875 
z
M 43.796875 71.78125 
L 38.71875 51.515625 
L 52.984375 51.515625 
L 58.109375 71.78125 
L 65.921875 71.78125 
L 60.890625 51.515625 
L 76.125 51.515625 
L 76.125 44 
L 58.984375 44 
L 54.984375 27.6875 
L 70.515625 27.6875 
L 70.515625 20.21875 
L 53.078125 20.21875 
L 48 0 
L 40.1875 0 
L 45.21875 20.21875 
L 30.90625 20.21875 
L 25.875 0 
L 18.015625 0 
L 23.09375 20.21875 
L 7.71875 20.21875 
L 7.71875 27.6875 
L 24.90625 27.6875 
L 29 44 
L 13.28125 44 
L 13.28125 51.515625 
L 30.90625 51.515625 
L 35.890625 71.78125 
z
" id="DejaVuSans-23"/>
     <path d="M 31.78125 34.625 
Q 24.75 34.625 20.71875 30.859375 
Q 16.703125 27.09375 16.703125 20.515625 
Q 16.703125 13.921875 20.71875 10.15625 
Q 24.75 6.390625 31.78125 6.390625 
Q 38.8125 6.390625 42.859375 10.171875 
Q 46.921875 13.96875 46.921875 20.515625 
Q 46.921875 27.09375 42.890625 30.859375 
Q 38.875 34.625 31.78125 34.625 
z
M 21.921875 38.8125 
Q 15.578125 40.375 12.03125 44.71875 
Q 8.5 49.078125 8.5 55.328125 
Q 8.5 64.0625 14.71875 69.140625 
Q 20.953125 74.21875 31.78125 74.21875 
Q 42.671875 74.21875 48.875 69.140625 
Q 55.078125 64.0625 55.078125 55.328125 
Q 55.078125 49.078125 51.53125 44.71875 
Q 48 40.375 41.703125 38.8125 
Q 48.828125 37.15625 52.796875 32.3125 
Q 56.78125 27.484375 56.78125 20.515625 
Q 56.78125 9.90625 50.3125 4.234375 
Q 43.84375 -1.421875 31.78125 -1.421875 
Q 19.734375 -1.421875 13.25 4.234375 
Q 6.78125 9.90625 6.78125 20.515625 
Q 6.78125 27.484375 10.78125 32.3125 
Q 14.796875 37.15625 21.921875 38.8125 
z
M 18.3125 54.390625 
Q 18.3125 48.734375 21.84375 45.5625 
Q 25.390625 42.390625 31.78125 42.390625 
Q 38.140625 42.390625 41.71875 45.5625 
Q 45.3125 48.734375 45.3125 54.390625 
Q 45.3125 60.0625 41.71875 63.234375 
Q 38.140625 66.40625 31.78125 66.40625 
Q 25.390625 66.40625 21.84375 63.234375 
Q 18.3125 60.0625 18.3125 54.390625 
z
" id="DejaVuSans-38"/>
     <path d="M 12.40625 8.296875 
L 28.515625 8.296875 
L 28.515625 63.921875 
L 10.984375 60.40625 
L 10.984375 69.390625 
L 28.421875 72.90625 
L 38.28125 72.90625 
L 38.28125 8.296875 
L 54.390625 8.296875 
L 54.390625 0 
L 12.40625 0 
z
" id="DejaVuSans-31"/>
     <path d="M 33.015625 40.375 
Q 26.375 40.375 22.484375 35.828125 
Q 18.609375 31.296875 18.609375 23.390625 
Q 18.609375 15.53125 22.484375 10.953125 
Q 26.375 6.390625 33.015625 6.390625 
Q 39.65625 6.390625 43.53125 10.953125 
Q 47.40625 15.53125 47.40625 23.390625 
Q 47.40625 31.296875 43.53125 35.828125 
Q 39.65625 40.375 33.015625 40.375 
z
M 52.59375 71.296875 
L 52.59375 62.3125 
Q 48.875 64.0625 45.09375 64.984375 
Q 41.3125 65.921875 37.59375 65.921875 
Q 27.828125 65.921875 22.671875 59.328125 
Q 17.53125 52.734375 16.796875 39.40625 
Q 19.671875 43.65625 24.015625 45.921875 
Q 28.375 48.1875 33.59375 48.1875 
Q 44.578125 48.1875 50.953125 41.515625 
Q 57.328125 34.859375 57.328125 23.390625 
Q 57.328125 12.15625 50.6875 5.359375 
Q 44.046875 -1.421875 33.015625 -1.421875 
Q 20.359375 -1.421875 13.671875 8.265625 
Q 6.984375 17.96875 6.984375 36.375 
Q 6.984375 53.65625 15.1875 63.9375 
Q 23.390625 74.21875 37.203125 74.21875 
Q 40.921875 74.21875 44.703125 73.484375 
Q 48.484375 72.75 52.59375 71.296875 
z
" id="DejaVuSans-36"/>
     <path d="M 11.71875 12.40625 
L 22.015625 12.40625 
L 22.015625 4 
L 14.015625 -11.625 
L 7.71875 -11.625 
L 11.71875 4 
z
" id="DejaVuSans-2c"/>
     <path d="M 16.890625 72.90625 
L 62.984375 72.90625 
L 61.375 64.59375 
L 25.09375 64.59375 
L 20.90625 43.015625 
L 55.71875 43.015625 
L 54.109375 34.71875 
L 19.28125 34.71875 
L 14.203125 8.296875 
L 51.3125 8.296875 
L 49.703125 0 
L 2.6875 0 
z
" id="DejaVuSans-Oblique-45"/>
     <path d="M 16.890625 72.90625 
L 30.171875 72.90625 
L 50.296875 10.40625 
L 62.5 72.90625 
L 72.125 72.90625 
L 57.90625 0 
L 44.578125 0 
L 24.515625 62.890625 
L 12.3125 0 
L 2.6875 0 
z
" id="DejaVuSans-Oblique-4e"/>
     <path d="M 10.59375 45.40625 
L 73.1875 45.40625 
L 73.1875 37.203125 
L 10.59375 37.203125 
z
M 10.59375 25.484375 
L 73.1875 25.484375 
L 73.1875 17.1875 
L 10.59375 17.1875 
z
" id="DejaVuSans-3d"/>
     <path d="M 4.890625 31.390625 
L 31.203125 31.390625 
L 31.203125 23.390625 
L 4.890625 23.390625 
z
" id="DejaVuSans-2d"/>
     <path d="M 10.6875 12.40625 
L 21 12.40625 
L 21 0 
L 10.6875 0 
z
" id="DejaVuSans-2e"/>
     <path d="M 40.578125 39.3125 
Q 47.65625 37.796875 51.625 33 
Q 55.609375 28.21875 55.609375 21.1875 
Q 55.609375 10.40625 48.1875 4.484375 
Q 40.765625 -1.421875 27.09375 -1.421875 
Q 22.515625 -1.421875 17.65625 -0.515625 
Q 12.796875 0.390625 7.625 2.203125 
L 7.625 11.71875 
Q 11.71875 9.328125 16.59375 8.109375 
Q 21.484375 6.890625 26.8125 6.890625 
Q 36.078125 6.890625 40.9375 10.546875 
Q 45.796875 14.203125 45.796875 21.1875 
Q 45.796875 27.640625 41.28125 31.265625 
Q 36.765625 34.90625 28.71875 34.90625 
L 20.21875 34.90625 
L 20.21875 43.015625 
L 29.109375 43.015625 
Q 36.375 43.015625 40.234375 45.921875 
Q 44.09375 48.828125 44.09375 54.296875 
Q 44.09375 59.90625 40.109375 62.90625 
Q 36.140625 65.921875 28.71875 65.921875 
Q 24.65625 65.921875 20.015625 65.03125 
Q 15.375 64.15625 9.8125 62.3125 
L 9.8125 71.09375 
Q 15.4375 72.65625 20.34375 73.4375 
Q 25.25 74.21875 29.59375 74.21875 
Q 40.828125 74.21875 47.359375 69.109375 
Q 53.90625 64.015625 53.90625 55.328125 
Q 53.90625 49.265625 50.4375 45.09375 
Q 46.96875 40.921875 40.578125 39.3125 
z
" id="DejaVuSans-33"/>
     <path d="M 28.609375 0 
L 0.78125 72.90625 
L 11.078125 72.90625 
L 34.1875 11.53125 
L 57.328125 72.90625 
L 67.578125 72.90625 
L 39.796875 0 
z
" id="DejaVuSans-56"/>
     <path d="M 34.1875 63.1875 
L 14.15625 8.203125 
L 54.25 8.203125 
z
M 0.78125 0 
L 28.609375 72.90625 
L 39.796875 72.90625 
L 67.578125 0 
z
" id="DejaVuSans-394"/>
     <path d="M 9.8125 72.90625 
L 55.90625 72.90625 
L 55.90625 64.59375 
L 19.671875 64.59375 
L 19.671875 43.015625 
L 54.390625 43.015625 
L 54.390625 34.71875 
L 19.671875 34.71875 
L 19.671875 8.296875 
L 56.78125 8.296875 
L 56.78125 0 
L 9.8125 0 
z
" id="DejaVuSans-45"/>
     <path d="M 31.78125 66.40625 
Q 24.171875 66.40625 20.328125 58.90625 
Q 16.5 51.421875 16.5 36.375 
Q 16.5 21.390625 20.328125 13.890625 
Q 24.171875 6.390625 31.78125 6.390625 
Q 39.453125 6.390625 43.28125 13.890625 
Q 47.125 21.390625 47.125 36.375 
Q 47.125 51.421875 43.28125 58.90625 
Q 39.453125 66.40625 31.78125 66.40625 
z
M 31.78125 74.21875 
Q 44.046875 74.21875 50.515625 64.515625 
Q 56.984375 54.828125 56.984375 36.375 
Q 56.984375 17.96875 50.515625 8.265625 
Q 44.046875 -1.421875 31.78125 -1.421875 
Q 19.53125 -1.421875 13.0625 8.265625 
Q 6.59375 17.96875 6.59375 36.375 
Q 6.59375 54.828125 13.0625 64.515625 
Q 19.53125 74.21875 31.78125 74.21875 
z
" id="DejaVuSans-30"/>
    </defs>
    <g transform="translate(65.388 35.472)scale(0.12 -0.12)">
     <use transform="translate(0 0.78125)" xlink:href="#DejaVuSans-53"/>
     <use transform="translate(63.476562 0.78125)" xlink:href="#DejaVuSans-74"/>
     <use transform="translate(102.685547 0.78125)" xlink:href="#DejaVuSans-72"/>
     <use transform="translate(143.798828 0.78125)" xlink:href="#DejaVuSans-75"/>
     <use transform="translate(207.177734 0.78125)" xlink:href="#DejaVuSans-63"/>
     <use transform="translate(262.158203 0.78125)" xlink:href="#DejaVuSans-74"/>
     <use transform="translate(301.367188 0.78125)" xlink:href="#DejaVuSans-75"/>
     <use transform="translate(364.746094 0.78125)" xlink:href="#DejaVuSans-72"/>
     <use transform="translate(405.859375 0.78125)" xlink:href="#DejaVuSans-65"/>
     <use transform="translate(467.382812 0.78125)" xlink:href="#DejaVuSans-20"/>
     <use transform="translate(499.169922 0.78125)" xlink:href="#DejaVuSans-23"/>
     <use transform="translate(582.958984 0.78125)" xlink:href="#DejaVuSans-38"/>
     <use transform="translate(646.582031 0.78125)" xlink:href="#DejaVuSans-31"/>
     <use transform="translate(710.205078 0.78125)" xlink:href="#DejaVuSans-36"/>
     <use transform="translate(773.828125 0.78125)" xlink:href="#DejaVuSans-38"/>
     <use transform="translate(837.451172 0.78125)" xlink:href="#DejaVuSans-2c"/>
     <use transform="translate(869.238281 0.78125)" xlink:href="#DejaVuSans-20"/>
     <use transform="translate(901.025391 0.78125)" xlink:href="#DejaVuSans-Oblique-45"/>
     <use transform="translate(964.208984 -15.625)scale(0.7)" xlink:href="#DejaVuSans-Oblique-4e"/>
     <use transform="translate(1019.306641 0.78125)" xlink:href="#DejaVuSans-3d"/>
     <use transform="translate(1103.095703 0.78125)" xlink:href="#DejaVuSans-2d"/>
     <use transform="translate(1139.179688 0.78125)" xlink:href="#DejaVuSans-31"/>
     <use transform="translate(1202.802734 0.78125)" xlink:href="#DejaVuSans-38"/>
     <use transform="translate(1266.425781 0.78125)" xlink:href="#DejaVuSans-31"/>
     <use transform="translate(1330.048828 0.78125)" xlink:href="#DejaVuSans-2e"/>
     <use transform="translate(1361.835938 0.78125)" xlink:href="#DejaVuSans-33"/>
     <use transform="translate(1425.458984 0.78125)" xlink:href="#DejaVuSans-38"/>
     <use transform="translate(1489.082031 0.78125)" xlink:href="#DejaVuSans-65"/>
     <use transform="translate(1550.605469 0.78125)" xlink:href="#DejaVuSans-56"/>
     <use transform="translate(1619.013672 0.78125)" xlink:href="#DejaVuSans-2c"/>
     <use transform="translate(1650.800781 0.78125)" xlink:href="#DejaVuSans-20"/>
     <use transform="translate(1682.587891 0.78125)" xlink:href="#DejaVuSans-394"/>
     <use transform="translate(1750.996094 0.78125)" xlink:href="#DejaVuSans-45"/>
     <use transform="translate(1814.179688 0.78125)" xlink:href="#DejaVuSans-3d"/>
     <use transform="translate(1897.96875 0.78125)" xlink:href="#DejaVuSans-30"/>
     <use transform="translate(1961.591797 0.78125)" xlink:href="#DejaVuSans-2e"/>
     <use transform="translate(1993.378906 0.78125)" xlink:href="#DejaVuSans-31"/>
     <use transform="translate(2057.001953 0.78125)" xlink:href="#DejaVuSans-31"/>
     <use transform="translate(2120.625 0.78125)" xlink:href="#DejaVuSans-65"/>
     <use transform="translate(2182.148438 0.78125)" xlink:href="#DejaVuSans-56"/>
    </g>
   </g>
  </g>
  <g id="axes_2">
   <g id="patch_2">
    <path clip-path="url(#p565b06f864)" d="M 361.152 307.584 
L 361.152 306.5445 
L 361.152 42.5115 
L 361.152 41.472 
L 374.4576 41.472 
L 374.4576 42.5115 
L 374.4576 306.5445 
L 374.4576 307.584 
z
" style="fill:#ffffff;stroke:#ffffff;stroke-linejoin:miter;stroke-width:0.01;"/>
   </g>
   <image height="265.68" id="image959cab2c35" transform="scale(1 -1)translate(0 -265.68)" width="12.96" x="361.44" xlink:href="data:image/png;base64,
iVBORw0KGgoAAAANSUhEUgAAABIAAAFxCAYAAAB+2fgXAAAABHNCSVQICAgIfAhkiAAAAeVJREFUeJztncmNw0AQA2ckheYQNv9QLIfQ8ygsCgQ7AEI8+jAs2Puz/94F1LP2ReCsZ18bAWIeZ5XaGRBE7VnbptG+KI101FYyNSiQG2oRITXKNaX9uclOdi2XWjftVE32CZCO2ou5Bj1TcCBr/1zB9ge7Fq0Rg2NM9pvbtG+ua1QgsRYhDy0ISEiNc40BEibbSI0Coj5CBGtkpFbXJiAjNZlrwhuSOv2M1DjXbEdEciBt1JSDDQKKpmZr2rr2j0DBGpXaWEJq3bQzEPIS26r9J+Wzv9Tm8o3aajRXqc3VUXsApKNWjeZq0x4ABVNbm7lrszVigDqP5vIl2+eaT2yfRkL7g+dRcNPqjohkjaCvRVBq0H2U3LQrOJCx9kdTg4B8oxZzzTdqdYHEngjUCAPyUctN9sVRq2sTECW2UKNLd2jVtRmo1A6AhMmWaSRcR8nUdIHUuVb75zJS218EyEitro1At69pIdeSk30Lkw0FktNImGyZRhy1O5galmxd03LUsHWk06jUZiCq+5Wb1kZNN4+wJxJuWt8RAW5am2sYNZ9rYCBzZ3buPKJ2P5Yj4Toy3keyIyJbIxs1rml1byCA84gpch5RQNB7Q0qNMGq2Hy4BXdNR41yz/cEEJfZzUz96r9PoB0okjeQ8y9TkAAAAAElFTkSuQmCC" y="-41.76"/>
   <g id="matplotlib.axis_1"/>
   <g id="matplotlib.axis_2">
    <g id="ytick_1">
     <g id="line2d_1">
      <defs>
       <path d="M 0 0 
L 3.5 0 
" id="m3b8982bfd5" style="stroke:#000000;stroke-width:0.8;"/>
      </defs>
      <g>
       <use style="stroke:#000000;stroke-width:0.8;" x="374.4576" xlink:href="#m3b8982bfd5" y="287.358045"/>
      </g>
     </g>
     <g id="text_2">
      <!-- −9.0 -->
      <defs>
       <path d="M 10.59375 35.5 
L 73.1875 35.5 
L 73.1875 27.203125 
L 10.59375 27.203125 
z
" id="DejaVuSans-2212"/>
       <path d="M 10.984375 1.515625 
L 10.984375 10.5 
Q 14.703125 8.734375 18.5 7.8125 
Q 22.3125 6.890625 25.984375 6.890625 
Q 35.75 6.890625 40.890625 13.453125 
Q 46.046875 20.015625 46.78125 33.40625 
Q 43.953125 29.203125 39.59375 26.953125 
Q 35.25 24.703125 29.984375 24.703125 
Q 19.046875 24.703125 12.671875 31.3125 
Q 6.296875 37.9375 6.296875 49.421875 
Q 6.296875 60.640625 12.9375 67.421875 
Q 19.578125 74.21875 30.609375 74.21875 
Q 43.265625 74.21875 49.921875 64.515625 
Q 56.59375 54.828125 56.59375 36.375 
Q 56.59375 19.140625 48.40625 8.859375 
Q 40.234375 -1.421875 26.421875 -1.421875 
Q 22.703125 -1.421875 18.890625 -0.6875 
Q 15.09375 0.046875 10.984375 1.515625 
z
M 30.609375 32.421875 
Q 37.25 32.421875 41.125 36.953125 
Q 45.015625 41.5 45.015625 49.421875 
Q 45.015625 57.28125 41.125 61.84375 
Q 37.25 66.40625 30.609375 66.40625 
Q 23.96875 66.40625 20.09375 61.84375 
Q 16.21875 57.28125 16.21875 49.421875 
Q 16.21875 41.5 20.09375 36.953125 
Q 23.96875 32.421875 30.609375 32.421875 
z
" id="DejaVuSans-39"/>
      </defs>
      <g transform="translate(381.4576 291.157264)scale(0.1 -0.1)">
       <use xlink:href="#DejaVuSans-2212"/>
       <use x="83.789062" xlink:href="#DejaVuSans-39"/>
       <use x="147.412109" xlink:href="#DejaVuSans-2e"/>
       <use x="179.199219" xlink:href="#DejaVuSans-30"/>
      </g>
     </g>
    </g>
    <g id="ytick_2">
     <g id="line2d_2">
      <g>
       <use style="stroke:#000000;stroke-width:0.8;" x="374.4576" xlink:href="#m3b8982bfd5" y="256.241083"/>
      </g>
     </g>
     <g id="text_3">
      <!-- −8.5 -->
      <defs>
       <path d="M 10.796875 72.90625 
L 49.515625 72.90625 
L 49.515625 64.59375 
L 19.828125 64.59375 
L 19.828125 46.734375 
Q 21.96875 47.46875 24.109375 47.828125 
Q 26.265625 48.1875 28.421875 48.1875 
Q 40.625 48.1875 47.75 41.5 
Q 54.890625 34.8125 54.890625 23.390625 
Q 54.890625 11.625 47.5625 5.09375 
Q 40.234375 -1.421875 26.90625 -1.421875 
Q 22.3125 -1.421875 17.546875 -0.640625 
Q 12.796875 0.140625 7.71875 1.703125 
L 7.71875 11.625 
Q 12.109375 9.234375 16.796875 8.0625 
Q 21.484375 6.890625 26.703125 6.890625 
Q 35.15625 6.890625 40.078125 11.328125 
Q 45.015625 15.765625 45.015625 23.390625 
Q 45.015625 31 40.078125 35.4375 
Q 35.15625 39.890625 26.703125 39.890625 
Q 22.75 39.890625 18.8125 39.015625 
Q 14.890625 38.140625 10.796875 36.28125 
z
" id="DejaVuSans-35"/>
      </defs>
      <g transform="translate(381.4576 260.040301)scale(0.1 -0.1)">
       <use xlink:href="#DejaVuSans-2212"/>
       <use x="83.789062" xlink:href="#DejaVuSans-38"/>
       <use x="147.412109" xlink:href="#DejaVuSans-2e"/>
       <use x="179.199219" xlink:href="#DejaVuSans-35"/>
      </g>
     </g>
    </g>
    <g id="ytick_3">
     <g id="line2d_3">
      <g>
       <use style="stroke:#000000;stroke-width:0.8;" x="374.4576" xlink:href="#m3b8982bfd5" y="225.12412"/>
      </g>
     </g>
     <g id="text_4">
      <!-- −8.0 -->
      <g transform="translate(381.4576 228.923339)scale(0.1 -0.1)">
       <use xlink:href="#DejaVuSans-2212"/>
       <use x="83.789062" xlink:href="#DejaVuSans-38"/>
       <use x="147.412109" xlink:href="#DejaVuSans-2e"/>
       <use x="179.199219" xlink:href="#DejaVuSans-30"/>
      </g>
     </g>
    </g>
    <g id="ytick_4">
     <g id="line2d_4">
      <g>
       <use style="stroke:#000000;stroke-width:0.8;" x="374.4576" xlink:href="#m3b8982bfd5" y="194.007157"/>
      </g>
     </g>
     <g id="text_5">
      <!-- −7.5 -->
      <defs>
       <path d="M 8.203125 72.90625 
L 55.078125 72.90625 
L 55.078125 68.703125 
L 28.609375 0 
L 18.3125 0 
L 43.21875 64.59375 
L 8.203125 64.59375 
z
" id="DejaVuSans-37"/>
      </defs>
      <g transform="translate(381.4576 197.806376)scale(0.1 -0.1)">
       <use xlink:href="#DejaVuSans-2212"/>
       <use x="83.789062" xlink:href="#DejaVuSans-37"/>
       <use x="147.412109" xlink:href="#DejaVuSans-2e"/>
       <use x="179.199219" xlink:href="#DejaVuSans-35"/>
      </g>
     </g>
    </g>
    <g id="ytick_5">
     <g id="line2d_5">
      <g>
       <use style="stroke:#000000;stroke-width:0.8;" x="374.4576" xlink:href="#m3b8982bfd5" y="162.890194"/>
      </g>
     </g>
     <g id="text_6">
      <!-- −7.0 -->
      <g transform="translate(381.4576 166.689413)scale(0.1 -0.1)">
       <use xlink:href="#DejaVuSans-2212"/>
       <use x="83.789062" xlink:href="#DejaVuSans-37"/>
       <use x="147.412109" xlink:href="#DejaVuSans-2e"/>
       <use x="179.199219" xlink:href="#DejaVuSans-30"/>
      </g>
     </g>
    </g>
    <g id="ytick_6">
     <g id="line2d_6">
      <g>
       <use style="stroke:#000000;stroke-width:0.8;" x="374.4576" xlink:href="#m3b8982bfd5" y="131.773232"/>
      </g>
     </g>
     <g id="text_7">
      <!-- −6.5 -->
      <g transform="translate(381.4576 135.57245)scale(0.1 -0.1)">
       <use xlink:href="#DejaVuSans-2212"/>
       <use x="83.789062" xlink:href="#DejaVuSans-36"/>
       <use x="147.412109" xlink:href="#DejaVuSans-2e"/>
       <use x="179.199219" xlink:href="#DejaVuSans-35"/>
      </g>
     </g>
    </g>
    <g id="ytick_7">
     <g id="line2d_7">
      <g>
       <use style="stroke:#000000;stroke-width:0.8;" x="374.4576" xlink:href="#m3b8982bfd5" y="100.656269"/>
      </g>
     </g>
     <g id="text_8">
      <!-- −6.0 -->
      <g transform="translate(381.4576 104.455488)scale(0.1 -0.1)">
       <use xlink:href="#DejaVuSans-2212"/>
       <use x="83.789062" xlink:href="#DejaVuSans-36"/>
       <use x="147.412109" xlink:href="#DejaVuSans-2e"/>
       <use x="179.199219" xlink:href="#DejaVuSans-30"/>
      </g>
     </g>
    </g>
    <g id="ytick_8">
     <g id="line2d_8">
      <g>
       <use style="stroke:#000000;stroke-width:0.8;" x="374.4576" xlink:href="#m3b8982bfd5" y="69.539306"/>
      </g>
     </g>
     <g id="text_9">
      <!-- −5.5 -->
      <g transform="translate(381.4576 73.338525)scale(0.1 -0.1)">
       <use xlink:href="#DejaVuSans-2212"/>
       <use x="83.789062" xlink:href="#DejaVuSans-35"/>
       <use x="147.412109" xlink:href="#DejaVuSans-2e"/>
       <use x="179.199219" xlink:href="#DejaVuSans-35"/>
      </g>
     </g>
    </g>
    <g id="text_10">
     <!-- Energy [eV] -->
     <defs>
      <path d="M 54.890625 33.015625 
L 54.890625 0 
L 45.90625 0 
L 45.90625 32.71875 
Q 45.90625 40.484375 42.875 44.328125 
Q 39.84375 48.1875 33.796875 48.1875 
Q 26.515625 48.1875 22.3125 43.546875 
Q 18.109375 38.921875 18.109375 30.90625 
L 18.109375 0 
L 9.078125 0 
L 9.078125 54.6875 
L 18.109375 54.6875 
L 18.109375 46.1875 
Q 21.34375 51.125 25.703125 53.5625 
Q 30.078125 56 35.796875 56 
Q 45.21875 56 50.046875 50.171875 
Q 54.890625 44.34375 54.890625 33.015625 
z
" id="DejaVuSans-6e"/>
      <path d="M 45.40625 27.984375 
Q 45.40625 37.75 41.375 43.109375 
Q 37.359375 48.484375 30.078125 48.484375 
Q 22.859375 48.484375 18.828125 43.109375 
Q 14.796875 37.75 14.796875 27.984375 
Q 14.796875 18.265625 18.828125 12.890625 
Q 22.859375 7.515625 30.078125 7.515625 
Q 37.359375 7.515625 41.375 12.890625 
Q 45.40625 18.265625 45.40625 27.984375 
z
M 54.390625 6.78125 
Q 54.390625 -7.171875 48.1875 -13.984375 
Q 42 -20.796875 29.203125 -20.796875 
Q 24.46875 -20.796875 20.265625 -20.09375 
Q 16.0625 -19.390625 12.109375 -17.921875 
L 12.109375 -9.1875 
Q 16.0625 -11.328125 19.921875 -12.34375 
Q 23.78125 -13.375 27.78125 -13.375 
Q 36.625 -13.375 41.015625 -8.765625 
Q 45.40625 -4.15625 45.40625 5.171875 
L 45.40625 9.625 
Q 42.625 4.78125 38.28125 2.390625 
Q 33.9375 0 27.875 0 
Q 17.828125 0 11.671875 7.65625 
Q 5.515625 15.328125 5.515625 27.984375 
Q 5.515625 40.671875 11.671875 48.328125 
Q 17.828125 56 27.875 56 
Q 33.9375 56 38.28125 53.609375 
Q 42.625 51.21875 45.40625 46.390625 
L 45.40625 54.6875 
L 54.390625 54.6875 
z
" id="DejaVuSans-67"/>
      <path d="M 32.171875 -5.078125 
Q 28.375 -14.84375 24.75 -17.8125 
Q 21.140625 -20.796875 15.09375 -20.796875 
L 7.90625 -20.796875 
L 7.90625 -13.28125 
L 13.1875 -13.28125 
Q 16.890625 -13.28125 18.9375 -11.515625 
Q 21 -9.765625 23.484375 -3.21875 
L 25.09375 0.875 
L 2.984375 54.6875 
L 12.5 54.6875 
L 29.59375 11.921875 
L 46.6875 54.6875 
L 56.203125 54.6875 
z
" id="DejaVuSans-79"/>
      <path d="M 8.59375 75.984375 
L 29.296875 75.984375 
L 29.296875 69 
L 17.578125 69 
L 17.578125 -6.203125 
L 29.296875 -6.203125 
L 29.296875 -13.1875 
L 8.59375 -13.1875 
z
" id="DejaVuSans-5b"/>
      <path d="M 30.421875 75.984375 
L 30.421875 -13.1875 
L 9.71875 -13.1875 
L 9.71875 -6.203125 
L 21.390625 -6.203125 
L 21.390625 69 
L 9.71875 69 
L 9.71875 75.984375 
z
" id="DejaVuSans-5d"/>
     </defs>
     <g transform="translate(417.33885 204.108469)rotate(-90)scale(0.1 -0.1)">
      <use xlink:href="#DejaVuSans-45"/>
      <use x="63.183594" xlink:href="#DejaVuSans-6e"/>
      <use x="126.5625" xlink:href="#DejaVuSans-65"/>
      <use x="188.085938" xlink:href="#DejaVuSans-72"/>
      <use x="229.183594" xlink:href="#DejaVuSans-67"/>
      <use x="292.660156" xlink:href="#DejaVuSans-79"/>
      <use x="351.839844" xlink:href="#DejaVuSans-20"/>
      <use x="383.626953" xlink:href="#DejaVuSans-5b"/>
      <use x="422.640625" xlink:href="#DejaVuSans-65"/>
      <use x="484.164062" xlink:href="#DejaVuSans-56"/>
      <use x="552.572266" xlink:href="#DejaVuSans-5d"/>
     </g>
    </g>
   </g>
   <g id="patch_3">
    <path d="M 361.152 307.584 
L 361.152 306.5445 
L 361.152 42.5115 
L 361.152 41.472 
L 374.4576 41.472 
L 374.4576 42.5115 
L 374.4576 306.5445 
L 374.4576 307.584 
z
" style="fill:none;stroke:#000000;stroke-linejoin:miter;stroke-width:0.8;"/>
   </g>
  </g>
 </g>
 <defs>
  <clipPath id="p113ac268fd">
   <rect height="266.112" width="285.696" x="57.6" y="41.472"/>
  </clipPath>
  <clipPath id="p565b06f864">
   <rect height="266.112" width="13.3056" x="361.152" y="41.472"/>
  </clipPath>
 </defs>
</svg>
