<?xml version="1.0" encoding="utf-8" standalone="no"?>
<!DOCTYPE svg PUBLIC "-//W3C//DTD SVG 1.1//EN"
  "http://www.w3.org/Graphics/SVG/1.1/DTD/svg11.dtd">
<!-- Created with matplotlib (http://matplotlib.org/) -->
<svg height="345.6pt" version="1.1" viewBox="0 0 460.8 345.6" width="460.8pt" xmlns="http://www.w3.org/2000/svg" xmlns:xlink="http://www.w3.org/1999/xlink">
 <defs>
  <style type="text/css">
*{stroke-linecap:butt;stroke-linejoin:round;}
  </style>
 </defs>
 <g id="figure_1">
  <g id="patch_1">
   <path d="M 0 345.6 
L 460.8 345.6 
L 460.8 0 
L 0 0 
z
" style="fill:#ffffff;"/>
  </g>
  <g id="axes_1">
   <g id="CircleCollection_1">
    <path clip-path="url(#pe4e305914a)" d="M 286.73752 100.606506 
C 288.500851 100.606506 290.192199 99.905927 291.439063 98.659063 
C 292.685927 97.412199 293.386506 95.720851 293.386506 93.95752 
C 293.386506 92.194188 292.685927 90.50284 291.439063 89.255976 
C 290.192199 88.009112 288.500851 87.308533 286.73752 87.308533 
C 284.974188 87.308533 283.28284 88.009112 282.035976 89.255976 
C 280.789112 90.50284 280.088533 92.194188 280.088533 93.95752 
C 280.088533 95.720851 280.789112 97.412199 282.035976 98.659063 
C 283.28284 99.905927 284.974188 100.606506 286.73752 100.606506 
z
" style="fill:#2c718e;"/>
    <path clip-path="url(#pe4e305914a)" d="M 207.85804 171.742373 
C 209.480883 171.742373 211.037477 171.097611 212.185 169.950088 
C 213.332524 168.802564 213.977286 167.24597 213.977286 165.623127 
C 213.977286 164.000284 213.332524 162.44369 212.185 161.296167 
C 211.037477 160.148643 209.480883 159.503881 207.85804 159.503881 
C 206.235197 159.503881 204.678603 160.148643 203.531079 161.296167 
C 202.383556 162.44369 201.738794 164.000284 201.738794 165.623127 
C 201.738794 167.24597 202.383556 168.802564 203.531079 169.950088 
C 204.678603 171.097611 206.235197 171.742373 207.85804 171.742373 
z
" style="fill:#1f988b;"/>
    <path clip-path="url(#pe4e305914a)" d="M 124.669508 245.260246 
C 126.163937 245.260246 127.597359 244.666503 128.65408 243.609782 
C 129.710801 242.553061 130.304544 241.119639 130.304544 239.62521 
C 130.304544 238.130781 129.710801 236.697359 128.65408 235.640638 
C 127.597359 234.583917 126.163937 233.990174 124.669508 233.990174 
C 123.175079 233.990174 121.741657 234.583917 120.684936 235.640638 
C 119.628215 236.697359 119.034472 238.130781 119.034472 239.62521 
C 119.034472 241.119639 119.628215 242.553061 120.684936 243.609782 
C 121.741657 244.666503 123.175079 245.260246 124.669508 245.260246 
z
" style="fill:#2c728e;"/>
    <path clip-path="url(#pe4e305914a)" d="M 189.488165 187.835101 
C 191.060204 187.835101 192.568069 187.210523 193.679668 186.098923 
C 194.791268 184.987323 195.415846 183.479459 195.415846 181.90742 
C 195.415846 180.33538 194.791268 178.827516 193.679668 177.715916 
C 192.568069 176.604317 191.060204 175.979739 189.488165 175.979739 
C 187.916126 175.979739 186.408261 176.604317 185.296662 177.715916 
C 184.185062 178.827516 183.560484 180.33538 183.560484 181.90742 
C 183.560484 183.479459 184.185062 184.987323 185.296662 186.098923 
C 186.408261 187.210523 187.916126 187.835101 189.488165 187.835101 
z
" style="fill:#31688e;"/>
    <path clip-path="url(#pe4e305914a)" d="M 84.6527 288.400648 
C 86.328581 288.400648 87.936047 287.734814 89.121074 286.549787 
C 90.3061 285.364761 90.971934 283.757294 90.971934 282.081414 
C 90.971934 280.405533 90.3061 278.798067 89.121074 277.61304 
C 87.936047 276.428014 86.328581 275.76218 84.6527 275.76218 
C 82.97682 275.76218 81.369353 276.428014 80.184327 277.61304 
C 78.999301 278.798067 78.333466 280.405533 78.333466 282.081414 
C 78.333466 283.757294 78.999301 285.364761 80.184327 286.549787 
C 81.369353 287.734814 82.97682 288.400648 84.6527 288.400648 
z
" style="fill:#2e6f8e;"/>
    <path clip-path="url(#pe4e305914a)" d="M 243.363779 139.732756 
C 245.08239 139.732756 246.730843 139.049945 247.946085 137.834703 
C 249.161327 136.619461 249.844139 134.971008 249.844139 133.252397 
C 249.844139 131.533785 249.161327 129.885332 247.946085 128.67009 
C 246.730843 127.454849 245.08239 126.772037 243.363779 126.772037 
C 241.645167 126.772037 239.996715 127.454849 238.781473 128.67009 
C 237.566231 129.885332 236.883419 131.533785 236.883419 133.252397 
C 236.883419 134.971008 237.566231 136.619461 238.781473 137.834703 
C 239.996715 139.049945 241.645167 139.732756 243.363779 139.732756 
z
" style="fill:#1f948c;"/>
    <path clip-path="url(#pe4e305914a)" d="M 112.704478 267.51271 
C 114.637598 267.51271 116.491804 266.744673 117.858726 265.37775 
C 119.225649 264.010827 119.993686 262.156622 119.993686 260.223501 
C 119.993686 258.29038 119.225649 256.436175 117.858726 255.069252 
C 116.491804 253.70233 114.637598 252.934293 112.704478 252.934293 
C 110.771357 252.934293 108.917152 253.70233 107.550229 255.069252 
C 106.183306 256.436175 105.415269 258.29038 105.415269 260.223501 
C 105.415269 262.156622 106.183306 264.010827 107.550229 265.37775 
C 108.917152 266.744673 110.771357 267.51271 112.704478 267.51271 
z
" style="fill:#2a778e;"/>
    <path clip-path="url(#pe4e305914a)" d="M 134.367788 246.957897 
C 136.314663 246.957897 138.182061 246.184395 139.558709 244.807747 
C 140.935358 243.431099 141.708859 241.563701 141.708859 239.616826 
C 141.708859 237.669951 140.935358 235.802553 139.558709 234.425904 
C 138.182061 233.049256 136.314663 232.275755 134.367788 232.275755 
C 132.420913 232.275755 130.553515 233.049256 129.176867 234.425904 
C 127.800219 235.802553 127.026717 237.669951 127.026717 239.616826 
C 127.026717 241.563701 127.800219 243.431099 129.176867 244.807747 
C 130.553515 246.184395 132.420913 246.957897 134.367788 246.957897 
z
" style="fill:#2c718e;"/>
    <path clip-path="url(#pe4e305914a)" d="M 147.595623 224.676946 
C 149.098836 224.676946 150.540683 224.079713 151.603615 223.016781 
C 152.666547 221.953849 153.26378 220.512002 153.26378 219.00879 
C 153.26378 217.505577 152.666547 216.06373 151.603615 215.000798 
C 150.540683 213.937866 149.098836 213.340634 147.595623 213.340634 
C 146.092411 213.340634 144.650564 213.937866 143.587632 215.000798 
C 142.5247 216.06373 141.927467 217.505577 141.927467 219.00879 
C 141.927467 220.512002 142.5247 221.953849 143.587632 223.016781 
C 144.650564 224.079713 146.092411 224.676946 147.595623 224.676946 
z
" style="fill:#2e6f8e;"/>
    <path clip-path="url(#pe4e305914a)" d="M 86.930892 290.904637 
C 88.758388 290.904637 90.51128 290.178565 91.803514 288.88633 
C 93.095749 287.594096 93.82182 285.841204 93.82182 284.013708 
C 93.82182 282.186212 93.095749 280.43332 91.803514 279.141086 
C 90.51128 277.848851 88.758388 277.122779 86.930892 277.122779 
C 85.103396 277.122779 83.350504 277.848851 82.05827 279.141086 
C 80.766035 280.43332 80.039963 282.186212 80.039963 284.013708 
C 80.039963 285.841204 80.766035 287.594096 82.05827 288.88633 
C 83.350504 290.178565 85.103396 290.904637 86.930892 290.904637 
z
" style="fill:#2d708e;"/>
    <path clip-path="url(#pe4e305914a)" d="M 219.606612 161.936944 
C 221.313536 161.936944 222.950778 161.258776 224.157755 160.051798 
C 225.364733 158.844821 226.042901 157.207579 226.042901 155.500655 
C 226.042901 153.793731 225.364733 152.156488 224.157755 150.949511 
C 222.950778 149.742534 221.313536 149.064366 219.606612 149.064366 
C 217.899688 149.064366 216.262446 149.742534 215.055468 150.949511 
C 213.848491 152.156488 213.170323 153.793731 213.170323 155.500655 
C 213.170323 157.207579 213.848491 158.844821 215.055468 160.051798 
C 216.262446 161.258776 217.899688 161.936944 219.606612 161.936944 
z
" style="fill:#440154;"/>
    <path clip-path="url(#pe4e305914a)" d="M 101.361132 278.060057 
C 103.113395 278.060057 104.794126 277.363876 106.033163 276.124839 
C 107.2722 274.885802 107.968381 273.205071 107.968381 271.452808 
C 107.968381 269.700546 107.2722 268.019815 106.033163 266.780778 
C 104.794126 265.541741 103.113395 264.84556 101.361132 264.84556 
C 99.608869 264.84556 97.928139 265.541741 96.689102 266.780778 
C 95.450065 268.019815 94.753884 269.700546 94.753884 271.452808 
C 94.753884 273.205071 95.450065 274.885802 96.689102 276.124839 
C 97.928139 277.363876 99.608869 278.060057 101.361132 278.060057 
z
" style="fill:#26ad81;"/>
    <path clip-path="url(#pe4e305914a)" d="M 90.920178 287.157826 
C 92.828414 287.157826 94.65875 286.399676 96.008076 285.05035 
C 97.357403 283.701023 98.115553 281.870687 98.115553 279.962451 
C 98.115553 278.054216 97.357403 276.22388 96.008076 274.874553 
C 94.65875 273.525227 92.828414 272.767077 90.920178 272.767077 
C 89.011943 272.767077 87.181607 273.525227 85.83228 274.874553 
C 84.482954 276.22388 83.724804 278.054216 83.724804 279.962451 
C 83.724804 281.870687 84.482954 283.701023 85.83228 285.05035 
C 87.181607 286.399676 89.011943 287.157826 90.920178 287.157826 
z
" style="fill:#25848e;"/>
    <path clip-path="url(#pe4e305914a)" d="M 169.53704 204.734134 
C 171.057199 204.734134 172.515301 204.130168 173.590216 203.055254 
C 174.66513 201.980339 175.269096 200.522237 175.269096 199.002078 
C 175.269096 197.481919 174.66513 196.023817 173.590216 194.948903 
C 172.515301 193.873988 171.057199 193.270022 169.53704 193.270022 
C 168.016881 193.270022 166.558779 193.873988 165.483865 194.948903 
C 164.40895 196.023817 163.804984 197.481919 163.804984 199.002078 
C 163.804984 200.522237 164.40895 201.980339 165.483865 203.055254 
C 166.558779 204.130168 168.016881 204.734134 169.53704 204.734134 
z
" style="fill:#2c718e;"/>
    <path clip-path="url(#pe4e305914a)" d="M 174.609292 207.270453 
C 176.498103 207.270453 178.309807 206.520021 179.645397 205.18443 
C 180.980988 203.84884 181.73142 202.037136 181.73142 200.148325 
C 181.73142 198.259515 180.980988 196.447811 179.645397 195.11222 
C 178.309807 193.776629 176.498103 193.026197 174.609292 193.026197 
C 172.720482 193.026197 170.908778 193.776629 169.573187 195.11222 
C 168.237596 196.447811 167.487164 198.259515 167.487164 200.148325 
C 167.487164 202.037136 168.237596 203.84884 169.573187 205.18443 
C 170.908778 206.520021 172.720482 207.270453 174.609292 207.270453 
z
" style="fill:#2d708e;"/>
    <path clip-path="url(#pe4e305914a)" d="M 264.801222 120.462572 
C 266.541716 120.462572 268.211157 119.771067 269.441871 118.540352 
C 270.672586 117.309638 271.364091 115.640196 271.364091 113.899703 
C 271.364091 112.15921 270.672586 110.489769 269.441871 109.259054 
C 268.211157 108.02834 266.541716 107.336835 264.801222 107.336835 
C 263.060729 107.336835 261.391288 108.02834 260.160574 109.259054 
C 258.929859 110.489769 258.238354 112.15921 258.238354 113.899703 
C 258.238354 115.640196 258.929859 117.309638 260.160574 118.540352 
C 261.391288 119.771067 263.060729 120.462572 264.801222 120.462572 
z
" style="fill:#32648e;"/>
    <path clip-path="url(#pe4e305914a)" d="M 85.655325 283.245 
C 87.238722 283.245 88.75748 282.61591 89.87711 281.496279 
C 90.996741 280.376649 91.625831 278.857891 91.625831 277.274495 
C 91.625831 275.691098 90.996741 274.17234 89.87711 273.05271 
C 88.75748 271.93308 87.238722 271.303989 85.655325 271.303989 
C 84.071929 271.303989 82.553171 271.93308 81.433541 273.05271 
C 80.31391 274.17234 79.68482 275.691098 79.68482 277.274495 
C 79.68482 278.857891 80.31391 280.376649 81.433541 281.496279 
C 82.553171 282.61591 84.071929 283.245 85.655325 283.245 
z
" style="fill:#26828e;"/>
    <path clip-path="url(#pe4e305914a)" d="M 191.186931 190.395742 
C 193.023369 190.395742 194.784839 189.666117 196.083397 188.36756 
C 197.381955 187.069002 198.111579 185.307532 198.111579 183.471094 
C 198.111579 181.634655 197.381955 179.873186 196.083397 178.574628 
C 194.784839 177.27607 193.023369 176.546445 191.186931 176.546445 
C 189.350493 176.546445 187.589023 177.27607 186.290465 178.574628 
C 184.991907 179.873186 184.262282 181.634655 184.262282 183.471094 
C 184.262282 185.307532 184.991907 187.069002 186.290465 188.36756 
C 187.589023 189.666117 189.350493 190.395742 191.186931 190.395742 
z
" style="fill:#31668e;"/>
    <path clip-path="url(#pe4e305914a)" d="M 329.984187 60.8375 
C 331.797552 60.8375 333.536891 60.117043 334.819134 58.8348 
C 336.101377 57.552557 336.821835 55.813218 336.821835 53.999852 
C 336.821835 52.186487 336.101377 50.447148 334.819134 49.164905 
C 333.536891 47.882662 331.797552 47.162204 329.984187 47.162204 
C 328.170821 47.162204 326.431483 47.882662 325.14924 49.164905 
C 323.866997 50.447148 323.146539 52.186487 323.146539 53.999852 
C 323.146539 55.813218 323.866997 57.552557 325.14924 58.8348 
C 326.431483 60.117043 328.170821 60.8375 329.984187 60.8375 
z
" style="fill:#fde725;"/>
    <path clip-path="url(#pe4e305914a)" d="M 308.414633 80.960273 
C 310.202248 80.960273 311.916886 80.250046 313.18092 78.986012 
C 314.444954 77.721978 315.155181 76.007339 315.155181 74.219725 
C 315.155181 72.432111 314.444954 70.717472 313.18092 69.453438 
C 311.916886 68.189404 310.202248 67.479178 308.414633 67.479178 
C 306.627019 67.479178 304.912381 68.189404 303.648347 69.453438 
C 302.384313 70.717472 301.674086 72.432111 301.674086 74.219725 
C 301.674086 76.007339 302.384313 77.721978 303.648347 78.986012 
C 304.912381 80.250046 306.627019 80.960273 308.414633 80.960273 
z
" style="fill:#2d708e;"/>
    <path clip-path="url(#pe4e305914a)" d="M 70.901202 301.685061 
C 72.655479 301.685061 74.338141 300.98808 75.578602 299.747619 
C 76.819063 298.507158 77.516044 296.824496 77.516044 295.07022 
C 77.516044 293.315943 76.819063 291.633281 75.578602 290.39282 
C 74.338141 289.152359 72.655479 288.455378 70.901202 288.455378 
C 69.146926 288.455378 67.464264 289.152359 66.223803 290.39282 
C 64.983342 291.633281 64.286361 293.315943 64.286361 295.07022 
C 64.286361 296.824496 64.983342 298.507158 66.223803 299.747619 
C 67.464264 300.98808 69.146926 301.685061 70.901202 301.685061 
z
" style="fill:#24aa83;"/>
    <path clip-path="url(#pe4e305914a)" d="M 105.06511 264.509339 
C 106.60199 264.509339 108.076131 263.89873 109.162869 262.811992 
C 110.249608 261.725253 110.860217 260.251113 110.860217 258.714232 
C 110.860217 257.177352 110.249608 255.703212 109.162869 254.616473 
C 108.076131 253.529735 106.60199 252.919126 105.06511 252.919126 
C 103.52823 252.919126 102.05409 253.529735 100.967351 254.616473 
C 99.880613 255.703212 99.270004 257.177352 99.270004 258.714232 
C 99.270004 260.251113 99.880613 261.725253 100.967351 262.811992 
C 102.05409 263.89873 103.52823 264.509339 105.06511 264.509339 
z
" style="fill:#2b758e;"/>
    <path clip-path="url(#pe4e305914a)" d="M 206.401712 175.202706 
C 208.183518 175.202706 209.892586 174.494787 211.152513 173.23486 
C 212.41244 171.974933 213.120359 170.265865 213.120359 168.484059 
C 213.120359 166.702253 212.41244 164.993185 211.152513 163.733258 
C 209.892586 162.473331 208.183518 161.765412 206.401712 161.765412 
C 204.619906 161.765412 202.910838 162.473331 201.650911 163.733258 
C 200.390984 164.993185 199.683064 166.702253 199.683064 168.484059 
C 199.683064 170.265865 200.390984 171.974933 201.650911 173.23486 
C 202.910838 174.494787 204.619906 175.202706 206.401712 175.202706 
z
" style="fill:#20938c;"/>
    <path clip-path="url(#pe4e305914a)" d="M 155.407071 226.625029 
C 157.328247 226.625029 159.170995 225.861738 160.529472 224.503261 
C 161.887949 223.144785 162.65124 221.302036 162.65124 219.38086 
C 162.65124 217.459684 161.887949 215.616935 160.529472 214.258459 
C 159.170995 212.899982 157.328247 212.136691 155.407071 212.136691 
C 153.485894 212.136691 151.643146 212.899982 150.284669 214.258459 
C 148.926193 215.616935 148.162901 217.459684 148.162901 219.38086 
C 148.162901 221.302036 148.926193 223.144785 150.284669 224.503261 
C 151.643146 225.861738 153.485894 226.625029 155.407071 226.625029 
z
" style="fill:#2e6d8e;"/>
   </g>
   <g id="text_1">
    <!-- Structure #1299, $E_N$=-179.38eV, ΔE=-0.00eV -->
    <defs>
     <path d="M 53.515625 70.515625 
L 53.515625 60.890625 
Q 47.90625 63.578125 42.921875 64.890625 
Q 37.9375 66.21875 33.296875 66.21875 
Q 25.25 66.21875 20.875 63.09375 
Q 16.5 59.96875 16.5 54.203125 
Q 16.5 49.359375 19.40625 46.890625 
Q 22.3125 44.4375 30.421875 42.921875 
L 36.375 41.703125 
Q 47.40625 39.59375 52.65625 34.296875 
Q 57.90625 29 57.90625 20.125 
Q 57.90625 9.515625 50.796875 4.046875 
Q 43.703125 -1.421875 29.984375 -1.421875 
Q 24.8125 -1.421875 18.96875 -0.25 
Q 13.140625 0.921875 6.890625 3.21875 
L 6.890625 13.375 
Q 12.890625 10.015625 18.65625 8.296875 
Q 24.421875 6.59375 29.984375 6.59375 
Q 38.421875 6.59375 43.015625 9.90625 
Q 47.609375 13.234375 47.609375 19.390625 
Q 47.609375 24.75 44.3125 27.78125 
Q 41.015625 30.8125 33.5 32.328125 
L 27.484375 33.5 
Q 16.453125 35.6875 11.515625 40.375 
Q 6.59375 45.0625 6.59375 53.421875 
Q 6.59375 63.09375 13.40625 68.65625 
Q 20.21875 74.21875 32.171875 74.21875 
Q 37.3125 74.21875 42.625 73.28125 
Q 47.953125 72.359375 53.515625 70.515625 
z
" id="DejaVuSans-53"/>
     <path d="M 18.3125 70.21875 
L 18.3125 54.6875 
L 36.8125 54.6875 
L 36.8125 47.703125 
L 18.3125 47.703125 
L 18.3125 18.015625 
Q 18.3125 11.328125 20.140625 9.421875 
Q 21.96875 7.515625 27.59375 7.515625 
L 36.8125 7.515625 
L 36.8125 0 
L 27.59375 0 
Q 17.1875 0 13.234375 3.875 
Q 9.28125 7.765625 9.28125 18.015625 
L 9.28125 47.703125 
L 2.6875 47.703125 
L 2.6875 54.6875 
L 9.28125 54.6875 
L 9.28125 70.21875 
z
" id="DejaVuSans-74"/>
     <path d="M 41.109375 46.296875 
Q 39.59375 47.171875 37.8125 47.578125 
Q 36.03125 48 33.890625 48 
Q 26.265625 48 22.1875 43.046875 
Q 18.109375 38.09375 18.109375 28.8125 
L 18.109375 0 
L 9.078125 0 
L 9.078125 54.6875 
L 18.109375 54.6875 
L 18.109375 46.1875 
Q 20.953125 51.171875 25.484375 53.578125 
Q 30.03125 56 36.53125 56 
Q 37.453125 56 38.578125 55.875 
Q 39.703125 55.765625 41.0625 55.515625 
z
" id="DejaVuSans-72"/>
     <path d="M 8.5 21.578125 
L 8.5 54.6875 
L 17.484375 54.6875 
L 17.484375 21.921875 
Q 17.484375 14.15625 20.5 10.265625 
Q 23.53125 6.390625 29.59375 6.390625 
Q 36.859375 6.390625 41.078125 11.03125 
Q 45.3125 15.671875 45.3125 23.6875 
L 45.3125 54.6875 
L 54.296875 54.6875 
L 54.296875 0 
L 45.3125 0 
L 45.3125 8.40625 
Q 42.046875 3.421875 37.71875 1 
Q 33.40625 -1.421875 27.6875 -1.421875 
Q 18.265625 -1.421875 13.375 4.4375 
Q 8.5 10.296875 8.5 21.578125 
z
M 31.109375 56 
z
" id="DejaVuSans-75"/>
     <path d="M 48.78125 52.59375 
L 48.78125 44.1875 
Q 44.96875 46.296875 41.140625 47.34375 
Q 37.3125 48.390625 33.40625 48.390625 
Q 24.65625 48.390625 19.8125 42.84375 
Q 14.984375 37.3125 14.984375 27.296875 
Q 14.984375 17.28125 19.8125 11.734375 
Q 24.65625 6.203125 33.40625 6.203125 
Q 37.3125 6.203125 41.140625 7.25 
Q 44.96875 8.296875 48.78125 10.40625 
L 48.78125 2.09375 
Q 45.015625 0.34375 40.984375 -0.53125 
Q 36.96875 -1.421875 32.421875 -1.421875 
Q 20.0625 -1.421875 12.78125 6.34375 
Q 5.515625 14.109375 5.515625 27.296875 
Q 5.515625 40.671875 12.859375 48.328125 
Q 20.21875 56 33.015625 56 
Q 37.15625 56 41.109375 55.140625 
Q 45.0625 54.296875 48.78125 52.59375 
z
" id="DejaVuSans-63"/>
     <path d="M 56.203125 29.59375 
L 56.203125 25.203125 
L 14.890625 25.203125 
Q 15.484375 15.921875 20.484375 11.0625 
Q 25.484375 6.203125 34.421875 6.203125 
Q 39.59375 6.203125 44.453125 7.46875 
Q 49.3125 8.734375 54.109375 11.28125 
L 54.109375 2.78125 
Q 49.265625 0.734375 44.1875 -0.34375 
Q 39.109375 -1.421875 33.890625 -1.421875 
Q 20.796875 -1.421875 13.15625 6.1875 
Q 5.515625 13.8125 5.515625 26.8125 
Q 5.515625 40.234375 12.765625 48.109375 
Q 20.015625 56 32.328125 56 
Q 43.359375 56 49.78125 48.890625 
Q 56.203125 41.796875 56.203125 29.59375 
z
M 47.21875 32.234375 
Q 47.125 39.59375 43.09375 43.984375 
Q 39.0625 48.390625 32.421875 48.390625 
Q 24.90625 48.390625 20.390625 44.140625 
Q 15.875 39.890625 15.1875 32.171875 
z
" id="DejaVuSans-65"/>
     <path id="DejaVuSans-20"/>
     <path d="M 51.125 44 
L 36.921875 44 
L 32.8125 27.6875 
L 47.125 27.6875 
z
M 43.796875 71.78125 
L 38.71875 51.515625 
L 52.984375 51.515625 
L 58.109375 71.78125 
L 65.921875 71.78125 
L 60.890625 51.515625 
L 76.125 51.515625 
L 76.125 44 
L 58.984375 44 
L 54.984375 27.6875 
L 70.515625 27.6875 
L 70.515625 20.21875 
L 53.078125 20.21875 
L 48 0 
L 40.1875 0 
L 45.21875 20.21875 
L 30.90625 20.21875 
L 25.875 0 
L 18.015625 0 
L 23.09375 20.21875 
L 7.71875 20.21875 
L 7.71875 27.6875 
L 24.90625 27.6875 
L 29 44 
L 13.28125 44 
L 13.28125 51.515625 
L 30.90625 51.515625 
L 35.890625 71.78125 
z
" id="DejaVuSans-23"/>
     <path d="M 12.40625 8.296875 
L 28.515625 8.296875 
L 28.515625 63.921875 
L 10.984375 60.40625 
L 10.984375 69.390625 
L 28.421875 72.90625 
L 38.28125 72.90625 
L 38.28125 8.296875 
L 54.390625 8.296875 
L 54.390625 0 
L 12.40625 0 
z
" id="DejaVuSans-31"/>
     <path d="M 19.1875 8.296875 
L 53.609375 8.296875 
L 53.609375 0 
L 7.328125 0 
L 7.328125 8.296875 
Q 12.9375 14.109375 22.625 23.890625 
Q 32.328125 33.6875 34.8125 36.53125 
Q 39.546875 41.84375 41.421875 45.53125 
Q 43.3125 49.21875 43.3125 52.78125 
Q 43.3125 58.59375 39.234375 62.25 
Q 35.15625 65.921875 28.609375 65.921875 
Q 23.96875 65.921875 18.8125 64.3125 
Q 13.671875 62.703125 7.8125 59.421875 
L 7.8125 69.390625 
Q 13.765625 71.78125 18.9375 73 
Q 24.125 74.21875 28.421875 74.21875 
Q 39.75 74.21875 46.484375 68.546875 
Q 53.21875 62.890625 53.21875 53.421875 
Q 53.21875 48.921875 51.53125 44.890625 
Q 49.859375 40.875 45.40625 35.40625 
Q 44.1875 33.984375 37.640625 27.21875 
Q 31.109375 20.453125 19.1875 8.296875 
z
" id="DejaVuSans-32"/>
     <path d="M 10.984375 1.515625 
L 10.984375 10.5 
Q 14.703125 8.734375 18.5 7.8125 
Q 22.3125 6.890625 25.984375 6.890625 
Q 35.75 6.890625 40.890625 13.453125 
Q 46.046875 20.015625 46.78125 33.40625 
Q 43.953125 29.203125 39.59375 26.953125 
Q 35.25 24.703125 29.984375 24.703125 
Q 19.046875 24.703125 12.671875 31.3125 
Q 6.296875 37.9375 6.296875 49.421875 
Q 6.296875 60.640625 12.9375 67.421875 
Q 19.578125 74.21875 30.609375 74.21875 
Q 43.265625 74.21875 49.921875 64.515625 
Q 56.59375 54.828125 56.59375 36.375 
Q 56.59375 19.140625 48.40625 8.859375 
Q 40.234375 -1.421875 26.421875 -1.421875 
Q 22.703125 -1.421875 18.890625 -0.6875 
Q 15.09375 0.046875 10.984375 1.515625 
z
M 30.609375 32.421875 
Q 37.25 32.421875 41.125 36.953125 
Q 45.015625 41.5 45.015625 49.421875 
Q 45.015625 57.28125 41.125 61.84375 
Q 37.25 66.40625 30.609375 66.40625 
Q 23.96875 66.40625 20.09375 61.84375 
Q 16.21875 57.28125 16.21875 49.421875 
Q 16.21875 41.5 20.09375 36.953125 
Q 23.96875 32.421875 30.609375 32.421875 
z
" id="DejaVuSans-39"/>
     <path d="M 11.71875 12.40625 
L 22.015625 12.40625 
L 22.015625 4 
L 14.015625 -11.625 
L 7.71875 -11.625 
L 11.71875 4 
z
" id="DejaVuSans-2c"/>
     <path d="M 16.890625 72.90625 
L 62.984375 72.90625 
L 61.375 64.59375 
L 25.09375 64.59375 
L 20.90625 43.015625 
L 55.71875 43.015625 
L 54.109375 34.71875 
L 19.28125 34.71875 
L 14.203125 8.296875 
L 51.3125 8.296875 
L 49.703125 0 
L 2.6875 0 
z
" id="DejaVuSans-Oblique-45"/>
     <path d="M 16.890625 72.90625 
L 30.171875 72.90625 
L 50.296875 10.40625 
L 62.5 72.90625 
L 72.125 72.90625 
L 57.90625 0 
L 44.578125 0 
L 24.515625 62.890625 
L 12.3125 0 
L 2.6875 0 
z
" id="DejaVuSans-Oblique-4e"/>
     <path d="M 10.59375 45.40625 
L 73.1875 45.40625 
L 73.1875 37.203125 
L 10.59375 37.203125 
z
M 10.59375 25.484375 
L 73.1875 25.484375 
L 73.1875 17.1875 
L 10.59375 17.1875 
z
" id="DejaVuSans-3d"/>
     <path d="M 4.890625 31.390625 
L 31.203125 31.390625 
L 31.203125 23.390625 
L 4.890625 23.390625 
z
" id="DejaVuSans-2d"/>
     <path d="M 8.203125 72.90625 
L 55.078125 72.90625 
L 55.078125 68.703125 
L 28.609375 0 
L 18.3125 0 
L 43.21875 64.59375 
L 8.203125 64.59375 
z
" id="DejaVuSans-37"/>
     <path d="M 10.6875 12.40625 
L 21 12.40625 
L 21 0 
L 10.6875 0 
z
" id="DejaVuSans-2e"/>
     <path d="M 40.578125 39.3125 
Q 47.65625 37.796875 51.625 33 
Q 55.609375 28.21875 55.609375 21.1875 
Q 55.609375 10.40625 48.1875 4.484375 
Q 40.765625 -1.421875 27.09375 -1.421875 
Q 22.515625 -1.421875 17.65625 -0.515625 
Q 12.796875 0.390625 7.625 2.203125 
L 7.625 11.71875 
Q 11.71875 9.328125 16.59375 8.109375 
Q 21.484375 6.890625 26.8125 6.890625 
Q 36.078125 6.890625 40.9375 10.546875 
Q 45.796875 14.203125 45.796875 21.1875 
Q 45.796875 27.640625 41.28125 31.265625 
Q 36.765625 34.90625 28.71875 34.90625 
L 20.21875 34.90625 
L 20.21875 43.015625 
L 29.109375 43.015625 
Q 36.375 43.015625 40.234375 45.921875 
Q 44.09375 48.828125 44.09375 54.296875 
Q 44.09375 59.90625 40.109375 62.90625 
Q 36.140625 65.921875 28.71875 65.921875 
Q 24.65625 65.921875 20.015625 65.03125 
Q 15.375 64.15625 9.8125 62.3125 
L 9.8125 71.09375 
Q 15.4375 72.65625 20.34375 73.4375 
Q 25.25 74.21875 29.59375 74.21875 
Q 40.828125 74.21875 47.359375 69.109375 
Q 53.90625 64.015625 53.90625 55.328125 
Q 53.90625 49.265625 50.4375 45.09375 
Q 46.96875 40.921875 40.578125 39.3125 
z
" id="DejaVuSans-33"/>
     <path d="M 31.78125 34.625 
Q 24.75 34.625 20.71875 30.859375 
Q 16.703125 27.09375 16.703125 20.515625 
Q 16.703125 13.921875 20.71875 10.15625 
Q 24.75 6.390625 31.78125 6.390625 
Q 38.8125 6.390625 42.859375 10.171875 
Q 46.921875 13.96875 46.921875 20.515625 
Q 46.921875 27.09375 42.890625 30.859375 
Q 38.875 34.625 31.78125 34.625 
z
M 21.921875 38.8125 
Q 15.578125 40.375 12.03125 44.71875 
Q 8.5 49.078125 8.5 55.328125 
Q 8.5 64.0625 14.71875 69.140625 
Q 20.953125 74.21875 31.78125 74.21875 
Q 42.671875 74.21875 48.875 69.140625 
Q 55.078125 64.0625 55.078125 55.328125 
Q 55.078125 49.078125 51.53125 44.71875 
Q 48 40.375 41.703125 38.8125 
Q 48.828125 37.15625 52.796875 32.3125 
Q 56.78125 27.484375 56.78125 20.515625 
Q 56.78125 9.90625 50.3125 4.234375 
Q 43.84375 -1.421875 31.78125 -1.421875 
Q 19.734375 -1.421875 13.25 4.234375 
Q 6.78125 9.90625 6.78125 20.515625 
Q 6.78125 27.484375 10.78125 32.3125 
Q 14.796875 37.15625 21.921875 38.8125 
z
M 18.3125 54.390625 
Q 18.3125 48.734375 21.84375 45.5625 
Q 25.390625 42.390625 31.78125 42.390625 
Q 38.140625 42.390625 41.71875 45.5625 
Q 45.3125 48.734375 45.3125 54.390625 
Q 45.3125 60.0625 41.71875 63.234375 
Q 38.140625 66.40625 31.78125 66.40625 
Q 25.390625 66.40625 21.84375 63.234375 
Q 18.3125 60.0625 18.3125 54.390625 
z
" id="DejaVuSans-38"/>
     <path d="M 28.609375 0 
L 0.78125 72.90625 
L 11.078125 72.90625 
L 34.1875 11.53125 
L 57.328125 72.90625 
L 67.578125 72.90625 
L 39.796875 0 
z
" id="DejaVuSans-56"/>
     <path d="M 34.1875 63.1875 
L 14.15625 8.203125 
L 54.25 8.203125 
z
M 0.78125 0 
L 28.609375 72.90625 
L 39.796875 72.90625 
L 67.578125 0 
z
" id="DejaVuSans-394"/>
     <path d="M 9.8125 72.90625 
L 55.90625 72.90625 
L 55.90625 64.59375 
L 19.671875 64.59375 
L 19.671875 43.015625 
L 54.390625 43.015625 
L 54.390625 34.71875 
L 19.671875 34.71875 
L 19.671875 8.296875 
L 56.78125 8.296875 
L 56.78125 0 
L 9.8125 0 
z
" id="DejaVuSans-45"/>
     <path d="M 31.78125 66.40625 
Q 24.171875 66.40625 20.328125 58.90625 
Q 16.5 51.421875 16.5 36.375 
Q 16.5 21.390625 20.328125 13.890625 
Q 24.171875 6.390625 31.78125 6.390625 
Q 39.453125 6.390625 43.28125 13.890625 
Q 47.125 21.390625 47.125 36.375 
Q 47.125 51.421875 43.28125 58.90625 
Q 39.453125 66.40625 31.78125 66.40625 
z
M 31.78125 74.21875 
Q 44.046875 74.21875 50.515625 64.515625 
Q 56.984375 54.828125 56.984375 36.375 
Q 56.984375 17.96875 50.515625 8.265625 
Q 44.046875 -1.421875 31.78125 -1.421875 
Q 19.53125 -1.421875 13.0625 8.265625 
Q 6.59375 17.96875 6.59375 36.375 
Q 6.59375 54.828125 13.0625 64.515625 
Q 19.53125 74.21875 31.78125 74.21875 
z
" id="DejaVuSans-30"/>
    </defs>
    <g transform="translate(63.228 35.472)scale(0.12 -0.12)">
     <use transform="translate(0 0.78125)" xlink:href="#DejaVuSans-53"/>
     <use transform="translate(63.476562 0.78125)" xlink:href="#DejaVuSans-74"/>
     <use transform="translate(102.685547 0.78125)" xlink:href="#DejaVuSans-72"/>
     <use transform="translate(143.798828 0.78125)" xlink:href="#DejaVuSans-75"/>
     <use transform="translate(207.177734 0.78125)" xlink:href="#DejaVuSans-63"/>
     <use transform="translate(262.158203 0.78125)" xlink:href="#DejaVuSans-74"/>
     <use transform="translate(301.367188 0.78125)" xlink:href="#DejaVuSans-75"/>
     <use transform="translate(364.746094 0.78125)" xlink:href="#DejaVuSans-72"/>
     <use transform="translate(405.859375 0.78125)" xlink:href="#DejaVuSans-65"/>
     <use transform="translate(467.382812 0.78125)" xlink:href="#DejaVuSans-20"/>
     <use transform="translate(499.169922 0.78125)" xlink:href="#DejaVuSans-23"/>
     <use transform="translate(582.958984 0.78125)" xlink:href="#DejaVuSans-31"/>
     <use transform="translate(646.582031 0.78125)" xlink:href="#DejaVuSans-32"/>
     <use transform="translate(710.189453 0.78125)" xlink:href="#DejaVuSans-39"/>
     <use transform="translate(773.8125 0.78125)" xlink:href="#DejaVuSans-39"/>
     <use transform="translate(837.435547 0.78125)" xlink:href="#DejaVuSans-2c"/>
     <use transform="translate(869.222656 0.78125)" xlink:href="#DejaVuSans-20"/>
     <use transform="translate(901.009766 0.78125)" xlink:href="#DejaVuSans-Oblique-45"/>
     <use transform="translate(964.193359 -15.625)scale(0.7)" xlink:href="#DejaVuSans-Oblique-4e"/>
     <use transform="translate(1019.291016 0.78125)" xlink:href="#DejaVuSans-3d"/>
     <use transform="translate(1103.080078 0.78125)" xlink:href="#DejaVuSans-2d"/>
     <use transform="translate(1139.164062 0.78125)" xlink:href="#DejaVuSans-31"/>
     <use transform="translate(1202.787109 0.78125)" xlink:href="#DejaVuSans-37"/>
     <use transform="translate(1266.410156 0.78125)" xlink:href="#DejaVuSans-39"/>
     <use transform="translate(1330.033203 0.78125)" xlink:href="#DejaVuSans-2e"/>
     <use transform="translate(1361.820312 0.78125)" xlink:href="#DejaVuSans-33"/>
     <use transform="translate(1425.443359 0.78125)" xlink:href="#DejaVuSans-38"/>
     <use transform="translate(1489.066406 0.78125)" xlink:href="#DejaVuSans-65"/>
     <use transform="translate(1550.589844 0.78125)" xlink:href="#DejaVuSans-56"/>
     <use transform="translate(1618.998047 0.78125)" xlink:href="#DejaVuSans-2c"/>
     <use transform="translate(1650.785156 0.78125)" xlink:href="#DejaVuSans-20"/>
     <use transform="translate(1682.572266 0.78125)" xlink:href="#DejaVuSans-394"/>
     <use transform="translate(1750.980469 0.78125)" xlink:href="#DejaVuSans-45"/>
     <use transform="translate(1814.164062 0.78125)" xlink:href="#DejaVuSans-3d"/>
     <use transform="translate(1897.953125 0.78125)" xlink:href="#DejaVuSans-2d"/>
     <use transform="translate(1934.037109 0.78125)" xlink:href="#DejaVuSans-30"/>
     <use transform="translate(1997.660156 0.78125)" xlink:href="#DejaVuSans-2e"/>
     <use transform="translate(2029.447266 0.78125)" xlink:href="#DejaVuSans-30"/>
     <use transform="translate(2093.070312 0.78125)" xlink:href="#DejaVuSans-30"/>
     <use transform="translate(2156.693359 0.78125)" xlink:href="#DejaVuSans-65"/>
     <use transform="translate(2218.216797 0.78125)" xlink:href="#DejaVuSans-56"/>
    </g>
   </g>
  </g>
  <g id="axes_2">
   <g id="patch_2">
    <path clip-path="url(#p61f1593834)" d="M 361.152 307.584 
L 361.152 306.5445 
L 361.152 42.5115 
L 361.152 41.472 
L 374.4576 41.472 
L 374.4576 42.5115 
L 374.4576 306.5445 
L 374.4576 307.584 
z
" style="fill:#ffffff;stroke:#ffffff;stroke-linejoin:miter;stroke-width:0.01;"/>
   </g>
   <image height="265.68" id="imageda9d87a4a9" transform="scale(1 -1)translate(0 -265.68)" width="12.96" x="361.44" xlink:href="data:image/png;base64,
iVBORw0KGgoAAAANSUhEUgAAABIAAAFxCAYAAAB+2fgXAAAABHNCSVQICAgIfAhkiAAAAeVJREFUeJztncmNw0AQA2ckheYQNv9QLIfQ8ygsCgQ7AEI8+jAs2Puz/94F1LP2ReCsZ18bAWIeZ5XaGRBE7VnbptG+KI101FYyNSiQG2oRITXKNaX9uclOdi2XWjftVE32CZCO2ou5Bj1TcCBr/1zB9ge7Fq0Rg2NM9pvbtG+ua1QgsRYhDy0ISEiNc40BEibbSI0Coj5CBGtkpFbXJiAjNZlrwhuSOv2M1DjXbEdEciBt1JSDDQKKpmZr2rr2j0DBGpXaWEJq3bQzEPIS26r9J+Wzv9Tm8o3aajRXqc3VUXsApKNWjeZq0x4ABVNbm7lrszVigDqP5vIl2+eaT2yfRkL7g+dRcNPqjohkjaCvRVBq0H2U3LQrOJCx9kdTg4B8oxZzzTdqdYHEngjUCAPyUctN9sVRq2sTECW2UKNLd2jVtRmo1A6AhMmWaSRcR8nUdIHUuVb75zJS218EyEitro1At69pIdeSk30Lkw0FktNImGyZRhy1O5galmxd03LUsHWk06jUZiCq+5Wb1kZNN4+wJxJuWt8RAW5am2sYNZ9rYCBzZ3buPKJ2P5Yj4Toy3keyIyJbIxs1rml1byCA84gpch5RQNB7Q0qNMGq2Hy4BXdNR41yz/cEEJfZzUz96r9PoB0okjeQ8y9TkAAAAAElFTkSuQmCC" y="-41.76"/>
   <g id="matplotlib.axis_1"/>
   <g id="matplotlib.axis_2">
    <g id="ytick_1">
     <g id="line2d_1">
      <defs>
       <path d="M 0 0 
L 3.5 0 
" id="me71901475a" style="stroke:#000000;stroke-width:0.8;"/>
      </defs>
      <g>
       <use style="stroke:#000000;stroke-width:0.8;" x="374.4576" xlink:href="#me71901475a" y="286.981439"/>
      </g>
     </g>
     <g id="text_2">
      <!-- −9.0 -->
      <defs>
       <path d="M 10.59375 35.5 
L 73.1875 35.5 
L 73.1875 27.203125 
L 10.59375 27.203125 
z
" id="DejaVuSans-2212"/>
      </defs>
      <g transform="translate(381.4576 290.780658)scale(0.1 -0.1)">
       <use xlink:href="#DejaVuSans-2212"/>
       <use x="83.789062" xlink:href="#DejaVuSans-39"/>
       <use x="147.412109" xlink:href="#DejaVuSans-2e"/>
       <use x="179.199219" xlink:href="#DejaVuSans-30"/>
      </g>
     </g>
    </g>
    <g id="ytick_2">
     <g id="line2d_2">
      <g>
       <use style="stroke:#000000;stroke-width:0.8;" x="374.4576" xlink:href="#me71901475a" y="257.002101"/>
      </g>
     </g>
     <g id="text_3">
      <!-- −8.5 -->
      <defs>
       <path d="M 10.796875 72.90625 
L 49.515625 72.90625 
L 49.515625 64.59375 
L 19.828125 64.59375 
L 19.828125 46.734375 
Q 21.96875 47.46875 24.109375 47.828125 
Q 26.265625 48.1875 28.421875 48.1875 
Q 40.625 48.1875 47.75 41.5 
Q 54.890625 34.8125 54.890625 23.390625 
Q 54.890625 11.625 47.5625 5.09375 
Q 40.234375 -1.421875 26.90625 -1.421875 
Q 22.3125 -1.421875 17.546875 -0.640625 
Q 12.796875 0.140625 7.71875 1.703125 
L 7.71875 11.625 
Q 12.109375 9.234375 16.796875 8.0625 
Q 21.484375 6.890625 26.703125 6.890625 
Q 35.15625 6.890625 40.078125 11.328125 
Q 45.015625 15.765625 45.015625 23.390625 
Q 45.015625 31 40.078125 35.4375 
Q 35.15625 39.890625 26.703125 39.890625 
Q 22.75 39.890625 18.8125 39.015625 
Q 14.890625 38.140625 10.796875 36.28125 
z
" id="DejaVuSans-35"/>
      </defs>
      <g transform="translate(381.4576 260.80132)scale(0.1 -0.1)">
       <use xlink:href="#DejaVuSans-2212"/>
       <use x="83.789062" xlink:href="#DejaVuSans-38"/>
       <use x="147.412109" xlink:href="#DejaVuSans-2e"/>
       <use x="179.199219" xlink:href="#DejaVuSans-35"/>
      </g>
     </g>
    </g>
    <g id="ytick_3">
     <g id="line2d_3">
      <g>
       <use style="stroke:#000000;stroke-width:0.8;" x="374.4576" xlink:href="#me71901475a" y="227.022763"/>
      </g>
     </g>
     <g id="text_4">
      <!-- −8.0 -->
      <g transform="translate(381.4576 230.821981)scale(0.1 -0.1)">
       <use xlink:href="#DejaVuSans-2212"/>
       <use x="83.789062" xlink:href="#DejaVuSans-38"/>
       <use x="147.412109" xlink:href="#DejaVuSans-2e"/>
       <use x="179.199219" xlink:href="#DejaVuSans-30"/>
      </g>
     </g>
    </g>
    <g id="ytick_4">
     <g id="line2d_4">
      <g>
       <use style="stroke:#000000;stroke-width:0.8;" x="374.4576" xlink:href="#me71901475a" y="197.043424"/>
      </g>
     </g>
     <g id="text_5">
      <!-- −7.5 -->
      <g transform="translate(381.4576 200.842643)scale(0.1 -0.1)">
       <use xlink:href="#DejaVuSans-2212"/>
       <use x="83.789062" xlink:href="#DejaVuSans-37"/>
       <use x="147.412109" xlink:href="#DejaVuSans-2e"/>
       <use x="179.199219" xlink:href="#DejaVuSans-35"/>
      </g>
     </g>
    </g>
    <g id="ytick_5">
     <g id="line2d_5">
      <g>
       <use style="stroke:#000000;stroke-width:0.8;" x="374.4576" xlink:href="#me71901475a" y="167.064086"/>
      </g>
     </g>
     <g id="text_6">
      <!-- −7.0 -->
      <g transform="translate(381.4576 170.863305)scale(0.1 -0.1)">
       <use xlink:href="#DejaVuSans-2212"/>
       <use x="83.789062" xlink:href="#DejaVuSans-37"/>
       <use x="147.412109" xlink:href="#DejaVuSans-2e"/>
       <use x="179.199219" xlink:href="#DejaVuSans-30"/>
      </g>
     </g>
    </g>
    <g id="ytick_6">
     <g id="line2d_6">
      <g>
       <use style="stroke:#000000;stroke-width:0.8;" x="374.4576" xlink:href="#me71901475a" y="137.084748"/>
      </g>
     </g>
     <g id="text_7">
      <!-- −6.5 -->
      <defs>
       <path d="M 33.015625 40.375 
Q 26.375 40.375 22.484375 35.828125 
Q 18.609375 31.296875 18.609375 23.390625 
Q 18.609375 15.53125 22.484375 10.953125 
Q 26.375 6.390625 33.015625 6.390625 
Q 39.65625 6.390625 43.53125 10.953125 
Q 47.40625 15.53125 47.40625 23.390625 
Q 47.40625 31.296875 43.53125 35.828125 
Q 39.65625 40.375 33.015625 40.375 
z
M 52.59375 71.296875 
L 52.59375 62.3125 
Q 48.875 64.0625 45.09375 64.984375 
Q 41.3125 65.921875 37.59375 65.921875 
Q 27.828125 65.921875 22.671875 59.328125 
Q 17.53125 52.734375 16.796875 39.40625 
Q 19.671875 43.65625 24.015625 45.921875 
Q 28.375 48.1875 33.59375 48.1875 
Q 44.578125 48.1875 50.953125 41.515625 
Q 57.328125 34.859375 57.328125 23.390625 
Q 57.328125 12.15625 50.6875 5.359375 
Q 44.046875 -1.421875 33.015625 -1.421875 
Q 20.359375 -1.421875 13.671875 8.265625 
Q 6.984375 17.96875 6.984375 36.375 
Q 6.984375 53.65625 15.1875 63.9375 
Q 23.390625 74.21875 37.203125 74.21875 
Q 40.921875 74.21875 44.703125 73.484375 
Q 48.484375 72.75 52.59375 71.296875 
z
" id="DejaVuSans-36"/>
      </defs>
      <g transform="translate(381.4576 140.883967)scale(0.1 -0.1)">
       <use xlink:href="#DejaVuSans-2212"/>
       <use x="83.789062" xlink:href="#DejaVuSans-36"/>
       <use x="147.412109" xlink:href="#DejaVuSans-2e"/>
       <use x="179.199219" xlink:href="#DejaVuSans-35"/>
      </g>
     </g>
    </g>
    <g id="ytick_7">
     <g id="line2d_7">
      <g>
       <use style="stroke:#000000;stroke-width:0.8;" x="374.4576" xlink:href="#me71901475a" y="107.10541"/>
      </g>
     </g>
     <g id="text_8">
      <!-- −6.0 -->
      <g transform="translate(381.4576 110.904628)scale(0.1 -0.1)">
       <use xlink:href="#DejaVuSans-2212"/>
       <use x="83.789062" xlink:href="#DejaVuSans-36"/>
       <use x="147.412109" xlink:href="#DejaVuSans-2e"/>
       <use x="179.199219" xlink:href="#DejaVuSans-30"/>
      </g>
     </g>
    </g>
    <g id="ytick_8">
     <g id="line2d_8">
      <g>
       <use style="stroke:#000000;stroke-width:0.8;" x="374.4576" xlink:href="#me71901475a" y="77.126071"/>
      </g>
     </g>
     <g id="text_9">
      <!-- −5.5 -->
      <g transform="translate(381.4576 80.92529)scale(0.1 -0.1)">
       <use xlink:href="#DejaVuSans-2212"/>
       <use x="83.789062" xlink:href="#DejaVuSans-35"/>
       <use x="147.412109" xlink:href="#DejaVuSans-2e"/>
       <use x="179.199219" xlink:href="#DejaVuSans-35"/>
      </g>
     </g>
    </g>
    <g id="ytick_9">
     <g id="line2d_9">
      <g>
       <use style="stroke:#000000;stroke-width:0.8;" x="374.4576" xlink:href="#me71901475a" y="47.146733"/>
      </g>
     </g>
     <g id="text_10">
      <!-- −5.0 -->
      <g transform="translate(381.4576 50.945952)scale(0.1 -0.1)">
       <use xlink:href="#DejaVuSans-2212"/>
       <use x="83.789062" xlink:href="#DejaVuSans-35"/>
       <use x="147.412109" xlink:href="#DejaVuSans-2e"/>
       <use x="179.199219" xlink:href="#DejaVuSans-30"/>
      </g>
     </g>
    </g>
    <g id="text_11">
     <!-- Energy [eV] -->
     <defs>
      <path d="M 54.890625 33.015625 
L 54.890625 0 
L 45.90625 0 
L 45.90625 32.71875 
Q 45.90625 40.484375 42.875 44.328125 
Q 39.84375 48.1875 33.796875 48.1875 
Q 26.515625 48.1875 22.3125 43.546875 
Q 18.109375 38.921875 18.109375 30.90625 
L 18.109375 0 
L 9.078125 0 
L 9.078125 54.6875 
L 18.109375 54.6875 
L 18.109375 46.1875 
Q 21.34375 51.125 25.703125 53.5625 
Q 30.078125 56 35.796875 56 
Q 45.21875 56 50.046875 50.171875 
Q 54.890625 44.34375 54.890625 33.015625 
z
" id="DejaVuSans-6e"/>
      <path d="M 45.40625 27.984375 
Q 45.40625 37.75 41.375 43.109375 
Q 37.359375 48.484375 30.078125 48.484375 
Q 22.859375 48.484375 18.828125 43.109375 
Q 14.796875 37.75 14.796875 27.984375 
Q 14.796875 18.265625 18.828125 12.890625 
Q 22.859375 7.515625 30.078125 7.515625 
Q 37.359375 7.515625 41.375 12.890625 
Q 45.40625 18.265625 45.40625 27.984375 
z
M 54.390625 6.78125 
Q 54.390625 -7.171875 48.1875 -13.984375 
Q 42 -20.796875 29.203125 -20.796875 
Q 24.46875 -20.796875 20.265625 -20.09375 
Q 16.0625 -19.390625 12.109375 -17.921875 
L 12.109375 -9.1875 
Q 16.0625 -11.328125 19.921875 -12.34375 
Q 23.78125 -13.375 27.78125 -13.375 
Q 36.625 -13.375 41.015625 -8.765625 
Q 45.40625 -4.15625 45.40625 5.171875 
L 45.40625 9.625 
Q 42.625 4.78125 38.28125 2.390625 
Q 33.9375 0 27.875 0 
Q 17.828125 0 11.671875 7.65625 
Q 5.515625 15.328125 5.515625 27.984375 
Q 5.515625 40.671875 11.671875 48.328125 
Q 17.828125 56 27.875 56 
Q 33.9375 56 38.28125 53.609375 
Q 42.625 51.21875 45.40625 46.390625 
L 45.40625 54.6875 
L 54.390625 54.6875 
z
" id="DejaVuSans-67"/>
      <path d="M 32.171875 -5.078125 
Q 28.375 -14.84375 24.75 -17.8125 
Q 21.140625 -20.796875 15.09375 -20.796875 
L 7.90625 -20.796875 
L 7.90625 -13.28125 
L 13.1875 -13.28125 
Q 16.890625 -13.28125 18.9375 -11.515625 
Q 21 -9.765625 23.484375 -3.21875 
L 25.09375 0.875 
L 2.984375 54.6875 
L 12.5 54.6875 
L 29.59375 11.921875 
L 46.6875 54.6875 
L 56.203125 54.6875 
z
" id="DejaVuSans-79"/>
      <path d="M 8.59375 75.984375 
L 29.296875 75.984375 
L 29.296875 69 
L 17.578125 69 
L 17.578125 -6.203125 
L 29.296875 -6.203125 
L 29.296875 -13.1875 
L 8.59375 -13.1875 
z
" id="DejaVuSans-5b"/>
      <path d="M 30.421875 75.984375 
L 30.421875 -13.1875 
L 9.71875 -13.1875 
L 9.71875 -6.203125 
L 21.390625 -6.203125 
L 21.390625 69 
L 9.71875 69 
L 9.71875 75.984375 
z
" id="DejaVuSans-5d"/>
     </defs>
     <g transform="translate(417.33885 204.108469)rotate(-90)scale(0.1 -0.1)">
      <use xlink:href="#DejaVuSans-45"/>
      <use x="63.183594" xlink:href="#DejaVuSans-6e"/>
      <use x="126.5625" xlink:href="#DejaVuSans-65"/>
      <use x="188.085938" xlink:href="#DejaVuSans-72"/>
      <use x="229.183594" xlink:href="#DejaVuSans-67"/>
      <use x="292.660156" xlink:href="#DejaVuSans-79"/>
      <use x="351.839844" xlink:href="#DejaVuSans-20"/>
      <use x="383.626953" xlink:href="#DejaVuSans-5b"/>
      <use x="422.640625" xlink:href="#DejaVuSans-65"/>
      <use x="484.164062" xlink:href="#DejaVuSans-56"/>
      <use x="552.572266" xlink:href="#DejaVuSans-5d"/>
     </g>
    </g>
   </g>
   <g id="patch_3">
    <path d="M 361.152 307.584 
L 361.152 306.5445 
L 361.152 42.5115 
L 361.152 41.472 
L 374.4576 41.472 
L 374.4576 42.5115 
L 374.4576 306.5445 
L 374.4576 307.584 
z
" style="fill:none;stroke:#000000;stroke-linejoin:miter;stroke-width:0.8;"/>
   </g>
  </g>
 </g>
 <defs>
  <clipPath id="pe4e305914a">
   <rect height="266.112" width="285.696" x="57.6" y="41.472"/>
  </clipPath>
  <clipPath id="p61f1593834">
   <rect height="266.112" width="13.3056" x="361.152" y="41.472"/>
  </clipPath>
 </defs>
</svg>
