<?xml version="1.0" encoding="utf-8" standalone="no"?>
<!DOCTYPE svg PUBLIC "-//W3C//DTD SVG 1.1//EN"
  "http://www.w3.org/Graphics/SVG/1.1/DTD/svg11.dtd">
<!-- Created with matplotlib (http://matplotlib.org/) -->
<svg height="345.6pt" version="1.1" viewBox="0 0 460.8 345.6" width="460.8pt" xmlns="http://www.w3.org/2000/svg" xmlns:xlink="http://www.w3.org/1999/xlink">
 <defs>
  <style type="text/css">
*{stroke-linecap:butt;stroke-linejoin:round;}
  </style>
 </defs>
 <g id="figure_1">
  <g id="patch_1">
   <path d="M 0 345.6 
L 460.8 345.6 
L 460.8 0 
L 0 0 
z
" style="fill:#ffffff;"/>
  </g>
  <g id="axes_1">
   <g id="CircleCollection_1">
    <path clip-path="url(#pd6106c17ed)" d="M 207.827151 60.962028 
C 209.60305 60.962028 211.306452 60.256456 212.562202 59.000706 
C 213.817952 57.744956 214.523524 56.041554 214.523524 54.265655 
C 214.523524 52.489756 213.817952 50.786355 212.562202 49.530605 
C 211.306452 48.274854 209.60305 47.569282 207.827151 47.569282 
C 206.051252 47.569282 204.347851 48.274854 203.092101 49.530605 
C 201.83635 50.786355 201.130778 52.489756 201.130778 54.265655 
C 201.130778 56.041554 201.83635 57.744956 203.092101 59.000706 
C 204.347851 60.256456 206.051252 60.962028 207.827151 60.962028 
z
" style="fill:#25838e;"/>
    <path clip-path="url(#pd6106c17ed)" d="M 301.326831 145.09951 
C 303.051193 145.09951 304.705161 144.414414 305.924469 143.195106 
C 307.143777 141.975799 307.828873 140.32183 307.828873 138.597469 
C 307.828873 136.873107 307.143777 135.219139 305.924469 133.999831 
C 304.705161 132.780523 303.051193 132.095427 301.326831 132.095427 
C 299.60247 132.095427 297.948501 132.780523 296.729194 133.999831 
C 295.509886 135.219139 294.82479 136.873107 294.82479 138.597469 
C 294.82479 140.32183 295.509886 141.975799 296.729194 143.195106 
C 297.948501 144.414414 299.60247 145.09951 301.326831 145.09951 
z
" style="fill:#3c4f8a;"/>
    <path clip-path="url(#pd6106c17ed)" d="M 70.883427 233.032829 
C 72.669945 233.032829 74.383532 232.323038 75.646791 231.059779 
C 76.91005 229.79652 77.619841 228.082932 77.619841 226.296414 
C 77.619841 224.509896 76.91005 222.796309 75.646791 221.53305 
C 74.383532 220.269791 72.669945 219.56 70.883427 219.56 
C 69.096909 219.56 67.383321 220.269791 66.120062 221.53305 
C 64.856803 222.796309 64.147012 224.509896 64.147012 226.296414 
C 64.147012 228.082932 64.856803 229.79652 66.120062 231.059779 
C 67.383321 232.323038 69.096909 233.032829 70.883427 233.032829 
z
" style="fill:#297b8e;"/>
    <path clip-path="url(#pd6106c17ed)" d="M 126.282546 64.148329 
C 128.088294 64.148329 129.820326 63.430897 131.097183 62.154041 
C 132.374039 60.877184 133.091471 59.145152 133.091471 57.339404 
C 133.091471 55.533656 132.374039 53.801623 131.097183 52.524767 
C 129.820326 51.24791 128.088294 50.530479 126.282546 50.530479 
C 124.476798 50.530479 122.744765 51.24791 121.467909 52.524767 
C 120.191052 53.801623 119.473621 55.533656 119.473621 57.339404 
C 119.473621 59.145152 120.191052 60.877184 121.467909 62.154041 
C 122.744765 63.430897 124.476798 64.148329 126.282546 64.148329 
z
" style="fill:#238a8d;"/>
    <path clip-path="url(#pd6106c17ed)" d="M 213.878348 216.292663 
C 215.613025 216.292663 217.276887 215.603469 218.503489 214.376867 
C 219.73009 213.150265 220.419285 211.486403 220.419285 209.751727 
C 220.419285 208.01705 219.73009 206.353188 218.503489 205.126586 
C 217.276887 203.899985 215.613025 203.21079 213.878348 203.21079 
C 212.143672 203.21079 210.47981 203.899985 209.253208 205.126586 
C 208.026606 206.353188 207.337412 208.01705 207.337412 209.751727 
C 207.337412 211.486403 208.026606 213.150265 209.253208 214.376867 
C 210.47981 215.603469 212.143672 216.292663 213.878348 216.292663 
z
" style="fill:#84d44b;"/>
    <path clip-path="url(#pd6106c17ed)" d="M 273.678454 137.478791 
C 275.415999 137.478791 277.082613 136.788457 278.311243 135.559827 
C 279.539873 134.331197 280.230207 132.664584 280.230207 130.927038 
C 280.230207 129.189493 279.539873 127.522879 278.311243 126.294249 
C 277.082613 125.065619 275.415999 124.375285 273.678454 124.375285 
C 271.940909 124.375285 270.274295 125.065619 269.045665 126.294249 
C 267.817035 127.522879 267.126701 129.189493 267.126701 130.927038 
C 267.126701 132.664584 267.817035 134.331197 269.045665 135.559827 
C 270.274295 136.788457 271.940909 137.478791 273.678454 137.478791 
z
" style="fill:#287c8e;"/>
    <path clip-path="url(#pd6106c17ed)" d="M 233.748239 75.173133 
C 235.510715 75.173133 237.201241 74.472894 238.4475 73.226635 
C 239.693759 71.980377 240.393998 70.28985 240.393998 68.527374 
C 240.393998 66.764898 239.693759 65.074371 238.4475 63.828112 
C 237.201241 62.581854 235.510715 61.881615 233.748239 61.881615 
C 231.985763 61.881615 230.295236 62.581854 229.048977 63.828112 
C 227.802719 65.074371 227.102479 66.764898 227.102479 68.527374 
C 227.102479 70.28985 227.802719 71.980377 229.048977 73.226635 
C 230.295236 74.472894 231.985763 75.173133 233.748239 75.173133 
z
" style="fill:#1f998a;"/>
    <path clip-path="url(#pd6106c17ed)" d="M 192.555235 143.470339 
C 194.334613 143.470339 196.041352 142.763384 197.299562 141.505174 
C 198.557772 140.246964 199.264727 138.540225 199.264727 136.760847 
C 199.264727 134.98147 198.557772 133.274731 197.299562 132.016521 
C 196.041352 130.758311 194.334613 130.051356 192.555235 130.051356 
C 190.775858 130.051356 189.069119 130.758311 187.810909 132.016521 
C 186.552699 133.274731 185.845744 134.98147 185.845744 136.760847 
C 185.845744 138.540225 186.552699 140.246964 187.810909 141.505174 
C 189.069119 142.763384 190.775858 143.470339 192.555235 143.470339 
z
" style="fill:#471063;"/>
    <path clip-path="url(#pd6106c17ed)" d="M 140.367353 292.06653 
C 142.130631 292.06653 143.821926 291.365972 145.068752 290.119146 
C 146.315577 288.872321 147.016135 287.181025 147.016135 285.417747 
C 147.016135 283.65447 146.315577 281.963174 145.068752 280.716349 
C 143.821926 279.469523 142.130631 278.768965 140.367353 278.768965 
C 138.604075 278.768965 136.91278 279.469523 135.665954 280.716349 
C 134.419128 281.963174 133.718571 283.65447 133.718571 285.417747 
C 133.718571 287.181025 134.419128 288.872321 135.665954 290.119146 
C 136.91278 291.365972 138.604075 292.06653 140.367353 292.06653 
z
" style="fill:#355f8d;"/>
    <path clip-path="url(#pd6106c17ed)" d="M 244.881277 126.880027 
C 246.632747 126.880027 248.312718 126.18416 249.551194 124.945683 
C 250.789671 123.707207 251.485537 122.027236 251.485537 120.275766 
C 251.485537 118.524295 250.789671 116.844325 249.551194 115.605848 
C 248.312718 114.367372 246.632747 113.671505 244.881277 113.671505 
C 243.129806 113.671505 241.449836 114.367372 240.211359 115.605848 
C 238.972882 116.844325 238.277016 118.524295 238.277016 120.275766 
C 238.277016 122.027236 238.972882 123.707207 240.211359 124.945683 
C 241.449836 126.18416 243.129806 126.880027 244.881277 126.880027 
z
" style="fill:#440154;"/>
    <path clip-path="url(#pd6106c17ed)" d="M 143.255237 153.891372 
C 145.044099 153.891372 146.759936 153.180649 148.024853 151.915732 
C 149.28977 150.650815 150.000492 148.934979 150.000492 147.146116 
C 150.000492 145.357253 149.28977 143.641417 148.024853 142.3765 
C 146.759936 141.111583 145.044099 140.40086 143.255237 140.40086 
C 141.466374 140.40086 139.750538 141.111583 138.485621 142.3765 
C 137.220704 143.641417 136.509981 145.357253 136.509981 147.146116 
C 136.509981 148.934979 137.220704 150.650815 138.485621 151.915732 
C 139.750538 153.180649 141.466374 153.891372 143.255237 153.891372 
z
" style="fill:#482374;"/>
    <path clip-path="url(#pd6106c17ed)" d="M 170.214735 181.385706 
C 171.997559 181.385706 173.707603 180.677382 174.968251 179.416735 
C 176.228898 178.156088 176.937222 176.446043 176.937222 174.663219 
C 176.937222 172.880395 176.228898 171.17035 174.968251 169.909703 
C 173.707603 168.649056 171.997559 167.940732 170.214735 167.940732 
C 168.43191 167.940732 166.721866 168.649056 165.461218 169.909703 
C 164.200571 171.17035 163.492248 172.880395 163.492248 174.663219 
C 163.492248 176.446043 164.200571 178.156088 165.461218 179.416735 
C 166.721866 180.677382 168.43191 181.385706 170.214735 181.385706 
z
" style="fill:#472f7d;"/>
    <path clip-path="url(#pd6106c17ed)" d="M 114.121864 166.959638 
C 115.913817 166.959638 117.632618 166.247687 118.899721 164.980585 
C 120.166823 163.713482 120.878774 161.994681 120.878774 160.202727 
C 120.878774 158.410774 120.166823 156.691973 118.899721 155.42487 
C 117.632618 154.157768 115.913817 153.445817 114.121864 153.445817 
C 112.32991 153.445817 110.611109 154.157768 109.344007 155.42487 
C 108.076904 156.691973 107.364953 158.410774 107.364953 160.202727 
C 107.364953 161.994681 108.076904 163.713482 109.344007 164.980585 
C 110.611109 166.247687 112.32991 166.959638 114.121864 166.959638 
z
" style="fill:#31678e;"/>
    <path clip-path="url(#pd6106c17ed)" d="M 89.238231 131.130018 
C 91.04008 131.130018 92.768372 130.414136 94.042472 129.140036 
C 95.316571 127.865937 96.032453 126.137645 96.032453 124.335796 
C 96.032453 122.533947 95.316571 120.805655 94.042472 119.531556 
C 92.768372 118.257456 91.04008 117.541574 89.238231 117.541574 
C 87.436383 117.541574 85.70809 118.257456 84.433991 119.531556 
C 83.159892 120.805655 82.444009 122.533947 82.444009 124.335796 
C 82.444009 126.137645 83.159892 127.865937 84.433991 129.140036 
C 85.70809 130.414136 87.436383 131.130018 89.238231 131.130018 
z
" style="fill:#2d708e;"/>
    <path clip-path="url(#pd6106c17ed)" d="M 182.059856 91.725147 
C 183.843917 91.725147 185.555147 91.016333 186.816668 89.754811 
C 188.07819 88.49329 188.787004 86.78206 188.787004 84.997999 
C 188.787004 83.213939 188.07819 81.502709 186.816668 80.241188 
C 185.555147 78.979666 183.843917 78.270852 182.059856 78.270852 
C 180.275796 78.270852 178.564566 78.979666 177.303045 80.241188 
C 176.041523 81.502709 175.332709 83.213939 175.332709 84.997999 
C 175.332709 86.78206 176.041523 88.49329 177.303045 89.754811 
C 178.564566 91.016333 180.275796 91.725147 182.059856 91.725147 
z
" style="fill:#482173;"/>
    <path clip-path="url(#pd6106c17ed)" d="M 88.917975 272.016503 
C 90.695784 272.016503 92.401018 271.310172 93.658119 270.053071 
C 94.91522 268.795971 95.621551 267.090737 95.621551 265.312928 
C 95.621551 263.535118 94.91522 261.829884 93.658119 260.572784 
C 92.401018 259.315683 90.695784 258.609352 88.917975 258.609352 
C 87.140166 258.609352 85.434932 259.315683 84.177831 260.572784 
C 82.920731 261.829884 82.2144 263.535118 82.2144 265.312928 
C 82.2144 267.090737 82.920731 268.795971 84.177831 270.053071 
C 85.434932 271.310172 87.140166 272.016503 88.917975 272.016503 
z
" style="fill:#2d718e;"/>
    <path clip-path="url(#pd6106c17ed)" d="M 84.679086 185.121321 
C 86.472405 185.121321 88.192515 184.408828 89.460583 183.14076 
C 90.728651 181.872692 91.441145 180.152581 91.441145 178.359262 
C 91.441145 176.565943 90.728651 174.845833 89.460583 173.577765 
C 88.192515 172.309697 86.472405 171.597203 84.679086 171.597203 
C 82.885767 171.597203 81.165656 172.309697 79.897588 173.577765 
C 78.629521 174.845833 77.917027 176.565943 77.917027 178.359262 
C 77.917027 180.152581 78.629521 181.872692 79.897588 183.14076 
C 81.165656 184.408828 82.885767 185.121321 84.679086 185.121321 
z
" style="fill:#38588c;"/>
    <path clip-path="url(#pd6106c17ed)" d="M 150.844348 95.511734 
C 152.638136 95.511734 154.358697 94.799054 155.627097 93.530654 
C 156.895497 92.262254 157.608177 90.541693 157.608177 88.747905 
C 157.608177 86.954116 156.895497 85.233555 155.627097 83.965156 
C 154.358697 82.696756 152.638136 81.984076 150.844348 81.984076 
C 149.05056 81.984076 147.329999 82.696756 146.061599 83.965156 
C 144.793199 85.233555 144.080519 86.954116 144.080519 88.747905 
C 144.080519 90.541693 144.793199 92.262254 146.061599 93.530654 
C 147.329999 94.799054 149.05056 95.511734 150.844348 95.511734 
z
" style="fill:#453781;"/>
    <path clip-path="url(#pd6106c17ed)" d="M 100.055226 82.255657 
C 101.864846 82.255657 103.600593 81.536687 104.880188 80.257092 
C 106.159782 78.977498 106.878752 77.241751 106.878752 75.432131 
C 106.878752 73.62251 106.159782 71.886764 104.880188 70.607169 
C 103.600593 69.327574 101.864846 68.608604 100.055226 68.608604 
C 98.245605 68.608604 96.509859 69.327574 95.230264 70.607169 
C 93.950669 71.886764 93.231699 73.62251 93.231699 75.432131 
C 93.231699 77.241751 93.950669 78.977498 95.230264 80.257092 
C 96.509859 81.536687 98.245605 82.255657 100.055226 82.255657 
z
" style="fill:#287c8e;"/>
    <path clip-path="url(#pd6106c17ed)" d="M 111.929489 301.457706 
C 113.696799 301.457706 115.391963 300.755546 116.64164 299.505869 
C 117.891316 298.256192 118.593476 296.561029 118.593476 294.793719 
C 118.593476 293.026409 117.891316 291.331245 116.64164 290.081568 
C 115.391963 288.831891 113.696799 288.129731 111.929489 288.129731 
C 110.162179 288.129731 108.467015 288.831891 107.217338 290.081568 
C 105.967661 291.331245 105.265501 293.026409 105.265501 294.793719 
C 105.265501 296.561029 105.967661 298.256192 107.217338 299.505869 
C 108.467015 300.755546 110.162179 301.457706 111.929489 301.457706 
z
" style="fill:#33638d;"/>
    <path clip-path="url(#pd6106c17ed)" d="M 330.025189 146.898636 
C 331.735885 146.898636 333.376746 146.218969 334.586391 145.009324 
C 335.796036 143.799679 336.475703 142.158819 336.475703 140.448122 
C 336.475703 138.737426 335.796036 137.096565 334.586391 135.88692 
C 333.376746 134.677275 331.735885 133.997609 330.025189 133.997609 
C 328.314493 133.997609 326.673632 134.677275 325.463987 135.88692 
C 324.254342 137.096565 323.574675 138.737426 323.574675 140.448122 
C 323.574675 142.158819 324.254342 143.799679 325.463987 145.009324 
C 326.673632 146.218969 328.314493 146.898636 330.025189 146.898636 
z
" style="fill:#fde725;"/>
    <path clip-path="url(#pd6106c17ed)" d="M 166.607911 274.564431 
C 168.363584 274.564431 170.047586 273.866895 171.289035 272.625446 
C 172.530484 271.383997 173.22802 269.699995 173.22802 267.944322 
C 173.22802 266.188648 172.530484 264.504646 171.289035 263.263197 
C 170.047586 262.021749 168.363584 261.324212 166.607911 261.324212 
C 164.852237 261.324212 163.168235 262.021749 161.926786 263.263197 
C 160.685337 264.504646 159.987801 266.188648 159.987801 267.944322 
C 159.987801 269.699995 160.685337 271.383997 161.926786 272.625446 
C 163.168235 273.866895 164.852237 274.564431 166.607911 274.564431 
z
" style="fill:#277e8e;"/>
    <path clip-path="url(#pd6106c17ed)" d="M 220.491332 164.605796 
C 222.249494 164.605796 223.935883 163.907271 225.179092 162.664063 
C 226.4223 161.420854 227.120825 159.734466 227.120825 157.976304 
C 227.120825 156.218142 226.4223 154.531753 225.179092 153.288544 
C 223.935883 152.045336 222.249494 151.346811 220.491332 151.346811 
C 218.73317 151.346811 217.046781 152.045336 215.803573 153.288544 
C 214.560365 154.531753 213.86184 156.218142 213.86184 157.976304 
C 213.86184 159.734466 214.560365 161.420854 215.803573 162.664063 
C 217.046781 163.907271 218.73317 164.605796 220.491332 164.605796 
z
" style="fill:#46307e;"/>
    <path clip-path="url(#pd6106c17ed)" d="M 183.700551 230.868737 
C 185.461575 230.868737 187.150709 230.169074 188.395941 228.923843 
C 189.641173 227.678611 190.340835 225.989477 190.340835 224.228453 
C 190.340835 222.467429 189.641173 220.778296 188.395941 219.533064 
C 187.150709 218.287832 185.461575 217.58817 183.700551 217.58817 
C 181.939527 217.58817 180.250394 218.287832 179.005162 219.533064 
C 177.75993 220.778296 177.060268 222.467429 177.060268 224.228453 
C 177.060268 225.989477 177.75993 227.678611 179.005162 228.923843 
C 180.250394 230.169074 181.939527 230.868737 183.700551 230.868737 
z
" style="fill:#482071;"/>
   </g>
   <g id="text_1">
    <!-- Structure #196, $E_N$=-181.16eV, ΔE=0.26eV -->
    <defs>
     <path d="M 53.515625 70.515625 
L 53.515625 60.890625 
Q 47.90625 63.578125 42.921875 64.890625 
Q 37.9375 66.21875 33.296875 66.21875 
Q 25.25 66.21875 20.875 63.09375 
Q 16.5 59.96875 16.5 54.203125 
Q 16.5 49.359375 19.40625 46.890625 
Q 22.3125 44.4375 30.421875 42.921875 
L 36.375 41.703125 
Q 47.40625 39.59375 52.65625 34.296875 
Q 57.90625 29 57.90625 20.125 
Q 57.90625 9.515625 50.796875 4.046875 
Q 43.703125 -1.421875 29.984375 -1.421875 
Q 24.8125 -1.421875 18.96875 -0.25 
Q 13.140625 0.921875 6.890625 3.21875 
L 6.890625 13.375 
Q 12.890625 10.015625 18.65625 8.296875 
Q 24.421875 6.59375 29.984375 6.59375 
Q 38.421875 6.59375 43.015625 9.90625 
Q 47.609375 13.234375 47.609375 19.390625 
Q 47.609375 24.75 44.3125 27.78125 
Q 41.015625 30.8125 33.5 32.328125 
L 27.484375 33.5 
Q 16.453125 35.6875 11.515625 40.375 
Q 6.59375 45.0625 6.59375 53.421875 
Q 6.59375 63.09375 13.40625 68.65625 
Q 20.21875 74.21875 32.171875 74.21875 
Q 37.3125 74.21875 42.625 73.28125 
Q 47.953125 72.359375 53.515625 70.515625 
z
" id="DejaVuSans-53"/>
     <path d="M 18.3125 70.21875 
L 18.3125 54.6875 
L 36.8125 54.6875 
L 36.8125 47.703125 
L 18.3125 47.703125 
L 18.3125 18.015625 
Q 18.3125 11.328125 20.140625 9.421875 
Q 21.96875 7.515625 27.59375 7.515625 
L 36.8125 7.515625 
L 36.8125 0 
L 27.59375 0 
Q 17.1875 0 13.234375 3.875 
Q 9.28125 7.765625 9.28125 18.015625 
L 9.28125 47.703125 
L 2.6875 47.703125 
L 2.6875 54.6875 
L 9.28125 54.6875 
L 9.28125 70.21875 
z
" id="DejaVuSans-74"/>
     <path d="M 41.109375 46.296875 
Q 39.59375 47.171875 37.8125 47.578125 
Q 36.03125 48 33.890625 48 
Q 26.265625 48 22.1875 43.046875 
Q 18.109375 38.09375 18.109375 28.8125 
L 18.109375 0 
L 9.078125 0 
L 9.078125 54.6875 
L 18.109375 54.6875 
L 18.109375 46.1875 
Q 20.953125 51.171875 25.484375 53.578125 
Q 30.03125 56 36.53125 56 
Q 37.453125 56 38.578125 55.875 
Q 39.703125 55.765625 41.0625 55.515625 
z
" id="DejaVuSans-72"/>
     <path d="M 8.5 21.578125 
L 8.5 54.6875 
L 17.484375 54.6875 
L 17.484375 21.921875 
Q 17.484375 14.15625 20.5 10.265625 
Q 23.53125 6.390625 29.59375 6.390625 
Q 36.859375 6.390625 41.078125 11.03125 
Q 45.3125 15.671875 45.3125 23.6875 
L 45.3125 54.6875 
L 54.296875 54.6875 
L 54.296875 0 
L 45.3125 0 
L 45.3125 8.40625 
Q 42.046875 3.421875 37.71875 1 
Q 33.40625 -1.421875 27.6875 -1.421875 
Q 18.265625 -1.421875 13.375 4.4375 
Q 8.5 10.296875 8.5 21.578125 
z
M 31.109375 56 
z
" id="DejaVuSans-75"/>
     <path d="M 48.78125 52.59375 
L 48.78125 44.1875 
Q 44.96875 46.296875 41.140625 47.34375 
Q 37.3125 48.390625 33.40625 48.390625 
Q 24.65625 48.390625 19.8125 42.84375 
Q 14.984375 37.3125 14.984375 27.296875 
Q 14.984375 17.28125 19.8125 11.734375 
Q 24.65625 6.203125 33.40625 6.203125 
Q 37.3125 6.203125 41.140625 7.25 
Q 44.96875 8.296875 48.78125 10.40625 
L 48.78125 2.09375 
Q 45.015625 0.34375 40.984375 -0.53125 
Q 36.96875 -1.421875 32.421875 -1.421875 
Q 20.0625 -1.421875 12.78125 6.34375 
Q 5.515625 14.109375 5.515625 27.296875 
Q 5.515625 40.671875 12.859375 48.328125 
Q 20.21875 56 33.015625 56 
Q 37.15625 56 41.109375 55.140625 
Q 45.0625 54.296875 48.78125 52.59375 
z
" id="DejaVuSans-63"/>
     <path d="M 56.203125 29.59375 
L 56.203125 25.203125 
L 14.890625 25.203125 
Q 15.484375 15.921875 20.484375 11.0625 
Q 25.484375 6.203125 34.421875 6.203125 
Q 39.59375 6.203125 44.453125 7.46875 
Q 49.3125 8.734375 54.109375 11.28125 
L 54.109375 2.78125 
Q 49.265625 0.734375 44.1875 -0.34375 
Q 39.109375 -1.421875 33.890625 -1.421875 
Q 20.796875 -1.421875 13.15625 6.1875 
Q 5.515625 13.8125 5.515625 26.8125 
Q 5.515625 40.234375 12.765625 48.109375 
Q 20.015625 56 32.328125 56 
Q 43.359375 56 49.78125 48.890625 
Q 56.203125 41.796875 56.203125 29.59375 
z
M 47.21875 32.234375 
Q 47.125 39.59375 43.09375 43.984375 
Q 39.0625 48.390625 32.421875 48.390625 
Q 24.90625 48.390625 20.390625 44.140625 
Q 15.875 39.890625 15.1875 32.171875 
z
" id="DejaVuSans-65"/>
     <path id="DejaVuSans-20"/>
     <path d="M 51.125 44 
L 36.921875 44 
L 32.8125 27.6875 
L 47.125 27.6875 
z
M 43.796875 71.78125 
L 38.71875 51.515625 
L 52.984375 51.515625 
L 58.109375 71.78125 
L 65.921875 71.78125 
L 60.890625 51.515625 
L 76.125 51.515625 
L 76.125 44 
L 58.984375 44 
L 54.984375 27.6875 
L 70.515625 27.6875 
L 70.515625 20.21875 
L 53.078125 20.21875 
L 48 0 
L 40.1875 0 
L 45.21875 20.21875 
L 30.90625 20.21875 
L 25.875 0 
L 18.015625 0 
L 23.09375 20.21875 
L 7.71875 20.21875 
L 7.71875 27.6875 
L 24.90625 27.6875 
L 29 44 
L 13.28125 44 
L 13.28125 51.515625 
L 30.90625 51.515625 
L 35.890625 71.78125 
z
" id="DejaVuSans-23"/>
     <path d="M 12.40625 8.296875 
L 28.515625 8.296875 
L 28.515625 63.921875 
L 10.984375 60.40625 
L 10.984375 69.390625 
L 28.421875 72.90625 
L 38.28125 72.90625 
L 38.28125 8.296875 
L 54.390625 8.296875 
L 54.390625 0 
L 12.40625 0 
z
" id="DejaVuSans-31"/>
     <path d="M 10.984375 1.515625 
L 10.984375 10.5 
Q 14.703125 8.734375 18.5 7.8125 
Q 22.3125 6.890625 25.984375 6.890625 
Q 35.75 6.890625 40.890625 13.453125 
Q 46.046875 20.015625 46.78125 33.40625 
Q 43.953125 29.203125 39.59375 26.953125 
Q 35.25 24.703125 29.984375 24.703125 
Q 19.046875 24.703125 12.671875 31.3125 
Q 6.296875 37.9375 6.296875 49.421875 
Q 6.296875 60.640625 12.9375 67.421875 
Q 19.578125 74.21875 30.609375 74.21875 
Q 43.265625 74.21875 49.921875 64.515625 
Q 56.59375 54.828125 56.59375 36.375 
Q 56.59375 19.140625 48.40625 8.859375 
Q 40.234375 -1.421875 26.421875 -1.421875 
Q 22.703125 -1.421875 18.890625 -0.6875 
Q 15.09375 0.046875 10.984375 1.515625 
z
M 30.609375 32.421875 
Q 37.25 32.421875 41.125 36.953125 
Q 45.015625 41.5 45.015625 49.421875 
Q 45.015625 57.28125 41.125 61.84375 
Q 37.25 66.40625 30.609375 66.40625 
Q 23.96875 66.40625 20.09375 61.84375 
Q 16.21875 57.28125 16.21875 49.421875 
Q 16.21875 41.5 20.09375 36.953125 
Q 23.96875 32.421875 30.609375 32.421875 
z
" id="DejaVuSans-39"/>
     <path d="M 33.015625 40.375 
Q 26.375 40.375 22.484375 35.828125 
Q 18.609375 31.296875 18.609375 23.390625 
Q 18.609375 15.53125 22.484375 10.953125 
Q 26.375 6.390625 33.015625 6.390625 
Q 39.65625 6.390625 43.53125 10.953125 
Q 47.40625 15.53125 47.40625 23.390625 
Q 47.40625 31.296875 43.53125 35.828125 
Q 39.65625 40.375 33.015625 40.375 
z
M 52.59375 71.296875 
L 52.59375 62.3125 
Q 48.875 64.0625 45.09375 64.984375 
Q 41.3125 65.921875 37.59375 65.921875 
Q 27.828125 65.921875 22.671875 59.328125 
Q 17.53125 52.734375 16.796875 39.40625 
Q 19.671875 43.65625 24.015625 45.921875 
Q 28.375 48.1875 33.59375 48.1875 
Q 44.578125 48.1875 50.953125 41.515625 
Q 57.328125 34.859375 57.328125 23.390625 
Q 57.328125 12.15625 50.6875 5.359375 
Q 44.046875 -1.421875 33.015625 -1.421875 
Q 20.359375 -1.421875 13.671875 8.265625 
Q 6.984375 17.96875 6.984375 36.375 
Q 6.984375 53.65625 15.1875 63.9375 
Q 23.390625 74.21875 37.203125 74.21875 
Q 40.921875 74.21875 44.703125 73.484375 
Q 48.484375 72.75 52.59375 71.296875 
z
" id="DejaVuSans-36"/>
     <path d="M 11.71875 12.40625 
L 22.015625 12.40625 
L 22.015625 4 
L 14.015625 -11.625 
L 7.71875 -11.625 
L 11.71875 4 
z
" id="DejaVuSans-2c"/>
     <path d="M 16.890625 72.90625 
L 62.984375 72.90625 
L 61.375 64.59375 
L 25.09375 64.59375 
L 20.90625 43.015625 
L 55.71875 43.015625 
L 54.109375 34.71875 
L 19.28125 34.71875 
L 14.203125 8.296875 
L 51.3125 8.296875 
L 49.703125 0 
L 2.6875 0 
z
" id="DejaVuSans-Oblique-45"/>
     <path d="M 16.890625 72.90625 
L 30.171875 72.90625 
L 50.296875 10.40625 
L 62.5 72.90625 
L 72.125 72.90625 
L 57.90625 0 
L 44.578125 0 
L 24.515625 62.890625 
L 12.3125 0 
L 2.6875 0 
z
" id="DejaVuSans-Oblique-4e"/>
     <path d="M 10.59375 45.40625 
L 73.1875 45.40625 
L 73.1875 37.203125 
L 10.59375 37.203125 
z
M 10.59375 25.484375 
L 73.1875 25.484375 
L 73.1875 17.1875 
L 10.59375 17.1875 
z
" id="DejaVuSans-3d"/>
     <path d="M 4.890625 31.390625 
L 31.203125 31.390625 
L 31.203125 23.390625 
L 4.890625 23.390625 
z
" id="DejaVuSans-2d"/>
     <path d="M 31.78125 34.625 
Q 24.75 34.625 20.71875 30.859375 
Q 16.703125 27.09375 16.703125 20.515625 
Q 16.703125 13.921875 20.71875 10.15625 
Q 24.75 6.390625 31.78125 6.390625 
Q 38.8125 6.390625 42.859375 10.171875 
Q 46.921875 13.96875 46.921875 20.515625 
Q 46.921875 27.09375 42.890625 30.859375 
Q 38.875 34.625 31.78125 34.625 
z
M 21.921875 38.8125 
Q 15.578125 40.375 12.03125 44.71875 
Q 8.5 49.078125 8.5 55.328125 
Q 8.5 64.0625 14.71875 69.140625 
Q 20.953125 74.21875 31.78125 74.21875 
Q 42.671875 74.21875 48.875 69.140625 
Q 55.078125 64.0625 55.078125 55.328125 
Q 55.078125 49.078125 51.53125 44.71875 
Q 48 40.375 41.703125 38.8125 
Q 48.828125 37.15625 52.796875 32.3125 
Q 56.78125 27.484375 56.78125 20.515625 
Q 56.78125 9.90625 50.3125 4.234375 
Q 43.84375 -1.421875 31.78125 -1.421875 
Q 19.734375 -1.421875 13.25 4.234375 
Q 6.78125 9.90625 6.78125 20.515625 
Q 6.78125 27.484375 10.78125 32.3125 
Q 14.796875 37.15625 21.921875 38.8125 
z
M 18.3125 54.390625 
Q 18.3125 48.734375 21.84375 45.5625 
Q 25.390625 42.390625 31.78125 42.390625 
Q 38.140625 42.390625 41.71875 45.5625 
Q 45.3125 48.734375 45.3125 54.390625 
Q 45.3125 60.0625 41.71875 63.234375 
Q 38.140625 66.40625 31.78125 66.40625 
Q 25.390625 66.40625 21.84375 63.234375 
Q 18.3125 60.0625 18.3125 54.390625 
z
" id="DejaVuSans-38"/>
     <path d="M 10.6875 12.40625 
L 21 12.40625 
L 21 0 
L 10.6875 0 
z
" id="DejaVuSans-2e"/>
     <path d="M 28.609375 0 
L 0.78125 72.90625 
L 11.078125 72.90625 
L 34.1875 11.53125 
L 57.328125 72.90625 
L 67.578125 72.90625 
L 39.796875 0 
z
" id="DejaVuSans-56"/>
     <path d="M 34.1875 63.1875 
L 14.15625 8.203125 
L 54.25 8.203125 
z
M 0.78125 0 
L 28.609375 72.90625 
L 39.796875 72.90625 
L 67.578125 0 
z
" id="DejaVuSans-394"/>
     <path d="M 9.8125 72.90625 
L 55.90625 72.90625 
L 55.90625 64.59375 
L 19.671875 64.59375 
L 19.671875 43.015625 
L 54.390625 43.015625 
L 54.390625 34.71875 
L 19.671875 34.71875 
L 19.671875 8.296875 
L 56.78125 8.296875 
L 56.78125 0 
L 9.8125 0 
z
" id="DejaVuSans-45"/>
     <path d="M 31.78125 66.40625 
Q 24.171875 66.40625 20.328125 58.90625 
Q 16.5 51.421875 16.5 36.375 
Q 16.5 21.390625 20.328125 13.890625 
Q 24.171875 6.390625 31.78125 6.390625 
Q 39.453125 6.390625 43.28125 13.890625 
Q 47.125 21.390625 47.125 36.375 
Q 47.125 51.421875 43.28125 58.90625 
Q 39.453125 66.40625 31.78125 66.40625 
z
M 31.78125 74.21875 
Q 44.046875 74.21875 50.515625 64.515625 
Q 56.984375 54.828125 56.984375 36.375 
Q 56.984375 17.96875 50.515625 8.265625 
Q 44.046875 -1.421875 31.78125 -1.421875 
Q 19.53125 -1.421875 13.0625 8.265625 
Q 6.59375 17.96875 6.59375 36.375 
Q 6.59375 54.828125 13.0625 64.515625 
Q 19.53125 74.21875 31.78125 74.21875 
z
" id="DejaVuSans-30"/>
     <path d="M 19.1875 8.296875 
L 53.609375 8.296875 
L 53.609375 0 
L 7.328125 0 
L 7.328125 8.296875 
Q 12.9375 14.109375 22.625 23.890625 
Q 32.328125 33.6875 34.8125 36.53125 
Q 39.546875 41.84375 41.421875 45.53125 
Q 43.3125 49.21875 43.3125 52.78125 
Q 43.3125 58.59375 39.234375 62.25 
Q 35.15625 65.921875 28.609375 65.921875 
Q 23.96875 65.921875 18.8125 64.3125 
Q 13.671875 62.703125 7.8125 59.421875 
L 7.8125 69.390625 
Q 13.765625 71.78125 18.9375 73 
Q 24.125 74.21875 28.421875 74.21875 
Q 39.75 74.21875 46.484375 68.546875 
Q 53.21875 62.890625 53.21875 53.421875 
Q 53.21875 48.921875 51.53125 44.890625 
Q 49.859375 40.875 45.40625 35.40625 
Q 44.1875 33.984375 37.640625 27.21875 
Q 31.109375 20.453125 19.1875 8.296875 
z
" id="DejaVuSans-32"/>
    </defs>
    <g transform="translate(69.228 35.472)scale(0.12 -0.12)">
     <use transform="translate(0 0.78125)" xlink:href="#DejaVuSans-53"/>
     <use transform="translate(63.476562 0.78125)" xlink:href="#DejaVuSans-74"/>
     <use transform="translate(102.685547 0.78125)" xlink:href="#DejaVuSans-72"/>
     <use transform="translate(143.798828 0.78125)" xlink:href="#DejaVuSans-75"/>
     <use transform="translate(207.177734 0.78125)" xlink:href="#DejaVuSans-63"/>
     <use transform="translate(262.158203 0.78125)" xlink:href="#DejaVuSans-74"/>
     <use transform="translate(301.367188 0.78125)" xlink:href="#DejaVuSans-75"/>
     <use transform="translate(364.746094 0.78125)" xlink:href="#DejaVuSans-72"/>
     <use transform="translate(405.859375 0.78125)" xlink:href="#DejaVuSans-65"/>
     <use transform="translate(467.382812 0.78125)" xlink:href="#DejaVuSans-20"/>
     <use transform="translate(499.169922 0.78125)" xlink:href="#DejaVuSans-23"/>
     <use transform="translate(582.958984 0.78125)" xlink:href="#DejaVuSans-31"/>
     <use transform="translate(646.582031 0.78125)" xlink:href="#DejaVuSans-39"/>
     <use transform="translate(710.205078 0.78125)" xlink:href="#DejaVuSans-36"/>
     <use transform="translate(773.828125 0.78125)" xlink:href="#DejaVuSans-2c"/>
     <use transform="translate(805.615234 0.78125)" xlink:href="#DejaVuSans-20"/>
     <use transform="translate(837.402344 0.78125)" xlink:href="#DejaVuSans-Oblique-45"/>
     <use transform="translate(900.585938 -15.625)scale(0.7)" xlink:href="#DejaVuSans-Oblique-4e"/>
     <use transform="translate(955.683594 0.78125)" xlink:href="#DejaVuSans-3d"/>
     <use transform="translate(1039.472656 0.78125)" xlink:href="#DejaVuSans-2d"/>
     <use transform="translate(1075.556641 0.78125)" xlink:href="#DejaVuSans-31"/>
     <use transform="translate(1139.179688 0.78125)" xlink:href="#DejaVuSans-38"/>
     <use transform="translate(1202.802734 0.78125)" xlink:href="#DejaVuSans-31"/>
     <use transform="translate(1266.425781 0.78125)" xlink:href="#DejaVuSans-2e"/>
     <use transform="translate(1298.212891 0.78125)" xlink:href="#DejaVuSans-31"/>
     <use transform="translate(1361.835938 0.78125)" xlink:href="#DejaVuSans-36"/>
     <use transform="translate(1425.458984 0.78125)" xlink:href="#DejaVuSans-65"/>
     <use transform="translate(1486.982422 0.78125)" xlink:href="#DejaVuSans-56"/>
     <use transform="translate(1555.390625 0.78125)" xlink:href="#DejaVuSans-2c"/>
     <use transform="translate(1587.177734 0.78125)" xlink:href="#DejaVuSans-20"/>
     <use transform="translate(1618.964844 0.78125)" xlink:href="#DejaVuSans-394"/>
     <use transform="translate(1687.373047 0.78125)" xlink:href="#DejaVuSans-45"/>
     <use transform="translate(1750.556641 0.78125)" xlink:href="#DejaVuSans-3d"/>
     <use transform="translate(1834.345703 0.78125)" xlink:href="#DejaVuSans-30"/>
     <use transform="translate(1897.96875 0.78125)" xlink:href="#DejaVuSans-2e"/>
     <use transform="translate(1929.677734 0.78125)" xlink:href="#DejaVuSans-32"/>
     <use transform="translate(1993.300781 0.78125)" xlink:href="#DejaVuSans-36"/>
     <use transform="translate(2056.923828 0.78125)" xlink:href="#DejaVuSans-65"/>
     <use transform="translate(2118.447266 0.78125)" xlink:href="#DejaVuSans-56"/>
    </g>
   </g>
  </g>
  <g id="axes_2">
   <g id="patch_2">
    <path clip-path="url(#pe348f12355)" d="M 361.152 307.584 
L 361.152 306.5445 
L 361.152 42.5115 
L 361.152 41.472 
L 374.4576 41.472 
L 374.4576 42.5115 
L 374.4576 306.5445 
L 374.4576 307.584 
z
" style="fill:#ffffff;stroke:#ffffff;stroke-linejoin:miter;stroke-width:0.01;"/>
   </g>
   <image height="265.68" id="image7ea82c04ca" transform="scale(1 -1)translate(0 -265.68)" width="12.96" x="361.44" xlink:href="data:image/png;base64,
iVBORw0KGgoAAAANSUhEUgAAABIAAAFxCAYAAAB+2fgXAAAABHNCSVQICAgIfAhkiAAAAeVJREFUeJztncmNw0AQA2ckheYQNv9QLIfQ8ygsCgQ7AEI8+jAs2Puz/94F1LP2ReCsZ18bAWIeZ5XaGRBE7VnbptG+KI101FYyNSiQG2oRITXKNaX9uclOdi2XWjftVE32CZCO2ou5Bj1TcCBr/1zB9ge7Fq0Rg2NM9pvbtG+ua1QgsRYhDy0ISEiNc40BEibbSI0Coj5CBGtkpFbXJiAjNZlrwhuSOv2M1DjXbEdEciBt1JSDDQKKpmZr2rr2j0DBGpXaWEJq3bQzEPIS26r9J+Wzv9Tm8o3aajRXqc3VUXsApKNWjeZq0x4ABVNbm7lrszVigDqP5vIl2+eaT2yfRkL7g+dRcNPqjohkjaCvRVBq0H2U3LQrOJCx9kdTg4B8oxZzzTdqdYHEngjUCAPyUctN9sVRq2sTECW2UKNLd2jVtRmo1A6AhMmWaSRcR8nUdIHUuVb75zJS218EyEitro1At69pIdeSk30Lkw0FktNImGyZRhy1O5galmxd03LUsHWk06jUZiCq+5Wb1kZNN4+wJxJuWt8RAW5am2sYNZ9rYCBzZ3buPKJ2P5Yj4Toy3keyIyJbIxs1rml1byCA84gpch5RQNB7Q0qNMGq2Hy4BXdNR41yz/cEEJfZzUz96r9PoB0okjeQ8y9TkAAAAAElFTkSuQmCC" y="-41.76"/>
   <g id="matplotlib.axis_1"/>
   <g id="matplotlib.axis_2">
    <g id="ytick_1">
     <g id="line2d_1">
      <defs>
       <path d="M 0 0 
L 3.5 0 
" id="ma361bc06d6" style="stroke:#000000;stroke-width:0.8;"/>
      </defs>
      <g>
       <use style="stroke:#000000;stroke-width:0.8;" x="374.4576" xlink:href="#ma361bc06d6" y="282.876586"/>
      </g>
     </g>
     <g id="text_2">
      <!-- −8.5 -->
      <defs>
       <path d="M 10.59375 35.5 
L 73.1875 35.5 
L 73.1875 27.203125 
L 10.59375 27.203125 
z
" id="DejaVuSans-2212"/>
       <path d="M 10.796875 72.90625 
L 49.515625 72.90625 
L 49.515625 64.59375 
L 19.828125 64.59375 
L 19.828125 46.734375 
Q 21.96875 47.46875 24.109375 47.828125 
Q 26.265625 48.1875 28.421875 48.1875 
Q 40.625 48.1875 47.75 41.5 
Q 54.890625 34.8125 54.890625 23.390625 
Q 54.890625 11.625 47.5625 5.09375 
Q 40.234375 -1.421875 26.90625 -1.421875 
Q 22.3125 -1.421875 17.546875 -0.640625 
Q 12.796875 0.140625 7.71875 1.703125 
L 7.71875 11.625 
Q 12.109375 9.234375 16.796875 8.0625 
Q 21.484375 6.890625 26.703125 6.890625 
Q 35.15625 6.890625 40.078125 11.328125 
Q 45.015625 15.765625 45.015625 23.390625 
Q 45.015625 31 40.078125 35.4375 
Q 35.15625 39.890625 26.703125 39.890625 
Q 22.75 39.890625 18.8125 39.015625 
Q 14.890625 38.140625 10.796875 36.28125 
z
" id="DejaVuSans-35"/>
      </defs>
      <g transform="translate(381.4576 286.675805)scale(0.1 -0.1)">
       <use xlink:href="#DejaVuSans-2212"/>
       <use x="83.789062" xlink:href="#DejaVuSans-38"/>
       <use x="147.412109" xlink:href="#DejaVuSans-2e"/>
       <use x="179.199219" xlink:href="#DejaVuSans-35"/>
      </g>
     </g>
    </g>
    <g id="ytick_2">
     <g id="line2d_2">
      <g>
       <use style="stroke:#000000;stroke-width:0.8;" x="374.4576" xlink:href="#ma361bc06d6" y="249.984811"/>
      </g>
     </g>
     <g id="text_3">
      <!-- −8.0 -->
      <g transform="translate(381.4576 253.78403)scale(0.1 -0.1)">
       <use xlink:href="#DejaVuSans-2212"/>
       <use x="83.789062" xlink:href="#DejaVuSans-38"/>
       <use x="147.412109" xlink:href="#DejaVuSans-2e"/>
       <use x="179.199219" xlink:href="#DejaVuSans-30"/>
      </g>
     </g>
    </g>
    <g id="ytick_3">
     <g id="line2d_3">
      <g>
       <use style="stroke:#000000;stroke-width:0.8;" x="374.4576" xlink:href="#ma361bc06d6" y="217.093036"/>
      </g>
     </g>
     <g id="text_4">
      <!-- −7.5 -->
      <defs>
       <path d="M 8.203125 72.90625 
L 55.078125 72.90625 
L 55.078125 68.703125 
L 28.609375 0 
L 18.3125 0 
L 43.21875 64.59375 
L 8.203125 64.59375 
z
" id="DejaVuSans-37"/>
      </defs>
      <g transform="translate(381.4576 220.892255)scale(0.1 -0.1)">
       <use xlink:href="#DejaVuSans-2212"/>
       <use x="83.789062" xlink:href="#DejaVuSans-37"/>
       <use x="147.412109" xlink:href="#DejaVuSans-2e"/>
       <use x="179.199219" xlink:href="#DejaVuSans-35"/>
      </g>
     </g>
    </g>
    <g id="ytick_4">
     <g id="line2d_4">
      <g>
       <use style="stroke:#000000;stroke-width:0.8;" x="374.4576" xlink:href="#ma361bc06d6" y="184.201261"/>
      </g>
     </g>
     <g id="text_5">
      <!-- −7.0 -->
      <g transform="translate(381.4576 188.00048)scale(0.1 -0.1)">
       <use xlink:href="#DejaVuSans-2212"/>
       <use x="83.789062" xlink:href="#DejaVuSans-37"/>
       <use x="147.412109" xlink:href="#DejaVuSans-2e"/>
       <use x="179.199219" xlink:href="#DejaVuSans-30"/>
      </g>
     </g>
    </g>
    <g id="ytick_5">
     <g id="line2d_5">
      <g>
       <use style="stroke:#000000;stroke-width:0.8;" x="374.4576" xlink:href="#ma361bc06d6" y="151.309486"/>
      </g>
     </g>
     <g id="text_6">
      <!-- −6.5 -->
      <g transform="translate(381.4576 155.108705)scale(0.1 -0.1)">
       <use xlink:href="#DejaVuSans-2212"/>
       <use x="83.789062" xlink:href="#DejaVuSans-36"/>
       <use x="147.412109" xlink:href="#DejaVuSans-2e"/>
       <use x="179.199219" xlink:href="#DejaVuSans-35"/>
      </g>
     </g>
    </g>
    <g id="ytick_6">
     <g id="line2d_6">
      <g>
       <use style="stroke:#000000;stroke-width:0.8;" x="374.4576" xlink:href="#ma361bc06d6" y="118.417711"/>
      </g>
     </g>
     <g id="text_7">
      <!-- −6.0 -->
      <g transform="translate(381.4576 122.216929)scale(0.1 -0.1)">
       <use xlink:href="#DejaVuSans-2212"/>
       <use x="83.789062" xlink:href="#DejaVuSans-36"/>
       <use x="147.412109" xlink:href="#DejaVuSans-2e"/>
       <use x="179.199219" xlink:href="#DejaVuSans-30"/>
      </g>
     </g>
    </g>
    <g id="ytick_7">
     <g id="line2d_7">
      <g>
       <use style="stroke:#000000;stroke-width:0.8;" x="374.4576" xlink:href="#ma361bc06d6" y="85.525936"/>
      </g>
     </g>
     <g id="text_8">
      <!-- −5.5 -->
      <g transform="translate(381.4576 89.325154)scale(0.1 -0.1)">
       <use xlink:href="#DejaVuSans-2212"/>
       <use x="83.789062" xlink:href="#DejaVuSans-35"/>
       <use x="147.412109" xlink:href="#DejaVuSans-2e"/>
       <use x="179.199219" xlink:href="#DejaVuSans-35"/>
      </g>
     </g>
    </g>
    <g id="ytick_8">
     <g id="line2d_8">
      <g>
       <use style="stroke:#000000;stroke-width:0.8;" x="374.4576" xlink:href="#ma361bc06d6" y="52.634161"/>
      </g>
     </g>
     <g id="text_9">
      <!-- −5.0 -->
      <g transform="translate(381.4576 56.433379)scale(0.1 -0.1)">
       <use xlink:href="#DejaVuSans-2212"/>
       <use x="83.789062" xlink:href="#DejaVuSans-35"/>
       <use x="147.412109" xlink:href="#DejaVuSans-2e"/>
       <use x="179.199219" xlink:href="#DejaVuSans-30"/>
      </g>
     </g>
    </g>
    <g id="text_10">
     <!-- Energy [eV] -->
     <defs>
      <path d="M 54.890625 33.015625 
L 54.890625 0 
L 45.90625 0 
L 45.90625 32.71875 
Q 45.90625 40.484375 42.875 44.328125 
Q 39.84375 48.1875 33.796875 48.1875 
Q 26.515625 48.1875 22.3125 43.546875 
Q 18.109375 38.921875 18.109375 30.90625 
L 18.109375 0 
L 9.078125 0 
L 9.078125 54.6875 
L 18.109375 54.6875 
L 18.109375 46.1875 
Q 21.34375 51.125 25.703125 53.5625 
Q 30.078125 56 35.796875 56 
Q 45.21875 56 50.046875 50.171875 
Q 54.890625 44.34375 54.890625 33.015625 
z
" id="DejaVuSans-6e"/>
      <path d="M 45.40625 27.984375 
Q 45.40625 37.75 41.375 43.109375 
Q 37.359375 48.484375 30.078125 48.484375 
Q 22.859375 48.484375 18.828125 43.109375 
Q 14.796875 37.75 14.796875 27.984375 
Q 14.796875 18.265625 18.828125 12.890625 
Q 22.859375 7.515625 30.078125 7.515625 
Q 37.359375 7.515625 41.375 12.890625 
Q 45.40625 18.265625 45.40625 27.984375 
z
M 54.390625 6.78125 
Q 54.390625 -7.171875 48.1875 -13.984375 
Q 42 -20.796875 29.203125 -20.796875 
Q 24.46875 -20.796875 20.265625 -20.09375 
Q 16.0625 -19.390625 12.109375 -17.921875 
L 12.109375 -9.1875 
Q 16.0625 -11.328125 19.921875 -12.34375 
Q 23.78125 -13.375 27.78125 -13.375 
Q 36.625 -13.375 41.015625 -8.765625 
Q 45.40625 -4.15625 45.40625 5.171875 
L 45.40625 9.625 
Q 42.625 4.78125 38.28125 2.390625 
Q 33.9375 0 27.875 0 
Q 17.828125 0 11.671875 7.65625 
Q 5.515625 15.328125 5.515625 27.984375 
Q 5.515625 40.671875 11.671875 48.328125 
Q 17.828125 56 27.875 56 
Q 33.9375 56 38.28125 53.609375 
Q 42.625 51.21875 45.40625 46.390625 
L 45.40625 54.6875 
L 54.390625 54.6875 
z
" id="DejaVuSans-67"/>
      <path d="M 32.171875 -5.078125 
Q 28.375 -14.84375 24.75 -17.8125 
Q 21.140625 -20.796875 15.09375 -20.796875 
L 7.90625 -20.796875 
L 7.90625 -13.28125 
L 13.1875 -13.28125 
Q 16.890625 -13.28125 18.9375 -11.515625 
Q 21 -9.765625 23.484375 -3.21875 
L 25.09375 0.875 
L 2.984375 54.6875 
L 12.5 54.6875 
L 29.59375 11.921875 
L 46.6875 54.6875 
L 56.203125 54.6875 
z
" id="DejaVuSans-79"/>
      <path d="M 8.59375 75.984375 
L 29.296875 75.984375 
L 29.296875 69 
L 17.578125 69 
L 17.578125 -6.203125 
L 29.296875 -6.203125 
L 29.296875 -13.1875 
L 8.59375 -13.1875 
z
" id="DejaVuSans-5b"/>
      <path d="M 30.421875 75.984375 
L 30.421875 -13.1875 
L 9.71875 -13.1875 
L 9.71875 -6.203125 
L 21.390625 -6.203125 
L 21.390625 69 
L 9.71875 69 
L 9.71875 75.984375 
z
" id="DejaVuSans-5d"/>
     </defs>
     <g transform="translate(417.33885 204.108469)rotate(-90)scale(0.1 -0.1)">
      <use xlink:href="#DejaVuSans-45"/>
      <use x="63.183594" xlink:href="#DejaVuSans-6e"/>
      <use x="126.5625" xlink:href="#DejaVuSans-65"/>
      <use x="188.085938" xlink:href="#DejaVuSans-72"/>
      <use x="229.183594" xlink:href="#DejaVuSans-67"/>
      <use x="292.660156" xlink:href="#DejaVuSans-79"/>
      <use x="351.839844" xlink:href="#DejaVuSans-20"/>
      <use x="383.626953" xlink:href="#DejaVuSans-5b"/>
      <use x="422.640625" xlink:href="#DejaVuSans-65"/>
      <use x="484.164062" xlink:href="#DejaVuSans-56"/>
      <use x="552.572266" xlink:href="#DejaVuSans-5d"/>
     </g>
    </g>
   </g>
   <g id="patch_3">
    <path d="M 361.152 307.584 
L 361.152 306.5445 
L 361.152 42.5115 
L 361.152 41.472 
L 374.4576 41.472 
L 374.4576 42.5115 
L 374.4576 306.5445 
L 374.4576 307.584 
z
" style="fill:none;stroke:#000000;stroke-linejoin:miter;stroke-width:0.8;"/>
   </g>
  </g>
 </g>
 <defs>
  <clipPath id="pd6106c17ed">
   <rect height="266.112" width="285.696" x="57.6" y="41.472"/>
  </clipPath>
  <clipPath id="pe348f12355">
   <rect height="266.112" width="13.3056" x="361.152" y="41.472"/>
  </clipPath>
 </defs>
</svg>
