<?xml version="1.0" encoding="utf-8" standalone="no"?>
<!DOCTYPE svg PUBLIC "-//W3C//DTD SVG 1.1//EN"
  "http://www.w3.org/Graphics/SVG/1.1/DTD/svg11.dtd">
<!-- Created with matplotlib (http://matplotlib.org/) -->
<svg height="345.6pt" version="1.1" viewBox="0 0 460.8 345.6" width="460.8pt" xmlns="http://www.w3.org/2000/svg" xmlns:xlink="http://www.w3.org/1999/xlink">
 <defs>
  <style type="text/css">
*{stroke-linecap:butt;stroke-linejoin:round;}
  </style>
 </defs>
 <g id="figure_1">
  <g id="patch_1">
   <path d="M 0 345.6 
L 460.8 345.6 
L 460.8 0 
L 0 0 
z
" style="fill:#ffffff;"/>
  </g>
  <g id="axes_1">
   <g id="CircleCollection_1">
    <path clip-path="url(#p3c0fb7b8e1)" d="M 198.55138 195.759847 
C 200.233529 195.759847 201.847007 195.091522 203.036466 193.902063 
C 204.225925 192.712604 204.89425 191.099126 204.89425 189.416977 
C 204.89425 187.734828 204.225925 186.121349 203.036466 184.93189 
C 201.847007 183.742431 200.233529 183.074106 198.55138 183.074106 
C 196.869231 183.074106 195.255752 183.742431 194.066293 184.93189 
C 192.876834 186.121349 192.208509 187.734828 192.208509 189.416977 
C 192.208509 191.099126 192.876834 192.712604 194.066293 193.902063 
C 195.255752 195.091522 196.869231 195.759847 198.55138 195.759847 
z
" style="fill:#482878;"/>
    <path clip-path="url(#p3c0fb7b8e1)" d="M 235.3362 113.462546 
C 237.076433 113.462546 238.745625 112.771145 239.976156 111.540614 
C 241.206686 110.310083 241.898088 108.640891 241.898088 106.900658 
C 241.898088 105.160425 241.206686 103.491233 239.976156 102.260703 
C 238.745625 101.030172 237.076433 100.33877 235.3362 100.33877 
C 233.595967 100.33877 231.926775 101.030172 230.696244 102.260703 
C 229.465714 103.491233 228.774312 105.160425 228.774312 106.900658 
C 228.774312 108.640891 229.465714 110.310083 230.696244 111.540614 
C 231.926775 112.771145 233.595967 113.462546 235.3362 113.462546 
z
" style="fill:#482576;"/>
    <path clip-path="url(#p3c0fb7b8e1)" d="M 164.03243 248.900905 
C 165.753591 248.900905 167.40449 248.21708 168.621535 247.000035 
C 169.83858 245.78299 170.522404 244.132092 170.522404 242.41093 
C 170.522404 240.689769 169.83858 239.03887 168.621535 237.821826 
C 167.40449 236.604781 165.753591 235.920956 164.03243 235.920956 
C 162.311269 235.920956 160.66037 236.604781 159.443325 237.821826 
C 158.22628 239.03887 157.542456 240.689769 157.542456 242.41093 
C 157.542456 244.132092 158.22628 245.78299 159.443325 247.000035 
C 160.66037 248.21708 162.311269 248.900905 164.03243 248.900905 
z
" style="fill:#277e8e;"/>
    <path clip-path="url(#p3c0fb7b8e1)" d="M 305.718234 180.094317 
C 307.410643 180.094317 309.033964 179.421915 310.230678 178.225201 
C 311.427392 177.028487 312.099793 175.405166 312.099793 173.712757 
C 312.099793 172.020348 311.427392 170.397027 310.230678 169.200313 
C 309.033964 168.003599 307.410643 167.331197 305.718234 167.331197 
C 304.025824 167.331197 302.402504 168.003599 301.20579 169.200313 
C 300.009075 170.397027 299.336674 172.020348 299.336674 173.712757 
C 299.336674 175.405166 300.009075 177.028487 301.20579 178.225201 
C 302.402504 179.421915 304.025824 180.094317 305.718234 180.094317 
z
" style="fill:#1f988b;"/>
    <path clip-path="url(#p3c0fb7b8e1)" d="M 291.341051 213.520685 
C 293.047168 213.520685 294.683637 212.842837 295.890044 211.636431 
C 297.096451 210.430024 297.774298 208.793555 297.774298 207.087438 
C 297.774298 205.381321 297.096451 203.744852 295.890044 202.538445 
C 294.683637 201.332038 293.047168 200.654191 291.341051 200.654191 
C 289.634934 200.654191 287.998465 201.332038 286.792058 202.538445 
C 285.585652 203.744852 284.907804 205.381321 284.907804 207.087438 
C 284.907804 208.793555 285.585652 210.430024 286.792058 211.636431 
C 287.998465 212.842837 289.634934 213.520685 291.341051 213.520685 
z
" style="fill:#2a778e;"/>
    <path clip-path="url(#p3c0fb7b8e1)" d="M 269.841706 236.226746 
C 271.601502 236.226746 273.289458 235.527572 274.533821 234.283208 
C 275.778185 233.038845 276.477359 231.350889 276.477359 229.591093 
C 276.477359 227.831298 275.778185 226.143342 274.533821 224.898978 
C 273.289458 223.654615 271.601502 222.95544 269.841706 222.95544 
C 268.081911 222.95544 266.393955 223.654615 265.149591 224.898978 
C 263.905228 226.143342 263.206054 227.831298 263.206054 229.591093 
C 263.206054 231.350889 263.905228 233.038845 265.149591 234.283208 
C 266.393955 235.527572 268.081911 236.226746 269.841706 236.226746 
z
" style="fill:#26828e;"/>
    <path clip-path="url(#p3c0fb7b8e1)" d="M 233.755651 239.771189 
C 235.513219 239.771189 237.199039 239.0729 238.441827 237.830112 
C 239.684616 236.587323 240.382905 234.901504 240.382905 233.143935 
C 240.382905 231.386367 239.684616 229.700548 238.441827 228.457759 
C 237.199039 227.214971 235.513219 226.516682 233.755651 226.516682 
C 231.998083 226.516682 230.312263 227.214971 229.069475 228.457759 
C 227.826687 229.700548 227.128397 231.386367 227.128397 233.143935 
C 227.128397 234.901504 227.826687 236.587323 229.069475 237.830112 
C 230.312263 239.0729 231.998083 239.771189 233.755651 239.771189 
z
" style="fill:#1f988b;"/>
    <path clip-path="url(#p3c0fb7b8e1)" d="M 291.827704 150.066959 
C 293.563349 150.066959 295.228139 149.37738 296.455425 148.150094 
C 297.682711 146.922808 298.37229 145.258018 298.37229 143.522373 
C 298.37229 141.786729 297.682711 140.121938 296.455425 138.894652 
C 295.228139 137.667366 293.563349 136.977787 291.827704 136.977787 
C 290.09206 136.977787 288.427269 137.667366 287.199983 138.894652 
C 285.972697 140.121938 285.283118 141.786729 285.283118 143.522373 
C 285.283118 145.258018 285.972697 146.922808 287.199983 148.150094 
C 288.427269 149.37738 290.09206 150.066959 291.827704 150.066959 
z
" style="fill:#433e85;"/>
    <path clip-path="url(#p3c0fb7b8e1)" d="M 150.290176 146.662351 
C 151.947181 146.662351 153.536542 146.004016 154.708221 144.832337 
C 155.8799 143.660658 156.538235 142.071297 156.538235 140.414292 
C 156.538235 138.757288 155.8799 137.167927 154.708221 135.996248 
C 153.536542 134.824569 151.947181 134.166234 150.290176 134.166234 
C 148.633172 134.166234 147.043811 134.824569 145.872131 135.996248 
C 144.700452 137.167927 144.042117 138.757288 144.042117 140.414292 
C 144.042117 142.071297 144.700452 143.660658 145.872131 144.832337 
C 147.043811 146.004016 148.633172 146.662351 150.290176 146.662351 
z
" style="fill:#2e6f8e;"/>
    <path clip-path="url(#p3c0fb7b8e1)" d="M 197.501902 102.745351 
C 199.224631 102.745351 200.877034 102.060903 202.095187 100.84275 
C 203.31334 99.624597 203.997788 97.972194 203.997788 96.249465 
C 203.997788 94.526736 203.31334 92.874334 202.095187 91.65618 
C 200.877034 90.438027 199.224631 89.753579 197.501902 89.753579 
C 195.779173 89.753579 194.126771 90.438027 192.908617 91.65618 
C 191.690464 92.874334 191.006017 94.526736 191.006017 96.249465 
C 191.006017 97.972194 191.690464 99.624597 192.908617 100.84275 
C 194.126771 102.060903 195.779173 102.745351 197.501902 102.745351 
z
" style="fill:#24868e;"/>
    <path clip-path="url(#p3c0fb7b8e1)" d="M 302.57678 119.573516 
C 304.352309 119.573516 306.055356 118.868091 307.310844 117.612602 
C 308.566333 116.357114 309.271758 114.654067 309.271758 112.878538 
C 309.271758 111.103009 308.566333 109.399962 307.310844 108.144473 
C 306.055356 106.888984 304.352309 106.183559 302.57678 106.183559 
C 300.801251 106.183559 299.098204 106.888984 297.842715 108.144473 
C 296.587226 109.399962 295.881801 111.103009 295.881801 112.878538 
C 295.881801 114.654067 296.587226 116.357114 297.842715 117.612602 
C 299.098204 118.868091 300.801251 119.573516 302.57678 119.573516 
z
" style="fill:#404688;"/>
    <path clip-path="url(#p3c0fb7b8e1)" d="M 169.485434 120.63186 
C 171.179855 120.63186 172.805106 119.958659 174.003243 118.760522 
C 175.201381 117.562385 175.874582 115.937134 175.874582 114.242712 
C 175.874582 112.54829 175.201381 110.92304 174.003243 109.724902 
C 172.805106 108.526765 171.179855 107.853564 169.485434 107.853564 
C 167.791012 107.853564 166.165761 108.526765 164.967624 109.724902 
C 163.769487 110.92304 163.096286 112.54829 163.096286 114.242712 
C 163.096286 115.937134 163.769487 117.562385 164.967624 118.760522 
C 166.165761 119.958659 167.791012 120.63186 169.485434 120.63186 
z
" style="fill:#27808e;"/>
    <path clip-path="url(#p3c0fb7b8e1)" d="M 197.070412 229.414941 
C 198.793273 229.414941 200.445801 228.730442 201.664048 227.512195 
C 202.882294 226.293949 203.566794 224.64142 203.566794 222.91856 
C 203.566794 221.195699 202.882294 219.54317 201.664048 218.324924 
C 200.445801 217.106678 198.793273 216.422178 197.070412 216.422178 
C 195.347551 216.422178 193.695023 217.106678 192.476776 218.324924 
C 191.25853 219.54317 190.57403 221.195699 190.57403 222.91856 
C 190.57403 224.64142 191.25853 226.293949 192.476776 227.512195 
C 193.695023 228.730442 195.347551 229.414941 197.070412 229.414941 
z
" style="fill:#440154;"/>
    <path clip-path="url(#p3c0fb7b8e1)" d="M 290.294188 66.263898 
C 292.064732 66.263898 293.762997 65.560454 295.014961 64.30849 
C 296.266924 63.056526 296.970369 61.358261 296.970369 59.587717 
C 296.970369 57.817173 296.266924 56.118908 295.014961 54.866944 
C 293.762997 53.61498 292.064732 52.911536 290.294188 52.911536 
C 288.523644 52.911536 286.825378 53.61498 285.573414 54.866944 
C 284.321451 56.118908 283.618006 57.817173 283.618006 59.587717 
C 283.618006 61.358261 284.321451 63.056526 285.573414 64.30849 
C 286.825378 65.560454 288.523644 66.263898 290.294188 66.263898 
z
" style="fill:#48c16e;"/>
    <path clip-path="url(#p3c0fb7b8e1)" d="M 327.366271 60.842419 
C 329.172361 60.842419 330.904721 60.124852 332.18182 58.847753 
C 333.458918 57.570655 334.176485 55.838294 334.176485 54.032205 
C 334.176485 52.226115 333.458918 50.493754 332.18182 49.216656 
C 330.904721 47.939557 329.172361 47.22199 327.366271 47.22199 
C 325.560181 47.22199 323.827821 47.939557 322.550723 49.216656 
C 321.273624 50.493754 320.556057 52.226115 320.556057 54.032205 
C 320.556057 55.838294 321.273624 57.570655 322.550723 58.847753 
C 323.827821 60.124852 325.560181 60.842419 327.366271 60.842419 
z
" style="fill:#37b878;"/>
    <path clip-path="url(#p3c0fb7b8e1)" d="M 268.139179 96.648963 
C 269.915461 96.648963 271.619231 95.943239 272.875252 94.687218 
C 274.131273 93.431196 274.836998 91.727427 274.836998 89.951145 
C 274.836998 88.174863 274.131273 86.471093 272.875252 85.215072 
C 271.619231 83.959051 269.915461 83.253326 268.139179 83.253326 
C 266.362897 83.253326 264.659127 83.959051 263.403106 85.215072 
C 262.147085 86.471093 261.441361 88.174863 261.441361 89.951145 
C 261.441361 91.727427 262.147085 93.431196 263.403106 94.687218 
C 264.659127 95.943239 266.362897 96.648963 268.139179 96.648963 
z
" style="fill:#3a548c;"/>
    <path clip-path="url(#p3c0fb7b8e1)" d="M 271.184268 193.18335 
C 272.827368 193.18335 274.403392 192.53054 275.565239 191.368693 
C 276.727086 190.206846 277.379897 188.630821 277.379897 186.987721 
C 277.379897 185.344621 276.727086 183.768597 275.565239 182.60675 
C 274.403392 181.444903 272.827368 180.792092 271.184268 180.792092 
C 269.541168 180.792092 267.965144 181.444903 266.803296 182.60675 
C 265.641449 183.768597 264.988639 185.344621 264.988639 186.987721 
C 264.988639 188.630821 265.641449 190.206846 266.803296 191.368693 
C 267.965144 192.53054 269.541168 193.18335 271.184268 193.18335 
z
" style="fill:#21908d;"/>
    <path clip-path="url(#p3c0fb7b8e1)" d="M 236.057841 177.086287 
C 237.729053 177.086287 239.332042 176.422307 240.513768 175.240582 
C 241.695494 174.058856 242.359473 172.455867 242.359473 170.784655 
C 242.359473 169.113442 241.695494 167.510453 240.513768 166.328728 
C 239.332042 165.147002 237.729053 164.483022 236.057841 164.483022 
C 234.386629 164.483022 232.78364 165.147002 231.601914 166.328728 
C 230.420188 167.510453 229.756209 169.113442 229.756209 170.784655 
C 229.756209 172.455867 230.420188 174.058856 231.601914 175.240582 
C 232.78364 176.422307 234.386629 177.086287 236.057841 177.086287 
z
" style="fill:#3f4889;"/>
    <path clip-path="url(#p3c0fb7b8e1)" d="M 329.919305 93.256203 
C 331.698643 93.256203 333.405344 92.549264 334.663526 91.291082 
C 335.921708 90.0329 336.628646 88.3262 336.628646 86.546862 
C 336.628646 84.767524 335.921708 83.060823 334.663526 81.802641 
C 333.405344 80.544459 331.698643 79.83752 329.919305 79.83752 
C 328.139967 79.83752 326.433266 80.544459 325.175084 81.802641 
C 323.916902 83.060823 323.209964 84.767524 323.209964 86.546862 
C 323.209964 88.3262 323.916902 90.0329 325.175084 91.291082 
C 326.433266 92.549264 328.139967 93.256203 329.919305 93.256203 
z
" style="fill:#25ab82;"/>
    <path clip-path="url(#p3c0fb7b8e1)" d="M 101.559121 283.620254 
C 103.251817 283.620254 104.875412 282.947739 106.072329 281.750822 
C 107.269246 280.553905 107.941761 278.93031 107.941761 277.237614 
C 107.941761 275.544917 107.269246 273.921322 106.072329 272.724405 
C 104.875412 271.527488 103.251817 270.854973 101.559121 270.854973 
C 99.866425 270.854973 98.242829 271.527488 97.045913 272.724405 
C 95.848996 273.921322 95.17648 275.544917 95.17648 277.237614 
C 95.17648 278.93031 95.848996 280.553905 97.045913 281.750822 
C 98.242829 282.947739 99.866425 283.620254 101.559121 283.620254 
z
" style="fill:#2e6f8e;"/>
    <path clip-path="url(#p3c0fb7b8e1)" d="M 166.56693 175.985216 
C 168.231212 175.985216 169.827554 175.32399 171.004379 174.147165 
C 172.181204 172.970339 172.84243 171.373998 172.84243 169.709716 
C 172.84243 168.045434 172.181204 166.449092 171.004379 165.272267 
C 169.827554 164.095442 168.231212 163.434215 166.56693 163.434215 
C 164.902648 163.434215 163.306306 164.095442 162.129481 165.272267 
C 160.952656 166.449092 160.29143 168.045434 160.29143 169.709716 
C 160.29143 171.373998 160.952656 172.970339 162.129481 174.147165 
C 163.306306 175.32399 164.902648 175.985216 166.56693 175.985216 
z
" style="fill:#1f998a;"/>
    <path clip-path="url(#p3c0fb7b8e1)" d="M 249.946125 147.830794 
C 251.663832 147.830794 253.311417 147.148342 254.526019 145.93374 
C 255.740621 144.719138 256.423073 143.071553 256.423073 141.353846 
C 256.423073 139.636139 255.740621 137.988554 254.526019 136.773952 
C 253.311417 135.55935 251.663832 134.876897 249.946125 134.876897 
C 248.228418 134.876897 246.580833 135.55935 245.366231 136.773952 
C 244.151629 137.988554 243.469177 139.636139 243.469177 141.353846 
C 243.469177 143.071553 244.151629 144.719138 245.366231 145.93374 
C 246.580833 147.148342 248.228418 147.830794 249.946125 147.830794 
z
" style="fill:#39558c;"/>
    <path clip-path="url(#p3c0fb7b8e1)" d="M 70.953523 301.36904 
C 72.627282 301.36904 74.232713 300.704049 75.416239 299.520523 
C 76.599765 298.336997 77.264756 296.731566 77.264756 295.057808 
C 77.264756 293.384049 76.599765 291.778618 75.416239 290.595092 
C 74.232713 289.411566 72.627282 288.746575 70.953523 288.746575 
C 69.279765 288.746575 67.674334 289.411566 66.490808 290.595092 
C 65.307282 291.778618 64.642291 293.384049 64.642291 295.057808 
C 64.642291 296.731566 65.307282 298.336997 66.490808 299.520523 
C 67.674334 300.704049 69.279765 301.36904 70.953523 301.36904 
z
" style="fill:#fde725;"/>
    <path clip-path="url(#p3c0fb7b8e1)" d="M 133.418392 265.57238 
C 135.125544 265.57238 136.763005 264.894122 137.970144 263.686983 
C 139.177282 262.479844 139.855541 260.842383 139.855541 259.135231 
C 139.855541 257.428079 139.177282 255.790618 137.970144 254.583479 
C 136.763005 253.37634 135.125544 252.698082 133.418392 252.698082 
C 131.71124 252.698082 130.073779 253.37634 128.86664 254.583479 
C 127.659501 255.790618 126.981242 257.428079 126.981242 259.135231 
C 126.981242 260.842383 127.659501 262.479844 128.86664 263.686983 
C 130.073779 264.894122 131.71124 265.57238 133.418392 265.57238 
z
" style="fill:#375a8c;"/>
   </g>
   <g id="text_1">
    <!-- Structure #10049, $E_N$=-177.76eV, ΔE=0.14eV -->
    <defs>
     <path d="M 53.515625 70.515625 
L 53.515625 60.890625 
Q 47.90625 63.578125 42.921875 64.890625 
Q 37.9375 66.21875 33.296875 66.21875 
Q 25.25 66.21875 20.875 63.09375 
Q 16.5 59.96875 16.5 54.203125 
Q 16.5 49.359375 19.40625 46.890625 
Q 22.3125 44.4375 30.421875 42.921875 
L 36.375 41.703125 
Q 47.40625 39.59375 52.65625 34.296875 
Q 57.90625 29 57.90625 20.125 
Q 57.90625 9.515625 50.796875 4.046875 
Q 43.703125 -1.421875 29.984375 -1.421875 
Q 24.8125 -1.421875 18.96875 -0.25 
Q 13.140625 0.921875 6.890625 3.21875 
L 6.890625 13.375 
Q 12.890625 10.015625 18.65625 8.296875 
Q 24.421875 6.59375 29.984375 6.59375 
Q 38.421875 6.59375 43.015625 9.90625 
Q 47.609375 13.234375 47.609375 19.390625 
Q 47.609375 24.75 44.3125 27.78125 
Q 41.015625 30.8125 33.5 32.328125 
L 27.484375 33.5 
Q 16.453125 35.6875 11.515625 40.375 
Q 6.59375 45.0625 6.59375 53.421875 
Q 6.59375 63.09375 13.40625 68.65625 
Q 20.21875 74.21875 32.171875 74.21875 
Q 37.3125 74.21875 42.625 73.28125 
Q 47.953125 72.359375 53.515625 70.515625 
z
" id="DejaVuSans-53"/>
     <path d="M 18.3125 70.21875 
L 18.3125 54.6875 
L 36.8125 54.6875 
L 36.8125 47.703125 
L 18.3125 47.703125 
L 18.3125 18.015625 
Q 18.3125 11.328125 20.140625 9.421875 
Q 21.96875 7.515625 27.59375 7.515625 
L 36.8125 7.515625 
L 36.8125 0 
L 27.59375 0 
Q 17.1875 0 13.234375 3.875 
Q 9.28125 7.765625 9.28125 18.015625 
L 9.28125 47.703125 
L 2.6875 47.703125 
L 2.6875 54.6875 
L 9.28125 54.6875 
L 9.28125 70.21875 
z
" id="DejaVuSans-74"/>
     <path d="M 41.109375 46.296875 
Q 39.59375 47.171875 37.8125 47.578125 
Q 36.03125 48 33.890625 48 
Q 26.265625 48 22.1875 43.046875 
Q 18.109375 38.09375 18.109375 28.8125 
L 18.109375 0 
L 9.078125 0 
L 9.078125 54.6875 
L 18.109375 54.6875 
L 18.109375 46.1875 
Q 20.953125 51.171875 25.484375 53.578125 
Q 30.03125 56 36.53125 56 
Q 37.453125 56 38.578125 55.875 
Q 39.703125 55.765625 41.0625 55.515625 
z
" id="DejaVuSans-72"/>
     <path d="M 8.5 21.578125 
L 8.5 54.6875 
L 17.484375 54.6875 
L 17.484375 21.921875 
Q 17.484375 14.15625 20.5 10.265625 
Q 23.53125 6.390625 29.59375 6.390625 
Q 36.859375 6.390625 41.078125 11.03125 
Q 45.3125 15.671875 45.3125 23.6875 
L 45.3125 54.6875 
L 54.296875 54.6875 
L 54.296875 0 
L 45.3125 0 
L 45.3125 8.40625 
Q 42.046875 3.421875 37.71875 1 
Q 33.40625 -1.421875 27.6875 -1.421875 
Q 18.265625 -1.421875 13.375 4.4375 
Q 8.5 10.296875 8.5 21.578125 
z
M 31.109375 56 
z
" id="DejaVuSans-75"/>
     <path d="M 48.78125 52.59375 
L 48.78125 44.1875 
Q 44.96875 46.296875 41.140625 47.34375 
Q 37.3125 48.390625 33.40625 48.390625 
Q 24.65625 48.390625 19.8125 42.84375 
Q 14.984375 37.3125 14.984375 27.296875 
Q 14.984375 17.28125 19.8125 11.734375 
Q 24.65625 6.203125 33.40625 6.203125 
Q 37.3125 6.203125 41.140625 7.25 
Q 44.96875 8.296875 48.78125 10.40625 
L 48.78125 2.09375 
Q 45.015625 0.34375 40.984375 -0.53125 
Q 36.96875 -1.421875 32.421875 -1.421875 
Q 20.0625 -1.421875 12.78125 6.34375 
Q 5.515625 14.109375 5.515625 27.296875 
Q 5.515625 40.671875 12.859375 48.328125 
Q 20.21875 56 33.015625 56 
Q 37.15625 56 41.109375 55.140625 
Q 45.0625 54.296875 48.78125 52.59375 
z
" id="DejaVuSans-63"/>
     <path d="M 56.203125 29.59375 
L 56.203125 25.203125 
L 14.890625 25.203125 
Q 15.484375 15.921875 20.484375 11.0625 
Q 25.484375 6.203125 34.421875 6.203125 
Q 39.59375 6.203125 44.453125 7.46875 
Q 49.3125 8.734375 54.109375 11.28125 
L 54.109375 2.78125 
Q 49.265625 0.734375 44.1875 -0.34375 
Q 39.109375 -1.421875 33.890625 -1.421875 
Q 20.796875 -1.421875 13.15625 6.1875 
Q 5.515625 13.8125 5.515625 26.8125 
Q 5.515625 40.234375 12.765625 48.109375 
Q 20.015625 56 32.328125 56 
Q 43.359375 56 49.78125 48.890625 
Q 56.203125 41.796875 56.203125 29.59375 
z
M 47.21875 32.234375 
Q 47.125 39.59375 43.09375 43.984375 
Q 39.0625 48.390625 32.421875 48.390625 
Q 24.90625 48.390625 20.390625 44.140625 
Q 15.875 39.890625 15.1875 32.171875 
z
" id="DejaVuSans-65"/>
     <path id="DejaVuSans-20"/>
     <path d="M 51.125 44 
L 36.921875 44 
L 32.8125 27.6875 
L 47.125 27.6875 
z
M 43.796875 71.78125 
L 38.71875 51.515625 
L 52.984375 51.515625 
L 58.109375 71.78125 
L 65.921875 71.78125 
L 60.890625 51.515625 
L 76.125 51.515625 
L 76.125 44 
L 58.984375 44 
L 54.984375 27.6875 
L 70.515625 27.6875 
L 70.515625 20.21875 
L 53.078125 20.21875 
L 48 0 
L 40.1875 0 
L 45.21875 20.21875 
L 30.90625 20.21875 
L 25.875 0 
L 18.015625 0 
L 23.09375 20.21875 
L 7.71875 20.21875 
L 7.71875 27.6875 
L 24.90625 27.6875 
L 29 44 
L 13.28125 44 
L 13.28125 51.515625 
L 30.90625 51.515625 
L 35.890625 71.78125 
z
" id="DejaVuSans-23"/>
     <path d="M 12.40625 8.296875 
L 28.515625 8.296875 
L 28.515625 63.921875 
L 10.984375 60.40625 
L 10.984375 69.390625 
L 28.421875 72.90625 
L 38.28125 72.90625 
L 38.28125 8.296875 
L 54.390625 8.296875 
L 54.390625 0 
L 12.40625 0 
z
" id="DejaVuSans-31"/>
     <path d="M 31.78125 66.40625 
Q 24.171875 66.40625 20.328125 58.90625 
Q 16.5 51.421875 16.5 36.375 
Q 16.5 21.390625 20.328125 13.890625 
Q 24.171875 6.390625 31.78125 6.390625 
Q 39.453125 6.390625 43.28125 13.890625 
Q 47.125 21.390625 47.125 36.375 
Q 47.125 51.421875 43.28125 58.90625 
Q 39.453125 66.40625 31.78125 66.40625 
z
M 31.78125 74.21875 
Q 44.046875 74.21875 50.515625 64.515625 
Q 56.984375 54.828125 56.984375 36.375 
Q 56.984375 17.96875 50.515625 8.265625 
Q 44.046875 -1.421875 31.78125 -1.421875 
Q 19.53125 -1.421875 13.0625 8.265625 
Q 6.59375 17.96875 6.59375 36.375 
Q 6.59375 54.828125 13.0625 64.515625 
Q 19.53125 74.21875 31.78125 74.21875 
z
" id="DejaVuSans-30"/>
     <path d="M 37.796875 64.3125 
L 12.890625 25.390625 
L 37.796875 25.390625 
z
M 35.203125 72.90625 
L 47.609375 72.90625 
L 47.609375 25.390625 
L 58.015625 25.390625 
L 58.015625 17.1875 
L 47.609375 17.1875 
L 47.609375 0 
L 37.796875 0 
L 37.796875 17.1875 
L 4.890625 17.1875 
L 4.890625 26.703125 
z
" id="DejaVuSans-34"/>
     <path d="M 10.984375 1.515625 
L 10.984375 10.5 
Q 14.703125 8.734375 18.5 7.8125 
Q 22.3125 6.890625 25.984375 6.890625 
Q 35.75 6.890625 40.890625 13.453125 
Q 46.046875 20.015625 46.78125 33.40625 
Q 43.953125 29.203125 39.59375 26.953125 
Q 35.25 24.703125 29.984375 24.703125 
Q 19.046875 24.703125 12.671875 31.3125 
Q 6.296875 37.9375 6.296875 49.421875 
Q 6.296875 60.640625 12.9375 67.421875 
Q 19.578125 74.21875 30.609375 74.21875 
Q 43.265625 74.21875 49.921875 64.515625 
Q 56.59375 54.828125 56.59375 36.375 
Q 56.59375 19.140625 48.40625 8.859375 
Q 40.234375 -1.421875 26.421875 -1.421875 
Q 22.703125 -1.421875 18.890625 -0.6875 
Q 15.09375 0.046875 10.984375 1.515625 
z
M 30.609375 32.421875 
Q 37.25 32.421875 41.125 36.953125 
Q 45.015625 41.5 45.015625 49.421875 
Q 45.015625 57.28125 41.125 61.84375 
Q 37.25 66.40625 30.609375 66.40625 
Q 23.96875 66.40625 20.09375 61.84375 
Q 16.21875 57.28125 16.21875 49.421875 
Q 16.21875 41.5 20.09375 36.953125 
Q 23.96875 32.421875 30.609375 32.421875 
z
" id="DejaVuSans-39"/>
     <path d="M 11.71875 12.40625 
L 22.015625 12.40625 
L 22.015625 4 
L 14.015625 -11.625 
L 7.71875 -11.625 
L 11.71875 4 
z
" id="DejaVuSans-2c"/>
     <path d="M 16.890625 72.90625 
L 62.984375 72.90625 
L 61.375 64.59375 
L 25.09375 64.59375 
L 20.90625 43.015625 
L 55.71875 43.015625 
L 54.109375 34.71875 
L 19.28125 34.71875 
L 14.203125 8.296875 
L 51.3125 8.296875 
L 49.703125 0 
L 2.6875 0 
z
" id="DejaVuSans-Oblique-45"/>
     <path d="M 16.890625 72.90625 
L 30.171875 72.90625 
L 50.296875 10.40625 
L 62.5 72.90625 
L 72.125 72.90625 
L 57.90625 0 
L 44.578125 0 
L 24.515625 62.890625 
L 12.3125 0 
L 2.6875 0 
z
" id="DejaVuSans-Oblique-4e"/>
     <path d="M 10.59375 45.40625 
L 73.1875 45.40625 
L 73.1875 37.203125 
L 10.59375 37.203125 
z
M 10.59375 25.484375 
L 73.1875 25.484375 
L 73.1875 17.1875 
L 10.59375 17.1875 
z
" id="DejaVuSans-3d"/>
     <path d="M 4.890625 31.390625 
L 31.203125 31.390625 
L 31.203125 23.390625 
L 4.890625 23.390625 
z
" id="DejaVuSans-2d"/>
     <path d="M 8.203125 72.90625 
L 55.078125 72.90625 
L 55.078125 68.703125 
L 28.609375 0 
L 18.3125 0 
L 43.21875 64.59375 
L 8.203125 64.59375 
z
" id="DejaVuSans-37"/>
     <path d="M 10.6875 12.40625 
L 21 12.40625 
L 21 0 
L 10.6875 0 
z
" id="DejaVuSans-2e"/>
     <path d="M 33.015625 40.375 
Q 26.375 40.375 22.484375 35.828125 
Q 18.609375 31.296875 18.609375 23.390625 
Q 18.609375 15.53125 22.484375 10.953125 
Q 26.375 6.390625 33.015625 6.390625 
Q 39.65625 6.390625 43.53125 10.953125 
Q 47.40625 15.53125 47.40625 23.390625 
Q 47.40625 31.296875 43.53125 35.828125 
Q 39.65625 40.375 33.015625 40.375 
z
M 52.59375 71.296875 
L 52.59375 62.3125 
Q 48.875 64.0625 45.09375 64.984375 
Q 41.3125 65.921875 37.59375 65.921875 
Q 27.828125 65.921875 22.671875 59.328125 
Q 17.53125 52.734375 16.796875 39.40625 
Q 19.671875 43.65625 24.015625 45.921875 
Q 28.375 48.1875 33.59375 48.1875 
Q 44.578125 48.1875 50.953125 41.515625 
Q 57.328125 34.859375 57.328125 23.390625 
Q 57.328125 12.15625 50.6875 5.359375 
Q 44.046875 -1.421875 33.015625 -1.421875 
Q 20.359375 -1.421875 13.671875 8.265625 
Q 6.984375 17.96875 6.984375 36.375 
Q 6.984375 53.65625 15.1875 63.9375 
Q 23.390625 74.21875 37.203125 74.21875 
Q 40.921875 74.21875 44.703125 73.484375 
Q 48.484375 72.75 52.59375 71.296875 
z
" id="DejaVuSans-36"/>
     <path d="M 28.609375 0 
L 0.78125 72.90625 
L 11.078125 72.90625 
L 34.1875 11.53125 
L 57.328125 72.90625 
L 67.578125 72.90625 
L 39.796875 0 
z
" id="DejaVuSans-56"/>
     <path d="M 34.1875 63.1875 
L 14.15625 8.203125 
L 54.25 8.203125 
z
M 0.78125 0 
L 28.609375 72.90625 
L 39.796875 72.90625 
L 67.578125 0 
z
" id="DejaVuSans-394"/>
     <path d="M 9.8125 72.90625 
L 55.90625 72.90625 
L 55.90625 64.59375 
L 19.671875 64.59375 
L 19.671875 43.015625 
L 54.390625 43.015625 
L 54.390625 34.71875 
L 19.671875 34.71875 
L 19.671875 8.296875 
L 56.78125 8.296875 
L 56.78125 0 
L 9.8125 0 
z
" id="DejaVuSans-45"/>
    </defs>
    <g transform="translate(61.548 35.472)scale(0.12 -0.12)">
     <use transform="translate(0 0.78125)" xlink:href="#DejaVuSans-53"/>
     <use transform="translate(63.476562 0.78125)" xlink:href="#DejaVuSans-74"/>
     <use transform="translate(102.685547 0.78125)" xlink:href="#DejaVuSans-72"/>
     <use transform="translate(143.798828 0.78125)" xlink:href="#DejaVuSans-75"/>
     <use transform="translate(207.177734 0.78125)" xlink:href="#DejaVuSans-63"/>
     <use transform="translate(262.158203 0.78125)" xlink:href="#DejaVuSans-74"/>
     <use transform="translate(301.367188 0.78125)" xlink:href="#DejaVuSans-75"/>
     <use transform="translate(364.746094 0.78125)" xlink:href="#DejaVuSans-72"/>
     <use transform="translate(405.859375 0.78125)" xlink:href="#DejaVuSans-65"/>
     <use transform="translate(467.382812 0.78125)" xlink:href="#DejaVuSans-20"/>
     <use transform="translate(499.169922 0.78125)" xlink:href="#DejaVuSans-23"/>
     <use transform="translate(582.958984 0.78125)" xlink:href="#DejaVuSans-31"/>
     <use transform="translate(646.582031 0.78125)" xlink:href="#DejaVuSans-30"/>
     <use transform="translate(710.205078 0.78125)" xlink:href="#DejaVuSans-30"/>
     <use transform="translate(773.828125 0.78125)" xlink:href="#DejaVuSans-34"/>
     <use transform="translate(837.451172 0.78125)" xlink:href="#DejaVuSans-39"/>
     <use transform="translate(901.074219 0.78125)" xlink:href="#DejaVuSans-2c"/>
     <use transform="translate(932.861328 0.78125)" xlink:href="#DejaVuSans-20"/>
     <use transform="translate(964.648438 0.78125)" xlink:href="#DejaVuSans-Oblique-45"/>
     <use transform="translate(1027.832031 -15.625)scale(0.7)" xlink:href="#DejaVuSans-Oblique-4e"/>
     <use transform="translate(1082.929688 0.78125)" xlink:href="#DejaVuSans-3d"/>
     <use transform="translate(1166.71875 0.78125)" xlink:href="#DejaVuSans-2d"/>
     <use transform="translate(1202.802734 0.78125)" xlink:href="#DejaVuSans-31"/>
     <use transform="translate(1266.425781 0.78125)" xlink:href="#DejaVuSans-37"/>
     <use transform="translate(1330.033203 0.78125)" xlink:href="#DejaVuSans-37"/>
     <use transform="translate(1393.65625 0.78125)" xlink:href="#DejaVuSans-2e"/>
     <use transform="translate(1425.333984 0.78125)" xlink:href="#DejaVuSans-37"/>
     <use transform="translate(1488.957031 0.78125)" xlink:href="#DejaVuSans-36"/>
     <use transform="translate(1552.580078 0.78125)" xlink:href="#DejaVuSans-65"/>
     <use transform="translate(1614.103516 0.78125)" xlink:href="#DejaVuSans-56"/>
     <use transform="translate(1682.511719 0.78125)" xlink:href="#DejaVuSans-2c"/>
     <use transform="translate(1714.298828 0.78125)" xlink:href="#DejaVuSans-20"/>
     <use transform="translate(1746.085938 0.78125)" xlink:href="#DejaVuSans-394"/>
     <use transform="translate(1814.494141 0.78125)" xlink:href="#DejaVuSans-45"/>
     <use transform="translate(1877.677734 0.78125)" xlink:href="#DejaVuSans-3d"/>
     <use transform="translate(1961.466797 0.78125)" xlink:href="#DejaVuSans-30"/>
     <use transform="translate(2025.089844 0.78125)" xlink:href="#DejaVuSans-2e"/>
     <use transform="translate(2056.876953 0.78125)" xlink:href="#DejaVuSans-31"/>
     <use transform="translate(2120.5 0.78125)" xlink:href="#DejaVuSans-34"/>
     <use transform="translate(2184.123047 0.78125)" xlink:href="#DejaVuSans-65"/>
     <use transform="translate(2245.646484 0.78125)" xlink:href="#DejaVuSans-56"/>
    </g>
   </g>
  </g>
  <g id="axes_2">
   <g id="patch_2">
    <path clip-path="url(#pc83af7bd7b)" d="M 361.152 307.584 
L 361.152 306.5445 
L 361.152 42.5115 
L 361.152 41.472 
L 374.4576 41.472 
L 374.4576 42.5115 
L 374.4576 306.5445 
L 374.4576 307.584 
z
" style="fill:#ffffff;stroke:#ffffff;stroke-linejoin:miter;stroke-width:0.01;"/>
   </g>
   <image height="265.68" id="imagee83cd88f08" transform="scale(1 -1)translate(0 -265.68)" width="12.96" x="361.44" xlink:href="data:image/png;base64,
iVBORw0KGgoAAAANSUhEUgAAABIAAAFxCAYAAAB+2fgXAAAABHNCSVQICAgIfAhkiAAAAeVJREFUeJztncmNw0AQA2ckheYQNv9QLIfQ8ygsCgQ7AEI8+jAs2Puz/94F1LP2ReCsZ18bAWIeZ5XaGRBE7VnbptG+KI101FYyNSiQG2oRITXKNaX9uclOdi2XWjftVE32CZCO2ou5Bj1TcCBr/1zB9ge7Fq0Rg2NM9pvbtG+ua1QgsRYhDy0ISEiNc40BEibbSI0Coj5CBGtkpFbXJiAjNZlrwhuSOv2M1DjXbEdEciBt1JSDDQKKpmZr2rr2j0DBGpXaWEJq3bQzEPIS26r9J+Wzv9Tm8o3aajRXqc3VUXsApKNWjeZq0x4ABVNbm7lrszVigDqP5vIl2+eaT2yfRkL7g+dRcNPqjohkjaCvRVBq0H2U3LQrOJCx9kdTg4B8oxZzzTdqdYHEngjUCAPyUctN9sVRq2sTECW2UKNLd2jVtRmo1A6AhMmWaSRcR8nUdIHUuVb75zJS218EyEitro1At69pIdeSk30Lkw0FktNImGyZRhy1O5galmxd03LUsHWk06jUZiCq+5Wb1kZNN4+wJxJuWt8RAW5am2sYNZ9rYCBzZ3buPKJ2P5Yj4Toy3keyIyJbIxs1rml1byCA84gpch5RQNB7Q0qNMGq2Hy4BXdNR41yz/cEEJfZzUz96r9PoB0okjeQ8y9TkAAAAAElFTkSuQmCC" y="-41.76"/>
   <g id="matplotlib.axis_1"/>
   <g id="matplotlib.axis_2">
    <g id="ytick_1">
     <g id="line2d_1">
      <defs>
       <path d="M 0 0 
L 3.5 0 
" id="m51f670c2ea" style="stroke:#000000;stroke-width:0.8;"/>
      </defs>
      <g>
       <use style="stroke:#000000;stroke-width:0.8;" x="374.4576" xlink:href="#m51f670c2ea" y="276.128437"/>
      </g>
     </g>
     <g id="text_2">
      <!-- −8.5 -->
      <defs>
       <path d="M 10.59375 35.5 
L 73.1875 35.5 
L 73.1875 27.203125 
L 10.59375 27.203125 
z
" id="DejaVuSans-2212"/>
       <path d="M 31.78125 34.625 
Q 24.75 34.625 20.71875 30.859375 
Q 16.703125 27.09375 16.703125 20.515625 
Q 16.703125 13.921875 20.71875 10.15625 
Q 24.75 6.390625 31.78125 6.390625 
Q 38.8125 6.390625 42.859375 10.171875 
Q 46.921875 13.96875 46.921875 20.515625 
Q 46.921875 27.09375 42.890625 30.859375 
Q 38.875 34.625 31.78125 34.625 
z
M 21.921875 38.8125 
Q 15.578125 40.375 12.03125 44.71875 
Q 8.5 49.078125 8.5 55.328125 
Q 8.5 64.0625 14.71875 69.140625 
Q 20.953125 74.21875 31.78125 74.21875 
Q 42.671875 74.21875 48.875 69.140625 
Q 55.078125 64.0625 55.078125 55.328125 
Q 55.078125 49.078125 51.53125 44.71875 
Q 48 40.375 41.703125 38.8125 
Q 48.828125 37.15625 52.796875 32.3125 
Q 56.78125 27.484375 56.78125 20.515625 
Q 56.78125 9.90625 50.3125 4.234375 
Q 43.84375 -1.421875 31.78125 -1.421875 
Q 19.734375 -1.421875 13.25 4.234375 
Q 6.78125 9.90625 6.78125 20.515625 
Q 6.78125 27.484375 10.78125 32.3125 
Q 14.796875 37.15625 21.921875 38.8125 
z
M 18.3125 54.390625 
Q 18.3125 48.734375 21.84375 45.5625 
Q 25.390625 42.390625 31.78125 42.390625 
Q 38.140625 42.390625 41.71875 45.5625 
Q 45.3125 48.734375 45.3125 54.390625 
Q 45.3125 60.0625 41.71875 63.234375 
Q 38.140625 66.40625 31.78125 66.40625 
Q 25.390625 66.40625 21.84375 63.234375 
Q 18.3125 60.0625 18.3125 54.390625 
z
" id="DejaVuSans-38"/>
       <path d="M 10.796875 72.90625 
L 49.515625 72.90625 
L 49.515625 64.59375 
L 19.828125 64.59375 
L 19.828125 46.734375 
Q 21.96875 47.46875 24.109375 47.828125 
Q 26.265625 48.1875 28.421875 48.1875 
Q 40.625 48.1875 47.75 41.5 
Q 54.890625 34.8125 54.890625 23.390625 
Q 54.890625 11.625 47.5625 5.09375 
Q 40.234375 -1.421875 26.90625 -1.421875 
Q 22.3125 -1.421875 17.546875 -0.640625 
Q 12.796875 0.140625 7.71875 1.703125 
L 7.71875 11.625 
Q 12.109375 9.234375 16.796875 8.0625 
Q 21.484375 6.890625 26.703125 6.890625 
Q 35.15625 6.890625 40.078125 11.328125 
Q 45.015625 15.765625 45.015625 23.390625 
Q 45.015625 31 40.078125 35.4375 
Q 35.15625 39.890625 26.703125 39.890625 
Q 22.75 39.890625 18.8125 39.015625 
Q 14.890625 38.140625 10.796875 36.28125 
z
" id="DejaVuSans-35"/>
      </defs>
      <g transform="translate(381.4576 279.927656)scale(0.1 -0.1)">
       <use xlink:href="#DejaVuSans-2212"/>
       <use x="83.789062" xlink:href="#DejaVuSans-38"/>
       <use x="147.412109" xlink:href="#DejaVuSans-2e"/>
       <use x="179.199219" xlink:href="#DejaVuSans-35"/>
      </g>
     </g>
    </g>
    <g id="ytick_2">
     <g id="line2d_2">
      <g>
       <use style="stroke:#000000;stroke-width:0.8;" x="374.4576" xlink:href="#m51f670c2ea" y="241.850769"/>
      </g>
     </g>
     <g id="text_3">
      <!-- −8.0 -->
      <g transform="translate(381.4576 245.649988)scale(0.1 -0.1)">
       <use xlink:href="#DejaVuSans-2212"/>
       <use x="83.789062" xlink:href="#DejaVuSans-38"/>
       <use x="147.412109" xlink:href="#DejaVuSans-2e"/>
       <use x="179.199219" xlink:href="#DejaVuSans-30"/>
      </g>
     </g>
    </g>
    <g id="ytick_3">
     <g id="line2d_3">
      <g>
       <use style="stroke:#000000;stroke-width:0.8;" x="374.4576" xlink:href="#m51f670c2ea" y="207.573101"/>
      </g>
     </g>
     <g id="text_4">
      <!-- −7.5 -->
      <g transform="translate(381.4576 211.37232)scale(0.1 -0.1)">
       <use xlink:href="#DejaVuSans-2212"/>
       <use x="83.789062" xlink:href="#DejaVuSans-37"/>
       <use x="147.412109" xlink:href="#DejaVuSans-2e"/>
       <use x="179.199219" xlink:href="#DejaVuSans-35"/>
      </g>
     </g>
    </g>
    <g id="ytick_4">
     <g id="line2d_4">
      <g>
       <use style="stroke:#000000;stroke-width:0.8;" x="374.4576" xlink:href="#m51f670c2ea" y="173.295434"/>
      </g>
     </g>
     <g id="text_5">
      <!-- −7.0 -->
      <g transform="translate(381.4576 177.094652)scale(0.1 -0.1)">
       <use xlink:href="#DejaVuSans-2212"/>
       <use x="83.789062" xlink:href="#DejaVuSans-37"/>
       <use x="147.412109" xlink:href="#DejaVuSans-2e"/>
       <use x="179.199219" xlink:href="#DejaVuSans-30"/>
      </g>
     </g>
    </g>
    <g id="ytick_5">
     <g id="line2d_5">
      <g>
       <use style="stroke:#000000;stroke-width:0.8;" x="374.4576" xlink:href="#m51f670c2ea" y="139.017766"/>
      </g>
     </g>
     <g id="text_6">
      <!-- −6.5 -->
      <g transform="translate(381.4576 142.816985)scale(0.1 -0.1)">
       <use xlink:href="#DejaVuSans-2212"/>
       <use x="83.789062" xlink:href="#DejaVuSans-36"/>
       <use x="147.412109" xlink:href="#DejaVuSans-2e"/>
       <use x="179.199219" xlink:href="#DejaVuSans-35"/>
      </g>
     </g>
    </g>
    <g id="ytick_6">
     <g id="line2d_6">
      <g>
       <use style="stroke:#000000;stroke-width:0.8;" x="374.4576" xlink:href="#m51f670c2ea" y="104.740098"/>
      </g>
     </g>
     <g id="text_7">
      <!-- −6.0 -->
      <g transform="translate(381.4576 108.539317)scale(0.1 -0.1)">
       <use xlink:href="#DejaVuSans-2212"/>
       <use x="83.789062" xlink:href="#DejaVuSans-36"/>
       <use x="147.412109" xlink:href="#DejaVuSans-2e"/>
       <use x="179.199219" xlink:href="#DejaVuSans-30"/>
      </g>
     </g>
    </g>
    <g id="ytick_7">
     <g id="line2d_7">
      <g>
       <use style="stroke:#000000;stroke-width:0.8;" x="374.4576" xlink:href="#m51f670c2ea" y="70.462431"/>
      </g>
     </g>
     <g id="text_8">
      <!-- −5.5 -->
      <g transform="translate(381.4576 74.261649)scale(0.1 -0.1)">
       <use xlink:href="#DejaVuSans-2212"/>
       <use x="83.789062" xlink:href="#DejaVuSans-35"/>
       <use x="147.412109" xlink:href="#DejaVuSans-2e"/>
       <use x="179.199219" xlink:href="#DejaVuSans-35"/>
      </g>
     </g>
    </g>
    <g id="text_9">
     <!-- Energy [eV] -->
     <defs>
      <path d="M 54.890625 33.015625 
L 54.890625 0 
L 45.90625 0 
L 45.90625 32.71875 
Q 45.90625 40.484375 42.875 44.328125 
Q 39.84375 48.1875 33.796875 48.1875 
Q 26.515625 48.1875 22.3125 43.546875 
Q 18.109375 38.921875 18.109375 30.90625 
L 18.109375 0 
L 9.078125 0 
L 9.078125 54.6875 
L 18.109375 54.6875 
L 18.109375 46.1875 
Q 21.34375 51.125 25.703125 53.5625 
Q 30.078125 56 35.796875 56 
Q 45.21875 56 50.046875 50.171875 
Q 54.890625 44.34375 54.890625 33.015625 
z
" id="DejaVuSans-6e"/>
      <path d="M 45.40625 27.984375 
Q 45.40625 37.75 41.375 43.109375 
Q 37.359375 48.484375 30.078125 48.484375 
Q 22.859375 48.484375 18.828125 43.109375 
Q 14.796875 37.75 14.796875 27.984375 
Q 14.796875 18.265625 18.828125 12.890625 
Q 22.859375 7.515625 30.078125 7.515625 
Q 37.359375 7.515625 41.375 12.890625 
Q 45.40625 18.265625 45.40625 27.984375 
z
M 54.390625 6.78125 
Q 54.390625 -7.171875 48.1875 -13.984375 
Q 42 -20.796875 29.203125 -20.796875 
Q 24.46875 -20.796875 20.265625 -20.09375 
Q 16.0625 -19.390625 12.109375 -17.921875 
L 12.109375 -9.1875 
Q 16.0625 -11.328125 19.921875 -12.34375 
Q 23.78125 -13.375 27.78125 -13.375 
Q 36.625 -13.375 41.015625 -8.765625 
Q 45.40625 -4.15625 45.40625 5.171875 
L 45.40625 9.625 
Q 42.625 4.78125 38.28125 2.390625 
Q 33.9375 0 27.875 0 
Q 17.828125 0 11.671875 7.65625 
Q 5.515625 15.328125 5.515625 27.984375 
Q 5.515625 40.671875 11.671875 48.328125 
Q 17.828125 56 27.875 56 
Q 33.9375 56 38.28125 53.609375 
Q 42.625 51.21875 45.40625 46.390625 
L 45.40625 54.6875 
L 54.390625 54.6875 
z
" id="DejaVuSans-67"/>
      <path d="M 32.171875 -5.078125 
Q 28.375 -14.84375 24.75 -17.8125 
Q 21.140625 -20.796875 15.09375 -20.796875 
L 7.90625 -20.796875 
L 7.90625 -13.28125 
L 13.1875 -13.28125 
Q 16.890625 -13.28125 18.9375 -11.515625 
Q 21 -9.765625 23.484375 -3.21875 
L 25.09375 0.875 
L 2.984375 54.6875 
L 12.5 54.6875 
L 29.59375 11.921875 
L 46.6875 54.6875 
L 56.203125 54.6875 
z
" id="DejaVuSans-79"/>
      <path d="M 8.59375 75.984375 
L 29.296875 75.984375 
L 29.296875 69 
L 17.578125 69 
L 17.578125 -6.203125 
L 29.296875 -6.203125 
L 29.296875 -13.1875 
L 8.59375 -13.1875 
z
" id="DejaVuSans-5b"/>
      <path d="M 30.421875 75.984375 
L 30.421875 -13.1875 
L 9.71875 -13.1875 
L 9.71875 -6.203125 
L 21.390625 -6.203125 
L 21.390625 69 
L 9.71875 69 
L 9.71875 75.984375 
z
" id="DejaVuSans-5d"/>
     </defs>
     <g transform="translate(417.33885 204.108469)rotate(-90)scale(0.1 -0.1)">
      <use xlink:href="#DejaVuSans-45"/>
      <use x="63.183594" xlink:href="#DejaVuSans-6e"/>
      <use x="126.5625" xlink:href="#DejaVuSans-65"/>
      <use x="188.085938" xlink:href="#DejaVuSans-72"/>
      <use x="229.183594" xlink:href="#DejaVuSans-67"/>
      <use x="292.660156" xlink:href="#DejaVuSans-79"/>
      <use x="351.839844" xlink:href="#DejaVuSans-20"/>
      <use x="383.626953" xlink:href="#DejaVuSans-5b"/>
      <use x="422.640625" xlink:href="#DejaVuSans-65"/>
      <use x="484.164062" xlink:href="#DejaVuSans-56"/>
      <use x="552.572266" xlink:href="#DejaVuSans-5d"/>
     </g>
    </g>
   </g>
   <g id="patch_3">
    <path d="M 361.152 307.584 
L 361.152 306.5445 
L 361.152 42.5115 
L 361.152 41.472 
L 374.4576 41.472 
L 374.4576 42.5115 
L 374.4576 306.5445 
L 374.4576 307.584 
z
" style="fill:none;stroke:#000000;stroke-linejoin:miter;stroke-width:0.8;"/>
   </g>
  </g>
 </g>
 <defs>
  <clipPath id="p3c0fb7b8e1">
   <rect height="266.112" width="285.696" x="57.6" y="41.472"/>
  </clipPath>
  <clipPath id="pc83af7bd7b">
   <rect height="266.112" width="13.3056" x="361.152" y="41.472"/>
  </clipPath>
 </defs>
</svg>
