<?xml version="1.0" encoding="utf-8" standalone="no"?>
<!DOCTYPE svg PUBLIC "-//W3C//DTD SVG 1.1//EN"
  "http://www.w3.org/Graphics/SVG/1.1/DTD/svg11.dtd">
<!-- Created with matplotlib (http://matplotlib.org/) -->
<svg height="345.6pt" version="1.1" viewBox="0 0 460.8 345.6" width="460.8pt" xmlns="http://www.w3.org/2000/svg" xmlns:xlink="http://www.w3.org/1999/xlink">
 <defs>
  <style type="text/css">
*{stroke-linecap:butt;stroke-linejoin:round;}
  </style>
 </defs>
 <g id="figure_1">
  <g id="patch_1">
   <path d="M 0 345.6 
L 460.8 345.6 
L 460.8 0 
L 0 0 
z
" style="fill:#ffffff;"/>
  </g>
  <g id="axes_1">
   <g id="CircleCollection_1">
    <path clip-path="url(#pbc6466d427)" d="M 243.554987 62.020144 
C 245.329197 62.020144 247.030978 61.315244 248.285534 60.060688 
C 249.540089 58.806132 250.24499 57.104351 250.24499 55.330142 
C 250.24499 53.555932 249.540089 51.854151 248.285534 50.599595 
C 247.030978 49.345039 245.329197 48.640139 243.554987 48.640139 
C 241.780778 48.640139 240.078996 49.345039 238.824441 50.599595 
C 237.569885 51.854151 236.864984 53.555932 236.864984 55.330142 
C 236.864984 57.104351 237.569885 58.806132 238.824441 60.060688 
C 240.078996 61.315244 241.780778 62.020144 243.554987 62.020144 
z
" style="fill:#277e8e;"/>
    <path clip-path="url(#pbc6466d427)" d="M 206.941258 60.844554 
C 208.725494 60.844554 210.436893 60.13567 211.698539 58.874024 
C 212.960185 57.612378 213.669069 55.900979 213.669069 54.116743 
C 213.669069 52.332507 212.960185 50.621108 211.698539 49.359462 
C 210.436893 48.097816 208.725494 47.388932 206.941258 47.388932 
C 205.157021 47.388932 203.445622 48.097816 202.183977 49.359462 
C 200.922331 50.621108 200.213446 52.332507 200.213446 54.116743 
C 200.213446 55.900979 200.922331 57.612378 202.183977 58.874024 
C 203.445622 60.13567 205.157021 60.844554 206.941258 60.844554 
z
" style="fill:#39558c;"/>
    <path clip-path="url(#pbc6466d427)" d="M 193.037563 295.291623 
C 194.838363 295.291623 196.56565 294.576157 197.839008 293.302799 
C 199.112366 292.029442 199.827831 290.302155 199.827831 288.501355 
C 199.827831 286.700555 199.112366 284.973268 197.839008 283.69991 
C 196.56565 282.426553 194.838363 281.711087 193.037563 281.711087 
C 191.236763 281.711087 189.509477 282.426553 188.236119 283.69991 
C 186.962761 284.973268 186.247295 286.700555 186.247295 288.501355 
C 186.247295 290.302155 186.962761 292.029442 188.236119 293.302799 
C 189.509477 294.576157 191.236763 295.291623 193.037563 295.291623 
z
" style="fill:#32658e;"/>
    <path clip-path="url(#pbc6466d427)" d="M 105.343564 114.116163 
C 107.161055 114.116163 108.904351 113.394067 110.189512 112.108906 
C 111.474672 110.823746 112.196769 109.08045 112.196769 107.262958 
C 112.196769 105.445467 111.474672 103.702171 110.189512 102.417011 
C 108.904351 101.13185 107.161055 100.409753 105.343564 100.409753 
C 103.526073 100.409753 101.782777 101.13185 100.497616 102.417011 
C 99.212456 103.702171 98.490359 105.445467 98.490359 107.262958 
C 98.490359 109.08045 99.212456 110.823746 100.497616 112.108906 
C 101.782777 113.394067 103.526073 114.116163 105.343564 114.116163 
z
" style="fill:#31678e;"/>
    <path clip-path="url(#pbc6466d427)" d="M 229.520951 281.631227 
C 231.326216 281.631227 233.057785 280.913988 234.334301 279.637472 
C 235.610816 278.360957 236.328055 276.629388 236.328055 274.824123 
C 236.328055 273.018857 235.610816 271.287288 234.334301 270.010773 
C 233.057785 268.734257 231.326216 268.017018 229.520951 268.017018 
C 227.715686 268.017018 225.984116 268.734257 224.707601 270.010773 
C 223.431086 271.287288 222.713846 273.018857 222.713846 274.824123 
C 222.713846 276.629388 223.431086 278.360957 224.707601 279.637472 
C 225.984116 280.913988 227.715686 281.631227 229.520951 281.631227 
z
" style="fill:#375b8d;"/>
    <path clip-path="url(#pbc6466d427)" d="M 315.578458 208.771352 
C 317.379827 208.771352 319.107659 208.055661 320.381419 206.781901 
C 321.655179 205.508141 322.370871 203.780309 322.370871 201.97894 
C 322.370871 200.177571 321.655179 198.449739 320.381419 197.175979 
C 319.107659 195.902219 317.379827 195.186527 315.578458 195.186527 
C 313.777089 195.186527 312.049257 195.902219 310.775497 197.175979 
C 309.501737 198.449739 308.786046 200.177571 308.786046 201.97894 
C 308.786046 203.780309 309.501737 205.508141 310.775497 206.781901 
C 312.049257 208.055661 313.777089 208.771352 315.578458 208.771352 
z
" style="fill:#25838e;"/>
    <path clip-path="url(#pbc6466d427)" d="M 329.910422 130.852858 
C 331.701612 130.852858 333.419681 130.14121 334.686244 128.874648 
C 335.952807 127.608085 336.664455 125.890016 336.664455 124.098825 
C 336.664455 122.307635 335.952807 120.589566 334.686244 119.323003 
C 333.419681 118.05644 331.701612 117.344793 329.910422 117.344793 
C 328.119232 117.344793 326.401163 118.05644 325.1346 119.323003 
C 323.868037 120.589566 323.15639 122.307635 323.15639 124.098825 
C 323.15639 125.890016 323.868037 127.608085 325.1346 128.874648 
C 326.401163 130.14121 328.119232 130.852858 329.910422 130.852858 
z
" style="fill:#1f998a;"/>
    <path clip-path="url(#pbc6466d427)" d="M 155.173417 301.702458 
C 156.967872 301.702458 158.689072 300.989513 159.957944 299.720642 
C 161.226815 298.45177 161.93976 296.730569 161.93976 294.936114 
C 161.93976 293.141659 161.226815 291.420458 159.957944 290.151587 
C 158.689072 288.882715 156.967872 288.169771 155.173417 288.169771 
C 153.378961 288.169771 151.657761 288.882715 150.388889 290.151587 
C 149.120018 291.420458 148.407073 293.141659 148.407073 294.936114 
C 148.407073 296.730569 149.120018 298.45177 150.388889 299.720642 
C 151.657761 300.989513 153.378961 301.702458 155.173417 301.702458 
z
" style="fill:#fde725;"/>
    <path clip-path="url(#pbc6466d427)" d="M 168.237539 175.707164 
C 169.969836 175.707164 171.631416 175.018915 172.856335 173.793996 
C 174.081255 172.569076 174.769504 170.907496 174.769504 169.175199 
C 174.769504 167.442902 174.081255 165.781322 172.856335 164.556402 
C 171.631416 163.331483 169.969836 162.643234 168.237539 162.643234 
C 166.505241 162.643234 164.843661 163.331483 163.618742 164.556402 
C 162.393823 165.781322 161.705574 167.442902 161.705574 169.175199 
C 161.705574 170.907496 162.393823 172.569076 163.618742 173.793996 
C 164.843661 175.018915 166.505241 175.707164 168.237539 175.707164 
z
" style="fill:#365d8d;"/>
    <path clip-path="url(#pbc6466d427)" d="M 264.172426 266.544822 
C 265.983227 266.544822 267.720106 265.825383 269.000535 264.544954 
C 270.280965 263.264524 271.000403 261.527645 271.000403 259.716845 
C 271.000403 257.906044 270.280965 256.169165 269.000535 254.888735 
C 267.720106 253.608306 265.983227 252.888867 264.172426 252.888867 
C 262.361625 252.888867 260.624747 253.608306 259.344317 254.888735 
C 258.063888 256.169165 257.344449 257.906044 257.344449 259.716845 
C 257.344449 261.527645 258.063888 263.264524 259.344317 264.544954 
C 260.624747 265.825383 262.361625 266.544822 264.172426 266.544822 
z
" style="fill:#38598c;"/>
    <path clip-path="url(#pbc6466d427)" d="M 203.385054 169.030163 
C 205.098123 169.030163 206.741259 168.349553 207.952581 167.138231 
C 209.163903 165.926909 209.844512 164.283773 209.844512 162.570705 
C 209.844512 160.857636 209.163903 159.2145 207.952581 158.003178 
C 206.741259 156.791856 205.098123 156.111247 203.385054 156.111247 
C 201.671986 156.111247 200.02885 156.791856 198.817528 158.003178 
C 197.606205 159.2145 196.925596 160.857636 196.925596 162.570705 
C 196.925596 164.283773 197.606205 165.926909 198.817528 167.138231 
C 200.02885 168.349553 201.671986 169.030163 203.385054 169.030163 
z
" style="fill:#375b8d;"/>
    <path clip-path="url(#pbc6466d427)" d="M 312.623035 96.763458 
C 314.408093 96.763458 316.12028 96.054247 317.382507 94.79202 
C 318.644733 93.529794 319.353944 91.817607 319.353944 90.032548 
C 319.353944 88.24749 318.644733 86.535303 317.382507 85.273077 
C 316.12028 84.01085 314.408093 83.301639 312.623035 83.301639 
C 310.837977 83.301639 309.125789 84.01085 307.863563 85.273077 
C 306.601336 86.535303 305.892125 88.24749 305.892125 90.032548 
C 305.892125 91.817607 306.601336 93.529794 307.863563 94.79202 
C 309.125789 96.054247 310.837977 96.763458 312.623035 96.763458 
z
" style="fill:#1f998a;"/>
    <path clip-path="url(#pbc6466d427)" d="M 97.046212 158.435873 
C 98.841692 158.435873 100.563876 157.722521 101.833473 156.452925 
C 103.103069 155.183329 103.816421 153.461145 103.816421 151.665664 
C 103.816421 149.870184 103.103069 148.148 101.833473 146.878403 
C 100.563876 145.608807 98.841692 144.895455 97.046212 144.895455 
C 95.250731 144.895455 93.528547 145.608807 92.258951 146.878403 
C 90.989354 148.148 90.276002 149.870184 90.276002 151.665664 
C 90.276002 153.461145 90.989354 155.183329 92.258951 156.452925 
C 93.528547 157.722521 95.250731 158.435873 97.046212 158.435873 
z
" style="fill:#297b8e;"/>
    <path clip-path="url(#pbc6466d427)" d="M 282.265168 158.811791 
C 283.974932 158.811791 285.614897 158.132495 286.823882 156.92351 
C 288.032867 155.714525 288.712163 154.074559 288.712163 152.364796 
C 288.712163 150.655033 288.032867 149.015067 286.823882 147.806082 
C 285.614897 146.597097 283.974932 145.917801 282.265168 145.917801 
C 280.555405 145.917801 278.91544 146.597097 277.706455 147.806082 
C 276.497469 149.015067 275.818173 150.655033 275.818173 152.364796 
C 275.818173 154.074559 276.497469 155.714525 277.706455 156.92351 
C 278.91544 158.132495 280.555405 158.811791 282.265168 158.811791 
z
" style="fill:#2d718e;"/>
    <path clip-path="url(#pbc6466d427)" d="M 314.310564 169.674248 
C 316.080497 169.674248 317.778176 168.971046 319.029707 167.719515 
C 320.281239 166.467983 320.98444 164.770304 320.98444 163.000372 
C 320.98444 161.230439 320.281239 159.53276 319.029707 158.281228 
C 317.778176 157.029697 316.080497 156.326495 314.310564 156.326495 
C 312.540632 156.326495 310.842953 157.029697 309.591421 158.281228 
C 308.33989 159.53276 307.636688 161.230439 307.636688 163.000372 
C 307.636688 164.770304 308.33989 166.467983 309.591421 167.719515 
C 310.842953 168.971046 312.540632 169.674248 314.310564 169.674248 
z
" style="fill:#450559;"/>
    <path clip-path="url(#pbc6466d427)" d="M 265.970478 120.349886 
C 267.669502 120.349886 269.299167 119.674856 270.500558 118.473465 
C 271.701949 117.272074 272.376979 115.642409 272.376979 113.943385 
C 272.376979 112.244361 271.701949 110.614696 270.500558 109.413304 
C 269.299167 108.211913 267.669502 107.536884 265.970478 107.536884 
C 264.271454 107.536884 262.641789 108.211913 261.440397 109.413304 
C 260.239006 110.614696 259.563977 112.244361 259.563977 113.943385 
C 259.563977 115.642409 260.239006 117.272074 261.440397 118.473465 
C 262.641789 119.674856 264.271454 120.349886 265.970478 120.349886 
z
" style="fill:#2e6f8e;"/>
    <path clip-path="url(#pbc6466d427)" d="M 240.904711 155.721819 
C 242.601742 155.721819 244.229496 155.047582 245.429478 153.847599 
C 246.62946 152.647617 247.303698 151.019863 247.303698 149.322832 
C 247.303698 147.625801 246.62946 145.998047 245.429478 144.798064 
C 244.229496 143.598082 242.601742 142.923844 240.904711 142.923844 
C 239.207679 142.923844 237.579925 143.598082 236.379943 144.798064 
C 235.179961 145.998047 234.505723 147.625801 234.505723 149.322832 
C 234.505723 151.019863 235.179961 152.647617 236.379943 153.847599 
C 237.579925 155.047582 239.207679 155.721819 240.904711 155.721819 
z
" style="fill:#375a8c;"/>
    <path clip-path="url(#pbc6466d427)" d="M 136.746252 88.9015 
C 138.551667 88.9015 140.283379 88.184201 141.56 86.90758 
C 142.836621 85.630959 143.55392 83.899246 143.55392 82.093832 
C 143.55392 80.288417 142.836621 78.556704 141.56 77.280083 
C 140.283379 76.003462 138.551667 75.286164 136.746252 75.286164 
C 134.940837 75.286164 133.209125 76.003462 131.932504 77.280083 
C 130.655883 78.556704 129.938584 80.288417 129.938584 82.093832 
C 129.938584 83.899246 130.655883 85.630959 131.932504 86.90758 
C 133.209125 88.184201 134.940837 88.9015 136.746252 88.9015 
z
" style="fill:#34608d;"/>
    <path clip-path="url(#pbc6466d427)" d="M 291.991004 239.028829 
C 293.795257 239.028829 295.525855 238.311992 296.801654 237.036192 
C 298.077454 235.760393 298.794291 234.029795 298.794291 232.225542 
C 298.794291 230.421289 298.077454 228.690691 296.801654 227.414891 
C 295.525855 226.139092 293.795257 225.422255 291.991004 225.422255 
C 290.186751 225.422255 288.456153 226.139092 287.180353 227.414891 
C 285.904554 228.690691 285.187717 230.421289 285.187717 232.225542 
C 285.187717 234.029795 285.904554 235.760393 287.180353 237.036192 
C 288.456153 238.311992 290.186751 239.028829 291.991004 239.028829 
z
" style="fill:#375a8c;"/>
    <path clip-path="url(#pbc6466d427)" d="M 169.559985 71.888651 
C 171.358146 71.888651 173.082901 71.174234 174.354393 69.902742 
C 175.625885 68.63125 176.340302 66.906495 176.340302 65.108334 
C 176.340302 63.310172 175.625885 61.585417 174.354393 60.313925 
C 173.082901 59.042433 171.358146 58.328016 169.559985 58.328016 
C 167.761824 58.328016 166.037068 59.042433 164.765577 60.313925 
C 163.494085 61.585417 162.779668 63.310172 162.779668 65.108334 
C 162.779668 66.906495 163.494085 68.63125 164.765577 69.902742 
C 166.037068 71.174234 167.761824 71.888651 169.559985 71.888651 
z
" style="fill:#3a548c;"/>
    <path clip-path="url(#pbc6466d427)" d="M 129.547224 181.877217 
C 131.301784 181.877217 132.984718 181.180123 134.225379 179.939462 
C 135.46604 178.698801 136.163134 177.015867 136.163134 175.261308 
C 136.163134 173.506748 135.46604 171.823814 134.225379 170.583153 
C 132.984718 169.342492 131.301784 168.645398 129.547224 168.645398 
C 127.792665 168.645398 126.109731 169.342492 124.86907 170.583153 
C 123.628409 171.823814 122.931315 173.506748 122.931315 175.261308 
C 122.931315 177.015867 123.628409 178.698801 124.86907 179.939462 
C 126.109731 181.180123 127.792665 181.877217 129.547224 181.877217 
z
" style="fill:#34618d;"/>
    <path clip-path="url(#pbc6466d427)" d="M 70.997719 130.913217 
C 72.843361 130.913217 74.613658 130.179936 75.918723 128.87487 
C 77.223789 127.569805 77.95707 125.799508 77.95707 123.953866 
C 77.95707 122.108225 77.223789 120.337928 75.918723 119.032863 
C 74.613658 117.727797 72.843361 116.994516 70.997719 116.994516 
C 69.152078 116.994516 67.381781 117.727797 66.076715 119.032863 
C 64.77165 120.337928 64.038369 122.108225 64.038369 123.953866 
C 64.038369 125.799508 64.77165 127.569805 66.076715 128.87487 
C 67.381781 130.179936 69.152078 130.913217 70.997719 130.913217 
z
" style="fill:#34b679;"/>
    <path clip-path="url(#pbc6466d427)" d="M 276.008352 85.102491 
C 277.75655 85.102491 279.433382 84.407924 280.669545 83.171761 
C 281.905707 81.935599 282.600274 80.258767 282.600274 78.510569 
C 282.600274 76.76237 281.905707 75.085539 280.669545 73.849376 
C 279.433382 72.613213 277.75655 71.918647 276.008352 71.918647 
C 274.260154 71.918647 272.583322 72.613213 271.347159 73.849376 
C 270.110996 75.085539 269.41643 76.76237 269.41643 78.510569 
C 269.41643 80.258767 270.110996 81.935599 271.347159 83.171761 
C 272.583322 84.407924 274.260154 85.102491 276.008352 85.102491 
z
" style="fill:#440154;"/>
    <path clip-path="url(#pbc6466d427)" d="M 93.050238 200.166025 
C 94.806849 200.166025 96.49175 199.468116 97.733862 198.226004 
C 98.975973 196.983892 99.673882 195.298991 99.673882 193.54238 
C 99.673882 191.785769 98.975973 190.100867 97.733862 188.858756 
C 96.49175 187.616644 94.806849 186.918735 93.050238 186.918735 
C 91.293626 186.918735 89.608725 187.616644 88.366613 188.858756 
C 87.124502 190.100867 86.426593 191.785769 86.426593 193.54238 
C 86.426593 195.298991 87.124502 196.983892 88.366613 198.226004 
C 89.608725 199.468116 91.293626 200.166025 93.050238 200.166025 
z
" style="fill:#38b977;"/>
   </g>
   <g id="text_1">
    <!-- Structure #2104, $E_N$=-177.64eV, ΔE=-0.11eV -->
    <defs>
     <path d="M 53.515625 70.515625 
L 53.515625 60.890625 
Q 47.90625 63.578125 42.921875 64.890625 
Q 37.9375 66.21875 33.296875 66.21875 
Q 25.25 66.21875 20.875 63.09375 
Q 16.5 59.96875 16.5 54.203125 
Q 16.5 49.359375 19.40625 46.890625 
Q 22.3125 44.4375 30.421875 42.921875 
L 36.375 41.703125 
Q 47.40625 39.59375 52.65625 34.296875 
Q 57.90625 29 57.90625 20.125 
Q 57.90625 9.515625 50.796875 4.046875 
Q 43.703125 -1.421875 29.984375 -1.421875 
Q 24.8125 -1.421875 18.96875 -0.25 
Q 13.140625 0.921875 6.890625 3.21875 
L 6.890625 13.375 
Q 12.890625 10.015625 18.65625 8.296875 
Q 24.421875 6.59375 29.984375 6.59375 
Q 38.421875 6.59375 43.015625 9.90625 
Q 47.609375 13.234375 47.609375 19.390625 
Q 47.609375 24.75 44.3125 27.78125 
Q 41.015625 30.8125 33.5 32.328125 
L 27.484375 33.5 
Q 16.453125 35.6875 11.515625 40.375 
Q 6.59375 45.0625 6.59375 53.421875 
Q 6.59375 63.09375 13.40625 68.65625 
Q 20.21875 74.21875 32.171875 74.21875 
Q 37.3125 74.21875 42.625 73.28125 
Q 47.953125 72.359375 53.515625 70.515625 
z
" id="DejaVuSans-53"/>
     <path d="M 18.3125 70.21875 
L 18.3125 54.6875 
L 36.8125 54.6875 
L 36.8125 47.703125 
L 18.3125 47.703125 
L 18.3125 18.015625 
Q 18.3125 11.328125 20.140625 9.421875 
Q 21.96875 7.515625 27.59375 7.515625 
L 36.8125 7.515625 
L 36.8125 0 
L 27.59375 0 
Q 17.1875 0 13.234375 3.875 
Q 9.28125 7.765625 9.28125 18.015625 
L 9.28125 47.703125 
L 2.6875 47.703125 
L 2.6875 54.6875 
L 9.28125 54.6875 
L 9.28125 70.21875 
z
" id="DejaVuSans-74"/>
     <path d="M 41.109375 46.296875 
Q 39.59375 47.171875 37.8125 47.578125 
Q 36.03125 48 33.890625 48 
Q 26.265625 48 22.1875 43.046875 
Q 18.109375 38.09375 18.109375 28.8125 
L 18.109375 0 
L 9.078125 0 
L 9.078125 54.6875 
L 18.109375 54.6875 
L 18.109375 46.1875 
Q 20.953125 51.171875 25.484375 53.578125 
Q 30.03125 56 36.53125 56 
Q 37.453125 56 38.578125 55.875 
Q 39.703125 55.765625 41.0625 55.515625 
z
" id="DejaVuSans-72"/>
     <path d="M 8.5 21.578125 
L 8.5 54.6875 
L 17.484375 54.6875 
L 17.484375 21.921875 
Q 17.484375 14.15625 20.5 10.265625 
Q 23.53125 6.390625 29.59375 6.390625 
Q 36.859375 6.390625 41.078125 11.03125 
Q 45.3125 15.671875 45.3125 23.6875 
L 45.3125 54.6875 
L 54.296875 54.6875 
L 54.296875 0 
L 45.3125 0 
L 45.3125 8.40625 
Q 42.046875 3.421875 37.71875 1 
Q 33.40625 -1.421875 27.6875 -1.421875 
Q 18.265625 -1.421875 13.375 4.4375 
Q 8.5 10.296875 8.5 21.578125 
z
M 31.109375 56 
z
" id="DejaVuSans-75"/>
     <path d="M 48.78125 52.59375 
L 48.78125 44.1875 
Q 44.96875 46.296875 41.140625 47.34375 
Q 37.3125 48.390625 33.40625 48.390625 
Q 24.65625 48.390625 19.8125 42.84375 
Q 14.984375 37.3125 14.984375 27.296875 
Q 14.984375 17.28125 19.8125 11.734375 
Q 24.65625 6.203125 33.40625 6.203125 
Q 37.3125 6.203125 41.140625 7.25 
Q 44.96875 8.296875 48.78125 10.40625 
L 48.78125 2.09375 
Q 45.015625 0.34375 40.984375 -0.53125 
Q 36.96875 -1.421875 32.421875 -1.421875 
Q 20.0625 -1.421875 12.78125 6.34375 
Q 5.515625 14.109375 5.515625 27.296875 
Q 5.515625 40.671875 12.859375 48.328125 
Q 20.21875 56 33.015625 56 
Q 37.15625 56 41.109375 55.140625 
Q 45.0625 54.296875 48.78125 52.59375 
z
" id="DejaVuSans-63"/>
     <path d="M 56.203125 29.59375 
L 56.203125 25.203125 
L 14.890625 25.203125 
Q 15.484375 15.921875 20.484375 11.0625 
Q 25.484375 6.203125 34.421875 6.203125 
Q 39.59375 6.203125 44.453125 7.46875 
Q 49.3125 8.734375 54.109375 11.28125 
L 54.109375 2.78125 
Q 49.265625 0.734375 44.1875 -0.34375 
Q 39.109375 -1.421875 33.890625 -1.421875 
Q 20.796875 -1.421875 13.15625 6.1875 
Q 5.515625 13.8125 5.515625 26.8125 
Q 5.515625 40.234375 12.765625 48.109375 
Q 20.015625 56 32.328125 56 
Q 43.359375 56 49.78125 48.890625 
Q 56.203125 41.796875 56.203125 29.59375 
z
M 47.21875 32.234375 
Q 47.125 39.59375 43.09375 43.984375 
Q 39.0625 48.390625 32.421875 48.390625 
Q 24.90625 48.390625 20.390625 44.140625 
Q 15.875 39.890625 15.1875 32.171875 
z
" id="DejaVuSans-65"/>
     <path id="DejaVuSans-20"/>
     <path d="M 51.125 44 
L 36.921875 44 
L 32.8125 27.6875 
L 47.125 27.6875 
z
M 43.796875 71.78125 
L 38.71875 51.515625 
L 52.984375 51.515625 
L 58.109375 71.78125 
L 65.921875 71.78125 
L 60.890625 51.515625 
L 76.125 51.515625 
L 76.125 44 
L 58.984375 44 
L 54.984375 27.6875 
L 70.515625 27.6875 
L 70.515625 20.21875 
L 53.078125 20.21875 
L 48 0 
L 40.1875 0 
L 45.21875 20.21875 
L 30.90625 20.21875 
L 25.875 0 
L 18.015625 0 
L 23.09375 20.21875 
L 7.71875 20.21875 
L 7.71875 27.6875 
L 24.90625 27.6875 
L 29 44 
L 13.28125 44 
L 13.28125 51.515625 
L 30.90625 51.515625 
L 35.890625 71.78125 
z
" id="DejaVuSans-23"/>
     <path d="M 19.1875 8.296875 
L 53.609375 8.296875 
L 53.609375 0 
L 7.328125 0 
L 7.328125 8.296875 
Q 12.9375 14.109375 22.625 23.890625 
Q 32.328125 33.6875 34.8125 36.53125 
Q 39.546875 41.84375 41.421875 45.53125 
Q 43.3125 49.21875 43.3125 52.78125 
Q 43.3125 58.59375 39.234375 62.25 
Q 35.15625 65.921875 28.609375 65.921875 
Q 23.96875 65.921875 18.8125 64.3125 
Q 13.671875 62.703125 7.8125 59.421875 
L 7.8125 69.390625 
Q 13.765625 71.78125 18.9375 73 
Q 24.125 74.21875 28.421875 74.21875 
Q 39.75 74.21875 46.484375 68.546875 
Q 53.21875 62.890625 53.21875 53.421875 
Q 53.21875 48.921875 51.53125 44.890625 
Q 49.859375 40.875 45.40625 35.40625 
Q 44.1875 33.984375 37.640625 27.21875 
Q 31.109375 20.453125 19.1875 8.296875 
z
" id="DejaVuSans-32"/>
     <path d="M 12.40625 8.296875 
L 28.515625 8.296875 
L 28.515625 63.921875 
L 10.984375 60.40625 
L 10.984375 69.390625 
L 28.421875 72.90625 
L 38.28125 72.90625 
L 38.28125 8.296875 
L 54.390625 8.296875 
L 54.390625 0 
L 12.40625 0 
z
" id="DejaVuSans-31"/>
     <path d="M 31.78125 66.40625 
Q 24.171875 66.40625 20.328125 58.90625 
Q 16.5 51.421875 16.5 36.375 
Q 16.5 21.390625 20.328125 13.890625 
Q 24.171875 6.390625 31.78125 6.390625 
Q 39.453125 6.390625 43.28125 13.890625 
Q 47.125 21.390625 47.125 36.375 
Q 47.125 51.421875 43.28125 58.90625 
Q 39.453125 66.40625 31.78125 66.40625 
z
M 31.78125 74.21875 
Q 44.046875 74.21875 50.515625 64.515625 
Q 56.984375 54.828125 56.984375 36.375 
Q 56.984375 17.96875 50.515625 8.265625 
Q 44.046875 -1.421875 31.78125 -1.421875 
Q 19.53125 -1.421875 13.0625 8.265625 
Q 6.59375 17.96875 6.59375 36.375 
Q 6.59375 54.828125 13.0625 64.515625 
Q 19.53125 74.21875 31.78125 74.21875 
z
" id="DejaVuSans-30"/>
     <path d="M 37.796875 64.3125 
L 12.890625 25.390625 
L 37.796875 25.390625 
z
M 35.203125 72.90625 
L 47.609375 72.90625 
L 47.609375 25.390625 
L 58.015625 25.390625 
L 58.015625 17.1875 
L 47.609375 17.1875 
L 47.609375 0 
L 37.796875 0 
L 37.796875 17.1875 
L 4.890625 17.1875 
L 4.890625 26.703125 
z
" id="DejaVuSans-34"/>
     <path d="M 11.71875 12.40625 
L 22.015625 12.40625 
L 22.015625 4 
L 14.015625 -11.625 
L 7.71875 -11.625 
L 11.71875 4 
z
" id="DejaVuSans-2c"/>
     <path d="M 16.890625 72.90625 
L 62.984375 72.90625 
L 61.375 64.59375 
L 25.09375 64.59375 
L 20.90625 43.015625 
L 55.71875 43.015625 
L 54.109375 34.71875 
L 19.28125 34.71875 
L 14.203125 8.296875 
L 51.3125 8.296875 
L 49.703125 0 
L 2.6875 0 
z
" id="DejaVuSans-Oblique-45"/>
     <path d="M 16.890625 72.90625 
L 30.171875 72.90625 
L 50.296875 10.40625 
L 62.5 72.90625 
L 72.125 72.90625 
L 57.90625 0 
L 44.578125 0 
L 24.515625 62.890625 
L 12.3125 0 
L 2.6875 0 
z
" id="DejaVuSans-Oblique-4e"/>
     <path d="M 10.59375 45.40625 
L 73.1875 45.40625 
L 73.1875 37.203125 
L 10.59375 37.203125 
z
M 10.59375 25.484375 
L 73.1875 25.484375 
L 73.1875 17.1875 
L 10.59375 17.1875 
z
" id="DejaVuSans-3d"/>
     <path d="M 4.890625 31.390625 
L 31.203125 31.390625 
L 31.203125 23.390625 
L 4.890625 23.390625 
z
" id="DejaVuSans-2d"/>
     <path d="M 8.203125 72.90625 
L 55.078125 72.90625 
L 55.078125 68.703125 
L 28.609375 0 
L 18.3125 0 
L 43.21875 64.59375 
L 8.203125 64.59375 
z
" id="DejaVuSans-37"/>
     <path d="M 10.6875 12.40625 
L 21 12.40625 
L 21 0 
L 10.6875 0 
z
" id="DejaVuSans-2e"/>
     <path d="M 33.015625 40.375 
Q 26.375 40.375 22.484375 35.828125 
Q 18.609375 31.296875 18.609375 23.390625 
Q 18.609375 15.53125 22.484375 10.953125 
Q 26.375 6.390625 33.015625 6.390625 
Q 39.65625 6.390625 43.53125 10.953125 
Q 47.40625 15.53125 47.40625 23.390625 
Q 47.40625 31.296875 43.53125 35.828125 
Q 39.65625 40.375 33.015625 40.375 
z
M 52.59375 71.296875 
L 52.59375 62.3125 
Q 48.875 64.0625 45.09375 64.984375 
Q 41.3125 65.921875 37.59375 65.921875 
Q 27.828125 65.921875 22.671875 59.328125 
Q 17.53125 52.734375 16.796875 39.40625 
Q 19.671875 43.65625 24.015625 45.921875 
Q 28.375 48.1875 33.59375 48.1875 
Q 44.578125 48.1875 50.953125 41.515625 
Q 57.328125 34.859375 57.328125 23.390625 
Q 57.328125 12.15625 50.6875 5.359375 
Q 44.046875 -1.421875 33.015625 -1.421875 
Q 20.359375 -1.421875 13.671875 8.265625 
Q 6.984375 17.96875 6.984375 36.375 
Q 6.984375 53.65625 15.1875 63.9375 
Q 23.390625 74.21875 37.203125 74.21875 
Q 40.921875 74.21875 44.703125 73.484375 
Q 48.484375 72.75 52.59375 71.296875 
z
" id="DejaVuSans-36"/>
     <path d="M 28.609375 0 
L 0.78125 72.90625 
L 11.078125 72.90625 
L 34.1875 11.53125 
L 57.328125 72.90625 
L 67.578125 72.90625 
L 39.796875 0 
z
" id="DejaVuSans-56"/>
     <path d="M 34.1875 63.1875 
L 14.15625 8.203125 
L 54.25 8.203125 
z
M 0.78125 0 
L 28.609375 72.90625 
L 39.796875 72.90625 
L 67.578125 0 
z
" id="DejaVuSans-394"/>
     <path d="M 9.8125 72.90625 
L 55.90625 72.90625 
L 55.90625 64.59375 
L 19.671875 64.59375 
L 19.671875 43.015625 
L 54.390625 43.015625 
L 54.390625 34.71875 
L 19.671875 34.71875 
L 19.671875 8.296875 
L 56.78125 8.296875 
L 56.78125 0 
L 9.8125 0 
z
" id="DejaVuSans-45"/>
    </defs>
    <g transform="translate(63.228 35.472)scale(0.12 -0.12)">
     <use transform="translate(0 0.78125)" xlink:href="#DejaVuSans-53"/>
     <use transform="translate(63.476562 0.78125)" xlink:href="#DejaVuSans-74"/>
     <use transform="translate(102.685547 0.78125)" xlink:href="#DejaVuSans-72"/>
     <use transform="translate(143.798828 0.78125)" xlink:href="#DejaVuSans-75"/>
     <use transform="translate(207.177734 0.78125)" xlink:href="#DejaVuSans-63"/>
     <use transform="translate(262.158203 0.78125)" xlink:href="#DejaVuSans-74"/>
     <use transform="translate(301.367188 0.78125)" xlink:href="#DejaVuSans-75"/>
     <use transform="translate(364.746094 0.78125)" xlink:href="#DejaVuSans-72"/>
     <use transform="translate(405.859375 0.78125)" xlink:href="#DejaVuSans-65"/>
     <use transform="translate(467.382812 0.78125)" xlink:href="#DejaVuSans-20"/>
     <use transform="translate(499.169922 0.78125)" xlink:href="#DejaVuSans-23"/>
     <use transform="translate(582.958984 0.78125)" xlink:href="#DejaVuSans-32"/>
     <use transform="translate(646.582031 0.78125)" xlink:href="#DejaVuSans-31"/>
     <use transform="translate(710.205078 0.78125)" xlink:href="#DejaVuSans-30"/>
     <use transform="translate(773.828125 0.78125)" xlink:href="#DejaVuSans-34"/>
     <use transform="translate(837.451172 0.78125)" xlink:href="#DejaVuSans-2c"/>
     <use transform="translate(869.238281 0.78125)" xlink:href="#DejaVuSans-20"/>
     <use transform="translate(901.025391 0.78125)" xlink:href="#DejaVuSans-Oblique-45"/>
     <use transform="translate(964.208984 -15.625)scale(0.7)" xlink:href="#DejaVuSans-Oblique-4e"/>
     <use transform="translate(1019.306641 0.78125)" xlink:href="#DejaVuSans-3d"/>
     <use transform="translate(1103.095703 0.78125)" xlink:href="#DejaVuSans-2d"/>
     <use transform="translate(1139.179688 0.78125)" xlink:href="#DejaVuSans-31"/>
     <use transform="translate(1202.802734 0.78125)" xlink:href="#DejaVuSans-37"/>
     <use transform="translate(1266.410156 0.78125)" xlink:href="#DejaVuSans-37"/>
     <use transform="translate(1330.033203 0.78125)" xlink:href="#DejaVuSans-2e"/>
     <use transform="translate(1361.820312 0.78125)" xlink:href="#DejaVuSans-36"/>
     <use transform="translate(1425.443359 0.78125)" xlink:href="#DejaVuSans-34"/>
     <use transform="translate(1489.066406 0.78125)" xlink:href="#DejaVuSans-65"/>
     <use transform="translate(1550.589844 0.78125)" xlink:href="#DejaVuSans-56"/>
     <use transform="translate(1618.998047 0.78125)" xlink:href="#DejaVuSans-2c"/>
     <use transform="translate(1650.785156 0.78125)" xlink:href="#DejaVuSans-20"/>
     <use transform="translate(1682.572266 0.78125)" xlink:href="#DejaVuSans-394"/>
     <use transform="translate(1750.980469 0.78125)" xlink:href="#DejaVuSans-45"/>
     <use transform="translate(1814.164062 0.78125)" xlink:href="#DejaVuSans-3d"/>
     <use transform="translate(1897.953125 0.78125)" xlink:href="#DejaVuSans-2d"/>
     <use transform="translate(1934.037109 0.78125)" xlink:href="#DejaVuSans-30"/>
     <use transform="translate(1997.660156 0.78125)" xlink:href="#DejaVuSans-2e"/>
     <use transform="translate(2029.447266 0.78125)" xlink:href="#DejaVuSans-31"/>
     <use transform="translate(2093.070312 0.78125)" xlink:href="#DejaVuSans-31"/>
     <use transform="translate(2156.693359 0.78125)" xlink:href="#DejaVuSans-65"/>
     <use transform="translate(2218.216797 0.78125)" xlink:href="#DejaVuSans-56"/>
    </g>
   </g>
  </g>
  <g id="axes_2">
   <g id="patch_2">
    <path clip-path="url(#paf4c531f59)" d="M 361.152 307.584 
L 361.152 306.5445 
L 361.152 42.5115 
L 361.152 41.472 
L 374.4576 41.472 
L 374.4576 42.5115 
L 374.4576 306.5445 
L 374.4576 307.584 
z
" style="fill:#ffffff;stroke:#ffffff;stroke-linejoin:miter;stroke-width:0.01;"/>
   </g>
   <image height="265.68" id="image9e0dbcac6b" transform="scale(1 -1)translate(0 -265.68)" width="12.96" x="361.44" xlink:href="data:image/png;base64,
iVBORw0KGgoAAAANSUhEUgAAABIAAAFxCAYAAAB+2fgXAAAABHNCSVQICAgIfAhkiAAAAeVJREFUeJztncmNw0AQA2ckheYQNv9QLIfQ8ygsCgQ7AEI8+jAs2Puz/94F1LP2ReCsZ18bAWIeZ5XaGRBE7VnbptG+KI101FYyNSiQG2oRITXKNaX9uclOdi2XWjftVE32CZCO2ou5Bj1TcCBr/1zB9ge7Fq0Rg2NM9pvbtG+ua1QgsRYhDy0ISEiNc40BEibbSI0Coj5CBGtkpFbXJiAjNZlrwhuSOv2M1DjXbEdEciBt1JSDDQKKpmZr2rr2j0DBGpXaWEJq3bQzEPIS26r9J+Wzv9Tm8o3aajRXqc3VUXsApKNWjeZq0x4ABVNbm7lrszVigDqP5vIl2+eaT2yfRkL7g+dRcNPqjohkjaCvRVBq0H2U3LQrOJCx9kdTg4B8oxZzzTdqdYHEngjUCAPyUctN9sVRq2sTECW2UKNLd2jVtRmo1A6AhMmWaSRcR8nUdIHUuVb75zJS218EyEitro1At69pIdeSk30Lkw0FktNImGyZRhy1O5galmxd03LUsHWk06jUZiCq+5Wb1kZNN4+wJxJuWt8RAW5am2sYNZ9rYCBzZ3buPKJ2P5Yj4Toy3keyIyJbIxs1rml1byCA84gpch5RQNB7Q0qNMGq2Hy4BXdNR41yz/cEEJfZzUz96r9PoB0okjeQ8y9TkAAAAAElFTkSuQmCC" y="-41.76"/>
   <g id="matplotlib.axis_1"/>
   <g id="matplotlib.axis_2">
    <g id="ytick_1">
     <g id="line2d_1">
      <defs>
       <path d="M 0 0 
L 3.5 0 
" id="mea813ad3e8" style="stroke:#000000;stroke-width:0.8;"/>
      </defs>
      <g>
       <use style="stroke:#000000;stroke-width:0.8;" x="374.4576" xlink:href="#mea813ad3e8" y="286.507006"/>
      </g>
     </g>
     <g id="text_2">
      <!-- −8.5 -->
      <defs>
       <path d="M 10.59375 35.5 
L 73.1875 35.5 
L 73.1875 27.203125 
L 10.59375 27.203125 
z
" id="DejaVuSans-2212"/>
       <path d="M 31.78125 34.625 
Q 24.75 34.625 20.71875 30.859375 
Q 16.703125 27.09375 16.703125 20.515625 
Q 16.703125 13.921875 20.71875 10.15625 
Q 24.75 6.390625 31.78125 6.390625 
Q 38.8125 6.390625 42.859375 10.171875 
Q 46.921875 13.96875 46.921875 20.515625 
Q 46.921875 27.09375 42.890625 30.859375 
Q 38.875 34.625 31.78125 34.625 
z
M 21.921875 38.8125 
Q 15.578125 40.375 12.03125 44.71875 
Q 8.5 49.078125 8.5 55.328125 
Q 8.5 64.0625 14.71875 69.140625 
Q 20.953125 74.21875 31.78125 74.21875 
Q 42.671875 74.21875 48.875 69.140625 
Q 55.078125 64.0625 55.078125 55.328125 
Q 55.078125 49.078125 51.53125 44.71875 
Q 48 40.375 41.703125 38.8125 
Q 48.828125 37.15625 52.796875 32.3125 
Q 56.78125 27.484375 56.78125 20.515625 
Q 56.78125 9.90625 50.3125 4.234375 
Q 43.84375 -1.421875 31.78125 -1.421875 
Q 19.734375 -1.421875 13.25 4.234375 
Q 6.78125 9.90625 6.78125 20.515625 
Q 6.78125 27.484375 10.78125 32.3125 
Q 14.796875 37.15625 21.921875 38.8125 
z
M 18.3125 54.390625 
Q 18.3125 48.734375 21.84375 45.5625 
Q 25.390625 42.390625 31.78125 42.390625 
Q 38.140625 42.390625 41.71875 45.5625 
Q 45.3125 48.734375 45.3125 54.390625 
Q 45.3125 60.0625 41.71875 63.234375 
Q 38.140625 66.40625 31.78125 66.40625 
Q 25.390625 66.40625 21.84375 63.234375 
Q 18.3125 60.0625 18.3125 54.390625 
z
" id="DejaVuSans-38"/>
       <path d="M 10.796875 72.90625 
L 49.515625 72.90625 
L 49.515625 64.59375 
L 19.828125 64.59375 
L 19.828125 46.734375 
Q 21.96875 47.46875 24.109375 47.828125 
Q 26.265625 48.1875 28.421875 48.1875 
Q 40.625 48.1875 47.75 41.5 
Q 54.890625 34.8125 54.890625 23.390625 
Q 54.890625 11.625 47.5625 5.09375 
Q 40.234375 -1.421875 26.90625 -1.421875 
Q 22.3125 -1.421875 17.546875 -0.640625 
Q 12.796875 0.140625 7.71875 1.703125 
L 7.71875 11.625 
Q 12.109375 9.234375 16.796875 8.0625 
Q 21.484375 6.890625 26.703125 6.890625 
Q 35.15625 6.890625 40.078125 11.328125 
Q 45.015625 15.765625 45.015625 23.390625 
Q 45.015625 31 40.078125 35.4375 
Q 35.15625 39.890625 26.703125 39.890625 
Q 22.75 39.890625 18.8125 39.015625 
Q 14.890625 38.140625 10.796875 36.28125 
z
" id="DejaVuSans-35"/>
      </defs>
      <g transform="translate(381.4576 290.306224)scale(0.1 -0.1)">
       <use xlink:href="#DejaVuSans-2212"/>
       <use x="83.789062" xlink:href="#DejaVuSans-38"/>
       <use x="147.412109" xlink:href="#DejaVuSans-2e"/>
       <use x="179.199219" xlink:href="#DejaVuSans-35"/>
      </g>
     </g>
    </g>
    <g id="ytick_2">
     <g id="line2d_2">
      <g>
       <use style="stroke:#000000;stroke-width:0.8;" x="374.4576" xlink:href="#mea813ad3e8" y="251.067995"/>
      </g>
     </g>
     <g id="text_3">
      <!-- −8.0 -->
      <g transform="translate(381.4576 254.867214)scale(0.1 -0.1)">
       <use xlink:href="#DejaVuSans-2212"/>
       <use x="83.789062" xlink:href="#DejaVuSans-38"/>
       <use x="147.412109" xlink:href="#DejaVuSans-2e"/>
       <use x="179.199219" xlink:href="#DejaVuSans-30"/>
      </g>
     </g>
    </g>
    <g id="ytick_3">
     <g id="line2d_3">
      <g>
       <use style="stroke:#000000;stroke-width:0.8;" x="374.4576" xlink:href="#mea813ad3e8" y="215.628984"/>
      </g>
     </g>
     <g id="text_4">
      <!-- −7.5 -->
      <g transform="translate(381.4576 219.428203)scale(0.1 -0.1)">
       <use xlink:href="#DejaVuSans-2212"/>
       <use x="83.789062" xlink:href="#DejaVuSans-37"/>
       <use x="147.412109" xlink:href="#DejaVuSans-2e"/>
       <use x="179.199219" xlink:href="#DejaVuSans-35"/>
      </g>
     </g>
    </g>
    <g id="ytick_4">
     <g id="line2d_4">
      <g>
       <use style="stroke:#000000;stroke-width:0.8;" x="374.4576" xlink:href="#mea813ad3e8" y="180.189973"/>
      </g>
     </g>
     <g id="text_5">
      <!-- −7.0 -->
      <g transform="translate(381.4576 183.989192)scale(0.1 -0.1)">
       <use xlink:href="#DejaVuSans-2212"/>
       <use x="83.789062" xlink:href="#DejaVuSans-37"/>
       <use x="147.412109" xlink:href="#DejaVuSans-2e"/>
       <use x="179.199219" xlink:href="#DejaVuSans-30"/>
      </g>
     </g>
    </g>
    <g id="ytick_5">
     <g id="line2d_5">
      <g>
       <use style="stroke:#000000;stroke-width:0.8;" x="374.4576" xlink:href="#mea813ad3e8" y="144.750962"/>
      </g>
     </g>
     <g id="text_6">
      <!-- −6.5 -->
      <g transform="translate(381.4576 148.550181)scale(0.1 -0.1)">
       <use xlink:href="#DejaVuSans-2212"/>
       <use x="83.789062" xlink:href="#DejaVuSans-36"/>
       <use x="147.412109" xlink:href="#DejaVuSans-2e"/>
       <use x="179.199219" xlink:href="#DejaVuSans-35"/>
      </g>
     </g>
    </g>
    <g id="ytick_6">
     <g id="line2d_6">
      <g>
       <use style="stroke:#000000;stroke-width:0.8;" x="374.4576" xlink:href="#mea813ad3e8" y="109.311951"/>
      </g>
     </g>
     <g id="text_7">
      <!-- −6.0 -->
      <g transform="translate(381.4576 113.11117)scale(0.1 -0.1)">
       <use xlink:href="#DejaVuSans-2212"/>
       <use x="83.789062" xlink:href="#DejaVuSans-36"/>
       <use x="147.412109" xlink:href="#DejaVuSans-2e"/>
       <use x="179.199219" xlink:href="#DejaVuSans-30"/>
      </g>
     </g>
    </g>
    <g id="ytick_7">
     <g id="line2d_7">
      <g>
       <use style="stroke:#000000;stroke-width:0.8;" x="374.4576" xlink:href="#mea813ad3e8" y="73.87294"/>
      </g>
     </g>
     <g id="text_8">
      <!-- −5.5 -->
      <g transform="translate(381.4576 77.672159)scale(0.1 -0.1)">
       <use xlink:href="#DejaVuSans-2212"/>
       <use x="83.789062" xlink:href="#DejaVuSans-35"/>
       <use x="147.412109" xlink:href="#DejaVuSans-2e"/>
       <use x="179.199219" xlink:href="#DejaVuSans-35"/>
      </g>
     </g>
    </g>
    <g id="text_9">
     <!-- Energy [eV] -->
     <defs>
      <path d="M 54.890625 33.015625 
L 54.890625 0 
L 45.90625 0 
L 45.90625 32.71875 
Q 45.90625 40.484375 42.875 44.328125 
Q 39.84375 48.1875 33.796875 48.1875 
Q 26.515625 48.1875 22.3125 43.546875 
Q 18.109375 38.921875 18.109375 30.90625 
L 18.109375 0 
L 9.078125 0 
L 9.078125 54.6875 
L 18.109375 54.6875 
L 18.109375 46.1875 
Q 21.34375 51.125 25.703125 53.5625 
Q 30.078125 56 35.796875 56 
Q 45.21875 56 50.046875 50.171875 
Q 54.890625 44.34375 54.890625 33.015625 
z
" id="DejaVuSans-6e"/>
      <path d="M 45.40625 27.984375 
Q 45.40625 37.75 41.375 43.109375 
Q 37.359375 48.484375 30.078125 48.484375 
Q 22.859375 48.484375 18.828125 43.109375 
Q 14.796875 37.75 14.796875 27.984375 
Q 14.796875 18.265625 18.828125 12.890625 
Q 22.859375 7.515625 30.078125 7.515625 
Q 37.359375 7.515625 41.375 12.890625 
Q 45.40625 18.265625 45.40625 27.984375 
z
M 54.390625 6.78125 
Q 54.390625 -7.171875 48.1875 -13.984375 
Q 42 -20.796875 29.203125 -20.796875 
Q 24.46875 -20.796875 20.265625 -20.09375 
Q 16.0625 -19.390625 12.109375 -17.921875 
L 12.109375 -9.1875 
Q 16.0625 -11.328125 19.921875 -12.34375 
Q 23.78125 -13.375 27.78125 -13.375 
Q 36.625 -13.375 41.015625 -8.765625 
Q 45.40625 -4.15625 45.40625 5.171875 
L 45.40625 9.625 
Q 42.625 4.78125 38.28125 2.390625 
Q 33.9375 0 27.875 0 
Q 17.828125 0 11.671875 7.65625 
Q 5.515625 15.328125 5.515625 27.984375 
Q 5.515625 40.671875 11.671875 48.328125 
Q 17.828125 56 27.875 56 
Q 33.9375 56 38.28125 53.609375 
Q 42.625 51.21875 45.40625 46.390625 
L 45.40625 54.6875 
L 54.390625 54.6875 
z
" id="DejaVuSans-67"/>
      <path d="M 32.171875 -5.078125 
Q 28.375 -14.84375 24.75 -17.8125 
Q 21.140625 -20.796875 15.09375 -20.796875 
L 7.90625 -20.796875 
L 7.90625 -13.28125 
L 13.1875 -13.28125 
Q 16.890625 -13.28125 18.9375 -11.515625 
Q 21 -9.765625 23.484375 -3.21875 
L 25.09375 0.875 
L 2.984375 54.6875 
L 12.5 54.6875 
L 29.59375 11.921875 
L 46.6875 54.6875 
L 56.203125 54.6875 
z
" id="DejaVuSans-79"/>
      <path d="M 8.59375 75.984375 
L 29.296875 75.984375 
L 29.296875 69 
L 17.578125 69 
L 17.578125 -6.203125 
L 29.296875 -6.203125 
L 29.296875 -13.1875 
L 8.59375 -13.1875 
z
" id="DejaVuSans-5b"/>
      <path d="M 30.421875 75.984375 
L 30.421875 -13.1875 
L 9.71875 -13.1875 
L 9.71875 -6.203125 
L 21.390625 -6.203125 
L 21.390625 69 
L 9.71875 69 
L 9.71875 75.984375 
z
" id="DejaVuSans-5d"/>
     </defs>
     <g transform="translate(417.33885 204.108469)rotate(-90)scale(0.1 -0.1)">
      <use xlink:href="#DejaVuSans-45"/>
      <use x="63.183594" xlink:href="#DejaVuSans-6e"/>
      <use x="126.5625" xlink:href="#DejaVuSans-65"/>
      <use x="188.085938" xlink:href="#DejaVuSans-72"/>
      <use x="229.183594" xlink:href="#DejaVuSans-67"/>
      <use x="292.660156" xlink:href="#DejaVuSans-79"/>
      <use x="351.839844" xlink:href="#DejaVuSans-20"/>
      <use x="383.626953" xlink:href="#DejaVuSans-5b"/>
      <use x="422.640625" xlink:href="#DejaVuSans-65"/>
      <use x="484.164062" xlink:href="#DejaVuSans-56"/>
      <use x="552.572266" xlink:href="#DejaVuSans-5d"/>
     </g>
    </g>
   </g>
   <g id="patch_3">
    <path d="M 361.152 307.584 
L 361.152 306.5445 
L 361.152 42.5115 
L 361.152 41.472 
L 374.4576 41.472 
L 374.4576 42.5115 
L 374.4576 306.5445 
L 374.4576 307.584 
z
" style="fill:none;stroke:#000000;stroke-linejoin:miter;stroke-width:0.8;"/>
   </g>
  </g>
 </g>
 <defs>
  <clipPath id="pbc6466d427">
   <rect height="266.112" width="285.696" x="57.6" y="41.472"/>
  </clipPath>
  <clipPath id="paf4c531f59">
   <rect height="266.112" width="13.3056" x="361.152" y="41.472"/>
  </clipPath>
 </defs>
</svg>
