<?xml version="1.0" encoding="utf-8" standalone="no"?>
<!DOCTYPE svg PUBLIC "-//W3C//DTD SVG 1.1//EN"
  "http://www.w3.org/Graphics/SVG/1.1/DTD/svg11.dtd">
<!-- Created with matplotlib (http://matplotlib.org/) -->
<svg height="345.6pt" version="1.1" viewBox="0 0 460.8 345.6" width="460.8pt" xmlns="http://www.w3.org/2000/svg" xmlns:xlink="http://www.w3.org/1999/xlink">
 <defs>
  <style type="text/css">
*{stroke-linecap:butt;stroke-linejoin:round;}
  </style>
 </defs>
 <g id="figure_1">
  <g id="patch_1">
   <path d="M 0 345.6 
L 460.8 345.6 
L 460.8 0 
L 0 0 
z
" style="fill:#ffffff;"/>
  </g>
  <g id="axes_1">
   <g id="CircleCollection_1">
    <path clip-path="url(#pa585b5d35c)" d="M 284.40863 94.947331 
C 286.204308 94.947331 287.926682 94.2339 289.196418 92.964164 
C 290.466155 91.694428 291.179585 89.972054 291.179585 88.176375 
C 291.179585 86.380697 290.466155 84.658323 289.196418 83.388587 
C 287.926682 82.11885 286.204308 81.40542 284.40863 81.40542 
C 282.612951 81.40542 280.890578 82.11885 279.620841 83.388587 
C 278.351105 84.658323 277.637674 86.380697 277.637674 88.176375 
C 277.637674 89.972054 278.351105 91.694428 279.620841 92.964164 
C 280.890578 94.2339 282.612951 94.947331 284.40863 94.947331 
z
" style="fill:#297b8e;"/>
    <path clip-path="url(#pa585b5d35c)" d="M 253.330345 64.500581 
C 255.058537 64.500581 256.71618 63.813963 257.938196 62.591947 
C 259.160212 61.36993 259.84683 59.712288 259.84683 57.984095 
C 259.84683 56.255903 259.160212 54.598261 257.938196 53.376244 
C 256.71618 52.154228 255.058537 51.46761 253.330345 51.46761 
C 251.602153 51.46761 249.94451 52.154228 248.722494 53.376244 
C 247.500477 54.598261 246.813859 56.255903 246.813859 57.984095 
C 246.813859 59.712288 247.500477 61.36993 248.722494 62.591947 
C 249.94451 63.813963 251.602153 64.500581 253.330345 64.500581 
z
" style="fill:#306a8e;"/>
    <path clip-path="url(#pa585b5d35c)" d="M 110.07736 261.929904 
C 111.891422 261.929904 113.631428 261.20917 114.914163 259.926434 
C 116.196898 258.643699 116.917632 256.903693 116.917632 255.089632 
C 116.917632 253.27557 116.196898 251.535564 114.914163 250.252829 
C 113.631428 248.970093 111.891422 248.249359 110.07736 248.249359 
C 108.263299 248.249359 106.523292 248.970093 105.240557 250.252829 
C 103.957822 251.535564 103.237088 253.27557 103.237088 255.089632 
C 103.237088 256.903693 103.957822 258.643699 105.240557 259.926434 
C 106.523292 261.20917 108.263299 261.929904 110.07736 261.929904 
z
" style="fill:#35b779;"/>
    <path clip-path="url(#pa585b5d35c)" d="M 260.467756 99.253714 
C 262.33594 99.253714 264.12786 98.511476 265.448865 97.190471 
C 266.769871 95.869465 267.512108 94.077545 267.512108 92.209361 
C 267.512108 90.341177 266.769871 88.549257 265.448865 87.228251 
C 264.12786 85.907246 262.33594 85.165008 260.467756 85.165008 
C 258.599571 85.165008 256.807652 85.907246 255.486646 87.228251 
C 254.16564 88.549257 253.423403 90.341177 253.423403 92.209361 
C 253.423403 94.077545 254.16564 95.869465 255.486646 97.190471 
C 256.807652 98.511476 258.599571 99.253714 260.467756 99.253714 
z
" style="fill:#fde725;"/>
    <path clip-path="url(#pa585b5d35c)" d="M 276.623097 271.759004 
C 278.403847 271.759004 280.111901 271.051505 281.371081 269.792325 
C 282.630262 268.533145 283.337761 266.82509 283.337761 265.044341 
C 283.337761 263.263591 282.630262 261.555536 281.371081 260.296356 
C 280.111901 259.037176 278.403847 258.329677 276.623097 258.329677 
C 274.842347 258.329677 273.134293 259.037176 271.875113 260.296356 
C 270.615933 261.555536 269.908433 263.263591 269.908433 265.044341 
C 269.908433 266.82509 270.615933 268.533145 271.875113 269.792325 
C 273.134293 271.051505 274.842347 271.759004 276.623097 271.759004 
z
" style="fill:#26818e;"/>
    <path clip-path="url(#pa585b5d35c)" d="M 239.675392 289.772213 
C 241.518464 289.772213 243.286297 289.039953 244.589545 287.736704 
C 245.892794 286.433455 246.625055 284.665622 246.625055 282.82255 
C 246.625055 280.979478 245.892794 279.211646 244.589545 277.908397 
C 243.286297 276.605148 241.518464 275.872888 239.675392 275.872888 
C 237.83232 275.872888 236.064487 276.605148 234.761238 277.908397 
C 233.457989 279.211646 232.725729 280.979478 232.725729 282.82255 
C 232.725729 284.665622 233.457989 286.433455 234.761238 287.736704 
C 236.064487 289.039953 237.83232 289.772213 239.675392 289.772213 
z
" style="fill:#98d83e;"/>
    <path clip-path="url(#pa585b5d35c)" d="M 120.902216 86.257169 
C 122.622502 86.257169 124.272562 85.573692 125.488989 84.357266 
C 126.705415 83.140839 127.388892 81.490779 127.388892 79.770493 
C 127.388892 78.050206 126.705415 76.400146 125.488989 75.18372 
C 124.272562 73.967293 122.622502 73.283816 120.902216 73.283816 
C 119.181929 73.283816 117.531869 73.967293 116.315443 75.18372 
C 115.099017 76.400146 114.415539 78.050206 114.415539 79.770493 
C 114.415539 81.490779 115.099017 83.140839 116.315443 84.357266 
C 117.531869 85.573692 119.181929 86.257169 120.902216 86.257169 
z
" style="fill:#228b8d;"/>
    <path clip-path="url(#pa585b5d35c)" d="M 234.722609 287.350311 
C 236.461976 287.350311 238.130336 286.659254 239.360254 285.429336 
C 240.590172 284.199418 241.28123 282.531057 241.28123 280.791691 
C 241.28123 279.052324 240.590172 277.383964 239.360254 276.154046 
C 238.130336 274.924128 236.461976 274.23307 234.722609 274.23307 
C 232.983242 274.23307 231.314882 274.924128 230.084964 276.154046 
C 228.855046 277.383964 228.163988 279.052324 228.163988 280.791691 
C 228.163988 282.531057 228.855046 284.199418 230.084964 285.429336 
C 231.314882 286.659254 232.983242 287.350311 234.722609 287.350311 
z
" style="fill:#98d83e;"/>
    <path clip-path="url(#pa585b5d35c)" d="M 161.541468 62.121604 
C 163.264505 62.121604 164.917203 61.437034 166.135574 60.218663 
C 167.353945 59.000292 168.038515 57.347594 168.038515 55.624557 
C 168.038515 53.90152 167.353945 52.248822 166.135574 51.030451 
C 164.917203 49.81208 163.264505 49.12751 161.541468 49.12751 
C 159.818431 49.12751 158.165733 49.81208 156.947362 51.030451 
C 155.728991 52.248822 155.044421 53.90152 155.044421 55.624557 
C 155.044421 57.347594 155.728991 59.000292 156.947362 60.218663 
C 158.165733 61.437034 159.818431 62.121604 161.541468 62.121604 
z
" style="fill:#29af7f;"/>
    <path clip-path="url(#pa585b5d35c)" d="M 86.41813 124.48668 
C 88.151279 124.48668 89.813676 123.798093 91.039197 122.572572 
C 92.264718 121.347051 92.953305 119.684654 92.953305 117.951505 
C 92.953305 116.218356 92.264718 114.55596 91.039197 113.330438 
C 89.813676 112.104917 88.151279 111.41633 86.41813 111.41633 
C 84.684982 111.41633 83.022585 112.104917 81.797064 113.330438 
C 80.571542 114.55596 79.882955 116.218356 79.882955 117.951505 
C 79.882955 119.684654 80.571542 121.347051 81.797064 122.572572 
C 83.022585 123.798093 84.684982 124.48668 86.41813 124.48668 
z
" style="fill:#228c8d;"/>
    <path clip-path="url(#pa585b5d35c)" d="M 329.830848 182.580458 
C 331.591699 182.580458 333.280667 181.880864 334.525776 180.635755 
C 335.770886 179.390645 336.470479 177.701677 336.470479 175.940826 
C 336.470479 174.179975 335.770886 172.491007 334.525776 171.245898 
C 333.280667 170.000788 331.591699 169.301195 329.830848 169.301195 
C 328.069997 169.301195 326.381029 170.000788 325.135919 171.245898 
C 323.89081 172.491007 323.191216 174.179975 323.191216 175.940826 
C 323.191216 177.701677 323.89081 179.390645 325.135919 180.635755 
C 326.381029 181.880864 328.069997 182.580458 329.830848 182.580458 
z
" style="fill:#24aa83;"/>
    <path clip-path="url(#pa585b5d35c)" d="M 175.261128 104.845577 
C 177.155318 104.845577 178.972181 104.093007 180.311576 102.753613 
C 181.65097 101.414218 182.40354 99.597355 182.40354 97.703165 
C 182.40354 95.808975 181.65097 93.992111 180.311576 92.652716 
C 178.972181 91.313322 177.155318 90.560752 175.261128 90.560752 
C 173.366938 90.560752 171.550074 91.313322 170.21068 92.652716 
C 168.871285 93.992111 168.118715 95.808975 168.118715 97.703165 
C 168.118715 99.597355 168.871285 101.414218 170.21068 102.753613 
C 171.550074 104.093007 173.366938 104.845577 175.261128 104.845577 
z
" style="fill:#42be71;"/>
    <path clip-path="url(#pa585b5d35c)" d="M 71.067163 169.654413 
C 72.835406 169.654413 74.531464 168.951882 75.781801 167.701546 
C 77.032138 166.451209 77.734668 164.75515 77.734668 162.986907 
C 77.734668 161.218664 77.032138 159.522606 75.781801 158.272269 
C 74.531464 157.021932 72.835406 156.319402 71.067163 156.319402 
C 69.29892 156.319402 67.602861 157.021932 66.352525 158.272269 
C 65.102188 159.522606 64.399658 161.218664 64.399658 162.986907 
C 64.399658 164.75515 65.102188 166.451209 66.352525 167.701546 
C 67.602861 168.951882 69.29892 169.654413 71.067163 169.654413 
z
" style="fill:#60ca60;"/>
    <path clip-path="url(#pa585b5d35c)" d="M 109.724435 178.583539 
C 111.616552 178.583539 113.431428 177.831793 114.769356 176.493864 
C 116.107285 175.155935 116.859031 173.341059 116.859031 171.448942 
C 116.859031 169.556825 116.107285 167.74195 114.769356 166.404021 
C 113.431428 165.066092 111.616552 164.314346 109.724435 164.314346 
C 107.832318 164.314346 106.017442 165.066092 104.679513 166.404021 
C 103.341584 167.74195 102.589838 169.556825 102.589838 171.448942 
C 102.589838 173.341059 103.341584 175.155935 104.679513 176.493864 
C 106.017442 177.831793 107.832318 178.583539 109.724435 178.583539 
z
" style="fill:#70cf57;"/>
    <path clip-path="url(#pa585b5d35c)" d="M 89.172537 208.296478 
C 91.001005 208.296478 92.754831 207.57002 94.047753 206.277098 
C 95.340676 204.984175 96.067134 203.23035 96.067134 201.401881 
C 96.067134 199.573412 95.340676 197.819587 94.047753 196.526664 
C 92.754831 195.233742 91.001005 194.507283 89.172537 194.507283 
C 87.344068 194.507283 85.590243 195.233742 84.29732 196.526664 
C 83.004397 197.819587 82.277939 199.573412 82.277939 201.401881 
C 82.277939 203.23035 83.004397 204.984175 84.29732 206.277098 
C 85.590243 207.57002 87.344068 208.296478 89.172537 208.296478 
z
" style="fill:#440154;"/>
    <path clip-path="url(#pa585b5d35c)" d="M 140.344531 139.358976 
C 142.2532 139.358976 144.083952 138.600653 145.433586 137.25102 
C 146.783219 135.901387 147.541541 134.070635 147.541541 132.161966 
C 147.541541 130.253296 146.783219 128.422544 145.433586 127.072911 
C 144.083952 125.723278 142.2532 124.964955 140.344531 124.964955 
C 138.435861 124.964955 136.605109 125.723278 135.255476 127.072911 
C 133.905843 128.422544 133.147521 130.253296 133.147521 132.161966 
C 133.147521 134.070635 133.905843 135.901387 135.255476 137.25102 
C 136.605109 138.600653 138.435861 139.358976 140.344531 139.358976 
z
" style="fill:#297b8e;"/>
    <path clip-path="url(#pa585b5d35c)" d="M 196.885408 301.514605 
C 198.68872 301.514605 200.418416 300.798141 201.693551 299.523006 
C 202.968686 298.247872 203.685149 296.518175 203.685149 294.714863 
C 203.685149 292.91155 202.968686 291.181854 201.693551 289.906719 
C 200.418416 288.631585 198.68872 287.915121 196.885408 287.915121 
C 195.082095 287.915121 193.352399 288.631585 192.077264 289.906719 
C 190.80213 291.181854 190.085666 292.91155 190.085666 294.714863 
C 190.085666 296.518175 190.80213 298.247872 192.077264 299.523006 
C 193.352399 300.798141 195.082095 301.514605 196.885408 301.514605 
z
" style="fill:#27808e;"/>
    <path clip-path="url(#pa585b5d35c)" d="M 323.487279 97.792063 
C 325.145569 97.792063 326.736164 97.133217 327.908753 95.960629 
C 329.081342 94.78804 329.740188 93.197445 329.740188 91.539154 
C 329.740188 89.880863 329.081342 88.290268 327.908753 87.11768 
C 326.736164 85.945091 325.145569 85.286245 323.487279 85.286245 
C 321.828988 85.286245 320.238393 85.945091 319.065804 87.11768 
C 317.893215 88.290268 317.234369 89.880863 317.234369 91.539154 
C 317.234369 93.197445 317.893215 94.78804 319.065804 95.960629 
C 320.238393 97.133217 321.828988 97.792063 323.487279 97.792063 
z
" style="fill:#eae51a;"/>
    <path clip-path="url(#pa585b5d35c)" d="M 206.287013 60.967639 
C 208.049073 60.967639 209.7392 60.267566 210.985164 59.021601 
C 212.231128 57.775637 212.931202 56.08551 212.931202 54.323451 
C 212.931202 52.561391 212.231128 50.871264 210.985164 49.6253 
C 209.7392 48.379336 208.049073 47.679262 206.287013 47.679262 
C 204.524954 47.679262 202.834827 48.379336 201.588862 49.6253 
C 200.342898 50.871264 199.642825 52.561391 199.642825 54.323451 
C 199.642825 56.08551 200.342898 57.775637 201.588862 59.021601 
C 202.834827 60.267566 204.524954 60.967639 206.287013 60.967639 
z
" style="fill:#404588;"/>
    <path clip-path="url(#pa585b5d35c)" d="M 149.308015 287.84424 
C 151.119233 287.84424 152.856511 287.124635 154.137236 285.843911 
C 155.41796 284.563187 156.137565 282.825908 156.137565 281.01469 
C 156.137565 279.203472 155.41796 277.466193 154.137236 276.185469 
C 152.856511 274.904745 151.119233 274.18514 149.308015 274.18514 
C 147.496797 274.18514 145.759518 274.904745 144.478794 276.185469 
C 143.198069 277.466193 142.478465 279.203472 142.478465 281.01469 
C 142.478465 282.825908 143.198069 284.563187 144.478794 285.843911 
C 145.759518 287.124635 147.496797 287.84424 149.308015 287.84424 
z
" style="fill:#20928c;"/>
    <path clip-path="url(#pa585b5d35c)" d="M 321.249978 125.511265 
C 322.99317 125.511265 324.665201 124.818687 325.897824 123.586064 
C 327.130448 122.353441 327.823025 120.68141 327.823025 118.938217 
C 327.823025 117.195025 327.130448 115.522994 325.897824 114.290371 
C 324.665201 113.057747 322.99317 112.36517 321.249978 112.36517 
C 319.506785 112.36517 317.834754 113.057747 316.602131 114.290371 
C 315.369508 115.522994 314.67693 117.195025 314.67693 118.938217 
C 314.67693 120.68141 315.369508 122.353441 316.602131 123.586064 
C 317.834754 124.818687 319.506785 125.511265 321.249978 125.511265 
z
" style="fill:#424186;"/>
    <path clip-path="url(#pa585b5d35c)" d="M 281.732581 72.024128 
C 283.385702 72.024128 284.971338 71.367336 286.140271 70.198403 
C 287.309204 69.02947 287.965996 67.443835 287.965996 65.790714 
C 287.965996 64.137593 287.309204 62.551957 286.140271 61.383024 
C 284.971338 60.214092 283.385702 59.5573 281.732581 59.5573 
C 280.079461 59.5573 278.493825 60.214092 277.324892 61.383024 
C 276.155959 62.551957 275.499167 64.137593 275.499167 65.790714 
C 275.499167 67.443835 276.155959 69.02947 277.324892 70.198403 
C 278.493825 71.367336 280.079461 72.024128 281.732581 72.024128 
z
" style="fill:#86d549;"/>
    <path clip-path="url(#pa585b5d35c)" d="M 309.680446 229.431791 
C 311.453814 229.431791 313.154789 228.727224 314.408749 227.473264 
C 315.66271 226.219303 316.367277 224.518329 316.367277 222.744961 
C 316.367277 220.971593 315.66271 219.270618 314.408749 218.016658 
C 313.154789 216.762697 311.453814 216.05813 309.680446 216.05813 
C 307.907078 216.05813 306.206104 216.762697 304.952143 218.016658 
C 303.698183 219.270618 302.993616 220.971593 302.993616 222.744961 
C 302.993616 224.518329 303.698183 226.219303 304.952143 227.473264 
C 306.206104 228.727224 307.907078 229.431791 309.680446 229.431791 
z
" style="fill:#1f958b;"/>
    <path clip-path="url(#pa585b5d35c)" d="M 211.939066 81.433883 
C 213.790161 81.433883 215.565689 80.698435 216.874611 79.389513 
C 218.183533 78.080591 218.918981 76.305063 218.918981 74.453968 
C 218.918981 72.602873 218.183533 70.827344 216.874611 69.518422 
C 215.565689 68.2095 213.790161 67.474052 211.939066 67.474052 
C 210.08797 67.474052 208.312442 68.2095 207.00352 69.518422 
C 205.694598 70.827344 204.95915 72.602873 204.95915 74.453968 
C 204.95915 76.305063 205.694598 78.080591 207.00352 79.389513 
C 208.312442 80.698435 210.08797 81.433883 211.939066 81.433883 
z
" style="fill:#453882;"/>
   </g>
   <g id="text_1">
    <!-- Structure #1524, $E_N$=-178.36eV, ΔE=0.38eV -->
    <defs>
     <path d="M 53.515625 70.515625 
L 53.515625 60.890625 
Q 47.90625 63.578125 42.921875 64.890625 
Q 37.9375 66.21875 33.296875 66.21875 
Q 25.25 66.21875 20.875 63.09375 
Q 16.5 59.96875 16.5 54.203125 
Q 16.5 49.359375 19.40625 46.890625 
Q 22.3125 44.4375 30.421875 42.921875 
L 36.375 41.703125 
Q 47.40625 39.59375 52.65625 34.296875 
Q 57.90625 29 57.90625 20.125 
Q 57.90625 9.515625 50.796875 4.046875 
Q 43.703125 -1.421875 29.984375 -1.421875 
Q 24.8125 -1.421875 18.96875 -0.25 
Q 13.140625 0.921875 6.890625 3.21875 
L 6.890625 13.375 
Q 12.890625 10.015625 18.65625 8.296875 
Q 24.421875 6.59375 29.984375 6.59375 
Q 38.421875 6.59375 43.015625 9.90625 
Q 47.609375 13.234375 47.609375 19.390625 
Q 47.609375 24.75 44.3125 27.78125 
Q 41.015625 30.8125 33.5 32.328125 
L 27.484375 33.5 
Q 16.453125 35.6875 11.515625 40.375 
Q 6.59375 45.0625 6.59375 53.421875 
Q 6.59375 63.09375 13.40625 68.65625 
Q 20.21875 74.21875 32.171875 74.21875 
Q 37.3125 74.21875 42.625 73.28125 
Q 47.953125 72.359375 53.515625 70.515625 
z
" id="DejaVuSans-53"/>
     <path d="M 18.3125 70.21875 
L 18.3125 54.6875 
L 36.8125 54.6875 
L 36.8125 47.703125 
L 18.3125 47.703125 
L 18.3125 18.015625 
Q 18.3125 11.328125 20.140625 9.421875 
Q 21.96875 7.515625 27.59375 7.515625 
L 36.8125 7.515625 
L 36.8125 0 
L 27.59375 0 
Q 17.1875 0 13.234375 3.875 
Q 9.28125 7.765625 9.28125 18.015625 
L 9.28125 47.703125 
L 2.6875 47.703125 
L 2.6875 54.6875 
L 9.28125 54.6875 
L 9.28125 70.21875 
z
" id="DejaVuSans-74"/>
     <path d="M 41.109375 46.296875 
Q 39.59375 47.171875 37.8125 47.578125 
Q 36.03125 48 33.890625 48 
Q 26.265625 48 22.1875 43.046875 
Q 18.109375 38.09375 18.109375 28.8125 
L 18.109375 0 
L 9.078125 0 
L 9.078125 54.6875 
L 18.109375 54.6875 
L 18.109375 46.1875 
Q 20.953125 51.171875 25.484375 53.578125 
Q 30.03125 56 36.53125 56 
Q 37.453125 56 38.578125 55.875 
Q 39.703125 55.765625 41.0625 55.515625 
z
" id="DejaVuSans-72"/>
     <path d="M 8.5 21.578125 
L 8.5 54.6875 
L 17.484375 54.6875 
L 17.484375 21.921875 
Q 17.484375 14.15625 20.5 10.265625 
Q 23.53125 6.390625 29.59375 6.390625 
Q 36.859375 6.390625 41.078125 11.03125 
Q 45.3125 15.671875 45.3125 23.6875 
L 45.3125 54.6875 
L 54.296875 54.6875 
L 54.296875 0 
L 45.3125 0 
L 45.3125 8.40625 
Q 42.046875 3.421875 37.71875 1 
Q 33.40625 -1.421875 27.6875 -1.421875 
Q 18.265625 -1.421875 13.375 4.4375 
Q 8.5 10.296875 8.5 21.578125 
z
M 31.109375 56 
z
" id="DejaVuSans-75"/>
     <path d="M 48.78125 52.59375 
L 48.78125 44.1875 
Q 44.96875 46.296875 41.140625 47.34375 
Q 37.3125 48.390625 33.40625 48.390625 
Q 24.65625 48.390625 19.8125 42.84375 
Q 14.984375 37.3125 14.984375 27.296875 
Q 14.984375 17.28125 19.8125 11.734375 
Q 24.65625 6.203125 33.40625 6.203125 
Q 37.3125 6.203125 41.140625 7.25 
Q 44.96875 8.296875 48.78125 10.40625 
L 48.78125 2.09375 
Q 45.015625 0.34375 40.984375 -0.53125 
Q 36.96875 -1.421875 32.421875 -1.421875 
Q 20.0625 -1.421875 12.78125 6.34375 
Q 5.515625 14.109375 5.515625 27.296875 
Q 5.515625 40.671875 12.859375 48.328125 
Q 20.21875 56 33.015625 56 
Q 37.15625 56 41.109375 55.140625 
Q 45.0625 54.296875 48.78125 52.59375 
z
" id="DejaVuSans-63"/>
     <path d="M 56.203125 29.59375 
L 56.203125 25.203125 
L 14.890625 25.203125 
Q 15.484375 15.921875 20.484375 11.0625 
Q 25.484375 6.203125 34.421875 6.203125 
Q 39.59375 6.203125 44.453125 7.46875 
Q 49.3125 8.734375 54.109375 11.28125 
L 54.109375 2.78125 
Q 49.265625 0.734375 44.1875 -0.34375 
Q 39.109375 -1.421875 33.890625 -1.421875 
Q 20.796875 -1.421875 13.15625 6.1875 
Q 5.515625 13.8125 5.515625 26.8125 
Q 5.515625 40.234375 12.765625 48.109375 
Q 20.015625 56 32.328125 56 
Q 43.359375 56 49.78125 48.890625 
Q 56.203125 41.796875 56.203125 29.59375 
z
M 47.21875 32.234375 
Q 47.125 39.59375 43.09375 43.984375 
Q 39.0625 48.390625 32.421875 48.390625 
Q 24.90625 48.390625 20.390625 44.140625 
Q 15.875 39.890625 15.1875 32.171875 
z
" id="DejaVuSans-65"/>
     <path id="DejaVuSans-20"/>
     <path d="M 51.125 44 
L 36.921875 44 
L 32.8125 27.6875 
L 47.125 27.6875 
z
M 43.796875 71.78125 
L 38.71875 51.515625 
L 52.984375 51.515625 
L 58.109375 71.78125 
L 65.921875 71.78125 
L 60.890625 51.515625 
L 76.125 51.515625 
L 76.125 44 
L 58.984375 44 
L 54.984375 27.6875 
L 70.515625 27.6875 
L 70.515625 20.21875 
L 53.078125 20.21875 
L 48 0 
L 40.1875 0 
L 45.21875 20.21875 
L 30.90625 20.21875 
L 25.875 0 
L 18.015625 0 
L 23.09375 20.21875 
L 7.71875 20.21875 
L 7.71875 27.6875 
L 24.90625 27.6875 
L 29 44 
L 13.28125 44 
L 13.28125 51.515625 
L 30.90625 51.515625 
L 35.890625 71.78125 
z
" id="DejaVuSans-23"/>
     <path d="M 12.40625 8.296875 
L 28.515625 8.296875 
L 28.515625 63.921875 
L 10.984375 60.40625 
L 10.984375 69.390625 
L 28.421875 72.90625 
L 38.28125 72.90625 
L 38.28125 8.296875 
L 54.390625 8.296875 
L 54.390625 0 
L 12.40625 0 
z
" id="DejaVuSans-31"/>
     <path d="M 10.796875 72.90625 
L 49.515625 72.90625 
L 49.515625 64.59375 
L 19.828125 64.59375 
L 19.828125 46.734375 
Q 21.96875 47.46875 24.109375 47.828125 
Q 26.265625 48.1875 28.421875 48.1875 
Q 40.625 48.1875 47.75 41.5 
Q 54.890625 34.8125 54.890625 23.390625 
Q 54.890625 11.625 47.5625 5.09375 
Q 40.234375 -1.421875 26.90625 -1.421875 
Q 22.3125 -1.421875 17.546875 -0.640625 
Q 12.796875 0.140625 7.71875 1.703125 
L 7.71875 11.625 
Q 12.109375 9.234375 16.796875 8.0625 
Q 21.484375 6.890625 26.703125 6.890625 
Q 35.15625 6.890625 40.078125 11.328125 
Q 45.015625 15.765625 45.015625 23.390625 
Q 45.015625 31 40.078125 35.4375 
Q 35.15625 39.890625 26.703125 39.890625 
Q 22.75 39.890625 18.8125 39.015625 
Q 14.890625 38.140625 10.796875 36.28125 
z
" id="DejaVuSans-35"/>
     <path d="M 19.1875 8.296875 
L 53.609375 8.296875 
L 53.609375 0 
L 7.328125 0 
L 7.328125 8.296875 
Q 12.9375 14.109375 22.625 23.890625 
Q 32.328125 33.6875 34.8125 36.53125 
Q 39.546875 41.84375 41.421875 45.53125 
Q 43.3125 49.21875 43.3125 52.78125 
Q 43.3125 58.59375 39.234375 62.25 
Q 35.15625 65.921875 28.609375 65.921875 
Q 23.96875 65.921875 18.8125 64.3125 
Q 13.671875 62.703125 7.8125 59.421875 
L 7.8125 69.390625 
Q 13.765625 71.78125 18.9375 73 
Q 24.125 74.21875 28.421875 74.21875 
Q 39.75 74.21875 46.484375 68.546875 
Q 53.21875 62.890625 53.21875 53.421875 
Q 53.21875 48.921875 51.53125 44.890625 
Q 49.859375 40.875 45.40625 35.40625 
Q 44.1875 33.984375 37.640625 27.21875 
Q 31.109375 20.453125 19.1875 8.296875 
z
" id="DejaVuSans-32"/>
     <path d="M 37.796875 64.3125 
L 12.890625 25.390625 
L 37.796875 25.390625 
z
M 35.203125 72.90625 
L 47.609375 72.90625 
L 47.609375 25.390625 
L 58.015625 25.390625 
L 58.015625 17.1875 
L 47.609375 17.1875 
L 47.609375 0 
L 37.796875 0 
L 37.796875 17.1875 
L 4.890625 17.1875 
L 4.890625 26.703125 
z
" id="DejaVuSans-34"/>
     <path d="M 11.71875 12.40625 
L 22.015625 12.40625 
L 22.015625 4 
L 14.015625 -11.625 
L 7.71875 -11.625 
L 11.71875 4 
z
" id="DejaVuSans-2c"/>
     <path d="M 16.890625 72.90625 
L 62.984375 72.90625 
L 61.375 64.59375 
L 25.09375 64.59375 
L 20.90625 43.015625 
L 55.71875 43.015625 
L 54.109375 34.71875 
L 19.28125 34.71875 
L 14.203125 8.296875 
L 51.3125 8.296875 
L 49.703125 0 
L 2.6875 0 
z
" id="DejaVuSans-Oblique-45"/>
     <path d="M 16.890625 72.90625 
L 30.171875 72.90625 
L 50.296875 10.40625 
L 62.5 72.90625 
L 72.125 72.90625 
L 57.90625 0 
L 44.578125 0 
L 24.515625 62.890625 
L 12.3125 0 
L 2.6875 0 
z
" id="DejaVuSans-Oblique-4e"/>
     <path d="M 10.59375 45.40625 
L 73.1875 45.40625 
L 73.1875 37.203125 
L 10.59375 37.203125 
z
M 10.59375 25.484375 
L 73.1875 25.484375 
L 73.1875 17.1875 
L 10.59375 17.1875 
z
" id="DejaVuSans-3d"/>
     <path d="M 4.890625 31.390625 
L 31.203125 31.390625 
L 31.203125 23.390625 
L 4.890625 23.390625 
z
" id="DejaVuSans-2d"/>
     <path d="M 8.203125 72.90625 
L 55.078125 72.90625 
L 55.078125 68.703125 
L 28.609375 0 
L 18.3125 0 
L 43.21875 64.59375 
L 8.203125 64.59375 
z
" id="DejaVuSans-37"/>
     <path d="M 31.78125 34.625 
Q 24.75 34.625 20.71875 30.859375 
Q 16.703125 27.09375 16.703125 20.515625 
Q 16.703125 13.921875 20.71875 10.15625 
Q 24.75 6.390625 31.78125 6.390625 
Q 38.8125 6.390625 42.859375 10.171875 
Q 46.921875 13.96875 46.921875 20.515625 
Q 46.921875 27.09375 42.890625 30.859375 
Q 38.875 34.625 31.78125 34.625 
z
M 21.921875 38.8125 
Q 15.578125 40.375 12.03125 44.71875 
Q 8.5 49.078125 8.5 55.328125 
Q 8.5 64.0625 14.71875 69.140625 
Q 20.953125 74.21875 31.78125 74.21875 
Q 42.671875 74.21875 48.875 69.140625 
Q 55.078125 64.0625 55.078125 55.328125 
Q 55.078125 49.078125 51.53125 44.71875 
Q 48 40.375 41.703125 38.8125 
Q 48.828125 37.15625 52.796875 32.3125 
Q 56.78125 27.484375 56.78125 20.515625 
Q 56.78125 9.90625 50.3125 4.234375 
Q 43.84375 -1.421875 31.78125 -1.421875 
Q 19.734375 -1.421875 13.25 4.234375 
Q 6.78125 9.90625 6.78125 20.515625 
Q 6.78125 27.484375 10.78125 32.3125 
Q 14.796875 37.15625 21.921875 38.8125 
z
M 18.3125 54.390625 
Q 18.3125 48.734375 21.84375 45.5625 
Q 25.390625 42.390625 31.78125 42.390625 
Q 38.140625 42.390625 41.71875 45.5625 
Q 45.3125 48.734375 45.3125 54.390625 
Q 45.3125 60.0625 41.71875 63.234375 
Q 38.140625 66.40625 31.78125 66.40625 
Q 25.390625 66.40625 21.84375 63.234375 
Q 18.3125 60.0625 18.3125 54.390625 
z
" id="DejaVuSans-38"/>
     <path d="M 10.6875 12.40625 
L 21 12.40625 
L 21 0 
L 10.6875 0 
z
" id="DejaVuSans-2e"/>
     <path d="M 40.578125 39.3125 
Q 47.65625 37.796875 51.625 33 
Q 55.609375 28.21875 55.609375 21.1875 
Q 55.609375 10.40625 48.1875 4.484375 
Q 40.765625 -1.421875 27.09375 -1.421875 
Q 22.515625 -1.421875 17.65625 -0.515625 
Q 12.796875 0.390625 7.625 2.203125 
L 7.625 11.71875 
Q 11.71875 9.328125 16.59375 8.109375 
Q 21.484375 6.890625 26.8125 6.890625 
Q 36.078125 6.890625 40.9375 10.546875 
Q 45.796875 14.203125 45.796875 21.1875 
Q 45.796875 27.640625 41.28125 31.265625 
Q 36.765625 34.90625 28.71875 34.90625 
L 20.21875 34.90625 
L 20.21875 43.015625 
L 29.109375 43.015625 
Q 36.375 43.015625 40.234375 45.921875 
Q 44.09375 48.828125 44.09375 54.296875 
Q 44.09375 59.90625 40.109375 62.90625 
Q 36.140625 65.921875 28.71875 65.921875 
Q 24.65625 65.921875 20.015625 65.03125 
Q 15.375 64.15625 9.8125 62.3125 
L 9.8125 71.09375 
Q 15.4375 72.65625 20.34375 73.4375 
Q 25.25 74.21875 29.59375 74.21875 
Q 40.828125 74.21875 47.359375 69.109375 
Q 53.90625 64.015625 53.90625 55.328125 
Q 53.90625 49.265625 50.4375 45.09375 
Q 46.96875 40.921875 40.578125 39.3125 
z
" id="DejaVuSans-33"/>
     <path d="M 33.015625 40.375 
Q 26.375 40.375 22.484375 35.828125 
Q 18.609375 31.296875 18.609375 23.390625 
Q 18.609375 15.53125 22.484375 10.953125 
Q 26.375 6.390625 33.015625 6.390625 
Q 39.65625 6.390625 43.53125 10.953125 
Q 47.40625 15.53125 47.40625 23.390625 
Q 47.40625 31.296875 43.53125 35.828125 
Q 39.65625 40.375 33.015625 40.375 
z
M 52.59375 71.296875 
L 52.59375 62.3125 
Q 48.875 64.0625 45.09375 64.984375 
Q 41.3125 65.921875 37.59375 65.921875 
Q 27.828125 65.921875 22.671875 59.328125 
Q 17.53125 52.734375 16.796875 39.40625 
Q 19.671875 43.65625 24.015625 45.921875 
Q 28.375 48.1875 33.59375 48.1875 
Q 44.578125 48.1875 50.953125 41.515625 
Q 57.328125 34.859375 57.328125 23.390625 
Q 57.328125 12.15625 50.6875 5.359375 
Q 44.046875 -1.421875 33.015625 -1.421875 
Q 20.359375 -1.421875 13.671875 8.265625 
Q 6.984375 17.96875 6.984375 36.375 
Q 6.984375 53.65625 15.1875 63.9375 
Q 23.390625 74.21875 37.203125 74.21875 
Q 40.921875 74.21875 44.703125 73.484375 
Q 48.484375 72.75 52.59375 71.296875 
z
" id="DejaVuSans-36"/>
     <path d="M 28.609375 0 
L 0.78125 72.90625 
L 11.078125 72.90625 
L 34.1875 11.53125 
L 57.328125 72.90625 
L 67.578125 72.90625 
L 39.796875 0 
z
" id="DejaVuSans-56"/>
     <path d="M 34.1875 63.1875 
L 14.15625 8.203125 
L 54.25 8.203125 
z
M 0.78125 0 
L 28.609375 72.90625 
L 39.796875 72.90625 
L 67.578125 0 
z
" id="DejaVuSans-394"/>
     <path d="M 9.8125 72.90625 
L 55.90625 72.90625 
L 55.90625 64.59375 
L 19.671875 64.59375 
L 19.671875 43.015625 
L 54.390625 43.015625 
L 54.390625 34.71875 
L 19.671875 34.71875 
L 19.671875 8.296875 
L 56.78125 8.296875 
L 56.78125 0 
L 9.8125 0 
z
" id="DejaVuSans-45"/>
     <path d="M 31.78125 66.40625 
Q 24.171875 66.40625 20.328125 58.90625 
Q 16.5 51.421875 16.5 36.375 
Q 16.5 21.390625 20.328125 13.890625 
Q 24.171875 6.390625 31.78125 6.390625 
Q 39.453125 6.390625 43.28125 13.890625 
Q 47.125 21.390625 47.125 36.375 
Q 47.125 51.421875 43.28125 58.90625 
Q 39.453125 66.40625 31.78125 66.40625 
z
M 31.78125 74.21875 
Q 44.046875 74.21875 50.515625 64.515625 
Q 56.984375 54.828125 56.984375 36.375 
Q 56.984375 17.96875 50.515625 8.265625 
Q 44.046875 -1.421875 31.78125 -1.421875 
Q 19.53125 -1.421875 13.0625 8.265625 
Q 6.59375 17.96875 6.59375 36.375 
Q 6.59375 54.828125 13.0625 64.515625 
Q 19.53125 74.21875 31.78125 74.21875 
z
" id="DejaVuSans-30"/>
    </defs>
    <g transform="translate(65.388 35.472)scale(0.12 -0.12)">
     <use transform="translate(0 0.78125)" xlink:href="#DejaVuSans-53"/>
     <use transform="translate(63.476562 0.78125)" xlink:href="#DejaVuSans-74"/>
     <use transform="translate(102.685547 0.78125)" xlink:href="#DejaVuSans-72"/>
     <use transform="translate(143.798828 0.78125)" xlink:href="#DejaVuSans-75"/>
     <use transform="translate(207.177734 0.78125)" xlink:href="#DejaVuSans-63"/>
     <use transform="translate(262.158203 0.78125)" xlink:href="#DejaVuSans-74"/>
     <use transform="translate(301.367188 0.78125)" xlink:href="#DejaVuSans-75"/>
     <use transform="translate(364.746094 0.78125)" xlink:href="#DejaVuSans-72"/>
     <use transform="translate(405.859375 0.78125)" xlink:href="#DejaVuSans-65"/>
     <use transform="translate(467.382812 0.78125)" xlink:href="#DejaVuSans-20"/>
     <use transform="translate(499.169922 0.78125)" xlink:href="#DejaVuSans-23"/>
     <use transform="translate(582.958984 0.78125)" xlink:href="#DejaVuSans-31"/>
     <use transform="translate(646.582031 0.78125)" xlink:href="#DejaVuSans-35"/>
     <use transform="translate(710.205078 0.78125)" xlink:href="#DejaVuSans-32"/>
     <use transform="translate(773.828125 0.78125)" xlink:href="#DejaVuSans-34"/>
     <use transform="translate(837.451172 0.78125)" xlink:href="#DejaVuSans-2c"/>
     <use transform="translate(869.238281 0.78125)" xlink:href="#DejaVuSans-20"/>
     <use transform="translate(901.025391 0.78125)" xlink:href="#DejaVuSans-Oblique-45"/>
     <use transform="translate(964.208984 -15.625)scale(0.7)" xlink:href="#DejaVuSans-Oblique-4e"/>
     <use transform="translate(1019.306641 0.78125)" xlink:href="#DejaVuSans-3d"/>
     <use transform="translate(1103.095703 0.78125)" xlink:href="#DejaVuSans-2d"/>
     <use transform="translate(1139.179688 0.78125)" xlink:href="#DejaVuSans-31"/>
     <use transform="translate(1202.802734 0.78125)" xlink:href="#DejaVuSans-37"/>
     <use transform="translate(1266.425781 0.78125)" xlink:href="#DejaVuSans-38"/>
     <use transform="translate(1330.048828 0.78125)" xlink:href="#DejaVuSans-2e"/>
     <use transform="translate(1361.835938 0.78125)" xlink:href="#DejaVuSans-33"/>
     <use transform="translate(1425.458984 0.78125)" xlink:href="#DejaVuSans-36"/>
     <use transform="translate(1489.082031 0.78125)" xlink:href="#DejaVuSans-65"/>
     <use transform="translate(1550.605469 0.78125)" xlink:href="#DejaVuSans-56"/>
     <use transform="translate(1619.013672 0.78125)" xlink:href="#DejaVuSans-2c"/>
     <use transform="translate(1650.800781 0.78125)" xlink:href="#DejaVuSans-20"/>
     <use transform="translate(1682.587891 0.78125)" xlink:href="#DejaVuSans-394"/>
     <use transform="translate(1750.996094 0.78125)" xlink:href="#DejaVuSans-45"/>
     <use transform="translate(1814.179688 0.78125)" xlink:href="#DejaVuSans-3d"/>
     <use transform="translate(1897.96875 0.78125)" xlink:href="#DejaVuSans-30"/>
     <use transform="translate(1961.591797 0.78125)" xlink:href="#DejaVuSans-2e"/>
     <use transform="translate(1993.378906 0.78125)" xlink:href="#DejaVuSans-33"/>
     <use transform="translate(2057.001953 0.78125)" xlink:href="#DejaVuSans-38"/>
     <use transform="translate(2120.625 0.78125)" xlink:href="#DejaVuSans-65"/>
     <use transform="translate(2182.148438 0.78125)" xlink:href="#DejaVuSans-56"/>
    </g>
   </g>
  </g>
  <g id="axes_2">
   <g id="patch_2">
    <path clip-path="url(#pc4d68f3238)" d="M 361.152 307.584 
L 361.152 306.5445 
L 361.152 42.5115 
L 361.152 41.472 
L 374.4576 41.472 
L 374.4576 42.5115 
L 374.4576 306.5445 
L 374.4576 307.584 
z
" style="fill:#ffffff;stroke:#ffffff;stroke-linejoin:miter;stroke-width:0.01;"/>
   </g>
   <image height="265.68" id="image733b47f902" transform="scale(1 -1)translate(0 -265.68)" width="12.96" x="361.44" xlink:href="data:image/png;base64,
iVBORw0KGgoAAAANSUhEUgAAABIAAAFxCAYAAAB+2fgXAAAABHNCSVQICAgIfAhkiAAAAeVJREFUeJztncmNw0AQA2ckheYQNv9QLIfQ8ygsCgQ7AEI8+jAs2Puz/94F1LP2ReCsZ18bAWIeZ5XaGRBE7VnbptG+KI101FYyNSiQG2oRITXKNaX9uclOdi2XWjftVE32CZCO2ou5Bj1TcCBr/1zB9ge7Fq0Rg2NM9pvbtG+ua1QgsRYhDy0ISEiNc40BEibbSI0Coj5CBGtkpFbXJiAjNZlrwhuSOv2M1DjXbEdEciBt1JSDDQKKpmZr2rr2j0DBGpXaWEJq3bQzEPIS26r9J+Wzv9Tm8o3aajRXqc3VUXsApKNWjeZq0x4ABVNbm7lrszVigDqP5vIl2+eaT2yfRkL7g+dRcNPqjohkjaCvRVBq0H2U3LQrOJCx9kdTg4B8oxZzzTdqdYHEngjUCAPyUctN9sVRq2sTECW2UKNLd2jVtRmo1A6AhMmWaSRcR8nUdIHUuVb75zJS218EyEitro1At69pIdeSk30Lkw0FktNImGyZRhy1O5galmxd03LUsHWk06jUZiCq+5Wb1kZNN4+wJxJuWt8RAW5am2sYNZ9rYCBzZ3buPKJ2P5Yj4Toy3keyIyJbIxs1rml1byCA84gpch5RQNB7Q0qNMGq2Hy4BXdNR41yz/cEEJfZzUz96r9PoB0okjeQ8y9TkAAAAAElFTkSuQmCC" y="-41.76"/>
   <g id="matplotlib.axis_1"/>
   <g id="matplotlib.axis_2">
    <g id="ytick_1">
     <g id="line2d_1">
      <defs>
       <path d="M 0 0 
L 3.5 0 
" id="m3ed2a0d335" style="stroke:#000000;stroke-width:0.8;"/>
      </defs>
      <g>
       <use style="stroke:#000000;stroke-width:0.8;" x="374.4576" xlink:href="#m3ed2a0d335" y="297.86209"/>
      </g>
     </g>
     <g id="text_2">
      <!-- −9.0 -->
      <defs>
       <path d="M 10.59375 35.5 
L 73.1875 35.5 
L 73.1875 27.203125 
L 10.59375 27.203125 
z
" id="DejaVuSans-2212"/>
       <path d="M 10.984375 1.515625 
L 10.984375 10.5 
Q 14.703125 8.734375 18.5 7.8125 
Q 22.3125 6.890625 25.984375 6.890625 
Q 35.75 6.890625 40.890625 13.453125 
Q 46.046875 20.015625 46.78125 33.40625 
Q 43.953125 29.203125 39.59375 26.953125 
Q 35.25 24.703125 29.984375 24.703125 
Q 19.046875 24.703125 12.671875 31.3125 
Q 6.296875 37.9375 6.296875 49.421875 
Q 6.296875 60.640625 12.9375 67.421875 
Q 19.578125 74.21875 30.609375 74.21875 
Q 43.265625 74.21875 49.921875 64.515625 
Q 56.59375 54.828125 56.59375 36.375 
Q 56.59375 19.140625 48.40625 8.859375 
Q 40.234375 -1.421875 26.421875 -1.421875 
Q 22.703125 -1.421875 18.890625 -0.6875 
Q 15.09375 0.046875 10.984375 1.515625 
z
M 30.609375 32.421875 
Q 37.25 32.421875 41.125 36.953125 
Q 45.015625 41.5 45.015625 49.421875 
Q 45.015625 57.28125 41.125 61.84375 
Q 37.25 66.40625 30.609375 66.40625 
Q 23.96875 66.40625 20.09375 61.84375 
Q 16.21875 57.28125 16.21875 49.421875 
Q 16.21875 41.5 20.09375 36.953125 
Q 23.96875 32.421875 30.609375 32.421875 
z
" id="DejaVuSans-39"/>
      </defs>
      <g transform="translate(381.4576 301.661309)scale(0.1 -0.1)">
       <use xlink:href="#DejaVuSans-2212"/>
       <use x="83.789062" xlink:href="#DejaVuSans-39"/>
       <use x="147.412109" xlink:href="#DejaVuSans-2e"/>
       <use x="179.199219" xlink:href="#DejaVuSans-30"/>
      </g>
     </g>
    </g>
    <g id="ytick_2">
     <g id="line2d_2">
      <g>
       <use style="stroke:#000000;stroke-width:0.8;" x="374.4576" xlink:href="#m3ed2a0d335" y="254.239883"/>
      </g>
     </g>
     <g id="text_3">
      <!-- −8.5 -->
      <g transform="translate(381.4576 258.039101)scale(0.1 -0.1)">
       <use xlink:href="#DejaVuSans-2212"/>
       <use x="83.789062" xlink:href="#DejaVuSans-38"/>
       <use x="147.412109" xlink:href="#DejaVuSans-2e"/>
       <use x="179.199219" xlink:href="#DejaVuSans-35"/>
      </g>
     </g>
    </g>
    <g id="ytick_3">
     <g id="line2d_3">
      <g>
       <use style="stroke:#000000;stroke-width:0.8;" x="374.4576" xlink:href="#m3ed2a0d335" y="210.617675"/>
      </g>
     </g>
     <g id="text_4">
      <!-- −8.0 -->
      <g transform="translate(381.4576 214.416894)scale(0.1 -0.1)">
       <use xlink:href="#DejaVuSans-2212"/>
       <use x="83.789062" xlink:href="#DejaVuSans-38"/>
       <use x="147.412109" xlink:href="#DejaVuSans-2e"/>
       <use x="179.199219" xlink:href="#DejaVuSans-30"/>
      </g>
     </g>
    </g>
    <g id="ytick_4">
     <g id="line2d_4">
      <g>
       <use style="stroke:#000000;stroke-width:0.8;" x="374.4576" xlink:href="#m3ed2a0d335" y="166.995467"/>
      </g>
     </g>
     <g id="text_5">
      <!-- −7.5 -->
      <g transform="translate(381.4576 170.794686)scale(0.1 -0.1)">
       <use xlink:href="#DejaVuSans-2212"/>
       <use x="83.789062" xlink:href="#DejaVuSans-37"/>
       <use x="147.412109" xlink:href="#DejaVuSans-2e"/>
       <use x="179.199219" xlink:href="#DejaVuSans-35"/>
      </g>
     </g>
    </g>
    <g id="ytick_5">
     <g id="line2d_5">
      <g>
       <use style="stroke:#000000;stroke-width:0.8;" x="374.4576" xlink:href="#m3ed2a0d335" y="123.373259"/>
      </g>
     </g>
     <g id="text_6">
      <!-- −7.0 -->
      <g transform="translate(381.4576 127.172478)scale(0.1 -0.1)">
       <use xlink:href="#DejaVuSans-2212"/>
       <use x="83.789062" xlink:href="#DejaVuSans-37"/>
       <use x="147.412109" xlink:href="#DejaVuSans-2e"/>
       <use x="179.199219" xlink:href="#DejaVuSans-30"/>
      </g>
     </g>
    </g>
    <g id="ytick_6">
     <g id="line2d_6">
      <g>
       <use style="stroke:#000000;stroke-width:0.8;" x="374.4576" xlink:href="#m3ed2a0d335" y="79.751051"/>
      </g>
     </g>
     <g id="text_7">
      <!-- −6.5 -->
      <g transform="translate(381.4576 83.55027)scale(0.1 -0.1)">
       <use xlink:href="#DejaVuSans-2212"/>
       <use x="83.789062" xlink:href="#DejaVuSans-36"/>
       <use x="147.412109" xlink:href="#DejaVuSans-2e"/>
       <use x="179.199219" xlink:href="#DejaVuSans-35"/>
      </g>
     </g>
    </g>
    <g id="text_8">
     <!-- Energy [eV] -->
     <defs>
      <path d="M 54.890625 33.015625 
L 54.890625 0 
L 45.90625 0 
L 45.90625 32.71875 
Q 45.90625 40.484375 42.875 44.328125 
Q 39.84375 48.1875 33.796875 48.1875 
Q 26.515625 48.1875 22.3125 43.546875 
Q 18.109375 38.921875 18.109375 30.90625 
L 18.109375 0 
L 9.078125 0 
L 9.078125 54.6875 
L 18.109375 54.6875 
L 18.109375 46.1875 
Q 21.34375 51.125 25.703125 53.5625 
Q 30.078125 56 35.796875 56 
Q 45.21875 56 50.046875 50.171875 
Q 54.890625 44.34375 54.890625 33.015625 
z
" id="DejaVuSans-6e"/>
      <path d="M 45.40625 27.984375 
Q 45.40625 37.75 41.375 43.109375 
Q 37.359375 48.484375 30.078125 48.484375 
Q 22.859375 48.484375 18.828125 43.109375 
Q 14.796875 37.75 14.796875 27.984375 
Q 14.796875 18.265625 18.828125 12.890625 
Q 22.859375 7.515625 30.078125 7.515625 
Q 37.359375 7.515625 41.375 12.890625 
Q 45.40625 18.265625 45.40625 27.984375 
z
M 54.390625 6.78125 
Q 54.390625 -7.171875 48.1875 -13.984375 
Q 42 -20.796875 29.203125 -20.796875 
Q 24.46875 -20.796875 20.265625 -20.09375 
Q 16.0625 -19.390625 12.109375 -17.921875 
L 12.109375 -9.1875 
Q 16.0625 -11.328125 19.921875 -12.34375 
Q 23.78125 -13.375 27.78125 -13.375 
Q 36.625 -13.375 41.015625 -8.765625 
Q 45.40625 -4.15625 45.40625 5.171875 
L 45.40625 9.625 
Q 42.625 4.78125 38.28125 2.390625 
Q 33.9375 0 27.875 0 
Q 17.828125 0 11.671875 7.65625 
Q 5.515625 15.328125 5.515625 27.984375 
Q 5.515625 40.671875 11.671875 48.328125 
Q 17.828125 56 27.875 56 
Q 33.9375 56 38.28125 53.609375 
Q 42.625 51.21875 45.40625 46.390625 
L 45.40625 54.6875 
L 54.390625 54.6875 
z
" id="DejaVuSans-67"/>
      <path d="M 32.171875 -5.078125 
Q 28.375 -14.84375 24.75 -17.8125 
Q 21.140625 -20.796875 15.09375 -20.796875 
L 7.90625 -20.796875 
L 7.90625 -13.28125 
L 13.1875 -13.28125 
Q 16.890625 -13.28125 18.9375 -11.515625 
Q 21 -9.765625 23.484375 -3.21875 
L 25.09375 0.875 
L 2.984375 54.6875 
L 12.5 54.6875 
L 29.59375 11.921875 
L 46.6875 54.6875 
L 56.203125 54.6875 
z
" id="DejaVuSans-79"/>
      <path d="M 8.59375 75.984375 
L 29.296875 75.984375 
L 29.296875 69 
L 17.578125 69 
L 17.578125 -6.203125 
L 29.296875 -6.203125 
L 29.296875 -13.1875 
L 8.59375 -13.1875 
z
" id="DejaVuSans-5b"/>
      <path d="M 30.421875 75.984375 
L 30.421875 -13.1875 
L 9.71875 -13.1875 
L 9.71875 -6.203125 
L 21.390625 -6.203125 
L 21.390625 69 
L 9.71875 69 
L 9.71875 75.984375 
z
" id="DejaVuSans-5d"/>
     </defs>
     <g transform="translate(417.33885 204.108469)rotate(-90)scale(0.1 -0.1)">
      <use xlink:href="#DejaVuSans-45"/>
      <use x="63.183594" xlink:href="#DejaVuSans-6e"/>
      <use x="126.5625" xlink:href="#DejaVuSans-65"/>
      <use x="188.085938" xlink:href="#DejaVuSans-72"/>
      <use x="229.183594" xlink:href="#DejaVuSans-67"/>
      <use x="292.660156" xlink:href="#DejaVuSans-79"/>
      <use x="351.839844" xlink:href="#DejaVuSans-20"/>
      <use x="383.626953" xlink:href="#DejaVuSans-5b"/>
      <use x="422.640625" xlink:href="#DejaVuSans-65"/>
      <use x="484.164062" xlink:href="#DejaVuSans-56"/>
      <use x="552.572266" xlink:href="#DejaVuSans-5d"/>
     </g>
    </g>
   </g>
   <g id="patch_3">
    <path d="M 361.152 307.584 
L 361.152 306.5445 
L 361.152 42.5115 
L 361.152 41.472 
L 374.4576 41.472 
L 374.4576 42.5115 
L 374.4576 306.5445 
L 374.4576 307.584 
z
" style="fill:none;stroke:#000000;stroke-linejoin:miter;stroke-width:0.8;"/>
   </g>
  </g>
 </g>
 <defs>
  <clipPath id="pa585b5d35c">
   <rect height="266.112" width="285.696" x="57.6" y="41.472"/>
  </clipPath>
  <clipPath id="pc4d68f3238">
   <rect height="266.112" width="13.3056" x="361.152" y="41.472"/>
  </clipPath>
 </defs>
</svg>
