<?xml version="1.0" encoding="utf-8" standalone="no"?>
<!DOCTYPE svg PUBLIC "-//W3C//DTD SVG 1.1//EN"
  "http://www.w3.org/Graphics/SVG/1.1/DTD/svg11.dtd">
<!-- Created with matplotlib (http://matplotlib.org/) -->
<svg height="345.6pt" version="1.1" viewBox="0 0 460.8 345.6" width="460.8pt" xmlns="http://www.w3.org/2000/svg" xmlns:xlink="http://www.w3.org/1999/xlink">
 <defs>
  <style type="text/css">
*{stroke-linecap:butt;stroke-linejoin:round;}
  </style>
 </defs>
 <g id="figure_1">
  <g id="patch_1">
   <path d="M 0 345.6 
L 460.8 345.6 
L 460.8 0 
L 0 0 
z
" style="fill:#ffffff;"/>
  </g>
  <g id="axes_1">
   <g id="CircleCollection_1">
    <path clip-path="url(#p318183bc24)" d="M 298.492841 154.145843 
C 300.254009 154.145843 301.943282 153.446123 303.188617 152.200789 
C 304.433951 150.955455 305.133671 149.266182 305.133671 147.505013 
C 305.133671 145.743844 304.433951 144.054571 303.188617 142.809237 
C 301.943282 141.563903 300.254009 140.864183 298.492841 140.864183 
C 296.731672 140.864183 295.042399 141.563903 293.797065 142.809237 
C 292.551731 144.054571 291.852011 145.743844 291.852011 147.505013 
C 291.852011 149.266182 292.551731 150.955455 293.797065 152.200789 
C 295.042399 153.446123 296.731672 154.145843 298.492841 154.145843 
z
" style="fill:#33628d;"/>
    <path clip-path="url(#p318183bc24)" d="M 321.701889 180.461753 
C 323.470012 180.461753 325.165955 179.759271 326.416206 178.509019 
C 327.666457 177.258768 328.36894 175.562825 328.36894 173.794703 
C 328.36894 172.02658 327.666457 170.330637 326.416206 169.080386 
C 325.165955 167.830135 323.470012 167.127652 321.701889 167.127652 
C 319.933767 167.127652 318.237824 167.830135 316.987572 169.080386 
C 315.737321 170.330637 315.034839 172.02658 315.034839 173.794703 
C 315.034839 175.562825 315.737321 177.258768 316.987572 178.509019 
C 318.237824 179.759271 319.933767 180.461753 321.701889 180.461753 
z
" style="fill:#29798e;"/>
    <path clip-path="url(#p318183bc24)" d="M 199.411232 204.145303 
C 201.224914 204.145303 202.964556 203.42472 204.247023 202.142253 
C 205.529489 200.859787 206.250073 199.120144 206.250073 197.306462 
C 206.250073 195.49278 205.529489 193.753138 204.247023 192.470671 
C 202.964556 191.188205 201.224914 190.467621 199.411232 190.467621 
C 197.59755 190.467621 195.857908 191.188205 194.575441 192.470671 
C 193.292974 193.753138 192.572391 195.49278 192.572391 197.306462 
C 192.572391 199.120144 193.292974 200.859787 194.575441 202.142253 
C 195.857908 203.42472 197.59755 204.145303 199.411232 204.145303 
z
" style="fill:#34618d;"/>
    <path clip-path="url(#p318183bc24)" d="M 213.294536 60.739638 
C 215.070374 60.739638 216.773717 60.03409 218.029424 58.778383 
C 219.285131 57.522676 219.990679 55.819333 219.990679 54.043495 
C 219.990679 52.267657 219.285131 50.564314 218.029424 49.308607 
C 216.773717 48.0529 215.070374 47.347352 213.294536 47.347352 
C 211.518698 47.347352 209.815355 48.0529 208.559648 49.308607 
C 207.303941 50.564314 206.598393 52.267657 206.598393 54.043495 
C 206.598393 55.819333 207.303941 57.522676 208.559648 58.778383 
C 209.815355 60.03409 211.518698 60.739638 213.294536 60.739638 
z
" style="fill:#73d056;"/>
    <path clip-path="url(#p318183bc24)" d="M 208.013865 172.958456 
C 209.811068 172.958456 211.534904 172.24442 212.805718 170.973606 
C 214.076532 169.702792 214.790568 167.978956 214.790568 166.181753 
C 214.790568 164.38455 214.076532 162.660715 212.805718 161.3899 
C 211.534904 160.119086 209.811068 159.40505 208.013865 159.40505 
C 206.216663 159.40505 204.492827 160.119086 203.222013 161.3899 
C 201.951198 162.660715 201.237162 164.38455 201.237162 166.181753 
C 201.237162 167.978956 201.951198 169.702792 203.222013 170.973606 
C 204.492827 172.24442 206.216663 172.958456 208.013865 172.958456 
z
" style="fill:#24868e;"/>
    <path clip-path="url(#p318183bc24)" d="M 260.314083 301.929386 
C 262.152936 301.929386 263.916721 301.198802 265.216987 299.898537 
C 266.517252 298.598271 267.247836 296.834485 267.247836 294.995632 
C 267.247836 293.156779 266.517252 291.392994 265.216987 290.092728 
C 263.916721 288.792463 262.152936 288.061879 260.314083 288.061879 
C 258.47523 288.061879 256.711444 288.792463 255.411178 290.092728 
C 254.110913 291.392994 253.380329 293.156779 253.380329 294.995632 
C 253.380329 296.834485 254.110913 298.598271 255.411178 299.898537 
C 256.711444 301.198802 258.47523 301.929386 260.314083 301.929386 
z
" style="fill:#29798e;"/>
    <path clip-path="url(#p318183bc24)" d="M 70.924614 143.546228 
C 72.724425 143.546228 74.450762 142.831155 75.72342 141.558497 
C 76.996078 140.285839 77.71115 138.559502 77.71115 136.759691 
C 77.71115 134.959881 76.996078 133.233544 75.72342 131.960886 
C 74.450762 130.688227 72.724425 129.973155 70.924614 129.973155 
C 69.124804 129.973155 67.398466 130.688227 66.125808 131.960886 
C 64.85315 133.233544 64.138078 134.959881 64.138078 136.759691 
C 64.138078 138.559502 64.85315 140.285839 66.125808 141.558497 
C 67.398466 142.831155 69.124804 143.546228 70.924614 143.546228 
z
" style="fill:#fde725;"/>
    <path clip-path="url(#p318183bc24)" d="M 98.313184 125.747895 
C 100.10241 125.747895 101.818595 125.037028 103.083769 123.771854 
C 104.348943 122.50668 105.059811 120.790495 105.059811 119.001268 
C 105.059811 117.212042 104.348943 115.495857 103.083769 114.230683 
C 101.818595 112.965509 100.10241 112.254642 98.313184 112.254642 
C 96.523957 112.254642 94.807772 112.965509 93.542598 114.230683 
C 92.277424 115.495857 91.566557 117.212042 91.566557 119.001268 
C 91.566557 120.790495 92.277424 122.50668 93.542598 123.771854 
C 94.807772 125.037028 96.523957 125.747895 98.313184 125.747895 
z
" style="fill:#2d708e;"/>
    <path clip-path="url(#p318183bc24)" d="M 218.559031 109.520193 
C 220.317573 109.520193 222.004327 108.821517 223.247804 107.57804 
C 224.491282 106.334562 225.189958 104.647809 225.189958 102.889266 
C 225.189958 101.130724 224.491282 99.44397 223.247804 98.200493 
C 222.004327 96.957016 220.317573 96.258339 218.559031 96.258339 
C 216.800489 96.258339 215.113735 96.957016 213.870258 98.200493 
C 212.62678 99.44397 211.928104 101.130724 211.928104 102.889266 
C 211.928104 104.647809 212.62678 106.334562 213.870258 107.57804 
C 215.113735 108.821517 216.800489 109.520193 218.559031 109.520193 
z
" style="fill:#33638d;"/>
    <path clip-path="url(#p318183bc24)" d="M 188.532043 88.791003 
C 190.295479 88.791003 191.986927 88.090382 193.233865 86.843444 
C 194.480803 85.596506 195.181424 83.905058 195.181424 82.141622 
C 195.181424 80.378186 194.480803 78.686738 193.233865 77.4398 
C 191.986927 76.192862 190.295479 75.492241 188.532043 75.492241 
C 186.768606 75.492241 185.077158 76.192862 183.830221 77.4398 
C 182.583283 78.686738 181.882662 80.378186 181.882662 82.141622 
C 181.882662 83.905058 182.583283 85.596506 183.830221 86.843444 
C 185.077158 88.090382 186.768606 88.791003 188.532043 88.791003 
z
" style="fill:#414287;"/>
    <path clip-path="url(#p318183bc24)" d="M 194.946757 238.296133 
C 196.776624 238.296133 198.53179 237.569119 199.825701 236.275208 
C 201.119612 234.981297 201.846626 233.226131 201.846626 231.396265 
C 201.846626 229.566398 201.119612 227.811232 199.825701 226.517321 
C 198.53179 225.22341 196.776624 224.496397 194.946757 224.496397 
C 193.116891 224.496397 191.361725 225.22341 190.067814 226.517321 
C 188.773903 227.811232 188.046889 229.566398 188.046889 231.396265 
C 188.046889 233.226131 188.773903 234.981297 190.067814 236.275208 
C 191.361725 237.569119 193.116891 238.296133 194.946757 238.296133 
z
" style="fill:#2d718e;"/>
    <path clip-path="url(#p318183bc24)" d="M 292.440578 301.401503 
C 294.268374 301.401503 296.021554 300.675312 297.314001 299.382866 
C 298.606448 298.090419 299.332639 296.337239 299.332639 294.509443 
C 299.332639 292.681647 298.606448 290.928467 297.314001 289.636021 
C 296.021554 288.343574 294.268374 287.617383 292.440578 287.617383 
C 290.612783 287.617383 288.859603 288.343574 287.567156 289.636021 
C 286.274709 290.928467 285.548518 292.681647 285.548518 294.509443 
C 285.548518 296.337239 286.274709 298.090419 287.567156 299.382866 
C 288.859603 300.675312 290.612783 301.401503 292.440578 301.401503 
z
" style="fill:#2f6c8e;"/>
    <path clip-path="url(#p318183bc24)" d="M 242.374217 80.206299 
C 244.121838 80.206299 245.798117 79.511962 247.033872 78.276207 
C 248.269627 77.040452 248.963964 75.364173 248.963964 73.616552 
C 248.963964 71.868931 248.269627 70.192652 247.033872 68.956897 
C 245.798117 67.721142 244.121838 67.026805 242.374217 67.026805 
C 240.626596 67.026805 238.950317 67.721142 237.714562 68.956897 
C 236.478807 70.192652 235.78447 71.868931 235.78447 73.616552 
C 235.78447 75.364173 236.478807 77.040452 237.714562 78.276207 
C 238.950317 79.511962 240.626596 80.206299 242.374217 80.206299 
z
" style="fill:#3c4f8a;"/>
    <path clip-path="url(#p318183bc24)" d="M 313.547192 275.772286 
C 315.359048 275.772286 317.09694 275.052428 318.378116 273.771252 
C 319.659292 272.490076 320.37915 270.752184 320.37915 268.940328 
C 320.37915 267.128471 319.659292 265.39058 318.378116 264.109403 
C 317.09694 262.828227 315.359048 262.108369 313.547192 262.108369 
C 311.735335 262.108369 309.997444 262.828227 308.716268 264.109403 
C 307.435092 265.39058 306.715233 267.128471 306.715233 268.940328 
C 306.715233 270.752184 307.435092 272.490076 308.716268 273.771252 
C 309.997444 275.052428 311.735335 275.772286 313.547192 275.772286 
z
" style="fill:#2c728e;"/>
    <path clip-path="url(#p318183bc24)" d="M 264.060803 147.244485 
C 265.830161 147.244485 267.527289 146.541512 268.778414 145.290387 
C 270.029539 144.039262 270.732513 142.342134 270.732513 140.572776 
C 270.732513 138.803418 270.029539 137.10629 268.778414 135.855165 
C 267.527289 134.60404 265.830161 133.901067 264.060803 133.901067 
C 262.291445 133.901067 260.594318 134.60404 259.343192 135.855165 
C 258.092067 137.10629 257.389094 138.803418 257.389094 140.572776 
C 257.389094 142.342134 258.092067 144.039262 259.343192 145.290387 
C 260.594318 146.541512 262.291445 147.244485 264.060803 147.244485 
z
" style="fill:#2a778e;"/>
    <path clip-path="url(#p318183bc24)" d="M 209.478426 268.061937 
C 211.318148 268.061937 213.082768 267.331007 214.383648 266.030127 
C 215.684529 264.729246 216.415458 262.964626 216.415458 261.124904 
C 216.415458 259.285181 215.684529 257.520561 214.383648 256.219681 
C 213.082768 254.918801 211.318148 254.187871 209.478426 254.187871 
C 207.638703 254.187871 205.874083 254.918801 204.573203 256.219681 
C 203.272323 257.520561 202.541393 259.285181 202.541393 261.124904 
C 202.541393 262.964626 203.272323 264.729246 204.573203 266.030127 
C 205.874083 267.331007 207.638703 268.061937 209.478426 268.061937 
z
" style="fill:#2d708e;"/>
    <path clip-path="url(#p318183bc24)" d="M 127.747754 110.774941 
C 129.52725 110.774941 131.234102 110.06794 132.492396 108.809646 
C 133.75069 107.551352 134.457691 105.8445 134.457691 104.065004 
C 134.457691 102.285508 133.75069 100.578656 132.492396 99.320363 
C 131.234102 98.062069 129.52725 97.355068 127.747754 97.355068 
C 125.968258 97.355068 124.261406 98.062069 123.003112 99.320363 
C 121.744819 100.578656 121.037817 102.285508 121.037817 104.065004 
C 121.037817 105.8445 121.744819 107.551352 123.003112 108.809646 
C 124.261406 110.06794 125.968258 110.774941 127.747754 110.774941 
z
" style="fill:#34608d;"/>
    <path clip-path="url(#p318183bc24)" d="M 228.594761 296.292632 
C 230.439746 296.292632 232.209415 295.559611 233.514017 294.255009 
C 234.818619 292.950407 235.551639 291.180739 235.551639 289.335753 
C 235.551639 287.490768 234.818619 285.721099 233.514017 284.416497 
C 232.209415 283.111896 230.439746 282.378875 228.594761 282.378875 
C 226.749775 282.378875 224.980107 283.111896 223.675505 284.416497 
C 222.370903 285.721099 221.637882 287.490768 221.637882 289.335753 
C 221.637882 291.180739 222.370903 292.950407 223.675505 294.255009 
C 224.980107 295.559611 226.749775 296.292632 228.594761 296.292632 
z
" style="fill:#2e6e8e;"/>
    <path clip-path="url(#p318183bc24)" d="M 275.800576 84.369524 
C 277.538619 84.369524 279.20571 83.678993 280.434692 82.450011 
C 281.663674 81.221029 282.354206 79.553937 282.354206 77.815894 
C 282.354206 76.077851 281.663674 74.41076 280.434692 73.181778 
C 279.20571 71.952796 277.538619 71.262264 275.800576 71.262264 
C 274.062533 71.262264 272.395442 71.952796 271.16646 73.181778 
C 269.937478 74.41076 269.246946 76.077851 269.246946 77.815894 
C 269.246946 79.553937 269.937478 81.221029 271.16646 82.450011 
C 272.395442 83.678993 274.062533 84.369524 275.800576 84.369524 
z
" style="fill:#2fb47c;"/>
    <path clip-path="url(#p318183bc24)" d="M 155.964243 96.026034 
C 157.736144 96.026034 159.435711 95.322051 160.688634 94.069128 
C 161.941557 92.816204 162.645541 91.116638 162.645541 89.344737 
C 162.645541 87.572836 161.941557 85.873269 160.688634 84.620346 
C 159.435711 83.367422 157.736144 82.663439 155.964243 82.663439 
C 154.192342 82.663439 152.492775 83.367422 151.239852 84.620346 
C 149.986929 85.873269 149.282945 87.572836 149.282945 89.344737 
C 149.282945 91.116638 149.986929 92.816204 151.239852 94.069128 
C 152.492775 95.322051 154.192342 96.026034 155.964243 96.026034 
z
" style="fill:#2d708e;"/>
    <path clip-path="url(#p318183bc24)" d="M 229.252731 144.983432 
C 231.031743 144.983432 232.738131 144.276623 233.996083 143.018672 
C 235.254034 141.76072 235.960843 140.054332 235.960843 138.27532 
C 235.960843 136.496307 235.254034 134.789919 233.996083 133.531968 
C 232.738131 132.274016 231.031743 131.567207 229.252731 131.567207 
C 227.473718 131.567207 225.76733 132.274016 224.509379 133.531968 
C 223.251427 134.789919 222.544618 136.496307 222.544618 138.27532 
C 222.544618 140.054332 223.251427 141.76072 224.509379 143.018672 
C 225.76733 144.276623 227.473718 144.983432 229.252731 144.983432 
z
" style="fill:#440154;"/>
    <path clip-path="url(#p318183bc24)" d="M 286.195616 119.162288 
C 287.942914 119.162288 289.618881 118.468079 290.854407 117.232553 
C 292.089933 115.997028 292.784142 114.32106 292.784142 112.573762 
C 292.784142 110.826465 292.089933 109.150497 290.854407 107.914972 
C 289.618881 106.679446 287.942914 105.985237 286.195616 105.985237 
C 284.448319 105.985237 282.772351 106.679446 281.536825 107.914972 
C 280.3013 109.150497 279.607091 110.826465 279.607091 112.573762 
C 279.607091 114.32106 280.3013 115.997028 281.536825 117.232553 
C 282.772351 118.468079 284.448319 119.162288 286.195616 119.162288 
z
" style="fill:#2d718e;"/>
    <path clip-path="url(#p318183bc24)" d="M 329.97222 247.482787 
C 331.767596 247.482787 333.48968 246.769477 334.759202 245.499954 
C 336.028725 244.230432 336.742035 242.508348 336.742035 240.712972 
C 336.742035 238.917596 336.028725 237.195512 334.759202 235.925989 
C 333.48968 234.656467 331.767596 233.943156 329.97222 233.943156 
C 328.176844 233.943156 326.45476 234.656467 325.185237 235.925989 
C 323.915715 237.195512 323.202404 238.917596 323.202404 240.712972 
C 323.202404 242.508348 323.915715 244.230432 325.185237 245.499954 
C 326.45476 246.769477 328.176844 247.482787 329.97222 247.482787 
z
" style="fill:#2e6d8e;"/>
    <path clip-path="url(#p318183bc24)" d="M 326.63825 213.13257 
C 328.420786 213.13257 330.130554 212.424361 331.390998 211.163917 
C 332.651441 209.903474 333.35965 208.193706 333.35965 206.41117 
C 333.35965 204.628633 332.651441 202.918865 331.390998 201.658422 
C 330.130554 200.397979 328.420786 199.689769 326.63825 199.689769 
C 324.855714 199.689769 323.145946 200.397979 321.885503 201.658422 
C 320.625059 202.918865 319.91685 204.628633 319.91685 206.41117 
C 319.91685 208.193706 320.625059 209.903474 321.885503 211.163917 
C 323.145946 212.424361 324.855714 213.13257 326.63825 213.13257 
z
" style="fill:#30698e;"/>
   </g>
   <g id="text_1">
    <!-- Structure #4622, $E_N$=-179.82eV, ΔE=0.13eV -->
    <defs>
     <path d="M 53.515625 70.515625 
L 53.515625 60.890625 
Q 47.90625 63.578125 42.921875 64.890625 
Q 37.9375 66.21875 33.296875 66.21875 
Q 25.25 66.21875 20.875 63.09375 
Q 16.5 59.96875 16.5 54.203125 
Q 16.5 49.359375 19.40625 46.890625 
Q 22.3125 44.4375 30.421875 42.921875 
L 36.375 41.703125 
Q 47.40625 39.59375 52.65625 34.296875 
Q 57.90625 29 57.90625 20.125 
Q 57.90625 9.515625 50.796875 4.046875 
Q 43.703125 -1.421875 29.984375 -1.421875 
Q 24.8125 -1.421875 18.96875 -0.25 
Q 13.140625 0.921875 6.890625 3.21875 
L 6.890625 13.375 
Q 12.890625 10.015625 18.65625 8.296875 
Q 24.421875 6.59375 29.984375 6.59375 
Q 38.421875 6.59375 43.015625 9.90625 
Q 47.609375 13.234375 47.609375 19.390625 
Q 47.609375 24.75 44.3125 27.78125 
Q 41.015625 30.8125 33.5 32.328125 
L 27.484375 33.5 
Q 16.453125 35.6875 11.515625 40.375 
Q 6.59375 45.0625 6.59375 53.421875 
Q 6.59375 63.09375 13.40625 68.65625 
Q 20.21875 74.21875 32.171875 74.21875 
Q 37.3125 74.21875 42.625 73.28125 
Q 47.953125 72.359375 53.515625 70.515625 
z
" id="DejaVuSans-53"/>
     <path d="M 18.3125 70.21875 
L 18.3125 54.6875 
L 36.8125 54.6875 
L 36.8125 47.703125 
L 18.3125 47.703125 
L 18.3125 18.015625 
Q 18.3125 11.328125 20.140625 9.421875 
Q 21.96875 7.515625 27.59375 7.515625 
L 36.8125 7.515625 
L 36.8125 0 
L 27.59375 0 
Q 17.1875 0 13.234375 3.875 
Q 9.28125 7.765625 9.28125 18.015625 
L 9.28125 47.703125 
L 2.6875 47.703125 
L 2.6875 54.6875 
L 9.28125 54.6875 
L 9.28125 70.21875 
z
" id="DejaVuSans-74"/>
     <path d="M 41.109375 46.296875 
Q 39.59375 47.171875 37.8125 47.578125 
Q 36.03125 48 33.890625 48 
Q 26.265625 48 22.1875 43.046875 
Q 18.109375 38.09375 18.109375 28.8125 
L 18.109375 0 
L 9.078125 0 
L 9.078125 54.6875 
L 18.109375 54.6875 
L 18.109375 46.1875 
Q 20.953125 51.171875 25.484375 53.578125 
Q 30.03125 56 36.53125 56 
Q 37.453125 56 38.578125 55.875 
Q 39.703125 55.765625 41.0625 55.515625 
z
" id="DejaVuSans-72"/>
     <path d="M 8.5 21.578125 
L 8.5 54.6875 
L 17.484375 54.6875 
L 17.484375 21.921875 
Q 17.484375 14.15625 20.5 10.265625 
Q 23.53125 6.390625 29.59375 6.390625 
Q 36.859375 6.390625 41.078125 11.03125 
Q 45.3125 15.671875 45.3125 23.6875 
L 45.3125 54.6875 
L 54.296875 54.6875 
L 54.296875 0 
L 45.3125 0 
L 45.3125 8.40625 
Q 42.046875 3.421875 37.71875 1 
Q 33.40625 -1.421875 27.6875 -1.421875 
Q 18.265625 -1.421875 13.375 4.4375 
Q 8.5 10.296875 8.5 21.578125 
z
M 31.109375 56 
z
" id="DejaVuSans-75"/>
     <path d="M 48.78125 52.59375 
L 48.78125 44.1875 
Q 44.96875 46.296875 41.140625 47.34375 
Q 37.3125 48.390625 33.40625 48.390625 
Q 24.65625 48.390625 19.8125 42.84375 
Q 14.984375 37.3125 14.984375 27.296875 
Q 14.984375 17.28125 19.8125 11.734375 
Q 24.65625 6.203125 33.40625 6.203125 
Q 37.3125 6.203125 41.140625 7.25 
Q 44.96875 8.296875 48.78125 10.40625 
L 48.78125 2.09375 
Q 45.015625 0.34375 40.984375 -0.53125 
Q 36.96875 -1.421875 32.421875 -1.421875 
Q 20.0625 -1.421875 12.78125 6.34375 
Q 5.515625 14.109375 5.515625 27.296875 
Q 5.515625 40.671875 12.859375 48.328125 
Q 20.21875 56 33.015625 56 
Q 37.15625 56 41.109375 55.140625 
Q 45.0625 54.296875 48.78125 52.59375 
z
" id="DejaVuSans-63"/>
     <path d="M 56.203125 29.59375 
L 56.203125 25.203125 
L 14.890625 25.203125 
Q 15.484375 15.921875 20.484375 11.0625 
Q 25.484375 6.203125 34.421875 6.203125 
Q 39.59375 6.203125 44.453125 7.46875 
Q 49.3125 8.734375 54.109375 11.28125 
L 54.109375 2.78125 
Q 49.265625 0.734375 44.1875 -0.34375 
Q 39.109375 -1.421875 33.890625 -1.421875 
Q 20.796875 -1.421875 13.15625 6.1875 
Q 5.515625 13.8125 5.515625 26.8125 
Q 5.515625 40.234375 12.765625 48.109375 
Q 20.015625 56 32.328125 56 
Q 43.359375 56 49.78125 48.890625 
Q 56.203125 41.796875 56.203125 29.59375 
z
M 47.21875 32.234375 
Q 47.125 39.59375 43.09375 43.984375 
Q 39.0625 48.390625 32.421875 48.390625 
Q 24.90625 48.390625 20.390625 44.140625 
Q 15.875 39.890625 15.1875 32.171875 
z
" id="DejaVuSans-65"/>
     <path id="DejaVuSans-20"/>
     <path d="M 51.125 44 
L 36.921875 44 
L 32.8125 27.6875 
L 47.125 27.6875 
z
M 43.796875 71.78125 
L 38.71875 51.515625 
L 52.984375 51.515625 
L 58.109375 71.78125 
L 65.921875 71.78125 
L 60.890625 51.515625 
L 76.125 51.515625 
L 76.125 44 
L 58.984375 44 
L 54.984375 27.6875 
L 70.515625 27.6875 
L 70.515625 20.21875 
L 53.078125 20.21875 
L 48 0 
L 40.1875 0 
L 45.21875 20.21875 
L 30.90625 20.21875 
L 25.875 0 
L 18.015625 0 
L 23.09375 20.21875 
L 7.71875 20.21875 
L 7.71875 27.6875 
L 24.90625 27.6875 
L 29 44 
L 13.28125 44 
L 13.28125 51.515625 
L 30.90625 51.515625 
L 35.890625 71.78125 
z
" id="DejaVuSans-23"/>
     <path d="M 37.796875 64.3125 
L 12.890625 25.390625 
L 37.796875 25.390625 
z
M 35.203125 72.90625 
L 47.609375 72.90625 
L 47.609375 25.390625 
L 58.015625 25.390625 
L 58.015625 17.1875 
L 47.609375 17.1875 
L 47.609375 0 
L 37.796875 0 
L 37.796875 17.1875 
L 4.890625 17.1875 
L 4.890625 26.703125 
z
" id="DejaVuSans-34"/>
     <path d="M 33.015625 40.375 
Q 26.375 40.375 22.484375 35.828125 
Q 18.609375 31.296875 18.609375 23.390625 
Q 18.609375 15.53125 22.484375 10.953125 
Q 26.375 6.390625 33.015625 6.390625 
Q 39.65625 6.390625 43.53125 10.953125 
Q 47.40625 15.53125 47.40625 23.390625 
Q 47.40625 31.296875 43.53125 35.828125 
Q 39.65625 40.375 33.015625 40.375 
z
M 52.59375 71.296875 
L 52.59375 62.3125 
Q 48.875 64.0625 45.09375 64.984375 
Q 41.3125 65.921875 37.59375 65.921875 
Q 27.828125 65.921875 22.671875 59.328125 
Q 17.53125 52.734375 16.796875 39.40625 
Q 19.671875 43.65625 24.015625 45.921875 
Q 28.375 48.1875 33.59375 48.1875 
Q 44.578125 48.1875 50.953125 41.515625 
Q 57.328125 34.859375 57.328125 23.390625 
Q 57.328125 12.15625 50.6875 5.359375 
Q 44.046875 -1.421875 33.015625 -1.421875 
Q 20.359375 -1.421875 13.671875 8.265625 
Q 6.984375 17.96875 6.984375 36.375 
Q 6.984375 53.65625 15.1875 63.9375 
Q 23.390625 74.21875 37.203125 74.21875 
Q 40.921875 74.21875 44.703125 73.484375 
Q 48.484375 72.75 52.59375 71.296875 
z
" id="DejaVuSans-36"/>
     <path d="M 19.1875 8.296875 
L 53.609375 8.296875 
L 53.609375 0 
L 7.328125 0 
L 7.328125 8.296875 
Q 12.9375 14.109375 22.625 23.890625 
Q 32.328125 33.6875 34.8125 36.53125 
Q 39.546875 41.84375 41.421875 45.53125 
Q 43.3125 49.21875 43.3125 52.78125 
Q 43.3125 58.59375 39.234375 62.25 
Q 35.15625 65.921875 28.609375 65.921875 
Q 23.96875 65.921875 18.8125 64.3125 
Q 13.671875 62.703125 7.8125 59.421875 
L 7.8125 69.390625 
Q 13.765625 71.78125 18.9375 73 
Q 24.125 74.21875 28.421875 74.21875 
Q 39.75 74.21875 46.484375 68.546875 
Q 53.21875 62.890625 53.21875 53.421875 
Q 53.21875 48.921875 51.53125 44.890625 
Q 49.859375 40.875 45.40625 35.40625 
Q 44.1875 33.984375 37.640625 27.21875 
Q 31.109375 20.453125 19.1875 8.296875 
z
" id="DejaVuSans-32"/>
     <path d="M 11.71875 12.40625 
L 22.015625 12.40625 
L 22.015625 4 
L 14.015625 -11.625 
L 7.71875 -11.625 
L 11.71875 4 
z
" id="DejaVuSans-2c"/>
     <path d="M 16.890625 72.90625 
L 62.984375 72.90625 
L 61.375 64.59375 
L 25.09375 64.59375 
L 20.90625 43.015625 
L 55.71875 43.015625 
L 54.109375 34.71875 
L 19.28125 34.71875 
L 14.203125 8.296875 
L 51.3125 8.296875 
L 49.703125 0 
L 2.6875 0 
z
" id="DejaVuSans-Oblique-45"/>
     <path d="M 16.890625 72.90625 
L 30.171875 72.90625 
L 50.296875 10.40625 
L 62.5 72.90625 
L 72.125 72.90625 
L 57.90625 0 
L 44.578125 0 
L 24.515625 62.890625 
L 12.3125 0 
L 2.6875 0 
z
" id="DejaVuSans-Oblique-4e"/>
     <path d="M 10.59375 45.40625 
L 73.1875 45.40625 
L 73.1875 37.203125 
L 10.59375 37.203125 
z
M 10.59375 25.484375 
L 73.1875 25.484375 
L 73.1875 17.1875 
L 10.59375 17.1875 
z
" id="DejaVuSans-3d"/>
     <path d="M 4.890625 31.390625 
L 31.203125 31.390625 
L 31.203125 23.390625 
L 4.890625 23.390625 
z
" id="DejaVuSans-2d"/>
     <path d="M 12.40625 8.296875 
L 28.515625 8.296875 
L 28.515625 63.921875 
L 10.984375 60.40625 
L 10.984375 69.390625 
L 28.421875 72.90625 
L 38.28125 72.90625 
L 38.28125 8.296875 
L 54.390625 8.296875 
L 54.390625 0 
L 12.40625 0 
z
" id="DejaVuSans-31"/>
     <path d="M 8.203125 72.90625 
L 55.078125 72.90625 
L 55.078125 68.703125 
L 28.609375 0 
L 18.3125 0 
L 43.21875 64.59375 
L 8.203125 64.59375 
z
" id="DejaVuSans-37"/>
     <path d="M 10.984375 1.515625 
L 10.984375 10.5 
Q 14.703125 8.734375 18.5 7.8125 
Q 22.3125 6.890625 25.984375 6.890625 
Q 35.75 6.890625 40.890625 13.453125 
Q 46.046875 20.015625 46.78125 33.40625 
Q 43.953125 29.203125 39.59375 26.953125 
Q 35.25 24.703125 29.984375 24.703125 
Q 19.046875 24.703125 12.671875 31.3125 
Q 6.296875 37.9375 6.296875 49.421875 
Q 6.296875 60.640625 12.9375 67.421875 
Q 19.578125 74.21875 30.609375 74.21875 
Q 43.265625 74.21875 49.921875 64.515625 
Q 56.59375 54.828125 56.59375 36.375 
Q 56.59375 19.140625 48.40625 8.859375 
Q 40.234375 -1.421875 26.421875 -1.421875 
Q 22.703125 -1.421875 18.890625 -0.6875 
Q 15.09375 0.046875 10.984375 1.515625 
z
M 30.609375 32.421875 
Q 37.25 32.421875 41.125 36.953125 
Q 45.015625 41.5 45.015625 49.421875 
Q 45.015625 57.28125 41.125 61.84375 
Q 37.25 66.40625 30.609375 66.40625 
Q 23.96875 66.40625 20.09375 61.84375 
Q 16.21875 57.28125 16.21875 49.421875 
Q 16.21875 41.5 20.09375 36.953125 
Q 23.96875 32.421875 30.609375 32.421875 
z
" id="DejaVuSans-39"/>
     <path d="M 10.6875 12.40625 
L 21 12.40625 
L 21 0 
L 10.6875 0 
z
" id="DejaVuSans-2e"/>
     <path d="M 31.78125 34.625 
Q 24.75 34.625 20.71875 30.859375 
Q 16.703125 27.09375 16.703125 20.515625 
Q 16.703125 13.921875 20.71875 10.15625 
Q 24.75 6.390625 31.78125 6.390625 
Q 38.8125 6.390625 42.859375 10.171875 
Q 46.921875 13.96875 46.921875 20.515625 
Q 46.921875 27.09375 42.890625 30.859375 
Q 38.875 34.625 31.78125 34.625 
z
M 21.921875 38.8125 
Q 15.578125 40.375 12.03125 44.71875 
Q 8.5 49.078125 8.5 55.328125 
Q 8.5 64.0625 14.71875 69.140625 
Q 20.953125 74.21875 31.78125 74.21875 
Q 42.671875 74.21875 48.875 69.140625 
Q 55.078125 64.0625 55.078125 55.328125 
Q 55.078125 49.078125 51.53125 44.71875 
Q 48 40.375 41.703125 38.8125 
Q 48.828125 37.15625 52.796875 32.3125 
Q 56.78125 27.484375 56.78125 20.515625 
Q 56.78125 9.90625 50.3125 4.234375 
Q 43.84375 -1.421875 31.78125 -1.421875 
Q 19.734375 -1.421875 13.25 4.234375 
Q 6.78125 9.90625 6.78125 20.515625 
Q 6.78125 27.484375 10.78125 32.3125 
Q 14.796875 37.15625 21.921875 38.8125 
z
M 18.3125 54.390625 
Q 18.3125 48.734375 21.84375 45.5625 
Q 25.390625 42.390625 31.78125 42.390625 
Q 38.140625 42.390625 41.71875 45.5625 
Q 45.3125 48.734375 45.3125 54.390625 
Q 45.3125 60.0625 41.71875 63.234375 
Q 38.140625 66.40625 31.78125 66.40625 
Q 25.390625 66.40625 21.84375 63.234375 
Q 18.3125 60.0625 18.3125 54.390625 
z
" id="DejaVuSans-38"/>
     <path d="M 28.609375 0 
L 0.78125 72.90625 
L 11.078125 72.90625 
L 34.1875 11.53125 
L 57.328125 72.90625 
L 67.578125 72.90625 
L 39.796875 0 
z
" id="DejaVuSans-56"/>
     <path d="M 34.1875 63.1875 
L 14.15625 8.203125 
L 54.25 8.203125 
z
M 0.78125 0 
L 28.609375 72.90625 
L 39.796875 72.90625 
L 67.578125 0 
z
" id="DejaVuSans-394"/>
     <path d="M 9.8125 72.90625 
L 55.90625 72.90625 
L 55.90625 64.59375 
L 19.671875 64.59375 
L 19.671875 43.015625 
L 54.390625 43.015625 
L 54.390625 34.71875 
L 19.671875 34.71875 
L 19.671875 8.296875 
L 56.78125 8.296875 
L 56.78125 0 
L 9.8125 0 
z
" id="DejaVuSans-45"/>
     <path d="M 31.78125 66.40625 
Q 24.171875 66.40625 20.328125 58.90625 
Q 16.5 51.421875 16.5 36.375 
Q 16.5 21.390625 20.328125 13.890625 
Q 24.171875 6.390625 31.78125 6.390625 
Q 39.453125 6.390625 43.28125 13.890625 
Q 47.125 21.390625 47.125 36.375 
Q 47.125 51.421875 43.28125 58.90625 
Q 39.453125 66.40625 31.78125 66.40625 
z
M 31.78125 74.21875 
Q 44.046875 74.21875 50.515625 64.515625 
Q 56.984375 54.828125 56.984375 36.375 
Q 56.984375 17.96875 50.515625 8.265625 
Q 44.046875 -1.421875 31.78125 -1.421875 
Q 19.53125 -1.421875 13.0625 8.265625 
Q 6.59375 17.96875 6.59375 36.375 
Q 6.59375 54.828125 13.0625 64.515625 
Q 19.53125 74.21875 31.78125 74.21875 
z
" id="DejaVuSans-30"/>
     <path d="M 40.578125 39.3125 
Q 47.65625 37.796875 51.625 33 
Q 55.609375 28.21875 55.609375 21.1875 
Q 55.609375 10.40625 48.1875 4.484375 
Q 40.765625 -1.421875 27.09375 -1.421875 
Q 22.515625 -1.421875 17.65625 -0.515625 
Q 12.796875 0.390625 7.625 2.203125 
L 7.625 11.71875 
Q 11.71875 9.328125 16.59375 8.109375 
Q 21.484375 6.890625 26.8125 6.890625 
Q 36.078125 6.890625 40.9375 10.546875 
Q 45.796875 14.203125 45.796875 21.1875 
Q 45.796875 27.640625 41.28125 31.265625 
Q 36.765625 34.90625 28.71875 34.90625 
L 20.21875 34.90625 
L 20.21875 43.015625 
L 29.109375 43.015625 
Q 36.375 43.015625 40.234375 45.921875 
Q 44.09375 48.828125 44.09375 54.296875 
Q 44.09375 59.90625 40.109375 62.90625 
Q 36.140625 65.921875 28.71875 65.921875 
Q 24.65625 65.921875 20.015625 65.03125 
Q 15.375 64.15625 9.8125 62.3125 
L 9.8125 71.09375 
Q 15.4375 72.65625 20.34375 73.4375 
Q 25.25 74.21875 29.59375 74.21875 
Q 40.828125 74.21875 47.359375 69.109375 
Q 53.90625 64.015625 53.90625 55.328125 
Q 53.90625 49.265625 50.4375 45.09375 
Q 46.96875 40.921875 40.578125 39.3125 
z
" id="DejaVuSans-33"/>
    </defs>
    <g transform="translate(65.388 35.472)scale(0.12 -0.12)">
     <use transform="translate(0 0.78125)" xlink:href="#DejaVuSans-53"/>
     <use transform="translate(63.476562 0.78125)" xlink:href="#DejaVuSans-74"/>
     <use transform="translate(102.685547 0.78125)" xlink:href="#DejaVuSans-72"/>
     <use transform="translate(143.798828 0.78125)" xlink:href="#DejaVuSans-75"/>
     <use transform="translate(207.177734 0.78125)" xlink:href="#DejaVuSans-63"/>
     <use transform="translate(262.158203 0.78125)" xlink:href="#DejaVuSans-74"/>
     <use transform="translate(301.367188 0.78125)" xlink:href="#DejaVuSans-75"/>
     <use transform="translate(364.746094 0.78125)" xlink:href="#DejaVuSans-72"/>
     <use transform="translate(405.859375 0.78125)" xlink:href="#DejaVuSans-65"/>
     <use transform="translate(467.382812 0.78125)" xlink:href="#DejaVuSans-20"/>
     <use transform="translate(499.169922 0.78125)" xlink:href="#DejaVuSans-23"/>
     <use transform="translate(582.958984 0.78125)" xlink:href="#DejaVuSans-34"/>
     <use transform="translate(646.582031 0.78125)" xlink:href="#DejaVuSans-36"/>
     <use transform="translate(710.205078 0.78125)" xlink:href="#DejaVuSans-32"/>
     <use transform="translate(773.828125 0.78125)" xlink:href="#DejaVuSans-32"/>
     <use transform="translate(837.451172 0.78125)" xlink:href="#DejaVuSans-2c"/>
     <use transform="translate(869.238281 0.78125)" xlink:href="#DejaVuSans-20"/>
     <use transform="translate(901.025391 0.78125)" xlink:href="#DejaVuSans-Oblique-45"/>
     <use transform="translate(964.208984 -15.625)scale(0.7)" xlink:href="#DejaVuSans-Oblique-4e"/>
     <use transform="translate(1019.306641 0.78125)" xlink:href="#DejaVuSans-3d"/>
     <use transform="translate(1103.095703 0.78125)" xlink:href="#DejaVuSans-2d"/>
     <use transform="translate(1139.179688 0.78125)" xlink:href="#DejaVuSans-31"/>
     <use transform="translate(1202.802734 0.78125)" xlink:href="#DejaVuSans-37"/>
     <use transform="translate(1266.425781 0.78125)" xlink:href="#DejaVuSans-39"/>
     <use transform="translate(1330.048828 0.78125)" xlink:href="#DejaVuSans-2e"/>
     <use transform="translate(1361.804688 0.78125)" xlink:href="#DejaVuSans-38"/>
     <use transform="translate(1425.427734 0.78125)" xlink:href="#DejaVuSans-32"/>
     <use transform="translate(1489.050781 0.78125)" xlink:href="#DejaVuSans-65"/>
     <use transform="translate(1550.574219 0.78125)" xlink:href="#DejaVuSans-56"/>
     <use transform="translate(1618.982422 0.78125)" xlink:href="#DejaVuSans-2c"/>
     <use transform="translate(1650.769531 0.78125)" xlink:href="#DejaVuSans-20"/>
     <use transform="translate(1682.556641 0.78125)" xlink:href="#DejaVuSans-394"/>
     <use transform="translate(1750.964844 0.78125)" xlink:href="#DejaVuSans-45"/>
     <use transform="translate(1814.148438 0.78125)" xlink:href="#DejaVuSans-3d"/>
     <use transform="translate(1897.9375 0.78125)" xlink:href="#DejaVuSans-30"/>
     <use transform="translate(1961.560547 0.78125)" xlink:href="#DejaVuSans-2e"/>
     <use transform="translate(1993.347656 0.78125)" xlink:href="#DejaVuSans-31"/>
     <use transform="translate(2056.970703 0.78125)" xlink:href="#DejaVuSans-33"/>
     <use transform="translate(2120.59375 0.78125)" xlink:href="#DejaVuSans-65"/>
     <use transform="translate(2182.117188 0.78125)" xlink:href="#DejaVuSans-56"/>
    </g>
   </g>
  </g>
  <g id="axes_2">
   <g id="patch_2">
    <path clip-path="url(#p216c6350d0)" d="M 361.152 307.584 
L 361.152 306.5445 
L 361.152 42.5115 
L 361.152 41.472 
L 374.4576 41.472 
L 374.4576 42.5115 
L 374.4576 306.5445 
L 374.4576 307.584 
z
" style="fill:#ffffff;stroke:#ffffff;stroke-linejoin:miter;stroke-width:0.01;"/>
   </g>
   <image height="265.68" id="imagee3b1208cad" transform="scale(1 -1)translate(0 -265.68)" width="12.96" x="361.44" xlink:href="data:image/png;base64,
iVBORw0KGgoAAAANSUhEUgAAABIAAAFxCAYAAAB+2fgXAAAABHNCSVQICAgIfAhkiAAAAeVJREFUeJztncmNw0AQA2ckheYQNv9QLIfQ8ygsCgQ7AEI8+jAs2Puz/94F1LP2ReCsZ18bAWIeZ5XaGRBE7VnbptG+KI101FYyNSiQG2oRITXKNaX9uclOdi2XWjftVE32CZCO2ou5Bj1TcCBr/1zB9ge7Fq0Rg2NM9pvbtG+ua1QgsRYhDy0ISEiNc40BEibbSI0Coj5CBGtkpFbXJiAjNZlrwhuSOv2M1DjXbEdEciBt1JSDDQKKpmZr2rr2j0DBGpXaWEJq3bQzEPIS26r9J+Wzv9Tm8o3aajRXqc3VUXsApKNWjeZq0x4ABVNbm7lrszVigDqP5vIl2+eaT2yfRkL7g+dRcNPqjohkjaCvRVBq0H2U3LQrOJCx9kdTg4B8oxZzzTdqdYHEngjUCAPyUctN9sVRq2sTECW2UKNLd2jVtRmo1A6AhMmWaSRcR8nUdIHUuVb75zJS218EyEitro1At69pIdeSk30Lkw0FktNImGyZRhy1O5galmxd03LUsHWk06jUZiCq+5Wb1kZNN4+wJxJuWt8RAW5am2sYNZ9rYCBzZ3buPKJ2P5Yj4Toy3keyIyJbIxs1rml1byCA84gpch5RQNB7Q0qNMGq2Hy4BXdNR41yz/cEEJfZzUz96r9PoB0okjeQ8y9TkAAAAAElFTkSuQmCC" y="-41.76"/>
   <g id="matplotlib.axis_1"/>
   <g id="matplotlib.axis_2">
    <g id="ytick_1">
     <g id="line2d_1">
      <defs>
       <path d="M 0 0 
L 3.5 0 
" id="mc20fa819c1" style="stroke:#000000;stroke-width:0.8;"/>
      </defs>
      <g>
       <use style="stroke:#000000;stroke-width:0.8;" x="374.4576" xlink:href="#mc20fa819c1" y="304.122534"/>
      </g>
     </g>
     <g id="text_2">
      <!-- −9.0 -->
      <defs>
       <path d="M 10.59375 35.5 
L 73.1875 35.5 
L 73.1875 27.203125 
L 10.59375 27.203125 
z
" id="DejaVuSans-2212"/>
      </defs>
      <g transform="translate(381.4576 307.921753)scale(0.1 -0.1)">
       <use xlink:href="#DejaVuSans-2212"/>
       <use x="83.789062" xlink:href="#DejaVuSans-39"/>
       <use x="147.412109" xlink:href="#DejaVuSans-2e"/>
       <use x="179.199219" xlink:href="#DejaVuSans-30"/>
      </g>
     </g>
    </g>
    <g id="ytick_2">
     <g id="line2d_2">
      <g>
       <use style="stroke:#000000;stroke-width:0.8;" x="374.4576" xlink:href="#mc20fa819c1" y="270.760922"/>
      </g>
     </g>
     <g id="text_3">
      <!-- −8.5 -->
      <defs>
       <path d="M 10.796875 72.90625 
L 49.515625 72.90625 
L 49.515625 64.59375 
L 19.828125 64.59375 
L 19.828125 46.734375 
Q 21.96875 47.46875 24.109375 47.828125 
Q 26.265625 48.1875 28.421875 48.1875 
Q 40.625 48.1875 47.75 41.5 
Q 54.890625 34.8125 54.890625 23.390625 
Q 54.890625 11.625 47.5625 5.09375 
Q 40.234375 -1.421875 26.90625 -1.421875 
Q 22.3125 -1.421875 17.546875 -0.640625 
Q 12.796875 0.140625 7.71875 1.703125 
L 7.71875 11.625 
Q 12.109375 9.234375 16.796875 8.0625 
Q 21.484375 6.890625 26.703125 6.890625 
Q 35.15625 6.890625 40.078125 11.328125 
Q 45.015625 15.765625 45.015625 23.390625 
Q 45.015625 31 40.078125 35.4375 
Q 35.15625 39.890625 26.703125 39.890625 
Q 22.75 39.890625 18.8125 39.015625 
Q 14.890625 38.140625 10.796875 36.28125 
z
" id="DejaVuSans-35"/>
      </defs>
      <g transform="translate(381.4576 274.560141)scale(0.1 -0.1)">
       <use xlink:href="#DejaVuSans-2212"/>
       <use x="83.789062" xlink:href="#DejaVuSans-38"/>
       <use x="147.412109" xlink:href="#DejaVuSans-2e"/>
       <use x="179.199219" xlink:href="#DejaVuSans-35"/>
      </g>
     </g>
    </g>
    <g id="ytick_3">
     <g id="line2d_3">
      <g>
       <use style="stroke:#000000;stroke-width:0.8;" x="374.4576" xlink:href="#mc20fa819c1" y="237.399311"/>
      </g>
     </g>
     <g id="text_4">
      <!-- −8.0 -->
      <g transform="translate(381.4576 241.198529)scale(0.1 -0.1)">
       <use xlink:href="#DejaVuSans-2212"/>
       <use x="83.789062" xlink:href="#DejaVuSans-38"/>
       <use x="147.412109" xlink:href="#DejaVuSans-2e"/>
       <use x="179.199219" xlink:href="#DejaVuSans-30"/>
      </g>
     </g>
    </g>
    <g id="ytick_4">
     <g id="line2d_4">
      <g>
       <use style="stroke:#000000;stroke-width:0.8;" x="374.4576" xlink:href="#mc20fa819c1" y="204.037699"/>
      </g>
     </g>
     <g id="text_5">
      <!-- −7.5 -->
      <g transform="translate(381.4576 207.836917)scale(0.1 -0.1)">
       <use xlink:href="#DejaVuSans-2212"/>
       <use x="83.789062" xlink:href="#DejaVuSans-37"/>
       <use x="147.412109" xlink:href="#DejaVuSans-2e"/>
       <use x="179.199219" xlink:href="#DejaVuSans-35"/>
      </g>
     </g>
    </g>
    <g id="ytick_5">
     <g id="line2d_5">
      <g>
       <use style="stroke:#000000;stroke-width:0.8;" x="374.4576" xlink:href="#mc20fa819c1" y="170.676087"/>
      </g>
     </g>
     <g id="text_6">
      <!-- −7.0 -->
      <g transform="translate(381.4576 174.475306)scale(0.1 -0.1)">
       <use xlink:href="#DejaVuSans-2212"/>
       <use x="83.789062" xlink:href="#DejaVuSans-37"/>
       <use x="147.412109" xlink:href="#DejaVuSans-2e"/>
       <use x="179.199219" xlink:href="#DejaVuSans-30"/>
      </g>
     </g>
    </g>
    <g id="ytick_6">
     <g id="line2d_6">
      <g>
       <use style="stroke:#000000;stroke-width:0.8;" x="374.4576" xlink:href="#mc20fa819c1" y="137.314475"/>
      </g>
     </g>
     <g id="text_7">
      <!-- −6.5 -->
      <g transform="translate(381.4576 141.113694)scale(0.1 -0.1)">
       <use xlink:href="#DejaVuSans-2212"/>
       <use x="83.789062" xlink:href="#DejaVuSans-36"/>
       <use x="147.412109" xlink:href="#DejaVuSans-2e"/>
       <use x="179.199219" xlink:href="#DejaVuSans-35"/>
      </g>
     </g>
    </g>
    <g id="ytick_7">
     <g id="line2d_7">
      <g>
       <use style="stroke:#000000;stroke-width:0.8;" x="374.4576" xlink:href="#mc20fa819c1" y="103.952863"/>
      </g>
     </g>
     <g id="text_8">
      <!-- −6.0 -->
      <g transform="translate(381.4576 107.752082)scale(0.1 -0.1)">
       <use xlink:href="#DejaVuSans-2212"/>
       <use x="83.789062" xlink:href="#DejaVuSans-36"/>
       <use x="147.412109" xlink:href="#DejaVuSans-2e"/>
       <use x="179.199219" xlink:href="#DejaVuSans-30"/>
      </g>
     </g>
    </g>
    <g id="ytick_8">
     <g id="line2d_8">
      <g>
       <use style="stroke:#000000;stroke-width:0.8;" x="374.4576" xlink:href="#mc20fa819c1" y="70.591251"/>
      </g>
     </g>
     <g id="text_9">
      <!-- −5.5 -->
      <g transform="translate(381.4576 74.39047)scale(0.1 -0.1)">
       <use xlink:href="#DejaVuSans-2212"/>
       <use x="83.789062" xlink:href="#DejaVuSans-35"/>
       <use x="147.412109" xlink:href="#DejaVuSans-2e"/>
       <use x="179.199219" xlink:href="#DejaVuSans-35"/>
      </g>
     </g>
    </g>
    <g id="text_10">
     <!-- Energy [eV] -->
     <defs>
      <path d="M 54.890625 33.015625 
L 54.890625 0 
L 45.90625 0 
L 45.90625 32.71875 
Q 45.90625 40.484375 42.875 44.328125 
Q 39.84375 48.1875 33.796875 48.1875 
Q 26.515625 48.1875 22.3125 43.546875 
Q 18.109375 38.921875 18.109375 30.90625 
L 18.109375 0 
L 9.078125 0 
L 9.078125 54.6875 
L 18.109375 54.6875 
L 18.109375 46.1875 
Q 21.34375 51.125 25.703125 53.5625 
Q 30.078125 56 35.796875 56 
Q 45.21875 56 50.046875 50.171875 
Q 54.890625 44.34375 54.890625 33.015625 
z
" id="DejaVuSans-6e"/>
      <path d="M 45.40625 27.984375 
Q 45.40625 37.75 41.375 43.109375 
Q 37.359375 48.484375 30.078125 48.484375 
Q 22.859375 48.484375 18.828125 43.109375 
Q 14.796875 37.75 14.796875 27.984375 
Q 14.796875 18.265625 18.828125 12.890625 
Q 22.859375 7.515625 30.078125 7.515625 
Q 37.359375 7.515625 41.375 12.890625 
Q 45.40625 18.265625 45.40625 27.984375 
z
M 54.390625 6.78125 
Q 54.390625 -7.171875 48.1875 -13.984375 
Q 42 -20.796875 29.203125 -20.796875 
Q 24.46875 -20.796875 20.265625 -20.09375 
Q 16.0625 -19.390625 12.109375 -17.921875 
L 12.109375 -9.1875 
Q 16.0625 -11.328125 19.921875 -12.34375 
Q 23.78125 -13.375 27.78125 -13.375 
Q 36.625 -13.375 41.015625 -8.765625 
Q 45.40625 -4.15625 45.40625 5.171875 
L 45.40625 9.625 
Q 42.625 4.78125 38.28125 2.390625 
Q 33.9375 0 27.875 0 
Q 17.828125 0 11.671875 7.65625 
Q 5.515625 15.328125 5.515625 27.984375 
Q 5.515625 40.671875 11.671875 48.328125 
Q 17.828125 56 27.875 56 
Q 33.9375 56 38.28125 53.609375 
Q 42.625 51.21875 45.40625 46.390625 
L 45.40625 54.6875 
L 54.390625 54.6875 
z
" id="DejaVuSans-67"/>
      <path d="M 32.171875 -5.078125 
Q 28.375 -14.84375 24.75 -17.8125 
Q 21.140625 -20.796875 15.09375 -20.796875 
L 7.90625 -20.796875 
L 7.90625 -13.28125 
L 13.1875 -13.28125 
Q 16.890625 -13.28125 18.9375 -11.515625 
Q 21 -9.765625 23.484375 -3.21875 
L 25.09375 0.875 
L 2.984375 54.6875 
L 12.5 54.6875 
L 29.59375 11.921875 
L 46.6875 54.6875 
L 56.203125 54.6875 
z
" id="DejaVuSans-79"/>
      <path d="M 8.59375 75.984375 
L 29.296875 75.984375 
L 29.296875 69 
L 17.578125 69 
L 17.578125 -6.203125 
L 29.296875 -6.203125 
L 29.296875 -13.1875 
L 8.59375 -13.1875 
z
" id="DejaVuSans-5b"/>
      <path d="M 30.421875 75.984375 
L 30.421875 -13.1875 
L 9.71875 -13.1875 
L 9.71875 -6.203125 
L 21.390625 -6.203125 
L 21.390625 69 
L 9.71875 69 
L 9.71875 75.984375 
z
" id="DejaVuSans-5d"/>
     </defs>
     <g transform="translate(417.33885 204.108469)rotate(-90)scale(0.1 -0.1)">
      <use xlink:href="#DejaVuSans-45"/>
      <use x="63.183594" xlink:href="#DejaVuSans-6e"/>
      <use x="126.5625" xlink:href="#DejaVuSans-65"/>
      <use x="188.085938" xlink:href="#DejaVuSans-72"/>
      <use x="229.183594" xlink:href="#DejaVuSans-67"/>
      <use x="292.660156" xlink:href="#DejaVuSans-79"/>
      <use x="351.839844" xlink:href="#DejaVuSans-20"/>
      <use x="383.626953" xlink:href="#DejaVuSans-5b"/>
      <use x="422.640625" xlink:href="#DejaVuSans-65"/>
      <use x="484.164062" xlink:href="#DejaVuSans-56"/>
      <use x="552.572266" xlink:href="#DejaVuSans-5d"/>
     </g>
    </g>
   </g>
   <g id="patch_3">
    <path d="M 361.152 307.584 
L 361.152 306.5445 
L 361.152 42.5115 
L 361.152 41.472 
L 374.4576 41.472 
L 374.4576 42.5115 
L 374.4576 306.5445 
L 374.4576 307.584 
z
" style="fill:none;stroke:#000000;stroke-linejoin:miter;stroke-width:0.8;"/>
   </g>
  </g>
 </g>
 <defs>
  <clipPath id="p318183bc24">
   <rect height="266.112" width="285.696" x="57.6" y="41.472"/>
  </clipPath>
  <clipPath id="p216c6350d0">
   <rect height="266.112" width="13.3056" x="361.152" y="41.472"/>
  </clipPath>
 </defs>
</svg>
