<?xml version="1.0" encoding="utf-8" standalone="no"?>
<!DOCTYPE svg PUBLIC "-//W3C//DTD SVG 1.1//EN"
  "http://www.w3.org/Graphics/SVG/1.1/DTD/svg11.dtd">
<!-- Created with matplotlib (http://matplotlib.org/) -->
<svg height="345.6pt" version="1.1" viewBox="0 0 460.8 345.6" width="460.8pt" xmlns="http://www.w3.org/2000/svg" xmlns:xlink="http://www.w3.org/1999/xlink">
 <defs>
  <style type="text/css">
*{stroke-linecap:butt;stroke-linejoin:round;}
  </style>
 </defs>
 <g id="figure_1">
  <g id="patch_1">
   <path d="M 0 345.6 
L 460.8 345.6 
L 460.8 0 
L 0 0 
z
" style="fill:#ffffff;"/>
  </g>
  <g id="axes_1">
   <g id="CircleCollection_1">
    <path clip-path="url(#pb9562251c0)" d="M 260.562204 225.776652 
C 262.299596 225.776652 263.966063 225.086379 265.194584 223.857858 
C 266.423106 222.629336 267.113379 220.962869 267.113379 219.225477 
C 267.113379 217.488085 266.423106 215.821618 265.194584 214.593097 
C 263.966063 213.364575 262.299596 212.674302 260.562204 212.674302 
C 258.824812 212.674302 257.158345 213.364575 255.929823 214.593097 
C 254.701302 215.821618 254.011029 217.488085 254.011029 219.225477 
C 254.011029 220.962869 254.701302 222.629336 255.929823 223.857858 
C 257.158345 225.086379 258.824812 225.776652 260.562204 225.776652 
z
" style="fill:#482979;"/>
    <path clip-path="url(#pb9562251c0)" d="M 204.821768 173.740131 
C 206.511673 173.740131 208.132592 173.068724 209.327536 171.873781 
C 210.52248 170.678837 211.193886 169.057918 211.193886 167.368013 
C 211.193886 165.678107 210.52248 164.057188 209.327536 162.862245 
C 208.132592 161.667301 206.511673 160.995895 204.821768 160.995895 
C 203.131863 160.995895 201.510944 161.667301 200.316 162.862245 
C 199.121056 164.057188 198.44965 165.678107 198.44965 167.368013 
C 198.44965 169.057918 199.121056 170.678837 200.316 171.873781 
C 201.510944 173.068724 203.131863 173.740131 204.821768 173.740131 
z
" style="fill:#443a83;"/>
    <path clip-path="url(#pb9562251c0)" d="M 311.903877 285.475113 
C 313.70702 285.475113 315.436554 284.758717 316.711569 283.483702 
C 317.986585 282.208687 318.702981 280.479152 318.702981 278.676009 
C 318.702981 276.872865 317.986585 275.143331 316.711569 273.868316 
C 315.436554 272.593301 313.70702 271.876904 311.903877 271.876904 
C 310.100733 271.876904 308.371199 272.593301 307.096184 273.868316 
C 305.821168 275.143331 305.104772 276.872865 305.104772 278.676009 
C 305.104772 280.479152 305.821168 282.208687 307.096184 283.483702 
C 308.371199 284.758717 310.100733 285.475113 311.903877 285.475113 
z
" style="fill:#424086;"/>
    <path clip-path="url(#pb9562251c0)" d="M 157.724125 135.631343 
C 159.657043 135.631343 161.511054 134.863386 162.877833 133.496607 
C 164.244613 132.129827 165.012569 130.275817 165.012569 128.342898 
C 165.012569 126.40998 164.244613 124.555969 162.877833 123.18919 
C 161.511054 121.822411 159.657043 121.054454 157.724125 121.054454 
C 155.791207 121.054454 153.937196 121.822411 152.570416 123.18919 
C 151.203637 124.555969 150.43568 126.40998 150.43568 128.342898 
C 150.43568 130.275817 151.203637 132.129827 152.570416 133.496607 
C 153.937196 134.863386 155.791207 135.631343 157.724125 135.631343 
z
" style="fill:#46327e;"/>
    <path clip-path="url(#pb9562251c0)" d="M 176.986175 62.360463 
C 179.154894 62.360463 181.235079 61.498822 182.768594 59.965307 
C 184.302109 58.431792 185.16375 56.351607 185.16375 54.182889 
C 185.16375 52.014171 184.302109 49.933986 182.768594 48.40047 
C 181.235079 46.866955 179.154894 46.005314 176.986175 46.005314 
C 174.817457 46.005314 172.737272 46.866955 171.203757 48.40047 
C 169.670242 49.933986 168.808601 52.014171 168.808601 54.182889 
C 168.808601 56.351607 169.670242 58.431792 171.203757 59.965307 
C 172.737272 61.498822 174.817457 62.360463 176.986175 62.360463 
z
" style="fill:#fde725;"/>
    <path clip-path="url(#pb9562251c0)" d="M 131.906714 225.072411 
C 133.545132 225.072411 135.116665 224.421461 136.275202 223.262924 
C 137.433739 222.104387 138.084689 220.532854 138.084689 218.894436 
C 138.084689 217.256017 137.433739 215.684484 136.275202 214.525947 
C 135.116665 213.36741 133.545132 212.71646 131.906714 212.71646 
C 130.268295 212.71646 128.696762 213.36741 127.538225 214.525947 
C 126.379688 215.684484 125.728738 217.256017 125.728738 218.894436 
C 125.728738 220.532854 126.379688 222.104387 127.538225 223.262924 
C 128.696762 224.421461 130.268295 225.072411 131.906714 225.072411 
z
" style="fill:#443983;"/>
    <path clip-path="url(#pb9562251c0)" d="M 228.549838 178.96942 
C 230.254114 178.96942 231.888816 178.292304 233.093921 177.087199 
C 234.299026 175.882094 234.976142 174.247392 234.976142 172.543116 
C 234.976142 170.83884 234.299026 169.204138 233.093921 167.999033 
C 231.888816 166.793928 230.254114 166.116812 228.549838 166.116812 
C 226.845562 166.116812 225.21086 166.793928 224.005755 167.999033 
C 222.80065 169.204138 222.123534 170.83884 222.123534 172.543116 
C 222.123534 174.247392 222.80065 175.882094 224.005755 177.087199 
C 225.21086 178.292304 226.845562 178.96942 228.549838 178.96942 
z
" style="fill:#443983;"/>
    <path clip-path="url(#pb9562251c0)" d="M 218.342292 142.435362 
C 220.037774 142.435362 221.664043 141.761739 222.86293 140.562852 
C 224.061818 139.363965 224.73544 137.737696 224.73544 136.042213 
C 224.73544 134.346731 224.061818 132.720462 222.86293 131.521575 
C 221.664043 130.322688 220.037774 129.649065 218.342292 129.649065 
C 216.646809 129.649065 215.02054 130.322688 213.821653 131.521575 
C 212.622766 132.720462 211.949143 134.346731 211.949143 136.042213 
C 211.949143 137.737696 212.622766 139.363965 213.821653 140.562852 
C 215.02054 141.761739 216.646809 142.435362 218.342292 142.435362 
z
" style="fill:#32b67a;"/>
    <path clip-path="url(#pb9562251c0)" d="M 158.282299 172.451026 
C 160.08263 172.451026 161.809468 171.735747 163.082494 170.46272 
C 164.355521 169.189694 165.0708 167.462856 165.0708 165.662525 
C 165.0708 163.862193 164.355521 162.135356 163.082494 160.862329 
C 161.809468 159.589302 160.08263 158.874023 158.282299 158.874023 
C 156.481967 158.874023 154.75513 159.589302 153.482103 160.862329 
C 152.209076 162.135356 151.493797 163.862193 151.493797 165.662525 
C 151.493797 167.462856 152.209076 169.189694 153.482103 170.46272 
C 154.75513 171.735747 156.481967 172.451026 158.282299 172.451026 
z
" style="fill:#3b518b;"/>
    <path clip-path="url(#pb9562251c0)" d="M 330.079688 301.868268 
C 331.909329 301.868268 333.664279 301.141344 334.958031 299.847592 
C 336.251783 298.55384 336.978707 296.79889 336.978707 294.969249 
C 336.978707 293.139607 336.251783 291.384657 334.958031 290.090905 
C 333.664279 288.797153 331.909329 288.070229 330.079688 288.070229 
C 328.250046 288.070229 326.495096 288.797153 325.201344 290.090905 
C 323.907592 291.384657 323.180668 293.139607 323.180668 294.969249 
C 323.180668 296.79889 323.907592 298.55384 325.201344 299.847592 
C 326.495096 301.141344 328.250046 301.868268 330.079688 301.868268 
z
" style="fill:#f8e621;"/>
    <path clip-path="url(#pb9562251c0)" d="M 175.945017 226.693171 
C 177.592914 226.693171 179.17354 226.038454 180.338779 224.873215 
C 181.504018 223.707976 182.158734 222.127351 182.158734 220.479454 
C 182.158734 218.831557 181.504018 217.250932 180.338779 216.085692 
C 179.17354 214.920453 177.592914 214.265737 175.945017 214.265737 
C 174.29712 214.265737 172.716495 214.920453 171.551256 216.085692 
C 170.386017 217.250932 169.7313 218.831557 169.7313 220.479454 
C 169.7313 222.127351 170.386017 223.707976 171.551256 224.873215 
C 172.716495 226.038454 174.29712 226.693171 175.945017 226.693171 
z
" style="fill:#69cd5b;"/>
    <path clip-path="url(#pb9562251c0)" d="M 70.785255 253.706357 
C 72.367974 253.706357 73.886082 253.077536 75.005233 251.958385 
C 76.124385 250.839233 76.753206 249.321125 76.753206 247.738406 
C 76.753206 246.155687 76.124385 244.637579 75.005233 243.518428 
C 73.886082 242.399276 72.367974 241.770455 70.785255 241.770455 
C 69.202536 241.770455 67.684427 242.399276 66.565276 243.518428 
C 65.446125 244.637579 64.817304 246.155687 64.817304 247.738406 
C 64.817304 249.321125 65.446125 250.839233 66.565276 251.958385 
C 67.684427 253.077536 69.202536 253.706357 70.785255 253.706357 
z
" style="fill:#f6e620;"/>
    <path clip-path="url(#pb9562251c0)" d="M 91.337816 243.970421 
C 92.938699 243.970421 94.47423 243.334383 95.606226 242.202387 
C 96.738222 241.070391 97.37426 239.53486 97.37426 237.933977 
C 97.37426 236.333093 96.738222 234.797562 95.606226 233.665566 
C 94.47423 232.53357 92.938699 231.897532 91.337816 231.897532 
C 89.736932 231.897532 88.201401 232.53357 87.069405 233.665566 
C 85.937409 234.797562 85.301371 236.333093 85.301371 237.933977 
C 85.301371 239.53486 85.937409 241.070391 87.069405 242.202387 
C 88.201401 243.334383 89.736932 243.970421 91.337816 243.970421 
z
" style="fill:#404688;"/>
    <path clip-path="url(#pb9562251c0)" d="M 111.908518 233.945495 
C 113.527887 233.945495 115.081148 233.302113 116.226214 232.157046 
C 117.371281 231.01198 118.014663 229.458719 118.014663 227.83935 
C 118.014663 226.219982 117.371281 224.666721 116.226214 223.521654 
C 115.081148 222.376588 113.527887 221.733206 111.908518 221.733206 
C 110.28915 221.733206 108.735889 222.376588 107.590822 223.521654 
C 106.445756 224.666721 105.802374 226.219982 105.802374 227.83935 
C 105.802374 229.458719 106.445756 231.01198 107.590822 232.157046 
C 108.735889 233.302113 110.28915 233.945495 111.908518 233.945495 
z
" style="fill:#482878;"/>
    <path clip-path="url(#pb9562251c0)" d="M 294.32122 266.516264 
C 296.100574 266.516264 297.80729 265.809319 299.065484 264.551125 
C 300.323678 263.292932 301.030623 261.586215 301.030623 259.806861 
C 301.030623 258.027506 300.323678 256.32079 299.065484 255.062596 
C 297.80729 253.804403 296.100574 253.097458 294.32122 253.097458 
C 292.541865 253.097458 290.835149 253.804403 289.576955 255.062596 
C 288.318762 256.32079 287.611816 258.027506 287.611816 259.806861 
C 287.611816 261.586215 288.318762 263.292932 289.576955 264.551125 
C 290.835149 265.809319 292.541865 266.516264 294.32122 266.516264 
z
" style="fill:#472d7b;"/>
    <path clip-path="url(#pb9562251c0)" d="M 160.270968 117.350581 
C 162.266389 117.350581 164.180352 116.557791 165.591328 115.146815 
C 167.002304 113.735839 167.795094 111.821876 167.795094 109.826455 
C 167.795094 107.831033 167.002304 105.917071 165.591328 104.506094 
C 164.180352 103.095118 162.266389 102.302329 160.270968 102.302329 
C 158.275546 102.302329 156.361583 103.095118 154.950607 104.506094 
C 153.539631 105.917071 152.746842 107.831033 152.746842 109.826455 
C 152.746842 111.821876 153.539631 113.735839 154.950607 115.146815 
C 156.361583 116.557791 158.275546 117.350581 160.270968 117.350581 
z
" style="fill:#472a7a;"/>
    <path clip-path="url(#pb9562251c0)" d="M 152.423951 214.467426 
C 154.085568 214.467426 155.679353 213.807259 156.854293 212.632318 
C 158.029234 211.457378 158.689401 209.863593 158.689401 208.201976 
C 158.689401 206.540359 158.029234 204.946574 156.854293 203.771634 
C 155.679353 202.596693 154.085568 201.936526 152.423951 201.936526 
C 150.762334 201.936526 149.168549 202.596693 147.993609 203.771634 
C 146.818668 204.946574 146.158501 206.540359 146.158501 208.201976 
C 146.158501 209.863593 146.818668 211.457378 147.993609 212.632318 
C 149.168549 213.807259 150.762334 214.467426 152.423951 214.467426 
z
" style="fill:#471063;"/>
    <path clip-path="url(#pb9562251c0)" d="M 277.388164 247.061614 
C 279.145419 247.061614 280.830937 246.36345 282.073504 245.120883 
C 283.316071 243.878317 284.014235 242.192798 284.014235 240.435543 
C 284.014235 238.678289 283.316071 236.99277 282.073504 235.750204 
C 280.830937 234.507637 279.145419 233.809472 277.388164 233.809472 
C 275.63091 233.809472 273.945391 234.507637 272.702824 235.750204 
C 271.460258 236.99277 270.762093 238.678289 270.762093 240.435543 
C 270.762093 242.192798 271.460258 243.878317 272.702824 245.120883 
C 273.945391 246.36345 275.63091 247.061614 277.388164 247.061614 
z
" style="fill:#472d7b;"/>
    <path clip-path="url(#pb9562251c0)" d="M 244.607446 203.713934 
C 246.325721 203.713934 247.973853 203.031256 249.188857 201.816251 
C 250.403862 200.601247 251.08654 198.953116 251.08654 197.23484 
C 251.08654 195.516564 250.403862 193.868433 249.188857 192.653428 
C 247.973853 191.438424 246.325721 190.755746 244.607446 190.755746 
C 242.88917 190.755746 241.241039 191.438424 240.026034 192.653428 
C 238.81103 193.868433 238.128351 195.516564 238.128351 197.23484 
C 238.128351 198.953116 238.81103 200.601247 240.026034 201.816251 
C 241.241039 203.031256 242.88917 203.713934 244.607446 203.713934 
z
" style="fill:#46307e;"/>
    <path clip-path="url(#pb9562251c0)" d="M 184.596777 192.430681 
C 186.277185 192.430681 187.888993 191.763048 189.077221 190.57482 
C 190.265449 189.386593 190.933082 187.774784 190.933082 186.094376 
C 190.933082 184.413968 190.265449 182.80216 189.077221 181.613932 
C 187.888993 180.425704 186.277185 179.758071 184.596777 179.758071 
C 182.916369 179.758071 181.304561 180.425704 180.116333 181.613932 
C 178.928105 182.80216 178.260472 184.413968 178.260472 186.094376 
C 178.260472 187.774784 178.928105 189.386593 180.116333 190.57482 
C 181.304561 191.763048 182.916369 192.430681 184.596777 192.430681 
z
" style="fill:#440154;"/>
    <path clip-path="url(#pb9562251c0)" d="M 162.446375 185.912285 
C 164.167477 185.912285 165.818319 185.228484 167.035322 184.011481 
C 168.252325 182.794478 168.936127 181.143636 168.936127 179.422533 
C 168.936127 177.701431 168.252325 176.050589 167.035322 174.833586 
C 165.818319 173.616583 164.167477 172.932781 162.446375 172.932781 
C 160.725272 172.932781 159.07443 173.616583 157.857427 174.833586 
C 156.640424 176.050589 155.956623 177.701431 155.956623 179.422533 
C 155.956623 181.143636 156.640424 182.794478 157.857427 184.011481 
C 159.07443 185.228484 160.725272 185.912285 162.446375 185.912285 
z
" style="fill:#48186a;"/>
    <path clip-path="url(#pb9562251c0)" d="M 156.880493 154.167376 
C 158.747305 154.167376 160.537908 153.425684 161.857944 152.105649 
C 163.177979 150.785614 163.919671 148.99501 163.919671 147.128199 
C 163.919671 145.261387 163.177979 143.470784 161.857944 142.150748 
C 160.537908 140.830713 158.747305 140.089021 156.880493 140.089021 
C 155.013682 140.089021 153.223078 140.830713 151.903043 142.150748 
C 150.583008 143.470784 149.841316 145.261387 149.841316 147.128199 
C 149.841316 148.99501 150.583008 150.785614 151.903043 152.105649 
C 153.223078 153.425684 155.013682 154.167376 156.880493 154.167376 
z
" style="fill:#482677;"/>
    <path clip-path="url(#pb9562251c0)" d="M 164.92633 99.090094 
C 166.981416 99.090094 168.952607 98.2736 170.405772 96.820435 
C 171.858938 95.36727 172.675432 93.396078 172.675432 91.340992 
C 172.675432 89.285906 171.858938 87.314715 170.405772 85.861549 
C 168.952607 84.408384 166.981416 83.59189 164.92633 83.59189 
C 162.871244 83.59189 160.900052 84.408384 159.446887 85.861549 
C 157.993721 87.314715 157.177227 89.285906 157.177227 91.340992 
C 157.177227 93.396078 157.993721 95.36727 159.446887 96.820435 
C 160.900052 98.2736 162.871244 99.090094 164.92633 99.090094 
z
" style="fill:#472f7d;"/>
    <path clip-path="url(#pb9562251c0)" d="M 170.285294 80.952744 
C 172.39858 80.952744 174.425596 80.113126 175.919914 78.618807 
C 177.414233 77.124489 178.253851 75.097473 178.253851 72.984187 
C 178.253851 70.870901 177.414233 68.843885 175.919914 67.349567 
C 174.425596 65.855248 172.39858 65.01563 170.285294 65.01563 
C 168.172008 65.01563 166.144992 65.855248 164.650673 67.349567 
C 163.156355 68.843885 162.316737 70.870901 162.316737 72.984187 
C 162.316737 75.097473 163.156355 77.124489 164.650673 78.618807 
C 166.144992 80.113126 168.172008 80.952744 170.285294 80.952744 
z
" style="fill:#453882;"/>
   </g>
   <g id="text_1">
    <!-- Structure #4343, $E_N$=-175.07eV, ΔE=-0.02eV -->
    <defs>
     <path d="M 53.515625 70.515625 
L 53.515625 60.890625 
Q 47.90625 63.578125 42.921875 64.890625 
Q 37.9375 66.21875 33.296875 66.21875 
Q 25.25 66.21875 20.875 63.09375 
Q 16.5 59.96875 16.5 54.203125 
Q 16.5 49.359375 19.40625 46.890625 
Q 22.3125 44.4375 30.421875 42.921875 
L 36.375 41.703125 
Q 47.40625 39.59375 52.65625 34.296875 
Q 57.90625 29 57.90625 20.125 
Q 57.90625 9.515625 50.796875 4.046875 
Q 43.703125 -1.421875 29.984375 -1.421875 
Q 24.8125 -1.421875 18.96875 -0.25 
Q 13.140625 0.921875 6.890625 3.21875 
L 6.890625 13.375 
Q 12.890625 10.015625 18.65625 8.296875 
Q 24.421875 6.59375 29.984375 6.59375 
Q 38.421875 6.59375 43.015625 9.90625 
Q 47.609375 13.234375 47.609375 19.390625 
Q 47.609375 24.75 44.3125 27.78125 
Q 41.015625 30.8125 33.5 32.328125 
L 27.484375 33.5 
Q 16.453125 35.6875 11.515625 40.375 
Q 6.59375 45.0625 6.59375 53.421875 
Q 6.59375 63.09375 13.40625 68.65625 
Q 20.21875 74.21875 32.171875 74.21875 
Q 37.3125 74.21875 42.625 73.28125 
Q 47.953125 72.359375 53.515625 70.515625 
z
" id="DejaVuSans-53"/>
     <path d="M 18.3125 70.21875 
L 18.3125 54.6875 
L 36.8125 54.6875 
L 36.8125 47.703125 
L 18.3125 47.703125 
L 18.3125 18.015625 
Q 18.3125 11.328125 20.140625 9.421875 
Q 21.96875 7.515625 27.59375 7.515625 
L 36.8125 7.515625 
L 36.8125 0 
L 27.59375 0 
Q 17.1875 0 13.234375 3.875 
Q 9.28125 7.765625 9.28125 18.015625 
L 9.28125 47.703125 
L 2.6875 47.703125 
L 2.6875 54.6875 
L 9.28125 54.6875 
L 9.28125 70.21875 
z
" id="DejaVuSans-74"/>
     <path d="M 41.109375 46.296875 
Q 39.59375 47.171875 37.8125 47.578125 
Q 36.03125 48 33.890625 48 
Q 26.265625 48 22.1875 43.046875 
Q 18.109375 38.09375 18.109375 28.8125 
L 18.109375 0 
L 9.078125 0 
L 9.078125 54.6875 
L 18.109375 54.6875 
L 18.109375 46.1875 
Q 20.953125 51.171875 25.484375 53.578125 
Q 30.03125 56 36.53125 56 
Q 37.453125 56 38.578125 55.875 
Q 39.703125 55.765625 41.0625 55.515625 
z
" id="DejaVuSans-72"/>
     <path d="M 8.5 21.578125 
L 8.5 54.6875 
L 17.484375 54.6875 
L 17.484375 21.921875 
Q 17.484375 14.15625 20.5 10.265625 
Q 23.53125 6.390625 29.59375 6.390625 
Q 36.859375 6.390625 41.078125 11.03125 
Q 45.3125 15.671875 45.3125 23.6875 
L 45.3125 54.6875 
L 54.296875 54.6875 
L 54.296875 0 
L 45.3125 0 
L 45.3125 8.40625 
Q 42.046875 3.421875 37.71875 1 
Q 33.40625 -1.421875 27.6875 -1.421875 
Q 18.265625 -1.421875 13.375 4.4375 
Q 8.5 10.296875 8.5 21.578125 
z
M 31.109375 56 
z
" id="DejaVuSans-75"/>
     <path d="M 48.78125 52.59375 
L 48.78125 44.1875 
Q 44.96875 46.296875 41.140625 47.34375 
Q 37.3125 48.390625 33.40625 48.390625 
Q 24.65625 48.390625 19.8125 42.84375 
Q 14.984375 37.3125 14.984375 27.296875 
Q 14.984375 17.28125 19.8125 11.734375 
Q 24.65625 6.203125 33.40625 6.203125 
Q 37.3125 6.203125 41.140625 7.25 
Q 44.96875 8.296875 48.78125 10.40625 
L 48.78125 2.09375 
Q 45.015625 0.34375 40.984375 -0.53125 
Q 36.96875 -1.421875 32.421875 -1.421875 
Q 20.0625 -1.421875 12.78125 6.34375 
Q 5.515625 14.109375 5.515625 27.296875 
Q 5.515625 40.671875 12.859375 48.328125 
Q 20.21875 56 33.015625 56 
Q 37.15625 56 41.109375 55.140625 
Q 45.0625 54.296875 48.78125 52.59375 
z
" id="DejaVuSans-63"/>
     <path d="M 56.203125 29.59375 
L 56.203125 25.203125 
L 14.890625 25.203125 
Q 15.484375 15.921875 20.484375 11.0625 
Q 25.484375 6.203125 34.421875 6.203125 
Q 39.59375 6.203125 44.453125 7.46875 
Q 49.3125 8.734375 54.109375 11.28125 
L 54.109375 2.78125 
Q 49.265625 0.734375 44.1875 -0.34375 
Q 39.109375 -1.421875 33.890625 -1.421875 
Q 20.796875 -1.421875 13.15625 6.1875 
Q 5.515625 13.8125 5.515625 26.8125 
Q 5.515625 40.234375 12.765625 48.109375 
Q 20.015625 56 32.328125 56 
Q 43.359375 56 49.78125 48.890625 
Q 56.203125 41.796875 56.203125 29.59375 
z
M 47.21875 32.234375 
Q 47.125 39.59375 43.09375 43.984375 
Q 39.0625 48.390625 32.421875 48.390625 
Q 24.90625 48.390625 20.390625 44.140625 
Q 15.875 39.890625 15.1875 32.171875 
z
" id="DejaVuSans-65"/>
     <path id="DejaVuSans-20"/>
     <path d="M 51.125 44 
L 36.921875 44 
L 32.8125 27.6875 
L 47.125 27.6875 
z
M 43.796875 71.78125 
L 38.71875 51.515625 
L 52.984375 51.515625 
L 58.109375 71.78125 
L 65.921875 71.78125 
L 60.890625 51.515625 
L 76.125 51.515625 
L 76.125 44 
L 58.984375 44 
L 54.984375 27.6875 
L 70.515625 27.6875 
L 70.515625 20.21875 
L 53.078125 20.21875 
L 48 0 
L 40.1875 0 
L 45.21875 20.21875 
L 30.90625 20.21875 
L 25.875 0 
L 18.015625 0 
L 23.09375 20.21875 
L 7.71875 20.21875 
L 7.71875 27.6875 
L 24.90625 27.6875 
L 29 44 
L 13.28125 44 
L 13.28125 51.515625 
L 30.90625 51.515625 
L 35.890625 71.78125 
z
" id="DejaVuSans-23"/>
     <path d="M 37.796875 64.3125 
L 12.890625 25.390625 
L 37.796875 25.390625 
z
M 35.203125 72.90625 
L 47.609375 72.90625 
L 47.609375 25.390625 
L 58.015625 25.390625 
L 58.015625 17.1875 
L 47.609375 17.1875 
L 47.609375 0 
L 37.796875 0 
L 37.796875 17.1875 
L 4.890625 17.1875 
L 4.890625 26.703125 
z
" id="DejaVuSans-34"/>
     <path d="M 40.578125 39.3125 
Q 47.65625 37.796875 51.625 33 
Q 55.609375 28.21875 55.609375 21.1875 
Q 55.609375 10.40625 48.1875 4.484375 
Q 40.765625 -1.421875 27.09375 -1.421875 
Q 22.515625 -1.421875 17.65625 -0.515625 
Q 12.796875 0.390625 7.625 2.203125 
L 7.625 11.71875 
Q 11.71875 9.328125 16.59375 8.109375 
Q 21.484375 6.890625 26.8125 6.890625 
Q 36.078125 6.890625 40.9375 10.546875 
Q 45.796875 14.203125 45.796875 21.1875 
Q 45.796875 27.640625 41.28125 31.265625 
Q 36.765625 34.90625 28.71875 34.90625 
L 20.21875 34.90625 
L 20.21875 43.015625 
L 29.109375 43.015625 
Q 36.375 43.015625 40.234375 45.921875 
Q 44.09375 48.828125 44.09375 54.296875 
Q 44.09375 59.90625 40.109375 62.90625 
Q 36.140625 65.921875 28.71875 65.921875 
Q 24.65625 65.921875 20.015625 65.03125 
Q 15.375 64.15625 9.8125 62.3125 
L 9.8125 71.09375 
Q 15.4375 72.65625 20.34375 73.4375 
Q 25.25 74.21875 29.59375 74.21875 
Q 40.828125 74.21875 47.359375 69.109375 
Q 53.90625 64.015625 53.90625 55.328125 
Q 53.90625 49.265625 50.4375 45.09375 
Q 46.96875 40.921875 40.578125 39.3125 
z
" id="DejaVuSans-33"/>
     <path d="M 11.71875 12.40625 
L 22.015625 12.40625 
L 22.015625 4 
L 14.015625 -11.625 
L 7.71875 -11.625 
L 11.71875 4 
z
" id="DejaVuSans-2c"/>
     <path d="M 16.890625 72.90625 
L 62.984375 72.90625 
L 61.375 64.59375 
L 25.09375 64.59375 
L 20.90625 43.015625 
L 55.71875 43.015625 
L 54.109375 34.71875 
L 19.28125 34.71875 
L 14.203125 8.296875 
L 51.3125 8.296875 
L 49.703125 0 
L 2.6875 0 
z
" id="DejaVuSans-Oblique-45"/>
     <path d="M 16.890625 72.90625 
L 30.171875 72.90625 
L 50.296875 10.40625 
L 62.5 72.90625 
L 72.125 72.90625 
L 57.90625 0 
L 44.578125 0 
L 24.515625 62.890625 
L 12.3125 0 
L 2.6875 0 
z
" id="DejaVuSans-Oblique-4e"/>
     <path d="M 10.59375 45.40625 
L 73.1875 45.40625 
L 73.1875 37.203125 
L 10.59375 37.203125 
z
M 10.59375 25.484375 
L 73.1875 25.484375 
L 73.1875 17.1875 
L 10.59375 17.1875 
z
" id="DejaVuSans-3d"/>
     <path d="M 4.890625 31.390625 
L 31.203125 31.390625 
L 31.203125 23.390625 
L 4.890625 23.390625 
z
" id="DejaVuSans-2d"/>
     <path d="M 12.40625 8.296875 
L 28.515625 8.296875 
L 28.515625 63.921875 
L 10.984375 60.40625 
L 10.984375 69.390625 
L 28.421875 72.90625 
L 38.28125 72.90625 
L 38.28125 8.296875 
L 54.390625 8.296875 
L 54.390625 0 
L 12.40625 0 
z
" id="DejaVuSans-31"/>
     <path d="M 8.203125 72.90625 
L 55.078125 72.90625 
L 55.078125 68.703125 
L 28.609375 0 
L 18.3125 0 
L 43.21875 64.59375 
L 8.203125 64.59375 
z
" id="DejaVuSans-37"/>
     <path d="M 10.796875 72.90625 
L 49.515625 72.90625 
L 49.515625 64.59375 
L 19.828125 64.59375 
L 19.828125 46.734375 
Q 21.96875 47.46875 24.109375 47.828125 
Q 26.265625 48.1875 28.421875 48.1875 
Q 40.625 48.1875 47.75 41.5 
Q 54.890625 34.8125 54.890625 23.390625 
Q 54.890625 11.625 47.5625 5.09375 
Q 40.234375 -1.421875 26.90625 -1.421875 
Q 22.3125 -1.421875 17.546875 -0.640625 
Q 12.796875 0.140625 7.71875 1.703125 
L 7.71875 11.625 
Q 12.109375 9.234375 16.796875 8.0625 
Q 21.484375 6.890625 26.703125 6.890625 
Q 35.15625 6.890625 40.078125 11.328125 
Q 45.015625 15.765625 45.015625 23.390625 
Q 45.015625 31 40.078125 35.4375 
Q 35.15625 39.890625 26.703125 39.890625 
Q 22.75 39.890625 18.8125 39.015625 
Q 14.890625 38.140625 10.796875 36.28125 
z
" id="DejaVuSans-35"/>
     <path d="M 10.6875 12.40625 
L 21 12.40625 
L 21 0 
L 10.6875 0 
z
" id="DejaVuSans-2e"/>
     <path d="M 31.78125 66.40625 
Q 24.171875 66.40625 20.328125 58.90625 
Q 16.5 51.421875 16.5 36.375 
Q 16.5 21.390625 20.328125 13.890625 
Q 24.171875 6.390625 31.78125 6.390625 
Q 39.453125 6.390625 43.28125 13.890625 
Q 47.125 21.390625 47.125 36.375 
Q 47.125 51.421875 43.28125 58.90625 
Q 39.453125 66.40625 31.78125 66.40625 
z
M 31.78125 74.21875 
Q 44.046875 74.21875 50.515625 64.515625 
Q 56.984375 54.828125 56.984375 36.375 
Q 56.984375 17.96875 50.515625 8.265625 
Q 44.046875 -1.421875 31.78125 -1.421875 
Q 19.53125 -1.421875 13.0625 8.265625 
Q 6.59375 17.96875 6.59375 36.375 
Q 6.59375 54.828125 13.0625 64.515625 
Q 19.53125 74.21875 31.78125 74.21875 
z
" id="DejaVuSans-30"/>
     <path d="M 28.609375 0 
L 0.78125 72.90625 
L 11.078125 72.90625 
L 34.1875 11.53125 
L 57.328125 72.90625 
L 67.578125 72.90625 
L 39.796875 0 
z
" id="DejaVuSans-56"/>
     <path d="M 34.1875 63.1875 
L 14.15625 8.203125 
L 54.25 8.203125 
z
M 0.78125 0 
L 28.609375 72.90625 
L 39.796875 72.90625 
L 67.578125 0 
z
" id="DejaVuSans-394"/>
     <path d="M 9.8125 72.90625 
L 55.90625 72.90625 
L 55.90625 64.59375 
L 19.671875 64.59375 
L 19.671875 43.015625 
L 54.390625 43.015625 
L 54.390625 34.71875 
L 19.671875 34.71875 
L 19.671875 8.296875 
L 56.78125 8.296875 
L 56.78125 0 
L 9.8125 0 
z
" id="DejaVuSans-45"/>
     <path d="M 19.1875 8.296875 
L 53.609375 8.296875 
L 53.609375 0 
L 7.328125 0 
L 7.328125 8.296875 
Q 12.9375 14.109375 22.625 23.890625 
Q 32.328125 33.6875 34.8125 36.53125 
Q 39.546875 41.84375 41.421875 45.53125 
Q 43.3125 49.21875 43.3125 52.78125 
Q 43.3125 58.59375 39.234375 62.25 
Q 35.15625 65.921875 28.609375 65.921875 
Q 23.96875 65.921875 18.8125 64.3125 
Q 13.671875 62.703125 7.8125 59.421875 
L 7.8125 69.390625 
Q 13.765625 71.78125 18.9375 73 
Q 24.125 74.21875 28.421875 74.21875 
Q 39.75 74.21875 46.484375 68.546875 
Q 53.21875 62.890625 53.21875 53.421875 
Q 53.21875 48.921875 51.53125 44.890625 
Q 49.859375 40.875 45.40625 35.40625 
Q 44.1875 33.984375 37.640625 27.21875 
Q 31.109375 20.453125 19.1875 8.296875 
z
" id="DejaVuSans-32"/>
    </defs>
    <g transform="translate(63.228 35.472)scale(0.12 -0.12)">
     <use transform="translate(0 0.78125)" xlink:href="#DejaVuSans-53"/>
     <use transform="translate(63.476562 0.78125)" xlink:href="#DejaVuSans-74"/>
     <use transform="translate(102.685547 0.78125)" xlink:href="#DejaVuSans-72"/>
     <use transform="translate(143.798828 0.78125)" xlink:href="#DejaVuSans-75"/>
     <use transform="translate(207.177734 0.78125)" xlink:href="#DejaVuSans-63"/>
     <use transform="translate(262.158203 0.78125)" xlink:href="#DejaVuSans-74"/>
     <use transform="translate(301.367188 0.78125)" xlink:href="#DejaVuSans-75"/>
     <use transform="translate(364.746094 0.78125)" xlink:href="#DejaVuSans-72"/>
     <use transform="translate(405.859375 0.78125)" xlink:href="#DejaVuSans-65"/>
     <use transform="translate(467.382812 0.78125)" xlink:href="#DejaVuSans-20"/>
     <use transform="translate(499.169922 0.78125)" xlink:href="#DejaVuSans-23"/>
     <use transform="translate(582.958984 0.78125)" xlink:href="#DejaVuSans-34"/>
     <use transform="translate(646.582031 0.78125)" xlink:href="#DejaVuSans-33"/>
     <use transform="translate(710.205078 0.78125)" xlink:href="#DejaVuSans-34"/>
     <use transform="translate(773.828125 0.78125)" xlink:href="#DejaVuSans-33"/>
     <use transform="translate(837.451172 0.78125)" xlink:href="#DejaVuSans-2c"/>
     <use transform="translate(869.238281 0.78125)" xlink:href="#DejaVuSans-20"/>
     <use transform="translate(901.025391 0.78125)" xlink:href="#DejaVuSans-Oblique-45"/>
     <use transform="translate(964.208984 -15.625)scale(0.7)" xlink:href="#DejaVuSans-Oblique-4e"/>
     <use transform="translate(1019.306641 0.78125)" xlink:href="#DejaVuSans-3d"/>
     <use transform="translate(1103.095703 0.78125)" xlink:href="#DejaVuSans-2d"/>
     <use transform="translate(1139.179688 0.78125)" xlink:href="#DejaVuSans-31"/>
     <use transform="translate(1202.802734 0.78125)" xlink:href="#DejaVuSans-37"/>
     <use transform="translate(1266.425781 0.78125)" xlink:href="#DejaVuSans-35"/>
     <use transform="translate(1330.048828 0.78125)" xlink:href="#DejaVuSans-2e"/>
     <use transform="translate(1361.835938 0.78125)" xlink:href="#DejaVuSans-30"/>
     <use transform="translate(1425.458984 0.78125)" xlink:href="#DejaVuSans-37"/>
     <use transform="translate(1489.082031 0.78125)" xlink:href="#DejaVuSans-65"/>
     <use transform="translate(1550.605469 0.78125)" xlink:href="#DejaVuSans-56"/>
     <use transform="translate(1619.013672 0.78125)" xlink:href="#DejaVuSans-2c"/>
     <use transform="translate(1650.800781 0.78125)" xlink:href="#DejaVuSans-20"/>
     <use transform="translate(1682.587891 0.78125)" xlink:href="#DejaVuSans-394"/>
     <use transform="translate(1750.996094 0.78125)" xlink:href="#DejaVuSans-45"/>
     <use transform="translate(1814.179688 0.78125)" xlink:href="#DejaVuSans-3d"/>
     <use transform="translate(1897.96875 0.78125)" xlink:href="#DejaVuSans-2d"/>
     <use transform="translate(1934.052734 0.78125)" xlink:href="#DejaVuSans-30"/>
     <use transform="translate(1997.675781 0.78125)" xlink:href="#DejaVuSans-2e"/>
     <use transform="translate(2029.462891 0.78125)" xlink:href="#DejaVuSans-30"/>
     <use transform="translate(2093.085938 0.78125)" xlink:href="#DejaVuSans-32"/>
     <use transform="translate(2156.708984 0.78125)" xlink:href="#DejaVuSans-65"/>
     <use transform="translate(2218.232422 0.78125)" xlink:href="#DejaVuSans-56"/>
    </g>
   </g>
  </g>
  <g id="axes_2">
   <g id="patch_2">
    <path clip-path="url(#p03e079197f)" d="M 361.152 307.584 
L 361.152 306.5445 
L 361.152 42.5115 
L 361.152 41.472 
L 374.4576 41.472 
L 374.4576 42.5115 
L 374.4576 306.5445 
L 374.4576 307.584 
z
" style="fill:#ffffff;stroke:#ffffff;stroke-linejoin:miter;stroke-width:0.01;"/>
   </g>
   <image height="265.68" id="image9fb7499c4f" transform="scale(1 -1)translate(0 -265.68)" width="12.96" x="361.44" xlink:href="data:image/png;base64,
iVBORw0KGgoAAAANSUhEUgAAABIAAAFxCAYAAAB+2fgXAAAABHNCSVQICAgIfAhkiAAAAeVJREFUeJztncmNw0AQA2ckheYQNv9QLIfQ8ygsCgQ7AEI8+jAs2Puz/94F1LP2ReCsZ18bAWIeZ5XaGRBE7VnbptG+KI101FYyNSiQG2oRITXKNaX9uclOdi2XWjftVE32CZCO2ou5Bj1TcCBr/1zB9ge7Fq0Rg2NM9pvbtG+ua1QgsRYhDy0ISEiNc40BEibbSI0Coj5CBGtkpFbXJiAjNZlrwhuSOv2M1DjXbEdEciBt1JSDDQKKpmZr2rr2j0DBGpXaWEJq3bQzEPIS26r9J+Wzv9Tm8o3aajRXqc3VUXsApKNWjeZq0x4ABVNbm7lrszVigDqP5vIl2+eaT2yfRkL7g+dRcNPqjohkjaCvRVBq0H2U3LQrOJCx9kdTg4B8oxZzzTdqdYHEngjUCAPyUctN9sVRq2sTECW2UKNLd2jVtRmo1A6AhMmWaSRcR8nUdIHUuVb75zJS218EyEitro1At69pIdeSk30Lkw0FktNImGyZRhy1O5galmxd03LUsHWk06jUZiCq+5Wb1kZNN4+wJxJuWt8RAW5am2sYNZ9rYCBzZ3buPKJ2P5Yj4Toy3keyIyJbIxs1rml1byCA84gpch5RQNB7Q0qNMGq2Hy4BXdNR41yz/cEEJfZzUz96r9PoB0okjeQ8y9TkAAAAAElFTkSuQmCC" y="-41.76"/>
   <g id="matplotlib.axis_1"/>
   <g id="matplotlib.axis_2">
    <g id="ytick_1">
     <g id="line2d_1">
      <defs>
       <path d="M 0 0 
L 3.5 0 
" id="me6779ebdc0" style="stroke:#000000;stroke-width:0.8;"/>
      </defs>
      <g>
       <use style="stroke:#000000;stroke-width:0.8;" x="374.4576" xlink:href="#me6779ebdc0" y="287.903507"/>
      </g>
     </g>
     <g id="text_2">
      <!-- −8.0 -->
      <defs>
       <path d="M 10.59375 35.5 
L 73.1875 35.5 
L 73.1875 27.203125 
L 10.59375 27.203125 
z
" id="DejaVuSans-2212"/>
       <path d="M 31.78125 34.625 
Q 24.75 34.625 20.71875 30.859375 
Q 16.703125 27.09375 16.703125 20.515625 
Q 16.703125 13.921875 20.71875 10.15625 
Q 24.75 6.390625 31.78125 6.390625 
Q 38.8125 6.390625 42.859375 10.171875 
Q 46.921875 13.96875 46.921875 20.515625 
Q 46.921875 27.09375 42.890625 30.859375 
Q 38.875 34.625 31.78125 34.625 
z
M 21.921875 38.8125 
Q 15.578125 40.375 12.03125 44.71875 
Q 8.5 49.078125 8.5 55.328125 
Q 8.5 64.0625 14.71875 69.140625 
Q 20.953125 74.21875 31.78125 74.21875 
Q 42.671875 74.21875 48.875 69.140625 
Q 55.078125 64.0625 55.078125 55.328125 
Q 55.078125 49.078125 51.53125 44.71875 
Q 48 40.375 41.703125 38.8125 
Q 48.828125 37.15625 52.796875 32.3125 
Q 56.78125 27.484375 56.78125 20.515625 
Q 56.78125 9.90625 50.3125 4.234375 
Q 43.84375 -1.421875 31.78125 -1.421875 
Q 19.734375 -1.421875 13.25 4.234375 
Q 6.78125 9.90625 6.78125 20.515625 
Q 6.78125 27.484375 10.78125 32.3125 
Q 14.796875 37.15625 21.921875 38.8125 
z
M 18.3125 54.390625 
Q 18.3125 48.734375 21.84375 45.5625 
Q 25.390625 42.390625 31.78125 42.390625 
Q 38.140625 42.390625 41.71875 45.5625 
Q 45.3125 48.734375 45.3125 54.390625 
Q 45.3125 60.0625 41.71875 63.234375 
Q 38.140625 66.40625 31.78125 66.40625 
Q 25.390625 66.40625 21.84375 63.234375 
Q 18.3125 60.0625 18.3125 54.390625 
z
" id="DejaVuSans-38"/>
      </defs>
      <g transform="translate(381.4576 291.702726)scale(0.1 -0.1)">
       <use xlink:href="#DejaVuSans-2212"/>
       <use x="83.789062" xlink:href="#DejaVuSans-38"/>
       <use x="147.412109" xlink:href="#DejaVuSans-2e"/>
       <use x="179.199219" xlink:href="#DejaVuSans-30"/>
      </g>
     </g>
    </g>
    <g id="ytick_2">
     <g id="line2d_2">
      <g>
       <use style="stroke:#000000;stroke-width:0.8;" x="374.4576" xlink:href="#me6779ebdc0" y="247.235339"/>
      </g>
     </g>
     <g id="text_3">
      <!-- −7.5 -->
      <g transform="translate(381.4576 251.034558)scale(0.1 -0.1)">
       <use xlink:href="#DejaVuSans-2212"/>
       <use x="83.789062" xlink:href="#DejaVuSans-37"/>
       <use x="147.412109" xlink:href="#DejaVuSans-2e"/>
       <use x="179.199219" xlink:href="#DejaVuSans-35"/>
      </g>
     </g>
    </g>
    <g id="ytick_3">
     <g id="line2d_3">
      <g>
       <use style="stroke:#000000;stroke-width:0.8;" x="374.4576" xlink:href="#me6779ebdc0" y="206.567171"/>
      </g>
     </g>
     <g id="text_4">
      <!-- −7.0 -->
      <g transform="translate(381.4576 210.36639)scale(0.1 -0.1)">
       <use xlink:href="#DejaVuSans-2212"/>
       <use x="83.789062" xlink:href="#DejaVuSans-37"/>
       <use x="147.412109" xlink:href="#DejaVuSans-2e"/>
       <use x="179.199219" xlink:href="#DejaVuSans-30"/>
      </g>
     </g>
    </g>
    <g id="ytick_4">
     <g id="line2d_4">
      <g>
       <use style="stroke:#000000;stroke-width:0.8;" x="374.4576" xlink:href="#me6779ebdc0" y="165.899003"/>
      </g>
     </g>
     <g id="text_5">
      <!-- −6.5 -->
      <defs>
       <path d="M 33.015625 40.375 
Q 26.375 40.375 22.484375 35.828125 
Q 18.609375 31.296875 18.609375 23.390625 
Q 18.609375 15.53125 22.484375 10.953125 
Q 26.375 6.390625 33.015625 6.390625 
Q 39.65625 6.390625 43.53125 10.953125 
Q 47.40625 15.53125 47.40625 23.390625 
Q 47.40625 31.296875 43.53125 35.828125 
Q 39.65625 40.375 33.015625 40.375 
z
M 52.59375 71.296875 
L 52.59375 62.3125 
Q 48.875 64.0625 45.09375 64.984375 
Q 41.3125 65.921875 37.59375 65.921875 
Q 27.828125 65.921875 22.671875 59.328125 
Q 17.53125 52.734375 16.796875 39.40625 
Q 19.671875 43.65625 24.015625 45.921875 
Q 28.375 48.1875 33.59375 48.1875 
Q 44.578125 48.1875 50.953125 41.515625 
Q 57.328125 34.859375 57.328125 23.390625 
Q 57.328125 12.15625 50.6875 5.359375 
Q 44.046875 -1.421875 33.015625 -1.421875 
Q 20.359375 -1.421875 13.671875 8.265625 
Q 6.984375 17.96875 6.984375 36.375 
Q 6.984375 53.65625 15.1875 63.9375 
Q 23.390625 74.21875 37.203125 74.21875 
Q 40.921875 74.21875 44.703125 73.484375 
Q 48.484375 72.75 52.59375 71.296875 
z
" id="DejaVuSans-36"/>
      </defs>
      <g transform="translate(381.4576 169.698222)scale(0.1 -0.1)">
       <use xlink:href="#DejaVuSans-2212"/>
       <use x="83.789062" xlink:href="#DejaVuSans-36"/>
       <use x="147.412109" xlink:href="#DejaVuSans-2e"/>
       <use x="179.199219" xlink:href="#DejaVuSans-35"/>
      </g>
     </g>
    </g>
    <g id="ytick_5">
     <g id="line2d_5">
      <g>
       <use style="stroke:#000000;stroke-width:0.8;" x="374.4576" xlink:href="#me6779ebdc0" y="125.230835"/>
      </g>
     </g>
     <g id="text_6">
      <!-- −6.0 -->
      <g transform="translate(381.4576 129.030054)scale(0.1 -0.1)">
       <use xlink:href="#DejaVuSans-2212"/>
       <use x="83.789062" xlink:href="#DejaVuSans-36"/>
       <use x="147.412109" xlink:href="#DejaVuSans-2e"/>
       <use x="179.199219" xlink:href="#DejaVuSans-30"/>
      </g>
     </g>
    </g>
    <g id="ytick_6">
     <g id="line2d_6">
      <g>
       <use style="stroke:#000000;stroke-width:0.8;" x="374.4576" xlink:href="#me6779ebdc0" y="84.562667"/>
      </g>
     </g>
     <g id="text_7">
      <!-- −5.5 -->
      <g transform="translate(381.4576 88.361886)scale(0.1 -0.1)">
       <use xlink:href="#DejaVuSans-2212"/>
       <use x="83.789062" xlink:href="#DejaVuSans-35"/>
       <use x="147.412109" xlink:href="#DejaVuSans-2e"/>
       <use x="179.199219" xlink:href="#DejaVuSans-35"/>
      </g>
     </g>
    </g>
    <g id="ytick_7">
     <g id="line2d_7">
      <g>
       <use style="stroke:#000000;stroke-width:0.8;" x="374.4576" xlink:href="#me6779ebdc0" y="43.894499"/>
      </g>
     </g>
     <g id="text_8">
      <!-- −5.0 -->
      <g transform="translate(381.4576 47.693718)scale(0.1 -0.1)">
       <use xlink:href="#DejaVuSans-2212"/>
       <use x="83.789062" xlink:href="#DejaVuSans-35"/>
       <use x="147.412109" xlink:href="#DejaVuSans-2e"/>
       <use x="179.199219" xlink:href="#DejaVuSans-30"/>
      </g>
     </g>
    </g>
    <g id="text_9">
     <!-- Energy [eV] -->
     <defs>
      <path d="M 54.890625 33.015625 
L 54.890625 0 
L 45.90625 0 
L 45.90625 32.71875 
Q 45.90625 40.484375 42.875 44.328125 
Q 39.84375 48.1875 33.796875 48.1875 
Q 26.515625 48.1875 22.3125 43.546875 
Q 18.109375 38.921875 18.109375 30.90625 
L 18.109375 0 
L 9.078125 0 
L 9.078125 54.6875 
L 18.109375 54.6875 
L 18.109375 46.1875 
Q 21.34375 51.125 25.703125 53.5625 
Q 30.078125 56 35.796875 56 
Q 45.21875 56 50.046875 50.171875 
Q 54.890625 44.34375 54.890625 33.015625 
z
" id="DejaVuSans-6e"/>
      <path d="M 45.40625 27.984375 
Q 45.40625 37.75 41.375 43.109375 
Q 37.359375 48.484375 30.078125 48.484375 
Q 22.859375 48.484375 18.828125 43.109375 
Q 14.796875 37.75 14.796875 27.984375 
Q 14.796875 18.265625 18.828125 12.890625 
Q 22.859375 7.515625 30.078125 7.515625 
Q 37.359375 7.515625 41.375 12.890625 
Q 45.40625 18.265625 45.40625 27.984375 
z
M 54.390625 6.78125 
Q 54.390625 -7.171875 48.1875 -13.984375 
Q 42 -20.796875 29.203125 -20.796875 
Q 24.46875 -20.796875 20.265625 -20.09375 
Q 16.0625 -19.390625 12.109375 -17.921875 
L 12.109375 -9.1875 
Q 16.0625 -11.328125 19.921875 -12.34375 
Q 23.78125 -13.375 27.78125 -13.375 
Q 36.625 -13.375 41.015625 -8.765625 
Q 45.40625 -4.15625 45.40625 5.171875 
L 45.40625 9.625 
Q 42.625 4.78125 38.28125 2.390625 
Q 33.9375 0 27.875 0 
Q 17.828125 0 11.671875 7.65625 
Q 5.515625 15.328125 5.515625 27.984375 
Q 5.515625 40.671875 11.671875 48.328125 
Q 17.828125 56 27.875 56 
Q 33.9375 56 38.28125 53.609375 
Q 42.625 51.21875 45.40625 46.390625 
L 45.40625 54.6875 
L 54.390625 54.6875 
z
" id="DejaVuSans-67"/>
      <path d="M 32.171875 -5.078125 
Q 28.375 -14.84375 24.75 -17.8125 
Q 21.140625 -20.796875 15.09375 -20.796875 
L 7.90625 -20.796875 
L 7.90625 -13.28125 
L 13.1875 -13.28125 
Q 16.890625 -13.28125 18.9375 -11.515625 
Q 21 -9.765625 23.484375 -3.21875 
L 25.09375 0.875 
L 2.984375 54.6875 
L 12.5 54.6875 
L 29.59375 11.921875 
L 46.6875 54.6875 
L 56.203125 54.6875 
z
" id="DejaVuSans-79"/>
      <path d="M 8.59375 75.984375 
L 29.296875 75.984375 
L 29.296875 69 
L 17.578125 69 
L 17.578125 -6.203125 
L 29.296875 -6.203125 
L 29.296875 -13.1875 
L 8.59375 -13.1875 
z
" id="DejaVuSans-5b"/>
      <path d="M 30.421875 75.984375 
L 30.421875 -13.1875 
L 9.71875 -13.1875 
L 9.71875 -6.203125 
L 21.390625 -6.203125 
L 21.390625 69 
L 9.71875 69 
L 9.71875 75.984375 
z
" id="DejaVuSans-5d"/>
     </defs>
     <g transform="translate(417.33885 204.108469)rotate(-90)scale(0.1 -0.1)">
      <use xlink:href="#DejaVuSans-45"/>
      <use x="63.183594" xlink:href="#DejaVuSans-6e"/>
      <use x="126.5625" xlink:href="#DejaVuSans-65"/>
      <use x="188.085938" xlink:href="#DejaVuSans-72"/>
      <use x="229.183594" xlink:href="#DejaVuSans-67"/>
      <use x="292.660156" xlink:href="#DejaVuSans-79"/>
      <use x="351.839844" xlink:href="#DejaVuSans-20"/>
      <use x="383.626953" xlink:href="#DejaVuSans-5b"/>
      <use x="422.640625" xlink:href="#DejaVuSans-65"/>
      <use x="484.164062" xlink:href="#DejaVuSans-56"/>
      <use x="552.572266" xlink:href="#DejaVuSans-5d"/>
     </g>
    </g>
   </g>
   <g id="patch_3">
    <path d="M 361.152 307.584 
L 361.152 306.5445 
L 361.152 42.5115 
L 361.152 41.472 
L 374.4576 41.472 
L 374.4576 42.5115 
L 374.4576 306.5445 
L 374.4576 307.584 
z
" style="fill:none;stroke:#000000;stroke-linejoin:miter;stroke-width:0.8;"/>
   </g>
  </g>
 </g>
 <defs>
  <clipPath id="pb9562251c0">
   <rect height="266.112" width="285.696" x="57.6" y="41.472"/>
  </clipPath>
  <clipPath id="p03e079197f">
   <rect height="266.112" width="13.3056" x="361.152" y="41.472"/>
  </clipPath>
 </defs>
</svg>
