<?xml version="1.0" encoding="utf-8" standalone="no"?>
<!DOCTYPE svg PUBLIC "-//W3C//DTD SVG 1.1//EN"
  "http://www.w3.org/Graphics/SVG/1.1/DTD/svg11.dtd">
<!-- Created with matplotlib (http://matplotlib.org/) -->
<svg height="345.6pt" version="1.1" viewBox="0 0 460.8 345.6" width="460.8pt" xmlns="http://www.w3.org/2000/svg" xmlns:xlink="http://www.w3.org/1999/xlink">
 <defs>
  <style type="text/css">
*{stroke-linecap:butt;stroke-linejoin:round;}
  </style>
 </defs>
 <g id="figure_1">
  <g id="patch_1">
   <path d="M 0 345.6 
L 460.8 345.6 
L 460.8 0 
L 0 0 
z
" style="fill:#ffffff;"/>
  </g>
  <g id="axes_1">
   <g id="CircleCollection_1">
    <path clip-path="url(#p2d2a9cf4aa)" d="M 254.555613 278.628687 
C 256.281291 278.628687 257.936523 277.943067 259.156762 276.722828 
C 260.377001 275.502589 261.06262 273.847358 261.06262 272.121679 
C 261.06262 270.396001 260.377001 268.740769 259.156762 267.52053 
C 257.936523 266.300291 256.281291 265.614672 254.555613 265.614672 
C 252.829934 265.614672 251.174703 266.300291 249.954464 267.52053 
C 248.734225 268.740769 248.048605 270.396001 248.048605 272.121679 
C 248.048605 273.847358 248.734225 275.502589 249.954464 276.722828 
C 251.174703 277.943067 252.829934 278.628687 254.555613 278.628687 
z
" style="fill:#3e4989;"/>
    <path clip-path="url(#p2d2a9cf4aa)" d="M 128.650495 209.241477 
C 130.447017 209.241477 132.1702 208.527711 133.440532 207.257378 
C 134.710865 205.987046 135.424631 204.263863 135.424631 202.467341 
C 135.424631 200.670819 134.710865 198.947637 133.440532 197.677304 
C 132.1702 196.406971 130.447017 195.693206 128.650495 195.693206 
C 126.853973 195.693206 125.130791 196.406971 123.860458 197.677304 
C 122.590125 198.947637 121.87636 200.670819 121.87636 202.467341 
C 121.87636 204.263863 122.590125 205.987046 123.860458 207.257378 
C 125.130791 208.527711 126.853973 209.241477 128.650495 209.241477 
z
" style="fill:#38588c;"/>
    <path clip-path="url(#p2d2a9cf4aa)" d="M 187.821125 224.272245 
C 189.589498 224.272245 191.285681 223.569663 192.536109 222.319234 
C 193.786538 221.068806 194.48912 219.372623 194.48912 217.60425 
C 194.48912 215.835877 193.786538 214.139694 192.536109 212.889265 
C 191.285681 211.638837 189.589498 210.936255 187.821125 210.936255 
C 186.052752 210.936255 184.356569 211.638837 183.10614 212.889265 
C 181.855712 214.139694 181.15313 215.835877 181.15313 217.60425 
C 181.15313 219.372623 181.855712 221.068806 183.10614 222.319234 
C 184.356569 223.569663 186.052752 224.272245 187.821125 224.272245 
z
" style="fill:#31668e;"/>
    <path clip-path="url(#p2d2a9cf4aa)" d="M 301.110214 149.799166 
C 302.93584 149.799166 304.686938 149.073837 305.97785 147.782925 
C 307.268762 146.492013 307.99409 144.740915 307.99409 142.91529 
C 307.99409 141.089665 307.268762 139.338567 305.97785 138.047655 
C 304.686938 136.756743 302.93584 136.031414 301.110214 136.031414 
C 299.284589 136.031414 297.533491 136.756743 296.242579 138.047655 
C 294.951667 139.338567 294.226338 141.089665 294.226338 142.91529 
C 294.226338 144.740915 294.951667 146.492013 296.242579 147.782925 
C 297.533491 149.073837 299.284589 149.799166 301.110214 149.799166 
z
" style="fill:#20938c;"/>
    <path clip-path="url(#p2d2a9cf4aa)" d="M 280.441662 88.060489 
C 282.307513 88.060489 284.097195 87.319178 285.416551 85.999822 
C 286.735908 84.680466 287.477218 82.890784 287.477218 81.024932 
C 287.477218 79.159081 286.735908 77.369399 285.416551 76.050043 
C 284.097195 74.730687 282.307513 73.989376 280.441662 73.989376 
C 278.57581 73.989376 276.786128 74.730687 275.466772 76.050043 
C 274.147416 77.369399 273.406105 79.159081 273.406105 81.024932 
C 273.406105 82.890784 274.147416 84.680466 275.466772 85.999822 
C 276.786128 87.319178 278.57581 88.060489 280.441662 88.060489 
z
" style="fill:#2a788e;"/>
    <path clip-path="url(#p2d2a9cf4aa)" d="M 314.630852 267.154181 
C 316.356824 267.154181 318.012338 266.468445 319.232784 265.247998 
C 320.453231 264.027551 321.138967 262.372038 321.138967 260.646066 
C 321.138967 258.920094 320.453231 257.26458 319.232784 256.044134 
C 318.012338 254.823687 316.356824 254.137951 314.630852 254.137951 
C 312.90488 254.137951 311.249367 254.823687 310.02892 256.044134 
C 308.808474 257.26458 308.122738 258.920094 308.122738 260.646066 
C 308.122738 262.372038 308.808474 264.027551 310.02892 265.247998 
C 311.249367 266.468445 312.90488 267.154181 314.630852 267.154181 
z
" style="fill:#1e9b8a;"/>
    <path clip-path="url(#p2d2a9cf4aa)" d="M 293.430529 119.824995 
C 295.278752 119.824995 297.051526 119.090688 298.358417 117.783797 
C 299.665308 116.476906 300.399615 114.704133 300.399615 112.85591 
C 300.399615 111.007686 299.665308 109.234913 298.358417 107.928022 
C 297.051526 106.621131 295.278752 105.886824 293.430529 105.886824 
C 291.582306 105.886824 289.809532 106.621131 288.502641 107.928022 
C 287.19575 109.234913 286.461443 111.007686 286.461443 112.85591 
C 286.461443 114.704133 287.19575 116.476906 288.502641 117.783797 
C 289.809532 119.090688 291.582306 119.824995 293.430529 119.824995 
z
" style="fill:#2e6e8e;"/>
    <path clip-path="url(#p2d2a9cf4aa)" d="M 219.65268 189.396757 
C 221.420932 189.396757 223.116999 188.694223 224.367342 187.443879 
C 225.617685 186.193536 226.320219 184.497469 226.320219 182.729217 
C 226.320219 180.960965 225.617685 179.264898 224.367342 178.014555 
C 223.116999 176.764211 221.420932 176.061677 219.65268 176.061677 
C 217.884428 176.061677 216.18836 176.764211 214.938017 178.014555 
C 213.687674 179.264898 212.98514 180.960965 212.98514 182.729217 
C 212.98514 184.497469 213.687674 186.193536 214.938017 187.443879 
C 216.18836 188.694223 217.884428 189.396757 219.65268 189.396757 
z
" style="fill:#355e8d;"/>
    <path clip-path="url(#p2d2a9cf4aa)" d="M 159.6742 175.121476 
C 161.476661 175.121476 163.20554 174.405351 164.480072 173.130819 
C 165.754604 171.856287 166.47073 170.127407 166.47073 168.324947 
C 166.47073 166.522486 165.754604 164.793607 164.480072 163.519075 
C 163.20554 162.244542 161.476661 161.528417 159.6742 161.528417 
C 157.871739 161.528417 156.14286 162.244542 154.868328 163.519075 
C 153.593796 164.793607 152.877671 166.522486 152.877671 168.324947 
C 152.877671 170.127407 153.593796 171.856287 154.868328 173.130819 
C 156.14286 174.405351 157.871739 175.121476 159.6742 175.121476 
z
" style="fill:#1e9c89;"/>
    <path clip-path="url(#p2d2a9cf4aa)" d="M 329.688858 236.12518 
C 331.434927 236.12518 333.109716 235.43146 334.344372 234.196803 
C 335.579029 232.962147 336.272749 231.287357 336.272749 229.541289 
C 336.272749 227.795221 335.579029 226.120432 334.344372 224.885775 
C 333.109716 223.651118 331.434927 222.957398 329.688858 222.957398 
C 327.94279 222.957398 326.268001 223.651118 325.033344 224.885775 
C 323.798687 226.120432 323.104967 227.795221 323.104967 229.541289 
C 323.104967 231.287357 323.798687 232.962147 325.033344 234.196803 
C 326.268001 235.43146 327.94279 236.12518 329.688858 236.12518 
z
" style="fill:#2e6e8e;"/>
    <path clip-path="url(#p2d2a9cf4aa)" d="M 207.355745 301.451152 
C 209.051371 301.451152 210.677777 300.777473 211.876765 299.578484 
C 213.075754 298.379495 213.749433 296.753089 213.749433 295.057463 
C 213.749433 293.361837 213.075754 291.735431 211.876765 290.536443 
C 210.677777 289.337454 209.051371 288.663775 207.355745 288.663775 
C 205.660119 288.663775 204.033713 289.337454 202.834724 290.536443 
C 201.635735 291.735431 200.962056 293.361837 200.962056 295.057463 
C 200.962056 296.753089 201.635735 298.379495 202.834724 299.578484 
C 204.033713 300.777473 205.660119 301.451152 207.355745 301.451152 
z
" style="fill:#fde725;"/>
    <path clip-path="url(#p2d2a9cf4aa)" d="M 229.287212 71.756283 
C 231.134842 71.756283 232.907046 71.022212 234.213518 69.715741 
C 235.519989 68.409269 236.25406 66.637065 236.25406 64.789435 
C 236.25406 62.941806 235.519989 61.169601 234.213518 59.86313 
C 232.907046 58.556658 231.134842 57.822587 229.287212 57.822587 
C 227.439582 57.822587 225.667378 58.556658 224.360907 59.86313 
C 223.054435 61.169601 222.320364 62.941806 222.320364 64.789435 
C 222.320364 66.637065 223.054435 68.409269 224.360907 69.715741 
C 225.667378 71.022212 227.439582 71.756283 229.287212 71.756283 
z
" style="fill:#1f968b;"/>
    <path clip-path="url(#p2d2a9cf4aa)" d="M 186.700354 168.390327 
C 188.397035 168.390327 190.024453 167.716229 191.224187 166.516494 
C 192.423922 165.31676 193.09802 163.689342 193.09802 161.992661 
C 193.09802 160.29598 192.423922 158.668562 191.224187 157.468828 
C 190.024453 156.269093 188.397035 155.594995 186.700354 155.594995 
C 185.003673 155.594995 183.376256 156.269093 182.176521 157.468828 
C 180.976786 158.668562 180.302688 160.29598 180.302688 161.992661 
C 180.302688 163.689342 180.976786 165.31676 182.176521 166.516494 
C 183.376256 167.716229 185.003673 168.390327 186.700354 168.390327 
z
" style="fill:#dfe318;"/>
    <path clip-path="url(#p2d2a9cf4aa)" d="M 155.13008 285.40591 
C 156.872359 285.40591 158.543514 284.713695 159.775491 283.481718 
C 161.007468 282.24974 161.699683 280.578586 161.699683 278.836307 
C 161.699683 277.094028 161.007468 275.422873 159.775491 274.190896 
C 158.543514 272.958919 156.872359 272.266704 155.13008 272.266704 
C 153.387801 272.266704 151.716647 272.958919 150.484669 274.190896 
C 149.252692 275.422873 148.560477 277.094028 148.560477 278.836307 
C 148.560477 280.578586 149.252692 282.24974 150.484669 283.481718 
C 151.716647 284.713695 153.387801 285.40591 155.13008 285.40591 
z
" style="fill:#3c4f8a;"/>
    <path clip-path="url(#p2d2a9cf4aa)" d="M 71.229461 224.970575 
C 73.038287 224.970575 74.773272 224.25192 76.052306 222.972887 
C 77.331339 221.693854 78.049993 219.958869 78.049993 218.150042 
C 78.049993 216.341216 77.331339 214.606231 76.052306 213.327197 
C 74.773272 212.048164 73.038287 211.329509 71.229461 211.329509 
C 69.420634 211.329509 67.685649 212.048164 66.406616 213.327197 
C 65.127582 214.606231 64.408928 216.341216 64.408928 218.150042 
C 64.408928 219.958869 65.127582 221.693854 66.406616 222.972887 
C 67.685649 224.25192 69.420634 224.970575 71.229461 224.970575 
z
" style="fill:#20938c;"/>
    <path clip-path="url(#p2d2a9cf4aa)" d="M 127.636362 113.52123 
C 129.383191 113.52123 131.058711 112.827208 132.293906 111.592013 
C 133.529101 110.356817 134.223124 108.681298 134.223124 106.934469 
C 134.223124 105.187639 133.529101 103.51212 132.293906 102.276925 
C 131.058711 101.041729 129.383191 100.347707 127.636362 100.347707 
C 125.889532 100.347707 124.214013 101.041729 122.978818 102.276925 
C 121.743623 103.51212 121.0496 105.187639 121.0496 106.934469 
C 121.0496 108.681298 121.743623 110.356817 122.978818 111.592013 
C 124.214013 112.827208 125.889532 113.52123 127.636362 113.52123 
z
" style="fill:#26818e;"/>
    <path clip-path="url(#p2d2a9cf4aa)" d="M 91.248805 286.086857 
C 93.010458 286.086857 94.700195 285.386945 95.945872 284.141268 
C 97.191548 282.895592 97.89146 281.205854 97.89146 279.444202 
C 97.89146 277.682549 97.191548 275.992812 95.945872 274.747135 
C 94.700195 273.501459 93.010458 272.801547 91.248805 272.801547 
C 89.487153 272.801547 87.797416 273.501459 86.551739 274.747135 
C 85.306062 275.992812 84.60615 277.682549 84.60615 279.444202 
C 84.60615 281.205854 85.306062 282.895592 86.551739 284.141268 
C 87.797416 285.386945 89.487153 286.086857 91.248805 286.086857 
z
" style="fill:#1f9a8a;"/>
    <path clip-path="url(#p2d2a9cf4aa)" d="M 175.439839 60.884677 
C 177.257826 60.884677 179.001597 60.162384 180.287107 58.876873 
C 181.572618 57.591363 182.294911 55.847592 182.294911 54.029605 
C 182.294911 52.211619 181.572618 50.467848 180.287107 49.182337 
C 179.001597 47.896827 177.257826 47.174533 175.439839 47.174533 
C 173.621853 47.174533 171.878082 47.896827 170.592572 49.182337 
C 169.307061 50.467848 168.584767 52.211619 168.584767 54.029605 
C 168.584767 55.847592 169.307061 57.591363 170.592572 58.876873 
C 171.878082 60.162384 173.621853 60.884677 175.439839 60.884677 
z
" style="fill:#24868e;"/>
    <path clip-path="url(#p2d2a9cf4aa)" d="M 144.411431 86.344252 
C 146.192875 86.344252 147.901595 85.636477 149.161267 84.376806 
C 150.420938 83.117135 151.128713 81.408414 151.128713 79.62697 
C 151.128713 77.845526 150.420938 76.136805 149.161267 74.877134 
C 147.901595 73.617463 146.192875 72.909687 144.411431 72.909687 
C 142.629986 72.909687 140.921266 73.617463 139.661595 74.877134 
C 138.401923 76.136805 137.694148 77.845526 137.694148 79.62697 
C 137.694148 81.408414 138.401923 83.117135 139.661595 84.376806 
C 140.921266 85.636477 142.629986 86.344252 144.411431 86.344252 
z
" style="fill:#24878e;"/>
    <path clip-path="url(#p2d2a9cf4aa)" d="M 72.065281 256.43749 
C 73.85166 256.43749 75.565114 255.727754 76.828274 254.464594 
C 78.091435 253.201433 78.801171 251.487979 78.801171 249.701601 
C 78.801171 247.915222 78.091435 246.201768 76.828274 244.938607 
C 75.565114 243.675447 73.85166 242.965711 72.065281 242.965711 
C 70.278903 242.965711 68.565449 243.675447 67.302288 244.938607 
C 66.039128 246.201768 65.329392 247.915222 65.329392 249.701601 
C 65.329392 251.487979 66.039128 253.201433 67.302288 254.464594 
C 68.565449 255.727754 70.278903 256.43749 72.065281 256.43749 
z
" style="fill:#20928c;"/>
    <path clip-path="url(#p2d2a9cf4aa)" d="M 199.264225 257.851844 
C 201.01966 257.851844 202.703434 257.154402 203.944714 255.913122 
C 205.185994 254.671842 205.883436 252.988068 205.883436 251.232632 
C 205.883436 249.477197 205.185994 247.793423 203.944714 246.552143 
C 202.703434 245.310863 201.01966 244.613421 199.264225 244.613421 
C 197.508789 244.613421 195.825015 245.310863 194.583735 246.552143 
C 193.342455 247.793423 192.645013 249.477197 192.645013 251.232632 
C 192.645013 252.988068 193.342455 254.671842 194.583735 255.913122 
C 195.825015 257.154402 197.508789 257.851844 199.264225 257.851844 
z
" style="fill:#375a8c;"/>
    <path clip-path="url(#p2d2a9cf4aa)" d="M 328.900098 206.200566 
C 330.673891 206.200566 332.375273 205.495831 333.629534 204.24157 
C 334.883795 202.987309 335.58853 201.285927 335.58853 199.512134 
C 335.58853 197.738341 334.883795 196.036959 333.629534 194.782698 
C 332.375273 193.528437 330.673891 192.823702 328.900098 192.823702 
C 327.126305 192.823702 325.424924 193.528437 324.170663 194.782698 
C 322.916402 196.036959 322.211666 197.738341 322.211666 199.512134 
C 322.211666 201.285927 322.916402 202.987309 324.170663 204.24157 
C 325.424924 205.495831 327.126305 206.200566 328.900098 206.200566 
z
" style="fill:#22a785;"/>
    <path clip-path="url(#p2d2a9cf4aa)" d="M 153.833039 145.19718 
C 155.580164 145.19718 157.255966 144.50304 158.49137 143.267636 
C 159.726775 142.032232 160.420915 140.356429 160.420915 138.609304 
C 160.420915 136.862179 159.726775 135.186376 158.49137 133.950972 
C 157.255966 132.715568 155.580164 132.021428 153.833039 132.021428 
C 152.085913 132.021428 150.410111 132.715568 149.174707 133.950972 
C 147.939303 135.186376 147.245162 136.862179 147.245162 138.609304 
C 147.245162 140.356429 147.939303 142.032232 149.174707 143.267636 
C 150.410111 144.50304 152.085913 145.19718 153.833039 145.19718 
z
" style="fill:#3a548c;"/>
    <path clip-path="url(#p2d2a9cf4aa)" d="M 287.141876 180.533587 
C 288.934007 180.533587 290.652979 179.821566 291.920207 178.554338 
C 293.187436 177.287109 293.899457 175.568138 293.899457 173.776006 
C 293.899457 171.983875 293.187436 170.264903 291.920207 168.997675 
C 290.652979 167.730446 288.934007 167.018425 287.141876 167.018425 
C 285.349744 167.018425 283.630773 167.730446 282.363544 168.997675 
C 281.096316 170.264903 280.384295 171.983875 280.384295 173.776006 
C 280.384295 175.568138 281.096316 177.287109 282.363544 178.554338 
C 283.630773 179.821566 285.349744 180.533587 287.141876 180.533587 
z
" style="fill:#440154;"/>
   </g>
   <g id="text_1">
    <!-- Structure #345, $E_N$=-178.90eV, ΔE=0.46eV -->
    <defs>
     <path d="M 53.515625 70.515625 
L 53.515625 60.890625 
Q 47.90625 63.578125 42.921875 64.890625 
Q 37.9375 66.21875 33.296875 66.21875 
Q 25.25 66.21875 20.875 63.09375 
Q 16.5 59.96875 16.5 54.203125 
Q 16.5 49.359375 19.40625 46.890625 
Q 22.3125 44.4375 30.421875 42.921875 
L 36.375 41.703125 
Q 47.40625 39.59375 52.65625 34.296875 
Q 57.90625 29 57.90625 20.125 
Q 57.90625 9.515625 50.796875 4.046875 
Q 43.703125 -1.421875 29.984375 -1.421875 
Q 24.8125 -1.421875 18.96875 -0.25 
Q 13.140625 0.921875 6.890625 3.21875 
L 6.890625 13.375 
Q 12.890625 10.015625 18.65625 8.296875 
Q 24.421875 6.59375 29.984375 6.59375 
Q 38.421875 6.59375 43.015625 9.90625 
Q 47.609375 13.234375 47.609375 19.390625 
Q 47.609375 24.75 44.3125 27.78125 
Q 41.015625 30.8125 33.5 32.328125 
L 27.484375 33.5 
Q 16.453125 35.6875 11.515625 40.375 
Q 6.59375 45.0625 6.59375 53.421875 
Q 6.59375 63.09375 13.40625 68.65625 
Q 20.21875 74.21875 32.171875 74.21875 
Q 37.3125 74.21875 42.625 73.28125 
Q 47.953125 72.359375 53.515625 70.515625 
z
" id="DejaVuSans-53"/>
     <path d="M 18.3125 70.21875 
L 18.3125 54.6875 
L 36.8125 54.6875 
L 36.8125 47.703125 
L 18.3125 47.703125 
L 18.3125 18.015625 
Q 18.3125 11.328125 20.140625 9.421875 
Q 21.96875 7.515625 27.59375 7.515625 
L 36.8125 7.515625 
L 36.8125 0 
L 27.59375 0 
Q 17.1875 0 13.234375 3.875 
Q 9.28125 7.765625 9.28125 18.015625 
L 9.28125 47.703125 
L 2.6875 47.703125 
L 2.6875 54.6875 
L 9.28125 54.6875 
L 9.28125 70.21875 
z
" id="DejaVuSans-74"/>
     <path d="M 41.109375 46.296875 
Q 39.59375 47.171875 37.8125 47.578125 
Q 36.03125 48 33.890625 48 
Q 26.265625 48 22.1875 43.046875 
Q 18.109375 38.09375 18.109375 28.8125 
L 18.109375 0 
L 9.078125 0 
L 9.078125 54.6875 
L 18.109375 54.6875 
L 18.109375 46.1875 
Q 20.953125 51.171875 25.484375 53.578125 
Q 30.03125 56 36.53125 56 
Q 37.453125 56 38.578125 55.875 
Q 39.703125 55.765625 41.0625 55.515625 
z
" id="DejaVuSans-72"/>
     <path d="M 8.5 21.578125 
L 8.5 54.6875 
L 17.484375 54.6875 
L 17.484375 21.921875 
Q 17.484375 14.15625 20.5 10.265625 
Q 23.53125 6.390625 29.59375 6.390625 
Q 36.859375 6.390625 41.078125 11.03125 
Q 45.3125 15.671875 45.3125 23.6875 
L 45.3125 54.6875 
L 54.296875 54.6875 
L 54.296875 0 
L 45.3125 0 
L 45.3125 8.40625 
Q 42.046875 3.421875 37.71875 1 
Q 33.40625 -1.421875 27.6875 -1.421875 
Q 18.265625 -1.421875 13.375 4.4375 
Q 8.5 10.296875 8.5 21.578125 
z
M 31.109375 56 
z
" id="DejaVuSans-75"/>
     <path d="M 48.78125 52.59375 
L 48.78125 44.1875 
Q 44.96875 46.296875 41.140625 47.34375 
Q 37.3125 48.390625 33.40625 48.390625 
Q 24.65625 48.390625 19.8125 42.84375 
Q 14.984375 37.3125 14.984375 27.296875 
Q 14.984375 17.28125 19.8125 11.734375 
Q 24.65625 6.203125 33.40625 6.203125 
Q 37.3125 6.203125 41.140625 7.25 
Q 44.96875 8.296875 48.78125 10.40625 
L 48.78125 2.09375 
Q 45.015625 0.34375 40.984375 -0.53125 
Q 36.96875 -1.421875 32.421875 -1.421875 
Q 20.0625 -1.421875 12.78125 6.34375 
Q 5.515625 14.109375 5.515625 27.296875 
Q 5.515625 40.671875 12.859375 48.328125 
Q 20.21875 56 33.015625 56 
Q 37.15625 56 41.109375 55.140625 
Q 45.0625 54.296875 48.78125 52.59375 
z
" id="DejaVuSans-63"/>
     <path d="M 56.203125 29.59375 
L 56.203125 25.203125 
L 14.890625 25.203125 
Q 15.484375 15.921875 20.484375 11.0625 
Q 25.484375 6.203125 34.421875 6.203125 
Q 39.59375 6.203125 44.453125 7.46875 
Q 49.3125 8.734375 54.109375 11.28125 
L 54.109375 2.78125 
Q 49.265625 0.734375 44.1875 -0.34375 
Q 39.109375 -1.421875 33.890625 -1.421875 
Q 20.796875 -1.421875 13.15625 6.1875 
Q 5.515625 13.8125 5.515625 26.8125 
Q 5.515625 40.234375 12.765625 48.109375 
Q 20.015625 56 32.328125 56 
Q 43.359375 56 49.78125 48.890625 
Q 56.203125 41.796875 56.203125 29.59375 
z
M 47.21875 32.234375 
Q 47.125 39.59375 43.09375 43.984375 
Q 39.0625 48.390625 32.421875 48.390625 
Q 24.90625 48.390625 20.390625 44.140625 
Q 15.875 39.890625 15.1875 32.171875 
z
" id="DejaVuSans-65"/>
     <path id="DejaVuSans-20"/>
     <path d="M 51.125 44 
L 36.921875 44 
L 32.8125 27.6875 
L 47.125 27.6875 
z
M 43.796875 71.78125 
L 38.71875 51.515625 
L 52.984375 51.515625 
L 58.109375 71.78125 
L 65.921875 71.78125 
L 60.890625 51.515625 
L 76.125 51.515625 
L 76.125 44 
L 58.984375 44 
L 54.984375 27.6875 
L 70.515625 27.6875 
L 70.515625 20.21875 
L 53.078125 20.21875 
L 48 0 
L 40.1875 0 
L 45.21875 20.21875 
L 30.90625 20.21875 
L 25.875 0 
L 18.015625 0 
L 23.09375 20.21875 
L 7.71875 20.21875 
L 7.71875 27.6875 
L 24.90625 27.6875 
L 29 44 
L 13.28125 44 
L 13.28125 51.515625 
L 30.90625 51.515625 
L 35.890625 71.78125 
z
" id="DejaVuSans-23"/>
     <path d="M 40.578125 39.3125 
Q 47.65625 37.796875 51.625 33 
Q 55.609375 28.21875 55.609375 21.1875 
Q 55.609375 10.40625 48.1875 4.484375 
Q 40.765625 -1.421875 27.09375 -1.421875 
Q 22.515625 -1.421875 17.65625 -0.515625 
Q 12.796875 0.390625 7.625 2.203125 
L 7.625 11.71875 
Q 11.71875 9.328125 16.59375 8.109375 
Q 21.484375 6.890625 26.8125 6.890625 
Q 36.078125 6.890625 40.9375 10.546875 
Q 45.796875 14.203125 45.796875 21.1875 
Q 45.796875 27.640625 41.28125 31.265625 
Q 36.765625 34.90625 28.71875 34.90625 
L 20.21875 34.90625 
L 20.21875 43.015625 
L 29.109375 43.015625 
Q 36.375 43.015625 40.234375 45.921875 
Q 44.09375 48.828125 44.09375 54.296875 
Q 44.09375 59.90625 40.109375 62.90625 
Q 36.140625 65.921875 28.71875 65.921875 
Q 24.65625 65.921875 20.015625 65.03125 
Q 15.375 64.15625 9.8125 62.3125 
L 9.8125 71.09375 
Q 15.4375 72.65625 20.34375 73.4375 
Q 25.25 74.21875 29.59375 74.21875 
Q 40.828125 74.21875 47.359375 69.109375 
Q 53.90625 64.015625 53.90625 55.328125 
Q 53.90625 49.265625 50.4375 45.09375 
Q 46.96875 40.921875 40.578125 39.3125 
z
" id="DejaVuSans-33"/>
     <path d="M 37.796875 64.3125 
L 12.890625 25.390625 
L 37.796875 25.390625 
z
M 35.203125 72.90625 
L 47.609375 72.90625 
L 47.609375 25.390625 
L 58.015625 25.390625 
L 58.015625 17.1875 
L 47.609375 17.1875 
L 47.609375 0 
L 37.796875 0 
L 37.796875 17.1875 
L 4.890625 17.1875 
L 4.890625 26.703125 
z
" id="DejaVuSans-34"/>
     <path d="M 10.796875 72.90625 
L 49.515625 72.90625 
L 49.515625 64.59375 
L 19.828125 64.59375 
L 19.828125 46.734375 
Q 21.96875 47.46875 24.109375 47.828125 
Q 26.265625 48.1875 28.421875 48.1875 
Q 40.625 48.1875 47.75 41.5 
Q 54.890625 34.8125 54.890625 23.390625 
Q 54.890625 11.625 47.5625 5.09375 
Q 40.234375 -1.421875 26.90625 -1.421875 
Q 22.3125 -1.421875 17.546875 -0.640625 
Q 12.796875 0.140625 7.71875 1.703125 
L 7.71875 11.625 
Q 12.109375 9.234375 16.796875 8.0625 
Q 21.484375 6.890625 26.703125 6.890625 
Q 35.15625 6.890625 40.078125 11.328125 
Q 45.015625 15.765625 45.015625 23.390625 
Q 45.015625 31 40.078125 35.4375 
Q 35.15625 39.890625 26.703125 39.890625 
Q 22.75 39.890625 18.8125 39.015625 
Q 14.890625 38.140625 10.796875 36.28125 
z
" id="DejaVuSans-35"/>
     <path d="M 11.71875 12.40625 
L 22.015625 12.40625 
L 22.015625 4 
L 14.015625 -11.625 
L 7.71875 -11.625 
L 11.71875 4 
z
" id="DejaVuSans-2c"/>
     <path d="M 16.890625 72.90625 
L 62.984375 72.90625 
L 61.375 64.59375 
L 25.09375 64.59375 
L 20.90625 43.015625 
L 55.71875 43.015625 
L 54.109375 34.71875 
L 19.28125 34.71875 
L 14.203125 8.296875 
L 51.3125 8.296875 
L 49.703125 0 
L 2.6875 0 
z
" id="DejaVuSans-Oblique-45"/>
     <path d="M 16.890625 72.90625 
L 30.171875 72.90625 
L 50.296875 10.40625 
L 62.5 72.90625 
L 72.125 72.90625 
L 57.90625 0 
L 44.578125 0 
L 24.515625 62.890625 
L 12.3125 0 
L 2.6875 0 
z
" id="DejaVuSans-Oblique-4e"/>
     <path d="M 10.59375 45.40625 
L 73.1875 45.40625 
L 73.1875 37.203125 
L 10.59375 37.203125 
z
M 10.59375 25.484375 
L 73.1875 25.484375 
L 73.1875 17.1875 
L 10.59375 17.1875 
z
" id="DejaVuSans-3d"/>
     <path d="M 4.890625 31.390625 
L 31.203125 31.390625 
L 31.203125 23.390625 
L 4.890625 23.390625 
z
" id="DejaVuSans-2d"/>
     <path d="M 12.40625 8.296875 
L 28.515625 8.296875 
L 28.515625 63.921875 
L 10.984375 60.40625 
L 10.984375 69.390625 
L 28.421875 72.90625 
L 38.28125 72.90625 
L 38.28125 8.296875 
L 54.390625 8.296875 
L 54.390625 0 
L 12.40625 0 
z
" id="DejaVuSans-31"/>
     <path d="M 8.203125 72.90625 
L 55.078125 72.90625 
L 55.078125 68.703125 
L 28.609375 0 
L 18.3125 0 
L 43.21875 64.59375 
L 8.203125 64.59375 
z
" id="DejaVuSans-37"/>
     <path d="M 31.78125 34.625 
Q 24.75 34.625 20.71875 30.859375 
Q 16.703125 27.09375 16.703125 20.515625 
Q 16.703125 13.921875 20.71875 10.15625 
Q 24.75 6.390625 31.78125 6.390625 
Q 38.8125 6.390625 42.859375 10.171875 
Q 46.921875 13.96875 46.921875 20.515625 
Q 46.921875 27.09375 42.890625 30.859375 
Q 38.875 34.625 31.78125 34.625 
z
M 21.921875 38.8125 
Q 15.578125 40.375 12.03125 44.71875 
Q 8.5 49.078125 8.5 55.328125 
Q 8.5 64.0625 14.71875 69.140625 
Q 20.953125 74.21875 31.78125 74.21875 
Q 42.671875 74.21875 48.875 69.140625 
Q 55.078125 64.0625 55.078125 55.328125 
Q 55.078125 49.078125 51.53125 44.71875 
Q 48 40.375 41.703125 38.8125 
Q 48.828125 37.15625 52.796875 32.3125 
Q 56.78125 27.484375 56.78125 20.515625 
Q 56.78125 9.90625 50.3125 4.234375 
Q 43.84375 -1.421875 31.78125 -1.421875 
Q 19.734375 -1.421875 13.25 4.234375 
Q 6.78125 9.90625 6.78125 20.515625 
Q 6.78125 27.484375 10.78125 32.3125 
Q 14.796875 37.15625 21.921875 38.8125 
z
M 18.3125 54.390625 
Q 18.3125 48.734375 21.84375 45.5625 
Q 25.390625 42.390625 31.78125 42.390625 
Q 38.140625 42.390625 41.71875 45.5625 
Q 45.3125 48.734375 45.3125 54.390625 
Q 45.3125 60.0625 41.71875 63.234375 
Q 38.140625 66.40625 31.78125 66.40625 
Q 25.390625 66.40625 21.84375 63.234375 
Q 18.3125 60.0625 18.3125 54.390625 
z
" id="DejaVuSans-38"/>
     <path d="M 10.6875 12.40625 
L 21 12.40625 
L 21 0 
L 10.6875 0 
z
" id="DejaVuSans-2e"/>
     <path d="M 10.984375 1.515625 
L 10.984375 10.5 
Q 14.703125 8.734375 18.5 7.8125 
Q 22.3125 6.890625 25.984375 6.890625 
Q 35.75 6.890625 40.890625 13.453125 
Q 46.046875 20.015625 46.78125 33.40625 
Q 43.953125 29.203125 39.59375 26.953125 
Q 35.25 24.703125 29.984375 24.703125 
Q 19.046875 24.703125 12.671875 31.3125 
Q 6.296875 37.9375 6.296875 49.421875 
Q 6.296875 60.640625 12.9375 67.421875 
Q 19.578125 74.21875 30.609375 74.21875 
Q 43.265625 74.21875 49.921875 64.515625 
Q 56.59375 54.828125 56.59375 36.375 
Q 56.59375 19.140625 48.40625 8.859375 
Q 40.234375 -1.421875 26.421875 -1.421875 
Q 22.703125 -1.421875 18.890625 -0.6875 
Q 15.09375 0.046875 10.984375 1.515625 
z
M 30.609375 32.421875 
Q 37.25 32.421875 41.125 36.953125 
Q 45.015625 41.5 45.015625 49.421875 
Q 45.015625 57.28125 41.125 61.84375 
Q 37.25 66.40625 30.609375 66.40625 
Q 23.96875 66.40625 20.09375 61.84375 
Q 16.21875 57.28125 16.21875 49.421875 
Q 16.21875 41.5 20.09375 36.953125 
Q 23.96875 32.421875 30.609375 32.421875 
z
" id="DejaVuSans-39"/>
     <path d="M 31.78125 66.40625 
Q 24.171875 66.40625 20.328125 58.90625 
Q 16.5 51.421875 16.5 36.375 
Q 16.5 21.390625 20.328125 13.890625 
Q 24.171875 6.390625 31.78125 6.390625 
Q 39.453125 6.390625 43.28125 13.890625 
Q 47.125 21.390625 47.125 36.375 
Q 47.125 51.421875 43.28125 58.90625 
Q 39.453125 66.40625 31.78125 66.40625 
z
M 31.78125 74.21875 
Q 44.046875 74.21875 50.515625 64.515625 
Q 56.984375 54.828125 56.984375 36.375 
Q 56.984375 17.96875 50.515625 8.265625 
Q 44.046875 -1.421875 31.78125 -1.421875 
Q 19.53125 -1.421875 13.0625 8.265625 
Q 6.59375 17.96875 6.59375 36.375 
Q 6.59375 54.828125 13.0625 64.515625 
Q 19.53125 74.21875 31.78125 74.21875 
z
" id="DejaVuSans-30"/>
     <path d="M 28.609375 0 
L 0.78125 72.90625 
L 11.078125 72.90625 
L 34.1875 11.53125 
L 57.328125 72.90625 
L 67.578125 72.90625 
L 39.796875 0 
z
" id="DejaVuSans-56"/>
     <path d="M 34.1875 63.1875 
L 14.15625 8.203125 
L 54.25 8.203125 
z
M 0.78125 0 
L 28.609375 72.90625 
L 39.796875 72.90625 
L 67.578125 0 
z
" id="DejaVuSans-394"/>
     <path d="M 9.8125 72.90625 
L 55.90625 72.90625 
L 55.90625 64.59375 
L 19.671875 64.59375 
L 19.671875 43.015625 
L 54.390625 43.015625 
L 54.390625 34.71875 
L 19.671875 34.71875 
L 19.671875 8.296875 
L 56.78125 8.296875 
L 56.78125 0 
L 9.8125 0 
z
" id="DejaVuSans-45"/>
     <path d="M 33.015625 40.375 
Q 26.375 40.375 22.484375 35.828125 
Q 18.609375 31.296875 18.609375 23.390625 
Q 18.609375 15.53125 22.484375 10.953125 
Q 26.375 6.390625 33.015625 6.390625 
Q 39.65625 6.390625 43.53125 10.953125 
Q 47.40625 15.53125 47.40625 23.390625 
Q 47.40625 31.296875 43.53125 35.828125 
Q 39.65625 40.375 33.015625 40.375 
z
M 52.59375 71.296875 
L 52.59375 62.3125 
Q 48.875 64.0625 45.09375 64.984375 
Q 41.3125 65.921875 37.59375 65.921875 
Q 27.828125 65.921875 22.671875 59.328125 
Q 17.53125 52.734375 16.796875 39.40625 
Q 19.671875 43.65625 24.015625 45.921875 
Q 28.375 48.1875 33.59375 48.1875 
Q 44.578125 48.1875 50.953125 41.515625 
Q 57.328125 34.859375 57.328125 23.390625 
Q 57.328125 12.15625 50.6875 5.359375 
Q 44.046875 -1.421875 33.015625 -1.421875 
Q 20.359375 -1.421875 13.671875 8.265625 
Q 6.984375 17.96875 6.984375 36.375 
Q 6.984375 53.65625 15.1875 63.9375 
Q 23.390625 74.21875 37.203125 74.21875 
Q 40.921875 74.21875 44.703125 73.484375 
Q 48.484375 72.75 52.59375 71.296875 
z
" id="DejaVuSans-36"/>
    </defs>
    <g transform="translate(69.228 35.472)scale(0.12 -0.12)">
     <use transform="translate(0 0.78125)" xlink:href="#DejaVuSans-53"/>
     <use transform="translate(63.476562 0.78125)" xlink:href="#DejaVuSans-74"/>
     <use transform="translate(102.685547 0.78125)" xlink:href="#DejaVuSans-72"/>
     <use transform="translate(143.798828 0.78125)" xlink:href="#DejaVuSans-75"/>
     <use transform="translate(207.177734 0.78125)" xlink:href="#DejaVuSans-63"/>
     <use transform="translate(262.158203 0.78125)" xlink:href="#DejaVuSans-74"/>
     <use transform="translate(301.367188 0.78125)" xlink:href="#DejaVuSans-75"/>
     <use transform="translate(364.746094 0.78125)" xlink:href="#DejaVuSans-72"/>
     <use transform="translate(405.859375 0.78125)" xlink:href="#DejaVuSans-65"/>
     <use transform="translate(467.382812 0.78125)" xlink:href="#DejaVuSans-20"/>
     <use transform="translate(499.169922 0.78125)" xlink:href="#DejaVuSans-23"/>
     <use transform="translate(582.958984 0.78125)" xlink:href="#DejaVuSans-33"/>
     <use transform="translate(646.582031 0.78125)" xlink:href="#DejaVuSans-34"/>
     <use transform="translate(710.205078 0.78125)" xlink:href="#DejaVuSans-35"/>
     <use transform="translate(773.828125 0.78125)" xlink:href="#DejaVuSans-2c"/>
     <use transform="translate(805.615234 0.78125)" xlink:href="#DejaVuSans-20"/>
     <use transform="translate(837.402344 0.78125)" xlink:href="#DejaVuSans-Oblique-45"/>
     <use transform="translate(900.585938 -15.625)scale(0.7)" xlink:href="#DejaVuSans-Oblique-4e"/>
     <use transform="translate(955.683594 0.78125)" xlink:href="#DejaVuSans-3d"/>
     <use transform="translate(1039.472656 0.78125)" xlink:href="#DejaVuSans-2d"/>
     <use transform="translate(1075.556641 0.78125)" xlink:href="#DejaVuSans-31"/>
     <use transform="translate(1139.179688 0.78125)" xlink:href="#DejaVuSans-37"/>
     <use transform="translate(1202.802734 0.78125)" xlink:href="#DejaVuSans-38"/>
     <use transform="translate(1266.425781 0.78125)" xlink:href="#DejaVuSans-2e"/>
     <use transform="translate(1298.212891 0.78125)" xlink:href="#DejaVuSans-39"/>
     <use transform="translate(1361.835938 0.78125)" xlink:href="#DejaVuSans-30"/>
     <use transform="translate(1425.458984 0.78125)" xlink:href="#DejaVuSans-65"/>
     <use transform="translate(1486.982422 0.78125)" xlink:href="#DejaVuSans-56"/>
     <use transform="translate(1555.390625 0.78125)" xlink:href="#DejaVuSans-2c"/>
     <use transform="translate(1587.177734 0.78125)" xlink:href="#DejaVuSans-20"/>
     <use transform="translate(1618.964844 0.78125)" xlink:href="#DejaVuSans-394"/>
     <use transform="translate(1687.373047 0.78125)" xlink:href="#DejaVuSans-45"/>
     <use transform="translate(1750.556641 0.78125)" xlink:href="#DejaVuSans-3d"/>
     <use transform="translate(1834.345703 0.78125)" xlink:href="#DejaVuSans-30"/>
     <use transform="translate(1897.96875 0.78125)" xlink:href="#DejaVuSans-2e"/>
     <use transform="translate(1929.755859 0.78125)" xlink:href="#DejaVuSans-34"/>
     <use transform="translate(1993.378906 0.78125)" xlink:href="#DejaVuSans-36"/>
     <use transform="translate(2057.001953 0.78125)" xlink:href="#DejaVuSans-65"/>
     <use transform="translate(2118.525391 0.78125)" xlink:href="#DejaVuSans-56"/>
    </g>
   </g>
  </g>
  <g id="axes_2">
   <g id="patch_2">
    <path clip-path="url(#p30d42e8898)" d="M 361.152 307.584 
L 361.152 306.5445 
L 361.152 42.5115 
L 361.152 41.472 
L 374.4576 41.472 
L 374.4576 42.5115 
L 374.4576 306.5445 
L 374.4576 307.584 
z
" style="fill:#ffffff;stroke:#ffffff;stroke-linejoin:miter;stroke-width:0.01;"/>
   </g>
   <image height="265.68" id="image4bd21e0b7a" transform="scale(1 -1)translate(0 -265.68)" width="12.96" x="361.44" xlink:href="data:image/png;base64,
iVBORw0KGgoAAAANSUhEUgAAABIAAAFxCAYAAAB+2fgXAAAABHNCSVQICAgIfAhkiAAAAeVJREFUeJztncmNw0AQA2ckheYQNv9QLIfQ8ygsCgQ7AEI8+jAs2Puz/94F1LP2ReCsZ18bAWIeZ5XaGRBE7VnbptG+KI101FYyNSiQG2oRITXKNaX9uclOdi2XWjftVE32CZCO2ou5Bj1TcCBr/1zB9ge7Fq0Rg2NM9pvbtG+ua1QgsRYhDy0ISEiNc40BEibbSI0Coj5CBGtkpFbXJiAjNZlrwhuSOv2M1DjXbEdEciBt1JSDDQKKpmZr2rr2j0DBGpXaWEJq3bQzEPIS26r9J+Wzv9Tm8o3aajRXqc3VUXsApKNWjeZq0x4ABVNbm7lrszVigDqP5vIl2+eaT2yfRkL7g+dRcNPqjohkjaCvRVBq0H2U3LQrOJCx9kdTg4B8oxZzzTdqdYHEngjUCAPyUctN9sVRq2sTECW2UKNLd2jVtRmo1A6AhMmWaSRcR8nUdIHUuVb75zJS218EyEitro1At69pIdeSk30Lkw0FktNImGyZRhy1O5galmxd03LUsHWk06jUZiCq+5Wb1kZNN4+wJxJuWt8RAW5am2sYNZ9rYCBzZ3buPKJ2P5Yj4Toy3keyIyJbIxs1rml1byCA84gpch5RQNB7Q0qNMGq2Hy4BXdNR41yz/cEEJfZzUz96r9PoB0okjeQ8y9TkAAAAAElFTkSuQmCC" y="-41.76"/>
   <g id="matplotlib.axis_1"/>
   <g id="matplotlib.axis_2">
    <g id="ytick_1">
     <g id="line2d_1">
      <defs>
       <path d="M 0 0 
L 3.5 0 
" id="m255df7f942" style="stroke:#000000;stroke-width:0.8;"/>
      </defs>
      <g>
       <use style="stroke:#000000;stroke-width:0.8;" x="374.4576" xlink:href="#m255df7f942" y="278.823757"/>
      </g>
     </g>
     <g id="text_2">
      <!-- −8.5 -->
      <defs>
       <path d="M 10.59375 35.5 
L 73.1875 35.5 
L 73.1875 27.203125 
L 10.59375 27.203125 
z
" id="DejaVuSans-2212"/>
      </defs>
      <g transform="translate(381.4576 282.622976)scale(0.1 -0.1)">
       <use xlink:href="#DejaVuSans-2212"/>
       <use x="83.789062" xlink:href="#DejaVuSans-38"/>
       <use x="147.412109" xlink:href="#DejaVuSans-2e"/>
       <use x="179.199219" xlink:href="#DejaVuSans-35"/>
      </g>
     </g>
    </g>
    <g id="ytick_2">
     <g id="line2d_2">
      <g>
       <use style="stroke:#000000;stroke-width:0.8;" x="374.4576" xlink:href="#m255df7f942" y="236.299453"/>
      </g>
     </g>
     <g id="text_3">
      <!-- −8.0 -->
      <g transform="translate(381.4576 240.098672)scale(0.1 -0.1)">
       <use xlink:href="#DejaVuSans-2212"/>
       <use x="83.789062" xlink:href="#DejaVuSans-38"/>
       <use x="147.412109" xlink:href="#DejaVuSans-2e"/>
       <use x="179.199219" xlink:href="#DejaVuSans-30"/>
      </g>
     </g>
    </g>
    <g id="ytick_3">
     <g id="line2d_3">
      <g>
       <use style="stroke:#000000;stroke-width:0.8;" x="374.4576" xlink:href="#m255df7f942" y="193.775149"/>
      </g>
     </g>
     <g id="text_4">
      <!-- −7.5 -->
      <g transform="translate(381.4576 197.574368)scale(0.1 -0.1)">
       <use xlink:href="#DejaVuSans-2212"/>
       <use x="83.789062" xlink:href="#DejaVuSans-37"/>
       <use x="147.412109" xlink:href="#DejaVuSans-2e"/>
       <use x="179.199219" xlink:href="#DejaVuSans-35"/>
      </g>
     </g>
    </g>
    <g id="ytick_4">
     <g id="line2d_4">
      <g>
       <use style="stroke:#000000;stroke-width:0.8;" x="374.4576" xlink:href="#m255df7f942" y="151.250845"/>
      </g>
     </g>
     <g id="text_5">
      <!-- −7.0 -->
      <g transform="translate(381.4576 155.050064)scale(0.1 -0.1)">
       <use xlink:href="#DejaVuSans-2212"/>
       <use x="83.789062" xlink:href="#DejaVuSans-37"/>
       <use x="147.412109" xlink:href="#DejaVuSans-2e"/>
       <use x="179.199219" xlink:href="#DejaVuSans-30"/>
      </g>
     </g>
    </g>
    <g id="ytick_5">
     <g id="line2d_5">
      <g>
       <use style="stroke:#000000;stroke-width:0.8;" x="374.4576" xlink:href="#m255df7f942" y="108.726541"/>
      </g>
     </g>
     <g id="text_6">
      <!-- −6.5 -->
      <g transform="translate(381.4576 112.52576)scale(0.1 -0.1)">
       <use xlink:href="#DejaVuSans-2212"/>
       <use x="83.789062" xlink:href="#DejaVuSans-36"/>
       <use x="147.412109" xlink:href="#DejaVuSans-2e"/>
       <use x="179.199219" xlink:href="#DejaVuSans-35"/>
      </g>
     </g>
    </g>
    <g id="ytick_6">
     <g id="line2d_6">
      <g>
       <use style="stroke:#000000;stroke-width:0.8;" x="374.4576" xlink:href="#m255df7f942" y="66.202237"/>
      </g>
     </g>
     <g id="text_7">
      <!-- −6.0 -->
      <g transform="translate(381.4576 70.001456)scale(0.1 -0.1)">
       <use xlink:href="#DejaVuSans-2212"/>
       <use x="83.789062" xlink:href="#DejaVuSans-36"/>
       <use x="147.412109" xlink:href="#DejaVuSans-2e"/>
       <use x="179.199219" xlink:href="#DejaVuSans-30"/>
      </g>
     </g>
    </g>
    <g id="text_8">
     <!-- Energy [eV] -->
     <defs>
      <path d="M 54.890625 33.015625 
L 54.890625 0 
L 45.90625 0 
L 45.90625 32.71875 
Q 45.90625 40.484375 42.875 44.328125 
Q 39.84375 48.1875 33.796875 48.1875 
Q 26.515625 48.1875 22.3125 43.546875 
Q 18.109375 38.921875 18.109375 30.90625 
L 18.109375 0 
L 9.078125 0 
L 9.078125 54.6875 
L 18.109375 54.6875 
L 18.109375 46.1875 
Q 21.34375 51.125 25.703125 53.5625 
Q 30.078125 56 35.796875 56 
Q 45.21875 56 50.046875 50.171875 
Q 54.890625 44.34375 54.890625 33.015625 
z
" id="DejaVuSans-6e"/>
      <path d="M 45.40625 27.984375 
Q 45.40625 37.75 41.375 43.109375 
Q 37.359375 48.484375 30.078125 48.484375 
Q 22.859375 48.484375 18.828125 43.109375 
Q 14.796875 37.75 14.796875 27.984375 
Q 14.796875 18.265625 18.828125 12.890625 
Q 22.859375 7.515625 30.078125 7.515625 
Q 37.359375 7.515625 41.375 12.890625 
Q 45.40625 18.265625 45.40625 27.984375 
z
M 54.390625 6.78125 
Q 54.390625 -7.171875 48.1875 -13.984375 
Q 42 -20.796875 29.203125 -20.796875 
Q 24.46875 -20.796875 20.265625 -20.09375 
Q 16.0625 -19.390625 12.109375 -17.921875 
L 12.109375 -9.1875 
Q 16.0625 -11.328125 19.921875 -12.34375 
Q 23.78125 -13.375 27.78125 -13.375 
Q 36.625 -13.375 41.015625 -8.765625 
Q 45.40625 -4.15625 45.40625 5.171875 
L 45.40625 9.625 
Q 42.625 4.78125 38.28125 2.390625 
Q 33.9375 0 27.875 0 
Q 17.828125 0 11.671875 7.65625 
Q 5.515625 15.328125 5.515625 27.984375 
Q 5.515625 40.671875 11.671875 48.328125 
Q 17.828125 56 27.875 56 
Q 33.9375 56 38.28125 53.609375 
Q 42.625 51.21875 45.40625 46.390625 
L 45.40625 54.6875 
L 54.390625 54.6875 
z
" id="DejaVuSans-67"/>
      <path d="M 32.171875 -5.078125 
Q 28.375 -14.84375 24.75 -17.8125 
Q 21.140625 -20.796875 15.09375 -20.796875 
L 7.90625 -20.796875 
L 7.90625 -13.28125 
L 13.1875 -13.28125 
Q 16.890625 -13.28125 18.9375 -11.515625 
Q 21 -9.765625 23.484375 -3.21875 
L 25.09375 0.875 
L 2.984375 54.6875 
L 12.5 54.6875 
L 29.59375 11.921875 
L 46.6875 54.6875 
L 56.203125 54.6875 
z
" id="DejaVuSans-79"/>
      <path d="M 8.59375 75.984375 
L 29.296875 75.984375 
L 29.296875 69 
L 17.578125 69 
L 17.578125 -6.203125 
L 29.296875 -6.203125 
L 29.296875 -13.1875 
L 8.59375 -13.1875 
z
" id="DejaVuSans-5b"/>
      <path d="M 30.421875 75.984375 
L 30.421875 -13.1875 
L 9.71875 -13.1875 
L 9.71875 -6.203125 
L 21.390625 -6.203125 
L 21.390625 69 
L 9.71875 69 
L 9.71875 75.984375 
z
" id="DejaVuSans-5d"/>
     </defs>
     <g transform="translate(417.33885 204.108469)rotate(-90)scale(0.1 -0.1)">
      <use xlink:href="#DejaVuSans-45"/>
      <use x="63.183594" xlink:href="#DejaVuSans-6e"/>
      <use x="126.5625" xlink:href="#DejaVuSans-65"/>
      <use x="188.085938" xlink:href="#DejaVuSans-72"/>
      <use x="229.183594" xlink:href="#DejaVuSans-67"/>
      <use x="292.660156" xlink:href="#DejaVuSans-79"/>
      <use x="351.839844" xlink:href="#DejaVuSans-20"/>
      <use x="383.626953" xlink:href="#DejaVuSans-5b"/>
      <use x="422.640625" xlink:href="#DejaVuSans-65"/>
      <use x="484.164062" xlink:href="#DejaVuSans-56"/>
      <use x="552.572266" xlink:href="#DejaVuSans-5d"/>
     </g>
    </g>
   </g>
   <g id="patch_3">
    <path d="M 361.152 307.584 
L 361.152 306.5445 
L 361.152 42.5115 
L 361.152 41.472 
L 374.4576 41.472 
L 374.4576 42.5115 
L 374.4576 306.5445 
L 374.4576 307.584 
z
" style="fill:none;stroke:#000000;stroke-linejoin:miter;stroke-width:0.8;"/>
   </g>
  </g>
 </g>
 <defs>
  <clipPath id="p2d2a9cf4aa">
   <rect height="266.112" width="285.696" x="57.6" y="41.472"/>
  </clipPath>
  <clipPath id="p30d42e8898">
   <rect height="266.112" width="13.3056" x="361.152" y="41.472"/>
  </clipPath>
 </defs>
</svg>
