<?xml version="1.0" encoding="utf-8" standalone="no"?>
<!DOCTYPE svg PUBLIC "-//W3C//DTD SVG 1.1//EN"
  "http://www.w3.org/Graphics/SVG/1.1/DTD/svg11.dtd">
<!-- Created with matplotlib (http://matplotlib.org/) -->
<svg height="345.6pt" version="1.1" viewBox="0 0 460.8 345.6" width="460.8pt" xmlns="http://www.w3.org/2000/svg" xmlns:xlink="http://www.w3.org/1999/xlink">
 <defs>
  <style type="text/css">
*{stroke-linecap:butt;stroke-linejoin:round;}
  </style>
 </defs>
 <g id="figure_1">
  <g id="patch_1">
   <path d="M 0 345.6 
L 460.8 345.6 
L 460.8 0 
L 0 0 
z
" style="fill:#ffffff;"/>
  </g>
  <g id="axes_1">
   <g id="CircleCollection_1">
    <path clip-path="url(#p83aac5d09a)" d="M 213.143093 224.211972 
C 214.860845 224.211972 216.508473 223.529501 217.723107 222.314867 
C 218.937741 221.100233 219.620211 219.452605 219.620211 217.734853 
C 219.620211 216.017101 218.937741 214.369473 217.723107 213.154839 
C 216.508473 211.940205 214.860845 211.257735 213.143093 211.257735 
C 211.425341 211.257735 209.777713 211.940205 208.563079 213.154839 
C 207.348445 214.369473 206.665975 216.017101 206.665975 217.734853 
C 206.665975 219.452605 207.348445 221.100233 208.563079 222.314867 
C 209.777713 223.529501 211.425341 224.211972 213.143093 224.211972 
z
" style="fill:#440154;"/>
    <path clip-path="url(#p83aac5d09a)" d="M 318.37609 176.277597 
C 320.131456 176.277597 321.815162 175.580183 323.056393 174.338952 
C 324.297624 173.097721 324.995038 171.414015 324.995038 169.658649 
C 324.995038 167.903284 324.297624 166.219577 323.056393 164.978346 
C 321.815162 163.737116 320.131456 163.039702 318.37609 163.039702 
C 316.620725 163.039702 314.937018 163.737116 313.695787 164.978346 
C 312.454556 166.219577 311.757142 167.903284 311.757142 169.658649 
C 311.757142 171.414015 312.454556 173.097721 313.695787 174.338952 
C 314.937018 175.580183 316.620725 176.277597 318.37609 176.277597 
z
" style="fill:#424086;"/>
    <path clip-path="url(#p83aac5d09a)" d="M 283.42174 86.482988 
C 285.25022 86.482988 287.004056 85.756525 288.296987 84.463595 
C 289.589917 83.170664 290.31638 81.416828 290.31638 79.588348 
C 290.31638 77.759869 289.589917 76.006032 288.296987 74.713102 
C 287.004056 73.420171 285.25022 72.693709 283.42174 72.693709 
C 281.59326 72.693709 279.839424 73.420171 278.546494 74.713102 
C 277.253563 76.006032 276.5271 77.759869 276.5271 79.588348 
C 276.5271 81.416828 277.253563 83.170664 278.546494 84.463595 
C 279.839424 85.756525 281.59326 86.482988 283.42174 86.482988 
z
" style="fill:#443983;"/>
    <path clip-path="url(#p83aac5d09a)" d="M 329.648324 206.001636 
C 331.481344 206.001636 333.239535 205.273369 334.535676 203.977228 
C 335.831816 202.681088 336.560083 200.922897 336.560083 199.089877 
C 336.560083 197.256857 335.831816 195.498666 334.535676 194.202526 
C 333.239535 192.906385 331.481344 192.178119 329.648324 192.178119 
C 327.815304 192.178119 326.057114 192.906385 324.760973 194.202526 
C 323.464832 195.498666 322.736566 197.256857 322.736566 199.089877 
C 322.736566 200.922897 323.464832 202.681088 324.760973 203.977228 
C 326.057114 205.273369 327.815304 206.001636 329.648324 206.001636 
z
" style="fill:#3d4d8a;"/>
    <path clip-path="url(#p83aac5d09a)" d="M 291.547824 180.273629 
C 293.447999 180.273629 295.270603 179.518681 296.61423 178.175055 
C 297.957856 176.831428 298.712804 175.008824 298.712804 173.108649 
C 298.712804 171.208474 297.957856 169.385869 296.61423 168.042242 
C 295.270603 166.698616 293.447999 165.943668 291.547824 165.943668 
C 289.647649 165.943668 287.825044 166.698616 286.481418 168.042242 
C 285.137791 169.385869 284.382844 171.208474 284.382844 173.108649 
C 284.382844 175.008824 285.137791 176.831428 286.481418 178.175055 
C 287.825044 179.518681 289.647649 180.273629 291.547824 180.273629 
z
" style="fill:#460b5e;"/>
    <path clip-path="url(#p83aac5d09a)" d="M 155.025027 194.205288 
C 156.766955 194.205288 158.437773 193.513213 159.669502 192.281484 
C 160.901231 191.049754 161.593306 189.378937 161.593306 187.637009 
C 161.593306 185.895081 160.901231 184.224263 159.669502 182.992534 
C 158.437773 181.760805 156.766955 181.068729 155.025027 181.068729 
C 153.283099 181.068729 151.612281 181.760805 150.380552 182.992534 
C 149.148823 184.224263 148.456748 185.895081 148.456748 187.637009 
C 148.456748 189.378937 149.148823 191.049754 150.380552 192.281484 
C 151.612281 193.513213 153.283099 194.205288 155.025027 194.205288 
z
" style="fill:#471164;"/>
    <path clip-path="url(#p83aac5d09a)" d="M 283.607688 301.415843 
C 285.385446 301.415843 287.09063 300.709533 288.347695 299.452468 
C 289.604759 298.195404 290.31107 296.490219 290.31107 294.712462 
C 290.31107 292.934704 289.604759 291.229519 288.347695 289.972455 
C 287.09063 288.715391 285.385446 288.00908 283.607688 288.00908 
C 281.829931 288.00908 280.124746 288.715391 278.867682 289.972455 
C 277.610617 291.229519 276.904307 292.934704 276.904307 294.712462 
C 276.904307 296.490219 277.610617 298.195404 278.867682 299.452468 
C 280.124746 300.709533 281.829931 301.415843 283.607688 301.415843 
z
" style="fill:#8bd646;"/>
    <path clip-path="url(#p83aac5d09a)" d="M 219.097027 61.276657 
C 220.929394 61.276657 222.686958 60.54865 223.982637 59.252971 
C 225.278316 57.957292 226.006323 56.199728 226.006323 54.367361 
C 226.006323 52.534995 225.278316 50.77743 223.982637 49.481752 
C 222.686958 48.186073 220.929394 47.458066 219.097027 47.458066 
C 217.264661 47.458066 215.507097 48.186073 214.211418 49.481752 
C 212.915739 50.77743 212.187732 52.534995 212.187732 54.367361 
C 212.187732 56.199728 212.915739 57.957292 214.211418 59.252971 
C 215.507097 60.54865 217.264661 61.276657 219.097027 61.276657 
z
" style="fill:#46337f;"/>
    <path clip-path="url(#p83aac5d09a)" d="M 225.005314 269.652629 
C 226.789181 269.652629 228.500226 268.943891 229.761611 267.682506 
C 231.022996 266.421122 231.731734 264.710076 231.731734 262.926209 
C 231.731734 261.142341 231.022996 259.431296 229.761611 258.169912 
C 228.500226 256.908527 226.789181 256.199789 225.005314 256.199789 
C 223.221446 256.199789 221.510401 256.908527 220.249016 258.169912 
C 218.987631 259.431296 218.278893 261.142341 218.278893 262.926209 
C 218.278893 264.710076 218.987631 266.421122 220.249016 267.682506 
C 221.510401 268.943891 223.221446 269.652629 225.005314 269.652629 
z
" style="fill:#414287;"/>
    <path clip-path="url(#p83aac5d09a)" d="M 268.771836 124.325372 
C 270.670458 124.325372 272.491573 123.571042 273.834102 122.228513 
C 275.17663 120.885984 275.930961 119.064869 275.930961 117.166247 
C 275.930961 115.267625 275.17663 113.44651 273.834102 112.103981 
C 272.491573 110.761453 270.670458 110.007122 268.771836 110.007122 
C 266.873214 110.007122 265.052099 110.761453 263.70957 112.103981 
C 262.367041 113.44651 261.612711 115.267625 261.612711 117.166247 
C 261.612711 119.064869 262.367041 120.885984 263.70957 122.228513 
C 265.052099 123.571042 266.873214 124.325372 268.771836 124.325372 
z
" style="fill:#48186a;"/>
    <path clip-path="url(#p83aac5d09a)" d="M 301.51905 263.791806 
C 303.360904 263.791806 305.127567 263.06003 306.429954 261.757643 
C 307.732341 260.455256 308.464117 258.688592 308.464117 256.846739 
C 308.464117 255.004885 307.732341 253.238222 306.429954 251.935835 
C 305.127567 250.633448 303.360904 249.901672 301.51905 249.901672 
C 299.677197 249.901672 297.910533 250.633448 296.608146 251.935835 
C 295.305759 253.238222 294.573983 255.004885 294.573983 256.846739 
C 294.573983 258.688592 295.305759 260.455256 296.608146 261.757643 
C 297.910533 263.06003 299.677197 263.791806 301.51905 263.791806 
z
" style="fill:#3e4989;"/>
    <path clip-path="url(#p83aac5d09a)" d="M 301.377935 115.413425 
C 303.131755 115.413425 304.813979 114.716625 306.054117 113.476487 
C 307.294255 112.236349 307.991055 110.554125 307.991055 108.800305 
C 307.991055 107.046485 307.294255 105.364261 306.054117 104.124123 
C 304.813979 102.883985 303.131755 102.187185 301.377935 102.187185 
C 299.624115 102.187185 297.941891 102.883985 296.701753 104.124123 
C 295.461615 105.364261 294.764815 107.046485 294.764815 108.800305 
C 294.764815 110.554125 295.461615 112.236349 296.701753 113.476487 
C 297.941891 114.716625 299.624115 115.413425 301.377935 115.413425 
z
" style="fill:#482878;"/>
    <path clip-path="url(#p83aac5d09a)" d="M 71.214325 125.534545 
C 72.954927 125.534545 74.624473 124.842997 75.855265 123.612205 
C 77.086056 122.381413 77.777605 120.711867 77.777605 118.971265 
C 77.777605 117.230662 77.086056 115.561116 75.855265 114.330324 
C 74.624473 113.099533 72.954927 112.407984 71.214325 112.407984 
C 69.473722 112.407984 67.804176 113.099533 66.573384 114.330324 
C 65.342593 115.561116 64.651044 117.230662 64.651044 118.971265 
C 64.651044 120.711867 65.342593 122.381413 66.573384 123.612205 
C 67.804176 124.842997 69.473722 125.534545 71.214325 125.534545 
z
" style="fill:#fde725;"/>
    <path clip-path="url(#p83aac5d09a)" d="M 192.343869 100.666785 
C 194.036246 100.666785 195.659536 99.994396 196.856228 98.797705 
C 198.052919 97.601013 198.725308 95.977723 198.725308 94.285346 
C 198.725308 92.592969 198.052919 90.969679 196.856228 89.772988 
C 195.659536 88.576296 194.036246 87.903907 192.343869 87.903907 
C 190.651492 87.903907 189.028202 88.576296 187.831511 89.772988 
C 186.634819 90.969679 185.96243 92.592969 185.96243 94.285346 
C 185.96243 95.977723 186.634819 97.601013 187.831511 98.797705 
C 189.028202 99.994396 190.651492 100.666785 192.343869 100.666785 
z
" style="fill:#470e61;"/>
    <path clip-path="url(#p83aac5d09a)" d="M 264.458575 187.111576 
C 266.151701 187.111576 267.775708 186.43889 268.972929 185.24167 
C 270.170149 184.044449 270.842835 182.420442 270.842835 180.727317 
C 270.842835 179.034191 270.170149 177.410184 268.972929 176.212963 
C 267.775708 175.015743 266.151701 174.343057 264.458575 174.343057 
C 262.76545 174.343057 261.141442 175.015743 259.944222 176.212963 
C 258.747001 177.410184 258.074315 179.034191 258.074315 180.727317 
C 258.074315 182.420442 258.747001 184.044449 259.944222 185.24167 
C 261.141442 186.43889 262.76545 187.111576 264.458575 187.111576 
z
" style="fill:#3e4a89;"/>
    <path clip-path="url(#p83aac5d09a)" d="M 254.164933 232.625117 
C 256.063912 232.625117 257.885369 231.870645 259.228149 230.527864 
C 260.57093 229.185083 261.325402 227.363626 261.325402 225.464648 
C 261.325402 223.565669 260.57093 221.744212 259.228149 220.401431 
C 257.885369 219.058651 256.063912 218.304179 254.164933 218.304179 
C 252.265954 218.304179 250.444497 219.058651 249.101717 220.401431 
C 247.758936 221.744212 247.004464 223.565669 247.004464 225.464648 
C 247.004464 227.363626 247.758936 229.185083 249.101717 230.527864 
C 250.444497 231.870645 252.265954 232.625117 254.164933 232.625117 
z
" style="fill:#3b528b;"/>
    <path clip-path="url(#p83aac5d09a)" d="M 117.913961 99.435312 
C 119.709222 99.435312 121.431196 98.722047 122.700638 97.452605 
C 123.97008 96.183164 124.683345 94.46119 124.683345 92.665928 
C 124.683345 90.870666 123.97008 89.148692 122.700638 87.879251 
C 121.431196 86.609809 119.709222 85.896544 117.913961 85.896544 
C 116.118699 85.896544 114.396725 86.609809 113.127283 87.879251 
C 111.857842 89.148692 111.144577 90.870666 111.144577 92.665928 
C 111.144577 94.46119 111.857842 96.183164 113.127283 97.452605 
C 114.396725 98.722047 116.118699 99.435312 117.913961 99.435312 
z
" style="fill:#3e4a89;"/>
    <path clip-path="url(#p83aac5d09a)" d="M 146.416355 135.939692 
C 148.281471 135.939692 150.070448 135.198674 151.389284 133.879838 
C 152.70812 132.561001 153.449139 130.772024 153.449139 128.906908 
C 153.449139 127.041792 152.70812 125.252815 151.389284 123.933978 
C 150.070448 122.615142 148.281471 121.874124 146.416355 121.874124 
C 144.551238 121.874124 142.762261 122.615142 141.443425 123.933978 
C 140.124589 125.252815 139.38357 127.041792 139.38357 128.906908 
C 139.38357 130.772024 140.124589 132.561001 141.443425 133.879838 
C 142.762261 135.198674 144.551238 135.939692 146.416355 135.939692 
z
" style="fill:#453781;"/>
    <path clip-path="url(#p83aac5d09a)" d="M 201.451126 106.176909 
C 203.344465 106.176909 205.160512 105.424678 206.499305 104.085885 
C 207.838098 102.747092 208.590329 100.931045 208.590329 99.037706 
C 208.590329 97.144367 207.838098 95.32832 206.499305 93.989527 
C 205.160512 92.650734 203.344465 91.898503 201.451126 91.898503 
C 199.557787 91.898503 197.74174 92.650734 196.402947 93.989527 
C 195.064154 95.32832 194.311923 97.144367 194.311923 99.037706 
C 194.311923 100.931045 195.064154 102.747092 196.402947 104.085885 
C 197.74174 105.424678 199.557787 106.176909 201.451126 106.176909 
z
" style="fill:#404588;"/>
    <path clip-path="url(#p83aac5d09a)" d="M 253.392052 124.37769 
C 255.07577 124.37769 256.690754 123.708742 257.881322 122.518174 
C 259.071891 121.327605 259.740839 119.712621 259.740839 118.028903 
C 259.740839 116.345185 259.071891 114.730201 257.881322 113.539632 
C 256.690754 112.349064 255.07577 111.680116 253.392052 111.680116 
C 251.708333 111.680116 250.093349 112.349064 248.902781 113.539632 
C 247.712212 114.730201 247.043264 116.345185 247.043264 118.028903 
C 247.043264 119.712621 247.712212 121.327605 248.902781 122.518174 
C 250.093349 123.708742 251.708333 124.37769 253.392052 124.37769 
z
" style="fill:#472e7c;"/>
    <path clip-path="url(#p83aac5d09a)" d="M 134.189244 138.896523 
C 135.891356 138.896523 137.523983 138.220267 138.727558 137.016692 
C 139.931133 135.813117 140.607389 134.18049 140.607389 132.478378 
C 140.607389 130.776266 139.931133 129.143639 138.727558 127.940064 
C 137.523983 126.736489 135.891356 126.060232 134.189244 126.060232 
C 132.487132 126.060232 130.854505 126.736489 129.65093 127.940064 
C 128.447355 129.143639 127.771098 130.776266 127.771098 132.478378 
C 127.771098 134.18049 128.447355 135.813117 129.65093 137.016692 
C 130.854505 138.220267 132.487132 138.896523 134.189244 138.896523 
z
" style="fill:#424186;"/>
    <path clip-path="url(#p83aac5d09a)" d="M 152.881926 194.251343 
C 154.71462 194.251343 156.472499 193.523206 157.76841 192.227295 
C 159.064321 190.931384 159.792458 189.173505 159.792458 187.340811 
C 159.792458 185.508116 159.064321 183.750237 157.76841 182.454327 
C 156.472499 181.158416 154.71462 180.430279 152.881926 180.430279 
C 151.049231 180.430279 149.291352 181.158416 147.995442 182.454327 
C 146.699531 183.750237 145.971394 185.508116 145.971394 187.340811 
C 145.971394 189.173505 146.699531 190.931384 147.995442 192.227295 
C 149.291352 193.523206 151.049231 194.251343 152.881926 194.251343 
z
" style="fill:#450457;"/>
    <path clip-path="url(#p83aac5d09a)" d="M 196.422674 239.328236 
C 198.282005 239.328236 200.065434 238.589516 201.38018 237.27477 
C 202.694926 235.960024 203.433646 234.176596 203.433646 232.317264 
C 203.433646 230.457933 202.694926 228.674504 201.38018 227.359758 
C 200.065434 226.045012 198.282005 225.306292 196.422674 225.306292 
C 194.563342 225.306292 192.779914 226.045012 191.465168 227.359758 
C 190.150422 228.674504 189.411701 230.457933 189.411701 232.317264 
C 189.411701 234.176596 190.150422 235.960024 191.465168 237.27477 
C 192.779914 238.589516 194.563342 239.328236 196.422674 239.328236 
z
" style="fill:#472f7d;"/>
    <path clip-path="url(#p83aac5d09a)" d="M 176.734473 65.920049 
C 178.50063 65.920049 180.194687 65.218348 181.443548 63.969487 
C 182.692409 62.720625 183.39411 61.026568 183.39411 59.260412 
C 183.39411 57.494256 182.692409 55.800199 181.443548 54.551337 
C 180.194687 53.302476 178.50063 52.600775 176.734473 52.600775 
C 174.968317 52.600775 173.27426 53.302476 172.025399 54.551337 
C 170.776537 55.800199 170.074836 57.494256 170.074836 59.260412 
C 170.074836 61.026568 170.776537 62.720625 172.025399 63.969487 
C 173.27426 65.218348 174.968317 65.920049 176.734473 65.920049 
z
" style="fill:#482071;"/>
   </g>
   <g id="text_1">
    <!-- Structure #3304, $E_N$=-183.22eV, ΔE=-0.16eV -->
    <defs>
     <path d="M 53.515625 70.515625 
L 53.515625 60.890625 
Q 47.90625 63.578125 42.921875 64.890625 
Q 37.9375 66.21875 33.296875 66.21875 
Q 25.25 66.21875 20.875 63.09375 
Q 16.5 59.96875 16.5 54.203125 
Q 16.5 49.359375 19.40625 46.890625 
Q 22.3125 44.4375 30.421875 42.921875 
L 36.375 41.703125 
Q 47.40625 39.59375 52.65625 34.296875 
Q 57.90625 29 57.90625 20.125 
Q 57.90625 9.515625 50.796875 4.046875 
Q 43.703125 -1.421875 29.984375 -1.421875 
Q 24.8125 -1.421875 18.96875 -0.25 
Q 13.140625 0.921875 6.890625 3.21875 
L 6.890625 13.375 
Q 12.890625 10.015625 18.65625 8.296875 
Q 24.421875 6.59375 29.984375 6.59375 
Q 38.421875 6.59375 43.015625 9.90625 
Q 47.609375 13.234375 47.609375 19.390625 
Q 47.609375 24.75 44.3125 27.78125 
Q 41.015625 30.8125 33.5 32.328125 
L 27.484375 33.5 
Q 16.453125 35.6875 11.515625 40.375 
Q 6.59375 45.0625 6.59375 53.421875 
Q 6.59375 63.09375 13.40625 68.65625 
Q 20.21875 74.21875 32.171875 74.21875 
Q 37.3125 74.21875 42.625 73.28125 
Q 47.953125 72.359375 53.515625 70.515625 
z
" id="DejaVuSans-53"/>
     <path d="M 18.3125 70.21875 
L 18.3125 54.6875 
L 36.8125 54.6875 
L 36.8125 47.703125 
L 18.3125 47.703125 
L 18.3125 18.015625 
Q 18.3125 11.328125 20.140625 9.421875 
Q 21.96875 7.515625 27.59375 7.515625 
L 36.8125 7.515625 
L 36.8125 0 
L 27.59375 0 
Q 17.1875 0 13.234375 3.875 
Q 9.28125 7.765625 9.28125 18.015625 
L 9.28125 47.703125 
L 2.6875 47.703125 
L 2.6875 54.6875 
L 9.28125 54.6875 
L 9.28125 70.21875 
z
" id="DejaVuSans-74"/>
     <path d="M 41.109375 46.296875 
Q 39.59375 47.171875 37.8125 47.578125 
Q 36.03125 48 33.890625 48 
Q 26.265625 48 22.1875 43.046875 
Q 18.109375 38.09375 18.109375 28.8125 
L 18.109375 0 
L 9.078125 0 
L 9.078125 54.6875 
L 18.109375 54.6875 
L 18.109375 46.1875 
Q 20.953125 51.171875 25.484375 53.578125 
Q 30.03125 56 36.53125 56 
Q 37.453125 56 38.578125 55.875 
Q 39.703125 55.765625 41.0625 55.515625 
z
" id="DejaVuSans-72"/>
     <path d="M 8.5 21.578125 
L 8.5 54.6875 
L 17.484375 54.6875 
L 17.484375 21.921875 
Q 17.484375 14.15625 20.5 10.265625 
Q 23.53125 6.390625 29.59375 6.390625 
Q 36.859375 6.390625 41.078125 11.03125 
Q 45.3125 15.671875 45.3125 23.6875 
L 45.3125 54.6875 
L 54.296875 54.6875 
L 54.296875 0 
L 45.3125 0 
L 45.3125 8.40625 
Q 42.046875 3.421875 37.71875 1 
Q 33.40625 -1.421875 27.6875 -1.421875 
Q 18.265625 -1.421875 13.375 4.4375 
Q 8.5 10.296875 8.5 21.578125 
z
M 31.109375 56 
z
" id="DejaVuSans-75"/>
     <path d="M 48.78125 52.59375 
L 48.78125 44.1875 
Q 44.96875 46.296875 41.140625 47.34375 
Q 37.3125 48.390625 33.40625 48.390625 
Q 24.65625 48.390625 19.8125 42.84375 
Q 14.984375 37.3125 14.984375 27.296875 
Q 14.984375 17.28125 19.8125 11.734375 
Q 24.65625 6.203125 33.40625 6.203125 
Q 37.3125 6.203125 41.140625 7.25 
Q 44.96875 8.296875 48.78125 10.40625 
L 48.78125 2.09375 
Q 45.015625 0.34375 40.984375 -0.53125 
Q 36.96875 -1.421875 32.421875 -1.421875 
Q 20.0625 -1.421875 12.78125 6.34375 
Q 5.515625 14.109375 5.515625 27.296875 
Q 5.515625 40.671875 12.859375 48.328125 
Q 20.21875 56 33.015625 56 
Q 37.15625 56 41.109375 55.140625 
Q 45.0625 54.296875 48.78125 52.59375 
z
" id="DejaVuSans-63"/>
     <path d="M 56.203125 29.59375 
L 56.203125 25.203125 
L 14.890625 25.203125 
Q 15.484375 15.921875 20.484375 11.0625 
Q 25.484375 6.203125 34.421875 6.203125 
Q 39.59375 6.203125 44.453125 7.46875 
Q 49.3125 8.734375 54.109375 11.28125 
L 54.109375 2.78125 
Q 49.265625 0.734375 44.1875 -0.34375 
Q 39.109375 -1.421875 33.890625 -1.421875 
Q 20.796875 -1.421875 13.15625 6.1875 
Q 5.515625 13.8125 5.515625 26.8125 
Q 5.515625 40.234375 12.765625 48.109375 
Q 20.015625 56 32.328125 56 
Q 43.359375 56 49.78125 48.890625 
Q 56.203125 41.796875 56.203125 29.59375 
z
M 47.21875 32.234375 
Q 47.125 39.59375 43.09375 43.984375 
Q 39.0625 48.390625 32.421875 48.390625 
Q 24.90625 48.390625 20.390625 44.140625 
Q 15.875 39.890625 15.1875 32.171875 
z
" id="DejaVuSans-65"/>
     <path id="DejaVuSans-20"/>
     <path d="M 51.125 44 
L 36.921875 44 
L 32.8125 27.6875 
L 47.125 27.6875 
z
M 43.796875 71.78125 
L 38.71875 51.515625 
L 52.984375 51.515625 
L 58.109375 71.78125 
L 65.921875 71.78125 
L 60.890625 51.515625 
L 76.125 51.515625 
L 76.125 44 
L 58.984375 44 
L 54.984375 27.6875 
L 70.515625 27.6875 
L 70.515625 20.21875 
L 53.078125 20.21875 
L 48 0 
L 40.1875 0 
L 45.21875 20.21875 
L 30.90625 20.21875 
L 25.875 0 
L 18.015625 0 
L 23.09375 20.21875 
L 7.71875 20.21875 
L 7.71875 27.6875 
L 24.90625 27.6875 
L 29 44 
L 13.28125 44 
L 13.28125 51.515625 
L 30.90625 51.515625 
L 35.890625 71.78125 
z
" id="DejaVuSans-23"/>
     <path d="M 40.578125 39.3125 
Q 47.65625 37.796875 51.625 33 
Q 55.609375 28.21875 55.609375 21.1875 
Q 55.609375 10.40625 48.1875 4.484375 
Q 40.765625 -1.421875 27.09375 -1.421875 
Q 22.515625 -1.421875 17.65625 -0.515625 
Q 12.796875 0.390625 7.625 2.203125 
L 7.625 11.71875 
Q 11.71875 9.328125 16.59375 8.109375 
Q 21.484375 6.890625 26.8125 6.890625 
Q 36.078125 6.890625 40.9375 10.546875 
Q 45.796875 14.203125 45.796875 21.1875 
Q 45.796875 27.640625 41.28125 31.265625 
Q 36.765625 34.90625 28.71875 34.90625 
L 20.21875 34.90625 
L 20.21875 43.015625 
L 29.109375 43.015625 
Q 36.375 43.015625 40.234375 45.921875 
Q 44.09375 48.828125 44.09375 54.296875 
Q 44.09375 59.90625 40.109375 62.90625 
Q 36.140625 65.921875 28.71875 65.921875 
Q 24.65625 65.921875 20.015625 65.03125 
Q 15.375 64.15625 9.8125 62.3125 
L 9.8125 71.09375 
Q 15.4375 72.65625 20.34375 73.4375 
Q 25.25 74.21875 29.59375 74.21875 
Q 40.828125 74.21875 47.359375 69.109375 
Q 53.90625 64.015625 53.90625 55.328125 
Q 53.90625 49.265625 50.4375 45.09375 
Q 46.96875 40.921875 40.578125 39.3125 
z
" id="DejaVuSans-33"/>
     <path d="M 31.78125 66.40625 
Q 24.171875 66.40625 20.328125 58.90625 
Q 16.5 51.421875 16.5 36.375 
Q 16.5 21.390625 20.328125 13.890625 
Q 24.171875 6.390625 31.78125 6.390625 
Q 39.453125 6.390625 43.28125 13.890625 
Q 47.125 21.390625 47.125 36.375 
Q 47.125 51.421875 43.28125 58.90625 
Q 39.453125 66.40625 31.78125 66.40625 
z
M 31.78125 74.21875 
Q 44.046875 74.21875 50.515625 64.515625 
Q 56.984375 54.828125 56.984375 36.375 
Q 56.984375 17.96875 50.515625 8.265625 
Q 44.046875 -1.421875 31.78125 -1.421875 
Q 19.53125 -1.421875 13.0625 8.265625 
Q 6.59375 17.96875 6.59375 36.375 
Q 6.59375 54.828125 13.0625 64.515625 
Q 19.53125 74.21875 31.78125 74.21875 
z
" id="DejaVuSans-30"/>
     <path d="M 37.796875 64.3125 
L 12.890625 25.390625 
L 37.796875 25.390625 
z
M 35.203125 72.90625 
L 47.609375 72.90625 
L 47.609375 25.390625 
L 58.015625 25.390625 
L 58.015625 17.1875 
L 47.609375 17.1875 
L 47.609375 0 
L 37.796875 0 
L 37.796875 17.1875 
L 4.890625 17.1875 
L 4.890625 26.703125 
z
" id="DejaVuSans-34"/>
     <path d="M 11.71875 12.40625 
L 22.015625 12.40625 
L 22.015625 4 
L 14.015625 -11.625 
L 7.71875 -11.625 
L 11.71875 4 
z
" id="DejaVuSans-2c"/>
     <path d="M 16.890625 72.90625 
L 62.984375 72.90625 
L 61.375 64.59375 
L 25.09375 64.59375 
L 20.90625 43.015625 
L 55.71875 43.015625 
L 54.109375 34.71875 
L 19.28125 34.71875 
L 14.203125 8.296875 
L 51.3125 8.296875 
L 49.703125 0 
L 2.6875 0 
z
" id="DejaVuSans-Oblique-45"/>
     <path d="M 16.890625 72.90625 
L 30.171875 72.90625 
L 50.296875 10.40625 
L 62.5 72.90625 
L 72.125 72.90625 
L 57.90625 0 
L 44.578125 0 
L 24.515625 62.890625 
L 12.3125 0 
L 2.6875 0 
z
" id="DejaVuSans-Oblique-4e"/>
     <path d="M 10.59375 45.40625 
L 73.1875 45.40625 
L 73.1875 37.203125 
L 10.59375 37.203125 
z
M 10.59375 25.484375 
L 73.1875 25.484375 
L 73.1875 17.1875 
L 10.59375 17.1875 
z
" id="DejaVuSans-3d"/>
     <path d="M 4.890625 31.390625 
L 31.203125 31.390625 
L 31.203125 23.390625 
L 4.890625 23.390625 
z
" id="DejaVuSans-2d"/>
     <path d="M 12.40625 8.296875 
L 28.515625 8.296875 
L 28.515625 63.921875 
L 10.984375 60.40625 
L 10.984375 69.390625 
L 28.421875 72.90625 
L 38.28125 72.90625 
L 38.28125 8.296875 
L 54.390625 8.296875 
L 54.390625 0 
L 12.40625 0 
z
" id="DejaVuSans-31"/>
     <path d="M 31.78125 34.625 
Q 24.75 34.625 20.71875 30.859375 
Q 16.703125 27.09375 16.703125 20.515625 
Q 16.703125 13.921875 20.71875 10.15625 
Q 24.75 6.390625 31.78125 6.390625 
Q 38.8125 6.390625 42.859375 10.171875 
Q 46.921875 13.96875 46.921875 20.515625 
Q 46.921875 27.09375 42.890625 30.859375 
Q 38.875 34.625 31.78125 34.625 
z
M 21.921875 38.8125 
Q 15.578125 40.375 12.03125 44.71875 
Q 8.5 49.078125 8.5 55.328125 
Q 8.5 64.0625 14.71875 69.140625 
Q 20.953125 74.21875 31.78125 74.21875 
Q 42.671875 74.21875 48.875 69.140625 
Q 55.078125 64.0625 55.078125 55.328125 
Q 55.078125 49.078125 51.53125 44.71875 
Q 48 40.375 41.703125 38.8125 
Q 48.828125 37.15625 52.796875 32.3125 
Q 56.78125 27.484375 56.78125 20.515625 
Q 56.78125 9.90625 50.3125 4.234375 
Q 43.84375 -1.421875 31.78125 -1.421875 
Q 19.734375 -1.421875 13.25 4.234375 
Q 6.78125 9.90625 6.78125 20.515625 
Q 6.78125 27.484375 10.78125 32.3125 
Q 14.796875 37.15625 21.921875 38.8125 
z
M 18.3125 54.390625 
Q 18.3125 48.734375 21.84375 45.5625 
Q 25.390625 42.390625 31.78125 42.390625 
Q 38.140625 42.390625 41.71875 45.5625 
Q 45.3125 48.734375 45.3125 54.390625 
Q 45.3125 60.0625 41.71875 63.234375 
Q 38.140625 66.40625 31.78125 66.40625 
Q 25.390625 66.40625 21.84375 63.234375 
Q 18.3125 60.0625 18.3125 54.390625 
z
" id="DejaVuSans-38"/>
     <path d="M 10.6875 12.40625 
L 21 12.40625 
L 21 0 
L 10.6875 0 
z
" id="DejaVuSans-2e"/>
     <path d="M 19.1875 8.296875 
L 53.609375 8.296875 
L 53.609375 0 
L 7.328125 0 
L 7.328125 8.296875 
Q 12.9375 14.109375 22.625 23.890625 
Q 32.328125 33.6875 34.8125 36.53125 
Q 39.546875 41.84375 41.421875 45.53125 
Q 43.3125 49.21875 43.3125 52.78125 
Q 43.3125 58.59375 39.234375 62.25 
Q 35.15625 65.921875 28.609375 65.921875 
Q 23.96875 65.921875 18.8125 64.3125 
Q 13.671875 62.703125 7.8125 59.421875 
L 7.8125 69.390625 
Q 13.765625 71.78125 18.9375 73 
Q 24.125 74.21875 28.421875 74.21875 
Q 39.75 74.21875 46.484375 68.546875 
Q 53.21875 62.890625 53.21875 53.421875 
Q 53.21875 48.921875 51.53125 44.890625 
Q 49.859375 40.875 45.40625 35.40625 
Q 44.1875 33.984375 37.640625 27.21875 
Q 31.109375 20.453125 19.1875 8.296875 
z
" id="DejaVuSans-32"/>
     <path d="M 28.609375 0 
L 0.78125 72.90625 
L 11.078125 72.90625 
L 34.1875 11.53125 
L 57.328125 72.90625 
L 67.578125 72.90625 
L 39.796875 0 
z
" id="DejaVuSans-56"/>
     <path d="M 34.1875 63.1875 
L 14.15625 8.203125 
L 54.25 8.203125 
z
M 0.78125 0 
L 28.609375 72.90625 
L 39.796875 72.90625 
L 67.578125 0 
z
" id="DejaVuSans-394"/>
     <path d="M 9.8125 72.90625 
L 55.90625 72.90625 
L 55.90625 64.59375 
L 19.671875 64.59375 
L 19.671875 43.015625 
L 54.390625 43.015625 
L 54.390625 34.71875 
L 19.671875 34.71875 
L 19.671875 8.296875 
L 56.78125 8.296875 
L 56.78125 0 
L 9.8125 0 
z
" id="DejaVuSans-45"/>
     <path d="M 33.015625 40.375 
Q 26.375 40.375 22.484375 35.828125 
Q 18.609375 31.296875 18.609375 23.390625 
Q 18.609375 15.53125 22.484375 10.953125 
Q 26.375 6.390625 33.015625 6.390625 
Q 39.65625 6.390625 43.53125 10.953125 
Q 47.40625 15.53125 47.40625 23.390625 
Q 47.40625 31.296875 43.53125 35.828125 
Q 39.65625 40.375 33.015625 40.375 
z
M 52.59375 71.296875 
L 52.59375 62.3125 
Q 48.875 64.0625 45.09375 64.984375 
Q 41.3125 65.921875 37.59375 65.921875 
Q 27.828125 65.921875 22.671875 59.328125 
Q 17.53125 52.734375 16.796875 39.40625 
Q 19.671875 43.65625 24.015625 45.921875 
Q 28.375 48.1875 33.59375 48.1875 
Q 44.578125 48.1875 50.953125 41.515625 
Q 57.328125 34.859375 57.328125 23.390625 
Q 57.328125 12.15625 50.6875 5.359375 
Q 44.046875 -1.421875 33.015625 -1.421875 
Q 20.359375 -1.421875 13.671875 8.265625 
Q 6.984375 17.96875 6.984375 36.375 
Q 6.984375 53.65625 15.1875 63.9375 
Q 23.390625 74.21875 37.203125 74.21875 
Q 40.921875 74.21875 44.703125 73.484375 
Q 48.484375 72.75 52.59375 71.296875 
z
" id="DejaVuSans-36"/>
    </defs>
    <g transform="translate(63.228 35.472)scale(0.12 -0.12)">
     <use transform="translate(0 0.78125)" xlink:href="#DejaVuSans-53"/>
     <use transform="translate(63.476562 0.78125)" xlink:href="#DejaVuSans-74"/>
     <use transform="translate(102.685547 0.78125)" xlink:href="#DejaVuSans-72"/>
     <use transform="translate(143.798828 0.78125)" xlink:href="#DejaVuSans-75"/>
     <use transform="translate(207.177734 0.78125)" xlink:href="#DejaVuSans-63"/>
     <use transform="translate(262.158203 0.78125)" xlink:href="#DejaVuSans-74"/>
     <use transform="translate(301.367188 0.78125)" xlink:href="#DejaVuSans-75"/>
     <use transform="translate(364.746094 0.78125)" xlink:href="#DejaVuSans-72"/>
     <use transform="translate(405.859375 0.78125)" xlink:href="#DejaVuSans-65"/>
     <use transform="translate(467.382812 0.78125)" xlink:href="#DejaVuSans-20"/>
     <use transform="translate(499.169922 0.78125)" xlink:href="#DejaVuSans-23"/>
     <use transform="translate(582.958984 0.78125)" xlink:href="#DejaVuSans-33"/>
     <use transform="translate(646.582031 0.78125)" xlink:href="#DejaVuSans-33"/>
     <use transform="translate(710.205078 0.78125)" xlink:href="#DejaVuSans-30"/>
     <use transform="translate(773.828125 0.78125)" xlink:href="#DejaVuSans-34"/>
     <use transform="translate(837.451172 0.78125)" xlink:href="#DejaVuSans-2c"/>
     <use transform="translate(869.238281 0.78125)" xlink:href="#DejaVuSans-20"/>
     <use transform="translate(901.025391 0.78125)" xlink:href="#DejaVuSans-Oblique-45"/>
     <use transform="translate(964.208984 -15.625)scale(0.7)" xlink:href="#DejaVuSans-Oblique-4e"/>
     <use transform="translate(1019.306641 0.78125)" xlink:href="#DejaVuSans-3d"/>
     <use transform="translate(1103.095703 0.78125)" xlink:href="#DejaVuSans-2d"/>
     <use transform="translate(1139.179688 0.78125)" xlink:href="#DejaVuSans-31"/>
     <use transform="translate(1202.802734 0.78125)" xlink:href="#DejaVuSans-38"/>
     <use transform="translate(1266.425781 0.78125)" xlink:href="#DejaVuSans-33"/>
     <use transform="translate(1330.048828 0.78125)" xlink:href="#DejaVuSans-2e"/>
     <use transform="translate(1361.757812 0.78125)" xlink:href="#DejaVuSans-32"/>
     <use transform="translate(1425.380859 0.78125)" xlink:href="#DejaVuSans-32"/>
     <use transform="translate(1489.003906 0.78125)" xlink:href="#DejaVuSans-65"/>
     <use transform="translate(1550.527344 0.78125)" xlink:href="#DejaVuSans-56"/>
     <use transform="translate(1618.935547 0.78125)" xlink:href="#DejaVuSans-2c"/>
     <use transform="translate(1650.722656 0.78125)" xlink:href="#DejaVuSans-20"/>
     <use transform="translate(1682.509766 0.78125)" xlink:href="#DejaVuSans-394"/>
     <use transform="translate(1750.917969 0.78125)" xlink:href="#DejaVuSans-45"/>
     <use transform="translate(1814.101562 0.78125)" xlink:href="#DejaVuSans-3d"/>
     <use transform="translate(1897.890625 0.78125)" xlink:href="#DejaVuSans-2d"/>
     <use transform="translate(1933.974609 0.78125)" xlink:href="#DejaVuSans-30"/>
     <use transform="translate(1997.597656 0.78125)" xlink:href="#DejaVuSans-2e"/>
     <use transform="translate(2029.384766 0.78125)" xlink:href="#DejaVuSans-31"/>
     <use transform="translate(2093.007812 0.78125)" xlink:href="#DejaVuSans-36"/>
     <use transform="translate(2156.630859 0.78125)" xlink:href="#DejaVuSans-65"/>
     <use transform="translate(2218.154297 0.78125)" xlink:href="#DejaVuSans-56"/>
    </g>
   </g>
  </g>
  <g id="axes_2">
   <g id="patch_2">
    <path clip-path="url(#p4c371a5fe7)" d="M 361.152 307.584 
L 361.152 306.5445 
L 361.152 42.5115 
L 361.152 41.472 
L 374.4576 41.472 
L 374.4576 42.5115 
L 374.4576 306.5445 
L 374.4576 307.584 
z
" style="fill:#ffffff;stroke:#ffffff;stroke-linejoin:miter;stroke-width:0.01;"/>
   </g>
   <image height="265.68" id="imagedb7003fe30" transform="scale(1 -1)translate(0 -265.68)" width="12.96" x="361.44" xlink:href="data:image/png;base64,
iVBORw0KGgoAAAANSUhEUgAAABIAAAFxCAYAAAB+2fgXAAAABHNCSVQICAgIfAhkiAAAAeVJREFUeJztncmNw0AQA2ckheYQNv9QLIfQ8ygsCgQ7AEI8+jAs2Puz/94F1LP2ReCsZ18bAWIeZ5XaGRBE7VnbptG+KI101FYyNSiQG2oRITXKNaX9uclOdi2XWjftVE32CZCO2ou5Bj1TcCBr/1zB9ge7Fq0Rg2NM9pvbtG+ua1QgsRYhDy0ISEiNc40BEibbSI0Coj5CBGtkpFbXJiAjNZlrwhuSOv2M1DjXbEdEciBt1JSDDQKKpmZr2rr2j0DBGpXaWEJq3bQzEPIS26r9J+Wzv9Tm8o3aajRXqc3VUXsApKNWjeZq0x4ABVNbm7lrszVigDqP5vIl2+eaT2yfRkL7g+dRcNPqjohkjaCvRVBq0H2U3LQrOJCx9kdTg4B8oxZzzTdqdYHEngjUCAPyUctN9sVRq2sTECW2UKNLd2jVtRmo1A6AhMmWaSRcR8nUdIHUuVb75zJS218EyEitro1At69pIdeSk30Lkw0FktNImGyZRhy1O5galmxd03LUsHWk06jUZiCq+5Wb1kZNN4+wJxJuWt8RAW5am2sYNZ9rYCBzZ3buPKJ2P5Yj4Toy3keyIyJbIxs1rml1byCA84gpch5RQNB7Q0qNMGq2Hy4BXdNR41yz/cEEJfZzUz96r9PoB0okjeQ8y9TkAAAAAElFTkSuQmCC" y="-41.76"/>
   <g id="matplotlib.axis_1"/>
   <g id="matplotlib.axis_2">
    <g id="ytick_1">
     <g id="line2d_1">
      <defs>
       <path d="M 0 0 
L 3.5 0 
" id="m70052dce80" style="stroke:#000000;stroke-width:0.8;"/>
      </defs>
      <g>
       <use style="stroke:#000000;stroke-width:0.8;" x="374.4576" xlink:href="#m70052dce80" y="297.253969"/>
      </g>
     </g>
     <g id="text_2">
      <!-- −8.00 -->
      <defs>
       <path d="M 10.59375 35.5 
L 73.1875 35.5 
L 73.1875 27.203125 
L 10.59375 27.203125 
z
" id="DejaVuSans-2212"/>
      </defs>
      <g transform="translate(381.4576 301.053188)scale(0.1 -0.1)">
       <use xlink:href="#DejaVuSans-2212"/>
       <use x="83.789062" xlink:href="#DejaVuSans-38"/>
       <use x="147.412109" xlink:href="#DejaVuSans-2e"/>
       <use x="179.199219" xlink:href="#DejaVuSans-30"/>
       <use x="242.822266" xlink:href="#DejaVuSans-30"/>
      </g>
     </g>
    </g>
    <g id="ytick_2">
     <g id="line2d_2">
      <g>
       <use style="stroke:#000000;stroke-width:0.8;" x="374.4576" xlink:href="#m70052dce80" y="267.329161"/>
      </g>
     </g>
     <g id="text_3">
      <!-- −7.75 -->
      <defs>
       <path d="M 8.203125 72.90625 
L 55.078125 72.90625 
L 55.078125 68.703125 
L 28.609375 0 
L 18.3125 0 
L 43.21875 64.59375 
L 8.203125 64.59375 
z
" id="DejaVuSans-37"/>
       <path d="M 10.796875 72.90625 
L 49.515625 72.90625 
L 49.515625 64.59375 
L 19.828125 64.59375 
L 19.828125 46.734375 
Q 21.96875 47.46875 24.109375 47.828125 
Q 26.265625 48.1875 28.421875 48.1875 
Q 40.625 48.1875 47.75 41.5 
Q 54.890625 34.8125 54.890625 23.390625 
Q 54.890625 11.625 47.5625 5.09375 
Q 40.234375 -1.421875 26.90625 -1.421875 
Q 22.3125 -1.421875 17.546875 -0.640625 
Q 12.796875 0.140625 7.71875 1.703125 
L 7.71875 11.625 
Q 12.109375 9.234375 16.796875 8.0625 
Q 21.484375 6.890625 26.703125 6.890625 
Q 35.15625 6.890625 40.078125 11.328125 
Q 45.015625 15.765625 45.015625 23.390625 
Q 45.015625 31 40.078125 35.4375 
Q 35.15625 39.890625 26.703125 39.890625 
Q 22.75 39.890625 18.8125 39.015625 
Q 14.890625 38.140625 10.796875 36.28125 
z
" id="DejaVuSans-35"/>
      </defs>
      <g transform="translate(381.4576 271.12838)scale(0.1 -0.1)">
       <use xlink:href="#DejaVuSans-2212"/>
       <use x="83.789062" xlink:href="#DejaVuSans-37"/>
       <use x="147.412109" xlink:href="#DejaVuSans-2e"/>
       <use x="179.199219" xlink:href="#DejaVuSans-37"/>
       <use x="242.822266" xlink:href="#DejaVuSans-35"/>
      </g>
     </g>
    </g>
    <g id="ytick_3">
     <g id="line2d_3">
      <g>
       <use style="stroke:#000000;stroke-width:0.8;" x="374.4576" xlink:href="#m70052dce80" y="237.404354"/>
      </g>
     </g>
     <g id="text_4">
      <!-- −7.50 -->
      <g transform="translate(381.4576 241.203572)scale(0.1 -0.1)">
       <use xlink:href="#DejaVuSans-2212"/>
       <use x="83.789062" xlink:href="#DejaVuSans-37"/>
       <use x="147.412109" xlink:href="#DejaVuSans-2e"/>
       <use x="179.199219" xlink:href="#DejaVuSans-35"/>
       <use x="242.822266" xlink:href="#DejaVuSans-30"/>
      </g>
     </g>
    </g>
    <g id="ytick_4">
     <g id="line2d_4">
      <g>
       <use style="stroke:#000000;stroke-width:0.8;" x="374.4576" xlink:href="#m70052dce80" y="207.479546"/>
      </g>
     </g>
     <g id="text_5">
      <!-- −7.25 -->
      <g transform="translate(381.4576 211.278765)scale(0.1 -0.1)">
       <use xlink:href="#DejaVuSans-2212"/>
       <use x="83.789062" xlink:href="#DejaVuSans-37"/>
       <use x="147.412109" xlink:href="#DejaVuSans-2e"/>
       <use x="179.199219" xlink:href="#DejaVuSans-32"/>
       <use x="242.822266" xlink:href="#DejaVuSans-35"/>
      </g>
     </g>
    </g>
    <g id="ytick_5">
     <g id="line2d_5">
      <g>
       <use style="stroke:#000000;stroke-width:0.8;" x="374.4576" xlink:href="#m70052dce80" y="177.554738"/>
      </g>
     </g>
     <g id="text_6">
      <!-- −7.00 -->
      <g transform="translate(381.4576 181.353957)scale(0.1 -0.1)">
       <use xlink:href="#DejaVuSans-2212"/>
       <use x="83.789062" xlink:href="#DejaVuSans-37"/>
       <use x="147.412109" xlink:href="#DejaVuSans-2e"/>
       <use x="179.199219" xlink:href="#DejaVuSans-30"/>
       <use x="242.822266" xlink:href="#DejaVuSans-30"/>
      </g>
     </g>
    </g>
    <g id="ytick_6">
     <g id="line2d_6">
      <g>
       <use style="stroke:#000000;stroke-width:0.8;" x="374.4576" xlink:href="#m70052dce80" y="147.629931"/>
      </g>
     </g>
     <g id="text_7">
      <!-- −6.75 -->
      <g transform="translate(381.4576 151.42915)scale(0.1 -0.1)">
       <use xlink:href="#DejaVuSans-2212"/>
       <use x="83.789062" xlink:href="#DejaVuSans-36"/>
       <use x="147.412109" xlink:href="#DejaVuSans-2e"/>
       <use x="179.199219" xlink:href="#DejaVuSans-37"/>
       <use x="242.822266" xlink:href="#DejaVuSans-35"/>
      </g>
     </g>
    </g>
    <g id="ytick_7">
     <g id="line2d_7">
      <g>
       <use style="stroke:#000000;stroke-width:0.8;" x="374.4576" xlink:href="#m70052dce80" y="117.705123"/>
      </g>
     </g>
     <g id="text_8">
      <!-- −6.50 -->
      <g transform="translate(381.4576 121.504342)scale(0.1 -0.1)">
       <use xlink:href="#DejaVuSans-2212"/>
       <use x="83.789062" xlink:href="#DejaVuSans-36"/>
       <use x="147.412109" xlink:href="#DejaVuSans-2e"/>
       <use x="179.199219" xlink:href="#DejaVuSans-35"/>
       <use x="242.822266" xlink:href="#DejaVuSans-30"/>
      </g>
     </g>
    </g>
    <g id="ytick_8">
     <g id="line2d_8">
      <g>
       <use style="stroke:#000000;stroke-width:0.8;" x="374.4576" xlink:href="#m70052dce80" y="87.780316"/>
      </g>
     </g>
     <g id="text_9">
      <!-- −6.25 -->
      <g transform="translate(381.4576 91.579534)scale(0.1 -0.1)">
       <use xlink:href="#DejaVuSans-2212"/>
       <use x="83.789062" xlink:href="#DejaVuSans-36"/>
       <use x="147.412109" xlink:href="#DejaVuSans-2e"/>
       <use x="179.199219" xlink:href="#DejaVuSans-32"/>
       <use x="242.822266" xlink:href="#DejaVuSans-35"/>
      </g>
     </g>
    </g>
    <g id="ytick_9">
     <g id="line2d_9">
      <g>
       <use style="stroke:#000000;stroke-width:0.8;" x="374.4576" xlink:href="#m70052dce80" y="57.855508"/>
      </g>
     </g>
     <g id="text_10">
      <!-- −6.00 -->
      <g transform="translate(381.4576 61.654727)scale(0.1 -0.1)">
       <use xlink:href="#DejaVuSans-2212"/>
       <use x="83.789062" xlink:href="#DejaVuSans-36"/>
       <use x="147.412109" xlink:href="#DejaVuSans-2e"/>
       <use x="179.199219" xlink:href="#DejaVuSans-30"/>
       <use x="242.822266" xlink:href="#DejaVuSans-30"/>
      </g>
     </g>
    </g>
    <g id="text_11">
     <!-- Energy [eV] -->
     <defs>
      <path d="M 54.890625 33.015625 
L 54.890625 0 
L 45.90625 0 
L 45.90625 32.71875 
Q 45.90625 40.484375 42.875 44.328125 
Q 39.84375 48.1875 33.796875 48.1875 
Q 26.515625 48.1875 22.3125 43.546875 
Q 18.109375 38.921875 18.109375 30.90625 
L 18.109375 0 
L 9.078125 0 
L 9.078125 54.6875 
L 18.109375 54.6875 
L 18.109375 46.1875 
Q 21.34375 51.125 25.703125 53.5625 
Q 30.078125 56 35.796875 56 
Q 45.21875 56 50.046875 50.171875 
Q 54.890625 44.34375 54.890625 33.015625 
z
" id="DejaVuSans-6e"/>
      <path d="M 45.40625 27.984375 
Q 45.40625 37.75 41.375 43.109375 
Q 37.359375 48.484375 30.078125 48.484375 
Q 22.859375 48.484375 18.828125 43.109375 
Q 14.796875 37.75 14.796875 27.984375 
Q 14.796875 18.265625 18.828125 12.890625 
Q 22.859375 7.515625 30.078125 7.515625 
Q 37.359375 7.515625 41.375 12.890625 
Q 45.40625 18.265625 45.40625 27.984375 
z
M 54.390625 6.78125 
Q 54.390625 -7.171875 48.1875 -13.984375 
Q 42 -20.796875 29.203125 -20.796875 
Q 24.46875 -20.796875 20.265625 -20.09375 
Q 16.0625 -19.390625 12.109375 -17.921875 
L 12.109375 -9.1875 
Q 16.0625 -11.328125 19.921875 -12.34375 
Q 23.78125 -13.375 27.78125 -13.375 
Q 36.625 -13.375 41.015625 -8.765625 
Q 45.40625 -4.15625 45.40625 5.171875 
L 45.40625 9.625 
Q 42.625 4.78125 38.28125 2.390625 
Q 33.9375 0 27.875 0 
Q 17.828125 0 11.671875 7.65625 
Q 5.515625 15.328125 5.515625 27.984375 
Q 5.515625 40.671875 11.671875 48.328125 
Q 17.828125 56 27.875 56 
Q 33.9375 56 38.28125 53.609375 
Q 42.625 51.21875 45.40625 46.390625 
L 45.40625 54.6875 
L 54.390625 54.6875 
z
" id="DejaVuSans-67"/>
      <path d="M 32.171875 -5.078125 
Q 28.375 -14.84375 24.75 -17.8125 
Q 21.140625 -20.796875 15.09375 -20.796875 
L 7.90625 -20.796875 
L 7.90625 -13.28125 
L 13.1875 -13.28125 
Q 16.890625 -13.28125 18.9375 -11.515625 
Q 21 -9.765625 23.484375 -3.21875 
L 25.09375 0.875 
L 2.984375 54.6875 
L 12.5 54.6875 
L 29.59375 11.921875 
L 46.6875 54.6875 
L 56.203125 54.6875 
z
" id="DejaVuSans-79"/>
      <path d="M 8.59375 75.984375 
L 29.296875 75.984375 
L 29.296875 69 
L 17.578125 69 
L 17.578125 -6.203125 
L 29.296875 -6.203125 
L 29.296875 -13.1875 
L 8.59375 -13.1875 
z
" id="DejaVuSans-5b"/>
      <path d="M 30.421875 75.984375 
L 30.421875 -13.1875 
L 9.71875 -13.1875 
L 9.71875 -6.203125 
L 21.390625 -6.203125 
L 21.390625 69 
L 9.71875 69 
L 9.71875 75.984375 
z
" id="DejaVuSans-5d"/>
     </defs>
     <g transform="translate(423.70135 204.108469)rotate(-90)scale(0.1 -0.1)">
      <use xlink:href="#DejaVuSans-45"/>
      <use x="63.183594" xlink:href="#DejaVuSans-6e"/>
      <use x="126.5625" xlink:href="#DejaVuSans-65"/>
      <use x="188.085938" xlink:href="#DejaVuSans-72"/>
      <use x="229.183594" xlink:href="#DejaVuSans-67"/>
      <use x="292.660156" xlink:href="#DejaVuSans-79"/>
      <use x="351.839844" xlink:href="#DejaVuSans-20"/>
      <use x="383.626953" xlink:href="#DejaVuSans-5b"/>
      <use x="422.640625" xlink:href="#DejaVuSans-65"/>
      <use x="484.164062" xlink:href="#DejaVuSans-56"/>
      <use x="552.572266" xlink:href="#DejaVuSans-5d"/>
     </g>
    </g>
   </g>
   <g id="patch_3">
    <path d="M 361.152 307.584 
L 361.152 306.5445 
L 361.152 42.5115 
L 361.152 41.472 
L 374.4576 41.472 
L 374.4576 42.5115 
L 374.4576 306.5445 
L 374.4576 307.584 
z
" style="fill:none;stroke:#000000;stroke-linejoin:miter;stroke-width:0.8;"/>
   </g>
  </g>
 </g>
 <defs>
  <clipPath id="p83aac5d09a">
   <rect height="266.112" width="285.696" x="57.6" y="41.472"/>
  </clipPath>
  <clipPath id="p4c371a5fe7">
   <rect height="266.112" width="13.3056" x="361.152" y="41.472"/>
  </clipPath>
 </defs>
</svg>
