<?xml version="1.0" encoding="utf-8" standalone="no"?>
<!DOCTYPE svg PUBLIC "-//W3C//DTD SVG 1.1//EN"
  "http://www.w3.org/Graphics/SVG/1.1/DTD/svg11.dtd">
<!-- Created with matplotlib (http://matplotlib.org/) -->
<svg height="345.6pt" version="1.1" viewBox="0 0 460.8 345.6" width="460.8pt" xmlns="http://www.w3.org/2000/svg" xmlns:xlink="http://www.w3.org/1999/xlink">
 <defs>
  <style type="text/css">
*{stroke-linecap:butt;stroke-linejoin:round;}
  </style>
 </defs>
 <g id="figure_1">
  <g id="patch_1">
   <path d="M 0 345.6 
L 460.8 345.6 
L 460.8 0 
L 0 0 
z
" style="fill:#ffffff;"/>
  </g>
  <g id="axes_1">
   <g id="CircleCollection_1">
    <path clip-path="url(#p209c846037)" d="M 295.026575 108.416052 
C 296.765575 108.416052 298.433583 107.72514 299.663241 106.495482 
C 300.892899 105.265824 301.583811 103.597815 301.583811 101.858816 
C 301.583811 100.119817 300.892899 98.451809 299.663241 97.22215 
C 298.433583 95.992492 296.765575 95.301581 295.026575 95.301581 
C 293.287576 95.301581 291.619568 95.992492 290.38991 97.22215 
C 289.160252 98.451809 288.46934 100.119817 288.46934 101.858816 
C 288.46934 103.597815 289.160252 105.265824 290.38991 106.495482 
C 291.619568 107.72514 293.287576 108.416052 295.026575 108.416052 
z
" style="fill:#218f8d;"/>
    <path clip-path="url(#p209c846037)" d="M 322.671474 225.315333 
C 324.483714 225.315333 326.221973 224.595322 327.503421 223.313875 
C 328.784868 222.032428 329.504878 220.294168 329.504878 218.481928 
C 329.504878 216.669688 328.784868 214.931429 327.503421 213.649982 
C 326.221973 212.368534 324.483714 211.648524 322.671474 211.648524 
C 320.859234 211.648524 319.120975 212.368534 317.839527 213.649982 
C 316.55808 214.931429 315.83807 216.669688 315.83807 218.481928 
C 315.83807 220.294168 316.55808 222.032428 317.839527 223.313875 
C 319.120975 224.595322 320.859234 225.315333 322.671474 225.315333 
z
" style="fill:#2c738e;"/>
    <path clip-path="url(#p209c846037)" d="M 292.855029 237.08498 
C 294.674725 237.08498 296.420136 236.362008 297.706855 235.075289 
C 298.993574 233.78857 299.716547 232.043159 299.716547 230.223463 
C 299.716547 228.403768 298.993574 226.658357 297.706855 225.371638 
C 296.420136 224.084919 294.674725 223.361946 292.855029 223.361946 
C 291.035334 223.361946 289.289923 224.084919 288.003204 225.371638 
C 286.716485 226.658357 285.993512 228.403768 285.993512 230.223463 
C 285.993512 232.043159 286.716485 233.78857 288.003204 235.075289 
C 289.289923 236.362008 291.035334 237.08498 292.855029 237.08498 
z
" style="fill:#2a778e;"/>
    <path clip-path="url(#p209c846037)" d="M 261.566617 239.290057 
C 263.393487 239.290057 265.14578 238.564234 266.437572 237.272442 
C 267.729364 235.980649 268.455188 234.228357 268.455188 232.401487 
C 268.455188 230.574616 267.729364 228.822324 266.437572 227.530532 
C 265.14578 226.238739 263.393487 225.512916 261.566617 225.512916 
C 259.739747 225.512916 257.987454 226.238739 256.695662 227.530532 
C 255.40387 228.822324 254.678046 230.574616 254.678046 232.401487 
C 254.678046 234.228357 255.40387 235.980649 256.695662 237.272442 
C 257.987454 238.564234 259.739747 239.290057 261.566617 239.290057 
z
" style="fill:#1fa187;"/>
    <path clip-path="url(#p209c846037)" d="M 271.857395 160.487887 
C 273.638501 160.487887 275.346897 159.780246 276.606329 158.520815 
C 277.865761 157.261383 278.573401 155.552987 278.573401 153.771881 
C 278.573401 151.990775 277.865761 150.282379 276.606329 149.022947 
C 275.346897 147.763515 273.638501 147.055875 271.857395 147.055875 
C 270.076289 147.055875 268.367893 147.763515 267.108461 149.022947 
C 265.849029 150.282379 265.141389 151.990775 265.141389 153.771881 
C 265.141389 155.552987 265.849029 157.261383 267.108461 158.520815 
C 268.367893 159.780246 270.076289 160.487887 271.857395 160.487887 
z
" style="fill:#228c8d;"/>
    <path clip-path="url(#p209c846037)" d="M 99.130139 89.511423 
C 100.7651 89.511423 102.333317 88.861846 103.48941 87.705754 
C 104.645502 86.549662 105.295079 84.981444 105.295079 83.346483 
C 105.295079 81.711522 104.645502 80.143304 103.48941 78.987212 
C 102.333317 77.83112 100.7651 77.181543 99.130139 77.181543 
C 97.495177 77.181543 95.92696 77.83112 94.770867 78.987212 
C 93.614775 80.143304 92.965198 81.711522 92.965198 83.346483 
C 92.965198 84.981444 93.614775 86.549662 94.770867 87.705754 
C 95.92696 88.861846 97.495177 89.511423 99.130139 89.511423 
z
" style="fill:#2e6d8e;"/>
    <path clip-path="url(#p209c846037)" d="M 160.677827 269.776711 
C 162.506265 269.776711 164.260061 269.050265 165.552962 267.757364 
C 166.845863 266.464463 167.572309 264.710667 167.572309 262.882229 
C 167.572309 261.053791 166.845863 259.299995 165.552962 258.007094 
C 164.260061 256.714193 162.506265 255.987747 160.677827 255.987747 
C 158.849388 255.987747 157.095592 256.714193 155.802691 258.007094 
C 154.50979 259.299995 153.783344 261.053791 153.783344 262.882229 
C 153.783344 264.710667 154.50979 266.464463 155.802691 267.757364 
C 157.095592 269.050265 158.849388 269.776711 160.677827 269.776711 
z
" style="fill:#31678e;"/>
    <path clip-path="url(#p209c846037)" d="M 172.030795 201.636048 
C 173.856483 201.636048 175.607641 200.910695 176.898597 199.619739 
C 178.189553 198.328783 178.914906 196.577625 178.914906 194.751937 
C 178.914906 192.926249 178.189553 191.175091 176.898597 189.884135 
C 175.607641 188.593179 173.856483 187.867826 172.030795 187.867826 
C 170.205107 187.867826 168.453949 188.593179 167.162993 189.884135 
C 165.872037 191.175091 165.146684 192.926249 165.146684 194.751937 
C 165.146684 196.577625 165.872037 198.328783 167.162993 199.619739 
C 168.453949 200.910695 170.205107 201.636048 172.030795 201.636048 
z
" style="fill:#4ac16d;"/>
    <path clip-path="url(#p209c846037)" d="M 175.231666 238.410575 
C 177.060886 238.410575 178.815433 237.683818 180.108887 236.390364 
C 181.402341 235.096909 182.129098 233.342363 182.129098 231.513143 
C 182.129098 229.683922 181.402341 227.929376 180.108887 226.635921 
C 178.815433 225.342467 177.060886 224.61571 175.231666 224.61571 
C 173.402446 224.61571 171.647899 225.342467 170.354445 226.635921 
C 169.060991 227.929376 168.334234 229.683922 168.334234 231.513143 
C 168.334234 233.342363 169.060991 235.096909 170.354445 236.390364 
C 171.647899 237.683818 173.402446 238.410575 175.231666 238.410575 
z
" style="fill:#31678e;"/>
    <path clip-path="url(#p209c846037)" d="M 276.457121 84.087362 
C 278.173908 84.087362 279.82061 83.405276 281.034562 82.191324 
C 282.248513 80.977373 282.930599 79.330671 282.930599 77.613884 
C 282.930599 75.897098 282.248513 74.250396 281.034562 73.036444 
C 279.82061 71.822493 278.173908 71.140406 276.457121 71.140406 
C 274.740335 71.140406 273.093633 71.822493 271.879681 73.036444 
C 270.66573 74.250396 269.983644 75.897098 269.983644 77.613884 
C 269.983644 79.330671 270.66573 80.977373 271.879681 82.191324 
C 273.093633 83.405276 274.740335 84.087362 276.457121 84.087362 
z
" style="fill:#33638d;"/>
    <path clip-path="url(#p209c846037)" d="M 70.885809 104.849993 
C 72.513715 104.849993 74.075165 104.203219 75.226268 103.052116 
C 76.377371 101.901013 77.024145 100.339563 77.024145 98.711657 
C 77.024145 97.083751 76.377371 95.522301 75.226268 94.371198 
C 74.075165 93.220095 72.513715 92.573321 70.885809 92.573321 
C 69.257903 92.573321 67.696453 93.220095 66.54535 94.371198 
C 65.394247 95.522301 64.747473 97.083751 64.747473 98.711657 
C 64.747473 100.339563 65.394247 101.901013 66.54535 103.052116 
C 67.696453 104.203219 69.257903 104.849993 70.885809 104.849993 
z
" style="fill:#fde725;"/>
    <path clip-path="url(#p209c846037)" d="M 329.980343 193.799587 
C 331.770417 193.799587 333.487416 193.088382 334.75319 191.822608 
C 336.018964 190.556834 336.730169 188.839835 336.730169 187.049761 
C 336.730169 185.259686 336.018964 183.542687 334.75319 182.276913 
C 333.487416 181.011139 331.770417 180.299935 329.980343 180.299935 
C 328.190268 180.299935 326.473269 181.011139 325.207495 182.276913 
C 323.941721 183.542687 323.230517 185.259686 323.230517 187.049761 
C 323.230517 188.839835 323.941721 190.556834 325.207495 191.822608 
C 326.473269 193.088382 328.190268 193.799587 329.980343 193.799587 
z
" style="fill:#29798e;"/>
    <path clip-path="url(#p209c846037)" d="M 329.345828 161.679857 
C 331.120196 161.679857 332.822129 160.974893 334.076797 159.720226 
C 335.331464 158.465558 336.036428 156.763625 336.036428 154.989256 
C 336.036428 153.214888 335.331464 151.512955 334.076797 150.258287 
C 332.822129 149.00362 331.120196 148.298656 329.345828 148.298656 
C 327.571459 148.298656 325.869526 149.00362 324.614858 150.258287 
C 323.360191 151.512955 322.655227 153.214888 322.655227 154.989256 
C 322.655227 156.763625 323.360191 158.465558 324.614858 159.720226 
C 325.869526 160.974893 327.571459 161.679857 329.345828 161.679857 
z
" style="fill:#1fa187;"/>
    <path clip-path="url(#p209c846037)" d="M 140.629652 293.246948 
C 142.411874 293.246948 144.121342 292.538863 145.381563 291.278642 
C 146.641785 290.01842 147.34987 288.308952 147.34987 286.52673 
C 147.34987 284.744507 146.641785 283.03504 145.381563 281.774818 
C 144.121342 280.514596 142.411874 279.806511 140.629652 279.806511 
C 138.847429 279.806511 137.137961 280.514596 135.87774 281.774818 
C 134.617518 283.03504 133.909433 284.744507 133.909433 286.52673 
C 133.909433 288.308952 134.617518 290.01842 135.87774 291.278642 
C 137.137961 292.538863 138.847429 293.246948 140.629652 293.246948 
z
" style="fill:#81d34d;"/>
    <path clip-path="url(#p209c846037)" d="M 151.714347 302.019382 
C 153.573309 302.019382 155.356383 301.280809 156.670868 299.966324 
C 157.985353 298.651839 158.723926 296.868765 158.723926 295.009803 
C 158.723926 293.150841 157.985353 291.367767 156.670868 290.053282 
C 155.356383 288.738798 153.573309 288.000224 151.714347 288.000224 
C 149.855385 288.000224 148.072311 288.738798 146.757826 290.053282 
C 145.443341 291.367767 144.704768 293.150841 144.704768 295.009803 
C 144.704768 296.868765 145.443341 298.651839 146.757826 299.966324 
C 148.072311 301.280809 149.855385 302.019382 151.714347 302.019382 
z
" style="fill:#7cd250;"/>
    <path clip-path="url(#p209c846037)" d="M 220.159073 60.320318 
C 221.835445 60.320318 223.443384 59.654288 224.628758 58.468913 
C 225.814133 57.283539 226.480163 55.6756 226.480163 53.999228 
C 226.480163 52.322855 225.814133 50.714917 224.628758 49.529542 
C 223.443384 48.344168 221.835445 47.678138 220.159073 47.678138 
C 218.4827 47.678138 216.874762 48.344168 215.689387 49.529542 
C 214.504013 50.714917 213.837983 52.322855 213.837983 53.999228 
C 213.837983 55.6756 214.504013 57.283539 215.689387 58.468913 
C 216.874762 59.654288 218.4827 60.320318 220.159073 60.320318 
z
" style="fill:#31668e;"/>
    <path clip-path="url(#p209c846037)" d="M 128.646823 77.75264 
C 130.290178 77.75264 131.866447 77.099729 133.028474 75.937701 
C 134.190502 74.775673 134.843414 73.199405 134.843414 71.55605 
C 134.843414 69.912694 134.190502 68.336426 133.028474 67.174398 
C 131.866447 66.01237 130.290178 65.359459 128.646823 65.359459 
C 127.003468 65.359459 125.427199 66.01237 124.265171 67.174398 
C 123.103144 68.336426 122.450232 69.912694 122.450232 71.55605 
C 122.450232 73.199405 123.103144 74.775673 124.265171 75.937701 
C 125.427199 77.099729 127.003468 77.75264 128.646823 77.75264 
z
" style="fill:#31668e;"/>
    <path clip-path="url(#p209c846037)" d="M 158.245515 67.45707 
C 159.897538 67.45707 161.48212 66.800715 162.650277 65.632558 
C 163.818433 64.464401 164.474789 62.879819 164.474789 61.227796 
C 164.474789 59.575773 163.818433 57.99119 162.650277 56.823034 
C 161.48212 55.654877 159.897538 54.998521 158.245515 54.998521 
C 156.593492 54.998521 155.008909 55.654877 153.840753 56.823034 
C 152.672596 57.99119 152.01624 59.575773 152.01624 61.227796 
C 152.01624 62.879819 152.672596 64.464401 153.840753 65.632558 
C 155.008909 66.800715 156.593492 67.45707 158.245515 67.45707 
z
" style="fill:#33638d;"/>
    <path clip-path="url(#p209c846037)" d="M 251.42748 182.341991 
C 253.228045 182.341991 254.955106 181.626619 256.228297 180.353427 
C 257.501489 179.080236 258.216861 177.353175 258.216861 175.55261 
C 258.216861 173.752045 257.501489 172.024984 256.228297 170.751792 
C 254.955106 169.4786 253.228045 168.763228 251.42748 168.763228 
C 249.626915 168.763228 247.899854 169.4786 246.626662 170.751792 
C 245.35347 172.024984 244.638098 173.752045 244.638098 175.55261 
C 244.638098 177.353175 245.35347 179.080236 246.626662 180.353427 
C 247.899854 181.626619 249.626915 182.341991 251.42748 182.341991 
z
" style="fill:#24878e;"/>
    <path clip-path="url(#p209c846037)" d="M 202.875515 218.014176 
C 204.699743 218.014176 206.4495 217.289403 207.739424 215.999479 
C 209.029348 214.709555 209.754121 212.959797 209.754121 211.135569 
C 209.754121 209.311342 209.029348 207.561584 207.739424 206.27166 
C 206.4495 204.981736 204.699743 204.256963 202.875515 204.256963 
C 201.051287 204.256963 199.301529 204.981736 198.011605 206.27166 
C 196.721682 207.561584 195.996908 209.311342 195.996908 211.135569 
C 195.996908 212.959797 196.721682 214.709555 198.011605 215.999479 
C 199.301529 217.289403 201.051287 218.014176 202.875515 218.014176 
z
" style="fill:#306a8e;"/>
    <path clip-path="url(#p209c846037)" d="M 249.86598 67.913986 
C 251.559685 67.913986 253.184249 67.24107 254.381879 66.04344 
C 255.57951 64.845809 256.252426 63.221246 256.252426 61.52754 
C 256.252426 59.833835 255.57951 58.209271 254.381879 57.011641 
C 253.184249 55.81401 251.559685 55.141094 249.86598 55.141094 
C 248.172275 55.141094 246.547711 55.81401 245.350081 57.011641 
C 244.15245 58.209271 243.479534 59.833835 243.479534 61.52754 
C 243.479534 63.221246 244.15245 64.845809 245.350081 66.04344 
C 246.547711 67.24107 248.172275 67.913986 249.86598 67.913986 
z
" style="fill:#2e6d8e;"/>
    <path clip-path="url(#p209c846037)" d="M 300.874088 141.651948 
C 302.637629 141.651948 304.329177 140.951286 305.576189 139.704274 
C 306.8232 138.457263 307.523863 136.765714 307.523863 135.002173 
C 307.523863 133.238632 306.8232 131.547084 305.576189 130.300072 
C 304.329177 129.053061 302.637629 128.352398 300.874088 128.352398 
C 299.110547 128.352398 297.418998 129.053061 296.171987 130.300072 
C 294.924975 131.547084 294.224313 133.238632 294.224313 135.002173 
C 294.224313 136.765714 294.924975 138.457263 296.171987 139.704274 
C 297.418998 140.951286 299.110547 141.651948 300.874088 141.651948 
z
" style="fill:#440154;"/>
    <path clip-path="url(#p209c846037)" d="M 188.954503 62.041641 
C 190.617445 62.041641 192.212501 61.380947 193.388379 60.20507 
C 194.564256 59.029192 195.22495 57.434136 195.22495 55.771194 
C 195.22495 54.108252 194.564256 52.513196 193.388379 51.337318 
C 192.212501 50.161441 190.617445 49.500747 188.954503 49.500747 
C 187.291561 49.500747 185.696505 50.161441 184.520627 51.337318 
C 183.34475 52.513196 182.684056 54.108252 182.684056 55.771194 
C 182.684056 57.434136 183.34475 59.029192 184.520627 60.20507 
C 185.696505 61.380947 187.291561 62.041641 188.954503 62.041641 
z
" style="fill:#30698e;"/>
    <path clip-path="url(#p209c846037)" d="M 237.067132 214.631114 
C 238.884848 214.631114 240.62836 213.908928 241.91368 212.623609 
C 243.198999 211.338289 243.921185 209.594777 243.921185 207.777061 
C 243.921185 205.959345 243.198999 204.215833 241.91368 202.930513 
C 240.62836 201.645194 238.884848 200.923007 237.067132 200.923007 
C 235.249416 200.923007 233.505904 201.645194 232.220584 202.930513 
C 230.935265 204.215833 230.213078 205.959345 230.213078 207.777061 
C 230.213078 209.594777 230.935265 211.338289 232.220584 212.623609 
C 233.505904 213.908928 235.249416 214.631114 237.067132 214.631114 
z
" style="fill:#440256;"/>
   </g>
   <g id="text_1">
    <!-- Structure #10567, $E_N$=-176.00eV, ΔE=0.55eV -->
    <defs>
     <path d="M 53.515625 70.515625 
L 53.515625 60.890625 
Q 47.90625 63.578125 42.921875 64.890625 
Q 37.9375 66.21875 33.296875 66.21875 
Q 25.25 66.21875 20.875 63.09375 
Q 16.5 59.96875 16.5 54.203125 
Q 16.5 49.359375 19.40625 46.890625 
Q 22.3125 44.4375 30.421875 42.921875 
L 36.375 41.703125 
Q 47.40625 39.59375 52.65625 34.296875 
Q 57.90625 29 57.90625 20.125 
Q 57.90625 9.515625 50.796875 4.046875 
Q 43.703125 -1.421875 29.984375 -1.421875 
Q 24.8125 -1.421875 18.96875 -0.25 
Q 13.140625 0.921875 6.890625 3.21875 
L 6.890625 13.375 
Q 12.890625 10.015625 18.65625 8.296875 
Q 24.421875 6.59375 29.984375 6.59375 
Q 38.421875 6.59375 43.015625 9.90625 
Q 47.609375 13.234375 47.609375 19.390625 
Q 47.609375 24.75 44.3125 27.78125 
Q 41.015625 30.8125 33.5 32.328125 
L 27.484375 33.5 
Q 16.453125 35.6875 11.515625 40.375 
Q 6.59375 45.0625 6.59375 53.421875 
Q 6.59375 63.09375 13.40625 68.65625 
Q 20.21875 74.21875 32.171875 74.21875 
Q 37.3125 74.21875 42.625 73.28125 
Q 47.953125 72.359375 53.515625 70.515625 
z
" id="DejaVuSans-53"/>
     <path d="M 18.3125 70.21875 
L 18.3125 54.6875 
L 36.8125 54.6875 
L 36.8125 47.703125 
L 18.3125 47.703125 
L 18.3125 18.015625 
Q 18.3125 11.328125 20.140625 9.421875 
Q 21.96875 7.515625 27.59375 7.515625 
L 36.8125 7.515625 
L 36.8125 0 
L 27.59375 0 
Q 17.1875 0 13.234375 3.875 
Q 9.28125 7.765625 9.28125 18.015625 
L 9.28125 47.703125 
L 2.6875 47.703125 
L 2.6875 54.6875 
L 9.28125 54.6875 
L 9.28125 70.21875 
z
" id="DejaVuSans-74"/>
     <path d="M 41.109375 46.296875 
Q 39.59375 47.171875 37.8125 47.578125 
Q 36.03125 48 33.890625 48 
Q 26.265625 48 22.1875 43.046875 
Q 18.109375 38.09375 18.109375 28.8125 
L 18.109375 0 
L 9.078125 0 
L 9.078125 54.6875 
L 18.109375 54.6875 
L 18.109375 46.1875 
Q 20.953125 51.171875 25.484375 53.578125 
Q 30.03125 56 36.53125 56 
Q 37.453125 56 38.578125 55.875 
Q 39.703125 55.765625 41.0625 55.515625 
z
" id="DejaVuSans-72"/>
     <path d="M 8.5 21.578125 
L 8.5 54.6875 
L 17.484375 54.6875 
L 17.484375 21.921875 
Q 17.484375 14.15625 20.5 10.265625 
Q 23.53125 6.390625 29.59375 6.390625 
Q 36.859375 6.390625 41.078125 11.03125 
Q 45.3125 15.671875 45.3125 23.6875 
L 45.3125 54.6875 
L 54.296875 54.6875 
L 54.296875 0 
L 45.3125 0 
L 45.3125 8.40625 
Q 42.046875 3.421875 37.71875 1 
Q 33.40625 -1.421875 27.6875 -1.421875 
Q 18.265625 -1.421875 13.375 4.4375 
Q 8.5 10.296875 8.5 21.578125 
z
M 31.109375 56 
z
" id="DejaVuSans-75"/>
     <path d="M 48.78125 52.59375 
L 48.78125 44.1875 
Q 44.96875 46.296875 41.140625 47.34375 
Q 37.3125 48.390625 33.40625 48.390625 
Q 24.65625 48.390625 19.8125 42.84375 
Q 14.984375 37.3125 14.984375 27.296875 
Q 14.984375 17.28125 19.8125 11.734375 
Q 24.65625 6.203125 33.40625 6.203125 
Q 37.3125 6.203125 41.140625 7.25 
Q 44.96875 8.296875 48.78125 10.40625 
L 48.78125 2.09375 
Q 45.015625 0.34375 40.984375 -0.53125 
Q 36.96875 -1.421875 32.421875 -1.421875 
Q 20.0625 -1.421875 12.78125 6.34375 
Q 5.515625 14.109375 5.515625 27.296875 
Q 5.515625 40.671875 12.859375 48.328125 
Q 20.21875 56 33.015625 56 
Q 37.15625 56 41.109375 55.140625 
Q 45.0625 54.296875 48.78125 52.59375 
z
" id="DejaVuSans-63"/>
     <path d="M 56.203125 29.59375 
L 56.203125 25.203125 
L 14.890625 25.203125 
Q 15.484375 15.921875 20.484375 11.0625 
Q 25.484375 6.203125 34.421875 6.203125 
Q 39.59375 6.203125 44.453125 7.46875 
Q 49.3125 8.734375 54.109375 11.28125 
L 54.109375 2.78125 
Q 49.265625 0.734375 44.1875 -0.34375 
Q 39.109375 -1.421875 33.890625 -1.421875 
Q 20.796875 -1.421875 13.15625 6.1875 
Q 5.515625 13.8125 5.515625 26.8125 
Q 5.515625 40.234375 12.765625 48.109375 
Q 20.015625 56 32.328125 56 
Q 43.359375 56 49.78125 48.890625 
Q 56.203125 41.796875 56.203125 29.59375 
z
M 47.21875 32.234375 
Q 47.125 39.59375 43.09375 43.984375 
Q 39.0625 48.390625 32.421875 48.390625 
Q 24.90625 48.390625 20.390625 44.140625 
Q 15.875 39.890625 15.1875 32.171875 
z
" id="DejaVuSans-65"/>
     <path id="DejaVuSans-20"/>
     <path d="M 51.125 44 
L 36.921875 44 
L 32.8125 27.6875 
L 47.125 27.6875 
z
M 43.796875 71.78125 
L 38.71875 51.515625 
L 52.984375 51.515625 
L 58.109375 71.78125 
L 65.921875 71.78125 
L 60.890625 51.515625 
L 76.125 51.515625 
L 76.125 44 
L 58.984375 44 
L 54.984375 27.6875 
L 70.515625 27.6875 
L 70.515625 20.21875 
L 53.078125 20.21875 
L 48 0 
L 40.1875 0 
L 45.21875 20.21875 
L 30.90625 20.21875 
L 25.875 0 
L 18.015625 0 
L 23.09375 20.21875 
L 7.71875 20.21875 
L 7.71875 27.6875 
L 24.90625 27.6875 
L 29 44 
L 13.28125 44 
L 13.28125 51.515625 
L 30.90625 51.515625 
L 35.890625 71.78125 
z
" id="DejaVuSans-23"/>
     <path d="M 12.40625 8.296875 
L 28.515625 8.296875 
L 28.515625 63.921875 
L 10.984375 60.40625 
L 10.984375 69.390625 
L 28.421875 72.90625 
L 38.28125 72.90625 
L 38.28125 8.296875 
L 54.390625 8.296875 
L 54.390625 0 
L 12.40625 0 
z
" id="DejaVuSans-31"/>
     <path d="M 31.78125 66.40625 
Q 24.171875 66.40625 20.328125 58.90625 
Q 16.5 51.421875 16.5 36.375 
Q 16.5 21.390625 20.328125 13.890625 
Q 24.171875 6.390625 31.78125 6.390625 
Q 39.453125 6.390625 43.28125 13.890625 
Q 47.125 21.390625 47.125 36.375 
Q 47.125 51.421875 43.28125 58.90625 
Q 39.453125 66.40625 31.78125 66.40625 
z
M 31.78125 74.21875 
Q 44.046875 74.21875 50.515625 64.515625 
Q 56.984375 54.828125 56.984375 36.375 
Q 56.984375 17.96875 50.515625 8.265625 
Q 44.046875 -1.421875 31.78125 -1.421875 
Q 19.53125 -1.421875 13.0625 8.265625 
Q 6.59375 17.96875 6.59375 36.375 
Q 6.59375 54.828125 13.0625 64.515625 
Q 19.53125 74.21875 31.78125 74.21875 
z
" id="DejaVuSans-30"/>
     <path d="M 10.796875 72.90625 
L 49.515625 72.90625 
L 49.515625 64.59375 
L 19.828125 64.59375 
L 19.828125 46.734375 
Q 21.96875 47.46875 24.109375 47.828125 
Q 26.265625 48.1875 28.421875 48.1875 
Q 40.625 48.1875 47.75 41.5 
Q 54.890625 34.8125 54.890625 23.390625 
Q 54.890625 11.625 47.5625 5.09375 
Q 40.234375 -1.421875 26.90625 -1.421875 
Q 22.3125 -1.421875 17.546875 -0.640625 
Q 12.796875 0.140625 7.71875 1.703125 
L 7.71875 11.625 
Q 12.109375 9.234375 16.796875 8.0625 
Q 21.484375 6.890625 26.703125 6.890625 
Q 35.15625 6.890625 40.078125 11.328125 
Q 45.015625 15.765625 45.015625 23.390625 
Q 45.015625 31 40.078125 35.4375 
Q 35.15625 39.890625 26.703125 39.890625 
Q 22.75 39.890625 18.8125 39.015625 
Q 14.890625 38.140625 10.796875 36.28125 
z
" id="DejaVuSans-35"/>
     <path d="M 33.015625 40.375 
Q 26.375 40.375 22.484375 35.828125 
Q 18.609375 31.296875 18.609375 23.390625 
Q 18.609375 15.53125 22.484375 10.953125 
Q 26.375 6.390625 33.015625 6.390625 
Q 39.65625 6.390625 43.53125 10.953125 
Q 47.40625 15.53125 47.40625 23.390625 
Q 47.40625 31.296875 43.53125 35.828125 
Q 39.65625 40.375 33.015625 40.375 
z
M 52.59375 71.296875 
L 52.59375 62.3125 
Q 48.875 64.0625 45.09375 64.984375 
Q 41.3125 65.921875 37.59375 65.921875 
Q 27.828125 65.921875 22.671875 59.328125 
Q 17.53125 52.734375 16.796875 39.40625 
Q 19.671875 43.65625 24.015625 45.921875 
Q 28.375 48.1875 33.59375 48.1875 
Q 44.578125 48.1875 50.953125 41.515625 
Q 57.328125 34.859375 57.328125 23.390625 
Q 57.328125 12.15625 50.6875 5.359375 
Q 44.046875 -1.421875 33.015625 -1.421875 
Q 20.359375 -1.421875 13.671875 8.265625 
Q 6.984375 17.96875 6.984375 36.375 
Q 6.984375 53.65625 15.1875 63.9375 
Q 23.390625 74.21875 37.203125 74.21875 
Q 40.921875 74.21875 44.703125 73.484375 
Q 48.484375 72.75 52.59375 71.296875 
z
" id="DejaVuSans-36"/>
     <path d="M 8.203125 72.90625 
L 55.078125 72.90625 
L 55.078125 68.703125 
L 28.609375 0 
L 18.3125 0 
L 43.21875 64.59375 
L 8.203125 64.59375 
z
" id="DejaVuSans-37"/>
     <path d="M 11.71875 12.40625 
L 22.015625 12.40625 
L 22.015625 4 
L 14.015625 -11.625 
L 7.71875 -11.625 
L 11.71875 4 
z
" id="DejaVuSans-2c"/>
     <path d="M 16.890625 72.90625 
L 62.984375 72.90625 
L 61.375 64.59375 
L 25.09375 64.59375 
L 20.90625 43.015625 
L 55.71875 43.015625 
L 54.109375 34.71875 
L 19.28125 34.71875 
L 14.203125 8.296875 
L 51.3125 8.296875 
L 49.703125 0 
L 2.6875 0 
z
" id="DejaVuSans-Oblique-45"/>
     <path d="M 16.890625 72.90625 
L 30.171875 72.90625 
L 50.296875 10.40625 
L 62.5 72.90625 
L 72.125 72.90625 
L 57.90625 0 
L 44.578125 0 
L 24.515625 62.890625 
L 12.3125 0 
L 2.6875 0 
z
" id="DejaVuSans-Oblique-4e"/>
     <path d="M 10.59375 45.40625 
L 73.1875 45.40625 
L 73.1875 37.203125 
L 10.59375 37.203125 
z
M 10.59375 25.484375 
L 73.1875 25.484375 
L 73.1875 17.1875 
L 10.59375 17.1875 
z
" id="DejaVuSans-3d"/>
     <path d="M 4.890625 31.390625 
L 31.203125 31.390625 
L 31.203125 23.390625 
L 4.890625 23.390625 
z
" id="DejaVuSans-2d"/>
     <path d="M 10.6875 12.40625 
L 21 12.40625 
L 21 0 
L 10.6875 0 
z
" id="DejaVuSans-2e"/>
     <path d="M 28.609375 0 
L 0.78125 72.90625 
L 11.078125 72.90625 
L 34.1875 11.53125 
L 57.328125 72.90625 
L 67.578125 72.90625 
L 39.796875 0 
z
" id="DejaVuSans-56"/>
     <path d="M 34.1875 63.1875 
L 14.15625 8.203125 
L 54.25 8.203125 
z
M 0.78125 0 
L 28.609375 72.90625 
L 39.796875 72.90625 
L 67.578125 0 
z
" id="DejaVuSans-394"/>
     <path d="M 9.8125 72.90625 
L 55.90625 72.90625 
L 55.90625 64.59375 
L 19.671875 64.59375 
L 19.671875 43.015625 
L 54.390625 43.015625 
L 54.390625 34.71875 
L 19.671875 34.71875 
L 19.671875 8.296875 
L 56.78125 8.296875 
L 56.78125 0 
L 9.8125 0 
z
" id="DejaVuSans-45"/>
    </defs>
    <g transform="translate(61.548 35.472)scale(0.12 -0.12)">
     <use transform="translate(0 0.78125)" xlink:href="#DejaVuSans-53"/>
     <use transform="translate(63.476562 0.78125)" xlink:href="#DejaVuSans-74"/>
     <use transform="translate(102.685547 0.78125)" xlink:href="#DejaVuSans-72"/>
     <use transform="translate(143.798828 0.78125)" xlink:href="#DejaVuSans-75"/>
     <use transform="translate(207.177734 0.78125)" xlink:href="#DejaVuSans-63"/>
     <use transform="translate(262.158203 0.78125)" xlink:href="#DejaVuSans-74"/>
     <use transform="translate(301.367188 0.78125)" xlink:href="#DejaVuSans-75"/>
     <use transform="translate(364.746094 0.78125)" xlink:href="#DejaVuSans-72"/>
     <use transform="translate(405.859375 0.78125)" xlink:href="#DejaVuSans-65"/>
     <use transform="translate(467.382812 0.78125)" xlink:href="#DejaVuSans-20"/>
     <use transform="translate(499.169922 0.78125)" xlink:href="#DejaVuSans-23"/>
     <use transform="translate(582.958984 0.78125)" xlink:href="#DejaVuSans-31"/>
     <use transform="translate(646.582031 0.78125)" xlink:href="#DejaVuSans-30"/>
     <use transform="translate(710.205078 0.78125)" xlink:href="#DejaVuSans-35"/>
     <use transform="translate(773.828125 0.78125)" xlink:href="#DejaVuSans-36"/>
     <use transform="translate(837.451172 0.78125)" xlink:href="#DejaVuSans-37"/>
     <use transform="translate(901.074219 0.78125)" xlink:href="#DejaVuSans-2c"/>
     <use transform="translate(932.861328 0.78125)" xlink:href="#DejaVuSans-20"/>
     <use transform="translate(964.648438 0.78125)" xlink:href="#DejaVuSans-Oblique-45"/>
     <use transform="translate(1027.832031 -15.625)scale(0.7)" xlink:href="#DejaVuSans-Oblique-4e"/>
     <use transform="translate(1082.929688 0.78125)" xlink:href="#DejaVuSans-3d"/>
     <use transform="translate(1166.71875 0.78125)" xlink:href="#DejaVuSans-2d"/>
     <use transform="translate(1202.802734 0.78125)" xlink:href="#DejaVuSans-31"/>
     <use transform="translate(1266.425781 0.78125)" xlink:href="#DejaVuSans-37"/>
     <use transform="translate(1330.048828 0.78125)" xlink:href="#DejaVuSans-36"/>
     <use transform="translate(1393.671875 0.78125)" xlink:href="#DejaVuSans-2e"/>
     <use transform="translate(1425.458984 0.78125)" xlink:href="#DejaVuSans-30"/>
     <use transform="translate(1489.082031 0.78125)" xlink:href="#DejaVuSans-30"/>
     <use transform="translate(1552.705078 0.78125)" xlink:href="#DejaVuSans-65"/>
     <use transform="translate(1614.228516 0.78125)" xlink:href="#DejaVuSans-56"/>
     <use transform="translate(1682.636719 0.78125)" xlink:href="#DejaVuSans-2c"/>
     <use transform="translate(1714.423828 0.78125)" xlink:href="#DejaVuSans-20"/>
     <use transform="translate(1746.210938 0.78125)" xlink:href="#DejaVuSans-394"/>
     <use transform="translate(1814.619141 0.78125)" xlink:href="#DejaVuSans-45"/>
     <use transform="translate(1877.802734 0.78125)" xlink:href="#DejaVuSans-3d"/>
     <use transform="translate(1961.591797 0.78125)" xlink:href="#DejaVuSans-30"/>
     <use transform="translate(2025.214844 0.78125)" xlink:href="#DejaVuSans-2e"/>
     <use transform="translate(2057.001953 0.78125)" xlink:href="#DejaVuSans-35"/>
     <use transform="translate(2120.625 0.78125)" xlink:href="#DejaVuSans-35"/>
     <use transform="translate(2184.248047 0.78125)" xlink:href="#DejaVuSans-65"/>
     <use transform="translate(2245.771484 0.78125)" xlink:href="#DejaVuSans-56"/>
    </g>
   </g>
  </g>
  <g id="axes_2">
   <g id="patch_2">
    <path clip-path="url(#pc6310fec11)" d="M 361.152 307.584 
L 361.152 306.5445 
L 361.152 42.5115 
L 361.152 41.472 
L 374.4576 41.472 
L 374.4576 42.5115 
L 374.4576 306.5445 
L 374.4576 307.584 
z
" style="fill:#ffffff;stroke:#ffffff;stroke-linejoin:miter;stroke-width:0.01;"/>
   </g>
   <image height="265.68" id="imagee1ad686ead" transform="scale(1 -1)translate(0 -265.68)" width="12.96" x="361.44" xlink:href="data:image/png;base64,
iVBORw0KGgoAAAANSUhEUgAAABIAAAFxCAYAAAB+2fgXAAAABHNCSVQICAgIfAhkiAAAAeVJREFUeJztncmNw0AQA2ckheYQNv9QLIfQ8ygsCgQ7AEI8+jAs2Puz/94F1LP2ReCsZ18bAWIeZ5XaGRBE7VnbptG+KI101FYyNSiQG2oRITXKNaX9uclOdi2XWjftVE32CZCO2ou5Bj1TcCBr/1zB9ge7Fq0Rg2NM9pvbtG+ua1QgsRYhDy0ISEiNc40BEibbSI0Coj5CBGtkpFbXJiAjNZlrwhuSOv2M1DjXbEdEciBt1JSDDQKKpmZr2rr2j0DBGpXaWEJq3bQzEPIS26r9J+Wzv9Tm8o3aajRXqc3VUXsApKNWjeZq0x4ABVNbm7lrszVigDqP5vIl2+eaT2yfRkL7g+dRcNPqjohkjaCvRVBq0H2U3LQrOJCx9kdTg4B8oxZzzTdqdYHEngjUCAPyUctN9sVRq2sTECW2UKNLd2jVtRmo1A6AhMmWaSRcR8nUdIHUuVb75zJS218EyEitro1At69pIdeSk30Lkw0FktNImGyZRhy1O5galmxd03LUsHWk06jUZiCq+5Wb1kZNN4+wJxJuWt8RAW5am2sYNZ9rYCBzZ3buPKJ2P5Yj4Toy3keyIyJbIxs1rml1byCA84gpch5RQNB7Q0qNMGq2Hy4BXdNR41yz/cEEJfZzUz96r9PoB0okjeQ8y9TkAAAAAElFTkSuQmCC" y="-41.76"/>
   <g id="matplotlib.axis_1"/>
   <g id="matplotlib.axis_2">
    <g id="ytick_1">
     <g id="line2d_1">
      <defs>
       <path d="M 0 0 
L 3.5 0 
" id="m965f236931" style="stroke:#000000;stroke-width:0.8;"/>
      </defs>
      <g>
       <use style="stroke:#000000;stroke-width:0.8;" x="374.4576" xlink:href="#m965f236931" y="298.127677"/>
      </g>
     </g>
     <g id="text_2">
      <!-- −9.0 -->
      <defs>
       <path d="M 10.59375 35.5 
L 73.1875 35.5 
L 73.1875 27.203125 
L 10.59375 27.203125 
z
" id="DejaVuSans-2212"/>
       <path d="M 10.984375 1.515625 
L 10.984375 10.5 
Q 14.703125 8.734375 18.5 7.8125 
Q 22.3125 6.890625 25.984375 6.890625 
Q 35.75 6.890625 40.890625 13.453125 
Q 46.046875 20.015625 46.78125 33.40625 
Q 43.953125 29.203125 39.59375 26.953125 
Q 35.25 24.703125 29.984375 24.703125 
Q 19.046875 24.703125 12.671875 31.3125 
Q 6.296875 37.9375 6.296875 49.421875 
Q 6.296875 60.640625 12.9375 67.421875 
Q 19.578125 74.21875 30.609375 74.21875 
Q 43.265625 74.21875 49.921875 64.515625 
Q 56.59375 54.828125 56.59375 36.375 
Q 56.59375 19.140625 48.40625 8.859375 
Q 40.234375 -1.421875 26.421875 -1.421875 
Q 22.703125 -1.421875 18.890625 -0.6875 
Q 15.09375 0.046875 10.984375 1.515625 
z
M 30.609375 32.421875 
Q 37.25 32.421875 41.125 36.953125 
Q 45.015625 41.5 45.015625 49.421875 
Q 45.015625 57.28125 41.125 61.84375 
Q 37.25 66.40625 30.609375 66.40625 
Q 23.96875 66.40625 20.09375 61.84375 
Q 16.21875 57.28125 16.21875 49.421875 
Q 16.21875 41.5 20.09375 36.953125 
Q 23.96875 32.421875 30.609375 32.421875 
z
" id="DejaVuSans-39"/>
      </defs>
      <g transform="translate(381.4576 301.926896)scale(0.1 -0.1)">
       <use xlink:href="#DejaVuSans-2212"/>
       <use x="83.789062" xlink:href="#DejaVuSans-39"/>
       <use x="147.412109" xlink:href="#DejaVuSans-2e"/>
       <use x="179.199219" xlink:href="#DejaVuSans-30"/>
      </g>
     </g>
    </g>
    <g id="ytick_2">
     <g id="line2d_2">
      <g>
       <use style="stroke:#000000;stroke-width:0.8;" x="374.4576" xlink:href="#m965f236931" y="266.28053"/>
      </g>
     </g>
     <g id="text_3">
      <!-- −8.5 -->
      <defs>
       <path d="M 31.78125 34.625 
Q 24.75 34.625 20.71875 30.859375 
Q 16.703125 27.09375 16.703125 20.515625 
Q 16.703125 13.921875 20.71875 10.15625 
Q 24.75 6.390625 31.78125 6.390625 
Q 38.8125 6.390625 42.859375 10.171875 
Q 46.921875 13.96875 46.921875 20.515625 
Q 46.921875 27.09375 42.890625 30.859375 
Q 38.875 34.625 31.78125 34.625 
z
M 21.921875 38.8125 
Q 15.578125 40.375 12.03125 44.71875 
Q 8.5 49.078125 8.5 55.328125 
Q 8.5 64.0625 14.71875 69.140625 
Q 20.953125 74.21875 31.78125 74.21875 
Q 42.671875 74.21875 48.875 69.140625 
Q 55.078125 64.0625 55.078125 55.328125 
Q 55.078125 49.078125 51.53125 44.71875 
Q 48 40.375 41.703125 38.8125 
Q 48.828125 37.15625 52.796875 32.3125 
Q 56.78125 27.484375 56.78125 20.515625 
Q 56.78125 9.90625 50.3125 4.234375 
Q 43.84375 -1.421875 31.78125 -1.421875 
Q 19.734375 -1.421875 13.25 4.234375 
Q 6.78125 9.90625 6.78125 20.515625 
Q 6.78125 27.484375 10.78125 32.3125 
Q 14.796875 37.15625 21.921875 38.8125 
z
M 18.3125 54.390625 
Q 18.3125 48.734375 21.84375 45.5625 
Q 25.390625 42.390625 31.78125 42.390625 
Q 38.140625 42.390625 41.71875 45.5625 
Q 45.3125 48.734375 45.3125 54.390625 
Q 45.3125 60.0625 41.71875 63.234375 
Q 38.140625 66.40625 31.78125 66.40625 
Q 25.390625 66.40625 21.84375 63.234375 
Q 18.3125 60.0625 18.3125 54.390625 
z
" id="DejaVuSans-38"/>
      </defs>
      <g transform="translate(381.4576 270.079748)scale(0.1 -0.1)">
       <use xlink:href="#DejaVuSans-2212"/>
       <use x="83.789062" xlink:href="#DejaVuSans-38"/>
       <use x="147.412109" xlink:href="#DejaVuSans-2e"/>
       <use x="179.199219" xlink:href="#DejaVuSans-35"/>
      </g>
     </g>
    </g>
    <g id="ytick_3">
     <g id="line2d_3">
      <g>
       <use style="stroke:#000000;stroke-width:0.8;" x="374.4576" xlink:href="#m965f236931" y="234.433382"/>
      </g>
     </g>
     <g id="text_4">
      <!-- −8.0 -->
      <g transform="translate(381.4576 238.232601)scale(0.1 -0.1)">
       <use xlink:href="#DejaVuSans-2212"/>
       <use x="83.789062" xlink:href="#DejaVuSans-38"/>
       <use x="147.412109" xlink:href="#DejaVuSans-2e"/>
       <use x="179.199219" xlink:href="#DejaVuSans-30"/>
      </g>
     </g>
    </g>
    <g id="ytick_4">
     <g id="line2d_4">
      <g>
       <use style="stroke:#000000;stroke-width:0.8;" x="374.4576" xlink:href="#m965f236931" y="202.586234"/>
      </g>
     </g>
     <g id="text_5">
      <!-- −7.5 -->
      <g transform="translate(381.4576 206.385453)scale(0.1 -0.1)">
       <use xlink:href="#DejaVuSans-2212"/>
       <use x="83.789062" xlink:href="#DejaVuSans-37"/>
       <use x="147.412109" xlink:href="#DejaVuSans-2e"/>
       <use x="179.199219" xlink:href="#DejaVuSans-35"/>
      </g>
     </g>
    </g>
    <g id="ytick_5">
     <g id="line2d_5">
      <g>
       <use style="stroke:#000000;stroke-width:0.8;" x="374.4576" xlink:href="#m965f236931" y="170.739087"/>
      </g>
     </g>
     <g id="text_6">
      <!-- −7.0 -->
      <g transform="translate(381.4576 174.538305)scale(0.1 -0.1)">
       <use xlink:href="#DejaVuSans-2212"/>
       <use x="83.789062" xlink:href="#DejaVuSans-37"/>
       <use x="147.412109" xlink:href="#DejaVuSans-2e"/>
       <use x="179.199219" xlink:href="#DejaVuSans-30"/>
      </g>
     </g>
    </g>
    <g id="ytick_6">
     <g id="line2d_6">
      <g>
       <use style="stroke:#000000;stroke-width:0.8;" x="374.4576" xlink:href="#m965f236931" y="138.891939"/>
      </g>
     </g>
     <g id="text_7">
      <!-- −6.5 -->
      <g transform="translate(381.4576 142.691158)scale(0.1 -0.1)">
       <use xlink:href="#DejaVuSans-2212"/>
       <use x="83.789062" xlink:href="#DejaVuSans-36"/>
       <use x="147.412109" xlink:href="#DejaVuSans-2e"/>
       <use x="179.199219" xlink:href="#DejaVuSans-35"/>
      </g>
     </g>
    </g>
    <g id="ytick_7">
     <g id="line2d_7">
      <g>
       <use style="stroke:#000000;stroke-width:0.8;" x="374.4576" xlink:href="#m965f236931" y="107.044791"/>
      </g>
     </g>
     <g id="text_8">
      <!-- −6.0 -->
      <g transform="translate(381.4576 110.84401)scale(0.1 -0.1)">
       <use xlink:href="#DejaVuSans-2212"/>
       <use x="83.789062" xlink:href="#DejaVuSans-36"/>
       <use x="147.412109" xlink:href="#DejaVuSans-2e"/>
       <use x="179.199219" xlink:href="#DejaVuSans-30"/>
      </g>
     </g>
    </g>
    <g id="ytick_8">
     <g id="line2d_8">
      <g>
       <use style="stroke:#000000;stroke-width:0.8;" x="374.4576" xlink:href="#m965f236931" y="75.197644"/>
      </g>
     </g>
     <g id="text_9">
      <!-- −5.5 -->
      <g transform="translate(381.4576 78.996863)scale(0.1 -0.1)">
       <use xlink:href="#DejaVuSans-2212"/>
       <use x="83.789062" xlink:href="#DejaVuSans-35"/>
       <use x="147.412109" xlink:href="#DejaVuSans-2e"/>
       <use x="179.199219" xlink:href="#DejaVuSans-35"/>
      </g>
     </g>
    </g>
    <g id="ytick_9">
     <g id="line2d_9">
      <g>
       <use style="stroke:#000000;stroke-width:0.8;" x="374.4576" xlink:href="#m965f236931" y="43.350496"/>
      </g>
     </g>
     <g id="text_10">
      <!-- −5.0 -->
      <g transform="translate(381.4576 47.149715)scale(0.1 -0.1)">
       <use xlink:href="#DejaVuSans-2212"/>
       <use x="83.789062" xlink:href="#DejaVuSans-35"/>
       <use x="147.412109" xlink:href="#DejaVuSans-2e"/>
       <use x="179.199219" xlink:href="#DejaVuSans-30"/>
      </g>
     </g>
    </g>
    <g id="text_11">
     <!-- Energy [eV] -->
     <defs>
      <path d="M 54.890625 33.015625 
L 54.890625 0 
L 45.90625 0 
L 45.90625 32.71875 
Q 45.90625 40.484375 42.875 44.328125 
Q 39.84375 48.1875 33.796875 48.1875 
Q 26.515625 48.1875 22.3125 43.546875 
Q 18.109375 38.921875 18.109375 30.90625 
L 18.109375 0 
L 9.078125 0 
L 9.078125 54.6875 
L 18.109375 54.6875 
L 18.109375 46.1875 
Q 21.34375 51.125 25.703125 53.5625 
Q 30.078125 56 35.796875 56 
Q 45.21875 56 50.046875 50.171875 
Q 54.890625 44.34375 54.890625 33.015625 
z
" id="DejaVuSans-6e"/>
      <path d="M 45.40625 27.984375 
Q 45.40625 37.75 41.375 43.109375 
Q 37.359375 48.484375 30.078125 48.484375 
Q 22.859375 48.484375 18.828125 43.109375 
Q 14.796875 37.75 14.796875 27.984375 
Q 14.796875 18.265625 18.828125 12.890625 
Q 22.859375 7.515625 30.078125 7.515625 
Q 37.359375 7.515625 41.375 12.890625 
Q 45.40625 18.265625 45.40625 27.984375 
z
M 54.390625 6.78125 
Q 54.390625 -7.171875 48.1875 -13.984375 
Q 42 -20.796875 29.203125 -20.796875 
Q 24.46875 -20.796875 20.265625 -20.09375 
Q 16.0625 -19.390625 12.109375 -17.921875 
L 12.109375 -9.1875 
Q 16.0625 -11.328125 19.921875 -12.34375 
Q 23.78125 -13.375 27.78125 -13.375 
Q 36.625 -13.375 41.015625 -8.765625 
Q 45.40625 -4.15625 45.40625 5.171875 
L 45.40625 9.625 
Q 42.625 4.78125 38.28125 2.390625 
Q 33.9375 0 27.875 0 
Q 17.828125 0 11.671875 7.65625 
Q 5.515625 15.328125 5.515625 27.984375 
Q 5.515625 40.671875 11.671875 48.328125 
Q 17.828125 56 27.875 56 
Q 33.9375 56 38.28125 53.609375 
Q 42.625 51.21875 45.40625 46.390625 
L 45.40625 54.6875 
L 54.390625 54.6875 
z
" id="DejaVuSans-67"/>
      <path d="M 32.171875 -5.078125 
Q 28.375 -14.84375 24.75 -17.8125 
Q 21.140625 -20.796875 15.09375 -20.796875 
L 7.90625 -20.796875 
L 7.90625 -13.28125 
L 13.1875 -13.28125 
Q 16.890625 -13.28125 18.9375 -11.515625 
Q 21 -9.765625 23.484375 -3.21875 
L 25.09375 0.875 
L 2.984375 54.6875 
L 12.5 54.6875 
L 29.59375 11.921875 
L 46.6875 54.6875 
L 56.203125 54.6875 
z
" id="DejaVuSans-79"/>
      <path d="M 8.59375 75.984375 
L 29.296875 75.984375 
L 29.296875 69 
L 17.578125 69 
L 17.578125 -6.203125 
L 29.296875 -6.203125 
L 29.296875 -13.1875 
L 8.59375 -13.1875 
z
" id="DejaVuSans-5b"/>
      <path d="M 30.421875 75.984375 
L 30.421875 -13.1875 
L 9.71875 -13.1875 
L 9.71875 -6.203125 
L 21.390625 -6.203125 
L 21.390625 69 
L 9.71875 69 
L 9.71875 75.984375 
z
" id="DejaVuSans-5d"/>
     </defs>
     <g transform="translate(417.33885 204.108469)rotate(-90)scale(0.1 -0.1)">
      <use xlink:href="#DejaVuSans-45"/>
      <use x="63.183594" xlink:href="#DejaVuSans-6e"/>
      <use x="126.5625" xlink:href="#DejaVuSans-65"/>
      <use x="188.085938" xlink:href="#DejaVuSans-72"/>
      <use x="229.183594" xlink:href="#DejaVuSans-67"/>
      <use x="292.660156" xlink:href="#DejaVuSans-79"/>
      <use x="351.839844" xlink:href="#DejaVuSans-20"/>
      <use x="383.626953" xlink:href="#DejaVuSans-5b"/>
      <use x="422.640625" xlink:href="#DejaVuSans-65"/>
      <use x="484.164062" xlink:href="#DejaVuSans-56"/>
      <use x="552.572266" xlink:href="#DejaVuSans-5d"/>
     </g>
    </g>
   </g>
   <g id="patch_3">
    <path d="M 361.152 307.584 
L 361.152 306.5445 
L 361.152 42.5115 
L 361.152 41.472 
L 374.4576 41.472 
L 374.4576 42.5115 
L 374.4576 306.5445 
L 374.4576 307.584 
z
" style="fill:none;stroke:#000000;stroke-linejoin:miter;stroke-width:0.8;"/>
   </g>
  </g>
 </g>
 <defs>
  <clipPath id="p209c846037">
   <rect height="266.112" width="285.696" x="57.6" y="41.472"/>
  </clipPath>
  <clipPath id="pc6310fec11">
   <rect height="266.112" width="13.3056" x="361.152" y="41.472"/>
  </clipPath>
 </defs>
</svg>
