<?xml version="1.0" encoding="utf-8" standalone="no"?>
<!DOCTYPE svg PUBLIC "-//W3C//DTD SVG 1.1//EN"
  "http://www.w3.org/Graphics/SVG/1.1/DTD/svg11.dtd">
<!-- Created with matplotlib (http://matplotlib.org/) -->
<svg height="345.6pt" version="1.1" viewBox="0 0 460.8 345.6" width="460.8pt" xmlns="http://www.w3.org/2000/svg" xmlns:xlink="http://www.w3.org/1999/xlink">
 <defs>
  <style type="text/css">
*{stroke-linecap:butt;stroke-linejoin:round;}
  </style>
 </defs>
 <g id="figure_1">
  <g id="patch_1">
   <path d="M 0 345.6 
L 460.8 345.6 
L 460.8 0 
L 0 0 
z
" style="fill:#ffffff;"/>
  </g>
  <g id="axes_1">
   <g id="CircleCollection_1">
    <path clip-path="url(#p90b179c4ab)" d="M 145.160239 250.578017 
C 146.881891 250.578017 148.533261 249.893997 149.750653 248.676605 
C 150.968045 247.459213 151.652064 245.807844 151.652064 244.086191 
C 151.652064 242.364539 150.968045 240.71317 149.750653 239.495778 
C 148.533261 238.278386 146.881891 237.594366 145.160239 237.594366 
C 143.438587 237.594366 141.787217 238.278386 140.569826 239.495778 
C 139.352434 240.71317 138.668414 242.364539 138.668414 244.086191 
C 138.668414 245.807844 139.352434 247.459213 140.569826 248.676605 
C 141.787217 249.893997 143.438587 250.578017 145.160239 250.578017 
z
" style="fill:#1fa088;"/>
    <path clip-path="url(#p90b179c4ab)" d="M 85.290014 152.589303 
C 87.070954 152.589303 88.779192 151.881728 90.038507 150.622413 
C 91.297821 149.363098 92.005397 147.654861 92.005397 145.87392 
C 92.005397 144.09298 91.297821 142.384743 90.038507 141.125428 
C 88.779192 139.866113 87.070954 139.158538 85.290014 139.158538 
C 83.509074 139.158538 81.800837 139.866113 80.541522 141.125428 
C 79.282207 142.384743 78.574632 144.09298 78.574632 145.87392 
C 78.574632 147.654861 79.282207 149.363098 80.541522 150.622413 
C 81.800837 151.881728 83.509074 152.589303 85.290014 152.589303 
z
" style="fill:#22a884;"/>
    <path clip-path="url(#p90b179c4ab)" d="M 266.08489 299.142602 
C 267.905953 299.142602 269.652674 298.419086 270.94036 297.131401 
C 272.228045 295.843715 272.951561 294.096994 272.951561 292.275931 
C 272.951561 290.454869 272.228045 288.708148 270.94036 287.420462 
C 269.652674 286.132777 267.905953 285.409261 266.08489 285.409261 
C 264.263828 285.409261 262.517107 286.132777 261.229421 287.420462 
C 259.941736 288.708148 259.21822 290.454869 259.21822 292.275931 
C 259.21822 294.096994 259.941736 295.843715 261.229421 297.131401 
C 262.517107 298.419086 264.263828 299.142602 266.08489 299.142602 
z
" style="fill:#25ab82;"/>
    <path clip-path="url(#p90b179c4ab)" d="M 71.114521 197.702503 
C 72.910964 197.702503 74.634071 196.988768 75.904349 195.718491 
C 77.174626 194.448214 77.88836 192.725107 77.88836 190.928663 
C 77.88836 189.13222 77.174626 187.409113 75.904349 186.138835 
C 74.634071 184.868558 72.910964 184.154824 71.114521 184.154824 
C 69.318077 184.154824 67.59497 184.868558 66.324693 186.138835 
C 65.054416 187.409113 64.340681 189.13222 64.340681 190.928663 
C 64.340681 192.725107 65.054416 194.448214 66.324693 195.718491 
C 67.59497 196.988768 69.318077 197.702503 71.114521 197.702503 
z
" style="fill:#35b779;"/>
    <path clip-path="url(#p90b179c4ab)" d="M 103.888869 107.542788 
C 105.675628 107.542788 107.389447 106.832901 108.652877 105.569472 
C 109.916307 104.306042 110.626194 102.592223 110.626194 100.805463 
C 110.626194 99.018703 109.916307 97.304884 108.652877 96.041454 
C 107.389447 94.778025 105.675628 94.068138 103.888869 94.068138 
C 102.102109 94.068138 100.38829 94.778025 99.12486 96.041454 
C 97.86143 97.304884 97.151543 99.018703 97.151543 100.805463 
C 97.151543 102.592223 97.86143 104.306042 99.12486 105.569472 
C 100.38829 106.832901 102.102109 107.542788 103.888869 107.542788 
z
" style="fill:#bddf26;"/>
    <path clip-path="url(#p90b179c4ab)" d="M 240.907785 234.102551 
C 242.609984 234.102551 244.242695 233.42626 245.446331 232.222624 
C 246.649968 231.018987 247.326258 229.386277 247.326258 227.684078 
C 247.326258 225.981879 246.649968 224.349168 245.446331 223.145532 
C 244.242695 221.941896 242.609984 221.265605 240.907785 221.265605 
C 239.205586 221.265605 237.572876 221.941896 236.369239 223.145532 
C 235.165603 224.349168 234.489312 225.981879 234.489312 227.684078 
C 234.489312 229.386277 235.165603 231.018987 236.369239 232.222624 
C 237.572876 233.42626 239.205586 234.102551 240.907785 234.102551 
z
" style="fill:#3c508b;"/>
    <path clip-path="url(#p90b179c4ab)" d="M 180.867338 175.50806 
C 182.531213 175.50806 184.127164 174.846995 185.303702 173.670458 
C 186.480239 172.49392 187.141304 170.897969 187.141304 169.234094 
C 187.141304 167.570219 186.480239 165.974267 185.303702 164.79773 
C 184.127164 163.621192 182.531213 162.960128 180.867338 162.960128 
C 179.203463 162.960128 177.607511 163.621192 176.430974 164.79773 
C 175.254436 165.974267 174.593372 167.570219 174.593372 169.234094 
C 174.593372 170.897969 175.254436 172.49392 176.430974 173.670458 
C 177.607511 174.846995 179.203463 175.50806 180.867338 175.50806 
z
" style="fill:#32b67a;"/>
    <path clip-path="url(#p90b179c4ab)" d="M 306.729029 178.46693 
C 308.510737 178.46693 310.219711 177.75905 311.479569 176.499192 
C 312.739427 175.239334 313.447308 173.53036 313.447308 171.748651 
C 313.447308 169.966943 312.739427 168.257969 311.479569 166.99811 
C 310.219711 165.738252 308.510737 165.030372 306.729029 165.030372 
C 304.94732 165.030372 303.238346 165.738252 301.978488 166.99811 
C 300.71863 168.257969 300.01075 169.966943 300.01075 171.748651 
C 300.01075 173.53036 300.71863 175.239334 301.978488 176.499192 
C 303.238346 177.75905 304.94732 178.46693 306.729029 178.46693 
z
" style="fill:#481769;"/>
    <path clip-path="url(#p90b179c4ab)" d="M 264.762308 186.950182 
C 266.482113 186.950182 268.131711 186.266896 269.347796 185.05081 
C 270.563882 183.834725 271.247168 182.185127 271.247168 180.465322 
C 271.247168 178.745517 270.563882 177.095919 269.347796 175.879834 
C 268.131711 174.663748 266.482113 173.980462 264.762308 173.980462 
C 263.042503 173.980462 261.392905 174.663748 260.17682 175.879834 
C 258.960734 177.095919 258.277448 178.745517 258.277448 180.465322 
C 258.277448 182.185127 258.960734 183.834725 260.17682 185.05081 
C 261.392905 186.266896 263.042503 186.950182 264.762308 186.950182 
z
" style="fill:#38588c;"/>
    <path clip-path="url(#p90b179c4ab)" d="M 283.846781 90.018357 
C 285.659161 90.018357 287.397555 89.298291 288.679102 88.016745 
C 289.960648 86.735198 290.680714 84.996804 290.680714 83.184424 
C 290.680714 81.372043 289.960648 79.63365 288.679102 78.352103 
C 287.397555 77.070557 285.659161 76.35049 283.846781 76.35049 
C 282.0344 76.35049 280.296006 77.070557 279.01446 78.352103 
C 277.732914 79.63365 277.012847 81.372043 277.012847 83.184424 
C 277.012847 84.996804 277.732914 86.735198 279.01446 88.016745 
C 280.296006 89.298291 282.0344 90.018357 283.846781 90.018357 
z
" style="fill:#1f958b;"/>
    <path clip-path="url(#p90b179c4ab)" d="M 169.650752 298.661279 
C 171.5023 298.661279 173.278262 297.925652 174.587504 296.61641 
C 175.896746 295.307167 176.632374 293.531205 176.632374 291.679657 
C 176.632374 289.828109 175.896746 288.052147 174.587504 286.742905 
C 173.278262 285.433663 171.5023 284.698035 169.650752 284.698035 
C 167.799204 284.698035 166.023241 285.433663 164.713999 286.742905 
C 163.404757 288.052147 162.66913 289.828109 162.66913 291.679657 
C 162.66913 293.531205 163.404757 295.307167 164.713999 296.61641 
C 166.023241 297.925652 167.799204 298.661279 169.650752 298.661279 
z
" style="fill:#26ad81;"/>
    <path clip-path="url(#p90b179c4ab)" d="M 100.72268 238.202597 
C 102.495806 238.202597 104.196548 237.498126 105.450338 236.244337 
C 106.704127 234.990547 107.408598 233.289805 107.408598 231.516679 
C 107.408598 229.743553 106.704127 228.04281 105.450338 226.789021 
C 104.196548 225.535231 102.495806 224.830761 100.72268 224.830761 
C 98.949553 224.830761 97.248811 225.535231 95.995021 226.789021 
C 94.741232 228.04281 94.036761 229.743553 94.036761 231.516679 
C 94.036761 233.289805 94.741232 234.990547 95.995021 236.244337 
C 97.248811 237.498126 98.949553 238.202597 100.72268 238.202597 
z
" style="fill:#1f958b;"/>
    <path clip-path="url(#p90b179c4ab)" d="M 217.841362 301.81466 
C 219.702724 301.81466 221.4881 301.075133 222.804281 299.758952 
C 224.120463 298.44277 224.85999 296.657395 224.85999 294.796033 
C 224.85999 292.934671 224.120463 291.149295 222.804281 289.833114 
C 221.4881 288.516932 219.702724 287.777406 217.841362 287.777406 
C 215.980001 287.777406 214.194625 288.516932 212.878443 289.833114 
C 211.562262 291.149295 210.822735 292.934671 210.822735 294.796033 
C 210.822735 296.657395 211.562262 298.44277 212.878443 299.758952 
C 214.194625 301.075133 215.980001 301.81466 217.841362 301.81466 
z
" style="fill:#3aba76;"/>
    <path clip-path="url(#p90b179c4ab)" d="M 329.77412 219.419255 
C 331.595585 219.419255 333.342692 218.69558 334.630662 217.40761 
C 335.918632 216.11964 336.642308 214.372533 336.642308 212.551068 
C 336.642308 210.729604 335.918632 208.982497 334.630662 207.694527 
C 333.342692 206.406557 331.595585 205.682881 329.77412 205.682881 
C 327.952656 205.682881 326.205549 206.406557 324.917579 207.694527 
C 323.629609 208.982497 322.905933 210.729604 322.905933 212.551068 
C 322.905933 214.372533 323.629609 216.11964 324.917579 217.40761 
C 326.205549 218.69558 327.952656 219.419255 329.77412 219.419255 
z
" style="fill:#fde725;"/>
    <path clip-path="url(#p90b179c4ab)" d="M 191.442292 60.997649 
C 193.235833 60.997649 194.956156 60.285068 196.224381 59.016843 
C 197.492606 57.748618 198.205187 56.028295 198.205187 54.234754 
C 198.205187 52.441214 197.492606 50.72089 196.224381 49.452666 
C 194.956156 48.184441 193.235833 47.47186 191.442292 47.47186 
C 189.648752 47.47186 187.928429 48.184441 186.660204 49.452666 
C 185.391979 50.72089 184.679398 52.441214 184.679398 54.234754 
C 184.679398 56.028295 185.391979 57.748618 186.660204 59.016843 
C 187.928429 60.285068 189.648752 60.997649 191.442292 60.997649 
z
" style="fill:#7cd250;"/>
    <path clip-path="url(#p90b179c4ab)" d="M 305.979471 262.645684 
C 307.786161 262.645684 309.519097 261.927878 310.79662 260.650356 
C 312.074142 259.372833 312.791948 257.639897 312.791948 255.833207 
C 312.791948 254.026517 312.074142 252.293581 310.79662 251.016058 
C 309.519097 249.738535 307.786161 249.02073 305.979471 249.02073 
C 304.172781 249.02073 302.439845 249.738535 301.162322 251.016058 
C 299.884799 252.293581 299.166994 254.026517 299.166994 255.833207 
C 299.166994 257.639897 299.884799 259.372833 301.162322 260.650356 
C 302.439845 261.927878 304.172781 262.645684 305.979471 262.645684 
z
" style="fill:#20928c;"/>
    <path clip-path="url(#p90b179c4ab)" d="M 267.960947 273.521499 
C 269.702207 273.521499 271.372384 272.829689 272.603641 271.598432 
C 273.834898 270.367175 274.526708 268.696998 274.526708 266.955738 
C 274.526708 265.214477 273.834898 263.5443 272.603641 262.313043 
C 271.372384 261.081786 269.702207 260.389976 267.960947 260.389976 
C 266.219686 260.389976 264.549509 261.081786 263.318252 262.313043 
C 262.086995 263.5443 261.395185 265.214477 261.395185 266.955738 
C 261.395185 268.696998 262.086995 270.367175 263.318252 271.598432 
C 264.549509 272.829689 266.219686 273.521499 267.960947 273.521499 
z
" style="fill:#27ad81;"/>
    <path clip-path="url(#p90b179c4ab)" d="M 227.719656 151.439476 
C 229.408512 151.439476 231.028425 150.768486 232.222626 149.574285 
C 233.416828 148.380083 234.087817 146.760171 234.087817 145.071315 
C 234.087817 143.382459 233.416828 141.762547 232.222626 140.568345 
C 231.028425 139.374144 229.408512 138.703154 227.719656 138.703154 
C 226.0308 138.703154 224.410888 139.374144 223.216687 140.568345 
C 222.022485 141.762547 221.351496 143.382459 221.351496 145.071315 
C 221.351496 146.760171 222.022485 148.380083 223.216687 149.574285 
C 224.410888 150.768486 226.0308 151.439476 227.719656 151.439476 
z
" style="fill:#22a884;"/>
    <path clip-path="url(#p90b179c4ab)" d="M 180.146144 128.499287 
C 181.85045 128.499287 183.485182 127.822159 184.690308 126.617033 
C 185.895435 125.411906 186.572563 123.777175 186.572563 122.072868 
C 186.572563 120.368562 185.895435 118.733831 184.690308 117.528704 
C 183.485182 116.323578 181.85045 115.64645 180.146144 115.64645 
C 178.441838 115.64645 176.807106 116.323578 175.60198 117.528704 
C 174.396853 118.733831 173.719725 120.368562 173.719725 122.072868 
C 173.719725 123.777175 174.396853 125.411906 175.60198 126.617033 
C 176.807106 127.822159 178.441838 128.499287 180.146144 128.499287 
z
" style="fill:#20928c;"/>
    <path clip-path="url(#p90b179c4ab)" d="M 153.615442 94.080373 
C 155.374363 94.080373 157.06148 93.381547 158.305225 92.137802 
C 159.548969 90.894057 160.247796 89.20694 160.247796 87.44802 
C 160.247796 85.689099 159.548969 84.001982 158.305225 82.758237 
C 157.06148 81.514493 155.374363 80.815666 153.615442 80.815666 
C 151.856522 80.815666 150.169405 81.514493 148.92566 82.758237 
C 147.681915 84.001982 146.983089 85.689099 146.983089 87.44802 
C 146.983089 89.20694 147.681915 90.894057 148.92566 92.137802 
C 150.169405 93.381547 151.856522 94.080373 153.615442 94.080373 
z
" style="fill:#440154;"/>
    <path clip-path="url(#p90b179c4ab)" d="M 239.51245 63.310602 
C 241.320093 63.310602 243.053944 62.592418 244.332141 61.314221 
C 245.610338 60.036024 246.328523 58.302173 246.328523 56.494529 
C 246.328523 54.686885 245.610338 52.953035 244.332141 51.674837 
C 243.053944 50.39664 241.320093 49.678456 239.51245 49.678456 
C 237.704806 49.678456 235.970955 50.39664 234.692758 51.674837 
C 233.414561 52.953035 232.696376 54.686885 232.696376 56.494529 
C 232.696376 58.302173 233.414561 60.036024 234.692758 61.314221 
C 235.970955 62.592418 237.704806 63.310602 239.51245 63.310602 
z
" style="fill:#1f9a8a;"/>
    <path clip-path="url(#p90b179c4ab)" d="M 185.787474 227.068645 
C 187.463643 227.068645 189.071386 226.402697 190.256616 225.217466 
C 191.441846 224.032236 192.107795 222.424493 192.107795 220.748324 
C 192.107795 219.072155 191.441846 217.464412 190.256616 216.279182 
C 189.071386 215.093951 187.463643 214.428002 185.787474 214.428002 
C 184.111305 214.428002 182.503562 215.093951 181.318331 216.279182 
C 180.133101 217.464412 179.467152 219.072155 179.467152 220.748324 
C 179.467152 222.424493 180.133101 224.032236 181.318331 225.217466 
C 182.503562 226.402697 184.111305 227.068645 185.787474 227.068645 
z
" style="fill:#433d84;"/>
    <path clip-path="url(#p90b179c4ab)" d="M 310.991535 127.771752 
C 312.794676 127.771752 314.524208 127.055357 315.799221 125.780343 
C 317.074235 124.50533 317.79063 122.775798 317.79063 120.972657 
C 317.79063 119.169515 317.074235 117.439983 315.799221 116.16497 
C 314.524208 114.889957 312.794676 114.173561 310.991535 114.173561 
C 309.188393 114.173561 307.458861 114.889957 306.183848 116.16497 
C 304.908834 117.439983 304.192439 119.169515 304.192439 120.972657 
C 304.192439 122.775798 304.908834 124.50533 306.183848 125.780343 
C 307.458861 127.055357 309.188393 127.771752 310.991535 127.771752 
z
" style="fill:#63cb5f;"/>
    <path clip-path="url(#p90b179c4ab)" d="M 133.259287 277.779082 
C 135.056991 277.779082 136.781308 277.064847 138.052477 275.793678 
C 139.323645 274.52251 140.037881 272.798193 140.037881 271.000489 
C 140.037881 269.202784 139.323645 267.478468 138.052477 266.207299 
C 136.781308 264.93613 135.056991 264.221895 133.259287 264.221895 
C 131.461583 264.221895 129.737266 264.93613 128.466097 266.207299 
C 127.194928 267.478468 126.480693 269.202784 126.480693 271.000489 
C 126.480693 272.798193 127.194928 274.52251 128.466097 275.793678 
C 129.737266 277.064847 131.461583 277.779082 133.259287 277.779082 
z
" style="fill:#1f978b;"/>
   </g>
   <g id="text_1">
    <!-- Structure #7799, $E_N$=-180.95eV, ΔE=-0.80eV -->
    <defs>
     <path d="M 53.515625 70.515625 
L 53.515625 60.890625 
Q 47.90625 63.578125 42.921875 64.890625 
Q 37.9375 66.21875 33.296875 66.21875 
Q 25.25 66.21875 20.875 63.09375 
Q 16.5 59.96875 16.5 54.203125 
Q 16.5 49.359375 19.40625 46.890625 
Q 22.3125 44.4375 30.421875 42.921875 
L 36.375 41.703125 
Q 47.40625 39.59375 52.65625 34.296875 
Q 57.90625 29 57.90625 20.125 
Q 57.90625 9.515625 50.796875 4.046875 
Q 43.703125 -1.421875 29.984375 -1.421875 
Q 24.8125 -1.421875 18.96875 -0.25 
Q 13.140625 0.921875 6.890625 3.21875 
L 6.890625 13.375 
Q 12.890625 10.015625 18.65625 8.296875 
Q 24.421875 6.59375 29.984375 6.59375 
Q 38.421875 6.59375 43.015625 9.90625 
Q 47.609375 13.234375 47.609375 19.390625 
Q 47.609375 24.75 44.3125 27.78125 
Q 41.015625 30.8125 33.5 32.328125 
L 27.484375 33.5 
Q 16.453125 35.6875 11.515625 40.375 
Q 6.59375 45.0625 6.59375 53.421875 
Q 6.59375 63.09375 13.40625 68.65625 
Q 20.21875 74.21875 32.171875 74.21875 
Q 37.3125 74.21875 42.625 73.28125 
Q 47.953125 72.359375 53.515625 70.515625 
z
" id="DejaVuSans-53"/>
     <path d="M 18.3125 70.21875 
L 18.3125 54.6875 
L 36.8125 54.6875 
L 36.8125 47.703125 
L 18.3125 47.703125 
L 18.3125 18.015625 
Q 18.3125 11.328125 20.140625 9.421875 
Q 21.96875 7.515625 27.59375 7.515625 
L 36.8125 7.515625 
L 36.8125 0 
L 27.59375 0 
Q 17.1875 0 13.234375 3.875 
Q 9.28125 7.765625 9.28125 18.015625 
L 9.28125 47.703125 
L 2.6875 47.703125 
L 2.6875 54.6875 
L 9.28125 54.6875 
L 9.28125 70.21875 
z
" id="DejaVuSans-74"/>
     <path d="M 41.109375 46.296875 
Q 39.59375 47.171875 37.8125 47.578125 
Q 36.03125 48 33.890625 48 
Q 26.265625 48 22.1875 43.046875 
Q 18.109375 38.09375 18.109375 28.8125 
L 18.109375 0 
L 9.078125 0 
L 9.078125 54.6875 
L 18.109375 54.6875 
L 18.109375 46.1875 
Q 20.953125 51.171875 25.484375 53.578125 
Q 30.03125 56 36.53125 56 
Q 37.453125 56 38.578125 55.875 
Q 39.703125 55.765625 41.0625 55.515625 
z
" id="DejaVuSans-72"/>
     <path d="M 8.5 21.578125 
L 8.5 54.6875 
L 17.484375 54.6875 
L 17.484375 21.921875 
Q 17.484375 14.15625 20.5 10.265625 
Q 23.53125 6.390625 29.59375 6.390625 
Q 36.859375 6.390625 41.078125 11.03125 
Q 45.3125 15.671875 45.3125 23.6875 
L 45.3125 54.6875 
L 54.296875 54.6875 
L 54.296875 0 
L 45.3125 0 
L 45.3125 8.40625 
Q 42.046875 3.421875 37.71875 1 
Q 33.40625 -1.421875 27.6875 -1.421875 
Q 18.265625 -1.421875 13.375 4.4375 
Q 8.5 10.296875 8.5 21.578125 
z
M 31.109375 56 
z
" id="DejaVuSans-75"/>
     <path d="M 48.78125 52.59375 
L 48.78125 44.1875 
Q 44.96875 46.296875 41.140625 47.34375 
Q 37.3125 48.390625 33.40625 48.390625 
Q 24.65625 48.390625 19.8125 42.84375 
Q 14.984375 37.3125 14.984375 27.296875 
Q 14.984375 17.28125 19.8125 11.734375 
Q 24.65625 6.203125 33.40625 6.203125 
Q 37.3125 6.203125 41.140625 7.25 
Q 44.96875 8.296875 48.78125 10.40625 
L 48.78125 2.09375 
Q 45.015625 0.34375 40.984375 -0.53125 
Q 36.96875 -1.421875 32.421875 -1.421875 
Q 20.0625 -1.421875 12.78125 6.34375 
Q 5.515625 14.109375 5.515625 27.296875 
Q 5.515625 40.671875 12.859375 48.328125 
Q 20.21875 56 33.015625 56 
Q 37.15625 56 41.109375 55.140625 
Q 45.0625 54.296875 48.78125 52.59375 
z
" id="DejaVuSans-63"/>
     <path d="M 56.203125 29.59375 
L 56.203125 25.203125 
L 14.890625 25.203125 
Q 15.484375 15.921875 20.484375 11.0625 
Q 25.484375 6.203125 34.421875 6.203125 
Q 39.59375 6.203125 44.453125 7.46875 
Q 49.3125 8.734375 54.109375 11.28125 
L 54.109375 2.78125 
Q 49.265625 0.734375 44.1875 -0.34375 
Q 39.109375 -1.421875 33.890625 -1.421875 
Q 20.796875 -1.421875 13.15625 6.1875 
Q 5.515625 13.8125 5.515625 26.8125 
Q 5.515625 40.234375 12.765625 48.109375 
Q 20.015625 56 32.328125 56 
Q 43.359375 56 49.78125 48.890625 
Q 56.203125 41.796875 56.203125 29.59375 
z
M 47.21875 32.234375 
Q 47.125 39.59375 43.09375 43.984375 
Q 39.0625 48.390625 32.421875 48.390625 
Q 24.90625 48.390625 20.390625 44.140625 
Q 15.875 39.890625 15.1875 32.171875 
z
" id="DejaVuSans-65"/>
     <path id="DejaVuSans-20"/>
     <path d="M 51.125 44 
L 36.921875 44 
L 32.8125 27.6875 
L 47.125 27.6875 
z
M 43.796875 71.78125 
L 38.71875 51.515625 
L 52.984375 51.515625 
L 58.109375 71.78125 
L 65.921875 71.78125 
L 60.890625 51.515625 
L 76.125 51.515625 
L 76.125 44 
L 58.984375 44 
L 54.984375 27.6875 
L 70.515625 27.6875 
L 70.515625 20.21875 
L 53.078125 20.21875 
L 48 0 
L 40.1875 0 
L 45.21875 20.21875 
L 30.90625 20.21875 
L 25.875 0 
L 18.015625 0 
L 23.09375 20.21875 
L 7.71875 20.21875 
L 7.71875 27.6875 
L 24.90625 27.6875 
L 29 44 
L 13.28125 44 
L 13.28125 51.515625 
L 30.90625 51.515625 
L 35.890625 71.78125 
z
" id="DejaVuSans-23"/>
     <path d="M 8.203125 72.90625 
L 55.078125 72.90625 
L 55.078125 68.703125 
L 28.609375 0 
L 18.3125 0 
L 43.21875 64.59375 
L 8.203125 64.59375 
z
" id="DejaVuSans-37"/>
     <path d="M 10.984375 1.515625 
L 10.984375 10.5 
Q 14.703125 8.734375 18.5 7.8125 
Q 22.3125 6.890625 25.984375 6.890625 
Q 35.75 6.890625 40.890625 13.453125 
Q 46.046875 20.015625 46.78125 33.40625 
Q 43.953125 29.203125 39.59375 26.953125 
Q 35.25 24.703125 29.984375 24.703125 
Q 19.046875 24.703125 12.671875 31.3125 
Q 6.296875 37.9375 6.296875 49.421875 
Q 6.296875 60.640625 12.9375 67.421875 
Q 19.578125 74.21875 30.609375 74.21875 
Q 43.265625 74.21875 49.921875 64.515625 
Q 56.59375 54.828125 56.59375 36.375 
Q 56.59375 19.140625 48.40625 8.859375 
Q 40.234375 -1.421875 26.421875 -1.421875 
Q 22.703125 -1.421875 18.890625 -0.6875 
Q 15.09375 0.046875 10.984375 1.515625 
z
M 30.609375 32.421875 
Q 37.25 32.421875 41.125 36.953125 
Q 45.015625 41.5 45.015625 49.421875 
Q 45.015625 57.28125 41.125 61.84375 
Q 37.25 66.40625 30.609375 66.40625 
Q 23.96875 66.40625 20.09375 61.84375 
Q 16.21875 57.28125 16.21875 49.421875 
Q 16.21875 41.5 20.09375 36.953125 
Q 23.96875 32.421875 30.609375 32.421875 
z
" id="DejaVuSans-39"/>
     <path d="M 11.71875 12.40625 
L 22.015625 12.40625 
L 22.015625 4 
L 14.015625 -11.625 
L 7.71875 -11.625 
L 11.71875 4 
z
" id="DejaVuSans-2c"/>
     <path d="M 16.890625 72.90625 
L 62.984375 72.90625 
L 61.375 64.59375 
L 25.09375 64.59375 
L 20.90625 43.015625 
L 55.71875 43.015625 
L 54.109375 34.71875 
L 19.28125 34.71875 
L 14.203125 8.296875 
L 51.3125 8.296875 
L 49.703125 0 
L 2.6875 0 
z
" id="DejaVuSans-Oblique-45"/>
     <path d="M 16.890625 72.90625 
L 30.171875 72.90625 
L 50.296875 10.40625 
L 62.5 72.90625 
L 72.125 72.90625 
L 57.90625 0 
L 44.578125 0 
L 24.515625 62.890625 
L 12.3125 0 
L 2.6875 0 
z
" id="DejaVuSans-Oblique-4e"/>
     <path d="M 10.59375 45.40625 
L 73.1875 45.40625 
L 73.1875 37.203125 
L 10.59375 37.203125 
z
M 10.59375 25.484375 
L 73.1875 25.484375 
L 73.1875 17.1875 
L 10.59375 17.1875 
z
" id="DejaVuSans-3d"/>
     <path d="M 4.890625 31.390625 
L 31.203125 31.390625 
L 31.203125 23.390625 
L 4.890625 23.390625 
z
" id="DejaVuSans-2d"/>
     <path d="M 12.40625 8.296875 
L 28.515625 8.296875 
L 28.515625 63.921875 
L 10.984375 60.40625 
L 10.984375 69.390625 
L 28.421875 72.90625 
L 38.28125 72.90625 
L 38.28125 8.296875 
L 54.390625 8.296875 
L 54.390625 0 
L 12.40625 0 
z
" id="DejaVuSans-31"/>
     <path d="M 31.78125 34.625 
Q 24.75 34.625 20.71875 30.859375 
Q 16.703125 27.09375 16.703125 20.515625 
Q 16.703125 13.921875 20.71875 10.15625 
Q 24.75 6.390625 31.78125 6.390625 
Q 38.8125 6.390625 42.859375 10.171875 
Q 46.921875 13.96875 46.921875 20.515625 
Q 46.921875 27.09375 42.890625 30.859375 
Q 38.875 34.625 31.78125 34.625 
z
M 21.921875 38.8125 
Q 15.578125 40.375 12.03125 44.71875 
Q 8.5 49.078125 8.5 55.328125 
Q 8.5 64.0625 14.71875 69.140625 
Q 20.953125 74.21875 31.78125 74.21875 
Q 42.671875 74.21875 48.875 69.140625 
Q 55.078125 64.0625 55.078125 55.328125 
Q 55.078125 49.078125 51.53125 44.71875 
Q 48 40.375 41.703125 38.8125 
Q 48.828125 37.15625 52.796875 32.3125 
Q 56.78125 27.484375 56.78125 20.515625 
Q 56.78125 9.90625 50.3125 4.234375 
Q 43.84375 -1.421875 31.78125 -1.421875 
Q 19.734375 -1.421875 13.25 4.234375 
Q 6.78125 9.90625 6.78125 20.515625 
Q 6.78125 27.484375 10.78125 32.3125 
Q 14.796875 37.15625 21.921875 38.8125 
z
M 18.3125 54.390625 
Q 18.3125 48.734375 21.84375 45.5625 
Q 25.390625 42.390625 31.78125 42.390625 
Q 38.140625 42.390625 41.71875 45.5625 
Q 45.3125 48.734375 45.3125 54.390625 
Q 45.3125 60.0625 41.71875 63.234375 
Q 38.140625 66.40625 31.78125 66.40625 
Q 25.390625 66.40625 21.84375 63.234375 
Q 18.3125 60.0625 18.3125 54.390625 
z
" id="DejaVuSans-38"/>
     <path d="M 31.78125 66.40625 
Q 24.171875 66.40625 20.328125 58.90625 
Q 16.5 51.421875 16.5 36.375 
Q 16.5 21.390625 20.328125 13.890625 
Q 24.171875 6.390625 31.78125 6.390625 
Q 39.453125 6.390625 43.28125 13.890625 
Q 47.125 21.390625 47.125 36.375 
Q 47.125 51.421875 43.28125 58.90625 
Q 39.453125 66.40625 31.78125 66.40625 
z
M 31.78125 74.21875 
Q 44.046875 74.21875 50.515625 64.515625 
Q 56.984375 54.828125 56.984375 36.375 
Q 56.984375 17.96875 50.515625 8.265625 
Q 44.046875 -1.421875 31.78125 -1.421875 
Q 19.53125 -1.421875 13.0625 8.265625 
Q 6.59375 17.96875 6.59375 36.375 
Q 6.59375 54.828125 13.0625 64.515625 
Q 19.53125 74.21875 31.78125 74.21875 
z
" id="DejaVuSans-30"/>
     <path d="M 10.6875 12.40625 
L 21 12.40625 
L 21 0 
L 10.6875 0 
z
" id="DejaVuSans-2e"/>
     <path d="M 10.796875 72.90625 
L 49.515625 72.90625 
L 49.515625 64.59375 
L 19.828125 64.59375 
L 19.828125 46.734375 
Q 21.96875 47.46875 24.109375 47.828125 
Q 26.265625 48.1875 28.421875 48.1875 
Q 40.625 48.1875 47.75 41.5 
Q 54.890625 34.8125 54.890625 23.390625 
Q 54.890625 11.625 47.5625 5.09375 
Q 40.234375 -1.421875 26.90625 -1.421875 
Q 22.3125 -1.421875 17.546875 -0.640625 
Q 12.796875 0.140625 7.71875 1.703125 
L 7.71875 11.625 
Q 12.109375 9.234375 16.796875 8.0625 
Q 21.484375 6.890625 26.703125 6.890625 
Q 35.15625 6.890625 40.078125 11.328125 
Q 45.015625 15.765625 45.015625 23.390625 
Q 45.015625 31 40.078125 35.4375 
Q 35.15625 39.890625 26.703125 39.890625 
Q 22.75 39.890625 18.8125 39.015625 
Q 14.890625 38.140625 10.796875 36.28125 
z
" id="DejaVuSans-35"/>
     <path d="M 28.609375 0 
L 0.78125 72.90625 
L 11.078125 72.90625 
L 34.1875 11.53125 
L 57.328125 72.90625 
L 67.578125 72.90625 
L 39.796875 0 
z
" id="DejaVuSans-56"/>
     <path d="M 34.1875 63.1875 
L 14.15625 8.203125 
L 54.25 8.203125 
z
M 0.78125 0 
L 28.609375 72.90625 
L 39.796875 72.90625 
L 67.578125 0 
z
" id="DejaVuSans-394"/>
     <path d="M 9.8125 72.90625 
L 55.90625 72.90625 
L 55.90625 64.59375 
L 19.671875 64.59375 
L 19.671875 43.015625 
L 54.390625 43.015625 
L 54.390625 34.71875 
L 19.671875 34.71875 
L 19.671875 8.296875 
L 56.78125 8.296875 
L 56.78125 0 
L 9.8125 0 
z
" id="DejaVuSans-45"/>
    </defs>
    <g transform="translate(63.228 35.472)scale(0.12 -0.12)">
     <use transform="translate(0 0.78125)" xlink:href="#DejaVuSans-53"/>
     <use transform="translate(63.476562 0.78125)" xlink:href="#DejaVuSans-74"/>
     <use transform="translate(102.685547 0.78125)" xlink:href="#DejaVuSans-72"/>
     <use transform="translate(143.798828 0.78125)" xlink:href="#DejaVuSans-75"/>
     <use transform="translate(207.177734 0.78125)" xlink:href="#DejaVuSans-63"/>
     <use transform="translate(262.158203 0.78125)" xlink:href="#DejaVuSans-74"/>
     <use transform="translate(301.367188 0.78125)" xlink:href="#DejaVuSans-75"/>
     <use transform="translate(364.746094 0.78125)" xlink:href="#DejaVuSans-72"/>
     <use transform="translate(405.859375 0.78125)" xlink:href="#DejaVuSans-65"/>
     <use transform="translate(467.382812 0.78125)" xlink:href="#DejaVuSans-20"/>
     <use transform="translate(499.169922 0.78125)" xlink:href="#DejaVuSans-23"/>
     <use transform="translate(582.958984 0.78125)" xlink:href="#DejaVuSans-37"/>
     <use transform="translate(646.566406 0.78125)" xlink:href="#DejaVuSans-37"/>
     <use transform="translate(710.189453 0.78125)" xlink:href="#DejaVuSans-39"/>
     <use transform="translate(773.8125 0.78125)" xlink:href="#DejaVuSans-39"/>
     <use transform="translate(837.435547 0.78125)" xlink:href="#DejaVuSans-2c"/>
     <use transform="translate(869.222656 0.78125)" xlink:href="#DejaVuSans-20"/>
     <use transform="translate(901.009766 0.78125)" xlink:href="#DejaVuSans-Oblique-45"/>
     <use transform="translate(964.193359 -15.625)scale(0.7)" xlink:href="#DejaVuSans-Oblique-4e"/>
     <use transform="translate(1019.291016 0.78125)" xlink:href="#DejaVuSans-3d"/>
     <use transform="translate(1103.080078 0.78125)" xlink:href="#DejaVuSans-2d"/>
     <use transform="translate(1139.164062 0.78125)" xlink:href="#DejaVuSans-31"/>
     <use transform="translate(1202.787109 0.78125)" xlink:href="#DejaVuSans-38"/>
     <use transform="translate(1266.410156 0.78125)" xlink:href="#DejaVuSans-30"/>
     <use transform="translate(1330.033203 0.78125)" xlink:href="#DejaVuSans-2e"/>
     <use transform="translate(1361.820312 0.78125)" xlink:href="#DejaVuSans-39"/>
     <use transform="translate(1425.443359 0.78125)" xlink:href="#DejaVuSans-35"/>
     <use transform="translate(1489.066406 0.78125)" xlink:href="#DejaVuSans-65"/>
     <use transform="translate(1550.589844 0.78125)" xlink:href="#DejaVuSans-56"/>
     <use transform="translate(1618.998047 0.78125)" xlink:href="#DejaVuSans-2c"/>
     <use transform="translate(1650.785156 0.78125)" xlink:href="#DejaVuSans-20"/>
     <use transform="translate(1682.572266 0.78125)" xlink:href="#DejaVuSans-394"/>
     <use transform="translate(1750.980469 0.78125)" xlink:href="#DejaVuSans-45"/>
     <use transform="translate(1814.164062 0.78125)" xlink:href="#DejaVuSans-3d"/>
     <use transform="translate(1897.953125 0.78125)" xlink:href="#DejaVuSans-2d"/>
     <use transform="translate(1934.037109 0.78125)" xlink:href="#DejaVuSans-30"/>
     <use transform="translate(1997.660156 0.78125)" xlink:href="#DejaVuSans-2e"/>
     <use transform="translate(2029.416016 0.78125)" xlink:href="#DejaVuSans-38"/>
     <use transform="translate(2093.039062 0.78125)" xlink:href="#DejaVuSans-30"/>
     <use transform="translate(2156.662109 0.78125)" xlink:href="#DejaVuSans-65"/>
     <use transform="translate(2218.185547 0.78125)" xlink:href="#DejaVuSans-56"/>
    </g>
   </g>
  </g>
  <g id="axes_2">
   <g id="patch_2">
    <path clip-path="url(#p9256c8b55a)" d="M 361.152 307.584 
L 361.152 306.5445 
L 361.152 42.5115 
L 361.152 41.472 
L 374.4576 41.472 
L 374.4576 42.5115 
L 374.4576 306.5445 
L 374.4576 307.584 
z
" style="fill:#ffffff;stroke:#ffffff;stroke-linejoin:miter;stroke-width:0.01;"/>
   </g>
   <image height="265.68" id="image1e74ff2e38" transform="scale(1 -1)translate(0 -265.68)" width="12.96" x="361.44" xlink:href="data:image/png;base64,
iVBORw0KGgoAAAANSUhEUgAAABIAAAFxCAYAAAB+2fgXAAAABHNCSVQICAgIfAhkiAAAAeVJREFUeJztncmNw0AQA2ckheYQNv9QLIfQ8ygsCgQ7AEI8+jAs2Puz/94F1LP2ReCsZ18bAWIeZ5XaGRBE7VnbptG+KI101FYyNSiQG2oRITXKNaX9uclOdi2XWjftVE32CZCO2ou5Bj1TcCBr/1zB9ge7Fq0Rg2NM9pvbtG+ua1QgsRYhDy0ISEiNc40BEibbSI0Coj5CBGtkpFbXJiAjNZlrwhuSOv2M1DjXbEdEciBt1JSDDQKKpmZr2rr2j0DBGpXaWEJq3bQzEPIS26r9J+Wzv9Tm8o3aajRXqc3VUXsApKNWjeZq0x4ABVNbm7lrszVigDqP5vIl2+eaT2yfRkL7g+dRcNPqjohkjaCvRVBq0H2U3LQrOJCx9kdTg4B8oxZzzTdqdYHEngjUCAPyUctN9sVRq2sTECW2UKNLd2jVtRmo1A6AhMmWaSRcR8nUdIHUuVb75zJS218EyEitro1At69pIdeSk30Lkw0FktNImGyZRhy1O5galmxd03LUsHWk06jUZiCq+5Wb1kZNN4+wJxJuWt8RAW5am2sYNZ9rYCBzZ3buPKJ2P5Yj4Toy3keyIyJbIxs1rml1byCA84gpch5RQNB7Q0qNMGq2Hy4BXdNR41yz/cEEJfZzUz96r9PoB0okjeQ8y9TkAAAAAElFTkSuQmCC" y="-41.76"/>
   <g id="matplotlib.axis_1"/>
   <g id="matplotlib.axis_2">
    <g id="ytick_1">
     <g id="line2d_1">
      <defs>
       <path d="M 0 0 
L 3.5 0 
" id="m64d9f8eafa" style="stroke:#000000;stroke-width:0.8;"/>
      </defs>
      <g>
       <use style="stroke:#000000;stroke-width:0.8;" x="374.4576" xlink:href="#m64d9f8eafa" y="262.243053"/>
      </g>
     </g>
     <g id="text_2">
      <!-- −8.5 -->
      <defs>
       <path d="M 10.59375 35.5 
L 73.1875 35.5 
L 73.1875 27.203125 
L 10.59375 27.203125 
z
" id="DejaVuSans-2212"/>
      </defs>
      <g transform="translate(381.4576 266.042272)scale(0.1 -0.1)">
       <use xlink:href="#DejaVuSans-2212"/>
       <use x="83.789062" xlink:href="#DejaVuSans-38"/>
       <use x="147.412109" xlink:href="#DejaVuSans-2e"/>
       <use x="179.199219" xlink:href="#DejaVuSans-35"/>
      </g>
     </g>
    </g>
    <g id="ytick_2">
     <g id="line2d_2">
      <g>
       <use style="stroke:#000000;stroke-width:0.8;" x="374.4576" xlink:href="#m64d9f8eafa" y="211.027136"/>
      </g>
     </g>
     <g id="text_3">
      <!-- −8.0 -->
      <g transform="translate(381.4576 214.826355)scale(0.1 -0.1)">
       <use xlink:href="#DejaVuSans-2212"/>
       <use x="83.789062" xlink:href="#DejaVuSans-38"/>
       <use x="147.412109" xlink:href="#DejaVuSans-2e"/>
       <use x="179.199219" xlink:href="#DejaVuSans-30"/>
      </g>
     </g>
    </g>
    <g id="ytick_3">
     <g id="line2d_3">
      <g>
       <use style="stroke:#000000;stroke-width:0.8;" x="374.4576" xlink:href="#m64d9f8eafa" y="159.811219"/>
      </g>
     </g>
     <g id="text_4">
      <!-- −7.5 -->
      <g transform="translate(381.4576 163.610438)scale(0.1 -0.1)">
       <use xlink:href="#DejaVuSans-2212"/>
       <use x="83.789062" xlink:href="#DejaVuSans-37"/>
       <use x="147.412109" xlink:href="#DejaVuSans-2e"/>
       <use x="179.199219" xlink:href="#DejaVuSans-35"/>
      </g>
     </g>
    </g>
    <g id="ytick_4">
     <g id="line2d_4">
      <g>
       <use style="stroke:#000000;stroke-width:0.8;" x="374.4576" xlink:href="#m64d9f8eafa" y="108.595302"/>
      </g>
     </g>
     <g id="text_5">
      <!-- −7.0 -->
      <g transform="translate(381.4576 112.394521)scale(0.1 -0.1)">
       <use xlink:href="#DejaVuSans-2212"/>
       <use x="83.789062" xlink:href="#DejaVuSans-37"/>
       <use x="147.412109" xlink:href="#DejaVuSans-2e"/>
       <use x="179.199219" xlink:href="#DejaVuSans-30"/>
      </g>
     </g>
    </g>
    <g id="ytick_5">
     <g id="line2d_5">
      <g>
       <use style="stroke:#000000;stroke-width:0.8;" x="374.4576" xlink:href="#m64d9f8eafa" y="57.379385"/>
      </g>
     </g>
     <g id="text_6">
      <!-- −6.5 -->
      <defs>
       <path d="M 33.015625 40.375 
Q 26.375 40.375 22.484375 35.828125 
Q 18.609375 31.296875 18.609375 23.390625 
Q 18.609375 15.53125 22.484375 10.953125 
Q 26.375 6.390625 33.015625 6.390625 
Q 39.65625 6.390625 43.53125 10.953125 
Q 47.40625 15.53125 47.40625 23.390625 
Q 47.40625 31.296875 43.53125 35.828125 
Q 39.65625 40.375 33.015625 40.375 
z
M 52.59375 71.296875 
L 52.59375 62.3125 
Q 48.875 64.0625 45.09375 64.984375 
Q 41.3125 65.921875 37.59375 65.921875 
Q 27.828125 65.921875 22.671875 59.328125 
Q 17.53125 52.734375 16.796875 39.40625 
Q 19.671875 43.65625 24.015625 45.921875 
Q 28.375 48.1875 33.59375 48.1875 
Q 44.578125 48.1875 50.953125 41.515625 
Q 57.328125 34.859375 57.328125 23.390625 
Q 57.328125 12.15625 50.6875 5.359375 
Q 44.046875 -1.421875 33.015625 -1.421875 
Q 20.359375 -1.421875 13.671875 8.265625 
Q 6.984375 17.96875 6.984375 36.375 
Q 6.984375 53.65625 15.1875 63.9375 
Q 23.390625 74.21875 37.203125 74.21875 
Q 40.921875 74.21875 44.703125 73.484375 
Q 48.484375 72.75 52.59375 71.296875 
z
" id="DejaVuSans-36"/>
      </defs>
      <g transform="translate(381.4576 61.178604)scale(0.1 -0.1)">
       <use xlink:href="#DejaVuSans-2212"/>
       <use x="83.789062" xlink:href="#DejaVuSans-36"/>
       <use x="147.412109" xlink:href="#DejaVuSans-2e"/>
       <use x="179.199219" xlink:href="#DejaVuSans-35"/>
      </g>
     </g>
    </g>
    <g id="text_7">
     <!-- Energy [eV] -->
     <defs>
      <path d="M 54.890625 33.015625 
L 54.890625 0 
L 45.90625 0 
L 45.90625 32.71875 
Q 45.90625 40.484375 42.875 44.328125 
Q 39.84375 48.1875 33.796875 48.1875 
Q 26.515625 48.1875 22.3125 43.546875 
Q 18.109375 38.921875 18.109375 30.90625 
L 18.109375 0 
L 9.078125 0 
L 9.078125 54.6875 
L 18.109375 54.6875 
L 18.109375 46.1875 
Q 21.34375 51.125 25.703125 53.5625 
Q 30.078125 56 35.796875 56 
Q 45.21875 56 50.046875 50.171875 
Q 54.890625 44.34375 54.890625 33.015625 
z
" id="DejaVuSans-6e"/>
      <path d="M 45.40625 27.984375 
Q 45.40625 37.75 41.375 43.109375 
Q 37.359375 48.484375 30.078125 48.484375 
Q 22.859375 48.484375 18.828125 43.109375 
Q 14.796875 37.75 14.796875 27.984375 
Q 14.796875 18.265625 18.828125 12.890625 
Q 22.859375 7.515625 30.078125 7.515625 
Q 37.359375 7.515625 41.375 12.890625 
Q 45.40625 18.265625 45.40625 27.984375 
z
M 54.390625 6.78125 
Q 54.390625 -7.171875 48.1875 -13.984375 
Q 42 -20.796875 29.203125 -20.796875 
Q 24.46875 -20.796875 20.265625 -20.09375 
Q 16.0625 -19.390625 12.109375 -17.921875 
L 12.109375 -9.1875 
Q 16.0625 -11.328125 19.921875 -12.34375 
Q 23.78125 -13.375 27.78125 -13.375 
Q 36.625 -13.375 41.015625 -8.765625 
Q 45.40625 -4.15625 45.40625 5.171875 
L 45.40625 9.625 
Q 42.625 4.78125 38.28125 2.390625 
Q 33.9375 0 27.875 0 
Q 17.828125 0 11.671875 7.65625 
Q 5.515625 15.328125 5.515625 27.984375 
Q 5.515625 40.671875 11.671875 48.328125 
Q 17.828125 56 27.875 56 
Q 33.9375 56 38.28125 53.609375 
Q 42.625 51.21875 45.40625 46.390625 
L 45.40625 54.6875 
L 54.390625 54.6875 
z
" id="DejaVuSans-67"/>
      <path d="M 32.171875 -5.078125 
Q 28.375 -14.84375 24.75 -17.8125 
Q 21.140625 -20.796875 15.09375 -20.796875 
L 7.90625 -20.796875 
L 7.90625 -13.28125 
L 13.1875 -13.28125 
Q 16.890625 -13.28125 18.9375 -11.515625 
Q 21 -9.765625 23.484375 -3.21875 
L 25.09375 0.875 
L 2.984375 54.6875 
L 12.5 54.6875 
L 29.59375 11.921875 
L 46.6875 54.6875 
L 56.203125 54.6875 
z
" id="DejaVuSans-79"/>
      <path d="M 8.59375 75.984375 
L 29.296875 75.984375 
L 29.296875 69 
L 17.578125 69 
L 17.578125 -6.203125 
L 29.296875 -6.203125 
L 29.296875 -13.1875 
L 8.59375 -13.1875 
z
" id="DejaVuSans-5b"/>
      <path d="M 30.421875 75.984375 
L 30.421875 -13.1875 
L 9.71875 -13.1875 
L 9.71875 -6.203125 
L 21.390625 -6.203125 
L 21.390625 69 
L 9.71875 69 
L 9.71875 75.984375 
z
" id="DejaVuSans-5d"/>
     </defs>
     <g transform="translate(417.33885 204.108469)rotate(-90)scale(0.1 -0.1)">
      <use xlink:href="#DejaVuSans-45"/>
      <use x="63.183594" xlink:href="#DejaVuSans-6e"/>
      <use x="126.5625" xlink:href="#DejaVuSans-65"/>
      <use x="188.085938" xlink:href="#DejaVuSans-72"/>
      <use x="229.183594" xlink:href="#DejaVuSans-67"/>
      <use x="292.660156" xlink:href="#DejaVuSans-79"/>
      <use x="351.839844" xlink:href="#DejaVuSans-20"/>
      <use x="383.626953" xlink:href="#DejaVuSans-5b"/>
      <use x="422.640625" xlink:href="#DejaVuSans-65"/>
      <use x="484.164062" xlink:href="#DejaVuSans-56"/>
      <use x="552.572266" xlink:href="#DejaVuSans-5d"/>
     </g>
    </g>
   </g>
   <g id="patch_3">
    <path d="M 361.152 307.584 
L 361.152 306.5445 
L 361.152 42.5115 
L 361.152 41.472 
L 374.4576 41.472 
L 374.4576 42.5115 
L 374.4576 306.5445 
L 374.4576 307.584 
z
" style="fill:none;stroke:#000000;stroke-linejoin:miter;stroke-width:0.8;"/>
   </g>
  </g>
 </g>
 <defs>
  <clipPath id="p90b179c4ab">
   <rect height="266.112" width="285.696" x="57.6" y="41.472"/>
  </clipPath>
  <clipPath id="p9256c8b55a">
   <rect height="266.112" width="13.3056" x="361.152" y="41.472"/>
  </clipPath>
 </defs>
</svg>
