<?xml version="1.0" encoding="utf-8" standalone="no"?>
<!DOCTYPE svg PUBLIC "-//W3C//DTD SVG 1.1//EN"
  "http://www.w3.org/Graphics/SVG/1.1/DTD/svg11.dtd">
<!-- Created with matplotlib (http://matplotlib.org/) -->
<svg height="345.6pt" version="1.1" viewBox="0 0 460.8 345.6" width="460.8pt" xmlns="http://www.w3.org/2000/svg" xmlns:xlink="http://www.w3.org/1999/xlink">
 <defs>
  <style type="text/css">
*{stroke-linecap:butt;stroke-linejoin:round;}
  </style>
 </defs>
 <g id="figure_1">
  <g id="patch_1">
   <path d="M 0 345.6 
L 460.8 345.6 
L 460.8 0 
L 0 0 
z
" style="fill:#ffffff;"/>
  </g>
  <g id="axes_1">
   <g id="CircleCollection_1">
    <path clip-path="url(#p339f191e00)" d="M 122.948145 278.340494 
C 124.733203 278.340494 126.445389 277.631283 127.707616 276.369057 
C 128.969842 275.10683 129.679053 273.394644 129.679053 271.609586 
C 129.679053 269.824528 128.969842 268.112341 127.707616 266.850115 
C 126.445389 265.587888 124.733203 264.878677 122.948145 264.878677 
C 121.163087 264.878677 119.4509 265.587888 118.188674 266.850115 
C 116.926447 268.112341 116.217236 269.824528 116.217236 271.609586 
C 116.217236 273.394644 116.926447 275.10683 118.188674 276.369057 
C 119.4509 277.631283 121.163087 278.340494 122.948145 278.340494 
z
" style="fill:#20a386;"/>
    <path clip-path="url(#p339f191e00)" d="M 287.606154 166.305897 
C 289.31559 166.305897 290.955241 165.626731 292.163994 164.417978 
C 293.372748 163.209225 294.051913 161.569573 294.051913 159.860138 
C 294.051913 158.150702 293.372748 156.511051 292.163994 155.302298 
C 290.955241 154.093544 289.31559 153.414379 287.606154 153.414379 
C 285.896719 153.414379 284.257067 154.093544 283.048314 155.302298 
C 281.839561 156.511051 281.160395 158.150702 281.160395 159.860138 
C 281.160395 161.569573 281.839561 163.209225 283.048314 164.417978 
C 284.257067 165.626731 285.896719 166.305897 287.606154 166.305897 
z
" style="fill:#22a884;"/>
    <path clip-path="url(#p339f191e00)" d="M 274.748827 202.855928 
C 276.528666 202.855928 278.235846 202.148791 279.494382 200.890255 
C 280.752918 199.631719 281.460056 197.924538 281.460056 196.144699 
C 281.460056 194.36486 280.752918 192.65768 279.494382 191.399144 
C 278.235846 190.140607 276.528666 189.43347 274.748827 189.43347 
C 272.968988 189.43347 271.261807 190.140607 270.003271 191.399144 
C 268.744735 192.65768 268.037598 194.36486 268.037598 196.144699 
C 268.037598 197.924538 268.744735 199.631719 270.003271 200.890255 
C 271.261807 202.148791 272.968988 202.855928 274.748827 202.855928 
z
" style="fill:#463480;"/>
    <path clip-path="url(#p339f191e00)" d="M 192.794342 170.745071 
C 194.585119 170.745071 196.30279 170.033588 197.56906 168.767318 
C 198.83533 167.501048 199.546813 165.783376 199.546813 163.9926 
C 199.546813 162.201824 198.83533 160.484152 197.56906 159.217882 
C 196.30279 157.951612 194.585119 157.240129 192.794342 157.240129 
C 191.003566 157.240129 189.285894 157.951612 188.019624 159.217882 
C 186.753354 160.484152 186.041872 162.201824 186.041872 163.9926 
C 186.041872 165.783376 186.753354 167.501048 188.019624 168.767318 
C 189.285894 170.033588 191.003566 170.745071 192.794342 170.745071 
z
" style="fill:#471063;"/>
    <path clip-path="url(#p339f191e00)" d="M 217.878703 60.72154 
C 219.611792 60.72154 221.274132 60.032977 222.499611 58.807497 
C 223.725091 57.582018 224.413654 55.919678 224.413654 54.186588 
C 224.413654 52.453499 223.725091 50.791159 222.499611 49.56568 
C 221.274132 48.3402 219.611792 47.651637 217.878703 47.651637 
C 216.145613 47.651637 214.483273 48.3402 213.257794 49.56568 
C 212.032314 50.791159 211.343751 52.453499 211.343751 54.186588 
C 211.343751 55.919678 212.032314 57.582018 213.257794 58.807497 
C 214.483273 60.032977 216.145613 60.72154 217.878703 60.72154 
z
" style="fill:#9dd93b;"/>
    <path clip-path="url(#p339f191e00)" d="M 329.875751 141.470145 
C 331.611138 141.470145 333.275682 140.780668 334.502785 139.553564 
C 335.729889 138.326461 336.419366 136.661917 336.419366 134.92653 
C 336.419366 133.191143 335.729889 131.5266 334.502785 130.299496 
C 333.275682 129.072392 331.611138 128.382916 329.875751 128.382916 
C 328.140364 128.382916 326.475821 129.072392 325.248717 130.299496 
C 324.021613 131.5266 323.332137 133.191143 323.332137 134.92653 
C 323.332137 136.661917 324.021613 138.326461 325.248717 139.553564 
C 326.475821 140.780668 328.140364 141.470145 329.875751 141.470145 
z
" style="fill:#73d056;"/>
    <path clip-path="url(#p339f191e00)" d="M 288.681072 301.413052 
C 290.416707 301.413052 292.081488 300.723477 293.308767 299.496198 
C 294.536046 298.268919 295.225621 296.604138 295.225621 294.868503 
C 295.225621 293.132868 294.536046 291.468087 293.308767 290.240808 
C 292.081488 289.013529 290.416707 288.323954 288.681072 288.323954 
C 286.945437 288.323954 285.280656 289.013529 284.053377 290.240808 
C 282.826098 291.468087 282.136523 293.132868 282.136523 294.868503 
C 282.136523 296.604138 282.826098 298.268919 284.053377 299.496198 
C 285.280656 300.723477 286.945437 301.413052 288.681072 301.413052 
z
" style="fill:#4ec36b;"/>
    <path clip-path="url(#p339f191e00)" d="M 284.473245 253.502608 
C 286.233051 253.502608 287.921016 252.80343 289.165387 251.55906 
C 290.409757 250.314689 291.108935 248.626724 291.108935 246.866919 
C 291.108935 245.107113 290.409757 243.419148 289.165387 242.174778 
C 287.921016 240.930407 286.233051 240.231229 284.473245 240.231229 
C 282.71344 240.231229 281.025475 240.930407 279.781104 242.174778 
C 278.536734 243.419148 277.837556 245.107113 277.837556 246.866919 
C 277.837556 248.626724 278.536734 250.314689 279.781104 251.55906 
C 281.025475 252.80343 282.71344 253.502608 284.473245 253.502608 
z
" style="fill:#24878e;"/>
    <path clip-path="url(#p339f191e00)" d="M 304.138127 164.38338 
C 305.948515 164.38338 307.684998 163.664105 308.965136 162.383967 
C 310.245274 161.10383 310.964548 159.367347 310.964548 157.556959 
C 310.964548 155.74657 310.245274 154.010087 308.965136 152.72995 
C 307.684998 151.449812 305.948515 150.730537 304.138127 150.730537 
C 302.327739 150.730537 300.591256 151.449812 299.311118 152.72995 
C 298.03098 154.010087 297.311705 155.74657 297.311705 157.556959 
C 297.311705 159.367347 298.03098 161.10383 299.311118 162.383967 
C 300.591256 163.664105 302.327739 164.38338 304.138127 164.38338 
z
" style="fill:#1f9a8a;"/>
    <path clip-path="url(#p339f191e00)" d="M 131.921951 90.765588 
C 133.681844 90.765588 135.369894 90.066375 136.614327 88.821942 
C 137.85876 87.577509 138.557973 85.88946 138.557973 84.129566 
C 138.557973 82.369672 137.85876 80.681622 136.614327 79.43719 
C 135.369894 78.192757 133.681844 77.493544 131.921951 77.493544 
C 130.162057 77.493544 128.474007 78.192757 127.229574 79.43719 
C 125.985142 80.681622 125.285929 82.369672 125.285929 84.129566 
C 125.285929 85.88946 125.985142 87.577509 127.229574 88.821942 
C 128.474007 90.066375 130.162057 90.765588 131.921951 90.765588 
z
" style="fill:#2b758e;"/>
    <path clip-path="url(#p339f191e00)" d="M 158.76147 246.608273 
C 160.548382 246.608273 162.262347 245.898326 163.525884 244.634788 
C 164.789422 243.371251 165.499369 241.657286 165.499369 239.870374 
C 165.499369 238.083462 164.789422 236.369497 163.525884 235.10596 
C 162.262347 233.842422 160.548382 233.132475 158.76147 233.132475 
C 156.974558 233.132475 155.260593 233.842422 153.997056 235.10596 
C 152.733518 236.369497 152.023571 238.083462 152.023571 239.870374 
C 152.023571 241.657286 152.733518 243.371251 153.997056 244.634788 
C 155.260593 245.898326 156.974558 246.608273 158.76147 246.608273 
z
" style="fill:#433d84;"/>
    <path clip-path="url(#p339f191e00)" d="M 226.794536 205.30614 
C 228.603779 205.30614 230.339164 204.58732 231.618492 203.307992 
C 232.897821 202.028664 233.616641 200.293279 233.616641 198.484036 
C 233.616641 196.674792 232.897821 194.939407 231.618492 193.660079 
C 230.339164 192.380751 228.603779 191.661931 226.794536 191.661931 
C 224.985293 191.661931 223.249908 192.380751 221.970579 193.660079 
C 220.691251 194.939407 219.972431 196.674792 219.972431 198.484036 
C 219.972431 200.293279 220.691251 202.028664 221.970579 203.307992 
C 223.249908 204.58732 224.985293 205.30614 226.794536 205.30614 
z
" style="fill:#443983;"/>
    <path clip-path="url(#p339f191e00)" d="M 286.132302 120.592231 
C 287.901737 120.592231 289.598939 119.889227 290.850119 118.638048 
C 292.101298 117.386868 292.804302 115.689666 292.804302 113.920231 
C 292.804302 112.150796 292.101298 110.453594 290.850119 109.202414 
C 289.598939 107.951234 287.901737 107.24823 286.132302 107.24823 
C 284.362866 107.24823 282.665665 107.951234 281.414485 109.202414 
C 280.163305 110.453594 279.460301 112.150796 279.460301 113.920231 
C 279.460301 115.689666 280.163305 117.386868 281.414485 118.638048 
C 282.665665 119.889227 284.362866 120.592231 286.132302 120.592231 
z
" style="fill:#29798e;"/>
    <path clip-path="url(#p339f191e00)" d="M 108.574045 127.206014 
C 110.336864 127.206014 112.02772 126.505638 113.274221 125.259137 
C 114.520723 124.012636 115.221098 122.32178 115.221098 120.55896 
C 115.221098 118.796141 114.520723 117.105285 113.274221 115.858784 
C 112.02772 114.612283 110.336864 113.911907 108.574045 113.911907 
C 106.811226 113.911907 105.12037 114.612283 103.873868 115.858784 
C 102.627367 117.105285 101.926992 118.796141 101.926992 120.55896 
C 101.926992 122.32178 102.627367 124.012636 103.873868 125.259137 
C 105.12037 126.505638 106.811226 127.206014 108.574045 127.206014 
z
" style="fill:#20928c;"/>
    <path clip-path="url(#p339f191e00)" d="M 244.98861 98.619432 
C 246.757558 98.619432 248.454293 97.916621 249.705128 96.665786 
C 250.955964 95.41495 251.658774 93.718216 251.658774 91.949267 
C 251.658774 90.180319 250.955964 88.483584 249.705128 87.232749 
C 248.454293 85.981914 246.757558 85.279103 244.98861 85.279103 
C 243.219662 85.279103 241.522927 85.981914 240.272092 87.232749 
C 239.021256 88.483584 238.318446 90.180319 238.318446 91.949267 
C 238.318446 93.718216 239.021256 95.41495 240.272092 96.665786 
C 241.522927 97.916621 243.219662 98.619432 244.98861 98.619432 
z
" style="fill:#404688;"/>
    <path clip-path="url(#p339f191e00)" d="M 177.325227 83.026716 
C 179.087075 83.026716 180.777 82.326726 182.022814 81.080912 
C 183.268629 79.835097 183.968619 78.145173 183.968619 76.383325 
C 183.968619 74.621477 183.268629 72.931552 182.022814 71.685738 
C 180.777 70.439923 179.087075 69.739934 177.325227 69.739934 
C 175.56338 69.739934 173.873455 70.439923 172.627641 71.685738 
C 171.381826 72.931552 170.681836 74.621477 170.681836 76.383325 
C 170.681836 78.145173 171.381826 79.835097 172.627641 81.080912 
C 173.873455 82.326726 175.56338 83.026716 177.325227 83.026716 
z
" style="fill:#3e4989;"/>
    <path clip-path="url(#p339f191e00)" d="M 88.476506 251.707016 
C 90.245494 251.707016 91.942267 251.00419 93.19313 249.753326 
C 94.443994 248.502463 95.14682 246.80569 95.14682 245.036702 
C 95.14682 243.267714 94.443994 241.570941 93.19313 240.320077 
C 91.942267 239.069214 90.245494 238.366387 88.476506 238.366387 
C 86.707518 238.366387 85.010745 239.069214 83.759881 240.320077 
C 82.509018 241.570941 81.806191 243.267714 81.806191 245.036702 
C 81.806191 246.80569 82.509018 248.502463 83.759881 249.753326 
C 85.010745 251.00419 86.707518 251.707016 88.476506 251.707016 
z
" style="fill:#287c8e;"/>
    <path clip-path="url(#p339f191e00)" d="M 203.146791 123.750407 
C 204.933124 123.750407 206.646534 123.040689 207.909662 121.777561 
C 209.17279 120.514433 209.882507 118.801024 209.882507 117.014691 
C 209.882507 115.228358 209.17279 113.514948 207.909662 112.25182 
C 206.646534 110.988692 204.933124 110.278975 203.146791 110.278975 
C 201.360458 110.278975 199.647049 110.988692 198.383921 112.25182 
C 197.120793 113.514948 196.411075 115.228358 196.411075 117.014691 
C 196.411075 118.801024 197.120793 120.514433 198.383921 121.777561 
C 199.647049 123.040689 201.360458 123.750407 203.146791 123.750407 
z
" style="fill:#443b84;"/>
    <path clip-path="url(#p339f191e00)" d="M 208.429436 255.318969 
C 210.22059 255.318969 211.938625 254.607336 213.205162 253.340798 
C 214.4717 252.074261 215.183333 250.356226 215.183333 248.565072 
C 215.183333 246.773918 214.4717 245.055883 213.205162 243.789346 
C 211.938625 242.522808 210.22059 241.811175 208.429436 241.811175 
C 206.638281 241.811175 204.920247 242.522808 203.65371 243.789346 
C 202.387172 245.055883 201.675539 246.773918 201.675539 248.565072 
C 201.675539 250.356226 202.387172 252.074261 203.65371 253.340798 
C 204.920247 254.607336 206.638281 255.318969 208.429436 255.318969 
z
" style="fill:#443b84;"/>
    <path clip-path="url(#p339f191e00)" d="M 245.855249 280.547879 
C 247.613296 280.547879 249.299574 279.849399 250.542701 278.606272 
C 251.785828 277.363146 252.484307 275.676867 252.484307 273.91882 
C 252.484307 272.160773 251.785828 270.474495 250.542701 269.231368 
C 249.299574 267.988241 247.613296 267.289761 245.855249 267.289761 
C 244.097202 267.289761 242.410923 267.988241 241.167796 269.231368 
C 239.924669 270.474495 239.22619 272.160773 239.22619 273.91882 
C 239.22619 275.676867 239.924669 277.363146 241.167796 278.606272 
C 242.410923 279.849399 244.097202 280.547879 245.855249 280.547879 
z
" style="fill:#27808e;"/>
    <path clip-path="url(#p339f191e00)" d="M 151.029553 195.846813 
C 152.814641 195.846813 154.526856 195.137591 155.789103 193.875343 
C 157.051351 192.613096 157.760574 190.90088 157.760574 189.115793 
C 157.760574 187.330705 157.051351 185.61849 155.789103 184.356243 
C 154.526856 183.093995 152.814641 182.384773 151.029553 182.384773 
C 149.244466 182.384773 147.532251 183.093995 146.270003 184.356243 
C 145.007756 185.61849 144.298533 187.330705 144.298533 189.115793 
C 144.298533 190.90088 145.007756 192.613096 146.270003 193.875343 
C 147.532251 195.137591 149.244466 195.846813 151.029553 195.846813 
z
" style="fill:#414287;"/>
    <path clip-path="url(#p339f191e00)" d="M 213.593851 239.331812 
C 215.472433 239.331812 217.274326 238.585444 218.602684 237.257085 
C 219.931042 235.928727 220.67741 234.126834 220.67741 232.248252 
C 220.67741 230.36967 219.931042 228.567777 218.602684 227.239419 
C 217.274326 225.911061 215.472433 225.164693 213.593851 225.164693 
C 211.715269 225.164693 209.913375 225.911061 208.585017 227.239419 
C 207.256659 228.567777 206.510291 230.36967 206.510291 232.248252 
C 206.510291 234.126834 207.256659 235.928727 208.585017 237.257085 
C 209.913375 238.585444 211.715269 239.331812 213.593851 239.331812 
z
" style="fill:#fde725;"/>
    <path clip-path="url(#p339f191e00)" d="M 106.754371 177.070846 
C 108.524527 177.070846 110.22242 176.367556 111.47411 175.115866 
C 112.725799 173.864177 113.429089 172.166284 113.429089 170.396128 
C 113.429089 168.625972 112.725799 166.928079 111.47411 165.676389 
C 110.22242 164.4247 108.524527 163.72141 106.754371 163.72141 
C 104.984215 163.72141 103.286322 164.4247 102.034633 165.676389 
C 100.782943 166.928079 100.079653 168.625972 100.079653 170.396128 
C 100.079653 172.166284 100.782943 173.864177 102.034633 175.115866 
C 103.286322 176.367556 104.984215 177.070846 106.754371 177.070846 
z
" style="fill:#440154;"/>
    <path clip-path="url(#p339f191e00)" d="M 71.026958 209.624075 
C 72.789168 209.624075 74.47944 208.923942 75.725511 207.677871 
C 76.971582 206.4318 77.671715 204.741528 77.671715 202.979318 
C 77.671715 201.217108 76.971582 199.526836 75.725511 198.280765 
C 74.47944 197.034695 72.789168 196.334561 71.026958 196.334561 
C 69.264748 196.334561 67.574476 197.034695 66.328405 198.280765 
C 65.082334 199.526836 64.382201 201.217108 64.382201 202.979318 
C 64.382201 204.741528 65.082334 206.4318 66.328405 207.677871 
C 67.574476 208.923942 69.264748 209.624075 71.026958 209.624075 
z
" style="fill:#27ad81;"/>
   </g>
   <g id="text_1">
    <!-- Structure #1910, $E_N$=-176.18eV, ΔE=0.83eV -->
    <defs>
     <path d="M 53.515625 70.515625 
L 53.515625 60.890625 
Q 47.90625 63.578125 42.921875 64.890625 
Q 37.9375 66.21875 33.296875 66.21875 
Q 25.25 66.21875 20.875 63.09375 
Q 16.5 59.96875 16.5 54.203125 
Q 16.5 49.359375 19.40625 46.890625 
Q 22.3125 44.4375 30.421875 42.921875 
L 36.375 41.703125 
Q 47.40625 39.59375 52.65625 34.296875 
Q 57.90625 29 57.90625 20.125 
Q 57.90625 9.515625 50.796875 4.046875 
Q 43.703125 -1.421875 29.984375 -1.421875 
Q 24.8125 -1.421875 18.96875 -0.25 
Q 13.140625 0.921875 6.890625 3.21875 
L 6.890625 13.375 
Q 12.890625 10.015625 18.65625 8.296875 
Q 24.421875 6.59375 29.984375 6.59375 
Q 38.421875 6.59375 43.015625 9.90625 
Q 47.609375 13.234375 47.609375 19.390625 
Q 47.609375 24.75 44.3125 27.78125 
Q 41.015625 30.8125 33.5 32.328125 
L 27.484375 33.5 
Q 16.453125 35.6875 11.515625 40.375 
Q 6.59375 45.0625 6.59375 53.421875 
Q 6.59375 63.09375 13.40625 68.65625 
Q 20.21875 74.21875 32.171875 74.21875 
Q 37.3125 74.21875 42.625 73.28125 
Q 47.953125 72.359375 53.515625 70.515625 
z
" id="DejaVuSans-53"/>
     <path d="M 18.3125 70.21875 
L 18.3125 54.6875 
L 36.8125 54.6875 
L 36.8125 47.703125 
L 18.3125 47.703125 
L 18.3125 18.015625 
Q 18.3125 11.328125 20.140625 9.421875 
Q 21.96875 7.515625 27.59375 7.515625 
L 36.8125 7.515625 
L 36.8125 0 
L 27.59375 0 
Q 17.1875 0 13.234375 3.875 
Q 9.28125 7.765625 9.28125 18.015625 
L 9.28125 47.703125 
L 2.6875 47.703125 
L 2.6875 54.6875 
L 9.28125 54.6875 
L 9.28125 70.21875 
z
" id="DejaVuSans-74"/>
     <path d="M 41.109375 46.296875 
Q 39.59375 47.171875 37.8125 47.578125 
Q 36.03125 48 33.890625 48 
Q 26.265625 48 22.1875 43.046875 
Q 18.109375 38.09375 18.109375 28.8125 
L 18.109375 0 
L 9.078125 0 
L 9.078125 54.6875 
L 18.109375 54.6875 
L 18.109375 46.1875 
Q 20.953125 51.171875 25.484375 53.578125 
Q 30.03125 56 36.53125 56 
Q 37.453125 56 38.578125 55.875 
Q 39.703125 55.765625 41.0625 55.515625 
z
" id="DejaVuSans-72"/>
     <path d="M 8.5 21.578125 
L 8.5 54.6875 
L 17.484375 54.6875 
L 17.484375 21.921875 
Q 17.484375 14.15625 20.5 10.265625 
Q 23.53125 6.390625 29.59375 6.390625 
Q 36.859375 6.390625 41.078125 11.03125 
Q 45.3125 15.671875 45.3125 23.6875 
L 45.3125 54.6875 
L 54.296875 54.6875 
L 54.296875 0 
L 45.3125 0 
L 45.3125 8.40625 
Q 42.046875 3.421875 37.71875 1 
Q 33.40625 -1.421875 27.6875 -1.421875 
Q 18.265625 -1.421875 13.375 4.4375 
Q 8.5 10.296875 8.5 21.578125 
z
M 31.109375 56 
z
" id="DejaVuSans-75"/>
     <path d="M 48.78125 52.59375 
L 48.78125 44.1875 
Q 44.96875 46.296875 41.140625 47.34375 
Q 37.3125 48.390625 33.40625 48.390625 
Q 24.65625 48.390625 19.8125 42.84375 
Q 14.984375 37.3125 14.984375 27.296875 
Q 14.984375 17.28125 19.8125 11.734375 
Q 24.65625 6.203125 33.40625 6.203125 
Q 37.3125 6.203125 41.140625 7.25 
Q 44.96875 8.296875 48.78125 10.40625 
L 48.78125 2.09375 
Q 45.015625 0.34375 40.984375 -0.53125 
Q 36.96875 -1.421875 32.421875 -1.421875 
Q 20.0625 -1.421875 12.78125 6.34375 
Q 5.515625 14.109375 5.515625 27.296875 
Q 5.515625 40.671875 12.859375 48.328125 
Q 20.21875 56 33.015625 56 
Q 37.15625 56 41.109375 55.140625 
Q 45.0625 54.296875 48.78125 52.59375 
z
" id="DejaVuSans-63"/>
     <path d="M 56.203125 29.59375 
L 56.203125 25.203125 
L 14.890625 25.203125 
Q 15.484375 15.921875 20.484375 11.0625 
Q 25.484375 6.203125 34.421875 6.203125 
Q 39.59375 6.203125 44.453125 7.46875 
Q 49.3125 8.734375 54.109375 11.28125 
L 54.109375 2.78125 
Q 49.265625 0.734375 44.1875 -0.34375 
Q 39.109375 -1.421875 33.890625 -1.421875 
Q 20.796875 -1.421875 13.15625 6.1875 
Q 5.515625 13.8125 5.515625 26.8125 
Q 5.515625 40.234375 12.765625 48.109375 
Q 20.015625 56 32.328125 56 
Q 43.359375 56 49.78125 48.890625 
Q 56.203125 41.796875 56.203125 29.59375 
z
M 47.21875 32.234375 
Q 47.125 39.59375 43.09375 43.984375 
Q 39.0625 48.390625 32.421875 48.390625 
Q 24.90625 48.390625 20.390625 44.140625 
Q 15.875 39.890625 15.1875 32.171875 
z
" id="DejaVuSans-65"/>
     <path id="DejaVuSans-20"/>
     <path d="M 51.125 44 
L 36.921875 44 
L 32.8125 27.6875 
L 47.125 27.6875 
z
M 43.796875 71.78125 
L 38.71875 51.515625 
L 52.984375 51.515625 
L 58.109375 71.78125 
L 65.921875 71.78125 
L 60.890625 51.515625 
L 76.125 51.515625 
L 76.125 44 
L 58.984375 44 
L 54.984375 27.6875 
L 70.515625 27.6875 
L 70.515625 20.21875 
L 53.078125 20.21875 
L 48 0 
L 40.1875 0 
L 45.21875 20.21875 
L 30.90625 20.21875 
L 25.875 0 
L 18.015625 0 
L 23.09375 20.21875 
L 7.71875 20.21875 
L 7.71875 27.6875 
L 24.90625 27.6875 
L 29 44 
L 13.28125 44 
L 13.28125 51.515625 
L 30.90625 51.515625 
L 35.890625 71.78125 
z
" id="DejaVuSans-23"/>
     <path d="M 12.40625 8.296875 
L 28.515625 8.296875 
L 28.515625 63.921875 
L 10.984375 60.40625 
L 10.984375 69.390625 
L 28.421875 72.90625 
L 38.28125 72.90625 
L 38.28125 8.296875 
L 54.390625 8.296875 
L 54.390625 0 
L 12.40625 0 
z
" id="DejaVuSans-31"/>
     <path d="M 10.984375 1.515625 
L 10.984375 10.5 
Q 14.703125 8.734375 18.5 7.8125 
Q 22.3125 6.890625 25.984375 6.890625 
Q 35.75 6.890625 40.890625 13.453125 
Q 46.046875 20.015625 46.78125 33.40625 
Q 43.953125 29.203125 39.59375 26.953125 
Q 35.25 24.703125 29.984375 24.703125 
Q 19.046875 24.703125 12.671875 31.3125 
Q 6.296875 37.9375 6.296875 49.421875 
Q 6.296875 60.640625 12.9375 67.421875 
Q 19.578125 74.21875 30.609375 74.21875 
Q 43.265625 74.21875 49.921875 64.515625 
Q 56.59375 54.828125 56.59375 36.375 
Q 56.59375 19.140625 48.40625 8.859375 
Q 40.234375 -1.421875 26.421875 -1.421875 
Q 22.703125 -1.421875 18.890625 -0.6875 
Q 15.09375 0.046875 10.984375 1.515625 
z
M 30.609375 32.421875 
Q 37.25 32.421875 41.125 36.953125 
Q 45.015625 41.5 45.015625 49.421875 
Q 45.015625 57.28125 41.125 61.84375 
Q 37.25 66.40625 30.609375 66.40625 
Q 23.96875 66.40625 20.09375 61.84375 
Q 16.21875 57.28125 16.21875 49.421875 
Q 16.21875 41.5 20.09375 36.953125 
Q 23.96875 32.421875 30.609375 32.421875 
z
" id="DejaVuSans-39"/>
     <path d="M 31.78125 66.40625 
Q 24.171875 66.40625 20.328125 58.90625 
Q 16.5 51.421875 16.5 36.375 
Q 16.5 21.390625 20.328125 13.890625 
Q 24.171875 6.390625 31.78125 6.390625 
Q 39.453125 6.390625 43.28125 13.890625 
Q 47.125 21.390625 47.125 36.375 
Q 47.125 51.421875 43.28125 58.90625 
Q 39.453125 66.40625 31.78125 66.40625 
z
M 31.78125 74.21875 
Q 44.046875 74.21875 50.515625 64.515625 
Q 56.984375 54.828125 56.984375 36.375 
Q 56.984375 17.96875 50.515625 8.265625 
Q 44.046875 -1.421875 31.78125 -1.421875 
Q 19.53125 -1.421875 13.0625 8.265625 
Q 6.59375 17.96875 6.59375 36.375 
Q 6.59375 54.828125 13.0625 64.515625 
Q 19.53125 74.21875 31.78125 74.21875 
z
" id="DejaVuSans-30"/>
     <path d="M 11.71875 12.40625 
L 22.015625 12.40625 
L 22.015625 4 
L 14.015625 -11.625 
L 7.71875 -11.625 
L 11.71875 4 
z
" id="DejaVuSans-2c"/>
     <path d="M 16.890625 72.90625 
L 62.984375 72.90625 
L 61.375 64.59375 
L 25.09375 64.59375 
L 20.90625 43.015625 
L 55.71875 43.015625 
L 54.109375 34.71875 
L 19.28125 34.71875 
L 14.203125 8.296875 
L 51.3125 8.296875 
L 49.703125 0 
L 2.6875 0 
z
" id="DejaVuSans-Oblique-45"/>
     <path d="M 16.890625 72.90625 
L 30.171875 72.90625 
L 50.296875 10.40625 
L 62.5 72.90625 
L 72.125 72.90625 
L 57.90625 0 
L 44.578125 0 
L 24.515625 62.890625 
L 12.3125 0 
L 2.6875 0 
z
" id="DejaVuSans-Oblique-4e"/>
     <path d="M 10.59375 45.40625 
L 73.1875 45.40625 
L 73.1875 37.203125 
L 10.59375 37.203125 
z
M 10.59375 25.484375 
L 73.1875 25.484375 
L 73.1875 17.1875 
L 10.59375 17.1875 
z
" id="DejaVuSans-3d"/>
     <path d="M 4.890625 31.390625 
L 31.203125 31.390625 
L 31.203125 23.390625 
L 4.890625 23.390625 
z
" id="DejaVuSans-2d"/>
     <path d="M 8.203125 72.90625 
L 55.078125 72.90625 
L 55.078125 68.703125 
L 28.609375 0 
L 18.3125 0 
L 43.21875 64.59375 
L 8.203125 64.59375 
z
" id="DejaVuSans-37"/>
     <path d="M 33.015625 40.375 
Q 26.375 40.375 22.484375 35.828125 
Q 18.609375 31.296875 18.609375 23.390625 
Q 18.609375 15.53125 22.484375 10.953125 
Q 26.375 6.390625 33.015625 6.390625 
Q 39.65625 6.390625 43.53125 10.953125 
Q 47.40625 15.53125 47.40625 23.390625 
Q 47.40625 31.296875 43.53125 35.828125 
Q 39.65625 40.375 33.015625 40.375 
z
M 52.59375 71.296875 
L 52.59375 62.3125 
Q 48.875 64.0625 45.09375 64.984375 
Q 41.3125 65.921875 37.59375 65.921875 
Q 27.828125 65.921875 22.671875 59.328125 
Q 17.53125 52.734375 16.796875 39.40625 
Q 19.671875 43.65625 24.015625 45.921875 
Q 28.375 48.1875 33.59375 48.1875 
Q 44.578125 48.1875 50.953125 41.515625 
Q 57.328125 34.859375 57.328125 23.390625 
Q 57.328125 12.15625 50.6875 5.359375 
Q 44.046875 -1.421875 33.015625 -1.421875 
Q 20.359375 -1.421875 13.671875 8.265625 
Q 6.984375 17.96875 6.984375 36.375 
Q 6.984375 53.65625 15.1875 63.9375 
Q 23.390625 74.21875 37.203125 74.21875 
Q 40.921875 74.21875 44.703125 73.484375 
Q 48.484375 72.75 52.59375 71.296875 
z
" id="DejaVuSans-36"/>
     <path d="M 10.6875 12.40625 
L 21 12.40625 
L 21 0 
L 10.6875 0 
z
" id="DejaVuSans-2e"/>
     <path d="M 31.78125 34.625 
Q 24.75 34.625 20.71875 30.859375 
Q 16.703125 27.09375 16.703125 20.515625 
Q 16.703125 13.921875 20.71875 10.15625 
Q 24.75 6.390625 31.78125 6.390625 
Q 38.8125 6.390625 42.859375 10.171875 
Q 46.921875 13.96875 46.921875 20.515625 
Q 46.921875 27.09375 42.890625 30.859375 
Q 38.875 34.625 31.78125 34.625 
z
M 21.921875 38.8125 
Q 15.578125 40.375 12.03125 44.71875 
Q 8.5 49.078125 8.5 55.328125 
Q 8.5 64.0625 14.71875 69.140625 
Q 20.953125 74.21875 31.78125 74.21875 
Q 42.671875 74.21875 48.875 69.140625 
Q 55.078125 64.0625 55.078125 55.328125 
Q 55.078125 49.078125 51.53125 44.71875 
Q 48 40.375 41.703125 38.8125 
Q 48.828125 37.15625 52.796875 32.3125 
Q 56.78125 27.484375 56.78125 20.515625 
Q 56.78125 9.90625 50.3125 4.234375 
Q 43.84375 -1.421875 31.78125 -1.421875 
Q 19.734375 -1.421875 13.25 4.234375 
Q 6.78125 9.90625 6.78125 20.515625 
Q 6.78125 27.484375 10.78125 32.3125 
Q 14.796875 37.15625 21.921875 38.8125 
z
M 18.3125 54.390625 
Q 18.3125 48.734375 21.84375 45.5625 
Q 25.390625 42.390625 31.78125 42.390625 
Q 38.140625 42.390625 41.71875 45.5625 
Q 45.3125 48.734375 45.3125 54.390625 
Q 45.3125 60.0625 41.71875 63.234375 
Q 38.140625 66.40625 31.78125 66.40625 
Q 25.390625 66.40625 21.84375 63.234375 
Q 18.3125 60.0625 18.3125 54.390625 
z
" id="DejaVuSans-38"/>
     <path d="M 28.609375 0 
L 0.78125 72.90625 
L 11.078125 72.90625 
L 34.1875 11.53125 
L 57.328125 72.90625 
L 67.578125 72.90625 
L 39.796875 0 
z
" id="DejaVuSans-56"/>
     <path d="M 34.1875 63.1875 
L 14.15625 8.203125 
L 54.25 8.203125 
z
M 0.78125 0 
L 28.609375 72.90625 
L 39.796875 72.90625 
L 67.578125 0 
z
" id="DejaVuSans-394"/>
     <path d="M 9.8125 72.90625 
L 55.90625 72.90625 
L 55.90625 64.59375 
L 19.671875 64.59375 
L 19.671875 43.015625 
L 54.390625 43.015625 
L 54.390625 34.71875 
L 19.671875 34.71875 
L 19.671875 8.296875 
L 56.78125 8.296875 
L 56.78125 0 
L 9.8125 0 
z
" id="DejaVuSans-45"/>
     <path d="M 40.578125 39.3125 
Q 47.65625 37.796875 51.625 33 
Q 55.609375 28.21875 55.609375 21.1875 
Q 55.609375 10.40625 48.1875 4.484375 
Q 40.765625 -1.421875 27.09375 -1.421875 
Q 22.515625 -1.421875 17.65625 -0.515625 
Q 12.796875 0.390625 7.625 2.203125 
L 7.625 11.71875 
Q 11.71875 9.328125 16.59375 8.109375 
Q 21.484375 6.890625 26.8125 6.890625 
Q 36.078125 6.890625 40.9375 10.546875 
Q 45.796875 14.203125 45.796875 21.1875 
Q 45.796875 27.640625 41.28125 31.265625 
Q 36.765625 34.90625 28.71875 34.90625 
L 20.21875 34.90625 
L 20.21875 43.015625 
L 29.109375 43.015625 
Q 36.375 43.015625 40.234375 45.921875 
Q 44.09375 48.828125 44.09375 54.296875 
Q 44.09375 59.90625 40.109375 62.90625 
Q 36.140625 65.921875 28.71875 65.921875 
Q 24.65625 65.921875 20.015625 65.03125 
Q 15.375 64.15625 9.8125 62.3125 
L 9.8125 71.09375 
Q 15.4375 72.65625 20.34375 73.4375 
Q 25.25 74.21875 29.59375 74.21875 
Q 40.828125 74.21875 47.359375 69.109375 
Q 53.90625 64.015625 53.90625 55.328125 
Q 53.90625 49.265625 50.4375 45.09375 
Q 46.96875 40.921875 40.578125 39.3125 
z
" id="DejaVuSans-33"/>
    </defs>
    <g transform="translate(65.388 35.472)scale(0.12 -0.12)">
     <use transform="translate(0 0.78125)" xlink:href="#DejaVuSans-53"/>
     <use transform="translate(63.476562 0.78125)" xlink:href="#DejaVuSans-74"/>
     <use transform="translate(102.685547 0.78125)" xlink:href="#DejaVuSans-72"/>
     <use transform="translate(143.798828 0.78125)" xlink:href="#DejaVuSans-75"/>
     <use transform="translate(207.177734 0.78125)" xlink:href="#DejaVuSans-63"/>
     <use transform="translate(262.158203 0.78125)" xlink:href="#DejaVuSans-74"/>
     <use transform="translate(301.367188 0.78125)" xlink:href="#DejaVuSans-75"/>
     <use transform="translate(364.746094 0.78125)" xlink:href="#DejaVuSans-72"/>
     <use transform="translate(405.859375 0.78125)" xlink:href="#DejaVuSans-65"/>
     <use transform="translate(467.382812 0.78125)" xlink:href="#DejaVuSans-20"/>
     <use transform="translate(499.169922 0.78125)" xlink:href="#DejaVuSans-23"/>
     <use transform="translate(582.958984 0.78125)" xlink:href="#DejaVuSans-31"/>
     <use transform="translate(646.582031 0.78125)" xlink:href="#DejaVuSans-39"/>
     <use transform="translate(710.205078 0.78125)" xlink:href="#DejaVuSans-31"/>
     <use transform="translate(773.828125 0.78125)" xlink:href="#DejaVuSans-30"/>
     <use transform="translate(837.451172 0.78125)" xlink:href="#DejaVuSans-2c"/>
     <use transform="translate(869.238281 0.78125)" xlink:href="#DejaVuSans-20"/>
     <use transform="translate(901.025391 0.78125)" xlink:href="#DejaVuSans-Oblique-45"/>
     <use transform="translate(964.208984 -15.625)scale(0.7)" xlink:href="#DejaVuSans-Oblique-4e"/>
     <use transform="translate(1019.306641 0.78125)" xlink:href="#DejaVuSans-3d"/>
     <use transform="translate(1103.095703 0.78125)" xlink:href="#DejaVuSans-2d"/>
     <use transform="translate(1139.179688 0.78125)" xlink:href="#DejaVuSans-31"/>
     <use transform="translate(1202.802734 0.78125)" xlink:href="#DejaVuSans-37"/>
     <use transform="translate(1266.425781 0.78125)" xlink:href="#DejaVuSans-36"/>
     <use transform="translate(1330.048828 0.78125)" xlink:href="#DejaVuSans-2e"/>
     <use transform="translate(1361.835938 0.78125)" xlink:href="#DejaVuSans-31"/>
     <use transform="translate(1425.458984 0.78125)" xlink:href="#DejaVuSans-38"/>
     <use transform="translate(1489.082031 0.78125)" xlink:href="#DejaVuSans-65"/>
     <use transform="translate(1550.605469 0.78125)" xlink:href="#DejaVuSans-56"/>
     <use transform="translate(1619.013672 0.78125)" xlink:href="#DejaVuSans-2c"/>
     <use transform="translate(1650.800781 0.78125)" xlink:href="#DejaVuSans-20"/>
     <use transform="translate(1682.587891 0.78125)" xlink:href="#DejaVuSans-394"/>
     <use transform="translate(1750.996094 0.78125)" xlink:href="#DejaVuSans-45"/>
     <use transform="translate(1814.179688 0.78125)" xlink:href="#DejaVuSans-3d"/>
     <use transform="translate(1897.96875 0.78125)" xlink:href="#DejaVuSans-30"/>
     <use transform="translate(1961.591797 0.78125)" xlink:href="#DejaVuSans-2e"/>
     <use transform="translate(1993.347656 0.78125)" xlink:href="#DejaVuSans-38"/>
     <use transform="translate(2056.970703 0.78125)" xlink:href="#DejaVuSans-33"/>
     <use transform="translate(2120.59375 0.78125)" xlink:href="#DejaVuSans-65"/>
     <use transform="translate(2182.117188 0.78125)" xlink:href="#DejaVuSans-56"/>
    </g>
   </g>
  </g>
  <g id="axes_2">
   <g id="patch_2">
    <path clip-path="url(#p89230c713a)" d="M 361.152 307.584 
L 361.152 306.5445 
L 361.152 42.5115 
L 361.152 41.472 
L 374.4576 41.472 
L 374.4576 42.5115 
L 374.4576 306.5445 
L 374.4576 307.584 
z
" style="fill:#ffffff;stroke:#ffffff;stroke-linejoin:miter;stroke-width:0.01;"/>
   </g>
   <image height="265.68" id="imagef6e01f9fe1" transform="scale(1 -1)translate(0 -265.68)" width="12.96" x="361.44" xlink:href="data:image/png;base64,
iVBORw0KGgoAAAANSUhEUgAAABIAAAFxCAYAAAB+2fgXAAAABHNCSVQICAgIfAhkiAAAAeVJREFUeJztncmNw0AQA2ckheYQNv9QLIfQ8ygsCgQ7AEI8+jAs2Puz/94F1LP2ReCsZ18bAWIeZ5XaGRBE7VnbptG+KI101FYyNSiQG2oRITXKNaX9uclOdi2XWjftVE32CZCO2ou5Bj1TcCBr/1zB9ge7Fq0Rg2NM9pvbtG+ua1QgsRYhDy0ISEiNc40BEibbSI0Coj5CBGtkpFbXJiAjNZlrwhuSOv2M1DjXbEdEciBt1JSDDQKKpmZr2rr2j0DBGpXaWEJq3bQzEPIS26r9J+Wzv9Tm8o3aajRXqc3VUXsApKNWjeZq0x4ABVNbm7lrszVigDqP5vIl2+eaT2yfRkL7g+dRcNPqjohkjaCvRVBq0H2U3LQrOJCx9kdTg4B8oxZzzTdqdYHEngjUCAPyUctN9sVRq2sTECW2UKNLd2jVtRmo1A6AhMmWaSRcR8nUdIHUuVb75zJS218EyEitro1At69pIdeSk30Lkw0FktNImGyZRhy1O5galmxd03LUsHWk06jUZiCq+5Wb1kZNN4+wJxJuWt8RAW5am2sYNZ9rYCBzZ3buPKJ2P5Yj4Toy3keyIyJbIxs1rml1byCA84gpch5RQNB7Q0qNMGq2Hy4BXdNR41yz/cEEJfZzUz96r9PoB0okjeQ8y9TkAAAAAElFTkSuQmCC" y="-41.76"/>
   <g id="matplotlib.axis_1"/>
   <g id="matplotlib.axis_2">
    <g id="ytick_1">
     <g id="line2d_1">
      <defs>
       <path d="M 0 0 
L 3.5 0 
" id="m77c20e9943" style="stroke:#000000;stroke-width:0.8;"/>
      </defs>
      <g>
       <use style="stroke:#000000;stroke-width:0.8;" x="374.4576" xlink:href="#m77c20e9943" y="284.129124"/>
      </g>
     </g>
     <g id="text_2">
      <!-- −8.5 -->
      <defs>
       <path d="M 10.59375 35.5 
L 73.1875 35.5 
L 73.1875 27.203125 
L 10.59375 27.203125 
z
" id="DejaVuSans-2212"/>
       <path d="M 10.796875 72.90625 
L 49.515625 72.90625 
L 49.515625 64.59375 
L 19.828125 64.59375 
L 19.828125 46.734375 
Q 21.96875 47.46875 24.109375 47.828125 
Q 26.265625 48.1875 28.421875 48.1875 
Q 40.625 48.1875 47.75 41.5 
Q 54.890625 34.8125 54.890625 23.390625 
Q 54.890625 11.625 47.5625 5.09375 
Q 40.234375 -1.421875 26.90625 -1.421875 
Q 22.3125 -1.421875 17.546875 -0.640625 
Q 12.796875 0.140625 7.71875 1.703125 
L 7.71875 11.625 
Q 12.109375 9.234375 16.796875 8.0625 
Q 21.484375 6.890625 26.703125 6.890625 
Q 35.15625 6.890625 40.078125 11.328125 
Q 45.015625 15.765625 45.015625 23.390625 
Q 45.015625 31 40.078125 35.4375 
Q 35.15625 39.890625 26.703125 39.890625 
Q 22.75 39.890625 18.8125 39.015625 
Q 14.890625 38.140625 10.796875 36.28125 
z
" id="DejaVuSans-35"/>
      </defs>
      <g transform="translate(381.4576 287.928343)scale(0.1 -0.1)">
       <use xlink:href="#DejaVuSans-2212"/>
       <use x="83.789062" xlink:href="#DejaVuSans-38"/>
       <use x="147.412109" xlink:href="#DejaVuSans-2e"/>
       <use x="179.199219" xlink:href="#DejaVuSans-35"/>
      </g>
     </g>
    </g>
    <g id="ytick_2">
     <g id="line2d_2">
      <g>
       <use style="stroke:#000000;stroke-width:0.8;" x="374.4576" xlink:href="#m77c20e9943" y="247.285728"/>
      </g>
     </g>
     <g id="text_3">
      <!-- −8.0 -->
      <g transform="translate(381.4576 251.084947)scale(0.1 -0.1)">
       <use xlink:href="#DejaVuSans-2212"/>
       <use x="83.789062" xlink:href="#DejaVuSans-38"/>
       <use x="147.412109" xlink:href="#DejaVuSans-2e"/>
       <use x="179.199219" xlink:href="#DejaVuSans-30"/>
      </g>
     </g>
    </g>
    <g id="ytick_3">
     <g id="line2d_3">
      <g>
       <use style="stroke:#000000;stroke-width:0.8;" x="374.4576" xlink:href="#m77c20e9943" y="210.442332"/>
      </g>
     </g>
     <g id="text_4">
      <!-- −7.5 -->
      <g transform="translate(381.4576 214.241551)scale(0.1 -0.1)">
       <use xlink:href="#DejaVuSans-2212"/>
       <use x="83.789062" xlink:href="#DejaVuSans-37"/>
       <use x="147.412109" xlink:href="#DejaVuSans-2e"/>
       <use x="179.199219" xlink:href="#DejaVuSans-35"/>
      </g>
     </g>
    </g>
    <g id="ytick_4">
     <g id="line2d_4">
      <g>
       <use style="stroke:#000000;stroke-width:0.8;" x="374.4576" xlink:href="#m77c20e9943" y="173.598936"/>
      </g>
     </g>
     <g id="text_5">
      <!-- −7.0 -->
      <g transform="translate(381.4576 177.398154)scale(0.1 -0.1)">
       <use xlink:href="#DejaVuSans-2212"/>
       <use x="83.789062" xlink:href="#DejaVuSans-37"/>
       <use x="147.412109" xlink:href="#DejaVuSans-2e"/>
       <use x="179.199219" xlink:href="#DejaVuSans-30"/>
      </g>
     </g>
    </g>
    <g id="ytick_5">
     <g id="line2d_5">
      <g>
       <use style="stroke:#000000;stroke-width:0.8;" x="374.4576" xlink:href="#m77c20e9943" y="136.755539"/>
      </g>
     </g>
     <g id="text_6">
      <!-- −6.5 -->
      <g transform="translate(381.4576 140.554758)scale(0.1 -0.1)">
       <use xlink:href="#DejaVuSans-2212"/>
       <use x="83.789062" xlink:href="#DejaVuSans-36"/>
       <use x="147.412109" xlink:href="#DejaVuSans-2e"/>
       <use x="179.199219" xlink:href="#DejaVuSans-35"/>
      </g>
     </g>
    </g>
    <g id="ytick_6">
     <g id="line2d_6">
      <g>
       <use style="stroke:#000000;stroke-width:0.8;" x="374.4576" xlink:href="#m77c20e9943" y="99.912143"/>
      </g>
     </g>
     <g id="text_7">
      <!-- −6.0 -->
      <g transform="translate(381.4576 103.711362)scale(0.1 -0.1)">
       <use xlink:href="#DejaVuSans-2212"/>
       <use x="83.789062" xlink:href="#DejaVuSans-36"/>
       <use x="147.412109" xlink:href="#DejaVuSans-2e"/>
       <use x="179.199219" xlink:href="#DejaVuSans-30"/>
      </g>
     </g>
    </g>
    <g id="ytick_7">
     <g id="line2d_7">
      <g>
       <use style="stroke:#000000;stroke-width:0.8;" x="374.4576" xlink:href="#m77c20e9943" y="63.068747"/>
      </g>
     </g>
     <g id="text_8">
      <!-- −5.5 -->
      <g transform="translate(381.4576 66.867966)scale(0.1 -0.1)">
       <use xlink:href="#DejaVuSans-2212"/>
       <use x="83.789062" xlink:href="#DejaVuSans-35"/>
       <use x="147.412109" xlink:href="#DejaVuSans-2e"/>
       <use x="179.199219" xlink:href="#DejaVuSans-35"/>
      </g>
     </g>
    </g>
    <g id="text_9">
     <!-- Energy [eV] -->
     <defs>
      <path d="M 54.890625 33.015625 
L 54.890625 0 
L 45.90625 0 
L 45.90625 32.71875 
Q 45.90625 40.484375 42.875 44.328125 
Q 39.84375 48.1875 33.796875 48.1875 
Q 26.515625 48.1875 22.3125 43.546875 
Q 18.109375 38.921875 18.109375 30.90625 
L 18.109375 0 
L 9.078125 0 
L 9.078125 54.6875 
L 18.109375 54.6875 
L 18.109375 46.1875 
Q 21.34375 51.125 25.703125 53.5625 
Q 30.078125 56 35.796875 56 
Q 45.21875 56 50.046875 50.171875 
Q 54.890625 44.34375 54.890625 33.015625 
z
" id="DejaVuSans-6e"/>
      <path d="M 45.40625 27.984375 
Q 45.40625 37.75 41.375 43.109375 
Q 37.359375 48.484375 30.078125 48.484375 
Q 22.859375 48.484375 18.828125 43.109375 
Q 14.796875 37.75 14.796875 27.984375 
Q 14.796875 18.265625 18.828125 12.890625 
Q 22.859375 7.515625 30.078125 7.515625 
Q 37.359375 7.515625 41.375 12.890625 
Q 45.40625 18.265625 45.40625 27.984375 
z
M 54.390625 6.78125 
Q 54.390625 -7.171875 48.1875 -13.984375 
Q 42 -20.796875 29.203125 -20.796875 
Q 24.46875 -20.796875 20.265625 -20.09375 
Q 16.0625 -19.390625 12.109375 -17.921875 
L 12.109375 -9.1875 
Q 16.0625 -11.328125 19.921875 -12.34375 
Q 23.78125 -13.375 27.78125 -13.375 
Q 36.625 -13.375 41.015625 -8.765625 
Q 45.40625 -4.15625 45.40625 5.171875 
L 45.40625 9.625 
Q 42.625 4.78125 38.28125 2.390625 
Q 33.9375 0 27.875 0 
Q 17.828125 0 11.671875 7.65625 
Q 5.515625 15.328125 5.515625 27.984375 
Q 5.515625 40.671875 11.671875 48.328125 
Q 17.828125 56 27.875 56 
Q 33.9375 56 38.28125 53.609375 
Q 42.625 51.21875 45.40625 46.390625 
L 45.40625 54.6875 
L 54.390625 54.6875 
z
" id="DejaVuSans-67"/>
      <path d="M 32.171875 -5.078125 
Q 28.375 -14.84375 24.75 -17.8125 
Q 21.140625 -20.796875 15.09375 -20.796875 
L 7.90625 -20.796875 
L 7.90625 -13.28125 
L 13.1875 -13.28125 
Q 16.890625 -13.28125 18.9375 -11.515625 
Q 21 -9.765625 23.484375 -3.21875 
L 25.09375 0.875 
L 2.984375 54.6875 
L 12.5 54.6875 
L 29.59375 11.921875 
L 46.6875 54.6875 
L 56.203125 54.6875 
z
" id="DejaVuSans-79"/>
      <path d="M 8.59375 75.984375 
L 29.296875 75.984375 
L 29.296875 69 
L 17.578125 69 
L 17.578125 -6.203125 
L 29.296875 -6.203125 
L 29.296875 -13.1875 
L 8.59375 -13.1875 
z
" id="DejaVuSans-5b"/>
      <path d="M 30.421875 75.984375 
L 30.421875 -13.1875 
L 9.71875 -13.1875 
L 9.71875 -6.203125 
L 21.390625 -6.203125 
L 21.390625 69 
L 9.71875 69 
L 9.71875 75.984375 
z
" id="DejaVuSans-5d"/>
     </defs>
     <g transform="translate(417.33885 204.108469)rotate(-90)scale(0.1 -0.1)">
      <use xlink:href="#DejaVuSans-45"/>
      <use x="63.183594" xlink:href="#DejaVuSans-6e"/>
      <use x="126.5625" xlink:href="#DejaVuSans-65"/>
      <use x="188.085938" xlink:href="#DejaVuSans-72"/>
      <use x="229.183594" xlink:href="#DejaVuSans-67"/>
      <use x="292.660156" xlink:href="#DejaVuSans-79"/>
      <use x="351.839844" xlink:href="#DejaVuSans-20"/>
      <use x="383.626953" xlink:href="#DejaVuSans-5b"/>
      <use x="422.640625" xlink:href="#DejaVuSans-65"/>
      <use x="484.164062" xlink:href="#DejaVuSans-56"/>
      <use x="552.572266" xlink:href="#DejaVuSans-5d"/>
     </g>
    </g>
   </g>
   <g id="patch_3">
    <path d="M 361.152 307.584 
L 361.152 306.5445 
L 361.152 42.5115 
L 361.152 41.472 
L 374.4576 41.472 
L 374.4576 42.5115 
L 374.4576 306.5445 
L 374.4576 307.584 
z
" style="fill:none;stroke:#000000;stroke-linejoin:miter;stroke-width:0.8;"/>
   </g>
  </g>
 </g>
 <defs>
  <clipPath id="p339f191e00">
   <rect height="266.112" width="285.696" x="57.6" y="41.472"/>
  </clipPath>
  <clipPath id="p89230c713a">
   <rect height="266.112" width="13.3056" x="361.152" y="41.472"/>
  </clipPath>
 </defs>
</svg>
