<?xml version="1.0" encoding="utf-8" standalone="no"?>
<!DOCTYPE svg PUBLIC "-//W3C//DTD SVG 1.1//EN"
  "http://www.w3.org/Graphics/SVG/1.1/DTD/svg11.dtd">
<!-- Created with matplotlib (http://matplotlib.org/) -->
<svg height="345.6pt" version="1.1" viewBox="0 0 460.8 345.6" width="460.8pt" xmlns="http://www.w3.org/2000/svg" xmlns:xlink="http://www.w3.org/1999/xlink">
 <defs>
  <style type="text/css">
*{stroke-linecap:butt;stroke-linejoin:round;}
  </style>
 </defs>
 <g id="figure_1">
  <g id="patch_1">
   <path d="M 0 345.6 
L 460.8 345.6 
L 460.8 0 
L 0 0 
z
" style="fill:#ffffff;"/>
  </g>
  <g id="axes_1">
   <g id="CircleCollection_1">
    <path clip-path="url(#p9ebcba2880)" d="M 232.032731 189.246354 
C 233.806432 189.246354 235.507726 188.541655 236.761922 187.287459 
C 238.016119 186.033262 238.720818 184.331968 238.720818 182.558267 
C 238.720818 180.784565 238.016119 179.083271 236.761922 177.829075 
C 235.507726 176.574879 233.806432 175.87018 232.032731 175.87018 
C 230.259029 175.87018 228.557735 176.574879 227.303539 177.829075 
C 226.049343 179.083271 225.344643 180.784565 225.344643 182.558267 
C 225.344643 184.331968 226.049343 186.033262 227.303539 187.287459 
C 228.557735 188.541655 230.259029 189.246354 232.032731 189.246354 
z
" style="fill:#450457;"/>
    <path clip-path="url(#p9ebcba2880)" d="M 173.108191 206.430472 
C 174.897281 206.430472 176.613336 205.719659 177.878414 204.454581 
C 179.143492 203.189503 179.854305 201.473449 179.854305 199.684358 
C 179.854305 197.895268 179.143492 196.179214 177.878414 194.914136 
C 176.613336 193.649058 174.897281 192.938245 173.108191 192.938245 
C 171.319101 192.938245 169.603046 193.649058 168.337968 194.914136 
C 167.07289 196.179214 166.362077 197.895268 166.362077 199.684358 
C 166.362077 201.473449 167.07289 203.189503 168.337968 204.454581 
C 169.603046 205.719659 171.319101 206.430472 173.108191 206.430472 
z
" style="fill:#440154;"/>
    <path clip-path="url(#p9ebcba2880)" d="M 301.088505 173.302206 
C 302.845717 173.302206 304.531195 172.604059 305.773731 171.361522 
C 307.016268 170.118986 307.714415 168.433508 307.714415 166.676296 
C 307.714415 164.919084 307.016268 163.233607 305.773731 161.99107 
C 304.531195 160.748534 302.845717 160.050386 301.088505 160.050386 
C 299.331293 160.050386 297.645816 160.748534 296.403279 161.99107 
C 295.160743 163.233607 294.462595 164.919084 294.462595 166.676296 
C 294.462595 168.433508 295.160743 170.118986 296.403279 171.361522 
C 297.645816 172.604059 299.331293 173.302206 301.088505 173.302206 
z
" style="fill:#365d8d;"/>
    <path clip-path="url(#p9ebcba2880)" d="M 282.591112 115.8321 
C 284.306067 115.8321 285.951012 115.150741 287.163668 113.938085 
C 288.376324 112.725429 289.057683 111.080484 289.057683 109.365529 
C 289.057683 107.650574 288.376324 106.005629 287.163668 104.792973 
C 285.951012 103.580317 284.306067 102.898958 282.591112 102.898958 
C 280.876157 102.898958 279.231212 103.580317 278.018556 104.792973 
C 276.8059 106.005629 276.124541 107.650574 276.124541 109.365529 
C 276.124541 111.080484 276.8059 112.725429 278.018556 113.938085 
C 279.231212 115.150741 280.876157 115.8321 282.591112 115.8321 
z
" style="fill:#375b8d;"/>
    <path clip-path="url(#p9ebcba2880)" d="M 295.464316 244.498462 
C 297.246415 244.498462 298.955763 243.790426 300.215898 242.530292 
C 301.476032 241.270158 302.184067 239.560809 302.184067 237.77871 
C 302.184067 235.996612 301.476032 234.287263 300.215898 233.027129 
C 298.955763 231.766995 297.246415 231.058959 295.464316 231.058959 
C 293.682217 231.058959 291.972869 231.766995 290.712734 233.027129 
C 289.4526 234.287263 288.744565 235.996612 288.744565 237.77871 
C 288.744565 239.560809 289.4526 241.270158 290.712734 242.530292 
C 291.972869 243.790426 293.682217 244.498462 295.464316 244.498462 
z
" style="fill:#2a778e;"/>
    <path clip-path="url(#p9ebcba2880)" d="M 232.872353 222.291545 
C 234.656968 222.291545 236.368731 221.58251 237.630644 220.320596 
C 238.892557 219.058683 239.601592 217.346921 239.601592 215.562306 
C 239.601592 213.777691 238.892557 212.065929 237.630644 210.804015 
C 236.368731 209.542102 234.656968 208.833067 232.872353 208.833067 
C 231.087738 208.833067 229.375976 209.542102 228.114063 210.804015 
C 226.852149 212.065929 226.143114 213.777691 226.143114 215.562306 
C 226.143114 217.346921 226.852149 219.058683 228.114063 220.320596 
C 229.375976 221.58251 231.087738 222.291545 232.872353 222.291545 
z
" style="fill:#46337f;"/>
    <path clip-path="url(#p9ebcba2880)" d="M 195.665115 179.930491 
C 197.440524 179.930491 199.143456 179.225114 200.39886 177.96971 
C 201.654263 176.714306 202.359641 175.011374 202.359641 173.235966 
C 202.359641 171.460557 201.654263 169.757625 200.39886 168.502221 
C 199.143456 167.246817 197.440524 166.54144 195.665115 166.54144 
C 193.889706 166.54144 192.186775 167.246817 190.931371 168.502221 
C 189.675967 169.757625 188.97059 171.460557 188.97059 173.235966 
C 188.97059 175.011374 189.675967 176.714306 190.931371 177.96971 
C 192.186775 179.225114 193.889706 179.930491 195.665115 179.930491 
z
" style="fill:#56c667;"/>
    <path clip-path="url(#p9ebcba2880)" d="M 329.947741 193.612976 
C 331.710822 193.612976 333.40193 192.912496 334.648618 191.665809 
C 335.895305 190.419122 336.595784 188.728014 336.595784 186.964932 
C 336.595784 185.20185 335.895305 183.510743 334.648618 182.264055 
C 333.40193 181.017368 331.710822 180.316888 329.947741 180.316888 
C 328.184659 180.316888 326.493551 181.017368 325.246864 182.264055 
C 324.000176 183.510743 323.299697 185.20185 323.299697 186.964932 
C 323.299697 188.728014 324.000176 190.419122 325.246864 191.665809 
C 326.493551 192.912496 328.184659 193.612976 329.947741 193.612976 
z
" style="fill:#277e8e;"/>
    <path clip-path="url(#p9ebcba2880)" d="M 133.934203 295.327328 
C 135.739169 295.327328 137.470451 294.610207 138.746755 293.333903 
C 140.023059 292.057599 140.74018 290.326317 140.74018 288.521351 
C 140.74018 286.716384 140.023059 284.985102 138.746755 283.708798 
C 137.470451 282.432494 135.739169 281.715373 133.934203 281.715373 
C 132.129236 281.715373 130.397954 282.432494 129.12165 283.708798 
C 127.845346 284.985102 127.128225 286.716384 127.128225 288.521351 
C 127.128225 290.326317 127.845346 292.057599 129.12165 293.333903 
C 130.397954 294.610207 132.129236 295.327328 133.934203 295.327328 
z
" style="fill:#b0dd2f;"/>
    <path clip-path="url(#p9ebcba2880)" d="M 103.95146 222.903863 
C 105.769541 222.903863 107.513403 222.181532 108.79898 220.895955 
C 110.084557 219.610377 110.806888 217.866516 110.806888 216.048435 
C 110.806888 214.230355 110.084557 212.486493 108.79898 211.200916 
C 107.513403 209.915339 105.769541 209.193008 103.95146 209.193008 
C 102.13338 209.193008 100.389518 209.915339 99.103941 211.200916 
C 97.818364 212.486493 97.096033 214.230355 97.096033 216.048435 
C 97.096033 217.866516 97.818364 219.610377 99.103941 220.895955 
C 100.389518 222.181532 102.13338 222.903863 103.95146 222.903863 
z
" style="fill:#20938c;"/>
    <path clip-path="url(#p9ebcba2880)" d="M 258.306008 247.275573 
C 260.092233 247.275573 261.805538 246.565899 263.06859 245.302847 
C 264.331641 244.039796 265.041316 242.32649 265.041316 240.540265 
C 265.041316 238.754041 264.331641 237.040735 263.06859 235.777683 
C 261.805538 234.514632 260.092233 233.804957 258.306008 233.804957 
C 256.519783 233.804957 254.806477 234.514632 253.543426 235.777683 
C 252.280374 237.040735 251.5707 238.754041 251.5707 240.540265 
C 251.5707 242.32649 252.280374 244.039796 253.543426 245.302847 
C 254.806477 246.565899 256.519783 247.275573 258.306008 247.275573 
z
" style="fill:#481d6f;"/>
    <path clip-path="url(#p9ebcba2880)" d="M 136.250058 206.114022 
C 138.050398 206.114022 139.777243 205.398739 141.050276 204.125707 
C 142.323309 202.852674 143.038592 201.125828 143.038592 199.325488 
C 143.038592 197.525147 142.323309 195.798302 141.050276 194.525269 
C 139.777243 193.252236 138.050398 192.536953 136.250058 192.536953 
C 134.449717 192.536953 132.722872 193.252236 131.449839 194.525269 
C 130.176806 195.798302 129.461523 197.525147 129.461523 199.325488 
C 129.461523 201.125828 130.176806 202.852674 131.449839 204.125707 
C 132.722872 205.398739 134.449717 206.114022 136.250058 206.114022 
z
" style="fill:#39558c;"/>
    <path clip-path="url(#p9ebcba2880)" d="M 165.226151 282.225371 
C 167.026557 282.225371 168.753466 281.510062 170.026545 280.236983 
C 171.299625 278.963903 172.014934 277.236995 172.014934 275.436588 
C 172.014934 273.636182 171.299625 271.909274 170.026545 270.636194 
C 168.753466 269.363115 167.026557 268.647806 165.226151 268.647806 
C 163.425745 268.647806 161.698836 269.363115 160.425757 270.636194 
C 159.152677 271.909274 158.437368 273.636182 158.437368 275.436588 
C 158.437368 277.236995 159.152677 278.963903 160.425757 280.236983 
C 161.698836 281.510062 163.425745 282.225371 165.226151 282.225371 
z
" style="fill:#2e6f8e;"/>
    <path clip-path="url(#p9ebcba2880)" d="M 315.2724 220.612318 
C 317.045513 220.612318 318.746242 219.907853 320.000021 218.654073 
C 321.253801 217.400294 321.958266 215.699565 321.958266 213.926452 
C 321.958266 212.15334 321.253801 210.452611 320.000021 209.198831 
C 318.746242 207.945051 317.045513 207.240586 315.2724 207.240586 
C 313.499288 207.240586 311.798559 207.945051 310.544779 209.198831 
C 309.291 210.452611 308.586535 212.15334 308.586535 213.926452 
C 308.586535 215.699565 309.291 217.400294 310.544779 218.654073 
C 311.798559 219.907853 313.499288 220.612318 315.2724 220.612318 
z
" style="fill:#31668e;"/>
    <path clip-path="url(#p9ebcba2880)" d="M 70.960433 205.213747 
C 72.78279 205.213747 74.530753 204.489717 75.819354 203.201116 
C 77.107955 201.912515 77.831985 200.164552 77.831985 198.342195 
C 77.831985 196.519838 77.107955 194.771875 75.819354 193.483274 
C 74.530753 192.194673 72.78279 191.470643 70.960433 191.470643 
C 69.138076 191.470643 67.390112 192.194673 66.101511 193.483274 
C 64.81291 194.771875 64.08888 196.519838 64.08888 198.342195 
C 64.08888 200.164552 64.81291 201.912515 66.101511 203.201116 
C 67.390112 204.489717 69.138076 205.213747 70.960433 205.213747 
z
" style="fill:#2fb47c;"/>
    <path clip-path="url(#p9ebcba2880)" d="M 103.873262 188.11782 
C 105.677186 188.11782 107.407469 187.401113 108.683036 186.125546 
C 109.958603 184.849979 110.67531 183.119696 110.67531 181.315772 
C 110.67531 179.511848 109.958603 177.781565 108.683036 176.505998 
C 107.407469 175.230431 105.677186 174.513724 103.873262 174.513724 
C 102.069337 174.513724 100.339054 175.230431 99.063487 176.505998 
C 97.78792 177.781565 97.071214 179.511848 97.071214 181.315772 
C 97.071214 183.119696 97.78792 184.849979 99.063487 186.125546 
C 100.339054 187.401113 102.069337 188.11782 103.873262 188.11782 
z
" style="fill:#1f948c;"/>
    <path clip-path="url(#p9ebcba2880)" d="M 197.152057 232.495756 
C 198.944196 232.495756 200.663175 231.783732 201.930408 230.516498 
C 203.197642 229.249264 203.909666 227.530286 203.909666 225.738147 
C 203.909666 223.946008 203.197642 222.227029 201.930408 220.959795 
C 200.663175 219.692562 198.944196 218.980538 197.152057 218.980538 
C 195.359918 218.980538 193.640939 219.692562 192.373706 220.959795 
C 191.106472 222.227029 190.394448 223.946008 190.394448 225.738147 
C 190.394448 227.530286 191.106472 229.249264 192.373706 230.516498 
C 193.640939 231.783732 195.359918 232.495756 197.152057 232.495756 
z
" style="fill:#482576;"/>
    <path clip-path="url(#p9ebcba2880)" d="M 280.997335 60.193971 
C 282.654282 60.193971 284.243588 59.535659 285.415227 58.364021 
C 286.586865 57.192383 287.245177 55.603077 287.245177 53.94613 
C 287.245177 52.289183 286.586865 50.699877 285.415227 49.528239 
C 284.243588 48.3566 282.654282 47.698288 280.997335 47.698288 
C 279.340389 47.698288 277.751083 48.3566 276.579444 49.528239 
C 275.407806 50.699877 274.749494 52.289183 274.749494 53.94613 
C 274.749494 55.603077 275.407806 57.192383 276.579444 58.364021 
C 277.751083 59.535659 279.340389 60.193971 280.997335 60.193971 
z
" style="fill:#dfe318;"/>
    <path clip-path="url(#p9ebcba2880)" d="M 249.724769 301.860249 
C 251.523576 301.860249 253.248951 301.145575 254.520899 299.873627 
C 255.792848 298.601678 256.507521 296.876303 256.507521 295.077497 
C 256.507521 293.27869 255.792848 291.553315 254.520899 290.281366 
C 253.248951 289.009418 251.523576 288.294744 249.724769 288.294744 
C 247.925962 288.294744 246.200587 289.009418 244.928639 290.281366 
C 243.65669 291.553315 242.942017 293.27869 242.942017 295.077497 
C 242.942017 296.876303 243.65669 298.601678 244.928639 299.873627 
C 246.200587 301.145575 247.925962 301.860249 249.724769 301.860249 
z
" style="fill:#fde725;"/>
    <path clip-path="url(#p9ebcba2880)" d="M 263.539324 171.634302 
C 265.300667 171.634302 266.990108 170.934513 268.235566 169.689055 
C 269.481024 168.443597 270.180813 166.754156 270.180813 164.992812 
C 270.180813 163.231469 269.481024 161.542028 268.235566 160.29657 
C 266.990108 159.051112 265.300667 158.351323 263.539324 158.351323 
C 261.77798 158.351323 260.088539 159.051112 258.843081 160.29657 
C 257.597623 161.542028 256.897834 163.231469 256.897834 164.992812 
C 256.897834 166.754156 257.597623 168.443597 258.843081 169.689055 
C 260.088539 170.934513 261.77798 171.634302 263.539324 171.634302 
z
" style="fill:#38588c;"/>
    <path clip-path="url(#p9ebcba2880)" d="M 282.801648 144.458938 
C 284.542397 144.458938 286.212084 143.767331 287.442979 142.536436 
C 288.673874 141.30554 289.365481 139.635854 289.365481 137.895105 
C 289.365481 136.154356 288.673874 134.484669 287.442979 133.253774 
C 286.212084 132.022879 284.542397 131.331272 282.801648 131.331272 
C 281.060899 131.331272 279.391213 132.022879 278.160317 133.253774 
C 276.929422 134.484669 276.237815 136.154356 276.237815 137.895105 
C 276.237815 139.635854 276.929422 141.30554 278.160317 142.536436 
C 279.391213 143.767331 281.060899 144.458938 282.801648 144.458938 
z
" style="fill:#3a548c;"/>
    <path clip-path="url(#p9ebcba2880)" d="M 195.610989 264.841325 
C 197.407552 264.841325 199.130774 264.127543 200.401136 262.857181 
C 201.671498 261.58682 202.38528 259.863597 202.38528 258.067035 
C 202.38528 256.270472 201.671498 254.54725 200.401136 253.276888 
C 199.130774 252.006526 197.407552 251.292744 195.610989 251.292744 
C 193.814426 251.292744 192.091204 252.006526 190.820843 253.276888 
C 189.550481 254.54725 188.836699 256.270472 188.836699 258.067035 
C 188.836699 259.863597 189.550481 261.58682 190.820843 262.857181 
C 192.091204 264.127543 193.814426 264.841325 195.610989 264.841325 
z
" style="fill:#481467;"/>
    <path clip-path="url(#p9ebcba2880)" d="M 234.644246 274.566294 
C 236.438632 274.566294 238.159766 273.853377 239.428588 272.584555 
C 240.69741 271.315732 241.410327 269.594599 241.410327 267.800213 
C 241.410327 266.005827 240.69741 264.284694 239.428588 263.015871 
C 238.159766 261.747049 236.438632 261.034132 234.644246 261.034132 
C 232.849861 261.034132 231.128727 261.747049 229.859905 263.015871 
C 228.591083 264.284694 227.878166 266.005827 227.878166 267.800213 
C 227.878166 269.594599 228.591083 271.315732 229.859905 272.584555 
C 231.128727 273.853377 232.849861 274.566294 234.644246 274.566294 
z
" style="fill:#481d6f;"/>
    <path clip-path="url(#p9ebcba2880)" d="M 282.802237 88.257084 
C 284.48939 88.257084 286.107668 87.586771 287.300665 86.393773 
C 288.493663 85.200776 289.163976 83.582497 289.163976 81.895345 
C 289.163976 80.208192 288.493663 78.589913 287.300665 77.396916 
C 286.107668 76.203918 284.48939 75.533606 282.802237 75.533606 
C 281.115084 75.533606 279.496805 76.203918 278.303808 77.396916 
C 277.110811 78.589913 276.440498 80.208192 276.440498 81.895345 
C 276.440498 83.582497 277.110811 85.200776 278.303808 86.393773 
C 279.496805 87.586771 281.115084 88.257084 282.802237 88.257084 
z
" style="fill:#3c508b;"/>
   </g>
   <g id="text_1">
    <!-- Structure #1, $E_N$=-174.64eV, ΔE=0.19eV -->
    <defs>
     <path d="M 53.515625 70.515625 
L 53.515625 60.890625 
Q 47.90625 63.578125 42.921875 64.890625 
Q 37.9375 66.21875 33.296875 66.21875 
Q 25.25 66.21875 20.875 63.09375 
Q 16.5 59.96875 16.5 54.203125 
Q 16.5 49.359375 19.40625 46.890625 
Q 22.3125 44.4375 30.421875 42.921875 
L 36.375 41.703125 
Q 47.40625 39.59375 52.65625 34.296875 
Q 57.90625 29 57.90625 20.125 
Q 57.90625 9.515625 50.796875 4.046875 
Q 43.703125 -1.421875 29.984375 -1.421875 
Q 24.8125 -1.421875 18.96875 -0.25 
Q 13.140625 0.921875 6.890625 3.21875 
L 6.890625 13.375 
Q 12.890625 10.015625 18.65625 8.296875 
Q 24.421875 6.59375 29.984375 6.59375 
Q 38.421875 6.59375 43.015625 9.90625 
Q 47.609375 13.234375 47.609375 19.390625 
Q 47.609375 24.75 44.3125 27.78125 
Q 41.015625 30.8125 33.5 32.328125 
L 27.484375 33.5 
Q 16.453125 35.6875 11.515625 40.375 
Q 6.59375 45.0625 6.59375 53.421875 
Q 6.59375 63.09375 13.40625 68.65625 
Q 20.21875 74.21875 32.171875 74.21875 
Q 37.3125 74.21875 42.625 73.28125 
Q 47.953125 72.359375 53.515625 70.515625 
z
" id="DejaVuSans-53"/>
     <path d="M 18.3125 70.21875 
L 18.3125 54.6875 
L 36.8125 54.6875 
L 36.8125 47.703125 
L 18.3125 47.703125 
L 18.3125 18.015625 
Q 18.3125 11.328125 20.140625 9.421875 
Q 21.96875 7.515625 27.59375 7.515625 
L 36.8125 7.515625 
L 36.8125 0 
L 27.59375 0 
Q 17.1875 0 13.234375 3.875 
Q 9.28125 7.765625 9.28125 18.015625 
L 9.28125 47.703125 
L 2.6875 47.703125 
L 2.6875 54.6875 
L 9.28125 54.6875 
L 9.28125 70.21875 
z
" id="DejaVuSans-74"/>
     <path d="M 41.109375 46.296875 
Q 39.59375 47.171875 37.8125 47.578125 
Q 36.03125 48 33.890625 48 
Q 26.265625 48 22.1875 43.046875 
Q 18.109375 38.09375 18.109375 28.8125 
L 18.109375 0 
L 9.078125 0 
L 9.078125 54.6875 
L 18.109375 54.6875 
L 18.109375 46.1875 
Q 20.953125 51.171875 25.484375 53.578125 
Q 30.03125 56 36.53125 56 
Q 37.453125 56 38.578125 55.875 
Q 39.703125 55.765625 41.0625 55.515625 
z
" id="DejaVuSans-72"/>
     <path d="M 8.5 21.578125 
L 8.5 54.6875 
L 17.484375 54.6875 
L 17.484375 21.921875 
Q 17.484375 14.15625 20.5 10.265625 
Q 23.53125 6.390625 29.59375 6.390625 
Q 36.859375 6.390625 41.078125 11.03125 
Q 45.3125 15.671875 45.3125 23.6875 
L 45.3125 54.6875 
L 54.296875 54.6875 
L 54.296875 0 
L 45.3125 0 
L 45.3125 8.40625 
Q 42.046875 3.421875 37.71875 1 
Q 33.40625 -1.421875 27.6875 -1.421875 
Q 18.265625 -1.421875 13.375 4.4375 
Q 8.5 10.296875 8.5 21.578125 
z
M 31.109375 56 
z
" id="DejaVuSans-75"/>
     <path d="M 48.78125 52.59375 
L 48.78125 44.1875 
Q 44.96875 46.296875 41.140625 47.34375 
Q 37.3125 48.390625 33.40625 48.390625 
Q 24.65625 48.390625 19.8125 42.84375 
Q 14.984375 37.3125 14.984375 27.296875 
Q 14.984375 17.28125 19.8125 11.734375 
Q 24.65625 6.203125 33.40625 6.203125 
Q 37.3125 6.203125 41.140625 7.25 
Q 44.96875 8.296875 48.78125 10.40625 
L 48.78125 2.09375 
Q 45.015625 0.34375 40.984375 -0.53125 
Q 36.96875 -1.421875 32.421875 -1.421875 
Q 20.0625 -1.421875 12.78125 6.34375 
Q 5.515625 14.109375 5.515625 27.296875 
Q 5.515625 40.671875 12.859375 48.328125 
Q 20.21875 56 33.015625 56 
Q 37.15625 56 41.109375 55.140625 
Q 45.0625 54.296875 48.78125 52.59375 
z
" id="DejaVuSans-63"/>
     <path d="M 56.203125 29.59375 
L 56.203125 25.203125 
L 14.890625 25.203125 
Q 15.484375 15.921875 20.484375 11.0625 
Q 25.484375 6.203125 34.421875 6.203125 
Q 39.59375 6.203125 44.453125 7.46875 
Q 49.3125 8.734375 54.109375 11.28125 
L 54.109375 2.78125 
Q 49.265625 0.734375 44.1875 -0.34375 
Q 39.109375 -1.421875 33.890625 -1.421875 
Q 20.796875 -1.421875 13.15625 6.1875 
Q 5.515625 13.8125 5.515625 26.8125 
Q 5.515625 40.234375 12.765625 48.109375 
Q 20.015625 56 32.328125 56 
Q 43.359375 56 49.78125 48.890625 
Q 56.203125 41.796875 56.203125 29.59375 
z
M 47.21875 32.234375 
Q 47.125 39.59375 43.09375 43.984375 
Q 39.0625 48.390625 32.421875 48.390625 
Q 24.90625 48.390625 20.390625 44.140625 
Q 15.875 39.890625 15.1875 32.171875 
z
" id="DejaVuSans-65"/>
     <path id="DejaVuSans-20"/>
     <path d="M 51.125 44 
L 36.921875 44 
L 32.8125 27.6875 
L 47.125 27.6875 
z
M 43.796875 71.78125 
L 38.71875 51.515625 
L 52.984375 51.515625 
L 58.109375 71.78125 
L 65.921875 71.78125 
L 60.890625 51.515625 
L 76.125 51.515625 
L 76.125 44 
L 58.984375 44 
L 54.984375 27.6875 
L 70.515625 27.6875 
L 70.515625 20.21875 
L 53.078125 20.21875 
L 48 0 
L 40.1875 0 
L 45.21875 20.21875 
L 30.90625 20.21875 
L 25.875 0 
L 18.015625 0 
L 23.09375 20.21875 
L 7.71875 20.21875 
L 7.71875 27.6875 
L 24.90625 27.6875 
L 29 44 
L 13.28125 44 
L 13.28125 51.515625 
L 30.90625 51.515625 
L 35.890625 71.78125 
z
" id="DejaVuSans-23"/>
     <path d="M 12.40625 8.296875 
L 28.515625 8.296875 
L 28.515625 63.921875 
L 10.984375 60.40625 
L 10.984375 69.390625 
L 28.421875 72.90625 
L 38.28125 72.90625 
L 38.28125 8.296875 
L 54.390625 8.296875 
L 54.390625 0 
L 12.40625 0 
z
" id="DejaVuSans-31"/>
     <path d="M 11.71875 12.40625 
L 22.015625 12.40625 
L 22.015625 4 
L 14.015625 -11.625 
L 7.71875 -11.625 
L 11.71875 4 
z
" id="DejaVuSans-2c"/>
     <path d="M 16.890625 72.90625 
L 62.984375 72.90625 
L 61.375 64.59375 
L 25.09375 64.59375 
L 20.90625 43.015625 
L 55.71875 43.015625 
L 54.109375 34.71875 
L 19.28125 34.71875 
L 14.203125 8.296875 
L 51.3125 8.296875 
L 49.703125 0 
L 2.6875 0 
z
" id="DejaVuSans-Oblique-45"/>
     <path d="M 16.890625 72.90625 
L 30.171875 72.90625 
L 50.296875 10.40625 
L 62.5 72.90625 
L 72.125 72.90625 
L 57.90625 0 
L 44.578125 0 
L 24.515625 62.890625 
L 12.3125 0 
L 2.6875 0 
z
" id="DejaVuSans-Oblique-4e"/>
     <path d="M 10.59375 45.40625 
L 73.1875 45.40625 
L 73.1875 37.203125 
L 10.59375 37.203125 
z
M 10.59375 25.484375 
L 73.1875 25.484375 
L 73.1875 17.1875 
L 10.59375 17.1875 
z
" id="DejaVuSans-3d"/>
     <path d="M 4.890625 31.390625 
L 31.203125 31.390625 
L 31.203125 23.390625 
L 4.890625 23.390625 
z
" id="DejaVuSans-2d"/>
     <path d="M 8.203125 72.90625 
L 55.078125 72.90625 
L 55.078125 68.703125 
L 28.609375 0 
L 18.3125 0 
L 43.21875 64.59375 
L 8.203125 64.59375 
z
" id="DejaVuSans-37"/>
     <path d="M 37.796875 64.3125 
L 12.890625 25.390625 
L 37.796875 25.390625 
z
M 35.203125 72.90625 
L 47.609375 72.90625 
L 47.609375 25.390625 
L 58.015625 25.390625 
L 58.015625 17.1875 
L 47.609375 17.1875 
L 47.609375 0 
L 37.796875 0 
L 37.796875 17.1875 
L 4.890625 17.1875 
L 4.890625 26.703125 
z
" id="DejaVuSans-34"/>
     <path d="M 10.6875 12.40625 
L 21 12.40625 
L 21 0 
L 10.6875 0 
z
" id="DejaVuSans-2e"/>
     <path d="M 33.015625 40.375 
Q 26.375 40.375 22.484375 35.828125 
Q 18.609375 31.296875 18.609375 23.390625 
Q 18.609375 15.53125 22.484375 10.953125 
Q 26.375 6.390625 33.015625 6.390625 
Q 39.65625 6.390625 43.53125 10.953125 
Q 47.40625 15.53125 47.40625 23.390625 
Q 47.40625 31.296875 43.53125 35.828125 
Q 39.65625 40.375 33.015625 40.375 
z
M 52.59375 71.296875 
L 52.59375 62.3125 
Q 48.875 64.0625 45.09375 64.984375 
Q 41.3125 65.921875 37.59375 65.921875 
Q 27.828125 65.921875 22.671875 59.328125 
Q 17.53125 52.734375 16.796875 39.40625 
Q 19.671875 43.65625 24.015625 45.921875 
Q 28.375 48.1875 33.59375 48.1875 
Q 44.578125 48.1875 50.953125 41.515625 
Q 57.328125 34.859375 57.328125 23.390625 
Q 57.328125 12.15625 50.6875 5.359375 
Q 44.046875 -1.421875 33.015625 -1.421875 
Q 20.359375 -1.421875 13.671875 8.265625 
Q 6.984375 17.96875 6.984375 36.375 
Q 6.984375 53.65625 15.1875 63.9375 
Q 23.390625 74.21875 37.203125 74.21875 
Q 40.921875 74.21875 44.703125 73.484375 
Q 48.484375 72.75 52.59375 71.296875 
z
" id="DejaVuSans-36"/>
     <path d="M 28.609375 0 
L 0.78125 72.90625 
L 11.078125 72.90625 
L 34.1875 11.53125 
L 57.328125 72.90625 
L 67.578125 72.90625 
L 39.796875 0 
z
" id="DejaVuSans-56"/>
     <path d="M 34.1875 63.1875 
L 14.15625 8.203125 
L 54.25 8.203125 
z
M 0.78125 0 
L 28.609375 72.90625 
L 39.796875 72.90625 
L 67.578125 0 
z
" id="DejaVuSans-394"/>
     <path d="M 9.8125 72.90625 
L 55.90625 72.90625 
L 55.90625 64.59375 
L 19.671875 64.59375 
L 19.671875 43.015625 
L 54.390625 43.015625 
L 54.390625 34.71875 
L 19.671875 34.71875 
L 19.671875 8.296875 
L 56.78125 8.296875 
L 56.78125 0 
L 9.8125 0 
z
" id="DejaVuSans-45"/>
     <path d="M 31.78125 66.40625 
Q 24.171875 66.40625 20.328125 58.90625 
Q 16.5 51.421875 16.5 36.375 
Q 16.5 21.390625 20.328125 13.890625 
Q 24.171875 6.390625 31.78125 6.390625 
Q 39.453125 6.390625 43.28125 13.890625 
Q 47.125 21.390625 47.125 36.375 
Q 47.125 51.421875 43.28125 58.90625 
Q 39.453125 66.40625 31.78125 66.40625 
z
M 31.78125 74.21875 
Q 44.046875 74.21875 50.515625 64.515625 
Q 56.984375 54.828125 56.984375 36.375 
Q 56.984375 17.96875 50.515625 8.265625 
Q 44.046875 -1.421875 31.78125 -1.421875 
Q 19.53125 -1.421875 13.0625 8.265625 
Q 6.59375 17.96875 6.59375 36.375 
Q 6.59375 54.828125 13.0625 64.515625 
Q 19.53125 74.21875 31.78125 74.21875 
z
" id="DejaVuSans-30"/>
     <path d="M 10.984375 1.515625 
L 10.984375 10.5 
Q 14.703125 8.734375 18.5 7.8125 
Q 22.3125 6.890625 25.984375 6.890625 
Q 35.75 6.890625 40.890625 13.453125 
Q 46.046875 20.015625 46.78125 33.40625 
Q 43.953125 29.203125 39.59375 26.953125 
Q 35.25 24.703125 29.984375 24.703125 
Q 19.046875 24.703125 12.671875 31.3125 
Q 6.296875 37.9375 6.296875 49.421875 
Q 6.296875 60.640625 12.9375 67.421875 
Q 19.578125 74.21875 30.609375 74.21875 
Q 43.265625 74.21875 49.921875 64.515625 
Q 56.59375 54.828125 56.59375 36.375 
Q 56.59375 19.140625 48.40625 8.859375 
Q 40.234375 -1.421875 26.421875 -1.421875 
Q 22.703125 -1.421875 18.890625 -0.6875 
Q 15.09375 0.046875 10.984375 1.515625 
z
M 30.609375 32.421875 
Q 37.25 32.421875 41.125 36.953125 
Q 45.015625 41.5 45.015625 49.421875 
Q 45.015625 57.28125 41.125 61.84375 
Q 37.25 66.40625 30.609375 66.40625 
Q 23.96875 66.40625 20.09375 61.84375 
Q 16.21875 57.28125 16.21875 49.421875 
Q 16.21875 41.5 20.09375 36.953125 
Q 23.96875 32.421875 30.609375 32.421875 
z
" id="DejaVuSans-39"/>
    </defs>
    <g transform="translate(76.848 35.472)scale(0.12 -0.12)">
     <use transform="translate(0 0.78125)" xlink:href="#DejaVuSans-53"/>
     <use transform="translate(63.476562 0.78125)" xlink:href="#DejaVuSans-74"/>
     <use transform="translate(102.685547 0.78125)" xlink:href="#DejaVuSans-72"/>
     <use transform="translate(143.798828 0.78125)" xlink:href="#DejaVuSans-75"/>
     <use transform="translate(207.177734 0.78125)" xlink:href="#DejaVuSans-63"/>
     <use transform="translate(262.158203 0.78125)" xlink:href="#DejaVuSans-74"/>
     <use transform="translate(301.367188 0.78125)" xlink:href="#DejaVuSans-75"/>
     <use transform="translate(364.746094 0.78125)" xlink:href="#DejaVuSans-72"/>
     <use transform="translate(405.859375 0.78125)" xlink:href="#DejaVuSans-65"/>
     <use transform="translate(467.382812 0.78125)" xlink:href="#DejaVuSans-20"/>
     <use transform="translate(499.169922 0.78125)" xlink:href="#DejaVuSans-23"/>
     <use transform="translate(582.958984 0.78125)" xlink:href="#DejaVuSans-31"/>
     <use transform="translate(646.582031 0.78125)" xlink:href="#DejaVuSans-2c"/>
     <use transform="translate(678.369141 0.78125)" xlink:href="#DejaVuSans-20"/>
     <use transform="translate(710.15625 0.78125)" xlink:href="#DejaVuSans-Oblique-45"/>
     <use transform="translate(773.339844 -15.625)scale(0.7)" xlink:href="#DejaVuSans-Oblique-4e"/>
     <use transform="translate(828.4375 0.78125)" xlink:href="#DejaVuSans-3d"/>
     <use transform="translate(912.226562 0.78125)" xlink:href="#DejaVuSans-2d"/>
     <use transform="translate(948.310547 0.78125)" xlink:href="#DejaVuSans-31"/>
     <use transform="translate(1011.933594 0.78125)" xlink:href="#DejaVuSans-37"/>
     <use transform="translate(1075.556641 0.78125)" xlink:href="#DejaVuSans-34"/>
     <use transform="translate(1139.179688 0.78125)" xlink:href="#DejaVuSans-2e"/>
     <use transform="translate(1170.966797 0.78125)" xlink:href="#DejaVuSans-36"/>
     <use transform="translate(1234.589844 0.78125)" xlink:href="#DejaVuSans-34"/>
     <use transform="translate(1298.212891 0.78125)" xlink:href="#DejaVuSans-65"/>
     <use transform="translate(1359.736328 0.78125)" xlink:href="#DejaVuSans-56"/>
     <use transform="translate(1428.144531 0.78125)" xlink:href="#DejaVuSans-2c"/>
     <use transform="translate(1459.931641 0.78125)" xlink:href="#DejaVuSans-20"/>
     <use transform="translate(1491.71875 0.78125)" xlink:href="#DejaVuSans-394"/>
     <use transform="translate(1560.126953 0.78125)" xlink:href="#DejaVuSans-45"/>
     <use transform="translate(1623.310547 0.78125)" xlink:href="#DejaVuSans-3d"/>
     <use transform="translate(1707.099609 0.78125)" xlink:href="#DejaVuSans-30"/>
     <use transform="translate(1770.722656 0.78125)" xlink:href="#DejaVuSans-2e"/>
     <use transform="translate(1802.509766 0.78125)" xlink:href="#DejaVuSans-31"/>
     <use transform="translate(1866.132812 0.78125)" xlink:href="#DejaVuSans-39"/>
     <use transform="translate(1929.755859 0.78125)" xlink:href="#DejaVuSans-65"/>
     <use transform="translate(1991.279297 0.78125)" xlink:href="#DejaVuSans-56"/>
    </g>
   </g>
  </g>
  <g id="axes_2">
   <g id="patch_2">
    <path clip-path="url(#p9ffe212011)" d="M 361.152 307.584 
L 361.152 306.5445 
L 361.152 42.5115 
L 361.152 41.472 
L 374.4576 41.472 
L 374.4576 42.5115 
L 374.4576 306.5445 
L 374.4576 307.584 
z
" style="fill:#ffffff;stroke:#ffffff;stroke-linejoin:miter;stroke-width:0.01;"/>
   </g>
   <image height="265.68" id="imagef9826f1dca" transform="scale(1 -1)translate(0 -265.68)" width="12.96" x="361.44" xlink:href="data:image/png;base64,
iVBORw0KGgoAAAANSUhEUgAAABIAAAFxCAYAAAB+2fgXAAAABHNCSVQICAgIfAhkiAAAAeVJREFUeJztncmNw0AQA2ckheYQNv9QLIfQ8ygsCgQ7AEI8+jAs2Puz/94F1LP2ReCsZ18bAWIeZ5XaGRBE7VnbptG+KI101FYyNSiQG2oRITXKNaX9uclOdi2XWjftVE32CZCO2ou5Bj1TcCBr/1zB9ge7Fq0Rg2NM9pvbtG+ua1QgsRYhDy0ISEiNc40BEibbSI0Coj5CBGtkpFbXJiAjNZlrwhuSOv2M1DjXbEdEciBt1JSDDQKKpmZr2rr2j0DBGpXaWEJq3bQzEPIS26r9J+Wzv9Tm8o3aajRXqc3VUXsApKNWjeZq0x4ABVNbm7lrszVigDqP5vIl2+eaT2yfRkL7g+dRcNPqjohkjaCvRVBq0H2U3LQrOJCx9kdTg4B8oxZzzTdqdYHEngjUCAPyUctN9sVRq2sTECW2UKNLd2jVtRmo1A6AhMmWaSRcR8nUdIHUuVb75zJS218EyEitro1At69pIdeSk30Lkw0FktNImGyZRhy1O5galmxd03LUsHWk06jUZiCq+5Wb1kZNN4+wJxJuWt8RAW5am2sYNZ9rYCBzZ3buPKJ2P5Yj4Toy3keyIyJbIxs1rml1byCA84gpch5RQNB7Q0qNMGq2Hy4BXdNR41yz/cEEJfZzUz96r9PoB0okjeQ8y9TkAAAAAElFTkSuQmCC" y="-41.76"/>
   <g id="matplotlib.axis_1"/>
   <g id="matplotlib.axis_2">
    <g id="ytick_1">
     <g id="line2d_1">
      <defs>
       <path d="M 0 0 
L 3.5 0 
" id="m1dcd33353d" style="stroke:#000000;stroke-width:0.8;"/>
      </defs>
      <g>
       <use style="stroke:#000000;stroke-width:0.8;" x="374.4576" xlink:href="#m1dcd33353d" y="286.491682"/>
      </g>
     </g>
     <g id="text_2">
      <!-- −8.5 -->
      <defs>
       <path d="M 10.59375 35.5 
L 73.1875 35.5 
L 73.1875 27.203125 
L 10.59375 27.203125 
z
" id="DejaVuSans-2212"/>
       <path d="M 31.78125 34.625 
Q 24.75 34.625 20.71875 30.859375 
Q 16.703125 27.09375 16.703125 20.515625 
Q 16.703125 13.921875 20.71875 10.15625 
Q 24.75 6.390625 31.78125 6.390625 
Q 38.8125 6.390625 42.859375 10.171875 
Q 46.921875 13.96875 46.921875 20.515625 
Q 46.921875 27.09375 42.890625 30.859375 
Q 38.875 34.625 31.78125 34.625 
z
M 21.921875 38.8125 
Q 15.578125 40.375 12.03125 44.71875 
Q 8.5 49.078125 8.5 55.328125 
Q 8.5 64.0625 14.71875 69.140625 
Q 20.953125 74.21875 31.78125 74.21875 
Q 42.671875 74.21875 48.875 69.140625 
Q 55.078125 64.0625 55.078125 55.328125 
Q 55.078125 49.078125 51.53125 44.71875 
Q 48 40.375 41.703125 38.8125 
Q 48.828125 37.15625 52.796875 32.3125 
Q 56.78125 27.484375 56.78125 20.515625 
Q 56.78125 9.90625 50.3125 4.234375 
Q 43.84375 -1.421875 31.78125 -1.421875 
Q 19.734375 -1.421875 13.25 4.234375 
Q 6.78125 9.90625 6.78125 20.515625 
Q 6.78125 27.484375 10.78125 32.3125 
Q 14.796875 37.15625 21.921875 38.8125 
z
M 18.3125 54.390625 
Q 18.3125 48.734375 21.84375 45.5625 
Q 25.390625 42.390625 31.78125 42.390625 
Q 38.140625 42.390625 41.71875 45.5625 
Q 45.3125 48.734375 45.3125 54.390625 
Q 45.3125 60.0625 41.71875 63.234375 
Q 38.140625 66.40625 31.78125 66.40625 
Q 25.390625 66.40625 21.84375 63.234375 
Q 18.3125 60.0625 18.3125 54.390625 
z
" id="DejaVuSans-38"/>
       <path d="M 10.796875 72.90625 
L 49.515625 72.90625 
L 49.515625 64.59375 
L 19.828125 64.59375 
L 19.828125 46.734375 
Q 21.96875 47.46875 24.109375 47.828125 
Q 26.265625 48.1875 28.421875 48.1875 
Q 40.625 48.1875 47.75 41.5 
Q 54.890625 34.8125 54.890625 23.390625 
Q 54.890625 11.625 47.5625 5.09375 
Q 40.234375 -1.421875 26.90625 -1.421875 
Q 22.3125 -1.421875 17.546875 -0.640625 
Q 12.796875 0.140625 7.71875 1.703125 
L 7.71875 11.625 
Q 12.109375 9.234375 16.796875 8.0625 
Q 21.484375 6.890625 26.703125 6.890625 
Q 35.15625 6.890625 40.078125 11.328125 
Q 45.015625 15.765625 45.015625 23.390625 
Q 45.015625 31 40.078125 35.4375 
Q 35.15625 39.890625 26.703125 39.890625 
Q 22.75 39.890625 18.8125 39.015625 
Q 14.890625 38.140625 10.796875 36.28125 
z
" id="DejaVuSans-35"/>
      </defs>
      <g transform="translate(381.4576 290.2909)scale(0.1 -0.1)">
       <use xlink:href="#DejaVuSans-2212"/>
       <use x="83.789062" xlink:href="#DejaVuSans-38"/>
       <use x="147.412109" xlink:href="#DejaVuSans-2e"/>
       <use x="179.199219" xlink:href="#DejaVuSans-35"/>
      </g>
     </g>
    </g>
    <g id="ytick_2">
     <g id="line2d_2">
      <g>
       <use style="stroke:#000000;stroke-width:0.8;" x="374.4576" xlink:href="#m1dcd33353d" y="255.033629"/>
      </g>
     </g>
     <g id="text_3">
      <!-- −8.0 -->
      <g transform="translate(381.4576 258.832847)scale(0.1 -0.1)">
       <use xlink:href="#DejaVuSans-2212"/>
       <use x="83.789062" xlink:href="#DejaVuSans-38"/>
       <use x="147.412109" xlink:href="#DejaVuSans-2e"/>
       <use x="179.199219" xlink:href="#DejaVuSans-30"/>
      </g>
     </g>
    </g>
    <g id="ytick_3">
     <g id="line2d_3">
      <g>
       <use style="stroke:#000000;stroke-width:0.8;" x="374.4576" xlink:href="#m1dcd33353d" y="223.575575"/>
      </g>
     </g>
     <g id="text_4">
      <!-- −7.5 -->
      <g transform="translate(381.4576 227.374794)scale(0.1 -0.1)">
       <use xlink:href="#DejaVuSans-2212"/>
       <use x="83.789062" xlink:href="#DejaVuSans-37"/>
       <use x="147.412109" xlink:href="#DejaVuSans-2e"/>
       <use x="179.199219" xlink:href="#DejaVuSans-35"/>
      </g>
     </g>
    </g>
    <g id="ytick_4">
     <g id="line2d_4">
      <g>
       <use style="stroke:#000000;stroke-width:0.8;" x="374.4576" xlink:href="#m1dcd33353d" y="192.117522"/>
      </g>
     </g>
     <g id="text_5">
      <!-- −7.0 -->
      <g transform="translate(381.4576 195.916741)scale(0.1 -0.1)">
       <use xlink:href="#DejaVuSans-2212"/>
       <use x="83.789062" xlink:href="#DejaVuSans-37"/>
       <use x="147.412109" xlink:href="#DejaVuSans-2e"/>
       <use x="179.199219" xlink:href="#DejaVuSans-30"/>
      </g>
     </g>
    </g>
    <g id="ytick_5">
     <g id="line2d_5">
      <g>
       <use style="stroke:#000000;stroke-width:0.8;" x="374.4576" xlink:href="#m1dcd33353d" y="160.659469"/>
      </g>
     </g>
     <g id="text_6">
      <!-- −6.5 -->
      <g transform="translate(381.4576 164.458688)scale(0.1 -0.1)">
       <use xlink:href="#DejaVuSans-2212"/>
       <use x="83.789062" xlink:href="#DejaVuSans-36"/>
       <use x="147.412109" xlink:href="#DejaVuSans-2e"/>
       <use x="179.199219" xlink:href="#DejaVuSans-35"/>
      </g>
     </g>
    </g>
    <g id="ytick_6">
     <g id="line2d_6">
      <g>
       <use style="stroke:#000000;stroke-width:0.8;" x="374.4576" xlink:href="#m1dcd33353d" y="129.201416"/>
      </g>
     </g>
     <g id="text_7">
      <!-- −6.0 -->
      <g transform="translate(381.4576 133.000635)scale(0.1 -0.1)">
       <use xlink:href="#DejaVuSans-2212"/>
       <use x="83.789062" xlink:href="#DejaVuSans-36"/>
       <use x="147.412109" xlink:href="#DejaVuSans-2e"/>
       <use x="179.199219" xlink:href="#DejaVuSans-30"/>
      </g>
     </g>
    </g>
    <g id="ytick_7">
     <g id="line2d_7">
      <g>
       <use style="stroke:#000000;stroke-width:0.8;" x="374.4576" xlink:href="#m1dcd33353d" y="97.743363"/>
      </g>
     </g>
     <g id="text_8">
      <!-- −5.5 -->
      <g transform="translate(381.4576 101.542582)scale(0.1 -0.1)">
       <use xlink:href="#DejaVuSans-2212"/>
       <use x="83.789062" xlink:href="#DejaVuSans-35"/>
       <use x="147.412109" xlink:href="#DejaVuSans-2e"/>
       <use x="179.199219" xlink:href="#DejaVuSans-35"/>
      </g>
     </g>
    </g>
    <g id="ytick_8">
     <g id="line2d_8">
      <g>
       <use style="stroke:#000000;stroke-width:0.8;" x="374.4576" xlink:href="#m1dcd33353d" y="66.28531"/>
      </g>
     </g>
     <g id="text_9">
      <!-- −5.0 -->
      <g transform="translate(381.4576 70.084529)scale(0.1 -0.1)">
       <use xlink:href="#DejaVuSans-2212"/>
       <use x="83.789062" xlink:href="#DejaVuSans-35"/>
       <use x="147.412109" xlink:href="#DejaVuSans-2e"/>
       <use x="179.199219" xlink:href="#DejaVuSans-30"/>
      </g>
     </g>
    </g>
    <g id="text_10">
     <!-- Energy [eV] -->
     <defs>
      <path d="M 54.890625 33.015625 
L 54.890625 0 
L 45.90625 0 
L 45.90625 32.71875 
Q 45.90625 40.484375 42.875 44.328125 
Q 39.84375 48.1875 33.796875 48.1875 
Q 26.515625 48.1875 22.3125 43.546875 
Q 18.109375 38.921875 18.109375 30.90625 
L 18.109375 0 
L 9.078125 0 
L 9.078125 54.6875 
L 18.109375 54.6875 
L 18.109375 46.1875 
Q 21.34375 51.125 25.703125 53.5625 
Q 30.078125 56 35.796875 56 
Q 45.21875 56 50.046875 50.171875 
Q 54.890625 44.34375 54.890625 33.015625 
z
" id="DejaVuSans-6e"/>
      <path d="M 45.40625 27.984375 
Q 45.40625 37.75 41.375 43.109375 
Q 37.359375 48.484375 30.078125 48.484375 
Q 22.859375 48.484375 18.828125 43.109375 
Q 14.796875 37.75 14.796875 27.984375 
Q 14.796875 18.265625 18.828125 12.890625 
Q 22.859375 7.515625 30.078125 7.515625 
Q 37.359375 7.515625 41.375 12.890625 
Q 45.40625 18.265625 45.40625 27.984375 
z
M 54.390625 6.78125 
Q 54.390625 -7.171875 48.1875 -13.984375 
Q 42 -20.796875 29.203125 -20.796875 
Q 24.46875 -20.796875 20.265625 -20.09375 
Q 16.0625 -19.390625 12.109375 -17.921875 
L 12.109375 -9.1875 
Q 16.0625 -11.328125 19.921875 -12.34375 
Q 23.78125 -13.375 27.78125 -13.375 
Q 36.625 -13.375 41.015625 -8.765625 
Q 45.40625 -4.15625 45.40625 5.171875 
L 45.40625 9.625 
Q 42.625 4.78125 38.28125 2.390625 
Q 33.9375 0 27.875 0 
Q 17.828125 0 11.671875 7.65625 
Q 5.515625 15.328125 5.515625 27.984375 
Q 5.515625 40.671875 11.671875 48.328125 
Q 17.828125 56 27.875 56 
Q 33.9375 56 38.28125 53.609375 
Q 42.625 51.21875 45.40625 46.390625 
L 45.40625 54.6875 
L 54.390625 54.6875 
z
" id="DejaVuSans-67"/>
      <path d="M 32.171875 -5.078125 
Q 28.375 -14.84375 24.75 -17.8125 
Q 21.140625 -20.796875 15.09375 -20.796875 
L 7.90625 -20.796875 
L 7.90625 -13.28125 
L 13.1875 -13.28125 
Q 16.890625 -13.28125 18.9375 -11.515625 
Q 21 -9.765625 23.484375 -3.21875 
L 25.09375 0.875 
L 2.984375 54.6875 
L 12.5 54.6875 
L 29.59375 11.921875 
L 46.6875 54.6875 
L 56.203125 54.6875 
z
" id="DejaVuSans-79"/>
      <path d="M 8.59375 75.984375 
L 29.296875 75.984375 
L 29.296875 69 
L 17.578125 69 
L 17.578125 -6.203125 
L 29.296875 -6.203125 
L 29.296875 -13.1875 
L 8.59375 -13.1875 
z
" id="DejaVuSans-5b"/>
      <path d="M 30.421875 75.984375 
L 30.421875 -13.1875 
L 9.71875 -13.1875 
L 9.71875 -6.203125 
L 21.390625 -6.203125 
L 21.390625 69 
L 9.71875 69 
L 9.71875 75.984375 
z
" id="DejaVuSans-5d"/>
     </defs>
     <g transform="translate(417.33885 204.108469)rotate(-90)scale(0.1 -0.1)">
      <use xlink:href="#DejaVuSans-45"/>
      <use x="63.183594" xlink:href="#DejaVuSans-6e"/>
      <use x="126.5625" xlink:href="#DejaVuSans-65"/>
      <use x="188.085938" xlink:href="#DejaVuSans-72"/>
      <use x="229.183594" xlink:href="#DejaVuSans-67"/>
      <use x="292.660156" xlink:href="#DejaVuSans-79"/>
      <use x="351.839844" xlink:href="#DejaVuSans-20"/>
      <use x="383.626953" xlink:href="#DejaVuSans-5b"/>
      <use x="422.640625" xlink:href="#DejaVuSans-65"/>
      <use x="484.164062" xlink:href="#DejaVuSans-56"/>
      <use x="552.572266" xlink:href="#DejaVuSans-5d"/>
     </g>
    </g>
   </g>
   <g id="patch_3">
    <path d="M 361.152 307.584 
L 361.152 306.5445 
L 361.152 42.5115 
L 361.152 41.472 
L 374.4576 41.472 
L 374.4576 42.5115 
L 374.4576 306.5445 
L 374.4576 307.584 
z
" style="fill:none;stroke:#000000;stroke-linejoin:miter;stroke-width:0.8;"/>
   </g>
  </g>
 </g>
 <defs>
  <clipPath id="p9ebcba2880">
   <rect height="266.112" width="285.696" x="57.6" y="41.472"/>
  </clipPath>
  <clipPath id="p9ffe212011">
   <rect height="266.112" width="13.3056" x="361.152" y="41.472"/>
  </clipPath>
 </defs>
</svg>
