<?xml version="1.0" encoding="utf-8" standalone="no"?>
<!DOCTYPE svg PUBLIC "-//W3C//DTD SVG 1.1//EN"
  "http://www.w3.org/Graphics/SVG/1.1/DTD/svg11.dtd">
<!-- Created with matplotlib (http://matplotlib.org/) -->
<svg height="345.6pt" version="1.1" viewBox="0 0 460.8 345.6" width="460.8pt" xmlns="http://www.w3.org/2000/svg" xmlns:xlink="http://www.w3.org/1999/xlink">
 <defs>
  <style type="text/css">
*{stroke-linecap:butt;stroke-linejoin:round;}
  </style>
 </defs>
 <g id="figure_1">
  <g id="patch_1">
   <path d="M 0 345.6 
L 460.8 345.6 
L 460.8 0 
L 0 0 
z
" style="fill:#ffffff;"/>
  </g>
  <g id="axes_1">
   <g id="CircleCollection_1">
    <path clip-path="url(#pa96567730a)" d="M 329.882478 301.63853 
C 331.625774 301.63853 333.297903 300.945912 334.530598 299.713216 
C 335.763294 298.48052 336.455913 296.808391 336.455913 295.065096 
C 336.455913 293.321801 335.763294 291.649672 334.530598 290.416976 
C 333.297903 289.184281 331.625774 288.491662 329.882478 288.491662 
C 328.139183 288.491662 326.467054 289.184281 325.234359 290.416976 
C 324.001663 291.649672 323.309044 293.321801 323.309044 295.065096 
C 323.309044 296.808391 324.001663 298.48052 325.234359 299.713216 
C 326.467054 300.945912 328.139183 301.63853 329.882478 301.63853 
z
" style="fill:#fde725;"/>
    <path clip-path="url(#pa96567730a)" d="M 99.421424 147.542967 
C 101.176234 147.542967 102.859407 146.845774 104.100245 145.604936 
C 105.341083 144.364098 106.038276 142.680925 106.038276 140.926115 
C 106.038276 139.171306 105.341083 137.488132 104.100245 136.247294 
C 102.859407 135.006457 101.176234 134.309263 99.421424 134.309263 
C 97.666615 134.309263 95.983441 135.006457 94.742603 136.247294 
C 93.501766 137.488132 92.804572 139.171306 92.804572 140.926115 
C 92.804572 142.680925 93.501766 144.364098 94.742603 145.604936 
C 95.983441 146.845774 97.666615 147.542967 99.421424 147.542967 
z
" style="fill:#440154;"/>
    <path clip-path="url(#pa96567730a)" d="M 301.125571 278.870692 
C 302.888861 278.870692 304.580168 278.17013 305.827003 276.923295 
C 307.073837 275.676461 307.774399 273.985153 307.774399 272.221863 
C 307.774399 270.458574 307.073837 268.767266 305.827003 267.520432 
C 304.580168 266.273597 302.888861 265.573035 301.125571 265.573035 
C 299.362281 265.573035 297.670973 266.273597 296.424139 267.520432 
C 295.177305 268.767266 294.476742 270.458574 294.476742 272.221863 
C 294.476742 273.985153 295.177305 275.676461 296.424139 276.923295 
C 297.670973 278.17013 299.362281 278.870692 301.125571 278.870692 
z
" style="fill:#3e4a89;"/>
    <path clip-path="url(#pa96567730a)" d="M 256.407194 158.56892 
C 258.135737 158.56892 259.793716 157.882162 261.01598 156.659898 
C 262.238244 155.437634 262.925002 153.779655 262.925002 152.051112 
C 262.925002 150.322569 262.238244 148.66459 261.01598 147.442326 
C 259.793716 146.220061 258.135737 145.533304 256.407194 145.533304 
C 254.678651 145.533304 253.020672 146.220061 251.798408 147.442326 
C 250.576143 148.66459 249.889386 150.322569 249.889386 152.051112 
C 249.889386 153.779655 250.576143 155.437634 251.798408 156.659898 
C 253.020672 157.882162 254.678651 158.56892 256.407194 158.56892 
z
" style="fill:#31678e;"/>
    <path clip-path="url(#pa96567730a)" d="M 77.032367 176.21603 
C 78.795116 176.21603 80.485905 175.515682 81.732357 174.26923 
C 82.978809 173.022778 83.679156 171.331989 83.679156 169.56924 
C 83.679156 167.806491 82.978809 166.115702 81.732357 164.86925 
C 80.485905 163.622798 78.795116 162.922451 77.032367 162.922451 
C 75.269618 162.922451 73.578829 163.622798 72.332377 164.86925 
C 71.085925 166.115702 70.385577 167.806491 70.385577 169.56924 
C 70.385577 171.331989 71.085925 173.022778 72.332377 174.26923 
C 73.578829 175.515682 75.269618 176.21603 77.032367 176.21603 
z
" style="fill:#2a778e;"/>
    <path clip-path="url(#pa96567730a)" d="M 250.302785 121.277945 
C 252.012254 121.277945 253.651938 120.598766 254.860715 119.389989 
C 256.069492 118.181211 256.748672 116.541527 256.748672 114.832058 
C 256.748672 113.122589 256.069492 111.482905 254.860715 110.274128 
C 253.651938 109.065351 252.012254 108.386171 250.302785 108.386171 
C 248.593315 108.386171 246.953632 109.065351 245.744854 110.274128 
C 244.536077 111.482905 243.856898 113.122589 243.856898 114.832058 
C 243.856898 116.541527 244.536077 118.181211 245.744854 119.389989 
C 246.953632 120.598766 248.593315 121.277945 250.302785 121.277945 
z
" style="fill:#39558c;"/>
    <path clip-path="url(#pa96567730a)" d="M 250.730677 238.052159 
C 252.49108 238.052159 254.179618 237.352743 255.424411 236.107951 
C 256.669203 234.863158 257.368619 233.17462 257.368619 231.414217 
C 257.368619 229.653814 256.669203 227.965276 255.424411 226.720484 
C 254.179618 225.475691 252.49108 224.776276 250.730677 224.776276 
C 248.970275 224.776276 247.281737 225.475691 246.036944 226.720484 
C 244.792151 227.965276 244.092736 229.653814 244.092736 231.414217 
C 244.092736 233.17462 244.792151 234.863158 246.036944 236.107951 
C 247.281737 237.352743 248.970275 238.052159 250.730677 238.052159 
z
" style="fill:#433d84;"/>
    <path clip-path="url(#pa96567730a)" d="M 289.797553 138.364934 
C 291.506378 138.364934 293.145444 137.68601 294.353766 136.477688 
C 295.562088 135.269366 296.241012 133.6303 296.241012 131.921475 
C 296.241012 130.212649 295.562088 128.573583 294.353766 127.365261 
C 293.145444 126.156939 291.506378 125.478015 289.797553 125.478015 
C 288.088727 125.478015 286.449661 126.156939 285.241339 127.365261 
C 284.033017 128.573583 283.354093 130.212649 283.354093 131.921475 
C 283.354093 133.6303 284.033017 135.269366 285.241339 136.477688 
C 286.449661 137.68601 288.088727 138.364934 289.797553 138.364934 
z
" style="fill:#20a486;"/>
    <path clip-path="url(#pa96567730a)" d="M 148.181186 148.47482 
C 149.928558 148.47482 151.604597 147.780582 152.840176 146.545003 
C 154.075755 145.309424 154.769993 143.633385 154.769993 141.886012 
C 154.769993 140.13864 154.075755 138.4626 152.840176 137.227022 
C 151.604597 135.991443 149.928558 135.297204 148.181186 135.297204 
C 146.433813 135.297204 144.757774 135.991443 143.522195 137.227022 
C 142.286616 138.4626 141.592378 140.13864 141.592378 141.886012 
C 141.592378 143.633385 142.286616 145.309424 143.522195 146.545003 
C 144.757774 147.780582 146.433813 148.47482 148.181186 148.47482 
z
" style="fill:#453882;"/>
    <path clip-path="url(#pa96567730a)" d="M 92.592043 88.412784 
C 94.340945 88.412784 96.018452 87.717938 97.255112 86.481277 
C 98.491772 85.244617 99.186618 83.56711 99.186618 81.818208 
C 99.186618 80.069306 98.491772 78.3918 97.255112 77.155139 
C 96.018452 75.918479 94.340945 75.223633 92.592043 75.223633 
C 90.843141 75.223633 89.165634 75.918479 87.928974 77.155139 
C 86.692313 78.3918 85.997467 80.069306 85.997467 81.818208 
C 85.997467 83.56711 86.692313 85.244617 87.928974 86.481277 
C 89.165634 87.717938 90.843141 88.412784 92.592043 88.412784 
z
" style="fill:#3d4e8a;"/>
    <path clip-path="url(#pa96567730a)" d="M 141.714011 88.40163 
C 143.452294 88.40163 145.119617 87.711003 146.348769 86.481851 
C 147.577921 85.252698 148.268549 83.585376 148.268549 81.847092 
C 148.268549 80.108808 147.577921 78.441486 146.348769 77.212334 
C 145.119617 75.983182 143.452294 75.292554 141.714011 75.292554 
C 139.975727 75.292554 138.308404 75.983182 137.079252 77.212334 
C 135.8501 78.441486 135.159472 80.108808 135.159472 81.847092 
C 135.159472 83.585376 135.8501 85.252698 137.079252 86.481851 
C 138.308404 87.711003 139.975727 88.40163 141.714011 88.40163 
z
" style="fill:#2f6b8e;"/>
    <path clip-path="url(#pa96567730a)" d="M 220.162355 213.284777 
C 221.920431 213.284777 223.606738 212.586286 224.849886 211.343138 
C 226.093033 210.099991 226.791524 208.413684 226.791524 206.655608 
C 226.791524 204.897531 226.093033 203.211225 224.849886 201.968077 
C 223.606738 200.724929 221.920431 200.026438 220.162355 200.026438 
C 218.404278 200.026438 216.717972 200.724929 215.474824 201.968077 
C 214.231676 203.211225 213.533185 204.897531 213.533185 206.655608 
C 213.533185 208.413684 214.231676 210.099991 215.474824 211.343138 
C 216.717972 212.586286 218.404278 213.284777 220.162355 213.284777 
z
" style="fill:#482173;"/>
    <path clip-path="url(#pa96567730a)" d="M 173.931194 211.948118 
C 175.694953 211.948118 177.38671 211.24737 178.633876 210.000204 
C 179.881042 208.753038 180.58179 207.061281 180.58179 205.297522 
C 180.58179 203.533764 179.881042 201.842006 178.633876 200.594841 
C 177.38671 199.347675 175.694953 198.646926 173.931194 198.646926 
C 172.167436 198.646926 170.475678 199.347675 169.228513 200.594841 
C 167.981347 201.842006 167.280598 203.533764 167.280598 205.297522 
C 167.280598 207.061281 167.981347 208.753038 169.228513 210.000204 
C 170.475678 211.24737 172.167436 211.948118 173.931194 211.948118 
z
" style="fill:#443983;"/>
    <path clip-path="url(#pa96567730a)" d="M 255.058038 271.113185 
C 256.833696 271.113185 258.536867 270.407709 259.792447 269.152129 
C 261.048027 267.896549 261.753503 266.193378 261.753503 264.41772 
C 261.753503 262.642062 261.048027 260.938891 259.792447 259.683311 
C 258.536867 258.427732 256.833696 257.722255 255.058038 257.722255 
C 253.28238 257.722255 251.579209 258.427732 250.323629 259.683311 
C 249.06805 260.938891 248.362573 262.642062 248.362573 264.41772 
C 248.362573 266.193378 249.06805 267.896549 250.323629 269.152129 
C 251.579209 270.407709 253.28238 271.113185 255.058038 271.113185 
z
" style="fill:#1f9e89;"/>
    <path clip-path="url(#pa96567730a)" d="M 100.719527 229.247532 
C 102.496453 229.247532 104.20084 228.541552 105.457317 227.285075 
C 106.713794 226.028598 107.419774 224.324211 107.419774 222.547284 
C 107.419774 220.770358 106.713794 219.065971 105.457317 217.809494 
C 104.20084 216.553017 102.496453 215.847037 100.719527 215.847037 
C 98.9426 215.847037 97.238213 216.553017 95.981736 217.809494 
C 94.725259 219.065971 94.019279 220.770358 94.019279 222.547284 
C 94.019279 224.324211 94.725259 226.028598 95.981736 227.285075 
C 97.238213 228.541552 98.9426 229.247532 100.719527 229.247532 
z
" style="fill:#2e6d8e;"/>
    <path clip-path="url(#pa96567730a)" d="M 119.1798 60.568266 
C 120.924074 60.568266 122.597142 59.875259 123.83053 58.641871 
C 125.063918 57.408483 125.756925 55.735415 125.756925 53.991141 
C 125.756925 52.246867 125.063918 50.573799 123.83053 49.340411 
C 122.597142 48.107023 120.924074 47.414016 119.1798 47.414016 
C 117.435526 47.414016 115.762458 48.107023 114.52907 49.340411 
C 113.295682 50.573799 112.602675 52.246867 112.602675 53.991141 
C 112.602675 55.735415 113.295682 57.408483 114.52907 58.641871 
C 115.762458 59.875259 117.435526 60.568266 119.1798 60.568266 
z
" style="fill:#2ab07f;"/>
    <path clip-path="url(#pa96567730a)" d="M 140.917099 234.363249 
C 142.691116 234.363249 144.392713 233.658424 145.647133 232.404005 
C 146.901552 231.149585 147.606377 229.447988 147.606377 227.673971 
C 147.606377 225.899953 146.901552 224.198356 145.647133 222.943937 
C 144.392713 221.689517 142.691116 220.984693 140.917099 220.984693 
C 139.143082 220.984693 137.441485 221.689517 136.187065 222.943937 
C 134.932645 224.198356 134.227821 225.899953 134.227821 227.673971 
C 134.227821 229.447988 134.932645 231.149585 136.187065 232.404005 
C 137.441485 233.658424 139.143082 234.363249 140.917099 234.363249 
z
" style="fill:#2d718e;"/>
    <path clip-path="url(#pa96567730a)" d="M 211.395212 111.414384 
C 213.112216 111.414384 214.759128 110.732211 215.973233 109.518106 
C 217.187338 108.304 217.869512 106.657089 217.869512 104.940084 
C 217.869512 103.22308 217.187338 101.576169 215.973233 100.362063 
C 214.759128 99.147958 213.112216 98.465785 211.395212 98.465785 
C 209.678208 98.465785 208.031296 99.147958 206.817191 100.362063 
C 205.603086 101.576169 204.920913 103.22308 204.920913 104.940084 
C 204.920913 106.657089 205.603086 108.304 206.817191 109.518106 
C 208.031296 110.732211 209.678208 111.414384 211.395212 111.414384 
z
" style="fill:#2a778e;"/>
    <path clip-path="url(#pa96567730a)" d="M 174.546008 176.122256 
C 176.298166 176.122256 177.978796 175.426117 179.217758 174.187154 
C 180.456721 172.948192 181.15286 171.267562 181.15286 169.515404 
C 181.15286 167.763247 180.456721 166.082617 179.217758 164.843654 
C 177.978796 163.604692 176.298166 162.908552 174.546008 162.908552 
C 172.793851 162.908552 171.113221 163.604692 169.874258 164.843654 
C 168.635296 166.082617 167.939156 167.763247 167.939156 169.515404 
C 167.939156 171.267562 168.635296 172.948192 169.874258 174.187154 
C 171.113221 175.426117 172.793851 176.122256 174.546008 176.122256 
z
" style="fill:#34608d;"/>
    <path clip-path="url(#pa96567730a)" d="M 79.764965 117.650231 
C 81.515803 117.650231 83.195167 116.954615 84.433197 115.716586 
C 85.671227 114.478556 86.366842 112.799192 86.366842 111.048354 
C 86.366842 109.297515 85.671227 107.618151 84.433197 106.380122 
C 83.195167 105.142092 81.515803 104.446476 79.764965 104.446476 
C 78.014127 104.446476 76.334762 105.142092 75.096733 106.380122 
C 73.858703 107.618151 73.163088 109.297515 73.163088 111.048354 
C 73.163088 112.799192 73.858703 114.478556 75.096733 115.716586 
C 76.334762 116.954615 78.014127 117.650231 79.764965 117.650231 
z
" style="fill:#24868e;"/>
    <path clip-path="url(#pa96567730a)" d="M 223.411584 179.46834 
C 225.157233 179.46834 226.831619 178.774786 228.065979 177.540426 
C 229.300339 176.306066 229.993893 174.63168 229.993893 172.886031 
C 229.993893 171.140383 229.300339 169.465996 228.065979 168.231636 
C 226.831619 166.997276 225.157233 166.303723 223.411584 166.303723 
C 221.665936 166.303723 219.991549 166.997276 218.757189 168.231636 
C 217.522829 169.465996 216.829276 171.140383 216.829276 172.886031 
C 216.829276 174.63168 217.522829 176.306066 218.757189 177.540426 
C 219.991549 178.774786 221.665936 179.46834 223.411584 179.46834 
z
" style="fill:#472e7c;"/>
    <path clip-path="url(#pa96567730a)" d="M 295.579176 243.80935 
C 297.348378 243.80935 299.045355 243.106438 300.296369 241.855424 
C 301.547384 240.60441 302.250295 238.907432 302.250295 237.138231 
C 302.250295 235.36903 301.547384 233.672052 300.296369 232.421038 
C 299.045355 231.170024 297.348378 230.467113 295.579176 230.467113 
C 293.809975 230.467113 292.112997 231.170024 290.861983 232.421038 
C 289.610969 233.672052 288.908058 235.36903 288.908058 237.138231 
C 288.908058 238.907432 289.610969 240.60441 290.861983 241.855424 
C 292.112997 243.106438 293.809975 243.80935 295.579176 243.80935 
z
" style="fill:#1fa188;"/>
    <path clip-path="url(#pa96567730a)" d="M 167.81783 115.919526 
C 169.551215 115.919526 171.213839 115.230845 172.439527 114.005156 
C 173.665216 112.779468 174.353897 111.116844 174.353897 109.383459 
C 174.353897 107.650074 173.665216 105.98745 172.439527 104.761761 
C 171.213839 103.536073 169.551215 102.847392 167.81783 102.847392 
C 166.084444 102.847392 164.421821 103.536073 163.196132 104.761761 
C 161.970444 105.98745 161.281763 107.650074 161.281763 109.383459 
C 161.281763 111.116844 161.970444 112.779468 163.196132 114.005156 
C 164.421821 115.230845 166.084444 115.919526 167.81783 115.919526 
z
" style="fill:#460a5d;"/>
    <path clip-path="url(#pa96567730a)" d="M 71.020318 205.728302 
C 72.791337 205.728302 74.490058 205.024669 75.742357 203.772369 
C 76.994657 202.52007 77.69829 200.821349 77.69829 199.05033 
C 77.69829 197.279311 76.994657 195.580589 75.742357 194.32829 
C 74.490058 193.07599 72.791337 192.372357 71.020318 192.372357 
C 69.249299 192.372357 67.550578 193.07599 66.298278 194.32829 
C 65.045979 195.580589 64.342345 197.279311 64.342345 199.05033 
C 64.342345 200.821349 65.045979 202.52007 66.298278 203.772369 
C 67.550578 205.024669 69.249299 205.728302 71.020318 205.728302 
z
" style="fill:#355f8d;"/>
   </g>
   <g id="text_1">
    <!-- Structure #6372, $E_N$=-176.91eV, ΔE=0.30eV -->
    <defs>
     <path d="M 53.515625 70.515625 
L 53.515625 60.890625 
Q 47.90625 63.578125 42.921875 64.890625 
Q 37.9375 66.21875 33.296875 66.21875 
Q 25.25 66.21875 20.875 63.09375 
Q 16.5 59.96875 16.5 54.203125 
Q 16.5 49.359375 19.40625 46.890625 
Q 22.3125 44.4375 30.421875 42.921875 
L 36.375 41.703125 
Q 47.40625 39.59375 52.65625 34.296875 
Q 57.90625 29 57.90625 20.125 
Q 57.90625 9.515625 50.796875 4.046875 
Q 43.703125 -1.421875 29.984375 -1.421875 
Q 24.8125 -1.421875 18.96875 -0.25 
Q 13.140625 0.921875 6.890625 3.21875 
L 6.890625 13.375 
Q 12.890625 10.015625 18.65625 8.296875 
Q 24.421875 6.59375 29.984375 6.59375 
Q 38.421875 6.59375 43.015625 9.90625 
Q 47.609375 13.234375 47.609375 19.390625 
Q 47.609375 24.75 44.3125 27.78125 
Q 41.015625 30.8125 33.5 32.328125 
L 27.484375 33.5 
Q 16.453125 35.6875 11.515625 40.375 
Q 6.59375 45.0625 6.59375 53.421875 
Q 6.59375 63.09375 13.40625 68.65625 
Q 20.21875 74.21875 32.171875 74.21875 
Q 37.3125 74.21875 42.625 73.28125 
Q 47.953125 72.359375 53.515625 70.515625 
z
" id="DejaVuSans-53"/>
     <path d="M 18.3125 70.21875 
L 18.3125 54.6875 
L 36.8125 54.6875 
L 36.8125 47.703125 
L 18.3125 47.703125 
L 18.3125 18.015625 
Q 18.3125 11.328125 20.140625 9.421875 
Q 21.96875 7.515625 27.59375 7.515625 
L 36.8125 7.515625 
L 36.8125 0 
L 27.59375 0 
Q 17.1875 0 13.234375 3.875 
Q 9.28125 7.765625 9.28125 18.015625 
L 9.28125 47.703125 
L 2.6875 47.703125 
L 2.6875 54.6875 
L 9.28125 54.6875 
L 9.28125 70.21875 
z
" id="DejaVuSans-74"/>
     <path d="M 41.109375 46.296875 
Q 39.59375 47.171875 37.8125 47.578125 
Q 36.03125 48 33.890625 48 
Q 26.265625 48 22.1875 43.046875 
Q 18.109375 38.09375 18.109375 28.8125 
L 18.109375 0 
L 9.078125 0 
L 9.078125 54.6875 
L 18.109375 54.6875 
L 18.109375 46.1875 
Q 20.953125 51.171875 25.484375 53.578125 
Q 30.03125 56 36.53125 56 
Q 37.453125 56 38.578125 55.875 
Q 39.703125 55.765625 41.0625 55.515625 
z
" id="DejaVuSans-72"/>
     <path d="M 8.5 21.578125 
L 8.5 54.6875 
L 17.484375 54.6875 
L 17.484375 21.921875 
Q 17.484375 14.15625 20.5 10.265625 
Q 23.53125 6.390625 29.59375 6.390625 
Q 36.859375 6.390625 41.078125 11.03125 
Q 45.3125 15.671875 45.3125 23.6875 
L 45.3125 54.6875 
L 54.296875 54.6875 
L 54.296875 0 
L 45.3125 0 
L 45.3125 8.40625 
Q 42.046875 3.421875 37.71875 1 
Q 33.40625 -1.421875 27.6875 -1.421875 
Q 18.265625 -1.421875 13.375 4.4375 
Q 8.5 10.296875 8.5 21.578125 
z
M 31.109375 56 
z
" id="DejaVuSans-75"/>
     <path d="M 48.78125 52.59375 
L 48.78125 44.1875 
Q 44.96875 46.296875 41.140625 47.34375 
Q 37.3125 48.390625 33.40625 48.390625 
Q 24.65625 48.390625 19.8125 42.84375 
Q 14.984375 37.3125 14.984375 27.296875 
Q 14.984375 17.28125 19.8125 11.734375 
Q 24.65625 6.203125 33.40625 6.203125 
Q 37.3125 6.203125 41.140625 7.25 
Q 44.96875 8.296875 48.78125 10.40625 
L 48.78125 2.09375 
Q 45.015625 0.34375 40.984375 -0.53125 
Q 36.96875 -1.421875 32.421875 -1.421875 
Q 20.0625 -1.421875 12.78125 6.34375 
Q 5.515625 14.109375 5.515625 27.296875 
Q 5.515625 40.671875 12.859375 48.328125 
Q 20.21875 56 33.015625 56 
Q 37.15625 56 41.109375 55.140625 
Q 45.0625 54.296875 48.78125 52.59375 
z
" id="DejaVuSans-63"/>
     <path d="M 56.203125 29.59375 
L 56.203125 25.203125 
L 14.890625 25.203125 
Q 15.484375 15.921875 20.484375 11.0625 
Q 25.484375 6.203125 34.421875 6.203125 
Q 39.59375 6.203125 44.453125 7.46875 
Q 49.3125 8.734375 54.109375 11.28125 
L 54.109375 2.78125 
Q 49.265625 0.734375 44.1875 -0.34375 
Q 39.109375 -1.421875 33.890625 -1.421875 
Q 20.796875 -1.421875 13.15625 6.1875 
Q 5.515625 13.8125 5.515625 26.8125 
Q 5.515625 40.234375 12.765625 48.109375 
Q 20.015625 56 32.328125 56 
Q 43.359375 56 49.78125 48.890625 
Q 56.203125 41.796875 56.203125 29.59375 
z
M 47.21875 32.234375 
Q 47.125 39.59375 43.09375 43.984375 
Q 39.0625 48.390625 32.421875 48.390625 
Q 24.90625 48.390625 20.390625 44.140625 
Q 15.875 39.890625 15.1875 32.171875 
z
" id="DejaVuSans-65"/>
     <path id="DejaVuSans-20"/>
     <path d="M 51.125 44 
L 36.921875 44 
L 32.8125 27.6875 
L 47.125 27.6875 
z
M 43.796875 71.78125 
L 38.71875 51.515625 
L 52.984375 51.515625 
L 58.109375 71.78125 
L 65.921875 71.78125 
L 60.890625 51.515625 
L 76.125 51.515625 
L 76.125 44 
L 58.984375 44 
L 54.984375 27.6875 
L 70.515625 27.6875 
L 70.515625 20.21875 
L 53.078125 20.21875 
L 48 0 
L 40.1875 0 
L 45.21875 20.21875 
L 30.90625 20.21875 
L 25.875 0 
L 18.015625 0 
L 23.09375 20.21875 
L 7.71875 20.21875 
L 7.71875 27.6875 
L 24.90625 27.6875 
L 29 44 
L 13.28125 44 
L 13.28125 51.515625 
L 30.90625 51.515625 
L 35.890625 71.78125 
z
" id="DejaVuSans-23"/>
     <path d="M 33.015625 40.375 
Q 26.375 40.375 22.484375 35.828125 
Q 18.609375 31.296875 18.609375 23.390625 
Q 18.609375 15.53125 22.484375 10.953125 
Q 26.375 6.390625 33.015625 6.390625 
Q 39.65625 6.390625 43.53125 10.953125 
Q 47.40625 15.53125 47.40625 23.390625 
Q 47.40625 31.296875 43.53125 35.828125 
Q 39.65625 40.375 33.015625 40.375 
z
M 52.59375 71.296875 
L 52.59375 62.3125 
Q 48.875 64.0625 45.09375 64.984375 
Q 41.3125 65.921875 37.59375 65.921875 
Q 27.828125 65.921875 22.671875 59.328125 
Q 17.53125 52.734375 16.796875 39.40625 
Q 19.671875 43.65625 24.015625 45.921875 
Q 28.375 48.1875 33.59375 48.1875 
Q 44.578125 48.1875 50.953125 41.515625 
Q 57.328125 34.859375 57.328125 23.390625 
Q 57.328125 12.15625 50.6875 5.359375 
Q 44.046875 -1.421875 33.015625 -1.421875 
Q 20.359375 -1.421875 13.671875 8.265625 
Q 6.984375 17.96875 6.984375 36.375 
Q 6.984375 53.65625 15.1875 63.9375 
Q 23.390625 74.21875 37.203125 74.21875 
Q 40.921875 74.21875 44.703125 73.484375 
Q 48.484375 72.75 52.59375 71.296875 
z
" id="DejaVuSans-36"/>
     <path d="M 40.578125 39.3125 
Q 47.65625 37.796875 51.625 33 
Q 55.609375 28.21875 55.609375 21.1875 
Q 55.609375 10.40625 48.1875 4.484375 
Q 40.765625 -1.421875 27.09375 -1.421875 
Q 22.515625 -1.421875 17.65625 -0.515625 
Q 12.796875 0.390625 7.625 2.203125 
L 7.625 11.71875 
Q 11.71875 9.328125 16.59375 8.109375 
Q 21.484375 6.890625 26.8125 6.890625 
Q 36.078125 6.890625 40.9375 10.546875 
Q 45.796875 14.203125 45.796875 21.1875 
Q 45.796875 27.640625 41.28125 31.265625 
Q 36.765625 34.90625 28.71875 34.90625 
L 20.21875 34.90625 
L 20.21875 43.015625 
L 29.109375 43.015625 
Q 36.375 43.015625 40.234375 45.921875 
Q 44.09375 48.828125 44.09375 54.296875 
Q 44.09375 59.90625 40.109375 62.90625 
Q 36.140625 65.921875 28.71875 65.921875 
Q 24.65625 65.921875 20.015625 65.03125 
Q 15.375 64.15625 9.8125 62.3125 
L 9.8125 71.09375 
Q 15.4375 72.65625 20.34375 73.4375 
Q 25.25 74.21875 29.59375 74.21875 
Q 40.828125 74.21875 47.359375 69.109375 
Q 53.90625 64.015625 53.90625 55.328125 
Q 53.90625 49.265625 50.4375 45.09375 
Q 46.96875 40.921875 40.578125 39.3125 
z
" id="DejaVuSans-33"/>
     <path d="M 8.203125 72.90625 
L 55.078125 72.90625 
L 55.078125 68.703125 
L 28.609375 0 
L 18.3125 0 
L 43.21875 64.59375 
L 8.203125 64.59375 
z
" id="DejaVuSans-37"/>
     <path d="M 19.1875 8.296875 
L 53.609375 8.296875 
L 53.609375 0 
L 7.328125 0 
L 7.328125 8.296875 
Q 12.9375 14.109375 22.625 23.890625 
Q 32.328125 33.6875 34.8125 36.53125 
Q 39.546875 41.84375 41.421875 45.53125 
Q 43.3125 49.21875 43.3125 52.78125 
Q 43.3125 58.59375 39.234375 62.25 
Q 35.15625 65.921875 28.609375 65.921875 
Q 23.96875 65.921875 18.8125 64.3125 
Q 13.671875 62.703125 7.8125 59.421875 
L 7.8125 69.390625 
Q 13.765625 71.78125 18.9375 73 
Q 24.125 74.21875 28.421875 74.21875 
Q 39.75 74.21875 46.484375 68.546875 
Q 53.21875 62.890625 53.21875 53.421875 
Q 53.21875 48.921875 51.53125 44.890625 
Q 49.859375 40.875 45.40625 35.40625 
Q 44.1875 33.984375 37.640625 27.21875 
Q 31.109375 20.453125 19.1875 8.296875 
z
" id="DejaVuSans-32"/>
     <path d="M 11.71875 12.40625 
L 22.015625 12.40625 
L 22.015625 4 
L 14.015625 -11.625 
L 7.71875 -11.625 
L 11.71875 4 
z
" id="DejaVuSans-2c"/>
     <path d="M 16.890625 72.90625 
L 62.984375 72.90625 
L 61.375 64.59375 
L 25.09375 64.59375 
L 20.90625 43.015625 
L 55.71875 43.015625 
L 54.109375 34.71875 
L 19.28125 34.71875 
L 14.203125 8.296875 
L 51.3125 8.296875 
L 49.703125 0 
L 2.6875 0 
z
" id="DejaVuSans-Oblique-45"/>
     <path d="M 16.890625 72.90625 
L 30.171875 72.90625 
L 50.296875 10.40625 
L 62.5 72.90625 
L 72.125 72.90625 
L 57.90625 0 
L 44.578125 0 
L 24.515625 62.890625 
L 12.3125 0 
L 2.6875 0 
z
" id="DejaVuSans-Oblique-4e"/>
     <path d="M 10.59375 45.40625 
L 73.1875 45.40625 
L 73.1875 37.203125 
L 10.59375 37.203125 
z
M 10.59375 25.484375 
L 73.1875 25.484375 
L 73.1875 17.1875 
L 10.59375 17.1875 
z
" id="DejaVuSans-3d"/>
     <path d="M 4.890625 31.390625 
L 31.203125 31.390625 
L 31.203125 23.390625 
L 4.890625 23.390625 
z
" id="DejaVuSans-2d"/>
     <path d="M 12.40625 8.296875 
L 28.515625 8.296875 
L 28.515625 63.921875 
L 10.984375 60.40625 
L 10.984375 69.390625 
L 28.421875 72.90625 
L 38.28125 72.90625 
L 38.28125 8.296875 
L 54.390625 8.296875 
L 54.390625 0 
L 12.40625 0 
z
" id="DejaVuSans-31"/>
     <path d="M 10.6875 12.40625 
L 21 12.40625 
L 21 0 
L 10.6875 0 
z
" id="DejaVuSans-2e"/>
     <path d="M 10.984375 1.515625 
L 10.984375 10.5 
Q 14.703125 8.734375 18.5 7.8125 
Q 22.3125 6.890625 25.984375 6.890625 
Q 35.75 6.890625 40.890625 13.453125 
Q 46.046875 20.015625 46.78125 33.40625 
Q 43.953125 29.203125 39.59375 26.953125 
Q 35.25 24.703125 29.984375 24.703125 
Q 19.046875 24.703125 12.671875 31.3125 
Q 6.296875 37.9375 6.296875 49.421875 
Q 6.296875 60.640625 12.9375 67.421875 
Q 19.578125 74.21875 30.609375 74.21875 
Q 43.265625 74.21875 49.921875 64.515625 
Q 56.59375 54.828125 56.59375 36.375 
Q 56.59375 19.140625 48.40625 8.859375 
Q 40.234375 -1.421875 26.421875 -1.421875 
Q 22.703125 -1.421875 18.890625 -0.6875 
Q 15.09375 0.046875 10.984375 1.515625 
z
M 30.609375 32.421875 
Q 37.25 32.421875 41.125 36.953125 
Q 45.015625 41.5 45.015625 49.421875 
Q 45.015625 57.28125 41.125 61.84375 
Q 37.25 66.40625 30.609375 66.40625 
Q 23.96875 66.40625 20.09375 61.84375 
Q 16.21875 57.28125 16.21875 49.421875 
Q 16.21875 41.5 20.09375 36.953125 
Q 23.96875 32.421875 30.609375 32.421875 
z
" id="DejaVuSans-39"/>
     <path d="M 28.609375 0 
L 0.78125 72.90625 
L 11.078125 72.90625 
L 34.1875 11.53125 
L 57.328125 72.90625 
L 67.578125 72.90625 
L 39.796875 0 
z
" id="DejaVuSans-56"/>
     <path d="M 34.1875 63.1875 
L 14.15625 8.203125 
L 54.25 8.203125 
z
M 0.78125 0 
L 28.609375 72.90625 
L 39.796875 72.90625 
L 67.578125 0 
z
" id="DejaVuSans-394"/>
     <path d="M 9.8125 72.90625 
L 55.90625 72.90625 
L 55.90625 64.59375 
L 19.671875 64.59375 
L 19.671875 43.015625 
L 54.390625 43.015625 
L 54.390625 34.71875 
L 19.671875 34.71875 
L 19.671875 8.296875 
L 56.78125 8.296875 
L 56.78125 0 
L 9.8125 0 
z
" id="DejaVuSans-45"/>
     <path d="M 31.78125 66.40625 
Q 24.171875 66.40625 20.328125 58.90625 
Q 16.5 51.421875 16.5 36.375 
Q 16.5 21.390625 20.328125 13.890625 
Q 24.171875 6.390625 31.78125 6.390625 
Q 39.453125 6.390625 43.28125 13.890625 
Q 47.125 21.390625 47.125 36.375 
Q 47.125 51.421875 43.28125 58.90625 
Q 39.453125 66.40625 31.78125 66.40625 
z
M 31.78125 74.21875 
Q 44.046875 74.21875 50.515625 64.515625 
Q 56.984375 54.828125 56.984375 36.375 
Q 56.984375 17.96875 50.515625 8.265625 
Q 44.046875 -1.421875 31.78125 -1.421875 
Q 19.53125 -1.421875 13.0625 8.265625 
Q 6.59375 17.96875 6.59375 36.375 
Q 6.59375 54.828125 13.0625 64.515625 
Q 19.53125 74.21875 31.78125 74.21875 
z
" id="DejaVuSans-30"/>
    </defs>
    <g transform="translate(65.388 35.472)scale(0.12 -0.12)">
     <use transform="translate(0 0.78125)" xlink:href="#DejaVuSans-53"/>
     <use transform="translate(63.476562 0.78125)" xlink:href="#DejaVuSans-74"/>
     <use transform="translate(102.685547 0.78125)" xlink:href="#DejaVuSans-72"/>
     <use transform="translate(143.798828 0.78125)" xlink:href="#DejaVuSans-75"/>
     <use transform="translate(207.177734 0.78125)" xlink:href="#DejaVuSans-63"/>
     <use transform="translate(262.158203 0.78125)" xlink:href="#DejaVuSans-74"/>
     <use transform="translate(301.367188 0.78125)" xlink:href="#DejaVuSans-75"/>
     <use transform="translate(364.746094 0.78125)" xlink:href="#DejaVuSans-72"/>
     <use transform="translate(405.859375 0.78125)" xlink:href="#DejaVuSans-65"/>
     <use transform="translate(467.382812 0.78125)" xlink:href="#DejaVuSans-20"/>
     <use transform="translate(499.169922 0.78125)" xlink:href="#DejaVuSans-23"/>
     <use transform="translate(582.958984 0.78125)" xlink:href="#DejaVuSans-36"/>
     <use transform="translate(646.582031 0.78125)" xlink:href="#DejaVuSans-33"/>
     <use transform="translate(710.205078 0.78125)" xlink:href="#DejaVuSans-37"/>
     <use transform="translate(773.828125 0.78125)" xlink:href="#DejaVuSans-32"/>
     <use transform="translate(837.451172 0.78125)" xlink:href="#DejaVuSans-2c"/>
     <use transform="translate(869.238281 0.78125)" xlink:href="#DejaVuSans-20"/>
     <use transform="translate(901.025391 0.78125)" xlink:href="#DejaVuSans-Oblique-45"/>
     <use transform="translate(964.208984 -15.625)scale(0.7)" xlink:href="#DejaVuSans-Oblique-4e"/>
     <use transform="translate(1019.306641 0.78125)" xlink:href="#DejaVuSans-3d"/>
     <use transform="translate(1103.095703 0.78125)" xlink:href="#DejaVuSans-2d"/>
     <use transform="translate(1139.179688 0.78125)" xlink:href="#DejaVuSans-31"/>
     <use transform="translate(1202.802734 0.78125)" xlink:href="#DejaVuSans-37"/>
     <use transform="translate(1266.425781 0.78125)" xlink:href="#DejaVuSans-36"/>
     <use transform="translate(1330.048828 0.78125)" xlink:href="#DejaVuSans-2e"/>
     <use transform="translate(1361.835938 0.78125)" xlink:href="#DejaVuSans-39"/>
     <use transform="translate(1425.458984 0.78125)" xlink:href="#DejaVuSans-31"/>
     <use transform="translate(1489.082031 0.78125)" xlink:href="#DejaVuSans-65"/>
     <use transform="translate(1550.605469 0.78125)" xlink:href="#DejaVuSans-56"/>
     <use transform="translate(1619.013672 0.78125)" xlink:href="#DejaVuSans-2c"/>
     <use transform="translate(1650.800781 0.78125)" xlink:href="#DejaVuSans-20"/>
     <use transform="translate(1682.587891 0.78125)" xlink:href="#DejaVuSans-394"/>
     <use transform="translate(1750.996094 0.78125)" xlink:href="#DejaVuSans-45"/>
     <use transform="translate(1814.179688 0.78125)" xlink:href="#DejaVuSans-3d"/>
     <use transform="translate(1897.96875 0.78125)" xlink:href="#DejaVuSans-30"/>
     <use transform="translate(1961.591797 0.78125)" xlink:href="#DejaVuSans-2e"/>
     <use transform="translate(1993.378906 0.78125)" xlink:href="#DejaVuSans-33"/>
     <use transform="translate(2057.001953 0.78125)" xlink:href="#DejaVuSans-30"/>
     <use transform="translate(2120.625 0.78125)" xlink:href="#DejaVuSans-65"/>
     <use transform="translate(2182.148438 0.78125)" xlink:href="#DejaVuSans-56"/>
    </g>
   </g>
  </g>
  <g id="axes_2">
   <g id="patch_2">
    <path clip-path="url(#pa3dbd4ae21)" d="M 361.152 307.584 
L 361.152 306.5445 
L 361.152 42.5115 
L 361.152 41.472 
L 374.4576 41.472 
L 374.4576 42.5115 
L 374.4576 306.5445 
L 374.4576 307.584 
z
" style="fill:#ffffff;stroke:#ffffff;stroke-linejoin:miter;stroke-width:0.01;"/>
   </g>
   <image height="265.68" id="imagef65fe0137d" transform="scale(1 -1)translate(0 -265.68)" width="12.96" x="361.44" xlink:href="data:image/png;base64,
iVBORw0KGgoAAAANSUhEUgAAABIAAAFxCAYAAAB+2fgXAAAABHNCSVQICAgIfAhkiAAAAeVJREFUeJztncmNw0AQA2ckheYQNv9QLIfQ8ygsCgQ7AEI8+jAs2Puz/94F1LP2ReCsZ18bAWIeZ5XaGRBE7VnbptG+KI101FYyNSiQG2oRITXKNaX9uclOdi2XWjftVE32CZCO2ou5Bj1TcCBr/1zB9ge7Fq0Rg2NM9pvbtG+ua1QgsRYhDy0ISEiNc40BEibbSI0Coj5CBGtkpFbXJiAjNZlrwhuSOv2M1DjXbEdEciBt1JSDDQKKpmZr2rr2j0DBGpXaWEJq3bQzEPIS26r9J+Wzv9Tm8o3aajRXqc3VUXsApKNWjeZq0x4ABVNbm7lrszVigDqP5vIl2+eaT2yfRkL7g+dRcNPqjohkjaCvRVBq0H2U3LQrOJCx9kdTg4B8oxZzzTdqdYHEngjUCAPyUctN9sVRq2sTECW2UKNLd2jVtRmo1A6AhMmWaSRcR8nUdIHUuVb75zJS218EyEitro1At69pIdeSk30Lkw0FktNImGyZRhy1O5galmxd03LUsHWk06jUZiCq+5Wb1kZNN4+wJxJuWt8RAW5am2sYNZ9rYCBzZ3buPKJ2P5Yj4Toy3keyIyJbIxs1rml1byCA84gpch5RQNB7Q0qNMGq2Hy4BXdNR41yz/cEEJfZzUz96r9PoB0okjeQ8y9TkAAAAAElFTkSuQmCC" y="-41.76"/>
   <g id="matplotlib.axis_1"/>
   <g id="matplotlib.axis_2">
    <g id="ytick_1">
     <g id="line2d_1">
      <defs>
       <path d="M 0 0 
L 3.5 0 
" id="m6295d5347c" style="stroke:#000000;stroke-width:0.8;"/>
      </defs>
      <g>
       <use style="stroke:#000000;stroke-width:0.8;" x="374.4576" xlink:href="#m6295d5347c" y="287.38051"/>
      </g>
     </g>
     <g id="text_2">
      <!-- −8.5 -->
      <defs>
       <path d="M 10.59375 35.5 
L 73.1875 35.5 
L 73.1875 27.203125 
L 10.59375 27.203125 
z
" id="DejaVuSans-2212"/>
       <path d="M 31.78125 34.625 
Q 24.75 34.625 20.71875 30.859375 
Q 16.703125 27.09375 16.703125 20.515625 
Q 16.703125 13.921875 20.71875 10.15625 
Q 24.75 6.390625 31.78125 6.390625 
Q 38.8125 6.390625 42.859375 10.171875 
Q 46.921875 13.96875 46.921875 20.515625 
Q 46.921875 27.09375 42.890625 30.859375 
Q 38.875 34.625 31.78125 34.625 
z
M 21.921875 38.8125 
Q 15.578125 40.375 12.03125 44.71875 
Q 8.5 49.078125 8.5 55.328125 
Q 8.5 64.0625 14.71875 69.140625 
Q 20.953125 74.21875 31.78125 74.21875 
Q 42.671875 74.21875 48.875 69.140625 
Q 55.078125 64.0625 55.078125 55.328125 
Q 55.078125 49.078125 51.53125 44.71875 
Q 48 40.375 41.703125 38.8125 
Q 48.828125 37.15625 52.796875 32.3125 
Q 56.78125 27.484375 56.78125 20.515625 
Q 56.78125 9.90625 50.3125 4.234375 
Q 43.84375 -1.421875 31.78125 -1.421875 
Q 19.734375 -1.421875 13.25 4.234375 
Q 6.78125 9.90625 6.78125 20.515625 
Q 6.78125 27.484375 10.78125 32.3125 
Q 14.796875 37.15625 21.921875 38.8125 
z
M 18.3125 54.390625 
Q 18.3125 48.734375 21.84375 45.5625 
Q 25.390625 42.390625 31.78125 42.390625 
Q 38.140625 42.390625 41.71875 45.5625 
Q 45.3125 48.734375 45.3125 54.390625 
Q 45.3125 60.0625 41.71875 63.234375 
Q 38.140625 66.40625 31.78125 66.40625 
Q 25.390625 66.40625 21.84375 63.234375 
Q 18.3125 60.0625 18.3125 54.390625 
z
" id="DejaVuSans-38"/>
       <path d="M 10.796875 72.90625 
L 49.515625 72.90625 
L 49.515625 64.59375 
L 19.828125 64.59375 
L 19.828125 46.734375 
Q 21.96875 47.46875 24.109375 47.828125 
Q 26.265625 48.1875 28.421875 48.1875 
Q 40.625 48.1875 47.75 41.5 
Q 54.890625 34.8125 54.890625 23.390625 
Q 54.890625 11.625 47.5625 5.09375 
Q 40.234375 -1.421875 26.90625 -1.421875 
Q 22.3125 -1.421875 17.546875 -0.640625 
Q 12.796875 0.140625 7.71875 1.703125 
L 7.71875 11.625 
Q 12.109375 9.234375 16.796875 8.0625 
Q 21.484375 6.890625 26.703125 6.890625 
Q 35.15625 6.890625 40.078125 11.328125 
Q 45.015625 15.765625 45.015625 23.390625 
Q 45.015625 31 40.078125 35.4375 
Q 35.15625 39.890625 26.703125 39.890625 
Q 22.75 39.890625 18.8125 39.015625 
Q 14.890625 38.140625 10.796875 36.28125 
z
" id="DejaVuSans-35"/>
      </defs>
      <g transform="translate(381.4576 291.179729)scale(0.1 -0.1)">
       <use xlink:href="#DejaVuSans-2212"/>
       <use x="83.789062" xlink:href="#DejaVuSans-38"/>
       <use x="147.412109" xlink:href="#DejaVuSans-2e"/>
       <use x="179.199219" xlink:href="#DejaVuSans-35"/>
      </g>
     </g>
    </g>
    <g id="ytick_2">
     <g id="line2d_2">
      <g>
       <use style="stroke:#000000;stroke-width:0.8;" x="374.4576" xlink:href="#m6295d5347c" y="256.690663"/>
      </g>
     </g>
     <g id="text_3">
      <!-- −8.0 -->
      <g transform="translate(381.4576 260.489882)scale(0.1 -0.1)">
       <use xlink:href="#DejaVuSans-2212"/>
       <use x="83.789062" xlink:href="#DejaVuSans-38"/>
       <use x="147.412109" xlink:href="#DejaVuSans-2e"/>
       <use x="179.199219" xlink:href="#DejaVuSans-30"/>
      </g>
     </g>
    </g>
    <g id="ytick_3">
     <g id="line2d_3">
      <g>
       <use style="stroke:#000000;stroke-width:0.8;" x="374.4576" xlink:href="#m6295d5347c" y="226.000816"/>
      </g>
     </g>
     <g id="text_4">
      <!-- −7.5 -->
      <g transform="translate(381.4576 229.800035)scale(0.1 -0.1)">
       <use xlink:href="#DejaVuSans-2212"/>
       <use x="83.789062" xlink:href="#DejaVuSans-37"/>
       <use x="147.412109" xlink:href="#DejaVuSans-2e"/>
       <use x="179.199219" xlink:href="#DejaVuSans-35"/>
      </g>
     </g>
    </g>
    <g id="ytick_4">
     <g id="line2d_4">
      <g>
       <use style="stroke:#000000;stroke-width:0.8;" x="374.4576" xlink:href="#m6295d5347c" y="195.310969"/>
      </g>
     </g>
     <g id="text_5">
      <!-- −7.0 -->
      <g transform="translate(381.4576 199.110188)scale(0.1 -0.1)">
       <use xlink:href="#DejaVuSans-2212"/>
       <use x="83.789062" xlink:href="#DejaVuSans-37"/>
       <use x="147.412109" xlink:href="#DejaVuSans-2e"/>
       <use x="179.199219" xlink:href="#DejaVuSans-30"/>
      </g>
     </g>
    </g>
    <g id="ytick_5">
     <g id="line2d_5">
      <g>
       <use style="stroke:#000000;stroke-width:0.8;" x="374.4576" xlink:href="#m6295d5347c" y="164.621122"/>
      </g>
     </g>
     <g id="text_6">
      <!-- −6.5 -->
      <g transform="translate(381.4576 168.420341)scale(0.1 -0.1)">
       <use xlink:href="#DejaVuSans-2212"/>
       <use x="83.789062" xlink:href="#DejaVuSans-36"/>
       <use x="147.412109" xlink:href="#DejaVuSans-2e"/>
       <use x="179.199219" xlink:href="#DejaVuSans-35"/>
      </g>
     </g>
    </g>
    <g id="ytick_6">
     <g id="line2d_6">
      <g>
       <use style="stroke:#000000;stroke-width:0.8;" x="374.4576" xlink:href="#m6295d5347c" y="133.931275"/>
      </g>
     </g>
     <g id="text_7">
      <!-- −6.0 -->
      <g transform="translate(381.4576 137.730494)scale(0.1 -0.1)">
       <use xlink:href="#DejaVuSans-2212"/>
       <use x="83.789062" xlink:href="#DejaVuSans-36"/>
       <use x="147.412109" xlink:href="#DejaVuSans-2e"/>
       <use x="179.199219" xlink:href="#DejaVuSans-30"/>
      </g>
     </g>
    </g>
    <g id="ytick_7">
     <g id="line2d_7">
      <g>
       <use style="stroke:#000000;stroke-width:0.8;" x="374.4576" xlink:href="#m6295d5347c" y="103.241428"/>
      </g>
     </g>
     <g id="text_8">
      <!-- −5.5 -->
      <g transform="translate(381.4576 107.040647)scale(0.1 -0.1)">
       <use xlink:href="#DejaVuSans-2212"/>
       <use x="83.789062" xlink:href="#DejaVuSans-35"/>
       <use x="147.412109" xlink:href="#DejaVuSans-2e"/>
       <use x="179.199219" xlink:href="#DejaVuSans-35"/>
      </g>
     </g>
    </g>
    <g id="ytick_8">
     <g id="line2d_8">
      <g>
       <use style="stroke:#000000;stroke-width:0.8;" x="374.4576" xlink:href="#m6295d5347c" y="72.551581"/>
      </g>
     </g>
     <g id="text_9">
      <!-- −5.0 -->
      <g transform="translate(381.4576 76.3508)scale(0.1 -0.1)">
       <use xlink:href="#DejaVuSans-2212"/>
       <use x="83.789062" xlink:href="#DejaVuSans-35"/>
       <use x="147.412109" xlink:href="#DejaVuSans-2e"/>
       <use x="179.199219" xlink:href="#DejaVuSans-30"/>
      </g>
     </g>
    </g>
    <g id="ytick_9">
     <g id="line2d_9">
      <g>
       <use style="stroke:#000000;stroke-width:0.8;" x="374.4576" xlink:href="#m6295d5347c" y="41.861734"/>
      </g>
     </g>
     <g id="text_10">
      <!-- −4.5 -->
      <defs>
       <path d="M 37.796875 64.3125 
L 12.890625 25.390625 
L 37.796875 25.390625 
z
M 35.203125 72.90625 
L 47.609375 72.90625 
L 47.609375 25.390625 
L 58.015625 25.390625 
L 58.015625 17.1875 
L 47.609375 17.1875 
L 47.609375 0 
L 37.796875 0 
L 37.796875 17.1875 
L 4.890625 17.1875 
L 4.890625 26.703125 
z
" id="DejaVuSans-34"/>
      </defs>
      <g transform="translate(381.4576 45.660953)scale(0.1 -0.1)">
       <use xlink:href="#DejaVuSans-2212"/>
       <use x="83.789062" xlink:href="#DejaVuSans-34"/>
       <use x="147.412109" xlink:href="#DejaVuSans-2e"/>
       <use x="179.199219" xlink:href="#DejaVuSans-35"/>
      </g>
     </g>
    </g>
    <g id="text_11">
     <!-- Energy [eV] -->
     <defs>
      <path d="M 54.890625 33.015625 
L 54.890625 0 
L 45.90625 0 
L 45.90625 32.71875 
Q 45.90625 40.484375 42.875 44.328125 
Q 39.84375 48.1875 33.796875 48.1875 
Q 26.515625 48.1875 22.3125 43.546875 
Q 18.109375 38.921875 18.109375 30.90625 
L 18.109375 0 
L 9.078125 0 
L 9.078125 54.6875 
L 18.109375 54.6875 
L 18.109375 46.1875 
Q 21.34375 51.125 25.703125 53.5625 
Q 30.078125 56 35.796875 56 
Q 45.21875 56 50.046875 50.171875 
Q 54.890625 44.34375 54.890625 33.015625 
z
" id="DejaVuSans-6e"/>
      <path d="M 45.40625 27.984375 
Q 45.40625 37.75 41.375 43.109375 
Q 37.359375 48.484375 30.078125 48.484375 
Q 22.859375 48.484375 18.828125 43.109375 
Q 14.796875 37.75 14.796875 27.984375 
Q 14.796875 18.265625 18.828125 12.890625 
Q 22.859375 7.515625 30.078125 7.515625 
Q 37.359375 7.515625 41.375 12.890625 
Q 45.40625 18.265625 45.40625 27.984375 
z
M 54.390625 6.78125 
Q 54.390625 -7.171875 48.1875 -13.984375 
Q 42 -20.796875 29.203125 -20.796875 
Q 24.46875 -20.796875 20.265625 -20.09375 
Q 16.0625 -19.390625 12.109375 -17.921875 
L 12.109375 -9.1875 
Q 16.0625 -11.328125 19.921875 -12.34375 
Q 23.78125 -13.375 27.78125 -13.375 
Q 36.625 -13.375 41.015625 -8.765625 
Q 45.40625 -4.15625 45.40625 5.171875 
L 45.40625 9.625 
Q 42.625 4.78125 38.28125 2.390625 
Q 33.9375 0 27.875 0 
Q 17.828125 0 11.671875 7.65625 
Q 5.515625 15.328125 5.515625 27.984375 
Q 5.515625 40.671875 11.671875 48.328125 
Q 17.828125 56 27.875 56 
Q 33.9375 56 38.28125 53.609375 
Q 42.625 51.21875 45.40625 46.390625 
L 45.40625 54.6875 
L 54.390625 54.6875 
z
" id="DejaVuSans-67"/>
      <path d="M 32.171875 -5.078125 
Q 28.375 -14.84375 24.75 -17.8125 
Q 21.140625 -20.796875 15.09375 -20.796875 
L 7.90625 -20.796875 
L 7.90625 -13.28125 
L 13.1875 -13.28125 
Q 16.890625 -13.28125 18.9375 -11.515625 
Q 21 -9.765625 23.484375 -3.21875 
L 25.09375 0.875 
L 2.984375 54.6875 
L 12.5 54.6875 
L 29.59375 11.921875 
L 46.6875 54.6875 
L 56.203125 54.6875 
z
" id="DejaVuSans-79"/>
      <path d="M 8.59375 75.984375 
L 29.296875 75.984375 
L 29.296875 69 
L 17.578125 69 
L 17.578125 -6.203125 
L 29.296875 -6.203125 
L 29.296875 -13.1875 
L 8.59375 -13.1875 
z
" id="DejaVuSans-5b"/>
      <path d="M 30.421875 75.984375 
L 30.421875 -13.1875 
L 9.71875 -13.1875 
L 9.71875 -6.203125 
L 21.390625 -6.203125 
L 21.390625 69 
L 9.71875 69 
L 9.71875 75.984375 
z
" id="DejaVuSans-5d"/>
     </defs>
     <g transform="translate(417.33885 204.108469)rotate(-90)scale(0.1 -0.1)">
      <use xlink:href="#DejaVuSans-45"/>
      <use x="63.183594" xlink:href="#DejaVuSans-6e"/>
      <use x="126.5625" xlink:href="#DejaVuSans-65"/>
      <use x="188.085938" xlink:href="#DejaVuSans-72"/>
      <use x="229.183594" xlink:href="#DejaVuSans-67"/>
      <use x="292.660156" xlink:href="#DejaVuSans-79"/>
      <use x="351.839844" xlink:href="#DejaVuSans-20"/>
      <use x="383.626953" xlink:href="#DejaVuSans-5b"/>
      <use x="422.640625" xlink:href="#DejaVuSans-65"/>
      <use x="484.164062" xlink:href="#DejaVuSans-56"/>
      <use x="552.572266" xlink:href="#DejaVuSans-5d"/>
     </g>
    </g>
   </g>
   <g id="patch_3">
    <path d="M 361.152 307.584 
L 361.152 306.5445 
L 361.152 42.5115 
L 361.152 41.472 
L 374.4576 41.472 
L 374.4576 42.5115 
L 374.4576 306.5445 
L 374.4576 307.584 
z
" style="fill:none;stroke:#000000;stroke-linejoin:miter;stroke-width:0.8;"/>
   </g>
  </g>
 </g>
 <defs>
  <clipPath id="pa96567730a">
   <rect height="266.112" width="285.696" x="57.6" y="41.472"/>
  </clipPath>
  <clipPath id="pa3dbd4ae21">
   <rect height="266.112" width="13.3056" x="361.152" y="41.472"/>
  </clipPath>
 </defs>
</svg>
