<?xml version="1.0" encoding="utf-8" standalone="no"?>
<!DOCTYPE svg PUBLIC "-//W3C//DTD SVG 1.1//EN"
  "http://www.w3.org/Graphics/SVG/1.1/DTD/svg11.dtd">
<!-- Created with matplotlib (http://matplotlib.org/) -->
<svg height="345.6pt" version="1.1" viewBox="0 0 460.8 345.6" width="460.8pt" xmlns="http://www.w3.org/2000/svg" xmlns:xlink="http://www.w3.org/1999/xlink">
 <defs>
  <style type="text/css">
*{stroke-linecap:butt;stroke-linejoin:round;}
  </style>
 </defs>
 <g id="figure_1">
  <g id="patch_1">
   <path d="M 0 345.6 
L 460.8 345.6 
L 460.8 0 
L 0 0 
z
" style="fill:#ffffff;"/>
  </g>
  <g id="axes_1">
   <g id="CircleCollection_1">
    <path clip-path="url(#pc698a308ba)" d="M 192.349628 192.619628 
C 194.092056 192.619628 195.763353 191.927354 196.995435 190.695272 
C 198.227518 189.463189 198.919792 187.791892 198.919792 186.049464 
C 198.919792 184.307036 198.227518 182.635739 196.995435 181.403656 
C 195.763353 180.171573 194.092056 179.479299 192.349628 179.479299 
C 190.6072 179.479299 188.935902 180.171573 187.70382 181.403656 
C 186.471737 182.635739 185.779463 184.307036 185.779463 186.049464 
C 185.779463 187.791892 186.471737 189.463189 187.70382 190.695272 
C 188.935902 191.927354 190.6072 192.619628 192.349628 192.619628 
z
" style="fill:#481d6f;"/>
    <path clip-path="url(#pc698a308ba)" d="M 167.367692 238.96953 
C 169.09493 238.96953 170.751657 238.283291 171.972999 237.061949 
C 173.194341 235.840608 173.88058 234.18388 173.88058 232.456642 
C 173.88058 230.729404 173.194341 229.072676 171.972999 227.851335 
C 170.751657 226.629993 169.09493 225.943754 167.367692 225.943754 
C 165.640454 225.943754 163.983726 226.629993 162.762384 227.851335 
C 161.541042 229.072676 160.854803 230.729404 160.854803 232.456642 
C 160.854803 234.18388 161.541042 235.840608 162.762384 237.061949 
C 163.983726 238.283291 165.640454 238.96953 167.367692 238.96953 
z
" style="fill:#31b57b;"/>
    <path clip-path="url(#pc698a308ba)" d="M 276.443561 139.71631 
C 278.161727 139.71631 279.809753 139.033675 281.024679 137.818748 
C 282.239606 136.603822 282.922241 134.955796 282.922241 133.23763 
C 282.922241 131.519464 282.239606 129.871439 281.024679 128.656512 
C 279.809753 127.441585 278.161727 126.758951 276.443561 126.758951 
C 274.725395 126.758951 273.07737 127.441585 271.862443 128.656512 
C 270.647516 129.871439 269.964882 131.519464 269.964882 133.23763 
C 269.964882 134.955796 270.647516 136.603822 271.862443 137.818748 
C 273.07737 139.033675 274.725395 139.71631 276.443561 139.71631 
z
" style="fill:#3f4788;"/>
    <path clip-path="url(#pc698a308ba)" d="M 100.503705 245.117468 
C 102.288685 245.117468 104.000797 244.408288 105.262969 243.146117 
C 106.525141 241.883945 107.234321 240.171833 107.234321 238.386853 
C 107.234321 236.601872 106.525141 234.88976 105.262969 233.627588 
C 104.000797 232.365417 102.288685 231.656237 100.503705 231.656237 
C 98.718725 231.656237 97.006612 232.365417 95.744441 233.627588 
C 94.482269 234.88976 93.773089 236.601872 93.773089 238.386853 
C 93.773089 240.171833 94.482269 241.883945 95.744441 243.146117 
C 97.006612 244.408288 98.718725 245.117468 100.503705 245.117468 
z
" style="fill:#24aa83;"/>
    <path clip-path="url(#pc698a308ba)" d="M 236.294147 159.129971 
C 238.022777 159.129971 239.680839 158.443179 240.903165 157.220853 
C 242.12549 155.998527 242.812282 154.340465 242.812282 152.611836 
C 242.812282 150.883206 242.12549 149.225144 240.903165 148.002818 
C 239.680839 146.780493 238.022777 146.093701 236.294147 146.093701 
C 234.565518 146.093701 232.907456 146.780493 231.68513 148.002818 
C 230.462804 149.225144 229.776013 150.883206 229.776013 152.611836 
C 229.776013 154.340465 230.462804 155.998527 231.68513 157.220853 
C 232.907456 158.443179 234.565518 159.129971 236.294147 159.129971 
z
" style="fill:#482071;"/>
    <path clip-path="url(#pc698a308ba)" d="M 85.610884 97.053281 
C 87.499409 97.053281 89.310838 96.302963 90.646226 94.967574 
C 91.981614 93.632186 92.731933 91.820757 92.731933 89.932233 
C 92.731933 88.043709 91.981614 86.232279 90.646226 84.896891 
C 89.310838 83.561503 87.499409 82.811184 85.610884 82.811184 
C 83.72236 82.811184 81.910931 83.561503 80.575543 84.896891 
C 79.240154 86.232279 78.489836 88.043709 78.489836 89.932233 
C 78.489836 91.820757 79.240154 93.632186 80.575543 94.967574 
C 81.910931 96.302963 83.72236 97.053281 85.610884 97.053281 
z
" style="fill:#424086;"/>
    <path clip-path="url(#pc698a308ba)" d="M 277.839129 95.088246 
C 279.61763 95.088246 281.323528 94.38164 282.581119 93.12405 
C 283.838709 91.866459 284.545315 90.160561 284.545315 88.38206 
C 284.545315 86.603559 283.838709 84.897661 282.581119 83.64007 
C 281.323528 82.38248 279.61763 81.675874 277.839129 81.675874 
C 276.060628 81.675874 274.35473 82.38248 273.097139 83.64007 
C 271.839549 84.897661 271.132943 86.603559 271.132943 88.38206 
C 271.132943 90.160561 271.839549 91.866459 273.097139 93.12405 
C 274.35473 94.38164 276.060628 95.088246 277.839129 95.088246 
z
" style="fill:#3d4e8a;"/>
    <path clip-path="url(#pc698a308ba)" d="M 158.724807 61.015902 
C 160.607608 61.015902 162.413548 60.267857 163.744889 58.936516 
C 165.076231 57.605174 165.824276 55.799234 165.824276 53.916433 
C 165.824276 52.033632 165.076231 50.227692 163.744889 48.89635 
C 162.413548 47.565009 160.607608 46.816964 158.724807 46.816964 
C 156.842006 46.816964 155.036066 47.565009 153.704724 48.89635 
C 152.373383 50.227692 151.625338 52.033632 151.625338 53.916433 
C 151.625338 55.799234 152.373383 57.605174 153.704724 58.936516 
C 155.036066 60.267857 156.842006 61.015902 158.724807 61.015902 
z
" style="fill:#424086;"/>
    <path clip-path="url(#pc698a308ba)" d="M 223.511115 179.423204 
C 225.182934 179.423204 226.786506 178.758983 227.968661 177.576828 
C 229.150816 176.394673 229.815037 174.791101 229.815037 173.119281 
C 229.815037 171.447462 229.150816 169.84389 227.968661 168.661735 
C 226.786506 167.47958 225.182934 166.815359 223.511115 166.815359 
C 221.839295 166.815359 220.235724 167.47958 219.053568 168.661735 
C 217.871413 169.84389 217.207192 171.447462 217.207192 173.119281 
C 217.207192 174.791101 217.871413 176.394673 219.053568 177.576828 
C 220.235724 178.758983 221.839295 179.423204 223.511115 179.423204 
z
" style="fill:#58c765;"/>
    <path clip-path="url(#pc698a308ba)" d="M 185.352278 168.107455 
C 187.12997 168.107455 188.835092 167.40117 190.09211 166.144152 
C 191.349129 164.887134 192.055413 163.182012 192.055413 161.40432 
C 192.055413 159.626628 191.349129 157.921506 190.09211 156.664488 
C 188.835092 155.40747 187.12997 154.701185 185.352278 154.701185 
C 183.574586 154.701185 181.869464 155.40747 180.612446 156.664488 
C 179.355428 157.921506 178.649144 159.626628 178.649144 161.40432 
C 178.649144 163.182012 179.355428 164.887134 180.612446 166.144152 
C 181.869464 167.40117 183.574586 168.107455 185.352278 168.107455 
z
" style="fill:#443983;"/>
    <path clip-path="url(#pc698a308ba)" d="M 90.360948 142.111303 
C 92.201786 142.111303 93.967476 141.37993 95.269146 140.07826 
C 96.570815 138.776591 97.302188 137.010901 97.302188 135.170062 
C 97.302188 133.329224 96.570815 131.563534 95.269146 130.261864 
C 93.967476 128.960195 92.201786 128.228822 90.360948 128.228822 
C 88.520109 128.228822 86.754419 128.960195 85.45275 130.261864 
C 84.151081 131.563534 83.419708 133.329224 83.419708 135.170062 
C 83.419708 137.010901 84.151081 138.776591 85.45275 140.07826 
C 86.754419 141.37993 88.520109 142.111303 90.360948 142.111303 
z
" style="fill:#3e4989;"/>
    <path clip-path="url(#pc698a308ba)" d="M 329.745677 131.138182 
C 331.428436 131.138182 333.0425 130.469614 334.23239 129.279724 
C 335.42228 128.089834 336.090847 126.475771 336.090847 124.793012 
C 336.090847 123.110253 335.42228 121.496189 334.23239 120.306299 
C 333.0425 119.116409 331.428436 118.447842 329.745677 118.447842 
C 328.062918 118.447842 326.448855 119.116409 325.258965 120.306299 
C 324.069074 121.496189 323.400507 123.110253 323.400507 124.793012 
C 323.400507 126.475771 324.069074 128.089834 325.258965 129.279724 
C 326.448855 130.469614 328.062918 131.138182 329.745677 131.138182 
z
" style="fill:#3aba76;"/>
    <path clip-path="url(#pc698a308ba)" d="M 253.465495 76.501229 
C 255.278541 76.501229 257.017573 75.780898 258.299589 74.498881 
C 259.581606 73.216865 260.301937 71.477833 260.301937 69.664787 
C 260.301937 67.851742 259.581606 66.11271 258.299589 64.830694 
C 257.017573 63.548677 255.278541 62.828346 253.465495 62.828346 
C 251.65245 62.828346 249.913418 63.548677 248.631402 64.830694 
C 247.349385 66.11271 246.629054 67.851742 246.629054 69.664787 
C 246.629054 71.477833 247.349385 73.216865 248.631402 74.498881 
C 249.913418 75.780898 251.65245 76.501229 253.465495 76.501229 
z
" style="fill:#423f85;"/>
    <path clip-path="url(#pc698a308ba)" d="M 128.401513 159.805517 
C 130.206238 159.805517 131.937289 159.088492 133.213422 157.812359 
C 134.489555 156.536226 135.206579 154.805175 135.206579 153.00045 
C 135.206579 151.195725 134.489555 149.464675 133.213422 148.188541 
C 131.937289 146.912408 130.206238 146.195384 128.401513 146.195384 
C 126.596788 146.195384 124.865737 146.912408 123.589604 148.188541 
C 122.313471 149.464675 121.596447 151.195725 121.596447 153.00045 
C 121.596447 154.805175 122.313471 156.536226 123.589604 157.812359 
C 124.865737 159.088492 126.596788 159.805517 128.401513 159.805517 
z
" style="fill:#3e4c8a;"/>
    <path clip-path="url(#pc698a308ba)" d="M 84.468394 119.514357 
C 86.335309 119.514357 88.126011 118.772624 89.446119 117.452515 
C 90.766227 116.132407 91.507961 114.341705 91.507961 112.47479 
C 91.507961 110.607875 90.766227 108.817173 89.446119 107.497064 
C 88.126011 106.176956 86.335309 105.435223 84.468394 105.435223 
C 82.601479 105.435223 80.810776 106.176956 79.490668 107.497064 
C 78.17056 108.817173 77.428827 110.607875 77.428827 112.47479 
C 77.428827 114.341705 78.17056 116.132407 79.490668 117.452515 
C 80.810776 118.772624 82.601479 119.514357 84.468394 119.514357 
z
" style="fill:#3b518b;"/>
    <path clip-path="url(#pc698a308ba)" d="M 71.198015 167.494976 
C 73.023033 167.494976 74.773549 166.769888 76.064031 165.479406 
C 77.354514 164.188923 78.079601 162.438407 78.079601 160.613389 
C 78.079601 158.788371 77.354514 157.037856 76.064031 155.747373 
C 74.773549 154.456891 73.023033 153.731803 71.198015 153.731803 
C 69.372997 153.731803 67.622481 154.456891 66.331999 155.747373 
C 65.041516 157.037856 64.316429 158.788371 64.316429 160.613389 
C 64.316429 162.438407 65.041516 164.188923 66.331999 165.479406 
C 67.622481 166.769888 69.372997 167.494976 71.198015 167.494976 
z
" style="fill:#3aba76;"/>
    <path clip-path="url(#pc698a308ba)" d="M 122.339232 301.343362 
C 123.972238 301.343362 125.53858 300.694562 126.693289 299.539852 
C 127.847999 298.385142 128.496799 296.8188 128.496799 295.185794 
C 128.496799 293.552788 127.847999 291.986446 126.693289 290.831737 
C 125.53858 289.677027 123.972238 289.028227 122.339232 289.028227 
C 120.706226 289.028227 119.139884 289.677027 117.985174 290.831737 
C 116.830464 291.986446 116.181664 293.552788 116.181664 295.185794 
C 116.181664 296.8188 116.830464 298.385142 117.985174 299.539852 
C 119.139884 300.694562 120.706226 301.343362 122.339232 301.343362 
z
" style="fill:#fde725;"/>
    <path clip-path="url(#pc698a308ba)" d="M 166.056031 214.683214 
C 167.812948 214.683214 169.498143 213.985184 170.740471 212.742856 
C 171.982799 211.500528 172.680829 209.815333 172.680829 208.058416 
C 172.680829 206.301499 171.982799 204.616305 170.740471 203.373977 
C 169.498143 202.131649 167.812948 201.433618 166.056031 201.433618 
C 164.299114 201.433618 162.613919 202.131649 161.371591 203.373977 
C 160.129264 204.616305 159.431233 206.301499 159.431233 208.058416 
C 159.431233 209.815333 160.129264 211.500528 161.371591 212.742856 
C 162.613919 213.985184 164.299114 214.683214 166.056031 214.683214 
z
" style="fill:#440154;"/>
    <path clip-path="url(#pc698a308ba)" d="M 127.429517 226.1084 
C 129.250351 226.1084 130.996853 225.384975 132.284377 224.097451 
C 133.571901 222.809927 134.295325 221.063425 134.295325 219.242591 
C 134.295325 217.421758 133.571901 215.675256 132.284377 214.387732 
C 130.996853 213.100208 129.250351 212.376783 127.429517 212.376783 
C 125.608683 212.376783 123.862181 213.100208 122.574657 214.387732 
C 121.287134 215.675256 120.563709 217.421758 120.563709 219.242591 
C 120.563709 221.063425 121.287134 222.809927 122.574657 224.097451 
C 123.862181 225.384975 125.608683 226.1084 127.429517 226.1084 
z
" style="fill:#28ae80;"/>
    <path clip-path="url(#pc698a308ba)" d="M 116.479437 77.117471 
C 118.370843 77.117471 120.185037 76.366008 121.522463 75.028581 
C 122.85989 73.691155 123.611354 71.876961 123.611354 69.985555 
C 123.611354 68.094148 122.85989 66.279954 121.522463 64.942528 
C 120.185037 63.605102 118.370843 62.853638 116.479437 62.853638 
C 114.58803 62.853638 112.773836 63.605102 111.43641 64.942528 
C 110.098984 66.279954 109.34752 68.094148 109.34752 69.985555 
C 109.34752 71.876961 110.098984 73.691155 111.43641 75.028581 
C 112.773836 76.366008 114.58803 77.117471 116.479437 77.117471 
z
" style="fill:#31668e;"/>
    <path clip-path="url(#pc698a308ba)" d="M 128.204635 281.133237 
C 129.880913 281.133237 131.488761 280.467245 132.674069 279.281937 
C 133.859377 278.096629 134.52537 276.488781 134.52537 274.812503 
C 134.52537 273.136225 133.859377 271.528377 132.674069 270.343069 
C 131.488761 269.157761 129.880913 268.491769 128.204635 268.491769 
C 126.528357 268.491769 124.920509 269.157761 123.735201 270.343069 
C 122.549893 271.528377 121.883901 273.136225 121.883901 274.812503 
C 121.883901 276.488781 122.549893 278.096629 123.735201 279.281937 
C 124.920509 280.467245 126.528357 281.133237 128.204635 281.133237 
z
" style="fill:#3a538b;"/>
    <path clip-path="url(#pc698a308ba)" d="M 210.118313 65.741074 
C 211.96822 65.741074 213.742609 65.006098 215.050691 63.698016 
C 216.358773 62.389934 217.093749 60.615545 217.093749 58.765638 
C 217.093749 56.915731 216.358773 55.141342 215.050691 53.83326 
C 213.742609 52.525178 211.96822 51.790202 210.118313 51.790202 
C 208.268405 51.790202 206.494017 52.525178 205.185935 53.83326 
C 203.877853 55.141342 203.142877 56.915731 203.142877 58.765638 
C 203.142877 60.615545 203.877853 62.389934 205.185935 63.698016 
C 206.494017 65.006098 208.268405 65.741074 210.118313 65.741074 
z
" style="fill:#34608d;"/>
    <path clip-path="url(#pc698a308ba)" d="M 133.427266 260.130904 
C 135.148711 260.130904 136.799882 259.446967 138.017128 258.229721 
C 139.234374 257.012475 139.918311 255.361304 139.918311 253.639859 
C 139.918311 251.918414 139.234374 250.267242 138.017128 249.049997 
C 136.799882 247.832751 135.148711 247.148814 133.427266 247.148814 
C 131.705821 247.148814 130.054649 247.832751 128.837404 249.049997 
C 127.620158 250.267242 126.93622 251.918414 126.93622 253.639859 
C 126.93622 255.361304 127.620158 257.012475 128.837404 258.229721 
C 130.054649 259.446967 131.705821 260.130904 133.427266 260.130904 
z
" style="fill:#471164;"/>
    <path clip-path="url(#pc698a308ba)" d="M 293.627252 115.191426 
C 295.365927 115.191426 297.033624 114.500643 298.263053 113.271214 
C 299.492481 112.041785 300.183264 110.374088 300.183264 108.635413 
C 300.183264 106.896739 299.492481 105.229041 298.263053 103.999613 
C 297.033624 102.770184 295.365927 102.079401 293.627252 102.079401 
C 291.888577 102.079401 290.22088 102.770184 288.991451 103.999613 
C 287.762022 105.229041 287.071239 106.896739 287.071239 108.635413 
C 287.071239 110.374088 287.762022 112.041785 288.991451 113.271214 
C 290.22088 114.500643 291.888577 115.191426 293.627252 115.191426 
z
" style="fill:#3e4989;"/>
   </g>
   <g id="text_1">
    <!-- Structure #10413, $E_N$=-174.40eV, ΔE=-0.17eV -->
    <defs>
     <path d="M 53.515625 70.515625 
L 53.515625 60.890625 
Q 47.90625 63.578125 42.921875 64.890625 
Q 37.9375 66.21875 33.296875 66.21875 
Q 25.25 66.21875 20.875 63.09375 
Q 16.5 59.96875 16.5 54.203125 
Q 16.5 49.359375 19.40625 46.890625 
Q 22.3125 44.4375 30.421875 42.921875 
L 36.375 41.703125 
Q 47.40625 39.59375 52.65625 34.296875 
Q 57.90625 29 57.90625 20.125 
Q 57.90625 9.515625 50.796875 4.046875 
Q 43.703125 -1.421875 29.984375 -1.421875 
Q 24.8125 -1.421875 18.96875 -0.25 
Q 13.140625 0.921875 6.890625 3.21875 
L 6.890625 13.375 
Q 12.890625 10.015625 18.65625 8.296875 
Q 24.421875 6.59375 29.984375 6.59375 
Q 38.421875 6.59375 43.015625 9.90625 
Q 47.609375 13.234375 47.609375 19.390625 
Q 47.609375 24.75 44.3125 27.78125 
Q 41.015625 30.8125 33.5 32.328125 
L 27.484375 33.5 
Q 16.453125 35.6875 11.515625 40.375 
Q 6.59375 45.0625 6.59375 53.421875 
Q 6.59375 63.09375 13.40625 68.65625 
Q 20.21875 74.21875 32.171875 74.21875 
Q 37.3125 74.21875 42.625 73.28125 
Q 47.953125 72.359375 53.515625 70.515625 
z
" id="DejaVuSans-53"/>
     <path d="M 18.3125 70.21875 
L 18.3125 54.6875 
L 36.8125 54.6875 
L 36.8125 47.703125 
L 18.3125 47.703125 
L 18.3125 18.015625 
Q 18.3125 11.328125 20.140625 9.421875 
Q 21.96875 7.515625 27.59375 7.515625 
L 36.8125 7.515625 
L 36.8125 0 
L 27.59375 0 
Q 17.1875 0 13.234375 3.875 
Q 9.28125 7.765625 9.28125 18.015625 
L 9.28125 47.703125 
L 2.6875 47.703125 
L 2.6875 54.6875 
L 9.28125 54.6875 
L 9.28125 70.21875 
z
" id="DejaVuSans-74"/>
     <path d="M 41.109375 46.296875 
Q 39.59375 47.171875 37.8125 47.578125 
Q 36.03125 48 33.890625 48 
Q 26.265625 48 22.1875 43.046875 
Q 18.109375 38.09375 18.109375 28.8125 
L 18.109375 0 
L 9.078125 0 
L 9.078125 54.6875 
L 18.109375 54.6875 
L 18.109375 46.1875 
Q 20.953125 51.171875 25.484375 53.578125 
Q 30.03125 56 36.53125 56 
Q 37.453125 56 38.578125 55.875 
Q 39.703125 55.765625 41.0625 55.515625 
z
" id="DejaVuSans-72"/>
     <path d="M 8.5 21.578125 
L 8.5 54.6875 
L 17.484375 54.6875 
L 17.484375 21.921875 
Q 17.484375 14.15625 20.5 10.265625 
Q 23.53125 6.390625 29.59375 6.390625 
Q 36.859375 6.390625 41.078125 11.03125 
Q 45.3125 15.671875 45.3125 23.6875 
L 45.3125 54.6875 
L 54.296875 54.6875 
L 54.296875 0 
L 45.3125 0 
L 45.3125 8.40625 
Q 42.046875 3.421875 37.71875 1 
Q 33.40625 -1.421875 27.6875 -1.421875 
Q 18.265625 -1.421875 13.375 4.4375 
Q 8.5 10.296875 8.5 21.578125 
z
M 31.109375 56 
z
" id="DejaVuSans-75"/>
     <path d="M 48.78125 52.59375 
L 48.78125 44.1875 
Q 44.96875 46.296875 41.140625 47.34375 
Q 37.3125 48.390625 33.40625 48.390625 
Q 24.65625 48.390625 19.8125 42.84375 
Q 14.984375 37.3125 14.984375 27.296875 
Q 14.984375 17.28125 19.8125 11.734375 
Q 24.65625 6.203125 33.40625 6.203125 
Q 37.3125 6.203125 41.140625 7.25 
Q 44.96875 8.296875 48.78125 10.40625 
L 48.78125 2.09375 
Q 45.015625 0.34375 40.984375 -0.53125 
Q 36.96875 -1.421875 32.421875 -1.421875 
Q 20.0625 -1.421875 12.78125 6.34375 
Q 5.515625 14.109375 5.515625 27.296875 
Q 5.515625 40.671875 12.859375 48.328125 
Q 20.21875 56 33.015625 56 
Q 37.15625 56 41.109375 55.140625 
Q 45.0625 54.296875 48.78125 52.59375 
z
" id="DejaVuSans-63"/>
     <path d="M 56.203125 29.59375 
L 56.203125 25.203125 
L 14.890625 25.203125 
Q 15.484375 15.921875 20.484375 11.0625 
Q 25.484375 6.203125 34.421875 6.203125 
Q 39.59375 6.203125 44.453125 7.46875 
Q 49.3125 8.734375 54.109375 11.28125 
L 54.109375 2.78125 
Q 49.265625 0.734375 44.1875 -0.34375 
Q 39.109375 -1.421875 33.890625 -1.421875 
Q 20.796875 -1.421875 13.15625 6.1875 
Q 5.515625 13.8125 5.515625 26.8125 
Q 5.515625 40.234375 12.765625 48.109375 
Q 20.015625 56 32.328125 56 
Q 43.359375 56 49.78125 48.890625 
Q 56.203125 41.796875 56.203125 29.59375 
z
M 47.21875 32.234375 
Q 47.125 39.59375 43.09375 43.984375 
Q 39.0625 48.390625 32.421875 48.390625 
Q 24.90625 48.390625 20.390625 44.140625 
Q 15.875 39.890625 15.1875 32.171875 
z
" id="DejaVuSans-65"/>
     <path id="DejaVuSans-20"/>
     <path d="M 51.125 44 
L 36.921875 44 
L 32.8125 27.6875 
L 47.125 27.6875 
z
M 43.796875 71.78125 
L 38.71875 51.515625 
L 52.984375 51.515625 
L 58.109375 71.78125 
L 65.921875 71.78125 
L 60.890625 51.515625 
L 76.125 51.515625 
L 76.125 44 
L 58.984375 44 
L 54.984375 27.6875 
L 70.515625 27.6875 
L 70.515625 20.21875 
L 53.078125 20.21875 
L 48 0 
L 40.1875 0 
L 45.21875 20.21875 
L 30.90625 20.21875 
L 25.875 0 
L 18.015625 0 
L 23.09375 20.21875 
L 7.71875 20.21875 
L 7.71875 27.6875 
L 24.90625 27.6875 
L 29 44 
L 13.28125 44 
L 13.28125 51.515625 
L 30.90625 51.515625 
L 35.890625 71.78125 
z
" id="DejaVuSans-23"/>
     <path d="M 12.40625 8.296875 
L 28.515625 8.296875 
L 28.515625 63.921875 
L 10.984375 60.40625 
L 10.984375 69.390625 
L 28.421875 72.90625 
L 38.28125 72.90625 
L 38.28125 8.296875 
L 54.390625 8.296875 
L 54.390625 0 
L 12.40625 0 
z
" id="DejaVuSans-31"/>
     <path d="M 31.78125 66.40625 
Q 24.171875 66.40625 20.328125 58.90625 
Q 16.5 51.421875 16.5 36.375 
Q 16.5 21.390625 20.328125 13.890625 
Q 24.171875 6.390625 31.78125 6.390625 
Q 39.453125 6.390625 43.28125 13.890625 
Q 47.125 21.390625 47.125 36.375 
Q 47.125 51.421875 43.28125 58.90625 
Q 39.453125 66.40625 31.78125 66.40625 
z
M 31.78125 74.21875 
Q 44.046875 74.21875 50.515625 64.515625 
Q 56.984375 54.828125 56.984375 36.375 
Q 56.984375 17.96875 50.515625 8.265625 
Q 44.046875 -1.421875 31.78125 -1.421875 
Q 19.53125 -1.421875 13.0625 8.265625 
Q 6.59375 17.96875 6.59375 36.375 
Q 6.59375 54.828125 13.0625 64.515625 
Q 19.53125 74.21875 31.78125 74.21875 
z
" id="DejaVuSans-30"/>
     <path d="M 37.796875 64.3125 
L 12.890625 25.390625 
L 37.796875 25.390625 
z
M 35.203125 72.90625 
L 47.609375 72.90625 
L 47.609375 25.390625 
L 58.015625 25.390625 
L 58.015625 17.1875 
L 47.609375 17.1875 
L 47.609375 0 
L 37.796875 0 
L 37.796875 17.1875 
L 4.890625 17.1875 
L 4.890625 26.703125 
z
" id="DejaVuSans-34"/>
     <path d="M 40.578125 39.3125 
Q 47.65625 37.796875 51.625 33 
Q 55.609375 28.21875 55.609375 21.1875 
Q 55.609375 10.40625 48.1875 4.484375 
Q 40.765625 -1.421875 27.09375 -1.421875 
Q 22.515625 -1.421875 17.65625 -0.515625 
Q 12.796875 0.390625 7.625 2.203125 
L 7.625 11.71875 
Q 11.71875 9.328125 16.59375 8.109375 
Q 21.484375 6.890625 26.8125 6.890625 
Q 36.078125 6.890625 40.9375 10.546875 
Q 45.796875 14.203125 45.796875 21.1875 
Q 45.796875 27.640625 41.28125 31.265625 
Q 36.765625 34.90625 28.71875 34.90625 
L 20.21875 34.90625 
L 20.21875 43.015625 
L 29.109375 43.015625 
Q 36.375 43.015625 40.234375 45.921875 
Q 44.09375 48.828125 44.09375 54.296875 
Q 44.09375 59.90625 40.109375 62.90625 
Q 36.140625 65.921875 28.71875 65.921875 
Q 24.65625 65.921875 20.015625 65.03125 
Q 15.375 64.15625 9.8125 62.3125 
L 9.8125 71.09375 
Q 15.4375 72.65625 20.34375 73.4375 
Q 25.25 74.21875 29.59375 74.21875 
Q 40.828125 74.21875 47.359375 69.109375 
Q 53.90625 64.015625 53.90625 55.328125 
Q 53.90625 49.265625 50.4375 45.09375 
Q 46.96875 40.921875 40.578125 39.3125 
z
" id="DejaVuSans-33"/>
     <path d="M 11.71875 12.40625 
L 22.015625 12.40625 
L 22.015625 4 
L 14.015625 -11.625 
L 7.71875 -11.625 
L 11.71875 4 
z
" id="DejaVuSans-2c"/>
     <path d="M 16.890625 72.90625 
L 62.984375 72.90625 
L 61.375 64.59375 
L 25.09375 64.59375 
L 20.90625 43.015625 
L 55.71875 43.015625 
L 54.109375 34.71875 
L 19.28125 34.71875 
L 14.203125 8.296875 
L 51.3125 8.296875 
L 49.703125 0 
L 2.6875 0 
z
" id="DejaVuSans-Oblique-45"/>
     <path d="M 16.890625 72.90625 
L 30.171875 72.90625 
L 50.296875 10.40625 
L 62.5 72.90625 
L 72.125 72.90625 
L 57.90625 0 
L 44.578125 0 
L 24.515625 62.890625 
L 12.3125 0 
L 2.6875 0 
z
" id="DejaVuSans-Oblique-4e"/>
     <path d="M 10.59375 45.40625 
L 73.1875 45.40625 
L 73.1875 37.203125 
L 10.59375 37.203125 
z
M 10.59375 25.484375 
L 73.1875 25.484375 
L 73.1875 17.1875 
L 10.59375 17.1875 
z
" id="DejaVuSans-3d"/>
     <path d="M 4.890625 31.390625 
L 31.203125 31.390625 
L 31.203125 23.390625 
L 4.890625 23.390625 
z
" id="DejaVuSans-2d"/>
     <path d="M 8.203125 72.90625 
L 55.078125 72.90625 
L 55.078125 68.703125 
L 28.609375 0 
L 18.3125 0 
L 43.21875 64.59375 
L 8.203125 64.59375 
z
" id="DejaVuSans-37"/>
     <path d="M 10.6875 12.40625 
L 21 12.40625 
L 21 0 
L 10.6875 0 
z
" id="DejaVuSans-2e"/>
     <path d="M 28.609375 0 
L 0.78125 72.90625 
L 11.078125 72.90625 
L 34.1875 11.53125 
L 57.328125 72.90625 
L 67.578125 72.90625 
L 39.796875 0 
z
" id="DejaVuSans-56"/>
     <path d="M 34.1875 63.1875 
L 14.15625 8.203125 
L 54.25 8.203125 
z
M 0.78125 0 
L 28.609375 72.90625 
L 39.796875 72.90625 
L 67.578125 0 
z
" id="DejaVuSans-394"/>
     <path d="M 9.8125 72.90625 
L 55.90625 72.90625 
L 55.90625 64.59375 
L 19.671875 64.59375 
L 19.671875 43.015625 
L 54.390625 43.015625 
L 54.390625 34.71875 
L 19.671875 34.71875 
L 19.671875 8.296875 
L 56.78125 8.296875 
L 56.78125 0 
L 9.8125 0 
z
" id="DejaVuSans-45"/>
    </defs>
    <g transform="translate(59.388 35.472)scale(0.12 -0.12)">
     <use transform="translate(0 0.78125)" xlink:href="#DejaVuSans-53"/>
     <use transform="translate(63.476562 0.78125)" xlink:href="#DejaVuSans-74"/>
     <use transform="translate(102.685547 0.78125)" xlink:href="#DejaVuSans-72"/>
     <use transform="translate(143.798828 0.78125)" xlink:href="#DejaVuSans-75"/>
     <use transform="translate(207.177734 0.78125)" xlink:href="#DejaVuSans-63"/>
     <use transform="translate(262.158203 0.78125)" xlink:href="#DejaVuSans-74"/>
     <use transform="translate(301.367188 0.78125)" xlink:href="#DejaVuSans-75"/>
     <use transform="translate(364.746094 0.78125)" xlink:href="#DejaVuSans-72"/>
     <use transform="translate(405.859375 0.78125)" xlink:href="#DejaVuSans-65"/>
     <use transform="translate(467.382812 0.78125)" xlink:href="#DejaVuSans-20"/>
     <use transform="translate(499.169922 0.78125)" xlink:href="#DejaVuSans-23"/>
     <use transform="translate(582.958984 0.78125)" xlink:href="#DejaVuSans-31"/>
     <use transform="translate(646.582031 0.78125)" xlink:href="#DejaVuSans-30"/>
     <use transform="translate(710.205078 0.78125)" xlink:href="#DejaVuSans-34"/>
     <use transform="translate(773.828125 0.78125)" xlink:href="#DejaVuSans-31"/>
     <use transform="translate(837.451172 0.78125)" xlink:href="#DejaVuSans-33"/>
     <use transform="translate(901.074219 0.78125)" xlink:href="#DejaVuSans-2c"/>
     <use transform="translate(932.861328 0.78125)" xlink:href="#DejaVuSans-20"/>
     <use transform="translate(964.648438 0.78125)" xlink:href="#DejaVuSans-Oblique-45"/>
     <use transform="translate(1027.832031 -15.625)scale(0.7)" xlink:href="#DejaVuSans-Oblique-4e"/>
     <use transform="translate(1082.929688 0.78125)" xlink:href="#DejaVuSans-3d"/>
     <use transform="translate(1166.71875 0.78125)" xlink:href="#DejaVuSans-2d"/>
     <use transform="translate(1202.802734 0.78125)" xlink:href="#DejaVuSans-31"/>
     <use transform="translate(1266.425781 0.78125)" xlink:href="#DejaVuSans-37"/>
     <use transform="translate(1330.048828 0.78125)" xlink:href="#DejaVuSans-34"/>
     <use transform="translate(1393.671875 0.78125)" xlink:href="#DejaVuSans-2e"/>
     <use transform="translate(1425.458984 0.78125)" xlink:href="#DejaVuSans-34"/>
     <use transform="translate(1489.082031 0.78125)" xlink:href="#DejaVuSans-30"/>
     <use transform="translate(1552.705078 0.78125)" xlink:href="#DejaVuSans-65"/>
     <use transform="translate(1614.228516 0.78125)" xlink:href="#DejaVuSans-56"/>
     <use transform="translate(1682.636719 0.78125)" xlink:href="#DejaVuSans-2c"/>
     <use transform="translate(1714.423828 0.78125)" xlink:href="#DejaVuSans-20"/>
     <use transform="translate(1746.210938 0.78125)" xlink:href="#DejaVuSans-394"/>
     <use transform="translate(1814.619141 0.78125)" xlink:href="#DejaVuSans-45"/>
     <use transform="translate(1877.802734 0.78125)" xlink:href="#DejaVuSans-3d"/>
     <use transform="translate(1961.591797 0.78125)" xlink:href="#DejaVuSans-2d"/>
     <use transform="translate(1997.675781 0.78125)" xlink:href="#DejaVuSans-30"/>
     <use transform="translate(2061.298828 0.78125)" xlink:href="#DejaVuSans-2e"/>
     <use transform="translate(2093.085938 0.78125)" xlink:href="#DejaVuSans-31"/>
     <use transform="translate(2156.708984 0.78125)" xlink:href="#DejaVuSans-37"/>
     <use transform="translate(2220.332031 0.78125)" xlink:href="#DejaVuSans-65"/>
     <use transform="translate(2281.855469 0.78125)" xlink:href="#DejaVuSans-56"/>
    </g>
   </g>
  </g>
  <g id="axes_2">
   <g id="patch_2">
    <path clip-path="url(#pc8555fa2b1)" d="M 361.152 307.584 
L 361.152 306.5445 
L 361.152 42.5115 
L 361.152 41.472 
L 374.4576 41.472 
L 374.4576 42.5115 
L 374.4576 306.5445 
L 374.4576 307.584 
z
" style="fill:#ffffff;stroke:#ffffff;stroke-linejoin:miter;stroke-width:0.01;"/>
   </g>
   <image height="265.68" id="imagee0c2809a79" transform="scale(1 -1)translate(0 -265.68)" width="12.96" x="361.44" xlink:href="data:image/png;base64,
iVBORw0KGgoAAAANSUhEUgAAABIAAAFxCAYAAAB+2fgXAAAABHNCSVQICAgIfAhkiAAAAeVJREFUeJztncmNw0AQA2ckheYQNv9QLIfQ8ygsCgQ7AEI8+jAs2Puz/94F1LP2ReCsZ18bAWIeZ5XaGRBE7VnbptG+KI101FYyNSiQG2oRITXKNaX9uclOdi2XWjftVE32CZCO2ou5Bj1TcCBr/1zB9ge7Fq0Rg2NM9pvbtG+ua1QgsRYhDy0ISEiNc40BEibbSI0Coj5CBGtkpFbXJiAjNZlrwhuSOv2M1DjXbEdEciBt1JSDDQKKpmZr2rr2j0DBGpXaWEJq3bQzEPIS26r9J+Wzv9Tm8o3aajRXqc3VUXsApKNWjeZq0x4ABVNbm7lrszVigDqP5vIl2+eaT2yfRkL7g+dRcNPqjohkjaCvRVBq0H2U3LQrOJCx9kdTg4B8oxZzzTdqdYHEngjUCAPyUctN9sVRq2sTECW2UKNLd2jVtRmo1A6AhMmWaSRcR8nUdIHUuVb75zJS218EyEitro1At69pIdeSk30Lkw0FktNImGyZRhy1O5galmxd03LUsHWk06jUZiCq+5Wb1kZNN4+wJxJuWt8RAW5am2sYNZ9rYCBzZ3buPKJ2P5Yj4Toy3keyIyJbIxs1rml1byCA84gpch5RQNB7Q0qNMGq2Hy4BXdNR41yz/cEEJfZzUz96r9PoB0okjeQ8y9TkAAAAAElFTkSuQmCC" y="-41.76"/>
   <g id="matplotlib.axis_1"/>
   <g id="matplotlib.axis_2">
    <g id="ytick_1">
     <g id="line2d_1">
      <defs>
       <path d="M 0 0 
L 3.5 0 
" id="m96d209e65a" style="stroke:#000000;stroke-width:0.8;"/>
      </defs>
      <g>
       <use style="stroke:#000000;stroke-width:0.8;" x="374.4576" xlink:href="#m96d209e65a" y="276.176058"/>
      </g>
     </g>
     <g id="text_2">
      <!-- −8.0 -->
      <defs>
       <path d="M 10.59375 35.5 
L 73.1875 35.5 
L 73.1875 27.203125 
L 10.59375 27.203125 
z
" id="DejaVuSans-2212"/>
       <path d="M 31.78125 34.625 
Q 24.75 34.625 20.71875 30.859375 
Q 16.703125 27.09375 16.703125 20.515625 
Q 16.703125 13.921875 20.71875 10.15625 
Q 24.75 6.390625 31.78125 6.390625 
Q 38.8125 6.390625 42.859375 10.171875 
Q 46.921875 13.96875 46.921875 20.515625 
Q 46.921875 27.09375 42.890625 30.859375 
Q 38.875 34.625 31.78125 34.625 
z
M 21.921875 38.8125 
Q 15.578125 40.375 12.03125 44.71875 
Q 8.5 49.078125 8.5 55.328125 
Q 8.5 64.0625 14.71875 69.140625 
Q 20.953125 74.21875 31.78125 74.21875 
Q 42.671875 74.21875 48.875 69.140625 
Q 55.078125 64.0625 55.078125 55.328125 
Q 55.078125 49.078125 51.53125 44.71875 
Q 48 40.375 41.703125 38.8125 
Q 48.828125 37.15625 52.796875 32.3125 
Q 56.78125 27.484375 56.78125 20.515625 
Q 56.78125 9.90625 50.3125 4.234375 
Q 43.84375 -1.421875 31.78125 -1.421875 
Q 19.734375 -1.421875 13.25 4.234375 
Q 6.78125 9.90625 6.78125 20.515625 
Q 6.78125 27.484375 10.78125 32.3125 
Q 14.796875 37.15625 21.921875 38.8125 
z
M 18.3125 54.390625 
Q 18.3125 48.734375 21.84375 45.5625 
Q 25.390625 42.390625 31.78125 42.390625 
Q 38.140625 42.390625 41.71875 45.5625 
Q 45.3125 48.734375 45.3125 54.390625 
Q 45.3125 60.0625 41.71875 63.234375 
Q 38.140625 66.40625 31.78125 66.40625 
Q 25.390625 66.40625 21.84375 63.234375 
Q 18.3125 60.0625 18.3125 54.390625 
z
" id="DejaVuSans-38"/>
      </defs>
      <g transform="translate(381.4576 279.975276)scale(0.1 -0.1)">
       <use xlink:href="#DejaVuSans-2212"/>
       <use x="83.789062" xlink:href="#DejaVuSans-38"/>
       <use x="147.412109" xlink:href="#DejaVuSans-2e"/>
       <use x="179.199219" xlink:href="#DejaVuSans-30"/>
      </g>
     </g>
    </g>
    <g id="ytick_2">
     <g id="line2d_2">
      <g>
       <use style="stroke:#000000;stroke-width:0.8;" x="374.4576" xlink:href="#m96d209e65a" y="235.767607"/>
      </g>
     </g>
     <g id="text_3">
      <!-- −7.5 -->
      <defs>
       <path d="M 10.796875 72.90625 
L 49.515625 72.90625 
L 49.515625 64.59375 
L 19.828125 64.59375 
L 19.828125 46.734375 
Q 21.96875 47.46875 24.109375 47.828125 
Q 26.265625 48.1875 28.421875 48.1875 
Q 40.625 48.1875 47.75 41.5 
Q 54.890625 34.8125 54.890625 23.390625 
Q 54.890625 11.625 47.5625 5.09375 
Q 40.234375 -1.421875 26.90625 -1.421875 
Q 22.3125 -1.421875 17.546875 -0.640625 
Q 12.796875 0.140625 7.71875 1.703125 
L 7.71875 11.625 
Q 12.109375 9.234375 16.796875 8.0625 
Q 21.484375 6.890625 26.703125 6.890625 
Q 35.15625 6.890625 40.078125 11.328125 
Q 45.015625 15.765625 45.015625 23.390625 
Q 45.015625 31 40.078125 35.4375 
Q 35.15625 39.890625 26.703125 39.890625 
Q 22.75 39.890625 18.8125 39.015625 
Q 14.890625 38.140625 10.796875 36.28125 
z
" id="DejaVuSans-35"/>
      </defs>
      <g transform="translate(381.4576 239.566826)scale(0.1 -0.1)">
       <use xlink:href="#DejaVuSans-2212"/>
       <use x="83.789062" xlink:href="#DejaVuSans-37"/>
       <use x="147.412109" xlink:href="#DejaVuSans-2e"/>
       <use x="179.199219" xlink:href="#DejaVuSans-35"/>
      </g>
     </g>
    </g>
    <g id="ytick_3">
     <g id="line2d_3">
      <g>
       <use style="stroke:#000000;stroke-width:0.8;" x="374.4576" xlink:href="#m96d209e65a" y="195.359156"/>
      </g>
     </g>
     <g id="text_4">
      <!-- −7.0 -->
      <g transform="translate(381.4576 199.158375)scale(0.1 -0.1)">
       <use xlink:href="#DejaVuSans-2212"/>
       <use x="83.789062" xlink:href="#DejaVuSans-37"/>
       <use x="147.412109" xlink:href="#DejaVuSans-2e"/>
       <use x="179.199219" xlink:href="#DejaVuSans-30"/>
      </g>
     </g>
    </g>
    <g id="ytick_4">
     <g id="line2d_4">
      <g>
       <use style="stroke:#000000;stroke-width:0.8;" x="374.4576" xlink:href="#m96d209e65a" y="154.950706"/>
      </g>
     </g>
     <g id="text_5">
      <!-- −6.5 -->
      <defs>
       <path d="M 33.015625 40.375 
Q 26.375 40.375 22.484375 35.828125 
Q 18.609375 31.296875 18.609375 23.390625 
Q 18.609375 15.53125 22.484375 10.953125 
Q 26.375 6.390625 33.015625 6.390625 
Q 39.65625 6.390625 43.53125 10.953125 
Q 47.40625 15.53125 47.40625 23.390625 
Q 47.40625 31.296875 43.53125 35.828125 
Q 39.65625 40.375 33.015625 40.375 
z
M 52.59375 71.296875 
L 52.59375 62.3125 
Q 48.875 64.0625 45.09375 64.984375 
Q 41.3125 65.921875 37.59375 65.921875 
Q 27.828125 65.921875 22.671875 59.328125 
Q 17.53125 52.734375 16.796875 39.40625 
Q 19.671875 43.65625 24.015625 45.921875 
Q 28.375 48.1875 33.59375 48.1875 
Q 44.578125 48.1875 50.953125 41.515625 
Q 57.328125 34.859375 57.328125 23.390625 
Q 57.328125 12.15625 50.6875 5.359375 
Q 44.046875 -1.421875 33.015625 -1.421875 
Q 20.359375 -1.421875 13.671875 8.265625 
Q 6.984375 17.96875 6.984375 36.375 
Q 6.984375 53.65625 15.1875 63.9375 
Q 23.390625 74.21875 37.203125 74.21875 
Q 40.921875 74.21875 44.703125 73.484375 
Q 48.484375 72.75 52.59375 71.296875 
z
" id="DejaVuSans-36"/>
      </defs>
      <g transform="translate(381.4576 158.749925)scale(0.1 -0.1)">
       <use xlink:href="#DejaVuSans-2212"/>
       <use x="83.789062" xlink:href="#DejaVuSans-36"/>
       <use x="147.412109" xlink:href="#DejaVuSans-2e"/>
       <use x="179.199219" xlink:href="#DejaVuSans-35"/>
      </g>
     </g>
    </g>
    <g id="ytick_5">
     <g id="line2d_5">
      <g>
       <use style="stroke:#000000;stroke-width:0.8;" x="374.4576" xlink:href="#m96d209e65a" y="114.542255"/>
      </g>
     </g>
     <g id="text_6">
      <!-- −6.0 -->
      <g transform="translate(381.4576 118.341474)scale(0.1 -0.1)">
       <use xlink:href="#DejaVuSans-2212"/>
       <use x="83.789062" xlink:href="#DejaVuSans-36"/>
       <use x="147.412109" xlink:href="#DejaVuSans-2e"/>
       <use x="179.199219" xlink:href="#DejaVuSans-30"/>
      </g>
     </g>
    </g>
    <g id="ytick_6">
     <g id="line2d_6">
      <g>
       <use style="stroke:#000000;stroke-width:0.8;" x="374.4576" xlink:href="#m96d209e65a" y="74.133805"/>
      </g>
     </g>
     <g id="text_7">
      <!-- −5.5 -->
      <g transform="translate(381.4576 77.933023)scale(0.1 -0.1)">
       <use xlink:href="#DejaVuSans-2212"/>
       <use x="83.789062" xlink:href="#DejaVuSans-35"/>
       <use x="147.412109" xlink:href="#DejaVuSans-2e"/>
       <use x="179.199219" xlink:href="#DejaVuSans-35"/>
      </g>
     </g>
    </g>
    <g id="text_8">
     <!-- Energy [eV] -->
     <defs>
      <path d="M 54.890625 33.015625 
L 54.890625 0 
L 45.90625 0 
L 45.90625 32.71875 
Q 45.90625 40.484375 42.875 44.328125 
Q 39.84375 48.1875 33.796875 48.1875 
Q 26.515625 48.1875 22.3125 43.546875 
Q 18.109375 38.921875 18.109375 30.90625 
L 18.109375 0 
L 9.078125 0 
L 9.078125 54.6875 
L 18.109375 54.6875 
L 18.109375 46.1875 
Q 21.34375 51.125 25.703125 53.5625 
Q 30.078125 56 35.796875 56 
Q 45.21875 56 50.046875 50.171875 
Q 54.890625 44.34375 54.890625 33.015625 
z
" id="DejaVuSans-6e"/>
      <path d="M 45.40625 27.984375 
Q 45.40625 37.75 41.375 43.109375 
Q 37.359375 48.484375 30.078125 48.484375 
Q 22.859375 48.484375 18.828125 43.109375 
Q 14.796875 37.75 14.796875 27.984375 
Q 14.796875 18.265625 18.828125 12.890625 
Q 22.859375 7.515625 30.078125 7.515625 
Q 37.359375 7.515625 41.375 12.890625 
Q 45.40625 18.265625 45.40625 27.984375 
z
M 54.390625 6.78125 
Q 54.390625 -7.171875 48.1875 -13.984375 
Q 42 -20.796875 29.203125 -20.796875 
Q 24.46875 -20.796875 20.265625 -20.09375 
Q 16.0625 -19.390625 12.109375 -17.921875 
L 12.109375 -9.1875 
Q 16.0625 -11.328125 19.921875 -12.34375 
Q 23.78125 -13.375 27.78125 -13.375 
Q 36.625 -13.375 41.015625 -8.765625 
Q 45.40625 -4.15625 45.40625 5.171875 
L 45.40625 9.625 
Q 42.625 4.78125 38.28125 2.390625 
Q 33.9375 0 27.875 0 
Q 17.828125 0 11.671875 7.65625 
Q 5.515625 15.328125 5.515625 27.984375 
Q 5.515625 40.671875 11.671875 48.328125 
Q 17.828125 56 27.875 56 
Q 33.9375 56 38.28125 53.609375 
Q 42.625 51.21875 45.40625 46.390625 
L 45.40625 54.6875 
L 54.390625 54.6875 
z
" id="DejaVuSans-67"/>
      <path d="M 32.171875 -5.078125 
Q 28.375 -14.84375 24.75 -17.8125 
Q 21.140625 -20.796875 15.09375 -20.796875 
L 7.90625 -20.796875 
L 7.90625 -13.28125 
L 13.1875 -13.28125 
Q 16.890625 -13.28125 18.9375 -11.515625 
Q 21 -9.765625 23.484375 -3.21875 
L 25.09375 0.875 
L 2.984375 54.6875 
L 12.5 54.6875 
L 29.59375 11.921875 
L 46.6875 54.6875 
L 56.203125 54.6875 
z
" id="DejaVuSans-79"/>
      <path d="M 8.59375 75.984375 
L 29.296875 75.984375 
L 29.296875 69 
L 17.578125 69 
L 17.578125 -6.203125 
L 29.296875 -6.203125 
L 29.296875 -13.1875 
L 8.59375 -13.1875 
z
" id="DejaVuSans-5b"/>
      <path d="M 30.421875 75.984375 
L 30.421875 -13.1875 
L 9.71875 -13.1875 
L 9.71875 -6.203125 
L 21.390625 -6.203125 
L 21.390625 69 
L 9.71875 69 
L 9.71875 75.984375 
z
" id="DejaVuSans-5d"/>
     </defs>
     <g transform="translate(417.33885 204.108469)rotate(-90)scale(0.1 -0.1)">
      <use xlink:href="#DejaVuSans-45"/>
      <use x="63.183594" xlink:href="#DejaVuSans-6e"/>
      <use x="126.5625" xlink:href="#DejaVuSans-65"/>
      <use x="188.085938" xlink:href="#DejaVuSans-72"/>
      <use x="229.183594" xlink:href="#DejaVuSans-67"/>
      <use x="292.660156" xlink:href="#DejaVuSans-79"/>
      <use x="351.839844" xlink:href="#DejaVuSans-20"/>
      <use x="383.626953" xlink:href="#DejaVuSans-5b"/>
      <use x="422.640625" xlink:href="#DejaVuSans-65"/>
      <use x="484.164062" xlink:href="#DejaVuSans-56"/>
      <use x="552.572266" xlink:href="#DejaVuSans-5d"/>
     </g>
    </g>
   </g>
   <g id="patch_3">
    <path d="M 361.152 307.584 
L 361.152 306.5445 
L 361.152 42.5115 
L 361.152 41.472 
L 374.4576 41.472 
L 374.4576 42.5115 
L 374.4576 306.5445 
L 374.4576 307.584 
z
" style="fill:none;stroke:#000000;stroke-linejoin:miter;stroke-width:0.8;"/>
   </g>
  </g>
 </g>
 <defs>
  <clipPath id="pc698a308ba">
   <rect height="266.112" width="285.696" x="57.6" y="41.472"/>
  </clipPath>
  <clipPath id="pc8555fa2b1">
   <rect height="266.112" width="13.3056" x="361.152" y="41.472"/>
  </clipPath>
 </defs>
</svg>
