<?xml version="1.0" encoding="utf-8" standalone="no"?>
<!DOCTYPE svg PUBLIC "-//W3C//DTD SVG 1.1//EN"
  "http://www.w3.org/Graphics/SVG/1.1/DTD/svg11.dtd">
<!-- Created with matplotlib (http://matplotlib.org/) -->
<svg height="345.6pt" version="1.1" viewBox="0 0 460.8 345.6" width="460.8pt" xmlns="http://www.w3.org/2000/svg" xmlns:xlink="http://www.w3.org/1999/xlink">
 <defs>
  <style type="text/css">
*{stroke-linecap:butt;stroke-linejoin:round;}
  </style>
 </defs>
 <g id="figure_1">
  <g id="patch_1">
   <path d="M 0 345.6 
L 460.8 345.6 
L 460.8 0 
L 0 0 
z
" style="fill:#ffffff;"/>
  </g>
  <g id="axes_1">
   <g id="CircleCollection_1">
    <path clip-path="url(#p5ad0a61a7a)" d="M 315.220089 243.433949 
C 316.979895 243.433949 318.667861 242.734771 319.912232 241.4904 
C 321.156603 240.246029 321.855781 238.558063 321.855781 236.798257 
C 321.855781 235.03845 321.156603 233.350484 319.912232 232.106114 
C 318.667861 230.861743 316.979895 230.162564 315.220089 230.162564 
C 313.460283 230.162564 311.772317 230.861743 310.527946 232.106114 
C 309.283575 233.350484 308.584397 235.03845 308.584397 236.798257 
C 308.584397 238.558063 309.283575 240.246029 310.527946 241.4904 
C 311.772317 242.734771 313.460283 243.433949 315.220089 243.433949 
z
" style="fill:#31668e;"/>
    <path clip-path="url(#p5ad0a61a7a)" d="M 322.32834 214.206873 
C 324.125817 214.206873 325.849916 213.492728 327.120924 212.22172 
C 328.391932 210.950713 329.106077 209.226614 329.106077 207.429137 
C 329.106077 205.63166 328.391932 203.907562 327.120924 202.636554 
C 325.849916 201.365546 324.125817 200.651401 322.32834 200.651401 
C 320.530864 200.651401 318.806765 201.365546 317.535757 202.636554 
C 316.264749 203.907562 315.550604 205.63166 315.550604 207.429137 
C 315.550604 209.226614 316.264749 210.950713 317.535757 212.22172 
C 318.806765 213.492728 320.530864 214.206873 322.32834 214.206873 
z
" style="fill:#2e6d8e;"/>
    <path clip-path="url(#p5ad0a61a7a)" d="M 266.029349 60.404081 
C 267.717783 60.404081 269.33729 59.73326 270.531192 58.539357 
C 271.725095 57.345454 272.395917 55.725947 272.395917 54.037513 
C 272.395917 52.34908 271.725095 50.729573 270.531192 49.53567 
C 269.33729 48.341767 267.717783 47.670945 266.029349 47.670945 
C 264.340915 47.670945 262.721408 48.341767 261.527505 49.53567 
C 260.333603 50.729573 259.662781 52.34908 259.662781 54.037513 
C 259.662781 55.725947 260.333603 57.345454 261.527505 58.539357 
C 262.721408 59.73326 264.340915 60.404081 266.029349 60.404081 
z
" style="fill:#2b748e;"/>
    <path clip-path="url(#p5ad0a61a7a)" d="M 294.425662 65.524444 
C 296.11846 65.524444 297.742154 64.851888 298.939143 63.654899 
C 300.136132 62.45791 300.808688 60.834216 300.808688 59.141418 
C 300.808688 57.44862 300.136132 55.824926 298.939143 54.627937 
C 297.742154 53.430948 296.11846 52.758392 294.425662 52.758392 
C 292.732864 52.758392 291.10917 53.430948 289.912181 54.627937 
C 288.715192 55.824926 288.042636 57.44862 288.042636 59.141418 
C 288.042636 60.834216 288.715192 62.45791 289.912181 63.654899 
C 291.10917 64.851888 292.732864 65.524444 294.425662 65.524444 
z
" style="fill:#2b748e;"/>
    <path clip-path="url(#p5ad0a61a7a)" d="M 330.004389 111.416238 
C 331.773008 111.416238 333.469427 110.713559 334.720029 109.462956 
C 335.970632 108.212353 336.673312 106.515934 336.673312 104.747315 
C 336.673312 102.978696 335.970632 101.282277 334.720029 100.031675 
C 333.469427 98.781072 331.773008 98.078392 330.004389 98.078392 
C 328.23577 98.078392 326.539351 98.781072 325.288748 100.031675 
C 324.038146 101.282277 323.335466 102.978696 323.335466 104.747315 
C 323.335466 106.515934 324.038146 108.212353 325.288748 109.462956 
C 326.539351 110.713559 328.23577 111.416238 330.004389 111.416238 
z
" style="fill:#2a778e;"/>
    <path clip-path="url(#p5ad0a61a7a)" d="M 295.444898 301.346817 
C 297.122383 301.346817 298.731389 300.680345 299.91755 299.494184 
C 301.103712 298.308022 301.770184 296.699017 301.770184 295.021531 
C 301.770184 293.344046 301.103712 291.73504 299.91755 290.548879 
C 298.731389 289.362717 297.122383 288.696245 295.444898 288.696245 
C 293.767413 288.696245 292.158407 289.362717 290.972245 290.548879 
C 289.786084 291.73504 289.119612 293.344046 289.119612 295.021531 
C 289.119612 296.699017 289.786084 298.308022 290.972245 299.494184 
C 292.158407 300.680345 293.767413 301.346817 295.444898 301.346817 
z
" style="fill:#e5e419;"/>
    <path clip-path="url(#p5ad0a61a7a)" d="M 328.259206 141.910733 
C 330.078611 141.910733 331.823744 141.187876 333.110258 139.901362 
C 334.396772 138.614848 335.119629 136.869715 335.119629 135.05031 
C 335.119629 133.230904 334.396772 131.485772 333.110258 130.199258 
C 331.823744 128.912744 330.078611 128.189886 328.259206 128.189886 
C 326.4398 128.189886 324.694668 128.912744 323.408154 130.199258 
C 322.12164 131.485772 321.398783 133.230904 321.398783 135.05031 
C 321.398783 136.869715 322.12164 138.614848 323.408154 139.901362 
C 324.694668 141.187876 326.4398 141.910733 328.259206 141.910733 
z
" style="fill:#30698e;"/>
    <path clip-path="url(#p5ad0a61a7a)" d="M 315.025721 155.464612 
C 316.916843 155.464612 318.730763 154.713261 320.067988 153.376036 
C 321.405213 152.038811 322.156563 150.224891 322.156563 148.333769 
C 322.156563 146.442648 321.405213 144.628727 320.067988 143.291502 
C 318.730763 141.954277 316.916843 141.202927 315.025721 141.202927 
C 313.134599 141.202927 311.320679 141.954277 309.983454 143.291502 
C 308.646229 144.628727 307.894879 146.442648 307.894879 148.333769 
C 307.894879 150.224891 308.646229 152.038811 309.983454 153.376036 
C 311.320679 154.713261 313.134599 155.464612 315.025721 155.464612 
z
" style="fill:#2d708e;"/>
    <path clip-path="url(#p5ad0a61a7a)" d="M 236.807818 63.944309 
C 238.521566 63.944309 240.165354 63.26343 241.377156 62.051627 
C 242.588959 60.839825 243.269838 59.196037 243.269838 57.482289 
C 243.269838 55.768542 242.588959 54.124754 241.377156 52.912951 
C 240.165354 51.701149 238.521566 51.020269 236.807818 51.020269 
C 235.09407 51.020269 233.450283 51.701149 232.23848 52.912951 
C 231.026677 54.124754 230.345798 55.768542 230.345798 57.482289 
C 230.345798 59.196037 231.026677 60.839825 232.23848 62.051627 
C 233.450283 63.26343 235.09407 63.944309 236.807818 63.944309 
z
" style="fill:#30698e;"/>
    <path clip-path="url(#p5ad0a61a7a)" d="M 119.403884 145.33073 
C 121.187141 145.33073 122.8976 144.622235 124.158552 143.361282 
C 125.419505 142.100329 126.128001 140.38987 126.128001 138.606613 
C 126.128001 136.823357 125.419505 135.112898 124.158552 133.851945 
C 122.8976 132.590992 121.187141 131.882497 119.403884 131.882497 
C 117.620627 131.882497 115.910168 132.590992 114.649216 133.851945 
C 113.388263 135.112898 112.679767 136.823357 112.679767 138.606613 
C 112.679767 140.38987 113.388263 142.100329 114.649216 143.361282 
C 115.910168 144.622235 117.620627 145.33073 119.403884 145.33073 
z
" style="fill:#2e6d8e;"/>
    <path clip-path="url(#p5ad0a61a7a)" d="M 240.143975 120.223234 
C 242.065638 120.223234 243.908854 119.459749 245.267675 118.100928 
C 246.626497 116.742106 247.389982 114.898891 247.389982 112.977227 
C 247.389982 111.055564 246.626497 109.212348 245.267675 107.853527 
C 243.908854 106.494705 242.065638 105.73122 240.143975 105.73122 
C 238.222311 105.73122 236.379096 106.494705 235.020274 107.853527 
C 233.661453 109.212348 232.897968 111.055564 232.897968 112.977227 
C 232.897968 114.898891 233.661453 116.742106 235.020274 118.100928 
C 236.379096 119.459749 238.222311 120.223234 240.143975 120.223234 
z
" style="fill:#306a8e;"/>
    <path clip-path="url(#p5ad0a61a7a)" d="M 293.673781 149.150624 
C 295.624792 149.150624 297.496157 148.375479 298.87573 146.995906 
C 300.255303 145.616333 301.030448 143.744968 301.030448 141.793957 
C 301.030448 139.842947 300.255303 137.971581 298.87573 136.592008 
C 297.496157 135.212436 295.624792 134.437291 293.673781 134.437291 
C 291.72277 134.437291 289.851405 135.212436 288.471832 136.592008 
C 287.092259 137.971581 286.317114 139.842947 286.317114 141.793957 
C 286.317114 143.744968 287.092259 145.616333 288.471832 146.995906 
C 289.851405 148.375479 291.72277 149.150624 293.673781 149.150624 
z
" style="fill:#2e6d8e;"/>
    <path clip-path="url(#p5ad0a61a7a)" d="M 199.167185 98.033724 
C 200.982105 98.033724 202.722935 97.312649 204.006277 96.029307 
C 205.289619 94.745965 206.010695 93.005135 206.010695 91.190215 
C 206.010695 89.375295 205.289619 87.634465 204.006277 86.351123 
C 202.722935 85.06778 200.982105 84.346705 199.167185 84.346705 
C 197.352265 84.346705 195.611435 85.06778 194.328093 86.351123 
C 193.044751 87.634465 192.323675 89.375295 192.323675 91.190215 
C 192.323675 93.005135 193.044751 94.745965 194.328093 96.029307 
C 195.611435 97.312649 197.352265 98.033724 199.167185 98.033724 
z
" style="fill:#440154;"/>
    <path clip-path="url(#p5ad0a61a7a)" d="M 218.60662 109.707097 
C 220.485948 109.707097 222.288556 108.960432 223.617442 107.631547 
C 224.946327 106.302661 225.692992 104.500053 225.692992 102.620725 
C 225.692992 100.741397 224.946327 98.938788 223.617442 97.609903 
C 222.288556 96.281017 220.485948 95.534352 218.60662 95.534352 
C 216.727292 95.534352 214.924683 96.281017 213.595798 97.609903 
C 212.266912 98.938788 211.520247 100.741397 211.520247 102.620725 
C 211.520247 104.500053 212.266912 106.302661 213.595798 107.631547 
C 214.924683 108.960432 216.727292 109.707097 218.60662 109.707097 
z
" style="fill:#238a8d;"/>
    <path clip-path="url(#p5ad0a61a7a)" d="M 144.398221 127.114752 
C 146.195889 127.114752 147.920172 126.40053 149.191316 125.129387 
C 150.462459 123.858243 151.176681 122.13396 151.176681 120.336292 
C 151.176681 118.538623 150.462459 116.814341 149.191316 115.543197 
C 147.920172 114.272053 146.195889 113.557832 144.398221 113.557832 
C 142.600552 113.557832 140.87627 114.272053 139.605126 115.543197 
C 138.333982 116.814341 137.619761 118.538623 137.619761 120.336292 
C 137.619761 122.13396 138.333982 123.858243 139.605126 125.129387 
C 140.87627 126.40053 142.600552 127.114752 144.398221 127.114752 
z
" style="fill:#33628d;"/>
    <path clip-path="url(#p5ad0a61a7a)" d="M 324.826512 180.779922 
C 326.657157 180.779922 328.41307 180.052599 329.707531 178.758138 
C 331.001993 177.463676 331.729316 175.707763 331.729316 173.877118 
C 331.729316 172.046473 331.001993 170.290559 329.707531 168.996098 
C 328.41307 167.701636 326.657157 166.974313 324.826512 166.974313 
C 322.995866 166.974313 321.239953 167.701636 319.945492 168.996098 
C 318.65103 170.290559 317.923707 172.046473 317.923707 173.877118 
C 317.923707 175.707763 318.65103 177.463676 319.945492 178.758138 
C 321.239953 180.052599 322.995866 180.779922 324.826512 180.779922 
z
" style="fill:#31688e;"/>
    <path clip-path="url(#p5ad0a61a7a)" d="M 213.906604 77.361519 
C 215.657172 77.361519 217.336277 76.666011 218.574115 75.428172 
C 219.811954 74.190334 220.507462 72.511229 220.507462 70.760661 
C 220.507462 69.010093 219.811954 67.330988 218.574115 66.093149 
C 217.336277 64.855311 215.657172 64.159803 213.906604 64.159803 
C 212.156036 64.159803 210.476931 64.855311 209.239092 66.093149 
C 208.001254 67.330988 207.305746 69.010093 207.305746 70.760661 
C 207.305746 72.511229 208.001254 74.190334 209.239092 75.428172 
C 210.476931 76.666011 212.156036 77.361519 213.906604 77.361519 
z
" style="fill:#20938c;"/>
    <path clip-path="url(#p5ad0a61a7a)" d="M 280.701314 150.776836 
C 282.726692 150.776836 284.669388 149.972145 286.101547 148.539986 
C 287.533705 147.107828 288.338397 145.165131 288.338397 143.139754 
C 288.338397 141.114376 287.533705 139.171679 286.101547 137.739521 
C 284.669388 136.307362 282.726692 135.502671 280.701314 135.502671 
C 278.675936 135.502671 276.73324 136.307362 275.301081 137.739521 
C 273.868923 139.171679 273.064232 141.114376 273.064232 143.139754 
C 273.064232 145.165131 273.868923 147.107828 275.301081 148.539986 
C 276.73324 149.972145 278.675936 150.776836 280.701314 150.776836 
z
" style="fill:#44bf70;"/>
    <path clip-path="url(#p5ad0a61a7a)" d="M 306.456601 273.317108 
C 308.175509 273.317108 309.824247 272.634178 311.039698 271.418726 
C 312.25515 270.203275 312.938079 268.554537 312.938079 266.835629 
C 312.938079 265.116721 312.25515 263.467983 311.039698 262.252532 
C 309.824247 261.03708 308.175509 260.35415 306.456601 260.35415 
C 304.737693 260.35415 303.088955 261.03708 301.873503 262.252532 
C 300.658052 263.467983 299.975122 265.116721 299.975122 266.835629 
C 299.975122 268.554537 300.658052 270.203275 301.873503 271.418726 
C 303.088955 272.634178 304.737693 273.317108 306.456601 273.317108 
z
" style="fill:#2d718e;"/>
    <path clip-path="url(#p5ad0a61a7a)" d="M 316.574149 87.372128 
C 318.298712 87.372128 319.952875 86.686951 321.172325 85.467501 
C 322.391776 84.24805 323.076953 82.593888 323.076953 80.869324 
C 323.076953 79.14476 322.391776 77.490598 321.172325 76.271147 
C 319.952875 75.051696 318.298712 74.36652 316.574149 74.36652 
C 314.849585 74.36652 313.195422 75.051696 311.975972 76.271147 
C 310.756521 77.490598 310.071345 79.14476 310.071345 80.869324 
C 310.071345 82.593888 310.756521 84.24805 311.975972 85.467501 
C 313.195422 86.686951 314.849585 87.372128 316.574149 87.372128 
z
" style="fill:#2e6f8e;"/>
    <path clip-path="url(#p5ad0a61a7a)" d="M 169.988937 111.520267 
C 171.797363 111.520267 173.531965 110.801772 174.810715 109.523021 
C 176.089466 108.24427 176.807961 106.509669 176.807961 104.701243 
C 176.807961 102.892816 176.089466 101.158215 174.810715 99.879464 
C 173.531965 98.600714 171.797363 97.882218 169.988937 97.882218 
C 168.180511 97.882218 166.445909 98.600714 165.167159 99.879464 
C 163.888408 101.158215 163.169913 102.892816 163.169913 104.701243 
C 163.169913 106.509669 163.888408 108.24427 165.167159 109.523021 
C 166.445909 110.801772 168.180511 111.520267 169.988937 111.520267 
z
" style="fill:#228c8d;"/>
    <path clip-path="url(#p5ad0a61a7a)" d="M 70.887709 183.799048 
C 72.633734 183.799048 74.308481 183.105345 75.543107 181.870719 
C 76.777733 180.636093 77.471436 178.961346 77.471436 177.215321 
C 77.471436 175.469296 76.777733 173.794549 75.543107 172.559923 
C 74.308481 171.325298 72.633734 170.631595 70.887709 170.631595 
C 69.141685 170.631595 67.466938 171.325298 66.232312 172.559923 
C 64.997686 173.794549 64.303983 175.469296 64.303983 177.215321 
C 64.303983 178.961346 64.997686 180.636093 66.232312 181.870719 
C 67.466938 183.105345 69.141685 183.799048 70.887709 183.799048 
z
" style="fill:#fde725;"/>
    <path clip-path="url(#p5ad0a61a7a)" d="M 94.712693 163.700833 
C 96.479954 163.700833 98.17507 162.998693 99.424713 161.749051 
C 100.674355 160.499409 101.376495 158.804292 101.376495 157.037031 
C 101.376495 155.269771 100.674355 153.574654 99.424713 152.325012 
C 98.17507 151.07537 96.479954 150.37323 94.712693 150.37323 
C 92.945432 150.37323 91.250316 151.07537 90.000674 152.325012 
C 88.751032 153.574654 88.048892 155.269771 88.048892 157.037031 
C 88.048892 158.804292 88.751032 160.499409 90.000674 161.749051 
C 91.250316 162.998693 92.945432 163.700833 94.712693 163.700833 
z
" style="fill:#2e6e8e;"/>
    <path clip-path="url(#p5ad0a61a7a)" d="M 264.261074 135.384664 
C 266.222621 135.384664 268.104093 134.605333 269.491116 133.218309 
C 270.87814 131.831286 271.657471 129.949815 271.657471 127.988267 
C 271.657471 126.02672 270.87814 124.145248 269.491116 122.758225 
C 268.104093 121.371201 266.222621 120.59187 264.261074 120.59187 
C 262.299526 120.59187 260.418055 121.371201 259.031031 122.758225 
C 257.644008 124.145248 256.864677 126.02672 256.864677 127.988267 
C 256.864677 129.949815 257.644008 131.831286 259.031031 133.218309 
C 260.418055 134.605333 262.299526 135.384664 264.261074 135.384664 
z
" style="fill:#306a8e;"/>
   </g>
   <g id="text_1">
    <!-- Structure #5187, $E_N$=-178.17eV, ΔE=0.21eV -->
    <defs>
     <path d="M 53.515625 70.515625 
L 53.515625 60.890625 
Q 47.90625 63.578125 42.921875 64.890625 
Q 37.9375 66.21875 33.296875 66.21875 
Q 25.25 66.21875 20.875 63.09375 
Q 16.5 59.96875 16.5 54.203125 
Q 16.5 49.359375 19.40625 46.890625 
Q 22.3125 44.4375 30.421875 42.921875 
L 36.375 41.703125 
Q 47.40625 39.59375 52.65625 34.296875 
Q 57.90625 29 57.90625 20.125 
Q 57.90625 9.515625 50.796875 4.046875 
Q 43.703125 -1.421875 29.984375 -1.421875 
Q 24.8125 -1.421875 18.96875 -0.25 
Q 13.140625 0.921875 6.890625 3.21875 
L 6.890625 13.375 
Q 12.890625 10.015625 18.65625 8.296875 
Q 24.421875 6.59375 29.984375 6.59375 
Q 38.421875 6.59375 43.015625 9.90625 
Q 47.609375 13.234375 47.609375 19.390625 
Q 47.609375 24.75 44.3125 27.78125 
Q 41.015625 30.8125 33.5 32.328125 
L 27.484375 33.5 
Q 16.453125 35.6875 11.515625 40.375 
Q 6.59375 45.0625 6.59375 53.421875 
Q 6.59375 63.09375 13.40625 68.65625 
Q 20.21875 74.21875 32.171875 74.21875 
Q 37.3125 74.21875 42.625 73.28125 
Q 47.953125 72.359375 53.515625 70.515625 
z
" id="DejaVuSans-53"/>
     <path d="M 18.3125 70.21875 
L 18.3125 54.6875 
L 36.8125 54.6875 
L 36.8125 47.703125 
L 18.3125 47.703125 
L 18.3125 18.015625 
Q 18.3125 11.328125 20.140625 9.421875 
Q 21.96875 7.515625 27.59375 7.515625 
L 36.8125 7.515625 
L 36.8125 0 
L 27.59375 0 
Q 17.1875 0 13.234375 3.875 
Q 9.28125 7.765625 9.28125 18.015625 
L 9.28125 47.703125 
L 2.6875 47.703125 
L 2.6875 54.6875 
L 9.28125 54.6875 
L 9.28125 70.21875 
z
" id="DejaVuSans-74"/>
     <path d="M 41.109375 46.296875 
Q 39.59375 47.171875 37.8125 47.578125 
Q 36.03125 48 33.890625 48 
Q 26.265625 48 22.1875 43.046875 
Q 18.109375 38.09375 18.109375 28.8125 
L 18.109375 0 
L 9.078125 0 
L 9.078125 54.6875 
L 18.109375 54.6875 
L 18.109375 46.1875 
Q 20.953125 51.171875 25.484375 53.578125 
Q 30.03125 56 36.53125 56 
Q 37.453125 56 38.578125 55.875 
Q 39.703125 55.765625 41.0625 55.515625 
z
" id="DejaVuSans-72"/>
     <path d="M 8.5 21.578125 
L 8.5 54.6875 
L 17.484375 54.6875 
L 17.484375 21.921875 
Q 17.484375 14.15625 20.5 10.265625 
Q 23.53125 6.390625 29.59375 6.390625 
Q 36.859375 6.390625 41.078125 11.03125 
Q 45.3125 15.671875 45.3125 23.6875 
L 45.3125 54.6875 
L 54.296875 54.6875 
L 54.296875 0 
L 45.3125 0 
L 45.3125 8.40625 
Q 42.046875 3.421875 37.71875 1 
Q 33.40625 -1.421875 27.6875 -1.421875 
Q 18.265625 -1.421875 13.375 4.4375 
Q 8.5 10.296875 8.5 21.578125 
z
M 31.109375 56 
z
" id="DejaVuSans-75"/>
     <path d="M 48.78125 52.59375 
L 48.78125 44.1875 
Q 44.96875 46.296875 41.140625 47.34375 
Q 37.3125 48.390625 33.40625 48.390625 
Q 24.65625 48.390625 19.8125 42.84375 
Q 14.984375 37.3125 14.984375 27.296875 
Q 14.984375 17.28125 19.8125 11.734375 
Q 24.65625 6.203125 33.40625 6.203125 
Q 37.3125 6.203125 41.140625 7.25 
Q 44.96875 8.296875 48.78125 10.40625 
L 48.78125 2.09375 
Q 45.015625 0.34375 40.984375 -0.53125 
Q 36.96875 -1.421875 32.421875 -1.421875 
Q 20.0625 -1.421875 12.78125 6.34375 
Q 5.515625 14.109375 5.515625 27.296875 
Q 5.515625 40.671875 12.859375 48.328125 
Q 20.21875 56 33.015625 56 
Q 37.15625 56 41.109375 55.140625 
Q 45.0625 54.296875 48.78125 52.59375 
z
" id="DejaVuSans-63"/>
     <path d="M 56.203125 29.59375 
L 56.203125 25.203125 
L 14.890625 25.203125 
Q 15.484375 15.921875 20.484375 11.0625 
Q 25.484375 6.203125 34.421875 6.203125 
Q 39.59375 6.203125 44.453125 7.46875 
Q 49.3125 8.734375 54.109375 11.28125 
L 54.109375 2.78125 
Q 49.265625 0.734375 44.1875 -0.34375 
Q 39.109375 -1.421875 33.890625 -1.421875 
Q 20.796875 -1.421875 13.15625 6.1875 
Q 5.515625 13.8125 5.515625 26.8125 
Q 5.515625 40.234375 12.765625 48.109375 
Q 20.015625 56 32.328125 56 
Q 43.359375 56 49.78125 48.890625 
Q 56.203125 41.796875 56.203125 29.59375 
z
M 47.21875 32.234375 
Q 47.125 39.59375 43.09375 43.984375 
Q 39.0625 48.390625 32.421875 48.390625 
Q 24.90625 48.390625 20.390625 44.140625 
Q 15.875 39.890625 15.1875 32.171875 
z
" id="DejaVuSans-65"/>
     <path id="DejaVuSans-20"/>
     <path d="M 51.125 44 
L 36.921875 44 
L 32.8125 27.6875 
L 47.125 27.6875 
z
M 43.796875 71.78125 
L 38.71875 51.515625 
L 52.984375 51.515625 
L 58.109375 71.78125 
L 65.921875 71.78125 
L 60.890625 51.515625 
L 76.125 51.515625 
L 76.125 44 
L 58.984375 44 
L 54.984375 27.6875 
L 70.515625 27.6875 
L 70.515625 20.21875 
L 53.078125 20.21875 
L 48 0 
L 40.1875 0 
L 45.21875 20.21875 
L 30.90625 20.21875 
L 25.875 0 
L 18.015625 0 
L 23.09375 20.21875 
L 7.71875 20.21875 
L 7.71875 27.6875 
L 24.90625 27.6875 
L 29 44 
L 13.28125 44 
L 13.28125 51.515625 
L 30.90625 51.515625 
L 35.890625 71.78125 
z
" id="DejaVuSans-23"/>
     <path d="M 10.796875 72.90625 
L 49.515625 72.90625 
L 49.515625 64.59375 
L 19.828125 64.59375 
L 19.828125 46.734375 
Q 21.96875 47.46875 24.109375 47.828125 
Q 26.265625 48.1875 28.421875 48.1875 
Q 40.625 48.1875 47.75 41.5 
Q 54.890625 34.8125 54.890625 23.390625 
Q 54.890625 11.625 47.5625 5.09375 
Q 40.234375 -1.421875 26.90625 -1.421875 
Q 22.3125 -1.421875 17.546875 -0.640625 
Q 12.796875 0.140625 7.71875 1.703125 
L 7.71875 11.625 
Q 12.109375 9.234375 16.796875 8.0625 
Q 21.484375 6.890625 26.703125 6.890625 
Q 35.15625 6.890625 40.078125 11.328125 
Q 45.015625 15.765625 45.015625 23.390625 
Q 45.015625 31 40.078125 35.4375 
Q 35.15625 39.890625 26.703125 39.890625 
Q 22.75 39.890625 18.8125 39.015625 
Q 14.890625 38.140625 10.796875 36.28125 
z
" id="DejaVuSans-35"/>
     <path d="M 12.40625 8.296875 
L 28.515625 8.296875 
L 28.515625 63.921875 
L 10.984375 60.40625 
L 10.984375 69.390625 
L 28.421875 72.90625 
L 38.28125 72.90625 
L 38.28125 8.296875 
L 54.390625 8.296875 
L 54.390625 0 
L 12.40625 0 
z
" id="DejaVuSans-31"/>
     <path d="M 31.78125 34.625 
Q 24.75 34.625 20.71875 30.859375 
Q 16.703125 27.09375 16.703125 20.515625 
Q 16.703125 13.921875 20.71875 10.15625 
Q 24.75 6.390625 31.78125 6.390625 
Q 38.8125 6.390625 42.859375 10.171875 
Q 46.921875 13.96875 46.921875 20.515625 
Q 46.921875 27.09375 42.890625 30.859375 
Q 38.875 34.625 31.78125 34.625 
z
M 21.921875 38.8125 
Q 15.578125 40.375 12.03125 44.71875 
Q 8.5 49.078125 8.5 55.328125 
Q 8.5 64.0625 14.71875 69.140625 
Q 20.953125 74.21875 31.78125 74.21875 
Q 42.671875 74.21875 48.875 69.140625 
Q 55.078125 64.0625 55.078125 55.328125 
Q 55.078125 49.078125 51.53125 44.71875 
Q 48 40.375 41.703125 38.8125 
Q 48.828125 37.15625 52.796875 32.3125 
Q 56.78125 27.484375 56.78125 20.515625 
Q 56.78125 9.90625 50.3125 4.234375 
Q 43.84375 -1.421875 31.78125 -1.421875 
Q 19.734375 -1.421875 13.25 4.234375 
Q 6.78125 9.90625 6.78125 20.515625 
Q 6.78125 27.484375 10.78125 32.3125 
Q 14.796875 37.15625 21.921875 38.8125 
z
M 18.3125 54.390625 
Q 18.3125 48.734375 21.84375 45.5625 
Q 25.390625 42.390625 31.78125 42.390625 
Q 38.140625 42.390625 41.71875 45.5625 
Q 45.3125 48.734375 45.3125 54.390625 
Q 45.3125 60.0625 41.71875 63.234375 
Q 38.140625 66.40625 31.78125 66.40625 
Q 25.390625 66.40625 21.84375 63.234375 
Q 18.3125 60.0625 18.3125 54.390625 
z
" id="DejaVuSans-38"/>
     <path d="M 8.203125 72.90625 
L 55.078125 72.90625 
L 55.078125 68.703125 
L 28.609375 0 
L 18.3125 0 
L 43.21875 64.59375 
L 8.203125 64.59375 
z
" id="DejaVuSans-37"/>
     <path d="M 11.71875 12.40625 
L 22.015625 12.40625 
L 22.015625 4 
L 14.015625 -11.625 
L 7.71875 -11.625 
L 11.71875 4 
z
" id="DejaVuSans-2c"/>
     <path d="M 16.890625 72.90625 
L 62.984375 72.90625 
L 61.375 64.59375 
L 25.09375 64.59375 
L 20.90625 43.015625 
L 55.71875 43.015625 
L 54.109375 34.71875 
L 19.28125 34.71875 
L 14.203125 8.296875 
L 51.3125 8.296875 
L 49.703125 0 
L 2.6875 0 
z
" id="DejaVuSans-Oblique-45"/>
     <path d="M 16.890625 72.90625 
L 30.171875 72.90625 
L 50.296875 10.40625 
L 62.5 72.90625 
L 72.125 72.90625 
L 57.90625 0 
L 44.578125 0 
L 24.515625 62.890625 
L 12.3125 0 
L 2.6875 0 
z
" id="DejaVuSans-Oblique-4e"/>
     <path d="M 10.59375 45.40625 
L 73.1875 45.40625 
L 73.1875 37.203125 
L 10.59375 37.203125 
z
M 10.59375 25.484375 
L 73.1875 25.484375 
L 73.1875 17.1875 
L 10.59375 17.1875 
z
" id="DejaVuSans-3d"/>
     <path d="M 4.890625 31.390625 
L 31.203125 31.390625 
L 31.203125 23.390625 
L 4.890625 23.390625 
z
" id="DejaVuSans-2d"/>
     <path d="M 10.6875 12.40625 
L 21 12.40625 
L 21 0 
L 10.6875 0 
z
" id="DejaVuSans-2e"/>
     <path d="M 28.609375 0 
L 0.78125 72.90625 
L 11.078125 72.90625 
L 34.1875 11.53125 
L 57.328125 72.90625 
L 67.578125 72.90625 
L 39.796875 0 
z
" id="DejaVuSans-56"/>
     <path d="M 34.1875 63.1875 
L 14.15625 8.203125 
L 54.25 8.203125 
z
M 0.78125 0 
L 28.609375 72.90625 
L 39.796875 72.90625 
L 67.578125 0 
z
" id="DejaVuSans-394"/>
     <path d="M 9.8125 72.90625 
L 55.90625 72.90625 
L 55.90625 64.59375 
L 19.671875 64.59375 
L 19.671875 43.015625 
L 54.390625 43.015625 
L 54.390625 34.71875 
L 19.671875 34.71875 
L 19.671875 8.296875 
L 56.78125 8.296875 
L 56.78125 0 
L 9.8125 0 
z
" id="DejaVuSans-45"/>
     <path d="M 31.78125 66.40625 
Q 24.171875 66.40625 20.328125 58.90625 
Q 16.5 51.421875 16.5 36.375 
Q 16.5 21.390625 20.328125 13.890625 
Q 24.171875 6.390625 31.78125 6.390625 
Q 39.453125 6.390625 43.28125 13.890625 
Q 47.125 21.390625 47.125 36.375 
Q 47.125 51.421875 43.28125 58.90625 
Q 39.453125 66.40625 31.78125 66.40625 
z
M 31.78125 74.21875 
Q 44.046875 74.21875 50.515625 64.515625 
Q 56.984375 54.828125 56.984375 36.375 
Q 56.984375 17.96875 50.515625 8.265625 
Q 44.046875 -1.421875 31.78125 -1.421875 
Q 19.53125 -1.421875 13.0625 8.265625 
Q 6.59375 17.96875 6.59375 36.375 
Q 6.59375 54.828125 13.0625 64.515625 
Q 19.53125 74.21875 31.78125 74.21875 
z
" id="DejaVuSans-30"/>
     <path d="M 19.1875 8.296875 
L 53.609375 8.296875 
L 53.609375 0 
L 7.328125 0 
L 7.328125 8.296875 
Q 12.9375 14.109375 22.625 23.890625 
Q 32.328125 33.6875 34.8125 36.53125 
Q 39.546875 41.84375 41.421875 45.53125 
Q 43.3125 49.21875 43.3125 52.78125 
Q 43.3125 58.59375 39.234375 62.25 
Q 35.15625 65.921875 28.609375 65.921875 
Q 23.96875 65.921875 18.8125 64.3125 
Q 13.671875 62.703125 7.8125 59.421875 
L 7.8125 69.390625 
Q 13.765625 71.78125 18.9375 73 
Q 24.125 74.21875 28.421875 74.21875 
Q 39.75 74.21875 46.484375 68.546875 
Q 53.21875 62.890625 53.21875 53.421875 
Q 53.21875 48.921875 51.53125 44.890625 
Q 49.859375 40.875 45.40625 35.40625 
Q 44.1875 33.984375 37.640625 27.21875 
Q 31.109375 20.453125 19.1875 8.296875 
z
" id="DejaVuSans-32"/>
    </defs>
    <g transform="translate(65.388 35.472)scale(0.12 -0.12)">
     <use transform="translate(0 0.78125)" xlink:href="#DejaVuSans-53"/>
     <use transform="translate(63.476562 0.78125)" xlink:href="#DejaVuSans-74"/>
     <use transform="translate(102.685547 0.78125)" xlink:href="#DejaVuSans-72"/>
     <use transform="translate(143.798828 0.78125)" xlink:href="#DejaVuSans-75"/>
     <use transform="translate(207.177734 0.78125)" xlink:href="#DejaVuSans-63"/>
     <use transform="translate(262.158203 0.78125)" xlink:href="#DejaVuSans-74"/>
     <use transform="translate(301.367188 0.78125)" xlink:href="#DejaVuSans-75"/>
     <use transform="translate(364.746094 0.78125)" xlink:href="#DejaVuSans-72"/>
     <use transform="translate(405.859375 0.78125)" xlink:href="#DejaVuSans-65"/>
     <use transform="translate(467.382812 0.78125)" xlink:href="#DejaVuSans-20"/>
     <use transform="translate(499.169922 0.78125)" xlink:href="#DejaVuSans-23"/>
     <use transform="translate(582.958984 0.78125)" xlink:href="#DejaVuSans-35"/>
     <use transform="translate(646.582031 0.78125)" xlink:href="#DejaVuSans-31"/>
     <use transform="translate(710.205078 0.78125)" xlink:href="#DejaVuSans-38"/>
     <use transform="translate(773.828125 0.78125)" xlink:href="#DejaVuSans-37"/>
     <use transform="translate(837.451172 0.78125)" xlink:href="#DejaVuSans-2c"/>
     <use transform="translate(869.238281 0.78125)" xlink:href="#DejaVuSans-20"/>
     <use transform="translate(901.025391 0.78125)" xlink:href="#DejaVuSans-Oblique-45"/>
     <use transform="translate(964.208984 -15.625)scale(0.7)" xlink:href="#DejaVuSans-Oblique-4e"/>
     <use transform="translate(1019.306641 0.78125)" xlink:href="#DejaVuSans-3d"/>
     <use transform="translate(1103.095703 0.78125)" xlink:href="#DejaVuSans-2d"/>
     <use transform="translate(1139.179688 0.78125)" xlink:href="#DejaVuSans-31"/>
     <use transform="translate(1202.802734 0.78125)" xlink:href="#DejaVuSans-37"/>
     <use transform="translate(1266.425781 0.78125)" xlink:href="#DejaVuSans-38"/>
     <use transform="translate(1330.048828 0.78125)" xlink:href="#DejaVuSans-2e"/>
     <use transform="translate(1361.835938 0.78125)" xlink:href="#DejaVuSans-31"/>
     <use transform="translate(1425.458984 0.78125)" xlink:href="#DejaVuSans-37"/>
     <use transform="translate(1489.082031 0.78125)" xlink:href="#DejaVuSans-65"/>
     <use transform="translate(1550.605469 0.78125)" xlink:href="#DejaVuSans-56"/>
     <use transform="translate(1619.013672 0.78125)" xlink:href="#DejaVuSans-2c"/>
     <use transform="translate(1650.800781 0.78125)" xlink:href="#DejaVuSans-20"/>
     <use transform="translate(1682.587891 0.78125)" xlink:href="#DejaVuSans-394"/>
     <use transform="translate(1750.996094 0.78125)" xlink:href="#DejaVuSans-45"/>
     <use transform="translate(1814.179688 0.78125)" xlink:href="#DejaVuSans-3d"/>
     <use transform="translate(1897.96875 0.78125)" xlink:href="#DejaVuSans-30"/>
     <use transform="translate(1961.591797 0.78125)" xlink:href="#DejaVuSans-2e"/>
     <use transform="translate(1993.300781 0.78125)" xlink:href="#DejaVuSans-32"/>
     <use transform="translate(2056.923828 0.78125)" xlink:href="#DejaVuSans-31"/>
     <use transform="translate(2120.546875 0.78125)" xlink:href="#DejaVuSans-65"/>
     <use transform="translate(2182.070312 0.78125)" xlink:href="#DejaVuSans-56"/>
    </g>
   </g>
  </g>
  <g id="axes_2">
   <g id="patch_2">
    <path clip-path="url(#p63efb44486)" d="M 361.152 307.584 
L 361.152 306.5445 
L 361.152 42.5115 
L 361.152 41.472 
L 374.4576 41.472 
L 374.4576 42.5115 
L 374.4576 306.5445 
L 374.4576 307.584 
z
" style="fill:#ffffff;stroke:#ffffff;stroke-linejoin:miter;stroke-width:0.01;"/>
   </g>
   <image height="265.68" id="imagea027184d85" transform="scale(1 -1)translate(0 -265.68)" width="12.96" x="361.44" xlink:href="data:image/png;base64,
iVBORw0KGgoAAAANSUhEUgAAABIAAAFxCAYAAAB+2fgXAAAABHNCSVQICAgIfAhkiAAAAeVJREFUeJztncmNw0AQA2ckheYQNv9QLIfQ8ygsCgQ7AEI8+jAs2Puz/94F1LP2ReCsZ18bAWIeZ5XaGRBE7VnbptG+KI101FYyNSiQG2oRITXKNaX9uclOdi2XWjftVE32CZCO2ou5Bj1TcCBr/1zB9ge7Fq0Rg2NM9pvbtG+ua1QgsRYhDy0ISEiNc40BEibbSI0Coj5CBGtkpFbXJiAjNZlrwhuSOv2M1DjXbEdEciBt1JSDDQKKpmZr2rr2j0DBGpXaWEJq3bQzEPIS26r9J+Wzv9Tm8o3aajRXqc3VUXsApKNWjeZq0x4ABVNbm7lrszVigDqP5vIl2+eaT2yfRkL7g+dRcNPqjohkjaCvRVBq0H2U3LQrOJCx9kdTg4B8oxZzzTdqdYHEngjUCAPyUctN9sVRq2sTECW2UKNLd2jVtRmo1A6AhMmWaSRcR8nUdIHUuVb75zJS218EyEitro1At69pIdeSk30Lkw0FktNImGyZRhy1O5galmxd03LUsHWk06jUZiCq+5Wb1kZNN4+wJxJuWt8RAW5am2sYNZ9rYCBzZ3buPKJ2P5Yj4Toy3keyIyJbIxs1rml1byCA84gpch5RQNB7Q0qNMGq2Hy4BXdNR41yz/cEEJfZzUz96r9PoB0okjeQ8y9TkAAAAAElFTkSuQmCC" y="-41.76"/>
   <g id="matplotlib.axis_1"/>
   <g id="matplotlib.axis_2">
    <g id="ytick_1">
     <g id="line2d_1">
      <defs>
       <path d="M 0 0 
L 3.5 0 
" id="m58a7b7704c" style="stroke:#000000;stroke-width:0.8;"/>
      </defs>
      <g>
       <use style="stroke:#000000;stroke-width:0.8;" x="374.4576" xlink:href="#m58a7b7704c" y="290.441999"/>
      </g>
     </g>
     <g id="text_2">
      <!-- −9.0 -->
      <defs>
       <path d="M 10.59375 35.5 
L 73.1875 35.5 
L 73.1875 27.203125 
L 10.59375 27.203125 
z
" id="DejaVuSans-2212"/>
       <path d="M 10.984375 1.515625 
L 10.984375 10.5 
Q 14.703125 8.734375 18.5 7.8125 
Q 22.3125 6.890625 25.984375 6.890625 
Q 35.75 6.890625 40.890625 13.453125 
Q 46.046875 20.015625 46.78125 33.40625 
Q 43.953125 29.203125 39.59375 26.953125 
Q 35.25 24.703125 29.984375 24.703125 
Q 19.046875 24.703125 12.671875 31.3125 
Q 6.296875 37.9375 6.296875 49.421875 
Q 6.296875 60.640625 12.9375 67.421875 
Q 19.578125 74.21875 30.609375 74.21875 
Q 43.265625 74.21875 49.921875 64.515625 
Q 56.59375 54.828125 56.59375 36.375 
Q 56.59375 19.140625 48.40625 8.859375 
Q 40.234375 -1.421875 26.421875 -1.421875 
Q 22.703125 -1.421875 18.890625 -0.6875 
Q 15.09375 0.046875 10.984375 1.515625 
z
M 30.609375 32.421875 
Q 37.25 32.421875 41.125 36.953125 
Q 45.015625 41.5 45.015625 49.421875 
Q 45.015625 57.28125 41.125 61.84375 
Q 37.25 66.40625 30.609375 66.40625 
Q 23.96875 66.40625 20.09375 61.84375 
Q 16.21875 57.28125 16.21875 49.421875 
Q 16.21875 41.5 20.09375 36.953125 
Q 23.96875 32.421875 30.609375 32.421875 
z
" id="DejaVuSans-39"/>
      </defs>
      <g transform="translate(381.4576 294.241218)scale(0.1 -0.1)">
       <use xlink:href="#DejaVuSans-2212"/>
       <use x="83.789062" xlink:href="#DejaVuSans-39"/>
       <use x="147.412109" xlink:href="#DejaVuSans-2e"/>
       <use x="179.199219" xlink:href="#DejaVuSans-30"/>
      </g>
     </g>
    </g>
    <g id="ytick_2">
     <g id="line2d_2">
      <g>
       <use style="stroke:#000000;stroke-width:0.8;" x="374.4576" xlink:href="#m58a7b7704c" y="260.208654"/>
      </g>
     </g>
     <g id="text_3">
      <!-- −8.5 -->
      <g transform="translate(381.4576 264.007873)scale(0.1 -0.1)">
       <use xlink:href="#DejaVuSans-2212"/>
       <use x="83.789062" xlink:href="#DejaVuSans-38"/>
       <use x="147.412109" xlink:href="#DejaVuSans-2e"/>
       <use x="179.199219" xlink:href="#DejaVuSans-35"/>
      </g>
     </g>
    </g>
    <g id="ytick_3">
     <g id="line2d_3">
      <g>
       <use style="stroke:#000000;stroke-width:0.8;" x="374.4576" xlink:href="#m58a7b7704c" y="229.975309"/>
      </g>
     </g>
     <g id="text_4">
      <!-- −8.0 -->
      <g transform="translate(381.4576 233.774528)scale(0.1 -0.1)">
       <use xlink:href="#DejaVuSans-2212"/>
       <use x="83.789062" xlink:href="#DejaVuSans-38"/>
       <use x="147.412109" xlink:href="#DejaVuSans-2e"/>
       <use x="179.199219" xlink:href="#DejaVuSans-30"/>
      </g>
     </g>
    </g>
    <g id="ytick_4">
     <g id="line2d_4">
      <g>
       <use style="stroke:#000000;stroke-width:0.8;" x="374.4576" xlink:href="#m58a7b7704c" y="199.741964"/>
      </g>
     </g>
     <g id="text_5">
      <!-- −7.5 -->
      <g transform="translate(381.4576 203.541183)scale(0.1 -0.1)">
       <use xlink:href="#DejaVuSans-2212"/>
       <use x="83.789062" xlink:href="#DejaVuSans-37"/>
       <use x="147.412109" xlink:href="#DejaVuSans-2e"/>
       <use x="179.199219" xlink:href="#DejaVuSans-35"/>
      </g>
     </g>
    </g>
    <g id="ytick_5">
     <g id="line2d_5">
      <g>
       <use style="stroke:#000000;stroke-width:0.8;" x="374.4576" xlink:href="#m58a7b7704c" y="169.508619"/>
      </g>
     </g>
     <g id="text_6">
      <!-- −7.0 -->
      <g transform="translate(381.4576 173.307838)scale(0.1 -0.1)">
       <use xlink:href="#DejaVuSans-2212"/>
       <use x="83.789062" xlink:href="#DejaVuSans-37"/>
       <use x="147.412109" xlink:href="#DejaVuSans-2e"/>
       <use x="179.199219" xlink:href="#DejaVuSans-30"/>
      </g>
     </g>
    </g>
    <g id="ytick_6">
     <g id="line2d_6">
      <g>
       <use style="stroke:#000000;stroke-width:0.8;" x="374.4576" xlink:href="#m58a7b7704c" y="139.275274"/>
      </g>
     </g>
     <g id="text_7">
      <!-- −6.5 -->
      <defs>
       <path d="M 33.015625 40.375 
Q 26.375 40.375 22.484375 35.828125 
Q 18.609375 31.296875 18.609375 23.390625 
Q 18.609375 15.53125 22.484375 10.953125 
Q 26.375 6.390625 33.015625 6.390625 
Q 39.65625 6.390625 43.53125 10.953125 
Q 47.40625 15.53125 47.40625 23.390625 
Q 47.40625 31.296875 43.53125 35.828125 
Q 39.65625 40.375 33.015625 40.375 
z
M 52.59375 71.296875 
L 52.59375 62.3125 
Q 48.875 64.0625 45.09375 64.984375 
Q 41.3125 65.921875 37.59375 65.921875 
Q 27.828125 65.921875 22.671875 59.328125 
Q 17.53125 52.734375 16.796875 39.40625 
Q 19.671875 43.65625 24.015625 45.921875 
Q 28.375 48.1875 33.59375 48.1875 
Q 44.578125 48.1875 50.953125 41.515625 
Q 57.328125 34.859375 57.328125 23.390625 
Q 57.328125 12.15625 50.6875 5.359375 
Q 44.046875 -1.421875 33.015625 -1.421875 
Q 20.359375 -1.421875 13.671875 8.265625 
Q 6.984375 17.96875 6.984375 36.375 
Q 6.984375 53.65625 15.1875 63.9375 
Q 23.390625 74.21875 37.203125 74.21875 
Q 40.921875 74.21875 44.703125 73.484375 
Q 48.484375 72.75 52.59375 71.296875 
z
" id="DejaVuSans-36"/>
      </defs>
      <g transform="translate(381.4576 143.074493)scale(0.1 -0.1)">
       <use xlink:href="#DejaVuSans-2212"/>
       <use x="83.789062" xlink:href="#DejaVuSans-36"/>
       <use x="147.412109" xlink:href="#DejaVuSans-2e"/>
       <use x="179.199219" xlink:href="#DejaVuSans-35"/>
      </g>
     </g>
    </g>
    <g id="ytick_7">
     <g id="line2d_7">
      <g>
       <use style="stroke:#000000;stroke-width:0.8;" x="374.4576" xlink:href="#m58a7b7704c" y="109.04193"/>
      </g>
     </g>
     <g id="text_8">
      <!-- −6.0 -->
      <g transform="translate(381.4576 112.841148)scale(0.1 -0.1)">
       <use xlink:href="#DejaVuSans-2212"/>
       <use x="83.789062" xlink:href="#DejaVuSans-36"/>
       <use x="147.412109" xlink:href="#DejaVuSans-2e"/>
       <use x="179.199219" xlink:href="#DejaVuSans-30"/>
      </g>
     </g>
    </g>
    <g id="ytick_8">
     <g id="line2d_8">
      <g>
       <use style="stroke:#000000;stroke-width:0.8;" x="374.4576" xlink:href="#m58a7b7704c" y="78.808585"/>
      </g>
     </g>
     <g id="text_9">
      <!-- −5.5 -->
      <g transform="translate(381.4576 82.607803)scale(0.1 -0.1)">
       <use xlink:href="#DejaVuSans-2212"/>
       <use x="83.789062" xlink:href="#DejaVuSans-35"/>
       <use x="147.412109" xlink:href="#DejaVuSans-2e"/>
       <use x="179.199219" xlink:href="#DejaVuSans-35"/>
      </g>
     </g>
    </g>
    <g id="ytick_9">
     <g id="line2d_9">
      <g>
       <use style="stroke:#000000;stroke-width:0.8;" x="374.4576" xlink:href="#m58a7b7704c" y="48.57524"/>
      </g>
     </g>
     <g id="text_10">
      <!-- −5.0 -->
      <g transform="translate(381.4576 52.374459)scale(0.1 -0.1)">
       <use xlink:href="#DejaVuSans-2212"/>
       <use x="83.789062" xlink:href="#DejaVuSans-35"/>
       <use x="147.412109" xlink:href="#DejaVuSans-2e"/>
       <use x="179.199219" xlink:href="#DejaVuSans-30"/>
      </g>
     </g>
    </g>
    <g id="text_11">
     <!-- Energy [eV] -->
     <defs>
      <path d="M 54.890625 33.015625 
L 54.890625 0 
L 45.90625 0 
L 45.90625 32.71875 
Q 45.90625 40.484375 42.875 44.328125 
Q 39.84375 48.1875 33.796875 48.1875 
Q 26.515625 48.1875 22.3125 43.546875 
Q 18.109375 38.921875 18.109375 30.90625 
L 18.109375 0 
L 9.078125 0 
L 9.078125 54.6875 
L 18.109375 54.6875 
L 18.109375 46.1875 
Q 21.34375 51.125 25.703125 53.5625 
Q 30.078125 56 35.796875 56 
Q 45.21875 56 50.046875 50.171875 
Q 54.890625 44.34375 54.890625 33.015625 
z
" id="DejaVuSans-6e"/>
      <path d="M 45.40625 27.984375 
Q 45.40625 37.75 41.375 43.109375 
Q 37.359375 48.484375 30.078125 48.484375 
Q 22.859375 48.484375 18.828125 43.109375 
Q 14.796875 37.75 14.796875 27.984375 
Q 14.796875 18.265625 18.828125 12.890625 
Q 22.859375 7.515625 30.078125 7.515625 
Q 37.359375 7.515625 41.375 12.890625 
Q 45.40625 18.265625 45.40625 27.984375 
z
M 54.390625 6.78125 
Q 54.390625 -7.171875 48.1875 -13.984375 
Q 42 -20.796875 29.203125 -20.796875 
Q 24.46875 -20.796875 20.265625 -20.09375 
Q 16.0625 -19.390625 12.109375 -17.921875 
L 12.109375 -9.1875 
Q 16.0625 -11.328125 19.921875 -12.34375 
Q 23.78125 -13.375 27.78125 -13.375 
Q 36.625 -13.375 41.015625 -8.765625 
Q 45.40625 -4.15625 45.40625 5.171875 
L 45.40625 9.625 
Q 42.625 4.78125 38.28125 2.390625 
Q 33.9375 0 27.875 0 
Q 17.828125 0 11.671875 7.65625 
Q 5.515625 15.328125 5.515625 27.984375 
Q 5.515625 40.671875 11.671875 48.328125 
Q 17.828125 56 27.875 56 
Q 33.9375 56 38.28125 53.609375 
Q 42.625 51.21875 45.40625 46.390625 
L 45.40625 54.6875 
L 54.390625 54.6875 
z
" id="DejaVuSans-67"/>
      <path d="M 32.171875 -5.078125 
Q 28.375 -14.84375 24.75 -17.8125 
Q 21.140625 -20.796875 15.09375 -20.796875 
L 7.90625 -20.796875 
L 7.90625 -13.28125 
L 13.1875 -13.28125 
Q 16.890625 -13.28125 18.9375 -11.515625 
Q 21 -9.765625 23.484375 -3.21875 
L 25.09375 0.875 
L 2.984375 54.6875 
L 12.5 54.6875 
L 29.59375 11.921875 
L 46.6875 54.6875 
L 56.203125 54.6875 
z
" id="DejaVuSans-79"/>
      <path d="M 8.59375 75.984375 
L 29.296875 75.984375 
L 29.296875 69 
L 17.578125 69 
L 17.578125 -6.203125 
L 29.296875 -6.203125 
L 29.296875 -13.1875 
L 8.59375 -13.1875 
z
" id="DejaVuSans-5b"/>
      <path d="M 30.421875 75.984375 
L 30.421875 -13.1875 
L 9.71875 -13.1875 
L 9.71875 -6.203125 
L 21.390625 -6.203125 
L 21.390625 69 
L 9.71875 69 
L 9.71875 75.984375 
z
" id="DejaVuSans-5d"/>
     </defs>
     <g transform="translate(417.33885 204.108469)rotate(-90)scale(0.1 -0.1)">
      <use xlink:href="#DejaVuSans-45"/>
      <use x="63.183594" xlink:href="#DejaVuSans-6e"/>
      <use x="126.5625" xlink:href="#DejaVuSans-65"/>
      <use x="188.085938" xlink:href="#DejaVuSans-72"/>
      <use x="229.183594" xlink:href="#DejaVuSans-67"/>
      <use x="292.660156" xlink:href="#DejaVuSans-79"/>
      <use x="351.839844" xlink:href="#DejaVuSans-20"/>
      <use x="383.626953" xlink:href="#DejaVuSans-5b"/>
      <use x="422.640625" xlink:href="#DejaVuSans-65"/>
      <use x="484.164062" xlink:href="#DejaVuSans-56"/>
      <use x="552.572266" xlink:href="#DejaVuSans-5d"/>
     </g>
    </g>
   </g>
   <g id="patch_3">
    <path d="M 361.152 307.584 
L 361.152 306.5445 
L 361.152 42.5115 
L 361.152 41.472 
L 374.4576 41.472 
L 374.4576 42.5115 
L 374.4576 306.5445 
L 374.4576 307.584 
z
" style="fill:none;stroke:#000000;stroke-linejoin:miter;stroke-width:0.8;"/>
   </g>
  </g>
 </g>
 <defs>
  <clipPath id="p5ad0a61a7a">
   <rect height="266.112" width="285.696" x="57.6" y="41.472"/>
  </clipPath>
  <clipPath id="p63efb44486">
   <rect height="266.112" width="13.3056" x="361.152" y="41.472"/>
  </clipPath>
 </defs>
</svg>
