<?xml version="1.0" encoding="utf-8" standalone="no"?>
<!DOCTYPE svg PUBLIC "-//W3C//DTD SVG 1.1//EN"
  "http://www.w3.org/Graphics/SVG/1.1/DTD/svg11.dtd">
<!-- Created with matplotlib (http://matplotlib.org/) -->
<svg height="345.6pt" version="1.1" viewBox="0 0 460.8 345.6" width="460.8pt" xmlns="http://www.w3.org/2000/svg" xmlns:xlink="http://www.w3.org/1999/xlink">
 <defs>
  <style type="text/css">
*{stroke-linecap:butt;stroke-linejoin:round;}
  </style>
 </defs>
 <g id="figure_1">
  <g id="patch_1">
   <path d="M 0 345.6 
L 460.8 345.6 
L 460.8 0 
L 0 0 
z
" style="fill:#ffffff;"/>
  </g>
  <g id="axes_1">
   <g id="CircleCollection_1">
    <path clip-path="url(#p8b971d9775)" d="M 285.581756 291.085372 
C 287.313574 291.085372 288.974695 290.397313 290.199276 289.172733 
C 291.423857 287.948152 292.111915 286.287031 292.111915 284.555213 
C 292.111915 282.823394 291.423857 281.162273 290.199276 279.937692 
C 288.974695 278.713112 287.313574 278.025053 285.581756 278.025053 
C 283.849937 278.025053 282.188816 278.713112 280.964235 279.937692 
C 279.739655 281.162273 279.051596 282.823394 279.051596 284.555213 
C 279.051596 286.287031 279.739655 287.948152 280.964235 289.172733 
C 282.188816 290.397313 283.849937 291.085372 285.581756 291.085372 
z
" style="fill:#297a8e;"/>
    <path clip-path="url(#p8b971d9775)" d="M 288.672182 139.24156 
C 290.478351 139.24156 292.210786 138.523962 293.48794 137.246808 
C 294.765093 135.969654 295.482692 134.237219 295.482692 132.431051 
C 295.482692 130.624882 294.765093 128.892447 293.48794 127.615293 
C 292.210786 126.338139 290.478351 125.620541 288.672182 125.620541 
C 286.866014 125.620541 285.133579 126.338139 283.856425 127.615293 
C 282.579271 128.892447 281.861673 130.624882 281.861673 132.431051 
C 281.861673 134.237219 282.579271 135.969654 283.856425 137.246808 
C 285.133579 138.523962 286.866014 139.24156 288.672182 139.24156 
z
" style="fill:#2d718e;"/>
    <path clip-path="url(#p8b971d9775)" d="M 329.835059 236.378027 
C 331.598167 236.378027 333.289299 235.677537 334.536005 234.430831 
C 335.78271 233.184126 336.4832 231.492993 336.4832 229.729886 
C 336.4832 227.966778 335.78271 226.275646 334.536005 225.02894 
C 333.289299 223.782235 331.598167 223.081745 329.835059 223.081745 
C 328.071952 223.081745 326.380819 223.782235 325.134114 225.02894 
C 323.887409 226.275646 323.186918 227.966778 323.186918 229.729886 
C 323.186918 231.492993 323.887409 233.184126 325.134114 234.430831 
C 326.380819 235.677537 328.071952 236.378027 329.835059 236.378027 
z
" style="fill:#287c8e;"/>
    <path clip-path="url(#p8b971d9775)" d="M 146.210276 105.564529 
C 148.009114 105.564529 149.734519 104.849843 151.00649 103.577872 
C 152.278461 102.305901 152.993147 100.580496 152.993147 98.781657 
C 152.993147 96.982819 152.278461 95.257414 151.00649 93.985443 
C 149.734519 92.713472 148.009114 91.998786 146.210276 91.998786 
C 144.411437 91.998786 142.686032 92.713472 141.414061 93.985443 
C 140.14209 95.257414 139.427404 96.982819 139.427404 98.781657 
C 139.427404 100.580496 140.14209 102.305901 141.414061 103.577872 
C 142.686032 104.849843 144.411437 105.564529 146.210276 105.564529 
z
" style="fill:#440154;"/>
    <path clip-path="url(#p8b971d9775)" d="M 85.919872 138.438189 
C 87.694884 138.438189 89.397435 137.73297 90.652558 136.477847 
C 91.907681 135.222724 92.612901 133.520172 92.612901 131.74516 
C 92.612901 129.970148 91.907681 128.267597 90.652558 127.012474 
C 89.397435 125.757351 87.694884 125.052131 85.919872 125.052131 
C 84.14486 125.052131 82.442308 125.757351 81.187185 127.012474 
C 79.932062 128.267597 79.226843 129.970148 79.226843 131.74516 
C 79.226843 133.520172 79.932062 135.222724 81.187185 136.477847 
C 82.442308 137.73297 84.14486 138.438189 85.919872 138.438189 
z
" style="fill:#453781;"/>
    <path clip-path="url(#p8b971d9775)" d="M 314.280344 167.263969 
C 316.076443 167.263969 317.799221 166.550371 319.069255 165.280337 
C 320.339289 164.010303 321.052887 162.287526 321.052887 160.491427 
C 321.052887 158.695327 320.339289 156.97255 319.069255 155.702516 
C 317.799221 154.432482 316.076443 153.718884 314.280344 153.718884 
C 312.484245 153.718884 310.761467 154.432482 309.491433 155.702516 
C 308.221399 156.97255 307.507802 158.695327 307.507802 160.491427 
C 307.507802 162.287526 308.221399 164.010303 309.491433 165.280337 
C 310.761467 166.550371 312.484245 167.263969 314.280344 167.263969 
z
" style="fill:#2a768e;"/>
    <path clip-path="url(#p8b971d9775)" d="M 258.121081 119.888194 
C 259.931637 119.888194 261.668281 119.168852 262.948537 117.888596 
C 264.228793 116.60834 264.948134 114.871697 264.948134 113.061141 
C 264.948134 111.250586 264.228793 109.513942 262.948537 108.233686 
C 261.668281 106.95343 259.931637 106.234089 258.121081 106.234089 
C 256.310526 106.234089 254.573882 106.95343 253.293626 108.233686 
C 252.01337 109.513942 251.294029 111.250586 251.294029 113.061141 
C 251.294029 114.871697 252.01337 116.60834 253.293626 117.888596 
C 254.573882 119.168852 256.310526 119.888194 258.121081 119.888194 
z
" style="fill:#2a768e;"/>
    <path clip-path="url(#p8b971d9775)" d="M 80.065711 60.873602 
C 81.864501 60.873602 83.58986 60.158935 84.861797 58.886998 
C 86.133734 57.615061 86.848401 55.889702 86.848401 54.090912 
C 86.848401 52.292121 86.133734 50.566762 84.861797 49.294825 
C 83.58986 48.022888 81.864501 47.308221 80.065711 47.308221 
C 78.26692 47.308221 76.541562 48.022888 75.269625 49.294825 
C 73.997688 50.566762 73.283021 52.292121 73.283021 54.090912 
C 73.283021 55.889702 73.997688 57.615061 75.269625 58.886998 
C 76.541562 60.158935 78.26692 60.873602 80.065711 60.873602 
z
" style="fill:#8ed645;"/>
    <path clip-path="url(#p8b971d9775)" d="M 163.725783 210.09236 
C 165.487399 210.09236 167.177101 209.392462 168.422752 208.146811 
C 169.668403 206.901161 170.3683 205.211458 170.3683 203.449842 
C 170.3683 201.688226 169.668403 199.998524 168.422752 198.752873 
C 167.177101 197.507222 165.487399 196.807325 163.725783 196.807325 
C 161.964166 196.807325 160.274464 197.507222 159.028814 198.752873 
C 157.783163 199.998524 157.083265 201.688226 157.083265 203.449842 
C 157.083265 205.211458 157.783163 206.901161 159.028814 208.146811 
C 160.274464 209.392462 161.964166 210.09236 163.725783 210.09236 
z
" style="fill:#c8e020;"/>
    <path clip-path="url(#p8b971d9775)" d="M 154.611245 249.439757 
C 156.355496 249.439757 158.028541 248.746759 159.261912 247.513388 
C 160.495283 246.280016 161.188281 244.606971 161.188281 242.862721 
C 161.188281 241.118471 160.495283 239.445426 159.261912 238.212055 
C 158.028541 236.978683 156.355496 236.285685 154.611245 236.285685 
C 152.866995 236.285685 151.19395 236.978683 149.960579 238.212055 
C 148.727208 239.445426 148.03421 241.118471 148.03421 242.862721 
C 148.03421 244.606971 148.727208 246.280016 149.960579 247.513388 
C 151.19395 248.746759 152.866995 249.439757 154.611245 249.439757 
z
" style="fill:#482071;"/>
    <path clip-path="url(#p8b971d9775)" d="M 115.713292 240.205354 
C 117.457847 240.205354 119.131185 239.512235 120.364771 238.278648 
C 121.598358 237.045061 122.291477 235.371724 122.291477 233.627169 
C 122.291477 231.882614 121.598358 230.209277 120.364771 228.97569 
C 119.131185 227.742104 117.457847 227.048985 115.713292 227.048985 
C 113.968737 227.048985 112.2954 227.742104 111.061813 228.97569 
C 109.828227 230.209277 109.135108 231.882614 109.135108 233.627169 
C 109.135108 235.371724 109.828227 237.045061 111.061813 238.278648 
C 112.2954 239.512235 113.968737 240.205354 115.713292 240.205354 
z
" style="fill:#fde725;"/>
    <path clip-path="url(#p8b971d9775)" d="M 128.04466 141.293342 
C 129.827478 141.293342 131.537516 140.585021 132.798159 139.324379 
C 134.058801 138.063736 134.767123 136.353698 134.767123 134.57088 
C 134.767123 132.788062 134.058801 131.078024 132.798159 129.817382 
C 131.537516 128.556739 129.827478 127.848418 128.04466 127.848418 
C 126.261843 127.848418 124.551804 128.556739 123.291162 129.817382 
C 122.030519 131.078024 121.322198 132.788062 121.322198 134.57088 
C 121.322198 136.353698 122.030519 138.063736 123.291162 139.324379 
C 124.551804 140.585021 126.261843 141.293342 128.04466 141.293342 
z
" style="fill:#404588;"/>
    <path clip-path="url(#p8b971d9775)" d="M 76.519316 100.340473 
C 78.305116 100.340473 80.018015 99.630967 81.280766 98.368216 
C 82.543517 97.105465 83.253023 95.392567 83.253023 93.606767 
C 83.253023 91.820967 82.543517 90.108068 81.280766 88.845317 
C 80.018015 87.582566 78.305116 86.87306 76.519316 86.87306 
C 74.733517 86.87306 73.020618 87.582566 71.757867 88.845317 
C 70.495116 90.108068 69.78561 91.820967 69.78561 93.606767 
C 69.78561 95.392567 70.495116 97.105465 71.757867 98.368216 
C 73.020618 99.630967 74.733517 100.340473 76.519316 100.340473 
z
" style="fill:#1f9f88;"/>
    <path clip-path="url(#p8b971d9775)" d="M 213.04259 293.556508 
C 214.769184 293.556508 216.425293 292.870525 217.646179 291.649639 
C 218.867065 290.428753 219.553048 288.772644 219.553048 287.04605 
C 219.553048 285.319456 218.867065 283.663347 217.646179 282.442461 
C 216.425293 281.221575 214.769184 280.535592 213.04259 280.535592 
C 211.315996 280.535592 209.659887 281.221575 208.439001 282.442461 
C 207.218115 283.663347 206.532132 285.319456 206.532132 287.04605 
C 206.532132 288.772644 207.218115 290.428753 208.439001 291.649639 
C 209.659887 292.870525 211.315996 293.556508 213.04259 293.556508 
z
" style="fill:#2e6f8e;"/>
    <path clip-path="url(#p8b971d9775)" d="M 221.498477 107.642655 
C 223.309311 107.642655 225.046221 106.923203 226.326674 105.64275 
C 227.607127 104.362297 228.326579 102.625387 228.326579 100.814553 
C 228.326579 99.003719 227.607127 97.266809 226.326674 95.986356 
C 225.046221 94.705903 223.309311 93.986451 221.498477 93.986451 
C 219.687643 93.986451 217.950733 94.705903 216.67028 95.986356 
C 215.389827 97.266809 214.670375 99.003719 214.670375 100.814553 
C 214.670375 102.625387 215.389827 104.362297 216.67028 105.64275 
C 217.950733 106.923203 219.687643 107.642655 221.498477 107.642655 
z
" style="fill:#30698e;"/>
    <path clip-path="url(#p8b971d9775)" d="M 329.921009 199.262413 
C 331.703022 199.262413 333.412289 198.554412 334.672362 197.294338 
C 335.932436 196.034265 336.640437 194.324998 336.640437 192.542985 
C 336.640437 190.760971 335.932436 189.051705 334.672362 187.791631 
C 333.412289 186.531557 331.703022 185.823556 329.921009 185.823556 
C 328.138995 185.823556 326.429729 186.531557 325.169655 187.791631 
C 323.909581 189.051705 323.20158 190.760971 323.20158 192.542985 
C 323.20158 194.324998 323.909581 196.034265 325.169655 197.294338 
C 326.429729 198.554412 328.138995 199.262413 329.921009 199.262413 
z
" style="fill:#2a788e;"/>
    <path clip-path="url(#p8b971d9775)" d="M 316.42457 269.108963 
C 318.170255 269.108963 319.844678 268.415394 321.079064 267.181008 
C 322.31345 265.946622 323.007018 264.2722 323.007018 262.526514 
C 323.007018 260.780828 322.31345 259.106406 321.079064 257.87202 
C 319.844678 256.637633 318.170255 255.944065 316.42457 255.944065 
C 314.678884 255.944065 313.004462 256.637633 311.770075 257.87202 
C 310.535689 259.106406 309.842121 260.780828 309.842121 262.526514 
C 309.842121 264.2722 310.535689 265.946622 311.770075 267.181008 
C 313.004462 268.415394 314.678884 269.108963 316.42457 269.108963 
z
" style="fill:#287d8e;"/>
    <path clip-path="url(#p8b971d9775)" d="M 250.865603 301.489791 
C 252.590258 301.489791 254.244509 300.804578 255.464025 299.585062 
C 256.683541 298.365546 257.368754 296.711295 257.368754 294.98664 
C 257.368754 293.261984 256.683541 291.607733 255.464025 290.388217 
C 254.244509 289.168701 252.590258 288.483488 250.865603 288.483488 
C 249.140947 288.483488 247.486696 289.168701 246.26718 290.388217 
C 245.047664 291.607733 244.362451 293.261984 244.362451 294.98664 
C 244.362451 296.711295 245.047664 298.365546 246.26718 299.585062 
C 247.486696 300.804578 249.140947 301.489791 250.865603 301.489791 
z
" style="fill:#287d8e;"/>
    <path clip-path="url(#p8b971d9775)" d="M 186.168037 100.937577 
C 187.975812 100.937577 189.709788 100.21934 190.988079 98.94105 
C 192.266369 97.66276 192.984605 95.928783 192.984605 94.121008 
C 192.984605 92.313233 192.266369 90.579256 190.988079 89.300966 
C 189.709788 88.022676 187.975812 87.304439 186.168037 87.304439 
C 184.360262 87.304439 182.626285 88.022676 181.347995 89.300966 
C 180.069705 90.579256 179.351468 92.313233 179.351468 94.121008 
C 179.351468 95.928783 180.069705 97.66276 181.347995 98.94105 
C 182.626285 100.21934 184.360262 100.937577 186.168037 100.937577 
z
" style="fill:#1f968b;"/>
    <path clip-path="url(#p8b971d9775)" d="M 101.264609 202.243585 
C 103.024802 202.243585 104.71314 201.544253 105.957784 200.299609 
C 107.202429 199.054964 107.901761 197.366627 107.901761 195.606433 
C 107.901761 193.84624 107.202429 192.157902 105.957784 190.913258 
C 104.71314 189.668613 103.024802 188.969281 101.264609 188.969281 
C 99.504416 188.969281 97.816078 189.668613 96.571434 190.913258 
C 95.326789 192.157902 94.627457 193.84624 94.627457 195.606433 
C 94.627457 197.366627 95.326789 199.054964 96.571434 200.299609 
C 97.816078 201.544253 99.504416 202.243585 101.264609 202.243585 
z
" style="fill:#463480;"/>
    <path clip-path="url(#p8b971d9775)" d="M 70.970203 176.639351 
C 72.730267 176.639351 74.418482 175.94007 75.663035 174.695516 
C 76.907589 173.450962 77.606871 171.762748 77.606871 170.002683 
C 77.606871 168.242618 76.907589 166.554404 75.663035 165.30985 
C 74.418482 164.065297 72.730267 163.366015 70.970203 163.366015 
C 69.210138 163.366015 67.521923 164.065297 66.27737 165.30985 
C 65.032816 166.554404 64.333535 168.242618 64.333535 170.002683 
C 64.333535 171.762748 65.032816 173.450962 66.27737 174.695516 
C 67.521923 175.94007 69.210138 176.639351 70.970203 176.639351 
z
" style="fill:#f1e51d;"/>
    <path clip-path="url(#p8b971d9775)" d="M 115.585308 78.521666 
C 117.387269 78.521666 119.11567 77.805739 120.389849 76.53156 
C 121.664028 75.257381 122.379955 73.52898 122.379955 71.727019 
C 122.379955 69.925057 121.664028 68.196657 120.389849 66.922478 
C 119.11567 65.648299 117.387269 64.932372 115.585308 64.932372 
C 113.783347 64.932372 112.054946 65.648299 110.780767 66.922478 
C 109.506588 68.196657 108.790661 69.925057 108.790661 71.727019 
C 108.790661 73.52898 109.506588 75.257381 110.780767 76.53156 
C 112.054946 77.805739 113.783347 78.521666 115.585308 78.521666 
z
" style="fill:#22a884;"/>
    <path clip-path="url(#p8b971d9775)" d="M 137.211069 181.476843 
C 138.984579 181.476843 140.685689 180.77222 141.93975 179.51816 
C 143.193811 178.264099 143.898434 176.562988 143.898434 174.789478 
C 143.898434 173.015969 143.193811 171.314858 141.93975 170.060797 
C 140.685689 168.806737 138.984579 168.102114 137.211069 168.102114 
C 135.437559 168.102114 133.736449 168.806737 132.482388 170.060797 
C 131.228327 171.314858 130.523704 173.015969 130.523704 174.789478 
C 130.523704 176.562988 131.228327 178.264099 132.482388 179.51816 
C 133.736449 180.77222 135.437559 181.476843 137.211069 181.476843 
z
" style="fill:#443983;"/>
    <path clip-path="url(#p8b971d9775)" d="M 179.684188 280.058034 
C 181.41641 280.058034 183.077917 279.369815 184.302783 278.144949 
C 185.527649 276.920084 186.215868 275.258576 186.215868 273.526354 
C 186.215868 271.794132 185.527649 270.132625 184.302783 268.907759 
C 183.077917 267.682893 181.41641 266.994674 179.684188 266.994674 
C 177.951966 266.994674 176.290458 267.682893 175.065593 268.907759 
C 173.840727 270.132625 173.152508 271.794132 173.152508 273.526354 
C 173.152508 275.258576 173.840727 276.920084 175.065593 278.144949 
C 176.290458 279.369815 177.951966 280.058034 179.684188 280.058034 
z
" style="fill:#20928c;"/>
   </g>
   <g id="text_1">
    <!-- Structure #3806, $E_N$=-181.00eV, ΔE=-0.06eV -->
    <defs>
     <path d="M 53.515625 70.515625 
L 53.515625 60.890625 
Q 47.90625 63.578125 42.921875 64.890625 
Q 37.9375 66.21875 33.296875 66.21875 
Q 25.25 66.21875 20.875 63.09375 
Q 16.5 59.96875 16.5 54.203125 
Q 16.5 49.359375 19.40625 46.890625 
Q 22.3125 44.4375 30.421875 42.921875 
L 36.375 41.703125 
Q 47.40625 39.59375 52.65625 34.296875 
Q 57.90625 29 57.90625 20.125 
Q 57.90625 9.515625 50.796875 4.046875 
Q 43.703125 -1.421875 29.984375 -1.421875 
Q 24.8125 -1.421875 18.96875 -0.25 
Q 13.140625 0.921875 6.890625 3.21875 
L 6.890625 13.375 
Q 12.890625 10.015625 18.65625 8.296875 
Q 24.421875 6.59375 29.984375 6.59375 
Q 38.421875 6.59375 43.015625 9.90625 
Q 47.609375 13.234375 47.609375 19.390625 
Q 47.609375 24.75 44.3125 27.78125 
Q 41.015625 30.8125 33.5 32.328125 
L 27.484375 33.5 
Q 16.453125 35.6875 11.515625 40.375 
Q 6.59375 45.0625 6.59375 53.421875 
Q 6.59375 63.09375 13.40625 68.65625 
Q 20.21875 74.21875 32.171875 74.21875 
Q 37.3125 74.21875 42.625 73.28125 
Q 47.953125 72.359375 53.515625 70.515625 
z
" id="DejaVuSans-53"/>
     <path d="M 18.3125 70.21875 
L 18.3125 54.6875 
L 36.8125 54.6875 
L 36.8125 47.703125 
L 18.3125 47.703125 
L 18.3125 18.015625 
Q 18.3125 11.328125 20.140625 9.421875 
Q 21.96875 7.515625 27.59375 7.515625 
L 36.8125 7.515625 
L 36.8125 0 
L 27.59375 0 
Q 17.1875 0 13.234375 3.875 
Q 9.28125 7.765625 9.28125 18.015625 
L 9.28125 47.703125 
L 2.6875 47.703125 
L 2.6875 54.6875 
L 9.28125 54.6875 
L 9.28125 70.21875 
z
" id="DejaVuSans-74"/>
     <path d="M 41.109375 46.296875 
Q 39.59375 47.171875 37.8125 47.578125 
Q 36.03125 48 33.890625 48 
Q 26.265625 48 22.1875 43.046875 
Q 18.109375 38.09375 18.109375 28.8125 
L 18.109375 0 
L 9.078125 0 
L 9.078125 54.6875 
L 18.109375 54.6875 
L 18.109375 46.1875 
Q 20.953125 51.171875 25.484375 53.578125 
Q 30.03125 56 36.53125 56 
Q 37.453125 56 38.578125 55.875 
Q 39.703125 55.765625 41.0625 55.515625 
z
" id="DejaVuSans-72"/>
     <path d="M 8.5 21.578125 
L 8.5 54.6875 
L 17.484375 54.6875 
L 17.484375 21.921875 
Q 17.484375 14.15625 20.5 10.265625 
Q 23.53125 6.390625 29.59375 6.390625 
Q 36.859375 6.390625 41.078125 11.03125 
Q 45.3125 15.671875 45.3125 23.6875 
L 45.3125 54.6875 
L 54.296875 54.6875 
L 54.296875 0 
L 45.3125 0 
L 45.3125 8.40625 
Q 42.046875 3.421875 37.71875 1 
Q 33.40625 -1.421875 27.6875 -1.421875 
Q 18.265625 -1.421875 13.375 4.4375 
Q 8.5 10.296875 8.5 21.578125 
z
M 31.109375 56 
z
" id="DejaVuSans-75"/>
     <path d="M 48.78125 52.59375 
L 48.78125 44.1875 
Q 44.96875 46.296875 41.140625 47.34375 
Q 37.3125 48.390625 33.40625 48.390625 
Q 24.65625 48.390625 19.8125 42.84375 
Q 14.984375 37.3125 14.984375 27.296875 
Q 14.984375 17.28125 19.8125 11.734375 
Q 24.65625 6.203125 33.40625 6.203125 
Q 37.3125 6.203125 41.140625 7.25 
Q 44.96875 8.296875 48.78125 10.40625 
L 48.78125 2.09375 
Q 45.015625 0.34375 40.984375 -0.53125 
Q 36.96875 -1.421875 32.421875 -1.421875 
Q 20.0625 -1.421875 12.78125 6.34375 
Q 5.515625 14.109375 5.515625 27.296875 
Q 5.515625 40.671875 12.859375 48.328125 
Q 20.21875 56 33.015625 56 
Q 37.15625 56 41.109375 55.140625 
Q 45.0625 54.296875 48.78125 52.59375 
z
" id="DejaVuSans-63"/>
     <path d="M 56.203125 29.59375 
L 56.203125 25.203125 
L 14.890625 25.203125 
Q 15.484375 15.921875 20.484375 11.0625 
Q 25.484375 6.203125 34.421875 6.203125 
Q 39.59375 6.203125 44.453125 7.46875 
Q 49.3125 8.734375 54.109375 11.28125 
L 54.109375 2.78125 
Q 49.265625 0.734375 44.1875 -0.34375 
Q 39.109375 -1.421875 33.890625 -1.421875 
Q 20.796875 -1.421875 13.15625 6.1875 
Q 5.515625 13.8125 5.515625 26.8125 
Q 5.515625 40.234375 12.765625 48.109375 
Q 20.015625 56 32.328125 56 
Q 43.359375 56 49.78125 48.890625 
Q 56.203125 41.796875 56.203125 29.59375 
z
M 47.21875 32.234375 
Q 47.125 39.59375 43.09375 43.984375 
Q 39.0625 48.390625 32.421875 48.390625 
Q 24.90625 48.390625 20.390625 44.140625 
Q 15.875 39.890625 15.1875 32.171875 
z
" id="DejaVuSans-65"/>
     <path id="DejaVuSans-20"/>
     <path d="M 51.125 44 
L 36.921875 44 
L 32.8125 27.6875 
L 47.125 27.6875 
z
M 43.796875 71.78125 
L 38.71875 51.515625 
L 52.984375 51.515625 
L 58.109375 71.78125 
L 65.921875 71.78125 
L 60.890625 51.515625 
L 76.125 51.515625 
L 76.125 44 
L 58.984375 44 
L 54.984375 27.6875 
L 70.515625 27.6875 
L 70.515625 20.21875 
L 53.078125 20.21875 
L 48 0 
L 40.1875 0 
L 45.21875 20.21875 
L 30.90625 20.21875 
L 25.875 0 
L 18.015625 0 
L 23.09375 20.21875 
L 7.71875 20.21875 
L 7.71875 27.6875 
L 24.90625 27.6875 
L 29 44 
L 13.28125 44 
L 13.28125 51.515625 
L 30.90625 51.515625 
L 35.890625 71.78125 
z
" id="DejaVuSans-23"/>
     <path d="M 40.578125 39.3125 
Q 47.65625 37.796875 51.625 33 
Q 55.609375 28.21875 55.609375 21.1875 
Q 55.609375 10.40625 48.1875 4.484375 
Q 40.765625 -1.421875 27.09375 -1.421875 
Q 22.515625 -1.421875 17.65625 -0.515625 
Q 12.796875 0.390625 7.625 2.203125 
L 7.625 11.71875 
Q 11.71875 9.328125 16.59375 8.109375 
Q 21.484375 6.890625 26.8125 6.890625 
Q 36.078125 6.890625 40.9375 10.546875 
Q 45.796875 14.203125 45.796875 21.1875 
Q 45.796875 27.640625 41.28125 31.265625 
Q 36.765625 34.90625 28.71875 34.90625 
L 20.21875 34.90625 
L 20.21875 43.015625 
L 29.109375 43.015625 
Q 36.375 43.015625 40.234375 45.921875 
Q 44.09375 48.828125 44.09375 54.296875 
Q 44.09375 59.90625 40.109375 62.90625 
Q 36.140625 65.921875 28.71875 65.921875 
Q 24.65625 65.921875 20.015625 65.03125 
Q 15.375 64.15625 9.8125 62.3125 
L 9.8125 71.09375 
Q 15.4375 72.65625 20.34375 73.4375 
Q 25.25 74.21875 29.59375 74.21875 
Q 40.828125 74.21875 47.359375 69.109375 
Q 53.90625 64.015625 53.90625 55.328125 
Q 53.90625 49.265625 50.4375 45.09375 
Q 46.96875 40.921875 40.578125 39.3125 
z
" id="DejaVuSans-33"/>
     <path d="M 31.78125 34.625 
Q 24.75 34.625 20.71875 30.859375 
Q 16.703125 27.09375 16.703125 20.515625 
Q 16.703125 13.921875 20.71875 10.15625 
Q 24.75 6.390625 31.78125 6.390625 
Q 38.8125 6.390625 42.859375 10.171875 
Q 46.921875 13.96875 46.921875 20.515625 
Q 46.921875 27.09375 42.890625 30.859375 
Q 38.875 34.625 31.78125 34.625 
z
M 21.921875 38.8125 
Q 15.578125 40.375 12.03125 44.71875 
Q 8.5 49.078125 8.5 55.328125 
Q 8.5 64.0625 14.71875 69.140625 
Q 20.953125 74.21875 31.78125 74.21875 
Q 42.671875 74.21875 48.875 69.140625 
Q 55.078125 64.0625 55.078125 55.328125 
Q 55.078125 49.078125 51.53125 44.71875 
Q 48 40.375 41.703125 38.8125 
Q 48.828125 37.15625 52.796875 32.3125 
Q 56.78125 27.484375 56.78125 20.515625 
Q 56.78125 9.90625 50.3125 4.234375 
Q 43.84375 -1.421875 31.78125 -1.421875 
Q 19.734375 -1.421875 13.25 4.234375 
Q 6.78125 9.90625 6.78125 20.515625 
Q 6.78125 27.484375 10.78125 32.3125 
Q 14.796875 37.15625 21.921875 38.8125 
z
M 18.3125 54.390625 
Q 18.3125 48.734375 21.84375 45.5625 
Q 25.390625 42.390625 31.78125 42.390625 
Q 38.140625 42.390625 41.71875 45.5625 
Q 45.3125 48.734375 45.3125 54.390625 
Q 45.3125 60.0625 41.71875 63.234375 
Q 38.140625 66.40625 31.78125 66.40625 
Q 25.390625 66.40625 21.84375 63.234375 
Q 18.3125 60.0625 18.3125 54.390625 
z
" id="DejaVuSans-38"/>
     <path d="M 31.78125 66.40625 
Q 24.171875 66.40625 20.328125 58.90625 
Q 16.5 51.421875 16.5 36.375 
Q 16.5 21.390625 20.328125 13.890625 
Q 24.171875 6.390625 31.78125 6.390625 
Q 39.453125 6.390625 43.28125 13.890625 
Q 47.125 21.390625 47.125 36.375 
Q 47.125 51.421875 43.28125 58.90625 
Q 39.453125 66.40625 31.78125 66.40625 
z
M 31.78125 74.21875 
Q 44.046875 74.21875 50.515625 64.515625 
Q 56.984375 54.828125 56.984375 36.375 
Q 56.984375 17.96875 50.515625 8.265625 
Q 44.046875 -1.421875 31.78125 -1.421875 
Q 19.53125 -1.421875 13.0625 8.265625 
Q 6.59375 17.96875 6.59375 36.375 
Q 6.59375 54.828125 13.0625 64.515625 
Q 19.53125 74.21875 31.78125 74.21875 
z
" id="DejaVuSans-30"/>
     <path d="M 33.015625 40.375 
Q 26.375 40.375 22.484375 35.828125 
Q 18.609375 31.296875 18.609375 23.390625 
Q 18.609375 15.53125 22.484375 10.953125 
Q 26.375 6.390625 33.015625 6.390625 
Q 39.65625 6.390625 43.53125 10.953125 
Q 47.40625 15.53125 47.40625 23.390625 
Q 47.40625 31.296875 43.53125 35.828125 
Q 39.65625 40.375 33.015625 40.375 
z
M 52.59375 71.296875 
L 52.59375 62.3125 
Q 48.875 64.0625 45.09375 64.984375 
Q 41.3125 65.921875 37.59375 65.921875 
Q 27.828125 65.921875 22.671875 59.328125 
Q 17.53125 52.734375 16.796875 39.40625 
Q 19.671875 43.65625 24.015625 45.921875 
Q 28.375 48.1875 33.59375 48.1875 
Q 44.578125 48.1875 50.953125 41.515625 
Q 57.328125 34.859375 57.328125 23.390625 
Q 57.328125 12.15625 50.6875 5.359375 
Q 44.046875 -1.421875 33.015625 -1.421875 
Q 20.359375 -1.421875 13.671875 8.265625 
Q 6.984375 17.96875 6.984375 36.375 
Q 6.984375 53.65625 15.1875 63.9375 
Q 23.390625 74.21875 37.203125 74.21875 
Q 40.921875 74.21875 44.703125 73.484375 
Q 48.484375 72.75 52.59375 71.296875 
z
" id="DejaVuSans-36"/>
     <path d="M 11.71875 12.40625 
L 22.015625 12.40625 
L 22.015625 4 
L 14.015625 -11.625 
L 7.71875 -11.625 
L 11.71875 4 
z
" id="DejaVuSans-2c"/>
     <path d="M 16.890625 72.90625 
L 62.984375 72.90625 
L 61.375 64.59375 
L 25.09375 64.59375 
L 20.90625 43.015625 
L 55.71875 43.015625 
L 54.109375 34.71875 
L 19.28125 34.71875 
L 14.203125 8.296875 
L 51.3125 8.296875 
L 49.703125 0 
L 2.6875 0 
z
" id="DejaVuSans-Oblique-45"/>
     <path d="M 16.890625 72.90625 
L 30.171875 72.90625 
L 50.296875 10.40625 
L 62.5 72.90625 
L 72.125 72.90625 
L 57.90625 0 
L 44.578125 0 
L 24.515625 62.890625 
L 12.3125 0 
L 2.6875 0 
z
" id="DejaVuSans-Oblique-4e"/>
     <path d="M 10.59375 45.40625 
L 73.1875 45.40625 
L 73.1875 37.203125 
L 10.59375 37.203125 
z
M 10.59375 25.484375 
L 73.1875 25.484375 
L 73.1875 17.1875 
L 10.59375 17.1875 
z
" id="DejaVuSans-3d"/>
     <path d="M 4.890625 31.390625 
L 31.203125 31.390625 
L 31.203125 23.390625 
L 4.890625 23.390625 
z
" id="DejaVuSans-2d"/>
     <path d="M 12.40625 8.296875 
L 28.515625 8.296875 
L 28.515625 63.921875 
L 10.984375 60.40625 
L 10.984375 69.390625 
L 28.421875 72.90625 
L 38.28125 72.90625 
L 38.28125 8.296875 
L 54.390625 8.296875 
L 54.390625 0 
L 12.40625 0 
z
" id="DejaVuSans-31"/>
     <path d="M 10.6875 12.40625 
L 21 12.40625 
L 21 0 
L 10.6875 0 
z
" id="DejaVuSans-2e"/>
     <path d="M 28.609375 0 
L 0.78125 72.90625 
L 11.078125 72.90625 
L 34.1875 11.53125 
L 57.328125 72.90625 
L 67.578125 72.90625 
L 39.796875 0 
z
" id="DejaVuSans-56"/>
     <path d="M 34.1875 63.1875 
L 14.15625 8.203125 
L 54.25 8.203125 
z
M 0.78125 0 
L 28.609375 72.90625 
L 39.796875 72.90625 
L 67.578125 0 
z
" id="DejaVuSans-394"/>
     <path d="M 9.8125 72.90625 
L 55.90625 72.90625 
L 55.90625 64.59375 
L 19.671875 64.59375 
L 19.671875 43.015625 
L 54.390625 43.015625 
L 54.390625 34.71875 
L 19.671875 34.71875 
L 19.671875 8.296875 
L 56.78125 8.296875 
L 56.78125 0 
L 9.8125 0 
z
" id="DejaVuSans-45"/>
    </defs>
    <g transform="translate(63.228 35.472)scale(0.12 -0.12)">
     <use transform="translate(0 0.78125)" xlink:href="#DejaVuSans-53"/>
     <use transform="translate(63.476562 0.78125)" xlink:href="#DejaVuSans-74"/>
     <use transform="translate(102.685547 0.78125)" xlink:href="#DejaVuSans-72"/>
     <use transform="translate(143.798828 0.78125)" xlink:href="#DejaVuSans-75"/>
     <use transform="translate(207.177734 0.78125)" xlink:href="#DejaVuSans-63"/>
     <use transform="translate(262.158203 0.78125)" xlink:href="#DejaVuSans-74"/>
     <use transform="translate(301.367188 0.78125)" xlink:href="#DejaVuSans-75"/>
     <use transform="translate(364.746094 0.78125)" xlink:href="#DejaVuSans-72"/>
     <use transform="translate(405.859375 0.78125)" xlink:href="#DejaVuSans-65"/>
     <use transform="translate(467.382812 0.78125)" xlink:href="#DejaVuSans-20"/>
     <use transform="translate(499.169922 0.78125)" xlink:href="#DejaVuSans-23"/>
     <use transform="translate(582.958984 0.78125)" xlink:href="#DejaVuSans-33"/>
     <use transform="translate(646.582031 0.78125)" xlink:href="#DejaVuSans-38"/>
     <use transform="translate(710.205078 0.78125)" xlink:href="#DejaVuSans-30"/>
     <use transform="translate(773.828125 0.78125)" xlink:href="#DejaVuSans-36"/>
     <use transform="translate(837.451172 0.78125)" xlink:href="#DejaVuSans-2c"/>
     <use transform="translate(869.238281 0.78125)" xlink:href="#DejaVuSans-20"/>
     <use transform="translate(901.025391 0.78125)" xlink:href="#DejaVuSans-Oblique-45"/>
     <use transform="translate(964.208984 -15.625)scale(0.7)" xlink:href="#DejaVuSans-Oblique-4e"/>
     <use transform="translate(1019.306641 0.78125)" xlink:href="#DejaVuSans-3d"/>
     <use transform="translate(1103.095703 0.78125)" xlink:href="#DejaVuSans-2d"/>
     <use transform="translate(1139.179688 0.78125)" xlink:href="#DejaVuSans-31"/>
     <use transform="translate(1202.802734 0.78125)" xlink:href="#DejaVuSans-38"/>
     <use transform="translate(1266.425781 0.78125)" xlink:href="#DejaVuSans-31"/>
     <use transform="translate(1330.048828 0.78125)" xlink:href="#DejaVuSans-2e"/>
     <use transform="translate(1361.835938 0.78125)" xlink:href="#DejaVuSans-30"/>
     <use transform="translate(1425.458984 0.78125)" xlink:href="#DejaVuSans-30"/>
     <use transform="translate(1489.082031 0.78125)" xlink:href="#DejaVuSans-65"/>
     <use transform="translate(1550.605469 0.78125)" xlink:href="#DejaVuSans-56"/>
     <use transform="translate(1619.013672 0.78125)" xlink:href="#DejaVuSans-2c"/>
     <use transform="translate(1650.800781 0.78125)" xlink:href="#DejaVuSans-20"/>
     <use transform="translate(1682.587891 0.78125)" xlink:href="#DejaVuSans-394"/>
     <use transform="translate(1750.996094 0.78125)" xlink:href="#DejaVuSans-45"/>
     <use transform="translate(1814.179688 0.78125)" xlink:href="#DejaVuSans-3d"/>
     <use transform="translate(1897.96875 0.78125)" xlink:href="#DejaVuSans-2d"/>
     <use transform="translate(1934.052734 0.78125)" xlink:href="#DejaVuSans-30"/>
     <use transform="translate(1997.675781 0.78125)" xlink:href="#DejaVuSans-2e"/>
     <use transform="translate(2029.462891 0.78125)" xlink:href="#DejaVuSans-30"/>
     <use transform="translate(2093.085938 0.78125)" xlink:href="#DejaVuSans-36"/>
     <use transform="translate(2156.708984 0.78125)" xlink:href="#DejaVuSans-65"/>
     <use transform="translate(2218.232422 0.78125)" xlink:href="#DejaVuSans-56"/>
    </g>
   </g>
  </g>
  <g id="axes_2">
   <g id="patch_2">
    <path clip-path="url(#pb533ab046a)" d="M 361.152 307.584 
L 361.152 306.5445 
L 361.152 42.5115 
L 361.152 41.472 
L 374.4576 41.472 
L 374.4576 42.5115 
L 374.4576 306.5445 
L 374.4576 307.584 
z
" style="fill:#ffffff;stroke:#ffffff;stroke-linejoin:miter;stroke-width:0.01;"/>
   </g>
   <image height="265.68" id="imaged01b54efa0" transform="scale(1 -1)translate(0 -265.68)" width="12.96" x="361.44" xlink:href="data:image/png;base64,
iVBORw0KGgoAAAANSUhEUgAAABIAAAFxCAYAAAB+2fgXAAAABHNCSVQICAgIfAhkiAAAAeVJREFUeJztncmNw0AQA2ckheYQNv9QLIfQ8ygsCgQ7AEI8+jAs2Puz/94F1LP2ReCsZ18bAWIeZ5XaGRBE7VnbptG+KI101FYyNSiQG2oRITXKNaX9uclOdi2XWjftVE32CZCO2ou5Bj1TcCBr/1zB9ge7Fq0Rg2NM9pvbtG+ua1QgsRYhDy0ISEiNc40BEibbSI0Coj5CBGtkpFbXJiAjNZlrwhuSOv2M1DjXbEdEciBt1JSDDQKKpmZr2rr2j0DBGpXaWEJq3bQzEPIS26r9J+Wzv9Tm8o3aajRXqc3VUXsApKNWjeZq0x4ABVNbm7lrszVigDqP5vIl2+eaT2yfRkL7g+dRcNPqjohkjaCvRVBq0H2U3LQrOJCx9kdTg4B8oxZzzTdqdYHEngjUCAPyUctN9sVRq2sTECW2UKNLd2jVtRmo1A6AhMmWaSRcR8nUdIHUuVb75zJS218EyEitro1At69pIdeSk30Lkw0FktNImGyZRhy1O5galmxd03LUsHWk06jUZiCq+5Wb1kZNN4+wJxJuWt8RAW5am2sYNZ9rYCBzZ3buPKJ2P5Yj4Toy3keyIyJbIxs1rml1byCA84gpch5RQNB7Q0qNMGq2Hy4BXdNR41yz/cEEJfZzUz96r9PoB0okjeQ8y9TkAAAAAElFTkSuQmCC" y="-41.76"/>
   <g id="matplotlib.axis_1"/>
   <g id="matplotlib.axis_2">
    <g id="ytick_1">
     <g id="line2d_1">
      <defs>
       <path d="M 0 0 
L 3.5 0 
" id="m24b587d549" style="stroke:#000000;stroke-width:0.8;"/>
      </defs>
      <g>
       <use style="stroke:#000000;stroke-width:0.8;" x="374.4576" xlink:href="#m24b587d549" y="272.738216"/>
      </g>
     </g>
     <g id="text_2">
      <!-- −8.5 -->
      <defs>
       <path d="M 10.59375 35.5 
L 73.1875 35.5 
L 73.1875 27.203125 
L 10.59375 27.203125 
z
" id="DejaVuSans-2212"/>
       <path d="M 10.796875 72.90625 
L 49.515625 72.90625 
L 49.515625 64.59375 
L 19.828125 64.59375 
L 19.828125 46.734375 
Q 21.96875 47.46875 24.109375 47.828125 
Q 26.265625 48.1875 28.421875 48.1875 
Q 40.625 48.1875 47.75 41.5 
Q 54.890625 34.8125 54.890625 23.390625 
Q 54.890625 11.625 47.5625 5.09375 
Q 40.234375 -1.421875 26.90625 -1.421875 
Q 22.3125 -1.421875 17.546875 -0.640625 
Q 12.796875 0.140625 7.71875 1.703125 
L 7.71875 11.625 
Q 12.109375 9.234375 16.796875 8.0625 
Q 21.484375 6.890625 26.703125 6.890625 
Q 35.15625 6.890625 40.078125 11.328125 
Q 45.015625 15.765625 45.015625 23.390625 
Q 45.015625 31 40.078125 35.4375 
Q 35.15625 39.890625 26.703125 39.890625 
Q 22.75 39.890625 18.8125 39.015625 
Q 14.890625 38.140625 10.796875 36.28125 
z
" id="DejaVuSans-35"/>
      </defs>
      <g transform="translate(381.4576 276.537434)scale(0.1 -0.1)">
       <use xlink:href="#DejaVuSans-2212"/>
       <use x="83.789062" xlink:href="#DejaVuSans-38"/>
       <use x="147.412109" xlink:href="#DejaVuSans-2e"/>
       <use x="179.199219" xlink:href="#DejaVuSans-35"/>
      </g>
     </g>
    </g>
    <g id="ytick_2">
     <g id="line2d_2">
      <g>
       <use style="stroke:#000000;stroke-width:0.8;" x="374.4576" xlink:href="#m24b587d549" y="229.593127"/>
      </g>
     </g>
     <g id="text_3">
      <!-- −8.0 -->
      <g transform="translate(381.4576 233.392346)scale(0.1 -0.1)">
       <use xlink:href="#DejaVuSans-2212"/>
       <use x="83.789062" xlink:href="#DejaVuSans-38"/>
       <use x="147.412109" xlink:href="#DejaVuSans-2e"/>
       <use x="179.199219" xlink:href="#DejaVuSans-30"/>
      </g>
     </g>
    </g>
    <g id="ytick_3">
     <g id="line2d_3">
      <g>
       <use style="stroke:#000000;stroke-width:0.8;" x="374.4576" xlink:href="#m24b587d549" y="186.448039"/>
      </g>
     </g>
     <g id="text_4">
      <!-- −7.5 -->
      <defs>
       <path d="M 8.203125 72.90625 
L 55.078125 72.90625 
L 55.078125 68.703125 
L 28.609375 0 
L 18.3125 0 
L 43.21875 64.59375 
L 8.203125 64.59375 
z
" id="DejaVuSans-37"/>
      </defs>
      <g transform="translate(381.4576 190.247258)scale(0.1 -0.1)">
       <use xlink:href="#DejaVuSans-2212"/>
       <use x="83.789062" xlink:href="#DejaVuSans-37"/>
       <use x="147.412109" xlink:href="#DejaVuSans-2e"/>
       <use x="179.199219" xlink:href="#DejaVuSans-35"/>
      </g>
     </g>
    </g>
    <g id="ytick_4">
     <g id="line2d_4">
      <g>
       <use style="stroke:#000000;stroke-width:0.8;" x="374.4576" xlink:href="#m24b587d549" y="143.302951"/>
      </g>
     </g>
     <g id="text_5">
      <!-- −7.0 -->
      <g transform="translate(381.4576 147.10217)scale(0.1 -0.1)">
       <use xlink:href="#DejaVuSans-2212"/>
       <use x="83.789062" xlink:href="#DejaVuSans-37"/>
       <use x="147.412109" xlink:href="#DejaVuSans-2e"/>
       <use x="179.199219" xlink:href="#DejaVuSans-30"/>
      </g>
     </g>
    </g>
    <g id="ytick_5">
     <g id="line2d_5">
      <g>
       <use style="stroke:#000000;stroke-width:0.8;" x="374.4576" xlink:href="#m24b587d549" y="100.157863"/>
      </g>
     </g>
     <g id="text_6">
      <!-- −6.5 -->
      <g transform="translate(381.4576 103.957082)scale(0.1 -0.1)">
       <use xlink:href="#DejaVuSans-2212"/>
       <use x="83.789062" xlink:href="#DejaVuSans-36"/>
       <use x="147.412109" xlink:href="#DejaVuSans-2e"/>
       <use x="179.199219" xlink:href="#DejaVuSans-35"/>
      </g>
     </g>
    </g>
    <g id="ytick_6">
     <g id="line2d_6">
      <g>
       <use style="stroke:#000000;stroke-width:0.8;" x="374.4576" xlink:href="#m24b587d549" y="57.012775"/>
      </g>
     </g>
     <g id="text_7">
      <!-- −6.0 -->
      <g transform="translate(381.4576 60.811994)scale(0.1 -0.1)">
       <use xlink:href="#DejaVuSans-2212"/>
       <use x="83.789062" xlink:href="#DejaVuSans-36"/>
       <use x="147.412109" xlink:href="#DejaVuSans-2e"/>
       <use x="179.199219" xlink:href="#DejaVuSans-30"/>
      </g>
     </g>
    </g>
    <g id="text_8">
     <!-- Energy [eV] -->
     <defs>
      <path d="M 54.890625 33.015625 
L 54.890625 0 
L 45.90625 0 
L 45.90625 32.71875 
Q 45.90625 40.484375 42.875 44.328125 
Q 39.84375 48.1875 33.796875 48.1875 
Q 26.515625 48.1875 22.3125 43.546875 
Q 18.109375 38.921875 18.109375 30.90625 
L 18.109375 0 
L 9.078125 0 
L 9.078125 54.6875 
L 18.109375 54.6875 
L 18.109375 46.1875 
Q 21.34375 51.125 25.703125 53.5625 
Q 30.078125 56 35.796875 56 
Q 45.21875 56 50.046875 50.171875 
Q 54.890625 44.34375 54.890625 33.015625 
z
" id="DejaVuSans-6e"/>
      <path d="M 45.40625 27.984375 
Q 45.40625 37.75 41.375 43.109375 
Q 37.359375 48.484375 30.078125 48.484375 
Q 22.859375 48.484375 18.828125 43.109375 
Q 14.796875 37.75 14.796875 27.984375 
Q 14.796875 18.265625 18.828125 12.890625 
Q 22.859375 7.515625 30.078125 7.515625 
Q 37.359375 7.515625 41.375 12.890625 
Q 45.40625 18.265625 45.40625 27.984375 
z
M 54.390625 6.78125 
Q 54.390625 -7.171875 48.1875 -13.984375 
Q 42 -20.796875 29.203125 -20.796875 
Q 24.46875 -20.796875 20.265625 -20.09375 
Q 16.0625 -19.390625 12.109375 -17.921875 
L 12.109375 -9.1875 
Q 16.0625 -11.328125 19.921875 -12.34375 
Q 23.78125 -13.375 27.78125 -13.375 
Q 36.625 -13.375 41.015625 -8.765625 
Q 45.40625 -4.15625 45.40625 5.171875 
L 45.40625 9.625 
Q 42.625 4.78125 38.28125 2.390625 
Q 33.9375 0 27.875 0 
Q 17.828125 0 11.671875 7.65625 
Q 5.515625 15.328125 5.515625 27.984375 
Q 5.515625 40.671875 11.671875 48.328125 
Q 17.828125 56 27.875 56 
Q 33.9375 56 38.28125 53.609375 
Q 42.625 51.21875 45.40625 46.390625 
L 45.40625 54.6875 
L 54.390625 54.6875 
z
" id="DejaVuSans-67"/>
      <path d="M 32.171875 -5.078125 
Q 28.375 -14.84375 24.75 -17.8125 
Q 21.140625 -20.796875 15.09375 -20.796875 
L 7.90625 -20.796875 
L 7.90625 -13.28125 
L 13.1875 -13.28125 
Q 16.890625 -13.28125 18.9375 -11.515625 
Q 21 -9.765625 23.484375 -3.21875 
L 25.09375 0.875 
L 2.984375 54.6875 
L 12.5 54.6875 
L 29.59375 11.921875 
L 46.6875 54.6875 
L 56.203125 54.6875 
z
" id="DejaVuSans-79"/>
      <path d="M 8.59375 75.984375 
L 29.296875 75.984375 
L 29.296875 69 
L 17.578125 69 
L 17.578125 -6.203125 
L 29.296875 -6.203125 
L 29.296875 -13.1875 
L 8.59375 -13.1875 
z
" id="DejaVuSans-5b"/>
      <path d="M 30.421875 75.984375 
L 30.421875 -13.1875 
L 9.71875 -13.1875 
L 9.71875 -6.203125 
L 21.390625 -6.203125 
L 21.390625 69 
L 9.71875 69 
L 9.71875 75.984375 
z
" id="DejaVuSans-5d"/>
     </defs>
     <g transform="translate(417.33885 204.108469)rotate(-90)scale(0.1 -0.1)">
      <use xlink:href="#DejaVuSans-45"/>
      <use x="63.183594" xlink:href="#DejaVuSans-6e"/>
      <use x="126.5625" xlink:href="#DejaVuSans-65"/>
      <use x="188.085938" xlink:href="#DejaVuSans-72"/>
      <use x="229.183594" xlink:href="#DejaVuSans-67"/>
      <use x="292.660156" xlink:href="#DejaVuSans-79"/>
      <use x="351.839844" xlink:href="#DejaVuSans-20"/>
      <use x="383.626953" xlink:href="#DejaVuSans-5b"/>
      <use x="422.640625" xlink:href="#DejaVuSans-65"/>
      <use x="484.164062" xlink:href="#DejaVuSans-56"/>
      <use x="552.572266" xlink:href="#DejaVuSans-5d"/>
     </g>
    </g>
   </g>
   <g id="patch_3">
    <path d="M 361.152 307.584 
L 361.152 306.5445 
L 361.152 42.5115 
L 361.152 41.472 
L 374.4576 41.472 
L 374.4576 42.5115 
L 374.4576 306.5445 
L 374.4576 307.584 
z
" style="fill:none;stroke:#000000;stroke-linejoin:miter;stroke-width:0.8;"/>
   </g>
  </g>
 </g>
 <defs>
  <clipPath id="p8b971d9775">
   <rect height="266.112" width="285.696" x="57.6" y="41.472"/>
  </clipPath>
  <clipPath id="pb533ab046a">
   <rect height="266.112" width="13.3056" x="361.152" y="41.472"/>
  </clipPath>
 </defs>
</svg>
