<?xml version="1.0" encoding="utf-8" standalone="no"?>
<!DOCTYPE svg PUBLIC "-//W3C//DTD SVG 1.1//EN"
  "http://www.w3.org/Graphics/SVG/1.1/DTD/svg11.dtd">
<!-- Created with matplotlib (http://matplotlib.org/) -->
<svg height="345.6pt" version="1.1" viewBox="0 0 460.8 345.6" width="460.8pt" xmlns="http://www.w3.org/2000/svg" xmlns:xlink="http://www.w3.org/1999/xlink">
 <defs>
  <style type="text/css">
*{stroke-linecap:butt;stroke-linejoin:round;}
  </style>
 </defs>
 <g id="figure_1">
  <g id="patch_1">
   <path d="M 0 345.6 
L 460.8 345.6 
L 460.8 0 
L 0 0 
z
" style="fill:#ffffff;"/>
  </g>
  <g id="axes_1">
   <g id="CircleCollection_1">
    <path clip-path="url(#p0ed4d8170c)" d="M 227.135126 126.450488 
C 228.941314 126.450488 230.673767 125.732882 231.950934 124.455715 
C 233.228102 123.178548 233.945707 121.446094 233.945707 119.639907 
C 233.945707 117.83372 233.228102 116.101266 231.950934 114.824099 
C 230.673767 113.546932 228.941314 112.829326 227.135126 112.829326 
C 225.328939 112.829326 223.596486 113.546932 222.319318 114.824099 
C 221.042151 116.101266 220.324545 117.83372 220.324545 119.639907 
C 220.324545 121.446094 221.042151 123.178548 222.319318 124.455715 
C 223.596486 125.732882 225.328939 126.450488 227.135126 126.450488 
z
" style="fill:#433d84;"/>
    <path clip-path="url(#p0ed4d8170c)" d="M 329.983229 208.5783 
C 331.741121 208.5783 333.427252 207.879882 334.670269 206.636865 
C 335.913287 205.393847 336.611705 203.707716 336.611705 201.949824 
C 336.611705 200.191931 335.913287 198.505801 334.670269 197.262783 
C 333.427252 196.019766 331.741121 195.321348 329.983229 195.321348 
C 328.225336 195.321348 326.539206 196.019766 325.296188 197.262783 
C 324.053171 198.505801 323.354752 200.191931 323.354752 201.949824 
C 323.354752 203.707716 324.053171 205.393847 325.296188 206.636865 
C 326.539206 207.879882 328.225336 208.5783 329.983229 208.5783 
z
" style="fill:#52c569;"/>
    <path clip-path="url(#p0ed4d8170c)" d="M 267.720457 81.441381 
C 269.4969 81.441381 271.200824 80.735592 272.456959 79.479457 
C 273.713094 78.223322 274.418882 76.519398 274.418882 74.742955 
C 274.418882 72.966512 273.713094 71.262588 272.456959 70.006453 
C 271.200824 68.750318 269.4969 68.04453 267.720457 68.04453 
C 265.944014 68.04453 264.24009 68.750318 262.983955 70.006453 
C 261.72782 71.262588 261.022031 72.966512 261.022031 74.742955 
C 261.022031 76.519398 261.72782 78.223322 262.983955 79.479457 
C 264.24009 80.735592 265.944014 81.441381 267.720457 81.441381 
z
" style="fill:#35b779;"/>
    <path clip-path="url(#p0ed4d8170c)" d="M 272.07434 167.544557 
C 273.863293 167.544557 275.579216 166.833798 276.844197 165.568817 
C 278.109178 164.303836 278.819936 162.587913 278.819936 160.79896 
C 278.819936 159.010007 278.109178 157.294084 276.844197 156.029103 
C 275.579216 154.764122 273.863293 154.053363 272.07434 154.053363 
C 270.285387 154.053363 268.569463 154.764122 267.304483 156.029103 
C 266.039502 157.294084 265.328743 159.010007 265.328743 160.79896 
C 265.328743 162.587913 266.039502 164.303836 267.304483 165.568817 
C 268.569463 166.833798 270.285387 167.544557 272.07434 167.544557 
z
" style="fill:#482374;"/>
    <path clip-path="url(#p0ed4d8170c)" d="M 152.504934 191.701627 
C 154.272484 191.701627 155.967878 190.999372 157.217724 189.749525 
C 158.467571 188.499678 159.169826 186.804285 159.169826 185.036734 
C 159.169826 183.269184 158.467571 181.57379 157.217724 180.323944 
C 155.967878 179.074097 154.272484 178.371842 152.504934 178.371842 
C 150.737383 178.371842 149.04199 179.074097 147.792143 180.323944 
C 146.542296 181.57379 145.840041 183.269184 145.840041 185.036734 
C 145.840041 186.804285 146.542296 188.499678 147.792143 189.749525 
C 149.04199 190.999372 150.737383 191.701627 152.504934 191.701627 
z
" style="fill:#3e4a89;"/>
    <path clip-path="url(#p0ed4d8170c)" d="M 177.528558 88.014413 
C 179.300767 88.014413 181.000629 87.310307 182.25377 86.057166 
C 183.506911 84.804025 184.211017 83.104163 184.211017 81.331954 
C 184.211017 79.559745 183.506911 77.859882 182.25377 76.606742 
C 181.000629 75.353601 179.300767 74.649495 177.528558 74.649495 
C 175.756349 74.649495 174.056487 75.353601 172.803346 76.606742 
C 171.550205 77.859882 170.846099 79.559745 170.846099 81.331954 
C 170.846099 83.104163 171.550205 84.804025 172.803346 86.057166 
C 174.056487 87.310307 175.756349 88.014413 177.528558 88.014413 
z
" style="fill:#3dbc74;"/>
    <path clip-path="url(#p0ed4d8170c)" d="M 215.179926 265.573087 
C 216.960806 265.573087 218.668986 264.865536 219.928258 263.606264 
C 221.18753 262.346992 221.895081 260.638812 221.895081 258.857932 
C 221.895081 257.077052 221.18753 255.368873 219.928258 254.109601 
C 218.668986 252.850328 216.960806 252.142777 215.179926 252.142777 
C 213.399046 252.142777 211.690867 252.850328 210.431595 254.109601 
C 209.172322 255.368873 208.464771 257.077052 208.464771 258.857932 
C 208.464771 260.638812 209.172322 262.346992 210.431595 263.606264 
C 211.690867 264.865536 213.399046 265.573087 215.179926 265.573087 
z
" style="fill:#2a788e;"/>
    <path clip-path="url(#p0ed4d8170c)" d="M 214.229428 167.032506 
C 216.027273 167.032506 217.751724 166.318214 219.022992 165.046946 
C 220.29426 163.775678 221.008551 162.051227 221.008551 160.253382 
C 221.008551 158.455538 220.29426 156.731086 219.022992 155.459818 
C 217.751724 154.18855 216.027273 153.474259 214.229428 153.474259 
C 212.431583 153.474259 210.707132 154.18855 209.435864 155.459818 
C 208.164596 156.731086 207.450305 158.455538 207.450305 160.253382 
C 207.450305 162.051227 208.164596 163.775678 209.435864 165.046946 
C 210.707132 166.318214 212.431583 167.032506 214.229428 167.032506 
z
" style="fill:#481c6e;"/>
    <path clip-path="url(#p0ed4d8170c)" d="M 100.532662 145.995831 
C 102.26404 145.995831 103.92474 145.307947 105.149009 144.083677 
C 106.373279 142.859407 107.061163 141.198708 107.061163 139.46733 
C 107.061163 137.735951 106.373279 136.075252 105.149009 134.850982 
C 103.92474 133.626713 102.26404 132.938829 100.532662 132.938829 
C 98.801283 132.938829 97.140584 133.626713 95.916314 134.850982 
C 94.692045 136.075252 94.004161 137.735951 94.004161 139.46733 
C 94.004161 141.198708 94.692045 142.859407 95.916314 144.083677 
C 97.140584 145.307947 98.801283 145.995831 100.532662 145.995831 
z
" style="fill:#2e6e8e;"/>
    <path clip-path="url(#p0ed4d8170c)" d="M 132.105934 152.572038 
C 133.860038 152.572038 135.542535 151.875125 136.782875 150.634786 
C 138.023214 149.394447 138.720127 147.711949 138.720127 145.957845 
C 138.720127 144.20374 138.023214 142.521243 136.782875 141.280904 
C 135.542535 140.040564 133.860038 139.343651 132.105934 139.343651 
C 130.351829 139.343651 128.669332 140.040564 127.428993 141.280904 
C 126.188653 142.521243 125.49174 144.20374 125.49174 145.957845 
C 125.49174 147.711949 126.188653 149.394447 127.428993 150.634786 
C 128.669332 151.875125 130.351829 152.572038 132.105934 152.572038 
z
" style="fill:#3c4f8a;"/>
    <path clip-path="url(#p0ed4d8170c)" d="M 210.62443 85.93174 
C 212.414071 85.93174 214.130653 85.220708 215.396121 83.955241 
C 216.661588 82.689774 217.37262 80.973191 217.37262 79.18355 
C 217.37262 77.393909 216.661588 75.677326 215.396121 74.411859 
C 214.130653 73.146392 212.414071 72.43536 210.62443 72.43536 
C 208.834789 72.43536 207.118206 73.146392 205.852739 74.411859 
C 204.587272 75.677326 203.87624 77.393909 203.87624 79.18355 
C 203.87624 80.973191 204.587272 82.689774 205.852739 83.955241 
C 207.118206 85.220708 208.834789 85.93174 210.62443 85.93174 
z
" style="fill:#443983;"/>
    <path clip-path="url(#p0ed4d8170c)" d="M 242.155719 194.600148 
C 243.94562 194.600148 245.662452 193.889013 246.928103 192.623362 
C 248.193754 191.357711 248.904889 189.640879 248.904889 187.850979 
C 248.904889 186.061078 248.193754 184.344246 246.928103 183.078595 
C 245.662452 181.812944 243.94562 181.101809 242.155719 181.101809 
C 240.365819 181.101809 238.648987 181.812944 237.383336 183.078595 
C 236.117685 184.344246 235.40655 186.061078 235.40655 187.850979 
C 235.40655 189.640879 236.117685 191.357711 237.383336 192.623362 
C 238.648987 193.889013 240.365819 194.600148 242.155719 194.600148 
z
" style="fill:#423f85;"/>
    <path clip-path="url(#p0ed4d8170c)" d="M 178.699514 263.033304 
C 180.476518 263.033304 182.180979 262.327293 183.437511 261.070761 
C 184.694042 259.81423 185.400053 258.109768 185.400053 256.332764 
C 185.400053 254.55576 184.694042 252.851299 183.437511 251.594767 
C 182.180979 250.338236 180.476518 249.632225 178.699514 249.632225 
C 176.92251 249.632225 175.218048 250.338236 173.961517 251.594767 
C 172.704985 252.851299 171.998974 254.55576 171.998974 256.332764 
C 171.998974 258.109768 172.704985 259.81423 173.961517 261.070761 
C 175.218048 262.327293 176.92251 263.033304 178.699514 263.033304 
z
" style="fill:#34618d;"/>
    <path clip-path="url(#p0ed4d8170c)" d="M 156.471093 233.840594 
C 158.236884 233.840594 159.930591 233.139037 161.179194 231.890434 
C 162.427797 230.641832 163.129353 228.948125 163.129353 227.182333 
C 163.129353 225.416542 162.427797 223.722835 161.179194 222.474232 
C 159.930591 221.22563 158.236884 220.524073 156.471093 220.524073 
C 154.705301 220.524073 153.011595 221.22563 151.762992 222.474232 
C 150.514389 223.722835 149.812832 225.416542 149.812832 227.182333 
C 149.812832 228.948125 150.514389 230.641832 151.762992 231.890434 
C 153.011595 233.139037 154.705301 233.840594 156.471093 233.840594 
z
" style="fill:#24878e;"/>
    <path clip-path="url(#p0ed4d8170c)" d="M 240.427657 60.846465 
C 242.207793 60.846465 243.915259 60.139209 245.174006 58.880463 
C 246.432752 57.621716 247.140008 55.91425 247.140008 54.134114 
C 247.140008 52.353978 246.432752 50.646511 245.174006 49.387765 
C 243.915259 48.129019 242.207793 47.421763 240.427657 47.421763 
C 238.647521 47.421763 236.940055 48.129019 235.681308 49.387765 
C 234.422562 50.646511 233.715306 52.353978 233.715306 54.134114 
C 233.715306 55.91425 234.422562 57.621716 235.681308 58.880463 
C 236.940055 60.139209 238.647521 60.846465 240.427657 60.846465 
z
" style="fill:#3dbc74;"/>
    <path clip-path="url(#p0ed4d8170c)" d="M 303.385785 237.229821 
C 305.150726 237.229821 306.843617 236.528603 308.091618 235.280601 
C 309.33962 234.0326 310.040838 232.339709 310.040838 230.574768 
C 310.040838 228.809827 309.33962 227.116936 308.091618 225.868935 
C 306.843617 224.620933 305.150726 223.919715 303.385785 223.919715 
C 301.620844 223.919715 299.927953 224.620933 298.679952 225.868935 
C 297.43195 227.116936 296.730732 228.809827 296.730732 230.574768 
C 296.730732 232.339709 297.43195 234.0326 298.679952 235.280601 
C 299.927953 236.528603 301.620844 237.229821 303.385785 237.229821 
z
" style="fill:#32658e;"/>
    <path clip-path="url(#p0ed4d8170c)" d="M 162.420947 127.11912 
C 164.192824 127.11912 165.892368 126.415146 167.145275 125.16224 
C 168.398181 123.909333 169.102155 122.209789 169.102155 120.437912 
C 169.102155 118.666035 168.398181 116.966491 167.145275 115.713584 
C 165.892368 114.460678 164.192824 113.756704 162.420947 113.756704 
C 160.64907 113.756704 158.949526 114.460678 157.696619 115.713584 
C 156.443713 116.966491 155.739739 118.666035 155.739739 120.437912 
C 155.739739 122.209789 156.443713 123.909333 157.696619 125.16224 
C 158.949526 126.415146 160.64907 127.11912 162.420947 127.11912 
z
" style="fill:#3b528b;"/>
    <path clip-path="url(#p0ed4d8170c)" d="M 180.652957 165.754426 
C 182.43606 165.754426 184.146372 165.045991 185.407216 163.785147 
C 186.66806 162.524303 187.376495 160.813991 187.376495 159.030888 
C 187.376495 157.247785 186.66806 155.537473 185.407216 154.276628 
C 184.146372 153.015784 182.43606 152.30735 180.652957 152.30735 
C 178.869854 152.30735 177.159542 153.015784 175.898698 154.276628 
C 174.637853 155.537473 173.929419 157.247785 173.929419 159.030888 
C 173.929419 160.813991 174.637853 162.524303 175.898698 163.785147 
C 177.159542 165.045991 178.869854 165.754426 180.652957 165.754426 
z
" style="fill:#46337f;"/>
    <path clip-path="url(#p0ed4d8170c)" d="M 262.306603 124.982772 
C 264.104308 124.982772 265.828625 124.268536 267.099794 122.997367 
C 268.370963 121.726198 269.085199 120.001881 269.085199 118.204176 
C 269.085199 116.406472 268.370963 114.682155 267.099794 113.410986 
C 265.828625 112.139817 264.104308 111.425581 262.306603 111.425581 
C 260.508899 111.425581 258.784582 112.139817 257.513412 113.410986 
C 256.242243 114.682155 255.528008 116.406472 255.528008 118.204176 
C 255.528008 120.001881 256.242243 121.726198 257.513412 122.997367 
C 258.784582 124.268536 260.508899 124.982772 262.306603 124.982772 
z
" style="fill:#424086;"/>
    <path clip-path="url(#p0ed4d8170c)" d="M 275.691674 255.940221 
C 277.464205 255.940221 279.164376 255.235987 280.417745 253.982618 
C 281.671113 252.72925 282.375347 251.029078 282.375347 249.256548 
C 282.375347 247.484017 281.671113 245.783845 280.417745 244.530477 
C 279.164376 243.277108 277.464205 242.572874 275.691674 242.572874 
C 273.919143 242.572874 272.218972 243.277108 270.965603 244.530477 
C 269.712234 245.783845 269.008 247.484017 269.008 249.256548 
C 269.008 251.029078 269.712234 252.72925 270.965603 253.982618 
C 272.218972 255.235987 273.919143 255.940221 275.691674 255.940221 
z
" style="fill:#1e9d89;"/>
    <path clip-path="url(#p0ed4d8170c)" d="M 301.989705 187.880369 
C 303.76427 187.880369 305.466393 187.175327 306.7212 185.92052 
C 307.976007 184.665713 308.681049 182.96359 308.681049 181.189025 
C 308.681049 179.41446 307.976007 177.712337 306.7212 176.45753 
C 305.466393 175.202723 303.76427 174.497681 301.989705 174.497681 
C 300.215139 174.497681 298.513017 175.202723 297.25821 176.45753 
C 296.003403 177.712337 295.29836 179.41446 295.29836 181.189025 
C 295.29836 182.96359 296.003403 184.665713 297.25821 185.92052 
C 298.513017 187.175327 300.215139 187.880369 301.989705 187.880369 
z
" style="fill:#287d8e;"/>
    <path clip-path="url(#p0ed4d8170c)" d="M 197.346619 301.654279 
C 199.13256 301.654279 200.845594 300.944717 202.108445 299.681866 
C 203.371296 298.419015 204.080858 296.705981 204.080858 294.92004 
C 204.080858 293.134099 203.371296 291.421065 202.108445 290.158214 
C 200.845594 288.895364 199.13256 288.185802 197.346619 288.185802 
C 195.560678 288.185802 193.847645 288.895364 192.584794 290.158214 
C 191.321943 291.421065 190.612381 293.134099 190.612381 294.92004 
C 190.612381 296.705981 191.321943 298.419015 192.584794 299.681866 
C 193.847645 300.944717 195.560678 301.654279 197.346619 301.654279 
z
" style="fill:#5ac864;"/>
    <path clip-path="url(#p0ed4d8170c)" d="M 243.87995 239.040065 
C 245.66066 239.040065 247.368677 238.332582 248.627829 237.073429 
C 249.886981 235.814277 250.594465 234.106261 250.594465 232.325551 
C 250.594465 230.544841 249.886981 228.836824 248.627829 227.577672 
C 247.368677 226.31852 245.66066 225.611036 243.87995 225.611036 
C 242.09924 225.611036 240.391224 226.31852 239.132072 227.577672 
C 237.87292 228.836824 237.165436 230.544841 237.165436 232.325551 
C 237.165436 234.106261 237.87292 235.814277 239.132072 237.073429 
C 240.391224 238.332582 242.09924 239.040065 243.87995 239.040065 
z
" style="fill:#440154;"/>
    <path clip-path="url(#p0ed4d8170c)" d="M 70.902155 142.368676 
C 72.602906 142.368676 74.234228 141.69296 75.43684 140.490348 
C 76.639453 139.287735 77.315168 137.656414 77.315168 135.955663 
C 77.315168 134.254912 76.639453 132.623591 75.43684 131.420978 
C 74.234228 130.218365 72.602906 129.54265 70.902155 129.54265 
C 69.201404 129.54265 67.570083 130.218365 66.36747 131.420978 
C 65.164858 132.623591 64.489142 134.254912 64.489142 135.955663 
C 64.489142 137.656414 65.164858 139.287735 66.36747 140.490348 
C 67.570083 141.69296 69.201404 142.368676 70.902155 142.368676 
z
" style="fill:#fde725;"/>
   </g>
   <g id="text_1">
    <!-- Structure #9594, $E_N$=-180.27eV, ΔE=-0.06eV -->
    <defs>
     <path d="M 53.515625 70.515625 
L 53.515625 60.890625 
Q 47.90625 63.578125 42.921875 64.890625 
Q 37.9375 66.21875 33.296875 66.21875 
Q 25.25 66.21875 20.875 63.09375 
Q 16.5 59.96875 16.5 54.203125 
Q 16.5 49.359375 19.40625 46.890625 
Q 22.3125 44.4375 30.421875 42.921875 
L 36.375 41.703125 
Q 47.40625 39.59375 52.65625 34.296875 
Q 57.90625 29 57.90625 20.125 
Q 57.90625 9.515625 50.796875 4.046875 
Q 43.703125 -1.421875 29.984375 -1.421875 
Q 24.8125 -1.421875 18.96875 -0.25 
Q 13.140625 0.921875 6.890625 3.21875 
L 6.890625 13.375 
Q 12.890625 10.015625 18.65625 8.296875 
Q 24.421875 6.59375 29.984375 6.59375 
Q 38.421875 6.59375 43.015625 9.90625 
Q 47.609375 13.234375 47.609375 19.390625 
Q 47.609375 24.75 44.3125 27.78125 
Q 41.015625 30.8125 33.5 32.328125 
L 27.484375 33.5 
Q 16.453125 35.6875 11.515625 40.375 
Q 6.59375 45.0625 6.59375 53.421875 
Q 6.59375 63.09375 13.40625 68.65625 
Q 20.21875 74.21875 32.171875 74.21875 
Q 37.3125 74.21875 42.625 73.28125 
Q 47.953125 72.359375 53.515625 70.515625 
z
" id="DejaVuSans-53"/>
     <path d="M 18.3125 70.21875 
L 18.3125 54.6875 
L 36.8125 54.6875 
L 36.8125 47.703125 
L 18.3125 47.703125 
L 18.3125 18.015625 
Q 18.3125 11.328125 20.140625 9.421875 
Q 21.96875 7.515625 27.59375 7.515625 
L 36.8125 7.515625 
L 36.8125 0 
L 27.59375 0 
Q 17.1875 0 13.234375 3.875 
Q 9.28125 7.765625 9.28125 18.015625 
L 9.28125 47.703125 
L 2.6875 47.703125 
L 2.6875 54.6875 
L 9.28125 54.6875 
L 9.28125 70.21875 
z
" id="DejaVuSans-74"/>
     <path d="M 41.109375 46.296875 
Q 39.59375 47.171875 37.8125 47.578125 
Q 36.03125 48 33.890625 48 
Q 26.265625 48 22.1875 43.046875 
Q 18.109375 38.09375 18.109375 28.8125 
L 18.109375 0 
L 9.078125 0 
L 9.078125 54.6875 
L 18.109375 54.6875 
L 18.109375 46.1875 
Q 20.953125 51.171875 25.484375 53.578125 
Q 30.03125 56 36.53125 56 
Q 37.453125 56 38.578125 55.875 
Q 39.703125 55.765625 41.0625 55.515625 
z
" id="DejaVuSans-72"/>
     <path d="M 8.5 21.578125 
L 8.5 54.6875 
L 17.484375 54.6875 
L 17.484375 21.921875 
Q 17.484375 14.15625 20.5 10.265625 
Q 23.53125 6.390625 29.59375 6.390625 
Q 36.859375 6.390625 41.078125 11.03125 
Q 45.3125 15.671875 45.3125 23.6875 
L 45.3125 54.6875 
L 54.296875 54.6875 
L 54.296875 0 
L 45.3125 0 
L 45.3125 8.40625 
Q 42.046875 3.421875 37.71875 1 
Q 33.40625 -1.421875 27.6875 -1.421875 
Q 18.265625 -1.421875 13.375 4.4375 
Q 8.5 10.296875 8.5 21.578125 
z
M 31.109375 56 
z
" id="DejaVuSans-75"/>
     <path d="M 48.78125 52.59375 
L 48.78125 44.1875 
Q 44.96875 46.296875 41.140625 47.34375 
Q 37.3125 48.390625 33.40625 48.390625 
Q 24.65625 48.390625 19.8125 42.84375 
Q 14.984375 37.3125 14.984375 27.296875 
Q 14.984375 17.28125 19.8125 11.734375 
Q 24.65625 6.203125 33.40625 6.203125 
Q 37.3125 6.203125 41.140625 7.25 
Q 44.96875 8.296875 48.78125 10.40625 
L 48.78125 2.09375 
Q 45.015625 0.34375 40.984375 -0.53125 
Q 36.96875 -1.421875 32.421875 -1.421875 
Q 20.0625 -1.421875 12.78125 6.34375 
Q 5.515625 14.109375 5.515625 27.296875 
Q 5.515625 40.671875 12.859375 48.328125 
Q 20.21875 56 33.015625 56 
Q 37.15625 56 41.109375 55.140625 
Q 45.0625 54.296875 48.78125 52.59375 
z
" id="DejaVuSans-63"/>
     <path d="M 56.203125 29.59375 
L 56.203125 25.203125 
L 14.890625 25.203125 
Q 15.484375 15.921875 20.484375 11.0625 
Q 25.484375 6.203125 34.421875 6.203125 
Q 39.59375 6.203125 44.453125 7.46875 
Q 49.3125 8.734375 54.109375 11.28125 
L 54.109375 2.78125 
Q 49.265625 0.734375 44.1875 -0.34375 
Q 39.109375 -1.421875 33.890625 -1.421875 
Q 20.796875 -1.421875 13.15625 6.1875 
Q 5.515625 13.8125 5.515625 26.8125 
Q 5.515625 40.234375 12.765625 48.109375 
Q 20.015625 56 32.328125 56 
Q 43.359375 56 49.78125 48.890625 
Q 56.203125 41.796875 56.203125 29.59375 
z
M 47.21875 32.234375 
Q 47.125 39.59375 43.09375 43.984375 
Q 39.0625 48.390625 32.421875 48.390625 
Q 24.90625 48.390625 20.390625 44.140625 
Q 15.875 39.890625 15.1875 32.171875 
z
" id="DejaVuSans-65"/>
     <path id="DejaVuSans-20"/>
     <path d="M 51.125 44 
L 36.921875 44 
L 32.8125 27.6875 
L 47.125 27.6875 
z
M 43.796875 71.78125 
L 38.71875 51.515625 
L 52.984375 51.515625 
L 58.109375 71.78125 
L 65.921875 71.78125 
L 60.890625 51.515625 
L 76.125 51.515625 
L 76.125 44 
L 58.984375 44 
L 54.984375 27.6875 
L 70.515625 27.6875 
L 70.515625 20.21875 
L 53.078125 20.21875 
L 48 0 
L 40.1875 0 
L 45.21875 20.21875 
L 30.90625 20.21875 
L 25.875 0 
L 18.015625 0 
L 23.09375 20.21875 
L 7.71875 20.21875 
L 7.71875 27.6875 
L 24.90625 27.6875 
L 29 44 
L 13.28125 44 
L 13.28125 51.515625 
L 30.90625 51.515625 
L 35.890625 71.78125 
z
" id="DejaVuSans-23"/>
     <path d="M 10.984375 1.515625 
L 10.984375 10.5 
Q 14.703125 8.734375 18.5 7.8125 
Q 22.3125 6.890625 25.984375 6.890625 
Q 35.75 6.890625 40.890625 13.453125 
Q 46.046875 20.015625 46.78125 33.40625 
Q 43.953125 29.203125 39.59375 26.953125 
Q 35.25 24.703125 29.984375 24.703125 
Q 19.046875 24.703125 12.671875 31.3125 
Q 6.296875 37.9375 6.296875 49.421875 
Q 6.296875 60.640625 12.9375 67.421875 
Q 19.578125 74.21875 30.609375 74.21875 
Q 43.265625 74.21875 49.921875 64.515625 
Q 56.59375 54.828125 56.59375 36.375 
Q 56.59375 19.140625 48.40625 8.859375 
Q 40.234375 -1.421875 26.421875 -1.421875 
Q 22.703125 -1.421875 18.890625 -0.6875 
Q 15.09375 0.046875 10.984375 1.515625 
z
M 30.609375 32.421875 
Q 37.25 32.421875 41.125 36.953125 
Q 45.015625 41.5 45.015625 49.421875 
Q 45.015625 57.28125 41.125 61.84375 
Q 37.25 66.40625 30.609375 66.40625 
Q 23.96875 66.40625 20.09375 61.84375 
Q 16.21875 57.28125 16.21875 49.421875 
Q 16.21875 41.5 20.09375 36.953125 
Q 23.96875 32.421875 30.609375 32.421875 
z
" id="DejaVuSans-39"/>
     <path d="M 10.796875 72.90625 
L 49.515625 72.90625 
L 49.515625 64.59375 
L 19.828125 64.59375 
L 19.828125 46.734375 
Q 21.96875 47.46875 24.109375 47.828125 
Q 26.265625 48.1875 28.421875 48.1875 
Q 40.625 48.1875 47.75 41.5 
Q 54.890625 34.8125 54.890625 23.390625 
Q 54.890625 11.625 47.5625 5.09375 
Q 40.234375 -1.421875 26.90625 -1.421875 
Q 22.3125 -1.421875 17.546875 -0.640625 
Q 12.796875 0.140625 7.71875 1.703125 
L 7.71875 11.625 
Q 12.109375 9.234375 16.796875 8.0625 
Q 21.484375 6.890625 26.703125 6.890625 
Q 35.15625 6.890625 40.078125 11.328125 
Q 45.015625 15.765625 45.015625 23.390625 
Q 45.015625 31 40.078125 35.4375 
Q 35.15625 39.890625 26.703125 39.890625 
Q 22.75 39.890625 18.8125 39.015625 
Q 14.890625 38.140625 10.796875 36.28125 
z
" id="DejaVuSans-35"/>
     <path d="M 37.796875 64.3125 
L 12.890625 25.390625 
L 37.796875 25.390625 
z
M 35.203125 72.90625 
L 47.609375 72.90625 
L 47.609375 25.390625 
L 58.015625 25.390625 
L 58.015625 17.1875 
L 47.609375 17.1875 
L 47.609375 0 
L 37.796875 0 
L 37.796875 17.1875 
L 4.890625 17.1875 
L 4.890625 26.703125 
z
" id="DejaVuSans-34"/>
     <path d="M 11.71875 12.40625 
L 22.015625 12.40625 
L 22.015625 4 
L 14.015625 -11.625 
L 7.71875 -11.625 
L 11.71875 4 
z
" id="DejaVuSans-2c"/>
     <path d="M 16.890625 72.90625 
L 62.984375 72.90625 
L 61.375 64.59375 
L 25.09375 64.59375 
L 20.90625 43.015625 
L 55.71875 43.015625 
L 54.109375 34.71875 
L 19.28125 34.71875 
L 14.203125 8.296875 
L 51.3125 8.296875 
L 49.703125 0 
L 2.6875 0 
z
" id="DejaVuSans-Oblique-45"/>
     <path d="M 16.890625 72.90625 
L 30.171875 72.90625 
L 50.296875 10.40625 
L 62.5 72.90625 
L 72.125 72.90625 
L 57.90625 0 
L 44.578125 0 
L 24.515625 62.890625 
L 12.3125 0 
L 2.6875 0 
z
" id="DejaVuSans-Oblique-4e"/>
     <path d="M 10.59375 45.40625 
L 73.1875 45.40625 
L 73.1875 37.203125 
L 10.59375 37.203125 
z
M 10.59375 25.484375 
L 73.1875 25.484375 
L 73.1875 17.1875 
L 10.59375 17.1875 
z
" id="DejaVuSans-3d"/>
     <path d="M 4.890625 31.390625 
L 31.203125 31.390625 
L 31.203125 23.390625 
L 4.890625 23.390625 
z
" id="DejaVuSans-2d"/>
     <path d="M 12.40625 8.296875 
L 28.515625 8.296875 
L 28.515625 63.921875 
L 10.984375 60.40625 
L 10.984375 69.390625 
L 28.421875 72.90625 
L 38.28125 72.90625 
L 38.28125 8.296875 
L 54.390625 8.296875 
L 54.390625 0 
L 12.40625 0 
z
" id="DejaVuSans-31"/>
     <path d="M 31.78125 34.625 
Q 24.75 34.625 20.71875 30.859375 
Q 16.703125 27.09375 16.703125 20.515625 
Q 16.703125 13.921875 20.71875 10.15625 
Q 24.75 6.390625 31.78125 6.390625 
Q 38.8125 6.390625 42.859375 10.171875 
Q 46.921875 13.96875 46.921875 20.515625 
Q 46.921875 27.09375 42.890625 30.859375 
Q 38.875 34.625 31.78125 34.625 
z
M 21.921875 38.8125 
Q 15.578125 40.375 12.03125 44.71875 
Q 8.5 49.078125 8.5 55.328125 
Q 8.5 64.0625 14.71875 69.140625 
Q 20.953125 74.21875 31.78125 74.21875 
Q 42.671875 74.21875 48.875 69.140625 
Q 55.078125 64.0625 55.078125 55.328125 
Q 55.078125 49.078125 51.53125 44.71875 
Q 48 40.375 41.703125 38.8125 
Q 48.828125 37.15625 52.796875 32.3125 
Q 56.78125 27.484375 56.78125 20.515625 
Q 56.78125 9.90625 50.3125 4.234375 
Q 43.84375 -1.421875 31.78125 -1.421875 
Q 19.734375 -1.421875 13.25 4.234375 
Q 6.78125 9.90625 6.78125 20.515625 
Q 6.78125 27.484375 10.78125 32.3125 
Q 14.796875 37.15625 21.921875 38.8125 
z
M 18.3125 54.390625 
Q 18.3125 48.734375 21.84375 45.5625 
Q 25.390625 42.390625 31.78125 42.390625 
Q 38.140625 42.390625 41.71875 45.5625 
Q 45.3125 48.734375 45.3125 54.390625 
Q 45.3125 60.0625 41.71875 63.234375 
Q 38.140625 66.40625 31.78125 66.40625 
Q 25.390625 66.40625 21.84375 63.234375 
Q 18.3125 60.0625 18.3125 54.390625 
z
" id="DejaVuSans-38"/>
     <path d="M 31.78125 66.40625 
Q 24.171875 66.40625 20.328125 58.90625 
Q 16.5 51.421875 16.5 36.375 
Q 16.5 21.390625 20.328125 13.890625 
Q 24.171875 6.390625 31.78125 6.390625 
Q 39.453125 6.390625 43.28125 13.890625 
Q 47.125 21.390625 47.125 36.375 
Q 47.125 51.421875 43.28125 58.90625 
Q 39.453125 66.40625 31.78125 66.40625 
z
M 31.78125 74.21875 
Q 44.046875 74.21875 50.515625 64.515625 
Q 56.984375 54.828125 56.984375 36.375 
Q 56.984375 17.96875 50.515625 8.265625 
Q 44.046875 -1.421875 31.78125 -1.421875 
Q 19.53125 -1.421875 13.0625 8.265625 
Q 6.59375 17.96875 6.59375 36.375 
Q 6.59375 54.828125 13.0625 64.515625 
Q 19.53125 74.21875 31.78125 74.21875 
z
" id="DejaVuSans-30"/>
     <path d="M 10.6875 12.40625 
L 21 12.40625 
L 21 0 
L 10.6875 0 
z
" id="DejaVuSans-2e"/>
     <path d="M 19.1875 8.296875 
L 53.609375 8.296875 
L 53.609375 0 
L 7.328125 0 
L 7.328125 8.296875 
Q 12.9375 14.109375 22.625 23.890625 
Q 32.328125 33.6875 34.8125 36.53125 
Q 39.546875 41.84375 41.421875 45.53125 
Q 43.3125 49.21875 43.3125 52.78125 
Q 43.3125 58.59375 39.234375 62.25 
Q 35.15625 65.921875 28.609375 65.921875 
Q 23.96875 65.921875 18.8125 64.3125 
Q 13.671875 62.703125 7.8125 59.421875 
L 7.8125 69.390625 
Q 13.765625 71.78125 18.9375 73 
Q 24.125 74.21875 28.421875 74.21875 
Q 39.75 74.21875 46.484375 68.546875 
Q 53.21875 62.890625 53.21875 53.421875 
Q 53.21875 48.921875 51.53125 44.890625 
Q 49.859375 40.875 45.40625 35.40625 
Q 44.1875 33.984375 37.640625 27.21875 
Q 31.109375 20.453125 19.1875 8.296875 
z
" id="DejaVuSans-32"/>
     <path d="M 8.203125 72.90625 
L 55.078125 72.90625 
L 55.078125 68.703125 
L 28.609375 0 
L 18.3125 0 
L 43.21875 64.59375 
L 8.203125 64.59375 
z
" id="DejaVuSans-37"/>
     <path d="M 28.609375 0 
L 0.78125 72.90625 
L 11.078125 72.90625 
L 34.1875 11.53125 
L 57.328125 72.90625 
L 67.578125 72.90625 
L 39.796875 0 
z
" id="DejaVuSans-56"/>
     <path d="M 34.1875 63.1875 
L 14.15625 8.203125 
L 54.25 8.203125 
z
M 0.78125 0 
L 28.609375 72.90625 
L 39.796875 72.90625 
L 67.578125 0 
z
" id="DejaVuSans-394"/>
     <path d="M 9.8125 72.90625 
L 55.90625 72.90625 
L 55.90625 64.59375 
L 19.671875 64.59375 
L 19.671875 43.015625 
L 54.390625 43.015625 
L 54.390625 34.71875 
L 19.671875 34.71875 
L 19.671875 8.296875 
L 56.78125 8.296875 
L 56.78125 0 
L 9.8125 0 
z
" id="DejaVuSans-45"/>
     <path d="M 33.015625 40.375 
Q 26.375 40.375 22.484375 35.828125 
Q 18.609375 31.296875 18.609375 23.390625 
Q 18.609375 15.53125 22.484375 10.953125 
Q 26.375 6.390625 33.015625 6.390625 
Q 39.65625 6.390625 43.53125 10.953125 
Q 47.40625 15.53125 47.40625 23.390625 
Q 47.40625 31.296875 43.53125 35.828125 
Q 39.65625 40.375 33.015625 40.375 
z
M 52.59375 71.296875 
L 52.59375 62.3125 
Q 48.875 64.0625 45.09375 64.984375 
Q 41.3125 65.921875 37.59375 65.921875 
Q 27.828125 65.921875 22.671875 59.328125 
Q 17.53125 52.734375 16.796875 39.40625 
Q 19.671875 43.65625 24.015625 45.921875 
Q 28.375 48.1875 33.59375 48.1875 
Q 44.578125 48.1875 50.953125 41.515625 
Q 57.328125 34.859375 57.328125 23.390625 
Q 57.328125 12.15625 50.6875 5.359375 
Q 44.046875 -1.421875 33.015625 -1.421875 
Q 20.359375 -1.421875 13.671875 8.265625 
Q 6.984375 17.96875 6.984375 36.375 
Q 6.984375 53.65625 15.1875 63.9375 
Q 23.390625 74.21875 37.203125 74.21875 
Q 40.921875 74.21875 44.703125 73.484375 
Q 48.484375 72.75 52.59375 71.296875 
z
" id="DejaVuSans-36"/>
    </defs>
    <g transform="translate(63.228 35.472)scale(0.12 -0.12)">
     <use transform="translate(0 0.78125)" xlink:href="#DejaVuSans-53"/>
     <use transform="translate(63.476562 0.78125)" xlink:href="#DejaVuSans-74"/>
     <use transform="translate(102.685547 0.78125)" xlink:href="#DejaVuSans-72"/>
     <use transform="translate(143.798828 0.78125)" xlink:href="#DejaVuSans-75"/>
     <use transform="translate(207.177734 0.78125)" xlink:href="#DejaVuSans-63"/>
     <use transform="translate(262.158203 0.78125)" xlink:href="#DejaVuSans-74"/>
     <use transform="translate(301.367188 0.78125)" xlink:href="#DejaVuSans-75"/>
     <use transform="translate(364.746094 0.78125)" xlink:href="#DejaVuSans-72"/>
     <use transform="translate(405.859375 0.78125)" xlink:href="#DejaVuSans-65"/>
     <use transform="translate(467.382812 0.78125)" xlink:href="#DejaVuSans-20"/>
     <use transform="translate(499.169922 0.78125)" xlink:href="#DejaVuSans-23"/>
     <use transform="translate(582.958984 0.78125)" xlink:href="#DejaVuSans-39"/>
     <use transform="translate(646.582031 0.78125)" xlink:href="#DejaVuSans-35"/>
     <use transform="translate(710.126953 0.78125)" xlink:href="#DejaVuSans-39"/>
     <use transform="translate(773.75 0.78125)" xlink:href="#DejaVuSans-34"/>
     <use transform="translate(837.373047 0.78125)" xlink:href="#DejaVuSans-2c"/>
     <use transform="translate(869.160156 0.78125)" xlink:href="#DejaVuSans-20"/>
     <use transform="translate(900.947266 0.78125)" xlink:href="#DejaVuSans-Oblique-45"/>
     <use transform="translate(964.130859 -15.625)scale(0.7)" xlink:href="#DejaVuSans-Oblique-4e"/>
     <use transform="translate(1019.228516 0.78125)" xlink:href="#DejaVuSans-3d"/>
     <use transform="translate(1103.017578 0.78125)" xlink:href="#DejaVuSans-2d"/>
     <use transform="translate(1139.101562 0.78125)" xlink:href="#DejaVuSans-31"/>
     <use transform="translate(1202.724609 0.78125)" xlink:href="#DejaVuSans-38"/>
     <use transform="translate(1266.347656 0.78125)" xlink:href="#DejaVuSans-30"/>
     <use transform="translate(1329.970703 0.78125)" xlink:href="#DejaVuSans-2e"/>
     <use transform="translate(1361.679688 0.78125)" xlink:href="#DejaVuSans-32"/>
     <use transform="translate(1425.302734 0.78125)" xlink:href="#DejaVuSans-37"/>
     <use transform="translate(1488.925781 0.78125)" xlink:href="#DejaVuSans-65"/>
     <use transform="translate(1550.449219 0.78125)" xlink:href="#DejaVuSans-56"/>
     <use transform="translate(1618.857422 0.78125)" xlink:href="#DejaVuSans-2c"/>
     <use transform="translate(1650.644531 0.78125)" xlink:href="#DejaVuSans-20"/>
     <use transform="translate(1682.431641 0.78125)" xlink:href="#DejaVuSans-394"/>
     <use transform="translate(1750.839844 0.78125)" xlink:href="#DejaVuSans-45"/>
     <use transform="translate(1814.023438 0.78125)" xlink:href="#DejaVuSans-3d"/>
     <use transform="translate(1897.8125 0.78125)" xlink:href="#DejaVuSans-2d"/>
     <use transform="translate(1933.896484 0.78125)" xlink:href="#DejaVuSans-30"/>
     <use transform="translate(1997.519531 0.78125)" xlink:href="#DejaVuSans-2e"/>
     <use transform="translate(2029.306641 0.78125)" xlink:href="#DejaVuSans-30"/>
     <use transform="translate(2092.929688 0.78125)" xlink:href="#DejaVuSans-36"/>
     <use transform="translate(2156.552734 0.78125)" xlink:href="#DejaVuSans-65"/>
     <use transform="translate(2218.076172 0.78125)" xlink:href="#DejaVuSans-56"/>
    </g>
   </g>
  </g>
  <g id="axes_2">
   <g id="patch_2">
    <path clip-path="url(#pdc57315de8)" d="M 361.152 307.584 
L 361.152 306.5445 
L 361.152 42.5115 
L 361.152 41.472 
L 374.4576 41.472 
L 374.4576 42.5115 
L 374.4576 306.5445 
L 374.4576 307.584 
z
" style="fill:#ffffff;stroke:#ffffff;stroke-linejoin:miter;stroke-width:0.01;"/>
   </g>
   <image height="265.68" id="image51b424a343" transform="scale(1 -1)translate(0 -265.68)" width="12.96" x="361.44" xlink:href="data:image/png;base64,
iVBORw0KGgoAAAANSUhEUgAAABIAAAFxCAYAAAB+2fgXAAAABHNCSVQICAgIfAhkiAAAAeVJREFUeJztncmNw0AQA2ckheYQNv9QLIfQ8ygsCgQ7AEI8+jAs2Puz/94F1LP2ReCsZ18bAWIeZ5XaGRBE7VnbptG+KI101FYyNSiQG2oRITXKNaX9uclOdi2XWjftVE32CZCO2ou5Bj1TcCBr/1zB9ge7Fq0Rg2NM9pvbtG+ua1QgsRYhDy0ISEiNc40BEibbSI0Coj5CBGtkpFbXJiAjNZlrwhuSOv2M1DjXbEdEciBt1JSDDQKKpmZr2rr2j0DBGpXaWEJq3bQzEPIS26r9J+Wzv9Tm8o3aajRXqc3VUXsApKNWjeZq0x4ABVNbm7lrszVigDqP5vIl2+eaT2yfRkL7g+dRcNPqjohkjaCvRVBq0H2U3LQrOJCx9kdTg4B8oxZzzTdqdYHEngjUCAPyUctN9sVRq2sTECW2UKNLd2jVtRmo1A6AhMmWaSRcR8nUdIHUuVb75zJS218EyEitro1At69pIdeSk30Lkw0FktNImGyZRhy1O5galmxd03LUsHWk06jUZiCq+5Wb1kZNN4+wJxJuWt8RAW5am2sYNZ9rYCBzZ3buPKJ2P5Yj4Toy3keyIyJbIxs1rml1byCA84gpch5RQNB7Q0qNMGq2Hy4BXdNR41yz/cEEJfZzUz96r9PoB0okjeQ8y9TkAAAAAElFTkSuQmCC" y="-41.76"/>
   <g id="matplotlib.axis_1"/>
   <g id="matplotlib.axis_2">
    <g id="ytick_1">
     <g id="line2d_1">
      <defs>
       <path d="M 0 0 
L 3.5 0 
" id="md1b03bc98b" style="stroke:#000000;stroke-width:0.8;"/>
      </defs>
      <g>
       <use style="stroke:#000000;stroke-width:0.8;" x="374.4576" xlink:href="#md1b03bc98b" y="274.393221"/>
      </g>
     </g>
     <g id="text_2">
      <!-- −8.5 -->
      <defs>
       <path d="M 10.59375 35.5 
L 73.1875 35.5 
L 73.1875 27.203125 
L 10.59375 27.203125 
z
" id="DejaVuSans-2212"/>
      </defs>
      <g transform="translate(381.4576 278.19244)scale(0.1 -0.1)">
       <use xlink:href="#DejaVuSans-2212"/>
       <use x="83.789062" xlink:href="#DejaVuSans-38"/>
       <use x="147.412109" xlink:href="#DejaVuSans-2e"/>
       <use x="179.199219" xlink:href="#DejaVuSans-35"/>
      </g>
     </g>
    </g>
    <g id="ytick_2">
     <g id="line2d_2">
      <g>
       <use style="stroke:#000000;stroke-width:0.8;" x="374.4576" xlink:href="#md1b03bc98b" y="240.180205"/>
      </g>
     </g>
     <g id="text_3">
      <!-- −8.0 -->
      <g transform="translate(381.4576 243.979424)scale(0.1 -0.1)">
       <use xlink:href="#DejaVuSans-2212"/>
       <use x="83.789062" xlink:href="#DejaVuSans-38"/>
       <use x="147.412109" xlink:href="#DejaVuSans-2e"/>
       <use x="179.199219" xlink:href="#DejaVuSans-30"/>
      </g>
     </g>
    </g>
    <g id="ytick_3">
     <g id="line2d_3">
      <g>
       <use style="stroke:#000000;stroke-width:0.8;" x="374.4576" xlink:href="#md1b03bc98b" y="205.967189"/>
      </g>
     </g>
     <g id="text_4">
      <!-- −7.5 -->
      <g transform="translate(381.4576 209.766408)scale(0.1 -0.1)">
       <use xlink:href="#DejaVuSans-2212"/>
       <use x="83.789062" xlink:href="#DejaVuSans-37"/>
       <use x="147.412109" xlink:href="#DejaVuSans-2e"/>
       <use x="179.199219" xlink:href="#DejaVuSans-35"/>
      </g>
     </g>
    </g>
    <g id="ytick_4">
     <g id="line2d_4">
      <g>
       <use style="stroke:#000000;stroke-width:0.8;" x="374.4576" xlink:href="#md1b03bc98b" y="171.754173"/>
      </g>
     </g>
     <g id="text_5">
      <!-- −7.0 -->
      <g transform="translate(381.4576 175.553392)scale(0.1 -0.1)">
       <use xlink:href="#DejaVuSans-2212"/>
       <use x="83.789062" xlink:href="#DejaVuSans-37"/>
       <use x="147.412109" xlink:href="#DejaVuSans-2e"/>
       <use x="179.199219" xlink:href="#DejaVuSans-30"/>
      </g>
     </g>
    </g>
    <g id="ytick_5">
     <g id="line2d_5">
      <g>
       <use style="stroke:#000000;stroke-width:0.8;" x="374.4576" xlink:href="#md1b03bc98b" y="137.541157"/>
      </g>
     </g>
     <g id="text_6">
      <!-- −6.5 -->
      <g transform="translate(381.4576 141.340376)scale(0.1 -0.1)">
       <use xlink:href="#DejaVuSans-2212"/>
       <use x="83.789062" xlink:href="#DejaVuSans-36"/>
       <use x="147.412109" xlink:href="#DejaVuSans-2e"/>
       <use x="179.199219" xlink:href="#DejaVuSans-35"/>
      </g>
     </g>
    </g>
    <g id="ytick_6">
     <g id="line2d_6">
      <g>
       <use style="stroke:#000000;stroke-width:0.8;" x="374.4576" xlink:href="#md1b03bc98b" y="103.328141"/>
      </g>
     </g>
     <g id="text_7">
      <!-- −6.0 -->
      <g transform="translate(381.4576 107.12736)scale(0.1 -0.1)">
       <use xlink:href="#DejaVuSans-2212"/>
       <use x="83.789062" xlink:href="#DejaVuSans-36"/>
       <use x="147.412109" xlink:href="#DejaVuSans-2e"/>
       <use x="179.199219" xlink:href="#DejaVuSans-30"/>
      </g>
     </g>
    </g>
    <g id="ytick_7">
     <g id="line2d_7">
      <g>
       <use style="stroke:#000000;stroke-width:0.8;" x="374.4576" xlink:href="#md1b03bc98b" y="69.115125"/>
      </g>
     </g>
     <g id="text_8">
      <!-- −5.5 -->
      <g transform="translate(381.4576 72.914344)scale(0.1 -0.1)">
       <use xlink:href="#DejaVuSans-2212"/>
       <use x="83.789062" xlink:href="#DejaVuSans-35"/>
       <use x="147.412109" xlink:href="#DejaVuSans-2e"/>
       <use x="179.199219" xlink:href="#DejaVuSans-35"/>
      </g>
     </g>
    </g>
    <g id="text_9">
     <!-- Energy [eV] -->
     <defs>
      <path d="M 54.890625 33.015625 
L 54.890625 0 
L 45.90625 0 
L 45.90625 32.71875 
Q 45.90625 40.484375 42.875 44.328125 
Q 39.84375 48.1875 33.796875 48.1875 
Q 26.515625 48.1875 22.3125 43.546875 
Q 18.109375 38.921875 18.109375 30.90625 
L 18.109375 0 
L 9.078125 0 
L 9.078125 54.6875 
L 18.109375 54.6875 
L 18.109375 46.1875 
Q 21.34375 51.125 25.703125 53.5625 
Q 30.078125 56 35.796875 56 
Q 45.21875 56 50.046875 50.171875 
Q 54.890625 44.34375 54.890625 33.015625 
z
" id="DejaVuSans-6e"/>
      <path d="M 45.40625 27.984375 
Q 45.40625 37.75 41.375 43.109375 
Q 37.359375 48.484375 30.078125 48.484375 
Q 22.859375 48.484375 18.828125 43.109375 
Q 14.796875 37.75 14.796875 27.984375 
Q 14.796875 18.265625 18.828125 12.890625 
Q 22.859375 7.515625 30.078125 7.515625 
Q 37.359375 7.515625 41.375 12.890625 
Q 45.40625 18.265625 45.40625 27.984375 
z
M 54.390625 6.78125 
Q 54.390625 -7.171875 48.1875 -13.984375 
Q 42 -20.796875 29.203125 -20.796875 
Q 24.46875 -20.796875 20.265625 -20.09375 
Q 16.0625 -19.390625 12.109375 -17.921875 
L 12.109375 -9.1875 
Q 16.0625 -11.328125 19.921875 -12.34375 
Q 23.78125 -13.375 27.78125 -13.375 
Q 36.625 -13.375 41.015625 -8.765625 
Q 45.40625 -4.15625 45.40625 5.171875 
L 45.40625 9.625 
Q 42.625 4.78125 38.28125 2.390625 
Q 33.9375 0 27.875 0 
Q 17.828125 0 11.671875 7.65625 
Q 5.515625 15.328125 5.515625 27.984375 
Q 5.515625 40.671875 11.671875 48.328125 
Q 17.828125 56 27.875 56 
Q 33.9375 56 38.28125 53.609375 
Q 42.625 51.21875 45.40625 46.390625 
L 45.40625 54.6875 
L 54.390625 54.6875 
z
" id="DejaVuSans-67"/>
      <path d="M 32.171875 -5.078125 
Q 28.375 -14.84375 24.75 -17.8125 
Q 21.140625 -20.796875 15.09375 -20.796875 
L 7.90625 -20.796875 
L 7.90625 -13.28125 
L 13.1875 -13.28125 
Q 16.890625 -13.28125 18.9375 -11.515625 
Q 21 -9.765625 23.484375 -3.21875 
L 25.09375 0.875 
L 2.984375 54.6875 
L 12.5 54.6875 
L 29.59375 11.921875 
L 46.6875 54.6875 
L 56.203125 54.6875 
z
" id="DejaVuSans-79"/>
      <path d="M 8.59375 75.984375 
L 29.296875 75.984375 
L 29.296875 69 
L 17.578125 69 
L 17.578125 -6.203125 
L 29.296875 -6.203125 
L 29.296875 -13.1875 
L 8.59375 -13.1875 
z
" id="DejaVuSans-5b"/>
      <path d="M 30.421875 75.984375 
L 30.421875 -13.1875 
L 9.71875 -13.1875 
L 9.71875 -6.203125 
L 21.390625 -6.203125 
L 21.390625 69 
L 9.71875 69 
L 9.71875 75.984375 
z
" id="DejaVuSans-5d"/>
     </defs>
     <g transform="translate(417.33885 204.108469)rotate(-90)scale(0.1 -0.1)">
      <use xlink:href="#DejaVuSans-45"/>
      <use x="63.183594" xlink:href="#DejaVuSans-6e"/>
      <use x="126.5625" xlink:href="#DejaVuSans-65"/>
      <use x="188.085938" xlink:href="#DejaVuSans-72"/>
      <use x="229.183594" xlink:href="#DejaVuSans-67"/>
      <use x="292.660156" xlink:href="#DejaVuSans-79"/>
      <use x="351.839844" xlink:href="#DejaVuSans-20"/>
      <use x="383.626953" xlink:href="#DejaVuSans-5b"/>
      <use x="422.640625" xlink:href="#DejaVuSans-65"/>
      <use x="484.164062" xlink:href="#DejaVuSans-56"/>
      <use x="552.572266" xlink:href="#DejaVuSans-5d"/>
     </g>
    </g>
   </g>
   <g id="patch_3">
    <path d="M 361.152 307.584 
L 361.152 306.5445 
L 361.152 42.5115 
L 361.152 41.472 
L 374.4576 41.472 
L 374.4576 42.5115 
L 374.4576 306.5445 
L 374.4576 307.584 
z
" style="fill:none;stroke:#000000;stroke-linejoin:miter;stroke-width:0.8;"/>
   </g>
  </g>
 </g>
 <defs>
  <clipPath id="p0ed4d8170c">
   <rect height="266.112" width="285.696" x="57.6" y="41.472"/>
  </clipPath>
  <clipPath id="pdc57315de8">
   <rect height="266.112" width="13.3056" x="361.152" y="41.472"/>
  </clipPath>
 </defs>
</svg>
