<?xml version="1.0" encoding="utf-8" standalone="no"?>
<!DOCTYPE svg PUBLIC "-//W3C//DTD SVG 1.1//EN"
  "http://www.w3.org/Graphics/SVG/1.1/DTD/svg11.dtd">
<!-- Created with matplotlib (http://matplotlib.org/) -->
<svg height="345.6pt" version="1.1" viewBox="0 0 460.8 345.6" width="460.8pt" xmlns="http://www.w3.org/2000/svg" xmlns:xlink="http://www.w3.org/1999/xlink">
 <defs>
  <style type="text/css">
*{stroke-linecap:butt;stroke-linejoin:round;}
  </style>
 </defs>
 <g id="figure_1">
  <g id="patch_1">
   <path d="M 0 345.6 
L 460.8 345.6 
L 460.8 0 
L 0 0 
z
" style="fill:#ffffff;"/>
  </g>
  <g id="axes_1">
   <g id="CircleCollection_1">
    <path clip-path="url(#pce9cd785a3)" d="M 90.231185 198.110113 
C 91.993531 198.110113 93.683933 197.409925 94.930099 196.163759 
C 96.176266 194.917592 96.876453 193.227191 96.876453 191.464845 
C 96.876453 189.702499 96.176266 188.012098 94.930099 186.765931 
C 93.683933 185.519765 91.993531 184.819577 90.231185 184.819577 
C 88.46884 184.819577 86.778438 185.519765 85.532272 186.765931 
C 84.286105 188.012098 83.585918 189.702499 83.585918 191.464845 
C 83.585918 193.227191 84.286105 194.917592 85.532272 196.163759 
C 86.778438 197.409925 88.46884 198.110113 90.231185 198.110113 
z
" style="fill:#2e6d8e;"/>
    <path clip-path="url(#pce9cd785a3)" d="M 120.976148 214.4656 
C 122.745714 214.4656 124.443041 213.762544 125.694313 212.511272 
C 126.945585 211.26 127.648641 209.562673 127.648641 207.793107 
C 127.648641 206.023541 126.945585 204.326213 125.694313 203.074941 
C 124.443041 201.823669 122.745714 201.120613 120.976148 201.120613 
C 119.206582 201.120613 117.509254 201.823669 116.257982 203.074941 
C 115.00671 204.326213 114.303654 206.023541 114.303654 207.793107 
C 114.303654 209.562673 115.00671 211.26 116.257982 212.511272 
C 117.509254 213.762544 119.206582 214.4656 120.976148 214.4656 
z
" style="fill:#1f978b;"/>
    <path clip-path="url(#pce9cd785a3)" d="M 271.825274 60.753608 
C 273.637095 60.753608 275.374953 60.033764 276.656104 58.752613 
C 277.937255 57.471462 278.657099 55.733604 278.657099 53.921783 
C 278.657099 52.109962 277.937255 50.372104 276.656104 49.090953 
C 275.374953 47.809802 273.637095 47.089958 271.825274 47.089958 
C 270.013453 47.089958 268.275595 47.809802 266.994444 49.090953 
C 265.713293 50.372104 264.993449 52.109962 264.993449 53.921783 
C 264.993449 55.733604 265.713293 57.471462 266.994444 58.752613 
C 268.275595 60.033764 270.013453 60.753608 271.825274 60.753608 
z
" style="fill:#1f9e89;"/>
    <path clip-path="url(#pce9cd785a3)" d="M 71.035082 174.601551 
C 72.793751 174.601551 74.480626 173.902825 75.724192 172.659259 
C 76.967759 171.415692 77.666485 169.728817 77.666485 167.970149 
C 77.666485 166.21148 76.967759 164.524605 75.724192 163.281039 
C 74.480626 162.037472 72.793751 161.338746 71.035082 161.338746 
C 69.276414 161.338746 67.589539 162.037472 66.345972 163.281039 
C 65.102406 164.524605 64.40368 166.21148 64.40368 167.970149 
C 64.40368 169.728817 65.102406 171.415692 66.345972 172.659259 
C 67.589539 173.902825 69.276414 174.601551 71.035082 174.601551 
z
" style="fill:#2a788e;"/>
    <path clip-path="url(#pce9cd785a3)" d="M 222.552334 146.136223 
C 224.364462 146.136223 226.102613 145.416257 227.383981 144.134889 
C 228.665349 142.853521 229.385315 141.11537 229.385315 139.303242 
C 229.385315 137.491114 228.665349 135.752962 227.383981 134.471594 
C 226.102613 133.190226 224.364462 132.47026 222.552334 132.47026 
C 220.740206 132.47026 219.002054 133.190226 217.720686 134.471594 
C 216.439318 135.752962 215.719352 137.491114 215.719352 139.303242 
C 215.719352 141.11537 216.439318 142.853521 217.720686 144.134889 
C 219.002054 145.416257 220.740206 146.136223 222.552334 146.136223 
z
" style="fill:#463480;"/>
    <path clip-path="url(#pce9cd785a3)" d="M 294.778684 286.649786 
C 296.554566 286.649786 298.257951 285.94422 299.513689 284.688482 
C 300.769427 283.432744 301.474993 281.729359 301.474993 279.953477 
C 301.474993 278.177596 300.769427 276.47421 299.513689 275.218472 
C 298.257951 273.962734 296.554566 273.257169 294.778684 273.257169 
C 293.002803 273.257169 291.299417 273.962734 290.043679 275.218472 
C 288.787941 276.47421 288.082376 278.177596 288.082376 279.953477 
C 288.082376 281.729359 288.787941 283.432744 290.043679 284.688482 
C 291.299417 285.94422 293.002803 286.649786 294.778684 286.649786 
z
" style="fill:#2e6e8e;"/>
    <path clip-path="url(#pce9cd785a3)" d="M 80.695099 151.213938 
C 82.462092 151.213938 84.156951 150.511905 85.406403 149.262452 
C 86.655855 148.013 87.357889 146.318141 87.357889 144.551148 
C 87.357889 142.784156 86.655855 141.089297 85.406403 139.839844 
C 84.156951 138.590392 82.462092 137.888358 80.695099 137.888358 
C 78.928106 137.888358 77.233247 138.590392 75.983795 139.839844 
C 74.734342 141.089297 74.032309 142.784156 74.032309 144.551148 
C 74.032309 146.318141 74.734342 148.013 75.983795 149.262452 
C 77.233247 150.511905 78.928106 151.213938 80.695099 151.213938 
z
" style="fill:#2b758e;"/>
    <path clip-path="url(#pce9cd785a3)" d="M 304.157183 78.570457 
C 305.961961 78.570457 307.693062 77.853411 308.969233 76.57724 
C 310.245404 75.30107 310.962449 73.569968 310.962449 71.76519 
C 310.962449 69.960413 310.245404 68.229311 308.969233 66.95314 
C 307.693062 65.67697 305.961961 64.959924 304.157183 64.959924 
C 302.352405 64.959924 300.621304 65.67697 299.345133 66.95314 
C 298.068963 68.229311 297.351917 69.960413 297.351917 71.76519 
C 297.351917 73.569968 298.068963 75.30107 299.345133 76.57724 
C 300.621304 77.853411 302.352405 78.570457 304.157183 78.570457 
z
" style="fill:#25ab82;"/>
    <path clip-path="url(#pce9cd785a3)" d="M 267.281288 112.760356 
C 269.138899 112.760356 270.920677 112.022319 272.234207 110.708789 
C 273.547736 109.39526 274.285773 107.613482 274.285773 105.755871 
C 274.285773 103.89826 273.547736 102.116482 272.234207 100.802952 
C 270.920677 99.489423 269.138899 98.751386 267.281288 98.751386 
C 265.423677 98.751386 263.641899 99.489423 262.328369 100.802952 
C 261.01484 102.116482 260.276803 103.89826 260.276803 105.755871 
C 260.276803 107.613482 261.01484 109.39526 262.328369 110.708789 
C 263.641899 112.022319 265.423677 112.760356 267.281288 112.760356 
z
" style="fill:#2b758e;"/>
    <path clip-path="url(#pce9cd785a3)" d="M 305.413859 128.403149 
C 307.203334 128.403149 308.919757 127.692183 310.185106 126.426833 
C 311.450456 125.161484 312.161421 123.445061 312.161421 121.655587 
C 312.161421 119.866112 311.450456 118.149689 310.185106 116.88434 
C 308.919757 115.61899 307.203334 114.908024 305.413859 114.908024 
C 303.624385 114.908024 301.907962 115.61899 300.642612 116.88434 
C 299.377263 118.149689 298.666297 119.866112 298.666297 121.655587 
C 298.666297 123.445061 299.377263 125.161484 300.642612 126.426833 
C 301.907962 127.692183 303.624385 128.403149 305.413859 128.403149 
z
" style="fill:#5ec962;"/>
    <path clip-path="url(#pce9cd785a3)" d="M 190.391622 192.84356 
C 192.183084 192.84356 193.901414 192.131805 195.168169 190.865049 
C 196.434925 189.598294 197.14668 187.879964 197.14668 186.088502 
C 197.14668 184.297039 196.434925 182.578709 195.168169 181.311954 
C 193.901414 180.045199 192.183084 179.333443 190.391622 179.333443 
C 188.600159 179.333443 186.88183 180.045199 185.615074 181.311954 
C 184.348319 182.578709 183.636564 184.297039 183.636564 186.088502 
C 183.636564 187.879964 184.348319 189.598294 185.615074 190.865049 
C 186.88183 192.131805 188.600159 192.84356 190.391622 192.84356 
z
" style="fill:#23888e;"/>
    <path clip-path="url(#pce9cd785a3)" d="M 260.223793 271.2558 
C 262.005632 271.2558 263.714732 270.547868 264.974682 269.287917 
C 266.234633 268.027966 266.942565 266.318867 266.942565 264.537028 
C 266.942565 262.755189 266.234633 261.046089 264.974682 259.786138 
C 263.714732 258.526188 262.005632 257.818256 260.223793 257.818256 
C 258.441954 257.818256 256.732854 258.526188 255.472903 259.786138 
C 254.212953 261.046089 253.505021 262.755189 253.505021 264.537028 
C 253.505021 266.318867 254.212953 268.027966 255.472903 269.287917 
C 256.732854 270.547868 258.441954 271.2558 260.223793 271.2558 
z
" style="fill:#2e6d8e;"/>
    <path clip-path="url(#pce9cd785a3)" d="M 224.639942 100.785379 
C 226.467213 100.785379 228.219891 100.059396 229.511967 98.76732 
C 230.804044 97.475244 231.530026 95.722566 231.530026 93.895294 
C 231.530026 92.068022 230.804044 90.315345 229.511967 89.023269 
C 228.219891 87.731192 226.467213 87.005209 224.639942 87.005209 
C 222.81267 87.005209 221.059992 87.731192 219.767916 89.023269 
C 218.47584 90.315345 217.749857 92.068022 217.749857 93.895294 
C 217.749857 95.722566 218.47584 97.475244 219.767916 98.76732 
C 221.059992 100.059396 222.81267 100.785379 224.639942 100.785379 
z
" style="fill:#3e4989;"/>
    <path clip-path="url(#pce9cd785a3)" d="M 111.420308 132.672521 
C 113.200949 132.672521 114.9089 131.965065 116.168003 130.705962 
C 117.427106 129.446858 118.134562 127.738908 118.134562 125.958267 
C 118.134562 124.177626 117.427106 122.469676 116.168003 121.210573 
C 114.9089 119.951469 113.200949 119.244013 111.420308 119.244013 
C 109.639667 119.244013 107.931717 119.951469 106.672614 121.210573 
C 105.41351 122.469676 104.706054 124.177626 104.706054 125.958267 
C 104.706054 127.738908 105.41351 129.446858 106.672614 130.705962 
C 107.931717 131.965065 109.639667 132.672521 111.420308 132.672521 
z
" style="fill:#30698e;"/>
    <path clip-path="url(#pce9cd785a3)" d="M 236.139527 76.511353 
C 237.940848 76.511353 239.668634 75.795681 240.94236 74.521954 
C 242.216086 73.248228 242.931759 71.520442 242.931759 69.719121 
C 242.931759 67.9178 242.216086 66.190014 240.94236 64.916288 
C 239.668634 63.642562 237.940848 62.926889 236.139527 62.926889 
C 234.338206 62.926889 232.61042 63.642562 231.336694 64.916288 
C 230.062968 66.190014 229.347295 67.9178 229.347295 69.719121 
C 229.347295 71.520442 230.062968 73.248228 231.336694 74.521954 
C 232.61042 75.795681 234.338206 76.511353 236.139527 76.511353 
z
" style="fill:#35b779;"/>
    <path clip-path="url(#pce9cd785a3)" d="M 268.454602 139.272631 
C 270.291155 139.272631 272.052736 138.54296 273.351375 137.244321 
C 274.650015 135.945681 275.379685 134.184101 275.379685 132.347548 
C 275.379685 130.510994 274.650015 128.749414 273.351375 127.450774 
C 272.052736 126.152135 270.291155 125.422464 268.454602 125.422464 
C 266.618048 125.422464 264.856468 126.152135 263.557829 127.450774 
C 262.259189 128.749414 261.529519 130.510994 261.529519 132.347548 
C 261.529519 134.184101 262.259189 135.945681 263.557829 137.244321 
C 264.856468 138.54296 266.618048 139.272631 268.454602 139.272631 
z
" style="fill:#2c738e;"/>
    <path clip-path="url(#pce9cd785a3)" d="M 312.210008 103.002047 
C 314.040137 103.002047 315.795554 102.274929 317.089651 100.980832 
C 318.383747 99.686736 319.110865 97.931318 319.110865 96.10119 
C 319.110865 94.271061 318.383747 92.515643 317.089651 91.221547 
C 315.795554 89.92745 314.040137 89.200333 312.210008 89.200333 
C 310.379879 89.200333 308.624462 89.92745 307.330365 91.221547 
C 306.036269 92.515643 305.309151 94.271061 305.309151 96.10119 
C 305.309151 97.931318 306.036269 99.686736 307.330365 100.980832 
C 308.624462 102.274929 310.379879 103.002047 312.210008 103.002047 
z
" style="fill:#2a778e;"/>
    <path clip-path="url(#pce9cd785a3)" d="M 205.975984 170.894065 
C 207.775198 170.894065 209.500963 170.17923 210.7732 168.906993 
C 212.045436 167.634757 212.760272 165.908991 212.760272 164.109777 
C 212.760272 162.310563 212.045436 160.584798 210.7732 159.312561 
C 209.500963 158.040325 207.775198 157.325489 205.975984 157.325489 
C 204.17677 157.325489 202.451005 158.040325 201.178768 159.312561 
C 199.906532 160.584798 199.191696 162.310563 199.191696 164.109777 
C 199.191696 165.908991 199.906532 167.634757 201.178768 168.906993 
C 202.451005 170.17923 204.17677 170.894065 205.975984 170.894065 
z
" style="fill:#2c728e;"/>
    <path clip-path="url(#pce9cd785a3)" d="M 195.267111 238.409895 
C 197.05188 238.409895 198.76379 237.700799 200.025813 236.438776 
C 201.287835 235.176754 201.996932 233.464844 201.996932 231.680074 
C 201.996932 229.895305 201.287835 228.183395 200.025813 226.921372 
C 198.76379 225.659349 197.05188 224.950253 195.267111 224.950253 
C 193.482341 224.950253 191.770431 225.659349 190.508408 226.921372 
C 189.246386 228.183395 188.537289 229.895305 188.537289 231.680074 
C 188.537289 233.464844 189.246386 235.176754 190.508408 236.438776 
C 191.770431 237.700799 193.482341 238.409895 195.267111 238.409895 
z
" style="fill:#228c8d;"/>
    <path clip-path="url(#pce9cd785a3)" d="M 226.773785 255.154318 
C 228.559379 255.154318 230.27208 254.444894 231.534686 253.182289 
C 232.797291 251.919683 233.506715 250.206982 233.506715 248.421388 
C 233.506715 246.635794 232.797291 244.923093 231.534686 243.660487 
C 230.27208 242.397882 228.559379 241.688458 226.773785 241.688458 
C 224.988191 241.688458 223.27549 242.397882 222.012884 243.660487 
C 220.750279 244.923093 220.040855 246.635794 220.040855 248.421388 
C 220.040855 250.206982 220.750279 251.919683 222.012884 253.182289 
C 223.27549 254.444894 224.988191 255.154318 226.773785 255.154318 
z
" style="fill:#34618d;"/>
    <path clip-path="url(#pce9cd785a3)" d="M 329.859061 301.802005 
C 331.625003 301.802005 333.318855 301.100389 334.567564 299.851679 
C 335.816274 298.602969 336.51789 296.909118 336.51789 295.143176 
C 336.51789 293.377233 335.816274 291.683382 334.567564 290.434672 
C 333.318855 289.185963 331.625003 288.484346 329.859061 288.484346 
C 328.093119 288.484346 326.399267 289.185963 325.150558 290.434672 
C 323.901848 291.683382 323.200232 293.377233 323.200232 295.143176 
C 323.200232 296.909118 323.901848 298.602969 325.150558 299.851679 
C 326.399267 301.100389 328.093119 301.802005 329.859061 301.802005 
z
" style="fill:#fde725;"/>
    <path clip-path="url(#pce9cd785a3)" d="M 168.496251 216.977999 
C 170.278132 216.977999 171.987272 216.27005 173.247253 215.01007 
C 174.507233 213.75009 175.215182 212.04095 175.215182 210.259068 
C 175.215182 208.477187 174.507233 206.768047 173.247253 205.508067 
C 171.987272 204.248087 170.278132 203.540138 168.496251 203.540138 
C 166.71437 203.540138 165.00523 204.248087 163.745249 205.508067 
C 162.485269 206.768047 161.77732 208.477187 161.77732 210.259068 
C 161.77732 212.04095 162.485269 213.75009 163.745249 215.01007 
C 165.00523 216.27005 166.71437 216.977999 168.496251 216.977999 
z
" style="fill:#440154;"/>
    <path clip-path="url(#pce9cd785a3)" d="M 149.128944 123.043264 
C 150.924334 123.043264 152.646432 122.329947 153.915965 121.060415 
C 155.185498 119.790882 155.898814 118.068784 155.898814 116.273394 
C 155.898814 114.478003 155.185498 112.755905 153.915965 111.486373 
C 152.646432 110.21684 150.924334 109.503523 149.128944 109.503523 
C 147.333553 109.503523 145.611456 110.21684 144.341923 111.486373 
C 143.07239 112.755905 142.359074 114.478003 142.359074 116.273394 
C 142.359074 118.068784 143.07239 119.790882 144.341923 121.060415 
C 145.611456 122.329947 147.333553 123.043264 149.128944 123.043264 
z
" style="fill:#26828e;"/>
    <path clip-path="url(#pce9cd785a3)" d="M 195.529364 122.549072 
C 197.339778 122.549072 199.076285 121.829787 200.356441 120.549631 
C 201.636597 119.269475 202.355882 117.532967 202.355882 115.722554 
C 202.355882 113.91214 201.636597 112.175632 200.356441 110.895476 
C 199.076285 109.615321 197.339778 108.896036 195.529364 108.896036 
C 193.71895 108.896036 191.982442 109.615321 190.702287 110.895476 
C 189.422131 112.175632 188.702846 113.91214 188.702846 115.722554 
C 188.702846 117.532967 189.422131 119.269475 190.702287 120.549631 
C 191.982442 121.829787 193.71895 122.549072 195.529364 122.549072 
z
" style="fill:#46327e;"/>
   </g>
   <g id="text_1">
    <!-- Structure #1084, $E_N$=-178.28eV, ΔE=-0.60eV -->
    <defs>
     <path d="M 53.515625 70.515625 
L 53.515625 60.890625 
Q 47.90625 63.578125 42.921875 64.890625 
Q 37.9375 66.21875 33.296875 66.21875 
Q 25.25 66.21875 20.875 63.09375 
Q 16.5 59.96875 16.5 54.203125 
Q 16.5 49.359375 19.40625 46.890625 
Q 22.3125 44.4375 30.421875 42.921875 
L 36.375 41.703125 
Q 47.40625 39.59375 52.65625 34.296875 
Q 57.90625 29 57.90625 20.125 
Q 57.90625 9.515625 50.796875 4.046875 
Q 43.703125 -1.421875 29.984375 -1.421875 
Q 24.8125 -1.421875 18.96875 -0.25 
Q 13.140625 0.921875 6.890625 3.21875 
L 6.890625 13.375 
Q 12.890625 10.015625 18.65625 8.296875 
Q 24.421875 6.59375 29.984375 6.59375 
Q 38.421875 6.59375 43.015625 9.90625 
Q 47.609375 13.234375 47.609375 19.390625 
Q 47.609375 24.75 44.3125 27.78125 
Q 41.015625 30.8125 33.5 32.328125 
L 27.484375 33.5 
Q 16.453125 35.6875 11.515625 40.375 
Q 6.59375 45.0625 6.59375 53.421875 
Q 6.59375 63.09375 13.40625 68.65625 
Q 20.21875 74.21875 32.171875 74.21875 
Q 37.3125 74.21875 42.625 73.28125 
Q 47.953125 72.359375 53.515625 70.515625 
z
" id="DejaVuSans-53"/>
     <path d="M 18.3125 70.21875 
L 18.3125 54.6875 
L 36.8125 54.6875 
L 36.8125 47.703125 
L 18.3125 47.703125 
L 18.3125 18.015625 
Q 18.3125 11.328125 20.140625 9.421875 
Q 21.96875 7.515625 27.59375 7.515625 
L 36.8125 7.515625 
L 36.8125 0 
L 27.59375 0 
Q 17.1875 0 13.234375 3.875 
Q 9.28125 7.765625 9.28125 18.015625 
L 9.28125 47.703125 
L 2.6875 47.703125 
L 2.6875 54.6875 
L 9.28125 54.6875 
L 9.28125 70.21875 
z
" id="DejaVuSans-74"/>
     <path d="M 41.109375 46.296875 
Q 39.59375 47.171875 37.8125 47.578125 
Q 36.03125 48 33.890625 48 
Q 26.265625 48 22.1875 43.046875 
Q 18.109375 38.09375 18.109375 28.8125 
L 18.109375 0 
L 9.078125 0 
L 9.078125 54.6875 
L 18.109375 54.6875 
L 18.109375 46.1875 
Q 20.953125 51.171875 25.484375 53.578125 
Q 30.03125 56 36.53125 56 
Q 37.453125 56 38.578125 55.875 
Q 39.703125 55.765625 41.0625 55.515625 
z
" id="DejaVuSans-72"/>
     <path d="M 8.5 21.578125 
L 8.5 54.6875 
L 17.484375 54.6875 
L 17.484375 21.921875 
Q 17.484375 14.15625 20.5 10.265625 
Q 23.53125 6.390625 29.59375 6.390625 
Q 36.859375 6.390625 41.078125 11.03125 
Q 45.3125 15.671875 45.3125 23.6875 
L 45.3125 54.6875 
L 54.296875 54.6875 
L 54.296875 0 
L 45.3125 0 
L 45.3125 8.40625 
Q 42.046875 3.421875 37.71875 1 
Q 33.40625 -1.421875 27.6875 -1.421875 
Q 18.265625 -1.421875 13.375 4.4375 
Q 8.5 10.296875 8.5 21.578125 
z
M 31.109375 56 
z
" id="DejaVuSans-75"/>
     <path d="M 48.78125 52.59375 
L 48.78125 44.1875 
Q 44.96875 46.296875 41.140625 47.34375 
Q 37.3125 48.390625 33.40625 48.390625 
Q 24.65625 48.390625 19.8125 42.84375 
Q 14.984375 37.3125 14.984375 27.296875 
Q 14.984375 17.28125 19.8125 11.734375 
Q 24.65625 6.203125 33.40625 6.203125 
Q 37.3125 6.203125 41.140625 7.25 
Q 44.96875 8.296875 48.78125 10.40625 
L 48.78125 2.09375 
Q 45.015625 0.34375 40.984375 -0.53125 
Q 36.96875 -1.421875 32.421875 -1.421875 
Q 20.0625 -1.421875 12.78125 6.34375 
Q 5.515625 14.109375 5.515625 27.296875 
Q 5.515625 40.671875 12.859375 48.328125 
Q 20.21875 56 33.015625 56 
Q 37.15625 56 41.109375 55.140625 
Q 45.0625 54.296875 48.78125 52.59375 
z
" id="DejaVuSans-63"/>
     <path d="M 56.203125 29.59375 
L 56.203125 25.203125 
L 14.890625 25.203125 
Q 15.484375 15.921875 20.484375 11.0625 
Q 25.484375 6.203125 34.421875 6.203125 
Q 39.59375 6.203125 44.453125 7.46875 
Q 49.3125 8.734375 54.109375 11.28125 
L 54.109375 2.78125 
Q 49.265625 0.734375 44.1875 -0.34375 
Q 39.109375 -1.421875 33.890625 -1.421875 
Q 20.796875 -1.421875 13.15625 6.1875 
Q 5.515625 13.8125 5.515625 26.8125 
Q 5.515625 40.234375 12.765625 48.109375 
Q 20.015625 56 32.328125 56 
Q 43.359375 56 49.78125 48.890625 
Q 56.203125 41.796875 56.203125 29.59375 
z
M 47.21875 32.234375 
Q 47.125 39.59375 43.09375 43.984375 
Q 39.0625 48.390625 32.421875 48.390625 
Q 24.90625 48.390625 20.390625 44.140625 
Q 15.875 39.890625 15.1875 32.171875 
z
" id="DejaVuSans-65"/>
     <path id="DejaVuSans-20"/>
     <path d="M 51.125 44 
L 36.921875 44 
L 32.8125 27.6875 
L 47.125 27.6875 
z
M 43.796875 71.78125 
L 38.71875 51.515625 
L 52.984375 51.515625 
L 58.109375 71.78125 
L 65.921875 71.78125 
L 60.890625 51.515625 
L 76.125 51.515625 
L 76.125 44 
L 58.984375 44 
L 54.984375 27.6875 
L 70.515625 27.6875 
L 70.515625 20.21875 
L 53.078125 20.21875 
L 48 0 
L 40.1875 0 
L 45.21875 20.21875 
L 30.90625 20.21875 
L 25.875 0 
L 18.015625 0 
L 23.09375 20.21875 
L 7.71875 20.21875 
L 7.71875 27.6875 
L 24.90625 27.6875 
L 29 44 
L 13.28125 44 
L 13.28125 51.515625 
L 30.90625 51.515625 
L 35.890625 71.78125 
z
" id="DejaVuSans-23"/>
     <path d="M 12.40625 8.296875 
L 28.515625 8.296875 
L 28.515625 63.921875 
L 10.984375 60.40625 
L 10.984375 69.390625 
L 28.421875 72.90625 
L 38.28125 72.90625 
L 38.28125 8.296875 
L 54.390625 8.296875 
L 54.390625 0 
L 12.40625 0 
z
" id="DejaVuSans-31"/>
     <path d="M 31.78125 66.40625 
Q 24.171875 66.40625 20.328125 58.90625 
Q 16.5 51.421875 16.5 36.375 
Q 16.5 21.390625 20.328125 13.890625 
Q 24.171875 6.390625 31.78125 6.390625 
Q 39.453125 6.390625 43.28125 13.890625 
Q 47.125 21.390625 47.125 36.375 
Q 47.125 51.421875 43.28125 58.90625 
Q 39.453125 66.40625 31.78125 66.40625 
z
M 31.78125 74.21875 
Q 44.046875 74.21875 50.515625 64.515625 
Q 56.984375 54.828125 56.984375 36.375 
Q 56.984375 17.96875 50.515625 8.265625 
Q 44.046875 -1.421875 31.78125 -1.421875 
Q 19.53125 -1.421875 13.0625 8.265625 
Q 6.59375 17.96875 6.59375 36.375 
Q 6.59375 54.828125 13.0625 64.515625 
Q 19.53125 74.21875 31.78125 74.21875 
z
" id="DejaVuSans-30"/>
     <path d="M 31.78125 34.625 
Q 24.75 34.625 20.71875 30.859375 
Q 16.703125 27.09375 16.703125 20.515625 
Q 16.703125 13.921875 20.71875 10.15625 
Q 24.75 6.390625 31.78125 6.390625 
Q 38.8125 6.390625 42.859375 10.171875 
Q 46.921875 13.96875 46.921875 20.515625 
Q 46.921875 27.09375 42.890625 30.859375 
Q 38.875 34.625 31.78125 34.625 
z
M 21.921875 38.8125 
Q 15.578125 40.375 12.03125 44.71875 
Q 8.5 49.078125 8.5 55.328125 
Q 8.5 64.0625 14.71875 69.140625 
Q 20.953125 74.21875 31.78125 74.21875 
Q 42.671875 74.21875 48.875 69.140625 
Q 55.078125 64.0625 55.078125 55.328125 
Q 55.078125 49.078125 51.53125 44.71875 
Q 48 40.375 41.703125 38.8125 
Q 48.828125 37.15625 52.796875 32.3125 
Q 56.78125 27.484375 56.78125 20.515625 
Q 56.78125 9.90625 50.3125 4.234375 
Q 43.84375 -1.421875 31.78125 -1.421875 
Q 19.734375 -1.421875 13.25 4.234375 
Q 6.78125 9.90625 6.78125 20.515625 
Q 6.78125 27.484375 10.78125 32.3125 
Q 14.796875 37.15625 21.921875 38.8125 
z
M 18.3125 54.390625 
Q 18.3125 48.734375 21.84375 45.5625 
Q 25.390625 42.390625 31.78125 42.390625 
Q 38.140625 42.390625 41.71875 45.5625 
Q 45.3125 48.734375 45.3125 54.390625 
Q 45.3125 60.0625 41.71875 63.234375 
Q 38.140625 66.40625 31.78125 66.40625 
Q 25.390625 66.40625 21.84375 63.234375 
Q 18.3125 60.0625 18.3125 54.390625 
z
" id="DejaVuSans-38"/>
     <path d="M 37.796875 64.3125 
L 12.890625 25.390625 
L 37.796875 25.390625 
z
M 35.203125 72.90625 
L 47.609375 72.90625 
L 47.609375 25.390625 
L 58.015625 25.390625 
L 58.015625 17.1875 
L 47.609375 17.1875 
L 47.609375 0 
L 37.796875 0 
L 37.796875 17.1875 
L 4.890625 17.1875 
L 4.890625 26.703125 
z
" id="DejaVuSans-34"/>
     <path d="M 11.71875 12.40625 
L 22.015625 12.40625 
L 22.015625 4 
L 14.015625 -11.625 
L 7.71875 -11.625 
L 11.71875 4 
z
" id="DejaVuSans-2c"/>
     <path d="M 16.890625 72.90625 
L 62.984375 72.90625 
L 61.375 64.59375 
L 25.09375 64.59375 
L 20.90625 43.015625 
L 55.71875 43.015625 
L 54.109375 34.71875 
L 19.28125 34.71875 
L 14.203125 8.296875 
L 51.3125 8.296875 
L 49.703125 0 
L 2.6875 0 
z
" id="DejaVuSans-Oblique-45"/>
     <path d="M 16.890625 72.90625 
L 30.171875 72.90625 
L 50.296875 10.40625 
L 62.5 72.90625 
L 72.125 72.90625 
L 57.90625 0 
L 44.578125 0 
L 24.515625 62.890625 
L 12.3125 0 
L 2.6875 0 
z
" id="DejaVuSans-Oblique-4e"/>
     <path d="M 10.59375 45.40625 
L 73.1875 45.40625 
L 73.1875 37.203125 
L 10.59375 37.203125 
z
M 10.59375 25.484375 
L 73.1875 25.484375 
L 73.1875 17.1875 
L 10.59375 17.1875 
z
" id="DejaVuSans-3d"/>
     <path d="M 4.890625 31.390625 
L 31.203125 31.390625 
L 31.203125 23.390625 
L 4.890625 23.390625 
z
" id="DejaVuSans-2d"/>
     <path d="M 8.203125 72.90625 
L 55.078125 72.90625 
L 55.078125 68.703125 
L 28.609375 0 
L 18.3125 0 
L 43.21875 64.59375 
L 8.203125 64.59375 
z
" id="DejaVuSans-37"/>
     <path d="M 10.6875 12.40625 
L 21 12.40625 
L 21 0 
L 10.6875 0 
z
" id="DejaVuSans-2e"/>
     <path d="M 19.1875 8.296875 
L 53.609375 8.296875 
L 53.609375 0 
L 7.328125 0 
L 7.328125 8.296875 
Q 12.9375 14.109375 22.625 23.890625 
Q 32.328125 33.6875 34.8125 36.53125 
Q 39.546875 41.84375 41.421875 45.53125 
Q 43.3125 49.21875 43.3125 52.78125 
Q 43.3125 58.59375 39.234375 62.25 
Q 35.15625 65.921875 28.609375 65.921875 
Q 23.96875 65.921875 18.8125 64.3125 
Q 13.671875 62.703125 7.8125 59.421875 
L 7.8125 69.390625 
Q 13.765625 71.78125 18.9375 73 
Q 24.125 74.21875 28.421875 74.21875 
Q 39.75 74.21875 46.484375 68.546875 
Q 53.21875 62.890625 53.21875 53.421875 
Q 53.21875 48.921875 51.53125 44.890625 
Q 49.859375 40.875 45.40625 35.40625 
Q 44.1875 33.984375 37.640625 27.21875 
Q 31.109375 20.453125 19.1875 8.296875 
z
" id="DejaVuSans-32"/>
     <path d="M 28.609375 0 
L 0.78125 72.90625 
L 11.078125 72.90625 
L 34.1875 11.53125 
L 57.328125 72.90625 
L 67.578125 72.90625 
L 39.796875 0 
z
" id="DejaVuSans-56"/>
     <path d="M 34.1875 63.1875 
L 14.15625 8.203125 
L 54.25 8.203125 
z
M 0.78125 0 
L 28.609375 72.90625 
L 39.796875 72.90625 
L 67.578125 0 
z
" id="DejaVuSans-394"/>
     <path d="M 9.8125 72.90625 
L 55.90625 72.90625 
L 55.90625 64.59375 
L 19.671875 64.59375 
L 19.671875 43.015625 
L 54.390625 43.015625 
L 54.390625 34.71875 
L 19.671875 34.71875 
L 19.671875 8.296875 
L 56.78125 8.296875 
L 56.78125 0 
L 9.8125 0 
z
" id="DejaVuSans-45"/>
     <path d="M 33.015625 40.375 
Q 26.375 40.375 22.484375 35.828125 
Q 18.609375 31.296875 18.609375 23.390625 
Q 18.609375 15.53125 22.484375 10.953125 
Q 26.375 6.390625 33.015625 6.390625 
Q 39.65625 6.390625 43.53125 10.953125 
Q 47.40625 15.53125 47.40625 23.390625 
Q 47.40625 31.296875 43.53125 35.828125 
Q 39.65625 40.375 33.015625 40.375 
z
M 52.59375 71.296875 
L 52.59375 62.3125 
Q 48.875 64.0625 45.09375 64.984375 
Q 41.3125 65.921875 37.59375 65.921875 
Q 27.828125 65.921875 22.671875 59.328125 
Q 17.53125 52.734375 16.796875 39.40625 
Q 19.671875 43.65625 24.015625 45.921875 
Q 28.375 48.1875 33.59375 48.1875 
Q 44.578125 48.1875 50.953125 41.515625 
Q 57.328125 34.859375 57.328125 23.390625 
Q 57.328125 12.15625 50.6875 5.359375 
Q 44.046875 -1.421875 33.015625 -1.421875 
Q 20.359375 -1.421875 13.671875 8.265625 
Q 6.984375 17.96875 6.984375 36.375 
Q 6.984375 53.65625 15.1875 63.9375 
Q 23.390625 74.21875 37.203125 74.21875 
Q 40.921875 74.21875 44.703125 73.484375 
Q 48.484375 72.75 52.59375 71.296875 
z
" id="DejaVuSans-36"/>
    </defs>
    <g transform="translate(63.228 35.472)scale(0.12 -0.12)">
     <use transform="translate(0 0.78125)" xlink:href="#DejaVuSans-53"/>
     <use transform="translate(63.476562 0.78125)" xlink:href="#DejaVuSans-74"/>
     <use transform="translate(102.685547 0.78125)" xlink:href="#DejaVuSans-72"/>
     <use transform="translate(143.798828 0.78125)" xlink:href="#DejaVuSans-75"/>
     <use transform="translate(207.177734 0.78125)" xlink:href="#DejaVuSans-63"/>
     <use transform="translate(262.158203 0.78125)" xlink:href="#DejaVuSans-74"/>
     <use transform="translate(301.367188 0.78125)" xlink:href="#DejaVuSans-75"/>
     <use transform="translate(364.746094 0.78125)" xlink:href="#DejaVuSans-72"/>
     <use transform="translate(405.859375 0.78125)" xlink:href="#DejaVuSans-65"/>
     <use transform="translate(467.382812 0.78125)" xlink:href="#DejaVuSans-20"/>
     <use transform="translate(499.169922 0.78125)" xlink:href="#DejaVuSans-23"/>
     <use transform="translate(582.958984 0.78125)" xlink:href="#DejaVuSans-31"/>
     <use transform="translate(646.582031 0.78125)" xlink:href="#DejaVuSans-30"/>
     <use transform="translate(710.205078 0.78125)" xlink:href="#DejaVuSans-38"/>
     <use transform="translate(773.828125 0.78125)" xlink:href="#DejaVuSans-34"/>
     <use transform="translate(837.451172 0.78125)" xlink:href="#DejaVuSans-2c"/>
     <use transform="translate(869.238281 0.78125)" xlink:href="#DejaVuSans-20"/>
     <use transform="translate(901.025391 0.78125)" xlink:href="#DejaVuSans-Oblique-45"/>
     <use transform="translate(964.208984 -15.625)scale(0.7)" xlink:href="#DejaVuSans-Oblique-4e"/>
     <use transform="translate(1019.306641 0.78125)" xlink:href="#DejaVuSans-3d"/>
     <use transform="translate(1103.095703 0.78125)" xlink:href="#DejaVuSans-2d"/>
     <use transform="translate(1139.179688 0.78125)" xlink:href="#DejaVuSans-31"/>
     <use transform="translate(1202.802734 0.78125)" xlink:href="#DejaVuSans-37"/>
     <use transform="translate(1266.425781 0.78125)" xlink:href="#DejaVuSans-38"/>
     <use transform="translate(1330.048828 0.78125)" xlink:href="#DejaVuSans-2e"/>
     <use transform="translate(1361.757812 0.78125)" xlink:href="#DejaVuSans-32"/>
     <use transform="translate(1425.380859 0.78125)" xlink:href="#DejaVuSans-38"/>
     <use transform="translate(1489.003906 0.78125)" xlink:href="#DejaVuSans-65"/>
     <use transform="translate(1550.527344 0.78125)" xlink:href="#DejaVuSans-56"/>
     <use transform="translate(1618.935547 0.78125)" xlink:href="#DejaVuSans-2c"/>
     <use transform="translate(1650.722656 0.78125)" xlink:href="#DejaVuSans-20"/>
     <use transform="translate(1682.509766 0.78125)" xlink:href="#DejaVuSans-394"/>
     <use transform="translate(1750.917969 0.78125)" xlink:href="#DejaVuSans-45"/>
     <use transform="translate(1814.101562 0.78125)" xlink:href="#DejaVuSans-3d"/>
     <use transform="translate(1897.890625 0.78125)" xlink:href="#DejaVuSans-2d"/>
     <use transform="translate(1933.974609 0.78125)" xlink:href="#DejaVuSans-30"/>
     <use transform="translate(1997.597656 0.78125)" xlink:href="#DejaVuSans-2e"/>
     <use transform="translate(2029.384766 0.78125)" xlink:href="#DejaVuSans-36"/>
     <use transform="translate(2093.007812 0.78125)" xlink:href="#DejaVuSans-30"/>
     <use transform="translate(2156.630859 0.78125)" xlink:href="#DejaVuSans-65"/>
     <use transform="translate(2218.154297 0.78125)" xlink:href="#DejaVuSans-56"/>
    </g>
   </g>
  </g>
  <g id="axes_2">
   <g id="patch_2">
    <path clip-path="url(#pbf56400ac7)" d="M 361.152 307.584 
L 361.152 306.5445 
L 361.152 42.5115 
L 361.152 41.472 
L 374.4576 41.472 
L 374.4576 42.5115 
L 374.4576 306.5445 
L 374.4576 307.584 
z
" style="fill:#ffffff;stroke:#ffffff;stroke-linejoin:miter;stroke-width:0.01;"/>
   </g>
   <image height="265.68" id="image3d609a79ef" transform="scale(1 -1)translate(0 -265.68)" width="12.96" x="361.44" xlink:href="data:image/png;base64,
iVBORw0KGgoAAAANSUhEUgAAABIAAAFxCAYAAAB+2fgXAAAABHNCSVQICAgIfAhkiAAAAeVJREFUeJztncmNw0AQA2ckheYQNv9QLIfQ8ygsCgQ7AEI8+jAs2Puz/94F1LP2ReCsZ18bAWIeZ5XaGRBE7VnbptG+KI101FYyNSiQG2oRITXKNaX9uclOdi2XWjftVE32CZCO2ou5Bj1TcCBr/1zB9ge7Fq0Rg2NM9pvbtG+ua1QgsRYhDy0ISEiNc40BEibbSI0Coj5CBGtkpFbXJiAjNZlrwhuSOv2M1DjXbEdEciBt1JSDDQKKpmZr2rr2j0DBGpXaWEJq3bQzEPIS26r9J+Wzv9Tm8o3aajRXqc3VUXsApKNWjeZq0x4ABVNbm7lrszVigDqP5vIl2+eaT2yfRkL7g+dRcNPqjohkjaCvRVBq0H2U3LQrOJCx9kdTg4B8oxZzzTdqdYHEngjUCAPyUctN9sVRq2sTECW2UKNLd2jVtRmo1A6AhMmWaSRcR8nUdIHUuVb75zJS218EyEitro1At69pIdeSk30Lkw0FktNImGyZRhy1O5galmxd03LUsHWk06jUZiCq+5Wb1kZNN4+wJxJuWt8RAW5am2sYNZ9rYCBzZ3buPKJ2P5Yj4Toy3keyIyJbIxs1rml1byCA84gpch5RQNB7Q0qNMGq2Hy4BXdNR41yz/cEEJfZzUz96r9PoB0okjeQ8y9TkAAAAAElFTkSuQmCC" y="-41.76"/>
   <g id="matplotlib.axis_1"/>
   <g id="matplotlib.axis_2">
    <g id="ytick_1">
     <g id="line2d_1">
      <defs>
       <path d="M 0 0 
L 3.5 0 
" id="m449d8041b1" style="stroke:#000000;stroke-width:0.8;"/>
      </defs>
      <g>
       <use style="stroke:#000000;stroke-width:0.8;" x="374.4576" xlink:href="#m449d8041b1" y="294.321976"/>
      </g>
     </g>
     <g id="text_2">
      <!-- −9.0 -->
      <defs>
       <path d="M 10.59375 35.5 
L 73.1875 35.5 
L 73.1875 27.203125 
L 10.59375 27.203125 
z
" id="DejaVuSans-2212"/>
       <path d="M 10.984375 1.515625 
L 10.984375 10.5 
Q 14.703125 8.734375 18.5 7.8125 
Q 22.3125 6.890625 25.984375 6.890625 
Q 35.75 6.890625 40.890625 13.453125 
Q 46.046875 20.015625 46.78125 33.40625 
Q 43.953125 29.203125 39.59375 26.953125 
Q 35.25 24.703125 29.984375 24.703125 
Q 19.046875 24.703125 12.671875 31.3125 
Q 6.296875 37.9375 6.296875 49.421875 
Q 6.296875 60.640625 12.9375 67.421875 
Q 19.578125 74.21875 30.609375 74.21875 
Q 43.265625 74.21875 49.921875 64.515625 
Q 56.59375 54.828125 56.59375 36.375 
Q 56.59375 19.140625 48.40625 8.859375 
Q 40.234375 -1.421875 26.421875 -1.421875 
Q 22.703125 -1.421875 18.890625 -0.6875 
Q 15.09375 0.046875 10.984375 1.515625 
z
M 30.609375 32.421875 
Q 37.25 32.421875 41.125 36.953125 
Q 45.015625 41.5 45.015625 49.421875 
Q 45.015625 57.28125 41.125 61.84375 
Q 37.25 66.40625 30.609375 66.40625 
Q 23.96875 66.40625 20.09375 61.84375 
Q 16.21875 57.28125 16.21875 49.421875 
Q 16.21875 41.5 20.09375 36.953125 
Q 23.96875 32.421875 30.609375 32.421875 
z
" id="DejaVuSans-39"/>
      </defs>
      <g transform="translate(381.4576 298.121194)scale(0.1 -0.1)">
       <use xlink:href="#DejaVuSans-2212"/>
       <use x="83.789062" xlink:href="#DejaVuSans-39"/>
       <use x="147.412109" xlink:href="#DejaVuSans-2e"/>
       <use x="179.199219" xlink:href="#DejaVuSans-30"/>
      </g>
     </g>
    </g>
    <g id="ytick_2">
     <g id="line2d_2">
      <g>
       <use style="stroke:#000000;stroke-width:0.8;" x="374.4576" xlink:href="#m449d8041b1" y="263.053728"/>
      </g>
     </g>
     <g id="text_3">
      <!-- −8.5 -->
      <defs>
       <path d="M 10.796875 72.90625 
L 49.515625 72.90625 
L 49.515625 64.59375 
L 19.828125 64.59375 
L 19.828125 46.734375 
Q 21.96875 47.46875 24.109375 47.828125 
Q 26.265625 48.1875 28.421875 48.1875 
Q 40.625 48.1875 47.75 41.5 
Q 54.890625 34.8125 54.890625 23.390625 
Q 54.890625 11.625 47.5625 5.09375 
Q 40.234375 -1.421875 26.90625 -1.421875 
Q 22.3125 -1.421875 17.546875 -0.640625 
Q 12.796875 0.140625 7.71875 1.703125 
L 7.71875 11.625 
Q 12.109375 9.234375 16.796875 8.0625 
Q 21.484375 6.890625 26.703125 6.890625 
Q 35.15625 6.890625 40.078125 11.328125 
Q 45.015625 15.765625 45.015625 23.390625 
Q 45.015625 31 40.078125 35.4375 
Q 35.15625 39.890625 26.703125 39.890625 
Q 22.75 39.890625 18.8125 39.015625 
Q 14.890625 38.140625 10.796875 36.28125 
z
" id="DejaVuSans-35"/>
      </defs>
      <g transform="translate(381.4576 266.852946)scale(0.1 -0.1)">
       <use xlink:href="#DejaVuSans-2212"/>
       <use x="83.789062" xlink:href="#DejaVuSans-38"/>
       <use x="147.412109" xlink:href="#DejaVuSans-2e"/>
       <use x="179.199219" xlink:href="#DejaVuSans-35"/>
      </g>
     </g>
    </g>
    <g id="ytick_3">
     <g id="line2d_3">
      <g>
       <use style="stroke:#000000;stroke-width:0.8;" x="374.4576" xlink:href="#m449d8041b1" y="231.78548"/>
      </g>
     </g>
     <g id="text_4">
      <!-- −8.0 -->
      <g transform="translate(381.4576 235.584699)scale(0.1 -0.1)">
       <use xlink:href="#DejaVuSans-2212"/>
       <use x="83.789062" xlink:href="#DejaVuSans-38"/>
       <use x="147.412109" xlink:href="#DejaVuSans-2e"/>
       <use x="179.199219" xlink:href="#DejaVuSans-30"/>
      </g>
     </g>
    </g>
    <g id="ytick_4">
     <g id="line2d_4">
      <g>
       <use style="stroke:#000000;stroke-width:0.8;" x="374.4576" xlink:href="#m449d8041b1" y="200.517232"/>
      </g>
     </g>
     <g id="text_5">
      <!-- −7.5 -->
      <g transform="translate(381.4576 204.316451)scale(0.1 -0.1)">
       <use xlink:href="#DejaVuSans-2212"/>
       <use x="83.789062" xlink:href="#DejaVuSans-37"/>
       <use x="147.412109" xlink:href="#DejaVuSans-2e"/>
       <use x="179.199219" xlink:href="#DejaVuSans-35"/>
      </g>
     </g>
    </g>
    <g id="ytick_5">
     <g id="line2d_5">
      <g>
       <use style="stroke:#000000;stroke-width:0.8;" x="374.4576" xlink:href="#m449d8041b1" y="169.248984"/>
      </g>
     </g>
     <g id="text_6">
      <!-- −7.0 -->
      <g transform="translate(381.4576 173.048203)scale(0.1 -0.1)">
       <use xlink:href="#DejaVuSans-2212"/>
       <use x="83.789062" xlink:href="#DejaVuSans-37"/>
       <use x="147.412109" xlink:href="#DejaVuSans-2e"/>
       <use x="179.199219" xlink:href="#DejaVuSans-30"/>
      </g>
     </g>
    </g>
    <g id="ytick_6">
     <g id="line2d_6">
      <g>
       <use style="stroke:#000000;stroke-width:0.8;" x="374.4576" xlink:href="#m449d8041b1" y="137.980736"/>
      </g>
     </g>
     <g id="text_7">
      <!-- −6.5 -->
      <g transform="translate(381.4576 141.779955)scale(0.1 -0.1)">
       <use xlink:href="#DejaVuSans-2212"/>
       <use x="83.789062" xlink:href="#DejaVuSans-36"/>
       <use x="147.412109" xlink:href="#DejaVuSans-2e"/>
       <use x="179.199219" xlink:href="#DejaVuSans-35"/>
      </g>
     </g>
    </g>
    <g id="ytick_7">
     <g id="line2d_7">
      <g>
       <use style="stroke:#000000;stroke-width:0.8;" x="374.4576" xlink:href="#m449d8041b1" y="106.712489"/>
      </g>
     </g>
     <g id="text_8">
      <!-- −6.0 -->
      <g transform="translate(381.4576 110.511707)scale(0.1 -0.1)">
       <use xlink:href="#DejaVuSans-2212"/>
       <use x="83.789062" xlink:href="#DejaVuSans-36"/>
       <use x="147.412109" xlink:href="#DejaVuSans-2e"/>
       <use x="179.199219" xlink:href="#DejaVuSans-30"/>
      </g>
     </g>
    </g>
    <g id="ytick_8">
     <g id="line2d_8">
      <g>
       <use style="stroke:#000000;stroke-width:0.8;" x="374.4576" xlink:href="#m449d8041b1" y="75.444241"/>
      </g>
     </g>
     <g id="text_9">
      <!-- −5.5 -->
      <g transform="translate(381.4576 79.24346)scale(0.1 -0.1)">
       <use xlink:href="#DejaVuSans-2212"/>
       <use x="83.789062" xlink:href="#DejaVuSans-35"/>
       <use x="147.412109" xlink:href="#DejaVuSans-2e"/>
       <use x="179.199219" xlink:href="#DejaVuSans-35"/>
      </g>
     </g>
    </g>
    <g id="ytick_9">
     <g id="line2d_9">
      <g>
       <use style="stroke:#000000;stroke-width:0.8;" x="374.4576" xlink:href="#m449d8041b1" y="44.175993"/>
      </g>
     </g>
     <g id="text_10">
      <!-- −5.0 -->
      <g transform="translate(381.4576 47.975212)scale(0.1 -0.1)">
       <use xlink:href="#DejaVuSans-2212"/>
       <use x="83.789062" xlink:href="#DejaVuSans-35"/>
       <use x="147.412109" xlink:href="#DejaVuSans-2e"/>
       <use x="179.199219" xlink:href="#DejaVuSans-30"/>
      </g>
     </g>
    </g>
    <g id="text_11">
     <!-- Energy [eV] -->
     <defs>
      <path d="M 54.890625 33.015625 
L 54.890625 0 
L 45.90625 0 
L 45.90625 32.71875 
Q 45.90625 40.484375 42.875 44.328125 
Q 39.84375 48.1875 33.796875 48.1875 
Q 26.515625 48.1875 22.3125 43.546875 
Q 18.109375 38.921875 18.109375 30.90625 
L 18.109375 0 
L 9.078125 0 
L 9.078125 54.6875 
L 18.109375 54.6875 
L 18.109375 46.1875 
Q 21.34375 51.125 25.703125 53.5625 
Q 30.078125 56 35.796875 56 
Q 45.21875 56 50.046875 50.171875 
Q 54.890625 44.34375 54.890625 33.015625 
z
" id="DejaVuSans-6e"/>
      <path d="M 45.40625 27.984375 
Q 45.40625 37.75 41.375 43.109375 
Q 37.359375 48.484375 30.078125 48.484375 
Q 22.859375 48.484375 18.828125 43.109375 
Q 14.796875 37.75 14.796875 27.984375 
Q 14.796875 18.265625 18.828125 12.890625 
Q 22.859375 7.515625 30.078125 7.515625 
Q 37.359375 7.515625 41.375 12.890625 
Q 45.40625 18.265625 45.40625 27.984375 
z
M 54.390625 6.78125 
Q 54.390625 -7.171875 48.1875 -13.984375 
Q 42 -20.796875 29.203125 -20.796875 
Q 24.46875 -20.796875 20.265625 -20.09375 
Q 16.0625 -19.390625 12.109375 -17.921875 
L 12.109375 -9.1875 
Q 16.0625 -11.328125 19.921875 -12.34375 
Q 23.78125 -13.375 27.78125 -13.375 
Q 36.625 -13.375 41.015625 -8.765625 
Q 45.40625 -4.15625 45.40625 5.171875 
L 45.40625 9.625 
Q 42.625 4.78125 38.28125 2.390625 
Q 33.9375 0 27.875 0 
Q 17.828125 0 11.671875 7.65625 
Q 5.515625 15.328125 5.515625 27.984375 
Q 5.515625 40.671875 11.671875 48.328125 
Q 17.828125 56 27.875 56 
Q 33.9375 56 38.28125 53.609375 
Q 42.625 51.21875 45.40625 46.390625 
L 45.40625 54.6875 
L 54.390625 54.6875 
z
" id="DejaVuSans-67"/>
      <path d="M 32.171875 -5.078125 
Q 28.375 -14.84375 24.75 -17.8125 
Q 21.140625 -20.796875 15.09375 -20.796875 
L 7.90625 -20.796875 
L 7.90625 -13.28125 
L 13.1875 -13.28125 
Q 16.890625 -13.28125 18.9375 -11.515625 
Q 21 -9.765625 23.484375 -3.21875 
L 25.09375 0.875 
L 2.984375 54.6875 
L 12.5 54.6875 
L 29.59375 11.921875 
L 46.6875 54.6875 
L 56.203125 54.6875 
z
" id="DejaVuSans-79"/>
      <path d="M 8.59375 75.984375 
L 29.296875 75.984375 
L 29.296875 69 
L 17.578125 69 
L 17.578125 -6.203125 
L 29.296875 -6.203125 
L 29.296875 -13.1875 
L 8.59375 -13.1875 
z
" id="DejaVuSans-5b"/>
      <path d="M 30.421875 75.984375 
L 30.421875 -13.1875 
L 9.71875 -13.1875 
L 9.71875 -6.203125 
L 21.390625 -6.203125 
L 21.390625 69 
L 9.71875 69 
L 9.71875 75.984375 
z
" id="DejaVuSans-5d"/>
     </defs>
     <g transform="translate(417.33885 204.108469)rotate(-90)scale(0.1 -0.1)">
      <use xlink:href="#DejaVuSans-45"/>
      <use x="63.183594" xlink:href="#DejaVuSans-6e"/>
      <use x="126.5625" xlink:href="#DejaVuSans-65"/>
      <use x="188.085938" xlink:href="#DejaVuSans-72"/>
      <use x="229.183594" xlink:href="#DejaVuSans-67"/>
      <use x="292.660156" xlink:href="#DejaVuSans-79"/>
      <use x="351.839844" xlink:href="#DejaVuSans-20"/>
      <use x="383.626953" xlink:href="#DejaVuSans-5b"/>
      <use x="422.640625" xlink:href="#DejaVuSans-65"/>
      <use x="484.164062" xlink:href="#DejaVuSans-56"/>
      <use x="552.572266" xlink:href="#DejaVuSans-5d"/>
     </g>
    </g>
   </g>
   <g id="patch_3">
    <path d="M 361.152 307.584 
L 361.152 306.5445 
L 361.152 42.5115 
L 361.152 41.472 
L 374.4576 41.472 
L 374.4576 42.5115 
L 374.4576 306.5445 
L 374.4576 307.584 
z
" style="fill:none;stroke:#000000;stroke-linejoin:miter;stroke-width:0.8;"/>
   </g>
  </g>
 </g>
 <defs>
  <clipPath id="pce9cd785a3">
   <rect height="266.112" width="285.696" x="57.6" y="41.472"/>
  </clipPath>
  <clipPath id="pbf56400ac7">
   <rect height="266.112" width="13.3056" x="361.152" y="41.472"/>
  </clipPath>
 </defs>
</svg>
