<?xml version="1.0" encoding="utf-8" standalone="no"?>
<!DOCTYPE svg PUBLIC "-//W3C//DTD SVG 1.1//EN"
  "http://www.w3.org/Graphics/SVG/1.1/DTD/svg11.dtd">
<!-- Created with matplotlib (http://matplotlib.org/) -->
<svg height="345.6pt" version="1.1" viewBox="0 0 460.8 345.6" width="460.8pt" xmlns="http://www.w3.org/2000/svg" xmlns:xlink="http://www.w3.org/1999/xlink">
 <defs>
  <style type="text/css">
*{stroke-linecap:butt;stroke-linejoin:round;}
  </style>
 </defs>
 <g id="figure_1">
  <g id="patch_1">
   <path d="M 0 345.6 
L 460.8 345.6 
L 460.8 0 
L 0 0 
z
" style="fill:#ffffff;"/>
  </g>
  <g id="axes_1">
   <g id="CircleCollection_1">
    <path clip-path="url(#p6fae4de313)" d="M 179.387323 233.18423 
C 181.431065 233.18423 183.391375 232.372243 184.836518 230.9271 
C 186.281662 229.481956 187.093649 227.521646 187.093649 225.477905 
C 187.093649 223.434163 186.281662 221.473853 184.836518 220.028709 
C 183.391375 218.583566 181.431065 217.771579 179.387323 217.771579 
C 177.343582 217.771579 175.383272 218.583566 173.938128 220.028709 
C 172.492985 221.473853 171.680998 223.434163 171.680998 225.477905 
C 171.680998 227.521646 172.492985 229.481956 173.938128 230.9271 
C 175.383272 232.372243 177.343582 233.18423 179.387323 233.18423 
z
" style="fill:#453581;"/>
    <path clip-path="url(#p6fae4de313)" d="M 214.336622 117.541072 
C 216.078349 117.541072 217.748973 116.849077 218.98056 115.61749 
C 220.212146 114.385904 220.904141 112.715279 220.904141 110.973553 
C 220.904141 109.231826 220.212146 107.561202 218.98056 106.329615 
C 217.748973 105.098029 216.078349 104.406034 214.336622 104.406034 
C 212.594896 104.406034 210.924271 105.098029 209.692685 106.329615 
C 208.461098 107.561202 207.769103 109.231826 207.769103 110.973553 
C 207.769103 112.715279 208.461098 114.385904 209.692685 115.61749 
C 210.924271 116.849077 212.594896 117.541072 214.336622 117.541072 
z
" style="fill:#471063;"/>
    <path clip-path="url(#p6fae4de313)" d="M 282.707301 208.841597 
C 284.479722 208.841597 286.179788 208.137407 287.433079 206.884116 
C 288.68637 205.630825 289.39056 203.93076 289.39056 202.158339 
C 289.39056 200.385918 288.68637 198.685852 287.433079 197.432562 
C 286.179788 196.179271 284.479722 195.475081 282.707301 195.475081 
C 280.934881 195.475081 279.234815 196.179271 277.981524 197.432562 
C 276.728233 198.685852 276.024043 200.385918 276.024043 202.158339 
C 276.024043 203.93076 276.728233 205.630825 277.981524 206.884116 
C 279.234815 208.137407 280.934881 208.841597 282.707301 208.841597 
z
" style="fill:#48186a;"/>
    <path clip-path="url(#p6fae4de313)" d="M 245.909783 251.060708 
C 247.846692 251.060708 249.70453 250.291166 251.074132 248.921564 
C 252.443733 247.551963 253.213275 245.694124 253.213275 243.757215 
C 253.213275 241.820306 252.443733 239.962468 251.074132 238.592866 
C 249.70453 237.223265 247.846692 236.453723 245.909783 236.453723 
C 243.972874 236.453723 242.115035 237.223265 240.745434 238.592866 
C 239.375833 239.962468 238.606291 241.820306 238.606291 243.757215 
C 238.606291 245.694124 239.375833 247.551963 240.745434 248.921564 
C 242.115035 250.291166 243.972874 251.060708 245.909783 251.060708 
z
" style="fill:#450559;"/>
    <path clip-path="url(#p6fae4de313)" d="M 287.909626 271.217188 
C 289.792021 271.217188 291.597572 270.469304 292.928626 269.13825 
C 294.25968 267.807196 295.007564 266.001645 295.007564 264.11925 
C 295.007564 262.236855 294.25968 260.431304 292.928626 259.10025 
C 291.597572 257.769196 289.792021 257.021312 287.909626 257.021312 
C 286.027231 257.021312 284.22168 257.769196 282.890626 259.10025 
C 281.559571 260.431304 280.811688 262.236855 280.811688 264.11925 
C 280.811688 266.001645 281.559571 267.807196 282.890626 269.13825 
C 284.22168 270.469304 286.027231 271.217188 287.909626 271.217188 
z
" style="fill:#2e6e8e;"/>
    <path clip-path="url(#p6fae4de313)" d="M 305.2313 252.505189 
C 307.038267 252.505189 308.771469 251.787273 310.049188 250.509555 
C 311.326906 249.231836 312.044822 247.498634 312.044822 245.691667 
C 312.044822 243.8847 311.326906 242.151498 310.049188 240.873779 
C 308.771469 239.59606 307.038267 238.878145 305.2313 238.878145 
C 303.424333 238.878145 301.691131 239.59606 300.413412 240.873779 
C 299.135694 242.151498 298.417778 243.8847 298.417778 245.691667 
C 298.417778 247.498634 299.135694 249.231836 300.413412 250.509555 
C 301.691131 251.787273 303.424333 252.505189 305.2313 252.505189 
z
" style="fill:#2e6e8e;"/>
    <path clip-path="url(#p6fae4de313)" d="M 232.109804 302.518495 
C 234.171983 302.518495 236.149979 301.699183 237.60816 300.241002 
C 239.066341 298.782821 239.885653 296.804825 239.885653 294.742646 
C 239.885653 292.680466 239.066341 290.702471 237.60816 289.24429 
C 236.149979 287.786109 234.171983 286.966796 232.109804 286.966796 
C 230.047624 286.966796 228.069629 287.786109 226.611448 289.24429 
C 225.153267 290.702471 224.333954 292.680466 224.333954 294.742646 
C 224.333954 296.804825 225.153267 298.782821 226.611448 300.241002 
C 228.069629 301.699183 230.047624 302.518495 232.109804 302.518495 
z
" style="fill:#29af7f;"/>
    <path clip-path="url(#p6fae4de313)" d="M 178.321884 178.383953 
C 180.261539 178.383953 182.122011 177.61332 183.493553 176.241778 
C 184.865096 174.870235 185.635729 173.009763 185.635729 171.070109 
C 185.635729 169.130455 184.865096 167.269983 183.493553 165.89844 
C 182.122011 164.526897 180.261539 163.756264 178.321884 163.756264 
C 176.38223 163.756264 174.521758 164.526897 173.150215 165.89844 
C 171.778673 167.269983 171.00804 169.130455 171.00804 171.070109 
C 171.00804 173.009763 171.778673 174.870235 173.150215 176.241778 
C 174.521758 177.61332 176.38223 178.383953 178.321884 178.383953 
z
" style="fill:#482374;"/>
    <path clip-path="url(#p6fae4de313)" d="M 118.335781 241.267385 
C 120.492686 241.267385 122.561539 240.410438 124.0867 238.885277 
C 125.611862 237.360115 126.468809 235.291262 126.468809 233.134358 
C 126.468809 230.977454 125.611862 228.908601 124.0867 227.38344 
C 122.561539 225.858278 120.492686 225.001331 118.335781 225.001331 
C 116.178877 225.001331 114.110024 225.858278 112.584863 227.38344 
C 111.059701 228.908601 110.202754 230.977454 110.202754 233.134358 
C 110.202754 235.291262 111.059701 237.360115 112.584863 238.885277 
C 114.110024 240.410438 116.178877 241.267385 118.335781 241.267385 
z
" style="fill:#2a768e;"/>
    <path clip-path="url(#p6fae4de313)" d="M 240.461999 189.972348 
C 242.290523 189.972348 244.044401 189.245868 245.337363 187.952907 
C 246.630325 186.659945 247.356805 184.906067 247.356805 183.077543 
C 247.356805 181.249019 246.630325 179.495141 245.337363 178.202179 
C 244.044401 176.909218 242.290523 176.182738 240.461999 176.182738 
C 238.633476 176.182738 236.879597 176.909218 235.586636 178.202179 
C 234.293674 179.495141 233.567194 181.249019 233.567194 183.077543 
C 233.567194 184.906067 234.293674 186.659945 235.586636 187.952907 
C 236.879597 189.245868 238.633476 189.972348 240.461999 189.972348 
z
" style="fill:#440154;"/>
    <path clip-path="url(#p6fae4de313)" d="M 329.694985 297.722648 
C 331.529327 297.722648 333.288786 296.993856 334.585862 295.69678 
C 335.882938 294.399705 336.611729 292.640245 336.611729 290.805903 
C 336.611729 288.971561 335.882938 287.212102 334.585862 285.915026 
C 333.288786 284.61795 331.529327 283.889159 329.694985 283.889159 
C 327.860643 283.889159 326.101184 284.61795 324.804108 285.915026 
C 323.507032 287.212102 322.77824 288.971561 322.77824 290.805903 
C 322.77824 292.640245 323.507032 294.399705 324.804108 295.69678 
C 326.101184 296.993856 327.860643 297.722648 329.694985 297.722648 
z
" style="fill:#40bd72;"/>
    <path clip-path="url(#p6fae4de313)" d="M 221.920223 208.382091 
C 223.825123 208.382091 225.65226 207.625266 226.999228 206.278298 
C 228.346196 204.93133 229.103021 203.104193 229.103021 201.199293 
C 229.103021 199.294392 228.346196 197.467255 226.999228 196.120287 
C 225.65226 194.773319 223.825123 194.016494 221.920223 194.016494 
C 220.015322 194.016494 218.188185 194.773319 216.841217 196.120287 
C 215.494249 197.467255 214.737424 199.294392 214.737424 201.199293 
C 214.737424 203.104193 215.494249 204.93133 216.841217 206.278298 
C 218.188185 207.625266 220.015322 208.382091 221.920223 208.382091 
z
" style="fill:#46075a;"/>
    <path clip-path="url(#p6fae4de313)" d="M 141.389859 97.157504 
C 143.250934 97.157504 145.036034 96.418091 146.352013 95.102112 
C 147.667991 93.786134 148.407404 92.001033 148.407404 90.139959 
C 148.407404 88.278884 147.667991 86.493784 146.352013 85.177805 
C 145.036034 83.861826 143.250934 83.122414 141.389859 83.122414 
C 139.528785 83.122414 137.743684 83.861826 136.427706 85.177805 
C 135.111727 86.493784 134.372314 88.278884 134.372314 90.139959 
C 134.372314 92.001033 135.111727 93.786134 136.427706 95.102112 
C 137.743684 96.418091 139.528785 97.157504 141.389859 97.157504 
z
" style="fill:#1fa287;"/>
    <path clip-path="url(#p6fae4de313)" d="M 135.007906 61.033912 
C 136.814698 61.033912 138.547733 60.316065 139.825328 59.03847 
C 141.102924 57.760874 141.82077 56.02784 141.82077 54.221047 
C 141.82077 52.414254 141.102924 50.68122 139.825328 49.403625 
C 138.547733 48.126029 136.814698 47.408183 135.007906 47.408183 
C 133.201113 47.408183 131.468078 48.126029 130.190483 49.403625 
C 128.912887 50.68122 128.195041 52.414254 128.195041 54.221047 
C 128.195041 56.02784 128.912887 57.760874 130.190483 59.03847 
C 131.468078 60.316065 133.201113 61.033912 135.007906 61.033912 
z
" style="fill:#228c8d;"/>
    <path clip-path="url(#p6fae4de313)" d="M 157.674611 192.369443 
C 159.685906 192.369443 161.615095 191.570347 163.037295 190.148147 
C 164.459496 188.725946 165.258592 186.796757 165.258592 184.785462 
C 165.258592 182.774167 164.459496 180.844978 163.037295 179.422777 
C 161.615095 178.000577 159.685906 177.201481 157.674611 177.201481 
C 155.663315 177.201481 153.734127 178.000577 152.311926 179.422777 
C 150.889725 180.844978 150.090629 182.774167 150.090629 184.785462 
C 150.090629 186.796757 150.889725 188.725946 152.311926 190.148147 
C 153.734127 191.570347 155.663315 192.369443 157.674611 192.369443 
z
" style="fill:#3dbc74;"/>
    <path clip-path="url(#p6fae4de313)" d="M 71.318829 223.547573 
C 73.504665 223.547573 75.60127 222.679131 77.14689 221.133512 
C 78.69251 219.587892 79.560952 217.491287 79.560952 215.30545 
C 79.560952 213.119614 78.69251 211.023009 77.14689 209.477389 
C 75.60127 207.931769 73.504665 207.063327 71.318829 207.063327 
C 69.132992 207.063327 67.036388 207.931769 65.490768 209.477389 
C 63.945148 211.023009 63.076706 213.119614 63.076706 215.30545 
C 63.076706 217.491287 63.945148 219.587892 65.490768 221.133512 
C 67.036388 222.679131 69.132992 223.547573 71.318829 223.547573 
z
" style="fill:#fde725;"/>
    <path clip-path="url(#p6fae4de313)" d="M 257.733051 138.153906 
C 259.419087 138.153906 261.036294 137.484037 262.228502 136.29183 
C 263.420709 135.099622 264.090578 133.482415 264.090578 131.796379 
C 264.090578 130.110343 263.420709 128.493136 262.228502 127.300928 
C 261.036294 126.108721 259.419087 125.438852 257.733051 125.438852 
C 256.047015 125.438852 254.429808 126.108721 253.2376 127.300928 
C 252.045393 128.493136 251.375523 130.110343 251.375523 131.796379 
C 251.375523 133.482415 252.045393 135.099622 253.2376 136.29183 
C 254.429808 137.484037 256.047015 138.153906 257.733051 138.153906 
z
" style="fill:#21908d;"/>
    <path clip-path="url(#p6fae4de313)" d="M 203.987497 297.292561 
C 206.108651 297.292561 208.143213 296.449818 209.643095 294.949936 
C 211.142978 293.450054 211.985721 291.415491 211.985721 289.294337 
C 211.985721 287.173184 211.142978 285.138621 209.643095 283.638739 
C 208.143213 282.138857 206.108651 281.296114 203.987497 281.296114 
C 201.866343 281.296114 199.831781 282.138857 198.331899 283.638739 
C 196.832017 285.138621 195.989273 287.173184 195.989273 289.294337 
C 195.989273 291.415491 196.832017 293.450054 198.331899 294.949936 
C 199.831781 296.449818 201.866343 297.292561 203.987497 297.292561 
z
" style="fill:#31b57b;"/>
    <path clip-path="url(#p6fae4de313)" d="M 169.196629 138.569067 
C 171.078816 138.569067 172.884167 137.821267 174.215074 136.49036 
C 175.54598 135.159453 176.293781 133.354102 176.293781 131.471915 
C 176.293781 129.589729 175.54598 127.784378 174.215074 126.453471 
C 172.884167 125.122564 171.078816 124.374764 169.196629 124.374764 
C 167.314443 124.374764 165.509092 125.122564 164.178185 126.453471 
C 162.847278 127.784378 162.099478 129.589729 162.099478 131.471915 
C 162.099478 133.354102 162.847278 135.159453 164.178185 136.49036 
C 165.509092 137.821267 167.314443 138.569067 169.196629 138.569067 
z
" style="fill:#472f7d;"/>
    <path clip-path="url(#p6fae4de313)" d="M 174.79522 79.699576 
C 176.548723 79.699576 178.230643 79.002902 179.470557 77.762988 
C 180.710471 76.523074 181.407145 74.841154 181.407145 73.087651 
C 181.407145 71.334148 180.710471 69.652228 179.470557 68.412315 
C 178.230643 67.172401 176.548723 66.475727 174.79522 66.475727 
C 173.041717 66.475727 171.359797 67.172401 170.119884 68.412315 
C 168.87997 69.652228 168.183296 71.334148 168.183296 73.087651 
C 168.183296 74.841154 168.87997 76.523074 170.119884 77.762988 
C 171.359797 79.002902 173.041717 79.699576 174.79522 79.699576 
z
" style="fill:#28ae80;"/>
    <path clip-path="url(#p6fae4de313)" d="M 223.815286 264.072274 
C 225.82452 264.072274 227.751731 263.273997 229.172474 261.853254 
C 230.593217 260.432511 231.391494 258.505299 231.391494 256.496065 
C 231.391494 254.486831 230.593217 252.55962 229.172474 251.138877 
C 227.751731 249.718134 225.82452 248.919857 223.815286 248.919857 
C 221.806052 248.919857 219.87884 249.718134 218.458097 251.138877 
C 217.037354 252.55962 216.239077 254.486831 216.239077 256.496065 
C 216.239077 258.505299 217.037354 260.432511 218.458097 261.853254 
C 219.87884 263.273997 221.806052 264.072274 223.815286 264.072274 
z
" style="fill:#482475;"/>
    <path clip-path="url(#p6fae4de313)" d="M 208.362685 147.544501 
C 210.177538 147.544501 211.918303 146.823452 213.201598 145.540157 
C 214.484893 144.256862 215.205942 142.516097 215.205942 140.701244 
C 215.205942 138.886391 214.484893 137.145625 213.201598 135.86233 
C 211.918303 134.579035 210.177538 133.857986 208.362685 133.857986 
C 206.547832 133.857986 204.807066 134.579035 203.523771 135.86233 
C 202.240476 137.145625 201.519427 138.886391 201.519427 140.701244 
C 201.519427 142.516097 202.240476 144.256862 203.523771 145.540157 
C 204.807066 146.823452 206.547832 147.544501 208.362685 147.544501 
z
" style="fill:#471365;"/>
    <path clip-path="url(#p6fae4de313)" d="M 285.883676 176.348133 
C 287.584201 176.348133 289.215306 175.672507 290.417758 174.470055 
C 291.620211 173.267602 292.295837 171.636497 292.295837 169.935972 
C 292.295837 168.235447 291.620211 166.604343 290.417758 165.40189 
C 289.215306 164.199437 287.584201 163.523811 285.883676 163.523811 
C 284.183151 163.523811 282.552046 164.199437 281.349594 165.40189 
C 280.147141 166.604343 279.471515 168.235447 279.471515 169.935972 
C 279.471515 171.636497 280.147141 173.267602 281.349594 174.470055 
C 282.552046 175.672507 284.183151 176.348133 285.883676 176.348133 
z
" style="fill:#1f978b;"/>
    <path clip-path="url(#p6fae4de313)" d="M 163.596072 256.56793 
C 165.712069 256.56793 167.741684 255.727236 169.23792 254.231 
C 170.734155 252.734765 171.57485 250.705149 171.57485 248.589152 
C 171.57485 246.473156 170.734155 244.44354 169.23792 242.947304 
C 167.741684 241.451069 165.712069 240.610375 163.596072 240.610375 
C 161.480075 240.610375 159.45046 241.451069 157.954224 242.947304 
C 156.457989 244.44354 155.617294 246.473156 155.617294 248.589152 
C 155.617294 250.705149 156.457989 252.734765 157.954224 254.231 
C 159.45046 255.727236 161.480075 256.56793 163.596072 256.56793 
z
" style="fill:#482173;"/>
   </g>
   <g id="text_1">
    <!-- Structure #2980, $E_N$=-181.11eV, ΔE=0.12eV -->
    <defs>
     <path d="M 53.515625 70.515625 
L 53.515625 60.890625 
Q 47.90625 63.578125 42.921875 64.890625 
Q 37.9375 66.21875 33.296875 66.21875 
Q 25.25 66.21875 20.875 63.09375 
Q 16.5 59.96875 16.5 54.203125 
Q 16.5 49.359375 19.40625 46.890625 
Q 22.3125 44.4375 30.421875 42.921875 
L 36.375 41.703125 
Q 47.40625 39.59375 52.65625 34.296875 
Q 57.90625 29 57.90625 20.125 
Q 57.90625 9.515625 50.796875 4.046875 
Q 43.703125 -1.421875 29.984375 -1.421875 
Q 24.8125 -1.421875 18.96875 -0.25 
Q 13.140625 0.921875 6.890625 3.21875 
L 6.890625 13.375 
Q 12.890625 10.015625 18.65625 8.296875 
Q 24.421875 6.59375 29.984375 6.59375 
Q 38.421875 6.59375 43.015625 9.90625 
Q 47.609375 13.234375 47.609375 19.390625 
Q 47.609375 24.75 44.3125 27.78125 
Q 41.015625 30.8125 33.5 32.328125 
L 27.484375 33.5 
Q 16.453125 35.6875 11.515625 40.375 
Q 6.59375 45.0625 6.59375 53.421875 
Q 6.59375 63.09375 13.40625 68.65625 
Q 20.21875 74.21875 32.171875 74.21875 
Q 37.3125 74.21875 42.625 73.28125 
Q 47.953125 72.359375 53.515625 70.515625 
z
" id="DejaVuSans-53"/>
     <path d="M 18.3125 70.21875 
L 18.3125 54.6875 
L 36.8125 54.6875 
L 36.8125 47.703125 
L 18.3125 47.703125 
L 18.3125 18.015625 
Q 18.3125 11.328125 20.140625 9.421875 
Q 21.96875 7.515625 27.59375 7.515625 
L 36.8125 7.515625 
L 36.8125 0 
L 27.59375 0 
Q 17.1875 0 13.234375 3.875 
Q 9.28125 7.765625 9.28125 18.015625 
L 9.28125 47.703125 
L 2.6875 47.703125 
L 2.6875 54.6875 
L 9.28125 54.6875 
L 9.28125 70.21875 
z
" id="DejaVuSans-74"/>
     <path d="M 41.109375 46.296875 
Q 39.59375 47.171875 37.8125 47.578125 
Q 36.03125 48 33.890625 48 
Q 26.265625 48 22.1875 43.046875 
Q 18.109375 38.09375 18.109375 28.8125 
L 18.109375 0 
L 9.078125 0 
L 9.078125 54.6875 
L 18.109375 54.6875 
L 18.109375 46.1875 
Q 20.953125 51.171875 25.484375 53.578125 
Q 30.03125 56 36.53125 56 
Q 37.453125 56 38.578125 55.875 
Q 39.703125 55.765625 41.0625 55.515625 
z
" id="DejaVuSans-72"/>
     <path d="M 8.5 21.578125 
L 8.5 54.6875 
L 17.484375 54.6875 
L 17.484375 21.921875 
Q 17.484375 14.15625 20.5 10.265625 
Q 23.53125 6.390625 29.59375 6.390625 
Q 36.859375 6.390625 41.078125 11.03125 
Q 45.3125 15.671875 45.3125 23.6875 
L 45.3125 54.6875 
L 54.296875 54.6875 
L 54.296875 0 
L 45.3125 0 
L 45.3125 8.40625 
Q 42.046875 3.421875 37.71875 1 
Q 33.40625 -1.421875 27.6875 -1.421875 
Q 18.265625 -1.421875 13.375 4.4375 
Q 8.5 10.296875 8.5 21.578125 
z
M 31.109375 56 
z
" id="DejaVuSans-75"/>
     <path d="M 48.78125 52.59375 
L 48.78125 44.1875 
Q 44.96875 46.296875 41.140625 47.34375 
Q 37.3125 48.390625 33.40625 48.390625 
Q 24.65625 48.390625 19.8125 42.84375 
Q 14.984375 37.3125 14.984375 27.296875 
Q 14.984375 17.28125 19.8125 11.734375 
Q 24.65625 6.203125 33.40625 6.203125 
Q 37.3125 6.203125 41.140625 7.25 
Q 44.96875 8.296875 48.78125 10.40625 
L 48.78125 2.09375 
Q 45.015625 0.34375 40.984375 -0.53125 
Q 36.96875 -1.421875 32.421875 -1.421875 
Q 20.0625 -1.421875 12.78125 6.34375 
Q 5.515625 14.109375 5.515625 27.296875 
Q 5.515625 40.671875 12.859375 48.328125 
Q 20.21875 56 33.015625 56 
Q 37.15625 56 41.109375 55.140625 
Q 45.0625 54.296875 48.78125 52.59375 
z
" id="DejaVuSans-63"/>
     <path d="M 56.203125 29.59375 
L 56.203125 25.203125 
L 14.890625 25.203125 
Q 15.484375 15.921875 20.484375 11.0625 
Q 25.484375 6.203125 34.421875 6.203125 
Q 39.59375 6.203125 44.453125 7.46875 
Q 49.3125 8.734375 54.109375 11.28125 
L 54.109375 2.78125 
Q 49.265625 0.734375 44.1875 -0.34375 
Q 39.109375 -1.421875 33.890625 -1.421875 
Q 20.796875 -1.421875 13.15625 6.1875 
Q 5.515625 13.8125 5.515625 26.8125 
Q 5.515625 40.234375 12.765625 48.109375 
Q 20.015625 56 32.328125 56 
Q 43.359375 56 49.78125 48.890625 
Q 56.203125 41.796875 56.203125 29.59375 
z
M 47.21875 32.234375 
Q 47.125 39.59375 43.09375 43.984375 
Q 39.0625 48.390625 32.421875 48.390625 
Q 24.90625 48.390625 20.390625 44.140625 
Q 15.875 39.890625 15.1875 32.171875 
z
" id="DejaVuSans-65"/>
     <path id="DejaVuSans-20"/>
     <path d="M 51.125 44 
L 36.921875 44 
L 32.8125 27.6875 
L 47.125 27.6875 
z
M 43.796875 71.78125 
L 38.71875 51.515625 
L 52.984375 51.515625 
L 58.109375 71.78125 
L 65.921875 71.78125 
L 60.890625 51.515625 
L 76.125 51.515625 
L 76.125 44 
L 58.984375 44 
L 54.984375 27.6875 
L 70.515625 27.6875 
L 70.515625 20.21875 
L 53.078125 20.21875 
L 48 0 
L 40.1875 0 
L 45.21875 20.21875 
L 30.90625 20.21875 
L 25.875 0 
L 18.015625 0 
L 23.09375 20.21875 
L 7.71875 20.21875 
L 7.71875 27.6875 
L 24.90625 27.6875 
L 29 44 
L 13.28125 44 
L 13.28125 51.515625 
L 30.90625 51.515625 
L 35.890625 71.78125 
z
" id="DejaVuSans-23"/>
     <path d="M 19.1875 8.296875 
L 53.609375 8.296875 
L 53.609375 0 
L 7.328125 0 
L 7.328125 8.296875 
Q 12.9375 14.109375 22.625 23.890625 
Q 32.328125 33.6875 34.8125 36.53125 
Q 39.546875 41.84375 41.421875 45.53125 
Q 43.3125 49.21875 43.3125 52.78125 
Q 43.3125 58.59375 39.234375 62.25 
Q 35.15625 65.921875 28.609375 65.921875 
Q 23.96875 65.921875 18.8125 64.3125 
Q 13.671875 62.703125 7.8125 59.421875 
L 7.8125 69.390625 
Q 13.765625 71.78125 18.9375 73 
Q 24.125 74.21875 28.421875 74.21875 
Q 39.75 74.21875 46.484375 68.546875 
Q 53.21875 62.890625 53.21875 53.421875 
Q 53.21875 48.921875 51.53125 44.890625 
Q 49.859375 40.875 45.40625 35.40625 
Q 44.1875 33.984375 37.640625 27.21875 
Q 31.109375 20.453125 19.1875 8.296875 
z
" id="DejaVuSans-32"/>
     <path d="M 10.984375 1.515625 
L 10.984375 10.5 
Q 14.703125 8.734375 18.5 7.8125 
Q 22.3125 6.890625 25.984375 6.890625 
Q 35.75 6.890625 40.890625 13.453125 
Q 46.046875 20.015625 46.78125 33.40625 
Q 43.953125 29.203125 39.59375 26.953125 
Q 35.25 24.703125 29.984375 24.703125 
Q 19.046875 24.703125 12.671875 31.3125 
Q 6.296875 37.9375 6.296875 49.421875 
Q 6.296875 60.640625 12.9375 67.421875 
Q 19.578125 74.21875 30.609375 74.21875 
Q 43.265625 74.21875 49.921875 64.515625 
Q 56.59375 54.828125 56.59375 36.375 
Q 56.59375 19.140625 48.40625 8.859375 
Q 40.234375 -1.421875 26.421875 -1.421875 
Q 22.703125 -1.421875 18.890625 -0.6875 
Q 15.09375 0.046875 10.984375 1.515625 
z
M 30.609375 32.421875 
Q 37.25 32.421875 41.125 36.953125 
Q 45.015625 41.5 45.015625 49.421875 
Q 45.015625 57.28125 41.125 61.84375 
Q 37.25 66.40625 30.609375 66.40625 
Q 23.96875 66.40625 20.09375 61.84375 
Q 16.21875 57.28125 16.21875 49.421875 
Q 16.21875 41.5 20.09375 36.953125 
Q 23.96875 32.421875 30.609375 32.421875 
z
" id="DejaVuSans-39"/>
     <path d="M 31.78125 34.625 
Q 24.75 34.625 20.71875 30.859375 
Q 16.703125 27.09375 16.703125 20.515625 
Q 16.703125 13.921875 20.71875 10.15625 
Q 24.75 6.390625 31.78125 6.390625 
Q 38.8125 6.390625 42.859375 10.171875 
Q 46.921875 13.96875 46.921875 20.515625 
Q 46.921875 27.09375 42.890625 30.859375 
Q 38.875 34.625 31.78125 34.625 
z
M 21.921875 38.8125 
Q 15.578125 40.375 12.03125 44.71875 
Q 8.5 49.078125 8.5 55.328125 
Q 8.5 64.0625 14.71875 69.140625 
Q 20.953125 74.21875 31.78125 74.21875 
Q 42.671875 74.21875 48.875 69.140625 
Q 55.078125 64.0625 55.078125 55.328125 
Q 55.078125 49.078125 51.53125 44.71875 
Q 48 40.375 41.703125 38.8125 
Q 48.828125 37.15625 52.796875 32.3125 
Q 56.78125 27.484375 56.78125 20.515625 
Q 56.78125 9.90625 50.3125 4.234375 
Q 43.84375 -1.421875 31.78125 -1.421875 
Q 19.734375 -1.421875 13.25 4.234375 
Q 6.78125 9.90625 6.78125 20.515625 
Q 6.78125 27.484375 10.78125 32.3125 
Q 14.796875 37.15625 21.921875 38.8125 
z
M 18.3125 54.390625 
Q 18.3125 48.734375 21.84375 45.5625 
Q 25.390625 42.390625 31.78125 42.390625 
Q 38.140625 42.390625 41.71875 45.5625 
Q 45.3125 48.734375 45.3125 54.390625 
Q 45.3125 60.0625 41.71875 63.234375 
Q 38.140625 66.40625 31.78125 66.40625 
Q 25.390625 66.40625 21.84375 63.234375 
Q 18.3125 60.0625 18.3125 54.390625 
z
" id="DejaVuSans-38"/>
     <path d="M 31.78125 66.40625 
Q 24.171875 66.40625 20.328125 58.90625 
Q 16.5 51.421875 16.5 36.375 
Q 16.5 21.390625 20.328125 13.890625 
Q 24.171875 6.390625 31.78125 6.390625 
Q 39.453125 6.390625 43.28125 13.890625 
Q 47.125 21.390625 47.125 36.375 
Q 47.125 51.421875 43.28125 58.90625 
Q 39.453125 66.40625 31.78125 66.40625 
z
M 31.78125 74.21875 
Q 44.046875 74.21875 50.515625 64.515625 
Q 56.984375 54.828125 56.984375 36.375 
Q 56.984375 17.96875 50.515625 8.265625 
Q 44.046875 -1.421875 31.78125 -1.421875 
Q 19.53125 -1.421875 13.0625 8.265625 
Q 6.59375 17.96875 6.59375 36.375 
Q 6.59375 54.828125 13.0625 64.515625 
Q 19.53125 74.21875 31.78125 74.21875 
z
" id="DejaVuSans-30"/>
     <path d="M 11.71875 12.40625 
L 22.015625 12.40625 
L 22.015625 4 
L 14.015625 -11.625 
L 7.71875 -11.625 
L 11.71875 4 
z
" id="DejaVuSans-2c"/>
     <path d="M 16.890625 72.90625 
L 62.984375 72.90625 
L 61.375 64.59375 
L 25.09375 64.59375 
L 20.90625 43.015625 
L 55.71875 43.015625 
L 54.109375 34.71875 
L 19.28125 34.71875 
L 14.203125 8.296875 
L 51.3125 8.296875 
L 49.703125 0 
L 2.6875 0 
z
" id="DejaVuSans-Oblique-45"/>
     <path d="M 16.890625 72.90625 
L 30.171875 72.90625 
L 50.296875 10.40625 
L 62.5 72.90625 
L 72.125 72.90625 
L 57.90625 0 
L 44.578125 0 
L 24.515625 62.890625 
L 12.3125 0 
L 2.6875 0 
z
" id="DejaVuSans-Oblique-4e"/>
     <path d="M 10.59375 45.40625 
L 73.1875 45.40625 
L 73.1875 37.203125 
L 10.59375 37.203125 
z
M 10.59375 25.484375 
L 73.1875 25.484375 
L 73.1875 17.1875 
L 10.59375 17.1875 
z
" id="DejaVuSans-3d"/>
     <path d="M 4.890625 31.390625 
L 31.203125 31.390625 
L 31.203125 23.390625 
L 4.890625 23.390625 
z
" id="DejaVuSans-2d"/>
     <path d="M 12.40625 8.296875 
L 28.515625 8.296875 
L 28.515625 63.921875 
L 10.984375 60.40625 
L 10.984375 69.390625 
L 28.421875 72.90625 
L 38.28125 72.90625 
L 38.28125 8.296875 
L 54.390625 8.296875 
L 54.390625 0 
L 12.40625 0 
z
" id="DejaVuSans-31"/>
     <path d="M 10.6875 12.40625 
L 21 12.40625 
L 21 0 
L 10.6875 0 
z
" id="DejaVuSans-2e"/>
     <path d="M 28.609375 0 
L 0.78125 72.90625 
L 11.078125 72.90625 
L 34.1875 11.53125 
L 57.328125 72.90625 
L 67.578125 72.90625 
L 39.796875 0 
z
" id="DejaVuSans-56"/>
     <path d="M 34.1875 63.1875 
L 14.15625 8.203125 
L 54.25 8.203125 
z
M 0.78125 0 
L 28.609375 72.90625 
L 39.796875 72.90625 
L 67.578125 0 
z
" id="DejaVuSans-394"/>
     <path d="M 9.8125 72.90625 
L 55.90625 72.90625 
L 55.90625 64.59375 
L 19.671875 64.59375 
L 19.671875 43.015625 
L 54.390625 43.015625 
L 54.390625 34.71875 
L 19.671875 34.71875 
L 19.671875 8.296875 
L 56.78125 8.296875 
L 56.78125 0 
L 9.8125 0 
z
" id="DejaVuSans-45"/>
    </defs>
    <g transform="translate(65.388 35.472)scale(0.12 -0.12)">
     <use transform="translate(0 0.78125)" xlink:href="#DejaVuSans-53"/>
     <use transform="translate(63.476562 0.78125)" xlink:href="#DejaVuSans-74"/>
     <use transform="translate(102.685547 0.78125)" xlink:href="#DejaVuSans-72"/>
     <use transform="translate(143.798828 0.78125)" xlink:href="#DejaVuSans-75"/>
     <use transform="translate(207.177734 0.78125)" xlink:href="#DejaVuSans-63"/>
     <use transform="translate(262.158203 0.78125)" xlink:href="#DejaVuSans-74"/>
     <use transform="translate(301.367188 0.78125)" xlink:href="#DejaVuSans-75"/>
     <use transform="translate(364.746094 0.78125)" xlink:href="#DejaVuSans-72"/>
     <use transform="translate(405.859375 0.78125)" xlink:href="#DejaVuSans-65"/>
     <use transform="translate(467.382812 0.78125)" xlink:href="#DejaVuSans-20"/>
     <use transform="translate(499.169922 0.78125)" xlink:href="#DejaVuSans-23"/>
     <use transform="translate(582.958984 0.78125)" xlink:href="#DejaVuSans-32"/>
     <use transform="translate(646.566406 0.78125)" xlink:href="#DejaVuSans-39"/>
     <use transform="translate(710.189453 0.78125)" xlink:href="#DejaVuSans-38"/>
     <use transform="translate(773.8125 0.78125)" xlink:href="#DejaVuSans-30"/>
     <use transform="translate(837.435547 0.78125)" xlink:href="#DejaVuSans-2c"/>
     <use transform="translate(869.222656 0.78125)" xlink:href="#DejaVuSans-20"/>
     <use transform="translate(901.009766 0.78125)" xlink:href="#DejaVuSans-Oblique-45"/>
     <use transform="translate(964.193359 -15.625)scale(0.7)" xlink:href="#DejaVuSans-Oblique-4e"/>
     <use transform="translate(1019.291016 0.78125)" xlink:href="#DejaVuSans-3d"/>
     <use transform="translate(1103.080078 0.78125)" xlink:href="#DejaVuSans-2d"/>
     <use transform="translate(1139.164062 0.78125)" xlink:href="#DejaVuSans-31"/>
     <use transform="translate(1202.787109 0.78125)" xlink:href="#DejaVuSans-38"/>
     <use transform="translate(1266.410156 0.78125)" xlink:href="#DejaVuSans-31"/>
     <use transform="translate(1330.033203 0.78125)" xlink:href="#DejaVuSans-2e"/>
     <use transform="translate(1361.820312 0.78125)" xlink:href="#DejaVuSans-31"/>
     <use transform="translate(1425.443359 0.78125)" xlink:href="#DejaVuSans-31"/>
     <use transform="translate(1489.066406 0.78125)" xlink:href="#DejaVuSans-65"/>
     <use transform="translate(1550.589844 0.78125)" xlink:href="#DejaVuSans-56"/>
     <use transform="translate(1618.998047 0.78125)" xlink:href="#DejaVuSans-2c"/>
     <use transform="translate(1650.785156 0.78125)" xlink:href="#DejaVuSans-20"/>
     <use transform="translate(1682.572266 0.78125)" xlink:href="#DejaVuSans-394"/>
     <use transform="translate(1750.980469 0.78125)" xlink:href="#DejaVuSans-45"/>
     <use transform="translate(1814.164062 0.78125)" xlink:href="#DejaVuSans-3d"/>
     <use transform="translate(1897.953125 0.78125)" xlink:href="#DejaVuSans-30"/>
     <use transform="translate(1961.576172 0.78125)" xlink:href="#DejaVuSans-2e"/>
     <use transform="translate(1993.363281 0.78125)" xlink:href="#DejaVuSans-31"/>
     <use transform="translate(2056.986328 0.78125)" xlink:href="#DejaVuSans-32"/>
     <use transform="translate(2120.609375 0.78125)" xlink:href="#DejaVuSans-65"/>
     <use transform="translate(2182.132812 0.78125)" xlink:href="#DejaVuSans-56"/>
    </g>
   </g>
  </g>
  <g id="axes_2">
   <g id="patch_2">
    <path clip-path="url(#pb19302ae9e)" d="M 361.152 307.584 
L 361.152 306.5445 
L 361.152 42.5115 
L 361.152 41.472 
L 374.4576 41.472 
L 374.4576 42.5115 
L 374.4576 306.5445 
L 374.4576 307.584 
z
" style="fill:#ffffff;stroke:#ffffff;stroke-linejoin:miter;stroke-width:0.01;"/>
   </g>
   <image height="265.68" id="image7da7aa72cc" transform="scale(1 -1)translate(0 -265.68)" width="12.96" x="361.44" xlink:href="data:image/png;base64,
iVBORw0KGgoAAAANSUhEUgAAABIAAAFxCAYAAAB+2fgXAAAABHNCSVQICAgIfAhkiAAAAeVJREFUeJztncmNw0AQA2ckheYQNv9QLIfQ8ygsCgQ7AEI8+jAs2Puz/94F1LP2ReCsZ18bAWIeZ5XaGRBE7VnbptG+KI101FYyNSiQG2oRITXKNaX9uclOdi2XWjftVE32CZCO2ou5Bj1TcCBr/1zB9ge7Fq0Rg2NM9pvbtG+ua1QgsRYhDy0ISEiNc40BEibbSI0Coj5CBGtkpFbXJiAjNZlrwhuSOv2M1DjXbEdEciBt1JSDDQKKpmZr2rr2j0DBGpXaWEJq3bQzEPIS26r9J+Wzv9Tm8o3aajRXqc3VUXsApKNWjeZq0x4ABVNbm7lrszVigDqP5vIl2+eaT2yfRkL7g+dRcNPqjohkjaCvRVBq0H2U3LQrOJCx9kdTg4B8oxZzzTdqdYHEngjUCAPyUctN9sVRq2sTECW2UKNLd2jVtRmo1A6AhMmWaSRcR8nUdIHUuVb75zJS218EyEitro1At69pIdeSk30Lkw0FktNImGyZRhy1O5galmxd03LUsHWk06jUZiCq+5Wb1kZNN4+wJxJuWt8RAW5am2sYNZ9rYCBzZ3buPKJ2P5Yj4Toy3keyIyJbIxs1rml1byCA84gpch5RQNB7Q0qNMGq2Hy4BXdNR41yz/cEEJfZzUz96r9PoB0okjeQ8y9TkAAAAAElFTkSuQmCC" y="-41.76"/>
   <g id="matplotlib.axis_1"/>
   <g id="matplotlib.axis_2">
    <g id="ytick_1">
     <g id="line2d_1">
      <defs>
       <path d="M 0 0 
L 3.5 0 
" id="ma7ec58cc01" style="stroke:#000000;stroke-width:0.8;"/>
      </defs>
      <g>
       <use style="stroke:#000000;stroke-width:0.8;" x="374.4576" xlink:href="#ma7ec58cc01" y="284.170188"/>
      </g>
     </g>
     <g id="text_2">
      <!-- −8.5 -->
      <defs>
       <path d="M 10.59375 35.5 
L 73.1875 35.5 
L 73.1875 27.203125 
L 10.59375 27.203125 
z
" id="DejaVuSans-2212"/>
       <path d="M 10.796875 72.90625 
L 49.515625 72.90625 
L 49.515625 64.59375 
L 19.828125 64.59375 
L 19.828125 46.734375 
Q 21.96875 47.46875 24.109375 47.828125 
Q 26.265625 48.1875 28.421875 48.1875 
Q 40.625 48.1875 47.75 41.5 
Q 54.890625 34.8125 54.890625 23.390625 
Q 54.890625 11.625 47.5625 5.09375 
Q 40.234375 -1.421875 26.90625 -1.421875 
Q 22.3125 -1.421875 17.546875 -0.640625 
Q 12.796875 0.140625 7.71875 1.703125 
L 7.71875 11.625 
Q 12.109375 9.234375 16.796875 8.0625 
Q 21.484375 6.890625 26.703125 6.890625 
Q 35.15625 6.890625 40.078125 11.328125 
Q 45.015625 15.765625 45.015625 23.390625 
Q 45.015625 31 40.078125 35.4375 
Q 35.15625 39.890625 26.703125 39.890625 
Q 22.75 39.890625 18.8125 39.015625 
Q 14.890625 38.140625 10.796875 36.28125 
z
" id="DejaVuSans-35"/>
      </defs>
      <g transform="translate(381.4576 287.969406)scale(0.1 -0.1)">
       <use xlink:href="#DejaVuSans-2212"/>
       <use x="83.789062" xlink:href="#DejaVuSans-38"/>
       <use x="147.412109" xlink:href="#DejaVuSans-2e"/>
       <use x="179.199219" xlink:href="#DejaVuSans-35"/>
      </g>
     </g>
    </g>
    <g id="ytick_2">
     <g id="line2d_2">
      <g>
       <use style="stroke:#000000;stroke-width:0.8;" x="374.4576" xlink:href="#ma7ec58cc01" y="248.507752"/>
      </g>
     </g>
     <g id="text_3">
      <!-- −8.0 -->
      <g transform="translate(381.4576 252.306971)scale(0.1 -0.1)">
       <use xlink:href="#DejaVuSans-2212"/>
       <use x="83.789062" xlink:href="#DejaVuSans-38"/>
       <use x="147.412109" xlink:href="#DejaVuSans-2e"/>
       <use x="179.199219" xlink:href="#DejaVuSans-30"/>
      </g>
     </g>
    </g>
    <g id="ytick_3">
     <g id="line2d_3">
      <g>
       <use style="stroke:#000000;stroke-width:0.8;" x="374.4576" xlink:href="#ma7ec58cc01" y="212.845317"/>
      </g>
     </g>
     <g id="text_4">
      <!-- −7.5 -->
      <defs>
       <path d="M 8.203125 72.90625 
L 55.078125 72.90625 
L 55.078125 68.703125 
L 28.609375 0 
L 18.3125 0 
L 43.21875 64.59375 
L 8.203125 64.59375 
z
" id="DejaVuSans-37"/>
      </defs>
      <g transform="translate(381.4576 216.644536)scale(0.1 -0.1)">
       <use xlink:href="#DejaVuSans-2212"/>
       <use x="83.789062" xlink:href="#DejaVuSans-37"/>
       <use x="147.412109" xlink:href="#DejaVuSans-2e"/>
       <use x="179.199219" xlink:href="#DejaVuSans-35"/>
      </g>
     </g>
    </g>
    <g id="ytick_4">
     <g id="line2d_4">
      <g>
       <use style="stroke:#000000;stroke-width:0.8;" x="374.4576" xlink:href="#ma7ec58cc01" y="177.182882"/>
      </g>
     </g>
     <g id="text_5">
      <!-- −7.0 -->
      <g transform="translate(381.4576 180.982101)scale(0.1 -0.1)">
       <use xlink:href="#DejaVuSans-2212"/>
       <use x="83.789062" xlink:href="#DejaVuSans-37"/>
       <use x="147.412109" xlink:href="#DejaVuSans-2e"/>
       <use x="179.199219" xlink:href="#DejaVuSans-30"/>
      </g>
     </g>
    </g>
    <g id="ytick_5">
     <g id="line2d_5">
      <g>
       <use style="stroke:#000000;stroke-width:0.8;" x="374.4576" xlink:href="#ma7ec58cc01" y="141.520447"/>
      </g>
     </g>
     <g id="text_6">
      <!-- −6.5 -->
      <defs>
       <path d="M 33.015625 40.375 
Q 26.375 40.375 22.484375 35.828125 
Q 18.609375 31.296875 18.609375 23.390625 
Q 18.609375 15.53125 22.484375 10.953125 
Q 26.375 6.390625 33.015625 6.390625 
Q 39.65625 6.390625 43.53125 10.953125 
Q 47.40625 15.53125 47.40625 23.390625 
Q 47.40625 31.296875 43.53125 35.828125 
Q 39.65625 40.375 33.015625 40.375 
z
M 52.59375 71.296875 
L 52.59375 62.3125 
Q 48.875 64.0625 45.09375 64.984375 
Q 41.3125 65.921875 37.59375 65.921875 
Q 27.828125 65.921875 22.671875 59.328125 
Q 17.53125 52.734375 16.796875 39.40625 
Q 19.671875 43.65625 24.015625 45.921875 
Q 28.375 48.1875 33.59375 48.1875 
Q 44.578125 48.1875 50.953125 41.515625 
Q 57.328125 34.859375 57.328125 23.390625 
Q 57.328125 12.15625 50.6875 5.359375 
Q 44.046875 -1.421875 33.015625 -1.421875 
Q 20.359375 -1.421875 13.671875 8.265625 
Q 6.984375 17.96875 6.984375 36.375 
Q 6.984375 53.65625 15.1875 63.9375 
Q 23.390625 74.21875 37.203125 74.21875 
Q 40.921875 74.21875 44.703125 73.484375 
Q 48.484375 72.75 52.59375 71.296875 
z
" id="DejaVuSans-36"/>
      </defs>
      <g transform="translate(381.4576 145.319665)scale(0.1 -0.1)">
       <use xlink:href="#DejaVuSans-2212"/>
       <use x="83.789062" xlink:href="#DejaVuSans-36"/>
       <use x="147.412109" xlink:href="#DejaVuSans-2e"/>
       <use x="179.199219" xlink:href="#DejaVuSans-35"/>
      </g>
     </g>
    </g>
    <g id="ytick_6">
     <g id="line2d_6">
      <g>
       <use style="stroke:#000000;stroke-width:0.8;" x="374.4576" xlink:href="#ma7ec58cc01" y="105.858011"/>
      </g>
     </g>
     <g id="text_7">
      <!-- −6.0 -->
      <g transform="translate(381.4576 109.65723)scale(0.1 -0.1)">
       <use xlink:href="#DejaVuSans-2212"/>
       <use x="83.789062" xlink:href="#DejaVuSans-36"/>
       <use x="147.412109" xlink:href="#DejaVuSans-2e"/>
       <use x="179.199219" xlink:href="#DejaVuSans-30"/>
      </g>
     </g>
    </g>
    <g id="ytick_7">
     <g id="line2d_7">
      <g>
       <use style="stroke:#000000;stroke-width:0.8;" x="374.4576" xlink:href="#ma7ec58cc01" y="70.195576"/>
      </g>
     </g>
     <g id="text_8">
      <!-- −5.5 -->
      <g transform="translate(381.4576 73.994795)scale(0.1 -0.1)">
       <use xlink:href="#DejaVuSans-2212"/>
       <use x="83.789062" xlink:href="#DejaVuSans-35"/>
       <use x="147.412109" xlink:href="#DejaVuSans-2e"/>
       <use x="179.199219" xlink:href="#DejaVuSans-35"/>
      </g>
     </g>
    </g>
    <g id="text_9">
     <!-- Energy [eV] -->
     <defs>
      <path d="M 54.890625 33.015625 
L 54.890625 0 
L 45.90625 0 
L 45.90625 32.71875 
Q 45.90625 40.484375 42.875 44.328125 
Q 39.84375 48.1875 33.796875 48.1875 
Q 26.515625 48.1875 22.3125 43.546875 
Q 18.109375 38.921875 18.109375 30.90625 
L 18.109375 0 
L 9.078125 0 
L 9.078125 54.6875 
L 18.109375 54.6875 
L 18.109375 46.1875 
Q 21.34375 51.125 25.703125 53.5625 
Q 30.078125 56 35.796875 56 
Q 45.21875 56 50.046875 50.171875 
Q 54.890625 44.34375 54.890625 33.015625 
z
" id="DejaVuSans-6e"/>
      <path d="M 45.40625 27.984375 
Q 45.40625 37.75 41.375 43.109375 
Q 37.359375 48.484375 30.078125 48.484375 
Q 22.859375 48.484375 18.828125 43.109375 
Q 14.796875 37.75 14.796875 27.984375 
Q 14.796875 18.265625 18.828125 12.890625 
Q 22.859375 7.515625 30.078125 7.515625 
Q 37.359375 7.515625 41.375 12.890625 
Q 45.40625 18.265625 45.40625 27.984375 
z
M 54.390625 6.78125 
Q 54.390625 -7.171875 48.1875 -13.984375 
Q 42 -20.796875 29.203125 -20.796875 
Q 24.46875 -20.796875 20.265625 -20.09375 
Q 16.0625 -19.390625 12.109375 -17.921875 
L 12.109375 -9.1875 
Q 16.0625 -11.328125 19.921875 -12.34375 
Q 23.78125 -13.375 27.78125 -13.375 
Q 36.625 -13.375 41.015625 -8.765625 
Q 45.40625 -4.15625 45.40625 5.171875 
L 45.40625 9.625 
Q 42.625 4.78125 38.28125 2.390625 
Q 33.9375 0 27.875 0 
Q 17.828125 0 11.671875 7.65625 
Q 5.515625 15.328125 5.515625 27.984375 
Q 5.515625 40.671875 11.671875 48.328125 
Q 17.828125 56 27.875 56 
Q 33.9375 56 38.28125 53.609375 
Q 42.625 51.21875 45.40625 46.390625 
L 45.40625 54.6875 
L 54.390625 54.6875 
z
" id="DejaVuSans-67"/>
      <path d="M 32.171875 -5.078125 
Q 28.375 -14.84375 24.75 -17.8125 
Q 21.140625 -20.796875 15.09375 -20.796875 
L 7.90625 -20.796875 
L 7.90625 -13.28125 
L 13.1875 -13.28125 
Q 16.890625 -13.28125 18.9375 -11.515625 
Q 21 -9.765625 23.484375 -3.21875 
L 25.09375 0.875 
L 2.984375 54.6875 
L 12.5 54.6875 
L 29.59375 11.921875 
L 46.6875 54.6875 
L 56.203125 54.6875 
z
" id="DejaVuSans-79"/>
      <path d="M 8.59375 75.984375 
L 29.296875 75.984375 
L 29.296875 69 
L 17.578125 69 
L 17.578125 -6.203125 
L 29.296875 -6.203125 
L 29.296875 -13.1875 
L 8.59375 -13.1875 
z
" id="DejaVuSans-5b"/>
      <path d="M 30.421875 75.984375 
L 30.421875 -13.1875 
L 9.71875 -13.1875 
L 9.71875 -6.203125 
L 21.390625 -6.203125 
L 21.390625 69 
L 9.71875 69 
L 9.71875 75.984375 
z
" id="DejaVuSans-5d"/>
     </defs>
     <g transform="translate(417.33885 204.108469)rotate(-90)scale(0.1 -0.1)">
      <use xlink:href="#DejaVuSans-45"/>
      <use x="63.183594" xlink:href="#DejaVuSans-6e"/>
      <use x="126.5625" xlink:href="#DejaVuSans-65"/>
      <use x="188.085938" xlink:href="#DejaVuSans-72"/>
      <use x="229.183594" xlink:href="#DejaVuSans-67"/>
      <use x="292.660156" xlink:href="#DejaVuSans-79"/>
      <use x="351.839844" xlink:href="#DejaVuSans-20"/>
      <use x="383.626953" xlink:href="#DejaVuSans-5b"/>
      <use x="422.640625" xlink:href="#DejaVuSans-65"/>
      <use x="484.164062" xlink:href="#DejaVuSans-56"/>
      <use x="552.572266" xlink:href="#DejaVuSans-5d"/>
     </g>
    </g>
   </g>
   <g id="patch_3">
    <path d="M 361.152 307.584 
L 361.152 306.5445 
L 361.152 42.5115 
L 361.152 41.472 
L 374.4576 41.472 
L 374.4576 42.5115 
L 374.4576 306.5445 
L 374.4576 307.584 
z
" style="fill:none;stroke:#000000;stroke-linejoin:miter;stroke-width:0.8;"/>
   </g>
  </g>
 </g>
 <defs>
  <clipPath id="p6fae4de313">
   <rect height="266.112" width="285.696" x="57.6" y="41.472"/>
  </clipPath>
  <clipPath id="pb19302ae9e">
   <rect height="266.112" width="13.3056" x="361.152" y="41.472"/>
  </clipPath>
 </defs>
</svg>
