<?xml version="1.0" encoding="utf-8" standalone="no"?>
<!DOCTYPE svg PUBLIC "-//W3C//DTD SVG 1.1//EN"
  "http://www.w3.org/Graphics/SVG/1.1/DTD/svg11.dtd">
<!-- Created with matplotlib (http://matplotlib.org/) -->
<svg height="345.6pt" version="1.1" viewBox="0 0 460.8 345.6" width="460.8pt" xmlns="http://www.w3.org/2000/svg" xmlns:xlink="http://www.w3.org/1999/xlink">
 <defs>
  <style type="text/css">
*{stroke-linecap:butt;stroke-linejoin:round;}
  </style>
 </defs>
 <g id="figure_1">
  <g id="patch_1">
   <path d="M 0 345.6 
L 460.8 345.6 
L 460.8 0 
L 0 0 
z
" style="fill:#ffffff;"/>
  </g>
  <g id="axes_1">
   <g id="CircleCollection_1">
    <path clip-path="url(#p229afd7b6b)" d="M 329.831273 203.258453 
C 331.593817 203.258453 333.284408 202.558187 334.530714 201.311881 
C 335.777021 200.065575 336.477287 198.374983 336.477287 196.61244 
C 336.477287 194.849896 335.777021 193.159305 334.530714 191.912999 
C 333.284408 190.666692 331.593817 189.966427 329.831273 189.966427 
C 328.06873 189.966427 326.378139 190.666692 325.131832 191.912999 
C 323.885526 193.159305 323.18526 194.849896 323.18526 196.61244 
C 323.18526 198.374983 323.885526 200.065575 325.131832 201.311881 
C 326.378139 202.558187 328.06873 203.258453 329.831273 203.258453 
z
" style="fill:#287d8e;"/>
    <path clip-path="url(#p229afd7b6b)" d="M 99.006815 235.523311 
C 100.780413 235.523311 102.481607 234.818653 103.73573 233.56453 
C 104.989852 232.310408 105.69451 230.609214 105.69451 228.835616 
C 105.69451 227.062019 104.989852 225.360825 103.73573 224.106702 
C 102.481607 222.852579 100.780413 222.147921 99.006815 222.147921 
C 97.233218 222.147921 95.532024 222.852579 94.277901 224.106702 
C 93.023778 225.360825 92.31912 227.062019 92.31912 228.835616 
C 92.31912 230.609214 93.023778 232.310408 94.277901 233.56453 
C 95.532024 234.818653 97.233218 235.523311 99.006815 235.523311 
z
" style="fill:#20928c;"/>
    <path clip-path="url(#p229afd7b6b)" d="M 198.27783 136.647469 
C 200.033284 136.647469 201.717077 135.950019 202.958371 134.708725 
C 204.199664 133.467431 204.897114 131.783639 204.897114 130.028184 
C 204.897114 128.27273 204.199664 126.588937 202.958371 125.347643 
C 201.717077 124.106349 200.033284 123.4089 198.27783 123.4089 
C 196.522375 123.4089 194.838583 124.106349 193.597289 125.347643 
C 192.355995 126.588937 191.658545 128.27273 191.658545 130.028184 
C 191.658545 131.783639 192.355995 133.467431 193.597289 134.708725 
C 194.838583 135.950019 196.522375 136.647469 198.27783 136.647469 
z
" style="fill:#440154;"/>
    <path clip-path="url(#p229afd7b6b)" d="M 313.299872 284.108818 
C 315.069019 284.108818 316.765945 283.405929 318.016921 282.154952 
C 319.267897 280.903976 319.970787 279.20705 319.970787 277.437903 
C 319.970787 275.668755 319.267897 273.971829 318.016921 272.720853 
C 316.765945 271.469877 315.069019 270.766987 313.299872 270.766987 
C 311.530724 270.766987 309.833798 271.469877 308.582822 272.720853 
C 307.331846 273.971829 306.628956 275.668755 306.628956 277.437903 
C 306.628956 279.20705 307.331846 280.903976 308.582822 282.154952 
C 309.833798 283.405929 311.530724 284.108818 313.299872 284.108818 
z
" style="fill:#1f9e89;"/>
    <path clip-path="url(#p229afd7b6b)" d="M 149.847893 241.315622 
C 151.614677 241.315622 153.309337 240.613671 154.558642 239.364366 
C 155.807947 238.115061 156.509898 236.420402 156.509898 234.653617 
C 156.509898 232.886833 155.807947 231.192174 154.558642 229.942868 
C 153.309337 228.693563 151.614677 227.991612 149.847893 227.991612 
C 148.081109 227.991612 146.386449 228.693563 145.137144 229.942868 
C 143.887839 231.192174 143.185888 232.886833 143.185888 234.653617 
C 143.185888 236.420402 143.887839 238.115061 145.137144 239.364366 
C 146.386449 240.613671 148.081109 241.315622 149.847893 241.315622 
z
" style="fill:#482475;"/>
    <path clip-path="url(#p229afd7b6b)" d="M 271.747495 301.616967 
C 273.517892 301.616967 275.216015 300.913581 276.467874 299.661722 
C 277.719734 298.409863 278.42312 296.711739 278.42312 294.941343 
C 278.42312 293.170947 277.719734 291.472823 276.467874 290.220964 
C 275.216015 288.969104 273.517892 288.265719 271.747495 288.265719 
C 269.977099 288.265719 268.278975 288.969104 267.027116 290.220964 
C 265.775257 291.472823 265.071871 293.170947 265.071871 294.941343 
C 265.071871 296.711739 265.775257 298.409863 267.027116 299.661722 
C 268.278975 300.913581 269.977099 301.616967 271.747495 301.616967 
z
" style="fill:#29af7f;"/>
    <path clip-path="url(#p229afd7b6b)" d="M 106.506171 60.776278 
C 108.273135 60.776278 109.967966 60.074256 111.217398 58.824824 
C 112.46683 57.575392 113.168852 55.880561 113.168852 54.113597 
C 113.168852 52.346634 112.46683 50.651802 111.217398 49.40237 
C 109.967966 48.152938 108.273135 47.450916 106.506171 47.450916 
C 104.739207 47.450916 103.044376 48.152938 101.794944 49.40237 
C 100.545512 50.651802 99.84349 52.346634 99.84349 54.113597 
C 99.84349 55.880561 100.545512 57.575392 101.794944 58.824824 
C 103.044376 60.074256 104.739207 60.776278 106.506171 60.776278 
z
" style="fill:#fde725;"/>
    <path clip-path="url(#p229afd7b6b)" d="M 179.883362 276.957568 
C 181.651935 276.957568 183.348309 276.254907 184.598878 275.004338 
C 185.849448 273.753768 186.552109 272.057394 186.552109 270.288822 
C 186.552109 268.52025 185.849448 266.823876 184.598878 265.573306 
C 183.348309 264.322737 181.651935 263.620076 179.883362 263.620076 
C 178.11479 263.620076 176.418416 264.322737 175.167847 265.573306 
C 173.917277 266.823876 173.214616 268.52025 173.214616 270.288822 
C 173.214616 272.057394 173.917277 273.753768 175.167847 275.004338 
C 176.418416 276.254907 178.11479 276.957568 179.883362 276.957568 
z
" style="fill:#35b779;"/>
    <path clip-path="url(#p229afd7b6b)" d="M 157.923088 162.444938 
C 159.682234 162.444938 161.369568 161.746021 162.613472 160.502117 
C 163.857377 159.258212 164.556293 157.570879 164.556293 155.811732 
C 164.556293 154.052585 163.857377 152.365252 162.613472 151.121347 
C 161.369568 149.877442 159.682234 149.178526 157.923088 149.178526 
C 156.163941 149.178526 154.476607 149.877442 153.232703 151.121347 
C 151.988798 152.365252 151.289882 154.052585 151.289882 155.811732 
C 151.289882 157.570879 151.988798 159.258212 153.232703 160.502117 
C 154.476607 161.746021 156.163941 162.444938 157.923088 162.444938 
z
" style="fill:#482979;"/>
    <path clip-path="url(#p229afd7b6b)" d="M 253.623389 235.650963 
C 255.384815 235.650963 257.074335 234.951141 258.319851 233.705625 
C 259.565368 232.460108 260.26519 230.770588 260.26519 229.009162 
C 260.26519 227.247736 259.565368 225.558216 258.319851 224.3127 
C 257.074335 223.067183 255.384815 222.367361 253.623389 222.367361 
C 251.861962 222.367361 250.172442 223.067183 248.926926 224.3127 
C 247.68141 225.558216 246.981588 227.247736 246.981588 229.009162 
C 246.981588 230.770588 247.68141 232.460108 248.926926 233.705625 
C 250.172442 234.951141 251.861962 235.650963 253.623389 235.650963 
z
" style="fill:#443b84;"/>
    <path clip-path="url(#p229afd7b6b)" d="M 71.068461 159.600643 
C 72.844757 159.600643 74.548539 158.894913 75.804571 157.638882 
C 77.060602 156.382851 77.766331 154.679068 77.766331 152.902772 
C 77.766331 151.126476 77.060602 149.422693 75.804571 148.166662 
C 74.548539 146.910631 72.844757 146.204901 71.068461 146.204901 
C 69.292165 146.204901 67.588382 146.910631 66.332351 148.166662 
C 65.07632 149.422693 64.37059 151.126476 64.37059 152.902772 
C 64.37059 154.679068 65.07632 156.382851 66.332351 157.638882 
C 67.588382 158.894913 69.292165 159.600643 71.068461 159.600643 
z
" style="fill:#1fa088;"/>
    <path clip-path="url(#p229afd7b6b)" d="M 234.117178 77.338169 
C 235.880299 77.338169 237.571444 76.637674 238.818158 75.39096 
C 240.064873 74.144245 240.765368 72.4531 240.765368 70.68998 
C 240.765368 68.926859 240.064873 67.235714 238.818158 65.989 
C 237.571444 64.742285 235.880299 64.04179 234.117178 64.04179 
C 232.354058 64.04179 230.662913 64.742285 229.416198 65.989 
C 228.169484 67.235714 227.468989 68.926859 227.468989 70.68998 
C 227.468989 72.4531 228.169484 74.144245 229.416198 75.39096 
C 230.662913 76.637674 232.354058 77.338169 234.117178 77.338169 
z
" style="fill:#218e8d;"/>
    <path clip-path="url(#p229afd7b6b)" d="M 175.248872 203.262075 
C 177.008293 203.262075 178.69589 202.563049 179.939989 201.31895 
C 181.184088 200.074851 181.883114 198.387254 181.883114 196.627833 
C 181.883114 194.868411 181.184088 193.180814 179.939989 191.936715 
C 178.69589 190.692617 177.008293 189.993591 175.248872 189.993591 
C 173.48945 189.993591 171.801853 190.692617 170.557754 191.936715 
C 169.313655 193.180814 168.61463 194.868411 168.61463 196.627833 
C 168.61463 198.387254 169.313655 200.074851 170.557754 201.31895 
C 171.801853 202.563049 173.48945 203.262075 175.248872 203.262075 
z
" style="fill:#463480;"/>
    <path clip-path="url(#p229afd7b6b)" d="M 187.964576 95.317743 
C 189.726668 95.317743 191.416828 94.617657 192.662815 93.371669 
C 193.908803 92.125681 194.60889 90.435522 194.60889 88.673429 
C 194.60889 86.911337 193.908803 85.221177 192.662815 83.97519 
C 191.416828 82.729202 189.726668 82.029115 187.964576 82.029115 
C 186.202483 82.029115 184.512324 82.729202 183.266336 83.97519 
C 182.020349 85.221177 181.320262 86.911337 181.320262 88.673429 
C 181.320262 90.435522 182.020349 92.125681 183.266336 93.371669 
C 184.512324 94.617657 186.202483 95.317743 187.964576 95.317743 
z
" style="fill:#3d4e8a;"/>
    <path clip-path="url(#p229afd7b6b)" d="M 228.883628 275.356056 
C 230.650533 275.356056 232.345307 274.654057 233.594697 273.404667 
C 234.844087 272.155277 235.546086 270.460502 235.546086 268.693598 
C 235.546086 266.926694 234.844087 265.231919 233.594697 263.982529 
C 232.345307 262.733139 230.650533 262.03114 228.883628 262.03114 
C 227.116724 262.03114 225.421949 262.733139 224.172559 263.982529 
C 222.923169 265.231919 222.221171 266.926694 222.221171 268.693598 
C 222.221171 270.460502 222.923169 272.155277 224.172559 273.404667 
C 225.421949 274.654057 227.116724 275.356056 228.883628 275.356056 
z
" style="fill:#443b84;"/>
    <path clip-path="url(#p229afd7b6b)" d="M 241.349146 157.835421 
C 243.103907 157.835421 244.787033 157.138248 246.027835 155.897445 
C 247.268638 154.656642 247.965812 152.973516 247.965812 151.218756 
C 247.965812 149.463996 247.268638 147.78087 246.027835 146.540067 
C 244.787033 145.299264 243.103907 144.60209 241.349146 144.60209 
C 239.594386 144.60209 237.91126 145.299264 236.670457 146.540067 
C 235.429654 147.78087 234.732481 149.463996 234.732481 151.218756 
C 234.732481 152.973516 235.429654 154.656642 236.670457 155.897445 
C 237.91126 157.138248 239.594386 157.835421 241.349146 157.835421 
z
" style="fill:#472e7c;"/>
    <path clip-path="url(#p229afd7b6b)" d="M 286.267167 136.454315 
C 288.025807 136.454315 289.712653 135.7556 290.956199 134.512054 
C 292.199745 133.268509 292.89846 131.581662 292.89846 129.823022 
C 292.89846 128.064383 292.199745 126.377536 290.956199 125.13399 
C 289.712653 123.890444 288.025807 123.19173 286.267167 123.19173 
C 284.508528 123.19173 282.821681 123.890444 281.578135 125.13399 
C 280.334589 126.377536 279.635874 128.064383 279.635874 129.823022 
C 279.635874 131.581662 280.334589 133.268509 281.578135 134.512054 
C 282.821681 135.7556 284.508528 136.454315 286.267167 136.454315 
z
" style="fill:#482677;"/>
    <path clip-path="url(#p229afd7b6b)" d="M 80.099563 199.440974 
C 81.874258 199.440974 83.576505 198.73588 84.831404 197.480981 
C 86.086303 196.226082 86.791397 194.523835 86.791397 192.74914 
C 86.791397 190.974445 86.086303 189.272198 84.831404 188.017299 
C 83.576505 186.7624 81.874258 186.057306 80.099563 186.057306 
C 78.324867 186.057306 76.62262 186.7624 75.367721 188.017299 
C 74.112822 189.272198 73.407728 190.974445 73.407728 192.74914 
C 73.407728 194.523835 74.112822 196.226082 75.367721 197.480981 
C 76.62262 198.73588 78.324867 199.440974 80.099563 199.440974 
z
" style="fill:#2f6c8e;"/>
    <path clip-path="url(#p229afd7b6b)" d="M 133.805374 94.193872 
C 135.57326 94.193872 137.268975 93.491484 138.519059 92.2414 
C 139.769143 90.991317 140.471531 89.295601 140.471531 87.527716 
C 140.471531 85.759831 139.769143 84.064115 138.519059 82.814032 
C 137.268975 81.563948 135.57326 80.86156 133.805374 80.86156 
C 132.037489 80.86156 130.341774 81.563948 129.09169 82.814032 
C 127.841606 84.064115 127.139218 85.759831 127.139218 87.527716 
C 127.139218 89.295601 127.841606 90.991317 129.09169 92.2414 
C 130.341774 93.491484 132.037489 94.193872 133.805374 94.193872 
z
" style="fill:#414487;"/>
    <path clip-path="url(#p229afd7b6b)" d="M 324.149808 165.303182 
C 325.910932 165.303182 327.600161 164.60348 328.845464 163.358178 
C 330.090767 162.112875 330.790469 160.423645 330.790469 158.662522 
C 330.790469 156.901398 330.090767 155.212168 328.845464 153.966865 
C 327.600161 152.721563 325.910932 152.021861 324.149808 152.021861 
C 322.388684 152.021861 320.699454 152.721563 319.454151 153.966865 
C 318.208849 155.212168 317.509147 156.901398 317.509147 158.662522 
C 317.509147 160.423645 318.208849 162.112875 319.454151 163.358178 
C 320.699454 164.60348 322.388684 165.303182 324.149808 165.303182 
z
" style="fill:#25838e;"/>
    <path clip-path="url(#p229afd7b6b)" d="M 306.752333 241.203654 
C 308.516282 241.203654 310.208221 240.50283 311.455522 239.25553 
C 312.702822 238.00823 313.403646 236.31629 313.403646 234.552341 
C 313.403646 232.788392 312.702822 231.096453 311.455522 229.849153 
C 310.208221 228.601852 308.516282 227.901028 306.752333 227.901028 
C 304.988384 227.901028 303.296444 228.601852 302.049144 229.849153 
C 300.801844 231.096453 300.10102 232.788392 300.10102 234.552341 
C 300.10102 236.31629 300.801844 238.00823 302.049144 239.25553 
C 303.296444 240.50283 304.988384 241.203654 306.752333 241.203654 
z
" style="fill:#463480;"/>
    <path clip-path="url(#p229afd7b6b)" d="M 227.240153 200.512481 
C 228.996956 200.512481 230.682042 199.814495 231.924289 198.572248 
C 233.166537 197.33 233.864522 195.644914 233.864522 193.888111 
C 233.864522 192.131308 233.166537 190.446222 231.924289 189.203974 
C 230.682042 187.961727 228.996956 187.263741 227.240153 187.263741 
C 225.483349 187.263741 223.798263 187.961727 222.556016 189.203974 
C 221.313768 190.446222 220.615783 192.131308 220.615783 193.888111 
C 220.615783 195.644914 221.313768 197.33 222.556016 198.572248 
C 223.798263 199.814495 225.483349 200.512481 227.240153 200.512481 
z
" style="fill:#481f70;"/>
    <path clip-path="url(#p229afd7b6b)" d="M 275.182634 94.169877 
C 276.944076 94.169877 278.633611 93.470049 279.879138 92.224522 
C 281.124666 90.978994 281.824494 89.28946 281.824494 87.528018 
C 281.824494 85.766576 281.124666 84.077041 279.879138 82.831514 
C 278.633611 81.585987 276.944076 80.886158 275.182634 80.886158 
C 273.421193 80.886158 271.731658 81.585987 270.48613 82.831514 
C 269.240603 84.077041 268.540775 85.766576 268.540775 87.528018 
C 268.540775 89.28946 269.240603 90.978994 270.48613 92.224522 
C 271.731658 93.470049 273.421193 94.169877 275.182634 94.169877 
z
" style="fill:#20938c;"/>
    <path clip-path="url(#p229afd7b6b)" d="M 115.858447 139.058001 
C 117.626378 139.058001 119.322137 138.355595 120.572253 137.105479 
C 121.822369 135.855362 122.524776 134.159603 122.524776 132.391672 
C 122.524776 130.623741 121.822369 128.927982 120.572253 127.677866 
C 119.322137 126.42775 117.626378 125.725343 115.858447 125.725343 
C 114.090515 125.725343 112.394756 126.42775 111.14464 127.677866 
C 109.894524 128.927982 109.192118 130.623741 109.192118 132.391672 
C 109.192118 134.159603 109.894524 135.855362 111.14464 137.105479 
C 112.394756 138.355595 114.090515 139.058001 115.858447 139.058001 
z
" style="fill:#3e4a89;"/>
   </g>
   <g id="text_1">
    <!-- Structure #8289, $E_N$=-183.18eV, ΔE=0.10eV -->
    <defs>
     <path d="M 53.515625 70.515625 
L 53.515625 60.890625 
Q 47.90625 63.578125 42.921875 64.890625 
Q 37.9375 66.21875 33.296875 66.21875 
Q 25.25 66.21875 20.875 63.09375 
Q 16.5 59.96875 16.5 54.203125 
Q 16.5 49.359375 19.40625 46.890625 
Q 22.3125 44.4375 30.421875 42.921875 
L 36.375 41.703125 
Q 47.40625 39.59375 52.65625 34.296875 
Q 57.90625 29 57.90625 20.125 
Q 57.90625 9.515625 50.796875 4.046875 
Q 43.703125 -1.421875 29.984375 -1.421875 
Q 24.8125 -1.421875 18.96875 -0.25 
Q 13.140625 0.921875 6.890625 3.21875 
L 6.890625 13.375 
Q 12.890625 10.015625 18.65625 8.296875 
Q 24.421875 6.59375 29.984375 6.59375 
Q 38.421875 6.59375 43.015625 9.90625 
Q 47.609375 13.234375 47.609375 19.390625 
Q 47.609375 24.75 44.3125 27.78125 
Q 41.015625 30.8125 33.5 32.328125 
L 27.484375 33.5 
Q 16.453125 35.6875 11.515625 40.375 
Q 6.59375 45.0625 6.59375 53.421875 
Q 6.59375 63.09375 13.40625 68.65625 
Q 20.21875 74.21875 32.171875 74.21875 
Q 37.3125 74.21875 42.625 73.28125 
Q 47.953125 72.359375 53.515625 70.515625 
z
" id="DejaVuSans-53"/>
     <path d="M 18.3125 70.21875 
L 18.3125 54.6875 
L 36.8125 54.6875 
L 36.8125 47.703125 
L 18.3125 47.703125 
L 18.3125 18.015625 
Q 18.3125 11.328125 20.140625 9.421875 
Q 21.96875 7.515625 27.59375 7.515625 
L 36.8125 7.515625 
L 36.8125 0 
L 27.59375 0 
Q 17.1875 0 13.234375 3.875 
Q 9.28125 7.765625 9.28125 18.015625 
L 9.28125 47.703125 
L 2.6875 47.703125 
L 2.6875 54.6875 
L 9.28125 54.6875 
L 9.28125 70.21875 
z
" id="DejaVuSans-74"/>
     <path d="M 41.109375 46.296875 
Q 39.59375 47.171875 37.8125 47.578125 
Q 36.03125 48 33.890625 48 
Q 26.265625 48 22.1875 43.046875 
Q 18.109375 38.09375 18.109375 28.8125 
L 18.109375 0 
L 9.078125 0 
L 9.078125 54.6875 
L 18.109375 54.6875 
L 18.109375 46.1875 
Q 20.953125 51.171875 25.484375 53.578125 
Q 30.03125 56 36.53125 56 
Q 37.453125 56 38.578125 55.875 
Q 39.703125 55.765625 41.0625 55.515625 
z
" id="DejaVuSans-72"/>
     <path d="M 8.5 21.578125 
L 8.5 54.6875 
L 17.484375 54.6875 
L 17.484375 21.921875 
Q 17.484375 14.15625 20.5 10.265625 
Q 23.53125 6.390625 29.59375 6.390625 
Q 36.859375 6.390625 41.078125 11.03125 
Q 45.3125 15.671875 45.3125 23.6875 
L 45.3125 54.6875 
L 54.296875 54.6875 
L 54.296875 0 
L 45.3125 0 
L 45.3125 8.40625 
Q 42.046875 3.421875 37.71875 1 
Q 33.40625 -1.421875 27.6875 -1.421875 
Q 18.265625 -1.421875 13.375 4.4375 
Q 8.5 10.296875 8.5 21.578125 
z
M 31.109375 56 
z
" id="DejaVuSans-75"/>
     <path d="M 48.78125 52.59375 
L 48.78125 44.1875 
Q 44.96875 46.296875 41.140625 47.34375 
Q 37.3125 48.390625 33.40625 48.390625 
Q 24.65625 48.390625 19.8125 42.84375 
Q 14.984375 37.3125 14.984375 27.296875 
Q 14.984375 17.28125 19.8125 11.734375 
Q 24.65625 6.203125 33.40625 6.203125 
Q 37.3125 6.203125 41.140625 7.25 
Q 44.96875 8.296875 48.78125 10.40625 
L 48.78125 2.09375 
Q 45.015625 0.34375 40.984375 -0.53125 
Q 36.96875 -1.421875 32.421875 -1.421875 
Q 20.0625 -1.421875 12.78125 6.34375 
Q 5.515625 14.109375 5.515625 27.296875 
Q 5.515625 40.671875 12.859375 48.328125 
Q 20.21875 56 33.015625 56 
Q 37.15625 56 41.109375 55.140625 
Q 45.0625 54.296875 48.78125 52.59375 
z
" id="DejaVuSans-63"/>
     <path d="M 56.203125 29.59375 
L 56.203125 25.203125 
L 14.890625 25.203125 
Q 15.484375 15.921875 20.484375 11.0625 
Q 25.484375 6.203125 34.421875 6.203125 
Q 39.59375 6.203125 44.453125 7.46875 
Q 49.3125 8.734375 54.109375 11.28125 
L 54.109375 2.78125 
Q 49.265625 0.734375 44.1875 -0.34375 
Q 39.109375 -1.421875 33.890625 -1.421875 
Q 20.796875 -1.421875 13.15625 6.1875 
Q 5.515625 13.8125 5.515625 26.8125 
Q 5.515625 40.234375 12.765625 48.109375 
Q 20.015625 56 32.328125 56 
Q 43.359375 56 49.78125 48.890625 
Q 56.203125 41.796875 56.203125 29.59375 
z
M 47.21875 32.234375 
Q 47.125 39.59375 43.09375 43.984375 
Q 39.0625 48.390625 32.421875 48.390625 
Q 24.90625 48.390625 20.390625 44.140625 
Q 15.875 39.890625 15.1875 32.171875 
z
" id="DejaVuSans-65"/>
     <path id="DejaVuSans-20"/>
     <path d="M 51.125 44 
L 36.921875 44 
L 32.8125 27.6875 
L 47.125 27.6875 
z
M 43.796875 71.78125 
L 38.71875 51.515625 
L 52.984375 51.515625 
L 58.109375 71.78125 
L 65.921875 71.78125 
L 60.890625 51.515625 
L 76.125 51.515625 
L 76.125 44 
L 58.984375 44 
L 54.984375 27.6875 
L 70.515625 27.6875 
L 70.515625 20.21875 
L 53.078125 20.21875 
L 48 0 
L 40.1875 0 
L 45.21875 20.21875 
L 30.90625 20.21875 
L 25.875 0 
L 18.015625 0 
L 23.09375 20.21875 
L 7.71875 20.21875 
L 7.71875 27.6875 
L 24.90625 27.6875 
L 29 44 
L 13.28125 44 
L 13.28125 51.515625 
L 30.90625 51.515625 
L 35.890625 71.78125 
z
" id="DejaVuSans-23"/>
     <path d="M 31.78125 34.625 
Q 24.75 34.625 20.71875 30.859375 
Q 16.703125 27.09375 16.703125 20.515625 
Q 16.703125 13.921875 20.71875 10.15625 
Q 24.75 6.390625 31.78125 6.390625 
Q 38.8125 6.390625 42.859375 10.171875 
Q 46.921875 13.96875 46.921875 20.515625 
Q 46.921875 27.09375 42.890625 30.859375 
Q 38.875 34.625 31.78125 34.625 
z
M 21.921875 38.8125 
Q 15.578125 40.375 12.03125 44.71875 
Q 8.5 49.078125 8.5 55.328125 
Q 8.5 64.0625 14.71875 69.140625 
Q 20.953125 74.21875 31.78125 74.21875 
Q 42.671875 74.21875 48.875 69.140625 
Q 55.078125 64.0625 55.078125 55.328125 
Q 55.078125 49.078125 51.53125 44.71875 
Q 48 40.375 41.703125 38.8125 
Q 48.828125 37.15625 52.796875 32.3125 
Q 56.78125 27.484375 56.78125 20.515625 
Q 56.78125 9.90625 50.3125 4.234375 
Q 43.84375 -1.421875 31.78125 -1.421875 
Q 19.734375 -1.421875 13.25 4.234375 
Q 6.78125 9.90625 6.78125 20.515625 
Q 6.78125 27.484375 10.78125 32.3125 
Q 14.796875 37.15625 21.921875 38.8125 
z
M 18.3125 54.390625 
Q 18.3125 48.734375 21.84375 45.5625 
Q 25.390625 42.390625 31.78125 42.390625 
Q 38.140625 42.390625 41.71875 45.5625 
Q 45.3125 48.734375 45.3125 54.390625 
Q 45.3125 60.0625 41.71875 63.234375 
Q 38.140625 66.40625 31.78125 66.40625 
Q 25.390625 66.40625 21.84375 63.234375 
Q 18.3125 60.0625 18.3125 54.390625 
z
" id="DejaVuSans-38"/>
     <path d="M 19.1875 8.296875 
L 53.609375 8.296875 
L 53.609375 0 
L 7.328125 0 
L 7.328125 8.296875 
Q 12.9375 14.109375 22.625 23.890625 
Q 32.328125 33.6875 34.8125 36.53125 
Q 39.546875 41.84375 41.421875 45.53125 
Q 43.3125 49.21875 43.3125 52.78125 
Q 43.3125 58.59375 39.234375 62.25 
Q 35.15625 65.921875 28.609375 65.921875 
Q 23.96875 65.921875 18.8125 64.3125 
Q 13.671875 62.703125 7.8125 59.421875 
L 7.8125 69.390625 
Q 13.765625 71.78125 18.9375 73 
Q 24.125 74.21875 28.421875 74.21875 
Q 39.75 74.21875 46.484375 68.546875 
Q 53.21875 62.890625 53.21875 53.421875 
Q 53.21875 48.921875 51.53125 44.890625 
Q 49.859375 40.875 45.40625 35.40625 
Q 44.1875 33.984375 37.640625 27.21875 
Q 31.109375 20.453125 19.1875 8.296875 
z
" id="DejaVuSans-32"/>
     <path d="M 10.984375 1.515625 
L 10.984375 10.5 
Q 14.703125 8.734375 18.5 7.8125 
Q 22.3125 6.890625 25.984375 6.890625 
Q 35.75 6.890625 40.890625 13.453125 
Q 46.046875 20.015625 46.78125 33.40625 
Q 43.953125 29.203125 39.59375 26.953125 
Q 35.25 24.703125 29.984375 24.703125 
Q 19.046875 24.703125 12.671875 31.3125 
Q 6.296875 37.9375 6.296875 49.421875 
Q 6.296875 60.640625 12.9375 67.421875 
Q 19.578125 74.21875 30.609375 74.21875 
Q 43.265625 74.21875 49.921875 64.515625 
Q 56.59375 54.828125 56.59375 36.375 
Q 56.59375 19.140625 48.40625 8.859375 
Q 40.234375 -1.421875 26.421875 -1.421875 
Q 22.703125 -1.421875 18.890625 -0.6875 
Q 15.09375 0.046875 10.984375 1.515625 
z
M 30.609375 32.421875 
Q 37.25 32.421875 41.125 36.953125 
Q 45.015625 41.5 45.015625 49.421875 
Q 45.015625 57.28125 41.125 61.84375 
Q 37.25 66.40625 30.609375 66.40625 
Q 23.96875 66.40625 20.09375 61.84375 
Q 16.21875 57.28125 16.21875 49.421875 
Q 16.21875 41.5 20.09375 36.953125 
Q 23.96875 32.421875 30.609375 32.421875 
z
" id="DejaVuSans-39"/>
     <path d="M 11.71875 12.40625 
L 22.015625 12.40625 
L 22.015625 4 
L 14.015625 -11.625 
L 7.71875 -11.625 
L 11.71875 4 
z
" id="DejaVuSans-2c"/>
     <path d="M 16.890625 72.90625 
L 62.984375 72.90625 
L 61.375 64.59375 
L 25.09375 64.59375 
L 20.90625 43.015625 
L 55.71875 43.015625 
L 54.109375 34.71875 
L 19.28125 34.71875 
L 14.203125 8.296875 
L 51.3125 8.296875 
L 49.703125 0 
L 2.6875 0 
z
" id="DejaVuSans-Oblique-45"/>
     <path d="M 16.890625 72.90625 
L 30.171875 72.90625 
L 50.296875 10.40625 
L 62.5 72.90625 
L 72.125 72.90625 
L 57.90625 0 
L 44.578125 0 
L 24.515625 62.890625 
L 12.3125 0 
L 2.6875 0 
z
" id="DejaVuSans-Oblique-4e"/>
     <path d="M 10.59375 45.40625 
L 73.1875 45.40625 
L 73.1875 37.203125 
L 10.59375 37.203125 
z
M 10.59375 25.484375 
L 73.1875 25.484375 
L 73.1875 17.1875 
L 10.59375 17.1875 
z
" id="DejaVuSans-3d"/>
     <path d="M 4.890625 31.390625 
L 31.203125 31.390625 
L 31.203125 23.390625 
L 4.890625 23.390625 
z
" id="DejaVuSans-2d"/>
     <path d="M 12.40625 8.296875 
L 28.515625 8.296875 
L 28.515625 63.921875 
L 10.984375 60.40625 
L 10.984375 69.390625 
L 28.421875 72.90625 
L 38.28125 72.90625 
L 38.28125 8.296875 
L 54.390625 8.296875 
L 54.390625 0 
L 12.40625 0 
z
" id="DejaVuSans-31"/>
     <path d="M 40.578125 39.3125 
Q 47.65625 37.796875 51.625 33 
Q 55.609375 28.21875 55.609375 21.1875 
Q 55.609375 10.40625 48.1875 4.484375 
Q 40.765625 -1.421875 27.09375 -1.421875 
Q 22.515625 -1.421875 17.65625 -0.515625 
Q 12.796875 0.390625 7.625 2.203125 
L 7.625 11.71875 
Q 11.71875 9.328125 16.59375 8.109375 
Q 21.484375 6.890625 26.8125 6.890625 
Q 36.078125 6.890625 40.9375 10.546875 
Q 45.796875 14.203125 45.796875 21.1875 
Q 45.796875 27.640625 41.28125 31.265625 
Q 36.765625 34.90625 28.71875 34.90625 
L 20.21875 34.90625 
L 20.21875 43.015625 
L 29.109375 43.015625 
Q 36.375 43.015625 40.234375 45.921875 
Q 44.09375 48.828125 44.09375 54.296875 
Q 44.09375 59.90625 40.109375 62.90625 
Q 36.140625 65.921875 28.71875 65.921875 
Q 24.65625 65.921875 20.015625 65.03125 
Q 15.375 64.15625 9.8125 62.3125 
L 9.8125 71.09375 
Q 15.4375 72.65625 20.34375 73.4375 
Q 25.25 74.21875 29.59375 74.21875 
Q 40.828125 74.21875 47.359375 69.109375 
Q 53.90625 64.015625 53.90625 55.328125 
Q 53.90625 49.265625 50.4375 45.09375 
Q 46.96875 40.921875 40.578125 39.3125 
z
" id="DejaVuSans-33"/>
     <path d="M 10.6875 12.40625 
L 21 12.40625 
L 21 0 
L 10.6875 0 
z
" id="DejaVuSans-2e"/>
     <path d="M 28.609375 0 
L 0.78125 72.90625 
L 11.078125 72.90625 
L 34.1875 11.53125 
L 57.328125 72.90625 
L 67.578125 72.90625 
L 39.796875 0 
z
" id="DejaVuSans-56"/>
     <path d="M 34.1875 63.1875 
L 14.15625 8.203125 
L 54.25 8.203125 
z
M 0.78125 0 
L 28.609375 72.90625 
L 39.796875 72.90625 
L 67.578125 0 
z
" id="DejaVuSans-394"/>
     <path d="M 9.8125 72.90625 
L 55.90625 72.90625 
L 55.90625 64.59375 
L 19.671875 64.59375 
L 19.671875 43.015625 
L 54.390625 43.015625 
L 54.390625 34.71875 
L 19.671875 34.71875 
L 19.671875 8.296875 
L 56.78125 8.296875 
L 56.78125 0 
L 9.8125 0 
z
" id="DejaVuSans-45"/>
     <path d="M 31.78125 66.40625 
Q 24.171875 66.40625 20.328125 58.90625 
Q 16.5 51.421875 16.5 36.375 
Q 16.5 21.390625 20.328125 13.890625 
Q 24.171875 6.390625 31.78125 6.390625 
Q 39.453125 6.390625 43.28125 13.890625 
Q 47.125 21.390625 47.125 36.375 
Q 47.125 51.421875 43.28125 58.90625 
Q 39.453125 66.40625 31.78125 66.40625 
z
M 31.78125 74.21875 
Q 44.046875 74.21875 50.515625 64.515625 
Q 56.984375 54.828125 56.984375 36.375 
Q 56.984375 17.96875 50.515625 8.265625 
Q 44.046875 -1.421875 31.78125 -1.421875 
Q 19.53125 -1.421875 13.0625 8.265625 
Q 6.59375 17.96875 6.59375 36.375 
Q 6.59375 54.828125 13.0625 64.515625 
Q 19.53125 74.21875 31.78125 74.21875 
z
" id="DejaVuSans-30"/>
    </defs>
    <g transform="translate(65.388 35.472)scale(0.12 -0.12)">
     <use transform="translate(0 0.78125)" xlink:href="#DejaVuSans-53"/>
     <use transform="translate(63.476562 0.78125)" xlink:href="#DejaVuSans-74"/>
     <use transform="translate(102.685547 0.78125)" xlink:href="#DejaVuSans-72"/>
     <use transform="translate(143.798828 0.78125)" xlink:href="#DejaVuSans-75"/>
     <use transform="translate(207.177734 0.78125)" xlink:href="#DejaVuSans-63"/>
     <use transform="translate(262.158203 0.78125)" xlink:href="#DejaVuSans-74"/>
     <use transform="translate(301.367188 0.78125)" xlink:href="#DejaVuSans-75"/>
     <use transform="translate(364.746094 0.78125)" xlink:href="#DejaVuSans-72"/>
     <use transform="translate(405.859375 0.78125)" xlink:href="#DejaVuSans-65"/>
     <use transform="translate(467.382812 0.78125)" xlink:href="#DejaVuSans-20"/>
     <use transform="translate(499.169922 0.78125)" xlink:href="#DejaVuSans-23"/>
     <use transform="translate(582.958984 0.78125)" xlink:href="#DejaVuSans-38"/>
     <use transform="translate(646.582031 0.78125)" xlink:href="#DejaVuSans-32"/>
     <use transform="translate(710.205078 0.78125)" xlink:href="#DejaVuSans-38"/>
     <use transform="translate(773.828125 0.78125)" xlink:href="#DejaVuSans-39"/>
     <use transform="translate(837.451172 0.78125)" xlink:href="#DejaVuSans-2c"/>
     <use transform="translate(869.238281 0.78125)" xlink:href="#DejaVuSans-20"/>
     <use transform="translate(901.025391 0.78125)" xlink:href="#DejaVuSans-Oblique-45"/>
     <use transform="translate(964.208984 -15.625)scale(0.7)" xlink:href="#DejaVuSans-Oblique-4e"/>
     <use transform="translate(1019.306641 0.78125)" xlink:href="#DejaVuSans-3d"/>
     <use transform="translate(1103.095703 0.78125)" xlink:href="#DejaVuSans-2d"/>
     <use transform="translate(1139.179688 0.78125)" xlink:href="#DejaVuSans-31"/>
     <use transform="translate(1202.802734 0.78125)" xlink:href="#DejaVuSans-38"/>
     <use transform="translate(1266.425781 0.78125)" xlink:href="#DejaVuSans-33"/>
     <use transform="translate(1330.048828 0.78125)" xlink:href="#DejaVuSans-2e"/>
     <use transform="translate(1361.835938 0.78125)" xlink:href="#DejaVuSans-31"/>
     <use transform="translate(1425.458984 0.78125)" xlink:href="#DejaVuSans-38"/>
     <use transform="translate(1489.082031 0.78125)" xlink:href="#DejaVuSans-65"/>
     <use transform="translate(1550.605469 0.78125)" xlink:href="#DejaVuSans-56"/>
     <use transform="translate(1619.013672 0.78125)" xlink:href="#DejaVuSans-2c"/>
     <use transform="translate(1650.800781 0.78125)" xlink:href="#DejaVuSans-20"/>
     <use transform="translate(1682.587891 0.78125)" xlink:href="#DejaVuSans-394"/>
     <use transform="translate(1750.996094 0.78125)" xlink:href="#DejaVuSans-45"/>
     <use transform="translate(1814.179688 0.78125)" xlink:href="#DejaVuSans-3d"/>
     <use transform="translate(1897.96875 0.78125)" xlink:href="#DejaVuSans-30"/>
     <use transform="translate(1961.591797 0.78125)" xlink:href="#DejaVuSans-2e"/>
     <use transform="translate(1993.378906 0.78125)" xlink:href="#DejaVuSans-31"/>
     <use transform="translate(2057.001953 0.78125)" xlink:href="#DejaVuSans-30"/>
     <use transform="translate(2120.625 0.78125)" xlink:href="#DejaVuSans-65"/>
     <use transform="translate(2182.148438 0.78125)" xlink:href="#DejaVuSans-56"/>
    </g>
   </g>
  </g>
  <g id="axes_2">
   <g id="patch_2">
    <path clip-path="url(#peb0ea5f722)" d="M 361.152 307.584 
L 361.152 306.5445 
L 361.152 42.5115 
L 361.152 41.472 
L 374.4576 41.472 
L 374.4576 42.5115 
L 374.4576 306.5445 
L 374.4576 307.584 
z
" style="fill:#ffffff;stroke:#ffffff;stroke-linejoin:miter;stroke-width:0.01;"/>
   </g>
   <image height="265.68" id="image5ca3879b8d" transform="scale(1 -1)translate(0 -265.68)" width="12.96" x="361.44" xlink:href="data:image/png;base64,
iVBORw0KGgoAAAANSUhEUgAAABIAAAFxCAYAAAB+2fgXAAAABHNCSVQICAgIfAhkiAAAAeVJREFUeJztncmNw0AQA2ckheYQNv9QLIfQ8ygsCgQ7AEI8+jAs2Puz/94F1LP2ReCsZ18bAWIeZ5XaGRBE7VnbptG+KI101FYyNSiQG2oRITXKNaX9uclOdi2XWjftVE32CZCO2ou5Bj1TcCBr/1zB9ge7Fq0Rg2NM9pvbtG+ua1QgsRYhDy0ISEiNc40BEibbSI0Coj5CBGtkpFbXJiAjNZlrwhuSOv2M1DjXbEdEciBt1JSDDQKKpmZr2rr2j0DBGpXaWEJq3bQzEPIS26r9J+Wzv9Tm8o3aajRXqc3VUXsApKNWjeZq0x4ABVNbm7lrszVigDqP5vIl2+eaT2yfRkL7g+dRcNPqjohkjaCvRVBq0H2U3LQrOJCx9kdTg4B8oxZzzTdqdYHEngjUCAPyUctN9sVRq2sTECW2UKNLd2jVtRmo1A6AhMmWaSRcR8nUdIHUuVb75zJS218EyEitro1At69pIdeSk30Lkw0FktNImGyZRhy1O5galmxd03LUsHWk06jUZiCq+5Wb1kZNN4+wJxJuWt8RAW5am2sYNZ9rYCBzZ3buPKJ2P5Yj4Toy3keyIyJbIxs1rml1byCA84gpch5RQNB7Q0qNMGq2Hy4BXdNR41yz/cEEJfZzUz96r9PoB0okjeQ8y9TkAAAAAElFTkSuQmCC" y="-41.76"/>
   <g id="matplotlib.axis_1"/>
   <g id="matplotlib.axis_2">
    <g id="ytick_1">
     <g id="line2d_1">
      <defs>
       <path d="M 0 0 
L 3.5 0 
" id="m8d1ff76f92" style="stroke:#000000;stroke-width:0.8;"/>
      </defs>
      <g>
       <use style="stroke:#000000;stroke-width:0.8;" x="374.4576" xlink:href="#m8d1ff76f92" y="299.036928"/>
      </g>
     </g>
     <g id="text_2">
      <!-- −9 -->
      <defs>
       <path d="M 10.59375 35.5 
L 73.1875 35.5 
L 73.1875 27.203125 
L 10.59375 27.203125 
z
" id="DejaVuSans-2212"/>
      </defs>
      <g transform="translate(381.4576 302.836147)scale(0.1 -0.1)">
       <use xlink:href="#DejaVuSans-2212"/>
       <use x="83.789062" xlink:href="#DejaVuSans-39"/>
      </g>
     </g>
    </g>
    <g id="ytick_2">
     <g id="line2d_2">
      <g>
       <use style="stroke:#000000;stroke-width:0.8;" x="374.4576" xlink:href="#m8d1ff76f92" y="240.449763"/>
      </g>
     </g>
     <g id="text_3">
      <!-- −8 -->
      <g transform="translate(381.4576 244.248982)scale(0.1 -0.1)">
       <use xlink:href="#DejaVuSans-2212"/>
       <use x="83.789062" xlink:href="#DejaVuSans-38"/>
      </g>
     </g>
    </g>
    <g id="ytick_3">
     <g id="line2d_3">
      <g>
       <use style="stroke:#000000;stroke-width:0.8;" x="374.4576" xlink:href="#m8d1ff76f92" y="181.862598"/>
      </g>
     </g>
     <g id="text_4">
      <!-- −7 -->
      <defs>
       <path d="M 8.203125 72.90625 
L 55.078125 72.90625 
L 55.078125 68.703125 
L 28.609375 0 
L 18.3125 0 
L 43.21875 64.59375 
L 8.203125 64.59375 
z
" id="DejaVuSans-37"/>
      </defs>
      <g transform="translate(381.4576 185.661817)scale(0.1 -0.1)">
       <use xlink:href="#DejaVuSans-2212"/>
       <use x="83.789062" xlink:href="#DejaVuSans-37"/>
      </g>
     </g>
    </g>
    <g id="ytick_4">
     <g id="line2d_4">
      <g>
       <use style="stroke:#000000;stroke-width:0.8;" x="374.4576" xlink:href="#m8d1ff76f92" y="123.275433"/>
      </g>
     </g>
     <g id="text_5">
      <!-- −6 -->
      <defs>
       <path d="M 33.015625 40.375 
Q 26.375 40.375 22.484375 35.828125 
Q 18.609375 31.296875 18.609375 23.390625 
Q 18.609375 15.53125 22.484375 10.953125 
Q 26.375 6.390625 33.015625 6.390625 
Q 39.65625 6.390625 43.53125 10.953125 
Q 47.40625 15.53125 47.40625 23.390625 
Q 47.40625 31.296875 43.53125 35.828125 
Q 39.65625 40.375 33.015625 40.375 
z
M 52.59375 71.296875 
L 52.59375 62.3125 
Q 48.875 64.0625 45.09375 64.984375 
Q 41.3125 65.921875 37.59375 65.921875 
Q 27.828125 65.921875 22.671875 59.328125 
Q 17.53125 52.734375 16.796875 39.40625 
Q 19.671875 43.65625 24.015625 45.921875 
Q 28.375 48.1875 33.59375 48.1875 
Q 44.578125 48.1875 50.953125 41.515625 
Q 57.328125 34.859375 57.328125 23.390625 
Q 57.328125 12.15625 50.6875 5.359375 
Q 44.046875 -1.421875 33.015625 -1.421875 
Q 20.359375 -1.421875 13.671875 8.265625 
Q 6.984375 17.96875 6.984375 36.375 
Q 6.984375 53.65625 15.1875 63.9375 
Q 23.390625 74.21875 37.203125 74.21875 
Q 40.921875 74.21875 44.703125 73.484375 
Q 48.484375 72.75 52.59375 71.296875 
z
" id="DejaVuSans-36"/>
      </defs>
      <g transform="translate(381.4576 127.074652)scale(0.1 -0.1)">
       <use xlink:href="#DejaVuSans-2212"/>
       <use x="83.789062" xlink:href="#DejaVuSans-36"/>
      </g>
     </g>
    </g>
    <g id="ytick_5">
     <g id="line2d_5">
      <g>
       <use style="stroke:#000000;stroke-width:0.8;" x="374.4576" xlink:href="#m8d1ff76f92" y="64.688268"/>
      </g>
     </g>
     <g id="text_6">
      <!-- −5 -->
      <defs>
       <path d="M 10.796875 72.90625 
L 49.515625 72.90625 
L 49.515625 64.59375 
L 19.828125 64.59375 
L 19.828125 46.734375 
Q 21.96875 47.46875 24.109375 47.828125 
Q 26.265625 48.1875 28.421875 48.1875 
Q 40.625 48.1875 47.75 41.5 
Q 54.890625 34.8125 54.890625 23.390625 
Q 54.890625 11.625 47.5625 5.09375 
Q 40.234375 -1.421875 26.90625 -1.421875 
Q 22.3125 -1.421875 17.546875 -0.640625 
Q 12.796875 0.140625 7.71875 1.703125 
L 7.71875 11.625 
Q 12.109375 9.234375 16.796875 8.0625 
Q 21.484375 6.890625 26.703125 6.890625 
Q 35.15625 6.890625 40.078125 11.328125 
Q 45.015625 15.765625 45.015625 23.390625 
Q 45.015625 31 40.078125 35.4375 
Q 35.15625 39.890625 26.703125 39.890625 
Q 22.75 39.890625 18.8125 39.015625 
Q 14.890625 38.140625 10.796875 36.28125 
z
" id="DejaVuSans-35"/>
      </defs>
      <g transform="translate(381.4576 68.487487)scale(0.1 -0.1)">
       <use xlink:href="#DejaVuSans-2212"/>
       <use x="83.789062" xlink:href="#DejaVuSans-35"/>
      </g>
     </g>
    </g>
    <g id="text_7">
     <!-- Energy [eV] -->
     <defs>
      <path d="M 54.890625 33.015625 
L 54.890625 0 
L 45.90625 0 
L 45.90625 32.71875 
Q 45.90625 40.484375 42.875 44.328125 
Q 39.84375 48.1875 33.796875 48.1875 
Q 26.515625 48.1875 22.3125 43.546875 
Q 18.109375 38.921875 18.109375 30.90625 
L 18.109375 0 
L 9.078125 0 
L 9.078125 54.6875 
L 18.109375 54.6875 
L 18.109375 46.1875 
Q 21.34375 51.125 25.703125 53.5625 
Q 30.078125 56 35.796875 56 
Q 45.21875 56 50.046875 50.171875 
Q 54.890625 44.34375 54.890625 33.015625 
z
" id="DejaVuSans-6e"/>
      <path d="M 45.40625 27.984375 
Q 45.40625 37.75 41.375 43.109375 
Q 37.359375 48.484375 30.078125 48.484375 
Q 22.859375 48.484375 18.828125 43.109375 
Q 14.796875 37.75 14.796875 27.984375 
Q 14.796875 18.265625 18.828125 12.890625 
Q 22.859375 7.515625 30.078125 7.515625 
Q 37.359375 7.515625 41.375 12.890625 
Q 45.40625 18.265625 45.40625 27.984375 
z
M 54.390625 6.78125 
Q 54.390625 -7.171875 48.1875 -13.984375 
Q 42 -20.796875 29.203125 -20.796875 
Q 24.46875 -20.796875 20.265625 -20.09375 
Q 16.0625 -19.390625 12.109375 -17.921875 
L 12.109375 -9.1875 
Q 16.0625 -11.328125 19.921875 -12.34375 
Q 23.78125 -13.375 27.78125 -13.375 
Q 36.625 -13.375 41.015625 -8.765625 
Q 45.40625 -4.15625 45.40625 5.171875 
L 45.40625 9.625 
Q 42.625 4.78125 38.28125 2.390625 
Q 33.9375 0 27.875 0 
Q 17.828125 0 11.671875 7.65625 
Q 5.515625 15.328125 5.515625 27.984375 
Q 5.515625 40.671875 11.671875 48.328125 
Q 17.828125 56 27.875 56 
Q 33.9375 56 38.28125 53.609375 
Q 42.625 51.21875 45.40625 46.390625 
L 45.40625 54.6875 
L 54.390625 54.6875 
z
" id="DejaVuSans-67"/>
      <path d="M 32.171875 -5.078125 
Q 28.375 -14.84375 24.75 -17.8125 
Q 21.140625 -20.796875 15.09375 -20.796875 
L 7.90625 -20.796875 
L 7.90625 -13.28125 
L 13.1875 -13.28125 
Q 16.890625 -13.28125 18.9375 -11.515625 
Q 21 -9.765625 23.484375 -3.21875 
L 25.09375 0.875 
L 2.984375 54.6875 
L 12.5 54.6875 
L 29.59375 11.921875 
L 46.6875 54.6875 
L 56.203125 54.6875 
z
" id="DejaVuSans-79"/>
      <path d="M 8.59375 75.984375 
L 29.296875 75.984375 
L 29.296875 69 
L 17.578125 69 
L 17.578125 -6.203125 
L 29.296875 -6.203125 
L 29.296875 -13.1875 
L 8.59375 -13.1875 
z
" id="DejaVuSans-5b"/>
      <path d="M 30.421875 75.984375 
L 30.421875 -13.1875 
L 9.71875 -13.1875 
L 9.71875 -6.203125 
L 21.390625 -6.203125 
L 21.390625 69 
L 9.71875 69 
L 9.71875 75.984375 
z
" id="DejaVuSans-5d"/>
     </defs>
     <g transform="translate(407.798225 204.108469)rotate(-90)scale(0.1 -0.1)">
      <use xlink:href="#DejaVuSans-45"/>
      <use x="63.183594" xlink:href="#DejaVuSans-6e"/>
      <use x="126.5625" xlink:href="#DejaVuSans-65"/>
      <use x="188.085938" xlink:href="#DejaVuSans-72"/>
      <use x="229.183594" xlink:href="#DejaVuSans-67"/>
      <use x="292.660156" xlink:href="#DejaVuSans-79"/>
      <use x="351.839844" xlink:href="#DejaVuSans-20"/>
      <use x="383.626953" xlink:href="#DejaVuSans-5b"/>
      <use x="422.640625" xlink:href="#DejaVuSans-65"/>
      <use x="484.164062" xlink:href="#DejaVuSans-56"/>
      <use x="552.572266" xlink:href="#DejaVuSans-5d"/>
     </g>
    </g>
   </g>
   <g id="patch_3">
    <path d="M 361.152 307.584 
L 361.152 306.5445 
L 361.152 42.5115 
L 361.152 41.472 
L 374.4576 41.472 
L 374.4576 42.5115 
L 374.4576 306.5445 
L 374.4576 307.584 
z
" style="fill:none;stroke:#000000;stroke-linejoin:miter;stroke-width:0.8;"/>
   </g>
  </g>
 </g>
 <defs>
  <clipPath id="p229afd7b6b">
   <rect height="266.112" width="285.696" x="57.6" y="41.472"/>
  </clipPath>
  <clipPath id="peb0ea5f722">
   <rect height="266.112" width="13.3056" x="361.152" y="41.472"/>
  </clipPath>
 </defs>
</svg>
