<?xml version="1.0" encoding="utf-8" standalone="no"?>
<!DOCTYPE svg PUBLIC "-//W3C//DTD SVG 1.1//EN"
  "http://www.w3.org/Graphics/SVG/1.1/DTD/svg11.dtd">
<!-- Created with matplotlib (http://matplotlib.org/) -->
<svg height="345.6pt" version="1.1" viewBox="0 0 460.8 345.6" width="460.8pt" xmlns="http://www.w3.org/2000/svg" xmlns:xlink="http://www.w3.org/1999/xlink">
 <defs>
  <style type="text/css">
*{stroke-linecap:butt;stroke-linejoin:round;}
  </style>
 </defs>
 <g id="figure_1">
  <g id="patch_1">
   <path d="M 0 345.6 
L 460.8 345.6 
L 460.8 0 
L 0 0 
z
" style="fill:#ffffff;"/>
  </g>
  <g id="axes_1">
   <g id="CircleCollection_1">
    <path clip-path="url(#p809eb71e13)" d="M 276.146722 222.311047 
C 277.860897 222.311047 279.505095 221.629998 280.7172 220.417894 
C 281.929305 219.205789 282.610354 217.561591 282.610354 215.847416 
C 282.610354 214.133241 281.929305 212.489043 280.7172 211.276938 
C 279.505095 210.064834 277.860897 209.383785 276.146722 209.383785 
C 274.432547 209.383785 272.788349 210.064834 271.576245 211.276938 
C 270.36414 212.489043 269.683091 214.133241 269.683091 215.847416 
C 269.683091 217.561591 270.36414 219.205789 271.576245 220.417894 
C 272.788349 221.629998 274.432547 222.311047 276.146722 222.311047 
z
" style="fill:#440154;"/>
    <path clip-path="url(#p809eb71e13)" d="M 208.910423 166.7366 
C 210.701354 166.7366 212.419175 166.025055 213.685554 164.758675 
C 214.951934 163.492296 215.663478 161.774475 215.663478 159.983544 
C 215.663478 158.192613 214.951934 156.474793 213.685554 155.208413 
C 212.419175 153.942033 210.701354 153.230489 208.910423 153.230489 
C 207.119492 153.230489 205.401672 153.942033 204.135292 155.208413 
C 202.868912 156.474793 202.157368 158.192613 202.157368 159.983544 
C 202.157368 161.774475 202.868912 163.492296 204.135292 164.758675 
C 205.401672 166.025055 207.119492 166.7366 208.910423 166.7366 
z
" style="fill:#238a8d;"/>
    <path clip-path="url(#p809eb71e13)" d="M 330.112946 184.719777 
C 331.760649 184.719777 333.341087 184.065137 334.506189 182.900036 
C 335.67129 181.734934 336.325929 180.154496 336.325929 178.506794 
C 336.325929 176.859091 335.67129 175.278653 334.506189 174.113551 
C 333.341087 172.94845 331.760649 172.29381 330.112946 172.29381 
C 328.465244 172.29381 326.884805 172.94845 325.719704 174.113551 
C 324.554602 175.278653 323.899963 176.859091 323.899963 178.506794 
C 323.899963 180.154496 324.554602 181.734934 325.719704 182.900036 
C 326.884805 184.065137 328.465244 184.719777 330.112946 184.719777 
z
" style="fill:#fde725;"/>
    <path clip-path="url(#p809eb71e13)" d="M 128.128902 87.62998 
C 129.86094 87.62998 131.522271 86.941834 132.747007 85.717098 
C 133.971743 84.492362 134.659889 82.831031 134.659889 81.098993 
C 134.659889 79.366955 133.971743 77.705624 132.747007 76.480888 
C 131.522271 75.256152 129.86094 74.568006 128.128902 74.568006 
C 126.396864 74.568006 124.735533 75.256152 123.510797 76.480888 
C 122.286061 77.705624 121.597915 79.366955 121.597915 81.098993 
C 121.597915 82.831031 122.286061 84.492362 123.510797 85.717098 
C 124.735533 86.941834 126.396864 87.62998 128.128902 87.62998 
z
" style="fill:#32648e;"/>
    <path clip-path="url(#p809eb71e13)" d="M 257.815516 207.590853 
C 259.560048 207.590853 261.233363 206.897743 262.466934 205.664173 
C 263.700504 204.430602 264.393614 202.757287 264.393614 201.012756 
C 264.393614 199.268224 263.700504 197.594909 262.466934 196.361338 
C 261.233363 195.127768 259.560048 194.434658 257.815516 194.434658 
C 256.070985 194.434658 254.39767 195.127768 253.164099 196.361338 
C 251.930529 197.594909 251.237419 199.268224 251.237419 201.012756 
C 251.237419 202.757287 251.930529 204.430602 253.164099 205.664173 
C 254.39767 206.897743 256.070985 207.590853 257.815516 207.590853 
z
" style="fill:#24878e;"/>
    <path clip-path="url(#p809eb71e13)" d="M 294.504841 208.865301 
C 296.198397 208.865301 297.822818 208.192443 299.020343 206.994918 
C 300.217868 205.797393 300.890725 204.172972 300.890725 202.479416 
C 300.890725 200.785859 300.217868 199.161439 299.020343 197.963913 
C 297.822818 196.766388 296.198397 196.093531 294.504841 196.093531 
C 292.811284 196.093531 291.186863 196.766388 289.989338 197.963913 
C 288.791813 199.161439 288.118956 200.785859 288.118956 202.479416 
C 288.118956 204.172972 288.791813 205.797393 289.989338 206.994918 
C 291.186863 208.192443 292.811284 208.865301 294.504841 208.865301 
z
" style="fill:#228d8d;"/>
    <path clip-path="url(#p809eb71e13)" d="M 274.322151 252.265584 
C 276.027092 252.265584 277.662433 251.588204 278.868009 250.382628 
C 280.073584 249.177053 280.750965 247.541712 280.750965 245.836771 
C 280.750965 244.131829 280.073584 242.496488 278.868009 241.290913 
C 277.662433 240.085337 276.027092 239.407957 274.322151 239.407957 
C 272.61721 239.407957 270.981869 240.085337 269.776293 241.290913 
C 268.570718 242.496488 267.893337 244.131829 267.893337 245.836771 
C 267.893337 247.541712 268.570718 249.177053 269.776293 250.382628 
C 270.981869 251.588204 272.61721 252.265584 274.322151 252.265584 
z
" style="fill:#20928c;"/>
    <path clip-path="url(#p809eb71e13)" d="M 195.325827 146.972113 
C 197.110422 146.972113 198.822164 146.263086 200.084063 145.001187 
C 201.345962 143.739288 202.054989 142.027546 202.054989 140.242951 
C 202.054989 138.458357 201.345962 136.746614 200.084063 135.484715 
C 198.822164 134.222816 197.110422 133.513789 195.325827 133.513789 
C 193.541233 133.513789 191.82949 134.222816 190.567591 135.484715 
C 189.305692 136.746614 188.596665 138.458357 188.596665 140.242951 
C 188.596665 142.027546 189.305692 143.739288 190.567591 145.001187 
C 191.82949 146.263086 193.541233 146.972113 195.325827 146.972113 
z
" style="fill:#34618d;"/>
    <path clip-path="url(#p809eb71e13)" d="M 251.258336 296.584297 
C 252.986775 296.584297 254.644654 295.897581 255.866844 294.67539 
C 257.089035 293.453199 257.775751 291.795321 257.775751 290.066882 
C 257.775751 288.338443 257.089035 286.680564 255.866844 285.458374 
C 254.644654 284.236183 252.986775 283.549467 251.258336 283.549467 
C 249.529897 283.549467 247.872019 284.236183 246.649828 285.458374 
C 245.427637 286.680564 244.740921 288.338443 244.740921 290.066882 
C 244.740921 291.795321 245.427637 293.453199 246.649828 294.67539 
C 247.872019 295.897581 249.529897 296.584297 251.258336 296.584297 
z
" style="fill:#2a778e;"/>
    <path clip-path="url(#p809eb71e13)" d="M 179.975027 128.796698 
C 181.747726 128.796698 183.448058 128.092397 184.701545 126.83891 
C 185.955033 125.585422 186.659334 123.88509 186.659334 122.112391 
C 186.659334 120.339692 185.955033 118.63936 184.701545 117.385872 
C 183.448058 116.132385 181.747726 115.428084 179.975027 115.428084 
C 178.202328 115.428084 176.501995 116.132385 175.248508 117.385872 
C 173.99502 118.63936 173.29072 120.339692 173.29072 122.112391 
C 173.29072 123.88509 173.99502 125.585422 175.248508 126.83891 
C 176.501995 128.092397 178.202328 128.796698 179.975027 128.796698 
z
" style="fill:#306a8e;"/>
    <path clip-path="url(#p809eb71e13)" d="M 208.621427 216.696801 
C 210.443234 216.696801 212.190669 215.97299 213.478881 214.684778 
C 214.767093 213.396566 215.490905 211.64913 215.490905 209.827323 
C 215.490905 208.005516 214.767093 206.258081 213.478881 204.969869 
C 212.190669 203.681657 210.443234 202.957845 208.621427 202.957845 
C 206.79962 202.957845 205.052184 203.681657 203.763972 204.969869 
C 202.47576 206.258081 201.751949 208.005516 201.751949 209.827323 
C 201.751949 211.64913 202.47576 213.396566 203.763972 214.684778 
C 205.052184 215.97299 206.79962 216.696801 208.621427 216.696801 
z
" style="fill:#20928c;"/>
    <path clip-path="url(#p809eb71e13)" d="M 312.048891 196.658536 
C 313.720731 196.658536 315.324322 195.994307 316.506491 194.812138 
C 317.688661 193.629968 318.35289 192.026377 318.35289 190.354537 
C 318.35289 188.682697 317.688661 187.079107 316.506491 185.896937 
C 315.324322 184.714768 313.720731 184.050539 312.048891 184.050539 
C 310.377051 184.050539 308.77346 184.714768 307.591291 185.896937 
C 306.409122 187.079107 305.744892 188.682697 305.744892 190.354537 
C 305.744892 192.026377 306.409122 193.629968 307.591291 194.812138 
C 308.77346 195.994307 310.377051 196.658536 312.048891 196.658536 
z
" style="fill:#34608d;"/>
    <path clip-path="url(#p809eb71e13)" d="M 219.7495 191.995062 
C 221.546051 191.995062 223.269261 191.281285 224.539614 190.010932 
C 225.809967 188.740579 226.523745 187.017368 226.523745 185.220818 
C 226.523745 183.424267 225.809967 181.701056 224.539614 180.430703 
C 223.269261 179.16035 221.546051 178.446573 219.7495 178.446573 
C 217.952949 178.446573 216.229739 179.16035 214.959386 180.430703 
C 213.689032 181.701056 212.975255 183.424267 212.975255 185.220818 
C 212.975255 187.017368 213.689032 188.740579 214.959386 190.010932 
C 216.229739 191.281285 217.952949 191.995062 219.7495 191.995062 
z
" style="fill:#440154;"/>
    <path clip-path="url(#p809eb71e13)" d="M 205.812583 270.856115 
C 207.633696 270.856115 209.380466 270.132579 210.668188 268.844858 
C 211.955909 267.557136 212.679445 265.810366 212.679445 263.989253 
C 212.679445 262.16814 211.955909 260.42137 210.668188 259.133649 
C 209.380466 257.845927 207.633696 257.122391 205.812583 257.122391 
C 203.99147 257.122391 202.2447 257.845927 200.956978 259.133649 
C 199.669257 260.42137 198.945721 262.16814 198.945721 263.989253 
C 198.945721 265.810366 199.669257 267.557136 200.956978 268.844858 
C 202.2447 270.132579 203.99147 270.856115 205.812583 270.856115 
z
" style="fill:#2b748e;"/>
    <path clip-path="url(#p809eb71e13)" d="M 233.086213 301.737447 
C 234.844206 301.737447 236.530432 301.038989 237.773521 299.7959 
C 239.01661 298.552812 239.715068 296.866585 239.715068 295.108592 
C 239.715068 293.350599 239.01661 291.664373 237.773521 290.421284 
C 236.530432 289.178195 234.844206 288.479737 233.086213 288.479737 
C 231.32822 288.479737 229.641993 289.178195 228.398905 290.421284 
C 227.155816 291.664373 226.457358 293.350599 226.457358 295.108592 
C 226.457358 296.866585 227.155816 298.552812 228.398905 299.7959 
C 229.641993 301.038989 231.32822 301.737447 233.086213 301.737447 
z
" style="fill:#2a768e;"/>
    <path clip-path="url(#p809eb71e13)" d="M 90.393231 68.071313 
C 92.097329 68.071313 93.731861 67.394268 94.93684 66.189289 
C 96.14182 64.984309 96.818865 63.349777 96.818865 61.645679 
C 96.818865 59.941581 96.14182 58.307049 94.93684 57.102069 
C 93.731861 55.89709 92.097329 55.220045 90.393231 55.220045 
C 88.689133 55.220045 87.054601 55.89709 85.849621 57.102069 
C 84.644642 58.307049 83.967596 59.941581 83.967596 61.645679 
C 83.967596 63.349777 84.644642 64.984309 85.849621 66.189289 
C 87.054601 67.394268 88.689133 68.071313 90.393231 68.071313 
z
" style="fill:#2e6d8e;"/>
    <path clip-path="url(#p809eb71e13)" d="M 204.271876 242.569064 
C 206.100178 242.569064 207.853844 241.842672 209.146649 240.549867 
C 210.439453 239.257062 211.165846 237.503396 211.165846 235.675094 
C 211.165846 233.846792 210.439453 232.093127 209.146649 230.800322 
C 207.853844 229.507517 206.100178 228.781125 204.271876 228.781125 
C 202.443574 228.781125 200.689909 229.507517 199.397104 230.800322 
C 198.104299 232.093127 197.377907 233.846792 197.377907 235.675094 
C 197.377907 237.503396 198.104299 239.257062 199.397104 240.549867 
C 200.689909 241.842672 202.443574 242.569064 204.271876 242.569064 
z
" style="fill:#31678e;"/>
    <path clip-path="url(#p809eb71e13)" d="M 215.491049 292.636793 
C 217.287567 292.636793 219.010746 291.923029 220.281076 290.652699 
C 221.551405 289.382369 222.26517 287.65919 222.26517 285.862672 
C 222.26517 284.066154 221.551405 282.342975 220.281076 281.072646 
C 219.010746 279.802316 217.287567 279.088551 215.491049 279.088551 
C 213.694531 279.088551 211.971352 279.802316 210.701022 281.072646 
C 209.430692 282.342975 208.716928 284.066154 208.716928 285.862672 
C 208.716928 287.65919 209.430692 289.382369 210.701022 290.652699 
C 211.971352 291.923029 213.694531 292.636793 215.491049 292.636793 
z
" style="fill:#2a778e;"/>
    <path clip-path="url(#p809eb71e13)" d="M 265.301708 275.826853 
C 267.011864 275.826853 268.652206 275.147401 269.861469 273.938138 
C 271.070732 272.728875 271.750184 271.088532 271.750184 269.378376 
C 271.750184 267.66822 271.070732 266.027877 269.861469 264.818614 
C 268.652206 263.609351 267.011864 262.929899 265.301708 262.929899 
C 263.591552 262.929899 261.951209 263.609351 260.741946 264.818614 
C 259.532683 266.027877 258.853231 267.66822 258.853231 269.378376 
C 258.853231 271.088532 259.532683 272.728875 260.741946 273.938138 
C 261.951209 275.147401 263.591552 275.826853 265.301708 275.826853 
z
" style="fill:#31688e;"/>
    <path clip-path="url(#p809eb71e13)" d="M 240.867241 197.45617 
C 242.636489 197.45617 244.333512 196.75324 245.58456 195.502192 
C 246.835607 194.251144 247.538537 192.554121 247.538537 190.784873 
C 247.538537 189.015624 246.835607 187.318601 245.58456 186.067554 
C 244.333512 184.816506 242.636489 184.113576 240.867241 184.113576 
C 239.097992 184.113576 237.400969 184.816506 236.149922 186.067554 
C 234.898874 187.318601 234.195944 189.015624 234.195944 190.784873 
C 234.195944 192.554121 234.898874 194.251144 236.149922 195.502192 
C 237.400969 196.75324 239.097992 197.45617 240.867241 197.45617 
z
" style="fill:#25848e;"/>
    <path clip-path="url(#p809eb71e13)" d="M 109.521431 77.64871 
C 111.239473 77.64871 112.887379 76.966124 114.102218 75.751285 
C 115.317057 74.536446 115.999642 72.88854 115.999642 71.170498 
C 115.999642 69.452456 115.317057 67.80455 114.102218 66.589711 
C 112.887379 65.374872 111.239473 64.692286 109.521431 64.692286 
C 107.803389 64.692286 106.155482 65.374872 104.940643 66.589711 
C 103.725804 67.80455 103.043219 69.452456 103.043219 71.170498 
C 103.043219 72.88854 103.725804 74.536446 104.940643 75.751285 
C 106.155482 76.966124 107.803389 77.64871 109.521431 77.64871 
z
" style="fill:#31678e;"/>
    <path clip-path="url(#p809eb71e13)" d="M 146.14719 99.686464 
C 147.893406 99.686464 149.568336 98.992685 150.803097 97.757924 
C 152.037858 96.523163 152.731637 94.848233 152.731637 93.102017 
C 152.731637 91.355801 152.037858 89.680871 150.803097 88.44611 
C 149.568336 87.211349 147.893406 86.51757 146.14719 86.51757 
C 144.400974 86.51757 142.726043 87.211349 141.491282 88.44611 
C 140.256521 89.680871 139.562742 91.355801 139.562742 93.102017 
C 139.562742 94.848233 140.256521 96.523163 141.491282 97.757924 
C 142.726043 98.992685 144.400974 99.686464 146.14719 99.686464 
z
" style="fill:#31688e;"/>
    <path clip-path="url(#p809eb71e13)" d="M 70.788219 60.308918 
C 72.479149 60.308918 74.101051 59.637104 75.29672 58.441436 
C 76.492388 57.245767 77.164202 55.623865 77.164202 53.932934 
C 77.164202 52.242004 76.492388 50.620102 75.29672 49.424433 
C 74.101051 48.228765 72.479149 47.556951 70.788219 47.556951 
C 69.097288 47.556951 67.475386 48.228765 66.279718 49.424433 
C 65.084049 50.620102 64.412235 52.242004 64.412235 53.932934 
C 64.412235 55.623865 65.084049 57.245767 66.279718 58.441436 
C 67.475386 59.637104 69.097288 60.308918 70.788219 60.308918 
z
" style="fill:#e7e419;"/>
    <path clip-path="url(#p809eb71e13)" d="M 163.644393 113.138892 
C 165.404626 113.138892 167.093002 112.439544 168.337675 111.194871 
C 169.582348 109.950198 170.281696 108.261822 170.281696 106.501589 
C 170.281696 104.741356 169.582348 103.05298 168.337675 101.808307 
C 167.093002 100.563634 165.404626 99.864286 163.644393 99.864286 
C 161.884159 99.864286 160.195784 100.563634 158.951111 101.808307 
C 157.706438 103.05298 157.007089 104.741356 157.007089 106.501589 
C 157.007089 108.261822 157.706438 109.950198 158.951111 111.194871 
C 160.195784 112.439544 161.884159 113.138892 163.644393 113.138892 
z
" style="fill:#32648e;"/>
   </g>
   <g id="text_1">
    <!-- Structure #9557, $E_N$=-179.45eV, ΔE=0.17eV -->
    <defs>
     <path d="M 53.515625 70.515625 
L 53.515625 60.890625 
Q 47.90625 63.578125 42.921875 64.890625 
Q 37.9375 66.21875 33.296875 66.21875 
Q 25.25 66.21875 20.875 63.09375 
Q 16.5 59.96875 16.5 54.203125 
Q 16.5 49.359375 19.40625 46.890625 
Q 22.3125 44.4375 30.421875 42.921875 
L 36.375 41.703125 
Q 47.40625 39.59375 52.65625 34.296875 
Q 57.90625 29 57.90625 20.125 
Q 57.90625 9.515625 50.796875 4.046875 
Q 43.703125 -1.421875 29.984375 -1.421875 
Q 24.8125 -1.421875 18.96875 -0.25 
Q 13.140625 0.921875 6.890625 3.21875 
L 6.890625 13.375 
Q 12.890625 10.015625 18.65625 8.296875 
Q 24.421875 6.59375 29.984375 6.59375 
Q 38.421875 6.59375 43.015625 9.90625 
Q 47.609375 13.234375 47.609375 19.390625 
Q 47.609375 24.75 44.3125 27.78125 
Q 41.015625 30.8125 33.5 32.328125 
L 27.484375 33.5 
Q 16.453125 35.6875 11.515625 40.375 
Q 6.59375 45.0625 6.59375 53.421875 
Q 6.59375 63.09375 13.40625 68.65625 
Q 20.21875 74.21875 32.171875 74.21875 
Q 37.3125 74.21875 42.625 73.28125 
Q 47.953125 72.359375 53.515625 70.515625 
z
" id="DejaVuSans-53"/>
     <path d="M 18.3125 70.21875 
L 18.3125 54.6875 
L 36.8125 54.6875 
L 36.8125 47.703125 
L 18.3125 47.703125 
L 18.3125 18.015625 
Q 18.3125 11.328125 20.140625 9.421875 
Q 21.96875 7.515625 27.59375 7.515625 
L 36.8125 7.515625 
L 36.8125 0 
L 27.59375 0 
Q 17.1875 0 13.234375 3.875 
Q 9.28125 7.765625 9.28125 18.015625 
L 9.28125 47.703125 
L 2.6875 47.703125 
L 2.6875 54.6875 
L 9.28125 54.6875 
L 9.28125 70.21875 
z
" id="DejaVuSans-74"/>
     <path d="M 41.109375 46.296875 
Q 39.59375 47.171875 37.8125 47.578125 
Q 36.03125 48 33.890625 48 
Q 26.265625 48 22.1875 43.046875 
Q 18.109375 38.09375 18.109375 28.8125 
L 18.109375 0 
L 9.078125 0 
L 9.078125 54.6875 
L 18.109375 54.6875 
L 18.109375 46.1875 
Q 20.953125 51.171875 25.484375 53.578125 
Q 30.03125 56 36.53125 56 
Q 37.453125 56 38.578125 55.875 
Q 39.703125 55.765625 41.0625 55.515625 
z
" id="DejaVuSans-72"/>
     <path d="M 8.5 21.578125 
L 8.5 54.6875 
L 17.484375 54.6875 
L 17.484375 21.921875 
Q 17.484375 14.15625 20.5 10.265625 
Q 23.53125 6.390625 29.59375 6.390625 
Q 36.859375 6.390625 41.078125 11.03125 
Q 45.3125 15.671875 45.3125 23.6875 
L 45.3125 54.6875 
L 54.296875 54.6875 
L 54.296875 0 
L 45.3125 0 
L 45.3125 8.40625 
Q 42.046875 3.421875 37.71875 1 
Q 33.40625 -1.421875 27.6875 -1.421875 
Q 18.265625 -1.421875 13.375 4.4375 
Q 8.5 10.296875 8.5 21.578125 
z
M 31.109375 56 
z
" id="DejaVuSans-75"/>
     <path d="M 48.78125 52.59375 
L 48.78125 44.1875 
Q 44.96875 46.296875 41.140625 47.34375 
Q 37.3125 48.390625 33.40625 48.390625 
Q 24.65625 48.390625 19.8125 42.84375 
Q 14.984375 37.3125 14.984375 27.296875 
Q 14.984375 17.28125 19.8125 11.734375 
Q 24.65625 6.203125 33.40625 6.203125 
Q 37.3125 6.203125 41.140625 7.25 
Q 44.96875 8.296875 48.78125 10.40625 
L 48.78125 2.09375 
Q 45.015625 0.34375 40.984375 -0.53125 
Q 36.96875 -1.421875 32.421875 -1.421875 
Q 20.0625 -1.421875 12.78125 6.34375 
Q 5.515625 14.109375 5.515625 27.296875 
Q 5.515625 40.671875 12.859375 48.328125 
Q 20.21875 56 33.015625 56 
Q 37.15625 56 41.109375 55.140625 
Q 45.0625 54.296875 48.78125 52.59375 
z
" id="DejaVuSans-63"/>
     <path d="M 56.203125 29.59375 
L 56.203125 25.203125 
L 14.890625 25.203125 
Q 15.484375 15.921875 20.484375 11.0625 
Q 25.484375 6.203125 34.421875 6.203125 
Q 39.59375 6.203125 44.453125 7.46875 
Q 49.3125 8.734375 54.109375 11.28125 
L 54.109375 2.78125 
Q 49.265625 0.734375 44.1875 -0.34375 
Q 39.109375 -1.421875 33.890625 -1.421875 
Q 20.796875 -1.421875 13.15625 6.1875 
Q 5.515625 13.8125 5.515625 26.8125 
Q 5.515625 40.234375 12.765625 48.109375 
Q 20.015625 56 32.328125 56 
Q 43.359375 56 49.78125 48.890625 
Q 56.203125 41.796875 56.203125 29.59375 
z
M 47.21875 32.234375 
Q 47.125 39.59375 43.09375 43.984375 
Q 39.0625 48.390625 32.421875 48.390625 
Q 24.90625 48.390625 20.390625 44.140625 
Q 15.875 39.890625 15.1875 32.171875 
z
" id="DejaVuSans-65"/>
     <path id="DejaVuSans-20"/>
     <path d="M 51.125 44 
L 36.921875 44 
L 32.8125 27.6875 
L 47.125 27.6875 
z
M 43.796875 71.78125 
L 38.71875 51.515625 
L 52.984375 51.515625 
L 58.109375 71.78125 
L 65.921875 71.78125 
L 60.890625 51.515625 
L 76.125 51.515625 
L 76.125 44 
L 58.984375 44 
L 54.984375 27.6875 
L 70.515625 27.6875 
L 70.515625 20.21875 
L 53.078125 20.21875 
L 48 0 
L 40.1875 0 
L 45.21875 20.21875 
L 30.90625 20.21875 
L 25.875 0 
L 18.015625 0 
L 23.09375 20.21875 
L 7.71875 20.21875 
L 7.71875 27.6875 
L 24.90625 27.6875 
L 29 44 
L 13.28125 44 
L 13.28125 51.515625 
L 30.90625 51.515625 
L 35.890625 71.78125 
z
" id="DejaVuSans-23"/>
     <path d="M 10.984375 1.515625 
L 10.984375 10.5 
Q 14.703125 8.734375 18.5 7.8125 
Q 22.3125 6.890625 25.984375 6.890625 
Q 35.75 6.890625 40.890625 13.453125 
Q 46.046875 20.015625 46.78125 33.40625 
Q 43.953125 29.203125 39.59375 26.953125 
Q 35.25 24.703125 29.984375 24.703125 
Q 19.046875 24.703125 12.671875 31.3125 
Q 6.296875 37.9375 6.296875 49.421875 
Q 6.296875 60.640625 12.9375 67.421875 
Q 19.578125 74.21875 30.609375 74.21875 
Q 43.265625 74.21875 49.921875 64.515625 
Q 56.59375 54.828125 56.59375 36.375 
Q 56.59375 19.140625 48.40625 8.859375 
Q 40.234375 -1.421875 26.421875 -1.421875 
Q 22.703125 -1.421875 18.890625 -0.6875 
Q 15.09375 0.046875 10.984375 1.515625 
z
M 30.609375 32.421875 
Q 37.25 32.421875 41.125 36.953125 
Q 45.015625 41.5 45.015625 49.421875 
Q 45.015625 57.28125 41.125 61.84375 
Q 37.25 66.40625 30.609375 66.40625 
Q 23.96875 66.40625 20.09375 61.84375 
Q 16.21875 57.28125 16.21875 49.421875 
Q 16.21875 41.5 20.09375 36.953125 
Q 23.96875 32.421875 30.609375 32.421875 
z
" id="DejaVuSans-39"/>
     <path d="M 10.796875 72.90625 
L 49.515625 72.90625 
L 49.515625 64.59375 
L 19.828125 64.59375 
L 19.828125 46.734375 
Q 21.96875 47.46875 24.109375 47.828125 
Q 26.265625 48.1875 28.421875 48.1875 
Q 40.625 48.1875 47.75 41.5 
Q 54.890625 34.8125 54.890625 23.390625 
Q 54.890625 11.625 47.5625 5.09375 
Q 40.234375 -1.421875 26.90625 -1.421875 
Q 22.3125 -1.421875 17.546875 -0.640625 
Q 12.796875 0.140625 7.71875 1.703125 
L 7.71875 11.625 
Q 12.109375 9.234375 16.796875 8.0625 
Q 21.484375 6.890625 26.703125 6.890625 
Q 35.15625 6.890625 40.078125 11.328125 
Q 45.015625 15.765625 45.015625 23.390625 
Q 45.015625 31 40.078125 35.4375 
Q 35.15625 39.890625 26.703125 39.890625 
Q 22.75 39.890625 18.8125 39.015625 
Q 14.890625 38.140625 10.796875 36.28125 
z
" id="DejaVuSans-35"/>
     <path d="M 8.203125 72.90625 
L 55.078125 72.90625 
L 55.078125 68.703125 
L 28.609375 0 
L 18.3125 0 
L 43.21875 64.59375 
L 8.203125 64.59375 
z
" id="DejaVuSans-37"/>
     <path d="M 11.71875 12.40625 
L 22.015625 12.40625 
L 22.015625 4 
L 14.015625 -11.625 
L 7.71875 -11.625 
L 11.71875 4 
z
" id="DejaVuSans-2c"/>
     <path d="M 16.890625 72.90625 
L 62.984375 72.90625 
L 61.375 64.59375 
L 25.09375 64.59375 
L 20.90625 43.015625 
L 55.71875 43.015625 
L 54.109375 34.71875 
L 19.28125 34.71875 
L 14.203125 8.296875 
L 51.3125 8.296875 
L 49.703125 0 
L 2.6875 0 
z
" id="DejaVuSans-Oblique-45"/>
     <path d="M 16.890625 72.90625 
L 30.171875 72.90625 
L 50.296875 10.40625 
L 62.5 72.90625 
L 72.125 72.90625 
L 57.90625 0 
L 44.578125 0 
L 24.515625 62.890625 
L 12.3125 0 
L 2.6875 0 
z
" id="DejaVuSans-Oblique-4e"/>
     <path d="M 10.59375 45.40625 
L 73.1875 45.40625 
L 73.1875 37.203125 
L 10.59375 37.203125 
z
M 10.59375 25.484375 
L 73.1875 25.484375 
L 73.1875 17.1875 
L 10.59375 17.1875 
z
" id="DejaVuSans-3d"/>
     <path d="M 4.890625 31.390625 
L 31.203125 31.390625 
L 31.203125 23.390625 
L 4.890625 23.390625 
z
" id="DejaVuSans-2d"/>
     <path d="M 12.40625 8.296875 
L 28.515625 8.296875 
L 28.515625 63.921875 
L 10.984375 60.40625 
L 10.984375 69.390625 
L 28.421875 72.90625 
L 38.28125 72.90625 
L 38.28125 8.296875 
L 54.390625 8.296875 
L 54.390625 0 
L 12.40625 0 
z
" id="DejaVuSans-31"/>
     <path d="M 10.6875 12.40625 
L 21 12.40625 
L 21 0 
L 10.6875 0 
z
" id="DejaVuSans-2e"/>
     <path d="M 37.796875 64.3125 
L 12.890625 25.390625 
L 37.796875 25.390625 
z
M 35.203125 72.90625 
L 47.609375 72.90625 
L 47.609375 25.390625 
L 58.015625 25.390625 
L 58.015625 17.1875 
L 47.609375 17.1875 
L 47.609375 0 
L 37.796875 0 
L 37.796875 17.1875 
L 4.890625 17.1875 
L 4.890625 26.703125 
z
" id="DejaVuSans-34"/>
     <path d="M 28.609375 0 
L 0.78125 72.90625 
L 11.078125 72.90625 
L 34.1875 11.53125 
L 57.328125 72.90625 
L 67.578125 72.90625 
L 39.796875 0 
z
" id="DejaVuSans-56"/>
     <path d="M 34.1875 63.1875 
L 14.15625 8.203125 
L 54.25 8.203125 
z
M 0.78125 0 
L 28.609375 72.90625 
L 39.796875 72.90625 
L 67.578125 0 
z
" id="DejaVuSans-394"/>
     <path d="M 9.8125 72.90625 
L 55.90625 72.90625 
L 55.90625 64.59375 
L 19.671875 64.59375 
L 19.671875 43.015625 
L 54.390625 43.015625 
L 54.390625 34.71875 
L 19.671875 34.71875 
L 19.671875 8.296875 
L 56.78125 8.296875 
L 56.78125 0 
L 9.8125 0 
z
" id="DejaVuSans-45"/>
     <path d="M 31.78125 66.40625 
Q 24.171875 66.40625 20.328125 58.90625 
Q 16.5 51.421875 16.5 36.375 
Q 16.5 21.390625 20.328125 13.890625 
Q 24.171875 6.390625 31.78125 6.390625 
Q 39.453125 6.390625 43.28125 13.890625 
Q 47.125 21.390625 47.125 36.375 
Q 47.125 51.421875 43.28125 58.90625 
Q 39.453125 66.40625 31.78125 66.40625 
z
M 31.78125 74.21875 
Q 44.046875 74.21875 50.515625 64.515625 
Q 56.984375 54.828125 56.984375 36.375 
Q 56.984375 17.96875 50.515625 8.265625 
Q 44.046875 -1.421875 31.78125 -1.421875 
Q 19.53125 -1.421875 13.0625 8.265625 
Q 6.59375 17.96875 6.59375 36.375 
Q 6.59375 54.828125 13.0625 64.515625 
Q 19.53125 74.21875 31.78125 74.21875 
z
" id="DejaVuSans-30"/>
    </defs>
    <g transform="translate(65.388 35.472)scale(0.12 -0.12)">
     <use transform="translate(0 0.78125)" xlink:href="#DejaVuSans-53"/>
     <use transform="translate(63.476562 0.78125)" xlink:href="#DejaVuSans-74"/>
     <use transform="translate(102.685547 0.78125)" xlink:href="#DejaVuSans-72"/>
     <use transform="translate(143.798828 0.78125)" xlink:href="#DejaVuSans-75"/>
     <use transform="translate(207.177734 0.78125)" xlink:href="#DejaVuSans-63"/>
     <use transform="translate(262.158203 0.78125)" xlink:href="#DejaVuSans-74"/>
     <use transform="translate(301.367188 0.78125)" xlink:href="#DejaVuSans-75"/>
     <use transform="translate(364.746094 0.78125)" xlink:href="#DejaVuSans-72"/>
     <use transform="translate(405.859375 0.78125)" xlink:href="#DejaVuSans-65"/>
     <use transform="translate(467.382812 0.78125)" xlink:href="#DejaVuSans-20"/>
     <use transform="translate(499.169922 0.78125)" xlink:href="#DejaVuSans-23"/>
     <use transform="translate(582.958984 0.78125)" xlink:href="#DejaVuSans-39"/>
     <use transform="translate(646.582031 0.78125)" xlink:href="#DejaVuSans-35"/>
     <use transform="translate(710.205078 0.78125)" xlink:href="#DejaVuSans-35"/>
     <use transform="translate(773.71875 0.78125)" xlink:href="#DejaVuSans-37"/>
     <use transform="translate(837.341797 0.78125)" xlink:href="#DejaVuSans-2c"/>
     <use transform="translate(869.128906 0.78125)" xlink:href="#DejaVuSans-20"/>
     <use transform="translate(900.916016 0.78125)" xlink:href="#DejaVuSans-Oblique-45"/>
     <use transform="translate(964.099609 -15.625)scale(0.7)" xlink:href="#DejaVuSans-Oblique-4e"/>
     <use transform="translate(1019.197266 0.78125)" xlink:href="#DejaVuSans-3d"/>
     <use transform="translate(1102.986328 0.78125)" xlink:href="#DejaVuSans-2d"/>
     <use transform="translate(1139.070312 0.78125)" xlink:href="#DejaVuSans-31"/>
     <use transform="translate(1202.693359 0.78125)" xlink:href="#DejaVuSans-37"/>
     <use transform="translate(1266.316406 0.78125)" xlink:href="#DejaVuSans-39"/>
     <use transform="translate(1329.939453 0.78125)" xlink:href="#DejaVuSans-2e"/>
     <use transform="translate(1361.726562 0.78125)" xlink:href="#DejaVuSans-34"/>
     <use transform="translate(1425.349609 0.78125)" xlink:href="#DejaVuSans-35"/>
     <use transform="translate(1488.972656 0.78125)" xlink:href="#DejaVuSans-65"/>
     <use transform="translate(1550.496094 0.78125)" xlink:href="#DejaVuSans-56"/>
     <use transform="translate(1618.904297 0.78125)" xlink:href="#DejaVuSans-2c"/>
     <use transform="translate(1650.691406 0.78125)" xlink:href="#DejaVuSans-20"/>
     <use transform="translate(1682.478516 0.78125)" xlink:href="#DejaVuSans-394"/>
     <use transform="translate(1750.886719 0.78125)" xlink:href="#DejaVuSans-45"/>
     <use transform="translate(1814.070312 0.78125)" xlink:href="#DejaVuSans-3d"/>
     <use transform="translate(1897.859375 0.78125)" xlink:href="#DejaVuSans-30"/>
     <use transform="translate(1961.482422 0.78125)" xlink:href="#DejaVuSans-2e"/>
     <use transform="translate(1993.269531 0.78125)" xlink:href="#DejaVuSans-31"/>
     <use transform="translate(2056.892578 0.78125)" xlink:href="#DejaVuSans-37"/>
     <use transform="translate(2120.515625 0.78125)" xlink:href="#DejaVuSans-65"/>
     <use transform="translate(2182.039062 0.78125)" xlink:href="#DejaVuSans-56"/>
    </g>
   </g>
  </g>
  <g id="axes_2">
   <g id="patch_2">
    <path clip-path="url(#p30ad0cdd18)" d="M 361.152 307.584 
L 361.152 306.5445 
L 361.152 42.5115 
L 361.152 41.472 
L 374.4576 41.472 
L 374.4576 42.5115 
L 374.4576 306.5445 
L 374.4576 307.584 
z
" style="fill:#ffffff;stroke:#ffffff;stroke-linejoin:miter;stroke-width:0.01;"/>
   </g>
   <image height="265.68" id="image59e46992d0" transform="scale(1 -1)translate(0 -265.68)" width="12.96" x="361.44" xlink:href="data:image/png;base64,
iVBORw0KGgoAAAANSUhEUgAAABIAAAFxCAYAAAB+2fgXAAAABHNCSVQICAgIfAhkiAAAAeVJREFUeJztncmNw0AQA2ckheYQNv9QLIfQ8ygsCgQ7AEI8+jAs2Puz/94F1LP2ReCsZ18bAWIeZ5XaGRBE7VnbptG+KI101FYyNSiQG2oRITXKNaX9uclOdi2XWjftVE32CZCO2ou5Bj1TcCBr/1zB9ge7Fq0Rg2NM9pvbtG+ua1QgsRYhDy0ISEiNc40BEibbSI0Coj5CBGtkpFbXJiAjNZlrwhuSOv2M1DjXbEdEciBt1JSDDQKKpmZr2rr2j0DBGpXaWEJq3bQzEPIS26r9J+Wzv9Tm8o3aajRXqc3VUXsApKNWjeZq0x4ABVNbm7lrszVigDqP5vIl2+eaT2yfRkL7g+dRcNPqjohkjaCvRVBq0H2U3LQrOJCx9kdTg4B8oxZzzTdqdYHEngjUCAPyUctN9sVRq2sTECW2UKNLd2jVtRmo1A6AhMmWaSRcR8nUdIHUuVb75zJS218EyEitro1At69pIdeSk30Lkw0FktNImGyZRhy1O5galmxd03LUsHWk06jUZiCq+5Wb1kZNN4+wJxJuWt8RAW5am2sYNZ9rYCBzZ3buPKJ2P5Yj4Toy3keyIyJbIxs1rml1byCA84gpch5RQNB7Q0qNMGq2Hy4BXdNR41yz/cEEJfZzUz96r9PoB0okjeQ8y9TkAAAAAElFTkSuQmCC" y="-41.76"/>
   <g id="matplotlib.axis_1"/>
   <g id="matplotlib.axis_2">
    <g id="ytick_1">
     <g id="line2d_1">
      <defs>
       <path d="M 0 0 
L 3.5 0 
" id="m2f59158183" style="stroke:#000000;stroke-width:0.8;"/>
      </defs>
      <g>
       <use style="stroke:#000000;stroke-width:0.8;" x="374.4576" xlink:href="#m2f59158183" y="292.234188"/>
      </g>
     </g>
     <g id="text_2">
      <!-- −9.0 -->
      <defs>
       <path d="M 10.59375 35.5 
L 73.1875 35.5 
L 73.1875 27.203125 
L 10.59375 27.203125 
z
" id="DejaVuSans-2212"/>
      </defs>
      <g transform="translate(381.4576 296.033407)scale(0.1 -0.1)">
       <use xlink:href="#DejaVuSans-2212"/>
       <use x="83.789062" xlink:href="#DejaVuSans-39"/>
       <use x="147.412109" xlink:href="#DejaVuSans-2e"/>
       <use x="179.199219" xlink:href="#DejaVuSans-30"/>
      </g>
     </g>
    </g>
    <g id="ytick_2">
     <g id="line2d_2">
      <g>
       <use style="stroke:#000000;stroke-width:0.8;" x="374.4576" xlink:href="#m2f59158183" y="261.992327"/>
      </g>
     </g>
     <g id="text_3">
      <!-- −8.5 -->
      <defs>
       <path d="M 31.78125 34.625 
Q 24.75 34.625 20.71875 30.859375 
Q 16.703125 27.09375 16.703125 20.515625 
Q 16.703125 13.921875 20.71875 10.15625 
Q 24.75 6.390625 31.78125 6.390625 
Q 38.8125 6.390625 42.859375 10.171875 
Q 46.921875 13.96875 46.921875 20.515625 
Q 46.921875 27.09375 42.890625 30.859375 
Q 38.875 34.625 31.78125 34.625 
z
M 21.921875 38.8125 
Q 15.578125 40.375 12.03125 44.71875 
Q 8.5 49.078125 8.5 55.328125 
Q 8.5 64.0625 14.71875 69.140625 
Q 20.953125 74.21875 31.78125 74.21875 
Q 42.671875 74.21875 48.875 69.140625 
Q 55.078125 64.0625 55.078125 55.328125 
Q 55.078125 49.078125 51.53125 44.71875 
Q 48 40.375 41.703125 38.8125 
Q 48.828125 37.15625 52.796875 32.3125 
Q 56.78125 27.484375 56.78125 20.515625 
Q 56.78125 9.90625 50.3125 4.234375 
Q 43.84375 -1.421875 31.78125 -1.421875 
Q 19.734375 -1.421875 13.25 4.234375 
Q 6.78125 9.90625 6.78125 20.515625 
Q 6.78125 27.484375 10.78125 32.3125 
Q 14.796875 37.15625 21.921875 38.8125 
z
M 18.3125 54.390625 
Q 18.3125 48.734375 21.84375 45.5625 
Q 25.390625 42.390625 31.78125 42.390625 
Q 38.140625 42.390625 41.71875 45.5625 
Q 45.3125 48.734375 45.3125 54.390625 
Q 45.3125 60.0625 41.71875 63.234375 
Q 38.140625 66.40625 31.78125 66.40625 
Q 25.390625 66.40625 21.84375 63.234375 
Q 18.3125 60.0625 18.3125 54.390625 
z
" id="DejaVuSans-38"/>
      </defs>
      <g transform="translate(381.4576 265.791546)scale(0.1 -0.1)">
       <use xlink:href="#DejaVuSans-2212"/>
       <use x="83.789062" xlink:href="#DejaVuSans-38"/>
       <use x="147.412109" xlink:href="#DejaVuSans-2e"/>
       <use x="179.199219" xlink:href="#DejaVuSans-35"/>
      </g>
     </g>
    </g>
    <g id="ytick_3">
     <g id="line2d_3">
      <g>
       <use style="stroke:#000000;stroke-width:0.8;" x="374.4576" xlink:href="#m2f59158183" y="231.750466"/>
      </g>
     </g>
     <g id="text_4">
      <!-- −8.0 -->
      <g transform="translate(381.4576 235.549685)scale(0.1 -0.1)">
       <use xlink:href="#DejaVuSans-2212"/>
       <use x="83.789062" xlink:href="#DejaVuSans-38"/>
       <use x="147.412109" xlink:href="#DejaVuSans-2e"/>
       <use x="179.199219" xlink:href="#DejaVuSans-30"/>
      </g>
     </g>
    </g>
    <g id="ytick_4">
     <g id="line2d_4">
      <g>
       <use style="stroke:#000000;stroke-width:0.8;" x="374.4576" xlink:href="#m2f59158183" y="201.508606"/>
      </g>
     </g>
     <g id="text_5">
      <!-- −7.5 -->
      <g transform="translate(381.4576 205.307824)scale(0.1 -0.1)">
       <use xlink:href="#DejaVuSans-2212"/>
       <use x="83.789062" xlink:href="#DejaVuSans-37"/>
       <use x="147.412109" xlink:href="#DejaVuSans-2e"/>
       <use x="179.199219" xlink:href="#DejaVuSans-35"/>
      </g>
     </g>
    </g>
    <g id="ytick_5">
     <g id="line2d_5">
      <g>
       <use style="stroke:#000000;stroke-width:0.8;" x="374.4576" xlink:href="#m2f59158183" y="171.266745"/>
      </g>
     </g>
     <g id="text_6">
      <!-- −7.0 -->
      <g transform="translate(381.4576 175.065963)scale(0.1 -0.1)">
       <use xlink:href="#DejaVuSans-2212"/>
       <use x="83.789062" xlink:href="#DejaVuSans-37"/>
       <use x="147.412109" xlink:href="#DejaVuSans-2e"/>
       <use x="179.199219" xlink:href="#DejaVuSans-30"/>
      </g>
     </g>
    </g>
    <g id="ytick_6">
     <g id="line2d_6">
      <g>
       <use style="stroke:#000000;stroke-width:0.8;" x="374.4576" xlink:href="#m2f59158183" y="141.024884"/>
      </g>
     </g>
     <g id="text_7">
      <!-- −6.5 -->
      <defs>
       <path d="M 33.015625 40.375 
Q 26.375 40.375 22.484375 35.828125 
Q 18.609375 31.296875 18.609375 23.390625 
Q 18.609375 15.53125 22.484375 10.953125 
Q 26.375 6.390625 33.015625 6.390625 
Q 39.65625 6.390625 43.53125 10.953125 
Q 47.40625 15.53125 47.40625 23.390625 
Q 47.40625 31.296875 43.53125 35.828125 
Q 39.65625 40.375 33.015625 40.375 
z
M 52.59375 71.296875 
L 52.59375 62.3125 
Q 48.875 64.0625 45.09375 64.984375 
Q 41.3125 65.921875 37.59375 65.921875 
Q 27.828125 65.921875 22.671875 59.328125 
Q 17.53125 52.734375 16.796875 39.40625 
Q 19.671875 43.65625 24.015625 45.921875 
Q 28.375 48.1875 33.59375 48.1875 
Q 44.578125 48.1875 50.953125 41.515625 
Q 57.328125 34.859375 57.328125 23.390625 
Q 57.328125 12.15625 50.6875 5.359375 
Q 44.046875 -1.421875 33.015625 -1.421875 
Q 20.359375 -1.421875 13.671875 8.265625 
Q 6.984375 17.96875 6.984375 36.375 
Q 6.984375 53.65625 15.1875 63.9375 
Q 23.390625 74.21875 37.203125 74.21875 
Q 40.921875 74.21875 44.703125 73.484375 
Q 48.484375 72.75 52.59375 71.296875 
z
" id="DejaVuSans-36"/>
      </defs>
      <g transform="translate(381.4576 144.824103)scale(0.1 -0.1)">
       <use xlink:href="#DejaVuSans-2212"/>
       <use x="83.789062" xlink:href="#DejaVuSans-36"/>
       <use x="147.412109" xlink:href="#DejaVuSans-2e"/>
       <use x="179.199219" xlink:href="#DejaVuSans-35"/>
      </g>
     </g>
    </g>
    <g id="ytick_7">
     <g id="line2d_7">
      <g>
       <use style="stroke:#000000;stroke-width:0.8;" x="374.4576" xlink:href="#m2f59158183" y="110.783023"/>
      </g>
     </g>
     <g id="text_8">
      <!-- −6.0 -->
      <g transform="translate(381.4576 114.582242)scale(0.1 -0.1)">
       <use xlink:href="#DejaVuSans-2212"/>
       <use x="83.789062" xlink:href="#DejaVuSans-36"/>
       <use x="147.412109" xlink:href="#DejaVuSans-2e"/>
       <use x="179.199219" xlink:href="#DejaVuSans-30"/>
      </g>
     </g>
    </g>
    <g id="ytick_8">
     <g id="line2d_8">
      <g>
       <use style="stroke:#000000;stroke-width:0.8;" x="374.4576" xlink:href="#m2f59158183" y="80.541162"/>
      </g>
     </g>
     <g id="text_9">
      <!-- −5.5 -->
      <g transform="translate(381.4576 84.340381)scale(0.1 -0.1)">
       <use xlink:href="#DejaVuSans-2212"/>
       <use x="83.789062" xlink:href="#DejaVuSans-35"/>
       <use x="147.412109" xlink:href="#DejaVuSans-2e"/>
       <use x="179.199219" xlink:href="#DejaVuSans-35"/>
      </g>
     </g>
    </g>
    <g id="ytick_9">
     <g id="line2d_9">
      <g>
       <use style="stroke:#000000;stroke-width:0.8;" x="374.4576" xlink:href="#m2f59158183" y="50.299301"/>
      </g>
     </g>
     <g id="text_10">
      <!-- −5.0 -->
      <g transform="translate(381.4576 54.09852)scale(0.1 -0.1)">
       <use xlink:href="#DejaVuSans-2212"/>
       <use x="83.789062" xlink:href="#DejaVuSans-35"/>
       <use x="147.412109" xlink:href="#DejaVuSans-2e"/>
       <use x="179.199219" xlink:href="#DejaVuSans-30"/>
      </g>
     </g>
    </g>
    <g id="text_11">
     <!-- Energy [eV] -->
     <defs>
      <path d="M 54.890625 33.015625 
L 54.890625 0 
L 45.90625 0 
L 45.90625 32.71875 
Q 45.90625 40.484375 42.875 44.328125 
Q 39.84375 48.1875 33.796875 48.1875 
Q 26.515625 48.1875 22.3125 43.546875 
Q 18.109375 38.921875 18.109375 30.90625 
L 18.109375 0 
L 9.078125 0 
L 9.078125 54.6875 
L 18.109375 54.6875 
L 18.109375 46.1875 
Q 21.34375 51.125 25.703125 53.5625 
Q 30.078125 56 35.796875 56 
Q 45.21875 56 50.046875 50.171875 
Q 54.890625 44.34375 54.890625 33.015625 
z
" id="DejaVuSans-6e"/>
      <path d="M 45.40625 27.984375 
Q 45.40625 37.75 41.375 43.109375 
Q 37.359375 48.484375 30.078125 48.484375 
Q 22.859375 48.484375 18.828125 43.109375 
Q 14.796875 37.75 14.796875 27.984375 
Q 14.796875 18.265625 18.828125 12.890625 
Q 22.859375 7.515625 30.078125 7.515625 
Q 37.359375 7.515625 41.375 12.890625 
Q 45.40625 18.265625 45.40625 27.984375 
z
M 54.390625 6.78125 
Q 54.390625 -7.171875 48.1875 -13.984375 
Q 42 -20.796875 29.203125 -20.796875 
Q 24.46875 -20.796875 20.265625 -20.09375 
Q 16.0625 -19.390625 12.109375 -17.921875 
L 12.109375 -9.1875 
Q 16.0625 -11.328125 19.921875 -12.34375 
Q 23.78125 -13.375 27.78125 -13.375 
Q 36.625 -13.375 41.015625 -8.765625 
Q 45.40625 -4.15625 45.40625 5.171875 
L 45.40625 9.625 
Q 42.625 4.78125 38.28125 2.390625 
Q 33.9375 0 27.875 0 
Q 17.828125 0 11.671875 7.65625 
Q 5.515625 15.328125 5.515625 27.984375 
Q 5.515625 40.671875 11.671875 48.328125 
Q 17.828125 56 27.875 56 
Q 33.9375 56 38.28125 53.609375 
Q 42.625 51.21875 45.40625 46.390625 
L 45.40625 54.6875 
L 54.390625 54.6875 
z
" id="DejaVuSans-67"/>
      <path d="M 32.171875 -5.078125 
Q 28.375 -14.84375 24.75 -17.8125 
Q 21.140625 -20.796875 15.09375 -20.796875 
L 7.90625 -20.796875 
L 7.90625 -13.28125 
L 13.1875 -13.28125 
Q 16.890625 -13.28125 18.9375 -11.515625 
Q 21 -9.765625 23.484375 -3.21875 
L 25.09375 0.875 
L 2.984375 54.6875 
L 12.5 54.6875 
L 29.59375 11.921875 
L 46.6875 54.6875 
L 56.203125 54.6875 
z
" id="DejaVuSans-79"/>
      <path d="M 8.59375 75.984375 
L 29.296875 75.984375 
L 29.296875 69 
L 17.578125 69 
L 17.578125 -6.203125 
L 29.296875 -6.203125 
L 29.296875 -13.1875 
L 8.59375 -13.1875 
z
" id="DejaVuSans-5b"/>
      <path d="M 30.421875 75.984375 
L 30.421875 -13.1875 
L 9.71875 -13.1875 
L 9.71875 -6.203125 
L 21.390625 -6.203125 
L 21.390625 69 
L 9.71875 69 
L 9.71875 75.984375 
z
" id="DejaVuSans-5d"/>
     </defs>
     <g transform="translate(417.33885 204.108469)rotate(-90)scale(0.1 -0.1)">
      <use xlink:href="#DejaVuSans-45"/>
      <use x="63.183594" xlink:href="#DejaVuSans-6e"/>
      <use x="126.5625" xlink:href="#DejaVuSans-65"/>
      <use x="188.085938" xlink:href="#DejaVuSans-72"/>
      <use x="229.183594" xlink:href="#DejaVuSans-67"/>
      <use x="292.660156" xlink:href="#DejaVuSans-79"/>
      <use x="351.839844" xlink:href="#DejaVuSans-20"/>
      <use x="383.626953" xlink:href="#DejaVuSans-5b"/>
      <use x="422.640625" xlink:href="#DejaVuSans-65"/>
      <use x="484.164062" xlink:href="#DejaVuSans-56"/>
      <use x="552.572266" xlink:href="#DejaVuSans-5d"/>
     </g>
    </g>
   </g>
   <g id="patch_3">
    <path d="M 361.152 307.584 
L 361.152 306.5445 
L 361.152 42.5115 
L 361.152 41.472 
L 374.4576 41.472 
L 374.4576 42.5115 
L 374.4576 306.5445 
L 374.4576 307.584 
z
" style="fill:none;stroke:#000000;stroke-linejoin:miter;stroke-width:0.8;"/>
   </g>
  </g>
 </g>
 <defs>
  <clipPath id="p809eb71e13">
   <rect height="266.112" width="285.696" x="57.6" y="41.472"/>
  </clipPath>
  <clipPath id="p30ad0cdd18">
   <rect height="266.112" width="13.3056" x="361.152" y="41.472"/>
  </clipPath>
 </defs>
</svg>
