<?xml version="1.0" encoding="utf-8" standalone="no"?>
<!DOCTYPE svg PUBLIC "-//W3C//DTD SVG 1.1//EN"
  "http://www.w3.org/Graphics/SVG/1.1/DTD/svg11.dtd">
<!-- Created with matplotlib (http://matplotlib.org/) -->
<svg height="345.6pt" version="1.1" viewBox="0 0 460.8 345.6" width="460.8pt" xmlns="http://www.w3.org/2000/svg" xmlns:xlink="http://www.w3.org/1999/xlink">
 <defs>
  <style type="text/css">
*{stroke-linecap:butt;stroke-linejoin:round;}
  </style>
 </defs>
 <g id="figure_1">
  <g id="patch_1">
   <path d="M 0 345.6 
L 460.8 345.6 
L 460.8 0 
L 0 0 
z
" style="fill:#ffffff;"/>
  </g>
  <g id="axes_1">
   <g id="CircleCollection_1">
    <path clip-path="url(#pf1a5a39afb)" d="M 196.872791 301.76096 
C 198.672936 301.76096 200.399594 301.045755 201.672489 299.77286 
C 202.945384 298.499965 203.660589 296.773307 203.660589 294.973162 
C 203.660589 293.173017 202.945384 291.446359 201.672489 290.173464 
C 200.399594 288.900569 198.672936 288.185364 196.872791 288.185364 
C 195.072646 288.185364 193.345988 288.900569 192.073093 290.173464 
C 190.800198 291.446359 190.084993 293.173017 190.084993 294.973162 
C 190.084993 296.773307 190.800198 298.499965 192.073093 299.77286 
C 193.345988 301.045755 195.072646 301.76096 196.872791 301.76096 
z
" style="fill:#2a788e;"/>
    <path clip-path="url(#pf1a5a39afb)" d="M 288.140164 122.075286 
C 289.91066 122.075286 291.60888 121.371861 292.860809 120.119931 
C 294.112739 118.868001 294.816164 117.169782 294.816164 115.399286 
C 294.816164 113.62879 294.112739 111.930571 292.860809 110.678641 
C 291.60888 109.426712 289.91066 108.723286 288.140164 108.723286 
C 286.369669 108.723286 284.671449 109.426712 283.41952 110.678641 
C 282.16759 111.930571 281.464164 113.62879 281.464164 115.399286 
C 281.464164 117.169782 282.16759 118.868001 283.41952 120.119931 
C 284.671449 121.371861 286.369669 122.075286 288.140164 122.075286 
z
" style="fill:#2a788e;"/>
    <path clip-path="url(#pf1a5a39afb)" d="M 157.800705 288.83014 
C 159.593042 288.83014 161.312211 288.118037 162.579585 286.850663 
C 163.846959 285.58329 164.559062 283.864121 164.559062 282.071783 
C 164.559062 280.279446 163.846959 278.560277 162.579585 277.292903 
C 161.312211 276.025529 159.593042 275.313426 157.800705 275.313426 
C 156.008368 275.313426 154.289199 276.025529 153.021825 277.292903 
C 151.754451 278.560277 151.042348 280.279446 151.042348 282.071783 
C 151.042348 283.864121 151.754451 285.58329 153.021825 286.850663 
C 154.289199 288.118037 156.008368 288.83014 157.800705 288.83014 
z
" style="fill:#23a983;"/>
    <path clip-path="url(#pf1a5a39afb)" d="M 201.514291 128.443034 
C 203.285742 128.443034 204.984879 127.739229 206.237484 126.486623 
C 207.49009 125.234017 208.193895 123.534881 208.193895 121.76343 
C 208.193895 119.991978 207.49009 118.292842 206.237484 117.040236 
C 204.984879 115.787631 203.285742 115.083825 201.514291 115.083825 
C 199.742839 115.083825 198.043703 115.787631 196.791097 117.040236 
C 195.538492 118.292842 194.834687 119.991978 194.834687 121.76343 
C 194.834687 123.534881 195.538492 125.234017 196.791097 126.486623 
C 198.043703 127.739229 199.742839 128.443034 201.514291 128.443034 
z
" style="fill:#472d7b;"/>
    <path clip-path="url(#pf1a5a39afb)" d="M 247.352256 137.189752 
C 249.109544 137.189752 250.795095 136.491574 252.037685 135.248983 
C 253.280276 134.006393 253.978454 132.320842 253.978454 130.563554 
C 253.978454 128.806265 253.280276 127.120714 252.037685 125.878124 
C 250.795095 124.635534 249.109544 123.937356 247.352256 123.937356 
C 245.594968 123.937356 243.909417 124.635534 242.666826 125.878124 
C 241.424236 127.120714 240.726058 128.806265 240.726058 130.563554 
C 240.726058 132.320842 241.424236 134.006393 242.666826 135.248983 
C 243.909417 136.491574 245.594968 137.189752 247.352256 137.189752 
z
" style="fill:#453581;"/>
    <path clip-path="url(#pf1a5a39afb)" d="M 327.293554 146.2859 
C 329.077947 146.2859 330.789496 145.576953 332.051252 144.315197 
C 333.313009 143.053441 334.021956 141.341891 334.021956 139.557498 
C 334.021956 137.773105 333.313009 136.061556 332.051252 134.7998 
C 330.789496 133.538043 329.077947 132.829097 327.293554 132.829097 
C 325.509161 132.829097 323.797612 133.538043 322.535855 134.7998 
C 321.274099 136.061556 320.565152 137.773105 320.565152 139.557498 
C 320.565152 141.341891 321.274099 143.053441 322.535855 144.315197 
C 323.797612 145.576953 325.509161 146.2859 327.293554 146.2859 
z
" style="fill:#2b748e;"/>
    <path clip-path="url(#pf1a5a39afb)" d="M 168.380362 60.874802 
C 170.181534 60.874802 171.909177 60.159189 173.182798 58.885568 
C 174.456419 57.611947 175.172032 55.884304 175.172032 54.083132 
C 175.172032 52.28196 174.456419 50.554316 173.182798 49.280695 
C 171.909177 48.007074 170.181534 47.291461 168.380362 47.291461 
C 166.57919 47.291461 164.851547 48.007074 163.577926 49.280695 
C 162.304305 50.554316 161.588691 52.28196 161.588691 54.083132 
C 161.588691 55.884304 162.304305 57.611947 163.577926 58.885568 
C 164.851547 60.159189 166.57919 60.874802 168.380362 60.874802 
z
" style="fill:#d8e219;"/>
    <path clip-path="url(#pf1a5a39afb)" d="M 286.83525 198.484653 
C 288.575687 198.484653 290.245074 197.79317 291.475749 196.562495 
C 292.706424 195.331821 293.397907 193.662433 293.397907 191.921996 
C 293.397907 190.181559 292.706424 188.512171 291.475749 187.281496 
C 290.245074 186.050821 288.575687 185.359338 286.83525 185.359338 
C 285.094812 185.359338 283.425425 186.050821 282.19475 187.281496 
C 280.964075 188.512171 280.272592 190.181559 280.272592 191.921996 
C 280.272592 193.662433 280.964075 195.331821 282.19475 196.562495 
C 283.425425 197.79317 285.094812 198.484653 286.83525 198.484653 
z
" style="fill:#365c8d;"/>
    <path clip-path="url(#pf1a5a39afb)" d="M 139.412309 181.47213 
C 141.189827 181.47213 142.894783 180.765915 144.151678 179.509019 
C 145.408574 178.252124 146.11479 176.547168 146.11479 174.769649 
C 146.11479 172.992131 145.408574 171.287175 144.151678 170.03028 
C 142.894783 168.773384 141.189827 168.067168 139.412309 168.067168 
C 137.63479 168.067168 135.929834 168.773384 134.672939 170.03028 
C 133.416043 171.287175 132.709828 172.992131 132.709828 174.769649 
C 132.709828 176.547168 133.416043 178.252124 134.672939 179.509019 
C 135.929834 180.765915 137.63479 181.47213 139.412309 181.47213 
z
" style="fill:#277e8e;"/>
    <path clip-path="url(#pf1a5a39afb)" d="M 329.882226 107.404122 
C 331.649079 107.404122 333.343804 106.702144 334.593158 105.45279 
C 335.842511 104.203437 336.544489 102.508712 336.544489 100.741859 
C 336.544489 98.975006 335.842511 97.280281 334.593158 96.030927 
C 333.343804 94.781574 331.649079 94.079595 329.882226 94.079595 
C 328.115373 94.079595 326.420648 94.781574 325.171294 96.030927 
C 323.921941 97.280281 323.219963 98.975006 323.219963 100.741859 
C 323.219963 102.508712 323.921941 104.203437 325.171294 105.45279 
C 326.420648 106.702144 328.115373 107.404122 329.882226 107.404122 
z
" style="fill:#37b878;"/>
    <path clip-path="url(#pf1a5a39afb)" d="M 163.624689 249.206564 
C 165.400994 249.206564 167.104784 248.500831 168.360821 247.244794 
C 169.616858 245.988757 170.322591 244.284967 170.322591 242.508662 
C 170.322591 240.732358 169.616858 239.028567 168.360821 237.772531 
C 167.104784 236.516494 165.400994 235.810761 163.624689 235.810761 
C 161.848385 235.810761 160.144594 236.516494 158.888558 237.772531 
C 157.632521 239.028567 156.926788 240.732358 156.926788 242.508662 
C 156.926788 244.284967 157.632521 245.988757 158.888558 247.244794 
C 160.144594 248.500831 161.848385 249.206564 163.624689 249.206564 
z
" style="fill:#481c6e;"/>
    <path clip-path="url(#pf1a5a39afb)" d="M 95.607673 198.758544 
C 97.409621 198.758544 99.138008 198.042622 100.412177 196.768453 
C 101.686347 195.494284 102.402268 193.765897 102.402268 191.963949 
C 102.402268 190.162001 101.686347 188.433614 100.412177 187.159445 
C 99.138008 185.885275 97.409621 185.169354 95.607673 185.169354 
C 93.805726 185.169354 92.077339 185.885275 90.803169 187.159445 
C 89.529 188.433614 88.813078 190.162001 88.813078 191.963949 
C 88.813078 193.765897 89.529 195.494284 90.803169 196.768453 
C 92.077339 198.042622 93.805726 198.758544 95.607673 198.758544 
z
" style="fill:#2a768e;"/>
    <path clip-path="url(#pf1a5a39afb)" d="M 206.879884 233.872935 
C 208.640967 233.872935 210.330157 233.17325 211.575431 231.927976 
C 212.820705 230.682702 213.52039 228.993512 213.52039 227.232429 
C 213.52039 225.471346 212.820705 223.782155 211.575431 222.536882 
C 210.330157 221.291608 208.640967 220.591923 206.879884 220.591923 
C 205.118801 220.591923 203.429611 221.291608 202.184337 222.536882 
C 200.939063 223.782155 200.239378 225.471346 200.239378 227.232429 
C 200.239378 228.993512 200.939063 230.682702 202.184337 231.927976 
C 203.429611 233.17325 205.118801 233.872935 206.879884 233.872935 
z
" style="fill:#404688;"/>
    <path clip-path="url(#pf1a5a39afb)" d="M 238.102722 296.200994 
C 239.895092 296.200994 241.614292 295.488878 242.881689 294.221481 
C 244.149086 292.954084 244.861202 291.234884 244.861202 289.442514 
C 244.861202 287.650144 244.149086 285.930944 242.881689 284.663547 
C 241.614292 283.396151 239.895092 282.684034 238.102722 282.684034 
C 236.310353 282.684034 234.591152 283.396151 233.323756 284.663547 
C 232.056359 285.930944 231.344243 287.650144 231.344243 289.442514 
C 231.344243 291.234884 232.056359 292.954084 233.323756 294.221481 
C 234.591152 295.488878 236.310353 296.200994 238.102722 296.200994 
z
" style="fill:#20a486;"/>
    <path clip-path="url(#pf1a5a39afb)" d="M 245.616015 257.466988 
C 247.388919 257.466988 249.089447 256.762605 250.34308 255.508973 
C 251.596712 254.255341 252.301094 252.554812 252.301094 250.781909 
C 252.301094 249.009005 251.596712 247.308476 250.34308 246.054844 
C 249.089447 244.801212 247.388919 244.096829 245.616015 244.096829 
C 243.843111 244.096829 242.142582 244.801212 240.88895 246.054844 
C 239.635318 247.308476 238.930936 249.009005 238.930936 250.781909 
C 238.930936 252.554812 239.635318 254.255341 240.88895 255.508973 
C 242.142582 256.762605 243.843111 257.466988 245.616015 257.466988 
z
" style="fill:#472a7a;"/>
    <path clip-path="url(#pf1a5a39afb)" d="M 71.025864 169.022415 
C 72.842673 169.022415 74.585315 168.300589 75.869993 167.015911 
C 77.154671 165.731233 77.876496 163.988591 77.876496 162.171782 
C 77.876496 160.354973 77.154671 158.612331 75.869993 157.327653 
C 74.585315 156.042975 72.842673 155.321149 71.025864 155.321149 
C 69.209055 155.321149 67.466413 156.042975 66.181735 157.327653 
C 64.897057 158.612331 64.175231 160.354973 64.175231 162.171782 
C 64.175231 163.988591 64.897057 165.731233 66.181735 167.015911 
C 67.466413 168.300589 69.209055 169.022415 71.025864 169.022415 
z
" style="fill:#fde725;"/>
    <path clip-path="url(#pf1a5a39afb)" d="M 132.845587 219.994549 
C 134.624863 219.994549 136.331504 219.287635 137.589643 218.029497 
C 138.847781 216.771359 139.554695 215.064718 139.554695 213.285441 
C 139.554695 211.506165 138.847781 209.799524 137.589643 208.541386 
C 136.331504 207.283247 134.624863 206.576333 132.845587 206.576333 
C 131.066311 206.576333 129.35967 207.283247 128.101531 208.541386 
C 126.843393 209.799524 126.136479 211.506165 126.136479 213.285441 
C 126.136479 215.064718 126.843393 216.771359 128.101531 218.029497 
C 129.35967 219.287635 131.066311 219.994549 132.845587 219.994549 
z
" style="fill:#34608d;"/>
    <path clip-path="url(#pf1a5a39afb)" d="M 179.093654 165.107322 
C 180.858753 165.107322 182.551796 164.406041 183.79991 163.157927 
C 185.048023 161.909814 185.749305 160.216771 185.749305 158.451672 
C 185.749305 156.686573 185.048023 154.99353 183.79991 153.745416 
C 182.551796 152.497303 180.858753 151.796021 179.093654 151.796021 
C 177.328555 151.796021 175.635512 152.497303 174.387399 153.745416 
C 173.139285 154.99353 172.438004 156.686573 172.438004 158.451672 
C 172.438004 160.216771 173.139285 161.909814 174.387399 163.157927 
C 175.635512 164.406041 177.328555 165.107322 179.093654 165.107322 
z
" style="fill:#453781;"/>
    <path clip-path="url(#pf1a5a39afb)" d="M 314.575493 219.598567 
C 316.405911 219.598567 318.161605 218.871334 319.455905 217.577034 
C 320.750206 216.282734 321.477438 214.527039 321.477438 212.696622 
C 321.477438 210.866205 320.750206 209.110511 319.455905 207.816211 
C 318.161605 206.52191 316.405911 205.794678 314.575493 205.794678 
C 312.745076 205.794678 310.989382 206.52191 309.695082 207.816211 
C 308.400781 209.110511 307.673549 210.866205 307.673549 212.696622 
C 307.673549 214.527039 308.400781 216.282734 309.695082 217.577034 
C 310.989382 218.871334 312.745076 219.598567 314.575493 219.598567 
z
" style="fill:#58c765;"/>
    <path clip-path="url(#pf1a5a39afb)" d="M 286.074898 237.264744 
C 287.846162 237.264744 289.545118 236.561014 290.797591 235.308541 
C 292.050063 234.056068 292.753794 232.357112 292.753794 230.585849 
C 292.753794 228.814585 292.050063 227.115629 290.797591 225.863156 
C 289.545118 224.610683 287.846162 223.906953 286.074898 223.906953 
C 284.303634 223.906953 282.604678 224.610683 281.352206 225.863156 
C 280.099733 227.115629 279.396002 228.814585 279.396002 230.585849 
C 279.396002 232.357112 280.099733 234.056068 281.352206 235.308541 
C 282.604678 236.561014 284.303634 237.264744 286.074898 237.264744 
z
" style="fill:#32648e;"/>
    <path clip-path="url(#pf1a5a39afb)" d="M 210.188409 194.385025 
C 211.937226 194.385025 213.614652 193.690213 214.851252 192.453612 
C 216.087853 191.217012 216.782665 189.539586 216.782665 187.790769 
C 216.782665 186.041952 216.087853 184.364526 214.851252 183.127925 
C 213.614652 181.891325 211.937226 181.196512 210.188409 181.196512 
C 208.439591 181.196512 206.762166 181.891325 205.525565 183.127925 
C 204.288965 184.364526 203.594152 186.041952 203.594152 187.790769 
C 203.594152 189.539586 204.288965 191.217012 205.525565 192.453612 
C 206.762166 193.690213 208.439591 194.385025 210.188409 194.385025 
z
" style="fill:#481c6e;"/>
    <path clip-path="url(#pf1a5a39afb)" d="M 326.045444 185.220059 
C 327.824599 185.220059 329.531125 184.513193 330.789178 183.25514 
C 332.04723 181.997087 332.754096 180.290562 332.754096 178.511406 
C 332.754096 176.732251 332.04723 175.025726 330.789178 173.767673 
C 329.531125 172.50962 327.824599 171.802754 326.045444 171.802754 
C 324.266289 171.802754 322.559763 172.50962 321.301711 173.767673 
C 320.043658 175.025726 319.336792 176.732251 319.336792 178.511406 
C 319.336792 180.290562 320.043658 181.997087 321.301711 183.25514 
C 322.559763 184.513193 324.266289 185.220059 326.045444 185.220059 
z
" style="fill:#31668e;"/>
    <path clip-path="url(#pf1a5a39afb)" d="M 184.14861 94.252048 
C 185.938496 94.252048 187.655313 93.540919 188.920953 92.275279 
C 190.186593 91.009638 190.897722 89.292821 190.897722 87.502936 
C 190.897722 85.71305 190.186593 83.996233 188.920953 82.730593 
C 187.655313 81.464953 185.938496 80.753824 184.14861 80.753824 
C 182.358725 80.753824 180.641908 81.464953 179.376268 82.730593 
C 178.110627 83.996233 177.399498 85.71305 177.399498 87.502936 
C 177.399498 89.292821 178.110627 91.009638 179.376268 92.275279 
C 180.641908 93.540919 182.358725 94.252048 184.14861 94.252048 
z
" style="fill:#277e8e;"/>
    <path clip-path="url(#pf1a5a39afb)" d="M 249.721108 176.55286 
C 251.462148 176.55286 253.132113 175.861137 254.363214 174.630036 
C 255.594315 173.398936 256.286037 171.72897 256.286037 169.987931 
C 256.286037 168.246891 255.594315 166.576926 254.363214 165.345825 
C 253.132113 164.114724 251.462148 163.423002 249.721108 163.423002 
C 247.980069 163.423002 246.310103 164.114724 245.079003 165.345825 
C 243.847902 166.576926 243.156179 168.246891 243.156179 169.987931 
C 243.156179 171.72897 243.847902 173.398936 245.079003 174.630036 
C 246.310103 175.861137 247.980069 176.55286 249.721108 176.55286 
z
" style="fill:#440154;"/>
   </g>
   <g id="text_1">
    <!-- Structure #1668, $E_N$=-179.27eV, ΔE=-0.18eV -->
    <defs>
     <path d="M 53.515625 70.515625 
L 53.515625 60.890625 
Q 47.90625 63.578125 42.921875 64.890625 
Q 37.9375 66.21875 33.296875 66.21875 
Q 25.25 66.21875 20.875 63.09375 
Q 16.5 59.96875 16.5 54.203125 
Q 16.5 49.359375 19.40625 46.890625 
Q 22.3125 44.4375 30.421875 42.921875 
L 36.375 41.703125 
Q 47.40625 39.59375 52.65625 34.296875 
Q 57.90625 29 57.90625 20.125 
Q 57.90625 9.515625 50.796875 4.046875 
Q 43.703125 -1.421875 29.984375 -1.421875 
Q 24.8125 -1.421875 18.96875 -0.25 
Q 13.140625 0.921875 6.890625 3.21875 
L 6.890625 13.375 
Q 12.890625 10.015625 18.65625 8.296875 
Q 24.421875 6.59375 29.984375 6.59375 
Q 38.421875 6.59375 43.015625 9.90625 
Q 47.609375 13.234375 47.609375 19.390625 
Q 47.609375 24.75 44.3125 27.78125 
Q 41.015625 30.8125 33.5 32.328125 
L 27.484375 33.5 
Q 16.453125 35.6875 11.515625 40.375 
Q 6.59375 45.0625 6.59375 53.421875 
Q 6.59375 63.09375 13.40625 68.65625 
Q 20.21875 74.21875 32.171875 74.21875 
Q 37.3125 74.21875 42.625 73.28125 
Q 47.953125 72.359375 53.515625 70.515625 
z
" id="DejaVuSans-53"/>
     <path d="M 18.3125 70.21875 
L 18.3125 54.6875 
L 36.8125 54.6875 
L 36.8125 47.703125 
L 18.3125 47.703125 
L 18.3125 18.015625 
Q 18.3125 11.328125 20.140625 9.421875 
Q 21.96875 7.515625 27.59375 7.515625 
L 36.8125 7.515625 
L 36.8125 0 
L 27.59375 0 
Q 17.1875 0 13.234375 3.875 
Q 9.28125 7.765625 9.28125 18.015625 
L 9.28125 47.703125 
L 2.6875 47.703125 
L 2.6875 54.6875 
L 9.28125 54.6875 
L 9.28125 70.21875 
z
" id="DejaVuSans-74"/>
     <path d="M 41.109375 46.296875 
Q 39.59375 47.171875 37.8125 47.578125 
Q 36.03125 48 33.890625 48 
Q 26.265625 48 22.1875 43.046875 
Q 18.109375 38.09375 18.109375 28.8125 
L 18.109375 0 
L 9.078125 0 
L 9.078125 54.6875 
L 18.109375 54.6875 
L 18.109375 46.1875 
Q 20.953125 51.171875 25.484375 53.578125 
Q 30.03125 56 36.53125 56 
Q 37.453125 56 38.578125 55.875 
Q 39.703125 55.765625 41.0625 55.515625 
z
" id="DejaVuSans-72"/>
     <path d="M 8.5 21.578125 
L 8.5 54.6875 
L 17.484375 54.6875 
L 17.484375 21.921875 
Q 17.484375 14.15625 20.5 10.265625 
Q 23.53125 6.390625 29.59375 6.390625 
Q 36.859375 6.390625 41.078125 11.03125 
Q 45.3125 15.671875 45.3125 23.6875 
L 45.3125 54.6875 
L 54.296875 54.6875 
L 54.296875 0 
L 45.3125 0 
L 45.3125 8.40625 
Q 42.046875 3.421875 37.71875 1 
Q 33.40625 -1.421875 27.6875 -1.421875 
Q 18.265625 -1.421875 13.375 4.4375 
Q 8.5 10.296875 8.5 21.578125 
z
M 31.109375 56 
z
" id="DejaVuSans-75"/>
     <path d="M 48.78125 52.59375 
L 48.78125 44.1875 
Q 44.96875 46.296875 41.140625 47.34375 
Q 37.3125 48.390625 33.40625 48.390625 
Q 24.65625 48.390625 19.8125 42.84375 
Q 14.984375 37.3125 14.984375 27.296875 
Q 14.984375 17.28125 19.8125 11.734375 
Q 24.65625 6.203125 33.40625 6.203125 
Q 37.3125 6.203125 41.140625 7.25 
Q 44.96875 8.296875 48.78125 10.40625 
L 48.78125 2.09375 
Q 45.015625 0.34375 40.984375 -0.53125 
Q 36.96875 -1.421875 32.421875 -1.421875 
Q 20.0625 -1.421875 12.78125 6.34375 
Q 5.515625 14.109375 5.515625 27.296875 
Q 5.515625 40.671875 12.859375 48.328125 
Q 20.21875 56 33.015625 56 
Q 37.15625 56 41.109375 55.140625 
Q 45.0625 54.296875 48.78125 52.59375 
z
" id="DejaVuSans-63"/>
     <path d="M 56.203125 29.59375 
L 56.203125 25.203125 
L 14.890625 25.203125 
Q 15.484375 15.921875 20.484375 11.0625 
Q 25.484375 6.203125 34.421875 6.203125 
Q 39.59375 6.203125 44.453125 7.46875 
Q 49.3125 8.734375 54.109375 11.28125 
L 54.109375 2.78125 
Q 49.265625 0.734375 44.1875 -0.34375 
Q 39.109375 -1.421875 33.890625 -1.421875 
Q 20.796875 -1.421875 13.15625 6.1875 
Q 5.515625 13.8125 5.515625 26.8125 
Q 5.515625 40.234375 12.765625 48.109375 
Q 20.015625 56 32.328125 56 
Q 43.359375 56 49.78125 48.890625 
Q 56.203125 41.796875 56.203125 29.59375 
z
M 47.21875 32.234375 
Q 47.125 39.59375 43.09375 43.984375 
Q 39.0625 48.390625 32.421875 48.390625 
Q 24.90625 48.390625 20.390625 44.140625 
Q 15.875 39.890625 15.1875 32.171875 
z
" id="DejaVuSans-65"/>
     <path id="DejaVuSans-20"/>
     <path d="M 51.125 44 
L 36.921875 44 
L 32.8125 27.6875 
L 47.125 27.6875 
z
M 43.796875 71.78125 
L 38.71875 51.515625 
L 52.984375 51.515625 
L 58.109375 71.78125 
L 65.921875 71.78125 
L 60.890625 51.515625 
L 76.125 51.515625 
L 76.125 44 
L 58.984375 44 
L 54.984375 27.6875 
L 70.515625 27.6875 
L 70.515625 20.21875 
L 53.078125 20.21875 
L 48 0 
L 40.1875 0 
L 45.21875 20.21875 
L 30.90625 20.21875 
L 25.875 0 
L 18.015625 0 
L 23.09375 20.21875 
L 7.71875 20.21875 
L 7.71875 27.6875 
L 24.90625 27.6875 
L 29 44 
L 13.28125 44 
L 13.28125 51.515625 
L 30.90625 51.515625 
L 35.890625 71.78125 
z
" id="DejaVuSans-23"/>
     <path d="M 12.40625 8.296875 
L 28.515625 8.296875 
L 28.515625 63.921875 
L 10.984375 60.40625 
L 10.984375 69.390625 
L 28.421875 72.90625 
L 38.28125 72.90625 
L 38.28125 8.296875 
L 54.390625 8.296875 
L 54.390625 0 
L 12.40625 0 
z
" id="DejaVuSans-31"/>
     <path d="M 33.015625 40.375 
Q 26.375 40.375 22.484375 35.828125 
Q 18.609375 31.296875 18.609375 23.390625 
Q 18.609375 15.53125 22.484375 10.953125 
Q 26.375 6.390625 33.015625 6.390625 
Q 39.65625 6.390625 43.53125 10.953125 
Q 47.40625 15.53125 47.40625 23.390625 
Q 47.40625 31.296875 43.53125 35.828125 
Q 39.65625 40.375 33.015625 40.375 
z
M 52.59375 71.296875 
L 52.59375 62.3125 
Q 48.875 64.0625 45.09375 64.984375 
Q 41.3125 65.921875 37.59375 65.921875 
Q 27.828125 65.921875 22.671875 59.328125 
Q 17.53125 52.734375 16.796875 39.40625 
Q 19.671875 43.65625 24.015625 45.921875 
Q 28.375 48.1875 33.59375 48.1875 
Q 44.578125 48.1875 50.953125 41.515625 
Q 57.328125 34.859375 57.328125 23.390625 
Q 57.328125 12.15625 50.6875 5.359375 
Q 44.046875 -1.421875 33.015625 -1.421875 
Q 20.359375 -1.421875 13.671875 8.265625 
Q 6.984375 17.96875 6.984375 36.375 
Q 6.984375 53.65625 15.1875 63.9375 
Q 23.390625 74.21875 37.203125 74.21875 
Q 40.921875 74.21875 44.703125 73.484375 
Q 48.484375 72.75 52.59375 71.296875 
z
" id="DejaVuSans-36"/>
     <path d="M 31.78125 34.625 
Q 24.75 34.625 20.71875 30.859375 
Q 16.703125 27.09375 16.703125 20.515625 
Q 16.703125 13.921875 20.71875 10.15625 
Q 24.75 6.390625 31.78125 6.390625 
Q 38.8125 6.390625 42.859375 10.171875 
Q 46.921875 13.96875 46.921875 20.515625 
Q 46.921875 27.09375 42.890625 30.859375 
Q 38.875 34.625 31.78125 34.625 
z
M 21.921875 38.8125 
Q 15.578125 40.375 12.03125 44.71875 
Q 8.5 49.078125 8.5 55.328125 
Q 8.5 64.0625 14.71875 69.140625 
Q 20.953125 74.21875 31.78125 74.21875 
Q 42.671875 74.21875 48.875 69.140625 
Q 55.078125 64.0625 55.078125 55.328125 
Q 55.078125 49.078125 51.53125 44.71875 
Q 48 40.375 41.703125 38.8125 
Q 48.828125 37.15625 52.796875 32.3125 
Q 56.78125 27.484375 56.78125 20.515625 
Q 56.78125 9.90625 50.3125 4.234375 
Q 43.84375 -1.421875 31.78125 -1.421875 
Q 19.734375 -1.421875 13.25 4.234375 
Q 6.78125 9.90625 6.78125 20.515625 
Q 6.78125 27.484375 10.78125 32.3125 
Q 14.796875 37.15625 21.921875 38.8125 
z
M 18.3125 54.390625 
Q 18.3125 48.734375 21.84375 45.5625 
Q 25.390625 42.390625 31.78125 42.390625 
Q 38.140625 42.390625 41.71875 45.5625 
Q 45.3125 48.734375 45.3125 54.390625 
Q 45.3125 60.0625 41.71875 63.234375 
Q 38.140625 66.40625 31.78125 66.40625 
Q 25.390625 66.40625 21.84375 63.234375 
Q 18.3125 60.0625 18.3125 54.390625 
z
" id="DejaVuSans-38"/>
     <path d="M 11.71875 12.40625 
L 22.015625 12.40625 
L 22.015625 4 
L 14.015625 -11.625 
L 7.71875 -11.625 
L 11.71875 4 
z
" id="DejaVuSans-2c"/>
     <path d="M 16.890625 72.90625 
L 62.984375 72.90625 
L 61.375 64.59375 
L 25.09375 64.59375 
L 20.90625 43.015625 
L 55.71875 43.015625 
L 54.109375 34.71875 
L 19.28125 34.71875 
L 14.203125 8.296875 
L 51.3125 8.296875 
L 49.703125 0 
L 2.6875 0 
z
" id="DejaVuSans-Oblique-45"/>
     <path d="M 16.890625 72.90625 
L 30.171875 72.90625 
L 50.296875 10.40625 
L 62.5 72.90625 
L 72.125 72.90625 
L 57.90625 0 
L 44.578125 0 
L 24.515625 62.890625 
L 12.3125 0 
L 2.6875 0 
z
" id="DejaVuSans-Oblique-4e"/>
     <path d="M 10.59375 45.40625 
L 73.1875 45.40625 
L 73.1875 37.203125 
L 10.59375 37.203125 
z
M 10.59375 25.484375 
L 73.1875 25.484375 
L 73.1875 17.1875 
L 10.59375 17.1875 
z
" id="DejaVuSans-3d"/>
     <path d="M 4.890625 31.390625 
L 31.203125 31.390625 
L 31.203125 23.390625 
L 4.890625 23.390625 
z
" id="DejaVuSans-2d"/>
     <path d="M 8.203125 72.90625 
L 55.078125 72.90625 
L 55.078125 68.703125 
L 28.609375 0 
L 18.3125 0 
L 43.21875 64.59375 
L 8.203125 64.59375 
z
" id="DejaVuSans-37"/>
     <path d="M 10.984375 1.515625 
L 10.984375 10.5 
Q 14.703125 8.734375 18.5 7.8125 
Q 22.3125 6.890625 25.984375 6.890625 
Q 35.75 6.890625 40.890625 13.453125 
Q 46.046875 20.015625 46.78125 33.40625 
Q 43.953125 29.203125 39.59375 26.953125 
Q 35.25 24.703125 29.984375 24.703125 
Q 19.046875 24.703125 12.671875 31.3125 
Q 6.296875 37.9375 6.296875 49.421875 
Q 6.296875 60.640625 12.9375 67.421875 
Q 19.578125 74.21875 30.609375 74.21875 
Q 43.265625 74.21875 49.921875 64.515625 
Q 56.59375 54.828125 56.59375 36.375 
Q 56.59375 19.140625 48.40625 8.859375 
Q 40.234375 -1.421875 26.421875 -1.421875 
Q 22.703125 -1.421875 18.890625 -0.6875 
Q 15.09375 0.046875 10.984375 1.515625 
z
M 30.609375 32.421875 
Q 37.25 32.421875 41.125 36.953125 
Q 45.015625 41.5 45.015625 49.421875 
Q 45.015625 57.28125 41.125 61.84375 
Q 37.25 66.40625 30.609375 66.40625 
Q 23.96875 66.40625 20.09375 61.84375 
Q 16.21875 57.28125 16.21875 49.421875 
Q 16.21875 41.5 20.09375 36.953125 
Q 23.96875 32.421875 30.609375 32.421875 
z
" id="DejaVuSans-39"/>
     <path d="M 10.6875 12.40625 
L 21 12.40625 
L 21 0 
L 10.6875 0 
z
" id="DejaVuSans-2e"/>
     <path d="M 19.1875 8.296875 
L 53.609375 8.296875 
L 53.609375 0 
L 7.328125 0 
L 7.328125 8.296875 
Q 12.9375 14.109375 22.625 23.890625 
Q 32.328125 33.6875 34.8125 36.53125 
Q 39.546875 41.84375 41.421875 45.53125 
Q 43.3125 49.21875 43.3125 52.78125 
Q 43.3125 58.59375 39.234375 62.25 
Q 35.15625 65.921875 28.609375 65.921875 
Q 23.96875 65.921875 18.8125 64.3125 
Q 13.671875 62.703125 7.8125 59.421875 
L 7.8125 69.390625 
Q 13.765625 71.78125 18.9375 73 
Q 24.125 74.21875 28.421875 74.21875 
Q 39.75 74.21875 46.484375 68.546875 
Q 53.21875 62.890625 53.21875 53.421875 
Q 53.21875 48.921875 51.53125 44.890625 
Q 49.859375 40.875 45.40625 35.40625 
Q 44.1875 33.984375 37.640625 27.21875 
Q 31.109375 20.453125 19.1875 8.296875 
z
" id="DejaVuSans-32"/>
     <path d="M 28.609375 0 
L 0.78125 72.90625 
L 11.078125 72.90625 
L 34.1875 11.53125 
L 57.328125 72.90625 
L 67.578125 72.90625 
L 39.796875 0 
z
" id="DejaVuSans-56"/>
     <path d="M 34.1875 63.1875 
L 14.15625 8.203125 
L 54.25 8.203125 
z
M 0.78125 0 
L 28.609375 72.90625 
L 39.796875 72.90625 
L 67.578125 0 
z
" id="DejaVuSans-394"/>
     <path d="M 9.8125 72.90625 
L 55.90625 72.90625 
L 55.90625 64.59375 
L 19.671875 64.59375 
L 19.671875 43.015625 
L 54.390625 43.015625 
L 54.390625 34.71875 
L 19.671875 34.71875 
L 19.671875 8.296875 
L 56.78125 8.296875 
L 56.78125 0 
L 9.8125 0 
z
" id="DejaVuSans-45"/>
     <path d="M 31.78125 66.40625 
Q 24.171875 66.40625 20.328125 58.90625 
Q 16.5 51.421875 16.5 36.375 
Q 16.5 21.390625 20.328125 13.890625 
Q 24.171875 6.390625 31.78125 6.390625 
Q 39.453125 6.390625 43.28125 13.890625 
Q 47.125 21.390625 47.125 36.375 
Q 47.125 51.421875 43.28125 58.90625 
Q 39.453125 66.40625 31.78125 66.40625 
z
M 31.78125 74.21875 
Q 44.046875 74.21875 50.515625 64.515625 
Q 56.984375 54.828125 56.984375 36.375 
Q 56.984375 17.96875 50.515625 8.265625 
Q 44.046875 -1.421875 31.78125 -1.421875 
Q 19.53125 -1.421875 13.0625 8.265625 
Q 6.59375 17.96875 6.59375 36.375 
Q 6.59375 54.828125 13.0625 64.515625 
Q 19.53125 74.21875 31.78125 74.21875 
z
" id="DejaVuSans-30"/>
    </defs>
    <g transform="translate(63.228 35.472)scale(0.12 -0.12)">
     <use transform="translate(0 0.78125)" xlink:href="#DejaVuSans-53"/>
     <use transform="translate(63.476562 0.78125)" xlink:href="#DejaVuSans-74"/>
     <use transform="translate(102.685547 0.78125)" xlink:href="#DejaVuSans-72"/>
     <use transform="translate(143.798828 0.78125)" xlink:href="#DejaVuSans-75"/>
     <use transform="translate(207.177734 0.78125)" xlink:href="#DejaVuSans-63"/>
     <use transform="translate(262.158203 0.78125)" xlink:href="#DejaVuSans-74"/>
     <use transform="translate(301.367188 0.78125)" xlink:href="#DejaVuSans-75"/>
     <use transform="translate(364.746094 0.78125)" xlink:href="#DejaVuSans-72"/>
     <use transform="translate(405.859375 0.78125)" xlink:href="#DejaVuSans-65"/>
     <use transform="translate(467.382812 0.78125)" xlink:href="#DejaVuSans-20"/>
     <use transform="translate(499.169922 0.78125)" xlink:href="#DejaVuSans-23"/>
     <use transform="translate(582.958984 0.78125)" xlink:href="#DejaVuSans-31"/>
     <use transform="translate(646.582031 0.78125)" xlink:href="#DejaVuSans-36"/>
     <use transform="translate(710.205078 0.78125)" xlink:href="#DejaVuSans-36"/>
     <use transform="translate(773.828125 0.78125)" xlink:href="#DejaVuSans-38"/>
     <use transform="translate(837.451172 0.78125)" xlink:href="#DejaVuSans-2c"/>
     <use transform="translate(869.238281 0.78125)" xlink:href="#DejaVuSans-20"/>
     <use transform="translate(901.025391 0.78125)" xlink:href="#DejaVuSans-Oblique-45"/>
     <use transform="translate(964.208984 -15.625)scale(0.7)" xlink:href="#DejaVuSans-Oblique-4e"/>
     <use transform="translate(1019.306641 0.78125)" xlink:href="#DejaVuSans-3d"/>
     <use transform="translate(1103.095703 0.78125)" xlink:href="#DejaVuSans-2d"/>
     <use transform="translate(1139.179688 0.78125)" xlink:href="#DejaVuSans-31"/>
     <use transform="translate(1202.802734 0.78125)" xlink:href="#DejaVuSans-37"/>
     <use transform="translate(1266.425781 0.78125)" xlink:href="#DejaVuSans-39"/>
     <use transform="translate(1330.048828 0.78125)" xlink:href="#DejaVuSans-2e"/>
     <use transform="translate(1361.757812 0.78125)" xlink:href="#DejaVuSans-32"/>
     <use transform="translate(1425.380859 0.78125)" xlink:href="#DejaVuSans-37"/>
     <use transform="translate(1489.003906 0.78125)" xlink:href="#DejaVuSans-65"/>
     <use transform="translate(1550.527344 0.78125)" xlink:href="#DejaVuSans-56"/>
     <use transform="translate(1618.935547 0.78125)" xlink:href="#DejaVuSans-2c"/>
     <use transform="translate(1650.722656 0.78125)" xlink:href="#DejaVuSans-20"/>
     <use transform="translate(1682.509766 0.78125)" xlink:href="#DejaVuSans-394"/>
     <use transform="translate(1750.917969 0.78125)" xlink:href="#DejaVuSans-45"/>
     <use transform="translate(1814.101562 0.78125)" xlink:href="#DejaVuSans-3d"/>
     <use transform="translate(1897.890625 0.78125)" xlink:href="#DejaVuSans-2d"/>
     <use transform="translate(1933.974609 0.78125)" xlink:href="#DejaVuSans-30"/>
     <use transform="translate(1997.597656 0.78125)" xlink:href="#DejaVuSans-2e"/>
     <use transform="translate(2029.384766 0.78125)" xlink:href="#DejaVuSans-31"/>
     <use transform="translate(2093.007812 0.78125)" xlink:href="#DejaVuSans-38"/>
     <use transform="translate(2156.630859 0.78125)" xlink:href="#DejaVuSans-65"/>
     <use transform="translate(2218.154297 0.78125)" xlink:href="#DejaVuSans-56"/>
    </g>
   </g>
  </g>
  <g id="axes_2">
   <g id="patch_2">
    <path clip-path="url(#p2570a55790)" d="M 361.152 307.584 
L 361.152 306.5445 
L 361.152 42.5115 
L 361.152 41.472 
L 374.4576 41.472 
L 374.4576 42.5115 
L 374.4576 306.5445 
L 374.4576 307.584 
z
" style="fill:#ffffff;stroke:#ffffff;stroke-linejoin:miter;stroke-width:0.01;"/>
   </g>
   <image height="265.68" id="image306d1981f8" transform="scale(1 -1)translate(0 -265.68)" width="12.96" x="361.44" xlink:href="data:image/png;base64,
iVBORw0KGgoAAAANSUhEUgAAABIAAAFxCAYAAAB+2fgXAAAABHNCSVQICAgIfAhkiAAAAeVJREFUeJztncmNw0AQA2ckheYQNv9QLIfQ8ygsCgQ7AEI8+jAs2Puz/94F1LP2ReCsZ18bAWIeZ5XaGRBE7VnbptG+KI101FYyNSiQG2oRITXKNaX9uclOdi2XWjftVE32CZCO2ou5Bj1TcCBr/1zB9ge7Fq0Rg2NM9pvbtG+ua1QgsRYhDy0ISEiNc40BEibbSI0Coj5CBGtkpFbXJiAjNZlrwhuSOv2M1DjXbEdEciBt1JSDDQKKpmZr2rr2j0DBGpXaWEJq3bQzEPIS26r9J+Wzv9Tm8o3aajRXqc3VUXsApKNWjeZq0x4ABVNbm7lrszVigDqP5vIl2+eaT2yfRkL7g+dRcNPqjohkjaCvRVBq0H2U3LQrOJCx9kdTg4B8oxZzzTdqdYHEngjUCAPyUctN9sVRq2sTECW2UKNLd2jVtRmo1A6AhMmWaSRcR8nUdIHUuVb75zJS218EyEitro1At69pIdeSk30Lkw0FktNImGyZRhy1O5galmxd03LUsHWk06jUZiCq+5Wb1kZNN4+wJxJuWt8RAW5am2sYNZ9rYCBzZ3buPKJ2P5Yj4Toy3keyIyJbIxs1rml1byCA84gpch5RQNB7Q0qNMGq2Hy4BXdNR41yz/cEEJfZzUz96r9PoB0okjeQ8y9TkAAAAAElFTkSuQmCC" y="-41.76"/>
   <g id="matplotlib.axis_1"/>
   <g id="matplotlib.axis_2">
    <g id="ytick_1">
     <g id="line2d_1">
      <defs>
       <path d="M 0 0 
L 3.5 0 
" id="m4f9cc5f403" style="stroke:#000000;stroke-width:0.8;"/>
      </defs>
      <g>
       <use style="stroke:#000000;stroke-width:0.8;" x="374.4576" xlink:href="#m4f9cc5f403" y="303.141092"/>
      </g>
     </g>
     <g id="text_2">
      <!-- −9.0 -->
      <defs>
       <path d="M 10.59375 35.5 
L 73.1875 35.5 
L 73.1875 27.203125 
L 10.59375 27.203125 
z
" id="DejaVuSans-2212"/>
      </defs>
      <g transform="translate(381.4576 306.940311)scale(0.1 -0.1)">
       <use xlink:href="#DejaVuSans-2212"/>
       <use x="83.789062" xlink:href="#DejaVuSans-39"/>
       <use x="147.412109" xlink:href="#DejaVuSans-2e"/>
       <use x="179.199219" xlink:href="#DejaVuSans-30"/>
      </g>
     </g>
    </g>
    <g id="ytick_2">
     <g id="line2d_2">
      <g>
       <use style="stroke:#000000;stroke-width:0.8;" x="374.4576" xlink:href="#m4f9cc5f403" y="271.572769"/>
      </g>
     </g>
     <g id="text_3">
      <!-- −8.5 -->
      <defs>
       <path d="M 10.796875 72.90625 
L 49.515625 72.90625 
L 49.515625 64.59375 
L 19.828125 64.59375 
L 19.828125 46.734375 
Q 21.96875 47.46875 24.109375 47.828125 
Q 26.265625 48.1875 28.421875 48.1875 
Q 40.625 48.1875 47.75 41.5 
Q 54.890625 34.8125 54.890625 23.390625 
Q 54.890625 11.625 47.5625 5.09375 
Q 40.234375 -1.421875 26.90625 -1.421875 
Q 22.3125 -1.421875 17.546875 -0.640625 
Q 12.796875 0.140625 7.71875 1.703125 
L 7.71875 11.625 
Q 12.109375 9.234375 16.796875 8.0625 
Q 21.484375 6.890625 26.703125 6.890625 
Q 35.15625 6.890625 40.078125 11.328125 
Q 45.015625 15.765625 45.015625 23.390625 
Q 45.015625 31 40.078125 35.4375 
Q 35.15625 39.890625 26.703125 39.890625 
Q 22.75 39.890625 18.8125 39.015625 
Q 14.890625 38.140625 10.796875 36.28125 
z
" id="DejaVuSans-35"/>
      </defs>
      <g transform="translate(381.4576 275.371988)scale(0.1 -0.1)">
       <use xlink:href="#DejaVuSans-2212"/>
       <use x="83.789062" xlink:href="#DejaVuSans-38"/>
       <use x="147.412109" xlink:href="#DejaVuSans-2e"/>
       <use x="179.199219" xlink:href="#DejaVuSans-35"/>
      </g>
     </g>
    </g>
    <g id="ytick_3">
     <g id="line2d_3">
      <g>
       <use style="stroke:#000000;stroke-width:0.8;" x="374.4576" xlink:href="#m4f9cc5f403" y="240.004446"/>
      </g>
     </g>
     <g id="text_4">
      <!-- −8.0 -->
      <g transform="translate(381.4576 243.803665)scale(0.1 -0.1)">
       <use xlink:href="#DejaVuSans-2212"/>
       <use x="83.789062" xlink:href="#DejaVuSans-38"/>
       <use x="147.412109" xlink:href="#DejaVuSans-2e"/>
       <use x="179.199219" xlink:href="#DejaVuSans-30"/>
      </g>
     </g>
    </g>
    <g id="ytick_4">
     <g id="line2d_4">
      <g>
       <use style="stroke:#000000;stroke-width:0.8;" x="374.4576" xlink:href="#m4f9cc5f403" y="208.436123"/>
      </g>
     </g>
     <g id="text_5">
      <!-- −7.5 -->
      <g transform="translate(381.4576 212.235342)scale(0.1 -0.1)">
       <use xlink:href="#DejaVuSans-2212"/>
       <use x="83.789062" xlink:href="#DejaVuSans-37"/>
       <use x="147.412109" xlink:href="#DejaVuSans-2e"/>
       <use x="179.199219" xlink:href="#DejaVuSans-35"/>
      </g>
     </g>
    </g>
    <g id="ytick_5">
     <g id="line2d_5">
      <g>
       <use style="stroke:#000000;stroke-width:0.8;" x="374.4576" xlink:href="#m4f9cc5f403" y="176.8678"/>
      </g>
     </g>
     <g id="text_6">
      <!-- −7.0 -->
      <g transform="translate(381.4576 180.667019)scale(0.1 -0.1)">
       <use xlink:href="#DejaVuSans-2212"/>
       <use x="83.789062" xlink:href="#DejaVuSans-37"/>
       <use x="147.412109" xlink:href="#DejaVuSans-2e"/>
       <use x="179.199219" xlink:href="#DejaVuSans-30"/>
      </g>
     </g>
    </g>
    <g id="ytick_6">
     <g id="line2d_6">
      <g>
       <use style="stroke:#000000;stroke-width:0.8;" x="374.4576" xlink:href="#m4f9cc5f403" y="145.299477"/>
      </g>
     </g>
     <g id="text_7">
      <!-- −6.5 -->
      <g transform="translate(381.4576 149.098696)scale(0.1 -0.1)">
       <use xlink:href="#DejaVuSans-2212"/>
       <use x="83.789062" xlink:href="#DejaVuSans-36"/>
       <use x="147.412109" xlink:href="#DejaVuSans-2e"/>
       <use x="179.199219" xlink:href="#DejaVuSans-35"/>
      </g>
     </g>
    </g>
    <g id="ytick_7">
     <g id="line2d_7">
      <g>
       <use style="stroke:#000000;stroke-width:0.8;" x="374.4576" xlink:href="#m4f9cc5f403" y="113.731155"/>
      </g>
     </g>
     <g id="text_8">
      <!-- −6.0 -->
      <g transform="translate(381.4576 117.530373)scale(0.1 -0.1)">
       <use xlink:href="#DejaVuSans-2212"/>
       <use x="83.789062" xlink:href="#DejaVuSans-36"/>
       <use x="147.412109" xlink:href="#DejaVuSans-2e"/>
       <use x="179.199219" xlink:href="#DejaVuSans-30"/>
      </g>
     </g>
    </g>
    <g id="ytick_8">
     <g id="line2d_8">
      <g>
       <use style="stroke:#000000;stroke-width:0.8;" x="374.4576" xlink:href="#m4f9cc5f403" y="82.162832"/>
      </g>
     </g>
     <g id="text_9">
      <!-- −5.5 -->
      <g transform="translate(381.4576 85.96205)scale(0.1 -0.1)">
       <use xlink:href="#DejaVuSans-2212"/>
       <use x="83.789062" xlink:href="#DejaVuSans-35"/>
       <use x="147.412109" xlink:href="#DejaVuSans-2e"/>
       <use x="179.199219" xlink:href="#DejaVuSans-35"/>
      </g>
     </g>
    </g>
    <g id="ytick_9">
     <g id="line2d_9">
      <g>
       <use style="stroke:#000000;stroke-width:0.8;" x="374.4576" xlink:href="#m4f9cc5f403" y="50.594509"/>
      </g>
     </g>
     <g id="text_10">
      <!-- −5.0 -->
      <g transform="translate(381.4576 54.393728)scale(0.1 -0.1)">
       <use xlink:href="#DejaVuSans-2212"/>
       <use x="83.789062" xlink:href="#DejaVuSans-35"/>
       <use x="147.412109" xlink:href="#DejaVuSans-2e"/>
       <use x="179.199219" xlink:href="#DejaVuSans-30"/>
      </g>
     </g>
    </g>
    <g id="text_11">
     <!-- Energy [eV] -->
     <defs>
      <path d="M 54.890625 33.015625 
L 54.890625 0 
L 45.90625 0 
L 45.90625 32.71875 
Q 45.90625 40.484375 42.875 44.328125 
Q 39.84375 48.1875 33.796875 48.1875 
Q 26.515625 48.1875 22.3125 43.546875 
Q 18.109375 38.921875 18.109375 30.90625 
L 18.109375 0 
L 9.078125 0 
L 9.078125 54.6875 
L 18.109375 54.6875 
L 18.109375 46.1875 
Q 21.34375 51.125 25.703125 53.5625 
Q 30.078125 56 35.796875 56 
Q 45.21875 56 50.046875 50.171875 
Q 54.890625 44.34375 54.890625 33.015625 
z
" id="DejaVuSans-6e"/>
      <path d="M 45.40625 27.984375 
Q 45.40625 37.75 41.375 43.109375 
Q 37.359375 48.484375 30.078125 48.484375 
Q 22.859375 48.484375 18.828125 43.109375 
Q 14.796875 37.75 14.796875 27.984375 
Q 14.796875 18.265625 18.828125 12.890625 
Q 22.859375 7.515625 30.078125 7.515625 
Q 37.359375 7.515625 41.375 12.890625 
Q 45.40625 18.265625 45.40625 27.984375 
z
M 54.390625 6.78125 
Q 54.390625 -7.171875 48.1875 -13.984375 
Q 42 -20.796875 29.203125 -20.796875 
Q 24.46875 -20.796875 20.265625 -20.09375 
Q 16.0625 -19.390625 12.109375 -17.921875 
L 12.109375 -9.1875 
Q 16.0625 -11.328125 19.921875 -12.34375 
Q 23.78125 -13.375 27.78125 -13.375 
Q 36.625 -13.375 41.015625 -8.765625 
Q 45.40625 -4.15625 45.40625 5.171875 
L 45.40625 9.625 
Q 42.625 4.78125 38.28125 2.390625 
Q 33.9375 0 27.875 0 
Q 17.828125 0 11.671875 7.65625 
Q 5.515625 15.328125 5.515625 27.984375 
Q 5.515625 40.671875 11.671875 48.328125 
Q 17.828125 56 27.875 56 
Q 33.9375 56 38.28125 53.609375 
Q 42.625 51.21875 45.40625 46.390625 
L 45.40625 54.6875 
L 54.390625 54.6875 
z
" id="DejaVuSans-67"/>
      <path d="M 32.171875 -5.078125 
Q 28.375 -14.84375 24.75 -17.8125 
Q 21.140625 -20.796875 15.09375 -20.796875 
L 7.90625 -20.796875 
L 7.90625 -13.28125 
L 13.1875 -13.28125 
Q 16.890625 -13.28125 18.9375 -11.515625 
Q 21 -9.765625 23.484375 -3.21875 
L 25.09375 0.875 
L 2.984375 54.6875 
L 12.5 54.6875 
L 29.59375 11.921875 
L 46.6875 54.6875 
L 56.203125 54.6875 
z
" id="DejaVuSans-79"/>
      <path d="M 8.59375 75.984375 
L 29.296875 75.984375 
L 29.296875 69 
L 17.578125 69 
L 17.578125 -6.203125 
L 29.296875 -6.203125 
L 29.296875 -13.1875 
L 8.59375 -13.1875 
z
" id="DejaVuSans-5b"/>
      <path d="M 30.421875 75.984375 
L 30.421875 -13.1875 
L 9.71875 -13.1875 
L 9.71875 -6.203125 
L 21.390625 -6.203125 
L 21.390625 69 
L 9.71875 69 
L 9.71875 75.984375 
z
" id="DejaVuSans-5d"/>
     </defs>
     <g transform="translate(417.33885 204.108469)rotate(-90)scale(0.1 -0.1)">
      <use xlink:href="#DejaVuSans-45"/>
      <use x="63.183594" xlink:href="#DejaVuSans-6e"/>
      <use x="126.5625" xlink:href="#DejaVuSans-65"/>
      <use x="188.085938" xlink:href="#DejaVuSans-72"/>
      <use x="229.183594" xlink:href="#DejaVuSans-67"/>
      <use x="292.660156" xlink:href="#DejaVuSans-79"/>
      <use x="351.839844" xlink:href="#DejaVuSans-20"/>
      <use x="383.626953" xlink:href="#DejaVuSans-5b"/>
      <use x="422.640625" xlink:href="#DejaVuSans-65"/>
      <use x="484.164062" xlink:href="#DejaVuSans-56"/>
      <use x="552.572266" xlink:href="#DejaVuSans-5d"/>
     </g>
    </g>
   </g>
   <g id="patch_3">
    <path d="M 361.152 307.584 
L 361.152 306.5445 
L 361.152 42.5115 
L 361.152 41.472 
L 374.4576 41.472 
L 374.4576 42.5115 
L 374.4576 306.5445 
L 374.4576 307.584 
z
" style="fill:none;stroke:#000000;stroke-linejoin:miter;stroke-width:0.8;"/>
   </g>
  </g>
 </g>
 <defs>
  <clipPath id="pf1a5a39afb">
   <rect height="266.112" width="285.696" x="57.6" y="41.472"/>
  </clipPath>
  <clipPath id="p2570a55790">
   <rect height="266.112" width="13.3056" x="361.152" y="41.472"/>
  </clipPath>
 </defs>
</svg>
