<?xml version="1.0" encoding="utf-8" standalone="no"?>
<!DOCTYPE svg PUBLIC "-//W3C//DTD SVG 1.1//EN"
  "http://www.w3.org/Graphics/SVG/1.1/DTD/svg11.dtd">
<!-- Created with matplotlib (http://matplotlib.org/) -->
<svg height="345.6pt" version="1.1" viewBox="0 0 460.8 345.6" width="460.8pt" xmlns="http://www.w3.org/2000/svg" xmlns:xlink="http://www.w3.org/1999/xlink">
 <defs>
  <style type="text/css">
*{stroke-linecap:butt;stroke-linejoin:round;}
  </style>
 </defs>
 <g id="figure_1">
  <g id="patch_1">
   <path d="M 0 345.6 
L 460.8 345.6 
L 460.8 0 
L 0 0 
z
" style="fill:#ffffff;"/>
  </g>
  <g id="axes_1">
   <g id="CircleCollection_1">
    <path clip-path="url(#p5acb3f2a71)" d="M 132.097132 203.788875 
C 133.850946 203.788875 135.533165 203.092078 136.773299 201.851944 
C 138.013433 200.61181 138.71023 198.929591 138.71023 197.175777 
C 138.71023 195.421963 138.013433 193.739745 136.773299 192.499611 
C 135.533165 191.259477 133.850946 190.562679 132.097132 190.562679 
C 130.343318 190.562679 128.6611 191.259477 127.420966 192.499611 
C 126.180832 193.739745 125.484034 195.421963 125.484034 197.175777 
C 125.484034 198.929591 126.180832 200.61181 127.420966 201.851944 
C 128.6611 203.092078 130.343318 203.788875 132.097132 203.788875 
z
" style="fill:#2b758e;"/>
    <path clip-path="url(#p5acb3f2a71)" d="M 289.080354 301.853848 
C 290.861399 301.853848 292.569736 301.146231 293.829125 299.886842 
C 295.088514 298.627454 295.796131 296.919116 295.796131 295.138071 
C 295.796131 293.357026 295.088514 291.648689 293.829125 290.3893 
C 292.569736 289.129911 290.861399 288.422294 289.080354 288.422294 
C 287.299309 288.422294 285.590971 289.129911 284.331582 290.3893 
C 283.072194 291.648689 282.364577 293.357026 282.364577 295.138071 
C 282.364577 296.919116 283.072194 298.627454 284.331582 299.886842 
C 285.590971 301.146231 287.299309 301.853848 289.080354 301.853848 
z
" style="fill:#27808e;"/>
    <path clip-path="url(#p5acb3f2a71)" d="M 237.177429 224.593849 
C 238.96052 224.593849 240.67082 223.885419 241.931656 222.624583 
C 243.192492 221.363748 243.900921 219.653448 243.900921 217.870357 
C 243.900921 216.087266 243.192492 214.376965 241.931656 213.11613 
C 240.67082 211.855294 238.96052 211.146864 237.177429 211.146864 
C 235.394338 211.146864 233.684038 211.855294 232.423202 213.11613 
C 231.162366 214.376965 230.453937 216.087266 230.453937 217.870357 
C 230.453937 219.653448 231.162366 221.363748 232.423202 222.624583 
C 233.684038 223.885419 235.394338 224.593849 237.177429 224.593849 
z
" style="fill:#355f8d;"/>
    <path clip-path="url(#p5acb3f2a71)" d="M 238.637483 153.983326 
C 240.392068 153.983326 242.075025 153.286222 243.315704 152.045544 
C 244.556383 150.804865 245.253486 149.121908 245.253486 147.367323 
C 245.253486 145.612738 244.556383 143.929781 243.315704 142.689102 
C 242.075025 141.448424 240.392068 140.75132 238.637483 140.75132 
C 236.882899 140.75132 235.199941 141.448424 233.959263 142.689102 
C 232.718584 143.929781 232.02148 145.612738 232.02148 147.367323 
C 232.02148 149.121908 232.718584 150.804865 233.959263 152.045544 
C 235.199941 153.286222 236.882899 153.983326 238.637483 153.983326 
z
" style="fill:#27808e;"/>
    <path clip-path="url(#p5acb3f2a71)" d="M 197.285815 238.760449 
C 199.062059 238.760449 200.765792 238.05474 202.021786 236.798746 
C 203.27778 235.542752 203.98349 233.839019 203.98349 232.062775 
C 203.98349 230.286531 203.27778 228.582798 202.021786 227.326803 
C 200.765792 226.070809 199.062059 225.3651 197.285815 225.3651 
C 195.509571 225.3651 193.805838 226.070809 192.549844 227.326803 
C 191.293849 228.582798 190.58814 230.286531 190.58814 232.062775 
C 190.58814 233.839019 191.293849 235.542752 192.549844 236.798746 
C 193.805838 238.05474 195.509571 238.760449 197.285815 238.760449 
z
" style="fill:#297a8e;"/>
    <path clip-path="url(#p5acb3f2a71)" d="M 321.178066 287.016142 
C 322.96493 287.016142 324.678849 286.306214 325.942353 285.04271 
C 327.205857 283.779206 327.915785 282.065287 327.915785 280.278423 
C 327.915785 278.491559 327.205857 276.777639 325.942353 275.514136 
C 324.678849 274.250632 322.96493 273.540703 321.178066 273.540703 
C 319.391202 273.540703 317.677282 274.250632 316.413779 275.514136 
C 315.150275 276.777639 314.440346 278.491559 314.440346 280.278423 
C 314.440346 282.065287 315.150275 283.779206 316.413779 285.04271 
C 317.677282 286.306214 319.391202 287.016142 321.178066 287.016142 
z
" style="fill:#27808e;"/>
    <path clip-path="url(#p5acb3f2a71)" d="M 182.161571 264.820684 
C 183.932161 264.820684 185.630471 264.117221 186.882467 262.865225 
C 188.134463 261.613229 188.837926 259.91492 188.837926 258.14433 
C 188.837926 256.37374 188.134463 254.675431 186.882467 253.423435 
C 185.630471 252.171439 183.932161 251.467976 182.161571 251.467976 
C 180.390982 251.467976 178.692672 252.171439 177.440676 253.423435 
C 176.18868 254.675431 175.485217 256.37374 175.485217 258.14433 
C 175.485217 259.91492 176.18868 261.613229 177.440676 262.865225 
C 178.692672 264.117221 180.390982 264.820684 182.161571 264.820684 
z
" style="fill:#440154;"/>
    <path clip-path="url(#p5acb3f2a71)" d="M 102.596425 256.947662 
C 104.341918 256.947662 106.016155 256.254171 107.250405 255.019921 
C 108.484655 253.785671 109.178147 252.111434 109.178147 250.365941 
C 109.178147 248.620448 108.484655 246.946211 107.250405 245.711962 
C 106.016155 244.477712 104.341918 243.78422 102.596425 243.78422 
C 100.850933 243.78422 99.176696 244.477712 97.942446 245.711962 
C 96.708196 246.946211 96.014704 248.620448 96.014704 250.365941 
C 96.014704 252.111434 96.708196 253.785671 97.942446 255.019921 
C 99.176696 256.254171 100.850933 256.947662 102.596425 256.947662 
z
" style="fill:#2a788e;"/>
    <path clip-path="url(#p5acb3f2a71)" d="M 174.1612 211.170444 
C 175.92804 211.170444 177.622752 210.468471 178.872096 209.219127 
C 180.121441 207.969782 180.823414 206.27507 180.823414 204.50823 
C 180.823414 202.74139 180.121441 201.046678 178.872096 199.797333 
C 177.622752 198.547989 175.92804 197.846016 174.1612 197.846016 
C 172.39436 197.846016 170.699647 198.547989 169.450303 199.797333 
C 168.200959 201.046678 167.498986 202.74139 167.498986 204.50823 
C 167.498986 206.27507 168.200959 207.969782 169.450303 209.219127 
C 170.699647 210.468471 172.39436 211.170444 174.1612 211.170444 
z
" style="fill:#365d8d;"/>
    <path clip-path="url(#p5acb3f2a71)" d="M 245.750449 298.797732 
C 247.525997 298.797732 249.229062 298.0923 250.484563 296.836798 
C 251.740065 295.581296 252.445497 293.878232 252.445497 292.102684 
C 252.445497 290.327137 251.740065 288.624072 250.484563 287.36857 
C 249.229062 286.113068 247.525997 285.407636 245.750449 285.407636 
C 243.974902 285.407636 242.271837 286.113068 241.016335 287.36857 
C 239.760834 288.624072 239.055401 290.327137 239.055401 292.102684 
C 239.055401 293.878232 239.760834 295.581296 241.016335 296.836798 
C 242.271837 298.0923 243.974902 298.797732 245.750449 298.797732 
z
" style="fill:#2f6b8e;"/>
    <path clip-path="url(#p5acb3f2a71)" d="M 98.876737 218.504315 
C 100.619778 218.504315 102.291663 217.811798 103.524178 216.579282 
C 104.756694 215.346767 105.449211 213.674882 105.449211 211.931841 
C 105.449211 210.188801 104.756694 208.516916 103.524178 207.284401 
C 102.291663 206.051885 100.619778 205.359368 98.876737 205.359368 
C 97.133697 205.359368 95.461812 206.051885 94.229297 207.284401 
C 92.996781 208.516916 92.304264 210.188801 92.304264 211.931841 
C 92.304264 213.674882 92.996781 215.346767 94.229297 216.579282 
C 95.461812 217.811798 97.133697 218.504315 98.876737 218.504315 
z
" style="fill:#26828e;"/>
    <path clip-path="url(#p5acb3f2a71)" d="M 202.425097 60.128787 
C 204.078867 60.128787 205.665126 59.471737 206.834519 58.302345 
C 208.003911 57.132952 208.660961 55.546693 208.660961 53.892923 
C 208.660961 52.239152 208.003911 50.652893 206.834519 49.483501 
C 205.665126 48.314108 204.078867 47.657058 202.425097 47.657058 
C 200.771326 47.657058 199.185067 48.314108 198.015675 49.483501 
C 196.846282 50.652893 196.189232 52.239152 196.189232 53.892923 
C 196.189232 55.546693 196.846282 57.132952 198.015675 58.302345 
C 199.185067 59.471737 200.771326 60.128787 202.425097 60.128787 
z
" style="fill:#fde725;"/>
    <path clip-path="url(#p5acb3f2a71)" d="M 289.159133 192.085717 
C 290.944602 192.085717 292.657182 191.376343 293.919699 190.113826 
C 295.182215 188.85131 295.891589 187.138729 295.891589 185.353261 
C 295.891589 183.567793 295.182215 181.855213 293.919699 180.592696 
C 292.657182 179.330179 290.944602 178.620805 289.159133 178.620805 
C 287.373665 178.620805 285.661085 179.330179 284.398568 180.592696 
C 283.136052 181.855213 282.426678 183.567793 282.426678 185.353261 
C 282.426678 187.138729 283.136052 188.85131 284.398568 190.113826 
C 285.661085 191.376343 287.373665 192.085717 289.159133 192.085717 
z
" style="fill:#90d743;"/>
    <path clip-path="url(#p5acb3f2a71)" d="M 329.872368 261.467676 
C 331.664398 261.467676 333.383273 260.755694 334.65043 259.488537 
C 335.917587 258.22138 336.629568 256.502506 336.629568 254.710475 
C 336.629568 252.918445 335.917587 251.19957 334.65043 249.932413 
C 333.383273 248.665256 331.664398 247.953275 329.872368 247.953275 
C 328.080337 247.953275 326.361462 248.665256 325.094306 249.932413 
C 323.827149 251.19957 323.115167 252.918445 323.115167 254.710475 
C 323.115167 256.502506 323.827149 258.22138 325.094306 259.488537 
C 326.361462 260.755694 328.080337 261.467676 329.872368 261.467676 
z
" style="fill:#2e6e8e;"/>
    <path clip-path="url(#p5acb3f2a71)" d="M 247.5093 179.268837 
C 249.28136 179.268837 250.981079 178.56479 252.234114 177.311755 
C 253.48715 176.058719 254.191196 174.359 254.191196 172.58694 
C 254.191196 170.814881 253.48715 169.115162 252.234114 167.862126 
C 250.981079 166.609091 249.28136 165.905044 247.5093 165.905044 
C 245.737241 165.905044 244.037521 166.609091 242.784486 167.862126 
C 241.531451 169.115162 240.827404 170.814881 240.827404 172.58694 
C 240.827404 174.359 241.531451 176.058719 242.784486 177.311755 
C 244.037521 178.56479 245.737241 179.268837 247.5093 179.268837 
z
" style="fill:#482071;"/>
    <path clip-path="url(#p5acb3f2a71)" d="M 71.010024 238.474373 
C 72.74631 238.474373 74.411716 237.784539 75.639455 236.5568 
C 76.867195 235.329061 77.557028 233.663655 77.557028 231.927369 
C 77.557028 230.191083 76.867195 228.525678 75.639455 227.297938 
C 74.411716 226.070199 72.74631 225.380365 71.010024 225.380365 
C 69.273739 225.380365 67.608333 226.070199 66.380594 227.297938 
C 65.152854 228.525678 64.463021 230.191083 64.463021 231.927369 
C 64.463021 233.663655 65.152854 235.329061 66.380594 236.5568 
C 67.608333 237.784539 69.273739 238.474373 71.010024 238.474373 
z
" style="fill:#1f988b;"/>
    <path clip-path="url(#p5acb3f2a71)" d="M 229.477977 130.672869 
C 231.212281 130.672869 232.875786 129.983822 234.102124 128.757484 
C 235.328462 127.531146 236.017508 125.867642 236.017508 124.133338 
C 236.017508 122.399034 235.328462 120.735529 234.102124 119.509191 
C 232.875786 118.282853 231.212281 117.593807 229.477977 117.593807 
C 227.743674 117.593807 226.080169 118.282853 224.853831 119.509191 
C 223.627493 120.735529 222.938446 122.399034 222.938446 124.133338 
C 222.938446 125.867642 223.627493 127.531146 224.853831 128.757484 
C 226.080169 129.983822 227.743674 130.672869 229.477977 130.672869 
z
" style="fill:#355e8d;"/>
    <path clip-path="url(#p5acb3f2a71)" d="M 212.581319 285.120653 
C 214.354889 285.120653 216.056057 284.416007 217.31016 283.161903 
C 218.564263 281.9078 219.26891 280.206632 219.26891 278.433062 
C 219.26891 276.659492 218.564263 274.958324 217.31016 273.704221 
C 216.056057 272.450118 214.354889 271.745471 212.581319 271.745471 
C 210.807749 271.745471 209.106581 272.450118 207.852478 273.704221 
C 206.598374 274.958324 205.893728 276.659492 205.893728 278.433062 
C 205.893728 280.206632 206.598374 281.9078 207.852478 283.161903 
C 209.106581 284.416007 210.807749 285.120653 212.581319 285.120653 
z
" style="fill:#23898e;"/>
    <path clip-path="url(#p5acb3f2a71)" d="M 283.359821 219.497161 
C 285.148366 219.497161 286.863897 218.786565 288.128589 217.521873 
C 289.393281 216.257181 290.103877 214.541649 290.103877 212.753105 
C 290.103877 210.96456 289.393281 209.249029 288.128589 207.984337 
C 286.863897 206.719645 285.148366 206.009049 283.359821 206.009049 
C 281.571276 206.009049 279.855745 206.719645 278.591053 207.984337 
C 277.326361 209.249029 276.615765 210.96456 276.615765 212.753105 
C 276.615765 214.541649 277.326361 216.257181 278.591053 217.521873 
C 279.855745 218.786565 281.571276 219.497161 283.359821 219.497161 
z
" style="fill:#482071;"/>
    <path clip-path="url(#p5acb3f2a71)" d="M 220.952621 106.938911 
C 222.663334 106.938911 224.304211 106.259238 225.513867 105.049581 
C 226.723524 103.839925 227.403197 102.199048 227.403197 100.488335 
C 227.403197 98.777622 226.723524 97.136746 225.513867 95.927089 
C 224.304211 94.717433 222.663334 94.037759 220.952621 94.037759 
C 219.241908 94.037759 217.601032 94.717433 216.391375 95.927089 
C 215.181719 97.136746 214.502045 98.777622 214.502045 100.488335 
C 214.502045 102.199048 215.181719 103.839925 216.391375 105.049581 
C 217.601032 106.259238 219.241908 106.938911 220.952621 106.938911 
z
" style="fill:#306a8e;"/>
    <path clip-path="url(#p5acb3f2a71)" d="M 137.424342 269.264501 
C 139.182251 269.264501 140.868397 268.566076 142.111427 267.323047 
C 143.354456 266.080017 144.052881 264.393871 144.052881 262.635962 
C 144.052881 260.878052 143.354456 259.191906 142.111427 257.948877 
C 140.868397 256.705847 139.182251 256.007422 137.424342 256.007422 
C 135.666433 256.007422 133.980286 256.705847 132.737257 257.948877 
C 131.494227 259.191906 130.795803 260.878052 130.795803 262.635962 
C 130.795803 264.393871 131.494227 266.080017 132.737257 267.323047 
C 133.980286 268.566076 135.666433 269.264501 137.424342 269.264501 
z
" style="fill:#20928c;"/>
    <path clip-path="url(#p5acb3f2a71)" d="M 314.592934 239.073602 
C 316.386063 239.073602 318.105993 238.361184 319.373927 237.09325 
C 320.641861 235.825316 321.354279 234.105387 321.354279 232.312257 
C 321.354279 230.519127 320.641861 228.799198 319.373927 227.531263 
C 318.105993 226.263329 316.386063 225.550911 314.592934 225.550911 
C 312.799804 225.550911 311.079875 226.263329 309.81194 227.531263 
C 308.544006 228.799198 307.831588 230.519127 307.831588 232.312257 
C 307.831588 234.105387 308.544006 235.825316 309.81194 237.09325 
C 311.079875 238.361184 312.799804 239.073602 314.592934 239.073602 
z
" style="fill:#24878e;"/>
    <path clip-path="url(#p5acb3f2a71)" d="M 211.925733 83.472993 
C 213.610157 83.472993 215.225818 82.803764 216.416885 81.612697 
C 217.607953 80.421629 218.277182 78.805968 218.277182 77.121544 
C 218.277182 75.43712 217.607953 73.821459 216.416885 72.630392 
C 215.225818 71.439324 213.610157 70.770096 211.925733 70.770096 
C 210.241309 70.770096 208.625648 71.439324 207.43458 72.630392 
C 206.243513 73.821459 205.574284 75.43712 205.574284 77.121544 
C 205.574284 78.805968 206.243513 80.421629 207.43458 81.612697 
C 208.625648 82.803764 210.241309 83.472993 211.925733 83.472993 
z
" style="fill:#306a8e;"/>
    <path clip-path="url(#p5acb3f2a71)" d="M 215.861594 200.01917 
C 217.635139 200.01917 219.336284 199.314533 220.59037 198.060446 
C 221.844456 196.80636 222.549093 195.105216 222.549093 193.33167 
C 222.549093 191.558124 221.844456 189.85698 220.59037 188.602894 
C 219.336284 187.348808 217.635139 186.644171 215.861594 186.644171 
C 214.088048 186.644171 212.386904 187.348808 211.132818 188.602894 
C 209.878731 189.85698 209.174094 191.558124 209.174094 193.33167 
C 209.174094 195.105216 209.878731 196.80636 211.132818 198.060446 
C 212.386904 199.314533 214.088048 200.01917 215.861594 200.01917 
z
" style="fill:#3a548c;"/>
   </g>
   <g id="text_1">
    <!-- Structure #8597, $E_N$=-179.73eV, ΔE=0.42eV -->
    <defs>
     <path d="M 53.515625 70.515625 
L 53.515625 60.890625 
Q 47.90625 63.578125 42.921875 64.890625 
Q 37.9375 66.21875 33.296875 66.21875 
Q 25.25 66.21875 20.875 63.09375 
Q 16.5 59.96875 16.5 54.203125 
Q 16.5 49.359375 19.40625 46.890625 
Q 22.3125 44.4375 30.421875 42.921875 
L 36.375 41.703125 
Q 47.40625 39.59375 52.65625 34.296875 
Q 57.90625 29 57.90625 20.125 
Q 57.90625 9.515625 50.796875 4.046875 
Q 43.703125 -1.421875 29.984375 -1.421875 
Q 24.8125 -1.421875 18.96875 -0.25 
Q 13.140625 0.921875 6.890625 3.21875 
L 6.890625 13.375 
Q 12.890625 10.015625 18.65625 8.296875 
Q 24.421875 6.59375 29.984375 6.59375 
Q 38.421875 6.59375 43.015625 9.90625 
Q 47.609375 13.234375 47.609375 19.390625 
Q 47.609375 24.75 44.3125 27.78125 
Q 41.015625 30.8125 33.5 32.328125 
L 27.484375 33.5 
Q 16.453125 35.6875 11.515625 40.375 
Q 6.59375 45.0625 6.59375 53.421875 
Q 6.59375 63.09375 13.40625 68.65625 
Q 20.21875 74.21875 32.171875 74.21875 
Q 37.3125 74.21875 42.625 73.28125 
Q 47.953125 72.359375 53.515625 70.515625 
z
" id="DejaVuSans-53"/>
     <path d="M 18.3125 70.21875 
L 18.3125 54.6875 
L 36.8125 54.6875 
L 36.8125 47.703125 
L 18.3125 47.703125 
L 18.3125 18.015625 
Q 18.3125 11.328125 20.140625 9.421875 
Q 21.96875 7.515625 27.59375 7.515625 
L 36.8125 7.515625 
L 36.8125 0 
L 27.59375 0 
Q 17.1875 0 13.234375 3.875 
Q 9.28125 7.765625 9.28125 18.015625 
L 9.28125 47.703125 
L 2.6875 47.703125 
L 2.6875 54.6875 
L 9.28125 54.6875 
L 9.28125 70.21875 
z
" id="DejaVuSans-74"/>
     <path d="M 41.109375 46.296875 
Q 39.59375 47.171875 37.8125 47.578125 
Q 36.03125 48 33.890625 48 
Q 26.265625 48 22.1875 43.046875 
Q 18.109375 38.09375 18.109375 28.8125 
L 18.109375 0 
L 9.078125 0 
L 9.078125 54.6875 
L 18.109375 54.6875 
L 18.109375 46.1875 
Q 20.953125 51.171875 25.484375 53.578125 
Q 30.03125 56 36.53125 56 
Q 37.453125 56 38.578125 55.875 
Q 39.703125 55.765625 41.0625 55.515625 
z
" id="DejaVuSans-72"/>
     <path d="M 8.5 21.578125 
L 8.5 54.6875 
L 17.484375 54.6875 
L 17.484375 21.921875 
Q 17.484375 14.15625 20.5 10.265625 
Q 23.53125 6.390625 29.59375 6.390625 
Q 36.859375 6.390625 41.078125 11.03125 
Q 45.3125 15.671875 45.3125 23.6875 
L 45.3125 54.6875 
L 54.296875 54.6875 
L 54.296875 0 
L 45.3125 0 
L 45.3125 8.40625 
Q 42.046875 3.421875 37.71875 1 
Q 33.40625 -1.421875 27.6875 -1.421875 
Q 18.265625 -1.421875 13.375 4.4375 
Q 8.5 10.296875 8.5 21.578125 
z
M 31.109375 56 
z
" id="DejaVuSans-75"/>
     <path d="M 48.78125 52.59375 
L 48.78125 44.1875 
Q 44.96875 46.296875 41.140625 47.34375 
Q 37.3125 48.390625 33.40625 48.390625 
Q 24.65625 48.390625 19.8125 42.84375 
Q 14.984375 37.3125 14.984375 27.296875 
Q 14.984375 17.28125 19.8125 11.734375 
Q 24.65625 6.203125 33.40625 6.203125 
Q 37.3125 6.203125 41.140625 7.25 
Q 44.96875 8.296875 48.78125 10.40625 
L 48.78125 2.09375 
Q 45.015625 0.34375 40.984375 -0.53125 
Q 36.96875 -1.421875 32.421875 -1.421875 
Q 20.0625 -1.421875 12.78125 6.34375 
Q 5.515625 14.109375 5.515625 27.296875 
Q 5.515625 40.671875 12.859375 48.328125 
Q 20.21875 56 33.015625 56 
Q 37.15625 56 41.109375 55.140625 
Q 45.0625 54.296875 48.78125 52.59375 
z
" id="DejaVuSans-63"/>
     <path d="M 56.203125 29.59375 
L 56.203125 25.203125 
L 14.890625 25.203125 
Q 15.484375 15.921875 20.484375 11.0625 
Q 25.484375 6.203125 34.421875 6.203125 
Q 39.59375 6.203125 44.453125 7.46875 
Q 49.3125 8.734375 54.109375 11.28125 
L 54.109375 2.78125 
Q 49.265625 0.734375 44.1875 -0.34375 
Q 39.109375 -1.421875 33.890625 -1.421875 
Q 20.796875 -1.421875 13.15625 6.1875 
Q 5.515625 13.8125 5.515625 26.8125 
Q 5.515625 40.234375 12.765625 48.109375 
Q 20.015625 56 32.328125 56 
Q 43.359375 56 49.78125 48.890625 
Q 56.203125 41.796875 56.203125 29.59375 
z
M 47.21875 32.234375 
Q 47.125 39.59375 43.09375 43.984375 
Q 39.0625 48.390625 32.421875 48.390625 
Q 24.90625 48.390625 20.390625 44.140625 
Q 15.875 39.890625 15.1875 32.171875 
z
" id="DejaVuSans-65"/>
     <path id="DejaVuSans-20"/>
     <path d="M 51.125 44 
L 36.921875 44 
L 32.8125 27.6875 
L 47.125 27.6875 
z
M 43.796875 71.78125 
L 38.71875 51.515625 
L 52.984375 51.515625 
L 58.109375 71.78125 
L 65.921875 71.78125 
L 60.890625 51.515625 
L 76.125 51.515625 
L 76.125 44 
L 58.984375 44 
L 54.984375 27.6875 
L 70.515625 27.6875 
L 70.515625 20.21875 
L 53.078125 20.21875 
L 48 0 
L 40.1875 0 
L 45.21875 20.21875 
L 30.90625 20.21875 
L 25.875 0 
L 18.015625 0 
L 23.09375 20.21875 
L 7.71875 20.21875 
L 7.71875 27.6875 
L 24.90625 27.6875 
L 29 44 
L 13.28125 44 
L 13.28125 51.515625 
L 30.90625 51.515625 
L 35.890625 71.78125 
z
" id="DejaVuSans-23"/>
     <path d="M 31.78125 34.625 
Q 24.75 34.625 20.71875 30.859375 
Q 16.703125 27.09375 16.703125 20.515625 
Q 16.703125 13.921875 20.71875 10.15625 
Q 24.75 6.390625 31.78125 6.390625 
Q 38.8125 6.390625 42.859375 10.171875 
Q 46.921875 13.96875 46.921875 20.515625 
Q 46.921875 27.09375 42.890625 30.859375 
Q 38.875 34.625 31.78125 34.625 
z
M 21.921875 38.8125 
Q 15.578125 40.375 12.03125 44.71875 
Q 8.5 49.078125 8.5 55.328125 
Q 8.5 64.0625 14.71875 69.140625 
Q 20.953125 74.21875 31.78125 74.21875 
Q 42.671875 74.21875 48.875 69.140625 
Q 55.078125 64.0625 55.078125 55.328125 
Q 55.078125 49.078125 51.53125 44.71875 
Q 48 40.375 41.703125 38.8125 
Q 48.828125 37.15625 52.796875 32.3125 
Q 56.78125 27.484375 56.78125 20.515625 
Q 56.78125 9.90625 50.3125 4.234375 
Q 43.84375 -1.421875 31.78125 -1.421875 
Q 19.734375 -1.421875 13.25 4.234375 
Q 6.78125 9.90625 6.78125 20.515625 
Q 6.78125 27.484375 10.78125 32.3125 
Q 14.796875 37.15625 21.921875 38.8125 
z
M 18.3125 54.390625 
Q 18.3125 48.734375 21.84375 45.5625 
Q 25.390625 42.390625 31.78125 42.390625 
Q 38.140625 42.390625 41.71875 45.5625 
Q 45.3125 48.734375 45.3125 54.390625 
Q 45.3125 60.0625 41.71875 63.234375 
Q 38.140625 66.40625 31.78125 66.40625 
Q 25.390625 66.40625 21.84375 63.234375 
Q 18.3125 60.0625 18.3125 54.390625 
z
" id="DejaVuSans-38"/>
     <path d="M 10.796875 72.90625 
L 49.515625 72.90625 
L 49.515625 64.59375 
L 19.828125 64.59375 
L 19.828125 46.734375 
Q 21.96875 47.46875 24.109375 47.828125 
Q 26.265625 48.1875 28.421875 48.1875 
Q 40.625 48.1875 47.75 41.5 
Q 54.890625 34.8125 54.890625 23.390625 
Q 54.890625 11.625 47.5625 5.09375 
Q 40.234375 -1.421875 26.90625 -1.421875 
Q 22.3125 -1.421875 17.546875 -0.640625 
Q 12.796875 0.140625 7.71875 1.703125 
L 7.71875 11.625 
Q 12.109375 9.234375 16.796875 8.0625 
Q 21.484375 6.890625 26.703125 6.890625 
Q 35.15625 6.890625 40.078125 11.328125 
Q 45.015625 15.765625 45.015625 23.390625 
Q 45.015625 31 40.078125 35.4375 
Q 35.15625 39.890625 26.703125 39.890625 
Q 22.75 39.890625 18.8125 39.015625 
Q 14.890625 38.140625 10.796875 36.28125 
z
" id="DejaVuSans-35"/>
     <path d="M 10.984375 1.515625 
L 10.984375 10.5 
Q 14.703125 8.734375 18.5 7.8125 
Q 22.3125 6.890625 25.984375 6.890625 
Q 35.75 6.890625 40.890625 13.453125 
Q 46.046875 20.015625 46.78125 33.40625 
Q 43.953125 29.203125 39.59375 26.953125 
Q 35.25 24.703125 29.984375 24.703125 
Q 19.046875 24.703125 12.671875 31.3125 
Q 6.296875 37.9375 6.296875 49.421875 
Q 6.296875 60.640625 12.9375 67.421875 
Q 19.578125 74.21875 30.609375 74.21875 
Q 43.265625 74.21875 49.921875 64.515625 
Q 56.59375 54.828125 56.59375 36.375 
Q 56.59375 19.140625 48.40625 8.859375 
Q 40.234375 -1.421875 26.421875 -1.421875 
Q 22.703125 -1.421875 18.890625 -0.6875 
Q 15.09375 0.046875 10.984375 1.515625 
z
M 30.609375 32.421875 
Q 37.25 32.421875 41.125 36.953125 
Q 45.015625 41.5 45.015625 49.421875 
Q 45.015625 57.28125 41.125 61.84375 
Q 37.25 66.40625 30.609375 66.40625 
Q 23.96875 66.40625 20.09375 61.84375 
Q 16.21875 57.28125 16.21875 49.421875 
Q 16.21875 41.5 20.09375 36.953125 
Q 23.96875 32.421875 30.609375 32.421875 
z
" id="DejaVuSans-39"/>
     <path d="M 8.203125 72.90625 
L 55.078125 72.90625 
L 55.078125 68.703125 
L 28.609375 0 
L 18.3125 0 
L 43.21875 64.59375 
L 8.203125 64.59375 
z
" id="DejaVuSans-37"/>
     <path d="M 11.71875 12.40625 
L 22.015625 12.40625 
L 22.015625 4 
L 14.015625 -11.625 
L 7.71875 -11.625 
L 11.71875 4 
z
" id="DejaVuSans-2c"/>
     <path d="M 16.890625 72.90625 
L 62.984375 72.90625 
L 61.375 64.59375 
L 25.09375 64.59375 
L 20.90625 43.015625 
L 55.71875 43.015625 
L 54.109375 34.71875 
L 19.28125 34.71875 
L 14.203125 8.296875 
L 51.3125 8.296875 
L 49.703125 0 
L 2.6875 0 
z
" id="DejaVuSans-Oblique-45"/>
     <path d="M 16.890625 72.90625 
L 30.171875 72.90625 
L 50.296875 10.40625 
L 62.5 72.90625 
L 72.125 72.90625 
L 57.90625 0 
L 44.578125 0 
L 24.515625 62.890625 
L 12.3125 0 
L 2.6875 0 
z
" id="DejaVuSans-Oblique-4e"/>
     <path d="M 10.59375 45.40625 
L 73.1875 45.40625 
L 73.1875 37.203125 
L 10.59375 37.203125 
z
M 10.59375 25.484375 
L 73.1875 25.484375 
L 73.1875 17.1875 
L 10.59375 17.1875 
z
" id="DejaVuSans-3d"/>
     <path d="M 4.890625 31.390625 
L 31.203125 31.390625 
L 31.203125 23.390625 
L 4.890625 23.390625 
z
" id="DejaVuSans-2d"/>
     <path d="M 12.40625 8.296875 
L 28.515625 8.296875 
L 28.515625 63.921875 
L 10.984375 60.40625 
L 10.984375 69.390625 
L 28.421875 72.90625 
L 38.28125 72.90625 
L 38.28125 8.296875 
L 54.390625 8.296875 
L 54.390625 0 
L 12.40625 0 
z
" id="DejaVuSans-31"/>
     <path d="M 10.6875 12.40625 
L 21 12.40625 
L 21 0 
L 10.6875 0 
z
" id="DejaVuSans-2e"/>
     <path d="M 40.578125 39.3125 
Q 47.65625 37.796875 51.625 33 
Q 55.609375 28.21875 55.609375 21.1875 
Q 55.609375 10.40625 48.1875 4.484375 
Q 40.765625 -1.421875 27.09375 -1.421875 
Q 22.515625 -1.421875 17.65625 -0.515625 
Q 12.796875 0.390625 7.625 2.203125 
L 7.625 11.71875 
Q 11.71875 9.328125 16.59375 8.109375 
Q 21.484375 6.890625 26.8125 6.890625 
Q 36.078125 6.890625 40.9375 10.546875 
Q 45.796875 14.203125 45.796875 21.1875 
Q 45.796875 27.640625 41.28125 31.265625 
Q 36.765625 34.90625 28.71875 34.90625 
L 20.21875 34.90625 
L 20.21875 43.015625 
L 29.109375 43.015625 
Q 36.375 43.015625 40.234375 45.921875 
Q 44.09375 48.828125 44.09375 54.296875 
Q 44.09375 59.90625 40.109375 62.90625 
Q 36.140625 65.921875 28.71875 65.921875 
Q 24.65625 65.921875 20.015625 65.03125 
Q 15.375 64.15625 9.8125 62.3125 
L 9.8125 71.09375 
Q 15.4375 72.65625 20.34375 73.4375 
Q 25.25 74.21875 29.59375 74.21875 
Q 40.828125 74.21875 47.359375 69.109375 
Q 53.90625 64.015625 53.90625 55.328125 
Q 53.90625 49.265625 50.4375 45.09375 
Q 46.96875 40.921875 40.578125 39.3125 
z
" id="DejaVuSans-33"/>
     <path d="M 28.609375 0 
L 0.78125 72.90625 
L 11.078125 72.90625 
L 34.1875 11.53125 
L 57.328125 72.90625 
L 67.578125 72.90625 
L 39.796875 0 
z
" id="DejaVuSans-56"/>
     <path d="M 34.1875 63.1875 
L 14.15625 8.203125 
L 54.25 8.203125 
z
M 0.78125 0 
L 28.609375 72.90625 
L 39.796875 72.90625 
L 67.578125 0 
z
" id="DejaVuSans-394"/>
     <path d="M 9.8125 72.90625 
L 55.90625 72.90625 
L 55.90625 64.59375 
L 19.671875 64.59375 
L 19.671875 43.015625 
L 54.390625 43.015625 
L 54.390625 34.71875 
L 19.671875 34.71875 
L 19.671875 8.296875 
L 56.78125 8.296875 
L 56.78125 0 
L 9.8125 0 
z
" id="DejaVuSans-45"/>
     <path d="M 31.78125 66.40625 
Q 24.171875 66.40625 20.328125 58.90625 
Q 16.5 51.421875 16.5 36.375 
Q 16.5 21.390625 20.328125 13.890625 
Q 24.171875 6.390625 31.78125 6.390625 
Q 39.453125 6.390625 43.28125 13.890625 
Q 47.125 21.390625 47.125 36.375 
Q 47.125 51.421875 43.28125 58.90625 
Q 39.453125 66.40625 31.78125 66.40625 
z
M 31.78125 74.21875 
Q 44.046875 74.21875 50.515625 64.515625 
Q 56.984375 54.828125 56.984375 36.375 
Q 56.984375 17.96875 50.515625 8.265625 
Q 44.046875 -1.421875 31.78125 -1.421875 
Q 19.53125 -1.421875 13.0625 8.265625 
Q 6.59375 17.96875 6.59375 36.375 
Q 6.59375 54.828125 13.0625 64.515625 
Q 19.53125 74.21875 31.78125 74.21875 
z
" id="DejaVuSans-30"/>
     <path d="M 37.796875 64.3125 
L 12.890625 25.390625 
L 37.796875 25.390625 
z
M 35.203125 72.90625 
L 47.609375 72.90625 
L 47.609375 25.390625 
L 58.015625 25.390625 
L 58.015625 17.1875 
L 47.609375 17.1875 
L 47.609375 0 
L 37.796875 0 
L 37.796875 17.1875 
L 4.890625 17.1875 
L 4.890625 26.703125 
z
" id="DejaVuSans-34"/>
     <path d="M 19.1875 8.296875 
L 53.609375 8.296875 
L 53.609375 0 
L 7.328125 0 
L 7.328125 8.296875 
Q 12.9375 14.109375 22.625 23.890625 
Q 32.328125 33.6875 34.8125 36.53125 
Q 39.546875 41.84375 41.421875 45.53125 
Q 43.3125 49.21875 43.3125 52.78125 
Q 43.3125 58.59375 39.234375 62.25 
Q 35.15625 65.921875 28.609375 65.921875 
Q 23.96875 65.921875 18.8125 64.3125 
Q 13.671875 62.703125 7.8125 59.421875 
L 7.8125 69.390625 
Q 13.765625 71.78125 18.9375 73 
Q 24.125 74.21875 28.421875 74.21875 
Q 39.75 74.21875 46.484375 68.546875 
Q 53.21875 62.890625 53.21875 53.421875 
Q 53.21875 48.921875 51.53125 44.890625 
Q 49.859375 40.875 45.40625 35.40625 
Q 44.1875 33.984375 37.640625 27.21875 
Q 31.109375 20.453125 19.1875 8.296875 
z
" id="DejaVuSans-32"/>
    </defs>
    <g transform="translate(65.388 35.472)scale(0.12 -0.12)">
     <use transform="translate(0 0.78125)" xlink:href="#DejaVuSans-53"/>
     <use transform="translate(63.476562 0.78125)" xlink:href="#DejaVuSans-74"/>
     <use transform="translate(102.685547 0.78125)" xlink:href="#DejaVuSans-72"/>
     <use transform="translate(143.798828 0.78125)" xlink:href="#DejaVuSans-75"/>
     <use transform="translate(207.177734 0.78125)" xlink:href="#DejaVuSans-63"/>
     <use transform="translate(262.158203 0.78125)" xlink:href="#DejaVuSans-74"/>
     <use transform="translate(301.367188 0.78125)" xlink:href="#DejaVuSans-75"/>
     <use transform="translate(364.746094 0.78125)" xlink:href="#DejaVuSans-72"/>
     <use transform="translate(405.859375 0.78125)" xlink:href="#DejaVuSans-65"/>
     <use transform="translate(467.382812 0.78125)" xlink:href="#DejaVuSans-20"/>
     <use transform="translate(499.169922 0.78125)" xlink:href="#DejaVuSans-23"/>
     <use transform="translate(582.958984 0.78125)" xlink:href="#DejaVuSans-38"/>
     <use transform="translate(646.582031 0.78125)" xlink:href="#DejaVuSans-35"/>
     <use transform="translate(710.126953 0.78125)" xlink:href="#DejaVuSans-39"/>
     <use transform="translate(773.75 0.78125)" xlink:href="#DejaVuSans-37"/>
     <use transform="translate(837.373047 0.78125)" xlink:href="#DejaVuSans-2c"/>
     <use transform="translate(869.160156 0.78125)" xlink:href="#DejaVuSans-20"/>
     <use transform="translate(900.947266 0.78125)" xlink:href="#DejaVuSans-Oblique-45"/>
     <use transform="translate(964.130859 -15.625)scale(0.7)" xlink:href="#DejaVuSans-Oblique-4e"/>
     <use transform="translate(1019.228516 0.78125)" xlink:href="#DejaVuSans-3d"/>
     <use transform="translate(1103.017578 0.78125)" xlink:href="#DejaVuSans-2d"/>
     <use transform="translate(1139.101562 0.78125)" xlink:href="#DejaVuSans-31"/>
     <use transform="translate(1202.724609 0.78125)" xlink:href="#DejaVuSans-37"/>
     <use transform="translate(1266.347656 0.78125)" xlink:href="#DejaVuSans-39"/>
     <use transform="translate(1329.970703 0.78125)" xlink:href="#DejaVuSans-2e"/>
     <use transform="translate(1361.648438 0.78125)" xlink:href="#DejaVuSans-37"/>
     <use transform="translate(1425.271484 0.78125)" xlink:href="#DejaVuSans-33"/>
     <use transform="translate(1488.894531 0.78125)" xlink:href="#DejaVuSans-65"/>
     <use transform="translate(1550.417969 0.78125)" xlink:href="#DejaVuSans-56"/>
     <use transform="translate(1618.826172 0.78125)" xlink:href="#DejaVuSans-2c"/>
     <use transform="translate(1650.613281 0.78125)" xlink:href="#DejaVuSans-20"/>
     <use transform="translate(1682.400391 0.78125)" xlink:href="#DejaVuSans-394"/>
     <use transform="translate(1750.808594 0.78125)" xlink:href="#DejaVuSans-45"/>
     <use transform="translate(1813.992188 0.78125)" xlink:href="#DejaVuSans-3d"/>
     <use transform="translate(1897.78125 0.78125)" xlink:href="#DejaVuSans-30"/>
     <use transform="translate(1961.404297 0.78125)" xlink:href="#DejaVuSans-2e"/>
     <use transform="translate(1993.191406 0.78125)" xlink:href="#DejaVuSans-34"/>
     <use transform="translate(2056.814453 0.78125)" xlink:href="#DejaVuSans-32"/>
     <use transform="translate(2120.4375 0.78125)" xlink:href="#DejaVuSans-65"/>
     <use transform="translate(2181.960938 0.78125)" xlink:href="#DejaVuSans-56"/>
    </g>
   </g>
  </g>
  <g id="axes_2">
   <g id="patch_2">
    <path clip-path="url(#pc361368cf8)" d="M 361.152 307.584 
L 361.152 306.5445 
L 361.152 42.5115 
L 361.152 41.472 
L 374.4576 41.472 
L 374.4576 42.5115 
L 374.4576 306.5445 
L 374.4576 307.584 
z
" style="fill:#ffffff;stroke:#ffffff;stroke-linejoin:miter;stroke-width:0.01;"/>
   </g>
   <image height="265.68" id="imageac67eb9621" transform="scale(1 -1)translate(0 -265.68)" width="12.96" x="361.44" xlink:href="data:image/png;base64,
iVBORw0KGgoAAAANSUhEUgAAABIAAAFxCAYAAAB+2fgXAAAABHNCSVQICAgIfAhkiAAAAeVJREFUeJztncmNw0AQA2ckheYQNv9QLIfQ8ygsCgQ7AEI8+jAs2Puz/94F1LP2ReCsZ18bAWIeZ5XaGRBE7VnbptG+KI101FYyNSiQG2oRITXKNaX9uclOdi2XWjftVE32CZCO2ou5Bj1TcCBr/1zB9ge7Fq0Rg2NM9pvbtG+ua1QgsRYhDy0ISEiNc40BEibbSI0Coj5CBGtkpFbXJiAjNZlrwhuSOv2M1DjXbEdEciBt1JSDDQKKpmZr2rr2j0DBGpXaWEJq3bQzEPIS26r9J+Wzv9Tm8o3aajRXqc3VUXsApKNWjeZq0x4ABVNbm7lrszVigDqP5vIl2+eaT2yfRkL7g+dRcNPqjohkjaCvRVBq0H2U3LQrOJCx9kdTg4B8oxZzzTdqdYHEngjUCAPyUctN9sVRq2sTECW2UKNLd2jVtRmo1A6AhMmWaSRcR8nUdIHUuVb75zJS218EyEitro1At69pIdeSk30Lkw0FktNImGyZRhy1O5galmxd03LUsHWk06jUZiCq+5Wb1kZNN4+wJxJuWt8RAW5am2sYNZ9rYCBzZ3buPKJ2P5Yj4Toy3keyIyJbIxs1rml1byCA84gpch5RQNB7Q0qNMGq2Hy4BXdNR41yz/cEEJfZzUz96r9PoB0okjeQ8y9TkAAAAAElFTkSuQmCC" y="-41.76"/>
   <g id="matplotlib.axis_1"/>
   <g id="matplotlib.axis_2">
    <g id="ytick_1">
     <g id="line2d_1">
      <defs>
       <path d="M 0 0 
L 3.5 0 
" id="m6ef81f60f6" style="stroke:#000000;stroke-width:0.8;"/>
      </defs>
      <g>
       <use style="stroke:#000000;stroke-width:0.8;" x="374.4576" xlink:href="#m6ef81f60f6" y="298.069455"/>
      </g>
     </g>
     <g id="text_2">
      <!-- −9.0 -->
      <defs>
       <path d="M 10.59375 35.5 
L 73.1875 35.5 
L 73.1875 27.203125 
L 10.59375 27.203125 
z
" id="DejaVuSans-2212"/>
      </defs>
      <g transform="translate(381.4576 301.868674)scale(0.1 -0.1)">
       <use xlink:href="#DejaVuSans-2212"/>
       <use x="83.789062" xlink:href="#DejaVuSans-39"/>
       <use x="147.412109" xlink:href="#DejaVuSans-2e"/>
       <use x="179.199219" xlink:href="#DejaVuSans-30"/>
      </g>
     </g>
    </g>
    <g id="ytick_2">
     <g id="line2d_2">
      <g>
       <use style="stroke:#000000;stroke-width:0.8;" x="374.4576" xlink:href="#m6ef81f60f6" y="266.535865"/>
      </g>
     </g>
     <g id="text_3">
      <!-- −8.5 -->
      <g transform="translate(381.4576 270.335084)scale(0.1 -0.1)">
       <use xlink:href="#DejaVuSans-2212"/>
       <use x="83.789062" xlink:href="#DejaVuSans-38"/>
       <use x="147.412109" xlink:href="#DejaVuSans-2e"/>
       <use x="179.199219" xlink:href="#DejaVuSans-35"/>
      </g>
     </g>
    </g>
    <g id="ytick_3">
     <g id="line2d_3">
      <g>
       <use style="stroke:#000000;stroke-width:0.8;" x="374.4576" xlink:href="#m6ef81f60f6" y="235.002275"/>
      </g>
     </g>
     <g id="text_4">
      <!-- −8.0 -->
      <g transform="translate(381.4576 238.801494)scale(0.1 -0.1)">
       <use xlink:href="#DejaVuSans-2212"/>
       <use x="83.789062" xlink:href="#DejaVuSans-38"/>
       <use x="147.412109" xlink:href="#DejaVuSans-2e"/>
       <use x="179.199219" xlink:href="#DejaVuSans-30"/>
      </g>
     </g>
    </g>
    <g id="ytick_4">
     <g id="line2d_4">
      <g>
       <use style="stroke:#000000;stroke-width:0.8;" x="374.4576" xlink:href="#m6ef81f60f6" y="203.468685"/>
      </g>
     </g>
     <g id="text_5">
      <!-- −7.5 -->
      <g transform="translate(381.4576 207.267904)scale(0.1 -0.1)">
       <use xlink:href="#DejaVuSans-2212"/>
       <use x="83.789062" xlink:href="#DejaVuSans-37"/>
       <use x="147.412109" xlink:href="#DejaVuSans-2e"/>
       <use x="179.199219" xlink:href="#DejaVuSans-35"/>
      </g>
     </g>
    </g>
    <g id="ytick_5">
     <g id="line2d_5">
      <g>
       <use style="stroke:#000000;stroke-width:0.8;" x="374.4576" xlink:href="#m6ef81f60f6" y="171.935095"/>
      </g>
     </g>
     <g id="text_6">
      <!-- −7.0 -->
      <g transform="translate(381.4576 175.734314)scale(0.1 -0.1)">
       <use xlink:href="#DejaVuSans-2212"/>
       <use x="83.789062" xlink:href="#DejaVuSans-37"/>
       <use x="147.412109" xlink:href="#DejaVuSans-2e"/>
       <use x="179.199219" xlink:href="#DejaVuSans-30"/>
      </g>
     </g>
    </g>
    <g id="ytick_6">
     <g id="line2d_6">
      <g>
       <use style="stroke:#000000;stroke-width:0.8;" x="374.4576" xlink:href="#m6ef81f60f6" y="140.401505"/>
      </g>
     </g>
     <g id="text_7">
      <!-- −6.5 -->
      <defs>
       <path d="M 33.015625 40.375 
Q 26.375 40.375 22.484375 35.828125 
Q 18.609375 31.296875 18.609375 23.390625 
Q 18.609375 15.53125 22.484375 10.953125 
Q 26.375 6.390625 33.015625 6.390625 
Q 39.65625 6.390625 43.53125 10.953125 
Q 47.40625 15.53125 47.40625 23.390625 
Q 47.40625 31.296875 43.53125 35.828125 
Q 39.65625 40.375 33.015625 40.375 
z
M 52.59375 71.296875 
L 52.59375 62.3125 
Q 48.875 64.0625 45.09375 64.984375 
Q 41.3125 65.921875 37.59375 65.921875 
Q 27.828125 65.921875 22.671875 59.328125 
Q 17.53125 52.734375 16.796875 39.40625 
Q 19.671875 43.65625 24.015625 45.921875 
Q 28.375 48.1875 33.59375 48.1875 
Q 44.578125 48.1875 50.953125 41.515625 
Q 57.328125 34.859375 57.328125 23.390625 
Q 57.328125 12.15625 50.6875 5.359375 
Q 44.046875 -1.421875 33.015625 -1.421875 
Q 20.359375 -1.421875 13.671875 8.265625 
Q 6.984375 17.96875 6.984375 36.375 
Q 6.984375 53.65625 15.1875 63.9375 
Q 23.390625 74.21875 37.203125 74.21875 
Q 40.921875 74.21875 44.703125 73.484375 
Q 48.484375 72.75 52.59375 71.296875 
z
" id="DejaVuSans-36"/>
      </defs>
      <g transform="translate(381.4576 144.200724)scale(0.1 -0.1)">
       <use xlink:href="#DejaVuSans-2212"/>
       <use x="83.789062" xlink:href="#DejaVuSans-36"/>
       <use x="147.412109" xlink:href="#DejaVuSans-2e"/>
       <use x="179.199219" xlink:href="#DejaVuSans-35"/>
      </g>
     </g>
    </g>
    <g id="ytick_7">
     <g id="line2d_7">
      <g>
       <use style="stroke:#000000;stroke-width:0.8;" x="374.4576" xlink:href="#m6ef81f60f6" y="108.867915"/>
      </g>
     </g>
     <g id="text_8">
      <!-- −6.0 -->
      <g transform="translate(381.4576 112.667134)scale(0.1 -0.1)">
       <use xlink:href="#DejaVuSans-2212"/>
       <use x="83.789062" xlink:href="#DejaVuSans-36"/>
       <use x="147.412109" xlink:href="#DejaVuSans-2e"/>
       <use x="179.199219" xlink:href="#DejaVuSans-30"/>
      </g>
     </g>
    </g>
    <g id="ytick_8">
     <g id="line2d_8">
      <g>
       <use style="stroke:#000000;stroke-width:0.8;" x="374.4576" xlink:href="#m6ef81f60f6" y="77.334325"/>
      </g>
     </g>
     <g id="text_9">
      <!-- −5.5 -->
      <g transform="translate(381.4576 81.133544)scale(0.1 -0.1)">
       <use xlink:href="#DejaVuSans-2212"/>
       <use x="83.789062" xlink:href="#DejaVuSans-35"/>
       <use x="147.412109" xlink:href="#DejaVuSans-2e"/>
       <use x="179.199219" xlink:href="#DejaVuSans-35"/>
      </g>
     </g>
    </g>
    <g id="ytick_9">
     <g id="line2d_9">
      <g>
       <use style="stroke:#000000;stroke-width:0.8;" x="374.4576" xlink:href="#m6ef81f60f6" y="45.800735"/>
      </g>
     </g>
     <g id="text_10">
      <!-- −5.0 -->
      <g transform="translate(381.4576 49.599954)scale(0.1 -0.1)">
       <use xlink:href="#DejaVuSans-2212"/>
       <use x="83.789062" xlink:href="#DejaVuSans-35"/>
       <use x="147.412109" xlink:href="#DejaVuSans-2e"/>
       <use x="179.199219" xlink:href="#DejaVuSans-30"/>
      </g>
     </g>
    </g>
    <g id="text_11">
     <!-- Energy [eV] -->
     <defs>
      <path d="M 54.890625 33.015625 
L 54.890625 0 
L 45.90625 0 
L 45.90625 32.71875 
Q 45.90625 40.484375 42.875 44.328125 
Q 39.84375 48.1875 33.796875 48.1875 
Q 26.515625 48.1875 22.3125 43.546875 
Q 18.109375 38.921875 18.109375 30.90625 
L 18.109375 0 
L 9.078125 0 
L 9.078125 54.6875 
L 18.109375 54.6875 
L 18.109375 46.1875 
Q 21.34375 51.125 25.703125 53.5625 
Q 30.078125 56 35.796875 56 
Q 45.21875 56 50.046875 50.171875 
Q 54.890625 44.34375 54.890625 33.015625 
z
" id="DejaVuSans-6e"/>
      <path d="M 45.40625 27.984375 
Q 45.40625 37.75 41.375 43.109375 
Q 37.359375 48.484375 30.078125 48.484375 
Q 22.859375 48.484375 18.828125 43.109375 
Q 14.796875 37.75 14.796875 27.984375 
Q 14.796875 18.265625 18.828125 12.890625 
Q 22.859375 7.515625 30.078125 7.515625 
Q 37.359375 7.515625 41.375 12.890625 
Q 45.40625 18.265625 45.40625 27.984375 
z
M 54.390625 6.78125 
Q 54.390625 -7.171875 48.1875 -13.984375 
Q 42 -20.796875 29.203125 -20.796875 
Q 24.46875 -20.796875 20.265625 -20.09375 
Q 16.0625 -19.390625 12.109375 -17.921875 
L 12.109375 -9.1875 
Q 16.0625 -11.328125 19.921875 -12.34375 
Q 23.78125 -13.375 27.78125 -13.375 
Q 36.625 -13.375 41.015625 -8.765625 
Q 45.40625 -4.15625 45.40625 5.171875 
L 45.40625 9.625 
Q 42.625 4.78125 38.28125 2.390625 
Q 33.9375 0 27.875 0 
Q 17.828125 0 11.671875 7.65625 
Q 5.515625 15.328125 5.515625 27.984375 
Q 5.515625 40.671875 11.671875 48.328125 
Q 17.828125 56 27.875 56 
Q 33.9375 56 38.28125 53.609375 
Q 42.625 51.21875 45.40625 46.390625 
L 45.40625 54.6875 
L 54.390625 54.6875 
z
" id="DejaVuSans-67"/>
      <path d="M 32.171875 -5.078125 
Q 28.375 -14.84375 24.75 -17.8125 
Q 21.140625 -20.796875 15.09375 -20.796875 
L 7.90625 -20.796875 
L 7.90625 -13.28125 
L 13.1875 -13.28125 
Q 16.890625 -13.28125 18.9375 -11.515625 
Q 21 -9.765625 23.484375 -3.21875 
L 25.09375 0.875 
L 2.984375 54.6875 
L 12.5 54.6875 
L 29.59375 11.921875 
L 46.6875 54.6875 
L 56.203125 54.6875 
z
" id="DejaVuSans-79"/>
      <path d="M 8.59375 75.984375 
L 29.296875 75.984375 
L 29.296875 69 
L 17.578125 69 
L 17.578125 -6.203125 
L 29.296875 -6.203125 
L 29.296875 -13.1875 
L 8.59375 -13.1875 
z
" id="DejaVuSans-5b"/>
      <path d="M 30.421875 75.984375 
L 30.421875 -13.1875 
L 9.71875 -13.1875 
L 9.71875 -6.203125 
L 21.390625 -6.203125 
L 21.390625 69 
L 9.71875 69 
L 9.71875 75.984375 
z
" id="DejaVuSans-5d"/>
     </defs>
     <g transform="translate(417.33885 204.108469)rotate(-90)scale(0.1 -0.1)">
      <use xlink:href="#DejaVuSans-45"/>
      <use x="63.183594" xlink:href="#DejaVuSans-6e"/>
      <use x="126.5625" xlink:href="#DejaVuSans-65"/>
      <use x="188.085938" xlink:href="#DejaVuSans-72"/>
      <use x="229.183594" xlink:href="#DejaVuSans-67"/>
      <use x="292.660156" xlink:href="#DejaVuSans-79"/>
      <use x="351.839844" xlink:href="#DejaVuSans-20"/>
      <use x="383.626953" xlink:href="#DejaVuSans-5b"/>
      <use x="422.640625" xlink:href="#DejaVuSans-65"/>
      <use x="484.164062" xlink:href="#DejaVuSans-56"/>
      <use x="552.572266" xlink:href="#DejaVuSans-5d"/>
     </g>
    </g>
   </g>
   <g id="patch_3">
    <path d="M 361.152 307.584 
L 361.152 306.5445 
L 361.152 42.5115 
L 361.152 41.472 
L 374.4576 41.472 
L 374.4576 42.5115 
L 374.4576 306.5445 
L 374.4576 307.584 
z
" style="fill:none;stroke:#000000;stroke-linejoin:miter;stroke-width:0.8;"/>
   </g>
  </g>
 </g>
 <defs>
  <clipPath id="p5acb3f2a71">
   <rect height="266.112" width="285.696" x="57.6" y="41.472"/>
  </clipPath>
  <clipPath id="pc361368cf8">
   <rect height="266.112" width="13.3056" x="361.152" y="41.472"/>
  </clipPath>
 </defs>
</svg>
