<?xml version="1.0" encoding="utf-8" standalone="no"?>
<!DOCTYPE svg PUBLIC "-//W3C//DTD SVG 1.1//EN"
  "http://www.w3.org/Graphics/SVG/1.1/DTD/svg11.dtd">
<!-- Created with matplotlib (http://matplotlib.org/) -->
<svg height="345.6pt" version="1.1" viewBox="0 0 460.8 345.6" width="460.8pt" xmlns="http://www.w3.org/2000/svg" xmlns:xlink="http://www.w3.org/1999/xlink">
 <defs>
  <style type="text/css">
*{stroke-linecap:butt;stroke-linejoin:round;}
  </style>
 </defs>
 <g id="figure_1">
  <g id="patch_1">
   <path d="M 0 345.6 
L 460.8 345.6 
L 460.8 0 
L 0 0 
z
" style="fill:#ffffff;"/>
  </g>
  <g id="axes_1">
   <g id="CircleCollection_1">
    <path clip-path="url(#p24d9ba9c7c)" d="M 329.860727 132.280233 
C 331.69894 132.280233 333.462112 131.549903 334.761924 130.25009 
C 336.061737 128.950278 336.792067 127.187106 336.792067 125.348893 
C 336.792067 123.51068 336.061737 121.747508 334.761924 120.447695 
C 333.462112 119.147883 331.69894 118.417553 329.860727 118.417553 
C 328.022514 118.417553 326.259342 119.147883 324.959529 120.447695 
C 323.659717 121.747508 322.929387 123.51068 322.929387 125.348893 
C 322.929387 127.187106 323.659717 128.950278 324.959529 130.25009 
C 326.259342 131.549903 328.022514 132.280233 329.860727 132.280233 
z
" style="fill:#eae51a;"/>
    <path clip-path="url(#p24d9ba9c7c)" d="M 213.258922 130.966006 
C 215.115913 130.966006 216.897097 130.228215 218.210189 128.915124 
C 219.52328 127.602033 220.261071 125.820849 220.261071 123.963857 
C 220.261071 122.106865 219.52328 120.325681 218.210189 119.01259 
C 216.897097 117.699499 215.115913 116.961708 213.258922 116.961708 
C 211.40193 116.961708 209.620746 117.699499 208.307655 119.01259 
C 206.994563 120.325681 206.256773 122.106865 206.256773 123.963857 
C 206.256773 125.820849 206.994563 127.602033 208.307655 128.915124 
C 209.620746 130.228215 211.40193 130.966006 213.258922 130.966006 
z
" style="fill:#460a5d;"/>
    <path clip-path="url(#p24d9ba9c7c)" d="M 153.995037 175.967757 
C 155.852046 175.967757 157.633246 175.22996 158.94635 173.916856 
C 160.259454 172.603752 160.997251 170.822552 160.997251 168.965543 
C 160.997251 167.108534 160.259454 165.327333 158.94635 164.014229 
C 157.633246 162.701125 155.852046 161.963328 153.995037 161.963328 
C 152.138027 161.963328 150.356827 162.701125 149.043723 164.014229 
C 147.730619 165.327333 146.992822 167.108534 146.992822 168.965543 
C 146.992822 170.822552 147.730619 172.603752 149.043723 173.916856 
C 150.356827 175.22996 152.138027 175.967757 153.995037 175.967757 
z
" style="fill:#355e8d;"/>
    <path clip-path="url(#p24d9ba9c7c)" d="M 266.590408 195.618719 
C 268.449562 195.618719 270.232819 194.88007 271.547439 193.56545 
C 272.862059 192.25083 273.600709 190.467572 273.600709 188.608419 
C 273.600709 186.749265 272.862059 184.966008 271.547439 183.651388 
C 270.232819 182.336768 268.449562 181.598118 266.590408 181.598118 
C 264.731255 181.598118 262.947997 182.336768 261.633377 183.651388 
C 260.318757 184.966008 259.580107 186.749265 259.580107 188.608419 
C 259.580107 190.467572 260.318757 192.25083 261.633377 193.56545 
C 262.947997 194.88007 264.731255 195.618719 266.590408 195.618719 
z
" style="fill:#443a83;"/>
    <path clip-path="url(#p24d9ba9c7c)" d="M 252.637096 238.169017 
C 254.492685 238.169017 256.272523 237.431784 257.584622 236.119685 
C 258.896721 234.807586 259.633954 233.027748 259.633954 231.172159 
C 259.633954 229.316571 258.896721 227.536733 257.584622 226.224634 
C 256.272523 224.912535 254.492685 224.175302 252.637096 224.175302 
C 250.781508 224.175302 249.00167 224.912535 247.68957 226.224634 
C 246.377471 227.536733 245.640238 229.316571 245.640238 231.172159 
C 245.640238 233.027748 246.377471 234.807586 247.68957 236.119685 
C 249.00167 237.431784 250.781508 238.169017 252.637096 238.169017 
z
" style="fill:#31678e;"/>
    <path clip-path="url(#p24d9ba9c7c)" d="M 95.45407 291.105677 
C 97.292602 291.105677 99.056081 290.37522 100.35612 289.075181 
C 101.656159 287.775142 102.386615 286.011663 102.386615 284.173131 
C 102.386615 282.334598 101.656159 280.57112 100.35612 279.271081 
C 99.056081 277.971042 97.292602 277.240585 95.45407 277.240585 
C 93.615537 277.240585 91.852058 277.971042 90.55202 279.271081 
C 89.251981 280.57112 88.521524 282.334598 88.521524 284.173131 
C 88.521524 286.011663 89.251981 287.775142 90.55202 289.075181 
C 91.852058 290.37522 93.615537 291.105677 95.45407 291.105677 
z
" style="fill:#d8e219;"/>
    <path clip-path="url(#p24d9ba9c7c)" d="M 221.144945 301.840972 
C 222.984178 301.840972 224.74833 301.110237 226.048864 299.809702 
C 227.349399 298.509168 228.080134 296.745016 228.080134 294.905783 
C 228.080134 293.066549 227.349399 291.302398 226.048864 290.001863 
C 224.74833 288.701328 222.984178 287.970593 221.144945 287.970593 
C 219.305711 287.970593 217.54156 288.701328 216.241025 290.001863 
C 214.94049 291.302398 214.209755 293.066549 214.209755 294.905783 
C 214.209755 296.745016 214.94049 298.509168 216.241025 299.809702 
C 217.54156 301.110237 219.305711 301.840972 221.144945 301.840972 
z
" style="fill:#8ed645;"/>
    <path clip-path="url(#p24d9ba9c7c)" d="M 224.768151 173.897272 
C 226.636243 173.897272 228.428075 173.155071 229.749016 171.83413 
C 231.069957 170.513189 231.812158 168.721357 231.812158 166.853265 
C 231.812158 164.985172 231.069957 163.19334 229.749016 161.872399 
C 228.428075 160.551458 226.636243 159.809257 224.768151 159.809257 
C 222.900058 159.809257 221.108226 160.551458 219.787285 161.872399 
C 218.466344 163.19334 217.724143 164.985172 217.724143 166.853265 
C 217.724143 168.721357 218.466344 170.513189 219.787285 171.83413 
C 221.108226 173.155071 222.900058 173.897272 224.768151 173.897272 
z
" style="fill:#482979;"/>
    <path clip-path="url(#p24d9ba9c7c)" d="M 137.728375 278.863883 
C 139.572373 278.863883 141.341094 278.131254 142.644998 276.827351 
C 143.948902 275.523447 144.68153 273.754726 144.68153 271.910727 
C 144.68153 270.066729 143.948902 268.298008 142.644998 266.994104 
C 141.341094 265.6902 139.572373 264.957572 137.728375 264.957572 
C 135.884376 264.957572 134.115655 265.6902 132.811752 266.994104 
C 131.507848 268.298008 130.775219 270.066729 130.775219 271.910727 
C 130.775219 273.754726 131.507848 275.523447 132.811752 276.827351 
C 134.115655 278.131254 135.884376 278.863883 137.728375 278.863883 
z
" style="fill:#277e8e;"/>
    <path clip-path="url(#p24d9ba9c7c)" d="M 189.040712 197.802488 
C 190.948789 197.802488 192.778973 197.044401 194.128187 195.695187 
C 195.477401 194.345973 196.235488 192.515789 196.235488 190.607712 
C 196.235488 188.699636 195.477401 186.869452 194.128187 185.520238 
C 192.778973 184.171023 190.948789 183.412936 189.040712 183.412936 
C 187.132635 183.412936 185.302451 184.171023 183.953237 185.520238 
C 182.604023 186.869452 181.845936 188.699636 181.845936 190.607712 
C 181.845936 192.515789 182.604023 194.345973 183.953237 195.695187 
C 185.302451 197.044401 187.132635 197.802488 189.040712 197.802488 
z
" style="fill:#20928c;"/>
    <path clip-path="url(#p24d9ba9c7c)" d="M 224.495954 60.969504 
C 226.30683 60.969504 228.043782 60.250035 229.324265 58.969552 
C 230.604748 57.689069 231.324217 55.952117 231.324217 54.141241 
C 231.324217 52.330364 230.604748 50.593413 229.324265 49.312929 
C 228.043782 48.032446 226.30683 47.312977 224.495954 47.312977 
C 222.685077 47.312977 220.948126 48.032446 219.667642 49.312929 
C 218.387159 50.593413 217.66769 52.330364 217.66769 54.141241 
C 217.66769 55.952117 218.387159 57.689069 219.667642 58.969552 
C 220.948126 60.250035 222.685077 60.969504 224.495954 60.969504 
z
" style="fill:#9bd93c;"/>
    <path clip-path="url(#p24d9ba9c7c)" d="M 285.950387 119.941482 
C 287.781095 119.941482 289.537069 119.214134 290.831575 117.919628 
C 292.126081 116.625122 292.853429 114.869149 292.853429 113.038441 
C 292.853429 111.207733 292.126081 109.45176 290.831575 108.157254 
C 289.537069 106.862748 287.781095 106.1354 285.950387 106.1354 
C 284.119679 106.1354 282.363706 106.862748 281.0692 108.157254 
C 279.774694 109.45176 279.047346 111.207733 279.047346 113.038441 
C 279.047346 114.869149 279.774694 116.625122 281.0692 117.919628 
C 282.363706 119.214134 284.119679 119.941482 285.950387 119.941482 
z
" style="fill:#20928c;"/>
    <path clip-path="url(#p24d9ba9c7c)" d="M 296.793374 163.344892 
C 298.635415 163.344892 300.402259 162.613042 301.704779 161.310522 
C 303.007298 160.008002 303.739149 158.241159 303.739149 156.399117 
C 303.739149 154.557076 303.007298 152.790233 301.704779 151.487713 
C 300.402259 150.185193 298.635415 149.453343 296.793374 149.453343 
C 294.951333 149.453343 293.184489 150.185193 291.881969 151.487713 
C 290.57945 152.790233 289.847599 154.557076 289.847599 156.399117 
C 289.847599 158.241159 290.57945 160.008002 291.881969 161.310522 
C 293.184489 162.613042 294.951333 163.344892 296.793374 163.344892 
z
" style="fill:#24878e;"/>
    <path clip-path="url(#p24d9ba9c7c)" d="M 257.037128 281.140591 
C 258.877878 281.140591 260.643484 280.409253 261.945091 279.107645 
C 263.246699 277.806038 263.978037 276.040432 263.978037 274.199682 
C 263.978037 272.358931 263.246699 270.593325 261.945091 269.291718 
C 260.643484 267.990111 258.877878 267.258773 257.037128 267.258773 
C 255.196377 267.258773 253.430771 267.990111 252.129164 269.291718 
C 250.827557 270.593325 250.096219 272.358931 250.096219 274.199682 
C 250.096219 276.040432 250.827557 277.806038 252.129164 279.107645 
C 253.430771 280.409253 255.196377 281.140591 257.037128 281.140591 
z
" style="fill:#75d054;"/>
    <path clip-path="url(#p24d9ba9c7c)" d="M 183.558088 277.789221 
C 185.407632 277.789221 187.181673 277.054389 188.489498 275.746564 
C 189.797324 274.438738 190.532155 272.664697 190.532155 270.815153 
C 190.532155 268.965609 189.797324 267.191568 188.489498 265.883742 
C 187.181673 264.575917 185.407632 263.841085 183.558088 263.841085 
C 181.708543 263.841085 179.934502 264.575917 178.626677 265.883742 
C 177.318852 267.191568 176.58402 268.965609 176.58402 270.815153 
C 176.58402 272.664697 177.318852 274.438738 178.626677 275.746564 
C 179.934502 277.054389 181.708543 277.789221 183.558088 277.789221 
z
" style="fill:#471365;"/>
    <path clip-path="url(#p24d9ba9c7c)" d="M 182.516618 63.523306 
C 184.333067 63.523306 186.075363 62.801624 187.359787 61.5172 
C 188.64421 60.232777 189.365893 58.490481 189.365893 56.674032 
C 189.365893 54.857583 188.64421 53.115286 187.359787 51.830863 
C 186.075363 50.54644 184.333067 49.824757 182.516618 49.824757 
C 180.700169 49.824757 178.957873 50.54644 177.673449 51.830863 
C 176.389026 53.115286 175.667343 54.857583 175.667343 56.674032 
C 175.667343 58.490481 176.389026 60.232777 177.673449 61.5172 
C 178.957873 62.801624 180.700169 63.523306 182.516618 63.523306 
z
" style="fill:#1f998a;"/>
    <path clip-path="url(#p24d9ba9c7c)" d="M 71.035085 207.812482 
C 72.87253 207.812482 74.634965 207.082458 75.934234 205.783188 
C 77.233504 204.483919 77.963528 202.721484 77.963528 200.88404 
C 77.963528 199.046595 77.233504 197.28416 75.934234 195.984891 
C 74.634965 194.685621 72.87253 193.955597 71.035085 193.955597 
C 69.197641 193.955597 67.435206 194.685621 66.135936 195.984891 
C 64.836667 197.28416 64.106642 199.046595 64.106642 200.88404 
C 64.106642 202.721484 64.836667 204.483919 66.135936 205.783188 
C 67.435206 207.082458 69.197641 207.812482 71.035085 207.812482 
z
" style="fill:#fde725;"/>
    <path clip-path="url(#p24d9ba9c7c)" d="M 105.829216 244.311957 
C 107.672196 244.311957 109.439941 243.579733 110.743125 242.276549 
C 112.04631 240.973365 112.778533 239.20562 112.778533 237.362639 
C 112.778533 235.519659 112.04631 233.751914 110.743125 232.448729 
C 109.439941 231.145545 107.672196 230.413321 105.829216 230.413321 
C 103.986235 230.413321 102.21849 231.145545 100.915306 232.448729 
C 99.612122 233.751914 98.879898 235.519659 98.879898 237.362639 
C 98.879898 239.20562 99.612122 240.973365 100.915306 242.276549 
C 102.21849 243.579733 103.986235 244.311957 105.829216 244.311957 
z
" style="fill:#20a386;"/>
    <path clip-path="url(#p24d9ba9c7c)" d="M 191.787236 196.813782 
C 193.59779 196.813782 195.334432 196.094442 196.614687 194.814187 
C 197.894942 193.533932 198.614283 191.79729 198.614283 189.986736 
C 198.614283 188.176182 197.894942 186.43954 196.614687 185.159285 
C 195.334432 183.87903 193.59779 183.15969 191.787236 183.15969 
C 189.976682 183.15969 188.24004 183.87903 186.959785 185.159285 
C 185.679531 186.43954 184.96019 188.176182 184.96019 189.986736 
C 184.96019 191.79729 185.679531 193.533932 186.959785 194.814187 
C 188.24004 196.094442 189.976682 196.813782 191.787236 196.813782 
z
" style="fill:#1f978b;"/>
    <path clip-path="url(#p24d9ba9c7c)" d="M 150.75362 90.206841 
C 152.583359 90.206841 154.338403 89.479878 155.632224 88.186057 
C 156.926045 86.892236 157.653008 85.137193 157.653008 83.307454 
C 157.653008 81.477715 156.926045 79.722671 155.632224 78.42885 
C 154.338403 77.135029 152.583359 76.408066 150.75362 76.408066 
C 148.923881 76.408066 147.168837 77.135029 145.875016 78.42885 
C 144.581195 79.722671 143.854232 81.477715 143.854232 83.307454 
C 143.854232 85.137193 144.581195 86.892236 145.875016 88.186057 
C 147.168837 89.479878 148.923881 90.206841 150.75362 90.206841 
z
" style="fill:#8ed645;"/>
    <path clip-path="url(#p24d9ba9c7c)" d="M 202.716173 235.833761 
C 204.576787 235.833761 206.361447 235.094531 207.6771 233.778878 
C 208.992753 232.463225 209.731983 230.678565 209.731983 228.817951 
C 209.731983 226.957336 208.992753 225.172677 207.6771 223.857023 
C 206.361447 222.54137 204.576787 221.80214 202.716173 221.80214 
C 200.855558 221.80214 199.070899 222.54137 197.755245 223.857023 
C 196.439592 225.172677 195.700362 226.957336 195.700362 228.817951 
C 195.700362 230.678565 196.439592 232.463225 197.755245 233.778878 
C 199.070899 235.094531 200.855558 235.833761 202.716173 235.833761 
z
" style="fill:#3d4d8a;"/>
    <path clip-path="url(#p24d9ba9c7c)" d="M 243.846033 100.327581 
C 245.679337 100.327581 247.4378 99.599202 248.734141 98.30286 
C 250.030482 97.006519 250.758861 95.248056 250.758861 93.414753 
C 250.758861 91.581449 250.030482 89.822986 248.734141 88.526645 
C 247.4378 87.230304 245.679337 86.501925 243.846033 86.501925 
C 242.01273 86.501925 240.254267 87.230304 238.957926 88.526645 
C 237.661585 89.822986 236.933205 91.581449 236.933205 93.414753 
C 236.933205 95.248056 237.661585 97.006519 238.957926 98.30286 
C 240.254267 99.599202 242.01273 100.327581 243.846033 100.327581 
z
" style="fill:#440154;"/>
    <path clip-path="url(#p24d9ba9c7c)" d="M 167.071851 129.291328 
C 168.924647 129.291328 170.701806 128.555205 172.011931 127.24508 
C 173.322056 125.934955 174.058179 124.157796 174.058179 122.305 
C 174.058179 120.452204 173.322056 118.675044 172.011931 117.364919 
C 170.701806 116.054795 168.924647 115.318671 167.071851 115.318671 
C 165.219055 115.318671 163.441895 116.054795 162.13177 117.364919 
C 160.821646 118.675044 160.085522 120.452204 160.085522 122.305 
C 160.085522 124.157796 160.821646 125.934955 162.13177 127.24508 
C 163.441895 128.555205 165.219055 129.291328 167.071851 129.291328 
z
" style="fill:#3a548c;"/>
    <path clip-path="url(#p24d9ba9c7c)" d="M 113.256192 199.158156 
C 115.105096 199.158156 116.878522 198.423579 118.185895 197.116206 
C 119.493267 195.808834 120.227845 194.035407 120.227845 192.186503 
C 120.227845 190.337599 119.493267 188.564173 118.185895 187.2568 
C 116.878522 185.949428 115.105096 185.214851 113.256192 185.214851 
C 111.407288 185.214851 109.633861 185.949428 108.326489 187.2568 
C 107.019116 188.564173 106.284539 190.337599 106.284539 192.186503 
C 106.284539 194.035407 107.019116 195.808834 108.326489 197.116206 
C 109.633861 198.423579 111.407288 199.158156 113.256192 199.158156 
z
" style="fill:#26828e;"/>
   </g>
   <g id="text_1">
    <!-- Structure #10310, $E_N$=-177.56eV, ΔE=-0.35eV -->
    <defs>
     <path d="M 53.515625 70.515625 
L 53.515625 60.890625 
Q 47.90625 63.578125 42.921875 64.890625 
Q 37.9375 66.21875 33.296875 66.21875 
Q 25.25 66.21875 20.875 63.09375 
Q 16.5 59.96875 16.5 54.203125 
Q 16.5 49.359375 19.40625 46.890625 
Q 22.3125 44.4375 30.421875 42.921875 
L 36.375 41.703125 
Q 47.40625 39.59375 52.65625 34.296875 
Q 57.90625 29 57.90625 20.125 
Q 57.90625 9.515625 50.796875 4.046875 
Q 43.703125 -1.421875 29.984375 -1.421875 
Q 24.8125 -1.421875 18.96875 -0.25 
Q 13.140625 0.921875 6.890625 3.21875 
L 6.890625 13.375 
Q 12.890625 10.015625 18.65625 8.296875 
Q 24.421875 6.59375 29.984375 6.59375 
Q 38.421875 6.59375 43.015625 9.90625 
Q 47.609375 13.234375 47.609375 19.390625 
Q 47.609375 24.75 44.3125 27.78125 
Q 41.015625 30.8125 33.5 32.328125 
L 27.484375 33.5 
Q 16.453125 35.6875 11.515625 40.375 
Q 6.59375 45.0625 6.59375 53.421875 
Q 6.59375 63.09375 13.40625 68.65625 
Q 20.21875 74.21875 32.171875 74.21875 
Q 37.3125 74.21875 42.625 73.28125 
Q 47.953125 72.359375 53.515625 70.515625 
z
" id="DejaVuSans-53"/>
     <path d="M 18.3125 70.21875 
L 18.3125 54.6875 
L 36.8125 54.6875 
L 36.8125 47.703125 
L 18.3125 47.703125 
L 18.3125 18.015625 
Q 18.3125 11.328125 20.140625 9.421875 
Q 21.96875 7.515625 27.59375 7.515625 
L 36.8125 7.515625 
L 36.8125 0 
L 27.59375 0 
Q 17.1875 0 13.234375 3.875 
Q 9.28125 7.765625 9.28125 18.015625 
L 9.28125 47.703125 
L 2.6875 47.703125 
L 2.6875 54.6875 
L 9.28125 54.6875 
L 9.28125 70.21875 
z
" id="DejaVuSans-74"/>
     <path d="M 41.109375 46.296875 
Q 39.59375 47.171875 37.8125 47.578125 
Q 36.03125 48 33.890625 48 
Q 26.265625 48 22.1875 43.046875 
Q 18.109375 38.09375 18.109375 28.8125 
L 18.109375 0 
L 9.078125 0 
L 9.078125 54.6875 
L 18.109375 54.6875 
L 18.109375 46.1875 
Q 20.953125 51.171875 25.484375 53.578125 
Q 30.03125 56 36.53125 56 
Q 37.453125 56 38.578125 55.875 
Q 39.703125 55.765625 41.0625 55.515625 
z
" id="DejaVuSans-72"/>
     <path d="M 8.5 21.578125 
L 8.5 54.6875 
L 17.484375 54.6875 
L 17.484375 21.921875 
Q 17.484375 14.15625 20.5 10.265625 
Q 23.53125 6.390625 29.59375 6.390625 
Q 36.859375 6.390625 41.078125 11.03125 
Q 45.3125 15.671875 45.3125 23.6875 
L 45.3125 54.6875 
L 54.296875 54.6875 
L 54.296875 0 
L 45.3125 0 
L 45.3125 8.40625 
Q 42.046875 3.421875 37.71875 1 
Q 33.40625 -1.421875 27.6875 -1.421875 
Q 18.265625 -1.421875 13.375 4.4375 
Q 8.5 10.296875 8.5 21.578125 
z
M 31.109375 56 
z
" id="DejaVuSans-75"/>
     <path d="M 48.78125 52.59375 
L 48.78125 44.1875 
Q 44.96875 46.296875 41.140625 47.34375 
Q 37.3125 48.390625 33.40625 48.390625 
Q 24.65625 48.390625 19.8125 42.84375 
Q 14.984375 37.3125 14.984375 27.296875 
Q 14.984375 17.28125 19.8125 11.734375 
Q 24.65625 6.203125 33.40625 6.203125 
Q 37.3125 6.203125 41.140625 7.25 
Q 44.96875 8.296875 48.78125 10.40625 
L 48.78125 2.09375 
Q 45.015625 0.34375 40.984375 -0.53125 
Q 36.96875 -1.421875 32.421875 -1.421875 
Q 20.0625 -1.421875 12.78125 6.34375 
Q 5.515625 14.109375 5.515625 27.296875 
Q 5.515625 40.671875 12.859375 48.328125 
Q 20.21875 56 33.015625 56 
Q 37.15625 56 41.109375 55.140625 
Q 45.0625 54.296875 48.78125 52.59375 
z
" id="DejaVuSans-63"/>
     <path d="M 56.203125 29.59375 
L 56.203125 25.203125 
L 14.890625 25.203125 
Q 15.484375 15.921875 20.484375 11.0625 
Q 25.484375 6.203125 34.421875 6.203125 
Q 39.59375 6.203125 44.453125 7.46875 
Q 49.3125 8.734375 54.109375 11.28125 
L 54.109375 2.78125 
Q 49.265625 0.734375 44.1875 -0.34375 
Q 39.109375 -1.421875 33.890625 -1.421875 
Q 20.796875 -1.421875 13.15625 6.1875 
Q 5.515625 13.8125 5.515625 26.8125 
Q 5.515625 40.234375 12.765625 48.109375 
Q 20.015625 56 32.328125 56 
Q 43.359375 56 49.78125 48.890625 
Q 56.203125 41.796875 56.203125 29.59375 
z
M 47.21875 32.234375 
Q 47.125 39.59375 43.09375 43.984375 
Q 39.0625 48.390625 32.421875 48.390625 
Q 24.90625 48.390625 20.390625 44.140625 
Q 15.875 39.890625 15.1875 32.171875 
z
" id="DejaVuSans-65"/>
     <path id="DejaVuSans-20"/>
     <path d="M 51.125 44 
L 36.921875 44 
L 32.8125 27.6875 
L 47.125 27.6875 
z
M 43.796875 71.78125 
L 38.71875 51.515625 
L 52.984375 51.515625 
L 58.109375 71.78125 
L 65.921875 71.78125 
L 60.890625 51.515625 
L 76.125 51.515625 
L 76.125 44 
L 58.984375 44 
L 54.984375 27.6875 
L 70.515625 27.6875 
L 70.515625 20.21875 
L 53.078125 20.21875 
L 48 0 
L 40.1875 0 
L 45.21875 20.21875 
L 30.90625 20.21875 
L 25.875 0 
L 18.015625 0 
L 23.09375 20.21875 
L 7.71875 20.21875 
L 7.71875 27.6875 
L 24.90625 27.6875 
L 29 44 
L 13.28125 44 
L 13.28125 51.515625 
L 30.90625 51.515625 
L 35.890625 71.78125 
z
" id="DejaVuSans-23"/>
     <path d="M 12.40625 8.296875 
L 28.515625 8.296875 
L 28.515625 63.921875 
L 10.984375 60.40625 
L 10.984375 69.390625 
L 28.421875 72.90625 
L 38.28125 72.90625 
L 38.28125 8.296875 
L 54.390625 8.296875 
L 54.390625 0 
L 12.40625 0 
z
" id="DejaVuSans-31"/>
     <path d="M 31.78125 66.40625 
Q 24.171875 66.40625 20.328125 58.90625 
Q 16.5 51.421875 16.5 36.375 
Q 16.5 21.390625 20.328125 13.890625 
Q 24.171875 6.390625 31.78125 6.390625 
Q 39.453125 6.390625 43.28125 13.890625 
Q 47.125 21.390625 47.125 36.375 
Q 47.125 51.421875 43.28125 58.90625 
Q 39.453125 66.40625 31.78125 66.40625 
z
M 31.78125 74.21875 
Q 44.046875 74.21875 50.515625 64.515625 
Q 56.984375 54.828125 56.984375 36.375 
Q 56.984375 17.96875 50.515625 8.265625 
Q 44.046875 -1.421875 31.78125 -1.421875 
Q 19.53125 -1.421875 13.0625 8.265625 
Q 6.59375 17.96875 6.59375 36.375 
Q 6.59375 54.828125 13.0625 64.515625 
Q 19.53125 74.21875 31.78125 74.21875 
z
" id="DejaVuSans-30"/>
     <path d="M 40.578125 39.3125 
Q 47.65625 37.796875 51.625 33 
Q 55.609375 28.21875 55.609375 21.1875 
Q 55.609375 10.40625 48.1875 4.484375 
Q 40.765625 -1.421875 27.09375 -1.421875 
Q 22.515625 -1.421875 17.65625 -0.515625 
Q 12.796875 0.390625 7.625 2.203125 
L 7.625 11.71875 
Q 11.71875 9.328125 16.59375 8.109375 
Q 21.484375 6.890625 26.8125 6.890625 
Q 36.078125 6.890625 40.9375 10.546875 
Q 45.796875 14.203125 45.796875 21.1875 
Q 45.796875 27.640625 41.28125 31.265625 
Q 36.765625 34.90625 28.71875 34.90625 
L 20.21875 34.90625 
L 20.21875 43.015625 
L 29.109375 43.015625 
Q 36.375 43.015625 40.234375 45.921875 
Q 44.09375 48.828125 44.09375 54.296875 
Q 44.09375 59.90625 40.109375 62.90625 
Q 36.140625 65.921875 28.71875 65.921875 
Q 24.65625 65.921875 20.015625 65.03125 
Q 15.375 64.15625 9.8125 62.3125 
L 9.8125 71.09375 
Q 15.4375 72.65625 20.34375 73.4375 
Q 25.25 74.21875 29.59375 74.21875 
Q 40.828125 74.21875 47.359375 69.109375 
Q 53.90625 64.015625 53.90625 55.328125 
Q 53.90625 49.265625 50.4375 45.09375 
Q 46.96875 40.921875 40.578125 39.3125 
z
" id="DejaVuSans-33"/>
     <path d="M 11.71875 12.40625 
L 22.015625 12.40625 
L 22.015625 4 
L 14.015625 -11.625 
L 7.71875 -11.625 
L 11.71875 4 
z
" id="DejaVuSans-2c"/>
     <path d="M 16.890625 72.90625 
L 62.984375 72.90625 
L 61.375 64.59375 
L 25.09375 64.59375 
L 20.90625 43.015625 
L 55.71875 43.015625 
L 54.109375 34.71875 
L 19.28125 34.71875 
L 14.203125 8.296875 
L 51.3125 8.296875 
L 49.703125 0 
L 2.6875 0 
z
" id="DejaVuSans-Oblique-45"/>
     <path d="M 16.890625 72.90625 
L 30.171875 72.90625 
L 50.296875 10.40625 
L 62.5 72.90625 
L 72.125 72.90625 
L 57.90625 0 
L 44.578125 0 
L 24.515625 62.890625 
L 12.3125 0 
L 2.6875 0 
z
" id="DejaVuSans-Oblique-4e"/>
     <path d="M 10.59375 45.40625 
L 73.1875 45.40625 
L 73.1875 37.203125 
L 10.59375 37.203125 
z
M 10.59375 25.484375 
L 73.1875 25.484375 
L 73.1875 17.1875 
L 10.59375 17.1875 
z
" id="DejaVuSans-3d"/>
     <path d="M 4.890625 31.390625 
L 31.203125 31.390625 
L 31.203125 23.390625 
L 4.890625 23.390625 
z
" id="DejaVuSans-2d"/>
     <path d="M 8.203125 72.90625 
L 55.078125 72.90625 
L 55.078125 68.703125 
L 28.609375 0 
L 18.3125 0 
L 43.21875 64.59375 
L 8.203125 64.59375 
z
" id="DejaVuSans-37"/>
     <path d="M 10.6875 12.40625 
L 21 12.40625 
L 21 0 
L 10.6875 0 
z
" id="DejaVuSans-2e"/>
     <path d="M 10.796875 72.90625 
L 49.515625 72.90625 
L 49.515625 64.59375 
L 19.828125 64.59375 
L 19.828125 46.734375 
Q 21.96875 47.46875 24.109375 47.828125 
Q 26.265625 48.1875 28.421875 48.1875 
Q 40.625 48.1875 47.75 41.5 
Q 54.890625 34.8125 54.890625 23.390625 
Q 54.890625 11.625 47.5625 5.09375 
Q 40.234375 -1.421875 26.90625 -1.421875 
Q 22.3125 -1.421875 17.546875 -0.640625 
Q 12.796875 0.140625 7.71875 1.703125 
L 7.71875 11.625 
Q 12.109375 9.234375 16.796875 8.0625 
Q 21.484375 6.890625 26.703125 6.890625 
Q 35.15625 6.890625 40.078125 11.328125 
Q 45.015625 15.765625 45.015625 23.390625 
Q 45.015625 31 40.078125 35.4375 
Q 35.15625 39.890625 26.703125 39.890625 
Q 22.75 39.890625 18.8125 39.015625 
Q 14.890625 38.140625 10.796875 36.28125 
z
" id="DejaVuSans-35"/>
     <path d="M 33.015625 40.375 
Q 26.375 40.375 22.484375 35.828125 
Q 18.609375 31.296875 18.609375 23.390625 
Q 18.609375 15.53125 22.484375 10.953125 
Q 26.375 6.390625 33.015625 6.390625 
Q 39.65625 6.390625 43.53125 10.953125 
Q 47.40625 15.53125 47.40625 23.390625 
Q 47.40625 31.296875 43.53125 35.828125 
Q 39.65625 40.375 33.015625 40.375 
z
M 52.59375 71.296875 
L 52.59375 62.3125 
Q 48.875 64.0625 45.09375 64.984375 
Q 41.3125 65.921875 37.59375 65.921875 
Q 27.828125 65.921875 22.671875 59.328125 
Q 17.53125 52.734375 16.796875 39.40625 
Q 19.671875 43.65625 24.015625 45.921875 
Q 28.375 48.1875 33.59375 48.1875 
Q 44.578125 48.1875 50.953125 41.515625 
Q 57.328125 34.859375 57.328125 23.390625 
Q 57.328125 12.15625 50.6875 5.359375 
Q 44.046875 -1.421875 33.015625 -1.421875 
Q 20.359375 -1.421875 13.671875 8.265625 
Q 6.984375 17.96875 6.984375 36.375 
Q 6.984375 53.65625 15.1875 63.9375 
Q 23.390625 74.21875 37.203125 74.21875 
Q 40.921875 74.21875 44.703125 73.484375 
Q 48.484375 72.75 52.59375 71.296875 
z
" id="DejaVuSans-36"/>
     <path d="M 28.609375 0 
L 0.78125 72.90625 
L 11.078125 72.90625 
L 34.1875 11.53125 
L 57.328125 72.90625 
L 67.578125 72.90625 
L 39.796875 0 
z
" id="DejaVuSans-56"/>
     <path d="M 34.1875 63.1875 
L 14.15625 8.203125 
L 54.25 8.203125 
z
M 0.78125 0 
L 28.609375 72.90625 
L 39.796875 72.90625 
L 67.578125 0 
z
" id="DejaVuSans-394"/>
     <path d="M 9.8125 72.90625 
L 55.90625 72.90625 
L 55.90625 64.59375 
L 19.671875 64.59375 
L 19.671875 43.015625 
L 54.390625 43.015625 
L 54.390625 34.71875 
L 19.671875 34.71875 
L 19.671875 8.296875 
L 56.78125 8.296875 
L 56.78125 0 
L 9.8125 0 
z
" id="DejaVuSans-45"/>
    </defs>
    <g transform="translate(59.388 35.472)scale(0.12 -0.12)">
     <use transform="translate(0 0.78125)" xlink:href="#DejaVuSans-53"/>
     <use transform="translate(63.476562 0.78125)" xlink:href="#DejaVuSans-74"/>
     <use transform="translate(102.685547 0.78125)" xlink:href="#DejaVuSans-72"/>
     <use transform="translate(143.798828 0.78125)" xlink:href="#DejaVuSans-75"/>
     <use transform="translate(207.177734 0.78125)" xlink:href="#DejaVuSans-63"/>
     <use transform="translate(262.158203 0.78125)" xlink:href="#DejaVuSans-74"/>
     <use transform="translate(301.367188 0.78125)" xlink:href="#DejaVuSans-75"/>
     <use transform="translate(364.746094 0.78125)" xlink:href="#DejaVuSans-72"/>
     <use transform="translate(405.859375 0.78125)" xlink:href="#DejaVuSans-65"/>
     <use transform="translate(467.382812 0.78125)" xlink:href="#DejaVuSans-20"/>
     <use transform="translate(499.169922 0.78125)" xlink:href="#DejaVuSans-23"/>
     <use transform="translate(582.958984 0.78125)" xlink:href="#DejaVuSans-31"/>
     <use transform="translate(646.582031 0.78125)" xlink:href="#DejaVuSans-30"/>
     <use transform="translate(710.205078 0.78125)" xlink:href="#DejaVuSans-33"/>
     <use transform="translate(773.828125 0.78125)" xlink:href="#DejaVuSans-31"/>
     <use transform="translate(837.451172 0.78125)" xlink:href="#DejaVuSans-30"/>
     <use transform="translate(901.074219 0.78125)" xlink:href="#DejaVuSans-2c"/>
     <use transform="translate(932.861328 0.78125)" xlink:href="#DejaVuSans-20"/>
     <use transform="translate(964.648438 0.78125)" xlink:href="#DejaVuSans-Oblique-45"/>
     <use transform="translate(1027.832031 -15.625)scale(0.7)" xlink:href="#DejaVuSans-Oblique-4e"/>
     <use transform="translate(1082.929688 0.78125)" xlink:href="#DejaVuSans-3d"/>
     <use transform="translate(1166.71875 0.78125)" xlink:href="#DejaVuSans-2d"/>
     <use transform="translate(1202.802734 0.78125)" xlink:href="#DejaVuSans-31"/>
     <use transform="translate(1266.425781 0.78125)" xlink:href="#DejaVuSans-37"/>
     <use transform="translate(1330.033203 0.78125)" xlink:href="#DejaVuSans-37"/>
     <use transform="translate(1393.65625 0.78125)" xlink:href="#DejaVuSans-2e"/>
     <use transform="translate(1425.443359 0.78125)" xlink:href="#DejaVuSans-35"/>
     <use transform="translate(1489.066406 0.78125)" xlink:href="#DejaVuSans-36"/>
     <use transform="translate(1552.689453 0.78125)" xlink:href="#DejaVuSans-65"/>
     <use transform="translate(1614.212891 0.78125)" xlink:href="#DejaVuSans-56"/>
     <use transform="translate(1682.621094 0.78125)" xlink:href="#DejaVuSans-2c"/>
     <use transform="translate(1714.408203 0.78125)" xlink:href="#DejaVuSans-20"/>
     <use transform="translate(1746.195312 0.78125)" xlink:href="#DejaVuSans-394"/>
     <use transform="translate(1814.603516 0.78125)" xlink:href="#DejaVuSans-45"/>
     <use transform="translate(1877.787109 0.78125)" xlink:href="#DejaVuSans-3d"/>
     <use transform="translate(1961.576172 0.78125)" xlink:href="#DejaVuSans-2d"/>
     <use transform="translate(1997.660156 0.78125)" xlink:href="#DejaVuSans-30"/>
     <use transform="translate(2061.283203 0.78125)" xlink:href="#DejaVuSans-2e"/>
     <use transform="translate(2093.070312 0.78125)" xlink:href="#DejaVuSans-33"/>
     <use transform="translate(2156.693359 0.78125)" xlink:href="#DejaVuSans-35"/>
     <use transform="translate(2220.316406 0.78125)" xlink:href="#DejaVuSans-65"/>
     <use transform="translate(2281.839844 0.78125)" xlink:href="#DejaVuSans-56"/>
    </g>
   </g>
  </g>
  <g id="axes_2">
   <g id="patch_2">
    <path clip-path="url(#p0a1ceb292f)" d="M 361.152 307.584 
L 361.152 306.5445 
L 361.152 42.5115 
L 361.152 41.472 
L 374.4576 41.472 
L 374.4576 42.5115 
L 374.4576 306.5445 
L 374.4576 307.584 
z
" style="fill:#ffffff;stroke:#ffffff;stroke-linejoin:miter;stroke-width:0.01;"/>
   </g>
   <image height="265.68" id="imagede173e005f" transform="scale(1 -1)translate(0 -265.68)" width="12.96" x="361.44" xlink:href="data:image/png;base64,
iVBORw0KGgoAAAANSUhEUgAAABIAAAFxCAYAAAB+2fgXAAAABHNCSVQICAgIfAhkiAAAAeVJREFUeJztncmNw0AQA2ckheYQNv9QLIfQ8ygsCgQ7AEI8+jAs2Puz/94F1LP2ReCsZ18bAWIeZ5XaGRBE7VnbptG+KI101FYyNSiQG2oRITXKNaX9uclOdi2XWjftVE32CZCO2ou5Bj1TcCBr/1zB9ge7Fq0Rg2NM9pvbtG+ua1QgsRYhDy0ISEiNc40BEibbSI0Coj5CBGtkpFbXJiAjNZlrwhuSOv2M1DjXbEdEciBt1JSDDQKKpmZr2rr2j0DBGpXaWEJq3bQzEPIS26r9J+Wzv9Tm8o3aajRXqc3VUXsApKNWjeZq0x4ABVNbm7lrszVigDqP5vIl2+eaT2yfRkL7g+dRcNPqjohkjaCvRVBq0H2U3LQrOJCx9kdTg4B8oxZzzTdqdYHEngjUCAPyUctN9sVRq2sTECW2UKNLd2jVtRmo1A6AhMmWaSRcR8nUdIHUuVb75zJS218EyEitro1At69pIdeSk30Lkw0FktNImGyZRhy1O5galmxd03LUsHWk06jUZiCq+5Wb1kZNN4+wJxJuWt8RAW5am2sYNZ9rYCBzZ3buPKJ2P5Yj4Toy3keyIyJbIxs1rml1byCA84gpch5RQNB7Q0qNMGq2Hy4BXdNR41yz/cEEJfZzUz96r9PoB0okjeQ8y9TkAAAAAElFTkSuQmCC" y="-41.76"/>
   <g id="matplotlib.axis_1"/>
   <g id="matplotlib.axis_2">
    <g id="ytick_1">
     <g id="line2d_1">
      <defs>
       <path d="M 0 0 
L 3.5 0 
" id="m42e63da639" style="stroke:#000000;stroke-width:0.8;"/>
      </defs>
      <g>
       <use style="stroke:#000000;stroke-width:0.8;" x="374.4576" xlink:href="#m42e63da639" y="293.536358"/>
      </g>
     </g>
     <g id="text_2">
      <!-- −8.5 -->
      <defs>
       <path d="M 10.59375 35.5 
L 73.1875 35.5 
L 73.1875 27.203125 
L 10.59375 27.203125 
z
" id="DejaVuSans-2212"/>
       <path d="M 31.78125 34.625 
Q 24.75 34.625 20.71875 30.859375 
Q 16.703125 27.09375 16.703125 20.515625 
Q 16.703125 13.921875 20.71875 10.15625 
Q 24.75 6.390625 31.78125 6.390625 
Q 38.8125 6.390625 42.859375 10.171875 
Q 46.921875 13.96875 46.921875 20.515625 
Q 46.921875 27.09375 42.890625 30.859375 
Q 38.875 34.625 31.78125 34.625 
z
M 21.921875 38.8125 
Q 15.578125 40.375 12.03125 44.71875 
Q 8.5 49.078125 8.5 55.328125 
Q 8.5 64.0625 14.71875 69.140625 
Q 20.953125 74.21875 31.78125 74.21875 
Q 42.671875 74.21875 48.875 69.140625 
Q 55.078125 64.0625 55.078125 55.328125 
Q 55.078125 49.078125 51.53125 44.71875 
Q 48 40.375 41.703125 38.8125 
Q 48.828125 37.15625 52.796875 32.3125 
Q 56.78125 27.484375 56.78125 20.515625 
Q 56.78125 9.90625 50.3125 4.234375 
Q 43.84375 -1.421875 31.78125 -1.421875 
Q 19.734375 -1.421875 13.25 4.234375 
Q 6.78125 9.90625 6.78125 20.515625 
Q 6.78125 27.484375 10.78125 32.3125 
Q 14.796875 37.15625 21.921875 38.8125 
z
M 18.3125 54.390625 
Q 18.3125 48.734375 21.84375 45.5625 
Q 25.390625 42.390625 31.78125 42.390625 
Q 38.140625 42.390625 41.71875 45.5625 
Q 45.3125 48.734375 45.3125 54.390625 
Q 45.3125 60.0625 41.71875 63.234375 
Q 38.140625 66.40625 31.78125 66.40625 
Q 25.390625 66.40625 21.84375 63.234375 
Q 18.3125 60.0625 18.3125 54.390625 
z
" id="DejaVuSans-38"/>
      </defs>
      <g transform="translate(381.4576 297.335577)scale(0.1 -0.1)">
       <use xlink:href="#DejaVuSans-2212"/>
       <use x="83.789062" xlink:href="#DejaVuSans-38"/>
       <use x="147.412109" xlink:href="#DejaVuSans-2e"/>
       <use x="179.199219" xlink:href="#DejaVuSans-35"/>
      </g>
     </g>
    </g>
    <g id="ytick_2">
     <g id="line2d_2">
      <g>
       <use style="stroke:#000000;stroke-width:0.8;" x="374.4576" xlink:href="#m42e63da639" y="241.137616"/>
      </g>
     </g>
     <g id="text_3">
      <!-- −8.0 -->
      <g transform="translate(381.4576 244.936834)scale(0.1 -0.1)">
       <use xlink:href="#DejaVuSans-2212"/>
       <use x="83.789062" xlink:href="#DejaVuSans-38"/>
       <use x="147.412109" xlink:href="#DejaVuSans-2e"/>
       <use x="179.199219" xlink:href="#DejaVuSans-30"/>
      </g>
     </g>
    </g>
    <g id="ytick_3">
     <g id="line2d_3">
      <g>
       <use style="stroke:#000000;stroke-width:0.8;" x="374.4576" xlink:href="#m42e63da639" y="188.738873"/>
      </g>
     </g>
     <g id="text_4">
      <!-- −7.5 -->
      <g transform="translate(381.4576 192.538092)scale(0.1 -0.1)">
       <use xlink:href="#DejaVuSans-2212"/>
       <use x="83.789062" xlink:href="#DejaVuSans-37"/>
       <use x="147.412109" xlink:href="#DejaVuSans-2e"/>
       <use x="179.199219" xlink:href="#DejaVuSans-35"/>
      </g>
     </g>
    </g>
    <g id="ytick_4">
     <g id="line2d_4">
      <g>
       <use style="stroke:#000000;stroke-width:0.8;" x="374.4576" xlink:href="#m42e63da639" y="136.340131"/>
      </g>
     </g>
     <g id="text_5">
      <!-- −7.0 -->
      <g transform="translate(381.4576 140.139349)scale(0.1 -0.1)">
       <use xlink:href="#DejaVuSans-2212"/>
       <use x="83.789062" xlink:href="#DejaVuSans-37"/>
       <use x="147.412109" xlink:href="#DejaVuSans-2e"/>
       <use x="179.199219" xlink:href="#DejaVuSans-30"/>
      </g>
     </g>
    </g>
    <g id="ytick_5">
     <g id="line2d_5">
      <g>
       <use style="stroke:#000000;stroke-width:0.8;" x="374.4576" xlink:href="#m42e63da639" y="83.941388"/>
      </g>
     </g>
     <g id="text_6">
      <!-- −6.5 -->
      <g transform="translate(381.4576 87.740607)scale(0.1 -0.1)">
       <use xlink:href="#DejaVuSans-2212"/>
       <use x="83.789062" xlink:href="#DejaVuSans-36"/>
       <use x="147.412109" xlink:href="#DejaVuSans-2e"/>
       <use x="179.199219" xlink:href="#DejaVuSans-35"/>
      </g>
     </g>
    </g>
    <g id="text_7">
     <!-- Energy [eV] -->
     <defs>
      <path d="M 54.890625 33.015625 
L 54.890625 0 
L 45.90625 0 
L 45.90625 32.71875 
Q 45.90625 40.484375 42.875 44.328125 
Q 39.84375 48.1875 33.796875 48.1875 
Q 26.515625 48.1875 22.3125 43.546875 
Q 18.109375 38.921875 18.109375 30.90625 
L 18.109375 0 
L 9.078125 0 
L 9.078125 54.6875 
L 18.109375 54.6875 
L 18.109375 46.1875 
Q 21.34375 51.125 25.703125 53.5625 
Q 30.078125 56 35.796875 56 
Q 45.21875 56 50.046875 50.171875 
Q 54.890625 44.34375 54.890625 33.015625 
z
" id="DejaVuSans-6e"/>
      <path d="M 45.40625 27.984375 
Q 45.40625 37.75 41.375 43.109375 
Q 37.359375 48.484375 30.078125 48.484375 
Q 22.859375 48.484375 18.828125 43.109375 
Q 14.796875 37.75 14.796875 27.984375 
Q 14.796875 18.265625 18.828125 12.890625 
Q 22.859375 7.515625 30.078125 7.515625 
Q 37.359375 7.515625 41.375 12.890625 
Q 45.40625 18.265625 45.40625 27.984375 
z
M 54.390625 6.78125 
Q 54.390625 -7.171875 48.1875 -13.984375 
Q 42 -20.796875 29.203125 -20.796875 
Q 24.46875 -20.796875 20.265625 -20.09375 
Q 16.0625 -19.390625 12.109375 -17.921875 
L 12.109375 -9.1875 
Q 16.0625 -11.328125 19.921875 -12.34375 
Q 23.78125 -13.375 27.78125 -13.375 
Q 36.625 -13.375 41.015625 -8.765625 
Q 45.40625 -4.15625 45.40625 5.171875 
L 45.40625 9.625 
Q 42.625 4.78125 38.28125 2.390625 
Q 33.9375 0 27.875 0 
Q 17.828125 0 11.671875 7.65625 
Q 5.515625 15.328125 5.515625 27.984375 
Q 5.515625 40.671875 11.671875 48.328125 
Q 17.828125 56 27.875 56 
Q 33.9375 56 38.28125 53.609375 
Q 42.625 51.21875 45.40625 46.390625 
L 45.40625 54.6875 
L 54.390625 54.6875 
z
" id="DejaVuSans-67"/>
      <path d="M 32.171875 -5.078125 
Q 28.375 -14.84375 24.75 -17.8125 
Q 21.140625 -20.796875 15.09375 -20.796875 
L 7.90625 -20.796875 
L 7.90625 -13.28125 
L 13.1875 -13.28125 
Q 16.890625 -13.28125 18.9375 -11.515625 
Q 21 -9.765625 23.484375 -3.21875 
L 25.09375 0.875 
L 2.984375 54.6875 
L 12.5 54.6875 
L 29.59375 11.921875 
L 46.6875 54.6875 
L 56.203125 54.6875 
z
" id="DejaVuSans-79"/>
      <path d="M 8.59375 75.984375 
L 29.296875 75.984375 
L 29.296875 69 
L 17.578125 69 
L 17.578125 -6.203125 
L 29.296875 -6.203125 
L 29.296875 -13.1875 
L 8.59375 -13.1875 
z
" id="DejaVuSans-5b"/>
      <path d="M 30.421875 75.984375 
L 30.421875 -13.1875 
L 9.71875 -13.1875 
L 9.71875 -6.203125 
L 21.390625 -6.203125 
L 21.390625 69 
L 9.71875 69 
L 9.71875 75.984375 
z
" id="DejaVuSans-5d"/>
     </defs>
     <g transform="translate(417.33885 204.108469)rotate(-90)scale(0.1 -0.1)">
      <use xlink:href="#DejaVuSans-45"/>
      <use x="63.183594" xlink:href="#DejaVuSans-6e"/>
      <use x="126.5625" xlink:href="#DejaVuSans-65"/>
      <use x="188.085938" xlink:href="#DejaVuSans-72"/>
      <use x="229.183594" xlink:href="#DejaVuSans-67"/>
      <use x="292.660156" xlink:href="#DejaVuSans-79"/>
      <use x="351.839844" xlink:href="#DejaVuSans-20"/>
      <use x="383.626953" xlink:href="#DejaVuSans-5b"/>
      <use x="422.640625" xlink:href="#DejaVuSans-65"/>
      <use x="484.164062" xlink:href="#DejaVuSans-56"/>
      <use x="552.572266" xlink:href="#DejaVuSans-5d"/>
     </g>
    </g>
   </g>
   <g id="patch_3">
    <path d="M 361.152 307.584 
L 361.152 306.5445 
L 361.152 42.5115 
L 361.152 41.472 
L 374.4576 41.472 
L 374.4576 42.5115 
L 374.4576 306.5445 
L 374.4576 307.584 
z
" style="fill:none;stroke:#000000;stroke-linejoin:miter;stroke-width:0.8;"/>
   </g>
  </g>
 </g>
 <defs>
  <clipPath id="p24d9ba9c7c">
   <rect height="266.112" width="285.696" x="57.6" y="41.472"/>
  </clipPath>
  <clipPath id="p0a1ceb292f">
   <rect height="266.112" width="13.3056" x="361.152" y="41.472"/>
  </clipPath>
 </defs>
</svg>
