<?xml version="1.0" encoding="utf-8" standalone="no"?>
<!DOCTYPE svg PUBLIC "-//W3C//DTD SVG 1.1//EN"
  "http://www.w3.org/Graphics/SVG/1.1/DTD/svg11.dtd">
<!-- Created with matplotlib (http://matplotlib.org/) -->
<svg height="345.6pt" version="1.1" viewBox="0 0 460.8 345.6" width="460.8pt" xmlns="http://www.w3.org/2000/svg" xmlns:xlink="http://www.w3.org/1999/xlink">
 <defs>
  <style type="text/css">
*{stroke-linecap:butt;stroke-linejoin:round;}
  </style>
 </defs>
 <g id="figure_1">
  <g id="patch_1">
   <path d="M 0 345.6 
L 460.8 345.6 
L 460.8 0 
L 0 0 
z
" style="fill:#ffffff;"/>
  </g>
  <g id="axes_1">
   <g id="CircleCollection_1">
    <path clip-path="url(#p0148cf043c)" d="M 197.074205 192.405754 
C 198.872901 192.405754 200.598169 191.691125 201.870039 190.419255 
C 203.14191 189.147385 203.856539 187.422116 203.856539 185.62342 
C 203.856539 183.824724 203.14191 182.099456 201.870039 180.827586 
C 200.598169 179.555716 198.872901 178.841087 197.074205 178.841087 
C 195.275509 178.841087 193.550241 179.555716 192.278371 180.827586 
C 191.006501 182.099456 190.291871 183.824724 190.291871 185.62342 
C 190.291871 187.422116 191.006501 189.147385 192.278371 190.419255 
C 193.550241 191.691125 195.275509 192.405754 197.074205 192.405754 
z
" style="fill:#31668e;"/>
    <path clip-path="url(#p0148cf043c)" d="M 91.699377 96.450786 
C 93.50063 96.450786 95.228351 95.73514 96.502029 94.461462 
C 97.775708 93.187783 98.491353 91.460062 98.491353 89.658809 
C 98.491353 87.857556 97.775708 86.129835 96.502029 84.856156 
C 95.228351 83.582478 93.50063 82.866832 91.699377 82.866832 
C 89.898123 82.866832 88.170402 83.582478 86.896724 84.856156 
C 85.623045 86.129835 84.9074 87.857556 84.9074 89.658809 
C 84.9074 91.460062 85.623045 93.187783 86.896724 94.461462 
C 88.170402 95.73514 89.898123 96.450786 91.699377 96.450786 
z
" style="fill:#2a778e;"/>
    <path clip-path="url(#p0148cf043c)" d="M 84.785167 202.044098 
C 86.569665 202.044098 88.281315 201.335109 89.543145 200.073279 
C 90.804976 198.811448 91.513965 197.099798 91.513965 195.3153 
C 91.513965 193.530802 90.804976 191.819152 89.543145 190.557321 
C 88.281315 189.29549 86.569665 188.586502 84.785167 188.586502 
C 83.000668 188.586502 81.289018 189.29549 80.027188 190.557321 
C 78.765357 191.819152 78.056368 193.530802 78.056368 195.3153 
C 78.056368 197.099798 78.765357 198.811448 80.027188 200.073279 
C 81.289018 201.335109 83.000668 202.044098 84.785167 202.044098 
z
" style="fill:#1f998a;"/>
    <path clip-path="url(#p0148cf043c)" d="M 295.044126 270.033366 
C 296.85266 270.033366 298.587364 269.314827 299.866191 268.036001 
C 301.145018 266.757174 301.863556 265.022469 301.863556 263.213935 
C 301.863556 261.405401 301.145018 259.670696 299.866191 258.391869 
C 298.587364 257.113043 296.85266 256.394504 295.044126 256.394504 
C 293.235591 256.394504 291.500887 257.113043 290.22206 258.391869 
C 288.943233 259.670696 288.224695 261.405401 288.224695 263.213935 
C 288.224695 265.022469 288.943233 266.757174 290.22206 268.036001 
C 291.500887 269.314827 293.235591 270.033366 295.044126 270.033366 
z
" style="fill:#23898e;"/>
    <path clip-path="url(#p0148cf043c)" d="M 329.783442 170.280212 
C 331.602079 170.280212 333.346475 169.55766 334.632445 168.271689 
C 335.918416 166.985718 336.640968 165.241323 336.640968 163.422685 
C 336.640968 161.604048 335.918416 159.859653 334.632445 158.573682 
C 333.346475 157.287711 331.602079 156.565159 329.783442 156.565159 
C 327.964804 156.565159 326.220409 157.287711 324.934438 158.573682 
C 323.648467 159.859653 322.925915 161.604048 322.925915 163.422685 
C 322.925915 165.241323 323.648467 166.985718 324.934438 168.271689 
C 326.220409 169.55766 327.964804 170.280212 329.783442 170.280212 
z
" style="fill:#1f9a8a;"/>
    <path clip-path="url(#p0148cf043c)" d="M 102.921471 163.215757 
C 104.713141 163.215757 106.43167 162.503919 107.698572 161.237017 
C 108.965473 159.970115 109.677311 158.251586 109.677311 156.459917 
C 109.677311 154.668247 108.965473 152.949718 107.698572 151.682816 
C 106.43167 150.415914 104.713141 149.704076 102.921471 149.704076 
C 101.129801 149.704076 99.411273 150.415914 98.144371 151.682816 
C 96.877469 152.949718 96.165631 154.668247 96.165631 156.459917 
C 96.165631 158.251586 96.877469 159.970115 98.144371 161.237017 
C 99.411273 162.503919 101.129801 163.215757 102.921471 163.215757 
z
" style="fill:#460a5d;"/>
    <path clip-path="url(#p0148cf043c)" d="M 89.836504 237.779798 
C 91.617637 237.779798 93.326058 237.072146 94.585509 235.812696 
C 95.844959 234.553245 96.552611 232.844824 96.552611 231.063692 
C 96.552611 229.282559 95.844959 227.574138 94.585509 226.314687 
C 93.326058 225.055237 91.617637 224.347585 89.836504 224.347585 
C 88.055372 224.347585 86.346951 225.055237 85.0875 226.314687 
C 83.82805 227.574138 83.120398 229.282559 83.120398 231.063692 
C 83.120398 232.844824 83.82805 234.553245 85.0875 235.812696 
C 86.346951 237.072146 88.055372 237.779798 89.836504 237.779798 
z
" style="fill:#2c738e;"/>
    <path clip-path="url(#p0148cf043c)" d="M 123.921071 67.735229 
C 125.730821 67.735229 127.466692 67.016208 128.746379 65.736521 
C 130.026065 64.456835 130.745086 62.720964 130.745086 60.911214 
C 130.745086 59.101464 130.026065 57.365593 128.746379 56.085907 
C 127.466692 54.80622 125.730821 54.087199 123.921071 54.087199 
C 122.111321 54.087199 120.375451 54.80622 119.095764 56.085907 
C 117.816078 57.365593 117.097056 59.101464 117.097056 60.911214 
C 117.097056 62.720964 117.816078 64.456835 119.095764 65.736521 
C 120.375451 67.016208 122.111321 67.735229 123.921071 67.735229 
z
" style="fill:#1fa188;"/>
    <path clip-path="url(#p0148cf043c)" d="M 174.827468 81.381515 
C 176.639777 81.381515 178.378103 80.661477 179.659599 79.379981 
C 180.941095 78.098485 181.661133 76.36016 181.661133 74.54785 
C 181.661133 72.735541 180.941095 70.997216 179.659599 69.715719 
C 178.378103 68.434223 176.639777 67.714185 174.827468 67.714185 
C 173.015159 67.714185 171.276833 68.434223 169.995337 69.715719 
C 168.713841 70.997216 167.993803 72.735541 167.993803 74.54785 
C 167.993803 76.36016 168.713841 78.098485 169.995337 79.379981 
C 171.276833 80.661477 173.015159 81.381515 174.827468 81.381515 
z
" style="fill:#482173;"/>
    <path clip-path="url(#p0148cf043c)" d="M 187.952485 123.112185 
C 189.758256 123.112185 191.49031 122.394745 192.767183 121.117872 
C 194.044056 119.840999 194.761497 118.108944 194.761497 116.303173 
C 194.761497 114.497402 194.044056 112.765347 192.767183 111.488474 
C 191.49031 110.211601 189.758256 109.494161 187.952485 109.494161 
C 186.146714 109.494161 184.414659 110.211601 183.137786 111.488474 
C 181.860913 112.765347 181.143472 114.497402 181.143472 116.303173 
C 181.143472 118.108944 181.860913 119.840999 183.137786 121.117872 
C 184.414659 122.394745 186.146714 123.112185 187.952485 123.112185 
z
" style="fill:#34618d;"/>
    <path clip-path="url(#p0148cf043c)" d="M 241.013928 133.329902 
C 242.823573 133.329902 244.559343 132.610922 245.838955 131.33131 
C 247.118567 130.051698 247.837547 128.315927 247.837547 126.506282 
C 247.837547 124.696638 247.118567 122.960867 245.838955 121.681255 
C 244.559343 120.401643 242.823573 119.682663 241.013928 119.682663 
C 239.204283 119.682663 237.468513 120.401643 236.1889 121.681255 
C 234.909288 122.960867 234.190309 124.696638 234.190309 126.506282 
C 234.190309 128.315927 234.909288 130.051698 236.1889 131.33131 
C 237.468513 132.610922 239.204283 133.329902 241.013928 133.329902 
z
" style="fill:#472c7a;"/>
    <path clip-path="url(#p0148cf043c)" d="M 268.134126 70.891777 
C 269.958553 70.891777 271.708502 70.166924 272.998567 68.876859 
C 274.288631 67.586795 275.013484 65.836846 275.013484 64.012419 
C 275.013484 62.187992 274.288631 60.438043 272.998567 59.147978 
C 271.708502 57.857914 269.958553 57.133061 268.134126 57.133061 
C 266.309699 57.133061 264.55975 57.857914 263.269685 59.147978 
C 261.979621 60.438043 261.254768 62.187992 261.254768 64.012419 
C 261.254768 65.836846 261.979621 67.586795 263.269685 68.876859 
C 264.55975 70.166924 266.309699 70.891777 268.134126 70.891777 
z
" style="fill:#20928c;"/>
    <path clip-path="url(#p0148cf043c)" d="M 211.796356 232.547794 
C 213.593997 232.547794 215.318252 231.833584 216.589376 230.562461 
C 217.860499 229.291337 218.574709 227.567081 218.574709 225.769441 
C 218.574709 223.971801 217.860499 222.247545 216.589376 220.976422 
C 215.318252 219.705298 213.593997 218.991088 211.796356 218.991088 
C 209.998716 218.991088 208.274461 219.705298 207.003337 220.976422 
C 205.732214 222.247545 205.018004 223.971801 205.018004 225.769441 
C 205.018004 227.567081 205.732214 229.291337 207.003337 230.562461 
C 208.274461 231.833584 209.998716 232.547794 211.796356 232.547794 
z
" style="fill:#433e85;"/>
    <path clip-path="url(#p0148cf043c)" d="M 129.371669 263.53986 
C 131.155102 263.53986 132.86573 262.831295 134.126808 261.570217 
C 135.387885 260.30914 136.096451 258.598511 136.096451 256.815078 
C 136.096451 255.031645 135.387885 253.321017 134.126808 252.059939 
C 132.86573 250.798862 131.155102 250.090296 129.371669 250.090296 
C 127.588236 250.090296 125.877608 250.798862 124.61653 252.059939 
C 123.355453 253.321017 122.646887 255.031645 122.646887 256.815078 
C 122.646887 258.598511 123.355453 260.30914 124.61653 261.570217 
C 125.877608 262.831295 127.588236 263.53986 129.371669 263.53986 
z
" style="fill:#26828e;"/>
    <path clip-path="url(#p0148cf043c)" d="M 244.885441 173.148882 
C 246.691157 173.148882 248.423159 172.431463 249.699993 171.154629 
C 250.976828 169.877795 251.694246 168.145793 251.694246 166.340077 
C 251.694246 164.534361 250.976828 162.802359 249.699993 161.525524 
C 248.423159 160.24869 246.691157 159.531272 244.885441 159.531272 
C 243.079725 159.531272 241.347723 160.24869 240.070889 161.525524 
C 238.794054 162.802359 238.076636 164.534361 238.076636 166.340077 
C 238.076636 168.145793 238.794054 169.877795 240.070889 171.154629 
C 241.347723 172.431463 243.079725 173.148882 244.885441 173.148882 
z
" style="fill:#440154;"/>
    <path clip-path="url(#p0148cf043c)" d="M 177.001843 263.856108 
C 178.792006 263.856108 180.50909 263.144869 181.774926 261.879032 
C 183.040763 260.613196 183.752002 258.896112 183.752002 257.105949 
C 183.752002 255.315785 183.040763 253.598702 181.774926 252.332865 
C 180.50909 251.067029 178.792006 250.355789 177.001843 250.355789 
C 175.21168 250.355789 173.494596 251.067029 172.228759 252.332865 
C 170.962923 253.598702 170.251684 255.315785 170.251684 257.105949 
C 170.251684 258.896112 170.962923 260.613196 172.228759 261.879032 
C 173.494596 263.144869 175.21168 263.856108 177.001843 263.856108 
z
" style="fill:#20938c;"/>
    <path clip-path="url(#p0148cf043c)" d="M 268.923623 235.922359 
C 270.729413 235.922359 272.461486 235.20491 273.738373 233.928024 
C 275.015259 232.651137 275.732707 230.919065 275.732707 229.113274 
C 275.732707 227.307484 275.015259 225.575411 273.738373 224.298525 
C 272.461486 223.021638 270.729413 222.30419 268.923623 222.30419 
C 267.117833 222.30419 265.38576 223.021638 264.108874 224.298525 
C 262.831987 225.575411 262.114539 227.307484 262.114539 229.113274 
C 262.114539 230.919065 262.831987 232.651137 264.108874 233.928024 
C 265.38576 235.20491 267.117833 235.922359 268.923623 235.922359 
z
" style="fill:#46337f;"/>
    <path clip-path="url(#p0148cf043c)" d="M 286.484672 109.487895 
C 288.304748 109.487895 290.050525 108.764771 291.337513 107.477782 
C 292.624502 106.190794 293.347626 104.445018 293.347626 102.624941 
C 293.347626 100.804864 292.624502 99.059088 291.337513 97.772099 
C 290.050525 96.485111 288.304748 95.761987 286.484672 95.761987 
C 284.664595 95.761987 282.918819 96.485111 281.63183 97.772099 
C 280.344842 99.059088 279.621717 100.804864 279.621717 102.624941 
C 279.621717 104.445018 280.344842 106.190794 281.63183 107.477782 
C 282.918819 108.764771 284.664595 109.487895 286.484672 109.487895 
z
" style="fill:#482979;"/>
    <path clip-path="url(#p0148cf043c)" d="M 329.777005 133.548368 
C 331.599337 133.548368 333.347277 132.824348 334.63586 131.535764 
C 335.924444 130.247181 336.648464 128.499241 336.648464 126.676909 
C 336.648464 124.854577 335.924444 123.106637 334.63586 121.818054 
C 333.347277 120.52947 331.599337 119.80545 329.777005 119.80545 
C 327.954672 119.80545 326.206733 120.52947 324.918149 121.818054 
C 323.629566 123.106637 322.905546 124.854577 322.905546 126.676909 
C 322.905546 128.499241 323.629566 130.247181 324.918149 131.535764 
C 326.206733 132.824348 327.954672 133.548368 329.777005 133.548368 
z
" style="fill:#1f998a;"/>
    <path clip-path="url(#p0148cf043c)" d="M 288.995371 196.312515 
C 290.805937 196.312515 292.542591 195.59317 293.822854 194.312906 
C 295.103118 193.032643 295.822463 191.295989 295.822463 189.485423 
C 295.822463 187.674857 295.103118 185.938203 293.822854 184.65794 
C 292.542591 183.377676 290.805937 182.658331 288.995371 182.658331 
C 287.184805 182.658331 285.448152 183.377676 284.167888 184.65794 
C 282.887625 185.938203 282.168279 187.674857 282.168279 189.485423 
C 282.168279 191.295989 282.887625 193.032643 284.167888 194.312906 
C 285.448152 195.59317 287.184805 196.312515 288.995371 196.312515 
z
" style="fill:#424186;"/>
    <path clip-path="url(#p0148cf043c)" d="M 321.522644 301.797447 
C 323.337419 301.797447 325.07811 301.076429 326.36135 299.793189 
C 327.64459 298.50995 328.365608 296.769258 328.365608 294.954483 
C 328.365608 293.139708 327.64459 291.399017 326.36135 290.115777 
C 325.07811 288.832537 323.337419 288.111519 321.522644 288.111519 
C 319.707868 288.111519 317.967177 288.832537 316.683937 290.115777 
C 315.400697 291.399017 314.67968 293.139708 314.67968 294.954483 
C 314.67968 296.769258 315.400697 298.50995 316.683937 299.793189 
C 317.967177 301.076429 319.707868 301.797447 321.522644 301.797447 
z
" style="fill:#fde725;"/>
    <path clip-path="url(#p0148cf043c)" d="M 158.220685 160.057925 
C 160.018616 160.057925 161.743149 159.343599 163.014478 158.072271 
C 164.285806 156.800942 165.000132 155.076409 165.000132 153.278478 
C 165.000132 151.480548 164.285806 149.756015 163.014478 148.484686 
C 161.743149 147.213358 160.018616 146.499032 158.220685 146.499032 
C 156.422755 146.499032 154.698222 147.213358 153.426893 148.484686 
C 152.155564 149.756015 151.441239 151.480548 151.441239 153.278478 
C 151.441239 155.076409 152.155564 156.800942 153.426893 158.072271 
C 154.698222 159.343599 156.422755 160.057925 158.220685 160.057925 
z
" style="fill:#30698e;"/>
    <path clip-path="url(#p0148cf043c)" d="M 71.105281 130.387326 
C 72.898776 130.387326 74.619056 129.674762 75.887249 128.40657 
C 77.155441 127.138377 77.868004 125.418097 77.868004 123.624602 
C 77.868004 121.831107 77.155441 120.110827 75.887249 118.842635 
C 74.619056 117.574442 72.898776 116.861879 71.105281 116.861879 
C 69.311786 116.861879 67.591506 117.574442 66.323314 118.842635 
C 65.055121 120.110827 64.342558 121.831107 64.342558 123.624602 
C 64.342558 125.418097 65.055121 127.138377 66.323314 128.40657 
C 67.591506 129.674762 69.311786 130.387326 71.105281 130.387326 
z
" style="fill:#20a486;"/>
    <path clip-path="url(#p0148cf043c)" d="M 221.891499 60.970777 
C 223.712744 60.970777 225.45964 60.247189 226.747455 58.959374 
C 228.035269 57.67156 228.758857 55.924663 228.758857 54.103419 
C 228.758857 52.282174 228.035269 50.535278 226.747455 49.247464 
C 225.45964 47.959649 223.712744 47.236061 221.891499 47.236061 
C 220.070255 47.236061 218.323358 47.959649 217.035544 49.247464 
C 215.74773 50.535278 215.024141 52.282174 215.024141 54.103419 
C 215.024141 55.924663 215.74773 57.67156 217.035544 58.959374 
C 218.323358 60.247189 220.070255 60.970777 221.891499 60.970777 
z
" style="fill:#1f9e89;"/>
   </g>
   <g id="text_1">
    <!-- Structure #10745, $E_N$=-183.52eV, ΔE=0.11eV -->
    <defs>
     <path d="M 53.515625 70.515625 
L 53.515625 60.890625 
Q 47.90625 63.578125 42.921875 64.890625 
Q 37.9375 66.21875 33.296875 66.21875 
Q 25.25 66.21875 20.875 63.09375 
Q 16.5 59.96875 16.5 54.203125 
Q 16.5 49.359375 19.40625 46.890625 
Q 22.3125 44.4375 30.421875 42.921875 
L 36.375 41.703125 
Q 47.40625 39.59375 52.65625 34.296875 
Q 57.90625 29 57.90625 20.125 
Q 57.90625 9.515625 50.796875 4.046875 
Q 43.703125 -1.421875 29.984375 -1.421875 
Q 24.8125 -1.421875 18.96875 -0.25 
Q 13.140625 0.921875 6.890625 3.21875 
L 6.890625 13.375 
Q 12.890625 10.015625 18.65625 8.296875 
Q 24.421875 6.59375 29.984375 6.59375 
Q 38.421875 6.59375 43.015625 9.90625 
Q 47.609375 13.234375 47.609375 19.390625 
Q 47.609375 24.75 44.3125 27.78125 
Q 41.015625 30.8125 33.5 32.328125 
L 27.484375 33.5 
Q 16.453125 35.6875 11.515625 40.375 
Q 6.59375 45.0625 6.59375 53.421875 
Q 6.59375 63.09375 13.40625 68.65625 
Q 20.21875 74.21875 32.171875 74.21875 
Q 37.3125 74.21875 42.625 73.28125 
Q 47.953125 72.359375 53.515625 70.515625 
z
" id="DejaVuSans-53"/>
     <path d="M 18.3125 70.21875 
L 18.3125 54.6875 
L 36.8125 54.6875 
L 36.8125 47.703125 
L 18.3125 47.703125 
L 18.3125 18.015625 
Q 18.3125 11.328125 20.140625 9.421875 
Q 21.96875 7.515625 27.59375 7.515625 
L 36.8125 7.515625 
L 36.8125 0 
L 27.59375 0 
Q 17.1875 0 13.234375 3.875 
Q 9.28125 7.765625 9.28125 18.015625 
L 9.28125 47.703125 
L 2.6875 47.703125 
L 2.6875 54.6875 
L 9.28125 54.6875 
L 9.28125 70.21875 
z
" id="DejaVuSans-74"/>
     <path d="M 41.109375 46.296875 
Q 39.59375 47.171875 37.8125 47.578125 
Q 36.03125 48 33.890625 48 
Q 26.265625 48 22.1875 43.046875 
Q 18.109375 38.09375 18.109375 28.8125 
L 18.109375 0 
L 9.078125 0 
L 9.078125 54.6875 
L 18.109375 54.6875 
L 18.109375 46.1875 
Q 20.953125 51.171875 25.484375 53.578125 
Q 30.03125 56 36.53125 56 
Q 37.453125 56 38.578125 55.875 
Q 39.703125 55.765625 41.0625 55.515625 
z
" id="DejaVuSans-72"/>
     <path d="M 8.5 21.578125 
L 8.5 54.6875 
L 17.484375 54.6875 
L 17.484375 21.921875 
Q 17.484375 14.15625 20.5 10.265625 
Q 23.53125 6.390625 29.59375 6.390625 
Q 36.859375 6.390625 41.078125 11.03125 
Q 45.3125 15.671875 45.3125 23.6875 
L 45.3125 54.6875 
L 54.296875 54.6875 
L 54.296875 0 
L 45.3125 0 
L 45.3125 8.40625 
Q 42.046875 3.421875 37.71875 1 
Q 33.40625 -1.421875 27.6875 -1.421875 
Q 18.265625 -1.421875 13.375 4.4375 
Q 8.5 10.296875 8.5 21.578125 
z
M 31.109375 56 
z
" id="DejaVuSans-75"/>
     <path d="M 48.78125 52.59375 
L 48.78125 44.1875 
Q 44.96875 46.296875 41.140625 47.34375 
Q 37.3125 48.390625 33.40625 48.390625 
Q 24.65625 48.390625 19.8125 42.84375 
Q 14.984375 37.3125 14.984375 27.296875 
Q 14.984375 17.28125 19.8125 11.734375 
Q 24.65625 6.203125 33.40625 6.203125 
Q 37.3125 6.203125 41.140625 7.25 
Q 44.96875 8.296875 48.78125 10.40625 
L 48.78125 2.09375 
Q 45.015625 0.34375 40.984375 -0.53125 
Q 36.96875 -1.421875 32.421875 -1.421875 
Q 20.0625 -1.421875 12.78125 6.34375 
Q 5.515625 14.109375 5.515625 27.296875 
Q 5.515625 40.671875 12.859375 48.328125 
Q 20.21875 56 33.015625 56 
Q 37.15625 56 41.109375 55.140625 
Q 45.0625 54.296875 48.78125 52.59375 
z
" id="DejaVuSans-63"/>
     <path d="M 56.203125 29.59375 
L 56.203125 25.203125 
L 14.890625 25.203125 
Q 15.484375 15.921875 20.484375 11.0625 
Q 25.484375 6.203125 34.421875 6.203125 
Q 39.59375 6.203125 44.453125 7.46875 
Q 49.3125 8.734375 54.109375 11.28125 
L 54.109375 2.78125 
Q 49.265625 0.734375 44.1875 -0.34375 
Q 39.109375 -1.421875 33.890625 -1.421875 
Q 20.796875 -1.421875 13.15625 6.1875 
Q 5.515625 13.8125 5.515625 26.8125 
Q 5.515625 40.234375 12.765625 48.109375 
Q 20.015625 56 32.328125 56 
Q 43.359375 56 49.78125 48.890625 
Q 56.203125 41.796875 56.203125 29.59375 
z
M 47.21875 32.234375 
Q 47.125 39.59375 43.09375 43.984375 
Q 39.0625 48.390625 32.421875 48.390625 
Q 24.90625 48.390625 20.390625 44.140625 
Q 15.875 39.890625 15.1875 32.171875 
z
" id="DejaVuSans-65"/>
     <path id="DejaVuSans-20"/>
     <path d="M 51.125 44 
L 36.921875 44 
L 32.8125 27.6875 
L 47.125 27.6875 
z
M 43.796875 71.78125 
L 38.71875 51.515625 
L 52.984375 51.515625 
L 58.109375 71.78125 
L 65.921875 71.78125 
L 60.890625 51.515625 
L 76.125 51.515625 
L 76.125 44 
L 58.984375 44 
L 54.984375 27.6875 
L 70.515625 27.6875 
L 70.515625 20.21875 
L 53.078125 20.21875 
L 48 0 
L 40.1875 0 
L 45.21875 20.21875 
L 30.90625 20.21875 
L 25.875 0 
L 18.015625 0 
L 23.09375 20.21875 
L 7.71875 20.21875 
L 7.71875 27.6875 
L 24.90625 27.6875 
L 29 44 
L 13.28125 44 
L 13.28125 51.515625 
L 30.90625 51.515625 
L 35.890625 71.78125 
z
" id="DejaVuSans-23"/>
     <path d="M 12.40625 8.296875 
L 28.515625 8.296875 
L 28.515625 63.921875 
L 10.984375 60.40625 
L 10.984375 69.390625 
L 28.421875 72.90625 
L 38.28125 72.90625 
L 38.28125 8.296875 
L 54.390625 8.296875 
L 54.390625 0 
L 12.40625 0 
z
" id="DejaVuSans-31"/>
     <path d="M 31.78125 66.40625 
Q 24.171875 66.40625 20.328125 58.90625 
Q 16.5 51.421875 16.5 36.375 
Q 16.5 21.390625 20.328125 13.890625 
Q 24.171875 6.390625 31.78125 6.390625 
Q 39.453125 6.390625 43.28125 13.890625 
Q 47.125 21.390625 47.125 36.375 
Q 47.125 51.421875 43.28125 58.90625 
Q 39.453125 66.40625 31.78125 66.40625 
z
M 31.78125 74.21875 
Q 44.046875 74.21875 50.515625 64.515625 
Q 56.984375 54.828125 56.984375 36.375 
Q 56.984375 17.96875 50.515625 8.265625 
Q 44.046875 -1.421875 31.78125 -1.421875 
Q 19.53125 -1.421875 13.0625 8.265625 
Q 6.59375 17.96875 6.59375 36.375 
Q 6.59375 54.828125 13.0625 64.515625 
Q 19.53125 74.21875 31.78125 74.21875 
z
" id="DejaVuSans-30"/>
     <path d="M 8.203125 72.90625 
L 55.078125 72.90625 
L 55.078125 68.703125 
L 28.609375 0 
L 18.3125 0 
L 43.21875 64.59375 
L 8.203125 64.59375 
z
" id="DejaVuSans-37"/>
     <path d="M 37.796875 64.3125 
L 12.890625 25.390625 
L 37.796875 25.390625 
z
M 35.203125 72.90625 
L 47.609375 72.90625 
L 47.609375 25.390625 
L 58.015625 25.390625 
L 58.015625 17.1875 
L 47.609375 17.1875 
L 47.609375 0 
L 37.796875 0 
L 37.796875 17.1875 
L 4.890625 17.1875 
L 4.890625 26.703125 
z
" id="DejaVuSans-34"/>
     <path d="M 10.796875 72.90625 
L 49.515625 72.90625 
L 49.515625 64.59375 
L 19.828125 64.59375 
L 19.828125 46.734375 
Q 21.96875 47.46875 24.109375 47.828125 
Q 26.265625 48.1875 28.421875 48.1875 
Q 40.625 48.1875 47.75 41.5 
Q 54.890625 34.8125 54.890625 23.390625 
Q 54.890625 11.625 47.5625 5.09375 
Q 40.234375 -1.421875 26.90625 -1.421875 
Q 22.3125 -1.421875 17.546875 -0.640625 
Q 12.796875 0.140625 7.71875 1.703125 
L 7.71875 11.625 
Q 12.109375 9.234375 16.796875 8.0625 
Q 21.484375 6.890625 26.703125 6.890625 
Q 35.15625 6.890625 40.078125 11.328125 
Q 45.015625 15.765625 45.015625 23.390625 
Q 45.015625 31 40.078125 35.4375 
Q 35.15625 39.890625 26.703125 39.890625 
Q 22.75 39.890625 18.8125 39.015625 
Q 14.890625 38.140625 10.796875 36.28125 
z
" id="DejaVuSans-35"/>
     <path d="M 11.71875 12.40625 
L 22.015625 12.40625 
L 22.015625 4 
L 14.015625 -11.625 
L 7.71875 -11.625 
L 11.71875 4 
z
" id="DejaVuSans-2c"/>
     <path d="M 16.890625 72.90625 
L 62.984375 72.90625 
L 61.375 64.59375 
L 25.09375 64.59375 
L 20.90625 43.015625 
L 55.71875 43.015625 
L 54.109375 34.71875 
L 19.28125 34.71875 
L 14.203125 8.296875 
L 51.3125 8.296875 
L 49.703125 0 
L 2.6875 0 
z
" id="DejaVuSans-Oblique-45"/>
     <path d="M 16.890625 72.90625 
L 30.171875 72.90625 
L 50.296875 10.40625 
L 62.5 72.90625 
L 72.125 72.90625 
L 57.90625 0 
L 44.578125 0 
L 24.515625 62.890625 
L 12.3125 0 
L 2.6875 0 
z
" id="DejaVuSans-Oblique-4e"/>
     <path d="M 10.59375 45.40625 
L 73.1875 45.40625 
L 73.1875 37.203125 
L 10.59375 37.203125 
z
M 10.59375 25.484375 
L 73.1875 25.484375 
L 73.1875 17.1875 
L 10.59375 17.1875 
z
" id="DejaVuSans-3d"/>
     <path d="M 4.890625 31.390625 
L 31.203125 31.390625 
L 31.203125 23.390625 
L 4.890625 23.390625 
z
" id="DejaVuSans-2d"/>
     <path d="M 31.78125 34.625 
Q 24.75 34.625 20.71875 30.859375 
Q 16.703125 27.09375 16.703125 20.515625 
Q 16.703125 13.921875 20.71875 10.15625 
Q 24.75 6.390625 31.78125 6.390625 
Q 38.8125 6.390625 42.859375 10.171875 
Q 46.921875 13.96875 46.921875 20.515625 
Q 46.921875 27.09375 42.890625 30.859375 
Q 38.875 34.625 31.78125 34.625 
z
M 21.921875 38.8125 
Q 15.578125 40.375 12.03125 44.71875 
Q 8.5 49.078125 8.5 55.328125 
Q 8.5 64.0625 14.71875 69.140625 
Q 20.953125 74.21875 31.78125 74.21875 
Q 42.671875 74.21875 48.875 69.140625 
Q 55.078125 64.0625 55.078125 55.328125 
Q 55.078125 49.078125 51.53125 44.71875 
Q 48 40.375 41.703125 38.8125 
Q 48.828125 37.15625 52.796875 32.3125 
Q 56.78125 27.484375 56.78125 20.515625 
Q 56.78125 9.90625 50.3125 4.234375 
Q 43.84375 -1.421875 31.78125 -1.421875 
Q 19.734375 -1.421875 13.25 4.234375 
Q 6.78125 9.90625 6.78125 20.515625 
Q 6.78125 27.484375 10.78125 32.3125 
Q 14.796875 37.15625 21.921875 38.8125 
z
M 18.3125 54.390625 
Q 18.3125 48.734375 21.84375 45.5625 
Q 25.390625 42.390625 31.78125 42.390625 
Q 38.140625 42.390625 41.71875 45.5625 
Q 45.3125 48.734375 45.3125 54.390625 
Q 45.3125 60.0625 41.71875 63.234375 
Q 38.140625 66.40625 31.78125 66.40625 
Q 25.390625 66.40625 21.84375 63.234375 
Q 18.3125 60.0625 18.3125 54.390625 
z
" id="DejaVuSans-38"/>
     <path d="M 40.578125 39.3125 
Q 47.65625 37.796875 51.625 33 
Q 55.609375 28.21875 55.609375 21.1875 
Q 55.609375 10.40625 48.1875 4.484375 
Q 40.765625 -1.421875 27.09375 -1.421875 
Q 22.515625 -1.421875 17.65625 -0.515625 
Q 12.796875 0.390625 7.625 2.203125 
L 7.625 11.71875 
Q 11.71875 9.328125 16.59375 8.109375 
Q 21.484375 6.890625 26.8125 6.890625 
Q 36.078125 6.890625 40.9375 10.546875 
Q 45.796875 14.203125 45.796875 21.1875 
Q 45.796875 27.640625 41.28125 31.265625 
Q 36.765625 34.90625 28.71875 34.90625 
L 20.21875 34.90625 
L 20.21875 43.015625 
L 29.109375 43.015625 
Q 36.375 43.015625 40.234375 45.921875 
Q 44.09375 48.828125 44.09375 54.296875 
Q 44.09375 59.90625 40.109375 62.90625 
Q 36.140625 65.921875 28.71875 65.921875 
Q 24.65625 65.921875 20.015625 65.03125 
Q 15.375 64.15625 9.8125 62.3125 
L 9.8125 71.09375 
Q 15.4375 72.65625 20.34375 73.4375 
Q 25.25 74.21875 29.59375 74.21875 
Q 40.828125 74.21875 47.359375 69.109375 
Q 53.90625 64.015625 53.90625 55.328125 
Q 53.90625 49.265625 50.4375 45.09375 
Q 46.96875 40.921875 40.578125 39.3125 
z
" id="DejaVuSans-33"/>
     <path d="M 10.6875 12.40625 
L 21 12.40625 
L 21 0 
L 10.6875 0 
z
" id="DejaVuSans-2e"/>
     <path d="M 19.1875 8.296875 
L 53.609375 8.296875 
L 53.609375 0 
L 7.328125 0 
L 7.328125 8.296875 
Q 12.9375 14.109375 22.625 23.890625 
Q 32.328125 33.6875 34.8125 36.53125 
Q 39.546875 41.84375 41.421875 45.53125 
Q 43.3125 49.21875 43.3125 52.78125 
Q 43.3125 58.59375 39.234375 62.25 
Q 35.15625 65.921875 28.609375 65.921875 
Q 23.96875 65.921875 18.8125 64.3125 
Q 13.671875 62.703125 7.8125 59.421875 
L 7.8125 69.390625 
Q 13.765625 71.78125 18.9375 73 
Q 24.125 74.21875 28.421875 74.21875 
Q 39.75 74.21875 46.484375 68.546875 
Q 53.21875 62.890625 53.21875 53.421875 
Q 53.21875 48.921875 51.53125 44.890625 
Q 49.859375 40.875 45.40625 35.40625 
Q 44.1875 33.984375 37.640625 27.21875 
Q 31.109375 20.453125 19.1875 8.296875 
z
" id="DejaVuSans-32"/>
     <path d="M 28.609375 0 
L 0.78125 72.90625 
L 11.078125 72.90625 
L 34.1875 11.53125 
L 57.328125 72.90625 
L 67.578125 72.90625 
L 39.796875 0 
z
" id="DejaVuSans-56"/>
     <path d="M 34.1875 63.1875 
L 14.15625 8.203125 
L 54.25 8.203125 
z
M 0.78125 0 
L 28.609375 72.90625 
L 39.796875 72.90625 
L 67.578125 0 
z
" id="DejaVuSans-394"/>
     <path d="M 9.8125 72.90625 
L 55.90625 72.90625 
L 55.90625 64.59375 
L 19.671875 64.59375 
L 19.671875 43.015625 
L 54.390625 43.015625 
L 54.390625 34.71875 
L 19.671875 34.71875 
L 19.671875 8.296875 
L 56.78125 8.296875 
L 56.78125 0 
L 9.8125 0 
z
" id="DejaVuSans-45"/>
    </defs>
    <g transform="translate(61.548 35.472)scale(0.12 -0.12)">
     <use transform="translate(0 0.78125)" xlink:href="#DejaVuSans-53"/>
     <use transform="translate(63.476562 0.78125)" xlink:href="#DejaVuSans-74"/>
     <use transform="translate(102.685547 0.78125)" xlink:href="#DejaVuSans-72"/>
     <use transform="translate(143.798828 0.78125)" xlink:href="#DejaVuSans-75"/>
     <use transform="translate(207.177734 0.78125)" xlink:href="#DejaVuSans-63"/>
     <use transform="translate(262.158203 0.78125)" xlink:href="#DejaVuSans-74"/>
     <use transform="translate(301.367188 0.78125)" xlink:href="#DejaVuSans-75"/>
     <use transform="translate(364.746094 0.78125)" xlink:href="#DejaVuSans-72"/>
     <use transform="translate(405.859375 0.78125)" xlink:href="#DejaVuSans-65"/>
     <use transform="translate(467.382812 0.78125)" xlink:href="#DejaVuSans-20"/>
     <use transform="translate(499.169922 0.78125)" xlink:href="#DejaVuSans-23"/>
     <use transform="translate(582.958984 0.78125)" xlink:href="#DejaVuSans-31"/>
     <use transform="translate(646.582031 0.78125)" xlink:href="#DejaVuSans-30"/>
     <use transform="translate(710.205078 0.78125)" xlink:href="#DejaVuSans-37"/>
     <use transform="translate(773.828125 0.78125)" xlink:href="#DejaVuSans-34"/>
     <use transform="translate(837.451172 0.78125)" xlink:href="#DejaVuSans-35"/>
     <use transform="translate(901.074219 0.78125)" xlink:href="#DejaVuSans-2c"/>
     <use transform="translate(932.861328 0.78125)" xlink:href="#DejaVuSans-20"/>
     <use transform="translate(964.648438 0.78125)" xlink:href="#DejaVuSans-Oblique-45"/>
     <use transform="translate(1027.832031 -15.625)scale(0.7)" xlink:href="#DejaVuSans-Oblique-4e"/>
     <use transform="translate(1082.929688 0.78125)" xlink:href="#DejaVuSans-3d"/>
     <use transform="translate(1166.71875 0.78125)" xlink:href="#DejaVuSans-2d"/>
     <use transform="translate(1202.802734 0.78125)" xlink:href="#DejaVuSans-31"/>
     <use transform="translate(1266.425781 0.78125)" xlink:href="#DejaVuSans-38"/>
     <use transform="translate(1330.048828 0.78125)" xlink:href="#DejaVuSans-33"/>
     <use transform="translate(1393.671875 0.78125)" xlink:href="#DejaVuSans-2e"/>
     <use transform="translate(1425.458984 0.78125)" xlink:href="#DejaVuSans-35"/>
     <use transform="translate(1489.082031 0.78125)" xlink:href="#DejaVuSans-32"/>
     <use transform="translate(1552.705078 0.78125)" xlink:href="#DejaVuSans-65"/>
     <use transform="translate(1614.228516 0.78125)" xlink:href="#DejaVuSans-56"/>
     <use transform="translate(1682.636719 0.78125)" xlink:href="#DejaVuSans-2c"/>
     <use transform="translate(1714.423828 0.78125)" xlink:href="#DejaVuSans-20"/>
     <use transform="translate(1746.210938 0.78125)" xlink:href="#DejaVuSans-394"/>
     <use transform="translate(1814.619141 0.78125)" xlink:href="#DejaVuSans-45"/>
     <use transform="translate(1877.802734 0.78125)" xlink:href="#DejaVuSans-3d"/>
     <use transform="translate(1961.591797 0.78125)" xlink:href="#DejaVuSans-30"/>
     <use transform="translate(2025.214844 0.78125)" xlink:href="#DejaVuSans-2e"/>
     <use transform="translate(2057.001953 0.78125)" xlink:href="#DejaVuSans-31"/>
     <use transform="translate(2120.625 0.78125)" xlink:href="#DejaVuSans-31"/>
     <use transform="translate(2184.248047 0.78125)" xlink:href="#DejaVuSans-65"/>
     <use transform="translate(2245.771484 0.78125)" xlink:href="#DejaVuSans-56"/>
    </g>
   </g>
  </g>
  <g id="axes_2">
   <g id="patch_2">
    <path clip-path="url(#p16a3151035)" d="M 361.152 307.584 
L 361.152 306.5445 
L 361.152 42.5115 
L 361.152 41.472 
L 374.4576 41.472 
L 374.4576 42.5115 
L 374.4576 306.5445 
L 374.4576 307.584 
z
" style="fill:#ffffff;stroke:#ffffff;stroke-linejoin:miter;stroke-width:0.01;"/>
   </g>
   <image height="265.68" id="image3fd928796c" transform="scale(1 -1)translate(0 -265.68)" width="12.96" x="361.44" xlink:href="data:image/png;base64,
iVBORw0KGgoAAAANSUhEUgAAABIAAAFxCAYAAAB+2fgXAAAABHNCSVQICAgIfAhkiAAAAeVJREFUeJztncmNw0AQA2ckheYQNv9QLIfQ8ygsCgQ7AEI8+jAs2Puz/94F1LP2ReCsZ18bAWIeZ5XaGRBE7VnbptG+KI101FYyNSiQG2oRITXKNaX9uclOdi2XWjftVE32CZCO2ou5Bj1TcCBr/1zB9ge7Fq0Rg2NM9pvbtG+ua1QgsRYhDy0ISEiNc40BEibbSI0Coj5CBGtkpFbXJiAjNZlrwhuSOv2M1DjXbEdEciBt1JSDDQKKpmZr2rr2j0DBGpXaWEJq3bQzEPIS26r9J+Wzv9Tm8o3aajRXqc3VUXsApKNWjeZq0x4ABVNbm7lrszVigDqP5vIl2+eaT2yfRkL7g+dRcNPqjohkjaCvRVBq0H2U3LQrOJCx9kdTg4B8oxZzzTdqdYHEngjUCAPyUctN9sVRq2sTECW2UKNLd2jVtRmo1A6AhMmWaSRcR8nUdIHUuVb75zJS218EyEitro1At69pIdeSk30Lkw0FktNImGyZRhy1O5galmxd03LUsHWk06jUZiCq+5Wb1kZNN4+wJxJuWt8RAW5am2sYNZ9rYCBzZ3buPKJ2P5Yj4Toy3keyIyJbIxs1rml1byCA84gpch5RQNB7Q0qNMGq2Hy4BXdNR41yz/cEEJfZzUz96r9PoB0okjeQ8y9TkAAAAAElFTkSuQmCC" y="-41.76"/>
   <g id="matplotlib.axis_1"/>
   <g id="matplotlib.axis_2">
    <g id="ytick_1">
     <g id="line2d_1">
      <defs>
       <path d="M 0 0 
L 3.5 0 
" id="m3f3036f2a4" style="stroke:#000000;stroke-width:0.8;"/>
      </defs>
      <g>
       <use style="stroke:#000000;stroke-width:0.8;" x="374.4576" xlink:href="#m3f3036f2a4" y="298.22606"/>
      </g>
     </g>
     <g id="text_2">
      <!-- −9.0 -->
      <defs>
       <path d="M 10.59375 35.5 
L 73.1875 35.5 
L 73.1875 27.203125 
L 10.59375 27.203125 
z
" id="DejaVuSans-2212"/>
       <path d="M 10.984375 1.515625 
L 10.984375 10.5 
Q 14.703125 8.734375 18.5 7.8125 
Q 22.3125 6.890625 25.984375 6.890625 
Q 35.75 6.890625 40.890625 13.453125 
Q 46.046875 20.015625 46.78125 33.40625 
Q 43.953125 29.203125 39.59375 26.953125 
Q 35.25 24.703125 29.984375 24.703125 
Q 19.046875 24.703125 12.671875 31.3125 
Q 6.296875 37.9375 6.296875 49.421875 
Q 6.296875 60.640625 12.9375 67.421875 
Q 19.578125 74.21875 30.609375 74.21875 
Q 43.265625 74.21875 49.921875 64.515625 
Q 56.59375 54.828125 56.59375 36.375 
Q 56.59375 19.140625 48.40625 8.859375 
Q 40.234375 -1.421875 26.421875 -1.421875 
Q 22.703125 -1.421875 18.890625 -0.6875 
Q 15.09375 0.046875 10.984375 1.515625 
z
M 30.609375 32.421875 
Q 37.25 32.421875 41.125 36.953125 
Q 45.015625 41.5 45.015625 49.421875 
Q 45.015625 57.28125 41.125 61.84375 
Q 37.25 66.40625 30.609375 66.40625 
Q 23.96875 66.40625 20.09375 61.84375 
Q 16.21875 57.28125 16.21875 49.421875 
Q 16.21875 41.5 20.09375 36.953125 
Q 23.96875 32.421875 30.609375 32.421875 
z
" id="DejaVuSans-39"/>
      </defs>
      <g transform="translate(381.4576 302.025279)scale(0.1 -0.1)">
       <use xlink:href="#DejaVuSans-2212"/>
       <use x="83.789062" xlink:href="#DejaVuSans-39"/>
       <use x="147.412109" xlink:href="#DejaVuSans-2e"/>
       <use x="179.199219" xlink:href="#DejaVuSans-30"/>
      </g>
     </g>
    </g>
    <g id="ytick_2">
     <g id="line2d_2">
      <g>
       <use style="stroke:#000000;stroke-width:0.8;" x="374.4576" xlink:href="#m3f3036f2a4" y="265.240611"/>
      </g>
     </g>
     <g id="text_3">
      <!-- −8.5 -->
      <g transform="translate(381.4576 269.03983)scale(0.1 -0.1)">
       <use xlink:href="#DejaVuSans-2212"/>
       <use x="83.789062" xlink:href="#DejaVuSans-38"/>
       <use x="147.412109" xlink:href="#DejaVuSans-2e"/>
       <use x="179.199219" xlink:href="#DejaVuSans-35"/>
      </g>
     </g>
    </g>
    <g id="ytick_3">
     <g id="line2d_3">
      <g>
       <use style="stroke:#000000;stroke-width:0.8;" x="374.4576" xlink:href="#m3f3036f2a4" y="232.255162"/>
      </g>
     </g>
     <g id="text_4">
      <!-- −8.0 -->
      <g transform="translate(381.4576 236.054381)scale(0.1 -0.1)">
       <use xlink:href="#DejaVuSans-2212"/>
       <use x="83.789062" xlink:href="#DejaVuSans-38"/>
       <use x="147.412109" xlink:href="#DejaVuSans-2e"/>
       <use x="179.199219" xlink:href="#DejaVuSans-30"/>
      </g>
     </g>
    </g>
    <g id="ytick_4">
     <g id="line2d_4">
      <g>
       <use style="stroke:#000000;stroke-width:0.8;" x="374.4576" xlink:href="#m3f3036f2a4" y="199.269713"/>
      </g>
     </g>
     <g id="text_5">
      <!-- −7.5 -->
      <g transform="translate(381.4576 203.068932)scale(0.1 -0.1)">
       <use xlink:href="#DejaVuSans-2212"/>
       <use x="83.789062" xlink:href="#DejaVuSans-37"/>
       <use x="147.412109" xlink:href="#DejaVuSans-2e"/>
       <use x="179.199219" xlink:href="#DejaVuSans-35"/>
      </g>
     </g>
    </g>
    <g id="ytick_5">
     <g id="line2d_5">
      <g>
       <use style="stroke:#000000;stroke-width:0.8;" x="374.4576" xlink:href="#m3f3036f2a4" y="166.284264"/>
      </g>
     </g>
     <g id="text_6">
      <!-- −7.0 -->
      <g transform="translate(381.4576 170.083483)scale(0.1 -0.1)">
       <use xlink:href="#DejaVuSans-2212"/>
       <use x="83.789062" xlink:href="#DejaVuSans-37"/>
       <use x="147.412109" xlink:href="#DejaVuSans-2e"/>
       <use x="179.199219" xlink:href="#DejaVuSans-30"/>
      </g>
     </g>
    </g>
    <g id="ytick_6">
     <g id="line2d_6">
      <g>
       <use style="stroke:#000000;stroke-width:0.8;" x="374.4576" xlink:href="#m3f3036f2a4" y="133.298816"/>
      </g>
     </g>
     <g id="text_7">
      <!-- −6.5 -->
      <defs>
       <path d="M 33.015625 40.375 
Q 26.375 40.375 22.484375 35.828125 
Q 18.609375 31.296875 18.609375 23.390625 
Q 18.609375 15.53125 22.484375 10.953125 
Q 26.375 6.390625 33.015625 6.390625 
Q 39.65625 6.390625 43.53125 10.953125 
Q 47.40625 15.53125 47.40625 23.390625 
Q 47.40625 31.296875 43.53125 35.828125 
Q 39.65625 40.375 33.015625 40.375 
z
M 52.59375 71.296875 
L 52.59375 62.3125 
Q 48.875 64.0625 45.09375 64.984375 
Q 41.3125 65.921875 37.59375 65.921875 
Q 27.828125 65.921875 22.671875 59.328125 
Q 17.53125 52.734375 16.796875 39.40625 
Q 19.671875 43.65625 24.015625 45.921875 
Q 28.375 48.1875 33.59375 48.1875 
Q 44.578125 48.1875 50.953125 41.515625 
Q 57.328125 34.859375 57.328125 23.390625 
Q 57.328125 12.15625 50.6875 5.359375 
Q 44.046875 -1.421875 33.015625 -1.421875 
Q 20.359375 -1.421875 13.671875 8.265625 
Q 6.984375 17.96875 6.984375 36.375 
Q 6.984375 53.65625 15.1875 63.9375 
Q 23.390625 74.21875 37.203125 74.21875 
Q 40.921875 74.21875 44.703125 73.484375 
Q 48.484375 72.75 52.59375 71.296875 
z
" id="DejaVuSans-36"/>
      </defs>
      <g transform="translate(381.4576 137.098034)scale(0.1 -0.1)">
       <use xlink:href="#DejaVuSans-2212"/>
       <use x="83.789062" xlink:href="#DejaVuSans-36"/>
       <use x="147.412109" xlink:href="#DejaVuSans-2e"/>
       <use x="179.199219" xlink:href="#DejaVuSans-35"/>
      </g>
     </g>
    </g>
    <g id="ytick_7">
     <g id="line2d_7">
      <g>
       <use style="stroke:#000000;stroke-width:0.8;" x="374.4576" xlink:href="#m3f3036f2a4" y="100.313367"/>
      </g>
     </g>
     <g id="text_8">
      <!-- −6.0 -->
      <g transform="translate(381.4576 104.112585)scale(0.1 -0.1)">
       <use xlink:href="#DejaVuSans-2212"/>
       <use x="83.789062" xlink:href="#DejaVuSans-36"/>
       <use x="147.412109" xlink:href="#DejaVuSans-2e"/>
       <use x="179.199219" xlink:href="#DejaVuSans-30"/>
      </g>
     </g>
    </g>
    <g id="ytick_8">
     <g id="line2d_8">
      <g>
       <use style="stroke:#000000;stroke-width:0.8;" x="374.4576" xlink:href="#m3f3036f2a4" y="67.327918"/>
      </g>
     </g>
     <g id="text_9">
      <!-- −5.5 -->
      <g transform="translate(381.4576 71.127137)scale(0.1 -0.1)">
       <use xlink:href="#DejaVuSans-2212"/>
       <use x="83.789062" xlink:href="#DejaVuSans-35"/>
       <use x="147.412109" xlink:href="#DejaVuSans-2e"/>
       <use x="179.199219" xlink:href="#DejaVuSans-35"/>
      </g>
     </g>
    </g>
    <g id="text_10">
     <!-- Energy [eV] -->
     <defs>
      <path d="M 54.890625 33.015625 
L 54.890625 0 
L 45.90625 0 
L 45.90625 32.71875 
Q 45.90625 40.484375 42.875 44.328125 
Q 39.84375 48.1875 33.796875 48.1875 
Q 26.515625 48.1875 22.3125 43.546875 
Q 18.109375 38.921875 18.109375 30.90625 
L 18.109375 0 
L 9.078125 0 
L 9.078125 54.6875 
L 18.109375 54.6875 
L 18.109375 46.1875 
Q 21.34375 51.125 25.703125 53.5625 
Q 30.078125 56 35.796875 56 
Q 45.21875 56 50.046875 50.171875 
Q 54.890625 44.34375 54.890625 33.015625 
z
" id="DejaVuSans-6e"/>
      <path d="M 45.40625 27.984375 
Q 45.40625 37.75 41.375 43.109375 
Q 37.359375 48.484375 30.078125 48.484375 
Q 22.859375 48.484375 18.828125 43.109375 
Q 14.796875 37.75 14.796875 27.984375 
Q 14.796875 18.265625 18.828125 12.890625 
Q 22.859375 7.515625 30.078125 7.515625 
Q 37.359375 7.515625 41.375 12.890625 
Q 45.40625 18.265625 45.40625 27.984375 
z
M 54.390625 6.78125 
Q 54.390625 -7.171875 48.1875 -13.984375 
Q 42 -20.796875 29.203125 -20.796875 
Q 24.46875 -20.796875 20.265625 -20.09375 
Q 16.0625 -19.390625 12.109375 -17.921875 
L 12.109375 -9.1875 
Q 16.0625 -11.328125 19.921875 -12.34375 
Q 23.78125 -13.375 27.78125 -13.375 
Q 36.625 -13.375 41.015625 -8.765625 
Q 45.40625 -4.15625 45.40625 5.171875 
L 45.40625 9.625 
Q 42.625 4.78125 38.28125 2.390625 
Q 33.9375 0 27.875 0 
Q 17.828125 0 11.671875 7.65625 
Q 5.515625 15.328125 5.515625 27.984375 
Q 5.515625 40.671875 11.671875 48.328125 
Q 17.828125 56 27.875 56 
Q 33.9375 56 38.28125 53.609375 
Q 42.625 51.21875 45.40625 46.390625 
L 45.40625 54.6875 
L 54.390625 54.6875 
z
" id="DejaVuSans-67"/>
      <path d="M 32.171875 -5.078125 
Q 28.375 -14.84375 24.75 -17.8125 
Q 21.140625 -20.796875 15.09375 -20.796875 
L 7.90625 -20.796875 
L 7.90625 -13.28125 
L 13.1875 -13.28125 
Q 16.890625 -13.28125 18.9375 -11.515625 
Q 21 -9.765625 23.484375 -3.21875 
L 25.09375 0.875 
L 2.984375 54.6875 
L 12.5 54.6875 
L 29.59375 11.921875 
L 46.6875 54.6875 
L 56.203125 54.6875 
z
" id="DejaVuSans-79"/>
      <path d="M 8.59375 75.984375 
L 29.296875 75.984375 
L 29.296875 69 
L 17.578125 69 
L 17.578125 -6.203125 
L 29.296875 -6.203125 
L 29.296875 -13.1875 
L 8.59375 -13.1875 
z
" id="DejaVuSans-5b"/>
      <path d="M 30.421875 75.984375 
L 30.421875 -13.1875 
L 9.71875 -13.1875 
L 9.71875 -6.203125 
L 21.390625 -6.203125 
L 21.390625 69 
L 9.71875 69 
L 9.71875 75.984375 
z
" id="DejaVuSans-5d"/>
     </defs>
     <g transform="translate(417.33885 204.108469)rotate(-90)scale(0.1 -0.1)">
      <use xlink:href="#DejaVuSans-45"/>
      <use x="63.183594" xlink:href="#DejaVuSans-6e"/>
      <use x="126.5625" xlink:href="#DejaVuSans-65"/>
      <use x="188.085938" xlink:href="#DejaVuSans-72"/>
      <use x="229.183594" xlink:href="#DejaVuSans-67"/>
      <use x="292.660156" xlink:href="#DejaVuSans-79"/>
      <use x="351.839844" xlink:href="#DejaVuSans-20"/>
      <use x="383.626953" xlink:href="#DejaVuSans-5b"/>
      <use x="422.640625" xlink:href="#DejaVuSans-65"/>
      <use x="484.164062" xlink:href="#DejaVuSans-56"/>
      <use x="552.572266" xlink:href="#DejaVuSans-5d"/>
     </g>
    </g>
   </g>
   <g id="patch_3">
    <path d="M 361.152 307.584 
L 361.152 306.5445 
L 361.152 42.5115 
L 361.152 41.472 
L 374.4576 41.472 
L 374.4576 42.5115 
L 374.4576 306.5445 
L 374.4576 307.584 
z
" style="fill:none;stroke:#000000;stroke-linejoin:miter;stroke-width:0.8;"/>
   </g>
  </g>
 </g>
 <defs>
  <clipPath id="p0148cf043c">
   <rect height="266.112" width="285.696" x="57.6" y="41.472"/>
  </clipPath>
  <clipPath id="p16a3151035">
   <rect height="266.112" width="13.3056" x="361.152" y="41.472"/>
  </clipPath>
 </defs>
</svg>
