<?xml version="1.0" encoding="utf-8" standalone="no"?>
<!DOCTYPE svg PUBLIC "-//W3C//DTD SVG 1.1//EN"
  "http://www.w3.org/Graphics/SVG/1.1/DTD/svg11.dtd">
<!-- Created with matplotlib (http://matplotlib.org/) -->
<svg height="345.6pt" version="1.1" viewBox="0 0 460.8 345.6" width="460.8pt" xmlns="http://www.w3.org/2000/svg" xmlns:xlink="http://www.w3.org/1999/xlink">
 <defs>
  <style type="text/css">
*{stroke-linecap:butt;stroke-linejoin:round;}
  </style>
 </defs>
 <g id="figure_1">
  <g id="patch_1">
   <path d="M 0 345.6 
L 460.8 345.6 
L 460.8 0 
L 0 0 
z
" style="fill:#ffffff;"/>
  </g>
  <g id="axes_1">
   <g id="CircleCollection_1">
    <path clip-path="url(#pbb27022673)" d="M 195.536014 240.269175 
C 197.239186 240.269175 198.87283 239.592498 200.077155 238.388173 
C 201.28148 237.183848 201.958157 235.550204 201.958157 233.847031 
C 201.958157 232.143859 201.28148 230.510215 200.077155 229.30589 
C 198.87283 228.101565 197.239186 227.424888 195.536014 227.424888 
C 193.832841 227.424888 192.199197 228.101565 190.994872 229.30589 
C 189.790547 230.510215 189.11387 232.143859 189.11387 233.847031 
C 189.11387 235.550204 189.790547 237.183848 190.994872 238.388173 
C 192.199197 239.592498 193.832841 240.269175 195.536014 240.269175 
z
" style="fill:#440154;"/>
    <path clip-path="url(#pbb27022673)" d="M 173.225858 131.846578 
C 174.929009 131.846578 176.562632 131.169909 177.766941 129.9656 
C 178.97125 128.761291 179.647919 127.127668 179.647919 125.424517 
C 179.647919 123.721367 178.97125 122.087744 177.766941 120.883435 
C 176.562632 119.679125 174.929009 119.002457 173.225858 119.002457 
C 171.522708 119.002457 169.889085 119.679125 168.684776 120.883435 
C 167.480466 122.087744 166.803798 123.721367 166.803798 125.424517 
C 166.803798 127.127668 167.480466 128.761291 168.684776 129.9656 
C 169.889085 131.169909 171.522708 131.846578 173.225858 131.846578 
z
" style="fill:#3e4c8a;"/>
    <path clip-path="url(#pbb27022673)" d="M 195.501324 151.936961 
C 197.199873 151.936961 198.829082 151.262121 200.030137 150.061065 
C 201.231193 148.86001 201.906033 147.230801 201.906033 145.532252 
C 201.906033 143.833704 201.231193 142.204494 200.030137 141.003439 
C 198.829082 139.802384 197.199873 139.127543 195.501324 139.127543 
C 193.802775 139.127543 192.173566 139.802384 190.972511 141.003439 
C 189.771455 142.204494 189.096615 143.833704 189.096615 145.532252 
C 189.096615 147.230801 189.771455 148.86001 190.972511 150.061065 
C 192.173566 151.262121 193.802775 151.936961 195.501324 151.936961 
z
" style="fill:#355e8d;"/>
    <path clip-path="url(#pbb27022673)" d="M 136.263927 267.99021 
C 137.977175 267.99021 139.620483 267.309529 140.831932 266.098081 
C 142.04338 264.886632 142.724061 263.243324 142.724061 261.530076 
C 142.724061 259.816829 142.04338 258.173521 140.831932 256.962072 
C 139.620483 255.750623 137.977175 255.069943 136.263927 255.069943 
C 134.55068 255.069943 132.907372 255.750623 131.695923 256.962072 
C 130.484474 258.173521 129.803794 259.816829 129.803794 261.530076 
C 129.803794 263.243324 130.484474 264.886632 131.695923 266.098081 
C 132.907372 267.309529 134.55068 267.99021 136.263927 267.99021 
z
" style="fill:#3b528b;"/>
    <path clip-path="url(#pbb27022673)" d="M 253.377348 226.259825 
C 255.103786 226.259825 256.759747 225.573903 257.980523 224.353127 
C 259.2013 223.13235 259.887221 221.47639 259.887221 219.749951 
C 259.887221 218.023513 259.2013 216.367552 257.980523 215.146776 
C 256.759747 213.925999 255.103786 213.240078 253.377348 213.240078 
C 251.650909 213.240078 249.994948 213.925999 248.774172 215.146776 
C 247.553396 216.367552 246.867474 218.023513 246.867474 219.749951 
C 246.867474 221.47639 247.553396 223.13235 248.774172 224.353127 
C 249.994948 225.573903 251.650909 226.259825 253.377348 226.259825 
z
" style="fill:#3c4f8a;"/>
    <path clip-path="url(#pbb27022673)" d="M 80.597226 292.743896 
C 82.328231 292.743896 83.988572 292.05616 85.212578 290.832154 
C 86.436583 289.608149 87.124319 287.947808 87.124319 286.216803 
C 87.124319 284.485797 86.436583 282.825456 85.212578 281.601451 
C 83.988572 280.377445 82.328231 279.68971 80.597226 279.68971 
C 78.866221 279.68971 77.20588 280.377445 75.981874 281.601451 
C 74.757869 282.825456 74.070133 284.485797 74.070133 286.216803 
C 74.070133 287.947808 74.757869 289.608149 75.981874 290.832154 
C 77.20588 292.05616 78.866221 292.743896 80.597226 292.743896 
z
" style="fill:#44bf70;"/>
    <path clip-path="url(#pbb27022673)" d="M 296.451104 299.935572 
C 298.274076 299.935572 300.022629 299.211297 301.311664 297.922262 
C 302.6007 296.633226 303.324974 294.884673 303.324974 293.061702 
C 303.324974 291.23873 302.6007 289.490178 301.311664 288.201142 
C 300.022629 286.912107 298.274076 286.187832 296.451104 286.187832 
C 294.628133 286.187832 292.87958 286.912107 291.590545 288.201142 
C 290.301509 289.490178 289.577235 291.23873 289.577235 293.061702 
C 289.577235 294.884673 290.301509 296.633226 291.590545 297.922262 
C 292.87958 299.211297 294.628133 299.935572 296.451104 299.935572 
z
" style="fill:#33638d;"/>
    <path clip-path="url(#pbb27022673)" d="M 98.070679 76.597911 
C 99.796224 76.597911 101.451328 75.912344 102.671473 74.692199 
C 103.891618 73.472055 104.577184 71.816951 104.577184 70.091405 
C 104.577184 68.36586 103.891618 66.710756 102.671473 65.490612 
C 101.451328 64.270467 99.796224 63.5849 98.070679 63.5849 
C 96.345134 63.5849 94.69003 64.270467 93.469885 65.490612 
C 92.24974 66.710756 91.564174 68.36586 91.564174 70.091405 
C 91.564174 71.816951 92.24974 73.472055 93.469885 74.692199 
C 94.69003 75.912344 96.345134 76.597911 98.070679 76.597911 
z
" style="fill:#355e8d;"/>
    <path clip-path="url(#pbb27022673)" d="M 235.004149 200.731988 
C 236.702985 200.731988 238.332469 200.057033 239.533727 198.855775 
C 240.734985 197.654517 241.40994 196.025033 241.40994 194.326197 
C 241.40994 192.627361 240.734985 190.997877 239.533727 189.796619 
C 238.332469 188.59536 236.702985 187.920406 235.004149 187.920406 
C 233.305313 187.920406 231.675829 188.59536 230.474571 189.796619 
C 229.273312 190.997877 228.598358 192.627361 228.598358 194.326197 
C 228.598358 196.025033 229.273312 197.654517 230.474571 198.855775 
C 231.675829 200.057033 233.305313 200.731988 235.004149 200.731988 
z
" style="fill:#2a788e;"/>
    <path clip-path="url(#pbb27022673)" d="M 322.750422 274.373452 
C 324.571534 274.373452 326.318303 273.649917 327.606023 272.362196 
C 328.893743 271.074476 329.617279 269.327707 329.617279 267.506596 
C 329.617279 265.685484 328.893743 263.938716 327.606023 262.650995 
C 326.318303 261.363275 324.571534 260.63974 322.750422 260.63974 
C 320.929311 260.63974 319.182542 261.363275 317.894822 262.650995 
C 316.607102 263.938716 315.883566 265.685484 315.883566 267.506596 
C 315.883566 269.327707 316.607102 271.074476 317.894822 272.362196 
C 319.182542 273.649917 320.929311 274.373452 322.750422 274.373452 
z
" style="fill:#33638d;"/>
    <path clip-path="url(#pbb27022673)" d="M 230.196058 249.630649 
C 231.923581 249.630649 233.580581 248.944297 234.802124 247.722753 
C 236.023667 246.50121 236.710019 244.84421 236.710019 243.116687 
C 236.710019 241.389164 236.023667 239.732164 234.802124 238.510621 
C 233.580581 237.289078 231.923581 236.602725 230.196058 236.602725 
C 228.468535 236.602725 226.811534 237.289078 225.589991 238.510621 
C 224.368448 239.732164 223.682096 241.389164 223.682096 243.116687 
C 223.682096 244.84421 224.368448 246.50121 225.589991 247.722753 
C 226.811534 248.944297 228.468535 249.630649 230.196058 249.630649 
z
" style="fill:#3b518b;"/>
    <path clip-path="url(#pbb27022673)" d="M 70.923314 60.501614 
C 72.660505 60.501614 74.326778 59.811421 75.555156 58.583042 
C 76.783535 57.354663 77.473728 55.68839 77.473728 53.9512 
C 77.473728 52.21401 76.783535 50.547737 75.555156 49.319358 
C 74.326778 48.090979 72.660505 47.400786 70.923314 47.400786 
C 69.186124 47.400786 67.519851 48.090979 66.291473 49.319358 
C 65.063094 50.547737 64.372901 52.21401 64.372901 53.9512 
C 64.372901 55.68839 65.063094 57.354663 66.291473 58.583042 
C 67.519851 59.811421 69.186124 60.501614 70.923314 60.501614 
z
" style="fill:#fde725;"/>
    <path clip-path="url(#pbb27022673)" d="M 256.356922 269.949149 
C 258.121145 269.949149 259.813346 269.248216 261.06084 268.000722 
C 262.308333 266.753229 263.009266 265.061027 263.009266 263.296805 
C 263.009266 261.532583 262.308333 259.840381 261.06084 258.592888 
C 259.813346 257.345394 258.121145 256.644461 256.356922 256.644461 
C 254.5927 256.644461 252.900499 257.345394 251.653005 258.592888 
C 250.405512 259.840381 249.704579 261.532583 249.704579 263.296805 
C 249.704579 265.061027 250.405512 266.753229 251.653005 268.000722 
C 252.900499 269.248216 254.5927 269.949149 256.356922 269.949149 
z
" style="fill:#404688;"/>
    <path clip-path="url(#pbb27022673)" d="M 150.102757 111.23786 
C 151.8124 111.23786 153.45225 110.558612 154.66115 109.349712 
C 155.87005 108.140812 156.549298 106.500961 156.549298 104.791319 
C 156.549298 103.081676 155.87005 101.441826 154.66115 100.232926 
C 153.45225 99.024026 151.8124 98.344777 150.102757 98.344777 
C 148.393115 98.344777 146.753264 99.024026 145.544364 100.232926 
C 144.335464 101.441826 143.656216 103.081676 143.656216 104.791319 
C 143.656216 106.500961 144.335464 108.140812 145.544364 109.349712 
C 146.753264 110.558612 148.393115 111.23786 150.102757 111.23786 
z
" style="fill:#3d4e8a;"/>
    <path clip-path="url(#pbb27022673)" d="M 314.43243 248.028447 
C 316.223411 248.028447 317.941279 247.316882 319.207694 246.050468 
C 320.474108 244.784053 321.185673 243.066185 321.185673 241.275204 
C 321.185673 239.484223 320.474108 237.766354 319.207694 236.49994 
C 317.941279 235.233525 316.223411 234.52196 314.43243 234.52196 
C 312.641448 234.52196 310.92358 235.233525 309.657165 236.49994 
C 308.390751 237.766354 307.679186 239.484223 307.679186 241.275204 
C 307.679186 243.066185 308.390751 244.784053 309.657165 246.050468 
C 310.92358 247.316882 312.641448 248.028447 314.43243 248.028447 
z
" style="fill:#2a778e;"/>
    <path clip-path="url(#pbb27022673)" d="M 264.255049 296.860718 
C 266.049801 296.860718 267.771287 296.147656 269.040369 294.878574 
C 270.309451 293.609492 271.022514 291.888006 271.022514 290.093253 
C 271.022514 288.298501 270.309451 286.577015 269.040369 285.307933 
C 267.771287 284.038851 266.049801 283.325788 264.255049 283.325788 
C 262.460296 283.325788 260.73881 284.038851 259.469728 285.307933 
C 258.200647 286.577015 257.487584 288.298501 257.487584 290.093253 
C 257.487584 291.888006 258.200647 293.609492 259.469728 294.878574 
C 260.73881 296.147656 262.460296 296.860718 264.255049 296.860718 
z
" style="fill:#297a8e;"/>
    <path clip-path="url(#pbb27022673)" d="M 208.258923 179.05744 
C 209.951591 179.05744 211.575159 178.384936 212.772055 177.18804 
C 213.968952 175.991143 214.641456 174.367575 214.641456 172.674908 
C 214.641456 170.98224 213.968952 169.358672 212.772055 168.161776 
C 211.575159 166.964879 209.951591 166.292375 208.258923 166.292375 
C 206.566256 166.292375 204.942688 166.964879 203.745791 168.161776 
C 202.548895 169.358672 201.876391 170.98224 201.876391 172.674908 
C 201.876391 174.367575 202.548895 175.991143 203.745791 177.18804 
C 204.942688 178.384936 206.566256 179.05744 208.258923 179.05744 
z
" style="fill:#3d4d8a;"/>
    <path clip-path="url(#pbb27022673)" d="M 200.982615 209.148282 
C 202.664849 209.148282 204.27841 208.479923 205.467929 207.290404 
C 206.657449 206.100884 207.325808 204.487323 207.325808 202.805089 
C 207.325808 201.122854 206.657449 199.509293 205.467929 198.319774 
C 204.27841 197.130255 202.664849 196.461896 200.982615 196.461896 
C 199.30038 196.461896 197.686819 197.130255 196.4973 198.319774 
C 195.30778 199.509293 194.639422 201.122854 194.639422 202.805089 
C 194.639422 204.487323 195.30778 206.100884 196.4973 207.290404 
C 197.686819 208.479923 199.30038 209.148282 200.982615 209.148282 
z
" style="fill:#277f8e;"/>
    <path clip-path="url(#pbb27022673)" d="M 329.950289 302.064912 
C 331.802884 302.064912 333.57985 301.328868 334.889832 300.018886 
C 336.199814 298.708904 336.935858 296.931938 336.935858 295.079343 
C 336.935858 293.226749 336.199814 291.449782 334.889832 290.1398 
C 333.57985 288.829818 331.802884 288.093775 329.950289 288.093775 
C 328.097695 288.093775 326.320728 288.829818 325.010746 290.1398 
C 323.700764 291.449782 322.96472 293.226749 322.96472 295.079343 
C 322.96472 296.931938 323.700764 298.708904 325.010746 300.018886 
C 326.320728 301.328868 328.097695 302.064912 329.950289 302.064912 
z
" style="fill:#2eb37c;"/>
    <path clip-path="url(#pbb27022673)" d="M 165.619431 254.697927 
C 167.325082 254.697927 168.961104 254.020264 170.167182 252.814187 
C 171.373259 251.608109 172.050921 249.972088 172.050921 248.266436 
C 172.050921 246.560785 171.373259 244.924764 170.167182 243.718686 
C 168.961104 242.512609 167.325082 241.834946 165.619431 241.834946 
C 163.91378 241.834946 162.277758 242.512609 161.071681 243.718686 
C 159.865604 244.924764 159.187941 246.560785 159.187941 248.266436 
C 159.187941 249.972088 159.865604 251.608109 161.071681 252.814187 
C 162.277758 254.020264 163.91378 254.697927 165.619431 254.697927 
z
" style="fill:#2a788e;"/>
    <path clip-path="url(#pbb27022673)" d="M 124.721657 93.979517 
C 126.438949 93.979517 128.086136 93.297229 129.300445 92.082921 
C 130.514754 90.868612 131.197042 89.221424 131.197042 87.504132 
C 131.197042 85.78684 130.514754 84.139653 129.300445 82.925344 
C 128.086136 81.711035 126.438949 81.028748 124.721657 81.028748 
C 123.004365 81.028748 121.357177 81.711035 120.142868 82.925344 
C 118.92856 84.139653 118.246272 85.78684 118.246272 87.504132 
C 118.246272 89.221424 118.92856 90.868612 120.142868 92.082921 
C 121.357177 93.297229 123.004365 93.979517 124.721657 93.979517 
z
" style="fill:#3d4e8a;"/>
    <path clip-path="url(#pbb27022673)" d="M 281.722812 245.00848 
C 283.48544 245.00848 285.176112 244.30818 286.422478 243.061814 
C 287.668844 241.815448 288.369144 240.124776 288.369144 238.362148 
C 288.369144 236.59952 287.668844 234.908848 286.422478 233.662482 
C 285.176112 232.416115 283.48544 231.715816 281.722812 231.715816 
C 279.960184 231.715816 278.269512 232.416115 277.023145 233.662482 
C 275.776779 234.908848 275.07648 236.59952 275.07648 238.362148 
C 275.07648 240.124776 275.776779 241.815448 277.023145 243.061814 
C 278.269512 244.30818 279.960184 245.00848 281.722812 245.00848 
z
" style="fill:#3e4c8a;"/>
    <path clip-path="url(#pbb27022673)" d="M 106.787169 274.605629 
C 108.555959 274.605629 110.252543 273.902881 111.503267 272.652158 
C 112.75399 271.401434 113.456738 269.70485 113.456738 267.93606 
C 113.456738 266.16727 112.75399 264.470686 111.503267 263.219962 
C 110.252543 261.969239 108.555959 261.266491 106.787169 261.266491 
C 105.018379 261.266491 103.321795 261.969239 102.071071 263.219962 
C 100.820348 264.470686 100.1176 266.16727 100.1176 267.93606 
C 100.1176 269.70485 100.820348 271.401434 102.071071 272.652158 
C 103.321795 273.902881 105.018379 274.605629 106.787169 274.605629 
z
" style="fill:#1fa287;"/>
    <path clip-path="url(#pbb27022673)" d="M 109.761834 286.326397 
C 111.436498 286.326397 113.042797 285.661046 114.226963 284.47688 
C 115.411129 283.292714 116.07648 281.686415 116.07648 280.011751 
C 116.07648 278.337088 115.411129 276.730789 114.226963 275.546623 
C 113.042797 274.362457 111.436498 273.697106 109.761834 273.697106 
C 108.087171 273.697106 106.480871 274.362457 105.296705 275.546623 
C 104.112539 276.730789 103.447189 278.337088 103.447189 280.011751 
C 103.447189 281.686415 104.112539 283.292714 105.296705 284.47688 
C 106.480871 285.661046 108.087171 286.326397 109.761834 286.326397 
z
" style="fill:#1fa187;"/>
   </g>
   <g id="text_1">
    <!-- Structure #7637, $E_N$=-176.05eV, ΔE=-0.63eV -->
    <defs>
     <path d="M 53.515625 70.515625 
L 53.515625 60.890625 
Q 47.90625 63.578125 42.921875 64.890625 
Q 37.9375 66.21875 33.296875 66.21875 
Q 25.25 66.21875 20.875 63.09375 
Q 16.5 59.96875 16.5 54.203125 
Q 16.5 49.359375 19.40625 46.890625 
Q 22.3125 44.4375 30.421875 42.921875 
L 36.375 41.703125 
Q 47.40625 39.59375 52.65625 34.296875 
Q 57.90625 29 57.90625 20.125 
Q 57.90625 9.515625 50.796875 4.046875 
Q 43.703125 -1.421875 29.984375 -1.421875 
Q 24.8125 -1.421875 18.96875 -0.25 
Q 13.140625 0.921875 6.890625 3.21875 
L 6.890625 13.375 
Q 12.890625 10.015625 18.65625 8.296875 
Q 24.421875 6.59375 29.984375 6.59375 
Q 38.421875 6.59375 43.015625 9.90625 
Q 47.609375 13.234375 47.609375 19.390625 
Q 47.609375 24.75 44.3125 27.78125 
Q 41.015625 30.8125 33.5 32.328125 
L 27.484375 33.5 
Q 16.453125 35.6875 11.515625 40.375 
Q 6.59375 45.0625 6.59375 53.421875 
Q 6.59375 63.09375 13.40625 68.65625 
Q 20.21875 74.21875 32.171875 74.21875 
Q 37.3125 74.21875 42.625 73.28125 
Q 47.953125 72.359375 53.515625 70.515625 
z
" id="DejaVuSans-53"/>
     <path d="M 18.3125 70.21875 
L 18.3125 54.6875 
L 36.8125 54.6875 
L 36.8125 47.703125 
L 18.3125 47.703125 
L 18.3125 18.015625 
Q 18.3125 11.328125 20.140625 9.421875 
Q 21.96875 7.515625 27.59375 7.515625 
L 36.8125 7.515625 
L 36.8125 0 
L 27.59375 0 
Q 17.1875 0 13.234375 3.875 
Q 9.28125 7.765625 9.28125 18.015625 
L 9.28125 47.703125 
L 2.6875 47.703125 
L 2.6875 54.6875 
L 9.28125 54.6875 
L 9.28125 70.21875 
z
" id="DejaVuSans-74"/>
     <path d="M 41.109375 46.296875 
Q 39.59375 47.171875 37.8125 47.578125 
Q 36.03125 48 33.890625 48 
Q 26.265625 48 22.1875 43.046875 
Q 18.109375 38.09375 18.109375 28.8125 
L 18.109375 0 
L 9.078125 0 
L 9.078125 54.6875 
L 18.109375 54.6875 
L 18.109375 46.1875 
Q 20.953125 51.171875 25.484375 53.578125 
Q 30.03125 56 36.53125 56 
Q 37.453125 56 38.578125 55.875 
Q 39.703125 55.765625 41.0625 55.515625 
z
" id="DejaVuSans-72"/>
     <path d="M 8.5 21.578125 
L 8.5 54.6875 
L 17.484375 54.6875 
L 17.484375 21.921875 
Q 17.484375 14.15625 20.5 10.265625 
Q 23.53125 6.390625 29.59375 6.390625 
Q 36.859375 6.390625 41.078125 11.03125 
Q 45.3125 15.671875 45.3125 23.6875 
L 45.3125 54.6875 
L 54.296875 54.6875 
L 54.296875 0 
L 45.3125 0 
L 45.3125 8.40625 
Q 42.046875 3.421875 37.71875 1 
Q 33.40625 -1.421875 27.6875 -1.421875 
Q 18.265625 -1.421875 13.375 4.4375 
Q 8.5 10.296875 8.5 21.578125 
z
M 31.109375 56 
z
" id="DejaVuSans-75"/>
     <path d="M 48.78125 52.59375 
L 48.78125 44.1875 
Q 44.96875 46.296875 41.140625 47.34375 
Q 37.3125 48.390625 33.40625 48.390625 
Q 24.65625 48.390625 19.8125 42.84375 
Q 14.984375 37.3125 14.984375 27.296875 
Q 14.984375 17.28125 19.8125 11.734375 
Q 24.65625 6.203125 33.40625 6.203125 
Q 37.3125 6.203125 41.140625 7.25 
Q 44.96875 8.296875 48.78125 10.40625 
L 48.78125 2.09375 
Q 45.015625 0.34375 40.984375 -0.53125 
Q 36.96875 -1.421875 32.421875 -1.421875 
Q 20.0625 -1.421875 12.78125 6.34375 
Q 5.515625 14.109375 5.515625 27.296875 
Q 5.515625 40.671875 12.859375 48.328125 
Q 20.21875 56 33.015625 56 
Q 37.15625 56 41.109375 55.140625 
Q 45.0625 54.296875 48.78125 52.59375 
z
" id="DejaVuSans-63"/>
     <path d="M 56.203125 29.59375 
L 56.203125 25.203125 
L 14.890625 25.203125 
Q 15.484375 15.921875 20.484375 11.0625 
Q 25.484375 6.203125 34.421875 6.203125 
Q 39.59375 6.203125 44.453125 7.46875 
Q 49.3125 8.734375 54.109375 11.28125 
L 54.109375 2.78125 
Q 49.265625 0.734375 44.1875 -0.34375 
Q 39.109375 -1.421875 33.890625 -1.421875 
Q 20.796875 -1.421875 13.15625 6.1875 
Q 5.515625 13.8125 5.515625 26.8125 
Q 5.515625 40.234375 12.765625 48.109375 
Q 20.015625 56 32.328125 56 
Q 43.359375 56 49.78125 48.890625 
Q 56.203125 41.796875 56.203125 29.59375 
z
M 47.21875 32.234375 
Q 47.125 39.59375 43.09375 43.984375 
Q 39.0625 48.390625 32.421875 48.390625 
Q 24.90625 48.390625 20.390625 44.140625 
Q 15.875 39.890625 15.1875 32.171875 
z
" id="DejaVuSans-65"/>
     <path id="DejaVuSans-20"/>
     <path d="M 51.125 44 
L 36.921875 44 
L 32.8125 27.6875 
L 47.125 27.6875 
z
M 43.796875 71.78125 
L 38.71875 51.515625 
L 52.984375 51.515625 
L 58.109375 71.78125 
L 65.921875 71.78125 
L 60.890625 51.515625 
L 76.125 51.515625 
L 76.125 44 
L 58.984375 44 
L 54.984375 27.6875 
L 70.515625 27.6875 
L 70.515625 20.21875 
L 53.078125 20.21875 
L 48 0 
L 40.1875 0 
L 45.21875 20.21875 
L 30.90625 20.21875 
L 25.875 0 
L 18.015625 0 
L 23.09375 20.21875 
L 7.71875 20.21875 
L 7.71875 27.6875 
L 24.90625 27.6875 
L 29 44 
L 13.28125 44 
L 13.28125 51.515625 
L 30.90625 51.515625 
L 35.890625 71.78125 
z
" id="DejaVuSans-23"/>
     <path d="M 8.203125 72.90625 
L 55.078125 72.90625 
L 55.078125 68.703125 
L 28.609375 0 
L 18.3125 0 
L 43.21875 64.59375 
L 8.203125 64.59375 
z
" id="DejaVuSans-37"/>
     <path d="M 33.015625 40.375 
Q 26.375 40.375 22.484375 35.828125 
Q 18.609375 31.296875 18.609375 23.390625 
Q 18.609375 15.53125 22.484375 10.953125 
Q 26.375 6.390625 33.015625 6.390625 
Q 39.65625 6.390625 43.53125 10.953125 
Q 47.40625 15.53125 47.40625 23.390625 
Q 47.40625 31.296875 43.53125 35.828125 
Q 39.65625 40.375 33.015625 40.375 
z
M 52.59375 71.296875 
L 52.59375 62.3125 
Q 48.875 64.0625 45.09375 64.984375 
Q 41.3125 65.921875 37.59375 65.921875 
Q 27.828125 65.921875 22.671875 59.328125 
Q 17.53125 52.734375 16.796875 39.40625 
Q 19.671875 43.65625 24.015625 45.921875 
Q 28.375 48.1875 33.59375 48.1875 
Q 44.578125 48.1875 50.953125 41.515625 
Q 57.328125 34.859375 57.328125 23.390625 
Q 57.328125 12.15625 50.6875 5.359375 
Q 44.046875 -1.421875 33.015625 -1.421875 
Q 20.359375 -1.421875 13.671875 8.265625 
Q 6.984375 17.96875 6.984375 36.375 
Q 6.984375 53.65625 15.1875 63.9375 
Q 23.390625 74.21875 37.203125 74.21875 
Q 40.921875 74.21875 44.703125 73.484375 
Q 48.484375 72.75 52.59375 71.296875 
z
" id="DejaVuSans-36"/>
     <path d="M 40.578125 39.3125 
Q 47.65625 37.796875 51.625 33 
Q 55.609375 28.21875 55.609375 21.1875 
Q 55.609375 10.40625 48.1875 4.484375 
Q 40.765625 -1.421875 27.09375 -1.421875 
Q 22.515625 -1.421875 17.65625 -0.515625 
Q 12.796875 0.390625 7.625 2.203125 
L 7.625 11.71875 
Q 11.71875 9.328125 16.59375 8.109375 
Q 21.484375 6.890625 26.8125 6.890625 
Q 36.078125 6.890625 40.9375 10.546875 
Q 45.796875 14.203125 45.796875 21.1875 
Q 45.796875 27.640625 41.28125 31.265625 
Q 36.765625 34.90625 28.71875 34.90625 
L 20.21875 34.90625 
L 20.21875 43.015625 
L 29.109375 43.015625 
Q 36.375 43.015625 40.234375 45.921875 
Q 44.09375 48.828125 44.09375 54.296875 
Q 44.09375 59.90625 40.109375 62.90625 
Q 36.140625 65.921875 28.71875 65.921875 
Q 24.65625 65.921875 20.015625 65.03125 
Q 15.375 64.15625 9.8125 62.3125 
L 9.8125 71.09375 
Q 15.4375 72.65625 20.34375 73.4375 
Q 25.25 74.21875 29.59375 74.21875 
Q 40.828125 74.21875 47.359375 69.109375 
Q 53.90625 64.015625 53.90625 55.328125 
Q 53.90625 49.265625 50.4375 45.09375 
Q 46.96875 40.921875 40.578125 39.3125 
z
" id="DejaVuSans-33"/>
     <path d="M 11.71875 12.40625 
L 22.015625 12.40625 
L 22.015625 4 
L 14.015625 -11.625 
L 7.71875 -11.625 
L 11.71875 4 
z
" id="DejaVuSans-2c"/>
     <path d="M 16.890625 72.90625 
L 62.984375 72.90625 
L 61.375 64.59375 
L 25.09375 64.59375 
L 20.90625 43.015625 
L 55.71875 43.015625 
L 54.109375 34.71875 
L 19.28125 34.71875 
L 14.203125 8.296875 
L 51.3125 8.296875 
L 49.703125 0 
L 2.6875 0 
z
" id="DejaVuSans-Oblique-45"/>
     <path d="M 16.890625 72.90625 
L 30.171875 72.90625 
L 50.296875 10.40625 
L 62.5 72.90625 
L 72.125 72.90625 
L 57.90625 0 
L 44.578125 0 
L 24.515625 62.890625 
L 12.3125 0 
L 2.6875 0 
z
" id="DejaVuSans-Oblique-4e"/>
     <path d="M 10.59375 45.40625 
L 73.1875 45.40625 
L 73.1875 37.203125 
L 10.59375 37.203125 
z
M 10.59375 25.484375 
L 73.1875 25.484375 
L 73.1875 17.1875 
L 10.59375 17.1875 
z
" id="DejaVuSans-3d"/>
     <path d="M 4.890625 31.390625 
L 31.203125 31.390625 
L 31.203125 23.390625 
L 4.890625 23.390625 
z
" id="DejaVuSans-2d"/>
     <path d="M 12.40625 8.296875 
L 28.515625 8.296875 
L 28.515625 63.921875 
L 10.984375 60.40625 
L 10.984375 69.390625 
L 28.421875 72.90625 
L 38.28125 72.90625 
L 38.28125 8.296875 
L 54.390625 8.296875 
L 54.390625 0 
L 12.40625 0 
z
" id="DejaVuSans-31"/>
     <path d="M 10.6875 12.40625 
L 21 12.40625 
L 21 0 
L 10.6875 0 
z
" id="DejaVuSans-2e"/>
     <path d="M 31.78125 66.40625 
Q 24.171875 66.40625 20.328125 58.90625 
Q 16.5 51.421875 16.5 36.375 
Q 16.5 21.390625 20.328125 13.890625 
Q 24.171875 6.390625 31.78125 6.390625 
Q 39.453125 6.390625 43.28125 13.890625 
Q 47.125 21.390625 47.125 36.375 
Q 47.125 51.421875 43.28125 58.90625 
Q 39.453125 66.40625 31.78125 66.40625 
z
M 31.78125 74.21875 
Q 44.046875 74.21875 50.515625 64.515625 
Q 56.984375 54.828125 56.984375 36.375 
Q 56.984375 17.96875 50.515625 8.265625 
Q 44.046875 -1.421875 31.78125 -1.421875 
Q 19.53125 -1.421875 13.0625 8.265625 
Q 6.59375 17.96875 6.59375 36.375 
Q 6.59375 54.828125 13.0625 64.515625 
Q 19.53125 74.21875 31.78125 74.21875 
z
" id="DejaVuSans-30"/>
     <path d="M 10.796875 72.90625 
L 49.515625 72.90625 
L 49.515625 64.59375 
L 19.828125 64.59375 
L 19.828125 46.734375 
Q 21.96875 47.46875 24.109375 47.828125 
Q 26.265625 48.1875 28.421875 48.1875 
Q 40.625 48.1875 47.75 41.5 
Q 54.890625 34.8125 54.890625 23.390625 
Q 54.890625 11.625 47.5625 5.09375 
Q 40.234375 -1.421875 26.90625 -1.421875 
Q 22.3125 -1.421875 17.546875 -0.640625 
Q 12.796875 0.140625 7.71875 1.703125 
L 7.71875 11.625 
Q 12.109375 9.234375 16.796875 8.0625 
Q 21.484375 6.890625 26.703125 6.890625 
Q 35.15625 6.890625 40.078125 11.328125 
Q 45.015625 15.765625 45.015625 23.390625 
Q 45.015625 31 40.078125 35.4375 
Q 35.15625 39.890625 26.703125 39.890625 
Q 22.75 39.890625 18.8125 39.015625 
Q 14.890625 38.140625 10.796875 36.28125 
z
" id="DejaVuSans-35"/>
     <path d="M 28.609375 0 
L 0.78125 72.90625 
L 11.078125 72.90625 
L 34.1875 11.53125 
L 57.328125 72.90625 
L 67.578125 72.90625 
L 39.796875 0 
z
" id="DejaVuSans-56"/>
     <path d="M 34.1875 63.1875 
L 14.15625 8.203125 
L 54.25 8.203125 
z
M 0.78125 0 
L 28.609375 72.90625 
L 39.796875 72.90625 
L 67.578125 0 
z
" id="DejaVuSans-394"/>
     <path d="M 9.8125 72.90625 
L 55.90625 72.90625 
L 55.90625 64.59375 
L 19.671875 64.59375 
L 19.671875 43.015625 
L 54.390625 43.015625 
L 54.390625 34.71875 
L 19.671875 34.71875 
L 19.671875 8.296875 
L 56.78125 8.296875 
L 56.78125 0 
L 9.8125 0 
z
" id="DejaVuSans-45"/>
    </defs>
    <g transform="translate(63.228 35.472)scale(0.12 -0.12)">
     <use transform="translate(0 0.78125)" xlink:href="#DejaVuSans-53"/>
     <use transform="translate(63.476562 0.78125)" xlink:href="#DejaVuSans-74"/>
     <use transform="translate(102.685547 0.78125)" xlink:href="#DejaVuSans-72"/>
     <use transform="translate(143.798828 0.78125)" xlink:href="#DejaVuSans-75"/>
     <use transform="translate(207.177734 0.78125)" xlink:href="#DejaVuSans-63"/>
     <use transform="translate(262.158203 0.78125)" xlink:href="#DejaVuSans-74"/>
     <use transform="translate(301.367188 0.78125)" xlink:href="#DejaVuSans-75"/>
     <use transform="translate(364.746094 0.78125)" xlink:href="#DejaVuSans-72"/>
     <use transform="translate(405.859375 0.78125)" xlink:href="#DejaVuSans-65"/>
     <use transform="translate(467.382812 0.78125)" xlink:href="#DejaVuSans-20"/>
     <use transform="translate(499.169922 0.78125)" xlink:href="#DejaVuSans-23"/>
     <use transform="translate(582.958984 0.78125)" xlink:href="#DejaVuSans-37"/>
     <use transform="translate(646.582031 0.78125)" xlink:href="#DejaVuSans-36"/>
     <use transform="translate(710.205078 0.78125)" xlink:href="#DejaVuSans-33"/>
     <use transform="translate(773.828125 0.78125)" xlink:href="#DejaVuSans-37"/>
     <use transform="translate(837.451172 0.78125)" xlink:href="#DejaVuSans-2c"/>
     <use transform="translate(869.238281 0.78125)" xlink:href="#DejaVuSans-20"/>
     <use transform="translate(901.025391 0.78125)" xlink:href="#DejaVuSans-Oblique-45"/>
     <use transform="translate(964.208984 -15.625)scale(0.7)" xlink:href="#DejaVuSans-Oblique-4e"/>
     <use transform="translate(1019.306641 0.78125)" xlink:href="#DejaVuSans-3d"/>
     <use transform="translate(1103.095703 0.78125)" xlink:href="#DejaVuSans-2d"/>
     <use transform="translate(1139.179688 0.78125)" xlink:href="#DejaVuSans-31"/>
     <use transform="translate(1202.802734 0.78125)" xlink:href="#DejaVuSans-37"/>
     <use transform="translate(1266.425781 0.78125)" xlink:href="#DejaVuSans-36"/>
     <use transform="translate(1330.048828 0.78125)" xlink:href="#DejaVuSans-2e"/>
     <use transform="translate(1361.835938 0.78125)" xlink:href="#DejaVuSans-30"/>
     <use transform="translate(1425.458984 0.78125)" xlink:href="#DejaVuSans-35"/>
     <use transform="translate(1489.082031 0.78125)" xlink:href="#DejaVuSans-65"/>
     <use transform="translate(1550.605469 0.78125)" xlink:href="#DejaVuSans-56"/>
     <use transform="translate(1619.013672 0.78125)" xlink:href="#DejaVuSans-2c"/>
     <use transform="translate(1650.800781 0.78125)" xlink:href="#DejaVuSans-20"/>
     <use transform="translate(1682.587891 0.78125)" xlink:href="#DejaVuSans-394"/>
     <use transform="translate(1750.996094 0.78125)" xlink:href="#DejaVuSans-45"/>
     <use transform="translate(1814.179688 0.78125)" xlink:href="#DejaVuSans-3d"/>
     <use transform="translate(1897.96875 0.78125)" xlink:href="#DejaVuSans-2d"/>
     <use transform="translate(1934.052734 0.78125)" xlink:href="#DejaVuSans-30"/>
     <use transform="translate(1997.675781 0.78125)" xlink:href="#DejaVuSans-2e"/>
     <use transform="translate(2029.462891 0.78125)" xlink:href="#DejaVuSans-36"/>
     <use transform="translate(2093.085938 0.78125)" xlink:href="#DejaVuSans-33"/>
     <use transform="translate(2156.708984 0.78125)" xlink:href="#DejaVuSans-65"/>
     <use transform="translate(2218.232422 0.78125)" xlink:href="#DejaVuSans-56"/>
    </g>
   </g>
  </g>
  <g id="axes_2">
   <g id="patch_2">
    <path clip-path="url(#p72d84ef471)" d="M 361.152 307.584 
L 361.152 306.5445 
L 361.152 42.5115 
L 361.152 41.472 
L 374.4576 41.472 
L 374.4576 42.5115 
L 374.4576 306.5445 
L 374.4576 307.584 
z
" style="fill:#ffffff;stroke:#ffffff;stroke-linejoin:miter;stroke-width:0.01;"/>
   </g>
   <image height="265.68" id="image78b6f51ed5" transform="scale(1 -1)translate(0 -265.68)" width="12.96" x="361.44" xlink:href="data:image/png;base64,
iVBORw0KGgoAAAANSUhEUgAAABIAAAFxCAYAAAB+2fgXAAAABHNCSVQICAgIfAhkiAAAAeVJREFUeJztncmNw0AQA2ckheYQNv9QLIfQ8ygsCgQ7AEI8+jAs2Puz/94F1LP2ReCsZ18bAWIeZ5XaGRBE7VnbptG+KI101FYyNSiQG2oRITXKNaX9uclOdi2XWjftVE32CZCO2ou5Bj1TcCBr/1zB9ge7Fq0Rg2NM9pvbtG+ua1QgsRYhDy0ISEiNc40BEibbSI0Coj5CBGtkpFbXJiAjNZlrwhuSOv2M1DjXbEdEciBt1JSDDQKKpmZr2rr2j0DBGpXaWEJq3bQzEPIS26r9J+Wzv9Tm8o3aajRXqc3VUXsApKNWjeZq0x4ABVNbm7lrszVigDqP5vIl2+eaT2yfRkL7g+dRcNPqjohkjaCvRVBq0H2U3LQrOJCx9kdTg4B8oxZzzTdqdYHEngjUCAPyUctN9sVRq2sTECW2UKNLd2jVtRmo1A6AhMmWaSRcR8nUdIHUuVb75zJS218EyEitro1At69pIdeSk30Lkw0FktNImGyZRhy1O5galmxd03LUsHWk06jUZiCq+5Wb1kZNN4+wJxJuWt8RAW5am2sYNZ9rYCBzZ3buPKJ2P5Yj4Toy3keyIyJbIxs1rml1byCA84gpch5RQNB7Q0qNMGq2Hy4BXdNR41yz/cEEJfZzUz96r9PoB0okjeQ8y9TkAAAAAElFTkSuQmCC" y="-41.76"/>
   <g id="matplotlib.axis_1"/>
   <g id="matplotlib.axis_2">
    <g id="ytick_1">
     <g id="line2d_1">
      <defs>
       <path d="M 0 0 
L 3.5 0 
" id="m7f23bfbda3" style="stroke:#000000;stroke-width:0.8;"/>
      </defs>
      <g>
       <use style="stroke:#000000;stroke-width:0.8;" x="374.4576" xlink:href="#m7f23bfbda3" y="294.972227"/>
      </g>
     </g>
     <g id="text_2">
      <!-- −8.5 -->
      <defs>
       <path d="M 10.59375 35.5 
L 73.1875 35.5 
L 73.1875 27.203125 
L 10.59375 27.203125 
z
" id="DejaVuSans-2212"/>
       <path d="M 31.78125 34.625 
Q 24.75 34.625 20.71875 30.859375 
Q 16.703125 27.09375 16.703125 20.515625 
Q 16.703125 13.921875 20.71875 10.15625 
Q 24.75 6.390625 31.78125 6.390625 
Q 38.8125 6.390625 42.859375 10.171875 
Q 46.921875 13.96875 46.921875 20.515625 
Q 46.921875 27.09375 42.890625 30.859375 
Q 38.875 34.625 31.78125 34.625 
z
M 21.921875 38.8125 
Q 15.578125 40.375 12.03125 44.71875 
Q 8.5 49.078125 8.5 55.328125 
Q 8.5 64.0625 14.71875 69.140625 
Q 20.953125 74.21875 31.78125 74.21875 
Q 42.671875 74.21875 48.875 69.140625 
Q 55.078125 64.0625 55.078125 55.328125 
Q 55.078125 49.078125 51.53125 44.71875 
Q 48 40.375 41.703125 38.8125 
Q 48.828125 37.15625 52.796875 32.3125 
Q 56.78125 27.484375 56.78125 20.515625 
Q 56.78125 9.90625 50.3125 4.234375 
Q 43.84375 -1.421875 31.78125 -1.421875 
Q 19.734375 -1.421875 13.25 4.234375 
Q 6.78125 9.90625 6.78125 20.515625 
Q 6.78125 27.484375 10.78125 32.3125 
Q 14.796875 37.15625 21.921875 38.8125 
z
M 18.3125 54.390625 
Q 18.3125 48.734375 21.84375 45.5625 
Q 25.390625 42.390625 31.78125 42.390625 
Q 38.140625 42.390625 41.71875 45.5625 
Q 45.3125 48.734375 45.3125 54.390625 
Q 45.3125 60.0625 41.71875 63.234375 
Q 38.140625 66.40625 31.78125 66.40625 
Q 25.390625 66.40625 21.84375 63.234375 
Q 18.3125 60.0625 18.3125 54.390625 
z
" id="DejaVuSans-38"/>
      </defs>
      <g transform="translate(381.4576 298.771446)scale(0.1 -0.1)">
       <use xlink:href="#DejaVuSans-2212"/>
       <use x="83.789062" xlink:href="#DejaVuSans-38"/>
       <use x="147.412109" xlink:href="#DejaVuSans-2e"/>
       <use x="179.199219" xlink:href="#DejaVuSans-35"/>
      </g>
     </g>
    </g>
    <g id="ytick_2">
     <g id="line2d_2">
      <g>
       <use style="stroke:#000000;stroke-width:0.8;" x="374.4576" xlink:href="#m7f23bfbda3" y="258.20857"/>
      </g>
     </g>
     <g id="text_3">
      <!-- −8.0 -->
      <g transform="translate(381.4576 262.007789)scale(0.1 -0.1)">
       <use xlink:href="#DejaVuSans-2212"/>
       <use x="83.789062" xlink:href="#DejaVuSans-38"/>
       <use x="147.412109" xlink:href="#DejaVuSans-2e"/>
       <use x="179.199219" xlink:href="#DejaVuSans-30"/>
      </g>
     </g>
    </g>
    <g id="ytick_3">
     <g id="line2d_3">
      <g>
       <use style="stroke:#000000;stroke-width:0.8;" x="374.4576" xlink:href="#m7f23bfbda3" y="221.444913"/>
      </g>
     </g>
     <g id="text_4">
      <!-- −7.5 -->
      <g transform="translate(381.4576 225.244132)scale(0.1 -0.1)">
       <use xlink:href="#DejaVuSans-2212"/>
       <use x="83.789062" xlink:href="#DejaVuSans-37"/>
       <use x="147.412109" xlink:href="#DejaVuSans-2e"/>
       <use x="179.199219" xlink:href="#DejaVuSans-35"/>
      </g>
     </g>
    </g>
    <g id="ytick_4">
     <g id="line2d_4">
      <g>
       <use style="stroke:#000000;stroke-width:0.8;" x="374.4576" xlink:href="#m7f23bfbda3" y="184.681256"/>
      </g>
     </g>
     <g id="text_5">
      <!-- −7.0 -->
      <g transform="translate(381.4576 188.480475)scale(0.1 -0.1)">
       <use xlink:href="#DejaVuSans-2212"/>
       <use x="83.789062" xlink:href="#DejaVuSans-37"/>
       <use x="147.412109" xlink:href="#DejaVuSans-2e"/>
       <use x="179.199219" xlink:href="#DejaVuSans-30"/>
      </g>
     </g>
    </g>
    <g id="ytick_5">
     <g id="line2d_5">
      <g>
       <use style="stroke:#000000;stroke-width:0.8;" x="374.4576" xlink:href="#m7f23bfbda3" y="147.917599"/>
      </g>
     </g>
     <g id="text_6">
      <!-- −6.5 -->
      <g transform="translate(381.4576 151.716818)scale(0.1 -0.1)">
       <use xlink:href="#DejaVuSans-2212"/>
       <use x="83.789062" xlink:href="#DejaVuSans-36"/>
       <use x="147.412109" xlink:href="#DejaVuSans-2e"/>
       <use x="179.199219" xlink:href="#DejaVuSans-35"/>
      </g>
     </g>
    </g>
    <g id="ytick_6">
     <g id="line2d_6">
      <g>
       <use style="stroke:#000000;stroke-width:0.8;" x="374.4576" xlink:href="#m7f23bfbda3" y="111.153942"/>
      </g>
     </g>
     <g id="text_7">
      <!-- −6.0 -->
      <g transform="translate(381.4576 114.953161)scale(0.1 -0.1)">
       <use xlink:href="#DejaVuSans-2212"/>
       <use x="83.789062" xlink:href="#DejaVuSans-36"/>
       <use x="147.412109" xlink:href="#DejaVuSans-2e"/>
       <use x="179.199219" xlink:href="#DejaVuSans-30"/>
      </g>
     </g>
    </g>
    <g id="ytick_7">
     <g id="line2d_7">
      <g>
       <use style="stroke:#000000;stroke-width:0.8;" x="374.4576" xlink:href="#m7f23bfbda3" y="74.390285"/>
      </g>
     </g>
     <g id="text_8">
      <!-- −5.5 -->
      <g transform="translate(381.4576 78.189504)scale(0.1 -0.1)">
       <use xlink:href="#DejaVuSans-2212"/>
       <use x="83.789062" xlink:href="#DejaVuSans-35"/>
       <use x="147.412109" xlink:href="#DejaVuSans-2e"/>
       <use x="179.199219" xlink:href="#DejaVuSans-35"/>
      </g>
     </g>
    </g>
    <g id="text_9">
     <!-- Energy [eV] -->
     <defs>
      <path d="M 54.890625 33.015625 
L 54.890625 0 
L 45.90625 0 
L 45.90625 32.71875 
Q 45.90625 40.484375 42.875 44.328125 
Q 39.84375 48.1875 33.796875 48.1875 
Q 26.515625 48.1875 22.3125 43.546875 
Q 18.109375 38.921875 18.109375 30.90625 
L 18.109375 0 
L 9.078125 0 
L 9.078125 54.6875 
L 18.109375 54.6875 
L 18.109375 46.1875 
Q 21.34375 51.125 25.703125 53.5625 
Q 30.078125 56 35.796875 56 
Q 45.21875 56 50.046875 50.171875 
Q 54.890625 44.34375 54.890625 33.015625 
z
" id="DejaVuSans-6e"/>
      <path d="M 45.40625 27.984375 
Q 45.40625 37.75 41.375 43.109375 
Q 37.359375 48.484375 30.078125 48.484375 
Q 22.859375 48.484375 18.828125 43.109375 
Q 14.796875 37.75 14.796875 27.984375 
Q 14.796875 18.265625 18.828125 12.890625 
Q 22.859375 7.515625 30.078125 7.515625 
Q 37.359375 7.515625 41.375 12.890625 
Q 45.40625 18.265625 45.40625 27.984375 
z
M 54.390625 6.78125 
Q 54.390625 -7.171875 48.1875 -13.984375 
Q 42 -20.796875 29.203125 -20.796875 
Q 24.46875 -20.796875 20.265625 -20.09375 
Q 16.0625 -19.390625 12.109375 -17.921875 
L 12.109375 -9.1875 
Q 16.0625 -11.328125 19.921875 -12.34375 
Q 23.78125 -13.375 27.78125 -13.375 
Q 36.625 -13.375 41.015625 -8.765625 
Q 45.40625 -4.15625 45.40625 5.171875 
L 45.40625 9.625 
Q 42.625 4.78125 38.28125 2.390625 
Q 33.9375 0 27.875 0 
Q 17.828125 0 11.671875 7.65625 
Q 5.515625 15.328125 5.515625 27.984375 
Q 5.515625 40.671875 11.671875 48.328125 
Q 17.828125 56 27.875 56 
Q 33.9375 56 38.28125 53.609375 
Q 42.625 51.21875 45.40625 46.390625 
L 45.40625 54.6875 
L 54.390625 54.6875 
z
" id="DejaVuSans-67"/>
      <path d="M 32.171875 -5.078125 
Q 28.375 -14.84375 24.75 -17.8125 
Q 21.140625 -20.796875 15.09375 -20.796875 
L 7.90625 -20.796875 
L 7.90625 -13.28125 
L 13.1875 -13.28125 
Q 16.890625 -13.28125 18.9375 -11.515625 
Q 21 -9.765625 23.484375 -3.21875 
L 25.09375 0.875 
L 2.984375 54.6875 
L 12.5 54.6875 
L 29.59375 11.921875 
L 46.6875 54.6875 
L 56.203125 54.6875 
z
" id="DejaVuSans-79"/>
      <path d="M 8.59375 75.984375 
L 29.296875 75.984375 
L 29.296875 69 
L 17.578125 69 
L 17.578125 -6.203125 
L 29.296875 -6.203125 
L 29.296875 -13.1875 
L 8.59375 -13.1875 
z
" id="DejaVuSans-5b"/>
      <path d="M 30.421875 75.984375 
L 30.421875 -13.1875 
L 9.71875 -13.1875 
L 9.71875 -6.203125 
L 21.390625 -6.203125 
L 21.390625 69 
L 9.71875 69 
L 9.71875 75.984375 
z
" id="DejaVuSans-5d"/>
     </defs>
     <g transform="translate(417.33885 204.108469)rotate(-90)scale(0.1 -0.1)">
      <use xlink:href="#DejaVuSans-45"/>
      <use x="63.183594" xlink:href="#DejaVuSans-6e"/>
      <use x="126.5625" xlink:href="#DejaVuSans-65"/>
      <use x="188.085938" xlink:href="#DejaVuSans-72"/>
      <use x="229.183594" xlink:href="#DejaVuSans-67"/>
      <use x="292.660156" xlink:href="#DejaVuSans-79"/>
      <use x="351.839844" xlink:href="#DejaVuSans-20"/>
      <use x="383.626953" xlink:href="#DejaVuSans-5b"/>
      <use x="422.640625" xlink:href="#DejaVuSans-65"/>
      <use x="484.164062" xlink:href="#DejaVuSans-56"/>
      <use x="552.572266" xlink:href="#DejaVuSans-5d"/>
     </g>
    </g>
   </g>
   <g id="patch_3">
    <path d="M 361.152 307.584 
L 361.152 306.5445 
L 361.152 42.5115 
L 361.152 41.472 
L 374.4576 41.472 
L 374.4576 42.5115 
L 374.4576 306.5445 
L 374.4576 307.584 
z
" style="fill:none;stroke:#000000;stroke-linejoin:miter;stroke-width:0.8;"/>
   </g>
  </g>
 </g>
 <defs>
  <clipPath id="pbb27022673">
   <rect height="266.112" width="285.696" x="57.6" y="41.472"/>
  </clipPath>
  <clipPath id="p72d84ef471">
   <rect height="266.112" width="13.3056" x="361.152" y="41.472"/>
  </clipPath>
 </defs>
</svg>
