<?xml version="1.0" encoding="utf-8" standalone="no"?>
<!DOCTYPE svg PUBLIC "-//W3C//DTD SVG 1.1//EN"
  "http://www.w3.org/Graphics/SVG/1.1/DTD/svg11.dtd">
<!-- Created with matplotlib (http://matplotlib.org/) -->
<svg height="345.6pt" version="1.1" viewBox="0 0 460.8 345.6" width="460.8pt" xmlns="http://www.w3.org/2000/svg" xmlns:xlink="http://www.w3.org/1999/xlink">
 <defs>
  <style type="text/css">
*{stroke-linecap:butt;stroke-linejoin:round;}
  </style>
 </defs>
 <g id="figure_1">
  <g id="patch_1">
   <path d="M 0 345.6 
L 460.8 345.6 
L 460.8 0 
L 0 0 
z
" style="fill:#ffffff;"/>
  </g>
  <g id="axes_1">
   <g id="CircleCollection_1">
    <path clip-path="url(#pa8cee7aee9)" d="M 311.062478 231.566377 
C 312.816873 231.566377 314.49965 230.869349 315.740194 229.628804 
C 316.980739 228.388259 317.677768 226.705483 317.677768 224.951087 
C 317.677768 223.196692 316.980739 221.513916 315.740194 220.273371 
C 314.49965 219.032826 312.816873 218.335797 311.062478 218.335797 
C 309.308083 218.335797 307.625306 219.032826 306.384762 220.273371 
C 305.144217 221.513916 304.447188 223.196692 304.447188 224.951087 
C 304.447188 226.705483 305.144217 228.388259 306.384762 229.628804 
C 307.625306 230.869349 309.308083 231.566377 311.062478 231.566377 
z
" style="fill:#b0dd2f;"/>
    <path clip-path="url(#pa8cee7aee9)" d="M 98.624389 187.528393 
C 100.391255 187.528393 102.085993 186.82641 103.335356 185.577047 
C 104.584719 184.327684 105.286702 182.632946 105.286702 180.866081 
C 105.286702 179.099215 104.584719 177.404477 103.335356 176.155114 
C 102.085993 174.905751 100.391255 174.203768 98.624389 174.203768 
C 96.857524 174.203768 95.162786 174.905751 93.913423 176.155114 
C 92.66406 177.404477 91.962077 179.099215 91.962077 180.866081 
C 91.962077 182.632946 92.66406 184.327684 93.913423 185.577047 
C 95.162786 186.82641 96.857524 187.528393 98.624389 187.528393 
z
" style="fill:#1fa187;"/>
    <path clip-path="url(#pa8cee7aee9)" d="M 329.886306 194.635997 
C 331.644611 194.635997 333.331137 193.937415 334.574446 192.694105 
C 335.817756 191.450796 336.516338 189.76427 336.516338 188.005965 
C 336.516338 186.24766 335.817756 184.561134 334.574446 183.317824 
C 333.331137 182.074515 331.644611 181.375933 329.886306 181.375933 
C 328.128001 181.375933 326.441475 182.074515 325.198165 183.317824 
C 323.954856 184.561134 323.256274 186.24766 323.256274 188.005965 
C 323.256274 189.76427 323.954856 191.450796 325.198165 192.694105 
C 326.441475 193.937415 328.128001 194.635997 329.886306 194.635997 
z
" style="fill:#1e9d89;"/>
    <path clip-path="url(#pa8cee7aee9)" d="M 231.166976 251.758019 
C 232.916921 251.758019 234.595429 251.062759 235.832827 249.825361 
C 237.070225 248.587963 237.765485 246.909455 237.765485 245.15951 
C 237.765485 243.409565 237.070225 241.731058 235.832827 240.49366 
C 234.595429 239.256261 232.916921 238.561001 231.166976 238.561001 
C 229.417031 238.561001 227.738523 239.256261 226.501125 240.49366 
C 225.263727 241.731058 224.568467 243.409565 224.568467 245.15951 
C 224.568467 246.909455 225.263727 248.587963 226.501125 249.825361 
C 227.738523 251.062759 229.417031 251.758019 231.166976 251.758019 
z
" style="fill:#443983;"/>
    <path clip-path="url(#pa8cee7aee9)" d="M 123.174184 152.475075 
C 124.9425 152.475075 126.638628 151.772516 127.889016 150.522127 
C 129.139405 149.271739 129.841964 147.575611 129.841964 145.807295 
C 129.841964 144.038979 129.139405 142.34285 127.889016 141.092462 
C 126.638628 139.842074 124.9425 139.139514 123.174184 139.139514 
C 121.405868 139.139514 119.709739 139.842074 118.459351 141.092462 
C 117.208963 142.34285 116.506403 144.038979 116.506403 145.807295 
C 116.506403 147.575611 117.208963 149.271739 118.459351 150.522127 
C 119.709739 151.772516 121.405868 152.475075 123.174184 152.475075 
z
" style="fill:#482374;"/>
    <path clip-path="url(#pa8cee7aee9)" d="M 266.927812 223.723779 
C 268.681114 223.723779 270.362841 223.027185 271.602613 221.787413 
C 272.842384 220.547641 273.538978 218.865914 273.538978 217.112612 
C 273.538978 215.359311 272.842384 213.677583 271.602613 212.437812 
C 270.362841 211.19804 268.681114 210.501446 266.927812 210.501446 
C 265.17451 210.501446 263.492783 211.19804 262.253011 212.437812 
C 261.01324 213.677583 260.316645 215.359311 260.316645 217.112612 
C 260.316645 218.865914 261.01324 220.547641 262.253011 221.787413 
C 263.492783 223.027185 265.17451 223.723779 266.927812 223.723779 
z
" style="fill:#481769;"/>
    <path clip-path="url(#pa8cee7aee9)" d="M 191.711985 229.079521 
C 193.463856 229.079521 195.14421 228.383495 196.38297 227.144736 
C 197.621729 225.905976 198.317755 224.225622 198.317755 222.473751 
C 198.317755 220.72188 197.621729 219.041526 196.38297 217.802766 
C 195.14421 216.564007 193.463856 215.867981 191.711985 215.867981 
C 189.960114 215.867981 188.27976 216.564007 187.041 217.802766 
C 185.802241 219.041526 185.106215 220.72188 185.106215 222.473751 
C 185.106215 224.225622 185.802241 225.905976 187.041 227.144736 
C 188.27976 228.383495 189.960114 229.079521 191.711985 229.079521 
z
" style="fill:#2a778e;"/>
    <path clip-path="url(#pa8cee7aee9)" d="M 257.35142 60.702454 
C 259.09587 60.702454 260.769107 60.009377 262.002619 58.775865 
C 263.236131 57.542353 263.929209 55.869116 263.929209 54.124666 
C 263.929209 52.380216 263.236131 50.70698 262.002619 49.473468 
C 260.769107 48.239955 259.09587 47.546878 257.35142 47.546878 
C 255.60697 47.546878 253.933734 48.239955 252.700222 49.473468 
C 251.466709 50.70698 250.773632 52.380216 250.773632 54.124666 
C 250.773632 55.869116 251.466709 57.542353 252.700222 58.775865 
C 253.933734 60.009377 255.60697 60.702454 257.35142 60.702454 
z
" style="fill:#fde725;"/>
    <path clip-path="url(#pa8cee7aee9)" d="M 171.405081 150.181249 
C 173.165196 150.181249 174.853457 149.481948 176.098045 148.237359 
C 177.342634 146.992771 178.041935 145.304509 178.041935 143.544395 
C 178.041935 141.784281 177.342634 140.09602 176.098045 138.851431 
C 174.853457 137.606843 173.165196 136.907542 171.405081 136.907542 
C 169.644967 136.907542 167.956706 137.606843 166.712118 138.851431 
C 165.467529 140.09602 164.768228 141.784281 164.768228 143.544395 
C 164.768228 145.304509 165.467529 146.992771 166.712118 148.237359 
C 167.956706 149.481948 169.644967 150.181249 171.405081 150.181249 
z
" style="fill:#2d708e;"/>
    <path clip-path="url(#pa8cee7aee9)" d="M 139.816087 83.948218 
C 141.588476 83.948218 143.288512 83.24404 144.541781 81.990771 
C 145.79505 80.737502 146.499228 79.037467 146.499228 77.265077 
C 146.499228 75.492687 145.79505 73.792651 144.541781 72.539382 
C 143.288512 71.286113 141.588476 70.581936 139.816087 70.581936 
C 138.043697 70.581936 136.343661 71.286113 135.090392 72.539382 
C 133.837123 73.792651 133.132945 75.492687 133.132945 77.265077 
C 133.132945 79.037467 133.837123 80.737502 135.090392 81.990771 
C 136.343661 83.24404 138.043697 83.948218 139.816087 83.948218 
z
" style="fill:#c8e020;"/>
    <path clip-path="url(#pa8cee7aee9)" d="M 82.569476 224.394851 
C 84.328862 224.394851 86.016424 223.69584 87.260497 222.451767 
C 88.50457 221.207694 89.203581 219.520132 89.203581 217.760747 
C 89.203581 216.001361 88.50457 214.313799 87.260497 213.069726 
C 86.016424 211.825653 84.328862 211.126642 82.569476 211.126642 
C 80.810091 211.126642 79.122529 211.825653 77.878456 213.069726 
C 76.634383 214.313799 75.935372 216.001361 75.935372 217.760747 
C 75.935372 219.520132 76.634383 221.207694 77.878456 222.451767 
C 79.122529 223.69584 80.810091 224.394851 82.569476 224.394851 
z
" style="fill:#27808e;"/>
    <path clip-path="url(#pa8cee7aee9)" d="M 221.210408 88.249419 
C 222.964748 88.249419 224.647472 87.552412 225.887978 86.311906 
C 227.128484 85.071399 227.825491 83.388676 227.825491 81.634335 
C 227.825491 79.879995 227.128484 78.197271 225.887978 76.956765 
C 224.647472 75.716259 222.964748 75.019252 221.210408 75.019252 
C 219.456067 75.019252 217.773344 75.716259 216.532837 76.956765 
C 215.292331 78.197271 214.595324 79.879995 214.595324 81.634335 
C 214.595324 83.388676 215.292331 85.071399 216.532837 86.311906 
C 217.773344 87.552412 219.456067 88.249419 221.210408 88.249419 
z
" style="fill:#2b748e;"/>
    <path clip-path="url(#pa8cee7aee9)" d="M 261.492551 105.212119 
C 263.245835 105.212119 264.927545 104.515532 266.167304 103.275773 
C 267.407063 102.036014 268.10365 100.354304 268.10365 98.60102 
C 268.10365 96.847736 267.407063 95.166026 266.167304 93.926267 
C 264.927545 92.686508 263.245835 91.989921 261.492551 91.989921 
C 259.739267 91.989921 258.057557 92.686508 256.817799 93.926267 
C 255.57804 95.166026 254.881453 96.847736 254.881453 98.60102 
C 254.881453 100.354304 255.57804 102.036014 256.817799 103.275773 
C 258.057557 104.515532 259.739267 105.212119 261.492551 105.212119 
z
" style="fill:#27808e;"/>
    <path clip-path="url(#pa8cee7aee9)" d="M 200.68407 184.488127 
C 202.439347 184.488127 204.12297 183.790748 205.364138 182.549579 
C 206.605307 181.308411 207.302686 179.624788 207.302686 177.869511 
C 207.302686 176.114233 206.605307 174.430611 205.364138 173.189442 
C 204.12297 171.948274 202.439347 171.250894 200.68407 171.250894 
C 198.928792 171.250894 197.24517 171.948274 196.004001 173.189442 
C 194.762832 174.430611 194.065453 176.114233 194.065453 177.869511 
C 194.065453 179.624788 194.762832 181.308411 196.004001 182.549579 
C 197.24517 183.790748 198.928792 184.488127 200.68407 184.488127 
z
" style="fill:#355e8d;"/>
    <path clip-path="url(#pa8cee7aee9)" d="M 71.007484 267.062219 
C 72.756614 267.062219 74.43434 266.367282 75.671161 265.13046 
C 76.907983 263.893639 77.60292 262.215913 77.60292 260.466783 
C 77.60292 258.717653 76.907983 257.039928 75.671161 255.803106 
C 74.43434 254.566285 72.756614 253.871348 71.007484 253.871348 
C 69.258354 253.871348 67.580629 254.566285 66.343807 255.803106 
C 65.106985 257.039928 64.412049 258.717653 64.412049 260.466783 
C 64.412049 262.215913 65.106985 263.893639 66.343807 265.13046 
C 67.580629 266.367282 69.258354 267.062219 71.007484 267.062219 
z
" style="fill:#e2e418;"/>
    <path clip-path="url(#pa8cee7aee9)" d="M 109.080529 110.061604 
C 110.857375 110.061604 112.561685 109.355656 113.818105 108.099236 
C 115.074524 106.842817 115.780473 105.138507 115.780473 103.361661 
C 115.780473 101.584815 115.074524 99.880505 113.818105 98.624086 
C 112.561685 97.367666 110.857375 96.661718 109.080529 96.661718 
C 107.303684 96.661718 105.599374 97.367666 104.342954 98.624086 
C 103.086534 99.880505 102.380586 101.584815 102.380586 103.361661 
C 102.380586 105.138507 103.086534 106.842817 104.342954 108.099236 
C 105.599374 109.355656 107.303684 110.061604 109.080529 110.061604 
z
" style="fill:#c2df23;"/>
    <path clip-path="url(#pa8cee7aee9)" d="M 181.457915 301.496341 
C 183.198662 301.496341 184.868347 300.804735 186.099241 299.573841 
C 187.330135 298.342947 188.021741 296.673262 188.021741 294.932515 
C 188.021741 293.191768 187.330135 291.522084 186.099241 290.29119 
C 184.868347 289.060296 183.198662 288.368689 181.457915 288.368689 
C 179.717168 288.368689 178.047483 289.060296 176.816589 290.29119 
C 175.585695 291.522084 174.894089 293.191768 174.894089 294.932515 
C 174.894089 296.673262 175.585695 298.342947 176.816589 299.573841 
C 178.047483 300.804735 179.717168 301.496341 181.457915 301.496341 
z
" style="fill:#f1e51d;"/>
    <path clip-path="url(#pa8cee7aee9)" d="M 158.067014 262.639106 
C 159.813751 262.639106 161.489182 261.94512 162.724312 260.70999 
C 163.959442 259.47486 164.653428 257.79943 164.653428 256.052692 
C 164.653428 254.305955 163.959442 252.630524 162.724312 251.395394 
C 161.489182 250.160264 159.813751 249.466278 158.067014 249.466278 
C 156.320276 249.466278 154.644846 250.160264 153.409716 251.395394 
C 152.174586 252.630524 151.4806 254.305955 151.4806 256.052692 
C 151.4806 257.79943 152.174586 259.47486 153.409716 260.70999 
C 154.644846 261.94512 156.320276 262.639106 158.067014 262.639106 
z
" style="fill:#472c7a;"/>
    <path clip-path="url(#pa8cee7aee9)" d="M 221.555793 295.335181 
C 223.300867 295.335181 224.974703 294.641856 226.208656 293.407902 
C 227.44261 292.173948 228.135935 290.500113 228.135935 288.755039 
C 228.135935 287.009965 227.44261 285.33613 226.208656 284.102176 
C 224.974703 282.868222 223.300867 282.174897 221.555793 282.174897 
C 219.810719 282.174897 218.136884 282.868222 216.90293 284.102176 
C 215.668977 285.33613 214.975651 287.009965 214.975651 288.755039 
C 214.975651 290.500113 215.668977 292.173948 216.90293 293.407902 
C 218.136884 294.641856 219.810719 295.335181 221.555793 295.335181 
z
" style="fill:#b2dd2d;"/>
    <path clip-path="url(#pa8cee7aee9)" d="M 114.364549 261.372969 
C 116.112682 261.372969 117.789451 260.678428 119.025568 259.442311 
C 120.261685 258.206195 120.956225 256.529425 120.956225 254.781292 
C 120.956225 253.033159 120.261685 251.35639 119.025568 250.120273 
C 117.789451 248.884156 116.112682 248.189616 114.364549 248.189616 
C 112.616416 248.189616 110.939647 248.884156 109.70353 250.120273 
C 108.467413 251.35639 107.772872 253.033159 107.772872 254.781292 
C 107.772872 256.529425 108.467413 258.206195 109.70353 259.442311 
C 110.939647 260.678428 112.616416 261.372969 114.364549 261.372969 
z
" style="fill:#1f988b;"/>
    <path clip-path="url(#pa8cee7aee9)" d="M 249.466276 181.717271 
C 251.221747 181.717271 252.905555 181.019815 254.146861 179.778509 
C 255.388166 178.537204 256.085623 176.853396 256.085623 175.097924 
C 256.085623 173.342453 255.388166 171.658645 254.146861 170.417339 
C 252.905555 169.176034 251.221747 168.478578 249.466276 168.478578 
C 247.710805 168.478578 246.026997 169.176034 244.785691 170.417339 
C 243.544385 171.658645 242.846929 173.342453 242.846929 175.097924 
C 242.846929 176.853396 243.544385 178.537204 244.785691 179.778509 
C 246.026997 181.019815 247.710805 181.717271 249.466276 181.717271 
z
" style="fill:#2a778e;"/>
    <path clip-path="url(#pa8cee7aee9)" d="M 323.642977 154.434234 
C 325.402434 154.434234 327.090064 153.735195 328.334188 152.491071 
C 329.578311 151.246948 330.277351 149.559317 330.277351 147.799861 
C 330.277351 146.040405 329.578311 144.352774 328.334188 143.108651 
C 327.090064 141.864527 325.402434 141.165488 323.642977 141.165488 
C 321.883521 141.165488 320.195891 141.864527 318.951767 143.108651 
C 317.707644 144.352774 317.008604 146.040405 317.008604 147.799861 
C 317.008604 149.559317 317.707644 151.246948 318.951767 152.491071 
C 320.195891 153.735195 321.883521 154.434234 323.642977 154.434234 
z
" style="fill:#b2dd2d;"/>
    <path clip-path="url(#pa8cee7aee9)" d="M 180.2567 104.585833 
C 182.018244 104.585833 183.707877 103.885964 184.953476 102.640365 
C 186.199076 101.394765 186.898944 99.705133 186.898944 97.943589 
C 186.898944 96.182045 186.199076 94.492413 184.953476 93.246813 
C 183.707877 92.001214 182.018244 91.301345 180.2567 91.301345 
C 178.495157 91.301345 176.805524 92.001214 175.559925 93.246813 
C 174.314325 94.492413 173.614456 96.182045 173.614456 97.943589 
C 173.614456 99.705133 174.314325 101.394765 175.559925 102.640365 
C 176.805524 103.885964 178.495157 104.585833 180.2567 104.585833 
z
" style="fill:#482475;"/>
    <path clip-path="url(#pa8cee7aee9)" d="M 278.462716 146.5366 
C 280.219959 146.5366 281.905467 145.83844 283.148025 144.595881 
C 284.390584 143.353323 285.088744 141.667815 285.088744 139.910572 
C 285.088744 138.153328 284.390584 136.467821 283.148025 135.225262 
C 281.905467 133.982703 280.219959 133.284543 278.462716 133.284543 
C 276.705472 133.284543 275.019965 133.982703 273.777406 135.225262 
C 272.534847 136.467821 271.836687 138.153328 271.836687 139.910572 
C 271.836687 141.667815 272.534847 143.353323 273.777406 144.595881 
C 275.019965 145.83844 276.705472 146.5366 278.462716 146.5366 
z
" style="fill:#440154;"/>
   </g>
   <g id="text_1">
    <!-- Structure #1646, $E_N$=-180.20eV, ΔE=-0.15eV -->
    <defs>
     <path d="M 53.515625 70.515625 
L 53.515625 60.890625 
Q 47.90625 63.578125 42.921875 64.890625 
Q 37.9375 66.21875 33.296875 66.21875 
Q 25.25 66.21875 20.875 63.09375 
Q 16.5 59.96875 16.5 54.203125 
Q 16.5 49.359375 19.40625 46.890625 
Q 22.3125 44.4375 30.421875 42.921875 
L 36.375 41.703125 
Q 47.40625 39.59375 52.65625 34.296875 
Q 57.90625 29 57.90625 20.125 
Q 57.90625 9.515625 50.796875 4.046875 
Q 43.703125 -1.421875 29.984375 -1.421875 
Q 24.8125 -1.421875 18.96875 -0.25 
Q 13.140625 0.921875 6.890625 3.21875 
L 6.890625 13.375 
Q 12.890625 10.015625 18.65625 8.296875 
Q 24.421875 6.59375 29.984375 6.59375 
Q 38.421875 6.59375 43.015625 9.90625 
Q 47.609375 13.234375 47.609375 19.390625 
Q 47.609375 24.75 44.3125 27.78125 
Q 41.015625 30.8125 33.5 32.328125 
L 27.484375 33.5 
Q 16.453125 35.6875 11.515625 40.375 
Q 6.59375 45.0625 6.59375 53.421875 
Q 6.59375 63.09375 13.40625 68.65625 
Q 20.21875 74.21875 32.171875 74.21875 
Q 37.3125 74.21875 42.625 73.28125 
Q 47.953125 72.359375 53.515625 70.515625 
z
" id="DejaVuSans-53"/>
     <path d="M 18.3125 70.21875 
L 18.3125 54.6875 
L 36.8125 54.6875 
L 36.8125 47.703125 
L 18.3125 47.703125 
L 18.3125 18.015625 
Q 18.3125 11.328125 20.140625 9.421875 
Q 21.96875 7.515625 27.59375 7.515625 
L 36.8125 7.515625 
L 36.8125 0 
L 27.59375 0 
Q 17.1875 0 13.234375 3.875 
Q 9.28125 7.765625 9.28125 18.015625 
L 9.28125 47.703125 
L 2.6875 47.703125 
L 2.6875 54.6875 
L 9.28125 54.6875 
L 9.28125 70.21875 
z
" id="DejaVuSans-74"/>
     <path d="M 41.109375 46.296875 
Q 39.59375 47.171875 37.8125 47.578125 
Q 36.03125 48 33.890625 48 
Q 26.265625 48 22.1875 43.046875 
Q 18.109375 38.09375 18.109375 28.8125 
L 18.109375 0 
L 9.078125 0 
L 9.078125 54.6875 
L 18.109375 54.6875 
L 18.109375 46.1875 
Q 20.953125 51.171875 25.484375 53.578125 
Q 30.03125 56 36.53125 56 
Q 37.453125 56 38.578125 55.875 
Q 39.703125 55.765625 41.0625 55.515625 
z
" id="DejaVuSans-72"/>
     <path d="M 8.5 21.578125 
L 8.5 54.6875 
L 17.484375 54.6875 
L 17.484375 21.921875 
Q 17.484375 14.15625 20.5 10.265625 
Q 23.53125 6.390625 29.59375 6.390625 
Q 36.859375 6.390625 41.078125 11.03125 
Q 45.3125 15.671875 45.3125 23.6875 
L 45.3125 54.6875 
L 54.296875 54.6875 
L 54.296875 0 
L 45.3125 0 
L 45.3125 8.40625 
Q 42.046875 3.421875 37.71875 1 
Q 33.40625 -1.421875 27.6875 -1.421875 
Q 18.265625 -1.421875 13.375 4.4375 
Q 8.5 10.296875 8.5 21.578125 
z
M 31.109375 56 
z
" id="DejaVuSans-75"/>
     <path d="M 48.78125 52.59375 
L 48.78125 44.1875 
Q 44.96875 46.296875 41.140625 47.34375 
Q 37.3125 48.390625 33.40625 48.390625 
Q 24.65625 48.390625 19.8125 42.84375 
Q 14.984375 37.3125 14.984375 27.296875 
Q 14.984375 17.28125 19.8125 11.734375 
Q 24.65625 6.203125 33.40625 6.203125 
Q 37.3125 6.203125 41.140625 7.25 
Q 44.96875 8.296875 48.78125 10.40625 
L 48.78125 2.09375 
Q 45.015625 0.34375 40.984375 -0.53125 
Q 36.96875 -1.421875 32.421875 -1.421875 
Q 20.0625 -1.421875 12.78125 6.34375 
Q 5.515625 14.109375 5.515625 27.296875 
Q 5.515625 40.671875 12.859375 48.328125 
Q 20.21875 56 33.015625 56 
Q 37.15625 56 41.109375 55.140625 
Q 45.0625 54.296875 48.78125 52.59375 
z
" id="DejaVuSans-63"/>
     <path d="M 56.203125 29.59375 
L 56.203125 25.203125 
L 14.890625 25.203125 
Q 15.484375 15.921875 20.484375 11.0625 
Q 25.484375 6.203125 34.421875 6.203125 
Q 39.59375 6.203125 44.453125 7.46875 
Q 49.3125 8.734375 54.109375 11.28125 
L 54.109375 2.78125 
Q 49.265625 0.734375 44.1875 -0.34375 
Q 39.109375 -1.421875 33.890625 -1.421875 
Q 20.796875 -1.421875 13.15625 6.1875 
Q 5.515625 13.8125 5.515625 26.8125 
Q 5.515625 40.234375 12.765625 48.109375 
Q 20.015625 56 32.328125 56 
Q 43.359375 56 49.78125 48.890625 
Q 56.203125 41.796875 56.203125 29.59375 
z
M 47.21875 32.234375 
Q 47.125 39.59375 43.09375 43.984375 
Q 39.0625 48.390625 32.421875 48.390625 
Q 24.90625 48.390625 20.390625 44.140625 
Q 15.875 39.890625 15.1875 32.171875 
z
" id="DejaVuSans-65"/>
     <path id="DejaVuSans-20"/>
     <path d="M 51.125 44 
L 36.921875 44 
L 32.8125 27.6875 
L 47.125 27.6875 
z
M 43.796875 71.78125 
L 38.71875 51.515625 
L 52.984375 51.515625 
L 58.109375 71.78125 
L 65.921875 71.78125 
L 60.890625 51.515625 
L 76.125 51.515625 
L 76.125 44 
L 58.984375 44 
L 54.984375 27.6875 
L 70.515625 27.6875 
L 70.515625 20.21875 
L 53.078125 20.21875 
L 48 0 
L 40.1875 0 
L 45.21875 20.21875 
L 30.90625 20.21875 
L 25.875 0 
L 18.015625 0 
L 23.09375 20.21875 
L 7.71875 20.21875 
L 7.71875 27.6875 
L 24.90625 27.6875 
L 29 44 
L 13.28125 44 
L 13.28125 51.515625 
L 30.90625 51.515625 
L 35.890625 71.78125 
z
" id="DejaVuSans-23"/>
     <path d="M 12.40625 8.296875 
L 28.515625 8.296875 
L 28.515625 63.921875 
L 10.984375 60.40625 
L 10.984375 69.390625 
L 28.421875 72.90625 
L 38.28125 72.90625 
L 38.28125 8.296875 
L 54.390625 8.296875 
L 54.390625 0 
L 12.40625 0 
z
" id="DejaVuSans-31"/>
     <path d="M 33.015625 40.375 
Q 26.375 40.375 22.484375 35.828125 
Q 18.609375 31.296875 18.609375 23.390625 
Q 18.609375 15.53125 22.484375 10.953125 
Q 26.375 6.390625 33.015625 6.390625 
Q 39.65625 6.390625 43.53125 10.953125 
Q 47.40625 15.53125 47.40625 23.390625 
Q 47.40625 31.296875 43.53125 35.828125 
Q 39.65625 40.375 33.015625 40.375 
z
M 52.59375 71.296875 
L 52.59375 62.3125 
Q 48.875 64.0625 45.09375 64.984375 
Q 41.3125 65.921875 37.59375 65.921875 
Q 27.828125 65.921875 22.671875 59.328125 
Q 17.53125 52.734375 16.796875 39.40625 
Q 19.671875 43.65625 24.015625 45.921875 
Q 28.375 48.1875 33.59375 48.1875 
Q 44.578125 48.1875 50.953125 41.515625 
Q 57.328125 34.859375 57.328125 23.390625 
Q 57.328125 12.15625 50.6875 5.359375 
Q 44.046875 -1.421875 33.015625 -1.421875 
Q 20.359375 -1.421875 13.671875 8.265625 
Q 6.984375 17.96875 6.984375 36.375 
Q 6.984375 53.65625 15.1875 63.9375 
Q 23.390625 74.21875 37.203125 74.21875 
Q 40.921875 74.21875 44.703125 73.484375 
Q 48.484375 72.75 52.59375 71.296875 
z
" id="DejaVuSans-36"/>
     <path d="M 37.796875 64.3125 
L 12.890625 25.390625 
L 37.796875 25.390625 
z
M 35.203125 72.90625 
L 47.609375 72.90625 
L 47.609375 25.390625 
L 58.015625 25.390625 
L 58.015625 17.1875 
L 47.609375 17.1875 
L 47.609375 0 
L 37.796875 0 
L 37.796875 17.1875 
L 4.890625 17.1875 
L 4.890625 26.703125 
z
" id="DejaVuSans-34"/>
     <path d="M 11.71875 12.40625 
L 22.015625 12.40625 
L 22.015625 4 
L 14.015625 -11.625 
L 7.71875 -11.625 
L 11.71875 4 
z
" id="DejaVuSans-2c"/>
     <path d="M 16.890625 72.90625 
L 62.984375 72.90625 
L 61.375 64.59375 
L 25.09375 64.59375 
L 20.90625 43.015625 
L 55.71875 43.015625 
L 54.109375 34.71875 
L 19.28125 34.71875 
L 14.203125 8.296875 
L 51.3125 8.296875 
L 49.703125 0 
L 2.6875 0 
z
" id="DejaVuSans-Oblique-45"/>
     <path d="M 16.890625 72.90625 
L 30.171875 72.90625 
L 50.296875 10.40625 
L 62.5 72.90625 
L 72.125 72.90625 
L 57.90625 0 
L 44.578125 0 
L 24.515625 62.890625 
L 12.3125 0 
L 2.6875 0 
z
" id="DejaVuSans-Oblique-4e"/>
     <path d="M 10.59375 45.40625 
L 73.1875 45.40625 
L 73.1875 37.203125 
L 10.59375 37.203125 
z
M 10.59375 25.484375 
L 73.1875 25.484375 
L 73.1875 17.1875 
L 10.59375 17.1875 
z
" id="DejaVuSans-3d"/>
     <path d="M 4.890625 31.390625 
L 31.203125 31.390625 
L 31.203125 23.390625 
L 4.890625 23.390625 
z
" id="DejaVuSans-2d"/>
     <path d="M 31.78125 34.625 
Q 24.75 34.625 20.71875 30.859375 
Q 16.703125 27.09375 16.703125 20.515625 
Q 16.703125 13.921875 20.71875 10.15625 
Q 24.75 6.390625 31.78125 6.390625 
Q 38.8125 6.390625 42.859375 10.171875 
Q 46.921875 13.96875 46.921875 20.515625 
Q 46.921875 27.09375 42.890625 30.859375 
Q 38.875 34.625 31.78125 34.625 
z
M 21.921875 38.8125 
Q 15.578125 40.375 12.03125 44.71875 
Q 8.5 49.078125 8.5 55.328125 
Q 8.5 64.0625 14.71875 69.140625 
Q 20.953125 74.21875 31.78125 74.21875 
Q 42.671875 74.21875 48.875 69.140625 
Q 55.078125 64.0625 55.078125 55.328125 
Q 55.078125 49.078125 51.53125 44.71875 
Q 48 40.375 41.703125 38.8125 
Q 48.828125 37.15625 52.796875 32.3125 
Q 56.78125 27.484375 56.78125 20.515625 
Q 56.78125 9.90625 50.3125 4.234375 
Q 43.84375 -1.421875 31.78125 -1.421875 
Q 19.734375 -1.421875 13.25 4.234375 
Q 6.78125 9.90625 6.78125 20.515625 
Q 6.78125 27.484375 10.78125 32.3125 
Q 14.796875 37.15625 21.921875 38.8125 
z
M 18.3125 54.390625 
Q 18.3125 48.734375 21.84375 45.5625 
Q 25.390625 42.390625 31.78125 42.390625 
Q 38.140625 42.390625 41.71875 45.5625 
Q 45.3125 48.734375 45.3125 54.390625 
Q 45.3125 60.0625 41.71875 63.234375 
Q 38.140625 66.40625 31.78125 66.40625 
Q 25.390625 66.40625 21.84375 63.234375 
Q 18.3125 60.0625 18.3125 54.390625 
z
" id="DejaVuSans-38"/>
     <path d="M 31.78125 66.40625 
Q 24.171875 66.40625 20.328125 58.90625 
Q 16.5 51.421875 16.5 36.375 
Q 16.5 21.390625 20.328125 13.890625 
Q 24.171875 6.390625 31.78125 6.390625 
Q 39.453125 6.390625 43.28125 13.890625 
Q 47.125 21.390625 47.125 36.375 
Q 47.125 51.421875 43.28125 58.90625 
Q 39.453125 66.40625 31.78125 66.40625 
z
M 31.78125 74.21875 
Q 44.046875 74.21875 50.515625 64.515625 
Q 56.984375 54.828125 56.984375 36.375 
Q 56.984375 17.96875 50.515625 8.265625 
Q 44.046875 -1.421875 31.78125 -1.421875 
Q 19.53125 -1.421875 13.0625 8.265625 
Q 6.59375 17.96875 6.59375 36.375 
Q 6.59375 54.828125 13.0625 64.515625 
Q 19.53125 74.21875 31.78125 74.21875 
z
" id="DejaVuSans-30"/>
     <path d="M 10.6875 12.40625 
L 21 12.40625 
L 21 0 
L 10.6875 0 
z
" id="DejaVuSans-2e"/>
     <path d="M 19.1875 8.296875 
L 53.609375 8.296875 
L 53.609375 0 
L 7.328125 0 
L 7.328125 8.296875 
Q 12.9375 14.109375 22.625 23.890625 
Q 32.328125 33.6875 34.8125 36.53125 
Q 39.546875 41.84375 41.421875 45.53125 
Q 43.3125 49.21875 43.3125 52.78125 
Q 43.3125 58.59375 39.234375 62.25 
Q 35.15625 65.921875 28.609375 65.921875 
Q 23.96875 65.921875 18.8125 64.3125 
Q 13.671875 62.703125 7.8125 59.421875 
L 7.8125 69.390625 
Q 13.765625 71.78125 18.9375 73 
Q 24.125 74.21875 28.421875 74.21875 
Q 39.75 74.21875 46.484375 68.546875 
Q 53.21875 62.890625 53.21875 53.421875 
Q 53.21875 48.921875 51.53125 44.890625 
Q 49.859375 40.875 45.40625 35.40625 
Q 44.1875 33.984375 37.640625 27.21875 
Q 31.109375 20.453125 19.1875 8.296875 
z
" id="DejaVuSans-32"/>
     <path d="M 28.609375 0 
L 0.78125 72.90625 
L 11.078125 72.90625 
L 34.1875 11.53125 
L 57.328125 72.90625 
L 67.578125 72.90625 
L 39.796875 0 
z
" id="DejaVuSans-56"/>
     <path d="M 34.1875 63.1875 
L 14.15625 8.203125 
L 54.25 8.203125 
z
M 0.78125 0 
L 28.609375 72.90625 
L 39.796875 72.90625 
L 67.578125 0 
z
" id="DejaVuSans-394"/>
     <path d="M 9.8125 72.90625 
L 55.90625 72.90625 
L 55.90625 64.59375 
L 19.671875 64.59375 
L 19.671875 43.015625 
L 54.390625 43.015625 
L 54.390625 34.71875 
L 19.671875 34.71875 
L 19.671875 8.296875 
L 56.78125 8.296875 
L 56.78125 0 
L 9.8125 0 
z
" id="DejaVuSans-45"/>
     <path d="M 10.796875 72.90625 
L 49.515625 72.90625 
L 49.515625 64.59375 
L 19.828125 64.59375 
L 19.828125 46.734375 
Q 21.96875 47.46875 24.109375 47.828125 
Q 26.265625 48.1875 28.421875 48.1875 
Q 40.625 48.1875 47.75 41.5 
Q 54.890625 34.8125 54.890625 23.390625 
Q 54.890625 11.625 47.5625 5.09375 
Q 40.234375 -1.421875 26.90625 -1.421875 
Q 22.3125 -1.421875 17.546875 -0.640625 
Q 12.796875 0.140625 7.71875 1.703125 
L 7.71875 11.625 
Q 12.109375 9.234375 16.796875 8.0625 
Q 21.484375 6.890625 26.703125 6.890625 
Q 35.15625 6.890625 40.078125 11.328125 
Q 45.015625 15.765625 45.015625 23.390625 
Q 45.015625 31 40.078125 35.4375 
Q 35.15625 39.890625 26.703125 39.890625 
Q 22.75 39.890625 18.8125 39.015625 
Q 14.890625 38.140625 10.796875 36.28125 
z
" id="DejaVuSans-35"/>
    </defs>
    <g transform="translate(63.228 35.472)scale(0.12 -0.12)">
     <use transform="translate(0 0.78125)" xlink:href="#DejaVuSans-53"/>
     <use transform="translate(63.476562 0.78125)" xlink:href="#DejaVuSans-74"/>
     <use transform="translate(102.685547 0.78125)" xlink:href="#DejaVuSans-72"/>
     <use transform="translate(143.798828 0.78125)" xlink:href="#DejaVuSans-75"/>
     <use transform="translate(207.177734 0.78125)" xlink:href="#DejaVuSans-63"/>
     <use transform="translate(262.158203 0.78125)" xlink:href="#DejaVuSans-74"/>
     <use transform="translate(301.367188 0.78125)" xlink:href="#DejaVuSans-75"/>
     <use transform="translate(364.746094 0.78125)" xlink:href="#DejaVuSans-72"/>
     <use transform="translate(405.859375 0.78125)" xlink:href="#DejaVuSans-65"/>
     <use transform="translate(467.382812 0.78125)" xlink:href="#DejaVuSans-20"/>
     <use transform="translate(499.169922 0.78125)" xlink:href="#DejaVuSans-23"/>
     <use transform="translate(582.958984 0.78125)" xlink:href="#DejaVuSans-31"/>
     <use transform="translate(646.582031 0.78125)" xlink:href="#DejaVuSans-36"/>
     <use transform="translate(710.205078 0.78125)" xlink:href="#DejaVuSans-34"/>
     <use transform="translate(773.828125 0.78125)" xlink:href="#DejaVuSans-36"/>
     <use transform="translate(837.451172 0.78125)" xlink:href="#DejaVuSans-2c"/>
     <use transform="translate(869.238281 0.78125)" xlink:href="#DejaVuSans-20"/>
     <use transform="translate(901.025391 0.78125)" xlink:href="#DejaVuSans-Oblique-45"/>
     <use transform="translate(964.208984 -15.625)scale(0.7)" xlink:href="#DejaVuSans-Oblique-4e"/>
     <use transform="translate(1019.306641 0.78125)" xlink:href="#DejaVuSans-3d"/>
     <use transform="translate(1103.095703 0.78125)" xlink:href="#DejaVuSans-2d"/>
     <use transform="translate(1139.179688 0.78125)" xlink:href="#DejaVuSans-31"/>
     <use transform="translate(1202.802734 0.78125)" xlink:href="#DejaVuSans-38"/>
     <use transform="translate(1266.425781 0.78125)" xlink:href="#DejaVuSans-30"/>
     <use transform="translate(1330.048828 0.78125)" xlink:href="#DejaVuSans-2e"/>
     <use transform="translate(1361.757812 0.78125)" xlink:href="#DejaVuSans-32"/>
     <use transform="translate(1425.380859 0.78125)" xlink:href="#DejaVuSans-30"/>
     <use transform="translate(1489.003906 0.78125)" xlink:href="#DejaVuSans-65"/>
     <use transform="translate(1550.527344 0.78125)" xlink:href="#DejaVuSans-56"/>
     <use transform="translate(1618.935547 0.78125)" xlink:href="#DejaVuSans-2c"/>
     <use transform="translate(1650.722656 0.78125)" xlink:href="#DejaVuSans-20"/>
     <use transform="translate(1682.509766 0.78125)" xlink:href="#DejaVuSans-394"/>
     <use transform="translate(1750.917969 0.78125)" xlink:href="#DejaVuSans-45"/>
     <use transform="translate(1814.101562 0.78125)" xlink:href="#DejaVuSans-3d"/>
     <use transform="translate(1897.890625 0.78125)" xlink:href="#DejaVuSans-2d"/>
     <use transform="translate(1933.974609 0.78125)" xlink:href="#DejaVuSans-30"/>
     <use transform="translate(1997.597656 0.78125)" xlink:href="#DejaVuSans-2e"/>
     <use transform="translate(2029.384766 0.78125)" xlink:href="#DejaVuSans-31"/>
     <use transform="translate(2093.007812 0.78125)" xlink:href="#DejaVuSans-35"/>
     <use transform="translate(2156.630859 0.78125)" xlink:href="#DejaVuSans-65"/>
     <use transform="translate(2218.154297 0.78125)" xlink:href="#DejaVuSans-56"/>
    </g>
   </g>
  </g>
  <g id="axes_2">
   <g id="patch_2">
    <path clip-path="url(#p78ec7517f2)" d="M 361.152 307.584 
L 361.152 306.5445 
L 361.152 42.5115 
L 361.152 41.472 
L 374.4576 41.472 
L 374.4576 42.5115 
L 374.4576 306.5445 
L 374.4576 307.584 
z
" style="fill:#ffffff;stroke:#ffffff;stroke-linejoin:miter;stroke-width:0.01;"/>
   </g>
   <image height="265.68" id="image31ead1d3cc" transform="scale(1 -1)translate(0 -265.68)" width="12.96" x="361.44" xlink:href="data:image/png;base64,
iVBORw0KGgoAAAANSUhEUgAAABIAAAFxCAYAAAB+2fgXAAAABHNCSVQICAgIfAhkiAAAAeVJREFUeJztncmNw0AQA2ckheYQNv9QLIfQ8ygsCgQ7AEI8+jAs2Puz/94F1LP2ReCsZ18bAWIeZ5XaGRBE7VnbptG+KI101FYyNSiQG2oRITXKNaX9uclOdi2XWjftVE32CZCO2ou5Bj1TcCBr/1zB9ge7Fq0Rg2NM9pvbtG+ua1QgsRYhDy0ISEiNc40BEibbSI0Coj5CBGtkpFbXJiAjNZlrwhuSOv2M1DjXbEdEciBt1JSDDQKKpmZr2rr2j0DBGpXaWEJq3bQzEPIS26r9J+Wzv9Tm8o3aajRXqc3VUXsApKNWjeZq0x4ABVNbm7lrszVigDqP5vIl2+eaT2yfRkL7g+dRcNPqjohkjaCvRVBq0H2U3LQrOJCx9kdTg4B8oxZzzTdqdYHEngjUCAPyUctN9sVRq2sTECW2UKNLd2jVtRmo1A6AhMmWaSRcR8nUdIHUuVb75zJS218EyEitro1At69pIdeSk30Lkw0FktNImGyZRhy1O5galmxd03LUsHWk06jUZiCq+5Wb1kZNN4+wJxJuWt8RAW5am2sYNZ9rYCBzZ3buPKJ2P5Yj4Toy3keyIyJbIxs1rml1byCA84gpch5RQNB7Q0qNMGq2Hy4BXdNR41yz/cEEJfZzUz96r9PoB0okjeQ8y9TkAAAAAElFTkSuQmCC" y="-41.76"/>
   <g id="matplotlib.axis_1"/>
   <g id="matplotlib.axis_2">
    <g id="ytick_1">
     <g id="line2d_1">
      <defs>
       <path d="M 0 0 
L 3.5 0 
" id="mb22b4dfc21" style="stroke:#000000;stroke-width:0.8;"/>
      </defs>
      <g>
       <use style="stroke:#000000;stroke-width:0.8;" x="374.4576" xlink:href="#mb22b4dfc21" y="262.308766"/>
      </g>
     </g>
     <g id="text_2">
      <!-- −8.5 -->
      <defs>
       <path d="M 10.59375 35.5 
L 73.1875 35.5 
L 73.1875 27.203125 
L 10.59375 27.203125 
z
" id="DejaVuSans-2212"/>
      </defs>
      <g transform="translate(381.4576 266.107985)scale(0.1 -0.1)">
       <use xlink:href="#DejaVuSans-2212"/>
       <use x="83.789062" xlink:href="#DejaVuSans-38"/>
       <use x="147.412109" xlink:href="#DejaVuSans-2e"/>
       <use x="179.199219" xlink:href="#DejaVuSans-35"/>
      </g>
     </g>
    </g>
    <g id="ytick_2">
     <g id="line2d_2">
      <g>
       <use style="stroke:#000000;stroke-width:0.8;" x="374.4576" xlink:href="#mb22b4dfc21" y="216.296602"/>
      </g>
     </g>
     <g id="text_3">
      <!-- −8.0 -->
      <g transform="translate(381.4576 220.09582)scale(0.1 -0.1)">
       <use xlink:href="#DejaVuSans-2212"/>
       <use x="83.789062" xlink:href="#DejaVuSans-38"/>
       <use x="147.412109" xlink:href="#DejaVuSans-2e"/>
       <use x="179.199219" xlink:href="#DejaVuSans-30"/>
      </g>
     </g>
    </g>
    <g id="ytick_3">
     <g id="line2d_3">
      <g>
       <use style="stroke:#000000;stroke-width:0.8;" x="374.4576" xlink:href="#mb22b4dfc21" y="170.284437"/>
      </g>
     </g>
     <g id="text_4">
      <!-- −7.5 -->
      <defs>
       <path d="M 8.203125 72.90625 
L 55.078125 72.90625 
L 55.078125 68.703125 
L 28.609375 0 
L 18.3125 0 
L 43.21875 64.59375 
L 8.203125 64.59375 
z
" id="DejaVuSans-37"/>
      </defs>
      <g transform="translate(381.4576 174.083656)scale(0.1 -0.1)">
       <use xlink:href="#DejaVuSans-2212"/>
       <use x="83.789062" xlink:href="#DejaVuSans-37"/>
       <use x="147.412109" xlink:href="#DejaVuSans-2e"/>
       <use x="179.199219" xlink:href="#DejaVuSans-35"/>
      </g>
     </g>
    </g>
    <g id="ytick_4">
     <g id="line2d_4">
      <g>
       <use style="stroke:#000000;stroke-width:0.8;" x="374.4576" xlink:href="#mb22b4dfc21" y="124.272272"/>
      </g>
     </g>
     <g id="text_5">
      <!-- −7.0 -->
      <g transform="translate(381.4576 128.071491)scale(0.1 -0.1)">
       <use xlink:href="#DejaVuSans-2212"/>
       <use x="83.789062" xlink:href="#DejaVuSans-37"/>
       <use x="147.412109" xlink:href="#DejaVuSans-2e"/>
       <use x="179.199219" xlink:href="#DejaVuSans-30"/>
      </g>
     </g>
    </g>
    <g id="ytick_5">
     <g id="line2d_5">
      <g>
       <use style="stroke:#000000;stroke-width:0.8;" x="374.4576" xlink:href="#mb22b4dfc21" y="78.260107"/>
      </g>
     </g>
     <g id="text_6">
      <!-- −6.5 -->
      <g transform="translate(381.4576 82.059326)scale(0.1 -0.1)">
       <use xlink:href="#DejaVuSans-2212"/>
       <use x="83.789062" xlink:href="#DejaVuSans-36"/>
       <use x="147.412109" xlink:href="#DejaVuSans-2e"/>
       <use x="179.199219" xlink:href="#DejaVuSans-35"/>
      </g>
     </g>
    </g>
    <g id="text_7">
     <!-- Energy [eV] -->
     <defs>
      <path d="M 54.890625 33.015625 
L 54.890625 0 
L 45.90625 0 
L 45.90625 32.71875 
Q 45.90625 40.484375 42.875 44.328125 
Q 39.84375 48.1875 33.796875 48.1875 
Q 26.515625 48.1875 22.3125 43.546875 
Q 18.109375 38.921875 18.109375 30.90625 
L 18.109375 0 
L 9.078125 0 
L 9.078125 54.6875 
L 18.109375 54.6875 
L 18.109375 46.1875 
Q 21.34375 51.125 25.703125 53.5625 
Q 30.078125 56 35.796875 56 
Q 45.21875 56 50.046875 50.171875 
Q 54.890625 44.34375 54.890625 33.015625 
z
" id="DejaVuSans-6e"/>
      <path d="M 45.40625 27.984375 
Q 45.40625 37.75 41.375 43.109375 
Q 37.359375 48.484375 30.078125 48.484375 
Q 22.859375 48.484375 18.828125 43.109375 
Q 14.796875 37.75 14.796875 27.984375 
Q 14.796875 18.265625 18.828125 12.890625 
Q 22.859375 7.515625 30.078125 7.515625 
Q 37.359375 7.515625 41.375 12.890625 
Q 45.40625 18.265625 45.40625 27.984375 
z
M 54.390625 6.78125 
Q 54.390625 -7.171875 48.1875 -13.984375 
Q 42 -20.796875 29.203125 -20.796875 
Q 24.46875 -20.796875 20.265625 -20.09375 
Q 16.0625 -19.390625 12.109375 -17.921875 
L 12.109375 -9.1875 
Q 16.0625 -11.328125 19.921875 -12.34375 
Q 23.78125 -13.375 27.78125 -13.375 
Q 36.625 -13.375 41.015625 -8.765625 
Q 45.40625 -4.15625 45.40625 5.171875 
L 45.40625 9.625 
Q 42.625 4.78125 38.28125 2.390625 
Q 33.9375 0 27.875 0 
Q 17.828125 0 11.671875 7.65625 
Q 5.515625 15.328125 5.515625 27.984375 
Q 5.515625 40.671875 11.671875 48.328125 
Q 17.828125 56 27.875 56 
Q 33.9375 56 38.28125 53.609375 
Q 42.625 51.21875 45.40625 46.390625 
L 45.40625 54.6875 
L 54.390625 54.6875 
z
" id="DejaVuSans-67"/>
      <path d="M 32.171875 -5.078125 
Q 28.375 -14.84375 24.75 -17.8125 
Q 21.140625 -20.796875 15.09375 -20.796875 
L 7.90625 -20.796875 
L 7.90625 -13.28125 
L 13.1875 -13.28125 
Q 16.890625 -13.28125 18.9375 -11.515625 
Q 21 -9.765625 23.484375 -3.21875 
L 25.09375 0.875 
L 2.984375 54.6875 
L 12.5 54.6875 
L 29.59375 11.921875 
L 46.6875 54.6875 
L 56.203125 54.6875 
z
" id="DejaVuSans-79"/>
      <path d="M 8.59375 75.984375 
L 29.296875 75.984375 
L 29.296875 69 
L 17.578125 69 
L 17.578125 -6.203125 
L 29.296875 -6.203125 
L 29.296875 -13.1875 
L 8.59375 -13.1875 
z
" id="DejaVuSans-5b"/>
      <path d="M 30.421875 75.984375 
L 30.421875 -13.1875 
L 9.71875 -13.1875 
L 9.71875 -6.203125 
L 21.390625 -6.203125 
L 21.390625 69 
L 9.71875 69 
L 9.71875 75.984375 
z
" id="DejaVuSans-5d"/>
     </defs>
     <g transform="translate(417.33885 204.108469)rotate(-90)scale(0.1 -0.1)">
      <use xlink:href="#DejaVuSans-45"/>
      <use x="63.183594" xlink:href="#DejaVuSans-6e"/>
      <use x="126.5625" xlink:href="#DejaVuSans-65"/>
      <use x="188.085938" xlink:href="#DejaVuSans-72"/>
      <use x="229.183594" xlink:href="#DejaVuSans-67"/>
      <use x="292.660156" xlink:href="#DejaVuSans-79"/>
      <use x="351.839844" xlink:href="#DejaVuSans-20"/>
      <use x="383.626953" xlink:href="#DejaVuSans-5b"/>
      <use x="422.640625" xlink:href="#DejaVuSans-65"/>
      <use x="484.164062" xlink:href="#DejaVuSans-56"/>
      <use x="552.572266" xlink:href="#DejaVuSans-5d"/>
     </g>
    </g>
   </g>
   <g id="patch_3">
    <path d="M 361.152 307.584 
L 361.152 306.5445 
L 361.152 42.5115 
L 361.152 41.472 
L 374.4576 41.472 
L 374.4576 42.5115 
L 374.4576 306.5445 
L 374.4576 307.584 
z
" style="fill:none;stroke:#000000;stroke-linejoin:miter;stroke-width:0.8;"/>
   </g>
  </g>
 </g>
 <defs>
  <clipPath id="pa8cee7aee9">
   <rect height="266.112" width="285.696" x="57.6" y="41.472"/>
  </clipPath>
  <clipPath id="p78ec7517f2">
   <rect height="266.112" width="13.3056" x="361.152" y="41.472"/>
  </clipPath>
 </defs>
</svg>
