<?xml version="1.0" encoding="utf-8" standalone="no"?>
<!DOCTYPE svg PUBLIC "-//W3C//DTD SVG 1.1//EN"
  "http://www.w3.org/Graphics/SVG/1.1/DTD/svg11.dtd">
<!-- Created with matplotlib (http://matplotlib.org/) -->
<svg height="345.6pt" version="1.1" viewBox="0 0 460.8 345.6" width="460.8pt" xmlns="http://www.w3.org/2000/svg" xmlns:xlink="http://www.w3.org/1999/xlink">
 <defs>
  <style type="text/css">
*{stroke-linecap:butt;stroke-linejoin:round;}
  </style>
 </defs>
 <g id="figure_1">
  <g id="patch_1">
   <path d="M 0 345.6 
L 460.8 345.6 
L 460.8 0 
L 0 0 
z
" style="fill:#ffffff;"/>
  </g>
  <g id="axes_1">
   <g id="CircleCollection_1">
    <path clip-path="url(#p0ddc19d87e)" d="M 155.423629 117.088035 
C 157.136211 117.088035 158.77888 116.407619 159.989858 115.196641 
C 161.200836 113.985662 161.881252 112.342993 161.881252 110.630411 
C 161.881252 108.91783 161.200836 107.27516 159.989858 106.064182 
C 158.77888 104.853204 157.136211 104.172788 155.423629 104.172788 
C 153.711047 104.172788 152.068378 104.853204 150.8574 106.064182 
C 149.646421 107.27516 148.966005 108.91783 148.966005 110.630411 
C 148.966005 112.342993 149.646421 113.985662 150.8574 115.196641 
C 152.068378 116.407619 153.711047 117.088035 155.423629 117.088035 
z
" style="fill:#440154;"/>
    <path clip-path="url(#p0ddc19d87e)" d="M 297.02945 288.992614 
C 298.79688 288.992614 300.492158 288.290406 301.741919 287.040645 
C 302.991681 285.790883 303.693888 284.095605 303.693888 282.328176 
C 303.693888 280.560746 302.991681 278.865468 301.741919 277.615706 
C 300.492158 276.365945 298.79688 275.663737 297.02945 275.663737 
C 295.26202 275.663737 293.566742 276.365945 292.316981 277.615706 
C 291.067219 278.865468 290.365012 280.560746 290.365012 282.328176 
C 290.365012 284.095605 291.067219 285.790883 292.316981 287.040645 
C 293.566742 288.290406 295.26202 288.992614 297.02945 288.992614 
z
" style="fill:#472c7a;"/>
    <path clip-path="url(#p0ddc19d87e)" d="M 329.780906 222.093909 
C 331.456323 222.093909 333.063345 221.428259 334.248044 220.24356 
C 335.432743 219.058861 336.098393 217.451839 336.098393 215.776422 
C 336.098393 214.101004 335.432743 212.493982 334.248044 211.309284 
C 333.063345 210.124585 331.456323 209.458934 329.780906 209.458934 
C 328.105489 209.458934 326.498467 210.124585 325.313768 211.309284 
C 324.129069 212.493982 323.463419 214.101004 323.463419 215.776422 
C 323.463419 217.451839 324.129069 219.058861 325.313768 220.24356 
C 326.498467 221.428259 328.105489 222.093909 329.780906 222.093909 
z
" style="fill:#46337f;"/>
    <path clip-path="url(#p0ddc19d87e)" d="M 260.57256 301.723589 
C 262.392016 301.723589 264.137197 301.000711 265.423747 299.714162 
C 266.710297 298.427612 267.433174 296.682431 267.433174 294.862975 
C 267.433174 293.043519 266.710297 291.298338 265.423747 290.011788 
C 264.137197 288.725239 262.392016 288.002361 260.57256 288.002361 
C 258.753104 288.002361 257.007923 288.725239 255.721374 290.011788 
C 254.434824 291.298338 253.711946 293.043519 253.711946 294.862975 
C 253.711946 296.682431 254.434824 298.427612 255.721374 299.714162 
C 257.007923 301.000711 258.753104 301.723589 260.57256 301.723589 
z
" style="fill:#355f8d;"/>
    <path clip-path="url(#p0ddc19d87e)" d="M 140.720642 148.30682 
C 142.502588 148.30682 144.21179 147.598845 145.471816 146.338819 
C 146.731843 145.078793 147.439817 143.369591 147.439817 141.587644 
C 147.439817 139.805698 146.731843 138.096496 145.471816 136.83647 
C 144.21179 135.576444 142.502588 134.868469 140.720642 134.868469 
C 138.938696 134.868469 137.229493 135.576444 135.969467 136.83647 
C 134.709441 138.096496 134.001466 139.805698 134.001466 141.587644 
C 134.001466 143.369591 134.709441 145.078793 135.969467 146.338819 
C 137.229493 147.598845 138.938696 148.30682 140.720642 148.30682 
z
" style="fill:#450559;"/>
    <path clip-path="url(#p0ddc19d87e)" d="M 116.66272 135.656141 
C 118.31252 135.656141 119.894971 135.000669 121.061556 133.834084 
C 122.22814 132.667499 122.883613 131.085048 122.883613 129.435248 
C 122.883613 127.785448 122.22814 126.202998 121.061556 125.036413 
C 119.894971 123.869828 118.31252 123.214356 116.66272 123.214356 
C 115.01292 123.214356 113.43047 123.869828 112.263885 125.036413 
C 111.0973 126.202998 110.441828 127.785448 110.441828 129.435248 
C 110.441828 131.085048 111.0973 132.667499 112.263885 133.834084 
C 113.43047 135.000669 115.01292 135.656141 116.66272 135.656141 
z
" style="fill:#fde725;"/>
    <path clip-path="url(#p0ddc19d87e)" d="M 157.622609 278.80215 
C 159.477685 278.80215 161.25703 278.065121 162.568767 276.753384 
C 163.880503 275.441648 164.617532 273.662302 164.617532 271.807227 
C 164.617532 269.952152 163.880503 268.172806 162.568767 266.86107 
C 161.25703 265.549334 159.477685 264.812304 157.622609 264.812304 
C 155.767534 264.812304 153.988188 265.549334 152.676452 266.86107 
C 151.364716 268.172806 150.627687 269.952152 150.627687 271.807227 
C 150.627687 273.662302 151.364716 275.441648 152.676452 276.753384 
C 153.988188 278.065121 155.767534 278.80215 157.622609 278.80215 
z
" style="fill:#443a83;"/>
    <path clip-path="url(#p0ddc19d87e)" d="M 321.915155 259.954118 
C 323.628424 259.954118 325.271751 259.273429 326.483215 258.061966 
C 327.694679 256.850502 328.375367 255.207174 328.375367 253.493906 
C 328.375367 251.780638 327.694679 250.13731 326.483215 248.925846 
C 325.271751 247.714383 323.628424 247.033694 321.915155 247.033694 
C 320.201887 247.033694 318.558559 247.714383 317.347096 248.925846 
C 316.135632 250.13731 315.454943 251.780638 315.454943 253.493906 
C 315.454943 255.207174 316.135632 256.850502 317.347096 258.061966 
C 318.558559 259.273429 320.201887 259.954118 321.915155 259.954118 
z
" style="fill:#443b84;"/>
    <path clip-path="url(#p0ddc19d87e)" d="M 86.288821 243.482379 
C 88.063725 243.482379 89.766172 242.777202 91.021219 241.522156 
C 92.276265 240.267109 92.981442 238.564662 92.981442 236.789758 
C 92.981442 235.014854 92.276265 233.312407 91.021219 232.05736 
C 89.766172 230.802314 88.063725 230.097137 86.288821 230.097137 
C 84.513917 230.097137 82.81147 230.802314 81.556423 232.05736 
C 80.301377 233.312407 79.5962 235.014854 79.5962 236.789758 
C 79.5962 238.564662 80.301377 240.267109 81.556423 241.522156 
C 82.81147 242.777202 84.513917 243.482379 86.288821 243.482379 
z
" style="fill:#3f4788;"/>
    <path clip-path="url(#p0ddc19d87e)" d="M 295.819811 140.040074 
C 297.481411 140.040074 299.075181 139.379914 300.250109 138.204985 
C 301.425038 137.030056 302.085199 135.436286 302.085199 133.774686 
C 302.085199 132.113086 301.425038 130.519316 300.250109 129.344387 
C 299.075181 128.169458 297.481411 127.509298 295.819811 127.509298 
C 294.15821 127.509298 292.564441 128.169458 291.389512 129.344387 
C 290.214583 130.519316 289.554422 132.113086 289.554422 133.774686 
C 289.554422 135.436286 290.214583 137.030056 291.389512 138.204985 
C 292.564441 139.379914 294.15821 140.040074 295.819811 140.040074 
z
" style="fill:#3e4a89;"/>
    <path clip-path="url(#p0ddc19d87e)" d="M 95.940612 167.499307 
C 97.660231 167.499307 99.309651 166.816095 100.525606 165.600141 
C 101.74156 164.384186 102.424772 162.734766 102.424772 161.015147 
C 102.424772 159.295528 101.74156 157.646108 100.525606 156.430153 
C 99.309651 155.214199 97.660231 154.530987 95.940612 154.530987 
C 94.220993 154.530987 92.571573 155.214199 91.355619 156.430153 
C 90.139664 157.646108 89.456452 159.295528 89.456452 161.015147 
C 89.456452 162.734766 90.139664 164.384186 91.355619 165.600141 
C 92.571573 166.816095 94.220993 167.499307 95.940612 167.499307 
z
" style="fill:#481769;"/>
    <path clip-path="url(#p0ddc19d87e)" d="M 71.132053 207.978567 
C 72.86119 207.978567 74.519739 207.291573 75.742424 206.068889 
C 76.965108 204.846204 77.652102 203.187655 77.652102 201.458518 
C 77.652102 199.729381 76.965108 198.070832 75.742424 196.848147 
C 74.519739 195.625463 72.86119 194.938469 71.132053 194.938469 
C 69.402916 194.938469 67.744367 195.625463 66.521682 196.848147 
C 65.298998 198.070832 64.612004 199.729381 64.612004 201.458518 
C 64.612004 203.187655 65.298998 204.846204 66.521682 206.068889 
C 67.744367 207.291573 69.402916 207.978567 71.132053 207.978567 
z
" style="fill:#3d4e8a;"/>
    <path clip-path="url(#p0ddc19d87e)" d="M 268.427775 128.916622 
C 270.29735 128.916622 272.090604 128.173832 273.412593 126.851843 
C 274.734582 125.529854 275.477372 123.7366 275.477372 121.867025 
C 275.477372 119.997451 274.734582 118.204197 273.412593 116.882208 
C 272.090604 115.560219 270.29735 114.817429 268.427775 114.817429 
C 266.558201 114.817429 264.764947 115.560219 263.442958 116.882208 
C 262.120969 118.204197 261.378179 119.997451 261.378179 121.867025 
C 261.378179 123.7366 262.120969 125.529854 263.442958 126.851843 
C 264.764947 128.173832 266.558201 128.916622 268.427775 128.916622 
z
" style="fill:#24878e;"/>
    <path clip-path="url(#p0ddc19d87e)" d="M 170.660305 165.425605 
C 172.506734 165.425605 174.277785 164.692011 175.583407 163.386389 
C 176.889029 162.080767 177.622623 160.309716 177.622623 158.463288 
C 177.622623 156.616859 176.889029 154.845808 175.583407 153.540186 
C 174.277785 152.234564 172.506734 151.50097 170.660305 151.50097 
C 168.813877 151.50097 167.042825 152.234564 165.737204 153.540186 
C 164.431582 154.845808 163.697988 156.616859 163.697988 158.463288 
C 163.697988 160.309716 164.431582 162.080767 165.737204 163.386389 
C 167.042825 164.692011 168.813877 165.425605 170.660305 165.425605 
z
" style="fill:#414487;"/>
    <path clip-path="url(#p0ddc19d87e)" d="M 108.043288 278.137459 
C 109.856407 278.137459 111.595508 277.417099 112.877577 276.135031 
C 114.159645 274.852963 114.880004 273.113861 114.880004 271.300743 
C 114.880004 269.487624 114.159645 267.748522 112.877577 266.466454 
C 111.595508 265.184386 109.856407 264.464026 108.043288 264.464026 
C 106.23017 264.464026 104.491068 265.184386 103.209 266.466454 
C 101.926932 267.748522 101.206572 269.487624 101.206572 271.300743 
C 101.206572 273.113861 101.926932 274.852963 103.209 276.135031 
C 104.491068 277.417099 106.23017 278.137459 108.043288 278.137459 
z
" style="fill:#3c508b;"/>
    <path clip-path="url(#p0ddc19d87e)" d="M 214.780226 290.100635 
C 216.64631 290.100635 218.436215 289.359232 219.755736 288.039712 
C 221.075256 286.720191 221.816659 284.930286 221.816659 283.064202 
C 221.816659 281.198118 221.075256 279.408213 219.755736 278.088693 
C 218.436215 276.769172 216.64631 276.027769 214.780226 276.027769 
C 212.914142 276.027769 211.124237 276.769172 209.804717 278.088693 
C 208.485196 279.408213 207.743793 281.198118 207.743793 283.064202 
C 207.743793 284.930286 208.485196 286.720191 209.804717 288.039712 
C 211.124237 289.359232 212.914142 290.100635 214.780226 290.100635 
z
" style="fill:#453781;"/>
    <path clip-path="url(#p0ddc19d87e)" d="M 207.753864 92.08714 
C 209.472246 92.08714 211.12048 91.404419 212.33556 90.189339 
C 213.55064 88.974259 214.233361 87.326025 214.233361 85.607642 
C 214.233361 83.889259 213.55064 82.241026 212.33556 81.025946 
C 211.12048 79.810866 209.472246 79.128145 207.753864 79.128145 
C 206.035481 79.128145 204.387247 79.810866 203.172167 81.025946 
C 201.957087 82.241026 201.274366 83.889259 201.274366 85.607642 
C 201.274366 87.326025 201.957087 88.974259 203.172167 90.189339 
C 204.387247 91.404419 206.035481 92.08714 207.753864 92.08714 
z
" style="fill:#482475;"/>
    <path clip-path="url(#p0ddc19d87e)" d="M 227.017172 158.101147 
C 228.900531 158.101147 230.707006 157.35288 232.038741 156.021145 
C 233.370477 154.689409 234.118743 152.882934 234.118743 150.999576 
C 234.118743 149.116217 233.370477 147.309742 232.038741 145.978006 
C 230.707006 144.646271 228.900531 143.898004 227.017172 143.898004 
C 225.133813 143.898004 223.327339 144.646271 221.995603 145.978006 
C 220.663867 147.309742 219.915601 149.116217 219.915601 150.999576 
C 219.915601 152.882934 220.663867 154.689409 221.995603 156.021145 
C 223.327339 157.35288 225.133813 158.101147 227.017172 158.101147 
z
" style="fill:#433d84;"/>
    <path clip-path="url(#p0ddc19d87e)" d="M 225.485598 60.915469 
C 227.271471 60.915469 228.984439 60.205935 230.247242 58.943132 
C 231.510044 57.680329 232.219579 55.967361 232.219579 54.181488 
C 232.219579 52.395616 231.510044 50.682647 230.247242 49.419845 
C 228.984439 48.157042 227.271471 47.447507 225.485598 47.447507 
C 223.699725 47.447507 221.986757 48.157042 220.723954 49.419845 
C 219.461152 50.682647 218.751617 52.395616 218.751617 54.181488 
C 218.751617 55.967361 219.461152 57.680329 220.723954 58.943132 
C 221.986757 60.205935 223.699725 60.915469 225.485598 60.915469 
z
" style="fill:#c8e020;"/>
    <path clip-path="url(#p0ddc19d87e)" d="M 196.325679 199.849608 
C 198.220256 199.849608 200.037491 199.096885 201.377159 197.757217 
C 202.716827 196.417549 203.46955 194.600314 203.46955 192.705737 
C 203.46955 190.811161 202.716827 188.993926 201.377159 187.654258 
C 200.037491 186.31459 198.220256 185.561867 196.325679 185.561867 
C 194.431103 185.561867 192.613868 186.31459 191.2742 187.654258 
C 189.934532 188.993926 189.181808 190.811161 189.181808 192.705737 
C 189.181808 194.600314 189.934532 196.417549 191.2742 197.757217 
C 192.613868 199.096885 194.431103 199.849608 196.325679 199.849608 
z
" style="fill:#453581;"/>
    <path clip-path="url(#p0ddc19d87e)" d="M 262.327983 112.783508 
C 264.039804 112.783508 265.681743 112.103394 266.892183 110.892954 
C 268.102622 109.682514 268.782736 108.040575 268.782736 106.328755 
C 268.782736 104.616934 268.102622 102.974995 266.892183 101.764555 
C 265.681743 100.554115 264.039804 99.874002 262.327983 99.874002 
C 260.616163 99.874002 258.974224 100.554115 257.763784 101.764555 
C 256.553344 102.974995 255.87323 104.616934 255.87323 106.328755 
C 255.87323 108.040575 256.553344 109.682514 257.763784 110.892954 
C 258.974224 112.103394 260.616163 112.783508 262.327983 112.783508 
z
" style="fill:#450559;"/>
    <path clip-path="url(#p0ddc19d87e)" d="M 262.99839 99.717277 
C 264.801744 99.717277 266.53148 99.000797 267.806643 97.725633 
C 269.081807 96.45047 269.798287 94.720734 269.798287 92.91738 
C 269.798287 91.114027 269.081807 89.384291 267.806643 88.109128 
C 266.53148 86.833964 264.801744 86.117484 262.99839 86.117484 
C 261.195037 86.117484 259.465301 86.833964 258.190138 88.109128 
C 256.914974 89.384291 256.198494 91.114027 256.198494 92.91738 
C 256.198494 94.720734 256.914974 96.45047 258.190138 97.725633 
C 259.465301 99.000797 261.195037 99.717277 262.99839 99.717277 
z
" style="fill:#481d6f;"/>
    <path clip-path="url(#p0ddc19d87e)" d="M 318.832386 178.559481 
C 320.4923 178.559481 322.084451 177.899991 323.258188 176.726254 
C 324.431924 175.552518 325.091415 173.960366 325.091415 172.300452 
C 325.091415 170.640538 324.431924 169.048386 323.258188 167.87465 
C 322.084451 166.700913 320.4923 166.041422 318.832386 166.041422 
C 317.172471 166.041422 315.58032 166.700913 314.406583 167.87465 
C 313.232847 169.048386 312.573356 170.640538 312.573356 172.300452 
C 312.573356 173.960366 313.232847 175.552518 314.406583 176.726254 
C 315.58032 177.899991 317.172471 178.559481 318.832386 178.559481 
z
" style="fill:#472f7d;"/>
    <path clip-path="url(#p0ddc19d87e)" d="M 194.686358 246.46077 
C 196.578132 246.46077 198.392679 245.70916 199.730366 244.371473 
C 201.068052 243.033787 201.819662 241.21924 201.819662 239.327466 
C 201.819662 237.435692 201.068052 235.621145 199.730366 234.283459 
C 198.392679 232.945772 196.578132 232.194162 194.686358 232.194162 
C 192.794584 232.194162 190.980037 232.945772 189.642351 234.283459 
C 188.304664 235.621145 187.553054 237.435692 187.553054 239.327466 
C 187.553054 241.21924 188.304664 243.033787 189.642351 244.371473 
C 190.980037 245.70916 192.794584 246.46077 194.686358 246.46077 
z
" style="fill:#424086;"/>
   </g>
   <g id="text_1">
    <!-- Structure #10550, $E_N$=-178.94eV, ΔE=0.46eV -->
    <defs>
     <path d="M 53.515625 70.515625 
L 53.515625 60.890625 
Q 47.90625 63.578125 42.921875 64.890625 
Q 37.9375 66.21875 33.296875 66.21875 
Q 25.25 66.21875 20.875 63.09375 
Q 16.5 59.96875 16.5 54.203125 
Q 16.5 49.359375 19.40625 46.890625 
Q 22.3125 44.4375 30.421875 42.921875 
L 36.375 41.703125 
Q 47.40625 39.59375 52.65625 34.296875 
Q 57.90625 29 57.90625 20.125 
Q 57.90625 9.515625 50.796875 4.046875 
Q 43.703125 -1.421875 29.984375 -1.421875 
Q 24.8125 -1.421875 18.96875 -0.25 
Q 13.140625 0.921875 6.890625 3.21875 
L 6.890625 13.375 
Q 12.890625 10.015625 18.65625 8.296875 
Q 24.421875 6.59375 29.984375 6.59375 
Q 38.421875 6.59375 43.015625 9.90625 
Q 47.609375 13.234375 47.609375 19.390625 
Q 47.609375 24.75 44.3125 27.78125 
Q 41.015625 30.8125 33.5 32.328125 
L 27.484375 33.5 
Q 16.453125 35.6875 11.515625 40.375 
Q 6.59375 45.0625 6.59375 53.421875 
Q 6.59375 63.09375 13.40625 68.65625 
Q 20.21875 74.21875 32.171875 74.21875 
Q 37.3125 74.21875 42.625 73.28125 
Q 47.953125 72.359375 53.515625 70.515625 
z
" id="DejaVuSans-53"/>
     <path d="M 18.3125 70.21875 
L 18.3125 54.6875 
L 36.8125 54.6875 
L 36.8125 47.703125 
L 18.3125 47.703125 
L 18.3125 18.015625 
Q 18.3125 11.328125 20.140625 9.421875 
Q 21.96875 7.515625 27.59375 7.515625 
L 36.8125 7.515625 
L 36.8125 0 
L 27.59375 0 
Q 17.1875 0 13.234375 3.875 
Q 9.28125 7.765625 9.28125 18.015625 
L 9.28125 47.703125 
L 2.6875 47.703125 
L 2.6875 54.6875 
L 9.28125 54.6875 
L 9.28125 70.21875 
z
" id="DejaVuSans-74"/>
     <path d="M 41.109375 46.296875 
Q 39.59375 47.171875 37.8125 47.578125 
Q 36.03125 48 33.890625 48 
Q 26.265625 48 22.1875 43.046875 
Q 18.109375 38.09375 18.109375 28.8125 
L 18.109375 0 
L 9.078125 0 
L 9.078125 54.6875 
L 18.109375 54.6875 
L 18.109375 46.1875 
Q 20.953125 51.171875 25.484375 53.578125 
Q 30.03125 56 36.53125 56 
Q 37.453125 56 38.578125 55.875 
Q 39.703125 55.765625 41.0625 55.515625 
z
" id="DejaVuSans-72"/>
     <path d="M 8.5 21.578125 
L 8.5 54.6875 
L 17.484375 54.6875 
L 17.484375 21.921875 
Q 17.484375 14.15625 20.5 10.265625 
Q 23.53125 6.390625 29.59375 6.390625 
Q 36.859375 6.390625 41.078125 11.03125 
Q 45.3125 15.671875 45.3125 23.6875 
L 45.3125 54.6875 
L 54.296875 54.6875 
L 54.296875 0 
L 45.3125 0 
L 45.3125 8.40625 
Q 42.046875 3.421875 37.71875 1 
Q 33.40625 -1.421875 27.6875 -1.421875 
Q 18.265625 -1.421875 13.375 4.4375 
Q 8.5 10.296875 8.5 21.578125 
z
M 31.109375 56 
z
" id="DejaVuSans-75"/>
     <path d="M 48.78125 52.59375 
L 48.78125 44.1875 
Q 44.96875 46.296875 41.140625 47.34375 
Q 37.3125 48.390625 33.40625 48.390625 
Q 24.65625 48.390625 19.8125 42.84375 
Q 14.984375 37.3125 14.984375 27.296875 
Q 14.984375 17.28125 19.8125 11.734375 
Q 24.65625 6.203125 33.40625 6.203125 
Q 37.3125 6.203125 41.140625 7.25 
Q 44.96875 8.296875 48.78125 10.40625 
L 48.78125 2.09375 
Q 45.015625 0.34375 40.984375 -0.53125 
Q 36.96875 -1.421875 32.421875 -1.421875 
Q 20.0625 -1.421875 12.78125 6.34375 
Q 5.515625 14.109375 5.515625 27.296875 
Q 5.515625 40.671875 12.859375 48.328125 
Q 20.21875 56 33.015625 56 
Q 37.15625 56 41.109375 55.140625 
Q 45.0625 54.296875 48.78125 52.59375 
z
" id="DejaVuSans-63"/>
     <path d="M 56.203125 29.59375 
L 56.203125 25.203125 
L 14.890625 25.203125 
Q 15.484375 15.921875 20.484375 11.0625 
Q 25.484375 6.203125 34.421875 6.203125 
Q 39.59375 6.203125 44.453125 7.46875 
Q 49.3125 8.734375 54.109375 11.28125 
L 54.109375 2.78125 
Q 49.265625 0.734375 44.1875 -0.34375 
Q 39.109375 -1.421875 33.890625 -1.421875 
Q 20.796875 -1.421875 13.15625 6.1875 
Q 5.515625 13.8125 5.515625 26.8125 
Q 5.515625 40.234375 12.765625 48.109375 
Q 20.015625 56 32.328125 56 
Q 43.359375 56 49.78125 48.890625 
Q 56.203125 41.796875 56.203125 29.59375 
z
M 47.21875 32.234375 
Q 47.125 39.59375 43.09375 43.984375 
Q 39.0625 48.390625 32.421875 48.390625 
Q 24.90625 48.390625 20.390625 44.140625 
Q 15.875 39.890625 15.1875 32.171875 
z
" id="DejaVuSans-65"/>
     <path id="DejaVuSans-20"/>
     <path d="M 51.125 44 
L 36.921875 44 
L 32.8125 27.6875 
L 47.125 27.6875 
z
M 43.796875 71.78125 
L 38.71875 51.515625 
L 52.984375 51.515625 
L 58.109375 71.78125 
L 65.921875 71.78125 
L 60.890625 51.515625 
L 76.125 51.515625 
L 76.125 44 
L 58.984375 44 
L 54.984375 27.6875 
L 70.515625 27.6875 
L 70.515625 20.21875 
L 53.078125 20.21875 
L 48 0 
L 40.1875 0 
L 45.21875 20.21875 
L 30.90625 20.21875 
L 25.875 0 
L 18.015625 0 
L 23.09375 20.21875 
L 7.71875 20.21875 
L 7.71875 27.6875 
L 24.90625 27.6875 
L 29 44 
L 13.28125 44 
L 13.28125 51.515625 
L 30.90625 51.515625 
L 35.890625 71.78125 
z
" id="DejaVuSans-23"/>
     <path d="M 12.40625 8.296875 
L 28.515625 8.296875 
L 28.515625 63.921875 
L 10.984375 60.40625 
L 10.984375 69.390625 
L 28.421875 72.90625 
L 38.28125 72.90625 
L 38.28125 8.296875 
L 54.390625 8.296875 
L 54.390625 0 
L 12.40625 0 
z
" id="DejaVuSans-31"/>
     <path d="M 31.78125 66.40625 
Q 24.171875 66.40625 20.328125 58.90625 
Q 16.5 51.421875 16.5 36.375 
Q 16.5 21.390625 20.328125 13.890625 
Q 24.171875 6.390625 31.78125 6.390625 
Q 39.453125 6.390625 43.28125 13.890625 
Q 47.125 21.390625 47.125 36.375 
Q 47.125 51.421875 43.28125 58.90625 
Q 39.453125 66.40625 31.78125 66.40625 
z
M 31.78125 74.21875 
Q 44.046875 74.21875 50.515625 64.515625 
Q 56.984375 54.828125 56.984375 36.375 
Q 56.984375 17.96875 50.515625 8.265625 
Q 44.046875 -1.421875 31.78125 -1.421875 
Q 19.53125 -1.421875 13.0625 8.265625 
Q 6.59375 17.96875 6.59375 36.375 
Q 6.59375 54.828125 13.0625 64.515625 
Q 19.53125 74.21875 31.78125 74.21875 
z
" id="DejaVuSans-30"/>
     <path d="M 10.796875 72.90625 
L 49.515625 72.90625 
L 49.515625 64.59375 
L 19.828125 64.59375 
L 19.828125 46.734375 
Q 21.96875 47.46875 24.109375 47.828125 
Q 26.265625 48.1875 28.421875 48.1875 
Q 40.625 48.1875 47.75 41.5 
Q 54.890625 34.8125 54.890625 23.390625 
Q 54.890625 11.625 47.5625 5.09375 
Q 40.234375 -1.421875 26.90625 -1.421875 
Q 22.3125 -1.421875 17.546875 -0.640625 
Q 12.796875 0.140625 7.71875 1.703125 
L 7.71875 11.625 
Q 12.109375 9.234375 16.796875 8.0625 
Q 21.484375 6.890625 26.703125 6.890625 
Q 35.15625 6.890625 40.078125 11.328125 
Q 45.015625 15.765625 45.015625 23.390625 
Q 45.015625 31 40.078125 35.4375 
Q 35.15625 39.890625 26.703125 39.890625 
Q 22.75 39.890625 18.8125 39.015625 
Q 14.890625 38.140625 10.796875 36.28125 
z
" id="DejaVuSans-35"/>
     <path d="M 11.71875 12.40625 
L 22.015625 12.40625 
L 22.015625 4 
L 14.015625 -11.625 
L 7.71875 -11.625 
L 11.71875 4 
z
" id="DejaVuSans-2c"/>
     <path d="M 16.890625 72.90625 
L 62.984375 72.90625 
L 61.375 64.59375 
L 25.09375 64.59375 
L 20.90625 43.015625 
L 55.71875 43.015625 
L 54.109375 34.71875 
L 19.28125 34.71875 
L 14.203125 8.296875 
L 51.3125 8.296875 
L 49.703125 0 
L 2.6875 0 
z
" id="DejaVuSans-Oblique-45"/>
     <path d="M 16.890625 72.90625 
L 30.171875 72.90625 
L 50.296875 10.40625 
L 62.5 72.90625 
L 72.125 72.90625 
L 57.90625 0 
L 44.578125 0 
L 24.515625 62.890625 
L 12.3125 0 
L 2.6875 0 
z
" id="DejaVuSans-Oblique-4e"/>
     <path d="M 10.59375 45.40625 
L 73.1875 45.40625 
L 73.1875 37.203125 
L 10.59375 37.203125 
z
M 10.59375 25.484375 
L 73.1875 25.484375 
L 73.1875 17.1875 
L 10.59375 17.1875 
z
" id="DejaVuSans-3d"/>
     <path d="M 4.890625 31.390625 
L 31.203125 31.390625 
L 31.203125 23.390625 
L 4.890625 23.390625 
z
" id="DejaVuSans-2d"/>
     <path d="M 8.203125 72.90625 
L 55.078125 72.90625 
L 55.078125 68.703125 
L 28.609375 0 
L 18.3125 0 
L 43.21875 64.59375 
L 8.203125 64.59375 
z
" id="DejaVuSans-37"/>
     <path d="M 31.78125 34.625 
Q 24.75 34.625 20.71875 30.859375 
Q 16.703125 27.09375 16.703125 20.515625 
Q 16.703125 13.921875 20.71875 10.15625 
Q 24.75 6.390625 31.78125 6.390625 
Q 38.8125 6.390625 42.859375 10.171875 
Q 46.921875 13.96875 46.921875 20.515625 
Q 46.921875 27.09375 42.890625 30.859375 
Q 38.875 34.625 31.78125 34.625 
z
M 21.921875 38.8125 
Q 15.578125 40.375 12.03125 44.71875 
Q 8.5 49.078125 8.5 55.328125 
Q 8.5 64.0625 14.71875 69.140625 
Q 20.953125 74.21875 31.78125 74.21875 
Q 42.671875 74.21875 48.875 69.140625 
Q 55.078125 64.0625 55.078125 55.328125 
Q 55.078125 49.078125 51.53125 44.71875 
Q 48 40.375 41.703125 38.8125 
Q 48.828125 37.15625 52.796875 32.3125 
Q 56.78125 27.484375 56.78125 20.515625 
Q 56.78125 9.90625 50.3125 4.234375 
Q 43.84375 -1.421875 31.78125 -1.421875 
Q 19.734375 -1.421875 13.25 4.234375 
Q 6.78125 9.90625 6.78125 20.515625 
Q 6.78125 27.484375 10.78125 32.3125 
Q 14.796875 37.15625 21.921875 38.8125 
z
M 18.3125 54.390625 
Q 18.3125 48.734375 21.84375 45.5625 
Q 25.390625 42.390625 31.78125 42.390625 
Q 38.140625 42.390625 41.71875 45.5625 
Q 45.3125 48.734375 45.3125 54.390625 
Q 45.3125 60.0625 41.71875 63.234375 
Q 38.140625 66.40625 31.78125 66.40625 
Q 25.390625 66.40625 21.84375 63.234375 
Q 18.3125 60.0625 18.3125 54.390625 
z
" id="DejaVuSans-38"/>
     <path d="M 10.6875 12.40625 
L 21 12.40625 
L 21 0 
L 10.6875 0 
z
" id="DejaVuSans-2e"/>
     <path d="M 10.984375 1.515625 
L 10.984375 10.5 
Q 14.703125 8.734375 18.5 7.8125 
Q 22.3125 6.890625 25.984375 6.890625 
Q 35.75 6.890625 40.890625 13.453125 
Q 46.046875 20.015625 46.78125 33.40625 
Q 43.953125 29.203125 39.59375 26.953125 
Q 35.25 24.703125 29.984375 24.703125 
Q 19.046875 24.703125 12.671875 31.3125 
Q 6.296875 37.9375 6.296875 49.421875 
Q 6.296875 60.640625 12.9375 67.421875 
Q 19.578125 74.21875 30.609375 74.21875 
Q 43.265625 74.21875 49.921875 64.515625 
Q 56.59375 54.828125 56.59375 36.375 
Q 56.59375 19.140625 48.40625 8.859375 
Q 40.234375 -1.421875 26.421875 -1.421875 
Q 22.703125 -1.421875 18.890625 -0.6875 
Q 15.09375 0.046875 10.984375 1.515625 
z
M 30.609375 32.421875 
Q 37.25 32.421875 41.125 36.953125 
Q 45.015625 41.5 45.015625 49.421875 
Q 45.015625 57.28125 41.125 61.84375 
Q 37.25 66.40625 30.609375 66.40625 
Q 23.96875 66.40625 20.09375 61.84375 
Q 16.21875 57.28125 16.21875 49.421875 
Q 16.21875 41.5 20.09375 36.953125 
Q 23.96875 32.421875 30.609375 32.421875 
z
" id="DejaVuSans-39"/>
     <path d="M 37.796875 64.3125 
L 12.890625 25.390625 
L 37.796875 25.390625 
z
M 35.203125 72.90625 
L 47.609375 72.90625 
L 47.609375 25.390625 
L 58.015625 25.390625 
L 58.015625 17.1875 
L 47.609375 17.1875 
L 47.609375 0 
L 37.796875 0 
L 37.796875 17.1875 
L 4.890625 17.1875 
L 4.890625 26.703125 
z
" id="DejaVuSans-34"/>
     <path d="M 28.609375 0 
L 0.78125 72.90625 
L 11.078125 72.90625 
L 34.1875 11.53125 
L 57.328125 72.90625 
L 67.578125 72.90625 
L 39.796875 0 
z
" id="DejaVuSans-56"/>
     <path d="M 34.1875 63.1875 
L 14.15625 8.203125 
L 54.25 8.203125 
z
M 0.78125 0 
L 28.609375 72.90625 
L 39.796875 72.90625 
L 67.578125 0 
z
" id="DejaVuSans-394"/>
     <path d="M 9.8125 72.90625 
L 55.90625 72.90625 
L 55.90625 64.59375 
L 19.671875 64.59375 
L 19.671875 43.015625 
L 54.390625 43.015625 
L 54.390625 34.71875 
L 19.671875 34.71875 
L 19.671875 8.296875 
L 56.78125 8.296875 
L 56.78125 0 
L 9.8125 0 
z
" id="DejaVuSans-45"/>
     <path d="M 33.015625 40.375 
Q 26.375 40.375 22.484375 35.828125 
Q 18.609375 31.296875 18.609375 23.390625 
Q 18.609375 15.53125 22.484375 10.953125 
Q 26.375 6.390625 33.015625 6.390625 
Q 39.65625 6.390625 43.53125 10.953125 
Q 47.40625 15.53125 47.40625 23.390625 
Q 47.40625 31.296875 43.53125 35.828125 
Q 39.65625 40.375 33.015625 40.375 
z
M 52.59375 71.296875 
L 52.59375 62.3125 
Q 48.875 64.0625 45.09375 64.984375 
Q 41.3125 65.921875 37.59375 65.921875 
Q 27.828125 65.921875 22.671875 59.328125 
Q 17.53125 52.734375 16.796875 39.40625 
Q 19.671875 43.65625 24.015625 45.921875 
Q 28.375 48.1875 33.59375 48.1875 
Q 44.578125 48.1875 50.953125 41.515625 
Q 57.328125 34.859375 57.328125 23.390625 
Q 57.328125 12.15625 50.6875 5.359375 
Q 44.046875 -1.421875 33.015625 -1.421875 
Q 20.359375 -1.421875 13.671875 8.265625 
Q 6.984375 17.96875 6.984375 36.375 
Q 6.984375 53.65625 15.1875 63.9375 
Q 23.390625 74.21875 37.203125 74.21875 
Q 40.921875 74.21875 44.703125 73.484375 
Q 48.484375 72.75 52.59375 71.296875 
z
" id="DejaVuSans-36"/>
    </defs>
    <g transform="translate(61.548 35.472)scale(0.12 -0.12)">
     <use transform="translate(0 0.78125)" xlink:href="#DejaVuSans-53"/>
     <use transform="translate(63.476562 0.78125)" xlink:href="#DejaVuSans-74"/>
     <use transform="translate(102.685547 0.78125)" xlink:href="#DejaVuSans-72"/>
     <use transform="translate(143.798828 0.78125)" xlink:href="#DejaVuSans-75"/>
     <use transform="translate(207.177734 0.78125)" xlink:href="#DejaVuSans-63"/>
     <use transform="translate(262.158203 0.78125)" xlink:href="#DejaVuSans-74"/>
     <use transform="translate(301.367188 0.78125)" xlink:href="#DejaVuSans-75"/>
     <use transform="translate(364.746094 0.78125)" xlink:href="#DejaVuSans-72"/>
     <use transform="translate(405.859375 0.78125)" xlink:href="#DejaVuSans-65"/>
     <use transform="translate(467.382812 0.78125)" xlink:href="#DejaVuSans-20"/>
     <use transform="translate(499.169922 0.78125)" xlink:href="#DejaVuSans-23"/>
     <use transform="translate(582.958984 0.78125)" xlink:href="#DejaVuSans-31"/>
     <use transform="translate(646.582031 0.78125)" xlink:href="#DejaVuSans-30"/>
     <use transform="translate(710.205078 0.78125)" xlink:href="#DejaVuSans-35"/>
     <use transform="translate(773.828125 0.78125)" xlink:href="#DejaVuSans-35"/>
     <use transform="translate(837.451172 0.78125)" xlink:href="#DejaVuSans-30"/>
     <use transform="translate(901.074219 0.78125)" xlink:href="#DejaVuSans-2c"/>
     <use transform="translate(932.861328 0.78125)" xlink:href="#DejaVuSans-20"/>
     <use transform="translate(964.648438 0.78125)" xlink:href="#DejaVuSans-Oblique-45"/>
     <use transform="translate(1027.832031 -15.625)scale(0.7)" xlink:href="#DejaVuSans-Oblique-4e"/>
     <use transform="translate(1082.929688 0.78125)" xlink:href="#DejaVuSans-3d"/>
     <use transform="translate(1166.71875 0.78125)" xlink:href="#DejaVuSans-2d"/>
     <use transform="translate(1202.802734 0.78125)" xlink:href="#DejaVuSans-31"/>
     <use transform="translate(1266.425781 0.78125)" xlink:href="#DejaVuSans-37"/>
     <use transform="translate(1330.048828 0.78125)" xlink:href="#DejaVuSans-38"/>
     <use transform="translate(1393.671875 0.78125)" xlink:href="#DejaVuSans-2e"/>
     <use transform="translate(1425.458984 0.78125)" xlink:href="#DejaVuSans-39"/>
     <use transform="translate(1489.082031 0.78125)" xlink:href="#DejaVuSans-34"/>
     <use transform="translate(1552.705078 0.78125)" xlink:href="#DejaVuSans-65"/>
     <use transform="translate(1614.228516 0.78125)" xlink:href="#DejaVuSans-56"/>
     <use transform="translate(1682.636719 0.78125)" xlink:href="#DejaVuSans-2c"/>
     <use transform="translate(1714.423828 0.78125)" xlink:href="#DejaVuSans-20"/>
     <use transform="translate(1746.210938 0.78125)" xlink:href="#DejaVuSans-394"/>
     <use transform="translate(1814.619141 0.78125)" xlink:href="#DejaVuSans-45"/>
     <use transform="translate(1877.802734 0.78125)" xlink:href="#DejaVuSans-3d"/>
     <use transform="translate(1961.591797 0.78125)" xlink:href="#DejaVuSans-30"/>
     <use transform="translate(2025.214844 0.78125)" xlink:href="#DejaVuSans-2e"/>
     <use transform="translate(2057.001953 0.78125)" xlink:href="#DejaVuSans-34"/>
     <use transform="translate(2120.625 0.78125)" xlink:href="#DejaVuSans-36"/>
     <use transform="translate(2184.248047 0.78125)" xlink:href="#DejaVuSans-65"/>
     <use transform="translate(2245.771484 0.78125)" xlink:href="#DejaVuSans-56"/>
    </g>
   </g>
  </g>
  <g id="axes_2">
   <g id="patch_2">
    <path clip-path="url(#p2dc34f624d)" d="M 361.152 307.584 
L 361.152 306.5445 
L 361.152 42.5115 
L 361.152 41.472 
L 374.4576 41.472 
L 374.4576 42.5115 
L 374.4576 306.5445 
L 374.4576 307.584 
z
" style="fill:#ffffff;stroke:#ffffff;stroke-linejoin:miter;stroke-width:0.01;"/>
   </g>
   <image height="265.68" id="imagedcbb55952b" transform="scale(1 -1)translate(0 -265.68)" width="12.96" x="361.44" xlink:href="data:image/png;base64,
iVBORw0KGgoAAAANSUhEUgAAABIAAAFxCAYAAAB+2fgXAAAABHNCSVQICAgIfAhkiAAAAeVJREFUeJztncmNw0AQA2ckheYQNv9QLIfQ8ygsCgQ7AEI8+jAs2Puz/94F1LP2ReCsZ18bAWIeZ5XaGRBE7VnbptG+KI101FYyNSiQG2oRITXKNaX9uclOdi2XWjftVE32CZCO2ou5Bj1TcCBr/1zB9ge7Fq0Rg2NM9pvbtG+ua1QgsRYhDy0ISEiNc40BEibbSI0Coj5CBGtkpFbXJiAjNZlrwhuSOv2M1DjXbEdEciBt1JSDDQKKpmZr2rr2j0DBGpXaWEJq3bQzEPIS26r9J+Wzv9Tm8o3aajRXqc3VUXsApKNWjeZq0x4ABVNbm7lrszVigDqP5vIl2+eaT2yfRkL7g+dRcNPqjohkjaCvRVBq0H2U3LQrOJCx9kdTg4B8oxZzzTdqdYHEngjUCAPyUctN9sVRq2sTECW2UKNLd2jVtRmo1A6AhMmWaSRcR8nUdIHUuVb75zJS218EyEitro1At69pIdeSk30Lkw0FktNImGyZRhy1O5galmxd03LUsHWk06jUZiCq+5Wb1kZNN4+wJxJuWt8RAW5am2sYNZ9rYCBzZ3buPKJ2P5Yj4Toy3keyIyJbIxs1rml1byCA84gpch5RQNB7Q0qNMGq2Hy4BXdNR41yz/cEEJfZzUz96r9PoB0okjeQ8y9TkAAAAAElFTkSuQmCC" y="-41.76"/>
   <g id="matplotlib.axis_1"/>
   <g id="matplotlib.axis_2">
    <g id="ytick_1">
     <g id="line2d_1">
      <defs>
       <path d="M 0 0 
L 3.5 0 
" id="mb83cdeb912" style="stroke:#000000;stroke-width:0.8;"/>
      </defs>
      <g>
       <use style="stroke:#000000;stroke-width:0.8;" x="374.4576" xlink:href="#mb83cdeb912" y="306.8372"/>
      </g>
     </g>
     <g id="text_2">
      <!-- −8.0 -->
      <defs>
       <path d="M 10.59375 35.5 
L 73.1875 35.5 
L 73.1875 27.203125 
L 10.59375 27.203125 
z
" id="DejaVuSans-2212"/>
      </defs>
      <g transform="translate(381.4576 310.636419)scale(0.1 -0.1)">
       <use xlink:href="#DejaVuSans-2212"/>
       <use x="83.789062" xlink:href="#DejaVuSans-38"/>
       <use x="147.412109" xlink:href="#DejaVuSans-2e"/>
       <use x="179.199219" xlink:href="#DejaVuSans-30"/>
      </g>
     </g>
    </g>
    <g id="ytick_2">
     <g id="line2d_2">
      <g>
       <use style="stroke:#000000;stroke-width:0.8;" x="374.4576" xlink:href="#mb83cdeb912" y="251.628778"/>
      </g>
     </g>
     <g id="text_3">
      <!-- −7.5 -->
      <g transform="translate(381.4576 255.427997)scale(0.1 -0.1)">
       <use xlink:href="#DejaVuSans-2212"/>
       <use x="83.789062" xlink:href="#DejaVuSans-37"/>
       <use x="147.412109" xlink:href="#DejaVuSans-2e"/>
       <use x="179.199219" xlink:href="#DejaVuSans-35"/>
      </g>
     </g>
    </g>
    <g id="ytick_3">
     <g id="line2d_3">
      <g>
       <use style="stroke:#000000;stroke-width:0.8;" x="374.4576" xlink:href="#mb83cdeb912" y="196.420357"/>
      </g>
     </g>
     <g id="text_4">
      <!-- −7.0 -->
      <g transform="translate(381.4576 200.219575)scale(0.1 -0.1)">
       <use xlink:href="#DejaVuSans-2212"/>
       <use x="83.789062" xlink:href="#DejaVuSans-37"/>
       <use x="147.412109" xlink:href="#DejaVuSans-2e"/>
       <use x="179.199219" xlink:href="#DejaVuSans-30"/>
      </g>
     </g>
    </g>
    <g id="ytick_4">
     <g id="line2d_4">
      <g>
       <use style="stroke:#000000;stroke-width:0.8;" x="374.4576" xlink:href="#mb83cdeb912" y="141.211935"/>
      </g>
     </g>
     <g id="text_5">
      <!-- −6.5 -->
      <g transform="translate(381.4576 145.011154)scale(0.1 -0.1)">
       <use xlink:href="#DejaVuSans-2212"/>
       <use x="83.789062" xlink:href="#DejaVuSans-36"/>
       <use x="147.412109" xlink:href="#DejaVuSans-2e"/>
       <use x="179.199219" xlink:href="#DejaVuSans-35"/>
      </g>
     </g>
    </g>
    <g id="ytick_5">
     <g id="line2d_5">
      <g>
       <use style="stroke:#000000;stroke-width:0.8;" x="374.4576" xlink:href="#mb83cdeb912" y="86.003513"/>
      </g>
     </g>
     <g id="text_6">
      <!-- −6.0 -->
      <g transform="translate(381.4576 89.802732)scale(0.1 -0.1)">
       <use xlink:href="#DejaVuSans-2212"/>
       <use x="83.789062" xlink:href="#DejaVuSans-36"/>
       <use x="147.412109" xlink:href="#DejaVuSans-2e"/>
       <use x="179.199219" xlink:href="#DejaVuSans-30"/>
      </g>
     </g>
    </g>
    <g id="text_7">
     <!-- Energy [eV] -->
     <defs>
      <path d="M 54.890625 33.015625 
L 54.890625 0 
L 45.90625 0 
L 45.90625 32.71875 
Q 45.90625 40.484375 42.875 44.328125 
Q 39.84375 48.1875 33.796875 48.1875 
Q 26.515625 48.1875 22.3125 43.546875 
Q 18.109375 38.921875 18.109375 30.90625 
L 18.109375 0 
L 9.078125 0 
L 9.078125 54.6875 
L 18.109375 54.6875 
L 18.109375 46.1875 
Q 21.34375 51.125 25.703125 53.5625 
Q 30.078125 56 35.796875 56 
Q 45.21875 56 50.046875 50.171875 
Q 54.890625 44.34375 54.890625 33.015625 
z
" id="DejaVuSans-6e"/>
      <path d="M 45.40625 27.984375 
Q 45.40625 37.75 41.375 43.109375 
Q 37.359375 48.484375 30.078125 48.484375 
Q 22.859375 48.484375 18.828125 43.109375 
Q 14.796875 37.75 14.796875 27.984375 
Q 14.796875 18.265625 18.828125 12.890625 
Q 22.859375 7.515625 30.078125 7.515625 
Q 37.359375 7.515625 41.375 12.890625 
Q 45.40625 18.265625 45.40625 27.984375 
z
M 54.390625 6.78125 
Q 54.390625 -7.171875 48.1875 -13.984375 
Q 42 -20.796875 29.203125 -20.796875 
Q 24.46875 -20.796875 20.265625 -20.09375 
Q 16.0625 -19.390625 12.109375 -17.921875 
L 12.109375 -9.1875 
Q 16.0625 -11.328125 19.921875 -12.34375 
Q 23.78125 -13.375 27.78125 -13.375 
Q 36.625 -13.375 41.015625 -8.765625 
Q 45.40625 -4.15625 45.40625 5.171875 
L 45.40625 9.625 
Q 42.625 4.78125 38.28125 2.390625 
Q 33.9375 0 27.875 0 
Q 17.828125 0 11.671875 7.65625 
Q 5.515625 15.328125 5.515625 27.984375 
Q 5.515625 40.671875 11.671875 48.328125 
Q 17.828125 56 27.875 56 
Q 33.9375 56 38.28125 53.609375 
Q 42.625 51.21875 45.40625 46.390625 
L 45.40625 54.6875 
L 54.390625 54.6875 
z
" id="DejaVuSans-67"/>
      <path d="M 32.171875 -5.078125 
Q 28.375 -14.84375 24.75 -17.8125 
Q 21.140625 -20.796875 15.09375 -20.796875 
L 7.90625 -20.796875 
L 7.90625 -13.28125 
L 13.1875 -13.28125 
Q 16.890625 -13.28125 18.9375 -11.515625 
Q 21 -9.765625 23.484375 -3.21875 
L 25.09375 0.875 
L 2.984375 54.6875 
L 12.5 54.6875 
L 29.59375 11.921875 
L 46.6875 54.6875 
L 56.203125 54.6875 
z
" id="DejaVuSans-79"/>
      <path d="M 8.59375 75.984375 
L 29.296875 75.984375 
L 29.296875 69 
L 17.578125 69 
L 17.578125 -6.203125 
L 29.296875 -6.203125 
L 29.296875 -13.1875 
L 8.59375 -13.1875 
z
" id="DejaVuSans-5b"/>
      <path d="M 30.421875 75.984375 
L 30.421875 -13.1875 
L 9.71875 -13.1875 
L 9.71875 -6.203125 
L 21.390625 -6.203125 
L 21.390625 69 
L 9.71875 69 
L 9.71875 75.984375 
z
" id="DejaVuSans-5d"/>
     </defs>
     <g transform="translate(417.33885 204.108469)rotate(-90)scale(0.1 -0.1)">
      <use xlink:href="#DejaVuSans-45"/>
      <use x="63.183594" xlink:href="#DejaVuSans-6e"/>
      <use x="126.5625" xlink:href="#DejaVuSans-65"/>
      <use x="188.085938" xlink:href="#DejaVuSans-72"/>
      <use x="229.183594" xlink:href="#DejaVuSans-67"/>
      <use x="292.660156" xlink:href="#DejaVuSans-79"/>
      <use x="351.839844" xlink:href="#DejaVuSans-20"/>
      <use x="383.626953" xlink:href="#DejaVuSans-5b"/>
      <use x="422.640625" xlink:href="#DejaVuSans-65"/>
      <use x="484.164062" xlink:href="#DejaVuSans-56"/>
      <use x="552.572266" xlink:href="#DejaVuSans-5d"/>
     </g>
    </g>
   </g>
   <g id="patch_3">
    <path d="M 361.152 307.584 
L 361.152 306.5445 
L 361.152 42.5115 
L 361.152 41.472 
L 374.4576 41.472 
L 374.4576 42.5115 
L 374.4576 306.5445 
L 374.4576 307.584 
z
" style="fill:none;stroke:#000000;stroke-linejoin:miter;stroke-width:0.8;"/>
   </g>
  </g>
 </g>
 <defs>
  <clipPath id="p0ddc19d87e">
   <rect height="266.112" width="285.696" x="57.6" y="41.472"/>
  </clipPath>
  <clipPath id="p2dc34f624d">
   <rect height="266.112" width="13.3056" x="361.152" y="41.472"/>
  </clipPath>
 </defs>
</svg>
