<?xml version="1.0" encoding="utf-8" standalone="no"?>
<!DOCTYPE svg PUBLIC "-//W3C//DTD SVG 1.1//EN"
  "http://www.w3.org/Graphics/SVG/1.1/DTD/svg11.dtd">
<!-- Created with matplotlib (http://matplotlib.org/) -->
<svg height="345.6pt" version="1.1" viewBox="0 0 460.8 345.6" width="460.8pt" xmlns="http://www.w3.org/2000/svg" xmlns:xlink="http://www.w3.org/1999/xlink">
 <defs>
  <style type="text/css">
*{stroke-linecap:butt;stroke-linejoin:round;}
  </style>
 </defs>
 <g id="figure_1">
  <g id="patch_1">
   <path d="M 0 345.6 
L 460.8 345.6 
L 460.8 0 
L 0 0 
z
" style="fill:#ffffff;"/>
  </g>
  <g id="axes_1">
   <g id="CircleCollection_1">
    <path clip-path="url(#p7c208c4f04)" d="M 146.399455 60.89801 
C 148.215041 60.89801 149.956509 60.17667 151.240322 58.892857 
C 152.524134 57.609045 153.245474 55.867577 153.245474 54.051991 
C 153.245474 52.236406 152.524134 50.494938 151.240322 49.211125 
C 149.956509 47.927312 148.215041 47.205973 146.399455 47.205973 
C 144.58387 47.205973 142.842402 47.927312 141.558589 49.211125 
C 140.274777 50.494938 139.553437 52.236406 139.553437 54.051991 
C 139.553437 55.867577 140.274777 57.609045 141.558589 58.892857 
C 142.842402 60.17667 144.58387 60.89801 146.399455 60.89801 
z
" style="fill:#25ab82;"/>
    <path clip-path="url(#p7c208c4f04)" d="M 329.929358 63.406122 
C 331.902536 63.406122 333.795164 62.62217 335.190412 61.226922 
C 336.58566 59.831674 337.369612 57.939047 337.369612 55.965868 
C 337.369612 53.99269 336.58566 52.100062 335.190412 50.704814 
C 333.795164 49.309567 331.902536 48.525614 329.929358 48.525614 
C 327.95618 48.525614 326.063552 49.309567 324.668304 50.704814 
C 323.273056 52.100062 322.489104 53.99269 322.489104 55.965868 
C 322.489104 57.939047 323.273056 59.831674 324.668304 61.226922 
C 326.063552 62.62217 327.95618 63.406122 329.929358 63.406122 
z
" style="fill:#fbe723;"/>
    <path clip-path="url(#p7c208c4f04)" d="M 77.628905 185.158453 
C 79.202194 185.158453 80.711257 184.533378 81.82374 183.420895 
C 82.936224 182.308412 83.561298 180.799349 83.561298 179.22606 
C 83.561298 177.652771 82.936224 176.143708 81.82374 175.031224 
C 80.711257 173.918741 79.202194 173.293667 77.628905 173.293667 
C 76.055616 173.293667 74.546553 173.918741 73.43407 175.031224 
C 72.321586 176.143708 71.696512 177.652771 71.696512 179.22606 
C 71.696512 180.799349 72.321586 182.308412 73.43407 183.420895 
C 74.546553 184.533378 76.055616 185.158453 77.628905 185.158453 
z
" style="fill:#48186a;"/>
    <path clip-path="url(#p7c208c4f04)" d="M 81.373446 295.114889 
C 83.085078 295.114889 84.726836 294.434851 85.937143 293.224544 
C 87.147449 292.014238 87.827488 290.372479 87.827488 288.660847 
C 87.827488 286.949215 87.147449 285.307457 85.937143 284.09715 
C 84.726836 282.886844 83.085078 282.206805 81.373446 282.206805 
C 79.661814 282.206805 78.020055 282.886844 76.809749 284.09715 
C 75.599442 285.307457 74.919404 286.949215 74.919404 288.660847 
C 74.919404 290.372479 75.599442 292.014238 76.809749 293.224544 
C 78.020055 294.434851 79.661814 295.114889 81.373446 295.114889 
z
" style="fill:#453581;"/>
    <path clip-path="url(#p7c208c4f04)" d="M 72.028543 281.627494 
C 73.662693 281.627494 75.230133 280.978239 76.385652 279.822721 
C 77.54117 278.667202 78.190425 277.099762 78.190425 275.465612 
C 78.190425 273.831462 77.54117 272.264022 76.385652 271.108503 
C 75.230133 269.952985 73.662693 269.30373 72.028543 269.30373 
C 70.394393 269.30373 68.826953 269.952985 67.671434 271.108503 
C 66.515916 272.264022 65.866661 273.831462 65.866661 275.465612 
C 65.866661 277.099762 66.515916 278.667202 67.671434 279.822721 
C 68.826953 280.978239 70.394393 281.627494 72.028543 281.627494 
z
" style="fill:#471164;"/>
    <path clip-path="url(#p7c208c4f04)" d="M 262.282169 79.753183 
C 264.089686 79.753183 265.823416 79.035049 267.101524 77.756941 
C 268.379632 76.478834 269.097766 74.745104 269.097766 72.937587 
C 269.097766 71.130069 268.379632 69.39634 267.101524 68.118232 
C 265.823416 66.840124 264.089686 66.12199 262.282169 66.12199 
C 260.474652 66.12199 258.740922 66.840124 257.462814 68.118232 
C 256.184706 69.39634 255.466572 71.130069 255.466572 72.937587 
C 255.466572 74.745104 256.184706 76.478834 257.462814 77.756941 
C 258.740922 79.035049 260.474652 79.753183 262.282169 79.753183 
z
" style="fill:#470d60;"/>
    <path clip-path="url(#p7c208c4f04)" d="M 124.959782 226.200421 
C 126.868903 226.200421 128.700089 225.441919 130.050042 224.091966 
C 131.399995 222.742013 132.158497 220.910828 132.158497 219.001706 
C 132.158497 217.092585 131.399995 215.261399 130.050042 213.911446 
C 128.700089 212.561493 126.868903 211.802991 124.959782 211.802991 
C 123.05066 211.802991 121.219474 212.561493 119.869522 213.911446 
C 118.519569 215.261399 117.761067 217.092585 117.761067 219.001706 
C 117.761067 220.910828 118.519569 222.742013 119.869522 224.091966 
C 121.219474 225.441919 123.05066 226.200421 124.959782 226.200421 
z
" style="fill:#471164;"/>
    <path clip-path="url(#p7c208c4f04)" d="M 137.069514 160.540646 
C 138.962417 160.540646 140.778047 159.788588 142.116532 158.450103 
C 143.455017 157.111618 144.207076 155.295988 144.207076 153.403085 
C 144.207076 151.510181 143.455017 149.694551 142.116532 148.356067 
C 140.778047 147.017582 138.962417 146.265523 137.069514 146.265523 
C 135.176611 146.265523 133.360981 147.017582 132.022496 148.356067 
C 130.684011 149.694551 129.931952 151.510181 129.931952 153.403085 
C 129.931952 155.295988 130.684011 157.111618 132.022496 158.450103 
C 133.360981 159.788588 135.176611 160.540646 137.069514 160.540646 
z
" style="fill:#440154;"/>
    <path clip-path="url(#p7c208c4f04)" d="M 84.564142 151.879242 
C 86.151645 151.879242 87.674343 151.24852 88.796877 150.125985 
C 89.919412 149.00345 90.550134 147.480753 90.550134 145.893249 
C 90.550134 144.305745 89.919412 142.783048 88.796877 141.660513 
C 87.674343 140.537979 86.151645 139.907257 84.564142 139.907257 
C 82.976638 139.907257 81.453941 140.537979 80.331406 141.660513 
C 79.208871 142.783048 78.578149 144.305745 78.578149 145.893249 
C 78.578149 147.480753 79.208871 149.00345 80.331406 150.125985 
C 81.453941 151.24852 82.976638 151.879242 84.564142 151.879242 
z
" style="fill:#481c6e;"/>
    <path clip-path="url(#p7c208c4f04)" d="M 104.789614 282.52217 
C 106.638518 282.52217 108.411945 281.787592 109.719317 280.48022 
C 111.02669 279.172847 111.761267 277.399421 111.761267 275.550517 
C 111.761267 273.701613 111.02669 271.928186 109.719317 270.620814 
C 108.411945 269.313441 106.638518 268.578864 104.789614 268.578864 
C 102.94071 268.578864 101.167284 269.313441 99.859911 270.620814 
C 98.552539 271.928186 97.817962 273.701613 97.817962 275.550517 
C 97.817962 277.399421 98.552539 279.172847 99.859911 280.48022 
C 101.167284 281.787592 102.94071 282.52217 104.789614 282.52217 
z
" style="fill:#482677;"/>
    <path clip-path="url(#p7c208c4f04)" d="M 172.374054 81.113864 
C 174.153459 81.113864 175.860223 80.406899 177.118451 79.14867 
C 178.37668 77.890441 179.083645 76.183677 179.083645 74.404273 
C 179.083645 72.624869 178.37668 70.918105 177.118451 69.659876 
C 175.860223 68.401647 174.153459 67.694682 172.374054 67.694682 
C 170.59465 67.694682 168.887886 68.401647 167.629657 69.659876 
C 166.371429 70.918105 165.664464 72.624869 165.664464 74.404273 
C 165.664464 76.183677 166.371429 77.890441 167.629657 79.14867 
C 168.887886 80.406899 170.59465 81.113864 172.374054 81.113864 
z
" style="fill:#471164;"/>
    <path clip-path="url(#p7c208c4f04)" d="M 132.629313 193.612177 
C 134.541474 193.612177 136.375575 192.852468 137.727676 191.500366 
C 139.079778 190.148264 139.839487 188.314163 139.839487 186.402003 
C 139.839487 184.489842 139.079778 182.655742 137.727676 181.30364 
C 136.375575 179.951538 134.541474 179.191829 132.629313 179.191829 
C 130.717153 179.191829 128.883052 179.951538 127.53095 181.30364 
C 126.178849 182.655742 125.419139 184.489842 125.419139 186.402003 
C 125.419139 188.314163 126.178849 190.148264 127.53095 191.500366 
C 128.883052 192.852468 130.717153 193.612177 132.629313 193.612177 
z
" style="fill:#470d60;"/>
    <path clip-path="url(#p7c208c4f04)" d="M 117.062952 259.03037 
C 118.958713 259.03037 120.777083 258.277176 122.117588 256.936671 
C 123.458094 255.596166 124.211287 253.777795 124.211287 251.882035 
C 124.211287 249.986274 123.458094 248.167904 122.117588 246.827398 
C 120.777083 245.486893 118.958713 244.7337 117.062952 244.7337 
C 115.167192 244.7337 113.348821 245.486893 112.008316 246.827398 
C 110.667811 248.167904 109.914617 249.986274 109.914617 251.882035 
C 109.914617 253.777795 110.667811 255.596166 112.008316 256.936671 
C 113.348821 258.277176 115.167192 259.03037 117.062952 259.03037 
z
" style="fill:#471365;"/>
    <path clip-path="url(#p7c208c4f04)" d="M 95.499446 121.711996 
C 97.118219 121.711996 98.67091 121.068851 99.815556 119.924205 
C 100.960201 118.779559 101.603347 117.226868 101.603347 115.608095 
C 101.603347 113.989321 100.960201 112.43663 99.815556 111.291984 
C 98.67091 110.147339 97.118219 109.504193 95.499446 109.504193 
C 93.880672 109.504193 92.327981 110.147339 91.183335 111.291984 
C 90.03869 112.43663 89.395544 113.989321 89.395544 115.608095 
C 89.395544 117.226868 90.03869 118.779559 91.183335 119.924205 
C 92.327981 121.068851 93.880672 121.711996 95.499446 121.711996 
z
" style="fill:#fde725;"/>
    <path clip-path="url(#p7c208c4f04)" d="M 148.416542 98.028992 
C 150.250799 98.028992 152.010175 97.300234 153.307191 96.003219 
C 154.604206 94.706204 155.332963 92.946827 155.332963 91.112571 
C 155.332963 89.278314 154.604206 87.518937 153.307191 86.221922 
C 152.010175 84.924907 150.250799 84.196149 148.416542 84.196149 
C 146.582286 84.196149 144.822909 84.924907 143.525894 86.221922 
C 142.228879 87.518937 141.500121 89.278314 141.500121 91.112571 
C 141.500121 92.946827 142.228879 94.706204 143.525894 96.003219 
C 144.822909 97.300234 146.582286 98.028992 148.416542 98.028992 
z
" style="fill:#460b5e;"/>
    <path clip-path="url(#p7c208c4f04)" d="M 223.980526 102.313933 
C 225.651743 102.313933 227.254736 101.649951 228.436465 100.468223 
C 229.618193 99.286494 230.282175 97.683501 230.282175 96.012285 
C 230.282175 94.341068 229.618193 92.738075 228.436465 91.556347 
C 227.254736 90.374618 225.651743 89.710636 223.980526 89.710636 
C 222.30931 89.710636 220.706317 90.374618 219.524588 91.556347 
C 218.34286 92.738075 217.678878 94.341068 217.678878 96.012285 
C 217.678878 97.683501 218.34286 99.286494 219.524588 100.468223 
C 220.706317 101.649951 222.30931 102.313933 223.980526 102.313933 
z
" style="fill:#26ad81;"/>
    <path clip-path="url(#p7c208c4f04)" d="M 70.893745 250.808162 
C 72.488857 250.808162 74.018852 250.174418 75.146766 249.046503 
C 76.274681 247.918589 76.908425 246.388594 76.908425 244.793482 
C 76.908425 243.19837 76.274681 241.668375 75.146766 240.540461 
C 74.018852 239.412546 72.488857 238.778801 70.893745 238.778801 
C 69.298633 238.778801 67.768638 239.412546 66.640723 240.540461 
C 65.512809 241.668375 64.879064 243.19837 64.879064 244.793482 
C 64.879064 246.388594 65.512809 247.918589 66.640723 249.046503 
C 67.768638 250.174418 69.298633 250.808162 70.893745 250.808162 
z
" style="fill:#482374;"/>
    <path clip-path="url(#p7c208c4f04)" d="M 202.238592 88.991572 
C 203.974165 88.991572 205.638887 88.302021 206.866123 87.074786 
C 208.093358 85.84755 208.782909 84.182828 208.782909 82.447255 
C 208.782909 80.711682 208.093358 79.04696 206.866123 77.819725 
C 205.638887 76.592489 203.974165 75.902939 202.238592 75.902939 
C 200.503019 75.902939 198.838297 76.592489 197.611062 77.819725 
C 196.383826 79.04696 195.694276 80.711682 195.694276 82.447255 
C 195.694276 84.182828 196.383826 85.84755 197.611062 87.074786 
C 198.838297 88.302021 200.503019 88.991572 202.238592 88.991572 
z
" style="fill:#481668;"/>
    <path clip-path="url(#p7c208c4f04)" d="M 238.856716 87.947583 
C 240.606612 87.947583 242.285072 87.252342 243.522435 86.014979 
C 244.759798 84.777616 245.455039 83.099157 245.455039 81.349261 
C 245.455039 79.599366 244.759798 77.920906 243.522435 76.683543 
C 242.285072 75.44618 240.606612 74.750939 238.856716 74.750939 
C 237.106821 74.750939 235.428361 75.44618 234.190998 76.683543 
C 232.953635 77.920906 232.258394 79.599366 232.258394 81.349261 
C 232.258394 83.099157 232.953635 84.777616 234.190998 86.014979 
C 235.428361 87.252342 237.106821 87.947583 238.856716 87.947583 
z
" style="fill:#471063;"/>
    <path clip-path="url(#p7c208c4f04)" d="M 306.699734 67.606876 
C 308.619476 67.606876 310.46085 66.844154 311.818313 65.486691 
C 313.175776 64.129228 313.938498 62.287855 313.938498 60.368112 
C 313.938498 58.44837 313.175776 56.606996 311.818313 55.249533 
C 310.46085 53.89207 308.619476 53.129348 306.699734 53.129348 
C 304.779991 53.129348 302.938618 53.89207 301.581155 55.249533 
C 300.223692 56.606996 299.46097 58.44837 299.46097 60.368112 
C 299.46097 62.287855 300.223692 64.129228 301.581155 65.486691 
C 302.938618 66.844154 304.779991 67.606876 306.699734 67.606876 
z
" style="fill:#482576;"/>
    <path clip-path="url(#p7c208c4f04)" d="M 92.871009 301.754161 
C 94.659236 301.754161 96.374463 301.043691 97.63893 299.779223 
C 98.903398 298.514756 99.613868 296.799529 99.613868 295.011302 
C 99.613868 293.223075 98.903398 291.507848 97.63893 290.24338 
C 96.374463 288.978913 94.659236 288.268443 92.871009 288.268443 
C 91.082782 288.268443 89.367555 288.978913 88.103087 290.24338 
C 86.83862 291.507848 86.12815 293.223075 86.12815 295.011302 
C 86.12815 296.799529 86.83862 298.514756 88.103087 299.779223 
C 89.367555 301.043691 91.082782 301.754161 92.871009 301.754161 
z
" style="fill:#481467;"/>
    <path clip-path="url(#p7c208c4f04)" d="M 71.676161 218.289047 
C 73.242041 218.289047 74.743998 217.666916 75.851243 216.559671 
C 76.958488 215.452427 77.580619 213.95047 77.580619 212.384589 
C 77.580619 210.818708 76.958488 209.316751 75.851243 208.209507 
C 74.743998 207.102262 73.242041 206.480131 71.676161 206.480131 
C 70.11028 206.480131 68.608323 207.102262 67.501078 208.209507 
C 66.393833 209.316751 65.771702 210.818708 65.771702 212.384589 
C 65.771702 213.95047 66.393833 215.452427 67.501078 216.559671 
C 68.608323 217.666916 70.11028 218.289047 71.676161 218.289047 
z
" style="fill:#460a5d;"/>
    <path clip-path="url(#p7c208c4f04)" d="M 283.976038 73.642409 
C 285.839776 73.642409 287.627432 72.901938 288.945294 71.584076 
C 290.263156 70.266214 291.003627 68.478559 291.003627 66.61482 
C 291.003627 64.751082 290.263156 62.963427 288.945294 61.645565 
C 287.627432 60.327703 285.839776 59.587231 283.976038 59.587231 
C 282.1123 59.587231 280.324644 60.327703 279.006782 61.645565 
C 277.68892 62.963427 276.948449 64.751082 276.948449 66.61482 
C 276.948449 68.478559 277.68892 70.266214 279.006782 71.584076 
C 280.324644 72.901938 282.1123 73.642409 283.976038 73.642409 
z
" style="fill:#440154;"/>
    <path clip-path="url(#p7c208c4f04)" d="M 142.069642 129.243506 
C 143.938464 129.243506 145.730996 128.501016 147.052452 127.179559 
C 148.373909 125.858102 149.1164 124.065571 149.1164 122.196749 
C 149.1164 120.327927 148.373909 118.535396 147.052452 117.213939 
C 145.730996 115.892482 143.938464 115.149991 142.069642 115.149991 
C 140.20082 115.149991 138.408289 115.892482 137.086832 117.213939 
C 135.765376 118.535396 135.022885 120.327927 135.022885 122.196749 
C 135.022885 124.065571 135.765376 125.858102 137.086832 127.179559 
C 138.408289 128.501016 140.20082 129.243506 142.069642 129.243506 
z
" style="fill:#481467;"/>
   </g>
   <g id="text_1">
    <!-- Structure #1265, $E_N$=-176.33eV, ΔE=0.04eV -->
    <defs>
     <path d="M 53.515625 70.515625 
L 53.515625 60.890625 
Q 47.90625 63.578125 42.921875 64.890625 
Q 37.9375 66.21875 33.296875 66.21875 
Q 25.25 66.21875 20.875 63.09375 
Q 16.5 59.96875 16.5 54.203125 
Q 16.5 49.359375 19.40625 46.890625 
Q 22.3125 44.4375 30.421875 42.921875 
L 36.375 41.703125 
Q 47.40625 39.59375 52.65625 34.296875 
Q 57.90625 29 57.90625 20.125 
Q 57.90625 9.515625 50.796875 4.046875 
Q 43.703125 -1.421875 29.984375 -1.421875 
Q 24.8125 -1.421875 18.96875 -0.25 
Q 13.140625 0.921875 6.890625 3.21875 
L 6.890625 13.375 
Q 12.890625 10.015625 18.65625 8.296875 
Q 24.421875 6.59375 29.984375 6.59375 
Q 38.421875 6.59375 43.015625 9.90625 
Q 47.609375 13.234375 47.609375 19.390625 
Q 47.609375 24.75 44.3125 27.78125 
Q 41.015625 30.8125 33.5 32.328125 
L 27.484375 33.5 
Q 16.453125 35.6875 11.515625 40.375 
Q 6.59375 45.0625 6.59375 53.421875 
Q 6.59375 63.09375 13.40625 68.65625 
Q 20.21875 74.21875 32.171875 74.21875 
Q 37.3125 74.21875 42.625 73.28125 
Q 47.953125 72.359375 53.515625 70.515625 
z
" id="DejaVuSans-53"/>
     <path d="M 18.3125 70.21875 
L 18.3125 54.6875 
L 36.8125 54.6875 
L 36.8125 47.703125 
L 18.3125 47.703125 
L 18.3125 18.015625 
Q 18.3125 11.328125 20.140625 9.421875 
Q 21.96875 7.515625 27.59375 7.515625 
L 36.8125 7.515625 
L 36.8125 0 
L 27.59375 0 
Q 17.1875 0 13.234375 3.875 
Q 9.28125 7.765625 9.28125 18.015625 
L 9.28125 47.703125 
L 2.6875 47.703125 
L 2.6875 54.6875 
L 9.28125 54.6875 
L 9.28125 70.21875 
z
" id="DejaVuSans-74"/>
     <path d="M 41.109375 46.296875 
Q 39.59375 47.171875 37.8125 47.578125 
Q 36.03125 48 33.890625 48 
Q 26.265625 48 22.1875 43.046875 
Q 18.109375 38.09375 18.109375 28.8125 
L 18.109375 0 
L 9.078125 0 
L 9.078125 54.6875 
L 18.109375 54.6875 
L 18.109375 46.1875 
Q 20.953125 51.171875 25.484375 53.578125 
Q 30.03125 56 36.53125 56 
Q 37.453125 56 38.578125 55.875 
Q 39.703125 55.765625 41.0625 55.515625 
z
" id="DejaVuSans-72"/>
     <path d="M 8.5 21.578125 
L 8.5 54.6875 
L 17.484375 54.6875 
L 17.484375 21.921875 
Q 17.484375 14.15625 20.5 10.265625 
Q 23.53125 6.390625 29.59375 6.390625 
Q 36.859375 6.390625 41.078125 11.03125 
Q 45.3125 15.671875 45.3125 23.6875 
L 45.3125 54.6875 
L 54.296875 54.6875 
L 54.296875 0 
L 45.3125 0 
L 45.3125 8.40625 
Q 42.046875 3.421875 37.71875 1 
Q 33.40625 -1.421875 27.6875 -1.421875 
Q 18.265625 -1.421875 13.375 4.4375 
Q 8.5 10.296875 8.5 21.578125 
z
M 31.109375 56 
z
" id="DejaVuSans-75"/>
     <path d="M 48.78125 52.59375 
L 48.78125 44.1875 
Q 44.96875 46.296875 41.140625 47.34375 
Q 37.3125 48.390625 33.40625 48.390625 
Q 24.65625 48.390625 19.8125 42.84375 
Q 14.984375 37.3125 14.984375 27.296875 
Q 14.984375 17.28125 19.8125 11.734375 
Q 24.65625 6.203125 33.40625 6.203125 
Q 37.3125 6.203125 41.140625 7.25 
Q 44.96875 8.296875 48.78125 10.40625 
L 48.78125 2.09375 
Q 45.015625 0.34375 40.984375 -0.53125 
Q 36.96875 -1.421875 32.421875 -1.421875 
Q 20.0625 -1.421875 12.78125 6.34375 
Q 5.515625 14.109375 5.515625 27.296875 
Q 5.515625 40.671875 12.859375 48.328125 
Q 20.21875 56 33.015625 56 
Q 37.15625 56 41.109375 55.140625 
Q 45.0625 54.296875 48.78125 52.59375 
z
" id="DejaVuSans-63"/>
     <path d="M 56.203125 29.59375 
L 56.203125 25.203125 
L 14.890625 25.203125 
Q 15.484375 15.921875 20.484375 11.0625 
Q 25.484375 6.203125 34.421875 6.203125 
Q 39.59375 6.203125 44.453125 7.46875 
Q 49.3125 8.734375 54.109375 11.28125 
L 54.109375 2.78125 
Q 49.265625 0.734375 44.1875 -0.34375 
Q 39.109375 -1.421875 33.890625 -1.421875 
Q 20.796875 -1.421875 13.15625 6.1875 
Q 5.515625 13.8125 5.515625 26.8125 
Q 5.515625 40.234375 12.765625 48.109375 
Q 20.015625 56 32.328125 56 
Q 43.359375 56 49.78125 48.890625 
Q 56.203125 41.796875 56.203125 29.59375 
z
M 47.21875 32.234375 
Q 47.125 39.59375 43.09375 43.984375 
Q 39.0625 48.390625 32.421875 48.390625 
Q 24.90625 48.390625 20.390625 44.140625 
Q 15.875 39.890625 15.1875 32.171875 
z
" id="DejaVuSans-65"/>
     <path id="DejaVuSans-20"/>
     <path d="M 51.125 44 
L 36.921875 44 
L 32.8125 27.6875 
L 47.125 27.6875 
z
M 43.796875 71.78125 
L 38.71875 51.515625 
L 52.984375 51.515625 
L 58.109375 71.78125 
L 65.921875 71.78125 
L 60.890625 51.515625 
L 76.125 51.515625 
L 76.125 44 
L 58.984375 44 
L 54.984375 27.6875 
L 70.515625 27.6875 
L 70.515625 20.21875 
L 53.078125 20.21875 
L 48 0 
L 40.1875 0 
L 45.21875 20.21875 
L 30.90625 20.21875 
L 25.875 0 
L 18.015625 0 
L 23.09375 20.21875 
L 7.71875 20.21875 
L 7.71875 27.6875 
L 24.90625 27.6875 
L 29 44 
L 13.28125 44 
L 13.28125 51.515625 
L 30.90625 51.515625 
L 35.890625 71.78125 
z
" id="DejaVuSans-23"/>
     <path d="M 12.40625 8.296875 
L 28.515625 8.296875 
L 28.515625 63.921875 
L 10.984375 60.40625 
L 10.984375 69.390625 
L 28.421875 72.90625 
L 38.28125 72.90625 
L 38.28125 8.296875 
L 54.390625 8.296875 
L 54.390625 0 
L 12.40625 0 
z
" id="DejaVuSans-31"/>
     <path d="M 19.1875 8.296875 
L 53.609375 8.296875 
L 53.609375 0 
L 7.328125 0 
L 7.328125 8.296875 
Q 12.9375 14.109375 22.625 23.890625 
Q 32.328125 33.6875 34.8125 36.53125 
Q 39.546875 41.84375 41.421875 45.53125 
Q 43.3125 49.21875 43.3125 52.78125 
Q 43.3125 58.59375 39.234375 62.25 
Q 35.15625 65.921875 28.609375 65.921875 
Q 23.96875 65.921875 18.8125 64.3125 
Q 13.671875 62.703125 7.8125 59.421875 
L 7.8125 69.390625 
Q 13.765625 71.78125 18.9375 73 
Q 24.125 74.21875 28.421875 74.21875 
Q 39.75 74.21875 46.484375 68.546875 
Q 53.21875 62.890625 53.21875 53.421875 
Q 53.21875 48.921875 51.53125 44.890625 
Q 49.859375 40.875 45.40625 35.40625 
Q 44.1875 33.984375 37.640625 27.21875 
Q 31.109375 20.453125 19.1875 8.296875 
z
" id="DejaVuSans-32"/>
     <path d="M 33.015625 40.375 
Q 26.375 40.375 22.484375 35.828125 
Q 18.609375 31.296875 18.609375 23.390625 
Q 18.609375 15.53125 22.484375 10.953125 
Q 26.375 6.390625 33.015625 6.390625 
Q 39.65625 6.390625 43.53125 10.953125 
Q 47.40625 15.53125 47.40625 23.390625 
Q 47.40625 31.296875 43.53125 35.828125 
Q 39.65625 40.375 33.015625 40.375 
z
M 52.59375 71.296875 
L 52.59375 62.3125 
Q 48.875 64.0625 45.09375 64.984375 
Q 41.3125 65.921875 37.59375 65.921875 
Q 27.828125 65.921875 22.671875 59.328125 
Q 17.53125 52.734375 16.796875 39.40625 
Q 19.671875 43.65625 24.015625 45.921875 
Q 28.375 48.1875 33.59375 48.1875 
Q 44.578125 48.1875 50.953125 41.515625 
Q 57.328125 34.859375 57.328125 23.390625 
Q 57.328125 12.15625 50.6875 5.359375 
Q 44.046875 -1.421875 33.015625 -1.421875 
Q 20.359375 -1.421875 13.671875 8.265625 
Q 6.984375 17.96875 6.984375 36.375 
Q 6.984375 53.65625 15.1875 63.9375 
Q 23.390625 74.21875 37.203125 74.21875 
Q 40.921875 74.21875 44.703125 73.484375 
Q 48.484375 72.75 52.59375 71.296875 
z
" id="DejaVuSans-36"/>
     <path d="M 10.796875 72.90625 
L 49.515625 72.90625 
L 49.515625 64.59375 
L 19.828125 64.59375 
L 19.828125 46.734375 
Q 21.96875 47.46875 24.109375 47.828125 
Q 26.265625 48.1875 28.421875 48.1875 
Q 40.625 48.1875 47.75 41.5 
Q 54.890625 34.8125 54.890625 23.390625 
Q 54.890625 11.625 47.5625 5.09375 
Q 40.234375 -1.421875 26.90625 -1.421875 
Q 22.3125 -1.421875 17.546875 -0.640625 
Q 12.796875 0.140625 7.71875 1.703125 
L 7.71875 11.625 
Q 12.109375 9.234375 16.796875 8.0625 
Q 21.484375 6.890625 26.703125 6.890625 
Q 35.15625 6.890625 40.078125 11.328125 
Q 45.015625 15.765625 45.015625 23.390625 
Q 45.015625 31 40.078125 35.4375 
Q 35.15625 39.890625 26.703125 39.890625 
Q 22.75 39.890625 18.8125 39.015625 
Q 14.890625 38.140625 10.796875 36.28125 
z
" id="DejaVuSans-35"/>
     <path d="M 11.71875 12.40625 
L 22.015625 12.40625 
L 22.015625 4 
L 14.015625 -11.625 
L 7.71875 -11.625 
L 11.71875 4 
z
" id="DejaVuSans-2c"/>
     <path d="M 16.890625 72.90625 
L 62.984375 72.90625 
L 61.375 64.59375 
L 25.09375 64.59375 
L 20.90625 43.015625 
L 55.71875 43.015625 
L 54.109375 34.71875 
L 19.28125 34.71875 
L 14.203125 8.296875 
L 51.3125 8.296875 
L 49.703125 0 
L 2.6875 0 
z
" id="DejaVuSans-Oblique-45"/>
     <path d="M 16.890625 72.90625 
L 30.171875 72.90625 
L 50.296875 10.40625 
L 62.5 72.90625 
L 72.125 72.90625 
L 57.90625 0 
L 44.578125 0 
L 24.515625 62.890625 
L 12.3125 0 
L 2.6875 0 
z
" id="DejaVuSans-Oblique-4e"/>
     <path d="M 10.59375 45.40625 
L 73.1875 45.40625 
L 73.1875 37.203125 
L 10.59375 37.203125 
z
M 10.59375 25.484375 
L 73.1875 25.484375 
L 73.1875 17.1875 
L 10.59375 17.1875 
z
" id="DejaVuSans-3d"/>
     <path d="M 4.890625 31.390625 
L 31.203125 31.390625 
L 31.203125 23.390625 
L 4.890625 23.390625 
z
" id="DejaVuSans-2d"/>
     <path d="M 8.203125 72.90625 
L 55.078125 72.90625 
L 55.078125 68.703125 
L 28.609375 0 
L 18.3125 0 
L 43.21875 64.59375 
L 8.203125 64.59375 
z
" id="DejaVuSans-37"/>
     <path d="M 10.6875 12.40625 
L 21 12.40625 
L 21 0 
L 10.6875 0 
z
" id="DejaVuSans-2e"/>
     <path d="M 40.578125 39.3125 
Q 47.65625 37.796875 51.625 33 
Q 55.609375 28.21875 55.609375 21.1875 
Q 55.609375 10.40625 48.1875 4.484375 
Q 40.765625 -1.421875 27.09375 -1.421875 
Q 22.515625 -1.421875 17.65625 -0.515625 
Q 12.796875 0.390625 7.625 2.203125 
L 7.625 11.71875 
Q 11.71875 9.328125 16.59375 8.109375 
Q 21.484375 6.890625 26.8125 6.890625 
Q 36.078125 6.890625 40.9375 10.546875 
Q 45.796875 14.203125 45.796875 21.1875 
Q 45.796875 27.640625 41.28125 31.265625 
Q 36.765625 34.90625 28.71875 34.90625 
L 20.21875 34.90625 
L 20.21875 43.015625 
L 29.109375 43.015625 
Q 36.375 43.015625 40.234375 45.921875 
Q 44.09375 48.828125 44.09375 54.296875 
Q 44.09375 59.90625 40.109375 62.90625 
Q 36.140625 65.921875 28.71875 65.921875 
Q 24.65625 65.921875 20.015625 65.03125 
Q 15.375 64.15625 9.8125 62.3125 
L 9.8125 71.09375 
Q 15.4375 72.65625 20.34375 73.4375 
Q 25.25 74.21875 29.59375 74.21875 
Q 40.828125 74.21875 47.359375 69.109375 
Q 53.90625 64.015625 53.90625 55.328125 
Q 53.90625 49.265625 50.4375 45.09375 
Q 46.96875 40.921875 40.578125 39.3125 
z
" id="DejaVuSans-33"/>
     <path d="M 28.609375 0 
L 0.78125 72.90625 
L 11.078125 72.90625 
L 34.1875 11.53125 
L 57.328125 72.90625 
L 67.578125 72.90625 
L 39.796875 0 
z
" id="DejaVuSans-56"/>
     <path d="M 34.1875 63.1875 
L 14.15625 8.203125 
L 54.25 8.203125 
z
M 0.78125 0 
L 28.609375 72.90625 
L 39.796875 72.90625 
L 67.578125 0 
z
" id="DejaVuSans-394"/>
     <path d="M 9.8125 72.90625 
L 55.90625 72.90625 
L 55.90625 64.59375 
L 19.671875 64.59375 
L 19.671875 43.015625 
L 54.390625 43.015625 
L 54.390625 34.71875 
L 19.671875 34.71875 
L 19.671875 8.296875 
L 56.78125 8.296875 
L 56.78125 0 
L 9.8125 0 
z
" id="DejaVuSans-45"/>
     <path d="M 31.78125 66.40625 
Q 24.171875 66.40625 20.328125 58.90625 
Q 16.5 51.421875 16.5 36.375 
Q 16.5 21.390625 20.328125 13.890625 
Q 24.171875 6.390625 31.78125 6.390625 
Q 39.453125 6.390625 43.28125 13.890625 
Q 47.125 21.390625 47.125 36.375 
Q 47.125 51.421875 43.28125 58.90625 
Q 39.453125 66.40625 31.78125 66.40625 
z
M 31.78125 74.21875 
Q 44.046875 74.21875 50.515625 64.515625 
Q 56.984375 54.828125 56.984375 36.375 
Q 56.984375 17.96875 50.515625 8.265625 
Q 44.046875 -1.421875 31.78125 -1.421875 
Q 19.53125 -1.421875 13.0625 8.265625 
Q 6.59375 17.96875 6.59375 36.375 
Q 6.59375 54.828125 13.0625 64.515625 
Q 19.53125 74.21875 31.78125 74.21875 
z
" id="DejaVuSans-30"/>
     <path d="M 37.796875 64.3125 
L 12.890625 25.390625 
L 37.796875 25.390625 
z
M 35.203125 72.90625 
L 47.609375 72.90625 
L 47.609375 25.390625 
L 58.015625 25.390625 
L 58.015625 17.1875 
L 47.609375 17.1875 
L 47.609375 0 
L 37.796875 0 
L 37.796875 17.1875 
L 4.890625 17.1875 
L 4.890625 26.703125 
z
" id="DejaVuSans-34"/>
    </defs>
    <g transform="translate(65.388 35.472)scale(0.12 -0.12)">
     <use transform="translate(0 0.78125)" xlink:href="#DejaVuSans-53"/>
     <use transform="translate(63.476562 0.78125)" xlink:href="#DejaVuSans-74"/>
     <use transform="translate(102.685547 0.78125)" xlink:href="#DejaVuSans-72"/>
     <use transform="translate(143.798828 0.78125)" xlink:href="#DejaVuSans-75"/>
     <use transform="translate(207.177734 0.78125)" xlink:href="#DejaVuSans-63"/>
     <use transform="translate(262.158203 0.78125)" xlink:href="#DejaVuSans-74"/>
     <use transform="translate(301.367188 0.78125)" xlink:href="#DejaVuSans-75"/>
     <use transform="translate(364.746094 0.78125)" xlink:href="#DejaVuSans-72"/>
     <use transform="translate(405.859375 0.78125)" xlink:href="#DejaVuSans-65"/>
     <use transform="translate(467.382812 0.78125)" xlink:href="#DejaVuSans-20"/>
     <use transform="translate(499.169922 0.78125)" xlink:href="#DejaVuSans-23"/>
     <use transform="translate(582.958984 0.78125)" xlink:href="#DejaVuSans-31"/>
     <use transform="translate(646.582031 0.78125)" xlink:href="#DejaVuSans-32"/>
     <use transform="translate(710.205078 0.78125)" xlink:href="#DejaVuSans-36"/>
     <use transform="translate(773.828125 0.78125)" xlink:href="#DejaVuSans-35"/>
     <use transform="translate(837.451172 0.78125)" xlink:href="#DejaVuSans-2c"/>
     <use transform="translate(869.238281 0.78125)" xlink:href="#DejaVuSans-20"/>
     <use transform="translate(901.025391 0.78125)" xlink:href="#DejaVuSans-Oblique-45"/>
     <use transform="translate(964.208984 -15.625)scale(0.7)" xlink:href="#DejaVuSans-Oblique-4e"/>
     <use transform="translate(1019.306641 0.78125)" xlink:href="#DejaVuSans-3d"/>
     <use transform="translate(1103.095703 0.78125)" xlink:href="#DejaVuSans-2d"/>
     <use transform="translate(1139.179688 0.78125)" xlink:href="#DejaVuSans-31"/>
     <use transform="translate(1202.802734 0.78125)" xlink:href="#DejaVuSans-37"/>
     <use transform="translate(1266.425781 0.78125)" xlink:href="#DejaVuSans-36"/>
     <use transform="translate(1330.048828 0.78125)" xlink:href="#DejaVuSans-2e"/>
     <use transform="translate(1361.835938 0.78125)" xlink:href="#DejaVuSans-33"/>
     <use transform="translate(1425.458984 0.78125)" xlink:href="#DejaVuSans-33"/>
     <use transform="translate(1489.082031 0.78125)" xlink:href="#DejaVuSans-65"/>
     <use transform="translate(1550.605469 0.78125)" xlink:href="#DejaVuSans-56"/>
     <use transform="translate(1619.013672 0.78125)" xlink:href="#DejaVuSans-2c"/>
     <use transform="translate(1650.800781 0.78125)" xlink:href="#DejaVuSans-20"/>
     <use transform="translate(1682.587891 0.78125)" xlink:href="#DejaVuSans-394"/>
     <use transform="translate(1750.996094 0.78125)" xlink:href="#DejaVuSans-45"/>
     <use transform="translate(1814.179688 0.78125)" xlink:href="#DejaVuSans-3d"/>
     <use transform="translate(1897.96875 0.78125)" xlink:href="#DejaVuSans-30"/>
     <use transform="translate(1961.591797 0.78125)" xlink:href="#DejaVuSans-2e"/>
     <use transform="translate(1993.378906 0.78125)" xlink:href="#DejaVuSans-30"/>
     <use transform="translate(2057.001953 0.78125)" xlink:href="#DejaVuSans-34"/>
     <use transform="translate(2120.625 0.78125)" xlink:href="#DejaVuSans-65"/>
     <use transform="translate(2182.148438 0.78125)" xlink:href="#DejaVuSans-56"/>
    </g>
   </g>
  </g>
  <g id="axes_2">
   <g id="patch_2">
    <path clip-path="url(#pabc6c6f6ac)" d="M 361.152 307.584 
L 361.152 306.5445 
L 361.152 42.5115 
L 361.152 41.472 
L 374.4576 41.472 
L 374.4576 42.5115 
L 374.4576 306.5445 
L 374.4576 307.584 
z
" style="fill:#ffffff;stroke:#ffffff;stroke-linejoin:miter;stroke-width:0.01;"/>
   </g>
   <image height="265.68" id="imagef8af9ad2da" transform="scale(1 -1)translate(0 -265.68)" width="12.96" x="361.44" xlink:href="data:image/png;base64,
iVBORw0KGgoAAAANSUhEUgAAABIAAAFxCAYAAAB+2fgXAAAABHNCSVQICAgIfAhkiAAAAeVJREFUeJztncmNw0AQA2ckheYQNv9QLIfQ8ygsCgQ7AEI8+jAs2Puz/94F1LP2ReCsZ18bAWIeZ5XaGRBE7VnbptG+KI101FYyNSiQG2oRITXKNaX9uclOdi2XWjftVE32CZCO2ou5Bj1TcCBr/1zB9ge7Fq0Rg2NM9pvbtG+ua1QgsRYhDy0ISEiNc40BEibbSI0Coj5CBGtkpFbXJiAjNZlrwhuSOv2M1DjXbEdEciBt1JSDDQKKpmZr2rr2j0DBGpXaWEJq3bQzEPIS26r9J+Wzv9Tm8o3aajRXqc3VUXsApKNWjeZq0x4ABVNbm7lrszVigDqP5vIl2+eaT2yfRkL7g+dRcNPqjohkjaCvRVBq0H2U3LQrOJCx9kdTg4B8oxZzzTdqdYHEngjUCAPyUctN9sVRq2sTECW2UKNLd2jVtRmo1A6AhMmWaSRcR8nUdIHUuVb75zJS218EyEitro1At69pIdeSk30Lkw0FktNImGyZRhy1O5galmxd03LUsHWk06jUZiCq+5Wb1kZNN4+wJxJuWt8RAW5am2sYNZ9rYCBzZ3buPKJ2P5Yj4Toy3keyIyJbIxs1rml1byCA84gpch5RQNB7Q0qNMGq2Hy4BXdNR41yz/cEEJfZzUz96r9PoB0okjeQ8y9TkAAAAAElFTkSuQmCC" y="-41.76"/>
   <g id="matplotlib.axis_1"/>
   <g id="matplotlib.axis_2">
    <g id="ytick_1">
     <g id="line2d_1">
      <defs>
       <path d="M 0 0 
L 3.5 0 
" id="m61990bf799" style="stroke:#000000;stroke-width:0.8;"/>
      </defs>
      <g>
       <use style="stroke:#000000;stroke-width:0.8;" x="374.4576" xlink:href="#m61990bf799" y="273.856377"/>
      </g>
     </g>
     <g id="text_2">
      <!-- −7.5 -->
      <defs>
       <path d="M 10.59375 35.5 
L 73.1875 35.5 
L 73.1875 27.203125 
L 10.59375 27.203125 
z
" id="DejaVuSans-2212"/>
      </defs>
      <g transform="translate(381.4576 277.655595)scale(0.1 -0.1)">
       <use xlink:href="#DejaVuSans-2212"/>
       <use x="83.789062" xlink:href="#DejaVuSans-37"/>
       <use x="147.412109" xlink:href="#DejaVuSans-2e"/>
       <use x="179.199219" xlink:href="#DejaVuSans-35"/>
      </g>
     </g>
    </g>
    <g id="ytick_2">
     <g id="line2d_2">
      <g>
       <use style="stroke:#000000;stroke-width:0.8;" x="374.4576" xlink:href="#m61990bf799" y="227.081924"/>
      </g>
     </g>
     <g id="text_3">
      <!-- −7.0 -->
      <g transform="translate(381.4576 230.881143)scale(0.1 -0.1)">
       <use xlink:href="#DejaVuSans-2212"/>
       <use x="83.789062" xlink:href="#DejaVuSans-37"/>
       <use x="147.412109" xlink:href="#DejaVuSans-2e"/>
       <use x="179.199219" xlink:href="#DejaVuSans-30"/>
      </g>
     </g>
    </g>
    <g id="ytick_3">
     <g id="line2d_3">
      <g>
       <use style="stroke:#000000;stroke-width:0.8;" x="374.4576" xlink:href="#m61990bf799" y="180.307471"/>
      </g>
     </g>
     <g id="text_4">
      <!-- −6.5 -->
      <g transform="translate(381.4576 184.10669)scale(0.1 -0.1)">
       <use xlink:href="#DejaVuSans-2212"/>
       <use x="83.789062" xlink:href="#DejaVuSans-36"/>
       <use x="147.412109" xlink:href="#DejaVuSans-2e"/>
       <use x="179.199219" xlink:href="#DejaVuSans-35"/>
      </g>
     </g>
    </g>
    <g id="ytick_4">
     <g id="line2d_4">
      <g>
       <use style="stroke:#000000;stroke-width:0.8;" x="374.4576" xlink:href="#m61990bf799" y="133.533019"/>
      </g>
     </g>
     <g id="text_5">
      <!-- −6.0 -->
      <g transform="translate(381.4576 137.332238)scale(0.1 -0.1)">
       <use xlink:href="#DejaVuSans-2212"/>
       <use x="83.789062" xlink:href="#DejaVuSans-36"/>
       <use x="147.412109" xlink:href="#DejaVuSans-2e"/>
       <use x="179.199219" xlink:href="#DejaVuSans-30"/>
      </g>
     </g>
    </g>
    <g id="ytick_5">
     <g id="line2d_5">
      <g>
       <use style="stroke:#000000;stroke-width:0.8;" x="374.4576" xlink:href="#m61990bf799" y="86.758566"/>
      </g>
     </g>
     <g id="text_6">
      <!-- −5.5 -->
      <g transform="translate(381.4576 90.557785)scale(0.1 -0.1)">
       <use xlink:href="#DejaVuSans-2212"/>
       <use x="83.789062" xlink:href="#DejaVuSans-35"/>
       <use x="147.412109" xlink:href="#DejaVuSans-2e"/>
       <use x="179.199219" xlink:href="#DejaVuSans-35"/>
      </g>
     </g>
    </g>
    <g id="text_7">
     <!-- Energy [eV] -->
     <defs>
      <path d="M 54.890625 33.015625 
L 54.890625 0 
L 45.90625 0 
L 45.90625 32.71875 
Q 45.90625 40.484375 42.875 44.328125 
Q 39.84375 48.1875 33.796875 48.1875 
Q 26.515625 48.1875 22.3125 43.546875 
Q 18.109375 38.921875 18.109375 30.90625 
L 18.109375 0 
L 9.078125 0 
L 9.078125 54.6875 
L 18.109375 54.6875 
L 18.109375 46.1875 
Q 21.34375 51.125 25.703125 53.5625 
Q 30.078125 56 35.796875 56 
Q 45.21875 56 50.046875 50.171875 
Q 54.890625 44.34375 54.890625 33.015625 
z
" id="DejaVuSans-6e"/>
      <path d="M 45.40625 27.984375 
Q 45.40625 37.75 41.375 43.109375 
Q 37.359375 48.484375 30.078125 48.484375 
Q 22.859375 48.484375 18.828125 43.109375 
Q 14.796875 37.75 14.796875 27.984375 
Q 14.796875 18.265625 18.828125 12.890625 
Q 22.859375 7.515625 30.078125 7.515625 
Q 37.359375 7.515625 41.375 12.890625 
Q 45.40625 18.265625 45.40625 27.984375 
z
M 54.390625 6.78125 
Q 54.390625 -7.171875 48.1875 -13.984375 
Q 42 -20.796875 29.203125 -20.796875 
Q 24.46875 -20.796875 20.265625 -20.09375 
Q 16.0625 -19.390625 12.109375 -17.921875 
L 12.109375 -9.1875 
Q 16.0625 -11.328125 19.921875 -12.34375 
Q 23.78125 -13.375 27.78125 -13.375 
Q 36.625 -13.375 41.015625 -8.765625 
Q 45.40625 -4.15625 45.40625 5.171875 
L 45.40625 9.625 
Q 42.625 4.78125 38.28125 2.390625 
Q 33.9375 0 27.875 0 
Q 17.828125 0 11.671875 7.65625 
Q 5.515625 15.328125 5.515625 27.984375 
Q 5.515625 40.671875 11.671875 48.328125 
Q 17.828125 56 27.875 56 
Q 33.9375 56 38.28125 53.609375 
Q 42.625 51.21875 45.40625 46.390625 
L 45.40625 54.6875 
L 54.390625 54.6875 
z
" id="DejaVuSans-67"/>
      <path d="M 32.171875 -5.078125 
Q 28.375 -14.84375 24.75 -17.8125 
Q 21.140625 -20.796875 15.09375 -20.796875 
L 7.90625 -20.796875 
L 7.90625 -13.28125 
L 13.1875 -13.28125 
Q 16.890625 -13.28125 18.9375 -11.515625 
Q 21 -9.765625 23.484375 -3.21875 
L 25.09375 0.875 
L 2.984375 54.6875 
L 12.5 54.6875 
L 29.59375 11.921875 
L 46.6875 54.6875 
L 56.203125 54.6875 
z
" id="DejaVuSans-79"/>
      <path d="M 8.59375 75.984375 
L 29.296875 75.984375 
L 29.296875 69 
L 17.578125 69 
L 17.578125 -6.203125 
L 29.296875 -6.203125 
L 29.296875 -13.1875 
L 8.59375 -13.1875 
z
" id="DejaVuSans-5b"/>
      <path d="M 30.421875 75.984375 
L 30.421875 -13.1875 
L 9.71875 -13.1875 
L 9.71875 -6.203125 
L 21.390625 -6.203125 
L 21.390625 69 
L 9.71875 69 
L 9.71875 75.984375 
z
" id="DejaVuSans-5d"/>
     </defs>
     <g transform="translate(417.33885 204.108469)rotate(-90)scale(0.1 -0.1)">
      <use xlink:href="#DejaVuSans-45"/>
      <use x="63.183594" xlink:href="#DejaVuSans-6e"/>
      <use x="126.5625" xlink:href="#DejaVuSans-65"/>
      <use x="188.085938" xlink:href="#DejaVuSans-72"/>
      <use x="229.183594" xlink:href="#DejaVuSans-67"/>
      <use x="292.660156" xlink:href="#DejaVuSans-79"/>
      <use x="351.839844" xlink:href="#DejaVuSans-20"/>
      <use x="383.626953" xlink:href="#DejaVuSans-5b"/>
      <use x="422.640625" xlink:href="#DejaVuSans-65"/>
      <use x="484.164062" xlink:href="#DejaVuSans-56"/>
      <use x="552.572266" xlink:href="#DejaVuSans-5d"/>
     </g>
    </g>
   </g>
   <g id="patch_3">
    <path d="M 361.152 307.584 
L 361.152 306.5445 
L 361.152 42.5115 
L 361.152 41.472 
L 374.4576 41.472 
L 374.4576 42.5115 
L 374.4576 306.5445 
L 374.4576 307.584 
z
" style="fill:none;stroke:#000000;stroke-linejoin:miter;stroke-width:0.8;"/>
   </g>
  </g>
 </g>
 <defs>
  <clipPath id="p7c208c4f04">
   <rect height="266.112" width="285.696" x="57.6" y="41.472"/>
  </clipPath>
  <clipPath id="pabc6c6f6ac">
   <rect height="266.112" width="13.3056" x="361.152" y="41.472"/>
  </clipPath>
 </defs>
</svg>
