<?xml version="1.0" encoding="utf-8" standalone="no"?>
<!DOCTYPE svg PUBLIC "-//W3C//DTD SVG 1.1//EN"
  "http://www.w3.org/Graphics/SVG/1.1/DTD/svg11.dtd">
<!-- Created with matplotlib (http://matplotlib.org/) -->
<svg height="345.6pt" version="1.1" viewBox="0 0 460.8 345.6" width="460.8pt" xmlns="http://www.w3.org/2000/svg" xmlns:xlink="http://www.w3.org/1999/xlink">
 <defs>
  <style type="text/css">
*{stroke-linecap:butt;stroke-linejoin:round;}
  </style>
 </defs>
 <g id="figure_1">
  <g id="patch_1">
   <path d="M 0 345.6 
L 460.8 345.6 
L 460.8 0 
L 0 0 
z
" style="fill:#ffffff;"/>
  </g>
  <g id="axes_1">
   <g id="CircleCollection_1">
    <path clip-path="url(#p1a1442ba46)" d="M 108.870412 178.34054 
C 110.661332 178.34054 112.379142 177.629 113.645513 176.362628 
C 114.911885 175.096256 115.623425 173.378447 115.623425 171.587526 
C 115.623425 169.796606 114.911885 168.078797 113.645513 166.812425 
C 112.379142 165.546053 110.661332 164.834513 108.870412 164.834513 
C 107.079492 164.834513 105.361682 165.546053 104.09531 166.812425 
C 102.828938 168.078797 102.117398 169.796606 102.117398 171.587526 
C 102.117398 173.378447 102.828938 175.096256 104.09531 176.362628 
C 105.361682 177.629 107.079492 178.34054 108.870412 178.34054 
z
" style="fill:#26818e;"/>
    <path clip-path="url(#p1a1442ba46)" d="M 329.868975 158.503337 
C 331.627769 158.503337 333.314763 157.804561 334.558418 156.560906 
C 335.802073 155.317252 336.500849 153.630257 336.500849 151.871464 
C 336.500849 150.11267 335.802073 148.425676 334.558418 147.182021 
C 333.314763 145.938366 331.627769 145.23959 329.868975 145.23959 
C 328.110182 145.23959 326.423187 145.938366 325.179532 147.182021 
C 323.935877 148.425676 323.237101 150.11267 323.237101 151.871464 
C 323.237101 153.630257 323.935877 155.317252 325.179532 156.560906 
C 326.423187 157.804561 328.110182 158.503337 329.868975 158.503337 
z
" style="fill:#2e6d8e;"/>
    <path clip-path="url(#p1a1442ba46)" d="M 75.67164 98.731041 
C 77.420532 98.731041 79.098029 98.036199 80.334682 96.799546 
C 81.571335 95.562893 82.266178 93.885395 82.266178 92.136504 
C 82.266178 90.387612 81.571335 88.710114 80.334682 87.473461 
C 79.098029 86.236808 77.420532 85.541966 75.67164 85.541966 
C 73.922748 85.541966 72.245251 86.236808 71.008597 87.473461 
C 69.771944 88.710114 69.077102 90.387612 69.077102 92.136504 
C 69.077102 93.885395 69.771944 95.562893 71.008597 96.799546 
C 72.245251 98.036199 73.922748 98.731041 75.67164 98.731041 
z
" style="fill:#2c728e;"/>
    <path clip-path="url(#p1a1442ba46)" d="M 318.053856 129.285738 
C 319.806704 129.285738 321.487995 128.589325 322.727446 127.349874 
C 323.966896 126.110424 324.66331 124.429132 324.66331 122.676285 
C 324.66331 120.923437 323.966896 119.242146 322.727446 118.002695 
C 321.487995 116.763245 319.806704 116.066831 318.053856 116.066831 
C 316.301009 116.066831 314.619717 116.763245 313.380267 118.002695 
C 312.140817 119.242146 311.444403 120.923437 311.444403 122.676285 
C 311.444403 124.429132 312.140817 126.110424 313.380267 127.349874 
C 314.619717 128.589325 316.301009 129.285738 318.053856 129.285738 
z
" style="fill:#2e6d8e;"/>
    <path clip-path="url(#p1a1442ba46)" d="M 247.047449 100.01246 
C 248.796815 100.01246 250.474768 99.317429 251.711757 98.08044 
C 252.948746 96.843451 253.643777 95.165498 253.643777 93.416132 
C 253.643777 91.666765 252.948746 89.988812 251.711757 88.751823 
C 250.474768 87.514834 248.796815 86.819804 247.047449 86.819804 
C 245.298082 86.819804 243.620129 87.514834 242.38314 88.751823 
C 241.146151 89.988812 240.451121 91.666765 240.451121 93.416132 
C 240.451121 95.165498 241.146151 96.843451 242.38314 98.08044 
C 243.620129 99.317429 245.298082 100.01246 247.047449 100.01246 
z
" style="fill:#440154;"/>
    <path clip-path="url(#p1a1442ba46)" d="M 166.431872 223.108514 
C 168.19672 223.108514 169.889521 222.407333 171.137457 221.159398 
C 172.385392 219.911462 173.086574 218.21866 173.086574 216.453813 
C 173.086574 214.688966 172.385392 212.996164 171.137457 211.748229 
C 169.889521 210.500293 168.19672 209.799112 166.431872 209.799112 
C 164.667025 209.799112 162.974223 210.500293 161.726288 211.748229 
C 160.478352 212.996164 159.777171 214.688966 159.777171 216.453813 
C 159.777171 218.21866 160.478352 219.911462 161.726288 221.159398 
C 162.974223 222.407333 164.667025 223.108514 166.431872 223.108514 
z
" style="fill:#93d741;"/>
    <path clip-path="url(#p1a1442ba46)" d="M 313.3888 301.578187 
C 315.109668 301.578187 316.760286 300.894479 317.977123 299.677642 
C 319.193961 298.460804 319.877669 296.810187 319.877669 295.089319 
C 319.877669 293.368451 319.193961 291.717833 317.977123 290.500996 
C 316.760286 289.284158 315.109668 288.60045 313.3888 288.60045 
C 311.667932 288.60045 310.017315 289.284158 308.800477 290.500996 
C 307.58364 291.717833 306.899931 293.368451 306.899931 295.089319 
C 306.899931 296.810187 307.58364 298.460804 308.800477 299.677642 
C 310.017315 300.894479 311.667932 301.578187 313.3888 301.578187 
z
" style="fill:#fde725;"/>
    <path clip-path="url(#p1a1442ba46)" d="M 182.820917 63.34134 
C 184.555985 63.34134 186.220222 62.651991 187.4471 61.425113 
C 188.673978 60.198235 189.363328 58.533998 189.363328 56.79893 
C 189.363328 55.063863 188.673978 53.399625 187.4471 52.172747 
C 186.220222 50.945869 184.555985 50.25652 182.820917 50.25652 
C 181.08585 50.25652 179.421612 50.945869 178.194734 52.172747 
C 176.967856 53.399625 176.278507 55.063863 176.278507 56.79893 
C 176.278507 58.533998 176.967856 60.198235 178.194734 61.425113 
C 179.421612 62.651991 181.08585 63.34134 182.820917 63.34134 
z
" style="fill:#2e6d8e;"/>
    <path clip-path="url(#p1a1442ba46)" d="M 288.591833 245.347586 
C 290.349549 245.347586 292.035511 244.649238 293.278405 243.406345 
C 294.521298 242.163451 295.219646 240.477489 295.219646 238.719773 
C 295.219646 236.962056 294.521298 235.276094 293.278405 234.033201 
C 292.035511 232.790307 290.349549 232.091959 288.591833 232.091959 
C 286.834116 232.091959 285.148154 232.790307 283.905261 234.033201 
C 282.662367 235.276094 281.964019 236.962056 281.964019 238.719773 
C 281.964019 240.477489 282.662367 242.163451 283.905261 243.406345 
C 285.148154 244.649238 286.834116 245.347586 288.591833 245.347586 
z
" style="fill:#31688e;"/>
    <path clip-path="url(#p1a1442ba46)" d="M 321.521446 186.635324 
C 323.286872 186.635324 324.980229 185.933913 326.228573 184.685568 
C 327.476918 183.437224 328.178329 181.743868 328.178329 179.978442 
C 328.178329 178.213016 327.476918 176.51966 326.228573 175.271315 
C 324.980229 174.022971 323.286872 173.321559 321.521446 173.321559 
C 319.756021 173.321559 318.062664 174.022971 316.81432 175.271315 
C 315.565975 176.51966 314.864564 178.213016 314.864564 179.978442 
C 314.864564 181.743868 315.565975 183.437224 316.81432 184.685568 
C 318.062664 185.933913 319.756021 186.635324 321.521446 186.635324 
z
" style="fill:#29798e;"/>
    <path clip-path="url(#p1a1442ba46)" d="M 208.262375 154.256288 
C 210.028109 154.256288 211.721761 153.554754 212.970324 152.306192 
C 214.218886 151.057629 214.92042 149.363977 214.92042 147.598243 
C 214.92042 145.832509 214.218886 144.138857 212.970324 142.890295 
C 211.721761 141.641732 210.028109 140.940199 208.262375 140.940199 
C 206.496641 140.940199 204.802989 141.641732 203.554427 142.890295 
C 202.305864 144.138857 201.604331 145.832509 201.604331 147.598243 
C 201.604331 149.363977 202.305864 151.057629 203.554427 152.306192 
C 204.802989 153.554754 206.496641 154.256288 208.262375 154.256288 
z
" style="fill:#2b758e;"/>
    <path clip-path="url(#p1a1442ba46)" d="M 102.693976 75.222263 
C 104.431716 75.222263 106.098517 74.531851 107.327285 73.303083 
C 108.556054 72.074315 109.246465 70.407514 109.246465 68.669774 
C 109.246465 66.932033 108.556054 65.265232 107.327285 64.036464 
C 106.098517 62.807696 104.431716 62.117285 102.693976 62.117285 
C 100.956235 62.117285 99.289434 62.807696 98.060666 64.036464 
C 96.831898 65.265232 96.141487 66.932033 96.141487 68.669774 
C 96.141487 70.407514 96.831898 72.074315 98.060666 73.303083 
C 99.289434 74.531851 100.956235 75.222263 102.693976 75.222263 
z
" style="fill:#2b758e;"/>
    <path clip-path="url(#p1a1442ba46)" d="M 293.037215 106.214971 
C 294.785466 106.214971 296.462349 105.520383 297.698549 104.284183 
C 298.934749 103.047983 299.629336 101.371101 299.629336 99.62285 
C 299.629336 97.874599 298.934749 96.197717 297.698549 94.961517 
C 296.462349 93.725317 294.785466 93.030729 293.037215 93.030729 
C 291.288965 93.030729 289.612082 93.725317 288.375882 94.961517 
C 287.139682 96.197717 286.445095 97.874599 286.445095 99.62285 
C 286.445095 101.371101 287.139682 103.047983 288.375882 104.284183 
C 289.612082 105.520383 291.288965 106.214971 293.037215 106.214971 
z
" style="fill:#1f9a8a;"/>
    <path clip-path="url(#p1a1442ba46)" d="M 223.346503 127.854053 
C 225.106922 127.854053 226.795475 127.154632 228.040279 125.909828 
C 229.285083 124.665024 229.984504 122.976471 229.984504 121.216052 
C 229.984504 119.455634 229.285083 117.767081 228.040279 116.522277 
C 226.795475 115.277473 225.106922 114.578051 223.346503 114.578051 
C 221.586085 114.578051 219.897532 115.277473 218.652728 116.522277 
C 217.407924 117.767081 216.708502 119.455634 216.708502 121.216052 
C 216.708502 122.976471 217.407924 124.665024 218.652728 125.909828 
C 219.897532 127.154632 221.586085 127.854053 223.346503 127.854053 
z
" style="fill:#218f8d;"/>
    <path clip-path="url(#p1a1442ba46)" d="M 138.966664 60.499748 
C 140.698575 60.499748 142.359785 59.811653 143.584431 58.587007 
C 144.809077 57.36236 145.497172 55.701151 145.497172 53.96924 
C 145.497172 52.237328 144.809077 50.576119 143.584431 49.351473 
C 142.359785 48.126827 140.698575 47.438731 138.966664 47.438731 
C 137.234753 47.438731 135.573543 48.126827 134.348897 49.351473 
C 133.124251 50.576119 132.436155 52.237328 132.436155 53.96924 
C 132.436155 55.701151 133.124251 57.36236 134.348897 58.587007 
C 135.573543 59.811653 137.234753 60.499748 138.966664 60.499748 
z
" style="fill:#2b758e;"/>
    <path clip-path="url(#p1a1442ba46)" d="M 211.377827 213.321282 
C 213.162962 213.321282 214.875222 212.61204 216.137503 211.349759 
C 217.399784 210.087479 218.109025 208.375218 218.109025 206.590084 
C 218.109025 204.804949 217.399784 203.092689 216.137503 201.830408 
C 214.875222 200.568127 213.162962 199.858886 211.377827 199.858886 
C 209.592693 199.858886 207.880432 200.568127 206.618151 201.830408 
C 205.355871 203.092689 204.646629 204.804949 204.646629 206.590084 
C 204.646629 208.375218 205.355871 210.087479 206.618151 211.349759 
C 207.880432 212.61204 209.592693 213.321282 211.377827 213.321282 
z
" style="fill:#3d4e8a;"/>
    <path clip-path="url(#p1a1442ba46)" d="M 254.508608 223.79346 
C 256.284312 223.79346 257.987526 223.087965 259.243139 221.832353 
C 260.498751 220.576741 261.204245 218.873526 261.204245 217.097822 
C 261.204245 215.322118 260.498751 213.618903 259.243139 212.363291 
C 257.987526 211.107679 256.284312 210.402184 254.508608 210.402184 
C 252.732904 210.402184 251.029689 211.107679 249.774077 212.363291 
C 248.518464 213.618903 247.81297 215.322118 247.81297 217.097822 
C 247.81297 218.873526 248.518464 220.576741 249.774077 221.832353 
C 251.029689 223.087965 252.732904 223.79346 254.508608 223.79346 
z
" style="fill:#2e6f8e;"/>
    <path clip-path="url(#p1a1442ba46)" d="M 147.080107 194.915475 
C 148.876672 194.915475 150.599897 194.201692 151.870261 192.931328 
C 153.140625 191.660965 153.854408 189.93774 153.854408 188.141174 
C 153.854408 186.344608 153.140625 184.621383 151.870261 183.35102 
C 150.599897 182.080656 148.876672 181.366873 147.080107 181.366873 
C 145.283541 181.366873 143.560316 182.080656 142.289952 183.35102 
C 141.019588 184.621383 140.305805 186.344608 140.305805 188.141174 
C 140.305805 189.93774 141.019588 191.660965 142.289952 192.931328 
C 143.560316 194.201692 145.283541 194.915475 147.080107 194.915475 
z
" style="fill:#3b528b;"/>
    <path clip-path="url(#p1a1442ba46)" d="M 301.548199 274.028166 
C 303.286788 274.028166 304.954403 273.337418 306.183771 272.10805 
C 307.413138 270.878682 308.103887 269.211067 308.103887 267.472479 
C 308.103887 265.73389 307.413138 264.066275 306.183771 262.836907 
C 304.954403 261.60754 303.286788 260.916791 301.548199 260.916791 
C 299.809611 260.916791 298.141996 261.60754 296.912628 262.836907 
C 295.68326 264.066275 294.992512 265.73389 294.992512 267.472479 
C 294.992512 269.211067 295.68326 270.878682 296.912628 272.10805 
C 298.141996 273.337418 299.809611 274.028166 301.548199 274.028166 
z
" style="fill:#2e6e8e;"/>
    <path clip-path="url(#p1a1442ba46)" d="M 299.109755 213.513768 
C 300.878766 213.513768 302.57556 212.810932 303.82644 211.560053 
C 305.077319 210.309174 305.780155 208.612379 305.780155 206.843368 
C 305.780155 205.074357 305.077319 203.377563 303.82644 202.126683 
C 302.57556 200.875804 300.878766 200.172968 299.109755 200.172968 
C 297.340744 200.172968 295.64395 200.875804 294.39307 202.126683 
C 293.142191 203.377563 292.439355 205.074357 292.439355 206.843368 
C 292.439355 208.612379 293.142191 210.309174 294.39307 211.560053 
C 295.64395 212.810932 297.340744 213.513768 299.109755 213.513768 
z
" style="fill:#2f6b8e;"/>
    <path clip-path="url(#p1a1442ba46)" d="M 83.628095 155.468746 
C 85.410039 155.468746 87.119238 154.760772 88.379263 153.500748 
C 89.639287 152.240723 90.347261 150.531524 90.347261 148.74958 
C 90.347261 146.967636 89.639287 145.258437 88.379263 143.998412 
C 87.119238 142.738388 85.410039 142.030414 83.628095 142.030414 
C 81.846151 142.030414 80.136952 142.738388 78.876927 143.998412 
C 77.616903 145.258437 76.908929 146.967636 76.908929 148.74958 
C 76.908929 150.531524 77.616903 152.240723 78.876927 153.500748 
C 80.136952 154.760772 81.846151 155.468746 83.628095 155.468746 
z
" style="fill:#2f6b8e;"/>
    <path clip-path="url(#p1a1442ba46)" d="M 222.041189 73.422499 
C 223.779598 73.422499 225.44704 72.731821 226.676281 71.502581 
C 227.905521 70.27334 228.596198 68.605898 228.596198 66.86749 
C 228.596198 65.129081 227.905521 63.461639 226.676281 62.232398 
C 225.44704 61.003158 223.779598 60.312481 222.041189 60.312481 
C 220.302781 60.312481 218.635339 61.003158 217.406098 62.232398 
C 216.176858 63.461639 215.486181 65.129081 215.486181 66.86749 
C 215.486181 68.605898 216.176858 70.27334 217.406098 71.502581 
C 218.635339 72.731821 220.302781 73.422499 222.041189 73.422499 
z
" style="fill:#20928c;"/>
    <path clip-path="url(#p1a1442ba46)" d="M 192.841153 182.643489 
C 194.634202 182.643489 196.354053 181.931103 197.621931 180.663226 
C 198.889808 179.395349 199.602193 177.675497 199.602193 175.882448 
C 199.602193 174.089399 198.889808 172.369547 197.621931 171.10167 
C 196.354053 169.833793 194.634202 169.121407 192.841153 169.121407 
C 191.048104 169.121407 189.328252 169.833793 188.060375 171.10167 
C 186.792498 172.369547 186.080112 174.089399 186.080112 175.882448 
C 186.080112 177.675497 186.792498 179.395349 188.060375 180.663226 
C 189.328252 181.931103 191.048104 182.643489 192.841153 182.643489 
z
" style="fill:#365c8d;"/>
    <path clip-path="url(#p1a1442ba46)" d="M 71.028578 127.090278 
C 72.793567 127.090278 74.486505 126.389041 75.73454 125.141005 
C 76.982576 123.892969 77.683814 122.200032 77.683814 120.435042 
C 77.683814 118.670053 76.982576 116.977116 75.73454 115.72908 
C 74.486505 114.481044 72.793567 113.779806 71.028578 113.779806 
C 69.263589 113.779806 67.570651 114.481044 66.322615 115.72908 
C 65.07458 116.977116 64.373342 118.670053 64.373342 120.435042 
C 64.373342 122.200032 65.07458 123.892969 66.322615 125.141005 
C 67.570651 126.389041 69.263589 127.090278 71.028578 127.090278 
z
" style="fill:#2b748e;"/>
   </g>
   <g id="text_1">
    <!-- Structure #4038, $E_N$=-180.29eV, ΔE=-0.39eV -->
    <defs>
     <path d="M 53.515625 70.515625 
L 53.515625 60.890625 
Q 47.90625 63.578125 42.921875 64.890625 
Q 37.9375 66.21875 33.296875 66.21875 
Q 25.25 66.21875 20.875 63.09375 
Q 16.5 59.96875 16.5 54.203125 
Q 16.5 49.359375 19.40625 46.890625 
Q 22.3125 44.4375 30.421875 42.921875 
L 36.375 41.703125 
Q 47.40625 39.59375 52.65625 34.296875 
Q 57.90625 29 57.90625 20.125 
Q 57.90625 9.515625 50.796875 4.046875 
Q 43.703125 -1.421875 29.984375 -1.421875 
Q 24.8125 -1.421875 18.96875 -0.25 
Q 13.140625 0.921875 6.890625 3.21875 
L 6.890625 13.375 
Q 12.890625 10.015625 18.65625 8.296875 
Q 24.421875 6.59375 29.984375 6.59375 
Q 38.421875 6.59375 43.015625 9.90625 
Q 47.609375 13.234375 47.609375 19.390625 
Q 47.609375 24.75 44.3125 27.78125 
Q 41.015625 30.8125 33.5 32.328125 
L 27.484375 33.5 
Q 16.453125 35.6875 11.515625 40.375 
Q 6.59375 45.0625 6.59375 53.421875 
Q 6.59375 63.09375 13.40625 68.65625 
Q 20.21875 74.21875 32.171875 74.21875 
Q 37.3125 74.21875 42.625 73.28125 
Q 47.953125 72.359375 53.515625 70.515625 
z
" id="DejaVuSans-53"/>
     <path d="M 18.3125 70.21875 
L 18.3125 54.6875 
L 36.8125 54.6875 
L 36.8125 47.703125 
L 18.3125 47.703125 
L 18.3125 18.015625 
Q 18.3125 11.328125 20.140625 9.421875 
Q 21.96875 7.515625 27.59375 7.515625 
L 36.8125 7.515625 
L 36.8125 0 
L 27.59375 0 
Q 17.1875 0 13.234375 3.875 
Q 9.28125 7.765625 9.28125 18.015625 
L 9.28125 47.703125 
L 2.6875 47.703125 
L 2.6875 54.6875 
L 9.28125 54.6875 
L 9.28125 70.21875 
z
" id="DejaVuSans-74"/>
     <path d="M 41.109375 46.296875 
Q 39.59375 47.171875 37.8125 47.578125 
Q 36.03125 48 33.890625 48 
Q 26.265625 48 22.1875 43.046875 
Q 18.109375 38.09375 18.109375 28.8125 
L 18.109375 0 
L 9.078125 0 
L 9.078125 54.6875 
L 18.109375 54.6875 
L 18.109375 46.1875 
Q 20.953125 51.171875 25.484375 53.578125 
Q 30.03125 56 36.53125 56 
Q 37.453125 56 38.578125 55.875 
Q 39.703125 55.765625 41.0625 55.515625 
z
" id="DejaVuSans-72"/>
     <path d="M 8.5 21.578125 
L 8.5 54.6875 
L 17.484375 54.6875 
L 17.484375 21.921875 
Q 17.484375 14.15625 20.5 10.265625 
Q 23.53125 6.390625 29.59375 6.390625 
Q 36.859375 6.390625 41.078125 11.03125 
Q 45.3125 15.671875 45.3125 23.6875 
L 45.3125 54.6875 
L 54.296875 54.6875 
L 54.296875 0 
L 45.3125 0 
L 45.3125 8.40625 
Q 42.046875 3.421875 37.71875 1 
Q 33.40625 -1.421875 27.6875 -1.421875 
Q 18.265625 -1.421875 13.375 4.4375 
Q 8.5 10.296875 8.5 21.578125 
z
M 31.109375 56 
z
" id="DejaVuSans-75"/>
     <path d="M 48.78125 52.59375 
L 48.78125 44.1875 
Q 44.96875 46.296875 41.140625 47.34375 
Q 37.3125 48.390625 33.40625 48.390625 
Q 24.65625 48.390625 19.8125 42.84375 
Q 14.984375 37.3125 14.984375 27.296875 
Q 14.984375 17.28125 19.8125 11.734375 
Q 24.65625 6.203125 33.40625 6.203125 
Q 37.3125 6.203125 41.140625 7.25 
Q 44.96875 8.296875 48.78125 10.40625 
L 48.78125 2.09375 
Q 45.015625 0.34375 40.984375 -0.53125 
Q 36.96875 -1.421875 32.421875 -1.421875 
Q 20.0625 -1.421875 12.78125 6.34375 
Q 5.515625 14.109375 5.515625 27.296875 
Q 5.515625 40.671875 12.859375 48.328125 
Q 20.21875 56 33.015625 56 
Q 37.15625 56 41.109375 55.140625 
Q 45.0625 54.296875 48.78125 52.59375 
z
" id="DejaVuSans-63"/>
     <path d="M 56.203125 29.59375 
L 56.203125 25.203125 
L 14.890625 25.203125 
Q 15.484375 15.921875 20.484375 11.0625 
Q 25.484375 6.203125 34.421875 6.203125 
Q 39.59375 6.203125 44.453125 7.46875 
Q 49.3125 8.734375 54.109375 11.28125 
L 54.109375 2.78125 
Q 49.265625 0.734375 44.1875 -0.34375 
Q 39.109375 -1.421875 33.890625 -1.421875 
Q 20.796875 -1.421875 13.15625 6.1875 
Q 5.515625 13.8125 5.515625 26.8125 
Q 5.515625 40.234375 12.765625 48.109375 
Q 20.015625 56 32.328125 56 
Q 43.359375 56 49.78125 48.890625 
Q 56.203125 41.796875 56.203125 29.59375 
z
M 47.21875 32.234375 
Q 47.125 39.59375 43.09375 43.984375 
Q 39.0625 48.390625 32.421875 48.390625 
Q 24.90625 48.390625 20.390625 44.140625 
Q 15.875 39.890625 15.1875 32.171875 
z
" id="DejaVuSans-65"/>
     <path id="DejaVuSans-20"/>
     <path d="M 51.125 44 
L 36.921875 44 
L 32.8125 27.6875 
L 47.125 27.6875 
z
M 43.796875 71.78125 
L 38.71875 51.515625 
L 52.984375 51.515625 
L 58.109375 71.78125 
L 65.921875 71.78125 
L 60.890625 51.515625 
L 76.125 51.515625 
L 76.125 44 
L 58.984375 44 
L 54.984375 27.6875 
L 70.515625 27.6875 
L 70.515625 20.21875 
L 53.078125 20.21875 
L 48 0 
L 40.1875 0 
L 45.21875 20.21875 
L 30.90625 20.21875 
L 25.875 0 
L 18.015625 0 
L 23.09375 20.21875 
L 7.71875 20.21875 
L 7.71875 27.6875 
L 24.90625 27.6875 
L 29 44 
L 13.28125 44 
L 13.28125 51.515625 
L 30.90625 51.515625 
L 35.890625 71.78125 
z
" id="DejaVuSans-23"/>
     <path d="M 37.796875 64.3125 
L 12.890625 25.390625 
L 37.796875 25.390625 
z
M 35.203125 72.90625 
L 47.609375 72.90625 
L 47.609375 25.390625 
L 58.015625 25.390625 
L 58.015625 17.1875 
L 47.609375 17.1875 
L 47.609375 0 
L 37.796875 0 
L 37.796875 17.1875 
L 4.890625 17.1875 
L 4.890625 26.703125 
z
" id="DejaVuSans-34"/>
     <path d="M 31.78125 66.40625 
Q 24.171875 66.40625 20.328125 58.90625 
Q 16.5 51.421875 16.5 36.375 
Q 16.5 21.390625 20.328125 13.890625 
Q 24.171875 6.390625 31.78125 6.390625 
Q 39.453125 6.390625 43.28125 13.890625 
Q 47.125 21.390625 47.125 36.375 
Q 47.125 51.421875 43.28125 58.90625 
Q 39.453125 66.40625 31.78125 66.40625 
z
M 31.78125 74.21875 
Q 44.046875 74.21875 50.515625 64.515625 
Q 56.984375 54.828125 56.984375 36.375 
Q 56.984375 17.96875 50.515625 8.265625 
Q 44.046875 -1.421875 31.78125 -1.421875 
Q 19.53125 -1.421875 13.0625 8.265625 
Q 6.59375 17.96875 6.59375 36.375 
Q 6.59375 54.828125 13.0625 64.515625 
Q 19.53125 74.21875 31.78125 74.21875 
z
" id="DejaVuSans-30"/>
     <path d="M 40.578125 39.3125 
Q 47.65625 37.796875 51.625 33 
Q 55.609375 28.21875 55.609375 21.1875 
Q 55.609375 10.40625 48.1875 4.484375 
Q 40.765625 -1.421875 27.09375 -1.421875 
Q 22.515625 -1.421875 17.65625 -0.515625 
Q 12.796875 0.390625 7.625 2.203125 
L 7.625 11.71875 
Q 11.71875 9.328125 16.59375 8.109375 
Q 21.484375 6.890625 26.8125 6.890625 
Q 36.078125 6.890625 40.9375 10.546875 
Q 45.796875 14.203125 45.796875 21.1875 
Q 45.796875 27.640625 41.28125 31.265625 
Q 36.765625 34.90625 28.71875 34.90625 
L 20.21875 34.90625 
L 20.21875 43.015625 
L 29.109375 43.015625 
Q 36.375 43.015625 40.234375 45.921875 
Q 44.09375 48.828125 44.09375 54.296875 
Q 44.09375 59.90625 40.109375 62.90625 
Q 36.140625 65.921875 28.71875 65.921875 
Q 24.65625 65.921875 20.015625 65.03125 
Q 15.375 64.15625 9.8125 62.3125 
L 9.8125 71.09375 
Q 15.4375 72.65625 20.34375 73.4375 
Q 25.25 74.21875 29.59375 74.21875 
Q 40.828125 74.21875 47.359375 69.109375 
Q 53.90625 64.015625 53.90625 55.328125 
Q 53.90625 49.265625 50.4375 45.09375 
Q 46.96875 40.921875 40.578125 39.3125 
z
" id="DejaVuSans-33"/>
     <path d="M 31.78125 34.625 
Q 24.75 34.625 20.71875 30.859375 
Q 16.703125 27.09375 16.703125 20.515625 
Q 16.703125 13.921875 20.71875 10.15625 
Q 24.75 6.390625 31.78125 6.390625 
Q 38.8125 6.390625 42.859375 10.171875 
Q 46.921875 13.96875 46.921875 20.515625 
Q 46.921875 27.09375 42.890625 30.859375 
Q 38.875 34.625 31.78125 34.625 
z
M 21.921875 38.8125 
Q 15.578125 40.375 12.03125 44.71875 
Q 8.5 49.078125 8.5 55.328125 
Q 8.5 64.0625 14.71875 69.140625 
Q 20.953125 74.21875 31.78125 74.21875 
Q 42.671875 74.21875 48.875 69.140625 
Q 55.078125 64.0625 55.078125 55.328125 
Q 55.078125 49.078125 51.53125 44.71875 
Q 48 40.375 41.703125 38.8125 
Q 48.828125 37.15625 52.796875 32.3125 
Q 56.78125 27.484375 56.78125 20.515625 
Q 56.78125 9.90625 50.3125 4.234375 
Q 43.84375 -1.421875 31.78125 -1.421875 
Q 19.734375 -1.421875 13.25 4.234375 
Q 6.78125 9.90625 6.78125 20.515625 
Q 6.78125 27.484375 10.78125 32.3125 
Q 14.796875 37.15625 21.921875 38.8125 
z
M 18.3125 54.390625 
Q 18.3125 48.734375 21.84375 45.5625 
Q 25.390625 42.390625 31.78125 42.390625 
Q 38.140625 42.390625 41.71875 45.5625 
Q 45.3125 48.734375 45.3125 54.390625 
Q 45.3125 60.0625 41.71875 63.234375 
Q 38.140625 66.40625 31.78125 66.40625 
Q 25.390625 66.40625 21.84375 63.234375 
Q 18.3125 60.0625 18.3125 54.390625 
z
" id="DejaVuSans-38"/>
     <path d="M 11.71875 12.40625 
L 22.015625 12.40625 
L 22.015625 4 
L 14.015625 -11.625 
L 7.71875 -11.625 
L 11.71875 4 
z
" id="DejaVuSans-2c"/>
     <path d="M 16.890625 72.90625 
L 62.984375 72.90625 
L 61.375 64.59375 
L 25.09375 64.59375 
L 20.90625 43.015625 
L 55.71875 43.015625 
L 54.109375 34.71875 
L 19.28125 34.71875 
L 14.203125 8.296875 
L 51.3125 8.296875 
L 49.703125 0 
L 2.6875 0 
z
" id="DejaVuSans-Oblique-45"/>
     <path d="M 16.890625 72.90625 
L 30.171875 72.90625 
L 50.296875 10.40625 
L 62.5 72.90625 
L 72.125 72.90625 
L 57.90625 0 
L 44.578125 0 
L 24.515625 62.890625 
L 12.3125 0 
L 2.6875 0 
z
" id="DejaVuSans-Oblique-4e"/>
     <path d="M 10.59375 45.40625 
L 73.1875 45.40625 
L 73.1875 37.203125 
L 10.59375 37.203125 
z
M 10.59375 25.484375 
L 73.1875 25.484375 
L 73.1875 17.1875 
L 10.59375 17.1875 
z
" id="DejaVuSans-3d"/>
     <path d="M 4.890625 31.390625 
L 31.203125 31.390625 
L 31.203125 23.390625 
L 4.890625 23.390625 
z
" id="DejaVuSans-2d"/>
     <path d="M 12.40625 8.296875 
L 28.515625 8.296875 
L 28.515625 63.921875 
L 10.984375 60.40625 
L 10.984375 69.390625 
L 28.421875 72.90625 
L 38.28125 72.90625 
L 38.28125 8.296875 
L 54.390625 8.296875 
L 54.390625 0 
L 12.40625 0 
z
" id="DejaVuSans-31"/>
     <path d="M 10.6875 12.40625 
L 21 12.40625 
L 21 0 
L 10.6875 0 
z
" id="DejaVuSans-2e"/>
     <path d="M 19.1875 8.296875 
L 53.609375 8.296875 
L 53.609375 0 
L 7.328125 0 
L 7.328125 8.296875 
Q 12.9375 14.109375 22.625 23.890625 
Q 32.328125 33.6875 34.8125 36.53125 
Q 39.546875 41.84375 41.421875 45.53125 
Q 43.3125 49.21875 43.3125 52.78125 
Q 43.3125 58.59375 39.234375 62.25 
Q 35.15625 65.921875 28.609375 65.921875 
Q 23.96875 65.921875 18.8125 64.3125 
Q 13.671875 62.703125 7.8125 59.421875 
L 7.8125 69.390625 
Q 13.765625 71.78125 18.9375 73 
Q 24.125 74.21875 28.421875 74.21875 
Q 39.75 74.21875 46.484375 68.546875 
Q 53.21875 62.890625 53.21875 53.421875 
Q 53.21875 48.921875 51.53125 44.890625 
Q 49.859375 40.875 45.40625 35.40625 
Q 44.1875 33.984375 37.640625 27.21875 
Q 31.109375 20.453125 19.1875 8.296875 
z
" id="DejaVuSans-32"/>
     <path d="M 10.984375 1.515625 
L 10.984375 10.5 
Q 14.703125 8.734375 18.5 7.8125 
Q 22.3125 6.890625 25.984375 6.890625 
Q 35.75 6.890625 40.890625 13.453125 
Q 46.046875 20.015625 46.78125 33.40625 
Q 43.953125 29.203125 39.59375 26.953125 
Q 35.25 24.703125 29.984375 24.703125 
Q 19.046875 24.703125 12.671875 31.3125 
Q 6.296875 37.9375 6.296875 49.421875 
Q 6.296875 60.640625 12.9375 67.421875 
Q 19.578125 74.21875 30.609375 74.21875 
Q 43.265625 74.21875 49.921875 64.515625 
Q 56.59375 54.828125 56.59375 36.375 
Q 56.59375 19.140625 48.40625 8.859375 
Q 40.234375 -1.421875 26.421875 -1.421875 
Q 22.703125 -1.421875 18.890625 -0.6875 
Q 15.09375 0.046875 10.984375 1.515625 
z
M 30.609375 32.421875 
Q 37.25 32.421875 41.125 36.953125 
Q 45.015625 41.5 45.015625 49.421875 
Q 45.015625 57.28125 41.125 61.84375 
Q 37.25 66.40625 30.609375 66.40625 
Q 23.96875 66.40625 20.09375 61.84375 
Q 16.21875 57.28125 16.21875 49.421875 
Q 16.21875 41.5 20.09375 36.953125 
Q 23.96875 32.421875 30.609375 32.421875 
z
" id="DejaVuSans-39"/>
     <path d="M 28.609375 0 
L 0.78125 72.90625 
L 11.078125 72.90625 
L 34.1875 11.53125 
L 57.328125 72.90625 
L 67.578125 72.90625 
L 39.796875 0 
z
" id="DejaVuSans-56"/>
     <path d="M 34.1875 63.1875 
L 14.15625 8.203125 
L 54.25 8.203125 
z
M 0.78125 0 
L 28.609375 72.90625 
L 39.796875 72.90625 
L 67.578125 0 
z
" id="DejaVuSans-394"/>
     <path d="M 9.8125 72.90625 
L 55.90625 72.90625 
L 55.90625 64.59375 
L 19.671875 64.59375 
L 19.671875 43.015625 
L 54.390625 43.015625 
L 54.390625 34.71875 
L 19.671875 34.71875 
L 19.671875 8.296875 
L 56.78125 8.296875 
L 56.78125 0 
L 9.8125 0 
z
" id="DejaVuSans-45"/>
    </defs>
    <g transform="translate(63.228 35.472)scale(0.12 -0.12)">
     <use transform="translate(0 0.78125)" xlink:href="#DejaVuSans-53"/>
     <use transform="translate(63.476562 0.78125)" xlink:href="#DejaVuSans-74"/>
     <use transform="translate(102.685547 0.78125)" xlink:href="#DejaVuSans-72"/>
     <use transform="translate(143.798828 0.78125)" xlink:href="#DejaVuSans-75"/>
     <use transform="translate(207.177734 0.78125)" xlink:href="#DejaVuSans-63"/>
     <use transform="translate(262.158203 0.78125)" xlink:href="#DejaVuSans-74"/>
     <use transform="translate(301.367188 0.78125)" xlink:href="#DejaVuSans-75"/>
     <use transform="translate(364.746094 0.78125)" xlink:href="#DejaVuSans-72"/>
     <use transform="translate(405.859375 0.78125)" xlink:href="#DejaVuSans-65"/>
     <use transform="translate(467.382812 0.78125)" xlink:href="#DejaVuSans-20"/>
     <use transform="translate(499.169922 0.78125)" xlink:href="#DejaVuSans-23"/>
     <use transform="translate(582.958984 0.78125)" xlink:href="#DejaVuSans-34"/>
     <use transform="translate(646.582031 0.78125)" xlink:href="#DejaVuSans-30"/>
     <use transform="translate(710.205078 0.78125)" xlink:href="#DejaVuSans-33"/>
     <use transform="translate(773.828125 0.78125)" xlink:href="#DejaVuSans-38"/>
     <use transform="translate(837.451172 0.78125)" xlink:href="#DejaVuSans-2c"/>
     <use transform="translate(869.238281 0.78125)" xlink:href="#DejaVuSans-20"/>
     <use transform="translate(901.025391 0.78125)" xlink:href="#DejaVuSans-Oblique-45"/>
     <use transform="translate(964.208984 -15.625)scale(0.7)" xlink:href="#DejaVuSans-Oblique-4e"/>
     <use transform="translate(1019.306641 0.78125)" xlink:href="#DejaVuSans-3d"/>
     <use transform="translate(1103.095703 0.78125)" xlink:href="#DejaVuSans-2d"/>
     <use transform="translate(1139.179688 0.78125)" xlink:href="#DejaVuSans-31"/>
     <use transform="translate(1202.802734 0.78125)" xlink:href="#DejaVuSans-38"/>
     <use transform="translate(1266.425781 0.78125)" xlink:href="#DejaVuSans-30"/>
     <use transform="translate(1330.048828 0.78125)" xlink:href="#DejaVuSans-2e"/>
     <use transform="translate(1361.757812 0.78125)" xlink:href="#DejaVuSans-32"/>
     <use transform="translate(1425.365234 0.78125)" xlink:href="#DejaVuSans-39"/>
     <use transform="translate(1488.988281 0.78125)" xlink:href="#DejaVuSans-65"/>
     <use transform="translate(1550.511719 0.78125)" xlink:href="#DejaVuSans-56"/>
     <use transform="translate(1618.919922 0.78125)" xlink:href="#DejaVuSans-2c"/>
     <use transform="translate(1650.707031 0.78125)" xlink:href="#DejaVuSans-20"/>
     <use transform="translate(1682.494141 0.78125)" xlink:href="#DejaVuSans-394"/>
     <use transform="translate(1750.902344 0.78125)" xlink:href="#DejaVuSans-45"/>
     <use transform="translate(1814.085938 0.78125)" xlink:href="#DejaVuSans-3d"/>
     <use transform="translate(1897.875 0.78125)" xlink:href="#DejaVuSans-2d"/>
     <use transform="translate(1933.958984 0.78125)" xlink:href="#DejaVuSans-30"/>
     <use transform="translate(1997.582031 0.78125)" xlink:href="#DejaVuSans-2e"/>
     <use transform="translate(2029.369141 0.78125)" xlink:href="#DejaVuSans-33"/>
     <use transform="translate(2092.992188 0.78125)" xlink:href="#DejaVuSans-39"/>
     <use transform="translate(2156.615234 0.78125)" xlink:href="#DejaVuSans-65"/>
     <use transform="translate(2218.138672 0.78125)" xlink:href="#DejaVuSans-56"/>
    </g>
   </g>
  </g>
  <g id="axes_2">
   <g id="patch_2">
    <path clip-path="url(#p5b913d3948)" d="M 361.152 307.584 
L 361.152 306.5445 
L 361.152 42.5115 
L 361.152 41.472 
L 374.4576 41.472 
L 374.4576 42.5115 
L 374.4576 306.5445 
L 374.4576 307.584 
z
" style="fill:#ffffff;stroke:#ffffff;stroke-linejoin:miter;stroke-width:0.01;"/>
   </g>
   <image height="265.68" id="image2bab0714bf" transform="scale(1 -1)translate(0 -265.68)" width="12.96" x="361.44" xlink:href="data:image/png;base64,
iVBORw0KGgoAAAANSUhEUgAAABIAAAFxCAYAAAB+2fgXAAAABHNCSVQICAgIfAhkiAAAAeVJREFUeJztncmNw0AQA2ckheYQNv9QLIfQ8ygsCgQ7AEI8+jAs2Puz/94F1LP2ReCsZ18bAWIeZ5XaGRBE7VnbptG+KI101FYyNSiQG2oRITXKNaX9uclOdi2XWjftVE32CZCO2ou5Bj1TcCBr/1zB9ge7Fq0Rg2NM9pvbtG+ua1QgsRYhDy0ISEiNc40BEibbSI0Coj5CBGtkpFbXJiAjNZlrwhuSOv2M1DjXbEdEciBt1JSDDQKKpmZr2rr2j0DBGpXaWEJq3bQzEPIS26r9J+Wzv9Tm8o3aajRXqc3VUXsApKNWjeZq0x4ABVNbm7lrszVigDqP5vIl2+eaT2yfRkL7g+dRcNPqjohkjaCvRVBq0H2U3LQrOJCx9kdTg4B8oxZzzTdqdYHEngjUCAPyUctN9sVRq2sTECW2UKNLd2jVtRmo1A6AhMmWaSRcR8nUdIHUuVb75zJS218EyEitro1At69pIdeSk30Lkw0FktNImGyZRhy1O5galmxd03LUsHWk06jUZiCq+5Wb1kZNN4+wJxJuWt8RAW5am2sYNZ9rYCBzZ3buPKJ2P5Yj4Toy3keyIyJbIxs1rml1byCA84gpch5RQNB7Q0qNMGq2Hy4BXdNR41yz/cEEJfZzUz96r9PoB0okjeQ8y9TkAAAAAElFTkSuQmCC" y="-41.76"/>
   <g id="matplotlib.axis_1"/>
   <g id="matplotlib.axis_2">
    <g id="ytick_1">
     <g id="line2d_1">
      <defs>
       <path d="M 0 0 
L 3.5 0 
" id="me56687584c" style="stroke:#000000;stroke-width:0.8;"/>
      </defs>
      <g>
       <use style="stroke:#000000;stroke-width:0.8;" x="374.4576" xlink:href="#me56687584c" y="296.550253"/>
      </g>
     </g>
     <g id="text_2">
      <!-- −9.0 -->
      <defs>
       <path d="M 10.59375 35.5 
L 73.1875 35.5 
L 73.1875 27.203125 
L 10.59375 27.203125 
z
" id="DejaVuSans-2212"/>
      </defs>
      <g transform="translate(381.4576 300.349472)scale(0.1 -0.1)">
       <use xlink:href="#DejaVuSans-2212"/>
       <use x="83.789062" xlink:href="#DejaVuSans-39"/>
       <use x="147.412109" xlink:href="#DejaVuSans-2e"/>
       <use x="179.199219" xlink:href="#DejaVuSans-30"/>
      </g>
     </g>
    </g>
    <g id="ytick_2">
     <g id="line2d_2">
      <g>
       <use style="stroke:#000000;stroke-width:0.8;" x="374.4576" xlink:href="#me56687584c" y="263.982971"/>
      </g>
     </g>
     <g id="text_3">
      <!-- −8.5 -->
      <defs>
       <path d="M 10.796875 72.90625 
L 49.515625 72.90625 
L 49.515625 64.59375 
L 19.828125 64.59375 
L 19.828125 46.734375 
Q 21.96875 47.46875 24.109375 47.828125 
Q 26.265625 48.1875 28.421875 48.1875 
Q 40.625 48.1875 47.75 41.5 
Q 54.890625 34.8125 54.890625 23.390625 
Q 54.890625 11.625 47.5625 5.09375 
Q 40.234375 -1.421875 26.90625 -1.421875 
Q 22.3125 -1.421875 17.546875 -0.640625 
Q 12.796875 0.140625 7.71875 1.703125 
L 7.71875 11.625 
Q 12.109375 9.234375 16.796875 8.0625 
Q 21.484375 6.890625 26.703125 6.890625 
Q 35.15625 6.890625 40.078125 11.328125 
Q 45.015625 15.765625 45.015625 23.390625 
Q 45.015625 31 40.078125 35.4375 
Q 35.15625 39.890625 26.703125 39.890625 
Q 22.75 39.890625 18.8125 39.015625 
Q 14.890625 38.140625 10.796875 36.28125 
z
" id="DejaVuSans-35"/>
      </defs>
      <g transform="translate(381.4576 267.782189)scale(0.1 -0.1)">
       <use xlink:href="#DejaVuSans-2212"/>
       <use x="83.789062" xlink:href="#DejaVuSans-38"/>
       <use x="147.412109" xlink:href="#DejaVuSans-2e"/>
       <use x="179.199219" xlink:href="#DejaVuSans-35"/>
      </g>
     </g>
    </g>
    <g id="ytick_3">
     <g id="line2d_3">
      <g>
       <use style="stroke:#000000;stroke-width:0.8;" x="374.4576" xlink:href="#me56687584c" y="231.415688"/>
      </g>
     </g>
     <g id="text_4">
      <!-- −8.0 -->
      <g transform="translate(381.4576 235.214907)scale(0.1 -0.1)">
       <use xlink:href="#DejaVuSans-2212"/>
       <use x="83.789062" xlink:href="#DejaVuSans-38"/>
       <use x="147.412109" xlink:href="#DejaVuSans-2e"/>
       <use x="179.199219" xlink:href="#DejaVuSans-30"/>
      </g>
     </g>
    </g>
    <g id="ytick_4">
     <g id="line2d_4">
      <g>
       <use style="stroke:#000000;stroke-width:0.8;" x="374.4576" xlink:href="#me56687584c" y="198.848406"/>
      </g>
     </g>
     <g id="text_5">
      <!-- −7.5 -->
      <defs>
       <path d="M 8.203125 72.90625 
L 55.078125 72.90625 
L 55.078125 68.703125 
L 28.609375 0 
L 18.3125 0 
L 43.21875 64.59375 
L 8.203125 64.59375 
z
" id="DejaVuSans-37"/>
      </defs>
      <g transform="translate(381.4576 202.647625)scale(0.1 -0.1)">
       <use xlink:href="#DejaVuSans-2212"/>
       <use x="83.789062" xlink:href="#DejaVuSans-37"/>
       <use x="147.412109" xlink:href="#DejaVuSans-2e"/>
       <use x="179.199219" xlink:href="#DejaVuSans-35"/>
      </g>
     </g>
    </g>
    <g id="ytick_5">
     <g id="line2d_5">
      <g>
       <use style="stroke:#000000;stroke-width:0.8;" x="374.4576" xlink:href="#me56687584c" y="166.281124"/>
      </g>
     </g>
     <g id="text_6">
      <!-- −7.0 -->
      <g transform="translate(381.4576 170.080343)scale(0.1 -0.1)">
       <use xlink:href="#DejaVuSans-2212"/>
       <use x="83.789062" xlink:href="#DejaVuSans-37"/>
       <use x="147.412109" xlink:href="#DejaVuSans-2e"/>
       <use x="179.199219" xlink:href="#DejaVuSans-30"/>
      </g>
     </g>
    </g>
    <g id="ytick_6">
     <g id="line2d_6">
      <g>
       <use style="stroke:#000000;stroke-width:0.8;" x="374.4576" xlink:href="#me56687584c" y="133.713842"/>
      </g>
     </g>
     <g id="text_7">
      <!-- −6.5 -->
      <defs>
       <path d="M 33.015625 40.375 
Q 26.375 40.375 22.484375 35.828125 
Q 18.609375 31.296875 18.609375 23.390625 
Q 18.609375 15.53125 22.484375 10.953125 
Q 26.375 6.390625 33.015625 6.390625 
Q 39.65625 6.390625 43.53125 10.953125 
Q 47.40625 15.53125 47.40625 23.390625 
Q 47.40625 31.296875 43.53125 35.828125 
Q 39.65625 40.375 33.015625 40.375 
z
M 52.59375 71.296875 
L 52.59375 62.3125 
Q 48.875 64.0625 45.09375 64.984375 
Q 41.3125 65.921875 37.59375 65.921875 
Q 27.828125 65.921875 22.671875 59.328125 
Q 17.53125 52.734375 16.796875 39.40625 
Q 19.671875 43.65625 24.015625 45.921875 
Q 28.375 48.1875 33.59375 48.1875 
Q 44.578125 48.1875 50.953125 41.515625 
Q 57.328125 34.859375 57.328125 23.390625 
Q 57.328125 12.15625 50.6875 5.359375 
Q 44.046875 -1.421875 33.015625 -1.421875 
Q 20.359375 -1.421875 13.671875 8.265625 
Q 6.984375 17.96875 6.984375 36.375 
Q 6.984375 53.65625 15.1875 63.9375 
Q 23.390625 74.21875 37.203125 74.21875 
Q 40.921875 74.21875 44.703125 73.484375 
Q 48.484375 72.75 52.59375 71.296875 
z
" id="DejaVuSans-36"/>
      </defs>
      <g transform="translate(381.4576 137.51306)scale(0.1 -0.1)">
       <use xlink:href="#DejaVuSans-2212"/>
       <use x="83.789062" xlink:href="#DejaVuSans-36"/>
       <use x="147.412109" xlink:href="#DejaVuSans-2e"/>
       <use x="179.199219" xlink:href="#DejaVuSans-35"/>
      </g>
     </g>
    </g>
    <g id="ytick_7">
     <g id="line2d_7">
      <g>
       <use style="stroke:#000000;stroke-width:0.8;" x="374.4576" xlink:href="#me56687584c" y="101.146559"/>
      </g>
     </g>
     <g id="text_8">
      <!-- −6.0 -->
      <g transform="translate(381.4576 104.945778)scale(0.1 -0.1)">
       <use xlink:href="#DejaVuSans-2212"/>
       <use x="83.789062" xlink:href="#DejaVuSans-36"/>
       <use x="147.412109" xlink:href="#DejaVuSans-2e"/>
       <use x="179.199219" xlink:href="#DejaVuSans-30"/>
      </g>
     </g>
    </g>
    <g id="ytick_8">
     <g id="line2d_8">
      <g>
       <use style="stroke:#000000;stroke-width:0.8;" x="374.4576" xlink:href="#me56687584c" y="68.579277"/>
      </g>
     </g>
     <g id="text_9">
      <!-- −5.5 -->
      <g transform="translate(381.4576 72.378496)scale(0.1 -0.1)">
       <use xlink:href="#DejaVuSans-2212"/>
       <use x="83.789062" xlink:href="#DejaVuSans-35"/>
       <use x="147.412109" xlink:href="#DejaVuSans-2e"/>
       <use x="179.199219" xlink:href="#DejaVuSans-35"/>
      </g>
     </g>
    </g>
    <g id="text_10">
     <!-- Energy [eV] -->
     <defs>
      <path d="M 54.890625 33.015625 
L 54.890625 0 
L 45.90625 0 
L 45.90625 32.71875 
Q 45.90625 40.484375 42.875 44.328125 
Q 39.84375 48.1875 33.796875 48.1875 
Q 26.515625 48.1875 22.3125 43.546875 
Q 18.109375 38.921875 18.109375 30.90625 
L 18.109375 0 
L 9.078125 0 
L 9.078125 54.6875 
L 18.109375 54.6875 
L 18.109375 46.1875 
Q 21.34375 51.125 25.703125 53.5625 
Q 30.078125 56 35.796875 56 
Q 45.21875 56 50.046875 50.171875 
Q 54.890625 44.34375 54.890625 33.015625 
z
" id="DejaVuSans-6e"/>
      <path d="M 45.40625 27.984375 
Q 45.40625 37.75 41.375 43.109375 
Q 37.359375 48.484375 30.078125 48.484375 
Q 22.859375 48.484375 18.828125 43.109375 
Q 14.796875 37.75 14.796875 27.984375 
Q 14.796875 18.265625 18.828125 12.890625 
Q 22.859375 7.515625 30.078125 7.515625 
Q 37.359375 7.515625 41.375 12.890625 
Q 45.40625 18.265625 45.40625 27.984375 
z
M 54.390625 6.78125 
Q 54.390625 -7.171875 48.1875 -13.984375 
Q 42 -20.796875 29.203125 -20.796875 
Q 24.46875 -20.796875 20.265625 -20.09375 
Q 16.0625 -19.390625 12.109375 -17.921875 
L 12.109375 -9.1875 
Q 16.0625 -11.328125 19.921875 -12.34375 
Q 23.78125 -13.375 27.78125 -13.375 
Q 36.625 -13.375 41.015625 -8.765625 
Q 45.40625 -4.15625 45.40625 5.171875 
L 45.40625 9.625 
Q 42.625 4.78125 38.28125 2.390625 
Q 33.9375 0 27.875 0 
Q 17.828125 0 11.671875 7.65625 
Q 5.515625 15.328125 5.515625 27.984375 
Q 5.515625 40.671875 11.671875 48.328125 
Q 17.828125 56 27.875 56 
Q 33.9375 56 38.28125 53.609375 
Q 42.625 51.21875 45.40625 46.390625 
L 45.40625 54.6875 
L 54.390625 54.6875 
z
" id="DejaVuSans-67"/>
      <path d="M 32.171875 -5.078125 
Q 28.375 -14.84375 24.75 -17.8125 
Q 21.140625 -20.796875 15.09375 -20.796875 
L 7.90625 -20.796875 
L 7.90625 -13.28125 
L 13.1875 -13.28125 
Q 16.890625 -13.28125 18.9375 -11.515625 
Q 21 -9.765625 23.484375 -3.21875 
L 25.09375 0.875 
L 2.984375 54.6875 
L 12.5 54.6875 
L 29.59375 11.921875 
L 46.6875 54.6875 
L 56.203125 54.6875 
z
" id="DejaVuSans-79"/>
      <path d="M 8.59375 75.984375 
L 29.296875 75.984375 
L 29.296875 69 
L 17.578125 69 
L 17.578125 -6.203125 
L 29.296875 -6.203125 
L 29.296875 -13.1875 
L 8.59375 -13.1875 
z
" id="DejaVuSans-5b"/>
      <path d="M 30.421875 75.984375 
L 30.421875 -13.1875 
L 9.71875 -13.1875 
L 9.71875 -6.203125 
L 21.390625 -6.203125 
L 21.390625 69 
L 9.71875 69 
L 9.71875 75.984375 
z
" id="DejaVuSans-5d"/>
     </defs>
     <g transform="translate(417.33885 204.108469)rotate(-90)scale(0.1 -0.1)">
      <use xlink:href="#DejaVuSans-45"/>
      <use x="63.183594" xlink:href="#DejaVuSans-6e"/>
      <use x="126.5625" xlink:href="#DejaVuSans-65"/>
      <use x="188.085938" xlink:href="#DejaVuSans-72"/>
      <use x="229.183594" xlink:href="#DejaVuSans-67"/>
      <use x="292.660156" xlink:href="#DejaVuSans-79"/>
      <use x="351.839844" xlink:href="#DejaVuSans-20"/>
      <use x="383.626953" xlink:href="#DejaVuSans-5b"/>
      <use x="422.640625" xlink:href="#DejaVuSans-65"/>
      <use x="484.164062" xlink:href="#DejaVuSans-56"/>
      <use x="552.572266" xlink:href="#DejaVuSans-5d"/>
     </g>
    </g>
   </g>
   <g id="patch_3">
    <path d="M 361.152 307.584 
L 361.152 306.5445 
L 361.152 42.5115 
L 361.152 41.472 
L 374.4576 41.472 
L 374.4576 42.5115 
L 374.4576 306.5445 
L 374.4576 307.584 
z
" style="fill:none;stroke:#000000;stroke-linejoin:miter;stroke-width:0.8;"/>
   </g>
  </g>
 </g>
 <defs>
  <clipPath id="p1a1442ba46">
   <rect height="266.112" width="285.696" x="57.6" y="41.472"/>
  </clipPath>
  <clipPath id="p5b913d3948">
   <rect height="266.112" width="13.3056" x="361.152" y="41.472"/>
  </clipPath>
 </defs>
</svg>
