<?xml version="1.0" encoding="utf-8" standalone="no"?>
<!DOCTYPE svg PUBLIC "-//W3C//DTD SVG 1.1//EN"
  "http://www.w3.org/Graphics/SVG/1.1/DTD/svg11.dtd">
<!-- Created with matplotlib (http://matplotlib.org/) -->
<svg height="345.6pt" version="1.1" viewBox="0 0 460.8 345.6" width="460.8pt" xmlns="http://www.w3.org/2000/svg" xmlns:xlink="http://www.w3.org/1999/xlink">
 <defs>
  <style type="text/css">
*{stroke-linecap:butt;stroke-linejoin:round;}
  </style>
 </defs>
 <g id="figure_1">
  <g id="patch_1">
   <path d="M 0 345.6 
L 460.8 345.6 
L 460.8 0 
L 0 0 
z
" style="fill:#ffffff;"/>
  </g>
  <g id="axes_1">
   <g id="CircleCollection_1">
    <path clip-path="url(#p7885151ca7)" d="M 195.13492 280.760782 
C 196.632329 280.760782 198.068609 280.165855 199.127437 279.107027 
C 200.186265 278.048199 200.781192 276.611919 200.781192 275.11451 
C 200.781192 273.617101 200.186265 272.18082 199.127437 271.121993 
C 198.068609 270.063165 196.632329 269.468238 195.13492 269.468238 
C 193.637511 269.468238 192.201231 270.063165 191.142403 271.121993 
C 190.083575 272.18082 189.488648 273.617101 189.488648 275.11451 
C 189.488648 276.611919 190.083575 278.048199 191.142403 279.107027 
C 192.201231 280.165855 193.637511 280.760782 195.13492 280.760782 
z
" style="fill:#463480;"/>
    <path clip-path="url(#p7885151ca7)" d="M 318.495416 83.413369 
C 320.201382 83.413369 321.837705 82.735582 323.044004 81.529283 
C 324.250304 80.322983 324.928091 78.68666 324.928091 76.980694 
C 324.928091 75.274729 324.250304 73.638406 323.044004 72.432106 
C 321.837705 71.225806 320.201382 70.548019 318.495416 70.548019 
C 316.789451 70.548019 315.153128 71.225806 313.946828 72.432106 
C 312.740528 73.638406 312.062741 75.274729 312.062741 76.980694 
C 312.062741 78.68666 312.740528 80.322983 313.946828 81.529283 
C 315.153128 82.735582 316.789451 83.413369 318.495416 83.413369 
z
" style="fill:#424086;"/>
    <path clip-path="url(#p7885151ca7)" d="M 151.5268 191.244965 
C 153.580459 191.244965 155.550281 190.429038 157.002436 188.976883 
C 158.454592 187.524727 159.270519 185.554905 159.270519 183.501247 
C 159.270519 181.447589 158.454592 179.477767 157.002436 178.025611 
C 155.550281 176.573455 153.580459 175.757528 151.5268 175.757528 
C 149.473142 175.757528 147.50332 176.573455 146.051165 178.025611 
C 144.599009 179.477767 143.783082 181.447589 143.783082 183.501247 
C 143.783082 185.554905 144.599009 187.524727 146.051165 188.976883 
C 147.50332 190.429038 149.473142 191.244965 151.5268 191.244965 
z
" style="fill:#3e4c8a;"/>
    <path clip-path="url(#p7885151ca7)" d="M 158.137098 238.45188 
C 159.943279 238.45188 161.675726 237.734277 162.952889 236.457114 
C 164.230052 235.179952 164.947655 233.447504 164.947655 231.641324 
C 164.947655 229.835143 164.230052 228.102695 162.952889 226.825533 
C 161.675726 225.54837 159.943279 224.830767 158.137098 224.830767 
C 156.330917 224.830767 154.59847 225.54837 153.321307 226.825533 
C 152.044145 228.102695 151.326541 229.835143 151.326541 231.641324 
C 151.326541 233.447504 152.044145 235.179952 153.321307 236.457114 
C 154.59847 237.734277 156.330917 238.45188 158.137098 238.45188 
z
" style="fill:#3f4889;"/>
    <path clip-path="url(#p7885151ca7)" d="M 149.634766 178.5021 
C 151.750767 178.5021 153.780387 177.661404 155.276626 176.165165 
C 156.772865 174.668927 157.613561 172.639306 157.613561 170.523305 
C 157.613561 168.407304 156.772865 166.377684 155.276626 164.881445 
C 153.780387 163.385206 151.750767 162.54451 149.634766 162.54451 
C 147.518765 162.54451 145.489144 163.385206 143.992906 164.881445 
C 142.496667 166.377684 141.655971 168.407304 141.655971 170.523305 
C 141.655971 172.639306 142.496667 174.668927 143.992906 176.165165 
C 145.489144 177.661404 147.518765 178.5021 149.634766 178.5021 
z
" style="fill:#dde318;"/>
    <path clip-path="url(#p7885151ca7)" d="M 296.172406 128.635406 
C 297.964343 128.635406 299.683128 127.923462 300.950218 126.656372 
C 302.217309 125.389281 302.929253 123.670496 302.929253 121.878559 
C 302.929253 120.086622 302.217309 118.367838 300.950218 117.100747 
C 299.683128 115.833656 297.964343 115.121712 296.172406 115.121712 
C 294.380469 115.121712 292.661684 115.833656 291.394594 117.100747 
C 290.127503 118.367838 289.415559 120.086622 289.415559 121.878559 
C 289.415559 123.670496 290.127503 125.389281 291.394594 126.656372 
C 292.661684 127.923462 294.380469 128.635406 296.172406 128.635406 
z
" style="fill:#472c7a;"/>
    <path clip-path="url(#p7885151ca7)" d="M 70.988523 254.80258 
C 72.975702 254.80258 74.881758 254.013065 76.286906 252.607918 
C 77.692054 251.20277 78.481568 249.296713 78.481568 247.309535 
C 78.481568 245.322356 77.692054 243.416299 76.286906 242.011151 
C 74.881758 240.606004 72.975702 239.816489 70.988523 239.816489 
C 69.001344 239.816489 67.095287 240.606004 65.69014 242.011151 
C 64.284992 243.416299 63.495478 245.322356 63.495478 247.309535 
C 63.495478 249.296713 64.284992 251.20277 65.69014 252.607918 
C 67.095287 254.013065 69.001344 254.80258 70.988523 254.80258 
z
" style="fill:#dde318;"/>
    <path clip-path="url(#p7885151ca7)" d="M 172.60778 259.87937 
C 174.264147 259.87937 175.852898 259.221288 177.024126 258.050059 
C 178.195355 256.87883 178.853437 255.29008 178.853437 253.633712 
C 178.853437 251.977345 178.195355 250.388594 177.024126 249.217365 
C 175.852898 248.046137 174.264147 247.388055 172.60778 247.388055 
C 170.951412 247.388055 169.362662 248.046137 168.191433 249.217365 
C 167.020204 250.388594 166.362122 251.977345 166.362122 253.633712 
C 166.362122 255.29008 167.020204 256.87883 168.191433 258.050059 
C 169.362662 259.221288 170.951412 259.87937 172.60778 259.87937 
z
" style="fill:#463480;"/>
    <path clip-path="url(#p7885151ca7)" d="M 284.665937 199.860672 
C 286.589426 199.860672 288.434393 199.096462 289.794505 197.73635 
C 291.154618 196.376237 291.918828 194.53127 291.918828 192.607781 
C 291.918828 190.684292 291.154618 188.839324 289.794505 187.479212 
C 288.434393 186.1191 286.589426 185.354889 284.665937 185.354889 
C 282.742447 185.354889 280.89748 186.1191 279.537368 187.479212 
C 278.177255 188.839324 277.413045 190.684292 277.413045 192.607781 
C 277.413045 194.53127 278.177255 196.376237 279.537368 197.73635 
C 280.89748 199.096462 282.742447 199.860672 284.665937 199.860672 
z
" style="fill:#1fa188;"/>
    <path clip-path="url(#p7885151ca7)" d="M 223.498747 300.176106 
C 224.819425 300.176106 226.086188 299.651396 227.020048 298.717536 
C 227.953908 297.783676 228.478619 296.516912 228.478619 295.196235 
C 228.478619 293.875557 227.953908 292.608793 227.020048 291.674933 
C 226.086188 290.741073 224.819425 290.216363 223.498747 290.216363 
C 222.17807 290.216363 220.911306 290.741073 219.977446 291.674933 
C 219.043586 292.608793 218.518875 293.875557 218.518875 295.196235 
C 218.518875 296.516912 219.043586 297.783676 219.977446 298.717536 
C 220.911306 299.651396 222.17807 300.176106 223.498747 300.176106 
z
" style="fill:#fde725;"/>
    <path clip-path="url(#p7885151ca7)" d="M 164.055121 249.042057 
C 165.788158 249.042057 167.450447 248.353514 168.67589 247.128072 
C 169.901332 245.90263 170.589874 244.240341 170.589874 242.507304 
C 170.589874 240.774267 169.901332 239.111978 168.67589 237.886536 
C 167.450447 236.661094 165.788158 235.972551 164.055121 235.972551 
C 162.322085 235.972551 160.659795 236.661094 159.434353 237.886536 
C 158.208911 239.111978 157.520368 240.774267 157.520368 242.507304 
C 157.520368 244.240341 158.208911 245.90263 159.434353 247.128072 
C 160.659795 248.353514 162.322085 249.042057 164.055121 249.042057 
z
" style="fill:#472a7a;"/>
    <path clip-path="url(#p7885151ca7)" d="M 182.721724 270.710251 
C 184.300327 270.710251 185.814486 270.083066 186.930727 268.966825 
C 188.046967 267.850585 188.674153 266.336425 188.674153 264.757823 
C 188.674153 263.179221 188.046967 261.665061 186.930727 260.548821 
C 185.814486 259.43258 184.300327 258.805395 182.721724 258.805395 
C 181.143122 258.805395 179.628962 259.43258 178.512722 260.548821 
C 177.396482 261.665061 176.769296 263.179221 176.769296 264.757823 
C 176.769296 266.336425 177.396482 267.850585 178.512722 268.966825 
C 179.628962 270.083066 181.143122 270.710251 182.721724 270.710251 
z
" style="fill:#472e7c;"/>
    <path clip-path="url(#p7885151ca7)" d="M 99.000605 240.54041 
C 100.964523 240.54041 102.848268 239.760137 104.236968 238.371437 
C 105.625668 236.982738 106.40594 235.098992 106.40594 233.135075 
C 106.40594 231.171157 105.625668 229.287412 104.236968 227.898712 
C 102.848268 226.510012 100.964523 225.72974 99.000605 225.72974 
C 97.036687 225.72974 95.152942 226.510012 93.764243 227.898712 
C 92.375543 229.287412 91.59527 231.171157 91.59527 233.135075 
C 91.59527 235.098992 92.375543 236.982738 93.764243 238.371437 
C 95.152942 239.760137 97.036687 240.54041 99.000605 240.54041 
z
" style="fill:#3d4d8a;"/>
    <path clip-path="url(#p7885151ca7)" d="M 247.566608 194.125715 
C 249.47703 194.125715 251.309463 193.366696 252.660336 192.015824 
C 254.011208 190.664951 254.770227 188.832518 254.770227 186.922096 
C 254.770227 185.011673 254.011208 183.17924 252.660336 181.828367 
C 251.309463 180.477495 249.47703 179.718476 247.566608 179.718476 
C 245.656185 179.718476 243.823752 180.477495 242.472879 181.828367 
C 241.122007 183.17924 240.362988 185.011673 240.362988 186.922096 
C 240.362988 188.832518 241.122007 190.664951 242.472879 192.015824 
C 243.823752 193.366696 245.656185 194.125715 247.566608 194.125715 
z
" style="fill:#3c4f8a;"/>
    <path clip-path="url(#p7885151ca7)" d="M 279.727008 174.696658 
C 281.605207 174.696658 283.406733 173.950441 284.73482 172.622354 
C 286.062907 171.294267 286.809124 169.492741 286.809124 167.614542 
C 286.809124 165.736343 286.062907 163.934818 284.73482 162.60673 
C 283.406733 161.278643 281.605207 160.532427 279.727008 160.532427 
C 277.848809 160.532427 276.047283 161.278643 274.719196 162.60673 
C 273.391109 163.934818 272.644893 165.736343 272.644893 167.614542 
C 272.644893 169.492741 273.391109 171.294267 274.719196 172.622354 
C 276.047283 173.950441 277.848809 174.696658 279.727008 174.696658 
z
" style="fill:#3c508b;"/>
    <path clip-path="url(#p7885151ca7)" d="M 208.195791 290.231987 
C 209.606291 290.231987 210.959211 289.67159 211.956586 288.674215 
C 212.953961 287.67684 213.514358 286.32392 213.514358 284.91342 
C 213.514358 283.502919 212.953961 282.149999 211.956586 281.152625 
C 210.959211 280.15525 209.606291 279.594852 208.195791 279.594852 
C 206.78529 279.594852 205.43237 280.15525 204.434996 281.152625 
C 203.437621 282.149999 202.877223 283.502919 202.877223 284.91342 
C 202.877223 286.32392 203.437621 287.67684 204.434996 288.674215 
C 205.43237 289.67159 206.78529 290.231987 208.195791 290.231987 
z
" style="fill:#424186;"/>
    <path clip-path="url(#p7885151ca7)" d="M 306.646336 105.924773 
C 308.395858 105.924773 310.07396 105.229681 311.311058 103.992582 
C 312.548157 102.755483 313.243249 101.077382 313.243249 99.32786 
C 313.243249 97.578338 312.548157 95.900237 311.311058 94.663138 
C 310.07396 93.426039 308.395858 92.730947 306.646336 92.730947 
C 304.896814 92.730947 303.218713 93.426039 301.981614 94.663138 
C 300.744515 95.900237 300.049423 97.578338 300.049423 99.32786 
C 300.049423 101.077382 300.744515 102.755483 301.981614 103.992582 
C 303.218713 105.229681 304.896814 105.924773 306.646336 105.924773 
z
" style="fill:#463480;"/>
    <path clip-path="url(#p7885151ca7)" d="M 329.973296 60.202461 
C 331.635395 60.202461 333.229642 59.542102 334.404923 58.366821 
C 335.580205 57.191539 336.240564 55.597292 336.240564 53.935193 
C 336.240564 52.273094 335.580205 50.678846 334.404923 49.503565 
C 333.229642 48.328283 331.635395 47.667924 329.973296 47.667924 
C 328.311197 47.667924 326.716949 48.328283 325.541668 49.503565 
C 324.366386 50.678846 323.706027 52.273094 323.706027 53.935193 
C 323.706027 55.597292 324.366386 57.191539 325.541668 58.366821 
C 326.716949 59.542102 328.311197 60.202461 329.973296 60.202461 
z
" style="fill:#fde725;"/>
    <path clip-path="url(#p7885151ca7)" d="M 179.41064 206.328553 
C 181.334869 206.328553 183.180546 205.564048 184.541181 204.203413 
C 185.901817 202.842777 186.666321 200.9971 186.666321 199.072871 
C 186.666321 197.148642 185.901817 195.302965 184.541181 193.94233 
C 183.180546 192.581694 181.334869 191.81719 179.41064 191.81719 
C 177.486411 191.81719 175.640734 192.581694 174.280098 193.94233 
C 172.919463 195.302965 172.154959 197.148642 172.154959 199.072871 
C 172.154959 200.9971 172.919463 202.842777 174.280098 204.203413 
C 175.640734 205.564048 177.486411 206.328553 179.41064 206.328553 
z
" style="fill:#450457;"/>
    <path clip-path="url(#p7885151ca7)" d="M 213.203504 197.388217 
C 215.118192 197.388217 216.954718 196.627503 218.308608 195.273613 
C 219.662497 193.919724 220.423211 192.083198 220.423211 190.168509 
C 220.423211 188.25382 219.662497 186.417294 218.308608 185.063405 
C 216.954718 183.709515 215.118192 182.948801 213.203504 182.948801 
C 211.288815 182.948801 209.452289 183.709515 208.098399 185.063405 
C 206.74451 186.417294 205.983796 188.25382 205.983796 190.168509 
C 205.983796 192.083198 206.74451 193.919724 208.098399 195.273613 
C 209.452289 196.627503 211.288815 197.388217 213.203504 197.388217 
z
" style="fill:#3f4889;"/>
    <path clip-path="url(#p7885151ca7)" d="M 129.332481 226.011832 
C 131.278347 226.011832 133.144778 225.238731 134.520713 223.862796 
C 135.896648 222.486861 136.669749 220.62043 136.669749 218.674564 
C 136.669749 216.728698 135.896648 214.862267 134.520713 213.486332 
C 133.144778 212.110397 131.278347 211.337296 129.332481 211.337296 
C 127.386615 211.337296 125.520184 212.110397 124.144249 213.486332 
C 122.768314 214.862267 121.995213 216.728698 121.995213 218.674564 
C 121.995213 220.62043 122.768314 222.486861 124.144249 223.862796 
C 125.520184 225.238731 127.386615 226.011832 129.332481 226.011832 
z
" style="fill:#46075a;"/>
    <path clip-path="url(#p7885151ca7)" d="M 155.024143 225.888072 
C 156.903866 225.888072 158.706852 225.141251 160.036017 223.812086 
C 161.365181 222.482922 162.112003 220.679935 162.112003 218.800213 
C 162.112003 216.92049 161.365181 215.117504 160.036017 213.788339 
C 158.706852 212.459175 156.903866 211.712353 155.024143 211.712353 
C 153.144421 211.712353 151.341434 212.459175 150.01227 213.788339 
C 148.683105 215.117504 147.936284 216.92049 147.936284 218.800213 
C 147.936284 220.679935 148.683105 222.482922 150.01227 223.812086 
C 151.341434 225.141251 153.144421 225.888072 155.024143 225.888072 
z
" style="fill:#440154;"/>
    <path clip-path="url(#p7885151ca7)" d="M 287.160011 151.252541 
C 288.994484 151.252541 290.754068 150.523697 292.051236 149.226529 
C 293.348405 147.929361 294.077248 146.169777 294.077248 144.335304 
C 294.077248 142.500831 293.348405 140.741247 292.051236 139.444079 
C 290.754068 138.146911 288.994484 137.418067 287.160011 137.418067 
C 285.325539 137.418067 283.565954 138.146911 282.268786 139.444079 
C 280.971618 140.741247 280.242774 142.500831 280.242774 144.335304 
C 280.242774 146.169777 280.971618 147.929361 282.268786 149.226529 
C 283.565954 150.523697 285.325539 151.252541 287.160011 151.252541 
z
" style="fill:#463480;"/>
    <path clip-path="url(#p7885151ca7)" d="M 152.795769 204.915599 
C 154.783449 204.915599 156.689987 204.125886 158.095489 202.720383 
C 159.500992 201.314881 160.290705 199.408343 160.290705 197.420663 
C 160.290705 195.432983 159.500992 193.526445 158.095489 192.120943 
C 156.689987 190.715441 154.783449 189.925727 152.795769 189.925727 
C 150.808089 189.925727 148.901551 190.715441 147.496049 192.120943 
C 146.090546 193.526445 145.300833 195.432983 145.300833 197.420663 
C 145.300833 199.408343 146.090546 201.314881 147.496049 202.720383 
C 148.901551 204.125886 150.808089 204.915599 152.795769 204.915599 
z
" style="fill:#460b5e;"/>
   </g>
   <g id="text_1">
    <!-- Structure #5596, $E_N$=-174.59eV, ΔE=0.18eV -->
    <defs>
     <path d="M 53.515625 70.515625 
L 53.515625 60.890625 
Q 47.90625 63.578125 42.921875 64.890625 
Q 37.9375 66.21875 33.296875 66.21875 
Q 25.25 66.21875 20.875 63.09375 
Q 16.5 59.96875 16.5 54.203125 
Q 16.5 49.359375 19.40625 46.890625 
Q 22.3125 44.4375 30.421875 42.921875 
L 36.375 41.703125 
Q 47.40625 39.59375 52.65625 34.296875 
Q 57.90625 29 57.90625 20.125 
Q 57.90625 9.515625 50.796875 4.046875 
Q 43.703125 -1.421875 29.984375 -1.421875 
Q 24.8125 -1.421875 18.96875 -0.25 
Q 13.140625 0.921875 6.890625 3.21875 
L 6.890625 13.375 
Q 12.890625 10.015625 18.65625 8.296875 
Q 24.421875 6.59375 29.984375 6.59375 
Q 38.421875 6.59375 43.015625 9.90625 
Q 47.609375 13.234375 47.609375 19.390625 
Q 47.609375 24.75 44.3125 27.78125 
Q 41.015625 30.8125 33.5 32.328125 
L 27.484375 33.5 
Q 16.453125 35.6875 11.515625 40.375 
Q 6.59375 45.0625 6.59375 53.421875 
Q 6.59375 63.09375 13.40625 68.65625 
Q 20.21875 74.21875 32.171875 74.21875 
Q 37.3125 74.21875 42.625 73.28125 
Q 47.953125 72.359375 53.515625 70.515625 
z
" id="DejaVuSans-53"/>
     <path d="M 18.3125 70.21875 
L 18.3125 54.6875 
L 36.8125 54.6875 
L 36.8125 47.703125 
L 18.3125 47.703125 
L 18.3125 18.015625 
Q 18.3125 11.328125 20.140625 9.421875 
Q 21.96875 7.515625 27.59375 7.515625 
L 36.8125 7.515625 
L 36.8125 0 
L 27.59375 0 
Q 17.1875 0 13.234375 3.875 
Q 9.28125 7.765625 9.28125 18.015625 
L 9.28125 47.703125 
L 2.6875 47.703125 
L 2.6875 54.6875 
L 9.28125 54.6875 
L 9.28125 70.21875 
z
" id="DejaVuSans-74"/>
     <path d="M 41.109375 46.296875 
Q 39.59375 47.171875 37.8125 47.578125 
Q 36.03125 48 33.890625 48 
Q 26.265625 48 22.1875 43.046875 
Q 18.109375 38.09375 18.109375 28.8125 
L 18.109375 0 
L 9.078125 0 
L 9.078125 54.6875 
L 18.109375 54.6875 
L 18.109375 46.1875 
Q 20.953125 51.171875 25.484375 53.578125 
Q 30.03125 56 36.53125 56 
Q 37.453125 56 38.578125 55.875 
Q 39.703125 55.765625 41.0625 55.515625 
z
" id="DejaVuSans-72"/>
     <path d="M 8.5 21.578125 
L 8.5 54.6875 
L 17.484375 54.6875 
L 17.484375 21.921875 
Q 17.484375 14.15625 20.5 10.265625 
Q 23.53125 6.390625 29.59375 6.390625 
Q 36.859375 6.390625 41.078125 11.03125 
Q 45.3125 15.671875 45.3125 23.6875 
L 45.3125 54.6875 
L 54.296875 54.6875 
L 54.296875 0 
L 45.3125 0 
L 45.3125 8.40625 
Q 42.046875 3.421875 37.71875 1 
Q 33.40625 -1.421875 27.6875 -1.421875 
Q 18.265625 -1.421875 13.375 4.4375 
Q 8.5 10.296875 8.5 21.578125 
z
M 31.109375 56 
z
" id="DejaVuSans-75"/>
     <path d="M 48.78125 52.59375 
L 48.78125 44.1875 
Q 44.96875 46.296875 41.140625 47.34375 
Q 37.3125 48.390625 33.40625 48.390625 
Q 24.65625 48.390625 19.8125 42.84375 
Q 14.984375 37.3125 14.984375 27.296875 
Q 14.984375 17.28125 19.8125 11.734375 
Q 24.65625 6.203125 33.40625 6.203125 
Q 37.3125 6.203125 41.140625 7.25 
Q 44.96875 8.296875 48.78125 10.40625 
L 48.78125 2.09375 
Q 45.015625 0.34375 40.984375 -0.53125 
Q 36.96875 -1.421875 32.421875 -1.421875 
Q 20.0625 -1.421875 12.78125 6.34375 
Q 5.515625 14.109375 5.515625 27.296875 
Q 5.515625 40.671875 12.859375 48.328125 
Q 20.21875 56 33.015625 56 
Q 37.15625 56 41.109375 55.140625 
Q 45.0625 54.296875 48.78125 52.59375 
z
" id="DejaVuSans-63"/>
     <path d="M 56.203125 29.59375 
L 56.203125 25.203125 
L 14.890625 25.203125 
Q 15.484375 15.921875 20.484375 11.0625 
Q 25.484375 6.203125 34.421875 6.203125 
Q 39.59375 6.203125 44.453125 7.46875 
Q 49.3125 8.734375 54.109375 11.28125 
L 54.109375 2.78125 
Q 49.265625 0.734375 44.1875 -0.34375 
Q 39.109375 -1.421875 33.890625 -1.421875 
Q 20.796875 -1.421875 13.15625 6.1875 
Q 5.515625 13.8125 5.515625 26.8125 
Q 5.515625 40.234375 12.765625 48.109375 
Q 20.015625 56 32.328125 56 
Q 43.359375 56 49.78125 48.890625 
Q 56.203125 41.796875 56.203125 29.59375 
z
M 47.21875 32.234375 
Q 47.125 39.59375 43.09375 43.984375 
Q 39.0625 48.390625 32.421875 48.390625 
Q 24.90625 48.390625 20.390625 44.140625 
Q 15.875 39.890625 15.1875 32.171875 
z
" id="DejaVuSans-65"/>
     <path id="DejaVuSans-20"/>
     <path d="M 51.125 44 
L 36.921875 44 
L 32.8125 27.6875 
L 47.125 27.6875 
z
M 43.796875 71.78125 
L 38.71875 51.515625 
L 52.984375 51.515625 
L 58.109375 71.78125 
L 65.921875 71.78125 
L 60.890625 51.515625 
L 76.125 51.515625 
L 76.125 44 
L 58.984375 44 
L 54.984375 27.6875 
L 70.515625 27.6875 
L 70.515625 20.21875 
L 53.078125 20.21875 
L 48 0 
L 40.1875 0 
L 45.21875 20.21875 
L 30.90625 20.21875 
L 25.875 0 
L 18.015625 0 
L 23.09375 20.21875 
L 7.71875 20.21875 
L 7.71875 27.6875 
L 24.90625 27.6875 
L 29 44 
L 13.28125 44 
L 13.28125 51.515625 
L 30.90625 51.515625 
L 35.890625 71.78125 
z
" id="DejaVuSans-23"/>
     <path d="M 10.796875 72.90625 
L 49.515625 72.90625 
L 49.515625 64.59375 
L 19.828125 64.59375 
L 19.828125 46.734375 
Q 21.96875 47.46875 24.109375 47.828125 
Q 26.265625 48.1875 28.421875 48.1875 
Q 40.625 48.1875 47.75 41.5 
Q 54.890625 34.8125 54.890625 23.390625 
Q 54.890625 11.625 47.5625 5.09375 
Q 40.234375 -1.421875 26.90625 -1.421875 
Q 22.3125 -1.421875 17.546875 -0.640625 
Q 12.796875 0.140625 7.71875 1.703125 
L 7.71875 11.625 
Q 12.109375 9.234375 16.796875 8.0625 
Q 21.484375 6.890625 26.703125 6.890625 
Q 35.15625 6.890625 40.078125 11.328125 
Q 45.015625 15.765625 45.015625 23.390625 
Q 45.015625 31 40.078125 35.4375 
Q 35.15625 39.890625 26.703125 39.890625 
Q 22.75 39.890625 18.8125 39.015625 
Q 14.890625 38.140625 10.796875 36.28125 
z
" id="DejaVuSans-35"/>
     <path d="M 10.984375 1.515625 
L 10.984375 10.5 
Q 14.703125 8.734375 18.5 7.8125 
Q 22.3125 6.890625 25.984375 6.890625 
Q 35.75 6.890625 40.890625 13.453125 
Q 46.046875 20.015625 46.78125 33.40625 
Q 43.953125 29.203125 39.59375 26.953125 
Q 35.25 24.703125 29.984375 24.703125 
Q 19.046875 24.703125 12.671875 31.3125 
Q 6.296875 37.9375 6.296875 49.421875 
Q 6.296875 60.640625 12.9375 67.421875 
Q 19.578125 74.21875 30.609375 74.21875 
Q 43.265625 74.21875 49.921875 64.515625 
Q 56.59375 54.828125 56.59375 36.375 
Q 56.59375 19.140625 48.40625 8.859375 
Q 40.234375 -1.421875 26.421875 -1.421875 
Q 22.703125 -1.421875 18.890625 -0.6875 
Q 15.09375 0.046875 10.984375 1.515625 
z
M 30.609375 32.421875 
Q 37.25 32.421875 41.125 36.953125 
Q 45.015625 41.5 45.015625 49.421875 
Q 45.015625 57.28125 41.125 61.84375 
Q 37.25 66.40625 30.609375 66.40625 
Q 23.96875 66.40625 20.09375 61.84375 
Q 16.21875 57.28125 16.21875 49.421875 
Q 16.21875 41.5 20.09375 36.953125 
Q 23.96875 32.421875 30.609375 32.421875 
z
" id="DejaVuSans-39"/>
     <path d="M 33.015625 40.375 
Q 26.375 40.375 22.484375 35.828125 
Q 18.609375 31.296875 18.609375 23.390625 
Q 18.609375 15.53125 22.484375 10.953125 
Q 26.375 6.390625 33.015625 6.390625 
Q 39.65625 6.390625 43.53125 10.953125 
Q 47.40625 15.53125 47.40625 23.390625 
Q 47.40625 31.296875 43.53125 35.828125 
Q 39.65625 40.375 33.015625 40.375 
z
M 52.59375 71.296875 
L 52.59375 62.3125 
Q 48.875 64.0625 45.09375 64.984375 
Q 41.3125 65.921875 37.59375 65.921875 
Q 27.828125 65.921875 22.671875 59.328125 
Q 17.53125 52.734375 16.796875 39.40625 
Q 19.671875 43.65625 24.015625 45.921875 
Q 28.375 48.1875 33.59375 48.1875 
Q 44.578125 48.1875 50.953125 41.515625 
Q 57.328125 34.859375 57.328125 23.390625 
Q 57.328125 12.15625 50.6875 5.359375 
Q 44.046875 -1.421875 33.015625 -1.421875 
Q 20.359375 -1.421875 13.671875 8.265625 
Q 6.984375 17.96875 6.984375 36.375 
Q 6.984375 53.65625 15.1875 63.9375 
Q 23.390625 74.21875 37.203125 74.21875 
Q 40.921875 74.21875 44.703125 73.484375 
Q 48.484375 72.75 52.59375 71.296875 
z
" id="DejaVuSans-36"/>
     <path d="M 11.71875 12.40625 
L 22.015625 12.40625 
L 22.015625 4 
L 14.015625 -11.625 
L 7.71875 -11.625 
L 11.71875 4 
z
" id="DejaVuSans-2c"/>
     <path d="M 16.890625 72.90625 
L 62.984375 72.90625 
L 61.375 64.59375 
L 25.09375 64.59375 
L 20.90625 43.015625 
L 55.71875 43.015625 
L 54.109375 34.71875 
L 19.28125 34.71875 
L 14.203125 8.296875 
L 51.3125 8.296875 
L 49.703125 0 
L 2.6875 0 
z
" id="DejaVuSans-Oblique-45"/>
     <path d="M 16.890625 72.90625 
L 30.171875 72.90625 
L 50.296875 10.40625 
L 62.5 72.90625 
L 72.125 72.90625 
L 57.90625 0 
L 44.578125 0 
L 24.515625 62.890625 
L 12.3125 0 
L 2.6875 0 
z
" id="DejaVuSans-Oblique-4e"/>
     <path d="M 10.59375 45.40625 
L 73.1875 45.40625 
L 73.1875 37.203125 
L 10.59375 37.203125 
z
M 10.59375 25.484375 
L 73.1875 25.484375 
L 73.1875 17.1875 
L 10.59375 17.1875 
z
" id="DejaVuSans-3d"/>
     <path d="M 4.890625 31.390625 
L 31.203125 31.390625 
L 31.203125 23.390625 
L 4.890625 23.390625 
z
" id="DejaVuSans-2d"/>
     <path d="M 12.40625 8.296875 
L 28.515625 8.296875 
L 28.515625 63.921875 
L 10.984375 60.40625 
L 10.984375 69.390625 
L 28.421875 72.90625 
L 38.28125 72.90625 
L 38.28125 8.296875 
L 54.390625 8.296875 
L 54.390625 0 
L 12.40625 0 
z
" id="DejaVuSans-31"/>
     <path d="M 8.203125 72.90625 
L 55.078125 72.90625 
L 55.078125 68.703125 
L 28.609375 0 
L 18.3125 0 
L 43.21875 64.59375 
L 8.203125 64.59375 
z
" id="DejaVuSans-37"/>
     <path d="M 37.796875 64.3125 
L 12.890625 25.390625 
L 37.796875 25.390625 
z
M 35.203125 72.90625 
L 47.609375 72.90625 
L 47.609375 25.390625 
L 58.015625 25.390625 
L 58.015625 17.1875 
L 47.609375 17.1875 
L 47.609375 0 
L 37.796875 0 
L 37.796875 17.1875 
L 4.890625 17.1875 
L 4.890625 26.703125 
z
" id="DejaVuSans-34"/>
     <path d="M 10.6875 12.40625 
L 21 12.40625 
L 21 0 
L 10.6875 0 
z
" id="DejaVuSans-2e"/>
     <path d="M 28.609375 0 
L 0.78125 72.90625 
L 11.078125 72.90625 
L 34.1875 11.53125 
L 57.328125 72.90625 
L 67.578125 72.90625 
L 39.796875 0 
z
" id="DejaVuSans-56"/>
     <path d="M 34.1875 63.1875 
L 14.15625 8.203125 
L 54.25 8.203125 
z
M 0.78125 0 
L 28.609375 72.90625 
L 39.796875 72.90625 
L 67.578125 0 
z
" id="DejaVuSans-394"/>
     <path d="M 9.8125 72.90625 
L 55.90625 72.90625 
L 55.90625 64.59375 
L 19.671875 64.59375 
L 19.671875 43.015625 
L 54.390625 43.015625 
L 54.390625 34.71875 
L 19.671875 34.71875 
L 19.671875 8.296875 
L 56.78125 8.296875 
L 56.78125 0 
L 9.8125 0 
z
" id="DejaVuSans-45"/>
     <path d="M 31.78125 66.40625 
Q 24.171875 66.40625 20.328125 58.90625 
Q 16.5 51.421875 16.5 36.375 
Q 16.5 21.390625 20.328125 13.890625 
Q 24.171875 6.390625 31.78125 6.390625 
Q 39.453125 6.390625 43.28125 13.890625 
Q 47.125 21.390625 47.125 36.375 
Q 47.125 51.421875 43.28125 58.90625 
Q 39.453125 66.40625 31.78125 66.40625 
z
M 31.78125 74.21875 
Q 44.046875 74.21875 50.515625 64.515625 
Q 56.984375 54.828125 56.984375 36.375 
Q 56.984375 17.96875 50.515625 8.265625 
Q 44.046875 -1.421875 31.78125 -1.421875 
Q 19.53125 -1.421875 13.0625 8.265625 
Q 6.59375 17.96875 6.59375 36.375 
Q 6.59375 54.828125 13.0625 64.515625 
Q 19.53125 74.21875 31.78125 74.21875 
z
" id="DejaVuSans-30"/>
     <path d="M 31.78125 34.625 
Q 24.75 34.625 20.71875 30.859375 
Q 16.703125 27.09375 16.703125 20.515625 
Q 16.703125 13.921875 20.71875 10.15625 
Q 24.75 6.390625 31.78125 6.390625 
Q 38.8125 6.390625 42.859375 10.171875 
Q 46.921875 13.96875 46.921875 20.515625 
Q 46.921875 27.09375 42.890625 30.859375 
Q 38.875 34.625 31.78125 34.625 
z
M 21.921875 38.8125 
Q 15.578125 40.375 12.03125 44.71875 
Q 8.5 49.078125 8.5 55.328125 
Q 8.5 64.0625 14.71875 69.140625 
Q 20.953125 74.21875 31.78125 74.21875 
Q 42.671875 74.21875 48.875 69.140625 
Q 55.078125 64.0625 55.078125 55.328125 
Q 55.078125 49.078125 51.53125 44.71875 
Q 48 40.375 41.703125 38.8125 
Q 48.828125 37.15625 52.796875 32.3125 
Q 56.78125 27.484375 56.78125 20.515625 
Q 56.78125 9.90625 50.3125 4.234375 
Q 43.84375 -1.421875 31.78125 -1.421875 
Q 19.734375 -1.421875 13.25 4.234375 
Q 6.78125 9.90625 6.78125 20.515625 
Q 6.78125 27.484375 10.78125 32.3125 
Q 14.796875 37.15625 21.921875 38.8125 
z
M 18.3125 54.390625 
Q 18.3125 48.734375 21.84375 45.5625 
Q 25.390625 42.390625 31.78125 42.390625 
Q 38.140625 42.390625 41.71875 45.5625 
Q 45.3125 48.734375 45.3125 54.390625 
Q 45.3125 60.0625 41.71875 63.234375 
Q 38.140625 66.40625 31.78125 66.40625 
Q 25.390625 66.40625 21.84375 63.234375 
Q 18.3125 60.0625 18.3125 54.390625 
z
" id="DejaVuSans-38"/>
    </defs>
    <g transform="translate(65.388 35.472)scale(0.12 -0.12)">
     <use transform="translate(0 0.78125)" xlink:href="#DejaVuSans-53"/>
     <use transform="translate(63.476562 0.78125)" xlink:href="#DejaVuSans-74"/>
     <use transform="translate(102.685547 0.78125)" xlink:href="#DejaVuSans-72"/>
     <use transform="translate(143.798828 0.78125)" xlink:href="#DejaVuSans-75"/>
     <use transform="translate(207.177734 0.78125)" xlink:href="#DejaVuSans-63"/>
     <use transform="translate(262.158203 0.78125)" xlink:href="#DejaVuSans-74"/>
     <use transform="translate(301.367188 0.78125)" xlink:href="#DejaVuSans-75"/>
     <use transform="translate(364.746094 0.78125)" xlink:href="#DejaVuSans-72"/>
     <use transform="translate(405.859375 0.78125)" xlink:href="#DejaVuSans-65"/>
     <use transform="translate(467.382812 0.78125)" xlink:href="#DejaVuSans-20"/>
     <use transform="translate(499.169922 0.78125)" xlink:href="#DejaVuSans-23"/>
     <use transform="translate(582.958984 0.78125)" xlink:href="#DejaVuSans-35"/>
     <use transform="translate(646.582031 0.78125)" xlink:href="#DejaVuSans-35"/>
     <use transform="translate(710.126953 0.78125)" xlink:href="#DejaVuSans-39"/>
     <use transform="translate(773.75 0.78125)" xlink:href="#DejaVuSans-36"/>
     <use transform="translate(837.373047 0.78125)" xlink:href="#DejaVuSans-2c"/>
     <use transform="translate(869.160156 0.78125)" xlink:href="#DejaVuSans-20"/>
     <use transform="translate(900.947266 0.78125)" xlink:href="#DejaVuSans-Oblique-45"/>
     <use transform="translate(964.130859 -15.625)scale(0.7)" xlink:href="#DejaVuSans-Oblique-4e"/>
     <use transform="translate(1019.228516 0.78125)" xlink:href="#DejaVuSans-3d"/>
     <use transform="translate(1103.017578 0.78125)" xlink:href="#DejaVuSans-2d"/>
     <use transform="translate(1139.101562 0.78125)" xlink:href="#DejaVuSans-31"/>
     <use transform="translate(1202.724609 0.78125)" xlink:href="#DejaVuSans-37"/>
     <use transform="translate(1266.347656 0.78125)" xlink:href="#DejaVuSans-34"/>
     <use transform="translate(1329.970703 0.78125)" xlink:href="#DejaVuSans-2e"/>
     <use transform="translate(1361.757812 0.78125)" xlink:href="#DejaVuSans-35"/>
     <use transform="translate(1425.302734 0.78125)" xlink:href="#DejaVuSans-39"/>
     <use transform="translate(1488.925781 0.78125)" xlink:href="#DejaVuSans-65"/>
     <use transform="translate(1550.449219 0.78125)" xlink:href="#DejaVuSans-56"/>
     <use transform="translate(1618.857422 0.78125)" xlink:href="#DejaVuSans-2c"/>
     <use transform="translate(1650.644531 0.78125)" xlink:href="#DejaVuSans-20"/>
     <use transform="translate(1682.431641 0.78125)" xlink:href="#DejaVuSans-394"/>
     <use transform="translate(1750.839844 0.78125)" xlink:href="#DejaVuSans-45"/>
     <use transform="translate(1814.023438 0.78125)" xlink:href="#DejaVuSans-3d"/>
     <use transform="translate(1897.8125 0.78125)" xlink:href="#DejaVuSans-30"/>
     <use transform="translate(1961.435547 0.78125)" xlink:href="#DejaVuSans-2e"/>
     <use transform="translate(1993.222656 0.78125)" xlink:href="#DejaVuSans-31"/>
     <use transform="translate(2056.845703 0.78125)" xlink:href="#DejaVuSans-38"/>
     <use transform="translate(2120.46875 0.78125)" xlink:href="#DejaVuSans-65"/>
     <use transform="translate(2181.992188 0.78125)" xlink:href="#DejaVuSans-56"/>
    </g>
   </g>
  </g>
  <g id="axes_2">
   <g id="patch_2">
    <path clip-path="url(#pf00d12a6c3)" d="M 361.152 307.584 
L 361.152 306.5445 
L 361.152 42.5115 
L 361.152 41.472 
L 374.4576 41.472 
L 374.4576 42.5115 
L 374.4576 306.5445 
L 374.4576 307.584 
z
" style="fill:#ffffff;stroke:#ffffff;stroke-linejoin:miter;stroke-width:0.01;"/>
   </g>
   <image height="265.68" id="image623a0daf89" transform="scale(1 -1)translate(0 -265.68)" width="12.96" x="361.44" xlink:href="data:image/png;base64,
iVBORw0KGgoAAAANSUhEUgAAABIAAAFxCAYAAAB+2fgXAAAABHNCSVQICAgIfAhkiAAAAeVJREFUeJztncmNw0AQA2ckheYQNv9QLIfQ8ygsCgQ7AEI8+jAs2Puz/94F1LP2ReCsZ18bAWIeZ5XaGRBE7VnbptG+KI101FYyNSiQG2oRITXKNaX9uclOdi2XWjftVE32CZCO2ou5Bj1TcCBr/1zB9ge7Fq0Rg2NM9pvbtG+ua1QgsRYhDy0ISEiNc40BEibbSI0Coj5CBGtkpFbXJiAjNZlrwhuSOv2M1DjXbEdEciBt1JSDDQKKpmZr2rr2j0DBGpXaWEJq3bQzEPIS26r9J+Wzv9Tm8o3aajRXqc3VUXsApKNWjeZq0x4ABVNbm7lrszVigDqP5vIl2+eaT2yfRkL7g+dRcNPqjohkjaCvRVBq0H2U3LQrOJCx9kdTg4B8oxZzzTdqdYHEngjUCAPyUctN9sVRq2sTECW2UKNLd2jVtRmo1A6AhMmWaSRcR8nUdIHUuVb75zJS218EyEitro1At69pIdeSk30Lkw0FktNImGyZRhy1O5galmxd03LUsHWk06jUZiCq+5Wb1kZNN4+wJxJuWt8RAW5am2sYNZ9rYCBzZ3buPKJ2P5Yj4Toy3keyIyJbIxs1rml1byCA84gpch5RQNB7Q0qNMGq2Hy4BXdNR41yz/cEEJfZzUz96r9PoB0okjeQ8y9TkAAAAAElFTkSuQmCC" y="-41.76"/>
   <g id="matplotlib.axis_1"/>
   <g id="matplotlib.axis_2">
    <g id="ytick_1">
     <g id="line2d_1">
      <defs>
       <path d="M 0 0 
L 3.5 0 
" id="m3e5cce128c" style="stroke:#000000;stroke-width:0.8;"/>
      </defs>
      <g>
       <use style="stroke:#000000;stroke-width:0.8;" x="374.4576" xlink:href="#m3e5cce128c" y="284.436829"/>
      </g>
     </g>
     <g id="text_2">
      <!-- −8.0 -->
      <defs>
       <path d="M 10.59375 35.5 
L 73.1875 35.5 
L 73.1875 27.203125 
L 10.59375 27.203125 
z
" id="DejaVuSans-2212"/>
      </defs>
      <g transform="translate(381.4576 288.236047)scale(0.1 -0.1)">
       <use xlink:href="#DejaVuSans-2212"/>
       <use x="83.789062" xlink:href="#DejaVuSans-38"/>
       <use x="147.412109" xlink:href="#DejaVuSans-2e"/>
       <use x="179.199219" xlink:href="#DejaVuSans-30"/>
      </g>
     </g>
    </g>
    <g id="ytick_2">
     <g id="line2d_2">
      <g>
       <use style="stroke:#000000;stroke-width:0.8;" x="374.4576" xlink:href="#m3e5cce128c" y="244.988183"/>
      </g>
     </g>
     <g id="text_3">
      <!-- −7.5 -->
      <g transform="translate(381.4576 248.787401)scale(0.1 -0.1)">
       <use xlink:href="#DejaVuSans-2212"/>
       <use x="83.789062" xlink:href="#DejaVuSans-37"/>
       <use x="147.412109" xlink:href="#DejaVuSans-2e"/>
       <use x="179.199219" xlink:href="#DejaVuSans-35"/>
      </g>
     </g>
    </g>
    <g id="ytick_3">
     <g id="line2d_3">
      <g>
       <use style="stroke:#000000;stroke-width:0.8;" x="374.4576" xlink:href="#m3e5cce128c" y="205.539536"/>
      </g>
     </g>
     <g id="text_4">
      <!-- −7.0 -->
      <g transform="translate(381.4576 209.338755)scale(0.1 -0.1)">
       <use xlink:href="#DejaVuSans-2212"/>
       <use x="83.789062" xlink:href="#DejaVuSans-37"/>
       <use x="147.412109" xlink:href="#DejaVuSans-2e"/>
       <use x="179.199219" xlink:href="#DejaVuSans-30"/>
      </g>
     </g>
    </g>
    <g id="ytick_4">
     <g id="line2d_4">
      <g>
       <use style="stroke:#000000;stroke-width:0.8;" x="374.4576" xlink:href="#m3e5cce128c" y="166.09089"/>
      </g>
     </g>
     <g id="text_5">
      <!-- −6.5 -->
      <g transform="translate(381.4576 169.890109)scale(0.1 -0.1)">
       <use xlink:href="#DejaVuSans-2212"/>
       <use x="83.789062" xlink:href="#DejaVuSans-36"/>
       <use x="147.412109" xlink:href="#DejaVuSans-2e"/>
       <use x="179.199219" xlink:href="#DejaVuSans-35"/>
      </g>
     </g>
    </g>
    <g id="ytick_5">
     <g id="line2d_5">
      <g>
       <use style="stroke:#000000;stroke-width:0.8;" x="374.4576" xlink:href="#m3e5cce128c" y="126.642244"/>
      </g>
     </g>
     <g id="text_6">
      <!-- −6.0 -->
      <g transform="translate(381.4576 130.441463)scale(0.1 -0.1)">
       <use xlink:href="#DejaVuSans-2212"/>
       <use x="83.789062" xlink:href="#DejaVuSans-36"/>
       <use x="147.412109" xlink:href="#DejaVuSans-2e"/>
       <use x="179.199219" xlink:href="#DejaVuSans-30"/>
      </g>
     </g>
    </g>
    <g id="ytick_6">
     <g id="line2d_6">
      <g>
       <use style="stroke:#000000;stroke-width:0.8;" x="374.4576" xlink:href="#m3e5cce128c" y="87.193598"/>
      </g>
     </g>
     <g id="text_7">
      <!-- −5.5 -->
      <g transform="translate(381.4576 90.992817)scale(0.1 -0.1)">
       <use xlink:href="#DejaVuSans-2212"/>
       <use x="83.789062" xlink:href="#DejaVuSans-35"/>
       <use x="147.412109" xlink:href="#DejaVuSans-2e"/>
       <use x="179.199219" xlink:href="#DejaVuSans-35"/>
      </g>
     </g>
    </g>
    <g id="ytick_7">
     <g id="line2d_7">
      <g>
       <use style="stroke:#000000;stroke-width:0.8;" x="374.4576" xlink:href="#m3e5cce128c" y="47.744952"/>
      </g>
     </g>
     <g id="text_8">
      <!-- −5.0 -->
      <g transform="translate(381.4576 51.544171)scale(0.1 -0.1)">
       <use xlink:href="#DejaVuSans-2212"/>
       <use x="83.789062" xlink:href="#DejaVuSans-35"/>
       <use x="147.412109" xlink:href="#DejaVuSans-2e"/>
       <use x="179.199219" xlink:href="#DejaVuSans-30"/>
      </g>
     </g>
    </g>
    <g id="text_9">
     <!-- Energy [eV] -->
     <defs>
      <path d="M 54.890625 33.015625 
L 54.890625 0 
L 45.90625 0 
L 45.90625 32.71875 
Q 45.90625 40.484375 42.875 44.328125 
Q 39.84375 48.1875 33.796875 48.1875 
Q 26.515625 48.1875 22.3125 43.546875 
Q 18.109375 38.921875 18.109375 30.90625 
L 18.109375 0 
L 9.078125 0 
L 9.078125 54.6875 
L 18.109375 54.6875 
L 18.109375 46.1875 
Q 21.34375 51.125 25.703125 53.5625 
Q 30.078125 56 35.796875 56 
Q 45.21875 56 50.046875 50.171875 
Q 54.890625 44.34375 54.890625 33.015625 
z
" id="DejaVuSans-6e"/>
      <path d="M 45.40625 27.984375 
Q 45.40625 37.75 41.375 43.109375 
Q 37.359375 48.484375 30.078125 48.484375 
Q 22.859375 48.484375 18.828125 43.109375 
Q 14.796875 37.75 14.796875 27.984375 
Q 14.796875 18.265625 18.828125 12.890625 
Q 22.859375 7.515625 30.078125 7.515625 
Q 37.359375 7.515625 41.375 12.890625 
Q 45.40625 18.265625 45.40625 27.984375 
z
M 54.390625 6.78125 
Q 54.390625 -7.171875 48.1875 -13.984375 
Q 42 -20.796875 29.203125 -20.796875 
Q 24.46875 -20.796875 20.265625 -20.09375 
Q 16.0625 -19.390625 12.109375 -17.921875 
L 12.109375 -9.1875 
Q 16.0625 -11.328125 19.921875 -12.34375 
Q 23.78125 -13.375 27.78125 -13.375 
Q 36.625 -13.375 41.015625 -8.765625 
Q 45.40625 -4.15625 45.40625 5.171875 
L 45.40625 9.625 
Q 42.625 4.78125 38.28125 2.390625 
Q 33.9375 0 27.875 0 
Q 17.828125 0 11.671875 7.65625 
Q 5.515625 15.328125 5.515625 27.984375 
Q 5.515625 40.671875 11.671875 48.328125 
Q 17.828125 56 27.875 56 
Q 33.9375 56 38.28125 53.609375 
Q 42.625 51.21875 45.40625 46.390625 
L 45.40625 54.6875 
L 54.390625 54.6875 
z
" id="DejaVuSans-67"/>
      <path d="M 32.171875 -5.078125 
Q 28.375 -14.84375 24.75 -17.8125 
Q 21.140625 -20.796875 15.09375 -20.796875 
L 7.90625 -20.796875 
L 7.90625 -13.28125 
L 13.1875 -13.28125 
Q 16.890625 -13.28125 18.9375 -11.515625 
Q 21 -9.765625 23.484375 -3.21875 
L 25.09375 0.875 
L 2.984375 54.6875 
L 12.5 54.6875 
L 29.59375 11.921875 
L 46.6875 54.6875 
L 56.203125 54.6875 
z
" id="DejaVuSans-79"/>
      <path d="M 8.59375 75.984375 
L 29.296875 75.984375 
L 29.296875 69 
L 17.578125 69 
L 17.578125 -6.203125 
L 29.296875 -6.203125 
L 29.296875 -13.1875 
L 8.59375 -13.1875 
z
" id="DejaVuSans-5b"/>
      <path d="M 30.421875 75.984375 
L 30.421875 -13.1875 
L 9.71875 -13.1875 
L 9.71875 -6.203125 
L 21.390625 -6.203125 
L 21.390625 69 
L 9.71875 69 
L 9.71875 75.984375 
z
" id="DejaVuSans-5d"/>
     </defs>
     <g transform="translate(417.33885 204.108469)rotate(-90)scale(0.1 -0.1)">
      <use xlink:href="#DejaVuSans-45"/>
      <use x="63.183594" xlink:href="#DejaVuSans-6e"/>
      <use x="126.5625" xlink:href="#DejaVuSans-65"/>
      <use x="188.085938" xlink:href="#DejaVuSans-72"/>
      <use x="229.183594" xlink:href="#DejaVuSans-67"/>
      <use x="292.660156" xlink:href="#DejaVuSans-79"/>
      <use x="351.839844" xlink:href="#DejaVuSans-20"/>
      <use x="383.626953" xlink:href="#DejaVuSans-5b"/>
      <use x="422.640625" xlink:href="#DejaVuSans-65"/>
      <use x="484.164062" xlink:href="#DejaVuSans-56"/>
      <use x="552.572266" xlink:href="#DejaVuSans-5d"/>
     </g>
    </g>
   </g>
   <g id="patch_3">
    <path d="M 361.152 307.584 
L 361.152 306.5445 
L 361.152 42.5115 
L 361.152 41.472 
L 374.4576 41.472 
L 374.4576 42.5115 
L 374.4576 306.5445 
L 374.4576 307.584 
z
" style="fill:none;stroke:#000000;stroke-linejoin:miter;stroke-width:0.8;"/>
   </g>
  </g>
 </g>
 <defs>
  <clipPath id="p7885151ca7">
   <rect height="266.112" width="285.696" x="57.6" y="41.472"/>
  </clipPath>
  <clipPath id="pf00d12a6c3">
   <rect height="266.112" width="13.3056" x="361.152" y="41.472"/>
  </clipPath>
 </defs>
</svg>
