<?xml version="1.0" encoding="utf-8" standalone="no"?>
<!DOCTYPE svg PUBLIC "-//W3C//DTD SVG 1.1//EN"
  "http://www.w3.org/Graphics/SVG/1.1/DTD/svg11.dtd">
<!-- Created with matplotlib (http://matplotlib.org/) -->
<svg height="345.6pt" version="1.1" viewBox="0 0 460.8 345.6" width="460.8pt" xmlns="http://www.w3.org/2000/svg" xmlns:xlink="http://www.w3.org/1999/xlink">
 <defs>
  <style type="text/css">
*{stroke-linecap:butt;stroke-linejoin:round;}
  </style>
 </defs>
 <g id="figure_1">
  <g id="patch_1">
   <path d="M 0 345.6 
L 460.8 345.6 
L 460.8 0 
L 0 0 
z
" style="fill:#ffffff;"/>
  </g>
  <g id="axes_1">
   <g id="CircleCollection_1">
    <path clip-path="url(#pae3dd08094)" d="M 273.655198 61.394281 
C 275.539804 61.394281 277.347476 60.645519 278.680094 59.312901 
C 280.012712 57.980283 280.761474 56.172612 280.761474 54.288005 
C 280.761474 52.403399 280.012712 50.595727 278.680094 49.263109 
C 277.347476 47.930491 275.539804 47.181729 273.655198 47.181729 
C 271.770591 47.181729 269.96292 47.930491 268.630302 49.263109 
C 267.297684 50.595727 266.548922 52.403399 266.548922 54.288005 
C 266.548922 56.172612 267.297684 57.980283 268.630302 59.312901 
C 269.96292 60.645519 271.770591 61.394281 273.655198 61.394281 
z
" style="fill:#2fb47c;"/>
    <path clip-path="url(#pae3dd08094)" d="M 306.338185 257.563151 
C 308.131828 257.563151 309.85225 256.850529 311.120547 255.582232 
C 312.388845 254.313935 313.101467 252.593513 313.101467 250.79987 
C 313.101467 249.006226 312.388845 247.285805 311.120547 246.017507 
C 309.85225 244.74921 308.131828 244.036588 306.338185 244.036588 
C 304.544542 244.036588 302.82412 244.74921 301.555823 246.017507 
C 300.287525 247.285805 299.574903 249.006226 299.574903 250.79987 
C 299.574903 252.593513 300.287525 254.313935 301.555823 255.582232 
C 302.82412 256.850529 304.544542 257.563151 306.338185 257.563151 
z
" style="fill:#23a983;"/>
    <path clip-path="url(#pae3dd08094)" d="M 288.286968 299.169989 
C 290.056603 299.169989 291.753996 298.466906 293.005317 297.215585 
C 294.256638 295.964264 294.959721 294.266871 294.959721 292.497236 
C 294.959721 290.727601 294.256638 289.030208 293.005317 287.778887 
C 291.753996 286.527566 290.056603 285.824483 288.286968 285.824483 
C 286.517333 285.824483 284.81994 286.527566 283.568619 287.778887 
C 282.317298 289.030208 281.614215 290.727601 281.614215 292.497236 
C 281.614215 294.266871 282.317298 295.964264 283.568619 297.215585 
C 284.81994 298.466906 286.517333 299.169989 288.286968 299.169989 
z
" style="fill:#20a386;"/>
    <path clip-path="url(#pae3dd08094)" d="M 154.358077 93.826888 
C 156.107042 93.826888 157.784609 93.132017 159.021314 91.895312 
C 160.258019 90.658607 160.95289 88.981039 160.95289 87.232074 
C 160.95289 85.483109 160.258019 83.805542 159.021314 82.568837 
C 157.784609 81.332132 156.107042 80.637261 154.358077 80.637261 
C 152.609112 80.637261 150.931544 81.332132 149.694839 82.568837 
C 148.458134 83.805542 147.763263 85.483109 147.763263 87.232074 
C 147.763263 88.981039 148.458134 90.658607 149.694839 91.895312 
C 150.931544 93.132017 152.609112 93.826888 154.358077 93.826888 
z
" style="fill:#482979;"/>
    <path clip-path="url(#pae3dd08094)" d="M 71.073588 162.381058 
C 72.806384 162.381058 74.468443 161.692611 75.693715 160.467339 
C 76.918987 159.242067 77.607434 157.580008 77.607434 155.847212 
C 77.607434 154.114416 76.918987 152.452357 75.693715 151.227085 
C 74.468443 150.001813 72.806384 149.313365 71.073588 149.313365 
C 69.340791 149.313365 67.678733 150.001813 66.453461 151.227085 
C 65.228189 152.452357 64.539741 154.114416 64.539741 155.847212 
C 64.539741 157.580008 65.228189 159.242067 66.453461 160.467339 
C 67.678733 161.692611 69.340791 162.381058 71.073588 162.381058 
z
" style="fill:#60ca60;"/>
    <path clip-path="url(#pae3dd08094)" d="M 308.150136 95.883292 
C 310.044688 95.883292 311.8619 95.130578 313.201551 93.790927 
C 314.541202 92.451276 315.293915 90.634065 315.293915 88.739512 
C 315.293915 86.84496 314.541202 85.027748 313.201551 83.688098 
C 311.8619 82.348447 310.044688 81.595733 308.150136 81.595733 
C 306.255583 81.595733 304.438372 82.348447 303.098721 83.688098 
C 301.75907 85.027748 301.006356 86.84496 301.006356 88.739512 
C 301.006356 90.634065 301.75907 92.451276 303.098721 93.790927 
C 304.438372 95.130578 306.255583 95.883292 308.150136 95.883292 
z
" style="fill:#20938c;"/>
    <path clip-path="url(#pae3dd08094)" d="M 290.475311 207.696901 
C 292.253025 207.696901 293.958167 206.990608 295.215201 205.733574 
C 296.472235 204.47654 297.178528 202.771397 297.178528 200.993683 
C 297.178528 199.215969 296.472235 197.510826 295.215201 196.253793 
C 293.958167 194.996759 292.253025 194.290466 290.475311 194.290466 
C 288.697596 194.290466 286.992454 194.996759 285.73542 196.253793 
C 284.478386 197.510826 283.772093 199.215969 283.772093 200.993683 
C 283.772093 202.771397 284.478386 204.47654 285.73542 205.733574 
C 286.992454 206.990608 288.697596 207.696901 290.475311 207.696901 
z
" style="fill:#453882;"/>
    <path clip-path="url(#pae3dd08094)" d="M 202.683178 70.011775 
C 204.44566 70.011775 206.136193 69.311534 207.382456 68.065271 
C 208.628719 66.819008 209.32896 65.128475 209.32896 63.365993 
C 209.32896 61.603511 208.628719 59.912979 207.382456 58.666716 
C 206.136193 57.420453 204.44566 56.720211 202.683178 56.720211 
C 200.920696 56.720211 199.230164 57.420453 197.983901 58.666716 
C 196.737638 59.912979 196.037396 61.603511 196.037396 63.365993 
C 196.037396 65.128475 196.737638 66.819008 197.983901 68.065271 
C 199.230164 69.311534 200.920696 70.011775 202.683178 70.011775 
z
" style="fill:#27808e;"/>
    <path clip-path="url(#pae3dd08094)" d="M 237.485971 82.956224 
C 239.318344 82.956224 241.075915 82.228214 242.371599 80.932531 
C 243.667282 79.636847 244.395292 77.879276 244.395292 76.046902 
C 244.395292 74.214529 243.667282 72.456958 242.371599 71.161274 
C 241.075915 69.865591 239.318344 69.137581 237.485971 69.137581 
C 235.653597 69.137581 233.896026 69.865591 232.600342 71.161274 
C 231.304659 72.456958 230.576649 74.214529 230.576649 76.046902 
C 230.576649 77.879276 231.304659 79.636847 232.600342 80.932531 
C 233.896026 82.228214 235.653597 82.956224 237.485971 82.956224 
z
" style="fill:#2c728e;"/>
    <path clip-path="url(#pae3dd08094)" d="M 246.238823 301.301684 
C 247.954457 301.301684 249.600055 300.620055 250.813192 299.406918 
C 252.026328 298.193782 252.707957 296.548184 252.707957 294.83255 
C 252.707957 293.116915 252.026328 291.471318 250.813192 290.258181 
C 249.600055 289.045044 247.954457 288.363416 246.238823 288.363416 
C 244.523189 288.363416 242.877591 289.045044 241.664454 290.258181 
C 240.451318 291.471318 239.769689 293.116915 239.769689 294.83255 
C 239.769689 296.548184 240.451318 298.193782 241.664454 299.406918 
C 242.877591 300.620055 244.523189 301.301684 246.238823 301.301684 
z
" style="fill:#1f948c;"/>
    <path clip-path="url(#pae3dd08094)" d="M 129.536652 233.917474 
C 131.264524 233.917474 132.921858 233.230984 134.143647 232.009195 
C 135.365437 230.787405 136.051927 229.130071 136.051927 227.4022 
C 136.051927 225.674329 135.365437 224.016994 134.143647 222.795205 
C 132.921858 221.573415 131.264524 220.886925 129.536652 220.886925 
C 127.808781 220.886925 126.151447 221.573415 124.929657 222.795205 
C 123.707868 224.016994 123.021378 225.674329 123.021378 227.4022 
C 123.021378 229.130071 123.707868 230.787405 124.929657 232.009195 
C 126.151447 233.230984 127.808781 233.917474 129.536652 233.917474 
z
" style="fill:#20a386;"/>
    <path clip-path="url(#pae3dd08094)" d="M 194.514981 290.089635 
C 196.218642 290.089635 197.852754 289.412763 199.057424 288.208093 
C 200.262094 287.003423 200.938966 285.369311 200.938966 283.66565 
C 200.938966 281.961989 200.262094 280.327876 199.057424 279.123206 
C 197.852754 277.918536 196.218642 277.241665 194.514981 277.241665 
C 192.81132 277.241665 191.177207 277.918536 189.972537 279.123206 
C 188.767867 280.327876 188.090996 281.961989 188.090996 283.66565 
C 188.090996 285.369311 188.767867 287.003423 189.972537 288.208093 
C 191.177207 289.412763 192.81132 290.089635 194.514981 290.089635 
z
" style="fill:#26828e;"/>
    <path clip-path="url(#pae3dd08094)" d="M 297.330432 159.275152 
C 299.144352 159.275152 300.884221 158.554475 302.166856 157.27184 
C 303.44949 155.989206 304.170168 154.249336 304.170168 152.435417 
C 304.170168 150.621497 303.44949 148.881628 302.166856 147.598993 
C 300.884221 146.316359 299.144352 145.595681 297.330432 145.595681 
C 295.516513 145.595681 293.776643 146.316359 292.494009 147.598993 
C 291.211374 148.881628 290.490697 150.621497 290.490697 152.435417 
C 290.490697 154.249336 291.211374 155.989206 292.494009 157.27184 
C 293.776643 158.554475 295.516513 159.275152 297.330432 159.275152 
z
" style="fill:#482374;"/>
    <path clip-path="url(#pae3dd08094)" d="M 164.21278 147.447121 
C 165.944949 147.447121 167.606407 146.758923 168.831236 145.534094 
C 170.056064 144.309265 170.744263 142.647808 170.744263 140.915638 
C 170.744263 139.183469 170.056064 137.522011 168.831236 136.297182 
C 167.606407 135.072353 165.944949 134.384155 164.21278 134.384155 
C 162.48061 134.384155 160.819152 135.072353 159.594324 136.297182 
C 158.369495 137.522011 157.681297 139.183469 157.681297 140.915638 
C 157.681297 142.647808 158.369495 144.309265 159.594324 145.534094 
C 160.819152 146.758923 162.48061 147.447121 164.21278 147.447121 
z
" style="fill:#375a8c;"/>
    <path clip-path="url(#pae3dd08094)" d="M 216.54546 162.265457 
C 218.285459 162.265457 219.954427 161.574148 221.184792 160.343783 
C 222.415158 159.113418 223.106467 157.44445 223.106467 155.704451 
C 223.106467 153.964451 222.415158 152.295484 221.184792 151.065118 
C 219.954427 149.834753 218.285459 149.143444 216.54546 149.143444 
C 214.805461 149.143444 213.136493 149.834753 211.906128 151.065118 
C 210.675763 152.295484 209.984454 153.964451 209.984454 155.704451 
C 209.984454 157.44445 210.675763 159.113418 211.906128 160.343783 
C 213.136493 161.574148 214.805461 162.265457 216.54546 162.265457 
z
" style="fill:#3a538b;"/>
    <path clip-path="url(#pae3dd08094)" d="M 244.251575 206.97076 
C 245.975497 206.97076 247.629044 206.285838 248.848041 205.066841 
C 250.067037 203.847844 250.751959 202.194298 250.751959 200.470376 
C 250.751959 198.746454 250.067037 197.092907 248.848041 195.87391 
C 247.629044 194.654913 245.975497 193.969992 244.251575 193.969992 
C 242.527653 193.969992 240.874106 194.654913 239.65511 195.87391 
C 238.436113 197.092907 237.751191 198.746454 237.751191 200.470376 
C 237.751191 202.194298 238.436113 203.847844 239.65511 205.066841 
C 240.874106 206.285838 242.527653 206.97076 244.251575 206.97076 
z
" style="fill:#482878;"/>
    <path clip-path="url(#pae3dd08094)" d="M 77.153757 114.008783 
C 78.899674 114.008783 80.574319 113.315123 81.808869 112.080573 
C 83.043419 110.846023 83.737079 109.171378 83.737079 107.425461 
C 83.737079 105.679543 83.043419 104.004899 81.808869 102.770349 
C 80.574319 101.535799 78.899674 100.842138 77.153757 100.842138 
C 75.407839 100.842138 73.733195 101.535799 72.498645 102.770349 
C 71.264095 104.004899 70.570434 105.679543 70.570434 107.425461 
C 70.570434 109.171378 71.264095 110.846023 72.498645 112.080573 
C 73.733195 113.315123 75.407839 114.008783 77.153757 114.008783 
z
" style="fill:#23888e;"/>
    <path clip-path="url(#pae3dd08094)" d="M 105.367967 75.120655 
C 107.130412 75.120655 108.820908 74.420429 110.067145 73.174192 
C 111.313381 71.927956 112.013608 70.237459 112.013608 68.475015 
C 112.013608 66.712571 111.313381 65.022074 110.067145 63.775838 
C 108.820908 62.529601 107.130412 61.829375 105.367967 61.829375 
C 103.605523 61.829375 101.915026 62.529601 100.66879 63.775838 
C 99.422554 65.022074 98.722327 66.712571 98.722327 68.475015 
C 98.722327 70.237459 99.422554 71.927956 100.66879 73.174192 
C 101.915026 74.420429 103.605523 75.120655 105.367967 75.120655 
z
" style="fill:#3aba76;"/>
    <path clip-path="url(#pae3dd08094)" d="M 120.946821 181.836795 
C 122.674732 181.836795 124.332106 181.150288 125.553924 179.92847 
C 126.775742 178.706652 127.462249 177.049278 127.462249 175.321367 
C 127.462249 173.593455 126.775742 171.936081 125.553924 170.714263 
C 124.332106 169.492445 122.674732 168.805938 120.946821 168.805938 
C 119.218909 168.805938 117.561535 169.492445 116.339717 170.714263 
C 115.117899 171.936081 114.431392 173.593455 114.431392 175.321367 
C 114.431392 177.049278 115.117899 178.706652 116.339717 179.92847 
C 117.561535 181.150288 119.218909 181.836795 120.946821 181.836795 
z
" style="fill:#440154;"/>
    <path clip-path="url(#pae3dd08094)" d="M 245.598285 84.814588 
C 247.316508 84.814588 248.964589 84.131931 250.179556 82.916964 
C 251.394524 81.701996 252.077181 80.053916 252.077181 78.335692 
C 252.077181 76.617469 251.394524 74.969388 250.179556 73.754421 
C 248.964589 72.539454 247.316508 71.856796 245.598285 71.856796 
C 243.880062 71.856796 242.231981 72.539454 241.017014 73.754421 
C 239.802046 74.969388 239.119389 76.617469 239.119389 78.335692 
C 239.119389 80.053916 239.802046 81.701996 241.017014 82.916964 
C 242.231981 84.131931 243.880062 84.814588 245.598285 84.814588 
z
" style="fill:#fde725;"/>
    <path clip-path="url(#pae3dd08094)" d="M 329.783255 137.993691 
C 331.65526 137.993691 333.450845 137.249936 334.774552 135.926228 
C 336.09826 134.602521 336.842015 132.806936 336.842015 130.934931 
C 336.842015 129.062926 336.09826 127.267341 334.774552 125.943634 
C 333.450845 124.619926 331.65526 123.876171 329.783255 123.876171 
C 327.91125 123.876171 326.115665 124.619926 324.791958 125.943634 
C 323.468251 127.267341 322.724495 129.062926 322.724495 130.934931 
C 322.724495 132.806936 323.468251 134.602521 324.791958 135.926228 
C 326.115665 137.249936 327.91125 137.993691 329.783255 137.993691 
z
" style="fill:#3bbb75;"/>
    <path clip-path="url(#pae3dd08094)" d="M 146.469485 278.267169 
C 148.200435 278.267169 149.860723 277.579455 151.084689 276.355489 
C 152.308655 275.131523 152.996369 273.471235 152.996369 271.740285 
C 152.996369 270.009336 152.308655 268.349048 151.084689 267.125082 
C 149.860723 265.901116 148.200435 265.213402 146.469485 265.213402 
C 144.738536 265.213402 143.078248 265.901116 141.854282 267.125082 
C 140.630315 268.349048 139.942602 270.009336 139.942602 271.740285 
C 139.942602 273.471235 140.630315 275.131523 141.854282 276.355489 
C 143.078248 277.579455 144.738536 278.267169 146.469485 278.267169 
z
" style="fill:#26828e;"/>
    <path clip-path="url(#pae3dd08094)" d="M 252.382301 130.211589 
C 254.170778 130.211589 255.886244 129.501019 257.150888 128.236375 
C 258.415532 126.971731 259.126102 125.256265 259.126102 123.467788 
C 259.126102 121.679311 258.415532 119.963845 257.150888 118.699201 
C 255.886244 117.434557 254.170778 116.723987 252.382301 116.723987 
C 250.593824 116.723987 248.878358 117.434557 247.613714 118.699201 
C 246.34907 119.963845 245.6385 121.679311 245.6385 123.467788 
C 245.6385 125.256265 246.34907 126.971731 247.613714 128.236375 
C 248.878358 129.501019 250.593824 130.211589 252.382301 130.211589 
z
" style="fill:#404588;"/>
    <path clip-path="url(#pae3dd08094)" d="M 230.687023 252.798485 
C 232.372566 252.798485 233.9893 252.128811 235.181159 250.936952 
C 236.373018 249.745094 237.042691 248.128359 237.042691 246.442817 
C 237.042691 244.757274 236.373018 243.140539 235.181159 241.948681 
C 233.9893 240.756822 232.372566 240.087149 230.687023 240.087149 
C 229.00148 240.087149 227.384746 240.756822 226.192887 241.948681 
C 225.001028 243.140539 224.331355 244.757274 224.331355 246.442817 
C 224.331355 248.128359 225.001028 249.745094 226.192887 250.936952 
C 227.384746 252.128811 229.00148 252.798485 230.687023 252.798485 
z
" style="fill:#277e8e;"/>
   </g>
   <g id="text_1">
    <!-- Structure #3078, $E_N$=-179.70eV, ΔE=0.19eV -->
    <defs>
     <path d="M 53.515625 70.515625 
L 53.515625 60.890625 
Q 47.90625 63.578125 42.921875 64.890625 
Q 37.9375 66.21875 33.296875 66.21875 
Q 25.25 66.21875 20.875 63.09375 
Q 16.5 59.96875 16.5 54.203125 
Q 16.5 49.359375 19.40625 46.890625 
Q 22.3125 44.4375 30.421875 42.921875 
L 36.375 41.703125 
Q 47.40625 39.59375 52.65625 34.296875 
Q 57.90625 29 57.90625 20.125 
Q 57.90625 9.515625 50.796875 4.046875 
Q 43.703125 -1.421875 29.984375 -1.421875 
Q 24.8125 -1.421875 18.96875 -0.25 
Q 13.140625 0.921875 6.890625 3.21875 
L 6.890625 13.375 
Q 12.890625 10.015625 18.65625 8.296875 
Q 24.421875 6.59375 29.984375 6.59375 
Q 38.421875 6.59375 43.015625 9.90625 
Q 47.609375 13.234375 47.609375 19.390625 
Q 47.609375 24.75 44.3125 27.78125 
Q 41.015625 30.8125 33.5 32.328125 
L 27.484375 33.5 
Q 16.453125 35.6875 11.515625 40.375 
Q 6.59375 45.0625 6.59375 53.421875 
Q 6.59375 63.09375 13.40625 68.65625 
Q 20.21875 74.21875 32.171875 74.21875 
Q 37.3125 74.21875 42.625 73.28125 
Q 47.953125 72.359375 53.515625 70.515625 
z
" id="DejaVuSans-53"/>
     <path d="M 18.3125 70.21875 
L 18.3125 54.6875 
L 36.8125 54.6875 
L 36.8125 47.703125 
L 18.3125 47.703125 
L 18.3125 18.015625 
Q 18.3125 11.328125 20.140625 9.421875 
Q 21.96875 7.515625 27.59375 7.515625 
L 36.8125 7.515625 
L 36.8125 0 
L 27.59375 0 
Q 17.1875 0 13.234375 3.875 
Q 9.28125 7.765625 9.28125 18.015625 
L 9.28125 47.703125 
L 2.6875 47.703125 
L 2.6875 54.6875 
L 9.28125 54.6875 
L 9.28125 70.21875 
z
" id="DejaVuSans-74"/>
     <path d="M 41.109375 46.296875 
Q 39.59375 47.171875 37.8125 47.578125 
Q 36.03125 48 33.890625 48 
Q 26.265625 48 22.1875 43.046875 
Q 18.109375 38.09375 18.109375 28.8125 
L 18.109375 0 
L 9.078125 0 
L 9.078125 54.6875 
L 18.109375 54.6875 
L 18.109375 46.1875 
Q 20.953125 51.171875 25.484375 53.578125 
Q 30.03125 56 36.53125 56 
Q 37.453125 56 38.578125 55.875 
Q 39.703125 55.765625 41.0625 55.515625 
z
" id="DejaVuSans-72"/>
     <path d="M 8.5 21.578125 
L 8.5 54.6875 
L 17.484375 54.6875 
L 17.484375 21.921875 
Q 17.484375 14.15625 20.5 10.265625 
Q 23.53125 6.390625 29.59375 6.390625 
Q 36.859375 6.390625 41.078125 11.03125 
Q 45.3125 15.671875 45.3125 23.6875 
L 45.3125 54.6875 
L 54.296875 54.6875 
L 54.296875 0 
L 45.3125 0 
L 45.3125 8.40625 
Q 42.046875 3.421875 37.71875 1 
Q 33.40625 -1.421875 27.6875 -1.421875 
Q 18.265625 -1.421875 13.375 4.4375 
Q 8.5 10.296875 8.5 21.578125 
z
M 31.109375 56 
z
" id="DejaVuSans-75"/>
     <path d="M 48.78125 52.59375 
L 48.78125 44.1875 
Q 44.96875 46.296875 41.140625 47.34375 
Q 37.3125 48.390625 33.40625 48.390625 
Q 24.65625 48.390625 19.8125 42.84375 
Q 14.984375 37.3125 14.984375 27.296875 
Q 14.984375 17.28125 19.8125 11.734375 
Q 24.65625 6.203125 33.40625 6.203125 
Q 37.3125 6.203125 41.140625 7.25 
Q 44.96875 8.296875 48.78125 10.40625 
L 48.78125 2.09375 
Q 45.015625 0.34375 40.984375 -0.53125 
Q 36.96875 -1.421875 32.421875 -1.421875 
Q 20.0625 -1.421875 12.78125 6.34375 
Q 5.515625 14.109375 5.515625 27.296875 
Q 5.515625 40.671875 12.859375 48.328125 
Q 20.21875 56 33.015625 56 
Q 37.15625 56 41.109375 55.140625 
Q 45.0625 54.296875 48.78125 52.59375 
z
" id="DejaVuSans-63"/>
     <path d="M 56.203125 29.59375 
L 56.203125 25.203125 
L 14.890625 25.203125 
Q 15.484375 15.921875 20.484375 11.0625 
Q 25.484375 6.203125 34.421875 6.203125 
Q 39.59375 6.203125 44.453125 7.46875 
Q 49.3125 8.734375 54.109375 11.28125 
L 54.109375 2.78125 
Q 49.265625 0.734375 44.1875 -0.34375 
Q 39.109375 -1.421875 33.890625 -1.421875 
Q 20.796875 -1.421875 13.15625 6.1875 
Q 5.515625 13.8125 5.515625 26.8125 
Q 5.515625 40.234375 12.765625 48.109375 
Q 20.015625 56 32.328125 56 
Q 43.359375 56 49.78125 48.890625 
Q 56.203125 41.796875 56.203125 29.59375 
z
M 47.21875 32.234375 
Q 47.125 39.59375 43.09375 43.984375 
Q 39.0625 48.390625 32.421875 48.390625 
Q 24.90625 48.390625 20.390625 44.140625 
Q 15.875 39.890625 15.1875 32.171875 
z
" id="DejaVuSans-65"/>
     <path id="DejaVuSans-20"/>
     <path d="M 51.125 44 
L 36.921875 44 
L 32.8125 27.6875 
L 47.125 27.6875 
z
M 43.796875 71.78125 
L 38.71875 51.515625 
L 52.984375 51.515625 
L 58.109375 71.78125 
L 65.921875 71.78125 
L 60.890625 51.515625 
L 76.125 51.515625 
L 76.125 44 
L 58.984375 44 
L 54.984375 27.6875 
L 70.515625 27.6875 
L 70.515625 20.21875 
L 53.078125 20.21875 
L 48 0 
L 40.1875 0 
L 45.21875 20.21875 
L 30.90625 20.21875 
L 25.875 0 
L 18.015625 0 
L 23.09375 20.21875 
L 7.71875 20.21875 
L 7.71875 27.6875 
L 24.90625 27.6875 
L 29 44 
L 13.28125 44 
L 13.28125 51.515625 
L 30.90625 51.515625 
L 35.890625 71.78125 
z
" id="DejaVuSans-23"/>
     <path d="M 40.578125 39.3125 
Q 47.65625 37.796875 51.625 33 
Q 55.609375 28.21875 55.609375 21.1875 
Q 55.609375 10.40625 48.1875 4.484375 
Q 40.765625 -1.421875 27.09375 -1.421875 
Q 22.515625 -1.421875 17.65625 -0.515625 
Q 12.796875 0.390625 7.625 2.203125 
L 7.625 11.71875 
Q 11.71875 9.328125 16.59375 8.109375 
Q 21.484375 6.890625 26.8125 6.890625 
Q 36.078125 6.890625 40.9375 10.546875 
Q 45.796875 14.203125 45.796875 21.1875 
Q 45.796875 27.640625 41.28125 31.265625 
Q 36.765625 34.90625 28.71875 34.90625 
L 20.21875 34.90625 
L 20.21875 43.015625 
L 29.109375 43.015625 
Q 36.375 43.015625 40.234375 45.921875 
Q 44.09375 48.828125 44.09375 54.296875 
Q 44.09375 59.90625 40.109375 62.90625 
Q 36.140625 65.921875 28.71875 65.921875 
Q 24.65625 65.921875 20.015625 65.03125 
Q 15.375 64.15625 9.8125 62.3125 
L 9.8125 71.09375 
Q 15.4375 72.65625 20.34375 73.4375 
Q 25.25 74.21875 29.59375 74.21875 
Q 40.828125 74.21875 47.359375 69.109375 
Q 53.90625 64.015625 53.90625 55.328125 
Q 53.90625 49.265625 50.4375 45.09375 
Q 46.96875 40.921875 40.578125 39.3125 
z
" id="DejaVuSans-33"/>
     <path d="M 31.78125 66.40625 
Q 24.171875 66.40625 20.328125 58.90625 
Q 16.5 51.421875 16.5 36.375 
Q 16.5 21.390625 20.328125 13.890625 
Q 24.171875 6.390625 31.78125 6.390625 
Q 39.453125 6.390625 43.28125 13.890625 
Q 47.125 21.390625 47.125 36.375 
Q 47.125 51.421875 43.28125 58.90625 
Q 39.453125 66.40625 31.78125 66.40625 
z
M 31.78125 74.21875 
Q 44.046875 74.21875 50.515625 64.515625 
Q 56.984375 54.828125 56.984375 36.375 
Q 56.984375 17.96875 50.515625 8.265625 
Q 44.046875 -1.421875 31.78125 -1.421875 
Q 19.53125 -1.421875 13.0625 8.265625 
Q 6.59375 17.96875 6.59375 36.375 
Q 6.59375 54.828125 13.0625 64.515625 
Q 19.53125 74.21875 31.78125 74.21875 
z
" id="DejaVuSans-30"/>
     <path d="M 8.203125 72.90625 
L 55.078125 72.90625 
L 55.078125 68.703125 
L 28.609375 0 
L 18.3125 0 
L 43.21875 64.59375 
L 8.203125 64.59375 
z
" id="DejaVuSans-37"/>
     <path d="M 31.78125 34.625 
Q 24.75 34.625 20.71875 30.859375 
Q 16.703125 27.09375 16.703125 20.515625 
Q 16.703125 13.921875 20.71875 10.15625 
Q 24.75 6.390625 31.78125 6.390625 
Q 38.8125 6.390625 42.859375 10.171875 
Q 46.921875 13.96875 46.921875 20.515625 
Q 46.921875 27.09375 42.890625 30.859375 
Q 38.875 34.625 31.78125 34.625 
z
M 21.921875 38.8125 
Q 15.578125 40.375 12.03125 44.71875 
Q 8.5 49.078125 8.5 55.328125 
Q 8.5 64.0625 14.71875 69.140625 
Q 20.953125 74.21875 31.78125 74.21875 
Q 42.671875 74.21875 48.875 69.140625 
Q 55.078125 64.0625 55.078125 55.328125 
Q 55.078125 49.078125 51.53125 44.71875 
Q 48 40.375 41.703125 38.8125 
Q 48.828125 37.15625 52.796875 32.3125 
Q 56.78125 27.484375 56.78125 20.515625 
Q 56.78125 9.90625 50.3125 4.234375 
Q 43.84375 -1.421875 31.78125 -1.421875 
Q 19.734375 -1.421875 13.25 4.234375 
Q 6.78125 9.90625 6.78125 20.515625 
Q 6.78125 27.484375 10.78125 32.3125 
Q 14.796875 37.15625 21.921875 38.8125 
z
M 18.3125 54.390625 
Q 18.3125 48.734375 21.84375 45.5625 
Q 25.390625 42.390625 31.78125 42.390625 
Q 38.140625 42.390625 41.71875 45.5625 
Q 45.3125 48.734375 45.3125 54.390625 
Q 45.3125 60.0625 41.71875 63.234375 
Q 38.140625 66.40625 31.78125 66.40625 
Q 25.390625 66.40625 21.84375 63.234375 
Q 18.3125 60.0625 18.3125 54.390625 
z
" id="DejaVuSans-38"/>
     <path d="M 11.71875 12.40625 
L 22.015625 12.40625 
L 22.015625 4 
L 14.015625 -11.625 
L 7.71875 -11.625 
L 11.71875 4 
z
" id="DejaVuSans-2c"/>
     <path d="M 16.890625 72.90625 
L 62.984375 72.90625 
L 61.375 64.59375 
L 25.09375 64.59375 
L 20.90625 43.015625 
L 55.71875 43.015625 
L 54.109375 34.71875 
L 19.28125 34.71875 
L 14.203125 8.296875 
L 51.3125 8.296875 
L 49.703125 0 
L 2.6875 0 
z
" id="DejaVuSans-Oblique-45"/>
     <path d="M 16.890625 72.90625 
L 30.171875 72.90625 
L 50.296875 10.40625 
L 62.5 72.90625 
L 72.125 72.90625 
L 57.90625 0 
L 44.578125 0 
L 24.515625 62.890625 
L 12.3125 0 
L 2.6875 0 
z
" id="DejaVuSans-Oblique-4e"/>
     <path d="M 10.59375 45.40625 
L 73.1875 45.40625 
L 73.1875 37.203125 
L 10.59375 37.203125 
z
M 10.59375 25.484375 
L 73.1875 25.484375 
L 73.1875 17.1875 
L 10.59375 17.1875 
z
" id="DejaVuSans-3d"/>
     <path d="M 4.890625 31.390625 
L 31.203125 31.390625 
L 31.203125 23.390625 
L 4.890625 23.390625 
z
" id="DejaVuSans-2d"/>
     <path d="M 12.40625 8.296875 
L 28.515625 8.296875 
L 28.515625 63.921875 
L 10.984375 60.40625 
L 10.984375 69.390625 
L 28.421875 72.90625 
L 38.28125 72.90625 
L 38.28125 8.296875 
L 54.390625 8.296875 
L 54.390625 0 
L 12.40625 0 
z
" id="DejaVuSans-31"/>
     <path d="M 10.984375 1.515625 
L 10.984375 10.5 
Q 14.703125 8.734375 18.5 7.8125 
Q 22.3125 6.890625 25.984375 6.890625 
Q 35.75 6.890625 40.890625 13.453125 
Q 46.046875 20.015625 46.78125 33.40625 
Q 43.953125 29.203125 39.59375 26.953125 
Q 35.25 24.703125 29.984375 24.703125 
Q 19.046875 24.703125 12.671875 31.3125 
Q 6.296875 37.9375 6.296875 49.421875 
Q 6.296875 60.640625 12.9375 67.421875 
Q 19.578125 74.21875 30.609375 74.21875 
Q 43.265625 74.21875 49.921875 64.515625 
Q 56.59375 54.828125 56.59375 36.375 
Q 56.59375 19.140625 48.40625 8.859375 
Q 40.234375 -1.421875 26.421875 -1.421875 
Q 22.703125 -1.421875 18.890625 -0.6875 
Q 15.09375 0.046875 10.984375 1.515625 
z
M 30.609375 32.421875 
Q 37.25 32.421875 41.125 36.953125 
Q 45.015625 41.5 45.015625 49.421875 
Q 45.015625 57.28125 41.125 61.84375 
Q 37.25 66.40625 30.609375 66.40625 
Q 23.96875 66.40625 20.09375 61.84375 
Q 16.21875 57.28125 16.21875 49.421875 
Q 16.21875 41.5 20.09375 36.953125 
Q 23.96875 32.421875 30.609375 32.421875 
z
" id="DejaVuSans-39"/>
     <path d="M 10.6875 12.40625 
L 21 12.40625 
L 21 0 
L 10.6875 0 
z
" id="DejaVuSans-2e"/>
     <path d="M 28.609375 0 
L 0.78125 72.90625 
L 11.078125 72.90625 
L 34.1875 11.53125 
L 57.328125 72.90625 
L 67.578125 72.90625 
L 39.796875 0 
z
" id="DejaVuSans-56"/>
     <path d="M 34.1875 63.1875 
L 14.15625 8.203125 
L 54.25 8.203125 
z
M 0.78125 0 
L 28.609375 72.90625 
L 39.796875 72.90625 
L 67.578125 0 
z
" id="DejaVuSans-394"/>
     <path d="M 9.8125 72.90625 
L 55.90625 72.90625 
L 55.90625 64.59375 
L 19.671875 64.59375 
L 19.671875 43.015625 
L 54.390625 43.015625 
L 54.390625 34.71875 
L 19.671875 34.71875 
L 19.671875 8.296875 
L 56.78125 8.296875 
L 56.78125 0 
L 9.8125 0 
z
" id="DejaVuSans-45"/>
    </defs>
    <g transform="translate(65.388 35.472)scale(0.12 -0.12)">
     <use transform="translate(0 0.78125)" xlink:href="#DejaVuSans-53"/>
     <use transform="translate(63.476562 0.78125)" xlink:href="#DejaVuSans-74"/>
     <use transform="translate(102.685547 0.78125)" xlink:href="#DejaVuSans-72"/>
     <use transform="translate(143.798828 0.78125)" xlink:href="#DejaVuSans-75"/>
     <use transform="translate(207.177734 0.78125)" xlink:href="#DejaVuSans-63"/>
     <use transform="translate(262.158203 0.78125)" xlink:href="#DejaVuSans-74"/>
     <use transform="translate(301.367188 0.78125)" xlink:href="#DejaVuSans-75"/>
     <use transform="translate(364.746094 0.78125)" xlink:href="#DejaVuSans-72"/>
     <use transform="translate(405.859375 0.78125)" xlink:href="#DejaVuSans-65"/>
     <use transform="translate(467.382812 0.78125)" xlink:href="#DejaVuSans-20"/>
     <use transform="translate(499.169922 0.78125)" xlink:href="#DejaVuSans-23"/>
     <use transform="translate(582.958984 0.78125)" xlink:href="#DejaVuSans-33"/>
     <use transform="translate(646.582031 0.78125)" xlink:href="#DejaVuSans-30"/>
     <use transform="translate(710.205078 0.78125)" xlink:href="#DejaVuSans-37"/>
     <use transform="translate(773.828125 0.78125)" xlink:href="#DejaVuSans-38"/>
     <use transform="translate(837.451172 0.78125)" xlink:href="#DejaVuSans-2c"/>
     <use transform="translate(869.238281 0.78125)" xlink:href="#DejaVuSans-20"/>
     <use transform="translate(901.025391 0.78125)" xlink:href="#DejaVuSans-Oblique-45"/>
     <use transform="translate(964.208984 -15.625)scale(0.7)" xlink:href="#DejaVuSans-Oblique-4e"/>
     <use transform="translate(1019.306641 0.78125)" xlink:href="#DejaVuSans-3d"/>
     <use transform="translate(1103.095703 0.78125)" xlink:href="#DejaVuSans-2d"/>
     <use transform="translate(1139.179688 0.78125)" xlink:href="#DejaVuSans-31"/>
     <use transform="translate(1202.802734 0.78125)" xlink:href="#DejaVuSans-37"/>
     <use transform="translate(1266.425781 0.78125)" xlink:href="#DejaVuSans-39"/>
     <use transform="translate(1330.048828 0.78125)" xlink:href="#DejaVuSans-2e"/>
     <use transform="translate(1361.726562 0.78125)" xlink:href="#DejaVuSans-37"/>
     <use transform="translate(1425.349609 0.78125)" xlink:href="#DejaVuSans-30"/>
     <use transform="translate(1488.972656 0.78125)" xlink:href="#DejaVuSans-65"/>
     <use transform="translate(1550.496094 0.78125)" xlink:href="#DejaVuSans-56"/>
     <use transform="translate(1618.904297 0.78125)" xlink:href="#DejaVuSans-2c"/>
     <use transform="translate(1650.691406 0.78125)" xlink:href="#DejaVuSans-20"/>
     <use transform="translate(1682.478516 0.78125)" xlink:href="#DejaVuSans-394"/>
     <use transform="translate(1750.886719 0.78125)" xlink:href="#DejaVuSans-45"/>
     <use transform="translate(1814.070312 0.78125)" xlink:href="#DejaVuSans-3d"/>
     <use transform="translate(1897.859375 0.78125)" xlink:href="#DejaVuSans-30"/>
     <use transform="translate(1961.482422 0.78125)" xlink:href="#DejaVuSans-2e"/>
     <use transform="translate(1993.269531 0.78125)" xlink:href="#DejaVuSans-31"/>
     <use transform="translate(2056.892578 0.78125)" xlink:href="#DejaVuSans-39"/>
     <use transform="translate(2120.515625 0.78125)" xlink:href="#DejaVuSans-65"/>
     <use transform="translate(2182.039062 0.78125)" xlink:href="#DejaVuSans-56"/>
    </g>
   </g>
  </g>
  <g id="axes_2">
   <g id="patch_2">
    <path clip-path="url(#p8642a4468c)" d="M 361.152 307.584 
L 361.152 306.5445 
L 361.152 42.5115 
L 361.152 41.472 
L 374.4576 41.472 
L 374.4576 42.5115 
L 374.4576 306.5445 
L 374.4576 307.584 
z
" style="fill:#ffffff;stroke:#ffffff;stroke-linejoin:miter;stroke-width:0.01;"/>
   </g>
   <image height="265.68" id="image22e3009a8b" transform="scale(1 -1)translate(0 -265.68)" width="12.96" x="361.44" xlink:href="data:image/png;base64,
iVBORw0KGgoAAAANSUhEUgAAABIAAAFxCAYAAAB+2fgXAAAABHNCSVQICAgIfAhkiAAAAeVJREFUeJztncmNw0AQA2ckheYQNv9QLIfQ8ygsCgQ7AEI8+jAs2Puz/94F1LP2ReCsZ18bAWIeZ5XaGRBE7VnbptG+KI101FYyNSiQG2oRITXKNaX9uclOdi2XWjftVE32CZCO2ou5Bj1TcCBr/1zB9ge7Fq0Rg2NM9pvbtG+ua1QgsRYhDy0ISEiNc40BEibbSI0Coj5CBGtkpFbXJiAjNZlrwhuSOv2M1DjXbEdEciBt1JSDDQKKpmZr2rr2j0DBGpXaWEJq3bQzEPIS26r9J+Wzv9Tm8o3aajRXqc3VUXsApKNWjeZq0x4ABVNbm7lrszVigDqP5vIl2+eaT2yfRkL7g+dRcNPqjohkjaCvRVBq0H2U3LQrOJCx9kdTg4B8oxZzzTdqdYHEngjUCAPyUctN9sVRq2sTECW2UKNLd2jVtRmo1A6AhMmWaSRcR8nUdIHUuVb75zJS218EyEitro1At69pIdeSk30Lkw0FktNImGyZRhy1O5galmxd03LUsHWk06jUZiCq+5Wb1kZNN4+wJxJuWt8RAW5am2sYNZ9rYCBzZ3buPKJ2P5Yj4Toy3keyIyJbIxs1rml1byCA84gpch5RQNB7Q0qNMGq2Hy4BXdNR41yz/cEEJfZzUz96r9PoB0okjeQ8y9TkAAAAAElFTkSuQmCC" y="-41.76"/>
   <g id="matplotlib.axis_1"/>
   <g id="matplotlib.axis_2">
    <g id="ytick_1">
     <g id="line2d_1">
      <defs>
       <path d="M 0 0 
L 3.5 0 
" id="m5ac7ecfda3" style="stroke:#000000;stroke-width:0.8;"/>
      </defs>
      <g>
       <use style="stroke:#000000;stroke-width:0.8;" x="374.4576" xlink:href="#m5ac7ecfda3" y="276.953069"/>
      </g>
     </g>
     <g id="text_2">
      <!-- −8.5 -->
      <defs>
       <path d="M 10.59375 35.5 
L 73.1875 35.5 
L 73.1875 27.203125 
L 10.59375 27.203125 
z
" id="DejaVuSans-2212"/>
       <path d="M 10.796875 72.90625 
L 49.515625 72.90625 
L 49.515625 64.59375 
L 19.828125 64.59375 
L 19.828125 46.734375 
Q 21.96875 47.46875 24.109375 47.828125 
Q 26.265625 48.1875 28.421875 48.1875 
Q 40.625 48.1875 47.75 41.5 
Q 54.890625 34.8125 54.890625 23.390625 
Q 54.890625 11.625 47.5625 5.09375 
Q 40.234375 -1.421875 26.90625 -1.421875 
Q 22.3125 -1.421875 17.546875 -0.640625 
Q 12.796875 0.140625 7.71875 1.703125 
L 7.71875 11.625 
Q 12.109375 9.234375 16.796875 8.0625 
Q 21.484375 6.890625 26.703125 6.890625 
Q 35.15625 6.890625 40.078125 11.328125 
Q 45.015625 15.765625 45.015625 23.390625 
Q 45.015625 31 40.078125 35.4375 
Q 35.15625 39.890625 26.703125 39.890625 
Q 22.75 39.890625 18.8125 39.015625 
Q 14.890625 38.140625 10.796875 36.28125 
z
" id="DejaVuSans-35"/>
      </defs>
      <g transform="translate(381.4576 280.752288)scale(0.1 -0.1)">
       <use xlink:href="#DejaVuSans-2212"/>
       <use x="83.789062" xlink:href="#DejaVuSans-38"/>
       <use x="147.412109" xlink:href="#DejaVuSans-2e"/>
       <use x="179.199219" xlink:href="#DejaVuSans-35"/>
      </g>
     </g>
    </g>
    <g id="ytick_2">
     <g id="line2d_2">
      <g>
       <use style="stroke:#000000;stroke-width:0.8;" x="374.4576" xlink:href="#m5ac7ecfda3" y="235.338304"/>
      </g>
     </g>
     <g id="text_3">
      <!-- −8.0 -->
      <g transform="translate(381.4576 239.137522)scale(0.1 -0.1)">
       <use xlink:href="#DejaVuSans-2212"/>
       <use x="83.789062" xlink:href="#DejaVuSans-38"/>
       <use x="147.412109" xlink:href="#DejaVuSans-2e"/>
       <use x="179.199219" xlink:href="#DejaVuSans-30"/>
      </g>
     </g>
    </g>
    <g id="ytick_3">
     <g id="line2d_3">
      <g>
       <use style="stroke:#000000;stroke-width:0.8;" x="374.4576" xlink:href="#m5ac7ecfda3" y="193.723538"/>
      </g>
     </g>
     <g id="text_4">
      <!-- −7.5 -->
      <g transform="translate(381.4576 197.522757)scale(0.1 -0.1)">
       <use xlink:href="#DejaVuSans-2212"/>
       <use x="83.789062" xlink:href="#DejaVuSans-37"/>
       <use x="147.412109" xlink:href="#DejaVuSans-2e"/>
       <use x="179.199219" xlink:href="#DejaVuSans-35"/>
      </g>
     </g>
    </g>
    <g id="ytick_4">
     <g id="line2d_4">
      <g>
       <use style="stroke:#000000;stroke-width:0.8;" x="374.4576" xlink:href="#m5ac7ecfda3" y="152.108772"/>
      </g>
     </g>
     <g id="text_5">
      <!-- −7.0 -->
      <g transform="translate(381.4576 155.907991)scale(0.1 -0.1)">
       <use xlink:href="#DejaVuSans-2212"/>
       <use x="83.789062" xlink:href="#DejaVuSans-37"/>
       <use x="147.412109" xlink:href="#DejaVuSans-2e"/>
       <use x="179.199219" xlink:href="#DejaVuSans-30"/>
      </g>
     </g>
    </g>
    <g id="ytick_5">
     <g id="line2d_5">
      <g>
       <use style="stroke:#000000;stroke-width:0.8;" x="374.4576" xlink:href="#m5ac7ecfda3" y="110.494006"/>
      </g>
     </g>
     <g id="text_6">
      <!-- −6.5 -->
      <defs>
       <path d="M 33.015625 40.375 
Q 26.375 40.375 22.484375 35.828125 
Q 18.609375 31.296875 18.609375 23.390625 
Q 18.609375 15.53125 22.484375 10.953125 
Q 26.375 6.390625 33.015625 6.390625 
Q 39.65625 6.390625 43.53125 10.953125 
Q 47.40625 15.53125 47.40625 23.390625 
Q 47.40625 31.296875 43.53125 35.828125 
Q 39.65625 40.375 33.015625 40.375 
z
M 52.59375 71.296875 
L 52.59375 62.3125 
Q 48.875 64.0625 45.09375 64.984375 
Q 41.3125 65.921875 37.59375 65.921875 
Q 27.828125 65.921875 22.671875 59.328125 
Q 17.53125 52.734375 16.796875 39.40625 
Q 19.671875 43.65625 24.015625 45.921875 
Q 28.375 48.1875 33.59375 48.1875 
Q 44.578125 48.1875 50.953125 41.515625 
Q 57.328125 34.859375 57.328125 23.390625 
Q 57.328125 12.15625 50.6875 5.359375 
Q 44.046875 -1.421875 33.015625 -1.421875 
Q 20.359375 -1.421875 13.671875 8.265625 
Q 6.984375 17.96875 6.984375 36.375 
Q 6.984375 53.65625 15.1875 63.9375 
Q 23.390625 74.21875 37.203125 74.21875 
Q 40.921875 74.21875 44.703125 73.484375 
Q 48.484375 72.75 52.59375 71.296875 
z
" id="DejaVuSans-36"/>
      </defs>
      <g transform="translate(381.4576 114.293225)scale(0.1 -0.1)">
       <use xlink:href="#DejaVuSans-2212"/>
       <use x="83.789062" xlink:href="#DejaVuSans-36"/>
       <use x="147.412109" xlink:href="#DejaVuSans-2e"/>
       <use x="179.199219" xlink:href="#DejaVuSans-35"/>
      </g>
     </g>
    </g>
    <g id="ytick_6">
     <g id="line2d_6">
      <g>
       <use style="stroke:#000000;stroke-width:0.8;" x="374.4576" xlink:href="#m5ac7ecfda3" y="68.879241"/>
      </g>
     </g>
     <g id="text_7">
      <!-- −6.0 -->
      <g transform="translate(381.4576 72.678459)scale(0.1 -0.1)">
       <use xlink:href="#DejaVuSans-2212"/>
       <use x="83.789062" xlink:href="#DejaVuSans-36"/>
       <use x="147.412109" xlink:href="#DejaVuSans-2e"/>
       <use x="179.199219" xlink:href="#DejaVuSans-30"/>
      </g>
     </g>
    </g>
    <g id="text_8">
     <!-- Energy [eV] -->
     <defs>
      <path d="M 54.890625 33.015625 
L 54.890625 0 
L 45.90625 0 
L 45.90625 32.71875 
Q 45.90625 40.484375 42.875 44.328125 
Q 39.84375 48.1875 33.796875 48.1875 
Q 26.515625 48.1875 22.3125 43.546875 
Q 18.109375 38.921875 18.109375 30.90625 
L 18.109375 0 
L 9.078125 0 
L 9.078125 54.6875 
L 18.109375 54.6875 
L 18.109375 46.1875 
Q 21.34375 51.125 25.703125 53.5625 
Q 30.078125 56 35.796875 56 
Q 45.21875 56 50.046875 50.171875 
Q 54.890625 44.34375 54.890625 33.015625 
z
" id="DejaVuSans-6e"/>
      <path d="M 45.40625 27.984375 
Q 45.40625 37.75 41.375 43.109375 
Q 37.359375 48.484375 30.078125 48.484375 
Q 22.859375 48.484375 18.828125 43.109375 
Q 14.796875 37.75 14.796875 27.984375 
Q 14.796875 18.265625 18.828125 12.890625 
Q 22.859375 7.515625 30.078125 7.515625 
Q 37.359375 7.515625 41.375 12.890625 
Q 45.40625 18.265625 45.40625 27.984375 
z
M 54.390625 6.78125 
Q 54.390625 -7.171875 48.1875 -13.984375 
Q 42 -20.796875 29.203125 -20.796875 
Q 24.46875 -20.796875 20.265625 -20.09375 
Q 16.0625 -19.390625 12.109375 -17.921875 
L 12.109375 -9.1875 
Q 16.0625 -11.328125 19.921875 -12.34375 
Q 23.78125 -13.375 27.78125 -13.375 
Q 36.625 -13.375 41.015625 -8.765625 
Q 45.40625 -4.15625 45.40625 5.171875 
L 45.40625 9.625 
Q 42.625 4.78125 38.28125 2.390625 
Q 33.9375 0 27.875 0 
Q 17.828125 0 11.671875 7.65625 
Q 5.515625 15.328125 5.515625 27.984375 
Q 5.515625 40.671875 11.671875 48.328125 
Q 17.828125 56 27.875 56 
Q 33.9375 56 38.28125 53.609375 
Q 42.625 51.21875 45.40625 46.390625 
L 45.40625 54.6875 
L 54.390625 54.6875 
z
" id="DejaVuSans-67"/>
      <path d="M 32.171875 -5.078125 
Q 28.375 -14.84375 24.75 -17.8125 
Q 21.140625 -20.796875 15.09375 -20.796875 
L 7.90625 -20.796875 
L 7.90625 -13.28125 
L 13.1875 -13.28125 
Q 16.890625 -13.28125 18.9375 -11.515625 
Q 21 -9.765625 23.484375 -3.21875 
L 25.09375 0.875 
L 2.984375 54.6875 
L 12.5 54.6875 
L 29.59375 11.921875 
L 46.6875 54.6875 
L 56.203125 54.6875 
z
" id="DejaVuSans-79"/>
      <path d="M 8.59375 75.984375 
L 29.296875 75.984375 
L 29.296875 69 
L 17.578125 69 
L 17.578125 -6.203125 
L 29.296875 -6.203125 
L 29.296875 -13.1875 
L 8.59375 -13.1875 
z
" id="DejaVuSans-5b"/>
      <path d="M 30.421875 75.984375 
L 30.421875 -13.1875 
L 9.71875 -13.1875 
L 9.71875 -6.203125 
L 21.390625 -6.203125 
L 21.390625 69 
L 9.71875 69 
L 9.71875 75.984375 
z
" id="DejaVuSans-5d"/>
     </defs>
     <g transform="translate(417.33885 204.108469)rotate(-90)scale(0.1 -0.1)">
      <use xlink:href="#DejaVuSans-45"/>
      <use x="63.183594" xlink:href="#DejaVuSans-6e"/>
      <use x="126.5625" xlink:href="#DejaVuSans-65"/>
      <use x="188.085938" xlink:href="#DejaVuSans-72"/>
      <use x="229.183594" xlink:href="#DejaVuSans-67"/>
      <use x="292.660156" xlink:href="#DejaVuSans-79"/>
      <use x="351.839844" xlink:href="#DejaVuSans-20"/>
      <use x="383.626953" xlink:href="#DejaVuSans-5b"/>
      <use x="422.640625" xlink:href="#DejaVuSans-65"/>
      <use x="484.164062" xlink:href="#DejaVuSans-56"/>
      <use x="552.572266" xlink:href="#DejaVuSans-5d"/>
     </g>
    </g>
   </g>
   <g id="patch_3">
    <path d="M 361.152 307.584 
L 361.152 306.5445 
L 361.152 42.5115 
L 361.152 41.472 
L 374.4576 41.472 
L 374.4576 42.5115 
L 374.4576 306.5445 
L 374.4576 307.584 
z
" style="fill:none;stroke:#000000;stroke-linejoin:miter;stroke-width:0.8;"/>
   </g>
  </g>
 </g>
 <defs>
  <clipPath id="pae3dd08094">
   <rect height="266.112" width="285.696" x="57.6" y="41.472"/>
  </clipPath>
  <clipPath id="p8642a4468c">
   <rect height="266.112" width="13.3056" x="361.152" y="41.472"/>
  </clipPath>
 </defs>
</svg>
