<?xml version="1.0" encoding="utf-8" standalone="no"?>
<!DOCTYPE svg PUBLIC "-//W3C//DTD SVG 1.1//EN"
  "http://www.w3.org/Graphics/SVG/1.1/DTD/svg11.dtd">
<!-- Created with matplotlib (http://matplotlib.org/) -->
<svg height="345.6pt" version="1.1" viewBox="0 0 460.8 345.6" width="460.8pt" xmlns="http://www.w3.org/2000/svg" xmlns:xlink="http://www.w3.org/1999/xlink">
 <defs>
  <style type="text/css">
*{stroke-linecap:butt;stroke-linejoin:round;}
  </style>
 </defs>
 <g id="figure_1">
  <g id="patch_1">
   <path d="M 0 345.6 
L 460.8 345.6 
L 460.8 0 
L 0 0 
z
" style="fill:#ffffff;"/>
  </g>
  <g id="axes_1">
   <g id="CircleCollection_1">
    <path clip-path="url(#pf00f0400a9)" d="M 201.350769 265.855725 
C 203.266426 265.855725 205.103881 265.094626 206.458455 263.740052 
C 207.813029 262.385478 208.574127 260.548024 208.574127 258.632367 
C 208.574127 256.71671 207.813029 254.879256 206.458455 253.524682 
C 205.103881 252.170108 203.266426 251.409009 201.350769 251.409009 
C 199.435113 251.409009 197.597658 252.170108 196.243084 253.524682 
C 194.88851 254.879256 194.127412 256.71671 194.127412 258.632367 
C 194.127412 260.548024 194.88851 262.385478 196.243084 263.740052 
C 197.597658 265.094626 199.435113 265.855725 201.350769 265.855725 
z
" style="fill:#450559;"/>
    <path clip-path="url(#pf00f0400a9)" d="M 178.532713 273.357063 
C 180.419597 273.357063 182.229454 272.607396 183.563682 271.273167 
C 184.897911 269.938938 185.647578 268.129082 185.647578 266.242197 
C 185.647578 264.355313 184.897911 262.545456 183.563682 261.211228 
C 182.229454 259.876999 180.419597 259.127332 178.532713 259.127332 
C 176.645829 259.127332 174.835972 259.876999 173.501743 261.211228 
C 172.167515 262.545456 171.417847 264.355313 171.417847 266.242197 
C 171.417847 268.129082 172.167515 269.938938 173.501743 271.273167 
C 174.835972 272.607396 176.645829 273.357063 178.532713 273.357063 
z
" style="fill:#440154;"/>
    <path clip-path="url(#pf00f0400a9)" d="M 169.29765 72.128547 
C 171.334514 72.128547 173.288229 71.319292 174.72851 69.879011 
C 176.168791 68.43873 176.978046 66.485015 176.978046 64.44815 
C 176.978046 62.411285 176.168791 60.457571 174.72851 59.01729 
C 173.288229 57.577009 171.334514 56.767754 169.29765 56.767754 
C 167.260785 56.767754 165.30707 57.577009 163.866789 59.01729 
C 162.426508 60.457571 161.617253 62.411285 161.617253 64.44815 
C 161.617253 66.485015 162.426508 68.43873 163.866789 69.879011 
C 165.30707 71.319292 167.260785 72.128547 169.29765 72.128547 
z
" style="fill:#46075a;"/>
    <path clip-path="url(#pf00f0400a9)" d="M 330.001767 204.232078 
C 332.09096 204.232078 334.094866 203.402033 335.572148 201.92475 
C 337.049431 200.447468 337.879476 198.443561 337.879476 196.354369 
C 337.879476 194.265176 337.049431 192.261269 335.572148 190.783987 
C 334.094866 189.306704 332.09096 188.476659 330.001767 188.476659 
C 327.912574 188.476659 325.908668 189.306704 324.431385 190.783987 
C 322.954103 192.261269 322.124057 194.265176 322.124057 196.354369 
C 322.124057 198.443561 322.954103 200.447468 324.431385 201.92475 
C 325.908668 203.402033 327.912574 204.232078 330.001767 204.232078 
z
" style="fill:#fde725;"/>
    <path clip-path="url(#pf00f0400a9)" d="M 144.670449 67.099883 
C 146.694499 67.099883 148.635921 66.29572 150.06714 64.8645 
C 151.49836 63.433281 152.302523 61.491859 152.302523 59.467809 
C 152.302523 57.443759 151.49836 55.502336 150.06714 54.071117 
C 148.635921 52.639898 146.694499 51.835734 144.670449 51.835734 
C 142.646399 51.835734 140.704976 52.639898 139.273757 54.071117 
C 137.842538 55.502336 137.038374 57.443759 137.038374 59.467809 
C 137.038374 61.491859 137.842538 63.433281 139.273757 64.8645 
C 140.704976 66.29572 142.646399 67.099883 144.670449 67.099883 
z
" style="fill:#450457;"/>
    <path clip-path="url(#pf00f0400a9)" d="M 113.146622 301.780344 
C 114.930873 301.780344 116.642286 301.071454 117.903942 299.809798 
C 119.165598 298.548142 119.874489 296.836729 119.874489 295.052477 
C 119.874489 293.268226 119.165598 291.556813 117.903942 290.295157 
C 116.642286 289.033501 114.930873 288.32461 113.146622 288.32461 
C 111.362371 288.32461 109.650958 289.033501 108.389301 290.295157 
C 107.127645 291.556813 106.418755 293.268226 106.418755 295.052477 
C 106.418755 296.836729 107.127645 298.548142 108.389301 299.809798 
C 109.650958 301.071454 111.362371 301.780344 113.146622 301.780344 
z
" style="fill:#2a788e;"/>
    <path clip-path="url(#pf00f0400a9)" d="M 284.321019 176.222657 
C 286.379847 176.222657 288.354628 175.404676 289.810439 173.948865 
C 291.26625 172.493054 292.084231 170.518273 292.084231 168.459445 
C 292.084231 166.400618 291.26625 164.425837 289.810439 162.970026 
C 288.354628 161.514215 286.379847 160.696234 284.321019 160.696234 
C 282.262192 160.696234 280.287411 161.514215 278.8316 162.970026 
C 277.375789 164.425837 276.557808 166.400618 276.557808 168.459445 
C 276.557808 170.518273 277.375789 172.493054 278.8316 173.948865 
C 280.287411 175.404676 282.262192 176.222657 284.321019 176.222657 
z
" style="fill:#482475;"/>
    <path clip-path="url(#pf00f0400a9)" d="M 70.876939 61.484761 
C 72.848839 61.484761 74.740241 60.701317 76.134585 59.306973 
C 77.528929 57.912629 78.312374 56.021227 78.312374 54.049326 
C 78.312374 52.077426 77.528929 50.186024 76.134585 48.79168 
C 74.740241 47.397336 72.848839 46.613891 70.876939 46.613891 
C 68.905038 46.613891 67.013636 47.397336 65.619292 48.79168 
C 64.224948 50.186024 63.441504 52.077426 63.441504 54.049326 
C 63.441504 56.021227 64.224948 57.912629 65.619292 59.306973 
C 67.013636 60.701317 68.905038 61.484761 70.876939 61.484761 
z
" style="fill:#c5e021;"/>
    <path clip-path="url(#pf00f0400a9)" d="M 216.779724 89.863595 
C 218.837535 89.863595 220.811341 89.046017 222.266434 87.590925 
C 223.721526 86.135832 224.539104 84.162026 224.539104 82.104215 
C 224.539104 80.046403 223.721526 78.072597 222.266434 76.617505 
C 220.811341 75.162412 218.837535 74.344835 216.779724 74.344835 
C 214.721912 74.344835 212.748106 75.162412 211.293014 76.617505 
C 209.837921 78.072597 209.020344 80.046403 209.020344 82.104215 
C 209.020344 84.162026 209.837921 86.135832 211.293014 87.590925 
C 212.748106 89.046017 214.721912 89.863595 216.779724 89.863595 
z
" style="fill:#46085c;"/>
    <path clip-path="url(#pf00f0400a9)" d="M 156.094399 278.740489 
C 157.951158 278.740489 159.732119 278.002791 161.045046 276.689864 
C 162.357973 275.376937 163.095671 273.595975 163.095671 271.739216 
C 163.095671 269.882457 162.357973 268.101496 161.045046 266.788569 
C 159.732119 265.475642 157.951158 264.737944 156.094399 264.737944 
C 154.23764 264.737944 152.456679 265.475642 151.143752 266.788569 
C 149.830825 268.101496 149.093126 269.882457 149.093126 271.739216 
C 149.093126 273.595975 149.830825 275.376937 151.143752 276.689864 
C 152.456679 278.002791 154.23764 278.740489 156.094399 278.740489 
z
" style="fill:#460b5e;"/>
    <path clip-path="url(#pf00f0400a9)" d="M 243.61189 242.462022 
C 245.585695 242.462022 247.478924 241.677821 248.874615 240.28213 
C 250.270306 238.886439 251.054507 236.993211 251.054507 235.019405 
C 251.054507 233.0456 250.270306 231.152371 248.874615 229.75668 
C 247.478924 228.36099 245.585695 227.576788 243.61189 227.576788 
C 241.638085 227.576788 239.744856 228.36099 238.349165 229.75668 
C 236.953474 231.152371 236.169273 233.0456 236.169273 235.019405 
C 236.169273 236.993211 236.953474 238.886439 238.349165 240.28213 
C 239.744856 241.677821 241.638085 242.462022 243.61189 242.462022 
z
" style="fill:#440154;"/>
    <path clip-path="url(#pf00f0400a9)" d="M 132.600472 281.775852 
C 134.424314 281.775852 136.173702 281.051232 137.463353 279.761581 
C 138.753004 278.47193 139.477624 276.722542 139.477624 274.8987 
C 139.477624 273.074858 138.753004 271.32547 137.463353 270.035819 
C 136.173702 268.746168 134.424314 268.021548 132.600472 268.021548 
C 130.77663 268.021548 129.027243 268.746168 127.737592 270.035819 
C 126.447941 271.32547 125.72332 273.074858 125.72332 274.8987 
C 125.72332 276.722542 126.447941 278.47193 127.737592 279.761581 
C 129.027243 281.051232 130.77663 281.775852 132.600472 281.775852 
z
" style="fill:#481a6c;"/>
    <path clip-path="url(#pf00f0400a9)" d="M 120.376534 64.906094 
C 122.384524 64.906094 124.310542 64.108311 125.730405 62.688448 
C 127.150268 61.268585 127.94805 59.342568 127.94805 57.334578 
C 127.94805 55.326588 127.150268 53.400571 125.730405 51.980708 
C 124.310542 50.560845 122.384524 49.763062 120.376534 49.763062 
C 118.368545 49.763062 116.442527 50.560845 115.022664 51.980708 
C 113.602801 53.400571 112.805018 55.326588 112.805018 57.334578 
C 112.805018 59.342568 113.602801 61.268585 115.022664 62.688448 
C 116.442527 64.108311 118.368545 64.906094 120.376534 64.906094 
z
" style="fill:#46075a;"/>
    <path clip-path="url(#pf00f0400a9)" d="M 279.884493 207.706841 
C 281.91891 207.706841 283.870277 206.898558 285.308827 205.460008 
C 286.747377 204.021458 287.555659 202.070092 287.555659 200.035675 
C 287.555659 198.001257 286.747377 196.049891 285.308827 194.611341 
C 283.870277 193.172791 281.91891 192.364508 279.884493 192.364508 
C 277.850076 192.364508 275.89871 193.172791 274.460159 194.611341 
C 273.021609 196.049891 272.213327 198.001257 272.213327 200.035675 
C 272.213327 202.070092 273.021609 204.021458 274.460159 205.460008 
C 275.89871 206.898558 277.850076 207.706841 279.884493 207.706841 
z
" style="fill:#481c6e;"/>
    <path clip-path="url(#pf00f0400a9)" d="M 108.767269 265.323143 
C 110.566013 265.323143 112.291327 264.608494 113.563231 263.33659 
C 114.835135 262.064686 115.549783 260.339372 115.549783 258.540628 
C 115.549783 256.741885 114.835135 255.016571 113.563231 253.744667 
C 112.291327 252.472763 110.566013 251.758114 108.767269 251.758114 
C 106.968525 251.758114 105.243211 252.472763 103.971307 253.744667 
C 102.699403 255.016571 101.984755 256.741885 101.984755 258.540628 
C 101.984755 260.339372 102.699403 262.064686 103.971307 263.33659 
C 105.243211 264.608494 106.968525 265.323143 108.767269 265.323143 
z
" style="fill:#29798e;"/>
    <path clip-path="url(#pf00f0400a9)" d="M 95.553866 62.938231 
C 97.544489 62.938231 99.453849 62.147348 100.861432 60.739765 
C 102.269015 59.332182 103.059898 57.422822 103.059898 55.432199 
C 103.059898 53.441576 102.269015 51.532215 100.861432 50.124632 
C 99.453849 48.717049 97.544489 47.926166 95.553866 47.926166 
C 93.563242 47.926166 91.653882 48.717049 90.246299 50.124632 
C 88.838716 51.532215 88.047833 53.441576 88.047833 55.432199 
C 88.047833 57.422822 88.838716 59.332182 90.246299 60.739765 
C 91.653882 62.147348 93.563242 62.938231 95.553866 62.938231 
z
" style="fill:#481c6e;"/>
    <path clip-path="url(#pf00f0400a9)" d="M 222.755011 255.59535 
C 224.699413 255.59535 226.564438 254.822831 227.939338 253.447932 
C 229.314237 252.073032 230.086756 250.208007 230.086756 248.263605 
C 230.086756 246.319204 229.314237 244.454178 227.939338 243.079278 
C 226.564438 241.704379 224.699413 240.93186 222.755011 240.93186 
C 220.81061 240.93186 218.945584 241.704379 217.570685 243.079278 
C 216.195785 244.454178 215.423266 246.319204 215.423266 248.263605 
C 215.423266 250.208007 216.195785 252.073032 217.570685 253.447932 
C 218.945584 254.822831 220.81061 255.59535 222.755011 255.59535 
z
" style="fill:#46075a;"/>
    <path clip-path="url(#pf00f0400a9)" d="M 258.173004 124.01615 
C 260.240679 124.01615 262.223945 123.194654 263.686012 121.732587 
C 265.14808 120.27052 265.969576 118.287253 265.969576 116.219578 
C 265.969576 114.151903 265.14808 112.168636 263.686012 110.706569 
C 262.223945 109.244502 260.240679 108.423006 258.173004 108.423006 
C 256.105328 108.423006 254.122062 109.244502 252.659995 110.706569 
C 251.197927 112.168636 250.376431 114.151903 250.376431 116.219578 
C 250.376431 118.287253 251.197927 120.27052 252.659995 121.732587 
C 254.122062 123.194654 256.105328 124.01615 258.173004 124.01615 
z
" style="fill:#450559;"/>
    <path clip-path="url(#pf00f0400a9)" d="M 274.958353 146.726394 
C 277.026153 146.726394 279.00954 145.904849 280.471696 144.442693 
C 281.933851 142.980537 282.755397 140.99715 282.755397 138.92935 
C 282.755397 136.86155 281.933851 134.878163 280.471696 133.416007 
C 279.00954 131.953851 277.026153 131.132306 274.958353 131.132306 
C 272.890553 131.132306 270.907166 131.953851 269.44501 133.416007 
C 267.982854 134.878163 267.161308 136.86155 267.161308 138.92935 
C 267.161308 140.99715 267.982854 142.980537 269.44501 144.442693 
C 270.907166 145.904849 272.890553 146.726394 274.958353 146.726394 
z
" style="fill:#471365;"/>
    <path clip-path="url(#pf00f0400a9)" d="M 239.138482 103.259316 
C 241.204467 103.259316 243.186114 102.438491 244.646987 100.977618 
C 246.107859 99.516746 246.928684 97.535099 246.928684 95.469113 
C 246.928684 93.403127 246.107859 91.421481 244.646987 89.960608 
C 243.186114 88.499735 241.204467 87.678911 239.138482 87.678911 
C 237.072496 87.678911 235.090849 88.499735 233.629976 89.960608 
C 232.169104 91.421481 231.348279 93.403127 231.348279 95.469113 
C 231.348279 97.535099 232.169104 99.516746 233.629976 100.977618 
C 235.090849 102.438491 237.072496 103.259316 239.138482 103.259316 
z
" style="fill:#460b5e;"/>
    <path clip-path="url(#pf00f0400a9)" d="M 193.434126 78.328027 
C 195.483075 78.328027 197.448381 77.51397 198.897207 76.065144 
C 200.346033 74.616318 201.160089 72.651013 201.160089 70.602063 
C 201.160089 68.553114 200.346033 66.587808 198.897207 65.138982 
C 197.448381 63.690156 195.483075 62.8761 193.434126 62.8761 
C 191.385177 62.8761 189.419871 63.690156 187.971045 65.138982 
C 186.522219 66.587808 185.708163 68.553114 185.708163 70.602063 
C 185.708163 72.651013 186.522219 74.616318 187.971045 76.065144 
C 189.419871 77.51397 191.385177 78.328027 193.434126 78.328027 
z
" style="fill:#46075a;"/>
    <path clip-path="url(#pf00f0400a9)" d="M 305.573657 201.103252 
C 307.639844 201.103252 309.621684 200.282347 311.082698 198.821333 
C 312.543713 197.360318 313.364618 195.378479 313.364618 193.312292 
C 313.364618 191.246105 312.543713 189.264266 311.082698 187.803251 
C 309.621684 186.342236 307.639844 185.521331 305.573657 185.521331 
C 303.507471 185.521331 301.525631 186.342236 300.064617 187.803251 
C 298.603602 189.264266 297.782697 191.246105 297.782697 193.312292 
C 297.782697 195.378479 298.603602 197.360318 300.064617 198.821333 
C 301.525631 200.282347 303.507471 201.103252 305.573657 201.103252 
z
" style="fill:#482475;"/>
    <path clip-path="url(#pf00f0400a9)" d="M 262.841078 227.6608 
C 264.843884 227.6608 266.764931 226.865076 268.181129 225.448878 
C 269.597327 224.03268 270.39305 222.111634 270.39305 220.108828 
C 270.39305 218.106021 269.597327 216.184975 268.181129 214.768777 
C 266.764931 213.352579 264.843884 212.556856 262.841078 212.556856 
C 260.838272 212.556856 258.917225 213.352579 257.501027 214.768777 
C 256.084829 216.184975 255.289106 218.106021 255.289106 220.108828 
C 255.289106 222.111634 256.084829 224.03268 257.501027 225.448878 
C 258.917225 226.865076 260.838272 227.6608 262.841078 227.6608 
z
" style="fill:#481668;"/>
    <path clip-path="url(#pf00f0400a9)" d="M 89.421499 285.389683 
C 91.179398 285.389683 92.865536 284.691262 94.108559 283.448239 
C 95.351582 282.205216 96.050003 280.519079 96.050003 278.761179 
C 96.050003 277.003279 95.351582 275.317142 94.108559 274.074119 
C 92.865536 272.831096 91.179398 272.132675 89.421499 272.132675 
C 87.663599 272.132675 85.977461 272.831096 84.734439 274.074119 
C 83.491416 275.317142 82.792995 277.003279 82.792995 278.761179 
C 82.792995 280.519079 83.491416 282.205216 84.734439 283.448239 
C 85.977461 284.691262 87.663599 285.389683 89.421499 285.389683 
z
" style="fill:#1f9e89;"/>
   </g>
   <g id="text_1">
    <!-- Structure #6875, $E_N$=-176.24eV, ΔE=-0.31eV -->
    <defs>
     <path d="M 53.515625 70.515625 
L 53.515625 60.890625 
Q 47.90625 63.578125 42.921875 64.890625 
Q 37.9375 66.21875 33.296875 66.21875 
Q 25.25 66.21875 20.875 63.09375 
Q 16.5 59.96875 16.5 54.203125 
Q 16.5 49.359375 19.40625 46.890625 
Q 22.3125 44.4375 30.421875 42.921875 
L 36.375 41.703125 
Q 47.40625 39.59375 52.65625 34.296875 
Q 57.90625 29 57.90625 20.125 
Q 57.90625 9.515625 50.796875 4.046875 
Q 43.703125 -1.421875 29.984375 -1.421875 
Q 24.8125 -1.421875 18.96875 -0.25 
Q 13.140625 0.921875 6.890625 3.21875 
L 6.890625 13.375 
Q 12.890625 10.015625 18.65625 8.296875 
Q 24.421875 6.59375 29.984375 6.59375 
Q 38.421875 6.59375 43.015625 9.90625 
Q 47.609375 13.234375 47.609375 19.390625 
Q 47.609375 24.75 44.3125 27.78125 
Q 41.015625 30.8125 33.5 32.328125 
L 27.484375 33.5 
Q 16.453125 35.6875 11.515625 40.375 
Q 6.59375 45.0625 6.59375 53.421875 
Q 6.59375 63.09375 13.40625 68.65625 
Q 20.21875 74.21875 32.171875 74.21875 
Q 37.3125 74.21875 42.625 73.28125 
Q 47.953125 72.359375 53.515625 70.515625 
z
" id="DejaVuSans-53"/>
     <path d="M 18.3125 70.21875 
L 18.3125 54.6875 
L 36.8125 54.6875 
L 36.8125 47.703125 
L 18.3125 47.703125 
L 18.3125 18.015625 
Q 18.3125 11.328125 20.140625 9.421875 
Q 21.96875 7.515625 27.59375 7.515625 
L 36.8125 7.515625 
L 36.8125 0 
L 27.59375 0 
Q 17.1875 0 13.234375 3.875 
Q 9.28125 7.765625 9.28125 18.015625 
L 9.28125 47.703125 
L 2.6875 47.703125 
L 2.6875 54.6875 
L 9.28125 54.6875 
L 9.28125 70.21875 
z
" id="DejaVuSans-74"/>
     <path d="M 41.109375 46.296875 
Q 39.59375 47.171875 37.8125 47.578125 
Q 36.03125 48 33.890625 48 
Q 26.265625 48 22.1875 43.046875 
Q 18.109375 38.09375 18.109375 28.8125 
L 18.109375 0 
L 9.078125 0 
L 9.078125 54.6875 
L 18.109375 54.6875 
L 18.109375 46.1875 
Q 20.953125 51.171875 25.484375 53.578125 
Q 30.03125 56 36.53125 56 
Q 37.453125 56 38.578125 55.875 
Q 39.703125 55.765625 41.0625 55.515625 
z
" id="DejaVuSans-72"/>
     <path d="M 8.5 21.578125 
L 8.5 54.6875 
L 17.484375 54.6875 
L 17.484375 21.921875 
Q 17.484375 14.15625 20.5 10.265625 
Q 23.53125 6.390625 29.59375 6.390625 
Q 36.859375 6.390625 41.078125 11.03125 
Q 45.3125 15.671875 45.3125 23.6875 
L 45.3125 54.6875 
L 54.296875 54.6875 
L 54.296875 0 
L 45.3125 0 
L 45.3125 8.40625 
Q 42.046875 3.421875 37.71875 1 
Q 33.40625 -1.421875 27.6875 -1.421875 
Q 18.265625 -1.421875 13.375 4.4375 
Q 8.5 10.296875 8.5 21.578125 
z
M 31.109375 56 
z
" id="DejaVuSans-75"/>
     <path d="M 48.78125 52.59375 
L 48.78125 44.1875 
Q 44.96875 46.296875 41.140625 47.34375 
Q 37.3125 48.390625 33.40625 48.390625 
Q 24.65625 48.390625 19.8125 42.84375 
Q 14.984375 37.3125 14.984375 27.296875 
Q 14.984375 17.28125 19.8125 11.734375 
Q 24.65625 6.203125 33.40625 6.203125 
Q 37.3125 6.203125 41.140625 7.25 
Q 44.96875 8.296875 48.78125 10.40625 
L 48.78125 2.09375 
Q 45.015625 0.34375 40.984375 -0.53125 
Q 36.96875 -1.421875 32.421875 -1.421875 
Q 20.0625 -1.421875 12.78125 6.34375 
Q 5.515625 14.109375 5.515625 27.296875 
Q 5.515625 40.671875 12.859375 48.328125 
Q 20.21875 56 33.015625 56 
Q 37.15625 56 41.109375 55.140625 
Q 45.0625 54.296875 48.78125 52.59375 
z
" id="DejaVuSans-63"/>
     <path d="M 56.203125 29.59375 
L 56.203125 25.203125 
L 14.890625 25.203125 
Q 15.484375 15.921875 20.484375 11.0625 
Q 25.484375 6.203125 34.421875 6.203125 
Q 39.59375 6.203125 44.453125 7.46875 
Q 49.3125 8.734375 54.109375 11.28125 
L 54.109375 2.78125 
Q 49.265625 0.734375 44.1875 -0.34375 
Q 39.109375 -1.421875 33.890625 -1.421875 
Q 20.796875 -1.421875 13.15625 6.1875 
Q 5.515625 13.8125 5.515625 26.8125 
Q 5.515625 40.234375 12.765625 48.109375 
Q 20.015625 56 32.328125 56 
Q 43.359375 56 49.78125 48.890625 
Q 56.203125 41.796875 56.203125 29.59375 
z
M 47.21875 32.234375 
Q 47.125 39.59375 43.09375 43.984375 
Q 39.0625 48.390625 32.421875 48.390625 
Q 24.90625 48.390625 20.390625 44.140625 
Q 15.875 39.890625 15.1875 32.171875 
z
" id="DejaVuSans-65"/>
     <path id="DejaVuSans-20"/>
     <path d="M 51.125 44 
L 36.921875 44 
L 32.8125 27.6875 
L 47.125 27.6875 
z
M 43.796875 71.78125 
L 38.71875 51.515625 
L 52.984375 51.515625 
L 58.109375 71.78125 
L 65.921875 71.78125 
L 60.890625 51.515625 
L 76.125 51.515625 
L 76.125 44 
L 58.984375 44 
L 54.984375 27.6875 
L 70.515625 27.6875 
L 70.515625 20.21875 
L 53.078125 20.21875 
L 48 0 
L 40.1875 0 
L 45.21875 20.21875 
L 30.90625 20.21875 
L 25.875 0 
L 18.015625 0 
L 23.09375 20.21875 
L 7.71875 20.21875 
L 7.71875 27.6875 
L 24.90625 27.6875 
L 29 44 
L 13.28125 44 
L 13.28125 51.515625 
L 30.90625 51.515625 
L 35.890625 71.78125 
z
" id="DejaVuSans-23"/>
     <path d="M 33.015625 40.375 
Q 26.375 40.375 22.484375 35.828125 
Q 18.609375 31.296875 18.609375 23.390625 
Q 18.609375 15.53125 22.484375 10.953125 
Q 26.375 6.390625 33.015625 6.390625 
Q 39.65625 6.390625 43.53125 10.953125 
Q 47.40625 15.53125 47.40625 23.390625 
Q 47.40625 31.296875 43.53125 35.828125 
Q 39.65625 40.375 33.015625 40.375 
z
M 52.59375 71.296875 
L 52.59375 62.3125 
Q 48.875 64.0625 45.09375 64.984375 
Q 41.3125 65.921875 37.59375 65.921875 
Q 27.828125 65.921875 22.671875 59.328125 
Q 17.53125 52.734375 16.796875 39.40625 
Q 19.671875 43.65625 24.015625 45.921875 
Q 28.375 48.1875 33.59375 48.1875 
Q 44.578125 48.1875 50.953125 41.515625 
Q 57.328125 34.859375 57.328125 23.390625 
Q 57.328125 12.15625 50.6875 5.359375 
Q 44.046875 -1.421875 33.015625 -1.421875 
Q 20.359375 -1.421875 13.671875 8.265625 
Q 6.984375 17.96875 6.984375 36.375 
Q 6.984375 53.65625 15.1875 63.9375 
Q 23.390625 74.21875 37.203125 74.21875 
Q 40.921875 74.21875 44.703125 73.484375 
Q 48.484375 72.75 52.59375 71.296875 
z
" id="DejaVuSans-36"/>
     <path d="M 31.78125 34.625 
Q 24.75 34.625 20.71875 30.859375 
Q 16.703125 27.09375 16.703125 20.515625 
Q 16.703125 13.921875 20.71875 10.15625 
Q 24.75 6.390625 31.78125 6.390625 
Q 38.8125 6.390625 42.859375 10.171875 
Q 46.921875 13.96875 46.921875 20.515625 
Q 46.921875 27.09375 42.890625 30.859375 
Q 38.875 34.625 31.78125 34.625 
z
M 21.921875 38.8125 
Q 15.578125 40.375 12.03125 44.71875 
Q 8.5 49.078125 8.5 55.328125 
Q 8.5 64.0625 14.71875 69.140625 
Q 20.953125 74.21875 31.78125 74.21875 
Q 42.671875 74.21875 48.875 69.140625 
Q 55.078125 64.0625 55.078125 55.328125 
Q 55.078125 49.078125 51.53125 44.71875 
Q 48 40.375 41.703125 38.8125 
Q 48.828125 37.15625 52.796875 32.3125 
Q 56.78125 27.484375 56.78125 20.515625 
Q 56.78125 9.90625 50.3125 4.234375 
Q 43.84375 -1.421875 31.78125 -1.421875 
Q 19.734375 -1.421875 13.25 4.234375 
Q 6.78125 9.90625 6.78125 20.515625 
Q 6.78125 27.484375 10.78125 32.3125 
Q 14.796875 37.15625 21.921875 38.8125 
z
M 18.3125 54.390625 
Q 18.3125 48.734375 21.84375 45.5625 
Q 25.390625 42.390625 31.78125 42.390625 
Q 38.140625 42.390625 41.71875 45.5625 
Q 45.3125 48.734375 45.3125 54.390625 
Q 45.3125 60.0625 41.71875 63.234375 
Q 38.140625 66.40625 31.78125 66.40625 
Q 25.390625 66.40625 21.84375 63.234375 
Q 18.3125 60.0625 18.3125 54.390625 
z
" id="DejaVuSans-38"/>
     <path d="M 8.203125 72.90625 
L 55.078125 72.90625 
L 55.078125 68.703125 
L 28.609375 0 
L 18.3125 0 
L 43.21875 64.59375 
L 8.203125 64.59375 
z
" id="DejaVuSans-37"/>
     <path d="M 10.796875 72.90625 
L 49.515625 72.90625 
L 49.515625 64.59375 
L 19.828125 64.59375 
L 19.828125 46.734375 
Q 21.96875 47.46875 24.109375 47.828125 
Q 26.265625 48.1875 28.421875 48.1875 
Q 40.625 48.1875 47.75 41.5 
Q 54.890625 34.8125 54.890625 23.390625 
Q 54.890625 11.625 47.5625 5.09375 
Q 40.234375 -1.421875 26.90625 -1.421875 
Q 22.3125 -1.421875 17.546875 -0.640625 
Q 12.796875 0.140625 7.71875 1.703125 
L 7.71875 11.625 
Q 12.109375 9.234375 16.796875 8.0625 
Q 21.484375 6.890625 26.703125 6.890625 
Q 35.15625 6.890625 40.078125 11.328125 
Q 45.015625 15.765625 45.015625 23.390625 
Q 45.015625 31 40.078125 35.4375 
Q 35.15625 39.890625 26.703125 39.890625 
Q 22.75 39.890625 18.8125 39.015625 
Q 14.890625 38.140625 10.796875 36.28125 
z
" id="DejaVuSans-35"/>
     <path d="M 11.71875 12.40625 
L 22.015625 12.40625 
L 22.015625 4 
L 14.015625 -11.625 
L 7.71875 -11.625 
L 11.71875 4 
z
" id="DejaVuSans-2c"/>
     <path d="M 16.890625 72.90625 
L 62.984375 72.90625 
L 61.375 64.59375 
L 25.09375 64.59375 
L 20.90625 43.015625 
L 55.71875 43.015625 
L 54.109375 34.71875 
L 19.28125 34.71875 
L 14.203125 8.296875 
L 51.3125 8.296875 
L 49.703125 0 
L 2.6875 0 
z
" id="DejaVuSans-Oblique-45"/>
     <path d="M 16.890625 72.90625 
L 30.171875 72.90625 
L 50.296875 10.40625 
L 62.5 72.90625 
L 72.125 72.90625 
L 57.90625 0 
L 44.578125 0 
L 24.515625 62.890625 
L 12.3125 0 
L 2.6875 0 
z
" id="DejaVuSans-Oblique-4e"/>
     <path d="M 10.59375 45.40625 
L 73.1875 45.40625 
L 73.1875 37.203125 
L 10.59375 37.203125 
z
M 10.59375 25.484375 
L 73.1875 25.484375 
L 73.1875 17.1875 
L 10.59375 17.1875 
z
" id="DejaVuSans-3d"/>
     <path d="M 4.890625 31.390625 
L 31.203125 31.390625 
L 31.203125 23.390625 
L 4.890625 23.390625 
z
" id="DejaVuSans-2d"/>
     <path d="M 12.40625 8.296875 
L 28.515625 8.296875 
L 28.515625 63.921875 
L 10.984375 60.40625 
L 10.984375 69.390625 
L 28.421875 72.90625 
L 38.28125 72.90625 
L 38.28125 8.296875 
L 54.390625 8.296875 
L 54.390625 0 
L 12.40625 0 
z
" id="DejaVuSans-31"/>
     <path d="M 10.6875 12.40625 
L 21 12.40625 
L 21 0 
L 10.6875 0 
z
" id="DejaVuSans-2e"/>
     <path d="M 19.1875 8.296875 
L 53.609375 8.296875 
L 53.609375 0 
L 7.328125 0 
L 7.328125 8.296875 
Q 12.9375 14.109375 22.625 23.890625 
Q 32.328125 33.6875 34.8125 36.53125 
Q 39.546875 41.84375 41.421875 45.53125 
Q 43.3125 49.21875 43.3125 52.78125 
Q 43.3125 58.59375 39.234375 62.25 
Q 35.15625 65.921875 28.609375 65.921875 
Q 23.96875 65.921875 18.8125 64.3125 
Q 13.671875 62.703125 7.8125 59.421875 
L 7.8125 69.390625 
Q 13.765625 71.78125 18.9375 73 
Q 24.125 74.21875 28.421875 74.21875 
Q 39.75 74.21875 46.484375 68.546875 
Q 53.21875 62.890625 53.21875 53.421875 
Q 53.21875 48.921875 51.53125 44.890625 
Q 49.859375 40.875 45.40625 35.40625 
Q 44.1875 33.984375 37.640625 27.21875 
Q 31.109375 20.453125 19.1875 8.296875 
z
" id="DejaVuSans-32"/>
     <path d="M 37.796875 64.3125 
L 12.890625 25.390625 
L 37.796875 25.390625 
z
M 35.203125 72.90625 
L 47.609375 72.90625 
L 47.609375 25.390625 
L 58.015625 25.390625 
L 58.015625 17.1875 
L 47.609375 17.1875 
L 47.609375 0 
L 37.796875 0 
L 37.796875 17.1875 
L 4.890625 17.1875 
L 4.890625 26.703125 
z
" id="DejaVuSans-34"/>
     <path d="M 28.609375 0 
L 0.78125 72.90625 
L 11.078125 72.90625 
L 34.1875 11.53125 
L 57.328125 72.90625 
L 67.578125 72.90625 
L 39.796875 0 
z
" id="DejaVuSans-56"/>
     <path d="M 34.1875 63.1875 
L 14.15625 8.203125 
L 54.25 8.203125 
z
M 0.78125 0 
L 28.609375 72.90625 
L 39.796875 72.90625 
L 67.578125 0 
z
" id="DejaVuSans-394"/>
     <path d="M 9.8125 72.90625 
L 55.90625 72.90625 
L 55.90625 64.59375 
L 19.671875 64.59375 
L 19.671875 43.015625 
L 54.390625 43.015625 
L 54.390625 34.71875 
L 19.671875 34.71875 
L 19.671875 8.296875 
L 56.78125 8.296875 
L 56.78125 0 
L 9.8125 0 
z
" id="DejaVuSans-45"/>
     <path d="M 31.78125 66.40625 
Q 24.171875 66.40625 20.328125 58.90625 
Q 16.5 51.421875 16.5 36.375 
Q 16.5 21.390625 20.328125 13.890625 
Q 24.171875 6.390625 31.78125 6.390625 
Q 39.453125 6.390625 43.28125 13.890625 
Q 47.125 21.390625 47.125 36.375 
Q 47.125 51.421875 43.28125 58.90625 
Q 39.453125 66.40625 31.78125 66.40625 
z
M 31.78125 74.21875 
Q 44.046875 74.21875 50.515625 64.515625 
Q 56.984375 54.828125 56.984375 36.375 
Q 56.984375 17.96875 50.515625 8.265625 
Q 44.046875 -1.421875 31.78125 -1.421875 
Q 19.53125 -1.421875 13.0625 8.265625 
Q 6.59375 17.96875 6.59375 36.375 
Q 6.59375 54.828125 13.0625 64.515625 
Q 19.53125 74.21875 31.78125 74.21875 
z
" id="DejaVuSans-30"/>
     <path d="M 40.578125 39.3125 
Q 47.65625 37.796875 51.625 33 
Q 55.609375 28.21875 55.609375 21.1875 
Q 55.609375 10.40625 48.1875 4.484375 
Q 40.765625 -1.421875 27.09375 -1.421875 
Q 22.515625 -1.421875 17.65625 -0.515625 
Q 12.796875 0.390625 7.625 2.203125 
L 7.625 11.71875 
Q 11.71875 9.328125 16.59375 8.109375 
Q 21.484375 6.890625 26.8125 6.890625 
Q 36.078125 6.890625 40.9375 10.546875 
Q 45.796875 14.203125 45.796875 21.1875 
Q 45.796875 27.640625 41.28125 31.265625 
Q 36.765625 34.90625 28.71875 34.90625 
L 20.21875 34.90625 
L 20.21875 43.015625 
L 29.109375 43.015625 
Q 36.375 43.015625 40.234375 45.921875 
Q 44.09375 48.828125 44.09375 54.296875 
Q 44.09375 59.90625 40.109375 62.90625 
Q 36.140625 65.921875 28.71875 65.921875 
Q 24.65625 65.921875 20.015625 65.03125 
Q 15.375 64.15625 9.8125 62.3125 
L 9.8125 71.09375 
Q 15.4375 72.65625 20.34375 73.4375 
Q 25.25 74.21875 29.59375 74.21875 
Q 40.828125 74.21875 47.359375 69.109375 
Q 53.90625 64.015625 53.90625 55.328125 
Q 53.90625 49.265625 50.4375 45.09375 
Q 46.96875 40.921875 40.578125 39.3125 
z
" id="DejaVuSans-33"/>
    </defs>
    <g transform="translate(63.228 35.472)scale(0.12 -0.12)">
     <use transform="translate(0 0.78125)" xlink:href="#DejaVuSans-53"/>
     <use transform="translate(63.476562 0.78125)" xlink:href="#DejaVuSans-74"/>
     <use transform="translate(102.685547 0.78125)" xlink:href="#DejaVuSans-72"/>
     <use transform="translate(143.798828 0.78125)" xlink:href="#DejaVuSans-75"/>
     <use transform="translate(207.177734 0.78125)" xlink:href="#DejaVuSans-63"/>
     <use transform="translate(262.158203 0.78125)" xlink:href="#DejaVuSans-74"/>
     <use transform="translate(301.367188 0.78125)" xlink:href="#DejaVuSans-75"/>
     <use transform="translate(364.746094 0.78125)" xlink:href="#DejaVuSans-72"/>
     <use transform="translate(405.859375 0.78125)" xlink:href="#DejaVuSans-65"/>
     <use transform="translate(467.382812 0.78125)" xlink:href="#DejaVuSans-20"/>
     <use transform="translate(499.169922 0.78125)" xlink:href="#DejaVuSans-23"/>
     <use transform="translate(582.958984 0.78125)" xlink:href="#DejaVuSans-36"/>
     <use transform="translate(646.582031 0.78125)" xlink:href="#DejaVuSans-38"/>
     <use transform="translate(710.205078 0.78125)" xlink:href="#DejaVuSans-37"/>
     <use transform="translate(773.828125 0.78125)" xlink:href="#DejaVuSans-35"/>
     <use transform="translate(837.451172 0.78125)" xlink:href="#DejaVuSans-2c"/>
     <use transform="translate(869.238281 0.78125)" xlink:href="#DejaVuSans-20"/>
     <use transform="translate(901.025391 0.78125)" xlink:href="#DejaVuSans-Oblique-45"/>
     <use transform="translate(964.208984 -15.625)scale(0.7)" xlink:href="#DejaVuSans-Oblique-4e"/>
     <use transform="translate(1019.306641 0.78125)" xlink:href="#DejaVuSans-3d"/>
     <use transform="translate(1103.095703 0.78125)" xlink:href="#DejaVuSans-2d"/>
     <use transform="translate(1139.179688 0.78125)" xlink:href="#DejaVuSans-31"/>
     <use transform="translate(1202.802734 0.78125)" xlink:href="#DejaVuSans-37"/>
     <use transform="translate(1266.425781 0.78125)" xlink:href="#DejaVuSans-36"/>
     <use transform="translate(1330.048828 0.78125)" xlink:href="#DejaVuSans-2e"/>
     <use transform="translate(1361.757812 0.78125)" xlink:href="#DejaVuSans-32"/>
     <use transform="translate(1425.380859 0.78125)" xlink:href="#DejaVuSans-34"/>
     <use transform="translate(1489.003906 0.78125)" xlink:href="#DejaVuSans-65"/>
     <use transform="translate(1550.527344 0.78125)" xlink:href="#DejaVuSans-56"/>
     <use transform="translate(1618.935547 0.78125)" xlink:href="#DejaVuSans-2c"/>
     <use transform="translate(1650.722656 0.78125)" xlink:href="#DejaVuSans-20"/>
     <use transform="translate(1682.509766 0.78125)" xlink:href="#DejaVuSans-394"/>
     <use transform="translate(1750.917969 0.78125)" xlink:href="#DejaVuSans-45"/>
     <use transform="translate(1814.101562 0.78125)" xlink:href="#DejaVuSans-3d"/>
     <use transform="translate(1897.890625 0.78125)" xlink:href="#DejaVuSans-2d"/>
     <use transform="translate(1933.974609 0.78125)" xlink:href="#DejaVuSans-30"/>
     <use transform="translate(1997.597656 0.78125)" xlink:href="#DejaVuSans-2e"/>
     <use transform="translate(2029.384766 0.78125)" xlink:href="#DejaVuSans-33"/>
     <use transform="translate(2093.007812 0.78125)" xlink:href="#DejaVuSans-31"/>
     <use transform="translate(2156.630859 0.78125)" xlink:href="#DejaVuSans-65"/>
     <use transform="translate(2218.154297 0.78125)" xlink:href="#DejaVuSans-56"/>
    </g>
   </g>
  </g>
  <g id="axes_2">
   <g id="patch_2">
    <path clip-path="url(#pac2266bc93)" d="M 361.152 307.584 
L 361.152 306.5445 
L 361.152 42.5115 
L 361.152 41.472 
L 374.4576 41.472 
L 374.4576 42.5115 
L 374.4576 306.5445 
L 374.4576 307.584 
z
" style="fill:#ffffff;stroke:#ffffff;stroke-linejoin:miter;stroke-width:0.01;"/>
   </g>
   <image height="265.68" id="imagec8d885e1f3" transform="scale(1 -1)translate(0 -265.68)" width="12.96" x="361.44" xlink:href="data:image/png;base64,
iVBORw0KGgoAAAANSUhEUgAAABIAAAFxCAYAAAB+2fgXAAAABHNCSVQICAgIfAhkiAAAAeVJREFUeJztncmNw0AQA2ckheYQNv9QLIfQ8ygsCgQ7AEI8+jAs2Puz/94F1LP2ReCsZ18bAWIeZ5XaGRBE7VnbptG+KI101FYyNSiQG2oRITXKNaX9uclOdi2XWjftVE32CZCO2ou5Bj1TcCBr/1zB9ge7Fq0Rg2NM9pvbtG+ua1QgsRYhDy0ISEiNc40BEibbSI0Coj5CBGtkpFbXJiAjNZlrwhuSOv2M1DjXbEdEciBt1JSDDQKKpmZr2rr2j0DBGpXaWEJq3bQzEPIS26r9J+Wzv9Tm8o3aajRXqc3VUXsApKNWjeZq0x4ABVNbm7lrszVigDqP5vIl2+eaT2yfRkL7g+dRcNPqjohkjaCvRVBq0H2U3LQrOJCx9kdTg4B8oxZzzTdqdYHEngjUCAPyUctN9sVRq2sTECW2UKNLd2jVtRmo1A6AhMmWaSRcR8nUdIHUuVb75zJS218EyEitro1At69pIdeSk30Lkw0FktNImGyZRhy1O5galmxd03LUsHWk06jUZiCq+5Wb1kZNN4+wJxJuWt8RAW5am2sYNZ9rYCBzZ3buPKJ2P5Yj4Toy3keyIyJbIxs1rml1byCA84gpch5RQNB7Q0qNMGq2Hy4BXdNR41yz/cEEJfZzUz96r9PoB0okjeQ8y9TkAAAAAElFTkSuQmCC" y="-41.76"/>
   <g id="matplotlib.axis_1"/>
   <g id="matplotlib.axis_2">
    <g id="ytick_1">
     <g id="line2d_1">
      <defs>
       <path d="M 0 0 
L 3.5 0 
" id="m729566def9" style="stroke:#000000;stroke-width:0.8;"/>
      </defs>
      <g>
       <use style="stroke:#000000;stroke-width:0.8;" x="374.4576" xlink:href="#m729566def9" y="276.796506"/>
      </g>
     </g>
     <g id="text_2">
      <!-- −7.5 -->
      <defs>
       <path d="M 10.59375 35.5 
L 73.1875 35.5 
L 73.1875 27.203125 
L 10.59375 27.203125 
z
" id="DejaVuSans-2212"/>
      </defs>
      <g transform="translate(381.4576 280.595725)scale(0.1 -0.1)">
       <use xlink:href="#DejaVuSans-2212"/>
       <use x="83.789062" xlink:href="#DejaVuSans-37"/>
       <use x="147.412109" xlink:href="#DejaVuSans-2e"/>
       <use x="179.199219" xlink:href="#DejaVuSans-35"/>
      </g>
     </g>
    </g>
    <g id="ytick_2">
     <g id="line2d_2">
      <g>
       <use style="stroke:#000000;stroke-width:0.8;" x="374.4576" xlink:href="#m729566def9" y="234.067807"/>
      </g>
     </g>
     <g id="text_3">
      <!-- −7.0 -->
      <g transform="translate(381.4576 237.867026)scale(0.1 -0.1)">
       <use xlink:href="#DejaVuSans-2212"/>
       <use x="83.789062" xlink:href="#DejaVuSans-37"/>
       <use x="147.412109" xlink:href="#DejaVuSans-2e"/>
       <use x="179.199219" xlink:href="#DejaVuSans-30"/>
      </g>
     </g>
    </g>
    <g id="ytick_3">
     <g id="line2d_3">
      <g>
       <use style="stroke:#000000;stroke-width:0.8;" x="374.4576" xlink:href="#m729566def9" y="191.339108"/>
      </g>
     </g>
     <g id="text_4">
      <!-- −6.5 -->
      <g transform="translate(381.4576 195.138327)scale(0.1 -0.1)">
       <use xlink:href="#DejaVuSans-2212"/>
       <use x="83.789062" xlink:href="#DejaVuSans-36"/>
       <use x="147.412109" xlink:href="#DejaVuSans-2e"/>
       <use x="179.199219" xlink:href="#DejaVuSans-35"/>
      </g>
     </g>
    </g>
    <g id="ytick_4">
     <g id="line2d_4">
      <g>
       <use style="stroke:#000000;stroke-width:0.8;" x="374.4576" xlink:href="#m729566def9" y="148.610409"/>
      </g>
     </g>
     <g id="text_5">
      <!-- −6.0 -->
      <g transform="translate(381.4576 152.409628)scale(0.1 -0.1)">
       <use xlink:href="#DejaVuSans-2212"/>
       <use x="83.789062" xlink:href="#DejaVuSans-36"/>
       <use x="147.412109" xlink:href="#DejaVuSans-2e"/>
       <use x="179.199219" xlink:href="#DejaVuSans-30"/>
      </g>
     </g>
    </g>
    <g id="ytick_5">
     <g id="line2d_5">
      <g>
       <use style="stroke:#000000;stroke-width:0.8;" x="374.4576" xlink:href="#m729566def9" y="105.881711"/>
      </g>
     </g>
     <g id="text_6">
      <!-- −5.5 -->
      <g transform="translate(381.4576 109.680929)scale(0.1 -0.1)">
       <use xlink:href="#DejaVuSans-2212"/>
       <use x="83.789062" xlink:href="#DejaVuSans-35"/>
       <use x="147.412109" xlink:href="#DejaVuSans-2e"/>
       <use x="179.199219" xlink:href="#DejaVuSans-35"/>
      </g>
     </g>
    </g>
    <g id="ytick_6">
     <g id="line2d_6">
      <g>
       <use style="stroke:#000000;stroke-width:0.8;" x="374.4576" xlink:href="#m729566def9" y="63.153012"/>
      </g>
     </g>
     <g id="text_7">
      <!-- −5.0 -->
      <g transform="translate(381.4576 66.952231)scale(0.1 -0.1)">
       <use xlink:href="#DejaVuSans-2212"/>
       <use x="83.789062" xlink:href="#DejaVuSans-35"/>
       <use x="147.412109" xlink:href="#DejaVuSans-2e"/>
       <use x="179.199219" xlink:href="#DejaVuSans-30"/>
      </g>
     </g>
    </g>
    <g id="text_8">
     <!-- Energy [eV] -->
     <defs>
      <path d="M 54.890625 33.015625 
L 54.890625 0 
L 45.90625 0 
L 45.90625 32.71875 
Q 45.90625 40.484375 42.875 44.328125 
Q 39.84375 48.1875 33.796875 48.1875 
Q 26.515625 48.1875 22.3125 43.546875 
Q 18.109375 38.921875 18.109375 30.90625 
L 18.109375 0 
L 9.078125 0 
L 9.078125 54.6875 
L 18.109375 54.6875 
L 18.109375 46.1875 
Q 21.34375 51.125 25.703125 53.5625 
Q 30.078125 56 35.796875 56 
Q 45.21875 56 50.046875 50.171875 
Q 54.890625 44.34375 54.890625 33.015625 
z
" id="DejaVuSans-6e"/>
      <path d="M 45.40625 27.984375 
Q 45.40625 37.75 41.375 43.109375 
Q 37.359375 48.484375 30.078125 48.484375 
Q 22.859375 48.484375 18.828125 43.109375 
Q 14.796875 37.75 14.796875 27.984375 
Q 14.796875 18.265625 18.828125 12.890625 
Q 22.859375 7.515625 30.078125 7.515625 
Q 37.359375 7.515625 41.375 12.890625 
Q 45.40625 18.265625 45.40625 27.984375 
z
M 54.390625 6.78125 
Q 54.390625 -7.171875 48.1875 -13.984375 
Q 42 -20.796875 29.203125 -20.796875 
Q 24.46875 -20.796875 20.265625 -20.09375 
Q 16.0625 -19.390625 12.109375 -17.921875 
L 12.109375 -9.1875 
Q 16.0625 -11.328125 19.921875 -12.34375 
Q 23.78125 -13.375 27.78125 -13.375 
Q 36.625 -13.375 41.015625 -8.765625 
Q 45.40625 -4.15625 45.40625 5.171875 
L 45.40625 9.625 
Q 42.625 4.78125 38.28125 2.390625 
Q 33.9375 0 27.875 0 
Q 17.828125 0 11.671875 7.65625 
Q 5.515625 15.328125 5.515625 27.984375 
Q 5.515625 40.671875 11.671875 48.328125 
Q 17.828125 56 27.875 56 
Q 33.9375 56 38.28125 53.609375 
Q 42.625 51.21875 45.40625 46.390625 
L 45.40625 54.6875 
L 54.390625 54.6875 
z
" id="DejaVuSans-67"/>
      <path d="M 32.171875 -5.078125 
Q 28.375 -14.84375 24.75 -17.8125 
Q 21.140625 -20.796875 15.09375 -20.796875 
L 7.90625 -20.796875 
L 7.90625 -13.28125 
L 13.1875 -13.28125 
Q 16.890625 -13.28125 18.9375 -11.515625 
Q 21 -9.765625 23.484375 -3.21875 
L 25.09375 0.875 
L 2.984375 54.6875 
L 12.5 54.6875 
L 29.59375 11.921875 
L 46.6875 54.6875 
L 56.203125 54.6875 
z
" id="DejaVuSans-79"/>
      <path d="M 8.59375 75.984375 
L 29.296875 75.984375 
L 29.296875 69 
L 17.578125 69 
L 17.578125 -6.203125 
L 29.296875 -6.203125 
L 29.296875 -13.1875 
L 8.59375 -13.1875 
z
" id="DejaVuSans-5b"/>
      <path d="M 30.421875 75.984375 
L 30.421875 -13.1875 
L 9.71875 -13.1875 
L 9.71875 -6.203125 
L 21.390625 -6.203125 
L 21.390625 69 
L 9.71875 69 
L 9.71875 75.984375 
z
" id="DejaVuSans-5d"/>
     </defs>
     <g transform="translate(417.33885 204.108469)rotate(-90)scale(0.1 -0.1)">
      <use xlink:href="#DejaVuSans-45"/>
      <use x="63.183594" xlink:href="#DejaVuSans-6e"/>
      <use x="126.5625" xlink:href="#DejaVuSans-65"/>
      <use x="188.085938" xlink:href="#DejaVuSans-72"/>
      <use x="229.183594" xlink:href="#DejaVuSans-67"/>
      <use x="292.660156" xlink:href="#DejaVuSans-79"/>
      <use x="351.839844" xlink:href="#DejaVuSans-20"/>
      <use x="383.626953" xlink:href="#DejaVuSans-5b"/>
      <use x="422.640625" xlink:href="#DejaVuSans-65"/>
      <use x="484.164062" xlink:href="#DejaVuSans-56"/>
      <use x="552.572266" xlink:href="#DejaVuSans-5d"/>
     </g>
    </g>
   </g>
   <g id="patch_3">
    <path d="M 361.152 307.584 
L 361.152 306.5445 
L 361.152 42.5115 
L 361.152 41.472 
L 374.4576 41.472 
L 374.4576 42.5115 
L 374.4576 306.5445 
L 374.4576 307.584 
z
" style="fill:none;stroke:#000000;stroke-linejoin:miter;stroke-width:0.8;"/>
   </g>
  </g>
 </g>
 <defs>
  <clipPath id="pf00f0400a9">
   <rect height="266.112" width="285.696" x="57.6" y="41.472"/>
  </clipPath>
  <clipPath id="pac2266bc93">
   <rect height="266.112" width="13.3056" x="361.152" y="41.472"/>
  </clipPath>
 </defs>
</svg>
