<?xml version="1.0" encoding="utf-8" standalone="no"?>
<!DOCTYPE svg PUBLIC "-//W3C//DTD SVG 1.1//EN"
  "http://www.w3.org/Graphics/SVG/1.1/DTD/svg11.dtd">
<!-- Created with matplotlib (http://matplotlib.org/) -->
<svg height="345.6pt" version="1.1" viewBox="0 0 460.8 345.6" width="460.8pt" xmlns="http://www.w3.org/2000/svg" xmlns:xlink="http://www.w3.org/1999/xlink">
 <defs>
  <style type="text/css">
*{stroke-linecap:butt;stroke-linejoin:round;}
  </style>
 </defs>
 <g id="figure_1">
  <g id="patch_1">
   <path d="M 0 345.6 
L 460.8 345.6 
L 460.8 0 
L 0 0 
z
" style="fill:#ffffff;"/>
  </g>
  <g id="axes_1">
   <g id="CircleCollection_1">
    <path clip-path="url(#p14994520ca)" d="M 211.834557 302.241264 
C 213.764437 302.241264 215.615533 301.474515 216.980164 300.109884 
C 218.344795 298.745253 219.111544 296.894157 219.111544 294.964277 
C 219.111544 293.034398 218.344795 291.183301 216.980164 289.81867 
C 215.615533 288.45404 213.764437 287.68729 211.834557 287.68729 
C 209.904678 287.68729 208.053581 288.45404 206.68895 289.81867 
C 205.324319 291.183301 204.55757 293.034398 204.55757 294.964277 
C 204.55757 296.894157 205.324319 298.745253 206.68895 300.109884 
C 208.053581 301.474515 209.904678 302.241264 211.834557 302.241264 
z
" style="fill:#a8db34;"/>
    <path clip-path="url(#p14994520ca)" d="M 305.125289 186.254751 
C 306.797839 186.254751 308.40211 185.59024 309.584781 184.407569 
C 310.767453 183.224898 311.431964 181.620626 311.431964 179.948077 
C 311.431964 178.275527 310.767453 176.671256 309.584781 175.488584 
C 308.40211 174.305913 306.797839 173.641402 305.125289 173.641402 
C 303.45274 173.641402 301.848468 174.305913 300.665797 175.488584 
C 299.483126 176.671256 298.818615 178.275527 298.818615 179.948077 
C 298.818615 181.620626 299.483126 183.224898 300.665797 184.407569 
C 301.848468 185.59024 303.45274 186.254751 305.125289 186.254751 
z
" style="fill:#39558c;"/>
    <path clip-path="url(#p14994520ca)" d="M 207.353781 246.23534 
C 209.185789 246.23534 210.943009 245.507476 212.238434 244.212051 
C 213.533859 242.916626 214.261724 241.159405 214.261724 239.327398 
C 214.261724 237.49539 213.533859 235.73817 212.238434 234.442744 
C 210.943009 233.147319 209.185789 232.419455 207.353781 232.419455 
C 205.521773 232.419455 203.764553 233.147319 202.469128 234.442744 
C 201.173703 235.73817 200.445838 237.49539 200.445838 239.327398 
C 200.445838 241.159405 201.173703 242.916626 202.469128 244.212051 
C 203.764553 245.507476 205.521773 246.23534 207.353781 246.23534 
z
" style="fill:#471365;"/>
    <path clip-path="url(#p14994520ca)" d="M 168.463346 162.483869 
C 170.235301 162.483869 171.934921 161.779863 173.187882 160.526902 
C 174.440844 159.27394 175.144849 157.574321 175.144849 155.802365 
C 175.144849 154.03041 174.440844 152.330791 173.187882 151.077829 
C 171.934921 149.824867 170.235301 149.120862 168.463346 149.120862 
C 166.691391 149.120862 164.991771 149.824867 163.73881 151.077829 
C 162.485848 152.330791 161.781843 154.03041 161.781843 155.802365 
C 161.781843 157.574321 162.485848 159.27394 163.73881 160.526902 
C 164.991771 161.779863 166.691391 162.483869 168.463346 162.483869 
z
" style="fill:#20a386;"/>
    <path clip-path="url(#p14994520ca)" d="M 264.208557 206.731862 
C 266.049201 206.731862 267.814705 206.000566 269.116236 204.699035 
C 270.417768 203.397503 271.149063 201.632 271.149063 199.791356 
C 271.149063 197.950712 270.417768 196.185209 269.116236 194.883677 
C 267.814705 193.582145 266.049201 192.85085 264.208557 192.85085 
C 262.367914 192.85085 260.60241 193.582145 259.300879 194.883677 
C 257.999347 196.185209 257.268051 197.950712 257.268051 199.791356 
C 257.268051 201.632 257.999347 203.397503 259.300879 204.699035 
C 260.60241 206.000566 262.367914 206.731862 264.208557 206.731862 
z
" style="fill:#25ac82;"/>
    <path clip-path="url(#p14994520ca)" d="M 239.067568 168.489786 
C 240.780376 168.489786 242.423261 167.80928 243.634399 166.598142 
C 244.845537 165.387005 245.526043 163.744119 245.526043 162.031311 
C 245.526043 160.318504 244.845537 158.675618 243.634399 157.46448 
C 242.423261 156.253343 240.780376 155.572837 239.067568 155.572837 
C 237.354761 155.572837 235.711875 156.253343 234.500737 157.46448 
C 233.289599 158.675618 232.609094 160.318504 232.609094 162.031311 
C 232.609094 163.744119 233.289599 165.387005 234.500737 166.598142 
C 235.711875 167.80928 237.354761 168.489786 239.067568 168.489786 
z
" style="fill:#414487;"/>
    <path clip-path="url(#p14994520ca)" d="M 108.054362 236.61636 
C 109.820864 236.61636 111.515254 235.914521 112.76436 234.665414 
C 114.013466 233.416308 114.715305 231.721919 114.715305 229.955416 
C 114.715305 228.188913 114.013466 226.494524 112.76436 225.245418 
C 111.515254 223.996312 109.820864 223.294473 108.054362 223.294473 
C 106.287859 223.294473 104.59347 223.996312 103.344364 225.245418 
C 102.095257 226.494524 101.393418 228.188913 101.393418 229.955416 
C 101.393418 231.721919 102.095257 233.416308 103.344364 234.665414 
C 104.59347 235.914521 106.287859 236.61636 108.054362 236.61636 
z
" style="fill:#31b57b;"/>
    <path clip-path="url(#p14994520ca)" d="M 329.981185 197.245642 
C 331.59743 197.245642 333.147696 196.603501 334.290554 195.460643 
C 335.433412 194.317785 336.075554 192.767519 336.075554 191.151273 
C 336.075554 189.535028 335.433412 187.984762 334.290554 186.841904 
C 333.147696 185.699046 331.59743 185.056905 329.981185 185.056905 
C 328.364939 185.056905 326.814673 185.699046 325.671815 186.841904 
C 324.528957 187.984762 323.886816 189.535028 323.886816 191.151273 
C 323.886816 192.767519 324.528957 194.317785 325.671815 195.460643 
C 326.814673 196.603501 328.364939 197.245642 329.981185 197.245642 
z
" style="fill:#aadc32;"/>
    <path clip-path="url(#p14994520ca)" d="M 70.972989 235.069659 
C 72.875336 235.069659 74.700024 234.313849 76.045186 232.968686 
C 77.390349 231.623523 78.14616 229.798835 78.14616 227.896488 
C 78.14616 225.994141 77.390349 224.169453 76.045186 222.82429 
C 74.700024 221.479128 72.875336 220.723317 70.972989 220.723317 
C 69.070642 220.723317 67.245953 221.479128 65.900791 222.82429 
C 64.555628 224.169453 63.799818 225.994141 63.799818 227.896488 
C 63.799818 229.798835 64.555628 231.623523 65.900791 232.968686 
C 67.245953 234.313849 69.070642 235.069659 70.972989 235.069659 
z
" style="fill:#fde725;"/>
    <path clip-path="url(#p14994520ca)" d="M 142.109834 257.952089 
C 143.875942 257.952089 145.569953 257.250407 146.818779 256.00158 
C 148.067606 254.752753 148.769288 253.058743 148.769288 251.292635 
C 148.769288 249.526527 148.067606 247.832517 146.818779 246.58369 
C 145.569953 245.334864 143.875942 244.633182 142.109834 244.633182 
C 140.343727 244.633182 138.649716 245.334864 137.40089 246.58369 
C 136.152063 247.832517 135.450381 249.526527 135.450381 251.292635 
C 135.450381 253.058743 136.152063 254.752753 137.40089 256.00158 
C 138.649716 257.250407 140.343727 257.952089 142.109834 257.952089 
z
" style="fill:#20a486;"/>
    <path clip-path="url(#p14994520ca)" d="M 176.739427 60.684938 
C 178.500142 60.684938 180.188981 59.985398 181.433995 58.740384 
C 182.679009 57.49537 183.378549 55.806531 183.378549 54.045816 
C 183.378549 52.2851 182.679009 50.596262 181.433995 49.351248 
C 180.188981 48.106234 178.500142 47.406694 176.739427 47.406694 
C 174.978711 47.406694 173.289873 48.106234 172.044858 49.351248 
C 170.799844 50.596262 170.100305 52.2851 170.100305 54.045816 
C 170.100305 55.806531 170.799844 57.49537 172.044858 58.740384 
C 173.289873 59.985398 174.978711 60.684938 176.739427 60.684938 
z
" style="fill:#a2da37;"/>
    <path clip-path="url(#p14994520ca)" d="M 278.731528 175.617239 
C 280.457678 175.617239 282.113362 174.931433 283.333934 173.71086 
C 284.554506 172.490288 285.240313 170.834605 285.240313 169.108455 
C 285.240313 167.382305 284.554506 165.726621 283.333934 164.506049 
C 282.113362 163.285477 280.457678 162.59967 278.731528 162.59967 
C 277.005379 162.59967 275.349695 163.285477 274.129123 164.506049 
C 272.908551 165.726621 272.222744 167.382305 272.222744 169.108455 
C 272.222744 170.834605 272.908551 172.490288 274.129123 173.71086 
C 275.349695 174.931433 277.005379 175.617239 278.731528 175.617239 
z
" style="fill:#46337f;"/>
    <path clip-path="url(#p14994520ca)" d="M 179.955821 196.227102 
C 181.716294 196.227102 183.4049 195.527659 184.649742 194.282816 
C 185.894584 193.037974 186.594028 191.349369 186.594028 189.588896 
C 186.594028 187.828423 185.894584 186.139817 184.649742 184.894975 
C 183.4049 183.650133 181.716294 182.950689 179.955821 182.950689 
C 178.195349 182.950689 176.506743 183.650133 175.261901 184.894975 
C 174.017058 186.139817 173.317615 187.828423 173.317615 189.588896 
C 173.317615 191.349369 174.017058 193.037974 175.261901 194.282816 
C 176.506743 195.527659 178.195349 196.227102 179.955821 196.227102 
z
" style="fill:#481c6e;"/>
    <path clip-path="url(#p14994520ca)" d="M 274.878931 172.694243 
C 276.700554 172.694243 278.447814 171.970505 279.735896 170.682422 
C 281.023978 169.39434 281.747717 167.64708 281.747717 165.825457 
C 281.747717 164.003834 281.023978 162.256574 279.735896 160.968492 
C 278.447814 159.680409 276.700554 158.956671 274.878931 158.956671 
C 273.057307 158.956671 271.310047 159.680409 270.021965 160.968492 
C 268.733883 162.256574 268.010144 164.003834 268.010144 165.825457 
C 268.010144 167.64708 268.733883 169.39434 270.021965 170.682422 
C 271.310047 171.970505 273.057307 172.694243 274.878931 172.694243 
z
" style="fill:#46327e;"/>
    <path clip-path="url(#p14994520ca)" d="M 138.520099 242.909387 
C 140.367641 242.909387 142.139762 242.17535 143.446171 240.868941 
C 144.752581 239.562531 145.486617 237.790411 145.486617 235.942868 
C 145.486617 234.095326 144.752581 232.323206 143.446171 231.016796 
C 142.139762 229.710386 140.367641 228.97635 138.520099 228.97635 
C 136.672557 228.97635 134.900436 229.710386 133.594027 231.016796 
C 132.287617 232.323206 131.553581 234.095326 131.553581 235.942868 
C 131.553581 237.790411 132.287617 239.562531 133.594027 240.868941 
C 134.900436 242.17535 136.672557 242.909387 138.520099 242.909387 
z
" style="fill:#287c8e;"/>
    <path clip-path="url(#p14994520ca)" d="M 181.282392 94.976699 
C 183.050498 94.976699 184.746425 94.274223 185.996665 93.023983 
C 187.246905 91.773744 187.949381 90.077817 187.949381 88.309711 
C 187.949381 86.541605 187.246905 84.845678 185.996665 83.595438 
C 184.746425 82.345198 183.050498 81.642722 181.282392 81.642722 
C 179.514286 81.642722 177.81836 82.345198 176.56812 83.595438 
C 175.31788 84.845678 174.615404 86.541605 174.615404 88.309711 
C 174.615404 90.077817 175.31788 91.773744 176.56812 93.023983 
C 177.81836 94.274223 179.514286 94.976699 181.282392 94.976699 
z
" style="fill:#2d708e;"/>
    <path clip-path="url(#p14994520ca)" d="M 228.815116 139.729833 
C 230.587485 139.729833 232.287501 139.025663 233.540755 137.772409 
C 234.794009 136.519155 235.498179 134.819139 235.498179 133.04677 
C 235.498179 131.2744 234.794009 129.574384 233.540755 128.32113 
C 232.287501 127.067876 230.587485 126.363706 228.815116 126.363706 
C 227.042746 126.363706 225.34273 127.067876 224.089476 128.32113 
C 222.836222 129.574384 222.132052 131.2744 222.132052 133.04677 
C 222.132052 134.819139 222.836222 136.519155 224.089476 137.772409 
C 225.34273 139.025663 227.042746 139.729833 228.815116 139.729833 
z
" style="fill:#443a83;"/>
    <path clip-path="url(#p14994520ca)" d="M 188.597186 130.820809 
C 190.36822 130.820809 192.066955 130.11717 193.319265 128.86486 
C 194.571575 127.61255 195.275214 125.913815 195.275214 124.142781 
C 195.275214 122.371748 194.571575 120.673013 193.319265 119.420703 
C 192.066955 118.168393 190.36822 117.464754 188.597186 117.464754 
C 186.826153 117.464754 185.127418 118.168393 183.875108 119.420703 
C 182.622798 120.673013 181.919159 122.371748 181.919159 124.142781 
C 181.919159 125.913815 182.622798 127.61255 183.875108 128.86486 
C 185.127418 130.11717 186.826153 130.820809 188.597186 130.820809 
z
" style="fill:#440154;"/>
    <path clip-path="url(#p14994520ca)" d="M 101.34476 233.023215 
C 103.204379 233.023215 104.988083 232.284381 106.303032 230.969432 
C 107.617981 229.654483 108.356815 227.870779 108.356815 226.01116 
C 108.356815 224.151542 107.617981 222.367838 106.303032 221.052889 
C 104.988083 219.73794 103.204379 218.999106 101.34476 218.999106 
C 99.485142 218.999106 97.701438 219.73794 96.386489 221.052889 
C 95.07154 222.367838 94.332705 224.151542 94.332705 226.01116 
C 94.332705 227.870779 95.07154 229.654483 96.386489 230.969432 
C 97.701438 232.284381 99.485142 233.023215 101.34476 233.023215 
z
" style="fill:#423f85;"/>
    <path clip-path="url(#p14994520ca)" d="M 210.992293 274.593062 
C 212.874989 274.593062 214.680827 273.845059 216.012094 272.513792 
C 217.343361 271.182525 218.091364 269.376687 218.091364 267.493991 
C 218.091364 265.611296 217.343361 263.805457 216.012094 262.47419 
C 214.680827 261.142924 212.874989 260.394921 210.992293 260.394921 
C 209.109598 260.394921 207.303759 261.142924 205.972493 262.47419 
C 204.641226 263.805457 203.893223 265.611296 203.893223 267.493991 
C 203.893223 269.376687 204.641226 271.182525 205.972493 272.513792 
C 207.303759 273.845059 209.109598 274.593062 210.992293 274.593062 
z
" style="fill:#31678e;"/>
    <path clip-path="url(#p14994520ca)" d="M 171.67703 231.509609 
C 173.479203 231.509609 175.207807 230.793598 176.482136 229.519269 
C 177.756465 228.24494 178.472476 226.516336 178.472476 224.714163 
C 178.472476 222.91199 177.756465 221.183386 176.482136 219.909057 
C 175.207807 218.634728 173.479203 217.918717 171.67703 217.918717 
C 169.874857 217.918717 168.146253 218.634728 166.871924 219.909057 
C 165.597595 221.183386 164.881584 222.91199 164.881584 224.714163 
C 164.881584 226.516336 165.597595 228.24494 166.871924 229.519269 
C 168.146253 230.793598 169.874857 231.509609 171.67703 231.509609 
z
" style="fill:#46327e;"/>
    <path clip-path="url(#p14994520ca)" d="M 235.020953 221.908161 
C 236.821308 221.908161 238.548167 221.192873 239.821211 219.919829 
C 241.094254 218.646786 241.809543 216.919926 241.809543 215.119571 
C 241.809543 213.319216 241.094254 211.592357 239.821211 210.319314 
C 238.548167 209.04627 236.821308 208.330982 235.020953 208.330982 
C 233.220598 208.330982 231.493738 209.04627 230.220695 210.319314 
C 228.947652 211.592357 228.232363 213.319216 228.232363 215.119571 
C 228.232363 216.919926 228.947652 218.646786 230.220695 219.919829 
C 231.493738 221.192873 233.220598 221.908161 235.020953 221.908161 
z
" style="fill:#482374;"/>
    <path clip-path="url(#p14994520ca)" d="M 218.083458 198.249861 
C 219.817488 198.249861 221.48073 197.560923 222.706874 196.334779 
C 223.933019 195.108635 224.621956 193.445393 224.621956 191.711363 
C 224.621956 189.977333 223.933019 188.314091 222.706874 187.087947 
C 221.48073 185.861802 219.817488 185.172865 218.083458 185.172865 
C 216.349428 185.172865 214.686186 185.861802 213.460042 187.087947 
C 212.233898 188.314091 211.54496 189.977333 211.54496 191.711363 
C 211.54496 193.445393 212.233898 195.108635 213.460042 196.334779 
C 214.686186 197.560923 216.349428 198.249861 218.083458 198.249861 
z
" style="fill:#463480;"/>
    <path clip-path="url(#p14994520ca)" d="M 251.943769 142.066242 
C 253.783797 142.066242 255.548711 141.335191 256.849807 140.034095 
C 258.150904 138.732998 258.881955 136.968085 258.881955 135.128056 
C 258.881955 133.288028 258.150904 131.523115 256.849807 130.222018 
C 255.548711 128.920922 253.783797 128.189871 251.943769 128.189871 
C 250.103741 128.189871 248.338827 128.920922 247.037731 130.222018 
C 245.736634 131.523115 245.005583 133.288028 245.005583 135.128056 
C 245.005583 136.968085 245.736634 138.732998 247.037731 140.034095 
C 248.338827 141.335191 250.103741 142.066242 251.943769 142.066242 
z
" style="fill:#4ac16d;"/>
   </g>
   <g id="text_1">
    <!-- Structure #6725, $E_N$=-168.79eV, ΔE=0.40eV -->
    <defs>
     <path d="M 53.515625 70.515625 
L 53.515625 60.890625 
Q 47.90625 63.578125 42.921875 64.890625 
Q 37.9375 66.21875 33.296875 66.21875 
Q 25.25 66.21875 20.875 63.09375 
Q 16.5 59.96875 16.5 54.203125 
Q 16.5 49.359375 19.40625 46.890625 
Q 22.3125 44.4375 30.421875 42.921875 
L 36.375 41.703125 
Q 47.40625 39.59375 52.65625 34.296875 
Q 57.90625 29 57.90625 20.125 
Q 57.90625 9.515625 50.796875 4.046875 
Q 43.703125 -1.421875 29.984375 -1.421875 
Q 24.8125 -1.421875 18.96875 -0.25 
Q 13.140625 0.921875 6.890625 3.21875 
L 6.890625 13.375 
Q 12.890625 10.015625 18.65625 8.296875 
Q 24.421875 6.59375 29.984375 6.59375 
Q 38.421875 6.59375 43.015625 9.90625 
Q 47.609375 13.234375 47.609375 19.390625 
Q 47.609375 24.75 44.3125 27.78125 
Q 41.015625 30.8125 33.5 32.328125 
L 27.484375 33.5 
Q 16.453125 35.6875 11.515625 40.375 
Q 6.59375 45.0625 6.59375 53.421875 
Q 6.59375 63.09375 13.40625 68.65625 
Q 20.21875 74.21875 32.171875 74.21875 
Q 37.3125 74.21875 42.625 73.28125 
Q 47.953125 72.359375 53.515625 70.515625 
z
" id="DejaVuSans-53"/>
     <path d="M 18.3125 70.21875 
L 18.3125 54.6875 
L 36.8125 54.6875 
L 36.8125 47.703125 
L 18.3125 47.703125 
L 18.3125 18.015625 
Q 18.3125 11.328125 20.140625 9.421875 
Q 21.96875 7.515625 27.59375 7.515625 
L 36.8125 7.515625 
L 36.8125 0 
L 27.59375 0 
Q 17.1875 0 13.234375 3.875 
Q 9.28125 7.765625 9.28125 18.015625 
L 9.28125 47.703125 
L 2.6875 47.703125 
L 2.6875 54.6875 
L 9.28125 54.6875 
L 9.28125 70.21875 
z
" id="DejaVuSans-74"/>
     <path d="M 41.109375 46.296875 
Q 39.59375 47.171875 37.8125 47.578125 
Q 36.03125 48 33.890625 48 
Q 26.265625 48 22.1875 43.046875 
Q 18.109375 38.09375 18.109375 28.8125 
L 18.109375 0 
L 9.078125 0 
L 9.078125 54.6875 
L 18.109375 54.6875 
L 18.109375 46.1875 
Q 20.953125 51.171875 25.484375 53.578125 
Q 30.03125 56 36.53125 56 
Q 37.453125 56 38.578125 55.875 
Q 39.703125 55.765625 41.0625 55.515625 
z
" id="DejaVuSans-72"/>
     <path d="M 8.5 21.578125 
L 8.5 54.6875 
L 17.484375 54.6875 
L 17.484375 21.921875 
Q 17.484375 14.15625 20.5 10.265625 
Q 23.53125 6.390625 29.59375 6.390625 
Q 36.859375 6.390625 41.078125 11.03125 
Q 45.3125 15.671875 45.3125 23.6875 
L 45.3125 54.6875 
L 54.296875 54.6875 
L 54.296875 0 
L 45.3125 0 
L 45.3125 8.40625 
Q 42.046875 3.421875 37.71875 1 
Q 33.40625 -1.421875 27.6875 -1.421875 
Q 18.265625 -1.421875 13.375 4.4375 
Q 8.5 10.296875 8.5 21.578125 
z
M 31.109375 56 
z
" id="DejaVuSans-75"/>
     <path d="M 48.78125 52.59375 
L 48.78125 44.1875 
Q 44.96875 46.296875 41.140625 47.34375 
Q 37.3125 48.390625 33.40625 48.390625 
Q 24.65625 48.390625 19.8125 42.84375 
Q 14.984375 37.3125 14.984375 27.296875 
Q 14.984375 17.28125 19.8125 11.734375 
Q 24.65625 6.203125 33.40625 6.203125 
Q 37.3125 6.203125 41.140625 7.25 
Q 44.96875 8.296875 48.78125 10.40625 
L 48.78125 2.09375 
Q 45.015625 0.34375 40.984375 -0.53125 
Q 36.96875 -1.421875 32.421875 -1.421875 
Q 20.0625 -1.421875 12.78125 6.34375 
Q 5.515625 14.109375 5.515625 27.296875 
Q 5.515625 40.671875 12.859375 48.328125 
Q 20.21875 56 33.015625 56 
Q 37.15625 56 41.109375 55.140625 
Q 45.0625 54.296875 48.78125 52.59375 
z
" id="DejaVuSans-63"/>
     <path d="M 56.203125 29.59375 
L 56.203125 25.203125 
L 14.890625 25.203125 
Q 15.484375 15.921875 20.484375 11.0625 
Q 25.484375 6.203125 34.421875 6.203125 
Q 39.59375 6.203125 44.453125 7.46875 
Q 49.3125 8.734375 54.109375 11.28125 
L 54.109375 2.78125 
Q 49.265625 0.734375 44.1875 -0.34375 
Q 39.109375 -1.421875 33.890625 -1.421875 
Q 20.796875 -1.421875 13.15625 6.1875 
Q 5.515625 13.8125 5.515625 26.8125 
Q 5.515625 40.234375 12.765625 48.109375 
Q 20.015625 56 32.328125 56 
Q 43.359375 56 49.78125 48.890625 
Q 56.203125 41.796875 56.203125 29.59375 
z
M 47.21875 32.234375 
Q 47.125 39.59375 43.09375 43.984375 
Q 39.0625 48.390625 32.421875 48.390625 
Q 24.90625 48.390625 20.390625 44.140625 
Q 15.875 39.890625 15.1875 32.171875 
z
" id="DejaVuSans-65"/>
     <path id="DejaVuSans-20"/>
     <path d="M 51.125 44 
L 36.921875 44 
L 32.8125 27.6875 
L 47.125 27.6875 
z
M 43.796875 71.78125 
L 38.71875 51.515625 
L 52.984375 51.515625 
L 58.109375 71.78125 
L 65.921875 71.78125 
L 60.890625 51.515625 
L 76.125 51.515625 
L 76.125 44 
L 58.984375 44 
L 54.984375 27.6875 
L 70.515625 27.6875 
L 70.515625 20.21875 
L 53.078125 20.21875 
L 48 0 
L 40.1875 0 
L 45.21875 20.21875 
L 30.90625 20.21875 
L 25.875 0 
L 18.015625 0 
L 23.09375 20.21875 
L 7.71875 20.21875 
L 7.71875 27.6875 
L 24.90625 27.6875 
L 29 44 
L 13.28125 44 
L 13.28125 51.515625 
L 30.90625 51.515625 
L 35.890625 71.78125 
z
" id="DejaVuSans-23"/>
     <path d="M 33.015625 40.375 
Q 26.375 40.375 22.484375 35.828125 
Q 18.609375 31.296875 18.609375 23.390625 
Q 18.609375 15.53125 22.484375 10.953125 
Q 26.375 6.390625 33.015625 6.390625 
Q 39.65625 6.390625 43.53125 10.953125 
Q 47.40625 15.53125 47.40625 23.390625 
Q 47.40625 31.296875 43.53125 35.828125 
Q 39.65625 40.375 33.015625 40.375 
z
M 52.59375 71.296875 
L 52.59375 62.3125 
Q 48.875 64.0625 45.09375 64.984375 
Q 41.3125 65.921875 37.59375 65.921875 
Q 27.828125 65.921875 22.671875 59.328125 
Q 17.53125 52.734375 16.796875 39.40625 
Q 19.671875 43.65625 24.015625 45.921875 
Q 28.375 48.1875 33.59375 48.1875 
Q 44.578125 48.1875 50.953125 41.515625 
Q 57.328125 34.859375 57.328125 23.390625 
Q 57.328125 12.15625 50.6875 5.359375 
Q 44.046875 -1.421875 33.015625 -1.421875 
Q 20.359375 -1.421875 13.671875 8.265625 
Q 6.984375 17.96875 6.984375 36.375 
Q 6.984375 53.65625 15.1875 63.9375 
Q 23.390625 74.21875 37.203125 74.21875 
Q 40.921875 74.21875 44.703125 73.484375 
Q 48.484375 72.75 52.59375 71.296875 
z
" id="DejaVuSans-36"/>
     <path d="M 8.203125 72.90625 
L 55.078125 72.90625 
L 55.078125 68.703125 
L 28.609375 0 
L 18.3125 0 
L 43.21875 64.59375 
L 8.203125 64.59375 
z
" id="DejaVuSans-37"/>
     <path d="M 19.1875 8.296875 
L 53.609375 8.296875 
L 53.609375 0 
L 7.328125 0 
L 7.328125 8.296875 
Q 12.9375 14.109375 22.625 23.890625 
Q 32.328125 33.6875 34.8125 36.53125 
Q 39.546875 41.84375 41.421875 45.53125 
Q 43.3125 49.21875 43.3125 52.78125 
Q 43.3125 58.59375 39.234375 62.25 
Q 35.15625 65.921875 28.609375 65.921875 
Q 23.96875 65.921875 18.8125 64.3125 
Q 13.671875 62.703125 7.8125 59.421875 
L 7.8125 69.390625 
Q 13.765625 71.78125 18.9375 73 
Q 24.125 74.21875 28.421875 74.21875 
Q 39.75 74.21875 46.484375 68.546875 
Q 53.21875 62.890625 53.21875 53.421875 
Q 53.21875 48.921875 51.53125 44.890625 
Q 49.859375 40.875 45.40625 35.40625 
Q 44.1875 33.984375 37.640625 27.21875 
Q 31.109375 20.453125 19.1875 8.296875 
z
" id="DejaVuSans-32"/>
     <path d="M 10.796875 72.90625 
L 49.515625 72.90625 
L 49.515625 64.59375 
L 19.828125 64.59375 
L 19.828125 46.734375 
Q 21.96875 47.46875 24.109375 47.828125 
Q 26.265625 48.1875 28.421875 48.1875 
Q 40.625 48.1875 47.75 41.5 
Q 54.890625 34.8125 54.890625 23.390625 
Q 54.890625 11.625 47.5625 5.09375 
Q 40.234375 -1.421875 26.90625 -1.421875 
Q 22.3125 -1.421875 17.546875 -0.640625 
Q 12.796875 0.140625 7.71875 1.703125 
L 7.71875 11.625 
Q 12.109375 9.234375 16.796875 8.0625 
Q 21.484375 6.890625 26.703125 6.890625 
Q 35.15625 6.890625 40.078125 11.328125 
Q 45.015625 15.765625 45.015625 23.390625 
Q 45.015625 31 40.078125 35.4375 
Q 35.15625 39.890625 26.703125 39.890625 
Q 22.75 39.890625 18.8125 39.015625 
Q 14.890625 38.140625 10.796875 36.28125 
z
" id="DejaVuSans-35"/>
     <path d="M 11.71875 12.40625 
L 22.015625 12.40625 
L 22.015625 4 
L 14.015625 -11.625 
L 7.71875 -11.625 
L 11.71875 4 
z
" id="DejaVuSans-2c"/>
     <path d="M 16.890625 72.90625 
L 62.984375 72.90625 
L 61.375 64.59375 
L 25.09375 64.59375 
L 20.90625 43.015625 
L 55.71875 43.015625 
L 54.109375 34.71875 
L 19.28125 34.71875 
L 14.203125 8.296875 
L 51.3125 8.296875 
L 49.703125 0 
L 2.6875 0 
z
" id="DejaVuSans-Oblique-45"/>
     <path d="M 16.890625 72.90625 
L 30.171875 72.90625 
L 50.296875 10.40625 
L 62.5 72.90625 
L 72.125 72.90625 
L 57.90625 0 
L 44.578125 0 
L 24.515625 62.890625 
L 12.3125 0 
L 2.6875 0 
z
" id="DejaVuSans-Oblique-4e"/>
     <path d="M 10.59375 45.40625 
L 73.1875 45.40625 
L 73.1875 37.203125 
L 10.59375 37.203125 
z
M 10.59375 25.484375 
L 73.1875 25.484375 
L 73.1875 17.1875 
L 10.59375 17.1875 
z
" id="DejaVuSans-3d"/>
     <path d="M 4.890625 31.390625 
L 31.203125 31.390625 
L 31.203125 23.390625 
L 4.890625 23.390625 
z
" id="DejaVuSans-2d"/>
     <path d="M 12.40625 8.296875 
L 28.515625 8.296875 
L 28.515625 63.921875 
L 10.984375 60.40625 
L 10.984375 69.390625 
L 28.421875 72.90625 
L 38.28125 72.90625 
L 38.28125 8.296875 
L 54.390625 8.296875 
L 54.390625 0 
L 12.40625 0 
z
" id="DejaVuSans-31"/>
     <path d="M 31.78125 34.625 
Q 24.75 34.625 20.71875 30.859375 
Q 16.703125 27.09375 16.703125 20.515625 
Q 16.703125 13.921875 20.71875 10.15625 
Q 24.75 6.390625 31.78125 6.390625 
Q 38.8125 6.390625 42.859375 10.171875 
Q 46.921875 13.96875 46.921875 20.515625 
Q 46.921875 27.09375 42.890625 30.859375 
Q 38.875 34.625 31.78125 34.625 
z
M 21.921875 38.8125 
Q 15.578125 40.375 12.03125 44.71875 
Q 8.5 49.078125 8.5 55.328125 
Q 8.5 64.0625 14.71875 69.140625 
Q 20.953125 74.21875 31.78125 74.21875 
Q 42.671875 74.21875 48.875 69.140625 
Q 55.078125 64.0625 55.078125 55.328125 
Q 55.078125 49.078125 51.53125 44.71875 
Q 48 40.375 41.703125 38.8125 
Q 48.828125 37.15625 52.796875 32.3125 
Q 56.78125 27.484375 56.78125 20.515625 
Q 56.78125 9.90625 50.3125 4.234375 
Q 43.84375 -1.421875 31.78125 -1.421875 
Q 19.734375 -1.421875 13.25 4.234375 
Q 6.78125 9.90625 6.78125 20.515625 
Q 6.78125 27.484375 10.78125 32.3125 
Q 14.796875 37.15625 21.921875 38.8125 
z
M 18.3125 54.390625 
Q 18.3125 48.734375 21.84375 45.5625 
Q 25.390625 42.390625 31.78125 42.390625 
Q 38.140625 42.390625 41.71875 45.5625 
Q 45.3125 48.734375 45.3125 54.390625 
Q 45.3125 60.0625 41.71875 63.234375 
Q 38.140625 66.40625 31.78125 66.40625 
Q 25.390625 66.40625 21.84375 63.234375 
Q 18.3125 60.0625 18.3125 54.390625 
z
" id="DejaVuSans-38"/>
     <path d="M 10.6875 12.40625 
L 21 12.40625 
L 21 0 
L 10.6875 0 
z
" id="DejaVuSans-2e"/>
     <path d="M 10.984375 1.515625 
L 10.984375 10.5 
Q 14.703125 8.734375 18.5 7.8125 
Q 22.3125 6.890625 25.984375 6.890625 
Q 35.75 6.890625 40.890625 13.453125 
Q 46.046875 20.015625 46.78125 33.40625 
Q 43.953125 29.203125 39.59375 26.953125 
Q 35.25 24.703125 29.984375 24.703125 
Q 19.046875 24.703125 12.671875 31.3125 
Q 6.296875 37.9375 6.296875 49.421875 
Q 6.296875 60.640625 12.9375 67.421875 
Q 19.578125 74.21875 30.609375 74.21875 
Q 43.265625 74.21875 49.921875 64.515625 
Q 56.59375 54.828125 56.59375 36.375 
Q 56.59375 19.140625 48.40625 8.859375 
Q 40.234375 -1.421875 26.421875 -1.421875 
Q 22.703125 -1.421875 18.890625 -0.6875 
Q 15.09375 0.046875 10.984375 1.515625 
z
M 30.609375 32.421875 
Q 37.25 32.421875 41.125 36.953125 
Q 45.015625 41.5 45.015625 49.421875 
Q 45.015625 57.28125 41.125 61.84375 
Q 37.25 66.40625 30.609375 66.40625 
Q 23.96875 66.40625 20.09375 61.84375 
Q 16.21875 57.28125 16.21875 49.421875 
Q 16.21875 41.5 20.09375 36.953125 
Q 23.96875 32.421875 30.609375 32.421875 
z
" id="DejaVuSans-39"/>
     <path d="M 28.609375 0 
L 0.78125 72.90625 
L 11.078125 72.90625 
L 34.1875 11.53125 
L 57.328125 72.90625 
L 67.578125 72.90625 
L 39.796875 0 
z
" id="DejaVuSans-56"/>
     <path d="M 34.1875 63.1875 
L 14.15625 8.203125 
L 54.25 8.203125 
z
M 0.78125 0 
L 28.609375 72.90625 
L 39.796875 72.90625 
L 67.578125 0 
z
" id="DejaVuSans-394"/>
     <path d="M 9.8125 72.90625 
L 55.90625 72.90625 
L 55.90625 64.59375 
L 19.671875 64.59375 
L 19.671875 43.015625 
L 54.390625 43.015625 
L 54.390625 34.71875 
L 19.671875 34.71875 
L 19.671875 8.296875 
L 56.78125 8.296875 
L 56.78125 0 
L 9.8125 0 
z
" id="DejaVuSans-45"/>
     <path d="M 31.78125 66.40625 
Q 24.171875 66.40625 20.328125 58.90625 
Q 16.5 51.421875 16.5 36.375 
Q 16.5 21.390625 20.328125 13.890625 
Q 24.171875 6.390625 31.78125 6.390625 
Q 39.453125 6.390625 43.28125 13.890625 
Q 47.125 21.390625 47.125 36.375 
Q 47.125 51.421875 43.28125 58.90625 
Q 39.453125 66.40625 31.78125 66.40625 
z
M 31.78125 74.21875 
Q 44.046875 74.21875 50.515625 64.515625 
Q 56.984375 54.828125 56.984375 36.375 
Q 56.984375 17.96875 50.515625 8.265625 
Q 44.046875 -1.421875 31.78125 -1.421875 
Q 19.53125 -1.421875 13.0625 8.265625 
Q 6.59375 17.96875 6.59375 36.375 
Q 6.59375 54.828125 13.0625 64.515625 
Q 19.53125 74.21875 31.78125 74.21875 
z
" id="DejaVuSans-30"/>
     <path d="M 37.796875 64.3125 
L 12.890625 25.390625 
L 37.796875 25.390625 
z
M 35.203125 72.90625 
L 47.609375 72.90625 
L 47.609375 25.390625 
L 58.015625 25.390625 
L 58.015625 17.1875 
L 47.609375 17.1875 
L 47.609375 0 
L 37.796875 0 
L 37.796875 17.1875 
L 4.890625 17.1875 
L 4.890625 26.703125 
z
" id="DejaVuSans-34"/>
    </defs>
    <g transform="translate(65.388 35.472)scale(0.12 -0.12)">
     <use transform="translate(0 0.78125)" xlink:href="#DejaVuSans-53"/>
     <use transform="translate(63.476562 0.78125)" xlink:href="#DejaVuSans-74"/>
     <use transform="translate(102.685547 0.78125)" xlink:href="#DejaVuSans-72"/>
     <use transform="translate(143.798828 0.78125)" xlink:href="#DejaVuSans-75"/>
     <use transform="translate(207.177734 0.78125)" xlink:href="#DejaVuSans-63"/>
     <use transform="translate(262.158203 0.78125)" xlink:href="#DejaVuSans-74"/>
     <use transform="translate(301.367188 0.78125)" xlink:href="#DejaVuSans-75"/>
     <use transform="translate(364.746094 0.78125)" xlink:href="#DejaVuSans-72"/>
     <use transform="translate(405.859375 0.78125)" xlink:href="#DejaVuSans-65"/>
     <use transform="translate(467.382812 0.78125)" xlink:href="#DejaVuSans-20"/>
     <use transform="translate(499.169922 0.78125)" xlink:href="#DejaVuSans-23"/>
     <use transform="translate(582.958984 0.78125)" xlink:href="#DejaVuSans-36"/>
     <use transform="translate(646.582031 0.78125)" xlink:href="#DejaVuSans-37"/>
     <use transform="translate(710.205078 0.78125)" xlink:href="#DejaVuSans-32"/>
     <use transform="translate(773.828125 0.78125)" xlink:href="#DejaVuSans-35"/>
     <use transform="translate(837.451172 0.78125)" xlink:href="#DejaVuSans-2c"/>
     <use transform="translate(869.238281 0.78125)" xlink:href="#DejaVuSans-20"/>
     <use transform="translate(901.025391 0.78125)" xlink:href="#DejaVuSans-Oblique-45"/>
     <use transform="translate(964.208984 -15.625)scale(0.7)" xlink:href="#DejaVuSans-Oblique-4e"/>
     <use transform="translate(1019.306641 0.78125)" xlink:href="#DejaVuSans-3d"/>
     <use transform="translate(1103.095703 0.78125)" xlink:href="#DejaVuSans-2d"/>
     <use transform="translate(1139.179688 0.78125)" xlink:href="#DejaVuSans-31"/>
     <use transform="translate(1202.802734 0.78125)" xlink:href="#DejaVuSans-36"/>
     <use transform="translate(1266.425781 0.78125)" xlink:href="#DejaVuSans-38"/>
     <use transform="translate(1330.048828 0.78125)" xlink:href="#DejaVuSans-2e"/>
     <use transform="translate(1361.726562 0.78125)" xlink:href="#DejaVuSans-37"/>
     <use transform="translate(1425.349609 0.78125)" xlink:href="#DejaVuSans-39"/>
     <use transform="translate(1488.972656 0.78125)" xlink:href="#DejaVuSans-65"/>
     <use transform="translate(1550.496094 0.78125)" xlink:href="#DejaVuSans-56"/>
     <use transform="translate(1618.904297 0.78125)" xlink:href="#DejaVuSans-2c"/>
     <use transform="translate(1650.691406 0.78125)" xlink:href="#DejaVuSans-20"/>
     <use transform="translate(1682.478516 0.78125)" xlink:href="#DejaVuSans-394"/>
     <use transform="translate(1750.886719 0.78125)" xlink:href="#DejaVuSans-45"/>
     <use transform="translate(1814.070312 0.78125)" xlink:href="#DejaVuSans-3d"/>
     <use transform="translate(1897.859375 0.78125)" xlink:href="#DejaVuSans-30"/>
     <use transform="translate(1961.482422 0.78125)" xlink:href="#DejaVuSans-2e"/>
     <use transform="translate(1993.269531 0.78125)" xlink:href="#DejaVuSans-34"/>
     <use transform="translate(2056.892578 0.78125)" xlink:href="#DejaVuSans-30"/>
     <use transform="translate(2120.515625 0.78125)" xlink:href="#DejaVuSans-65"/>
     <use transform="translate(2182.039062 0.78125)" xlink:href="#DejaVuSans-56"/>
    </g>
   </g>
  </g>
  <g id="axes_2">
   <g id="patch_2">
    <path clip-path="url(#pac6aecfd91)" d="M 361.152 307.584 
L 361.152 306.5445 
L 361.152 42.5115 
L 361.152 41.472 
L 374.4576 41.472 
L 374.4576 42.5115 
L 374.4576 306.5445 
L 374.4576 307.584 
z
" style="fill:#ffffff;stroke:#ffffff;stroke-linejoin:miter;stroke-width:0.01;"/>
   </g>
   <image height="265.68" id="image19c720ac93" transform="scale(1 -1)translate(0 -265.68)" width="12.96" x="361.44" xlink:href="data:image/png;base64,
iVBORw0KGgoAAAANSUhEUgAAABIAAAFxCAYAAAB+2fgXAAAABHNCSVQICAgIfAhkiAAAAeVJREFUeJztncmNw0AQA2ckheYQNv9QLIfQ8ygsCgQ7AEI8+jAs2Puz/94F1LP2ReCsZ18bAWIeZ5XaGRBE7VnbptG+KI101FYyNSiQG2oRITXKNaX9uclOdi2XWjftVE32CZCO2ou5Bj1TcCBr/1zB9ge7Fq0Rg2NM9pvbtG+ua1QgsRYhDy0ISEiNc40BEibbSI0Coj5CBGtkpFbXJiAjNZlrwhuSOv2M1DjXbEdEciBt1JSDDQKKpmZr2rr2j0DBGpXaWEJq3bQzEPIS26r9J+Wzv9Tm8o3aajRXqc3VUXsApKNWjeZq0x4ABVNbm7lrszVigDqP5vIl2+eaT2yfRkL7g+dRcNPqjohkjaCvRVBq0H2U3LQrOJCx9kdTg4B8oxZzzTdqdYHEngjUCAPyUctN9sVRq2sTECW2UKNLd2jVtRmo1A6AhMmWaSRcR8nUdIHUuVb75zJS218EyEitro1At69pIdeSk30Lkw0FktNImGyZRhy1O5galmxd03LUsHWk06jUZiCq+5Wb1kZNN4+wJxJuWt8RAW5am2sYNZ9rYCBzZ3buPKJ2P5Yj4Toy3keyIyJbIxs1rml1byCA84gpch5RQNB7Q0qNMGq2Hy4BXdNR41yz/cEEJfZzUz96r9PoB0okjeQ8y9TkAAAAAElFTkSuQmCC" y="-41.76"/>
   <g id="matplotlib.axis_1"/>
   <g id="matplotlib.axis_2">
    <g id="ytick_1">
     <g id="line2d_1">
      <defs>
       <path d="M 0 0 
L 3.5 0 
" id="md3b667d758" style="stroke:#000000;stroke-width:0.8;"/>
      </defs>
      <g>
       <use style="stroke:#000000;stroke-width:0.8;" x="374.4576" xlink:href="#md3b667d758" y="297.529121"/>
      </g>
     </g>
     <g id="text_2">
      <!-- −8.5 -->
      <defs>
       <path d="M 10.59375 35.5 
L 73.1875 35.5 
L 73.1875 27.203125 
L 10.59375 27.203125 
z
" id="DejaVuSans-2212"/>
      </defs>
      <g transform="translate(381.4576 301.32834)scale(0.1 -0.1)">
       <use xlink:href="#DejaVuSans-2212"/>
       <use x="83.789062" xlink:href="#DejaVuSans-38"/>
       <use x="147.412109" xlink:href="#DejaVuSans-2e"/>
       <use x="179.199219" xlink:href="#DejaVuSans-35"/>
      </g>
     </g>
    </g>
    <g id="ytick_2">
     <g id="line2d_2">
      <g>
       <use style="stroke:#000000;stroke-width:0.8;" x="374.4576" xlink:href="#md3b667d758" y="265.098163"/>
      </g>
     </g>
     <g id="text_3">
      <!-- −8.0 -->
      <g transform="translate(381.4576 268.897382)scale(0.1 -0.1)">
       <use xlink:href="#DejaVuSans-2212"/>
       <use x="83.789062" xlink:href="#DejaVuSans-38"/>
       <use x="147.412109" xlink:href="#DejaVuSans-2e"/>
       <use x="179.199219" xlink:href="#DejaVuSans-30"/>
      </g>
     </g>
    </g>
    <g id="ytick_3">
     <g id="line2d_3">
      <g>
       <use style="stroke:#000000;stroke-width:0.8;" x="374.4576" xlink:href="#md3b667d758" y="232.667205"/>
      </g>
     </g>
     <g id="text_4">
      <!-- −7.5 -->
      <g transform="translate(381.4576 236.466424)scale(0.1 -0.1)">
       <use xlink:href="#DejaVuSans-2212"/>
       <use x="83.789062" xlink:href="#DejaVuSans-37"/>
       <use x="147.412109" xlink:href="#DejaVuSans-2e"/>
       <use x="179.199219" xlink:href="#DejaVuSans-35"/>
      </g>
     </g>
    </g>
    <g id="ytick_4">
     <g id="line2d_4">
      <g>
       <use style="stroke:#000000;stroke-width:0.8;" x="374.4576" xlink:href="#md3b667d758" y="200.236247"/>
      </g>
     </g>
     <g id="text_5">
      <!-- −7.0 -->
      <g transform="translate(381.4576 204.035465)scale(0.1 -0.1)">
       <use xlink:href="#DejaVuSans-2212"/>
       <use x="83.789062" xlink:href="#DejaVuSans-37"/>
       <use x="147.412109" xlink:href="#DejaVuSans-2e"/>
       <use x="179.199219" xlink:href="#DejaVuSans-30"/>
      </g>
     </g>
    </g>
    <g id="ytick_5">
     <g id="line2d_5">
      <g>
       <use style="stroke:#000000;stroke-width:0.8;" x="374.4576" xlink:href="#md3b667d758" y="167.805288"/>
      </g>
     </g>
     <g id="text_6">
      <!-- −6.5 -->
      <g transform="translate(381.4576 171.604507)scale(0.1 -0.1)">
       <use xlink:href="#DejaVuSans-2212"/>
       <use x="83.789062" xlink:href="#DejaVuSans-36"/>
       <use x="147.412109" xlink:href="#DejaVuSans-2e"/>
       <use x="179.199219" xlink:href="#DejaVuSans-35"/>
      </g>
     </g>
    </g>
    <g id="ytick_6">
     <g id="line2d_6">
      <g>
       <use style="stroke:#000000;stroke-width:0.8;" x="374.4576" xlink:href="#md3b667d758" y="135.37433"/>
      </g>
     </g>
     <g id="text_7">
      <!-- −6.0 -->
      <g transform="translate(381.4576 139.173549)scale(0.1 -0.1)">
       <use xlink:href="#DejaVuSans-2212"/>
       <use x="83.789062" xlink:href="#DejaVuSans-36"/>
       <use x="147.412109" xlink:href="#DejaVuSans-2e"/>
       <use x="179.199219" xlink:href="#DejaVuSans-30"/>
      </g>
     </g>
    </g>
    <g id="ytick_7">
     <g id="line2d_7">
      <g>
       <use style="stroke:#000000;stroke-width:0.8;" x="374.4576" xlink:href="#md3b667d758" y="102.943372"/>
      </g>
     </g>
     <g id="text_8">
      <!-- −5.5 -->
      <g transform="translate(381.4576 106.742591)scale(0.1 -0.1)">
       <use xlink:href="#DejaVuSans-2212"/>
       <use x="83.789062" xlink:href="#DejaVuSans-35"/>
       <use x="147.412109" xlink:href="#DejaVuSans-2e"/>
       <use x="179.199219" xlink:href="#DejaVuSans-35"/>
      </g>
     </g>
    </g>
    <g id="ytick_8">
     <g id="line2d_8">
      <g>
       <use style="stroke:#000000;stroke-width:0.8;" x="374.4576" xlink:href="#md3b667d758" y="70.512414"/>
      </g>
     </g>
     <g id="text_9">
      <!-- −5.0 -->
      <g transform="translate(381.4576 74.311632)scale(0.1 -0.1)">
       <use xlink:href="#DejaVuSans-2212"/>
       <use x="83.789062" xlink:href="#DejaVuSans-35"/>
       <use x="147.412109" xlink:href="#DejaVuSans-2e"/>
       <use x="179.199219" xlink:href="#DejaVuSans-30"/>
      </g>
     </g>
    </g>
    <g id="text_10">
     <!-- Energy [eV] -->
     <defs>
      <path d="M 54.890625 33.015625 
L 54.890625 0 
L 45.90625 0 
L 45.90625 32.71875 
Q 45.90625 40.484375 42.875 44.328125 
Q 39.84375 48.1875 33.796875 48.1875 
Q 26.515625 48.1875 22.3125 43.546875 
Q 18.109375 38.921875 18.109375 30.90625 
L 18.109375 0 
L 9.078125 0 
L 9.078125 54.6875 
L 18.109375 54.6875 
L 18.109375 46.1875 
Q 21.34375 51.125 25.703125 53.5625 
Q 30.078125 56 35.796875 56 
Q 45.21875 56 50.046875 50.171875 
Q 54.890625 44.34375 54.890625 33.015625 
z
" id="DejaVuSans-6e"/>
      <path d="M 45.40625 27.984375 
Q 45.40625 37.75 41.375 43.109375 
Q 37.359375 48.484375 30.078125 48.484375 
Q 22.859375 48.484375 18.828125 43.109375 
Q 14.796875 37.75 14.796875 27.984375 
Q 14.796875 18.265625 18.828125 12.890625 
Q 22.859375 7.515625 30.078125 7.515625 
Q 37.359375 7.515625 41.375 12.890625 
Q 45.40625 18.265625 45.40625 27.984375 
z
M 54.390625 6.78125 
Q 54.390625 -7.171875 48.1875 -13.984375 
Q 42 -20.796875 29.203125 -20.796875 
Q 24.46875 -20.796875 20.265625 -20.09375 
Q 16.0625 -19.390625 12.109375 -17.921875 
L 12.109375 -9.1875 
Q 16.0625 -11.328125 19.921875 -12.34375 
Q 23.78125 -13.375 27.78125 -13.375 
Q 36.625 -13.375 41.015625 -8.765625 
Q 45.40625 -4.15625 45.40625 5.171875 
L 45.40625 9.625 
Q 42.625 4.78125 38.28125 2.390625 
Q 33.9375 0 27.875 0 
Q 17.828125 0 11.671875 7.65625 
Q 5.515625 15.328125 5.515625 27.984375 
Q 5.515625 40.671875 11.671875 48.328125 
Q 17.828125 56 27.875 56 
Q 33.9375 56 38.28125 53.609375 
Q 42.625 51.21875 45.40625 46.390625 
L 45.40625 54.6875 
L 54.390625 54.6875 
z
" id="DejaVuSans-67"/>
      <path d="M 32.171875 -5.078125 
Q 28.375 -14.84375 24.75 -17.8125 
Q 21.140625 -20.796875 15.09375 -20.796875 
L 7.90625 -20.796875 
L 7.90625 -13.28125 
L 13.1875 -13.28125 
Q 16.890625 -13.28125 18.9375 -11.515625 
Q 21 -9.765625 23.484375 -3.21875 
L 25.09375 0.875 
L 2.984375 54.6875 
L 12.5 54.6875 
L 29.59375 11.921875 
L 46.6875 54.6875 
L 56.203125 54.6875 
z
" id="DejaVuSans-79"/>
      <path d="M 8.59375 75.984375 
L 29.296875 75.984375 
L 29.296875 69 
L 17.578125 69 
L 17.578125 -6.203125 
L 29.296875 -6.203125 
L 29.296875 -13.1875 
L 8.59375 -13.1875 
z
" id="DejaVuSans-5b"/>
      <path d="M 30.421875 75.984375 
L 30.421875 -13.1875 
L 9.71875 -13.1875 
L 9.71875 -6.203125 
L 21.390625 -6.203125 
L 21.390625 69 
L 9.71875 69 
L 9.71875 75.984375 
z
" id="DejaVuSans-5d"/>
     </defs>
     <g transform="translate(417.33885 204.108469)rotate(-90)scale(0.1 -0.1)">
      <use xlink:href="#DejaVuSans-45"/>
      <use x="63.183594" xlink:href="#DejaVuSans-6e"/>
      <use x="126.5625" xlink:href="#DejaVuSans-65"/>
      <use x="188.085938" xlink:href="#DejaVuSans-72"/>
      <use x="229.183594" xlink:href="#DejaVuSans-67"/>
      <use x="292.660156" xlink:href="#DejaVuSans-79"/>
      <use x="351.839844" xlink:href="#DejaVuSans-20"/>
      <use x="383.626953" xlink:href="#DejaVuSans-5b"/>
      <use x="422.640625" xlink:href="#DejaVuSans-65"/>
      <use x="484.164062" xlink:href="#DejaVuSans-56"/>
      <use x="552.572266" xlink:href="#DejaVuSans-5d"/>
     </g>
    </g>
   </g>
   <g id="patch_3">
    <path d="M 361.152 307.584 
L 361.152 306.5445 
L 361.152 42.5115 
L 361.152 41.472 
L 374.4576 41.472 
L 374.4576 42.5115 
L 374.4576 306.5445 
L 374.4576 307.584 
z
" style="fill:none;stroke:#000000;stroke-linejoin:miter;stroke-width:0.8;"/>
   </g>
  </g>
 </g>
 <defs>
  <clipPath id="p14994520ca">
   <rect height="266.112" width="285.696" x="57.6" y="41.472"/>
  </clipPath>
  <clipPath id="pac6aecfd91">
   <rect height="266.112" width="13.3056" x="361.152" y="41.472"/>
  </clipPath>
 </defs>
</svg>
