<?xml version="1.0" encoding="utf-8" standalone="no"?>
<!DOCTYPE svg PUBLIC "-//W3C//DTD SVG 1.1//EN"
  "http://www.w3.org/Graphics/SVG/1.1/DTD/svg11.dtd">
<!-- Created with matplotlib (http://matplotlib.org/) -->
<svg height="345.6pt" version="1.1" viewBox="0 0 460.8 345.6" width="460.8pt" xmlns="http://www.w3.org/2000/svg" xmlns:xlink="http://www.w3.org/1999/xlink">
 <defs>
  <style type="text/css">
*{stroke-linecap:butt;stroke-linejoin:round;}
  </style>
 </defs>
 <g id="figure_1">
  <g id="patch_1">
   <path d="M 0 345.6 
L 460.8 345.6 
L 460.8 0 
L 0 0 
z
" style="fill:#ffffff;"/>
  </g>
  <g id="axes_1">
   <g id="CircleCollection_1">
    <path clip-path="url(#p04cba86c93)" d="M 301.783268 166.357512 
C 303.645219 166.357512 305.431159 165.617752 306.747757 164.301154 
C 308.064355 162.984556 308.804116 161.198615 308.804116 159.336665 
C 308.804116 157.474714 308.064355 155.688774 306.747757 154.372176 
C 305.431159 153.055578 303.645219 152.315817 301.783268 152.315817 
C 299.921318 152.315817 298.135377 153.055578 296.81878 154.372176 
C 295.502182 155.688774 294.762421 157.474714 294.762421 159.336665 
C 294.762421 161.198615 295.502182 162.984556 296.81878 164.301154 
C 298.135377 165.617752 299.921318 166.357512 301.783268 166.357512 
z
" style="fill:#481668;"/>
    <path clip-path="url(#p04cba86c93)" d="M 106.801063 69.616418 
C 108.626716 69.616418 110.377841 68.891079 111.668773 67.600147 
C 112.959705 66.309215 113.685044 64.558091 113.685044 62.732438 
C 113.685044 60.906785 112.959705 59.15566 111.668773 57.864728 
C 110.377841 56.573796 108.626716 55.848457 106.801063 55.848457 
C 104.97541 55.848457 103.224285 56.573796 101.933354 57.864728 
C 100.642422 59.15566 99.917083 60.906785 99.917083 62.732438 
C 99.917083 64.558091 100.642422 66.309215 101.933354 67.600147 
C 103.224285 68.891079 104.97541 69.616418 106.801063 69.616418 
z
" style="fill:#481b6d;"/>
    <path clip-path="url(#p04cba86c93)" d="M 234.791589 278.250123 
C 236.588835 278.250123 238.312712 277.536069 239.583557 276.265224 
C 240.854402 274.994379 241.568456 273.270502 241.568456 271.473256 
C 241.568456 269.676009 240.854402 267.952132 239.583557 266.681287 
C 238.312712 265.410442 236.588835 264.696388 234.791589 264.696388 
C 232.994343 264.696388 231.270465 265.410442 229.99962 266.681287 
C 228.728775 267.952132 228.014722 269.676009 228.014722 271.473256 
C 228.014722 273.270502 228.728775 274.994379 229.99962 276.265224 
C 231.270465 277.536069 232.994343 278.250123 234.791589 278.250123 
z
" style="fill:#472d7b;"/>
    <path clip-path="url(#p04cba86c93)" d="M 70.975848 60.924077 
C 72.791136 60.924077 74.53232 60.202855 75.815923 58.919252 
C 77.099525 57.635649 77.820747 55.894466 77.820747 54.079177 
C 77.820747 52.263889 77.099525 50.522705 75.815923 49.239103 
C 74.53232 47.9555 72.791136 47.234278 70.975848 47.234278 
C 69.160559 47.234278 67.419376 47.9555 66.135773 49.239103 
C 64.85217 50.522705 64.130948 52.263889 64.130948 54.079177 
C 64.130948 55.894466 64.85217 57.635649 66.135773 58.919252 
C 67.419376 60.202855 69.160559 60.924077 70.975848 60.924077 
z
" style="fill:#fde725;"/>
    <path clip-path="url(#p04cba86c93)" d="M 106.847775 180.300599 
C 108.657027 180.300599 110.39242 179.581776 111.671754 178.302442 
C 112.951088 177.023107 113.669912 175.287714 113.669912 173.478462 
C 113.669912 171.669211 112.951088 169.933818 111.671754 168.654483 
C 110.39242 167.375149 108.657027 166.656326 106.847775 166.656326 
C 105.038523 166.656326 103.30313 167.375149 102.023796 168.654483 
C 100.744462 169.933818 100.025638 171.669211 100.025638 173.478462 
C 100.025638 175.287714 100.744462 177.023107 102.023796 178.302442 
C 103.30313 179.581776 105.038523 180.300599 106.847775 180.300599 
z
" style="fill:#482576;"/>
    <path clip-path="url(#p04cba86c93)" d="M 236.4525 257.18754 
C 238.314754 257.18754 240.100986 256.447658 241.417798 255.130846 
C 242.734611 253.814033 243.474492 252.027802 243.474492 250.165548 
C 243.474492 248.303294 242.734611 246.517062 241.417798 245.20025 
C 240.100986 243.883437 238.314754 243.143556 236.4525 243.143556 
C 234.590246 243.143556 232.804015 243.883437 231.487202 245.20025 
C 230.17039 246.517062 229.430508 248.303294 229.430508 250.165548 
C 229.430508 252.027802 230.17039 253.814033 231.487202 255.130846 
C 232.804015 256.447658 234.590246 257.18754 236.4525 257.18754 
z
" style="fill:#471063;"/>
    <path clip-path="url(#p04cba86c93)" d="M 241.057224 125.675989 
C 242.914738 125.675989 244.696424 124.937991 246.009885 123.62453 
C 247.323346 122.311069 248.061344 120.529383 248.061344 118.671869 
C 248.061344 116.814354 247.323346 115.032668 246.009885 113.719207 
C 244.696424 112.405746 242.914738 111.667748 241.057224 111.667748 
C 239.199709 111.667748 237.418024 112.405746 236.104562 113.719207 
C 234.791101 115.032668 234.053103 116.814354 234.053103 118.671869 
C 234.053103 120.529383 234.791101 122.311069 236.104562 123.62453 
C 237.418024 124.937991 239.199709 125.675989 241.057224 125.675989 
z
" style="fill:#440154;"/>
    <path clip-path="url(#p04cba86c93)" d="M 215.801849 231.119318 
C 217.695919 231.119318 219.512667 230.366796 220.851976 229.027487 
C 222.191285 227.688178 222.943806 225.87143 222.943806 223.977361 
C 222.943806 222.083291 222.191285 220.266543 220.851976 218.927234 
C 219.512667 217.587925 217.695919 216.835403 215.801849 216.835403 
C 213.90778 216.835403 212.091032 217.587925 210.751723 218.927234 
C 209.412414 220.266543 208.659892 222.083291 208.659892 223.977361 
C 208.659892 225.87143 209.412414 227.688178 210.751723 229.027487 
C 212.091032 230.366796 213.90778 231.119318 215.801849 231.119318 
z
" style="fill:#472e7c;"/>
    <path clip-path="url(#p04cba86c93)" d="M 329.911325 189.92705 
C 331.767736 189.92705 333.548363 189.18949 334.861044 187.876809 
C 336.173725 186.564128 336.911285 184.783501 336.911285 182.92709 
C 336.911285 181.070679 336.173725 179.290052 334.861044 177.977371 
C 333.548363 176.66469 331.767736 175.92713 329.911325 175.92713 
C 328.054914 175.92713 326.274287 176.66469 324.961606 177.977371 
C 323.648925 179.290052 322.911365 181.070679 322.911365 182.92709 
C 322.911365 184.783501 323.648925 186.564128 324.961606 187.876809 
C 326.274287 189.18949 328.054914 189.92705 329.911325 189.92705 
z
" style="fill:#fbe723;"/>
    <path clip-path="url(#p04cba86c93)" d="M 271.439127 145.441733 
C 273.299621 145.441733 275.084164 144.702551 276.399732 143.386984 
C 277.7153 142.071416 278.454481 140.286873 278.454481 138.426379 
C 278.454481 136.565886 277.7153 134.781342 276.399732 133.465775 
C 275.084164 132.150207 273.299621 131.411025 271.439127 131.411025 
C 269.578634 131.411025 267.794091 132.150207 266.478523 133.465775 
C 265.162955 134.781342 264.423773 136.565886 264.423773 138.426379 
C 264.423773 140.286873 265.162955 142.071416 266.478523 143.386984 
C 267.794091 144.702551 269.578634 145.441733 271.439127 145.441733 
z
" style="fill:#46085c;"/>
    <path clip-path="url(#p04cba86c93)" d="M 192.968731 206.09842 
C 194.890497 206.09842 196.733811 205.334895 198.092704 203.976001 
C 199.451598 202.617108 200.215123 200.773794 200.215123 198.852028 
C 200.215123 196.930262 199.451598 195.086948 198.092704 193.728054 
C 196.733811 192.369161 194.890497 191.605635 192.968731 191.605635 
C 191.046965 191.605635 189.203651 192.369161 187.844757 193.728054 
C 186.485864 195.086948 185.722338 196.930262 185.722338 198.852028 
C 185.722338 200.773794 186.485864 202.617108 187.844757 203.976001 
C 189.203651 205.334895 191.046965 206.09842 192.968731 206.09842 
z
" style="fill:#481769;"/>
    <path clip-path="url(#p04cba86c93)" d="M 148.394533 282.933416 
C 149.975498 282.933416 151.491924 282.305292 152.609834 281.187381 
C 153.727745 280.06947 154.355869 278.553045 154.355869 276.97208 
C 154.355869 275.391115 153.727745 273.87469 152.609834 272.756779 
C 151.491924 271.638868 149.975498 271.010744 148.394533 271.010744 
C 146.813569 271.010744 145.297143 271.638868 144.179232 272.756779 
C 143.061321 273.87469 142.433198 275.391115 142.433198 276.97208 
C 142.433198 278.553045 143.061321 280.06947 144.179232 281.187381 
C 145.297143 282.305292 146.813569 282.933416 148.394533 282.933416 
z
" style="fill:#481f70;"/>
    <path clip-path="url(#p04cba86c93)" d="M 129.261298 176.902727 
C 131.135368 176.902727 132.932934 176.158151 134.258101 174.832984 
C 135.583269 173.507816 136.327845 171.710251 136.327845 169.83618 
C 136.327845 167.96211 135.583269 166.164545 134.258101 164.839377 
C 132.932934 163.514209 131.135368 162.769633 129.261298 162.769633 
C 127.387228 162.769633 125.589662 163.514209 124.264495 164.839377 
C 122.939327 166.164545 122.194751 167.96211 122.194751 169.83618 
C 122.194751 171.710251 122.939327 173.507816 124.264495 174.832984 
C 125.589662 176.158151 127.387228 176.902727 129.261298 176.902727 
z
" style="fill:#481d6f;"/>
    <path clip-path="url(#p04cba86c93)" d="M 98.365916 234.952154 
C 99.978857 234.952154 101.525954 234.311326 102.666476 233.170804 
C 103.806998 232.030282 104.447827 230.483185 104.447827 228.870243 
C 104.447827 227.257301 103.806998 225.710205 102.666476 224.569683 
C 101.525954 223.429161 99.978857 222.788332 98.365916 222.788332 
C 96.752974 222.788332 95.205877 223.429161 94.065355 224.569683 
C 92.924833 225.710205 92.284004 227.257301 92.284004 228.870243 
C 92.284004 230.483185 92.924833 232.030282 94.065355 233.170804 
C 95.205877 234.311326 96.752974 234.952154 98.365916 234.952154 
z
" style="fill:#482071;"/>
    <path clip-path="url(#p04cba86c93)" d="M 160.731196 190.492591 
C 162.631665 190.492591 164.454552 189.737527 165.798386 188.393692 
C 167.142221 187.049858 167.897285 185.226971 167.897285 183.326502 
C 167.897285 181.426033 167.142221 179.603147 165.798386 178.259312 
C 164.454552 176.915478 162.631665 176.160414 160.731196 176.160414 
C 158.830727 176.160414 157.007841 176.915478 155.664006 178.259312 
C 154.320172 179.603147 153.565108 181.426033 153.565108 183.326502 
C 153.565108 185.226971 154.320172 187.049858 155.664006 188.393692 
C 157.007841 189.737527 158.830727 190.492591 160.731196 190.492591 
z
" style="fill:#472c7a;"/>
    <path clip-path="url(#p04cba86c93)" d="M 230.902475 298.437978 
C 232.632229 298.437978 234.291369 297.750739 235.51449 296.527619 
C 236.73761 295.304498 237.424848 293.645358 237.424848 291.915605 
C 237.424848 290.185851 236.73761 288.526711 235.51449 287.30359 
C 234.291369 286.08047 232.632229 285.393231 230.902475 285.393231 
C 229.172722 285.393231 227.513581 286.08047 226.290461 287.30359 
C 225.06734 288.526711 224.380102 290.185851 224.380102 291.915605 
C 224.380102 293.645358 225.06734 295.304498 226.290461 296.527619 
C 227.513581 297.750739 229.172722 298.437978 230.902475 298.437978 
z
" style="fill:#481668;"/>
    <path clip-path="url(#p04cba86c93)" d="M 180.13602 301.07897 
C 181.738431 301.07897 183.275427 300.442326 184.408502 299.30925 
C 185.541578 298.176175 186.178222 296.639179 186.178222 295.036768 
C 186.178222 293.434357 185.541578 291.897362 184.408502 290.764286 
C 183.275427 289.631211 181.738431 288.994566 180.13602 288.994566 
C 178.53361 288.994566 176.996614 289.631211 175.863538 290.764286 
C 174.730463 291.897362 174.093818 293.434357 174.093818 295.036768 
C 174.093818 296.639179 174.730463 298.176175 175.863538 299.30925 
C 176.996614 300.442326 178.53361 301.07897 180.13602 301.07897 
z
" style="fill:#481d6f;"/>
    <path clip-path="url(#p04cba86c93)" d="M 208.791308 108.882899 
C 210.642152 108.882899 212.41744 108.147551 213.726185 106.838806 
C 215.034929 105.530061 215.770277 103.754774 215.770277 101.903929 
C 215.770277 100.053085 215.034929 98.277797 213.726185 96.969052 
C 212.41744 95.660308 210.642152 94.92496 208.791308 94.92496 
C 206.940463 94.92496 205.165176 95.660308 203.856431 96.969052 
C 202.547686 98.277797 201.812338 100.053085 201.812338 101.903929 
C 201.812338 103.754774 202.547686 105.530061 203.856431 106.838806 
C 205.165176 108.147551 206.940463 108.882899 208.791308 108.882899 
z
" style="fill:#46075a;"/>
    <path clip-path="url(#p04cba86c93)" d="M 175.830703 93.442429 
C 177.674359 93.442429 179.442752 92.709937 180.746413 91.406275 
C 182.050075 90.102614 182.782567 88.334221 182.782567 86.490565 
C 182.782567 84.646909 182.050075 82.878517 180.746413 81.574855 
C 179.442752 80.271194 177.674359 79.538702 175.830703 79.538702 
C 173.987047 79.538702 172.218655 80.271194 170.914993 81.574855 
C 169.611332 82.878517 168.878839 84.646909 168.878839 86.490565 
C 168.878839 88.334221 169.611332 90.102614 170.914993 91.406275 
C 172.218655 92.709937 173.987047 93.442429 175.830703 93.442429 
z
" style="fill:#440154;"/>
    <path clip-path="url(#p04cba86c93)" d="M 89.33458 210.41722 
C 91.005335 210.41722 92.607886 209.753421 93.789289 208.572019 
C 94.970691 207.390616 95.63449 205.788065 95.63449 204.11731 
C 95.63449 202.446554 94.970691 200.844003 93.789289 199.662601 
C 92.607886 198.481198 91.005335 197.8174 89.33458 197.8174 
C 87.663824 197.8174 86.061273 198.481198 84.879871 199.662601 
C 83.698468 200.844003 83.03467 202.446554 83.03467 204.11731 
C 83.03467 205.788065 83.698468 207.390616 84.879871 208.572019 
C 86.061273 209.753421 87.663824 210.41722 89.33458 210.41722 
z
" style="fill:#481d6f;"/>
    <path clip-path="url(#p04cba86c93)" d="M 206.165448 301.14796 
C 207.829849 301.14796 209.426305 300.486687 210.603214 299.309777 
C 211.780124 298.132868 212.441397 296.536412 212.441397 294.872011 
C 212.441397 293.207609 211.780124 291.611154 210.603214 290.434244 
C 209.426305 289.257335 207.829849 288.596061 206.165448 288.596061 
C 204.501046 288.596061 202.90459 289.257335 201.727681 290.434244 
C 200.550771 291.611154 199.889498 293.207609 199.889498 294.872011 
C 199.889498 296.536412 200.550771 298.132868 201.727681 299.309777 
C 202.90459 300.486687 204.501046 301.14796 206.165448 301.14796 
z
" style="fill:#482878;"/>
    <path clip-path="url(#p04cba86c93)" d="M 119.419094 261.983244 
C 120.995309 261.983244 122.507178 261.357007 123.62173 260.242455 
C 124.736282 259.127903 125.362519 257.616034 125.362519 256.039819 
C 125.362519 254.463604 124.736282 252.951735 123.62173 251.837183 
C 122.507178 250.722631 120.995309 250.096394 119.419094 250.096394 
C 117.842879 250.096394 116.33101 250.722631 115.216458 251.837183 
C 114.101906 252.951735 113.475669 254.463604 113.475669 256.039819 
C 113.475669 257.616034 114.101906 259.127903 115.216458 260.242455 
C 116.33101 261.357007 117.842879 261.983244 119.419094 261.983244 
z
" style="fill:#482173;"/>
    <path clip-path="url(#p04cba86c93)" d="M 141.872146 80.932855 
C 143.707101 80.932855 145.467149 80.203819 146.764658 78.90631 
C 148.062167 77.608801 148.791202 75.848754 148.791202 74.013799 
C 148.791202 72.178843 148.062167 70.418796 146.764658 69.121287 
C 145.467149 67.823778 143.707101 67.094743 141.872146 67.094743 
C 140.037191 67.094743 138.277144 67.823778 136.979635 69.121287 
C 135.682126 70.418796 134.95309 72.178843 134.95309 74.013799 
C 134.95309 75.848754 135.682126 77.608801 136.979635 78.90631 
C 138.277144 80.203819 140.037191 80.932855 141.872146 80.932855 
z
" style="fill:#46085c;"/>
    <path clip-path="url(#p04cba86c93)" d="M 89.258873 188.548574 
C 91.000045 188.548574 92.670137 187.856799 93.901332 186.625604 
C 95.132526 185.39441 95.824301 183.724318 95.824301 181.983146 
C 95.824301 180.241974 95.132526 178.571882 93.901332 177.340688 
C 92.670137 176.109493 91.000045 175.417718 89.258873 175.417718 
C 87.517702 175.417718 85.847609 176.109493 84.616415 177.340688 
C 83.385221 178.571882 82.693446 180.241974 82.693446 181.983146 
C 82.693446 183.724318 83.385221 185.39441 84.616415 186.625604 
C 85.847609 187.856799 87.517702 188.548574 89.258873 188.548574 
z
" style="fill:#482071;"/>
   </g>
   <g id="text_1">
    <!-- Structure #3655, $E_N$=-178.29eV, ΔE=-0.11eV -->
    <defs>
     <path d="M 53.515625 70.515625 
L 53.515625 60.890625 
Q 47.90625 63.578125 42.921875 64.890625 
Q 37.9375 66.21875 33.296875 66.21875 
Q 25.25 66.21875 20.875 63.09375 
Q 16.5 59.96875 16.5 54.203125 
Q 16.5 49.359375 19.40625 46.890625 
Q 22.3125 44.4375 30.421875 42.921875 
L 36.375 41.703125 
Q 47.40625 39.59375 52.65625 34.296875 
Q 57.90625 29 57.90625 20.125 
Q 57.90625 9.515625 50.796875 4.046875 
Q 43.703125 -1.421875 29.984375 -1.421875 
Q 24.8125 -1.421875 18.96875 -0.25 
Q 13.140625 0.921875 6.890625 3.21875 
L 6.890625 13.375 
Q 12.890625 10.015625 18.65625 8.296875 
Q 24.421875 6.59375 29.984375 6.59375 
Q 38.421875 6.59375 43.015625 9.90625 
Q 47.609375 13.234375 47.609375 19.390625 
Q 47.609375 24.75 44.3125 27.78125 
Q 41.015625 30.8125 33.5 32.328125 
L 27.484375 33.5 
Q 16.453125 35.6875 11.515625 40.375 
Q 6.59375 45.0625 6.59375 53.421875 
Q 6.59375 63.09375 13.40625 68.65625 
Q 20.21875 74.21875 32.171875 74.21875 
Q 37.3125 74.21875 42.625 73.28125 
Q 47.953125 72.359375 53.515625 70.515625 
z
" id="DejaVuSans-53"/>
     <path d="M 18.3125 70.21875 
L 18.3125 54.6875 
L 36.8125 54.6875 
L 36.8125 47.703125 
L 18.3125 47.703125 
L 18.3125 18.015625 
Q 18.3125 11.328125 20.140625 9.421875 
Q 21.96875 7.515625 27.59375 7.515625 
L 36.8125 7.515625 
L 36.8125 0 
L 27.59375 0 
Q 17.1875 0 13.234375 3.875 
Q 9.28125 7.765625 9.28125 18.015625 
L 9.28125 47.703125 
L 2.6875 47.703125 
L 2.6875 54.6875 
L 9.28125 54.6875 
L 9.28125 70.21875 
z
" id="DejaVuSans-74"/>
     <path d="M 41.109375 46.296875 
Q 39.59375 47.171875 37.8125 47.578125 
Q 36.03125 48 33.890625 48 
Q 26.265625 48 22.1875 43.046875 
Q 18.109375 38.09375 18.109375 28.8125 
L 18.109375 0 
L 9.078125 0 
L 9.078125 54.6875 
L 18.109375 54.6875 
L 18.109375 46.1875 
Q 20.953125 51.171875 25.484375 53.578125 
Q 30.03125 56 36.53125 56 
Q 37.453125 56 38.578125 55.875 
Q 39.703125 55.765625 41.0625 55.515625 
z
" id="DejaVuSans-72"/>
     <path d="M 8.5 21.578125 
L 8.5 54.6875 
L 17.484375 54.6875 
L 17.484375 21.921875 
Q 17.484375 14.15625 20.5 10.265625 
Q 23.53125 6.390625 29.59375 6.390625 
Q 36.859375 6.390625 41.078125 11.03125 
Q 45.3125 15.671875 45.3125 23.6875 
L 45.3125 54.6875 
L 54.296875 54.6875 
L 54.296875 0 
L 45.3125 0 
L 45.3125 8.40625 
Q 42.046875 3.421875 37.71875 1 
Q 33.40625 -1.421875 27.6875 -1.421875 
Q 18.265625 -1.421875 13.375 4.4375 
Q 8.5 10.296875 8.5 21.578125 
z
M 31.109375 56 
z
" id="DejaVuSans-75"/>
     <path d="M 48.78125 52.59375 
L 48.78125 44.1875 
Q 44.96875 46.296875 41.140625 47.34375 
Q 37.3125 48.390625 33.40625 48.390625 
Q 24.65625 48.390625 19.8125 42.84375 
Q 14.984375 37.3125 14.984375 27.296875 
Q 14.984375 17.28125 19.8125 11.734375 
Q 24.65625 6.203125 33.40625 6.203125 
Q 37.3125 6.203125 41.140625 7.25 
Q 44.96875 8.296875 48.78125 10.40625 
L 48.78125 2.09375 
Q 45.015625 0.34375 40.984375 -0.53125 
Q 36.96875 -1.421875 32.421875 -1.421875 
Q 20.0625 -1.421875 12.78125 6.34375 
Q 5.515625 14.109375 5.515625 27.296875 
Q 5.515625 40.671875 12.859375 48.328125 
Q 20.21875 56 33.015625 56 
Q 37.15625 56 41.109375 55.140625 
Q 45.0625 54.296875 48.78125 52.59375 
z
" id="DejaVuSans-63"/>
     <path d="M 56.203125 29.59375 
L 56.203125 25.203125 
L 14.890625 25.203125 
Q 15.484375 15.921875 20.484375 11.0625 
Q 25.484375 6.203125 34.421875 6.203125 
Q 39.59375 6.203125 44.453125 7.46875 
Q 49.3125 8.734375 54.109375 11.28125 
L 54.109375 2.78125 
Q 49.265625 0.734375 44.1875 -0.34375 
Q 39.109375 -1.421875 33.890625 -1.421875 
Q 20.796875 -1.421875 13.15625 6.1875 
Q 5.515625 13.8125 5.515625 26.8125 
Q 5.515625 40.234375 12.765625 48.109375 
Q 20.015625 56 32.328125 56 
Q 43.359375 56 49.78125 48.890625 
Q 56.203125 41.796875 56.203125 29.59375 
z
M 47.21875 32.234375 
Q 47.125 39.59375 43.09375 43.984375 
Q 39.0625 48.390625 32.421875 48.390625 
Q 24.90625 48.390625 20.390625 44.140625 
Q 15.875 39.890625 15.1875 32.171875 
z
" id="DejaVuSans-65"/>
     <path id="DejaVuSans-20"/>
     <path d="M 51.125 44 
L 36.921875 44 
L 32.8125 27.6875 
L 47.125 27.6875 
z
M 43.796875 71.78125 
L 38.71875 51.515625 
L 52.984375 51.515625 
L 58.109375 71.78125 
L 65.921875 71.78125 
L 60.890625 51.515625 
L 76.125 51.515625 
L 76.125 44 
L 58.984375 44 
L 54.984375 27.6875 
L 70.515625 27.6875 
L 70.515625 20.21875 
L 53.078125 20.21875 
L 48 0 
L 40.1875 0 
L 45.21875 20.21875 
L 30.90625 20.21875 
L 25.875 0 
L 18.015625 0 
L 23.09375 20.21875 
L 7.71875 20.21875 
L 7.71875 27.6875 
L 24.90625 27.6875 
L 29 44 
L 13.28125 44 
L 13.28125 51.515625 
L 30.90625 51.515625 
L 35.890625 71.78125 
z
" id="DejaVuSans-23"/>
     <path d="M 40.578125 39.3125 
Q 47.65625 37.796875 51.625 33 
Q 55.609375 28.21875 55.609375 21.1875 
Q 55.609375 10.40625 48.1875 4.484375 
Q 40.765625 -1.421875 27.09375 -1.421875 
Q 22.515625 -1.421875 17.65625 -0.515625 
Q 12.796875 0.390625 7.625 2.203125 
L 7.625 11.71875 
Q 11.71875 9.328125 16.59375 8.109375 
Q 21.484375 6.890625 26.8125 6.890625 
Q 36.078125 6.890625 40.9375 10.546875 
Q 45.796875 14.203125 45.796875 21.1875 
Q 45.796875 27.640625 41.28125 31.265625 
Q 36.765625 34.90625 28.71875 34.90625 
L 20.21875 34.90625 
L 20.21875 43.015625 
L 29.109375 43.015625 
Q 36.375 43.015625 40.234375 45.921875 
Q 44.09375 48.828125 44.09375 54.296875 
Q 44.09375 59.90625 40.109375 62.90625 
Q 36.140625 65.921875 28.71875 65.921875 
Q 24.65625 65.921875 20.015625 65.03125 
Q 15.375 64.15625 9.8125 62.3125 
L 9.8125 71.09375 
Q 15.4375 72.65625 20.34375 73.4375 
Q 25.25 74.21875 29.59375 74.21875 
Q 40.828125 74.21875 47.359375 69.109375 
Q 53.90625 64.015625 53.90625 55.328125 
Q 53.90625 49.265625 50.4375 45.09375 
Q 46.96875 40.921875 40.578125 39.3125 
z
" id="DejaVuSans-33"/>
     <path d="M 33.015625 40.375 
Q 26.375 40.375 22.484375 35.828125 
Q 18.609375 31.296875 18.609375 23.390625 
Q 18.609375 15.53125 22.484375 10.953125 
Q 26.375 6.390625 33.015625 6.390625 
Q 39.65625 6.390625 43.53125 10.953125 
Q 47.40625 15.53125 47.40625 23.390625 
Q 47.40625 31.296875 43.53125 35.828125 
Q 39.65625 40.375 33.015625 40.375 
z
M 52.59375 71.296875 
L 52.59375 62.3125 
Q 48.875 64.0625 45.09375 64.984375 
Q 41.3125 65.921875 37.59375 65.921875 
Q 27.828125 65.921875 22.671875 59.328125 
Q 17.53125 52.734375 16.796875 39.40625 
Q 19.671875 43.65625 24.015625 45.921875 
Q 28.375 48.1875 33.59375 48.1875 
Q 44.578125 48.1875 50.953125 41.515625 
Q 57.328125 34.859375 57.328125 23.390625 
Q 57.328125 12.15625 50.6875 5.359375 
Q 44.046875 -1.421875 33.015625 -1.421875 
Q 20.359375 -1.421875 13.671875 8.265625 
Q 6.984375 17.96875 6.984375 36.375 
Q 6.984375 53.65625 15.1875 63.9375 
Q 23.390625 74.21875 37.203125 74.21875 
Q 40.921875 74.21875 44.703125 73.484375 
Q 48.484375 72.75 52.59375 71.296875 
z
" id="DejaVuSans-36"/>
     <path d="M 10.796875 72.90625 
L 49.515625 72.90625 
L 49.515625 64.59375 
L 19.828125 64.59375 
L 19.828125 46.734375 
Q 21.96875 47.46875 24.109375 47.828125 
Q 26.265625 48.1875 28.421875 48.1875 
Q 40.625 48.1875 47.75 41.5 
Q 54.890625 34.8125 54.890625 23.390625 
Q 54.890625 11.625 47.5625 5.09375 
Q 40.234375 -1.421875 26.90625 -1.421875 
Q 22.3125 -1.421875 17.546875 -0.640625 
Q 12.796875 0.140625 7.71875 1.703125 
L 7.71875 11.625 
Q 12.109375 9.234375 16.796875 8.0625 
Q 21.484375 6.890625 26.703125 6.890625 
Q 35.15625 6.890625 40.078125 11.328125 
Q 45.015625 15.765625 45.015625 23.390625 
Q 45.015625 31 40.078125 35.4375 
Q 35.15625 39.890625 26.703125 39.890625 
Q 22.75 39.890625 18.8125 39.015625 
Q 14.890625 38.140625 10.796875 36.28125 
z
" id="DejaVuSans-35"/>
     <path d="M 11.71875 12.40625 
L 22.015625 12.40625 
L 22.015625 4 
L 14.015625 -11.625 
L 7.71875 -11.625 
L 11.71875 4 
z
" id="DejaVuSans-2c"/>
     <path d="M 16.890625 72.90625 
L 62.984375 72.90625 
L 61.375 64.59375 
L 25.09375 64.59375 
L 20.90625 43.015625 
L 55.71875 43.015625 
L 54.109375 34.71875 
L 19.28125 34.71875 
L 14.203125 8.296875 
L 51.3125 8.296875 
L 49.703125 0 
L 2.6875 0 
z
" id="DejaVuSans-Oblique-45"/>
     <path d="M 16.890625 72.90625 
L 30.171875 72.90625 
L 50.296875 10.40625 
L 62.5 72.90625 
L 72.125 72.90625 
L 57.90625 0 
L 44.578125 0 
L 24.515625 62.890625 
L 12.3125 0 
L 2.6875 0 
z
" id="DejaVuSans-Oblique-4e"/>
     <path d="M 10.59375 45.40625 
L 73.1875 45.40625 
L 73.1875 37.203125 
L 10.59375 37.203125 
z
M 10.59375 25.484375 
L 73.1875 25.484375 
L 73.1875 17.1875 
L 10.59375 17.1875 
z
" id="DejaVuSans-3d"/>
     <path d="M 4.890625 31.390625 
L 31.203125 31.390625 
L 31.203125 23.390625 
L 4.890625 23.390625 
z
" id="DejaVuSans-2d"/>
     <path d="M 12.40625 8.296875 
L 28.515625 8.296875 
L 28.515625 63.921875 
L 10.984375 60.40625 
L 10.984375 69.390625 
L 28.421875 72.90625 
L 38.28125 72.90625 
L 38.28125 8.296875 
L 54.390625 8.296875 
L 54.390625 0 
L 12.40625 0 
z
" id="DejaVuSans-31"/>
     <path d="M 8.203125 72.90625 
L 55.078125 72.90625 
L 55.078125 68.703125 
L 28.609375 0 
L 18.3125 0 
L 43.21875 64.59375 
L 8.203125 64.59375 
z
" id="DejaVuSans-37"/>
     <path d="M 31.78125 34.625 
Q 24.75 34.625 20.71875 30.859375 
Q 16.703125 27.09375 16.703125 20.515625 
Q 16.703125 13.921875 20.71875 10.15625 
Q 24.75 6.390625 31.78125 6.390625 
Q 38.8125 6.390625 42.859375 10.171875 
Q 46.921875 13.96875 46.921875 20.515625 
Q 46.921875 27.09375 42.890625 30.859375 
Q 38.875 34.625 31.78125 34.625 
z
M 21.921875 38.8125 
Q 15.578125 40.375 12.03125 44.71875 
Q 8.5 49.078125 8.5 55.328125 
Q 8.5 64.0625 14.71875 69.140625 
Q 20.953125 74.21875 31.78125 74.21875 
Q 42.671875 74.21875 48.875 69.140625 
Q 55.078125 64.0625 55.078125 55.328125 
Q 55.078125 49.078125 51.53125 44.71875 
Q 48 40.375 41.703125 38.8125 
Q 48.828125 37.15625 52.796875 32.3125 
Q 56.78125 27.484375 56.78125 20.515625 
Q 56.78125 9.90625 50.3125 4.234375 
Q 43.84375 -1.421875 31.78125 -1.421875 
Q 19.734375 -1.421875 13.25 4.234375 
Q 6.78125 9.90625 6.78125 20.515625 
Q 6.78125 27.484375 10.78125 32.3125 
Q 14.796875 37.15625 21.921875 38.8125 
z
M 18.3125 54.390625 
Q 18.3125 48.734375 21.84375 45.5625 
Q 25.390625 42.390625 31.78125 42.390625 
Q 38.140625 42.390625 41.71875 45.5625 
Q 45.3125 48.734375 45.3125 54.390625 
Q 45.3125 60.0625 41.71875 63.234375 
Q 38.140625 66.40625 31.78125 66.40625 
Q 25.390625 66.40625 21.84375 63.234375 
Q 18.3125 60.0625 18.3125 54.390625 
z
" id="DejaVuSans-38"/>
     <path d="M 10.6875 12.40625 
L 21 12.40625 
L 21 0 
L 10.6875 0 
z
" id="DejaVuSans-2e"/>
     <path d="M 19.1875 8.296875 
L 53.609375 8.296875 
L 53.609375 0 
L 7.328125 0 
L 7.328125 8.296875 
Q 12.9375 14.109375 22.625 23.890625 
Q 32.328125 33.6875 34.8125 36.53125 
Q 39.546875 41.84375 41.421875 45.53125 
Q 43.3125 49.21875 43.3125 52.78125 
Q 43.3125 58.59375 39.234375 62.25 
Q 35.15625 65.921875 28.609375 65.921875 
Q 23.96875 65.921875 18.8125 64.3125 
Q 13.671875 62.703125 7.8125 59.421875 
L 7.8125 69.390625 
Q 13.765625 71.78125 18.9375 73 
Q 24.125 74.21875 28.421875 74.21875 
Q 39.75 74.21875 46.484375 68.546875 
Q 53.21875 62.890625 53.21875 53.421875 
Q 53.21875 48.921875 51.53125 44.890625 
Q 49.859375 40.875 45.40625 35.40625 
Q 44.1875 33.984375 37.640625 27.21875 
Q 31.109375 20.453125 19.1875 8.296875 
z
" id="DejaVuSans-32"/>
     <path d="M 10.984375 1.515625 
L 10.984375 10.5 
Q 14.703125 8.734375 18.5 7.8125 
Q 22.3125 6.890625 25.984375 6.890625 
Q 35.75 6.890625 40.890625 13.453125 
Q 46.046875 20.015625 46.78125 33.40625 
Q 43.953125 29.203125 39.59375 26.953125 
Q 35.25 24.703125 29.984375 24.703125 
Q 19.046875 24.703125 12.671875 31.3125 
Q 6.296875 37.9375 6.296875 49.421875 
Q 6.296875 60.640625 12.9375 67.421875 
Q 19.578125 74.21875 30.609375 74.21875 
Q 43.265625 74.21875 49.921875 64.515625 
Q 56.59375 54.828125 56.59375 36.375 
Q 56.59375 19.140625 48.40625 8.859375 
Q 40.234375 -1.421875 26.421875 -1.421875 
Q 22.703125 -1.421875 18.890625 -0.6875 
Q 15.09375 0.046875 10.984375 1.515625 
z
M 30.609375 32.421875 
Q 37.25 32.421875 41.125 36.953125 
Q 45.015625 41.5 45.015625 49.421875 
Q 45.015625 57.28125 41.125 61.84375 
Q 37.25 66.40625 30.609375 66.40625 
Q 23.96875 66.40625 20.09375 61.84375 
Q 16.21875 57.28125 16.21875 49.421875 
Q 16.21875 41.5 20.09375 36.953125 
Q 23.96875 32.421875 30.609375 32.421875 
z
" id="DejaVuSans-39"/>
     <path d="M 28.609375 0 
L 0.78125 72.90625 
L 11.078125 72.90625 
L 34.1875 11.53125 
L 57.328125 72.90625 
L 67.578125 72.90625 
L 39.796875 0 
z
" id="DejaVuSans-56"/>
     <path d="M 34.1875 63.1875 
L 14.15625 8.203125 
L 54.25 8.203125 
z
M 0.78125 0 
L 28.609375 72.90625 
L 39.796875 72.90625 
L 67.578125 0 
z
" id="DejaVuSans-394"/>
     <path d="M 9.8125 72.90625 
L 55.90625 72.90625 
L 55.90625 64.59375 
L 19.671875 64.59375 
L 19.671875 43.015625 
L 54.390625 43.015625 
L 54.390625 34.71875 
L 19.671875 34.71875 
L 19.671875 8.296875 
L 56.78125 8.296875 
L 56.78125 0 
L 9.8125 0 
z
" id="DejaVuSans-45"/>
     <path d="M 31.78125 66.40625 
Q 24.171875 66.40625 20.328125 58.90625 
Q 16.5 51.421875 16.5 36.375 
Q 16.5 21.390625 20.328125 13.890625 
Q 24.171875 6.390625 31.78125 6.390625 
Q 39.453125 6.390625 43.28125 13.890625 
Q 47.125 21.390625 47.125 36.375 
Q 47.125 51.421875 43.28125 58.90625 
Q 39.453125 66.40625 31.78125 66.40625 
z
M 31.78125 74.21875 
Q 44.046875 74.21875 50.515625 64.515625 
Q 56.984375 54.828125 56.984375 36.375 
Q 56.984375 17.96875 50.515625 8.265625 
Q 44.046875 -1.421875 31.78125 -1.421875 
Q 19.53125 -1.421875 13.0625 8.265625 
Q 6.59375 17.96875 6.59375 36.375 
Q 6.59375 54.828125 13.0625 64.515625 
Q 19.53125 74.21875 31.78125 74.21875 
z
" id="DejaVuSans-30"/>
    </defs>
    <g transform="translate(63.228 35.472)scale(0.12 -0.12)">
     <use transform="translate(0 0.78125)" xlink:href="#DejaVuSans-53"/>
     <use transform="translate(63.476562 0.78125)" xlink:href="#DejaVuSans-74"/>
     <use transform="translate(102.685547 0.78125)" xlink:href="#DejaVuSans-72"/>
     <use transform="translate(143.798828 0.78125)" xlink:href="#DejaVuSans-75"/>
     <use transform="translate(207.177734 0.78125)" xlink:href="#DejaVuSans-63"/>
     <use transform="translate(262.158203 0.78125)" xlink:href="#DejaVuSans-74"/>
     <use transform="translate(301.367188 0.78125)" xlink:href="#DejaVuSans-75"/>
     <use transform="translate(364.746094 0.78125)" xlink:href="#DejaVuSans-72"/>
     <use transform="translate(405.859375 0.78125)" xlink:href="#DejaVuSans-65"/>
     <use transform="translate(467.382812 0.78125)" xlink:href="#DejaVuSans-20"/>
     <use transform="translate(499.169922 0.78125)" xlink:href="#DejaVuSans-23"/>
     <use transform="translate(582.958984 0.78125)" xlink:href="#DejaVuSans-33"/>
     <use transform="translate(646.582031 0.78125)" xlink:href="#DejaVuSans-36"/>
     <use transform="translate(710.205078 0.78125)" xlink:href="#DejaVuSans-35"/>
     <use transform="translate(773.828125 0.78125)" xlink:href="#DejaVuSans-35"/>
     <use transform="translate(837.451172 0.78125)" xlink:href="#DejaVuSans-2c"/>
     <use transform="translate(869.238281 0.78125)" xlink:href="#DejaVuSans-20"/>
     <use transform="translate(901.025391 0.78125)" xlink:href="#DejaVuSans-Oblique-45"/>
     <use transform="translate(964.208984 -15.625)scale(0.7)" xlink:href="#DejaVuSans-Oblique-4e"/>
     <use transform="translate(1019.306641 0.78125)" xlink:href="#DejaVuSans-3d"/>
     <use transform="translate(1103.095703 0.78125)" xlink:href="#DejaVuSans-2d"/>
     <use transform="translate(1139.179688 0.78125)" xlink:href="#DejaVuSans-31"/>
     <use transform="translate(1202.802734 0.78125)" xlink:href="#DejaVuSans-37"/>
     <use transform="translate(1266.425781 0.78125)" xlink:href="#DejaVuSans-38"/>
     <use transform="translate(1330.048828 0.78125)" xlink:href="#DejaVuSans-2e"/>
     <use transform="translate(1361.757812 0.78125)" xlink:href="#DejaVuSans-32"/>
     <use transform="translate(1425.365234 0.78125)" xlink:href="#DejaVuSans-39"/>
     <use transform="translate(1488.988281 0.78125)" xlink:href="#DejaVuSans-65"/>
     <use transform="translate(1550.511719 0.78125)" xlink:href="#DejaVuSans-56"/>
     <use transform="translate(1618.919922 0.78125)" xlink:href="#DejaVuSans-2c"/>
     <use transform="translate(1650.707031 0.78125)" xlink:href="#DejaVuSans-20"/>
     <use transform="translate(1682.494141 0.78125)" xlink:href="#DejaVuSans-394"/>
     <use transform="translate(1750.902344 0.78125)" xlink:href="#DejaVuSans-45"/>
     <use transform="translate(1814.085938 0.78125)" xlink:href="#DejaVuSans-3d"/>
     <use transform="translate(1897.875 0.78125)" xlink:href="#DejaVuSans-2d"/>
     <use transform="translate(1933.958984 0.78125)" xlink:href="#DejaVuSans-30"/>
     <use transform="translate(1997.582031 0.78125)" xlink:href="#DejaVuSans-2e"/>
     <use transform="translate(2029.369141 0.78125)" xlink:href="#DejaVuSans-31"/>
     <use transform="translate(2092.992188 0.78125)" xlink:href="#DejaVuSans-31"/>
     <use transform="translate(2156.615234 0.78125)" xlink:href="#DejaVuSans-65"/>
     <use transform="translate(2218.138672 0.78125)" xlink:href="#DejaVuSans-56"/>
    </g>
   </g>
  </g>
  <g id="axes_2">
   <g id="patch_2">
    <path clip-path="url(#pef8e453aa3)" d="M 361.152 307.584 
L 361.152 306.5445 
L 361.152 42.5115 
L 361.152 41.472 
L 374.4576 41.472 
L 374.4576 42.5115 
L 374.4576 306.5445 
L 374.4576 307.584 
z
" style="fill:#ffffff;stroke:#ffffff;stroke-linejoin:miter;stroke-width:0.01;"/>
   </g>
   <image height="265.68" id="image379697ed4c" transform="scale(1 -1)translate(0 -265.68)" width="12.96" x="361.44" xlink:href="data:image/png;base64,
iVBORw0KGgoAAAANSUhEUgAAABIAAAFxCAYAAAB+2fgXAAAABHNCSVQICAgIfAhkiAAAAeVJREFUeJztncmNw0AQA2ckheYQNv9QLIfQ8ygsCgQ7AEI8+jAs2Puz/94F1LP2ReCsZ18bAWIeZ5XaGRBE7VnbptG+KI101FYyNSiQG2oRITXKNaX9uclOdi2XWjftVE32CZCO2ou5Bj1TcCBr/1zB9ge7Fq0Rg2NM9pvbtG+ua1QgsRYhDy0ISEiNc40BEibbSI0Coj5CBGtkpFbXJiAjNZlrwhuSOv2M1DjXbEdEciBt1JSDDQKKpmZr2rr2j0DBGpXaWEJq3bQzEPIS26r9J+Wzv9Tm8o3aajRXqc3VUXsApKNWjeZq0x4ABVNbm7lrszVigDqP5vIl2+eaT2yfRkL7g+dRcNPqjohkjaCvRVBq0H2U3LQrOJCx9kdTg4B8oxZzzTdqdYHEngjUCAPyUctN9sVRq2sTECW2UKNLd2jVtRmo1A6AhMmWaSRcR8nUdIHUuVb75zJS218EyEitro1At69pIdeSk30Lkw0FktNImGyZRhy1O5galmxd03LUsHWk06jUZiCq+5Wb1kZNN4+wJxJuWt8RAW5am2sYNZ9rYCBzZ3buPKJ2P5Yj4Toy3keyIyJbIxs1rml1byCA84gpch5RQNB7Q0qNMGq2Hy4BXdNR41yz/cEEJfZzUz96r9PoB0okjeQ8y9TkAAAAAElFTkSuQmCC" y="-41.76"/>
   <g id="matplotlib.axis_1"/>
   <g id="matplotlib.axis_2">
    <g id="ytick_1">
     <g id="line2d_1">
      <defs>
       <path d="M 0 0 
L 3.5 0 
" id="ma4ad6b7964" style="stroke:#000000;stroke-width:0.8;"/>
      </defs>
      <g>
       <use style="stroke:#000000;stroke-width:0.8;" x="374.4576" xlink:href="#ma4ad6b7964" y="275.030076"/>
      </g>
     </g>
     <g id="text_2">
      <!-- −7.5 -->
      <defs>
       <path d="M 10.59375 35.5 
L 73.1875 35.5 
L 73.1875 27.203125 
L 10.59375 27.203125 
z
" id="DejaVuSans-2212"/>
      </defs>
      <g transform="translate(381.4576 278.829294)scale(0.1 -0.1)">
       <use xlink:href="#DejaVuSans-2212"/>
       <use x="83.789062" xlink:href="#DejaVuSans-37"/>
       <use x="147.412109" xlink:href="#DejaVuSans-2e"/>
       <use x="179.199219" xlink:href="#DejaVuSans-35"/>
      </g>
     </g>
    </g>
    <g id="ytick_2">
     <g id="line2d_2">
      <g>
       <use style="stroke:#000000;stroke-width:0.8;" x="374.4576" xlink:href="#ma4ad6b7964" y="228.268416"/>
      </g>
     </g>
     <g id="text_3">
      <!-- −7.0 -->
      <g transform="translate(381.4576 232.067634)scale(0.1 -0.1)">
       <use xlink:href="#DejaVuSans-2212"/>
       <use x="83.789062" xlink:href="#DejaVuSans-37"/>
       <use x="147.412109" xlink:href="#DejaVuSans-2e"/>
       <use x="179.199219" xlink:href="#DejaVuSans-30"/>
      </g>
     </g>
    </g>
    <g id="ytick_3">
     <g id="line2d_3">
      <g>
       <use style="stroke:#000000;stroke-width:0.8;" x="374.4576" xlink:href="#ma4ad6b7964" y="181.506756"/>
      </g>
     </g>
     <g id="text_4">
      <!-- −6.5 -->
      <g transform="translate(381.4576 185.305974)scale(0.1 -0.1)">
       <use xlink:href="#DejaVuSans-2212"/>
       <use x="83.789062" xlink:href="#DejaVuSans-36"/>
       <use x="147.412109" xlink:href="#DejaVuSans-2e"/>
       <use x="179.199219" xlink:href="#DejaVuSans-35"/>
      </g>
     </g>
    </g>
    <g id="ytick_4">
     <g id="line2d_4">
      <g>
       <use style="stroke:#000000;stroke-width:0.8;" x="374.4576" xlink:href="#ma4ad6b7964" y="134.745095"/>
      </g>
     </g>
     <g id="text_5">
      <!-- −6.0 -->
      <g transform="translate(381.4576 138.544314)scale(0.1 -0.1)">
       <use xlink:href="#DejaVuSans-2212"/>
       <use x="83.789062" xlink:href="#DejaVuSans-36"/>
       <use x="147.412109" xlink:href="#DejaVuSans-2e"/>
       <use x="179.199219" xlink:href="#DejaVuSans-30"/>
      </g>
     </g>
    </g>
    <g id="ytick_5">
     <g id="line2d_5">
      <g>
       <use style="stroke:#000000;stroke-width:0.8;" x="374.4576" xlink:href="#ma4ad6b7964" y="87.983435"/>
      </g>
     </g>
     <g id="text_6">
      <!-- −5.5 -->
      <g transform="translate(381.4576 91.782654)scale(0.1 -0.1)">
       <use xlink:href="#DejaVuSans-2212"/>
       <use x="83.789062" xlink:href="#DejaVuSans-35"/>
       <use x="147.412109" xlink:href="#DejaVuSans-2e"/>
       <use x="179.199219" xlink:href="#DejaVuSans-35"/>
      </g>
     </g>
    </g>
    <g id="text_7">
     <!-- Energy [eV] -->
     <defs>
      <path d="M 54.890625 33.015625 
L 54.890625 0 
L 45.90625 0 
L 45.90625 32.71875 
Q 45.90625 40.484375 42.875 44.328125 
Q 39.84375 48.1875 33.796875 48.1875 
Q 26.515625 48.1875 22.3125 43.546875 
Q 18.109375 38.921875 18.109375 30.90625 
L 18.109375 0 
L 9.078125 0 
L 9.078125 54.6875 
L 18.109375 54.6875 
L 18.109375 46.1875 
Q 21.34375 51.125 25.703125 53.5625 
Q 30.078125 56 35.796875 56 
Q 45.21875 56 50.046875 50.171875 
Q 54.890625 44.34375 54.890625 33.015625 
z
" id="DejaVuSans-6e"/>
      <path d="M 45.40625 27.984375 
Q 45.40625 37.75 41.375 43.109375 
Q 37.359375 48.484375 30.078125 48.484375 
Q 22.859375 48.484375 18.828125 43.109375 
Q 14.796875 37.75 14.796875 27.984375 
Q 14.796875 18.265625 18.828125 12.890625 
Q 22.859375 7.515625 30.078125 7.515625 
Q 37.359375 7.515625 41.375 12.890625 
Q 45.40625 18.265625 45.40625 27.984375 
z
M 54.390625 6.78125 
Q 54.390625 -7.171875 48.1875 -13.984375 
Q 42 -20.796875 29.203125 -20.796875 
Q 24.46875 -20.796875 20.265625 -20.09375 
Q 16.0625 -19.390625 12.109375 -17.921875 
L 12.109375 -9.1875 
Q 16.0625 -11.328125 19.921875 -12.34375 
Q 23.78125 -13.375 27.78125 -13.375 
Q 36.625 -13.375 41.015625 -8.765625 
Q 45.40625 -4.15625 45.40625 5.171875 
L 45.40625 9.625 
Q 42.625 4.78125 38.28125 2.390625 
Q 33.9375 0 27.875 0 
Q 17.828125 0 11.671875 7.65625 
Q 5.515625 15.328125 5.515625 27.984375 
Q 5.515625 40.671875 11.671875 48.328125 
Q 17.828125 56 27.875 56 
Q 33.9375 56 38.28125 53.609375 
Q 42.625 51.21875 45.40625 46.390625 
L 45.40625 54.6875 
L 54.390625 54.6875 
z
" id="DejaVuSans-67"/>
      <path d="M 32.171875 -5.078125 
Q 28.375 -14.84375 24.75 -17.8125 
Q 21.140625 -20.796875 15.09375 -20.796875 
L 7.90625 -20.796875 
L 7.90625 -13.28125 
L 13.1875 -13.28125 
Q 16.890625 -13.28125 18.9375 -11.515625 
Q 21 -9.765625 23.484375 -3.21875 
L 25.09375 0.875 
L 2.984375 54.6875 
L 12.5 54.6875 
L 29.59375 11.921875 
L 46.6875 54.6875 
L 56.203125 54.6875 
z
" id="DejaVuSans-79"/>
      <path d="M 8.59375 75.984375 
L 29.296875 75.984375 
L 29.296875 69 
L 17.578125 69 
L 17.578125 -6.203125 
L 29.296875 -6.203125 
L 29.296875 -13.1875 
L 8.59375 -13.1875 
z
" id="DejaVuSans-5b"/>
      <path d="M 30.421875 75.984375 
L 30.421875 -13.1875 
L 9.71875 -13.1875 
L 9.71875 -6.203125 
L 21.390625 -6.203125 
L 21.390625 69 
L 9.71875 69 
L 9.71875 75.984375 
z
" id="DejaVuSans-5d"/>
     </defs>
     <g transform="translate(417.33885 204.108469)rotate(-90)scale(0.1 -0.1)">
      <use xlink:href="#DejaVuSans-45"/>
      <use x="63.183594" xlink:href="#DejaVuSans-6e"/>
      <use x="126.5625" xlink:href="#DejaVuSans-65"/>
      <use x="188.085938" xlink:href="#DejaVuSans-72"/>
      <use x="229.183594" xlink:href="#DejaVuSans-67"/>
      <use x="292.660156" xlink:href="#DejaVuSans-79"/>
      <use x="351.839844" xlink:href="#DejaVuSans-20"/>
      <use x="383.626953" xlink:href="#DejaVuSans-5b"/>
      <use x="422.640625" xlink:href="#DejaVuSans-65"/>
      <use x="484.164062" xlink:href="#DejaVuSans-56"/>
      <use x="552.572266" xlink:href="#DejaVuSans-5d"/>
     </g>
    </g>
   </g>
   <g id="patch_3">
    <path d="M 361.152 307.584 
L 361.152 306.5445 
L 361.152 42.5115 
L 361.152 41.472 
L 374.4576 41.472 
L 374.4576 42.5115 
L 374.4576 306.5445 
L 374.4576 307.584 
z
" style="fill:none;stroke:#000000;stroke-linejoin:miter;stroke-width:0.8;"/>
   </g>
  </g>
 </g>
 <defs>
  <clipPath id="p04cba86c93">
   <rect height="266.112" width="285.696" x="57.6" y="41.472"/>
  </clipPath>
  <clipPath id="pef8e453aa3">
   <rect height="266.112" width="13.3056" x="361.152" y="41.472"/>
  </clipPath>
 </defs>
</svg>
