<?xml version="1.0" encoding="utf-8" standalone="no"?>
<!DOCTYPE svg PUBLIC "-//W3C//DTD SVG 1.1//EN"
  "http://www.w3.org/Graphics/SVG/1.1/DTD/svg11.dtd">
<!-- Created with matplotlib (http://matplotlib.org/) -->
<svg height="345.6pt" version="1.1" viewBox="0 0 460.8 345.6" width="460.8pt" xmlns="http://www.w3.org/2000/svg" xmlns:xlink="http://www.w3.org/1999/xlink">
 <defs>
  <style type="text/css">
*{stroke-linecap:butt;stroke-linejoin:round;}
  </style>
 </defs>
 <g id="figure_1">
  <g id="patch_1">
   <path d="M 0 345.6 
L 460.8 345.6 
L 460.8 0 
L 0 0 
z
" style="fill:#ffffff;"/>
  </g>
  <g id="axes_1">
   <g id="CircleCollection_1">
    <path clip-path="url(#p92009ce69a)" d="M 258.397738 291.107298 
C 260.19015 291.107298 261.90939 290.395165 263.176817 289.127739 
C 264.444243 287.860312 265.156376 286.141071 265.156376 284.348659 
C 265.156376 282.556248 264.444243 280.837007 263.176817 279.56958 
C 261.90939 278.302154 260.19015 277.590021 258.397738 277.590021 
C 256.605326 277.590021 254.886085 278.302154 253.618658 279.56958 
C 252.351232 280.837007 251.639099 282.556248 251.639099 284.348659 
C 251.639099 286.141071 252.351232 287.860312 253.618658 289.127739 
C 254.886085 290.395165 256.605326 291.107298 258.397738 291.107298 
z
" style="fill:#2a768e;"/>
    <path clip-path="url(#p92009ce69a)" d="M 70.921372 239.564782 
C 72.547613 239.564782 74.107466 238.91867 75.257392 237.768744 
C 76.407317 236.618818 77.05343 235.058965 77.05343 233.432724 
C 77.05343 231.806484 76.407317 230.24663 75.257392 229.096705 
C 74.107466 227.946779 72.547613 227.300666 70.921372 227.300666 
C 69.295131 227.300666 67.735278 227.946779 66.585352 229.096705 
C 65.435426 230.24663 64.789314 231.806484 64.789314 233.432724 
C 64.789314 235.058965 65.435426 236.618818 66.585352 237.768744 
C 67.735278 238.91867 69.295131 239.564782 70.921372 239.564782 
z
" style="fill:#fde725;"/>
    <path clip-path="url(#p92009ce69a)" d="M 223.027559 60.656447 
C 224.759899 60.656447 226.421521 59.968181 227.646471 58.743231 
C 228.871421 57.518281 229.559688 55.856659 229.559688 54.124318 
C 229.559688 52.391977 228.871421 50.730355 227.646471 49.505405 
C 226.421521 48.280455 224.759899 47.592188 223.027559 47.592188 
C 221.295218 47.592188 219.633596 48.280455 218.408646 49.505405 
C 217.183696 50.730355 216.495429 52.391977 216.495429 54.124318 
C 216.495429 55.856659 217.183696 57.518281 218.408646 58.743231 
C 219.633596 59.968181 221.295218 60.656447 223.027559 60.656447 
z
" style="fill:#238a8d;"/>
    <path clip-path="url(#p92009ce69a)" d="M 329.956946 219.263653 
C 331.668975 219.263653 333.311114 218.583457 334.521701 217.37287 
C 335.732289 216.162283 336.412485 214.520143 336.412485 212.808114 
C 336.412485 211.096085 335.732289 209.453946 334.521701 208.243359 
C 333.311114 207.032771 331.668975 206.352575 329.956946 206.352575 
C 328.244917 206.352575 326.602778 207.032771 325.39219 208.243359 
C 324.181603 209.453946 323.501407 211.096085 323.501407 212.808114 
C 323.501407 214.520143 324.181603 216.162283 325.39219 217.37287 
C 326.602778 218.583457 328.244917 219.263653 329.956946 219.263653 
z
" style="fill:#1f958b;"/>
    <path clip-path="url(#p92009ce69a)" d="M 280.145321 115.521042 
C 281.891976 115.521042 283.567328 114.827089 284.802399 113.592018 
C 286.037471 112.356946 286.731424 110.681595 286.731424 108.93494 
C 286.731424 107.188285 286.037471 105.512934 284.802399 104.277862 
C 283.567328 103.042791 281.891976 102.348837 280.145321 102.348837 
C 278.398667 102.348837 276.723315 103.042791 275.488244 104.277862 
C 274.253172 105.512934 273.559219 107.188285 273.559219 108.93494 
C 273.559219 110.681595 274.253172 112.356946 275.488244 113.592018 
C 276.723315 114.827089 278.398667 115.521042 280.145321 115.521042 
z
" style="fill:#355f8d;"/>
    <path clip-path="url(#p92009ce69a)" d="M 154.889258 138.278111 
C 156.703641 138.278111 158.443957 137.557249 159.72692 136.274286 
C 161.009883 134.991323 161.730745 133.251007 161.730745 131.436624 
C 161.730745 129.62224 161.009883 127.881925 159.72692 126.598962 
C 158.443957 125.315999 156.703641 124.595136 154.889258 124.595136 
C 153.074874 124.595136 151.334558 125.315999 150.051595 126.598962 
C 148.768632 127.881925 148.04777 129.62224 148.04777 131.436624 
C 148.04777 133.251007 148.768632 134.991323 150.051595 136.274286 
C 151.334558 137.557249 153.074874 138.278111 154.889258 138.278111 
z
" style="fill:#297b8e;"/>
    <path clip-path="url(#p92009ce69a)" d="M 235.04667 207.249063 
C 236.856753 207.249063 238.592943 206.529909 239.872865 205.249988 
C 241.152787 203.970066 241.87194 202.233875 241.87194 200.423792 
C 241.87194 198.613709 241.152787 196.877519 239.872865 195.597597 
C 238.592943 194.317675 236.856753 193.598522 235.04667 193.598522 
C 233.236587 193.598522 231.500397 194.317675 230.220475 195.597597 
C 228.940553 196.877519 228.221399 198.613709 228.221399 200.423792 
C 228.221399 202.233875 228.940553 203.970066 230.220475 205.249988 
C 231.500397 206.529909 233.236587 207.249063 235.04667 207.249063 
z
" style="fill:#31688e;"/>
    <path clip-path="url(#p92009ce69a)" d="M 268.205007 209.061514 
C 269.968544 209.061514 271.660089 208.360853 272.907098 207.113844 
C 274.154107 205.866835 274.854768 204.17529 274.854768 202.411753 
C 274.854768 200.648215 274.154107 198.956671 272.907098 197.709662 
C 271.660089 196.462652 269.968544 195.761992 268.205007 195.761992 
C 266.441469 195.761992 264.749925 196.462652 263.502915 197.709662 
C 262.255906 198.956671 261.555246 200.648215 261.555246 202.411753 
C 261.555246 204.17529 262.255906 205.866835 263.502915 207.113844 
C 264.749925 208.360853 266.441469 209.061514 268.205007 209.061514 
z
" style="fill:#297a8e;"/>
    <path clip-path="url(#p92009ce69a)" d="M 136.948749 175.943043 
C 138.730634 175.943043 140.439776 175.235093 141.699759 173.97511 
C 142.959742 172.715128 143.667692 171.005985 143.667692 169.2241 
C 143.667692 167.442216 142.959742 165.733073 141.699759 164.47309 
C 140.439776 163.213108 138.730634 162.505158 136.948749 162.505158 
C 135.166865 162.505158 133.457722 163.213108 132.197739 164.47309 
C 130.937757 165.733073 130.229806 167.442216 130.229806 169.2241 
C 130.229806 171.005985 130.937757 172.715128 132.197739 173.97511 
C 133.457722 175.235093 135.166865 175.943043 136.948749 175.943043 
z
" style="fill:#355f8d;"/>
    <path clip-path="url(#p92009ce69a)" d="M 324.055639 301.454738 
C 325.78535 301.454738 327.444449 300.767517 328.667539 299.544426 
C 329.890629 298.321336 330.57785 296.662238 330.57785 294.932527 
C 330.57785 293.202817 329.890629 291.543718 328.667539 290.320628 
C 327.444449 289.097538 325.78535 288.410316 324.055639 288.410316 
C 322.325929 288.410316 320.66683 289.097538 319.44374 290.320628 
C 318.22065 291.543718 317.533429 293.202817 317.533429 294.932527 
C 317.533429 296.662238 318.22065 298.321336 319.44374 299.544426 
C 320.66683 300.767517 322.325929 301.454738 324.055639 301.454738 
z
" style="fill:#228c8d;"/>
    <path clip-path="url(#p92009ce69a)" d="M 250.97566 114.133481 
C 252.785237 114.133481 254.520942 113.414528 255.800507 112.134964 
C 257.080071 110.8554 257.799024 109.119694 257.799024 107.310117 
C 257.799024 105.50054 257.080071 103.764835 255.800507 102.48527 
C 254.520942 101.205706 252.785237 100.486753 250.97566 100.486753 
C 249.166082 100.486753 247.430377 101.205706 246.150813 102.48527 
C 244.871248 103.764835 244.152296 105.50054 244.152296 107.310117 
C 244.152296 109.119694 244.871248 110.8554 246.150813 112.134964 
C 247.430377 113.414528 249.166082 114.133481 250.97566 114.133481 
z
" style="fill:#2c728e;"/>
    <path clip-path="url(#p92009ce69a)" d="M 183.853271 108.404058 
C 185.655658 108.404058 187.384467 107.687962 188.658947 106.413482 
C 189.933428 105.139001 190.649524 103.410192 190.649524 101.607805 
C 190.649524 99.805418 189.933428 98.076609 188.658947 96.802128 
C 187.384467 95.527648 185.655658 94.811552 183.853271 94.811552 
C 182.050883 94.811552 180.322074 95.527648 179.047594 96.802128 
C 177.773113 98.076609 177.057017 99.805418 177.057017 101.607805 
C 177.057017 103.410192 177.773113 105.139001 179.047594 106.413482 
C 180.322074 107.687962 182.050883 108.404058 183.853271 108.404058 
z
" style="fill:#46327e;"/>
    <path clip-path="url(#p92009ce69a)" d="M 303.637419 145.728276 
C 305.359964 145.728276 307.012189 145.043901 308.230212 143.825879 
C 309.448235 142.607856 310.132609 140.95563 310.132609 139.233086 
C 310.132609 137.510541 309.448235 135.858316 308.230212 134.640293 
C 307.012189 133.42227 305.359964 132.737896 303.637419 132.737896 
C 301.914875 132.737896 300.262649 133.42227 299.044626 134.640293 
C 297.826603 135.858316 297.142229 137.510541 297.142229 139.233086 
C 297.142229 140.95563 297.826603 142.607856 299.044626 143.825879 
C 300.262649 145.043901 301.914875 145.728276 303.637419 145.728276 
z
" style="fill:#21a585;"/>
    <path clip-path="url(#p92009ce69a)" d="M 251.451121 246.848037 
C 253.239845 246.848037 254.955548 246.137369 256.220367 244.87255 
C 257.485186 243.607732 258.195853 241.892028 258.195853 240.103304 
C 258.195853 238.31458 257.485186 236.598877 256.220367 235.334058 
C 254.955548 234.06924 253.239845 233.358572 251.451121 233.358572 
C 249.662397 233.358572 247.946694 234.06924 246.681875 235.334058 
C 245.417056 236.598877 244.706388 238.31458 244.706388 240.103304 
C 244.706388 241.892028 245.417056 243.607732 246.681875 244.87255 
C 247.946694 246.137369 249.662397 246.848037 251.451121 246.848037 
z
" style="fill:#31678e;"/>
    <path clip-path="url(#p92009ce69a)" d="M 169.78846 178.269444 
C 171.620282 178.269444 173.377324 177.541653 174.672618 176.246359 
C 175.967912 174.951065 176.695703 173.194023 176.695703 171.362201 
C 176.695703 169.530378 175.967912 167.773336 174.672618 166.478042 
C 173.377324 165.182748 171.620282 164.454958 169.78846 164.454958 
C 167.956638 164.454958 166.199595 165.182748 164.904302 166.478042 
C 163.609008 167.773336 162.881217 169.530378 162.881217 171.362201 
C 162.881217 173.194023 163.609008 174.951065 164.904302 176.246359 
C 166.199595 177.541653 167.956638 178.269444 169.78846 178.269444 
z
" style="fill:#2a768e;"/>
    <path clip-path="url(#p92009ce69a)" d="M 191.342933 70.203847 
C 193.102618 70.203847 194.790468 69.504716 196.034753 68.260431 
C 197.279038 67.016146 197.978169 65.328296 197.978169 63.568611 
C 197.978169 61.808926 197.279038 60.121077 196.034753 58.876792 
C 194.790468 57.632506 193.102618 56.933376 191.342933 56.933376 
C 189.583248 56.933376 187.895399 57.632506 186.651114 58.876792 
C 185.406828 60.121077 184.707698 61.808926 184.707698 63.568611 
C 184.707698 65.328296 185.406828 67.016146 186.651114 68.260431 
C 187.895399 69.504716 189.583248 70.203847 191.342933 70.203847 
z
" style="fill:#228d8d;"/>
    <path clip-path="url(#p92009ce69a)" d="M 217.386711 132.722072 
C 219.212255 132.722072 220.963275 131.996775 222.25413 130.705921 
C 223.544984 129.415067 224.27028 127.664047 224.27028 125.838503 
C 224.27028 124.012959 223.544984 122.261939 222.25413 120.971085 
C 220.963275 119.68023 219.212255 118.954934 217.386711 118.954934 
C 215.561168 118.954934 213.810148 119.68023 212.519293 120.971085 
C 211.228439 122.261939 210.503143 124.012959 210.503143 125.838503 
C 210.503143 127.664047 211.228439 129.415067 212.519293 130.705921 
C 213.810148 131.996775 215.561168 132.722072 217.386711 132.722072 
z
" style="fill:#472d7b;"/>
    <path clip-path="url(#p92009ce69a)" d="M 113.327605 195.988993 
C 115.059715 195.988993 116.721115 195.300818 117.945902 194.076031 
C 119.170689 192.851245 119.858864 191.189844 119.858864 189.457734 
C 119.858864 187.725624 119.170689 186.064223 117.945902 184.839437 
C 116.721115 183.61465 115.059715 182.926475 113.327605 182.926475 
C 111.595495 182.926475 109.934094 183.61465 108.709307 184.839437 
C 107.484521 186.064223 106.796346 187.725624 106.796346 189.457734 
C 106.796346 191.189844 107.484521 192.851245 108.709307 194.076031 
C 109.934094 195.300818 111.595495 195.988993 113.327605 195.988993 
z
" style="fill:#31688e;"/>
    <path clip-path="url(#p92009ce69a)" d="M 328.513212 259.894949 
C 330.223472 259.894949 331.863914 259.215456 333.07325 258.006119 
C 334.282587 256.796783 334.96208 255.156341 334.96208 253.446081 
C 334.96208 251.735822 334.282587 250.09538 333.07325 248.886043 
C 331.863914 247.676707 330.223472 246.997214 328.513212 246.997214 
C 326.802953 246.997214 325.16251 247.676707 323.953174 248.886043 
C 322.743838 250.09538 322.064345 251.735822 322.064345 253.446081 
C 322.064345 255.156341 322.743838 256.796783 323.953174 258.006119 
C 325.16251 259.215456 326.802953 259.894949 328.513212 259.894949 
z
" style="fill:#2a768e;"/>
    <path clip-path="url(#p92009ce69a)" d="M 256.240354 79.544223 
C 257.99254 79.544223 259.673196 78.848072 260.912178 77.60909 
C 262.15116 76.370108 262.847311 74.689451 262.847311 72.937266 
C 262.847311 71.185081 262.15116 69.504425 260.912178 68.265442 
C 259.673196 67.02646 257.99254 66.33031 256.240354 66.33031 
C 254.488169 66.33031 252.807513 67.02646 251.568531 68.265442 
C 250.329549 69.504425 249.633398 71.185081 249.633398 72.937266 
C 249.633398 74.689451 250.329549 76.370108 251.568531 77.60909 
C 252.807513 78.848072 254.488169 79.544223 256.240354 79.544223 
z
" style="fill:#2c738e;"/>
    <path clip-path="url(#p92009ce69a)" d="M 208.686764 177.39522 
C 210.520379 177.39522 212.279141 176.666717 213.575703 175.370155 
C 214.872264 174.073593 215.600767 172.314831 215.600767 170.481216 
C 215.600767 168.647601 214.872264 166.888839 213.575703 165.592277 
C 212.279141 164.295716 210.520379 163.567213 208.686764 163.567213 
C 206.853149 163.567213 205.094387 164.295716 203.797825 165.592277 
C 202.501263 166.888839 201.77276 168.647601 201.77276 170.481216 
C 201.77276 172.314831 202.501263 174.073593 203.797825 175.370155 
C 205.094387 176.666717 206.853149 177.39522 208.686764 177.39522 
z
" style="fill:#48186a;"/>
    <path clip-path="url(#p92009ce69a)" d="M 91.36608 216.79872 
C 93.047307 216.79872 94.659901 216.130761 95.848708 214.941954 
C 97.037515 213.753148 97.705473 212.140553 97.705473 210.459327 
C 97.705473 208.7781 97.037515 207.165506 95.848708 205.976699 
C 94.659901 204.787892 93.047307 204.119934 91.36608 204.119934 
C 89.684853 204.119934 88.072259 204.787892 86.883452 205.976699 
C 85.694646 207.165506 85.026687 208.7781 85.026687 210.459327 
C 85.026687 212.140553 85.694646 213.753148 86.883452 214.941954 
C 88.072259 216.130761 89.684853 216.79872 91.36608 216.79872 
z
" style="fill:#375b8d;"/>
    <path clip-path="url(#p92009ce69a)" d="M 301.843562 189.215409 
C 303.571507 189.215409 305.228913 188.528889 306.450755 187.307047 
C 307.672597 186.085205 308.359117 184.427799 308.359117 182.699854 
C 308.359117 180.971908 307.672597 179.314502 306.450755 178.09266 
C 305.228913 176.870818 303.571507 176.184298 301.843562 176.184298 
C 300.115616 176.184298 298.45821 176.870818 297.236368 178.09266 
C 296.014526 179.314502 295.328006 180.971908 295.328006 182.699854 
C 295.328006 184.427799 296.014526 186.085205 297.236368 187.307047 
C 298.45821 188.528889 300.115616 189.215409 301.843562 189.215409 
z
" style="fill:#440154;"/>
    <path clip-path="url(#p92009ce69a)" d="M 288.603074 300.951559 
C 290.358123 300.951559 292.041526 300.254271 293.282532 299.013264 
C 294.523539 297.772257 295.220827 296.088855 295.220827 294.333806 
C 295.220827 292.578758 294.523539 290.895355 293.282532 289.654348 
C 292.041526 288.413341 290.358123 287.716053 288.603074 287.716053 
C 286.848026 287.716053 285.164623 288.413341 283.923616 289.654348 
C 282.682609 290.895355 281.985321 292.578758 281.985321 294.333806 
C 281.985321 296.088855 282.682609 297.772257 283.923616 299.013264 
C 285.164623 300.254271 286.848026 300.951559 288.603074 300.951559 
z
" style="fill:#24868e;"/>
   </g>
   <g id="text_1">
    <!-- Structure #3979, $E_N$=-177.90eV, ΔE=0.10eV -->
    <defs>
     <path d="M 53.515625 70.515625 
L 53.515625 60.890625 
Q 47.90625 63.578125 42.921875 64.890625 
Q 37.9375 66.21875 33.296875 66.21875 
Q 25.25 66.21875 20.875 63.09375 
Q 16.5 59.96875 16.5 54.203125 
Q 16.5 49.359375 19.40625 46.890625 
Q 22.3125 44.4375 30.421875 42.921875 
L 36.375 41.703125 
Q 47.40625 39.59375 52.65625 34.296875 
Q 57.90625 29 57.90625 20.125 
Q 57.90625 9.515625 50.796875 4.046875 
Q 43.703125 -1.421875 29.984375 -1.421875 
Q 24.8125 -1.421875 18.96875 -0.25 
Q 13.140625 0.921875 6.890625 3.21875 
L 6.890625 13.375 
Q 12.890625 10.015625 18.65625 8.296875 
Q 24.421875 6.59375 29.984375 6.59375 
Q 38.421875 6.59375 43.015625 9.90625 
Q 47.609375 13.234375 47.609375 19.390625 
Q 47.609375 24.75 44.3125 27.78125 
Q 41.015625 30.8125 33.5 32.328125 
L 27.484375 33.5 
Q 16.453125 35.6875 11.515625 40.375 
Q 6.59375 45.0625 6.59375 53.421875 
Q 6.59375 63.09375 13.40625 68.65625 
Q 20.21875 74.21875 32.171875 74.21875 
Q 37.3125 74.21875 42.625 73.28125 
Q 47.953125 72.359375 53.515625 70.515625 
z
" id="DejaVuSans-53"/>
     <path d="M 18.3125 70.21875 
L 18.3125 54.6875 
L 36.8125 54.6875 
L 36.8125 47.703125 
L 18.3125 47.703125 
L 18.3125 18.015625 
Q 18.3125 11.328125 20.140625 9.421875 
Q 21.96875 7.515625 27.59375 7.515625 
L 36.8125 7.515625 
L 36.8125 0 
L 27.59375 0 
Q 17.1875 0 13.234375 3.875 
Q 9.28125 7.765625 9.28125 18.015625 
L 9.28125 47.703125 
L 2.6875 47.703125 
L 2.6875 54.6875 
L 9.28125 54.6875 
L 9.28125 70.21875 
z
" id="DejaVuSans-74"/>
     <path d="M 41.109375 46.296875 
Q 39.59375 47.171875 37.8125 47.578125 
Q 36.03125 48 33.890625 48 
Q 26.265625 48 22.1875 43.046875 
Q 18.109375 38.09375 18.109375 28.8125 
L 18.109375 0 
L 9.078125 0 
L 9.078125 54.6875 
L 18.109375 54.6875 
L 18.109375 46.1875 
Q 20.953125 51.171875 25.484375 53.578125 
Q 30.03125 56 36.53125 56 
Q 37.453125 56 38.578125 55.875 
Q 39.703125 55.765625 41.0625 55.515625 
z
" id="DejaVuSans-72"/>
     <path d="M 8.5 21.578125 
L 8.5 54.6875 
L 17.484375 54.6875 
L 17.484375 21.921875 
Q 17.484375 14.15625 20.5 10.265625 
Q 23.53125 6.390625 29.59375 6.390625 
Q 36.859375 6.390625 41.078125 11.03125 
Q 45.3125 15.671875 45.3125 23.6875 
L 45.3125 54.6875 
L 54.296875 54.6875 
L 54.296875 0 
L 45.3125 0 
L 45.3125 8.40625 
Q 42.046875 3.421875 37.71875 1 
Q 33.40625 -1.421875 27.6875 -1.421875 
Q 18.265625 -1.421875 13.375 4.4375 
Q 8.5 10.296875 8.5 21.578125 
z
M 31.109375 56 
z
" id="DejaVuSans-75"/>
     <path d="M 48.78125 52.59375 
L 48.78125 44.1875 
Q 44.96875 46.296875 41.140625 47.34375 
Q 37.3125 48.390625 33.40625 48.390625 
Q 24.65625 48.390625 19.8125 42.84375 
Q 14.984375 37.3125 14.984375 27.296875 
Q 14.984375 17.28125 19.8125 11.734375 
Q 24.65625 6.203125 33.40625 6.203125 
Q 37.3125 6.203125 41.140625 7.25 
Q 44.96875 8.296875 48.78125 10.40625 
L 48.78125 2.09375 
Q 45.015625 0.34375 40.984375 -0.53125 
Q 36.96875 -1.421875 32.421875 -1.421875 
Q 20.0625 -1.421875 12.78125 6.34375 
Q 5.515625 14.109375 5.515625 27.296875 
Q 5.515625 40.671875 12.859375 48.328125 
Q 20.21875 56 33.015625 56 
Q 37.15625 56 41.109375 55.140625 
Q 45.0625 54.296875 48.78125 52.59375 
z
" id="DejaVuSans-63"/>
     <path d="M 56.203125 29.59375 
L 56.203125 25.203125 
L 14.890625 25.203125 
Q 15.484375 15.921875 20.484375 11.0625 
Q 25.484375 6.203125 34.421875 6.203125 
Q 39.59375 6.203125 44.453125 7.46875 
Q 49.3125 8.734375 54.109375 11.28125 
L 54.109375 2.78125 
Q 49.265625 0.734375 44.1875 -0.34375 
Q 39.109375 -1.421875 33.890625 -1.421875 
Q 20.796875 -1.421875 13.15625 6.1875 
Q 5.515625 13.8125 5.515625 26.8125 
Q 5.515625 40.234375 12.765625 48.109375 
Q 20.015625 56 32.328125 56 
Q 43.359375 56 49.78125 48.890625 
Q 56.203125 41.796875 56.203125 29.59375 
z
M 47.21875 32.234375 
Q 47.125 39.59375 43.09375 43.984375 
Q 39.0625 48.390625 32.421875 48.390625 
Q 24.90625 48.390625 20.390625 44.140625 
Q 15.875 39.890625 15.1875 32.171875 
z
" id="DejaVuSans-65"/>
     <path id="DejaVuSans-20"/>
     <path d="M 51.125 44 
L 36.921875 44 
L 32.8125 27.6875 
L 47.125 27.6875 
z
M 43.796875 71.78125 
L 38.71875 51.515625 
L 52.984375 51.515625 
L 58.109375 71.78125 
L 65.921875 71.78125 
L 60.890625 51.515625 
L 76.125 51.515625 
L 76.125 44 
L 58.984375 44 
L 54.984375 27.6875 
L 70.515625 27.6875 
L 70.515625 20.21875 
L 53.078125 20.21875 
L 48 0 
L 40.1875 0 
L 45.21875 20.21875 
L 30.90625 20.21875 
L 25.875 0 
L 18.015625 0 
L 23.09375 20.21875 
L 7.71875 20.21875 
L 7.71875 27.6875 
L 24.90625 27.6875 
L 29 44 
L 13.28125 44 
L 13.28125 51.515625 
L 30.90625 51.515625 
L 35.890625 71.78125 
z
" id="DejaVuSans-23"/>
     <path d="M 40.578125 39.3125 
Q 47.65625 37.796875 51.625 33 
Q 55.609375 28.21875 55.609375 21.1875 
Q 55.609375 10.40625 48.1875 4.484375 
Q 40.765625 -1.421875 27.09375 -1.421875 
Q 22.515625 -1.421875 17.65625 -0.515625 
Q 12.796875 0.390625 7.625 2.203125 
L 7.625 11.71875 
Q 11.71875 9.328125 16.59375 8.109375 
Q 21.484375 6.890625 26.8125 6.890625 
Q 36.078125 6.890625 40.9375 10.546875 
Q 45.796875 14.203125 45.796875 21.1875 
Q 45.796875 27.640625 41.28125 31.265625 
Q 36.765625 34.90625 28.71875 34.90625 
L 20.21875 34.90625 
L 20.21875 43.015625 
L 29.109375 43.015625 
Q 36.375 43.015625 40.234375 45.921875 
Q 44.09375 48.828125 44.09375 54.296875 
Q 44.09375 59.90625 40.109375 62.90625 
Q 36.140625 65.921875 28.71875 65.921875 
Q 24.65625 65.921875 20.015625 65.03125 
Q 15.375 64.15625 9.8125 62.3125 
L 9.8125 71.09375 
Q 15.4375 72.65625 20.34375 73.4375 
Q 25.25 74.21875 29.59375 74.21875 
Q 40.828125 74.21875 47.359375 69.109375 
Q 53.90625 64.015625 53.90625 55.328125 
Q 53.90625 49.265625 50.4375 45.09375 
Q 46.96875 40.921875 40.578125 39.3125 
z
" id="DejaVuSans-33"/>
     <path d="M 10.984375 1.515625 
L 10.984375 10.5 
Q 14.703125 8.734375 18.5 7.8125 
Q 22.3125 6.890625 25.984375 6.890625 
Q 35.75 6.890625 40.890625 13.453125 
Q 46.046875 20.015625 46.78125 33.40625 
Q 43.953125 29.203125 39.59375 26.953125 
Q 35.25 24.703125 29.984375 24.703125 
Q 19.046875 24.703125 12.671875 31.3125 
Q 6.296875 37.9375 6.296875 49.421875 
Q 6.296875 60.640625 12.9375 67.421875 
Q 19.578125 74.21875 30.609375 74.21875 
Q 43.265625 74.21875 49.921875 64.515625 
Q 56.59375 54.828125 56.59375 36.375 
Q 56.59375 19.140625 48.40625 8.859375 
Q 40.234375 -1.421875 26.421875 -1.421875 
Q 22.703125 -1.421875 18.890625 -0.6875 
Q 15.09375 0.046875 10.984375 1.515625 
z
M 30.609375 32.421875 
Q 37.25 32.421875 41.125 36.953125 
Q 45.015625 41.5 45.015625 49.421875 
Q 45.015625 57.28125 41.125 61.84375 
Q 37.25 66.40625 30.609375 66.40625 
Q 23.96875 66.40625 20.09375 61.84375 
Q 16.21875 57.28125 16.21875 49.421875 
Q 16.21875 41.5 20.09375 36.953125 
Q 23.96875 32.421875 30.609375 32.421875 
z
" id="DejaVuSans-39"/>
     <path d="M 8.203125 72.90625 
L 55.078125 72.90625 
L 55.078125 68.703125 
L 28.609375 0 
L 18.3125 0 
L 43.21875 64.59375 
L 8.203125 64.59375 
z
" id="DejaVuSans-37"/>
     <path d="M 11.71875 12.40625 
L 22.015625 12.40625 
L 22.015625 4 
L 14.015625 -11.625 
L 7.71875 -11.625 
L 11.71875 4 
z
" id="DejaVuSans-2c"/>
     <path d="M 16.890625 72.90625 
L 62.984375 72.90625 
L 61.375 64.59375 
L 25.09375 64.59375 
L 20.90625 43.015625 
L 55.71875 43.015625 
L 54.109375 34.71875 
L 19.28125 34.71875 
L 14.203125 8.296875 
L 51.3125 8.296875 
L 49.703125 0 
L 2.6875 0 
z
" id="DejaVuSans-Oblique-45"/>
     <path d="M 16.890625 72.90625 
L 30.171875 72.90625 
L 50.296875 10.40625 
L 62.5 72.90625 
L 72.125 72.90625 
L 57.90625 0 
L 44.578125 0 
L 24.515625 62.890625 
L 12.3125 0 
L 2.6875 0 
z
" id="DejaVuSans-Oblique-4e"/>
     <path d="M 10.59375 45.40625 
L 73.1875 45.40625 
L 73.1875 37.203125 
L 10.59375 37.203125 
z
M 10.59375 25.484375 
L 73.1875 25.484375 
L 73.1875 17.1875 
L 10.59375 17.1875 
z
" id="DejaVuSans-3d"/>
     <path d="M 4.890625 31.390625 
L 31.203125 31.390625 
L 31.203125 23.390625 
L 4.890625 23.390625 
z
" id="DejaVuSans-2d"/>
     <path d="M 12.40625 8.296875 
L 28.515625 8.296875 
L 28.515625 63.921875 
L 10.984375 60.40625 
L 10.984375 69.390625 
L 28.421875 72.90625 
L 38.28125 72.90625 
L 38.28125 8.296875 
L 54.390625 8.296875 
L 54.390625 0 
L 12.40625 0 
z
" id="DejaVuSans-31"/>
     <path d="M 10.6875 12.40625 
L 21 12.40625 
L 21 0 
L 10.6875 0 
z
" id="DejaVuSans-2e"/>
     <path d="M 31.78125 66.40625 
Q 24.171875 66.40625 20.328125 58.90625 
Q 16.5 51.421875 16.5 36.375 
Q 16.5 21.390625 20.328125 13.890625 
Q 24.171875 6.390625 31.78125 6.390625 
Q 39.453125 6.390625 43.28125 13.890625 
Q 47.125 21.390625 47.125 36.375 
Q 47.125 51.421875 43.28125 58.90625 
Q 39.453125 66.40625 31.78125 66.40625 
z
M 31.78125 74.21875 
Q 44.046875 74.21875 50.515625 64.515625 
Q 56.984375 54.828125 56.984375 36.375 
Q 56.984375 17.96875 50.515625 8.265625 
Q 44.046875 -1.421875 31.78125 -1.421875 
Q 19.53125 -1.421875 13.0625 8.265625 
Q 6.59375 17.96875 6.59375 36.375 
Q 6.59375 54.828125 13.0625 64.515625 
Q 19.53125 74.21875 31.78125 74.21875 
z
" id="DejaVuSans-30"/>
     <path d="M 28.609375 0 
L 0.78125 72.90625 
L 11.078125 72.90625 
L 34.1875 11.53125 
L 57.328125 72.90625 
L 67.578125 72.90625 
L 39.796875 0 
z
" id="DejaVuSans-56"/>
     <path d="M 34.1875 63.1875 
L 14.15625 8.203125 
L 54.25 8.203125 
z
M 0.78125 0 
L 28.609375 72.90625 
L 39.796875 72.90625 
L 67.578125 0 
z
" id="DejaVuSans-394"/>
     <path d="M 9.8125 72.90625 
L 55.90625 72.90625 
L 55.90625 64.59375 
L 19.671875 64.59375 
L 19.671875 43.015625 
L 54.390625 43.015625 
L 54.390625 34.71875 
L 19.671875 34.71875 
L 19.671875 8.296875 
L 56.78125 8.296875 
L 56.78125 0 
L 9.8125 0 
z
" id="DejaVuSans-45"/>
    </defs>
    <g transform="translate(65.388 35.472)scale(0.12 -0.12)">
     <use transform="translate(0 0.78125)" xlink:href="#DejaVuSans-53"/>
     <use transform="translate(63.476562 0.78125)" xlink:href="#DejaVuSans-74"/>
     <use transform="translate(102.685547 0.78125)" xlink:href="#DejaVuSans-72"/>
     <use transform="translate(143.798828 0.78125)" xlink:href="#DejaVuSans-75"/>
     <use transform="translate(207.177734 0.78125)" xlink:href="#DejaVuSans-63"/>
     <use transform="translate(262.158203 0.78125)" xlink:href="#DejaVuSans-74"/>
     <use transform="translate(301.367188 0.78125)" xlink:href="#DejaVuSans-75"/>
     <use transform="translate(364.746094 0.78125)" xlink:href="#DejaVuSans-72"/>
     <use transform="translate(405.859375 0.78125)" xlink:href="#DejaVuSans-65"/>
     <use transform="translate(467.382812 0.78125)" xlink:href="#DejaVuSans-20"/>
     <use transform="translate(499.169922 0.78125)" xlink:href="#DejaVuSans-23"/>
     <use transform="translate(582.958984 0.78125)" xlink:href="#DejaVuSans-33"/>
     <use transform="translate(646.582031 0.78125)" xlink:href="#DejaVuSans-39"/>
     <use transform="translate(710.205078 0.78125)" xlink:href="#DejaVuSans-37"/>
     <use transform="translate(773.828125 0.78125)" xlink:href="#DejaVuSans-39"/>
     <use transform="translate(837.451172 0.78125)" xlink:href="#DejaVuSans-2c"/>
     <use transform="translate(869.238281 0.78125)" xlink:href="#DejaVuSans-20"/>
     <use transform="translate(901.025391 0.78125)" xlink:href="#DejaVuSans-Oblique-45"/>
     <use transform="translate(964.208984 -15.625)scale(0.7)" xlink:href="#DejaVuSans-Oblique-4e"/>
     <use transform="translate(1019.306641 0.78125)" xlink:href="#DejaVuSans-3d"/>
     <use transform="translate(1103.095703 0.78125)" xlink:href="#DejaVuSans-2d"/>
     <use transform="translate(1139.179688 0.78125)" xlink:href="#DejaVuSans-31"/>
     <use transform="translate(1202.802734 0.78125)" xlink:href="#DejaVuSans-37"/>
     <use transform="translate(1266.410156 0.78125)" xlink:href="#DejaVuSans-37"/>
     <use transform="translate(1330.033203 0.78125)" xlink:href="#DejaVuSans-2e"/>
     <use transform="translate(1361.820312 0.78125)" xlink:href="#DejaVuSans-39"/>
     <use transform="translate(1425.443359 0.78125)" xlink:href="#DejaVuSans-30"/>
     <use transform="translate(1489.066406 0.78125)" xlink:href="#DejaVuSans-65"/>
     <use transform="translate(1550.589844 0.78125)" xlink:href="#DejaVuSans-56"/>
     <use transform="translate(1618.998047 0.78125)" xlink:href="#DejaVuSans-2c"/>
     <use transform="translate(1650.785156 0.78125)" xlink:href="#DejaVuSans-20"/>
     <use transform="translate(1682.572266 0.78125)" xlink:href="#DejaVuSans-394"/>
     <use transform="translate(1750.980469 0.78125)" xlink:href="#DejaVuSans-45"/>
     <use transform="translate(1814.164062 0.78125)" xlink:href="#DejaVuSans-3d"/>
     <use transform="translate(1897.953125 0.78125)" xlink:href="#DejaVuSans-30"/>
     <use transform="translate(1961.576172 0.78125)" xlink:href="#DejaVuSans-2e"/>
     <use transform="translate(1993.363281 0.78125)" xlink:href="#DejaVuSans-31"/>
     <use transform="translate(2056.986328 0.78125)" xlink:href="#DejaVuSans-30"/>
     <use transform="translate(2120.609375 0.78125)" xlink:href="#DejaVuSans-65"/>
     <use transform="translate(2182.132812 0.78125)" xlink:href="#DejaVuSans-56"/>
    </g>
   </g>
  </g>
  <g id="axes_2">
   <g id="patch_2">
    <path clip-path="url(#p14a0327aee)" d="M 361.152 307.584 
L 361.152 306.5445 
L 361.152 42.5115 
L 361.152 41.472 
L 374.4576 41.472 
L 374.4576 42.5115 
L 374.4576 306.5445 
L 374.4576 307.584 
z
" style="fill:#ffffff;stroke:#ffffff;stroke-linejoin:miter;stroke-width:0.01;"/>
   </g>
   <image height="265.68" id="imagec3c0c18a33" transform="scale(1 -1)translate(0 -265.68)" width="12.96" x="361.44" xlink:href="data:image/png;base64,
iVBORw0KGgoAAAANSUhEUgAAABIAAAFxCAYAAAB+2fgXAAAABHNCSVQICAgIfAhkiAAAAeVJREFUeJztncmNw0AQA2ckheYQNv9QLIfQ8ygsCgQ7AEI8+jAs2Puz/94F1LP2ReCsZ18bAWIeZ5XaGRBE7VnbptG+KI101FYyNSiQG2oRITXKNaX9uclOdi2XWjftVE32CZCO2ou5Bj1TcCBr/1zB9ge7Fq0Rg2NM9pvbtG+ua1QgsRYhDy0ISEiNc40BEibbSI0Coj5CBGtkpFbXJiAjNZlrwhuSOv2M1DjXbEdEciBt1JSDDQKKpmZr2rr2j0DBGpXaWEJq3bQzEPIS26r9J+Wzv9Tm8o3aajRXqc3VUXsApKNWjeZq0x4ABVNbm7lrszVigDqP5vIl2+eaT2yfRkL7g+dRcNPqjohkjaCvRVBq0H2U3LQrOJCx9kdTg4B8oxZzzTdqdYHEngjUCAPyUctN9sVRq2sTECW2UKNLd2jVtRmo1A6AhMmWaSRcR8nUdIHUuVb75zJS218EyEitro1At69pIdeSk30Lkw0FktNImGyZRhy1O5galmxd03LUsHWk06jUZiCq+5Wb1kZNN4+wJxJuWt8RAW5am2sYNZ9rYCBzZ3buPKJ2P5Yj4Toy3keyIyJbIxs1rml1byCA84gpch5RQNB7Q0qNMGq2Hy4BXdNR41yz/cEEJfZzUz96r9PoB0okjeQ8y9TkAAAAAElFTkSuQmCC" y="-41.76"/>
   <g id="matplotlib.axis_1"/>
   <g id="matplotlib.axis_2">
    <g id="ytick_1">
     <g id="line2d_1">
      <defs>
       <path d="M 0 0 
L 3.5 0 
" id="m55fdc931c6" style="stroke:#000000;stroke-width:0.8;"/>
      </defs>
      <g>
       <use style="stroke:#000000;stroke-width:0.8;" x="374.4576" xlink:href="#m55fdc931c6" y="279.53385"/>
      </g>
     </g>
     <g id="text_2">
      <!-- −8.5 -->
      <defs>
       <path d="M 10.59375 35.5 
L 73.1875 35.5 
L 73.1875 27.203125 
L 10.59375 27.203125 
z
" id="DejaVuSans-2212"/>
       <path d="M 31.78125 34.625 
Q 24.75 34.625 20.71875 30.859375 
Q 16.703125 27.09375 16.703125 20.515625 
Q 16.703125 13.921875 20.71875 10.15625 
Q 24.75 6.390625 31.78125 6.390625 
Q 38.8125 6.390625 42.859375 10.171875 
Q 46.921875 13.96875 46.921875 20.515625 
Q 46.921875 27.09375 42.890625 30.859375 
Q 38.875 34.625 31.78125 34.625 
z
M 21.921875 38.8125 
Q 15.578125 40.375 12.03125 44.71875 
Q 8.5 49.078125 8.5 55.328125 
Q 8.5 64.0625 14.71875 69.140625 
Q 20.953125 74.21875 31.78125 74.21875 
Q 42.671875 74.21875 48.875 69.140625 
Q 55.078125 64.0625 55.078125 55.328125 
Q 55.078125 49.078125 51.53125 44.71875 
Q 48 40.375 41.703125 38.8125 
Q 48.828125 37.15625 52.796875 32.3125 
Q 56.78125 27.484375 56.78125 20.515625 
Q 56.78125 9.90625 50.3125 4.234375 
Q 43.84375 -1.421875 31.78125 -1.421875 
Q 19.734375 -1.421875 13.25 4.234375 
Q 6.78125 9.90625 6.78125 20.515625 
Q 6.78125 27.484375 10.78125 32.3125 
Q 14.796875 37.15625 21.921875 38.8125 
z
M 18.3125 54.390625 
Q 18.3125 48.734375 21.84375 45.5625 
Q 25.390625 42.390625 31.78125 42.390625 
Q 38.140625 42.390625 41.71875 45.5625 
Q 45.3125 48.734375 45.3125 54.390625 
Q 45.3125 60.0625 41.71875 63.234375 
Q 38.140625 66.40625 31.78125 66.40625 
Q 25.390625 66.40625 21.84375 63.234375 
Q 18.3125 60.0625 18.3125 54.390625 
z
" id="DejaVuSans-38"/>
       <path d="M 10.796875 72.90625 
L 49.515625 72.90625 
L 49.515625 64.59375 
L 19.828125 64.59375 
L 19.828125 46.734375 
Q 21.96875 47.46875 24.109375 47.828125 
Q 26.265625 48.1875 28.421875 48.1875 
Q 40.625 48.1875 47.75 41.5 
Q 54.890625 34.8125 54.890625 23.390625 
Q 54.890625 11.625 47.5625 5.09375 
Q 40.234375 -1.421875 26.90625 -1.421875 
Q 22.3125 -1.421875 17.546875 -0.640625 
Q 12.796875 0.140625 7.71875 1.703125 
L 7.71875 11.625 
Q 12.109375 9.234375 16.796875 8.0625 
Q 21.484375 6.890625 26.703125 6.890625 
Q 35.15625 6.890625 40.078125 11.328125 
Q 45.015625 15.765625 45.015625 23.390625 
Q 45.015625 31 40.078125 35.4375 
Q 35.15625 39.890625 26.703125 39.890625 
Q 22.75 39.890625 18.8125 39.015625 
Q 14.890625 38.140625 10.796875 36.28125 
z
" id="DejaVuSans-35"/>
      </defs>
      <g transform="translate(381.4576 283.333068)scale(0.1 -0.1)">
       <use xlink:href="#DejaVuSans-2212"/>
       <use x="83.789062" xlink:href="#DejaVuSans-38"/>
       <use x="147.412109" xlink:href="#DejaVuSans-2e"/>
       <use x="179.199219" xlink:href="#DejaVuSans-35"/>
      </g>
     </g>
    </g>
    <g id="ytick_2">
     <g id="line2d_2">
      <g>
       <use style="stroke:#000000;stroke-width:0.8;" x="374.4576" xlink:href="#m55fdc931c6" y="246.659536"/>
      </g>
     </g>
     <g id="text_3">
      <!-- −8.0 -->
      <g transform="translate(381.4576 250.458754)scale(0.1 -0.1)">
       <use xlink:href="#DejaVuSans-2212"/>
       <use x="83.789062" xlink:href="#DejaVuSans-38"/>
       <use x="147.412109" xlink:href="#DejaVuSans-2e"/>
       <use x="179.199219" xlink:href="#DejaVuSans-30"/>
      </g>
     </g>
    </g>
    <g id="ytick_3">
     <g id="line2d_3">
      <g>
       <use style="stroke:#000000;stroke-width:0.8;" x="374.4576" xlink:href="#m55fdc931c6" y="213.785222"/>
      </g>
     </g>
     <g id="text_4">
      <!-- −7.5 -->
      <g transform="translate(381.4576 217.58444)scale(0.1 -0.1)">
       <use xlink:href="#DejaVuSans-2212"/>
       <use x="83.789062" xlink:href="#DejaVuSans-37"/>
       <use x="147.412109" xlink:href="#DejaVuSans-2e"/>
       <use x="179.199219" xlink:href="#DejaVuSans-35"/>
      </g>
     </g>
    </g>
    <g id="ytick_4">
     <g id="line2d_4">
      <g>
       <use style="stroke:#000000;stroke-width:0.8;" x="374.4576" xlink:href="#m55fdc931c6" y="180.910908"/>
      </g>
     </g>
     <g id="text_5">
      <!-- −7.0 -->
      <g transform="translate(381.4576 184.710126)scale(0.1 -0.1)">
       <use xlink:href="#DejaVuSans-2212"/>
       <use x="83.789062" xlink:href="#DejaVuSans-37"/>
       <use x="147.412109" xlink:href="#DejaVuSans-2e"/>
       <use x="179.199219" xlink:href="#DejaVuSans-30"/>
      </g>
     </g>
    </g>
    <g id="ytick_5">
     <g id="line2d_5">
      <g>
       <use style="stroke:#000000;stroke-width:0.8;" x="374.4576" xlink:href="#m55fdc931c6" y="148.036594"/>
      </g>
     </g>
     <g id="text_6">
      <!-- −6.5 -->
      <defs>
       <path d="M 33.015625 40.375 
Q 26.375 40.375 22.484375 35.828125 
Q 18.609375 31.296875 18.609375 23.390625 
Q 18.609375 15.53125 22.484375 10.953125 
Q 26.375 6.390625 33.015625 6.390625 
Q 39.65625 6.390625 43.53125 10.953125 
Q 47.40625 15.53125 47.40625 23.390625 
Q 47.40625 31.296875 43.53125 35.828125 
Q 39.65625 40.375 33.015625 40.375 
z
M 52.59375 71.296875 
L 52.59375 62.3125 
Q 48.875 64.0625 45.09375 64.984375 
Q 41.3125 65.921875 37.59375 65.921875 
Q 27.828125 65.921875 22.671875 59.328125 
Q 17.53125 52.734375 16.796875 39.40625 
Q 19.671875 43.65625 24.015625 45.921875 
Q 28.375 48.1875 33.59375 48.1875 
Q 44.578125 48.1875 50.953125 41.515625 
Q 57.328125 34.859375 57.328125 23.390625 
Q 57.328125 12.15625 50.6875 5.359375 
Q 44.046875 -1.421875 33.015625 -1.421875 
Q 20.359375 -1.421875 13.671875 8.265625 
Q 6.984375 17.96875 6.984375 36.375 
Q 6.984375 53.65625 15.1875 63.9375 
Q 23.390625 74.21875 37.203125 74.21875 
Q 40.921875 74.21875 44.703125 73.484375 
Q 48.484375 72.75 52.59375 71.296875 
z
" id="DejaVuSans-36"/>
      </defs>
      <g transform="translate(381.4576 151.835812)scale(0.1 -0.1)">
       <use xlink:href="#DejaVuSans-2212"/>
       <use x="83.789062" xlink:href="#DejaVuSans-36"/>
       <use x="147.412109" xlink:href="#DejaVuSans-2e"/>
       <use x="179.199219" xlink:href="#DejaVuSans-35"/>
      </g>
     </g>
    </g>
    <g id="ytick_6">
     <g id="line2d_6">
      <g>
       <use style="stroke:#000000;stroke-width:0.8;" x="374.4576" xlink:href="#m55fdc931c6" y="115.16228"/>
      </g>
     </g>
     <g id="text_7">
      <!-- −6.0 -->
      <g transform="translate(381.4576 118.961498)scale(0.1 -0.1)">
       <use xlink:href="#DejaVuSans-2212"/>
       <use x="83.789062" xlink:href="#DejaVuSans-36"/>
       <use x="147.412109" xlink:href="#DejaVuSans-2e"/>
       <use x="179.199219" xlink:href="#DejaVuSans-30"/>
      </g>
     </g>
    </g>
    <g id="ytick_7">
     <g id="line2d_7">
      <g>
       <use style="stroke:#000000;stroke-width:0.8;" x="374.4576" xlink:href="#m55fdc931c6" y="82.287966"/>
      </g>
     </g>
     <g id="text_8">
      <!-- −5.5 -->
      <g transform="translate(381.4576 86.087184)scale(0.1 -0.1)">
       <use xlink:href="#DejaVuSans-2212"/>
       <use x="83.789062" xlink:href="#DejaVuSans-35"/>
       <use x="147.412109" xlink:href="#DejaVuSans-2e"/>
       <use x="179.199219" xlink:href="#DejaVuSans-35"/>
      </g>
     </g>
    </g>
    <g id="ytick_8">
     <g id="line2d_8">
      <g>
       <use style="stroke:#000000;stroke-width:0.8;" x="374.4576" xlink:href="#m55fdc931c6" y="49.413652"/>
      </g>
     </g>
     <g id="text_9">
      <!-- −5.0 -->
      <g transform="translate(381.4576 53.21287)scale(0.1 -0.1)">
       <use xlink:href="#DejaVuSans-2212"/>
       <use x="83.789062" xlink:href="#DejaVuSans-35"/>
       <use x="147.412109" xlink:href="#DejaVuSans-2e"/>
       <use x="179.199219" xlink:href="#DejaVuSans-30"/>
      </g>
     </g>
    </g>
    <g id="text_10">
     <!-- Energy [eV] -->
     <defs>
      <path d="M 54.890625 33.015625 
L 54.890625 0 
L 45.90625 0 
L 45.90625 32.71875 
Q 45.90625 40.484375 42.875 44.328125 
Q 39.84375 48.1875 33.796875 48.1875 
Q 26.515625 48.1875 22.3125 43.546875 
Q 18.109375 38.921875 18.109375 30.90625 
L 18.109375 0 
L 9.078125 0 
L 9.078125 54.6875 
L 18.109375 54.6875 
L 18.109375 46.1875 
Q 21.34375 51.125 25.703125 53.5625 
Q 30.078125 56 35.796875 56 
Q 45.21875 56 50.046875 50.171875 
Q 54.890625 44.34375 54.890625 33.015625 
z
" id="DejaVuSans-6e"/>
      <path d="M 45.40625 27.984375 
Q 45.40625 37.75 41.375 43.109375 
Q 37.359375 48.484375 30.078125 48.484375 
Q 22.859375 48.484375 18.828125 43.109375 
Q 14.796875 37.75 14.796875 27.984375 
Q 14.796875 18.265625 18.828125 12.890625 
Q 22.859375 7.515625 30.078125 7.515625 
Q 37.359375 7.515625 41.375 12.890625 
Q 45.40625 18.265625 45.40625 27.984375 
z
M 54.390625 6.78125 
Q 54.390625 -7.171875 48.1875 -13.984375 
Q 42 -20.796875 29.203125 -20.796875 
Q 24.46875 -20.796875 20.265625 -20.09375 
Q 16.0625 -19.390625 12.109375 -17.921875 
L 12.109375 -9.1875 
Q 16.0625 -11.328125 19.921875 -12.34375 
Q 23.78125 -13.375 27.78125 -13.375 
Q 36.625 -13.375 41.015625 -8.765625 
Q 45.40625 -4.15625 45.40625 5.171875 
L 45.40625 9.625 
Q 42.625 4.78125 38.28125 2.390625 
Q 33.9375 0 27.875 0 
Q 17.828125 0 11.671875 7.65625 
Q 5.515625 15.328125 5.515625 27.984375 
Q 5.515625 40.671875 11.671875 48.328125 
Q 17.828125 56 27.875 56 
Q 33.9375 56 38.28125 53.609375 
Q 42.625 51.21875 45.40625 46.390625 
L 45.40625 54.6875 
L 54.390625 54.6875 
z
" id="DejaVuSans-67"/>
      <path d="M 32.171875 -5.078125 
Q 28.375 -14.84375 24.75 -17.8125 
Q 21.140625 -20.796875 15.09375 -20.796875 
L 7.90625 -20.796875 
L 7.90625 -13.28125 
L 13.1875 -13.28125 
Q 16.890625 -13.28125 18.9375 -11.515625 
Q 21 -9.765625 23.484375 -3.21875 
L 25.09375 0.875 
L 2.984375 54.6875 
L 12.5 54.6875 
L 29.59375 11.921875 
L 46.6875 54.6875 
L 56.203125 54.6875 
z
" id="DejaVuSans-79"/>
      <path d="M 8.59375 75.984375 
L 29.296875 75.984375 
L 29.296875 69 
L 17.578125 69 
L 17.578125 -6.203125 
L 29.296875 -6.203125 
L 29.296875 -13.1875 
L 8.59375 -13.1875 
z
" id="DejaVuSans-5b"/>
      <path d="M 30.421875 75.984375 
L 30.421875 -13.1875 
L 9.71875 -13.1875 
L 9.71875 -6.203125 
L 21.390625 -6.203125 
L 21.390625 69 
L 9.71875 69 
L 9.71875 75.984375 
z
" id="DejaVuSans-5d"/>
     </defs>
     <g transform="translate(417.33885 204.108469)rotate(-90)scale(0.1 -0.1)">
      <use xlink:href="#DejaVuSans-45"/>
      <use x="63.183594" xlink:href="#DejaVuSans-6e"/>
      <use x="126.5625" xlink:href="#DejaVuSans-65"/>
      <use x="188.085938" xlink:href="#DejaVuSans-72"/>
      <use x="229.183594" xlink:href="#DejaVuSans-67"/>
      <use x="292.660156" xlink:href="#DejaVuSans-79"/>
      <use x="351.839844" xlink:href="#DejaVuSans-20"/>
      <use x="383.626953" xlink:href="#DejaVuSans-5b"/>
      <use x="422.640625" xlink:href="#DejaVuSans-65"/>
      <use x="484.164062" xlink:href="#DejaVuSans-56"/>
      <use x="552.572266" xlink:href="#DejaVuSans-5d"/>
     </g>
    </g>
   </g>
   <g id="patch_3">
    <path d="M 361.152 307.584 
L 361.152 306.5445 
L 361.152 42.5115 
L 361.152 41.472 
L 374.4576 41.472 
L 374.4576 42.5115 
L 374.4576 306.5445 
L 374.4576 307.584 
z
" style="fill:none;stroke:#000000;stroke-linejoin:miter;stroke-width:0.8;"/>
   </g>
  </g>
 </g>
 <defs>
  <clipPath id="p92009ce69a">
   <rect height="266.112" width="285.696" x="57.6" y="41.472"/>
  </clipPath>
  <clipPath id="p14a0327aee">
   <rect height="266.112" width="13.3056" x="361.152" y="41.472"/>
  </clipPath>
 </defs>
</svg>
