<?xml version="1.0" encoding="utf-8" standalone="no"?>
<!DOCTYPE svg PUBLIC "-//W3C//DTD SVG 1.1//EN"
  "http://www.w3.org/Graphics/SVG/1.1/DTD/svg11.dtd">
<!-- Created with matplotlib (http://matplotlib.org/) -->
<svg height="345.6pt" version="1.1" viewBox="0 0 460.8 345.6" width="460.8pt" xmlns="http://www.w3.org/2000/svg" xmlns:xlink="http://www.w3.org/1999/xlink">
 <defs>
  <style type="text/css">
*{stroke-linecap:butt;stroke-linejoin:round;}
  </style>
 </defs>
 <g id="figure_1">
  <g id="patch_1">
   <path d="M 0 345.6 
L 460.8 345.6 
L 460.8 0 
L 0 0 
z
" style="fill:#ffffff;"/>
  </g>
  <g id="axes_1">
   <g id="CircleCollection_1">
    <path clip-path="url(#p6c38da1321)" d="M 70.925466 170.53402 
C 72.697665 170.53402 74.397518 169.829918 75.650652 168.576784 
C 76.903785 167.32365 77.607888 165.623797 77.607888 163.851598 
C 77.607888 162.079399 76.903785 160.379547 75.650652 159.126413 
C 74.397518 157.873279 72.697665 157.169177 70.925466 157.169177 
C 69.153267 157.169177 67.453414 157.873279 66.20028 159.126413 
C 64.947147 160.379547 64.243045 162.079399 64.243045 163.851598 
C 64.243045 165.623797 64.947147 167.32365 66.20028 168.576784 
C 67.453414 169.829918 69.153267 170.53402 70.925466 170.53402 
z
" style="fill:#fde725;"/>
    <path clip-path="url(#p6c38da1321)" d="M 165.280183 293.884783 
C 167.044737 293.884783 168.737257 293.183718 169.984984 291.935991 
C 171.232712 290.688263 171.933777 288.995743 171.933777 287.231189 
C 171.933777 285.466636 171.232712 283.774116 169.984984 282.526388 
C 168.737257 281.27866 167.044737 280.577596 165.280183 280.577596 
C 163.51563 280.577596 161.82311 281.27866 160.575382 282.526388 
C 159.327654 283.774116 158.62659 285.466636 158.62659 287.231189 
C 158.62659 288.995743 159.327654 290.688263 160.575382 291.935991 
C 161.82311 293.183718 163.51563 293.884783 165.280183 293.884783 
z
" style="fill:#20928c;"/>
    <path clip-path="url(#p6c38da1321)" d="M 209.999048 68.460526 
C 211.796606 68.460526 213.520783 67.746349 214.791848 66.475283 
C 216.062914 65.204218 216.777091 63.480041 216.777091 61.682483 
C 216.777091 59.884925 216.062914 58.160749 214.791848 56.889683 
C 213.520783 55.618618 211.796606 54.90444 209.999048 54.90444 
C 208.20149 54.90444 206.477314 55.618618 205.206248 56.889683 
C 203.935183 58.160749 203.221006 59.884925 203.221006 61.682483 
C 203.221006 63.480041 203.935183 65.204218 205.206248 66.475283 
C 206.477314 67.746349 208.20149 68.460526 209.999048 68.460526 
z
" style="fill:#21908d;"/>
    <path clip-path="url(#p6c38da1321)" d="M 162.871319 192.841154 
C 164.650505 192.841154 166.35706 192.134276 167.615135 190.876201 
C 168.87321 189.618126 169.580088 187.911571 169.580088 186.132385 
C 169.580088 184.353199 168.87321 182.646644 167.615135 181.388569 
C 166.35706 180.130494 164.650505 179.423616 162.871319 179.423616 
C 161.092133 179.423616 159.385578 180.130494 158.127503 181.388569 
C 156.869428 182.646644 156.16255 184.353199 156.16255 186.132385 
C 156.16255 187.911571 156.869428 189.618126 158.127503 190.876201 
C 159.385578 192.134276 161.092133 192.841154 162.871319 192.841154 
z
" style="fill:#25ac82;"/>
    <path clip-path="url(#p6c38da1321)" d="M 101.89544 190.423666 
C 103.668823 190.423666 105.369811 189.719093 106.623782 188.465123 
C 107.877753 187.211152 108.582325 185.510163 108.582325 183.736781 
C 108.582325 181.963398 107.877753 180.26241 106.623782 179.008439 
C 105.369811 177.754468 103.668823 177.049895 101.89544 177.049895 
C 100.122057 177.049895 98.421069 177.754468 97.167098 179.008439 
C 95.913127 180.26241 95.208555 181.963398 95.208555 183.736781 
C 95.208555 185.510163 95.913127 187.211152 97.167098 188.465123 
C 98.421069 189.719093 100.122057 190.423666 101.89544 190.423666 
z
" style="fill:#2ab07f;"/>
    <path clip-path="url(#p6c38da1321)" d="M 259.273232 262.464733 
C 261.046838 262.464733 262.748041 261.760072 264.00217 260.505943 
C 265.256299 259.251814 265.96096 257.550611 265.96096 255.777005 
C 265.96096 254.003398 265.256299 252.302196 264.00217 251.048066 
C 262.748041 249.793937 261.046838 249.089276 259.273232 249.089276 
C 257.499626 249.089276 255.798423 249.793937 254.544294 251.048066 
C 253.290165 252.302196 252.585504 254.003398 252.585504 255.777005 
C 252.585504 257.550611 253.290165 259.251814 254.544294 260.505943 
C 255.798423 261.760072 257.499626 262.464733 259.273232 262.464733 
z
" style="fill:#470d60;"/>
    <path clip-path="url(#p6c38da1321)" d="M 176.734311 60.997151 
C 178.530321 60.997151 180.253012 60.283588 181.522983 59.013618 
C 182.792953 57.743647 183.506515 56.020956 183.506515 54.224946 
C 183.506515 52.428937 182.792953 50.706245 181.522983 49.436274 
C 180.253012 48.166304 178.530321 47.452742 176.734311 47.452742 
C 174.938301 47.452742 173.21561 48.166304 171.945639 49.436274 
C 170.675669 50.706245 169.962107 52.428937 169.962107 54.224946 
C 169.962107 56.020956 170.675669 57.743647 171.945639 59.013618 
C 173.21561 60.283588 174.938301 60.997151 176.734311 60.997151 
z
" style="fill:#1f968b;"/>
    <path clip-path="url(#p6c38da1321)" d="M 228.122473 179.374722 
C 229.906834 179.374722 231.618353 178.665788 232.880087 177.404054 
C 234.14182 176.14232 234.850755 174.430802 234.850755 172.646441 
C 234.850755 170.86208 234.14182 169.150561 232.880087 167.888827 
C 231.618353 166.627093 229.906834 165.918159 228.122473 165.918159 
C 226.338112 165.918159 224.626594 166.627093 223.36486 167.888827 
C 222.103126 169.150561 221.394192 170.86208 221.394192 172.646441 
C 221.394192 174.430802 222.103126 176.14232 223.36486 177.404054 
C 224.626594 178.665788 226.338112 179.374722 228.122473 179.374722 
z
" style="fill:#375a8c;"/>
    <path clip-path="url(#p6c38da1321)" d="M 139.474685 267.619179 
C 141.241009 267.619179 142.935227 266.917411 144.184207 265.668431 
C 145.433187 264.419451 146.134955 262.725233 146.134955 260.958909 
C 146.134955 259.192584 145.433187 257.498366 144.184207 256.249387 
C 142.935227 255.000407 141.241009 254.298639 139.474685 254.298639 
C 137.708361 254.298639 136.014143 255.000407 134.765163 256.249387 
C 133.516183 257.498366 132.814415 259.192584 132.814415 260.958909 
C 132.814415 262.725233 133.516183 264.419451 134.765163 265.668431 
C 136.014143 266.917411 137.708361 267.619179 139.474685 267.619179 
z
" style="fill:#70cf57;"/>
    <path clip-path="url(#p6c38da1321)" d="M 322.869674 257.712553 
C 324.645231 257.712553 326.348305 257.007117 327.603813 255.751609 
C 328.859322 254.4961 329.564758 252.793026 329.564758 251.017469 
C 329.564758 249.241912 328.859322 247.538838 327.603813 246.28333 
C 326.348305 245.027822 324.645231 244.322385 322.869674 244.322385 
C 321.094117 244.322385 319.391043 245.027822 318.135535 246.28333 
C 316.880026 247.538838 316.17459 249.241912 316.17459 251.017469 
C 316.17459 252.793026 316.880026 254.4961 318.135535 255.751609 
C 319.391043 257.007117 321.094117 257.712553 322.869674 257.712553 
z
" style="fill:#21a685;"/>
    <path clip-path="url(#p6c38da1321)" d="M 96.87262 133.924586 
C 98.651834 133.924586 100.358416 133.217697 101.61651 131.959602 
C 102.874605 130.701508 103.581494 128.994926 103.581494 127.215712 
C 103.581494 125.436498 102.874605 123.729916 101.61651 122.471822 
C 100.358416 121.213728 98.651834 120.506838 96.87262 120.506838 
C 95.093406 120.506838 93.386824 121.213728 92.12873 122.471822 
C 90.870636 123.729916 90.163746 125.436498 90.163746 127.215712 
C 90.163746 128.994926 90.870636 130.701508 92.12873 131.959602 
C 93.386824 133.217697 95.093406 133.924586 96.87262 133.924586 
z
" style="fill:#1e9d89;"/>
    <path clip-path="url(#p6c38da1321)" d="M 117.921113 98.815222 
C 119.706404 98.815222 121.418815 98.105918 122.681206 96.843527 
C 123.943598 95.581135 124.652902 93.868724 124.652902 92.083433 
C 124.652902 90.298142 123.943598 88.585731 122.681206 87.32334 
C 121.418815 86.060948 119.706404 85.351644 117.921113 85.351644 
C 116.135822 85.351644 114.423411 86.060948 113.161019 87.32334 
C 111.898628 88.585731 111.189324 90.298142 111.189324 92.083433 
C 111.189324 93.868724 111.898628 95.581135 113.161019 96.843527 
C 114.423411 98.105918 116.135822 98.815222 117.921113 98.815222 
z
" style="fill:#228d8d;"/>
    <path clip-path="url(#p6c38da1321)" d="M 229.664182 290.55592 
C 231.432832 290.55592 233.129281 289.853228 234.379906 288.602603 
C 235.63053 287.351979 236.333222 285.65553 236.333222 283.88688 
C 236.333222 282.11823 235.63053 280.421781 234.379906 279.171156 
C 233.129281 277.920532 231.432832 277.21784 229.664182 277.21784 
C 227.895532 277.21784 226.199083 277.920532 224.948459 279.171156 
C 223.697834 280.421781 222.995142 282.11823 222.995142 283.88688 
C 222.995142 285.65553 223.697834 287.351979 224.948459 288.602603 
C 226.199083 289.853228 227.895532 290.55592 229.664182 290.55592 
z
" style="fill:#3aba76;"/>
    <path clip-path="url(#p6c38da1321)" d="M 199.010636 301.498113 
C 200.775765 301.498113 202.468837 300.79682 203.716971 299.548685 
C 204.965106 298.30055 205.666399 296.607478 205.666399 294.842349 
C 205.666399 293.07722 204.965106 291.384149 203.716971 290.136014 
C 202.468837 288.887879 200.775765 288.186586 199.010636 288.186586 
C 197.245507 288.186586 195.552435 288.887879 194.304301 290.136014 
C 193.056166 291.384149 192.354873 293.07722 192.354873 294.842349 
C 192.354873 296.607478 193.056166 298.30055 194.304301 299.548685 
C 195.552435 300.79682 197.245507 301.498113 199.010636 301.498113 
z
" style="fill:#228c8d;"/>
    <path clip-path="url(#p6c38da1321)" d="M 329.968288 210.197839 
C 331.75222 210.197839 333.463328 209.489075 334.724759 208.227644 
C 335.986189 206.966213 336.694953 205.255106 336.694953 203.471173 
C 336.694953 201.68724 335.986189 199.976133 334.724759 198.714702 
C 333.463328 197.453271 331.75222 196.744507 329.968288 196.744507 
C 328.184355 196.744507 326.473247 197.453271 325.211817 198.714702 
C 323.950386 199.976133 323.241622 201.68724 323.241622 203.471173 
C 323.241622 205.255106 323.950386 206.966213 325.211817 208.227644 
C 326.473247 209.489075 328.184355 210.197839 329.968288 210.197839 
z
" style="fill:#44bf70;"/>
    <path clip-path="url(#p6c38da1321)" d="M 194.226788 185.814427 
C 196.009047 185.814427 197.71855 185.106328 198.978797 183.84608 
C 200.239045 182.585833 200.947144 180.87633 200.947144 179.094071 
C 200.947144 177.311811 200.239045 175.602308 198.978797 174.342061 
C 197.71855 173.081813 196.009047 172.373714 194.226788 172.373714 
C 192.444528 172.373714 190.735025 173.081813 189.474778 174.342061 
C 188.21453 175.602308 187.506431 177.311811 187.506431 179.094071 
C 187.506431 180.87633 188.21453 182.585833 189.474778 183.84608 
C 190.735025 185.106328 192.444528 185.814427 194.226788 185.814427 
z
" style="fill:#228d8d;"/>
    <path clip-path="url(#p6c38da1321)" d="M 145.686402 72.407544 
C 147.477286 72.407544 149.195061 71.696018 150.461408 70.429672 
C 151.727754 69.163326 152.43928 67.445551 152.43928 65.654667 
C 152.43928 63.863783 151.727754 62.146008 150.461408 60.879661 
C 149.195061 59.613315 147.477286 58.901789 145.686402 58.901789 
C 143.895518 58.901789 142.177743 59.613315 140.911397 60.879661 
C 139.64505 62.146008 138.933525 63.863783 138.933525 65.654667 
C 138.933525 67.445551 139.64505 69.163326 140.911397 70.429672 
C 142.177743 71.696018 143.895518 72.407544 145.686402 72.407544 
z
" style="fill:#228c8d;"/>
    <path clip-path="url(#p6c38da1321)" d="M 132.433585 217.10995 
C 134.206764 217.10995 135.907557 216.405459 137.161385 215.151632 
C 138.415212 213.897804 139.119703 212.197011 139.119703 210.423832 
C 139.119703 208.650652 138.415212 206.949859 137.161385 205.696032 
C 135.907557 204.442205 134.206764 203.737713 132.433585 203.737713 
C 130.660405 203.737713 128.959612 204.442205 127.705785 205.696032 
C 126.451958 206.949859 125.747466 208.650652 125.747466 210.423832 
C 125.747466 212.197011 126.451958 213.897804 127.705785 215.151632 
C 128.959612 216.405459 130.660405 217.10995 132.433585 217.10995 
z
" style="fill:#440154;"/>
    <path clip-path="url(#p6c38da1321)" d="M 315.2382 169.738425 
C 317.025486 169.738425 318.739811 169.028329 320.003613 167.764527 
C 321.267415 166.500725 321.977511 164.7864 321.977511 162.999114 
C 321.977511 161.211828 321.267415 159.497504 320.003613 158.233702 
C 318.739811 156.969899 317.025486 156.259803 315.2382 156.259803 
C 313.450914 156.259803 311.73659 156.969899 310.472788 158.233702 
C 309.208985 159.497504 308.498889 161.211828 308.498889 162.999114 
C 308.498889 164.7864 309.208985 166.500725 310.472788 167.764527 
C 311.73659 169.028329 313.450914 169.738425 315.2382 169.738425 
z
" style="fill:#4ac16d;"/>
    <path clip-path="url(#p6c38da1321)" d="M 238.175616 90.135945 
C 239.971858 90.135945 241.694772 89.42229 242.964907 88.152155 
C 244.235042 86.88202 244.948697 85.159106 244.948697 83.362863 
C 244.948697 81.566621 244.235042 79.843707 242.964907 78.573572 
C 241.694772 77.303437 239.971858 76.589782 238.175616 76.589782 
C 236.379374 76.589782 234.656459 77.303437 233.386324 78.573572 
C 232.116189 79.843707 231.402535 81.566621 231.402535 83.362863 
C 231.402535 85.159106 232.116189 86.88202 233.386324 88.152155 
C 234.656459 89.42229 236.379374 90.135945 238.175616 90.135945 
z
" style="fill:#29af7f;"/>
    <path clip-path="url(#p6c38da1321)" d="M 294.214229 277.306853 
C 295.988325 277.306853 297.689997 276.601997 298.944471 275.347522 
C 300.198946 274.093048 300.903802 272.391376 300.903802 270.617281 
C 300.903802 268.843185 300.198946 267.141513 298.944471 265.887039 
C 297.689997 264.632564 295.988325 263.927708 294.214229 263.927708 
C 292.440134 263.927708 290.738462 264.632564 289.483988 265.887039 
C 288.229513 267.141513 287.524657 268.843185 287.524657 270.617281 
C 287.524657 272.391376 288.229513 274.093048 289.483988 275.347522 
C 290.738462 276.601997 292.440134 277.306853 294.214229 277.306853 
z
" style="fill:#a2da37;"/>
    <path clip-path="url(#p6c38da1321)" d="M 251.020212 136.309585 
C 252.811019 136.309585 254.52872 135.598089 255.795012 134.331797 
C 257.061304 133.065506 257.7728 131.347804 257.7728 129.556997 
C 257.7728 127.76619 257.061304 126.048488 255.795012 124.782196 
C 254.52872 123.515904 252.811019 122.804409 251.020212 122.804409 
C 249.229404 122.804409 247.511703 123.515904 246.245411 124.782196 
C 244.979119 126.048488 244.267624 127.76619 244.267624 129.556997 
C 244.267624 131.347804 244.979119 133.065506 246.245411 134.331797 
C 247.511703 135.598089 249.229404 136.309585 251.020212 136.309585 
z
" style="fill:#32648e;"/>
    <path clip-path="url(#p6c38da1321)" d="M 279.375962 167.61917 
C 281.16315 167.61917 282.87738 166.909112 284.141113 165.64538 
C 285.404846 164.381647 286.114903 162.667417 286.114903 160.880228 
C 286.114903 159.09304 285.404846 157.37881 284.141113 156.115077 
C 282.87738 154.851344 281.16315 154.141287 279.375962 154.141287 
C 277.588773 154.141287 275.874543 154.851344 274.61081 156.115077 
C 273.347078 157.37881 272.63702 159.09304 272.63702 160.880228 
C 272.63702 162.667417 273.347078 164.381647 274.61081 165.64538 
C 275.874543 166.909112 277.588773 167.61917 279.375962 167.61917 
z
" style="fill:#2a788e;"/>
    <path clip-path="url(#p6c38da1321)" d="M 256.53283 211.72359 
C 258.313266 211.72359 260.02102 211.016215 261.279979 209.757256 
C 262.538937 208.498298 263.246312 206.790544 263.246312 205.010107 
C 263.246312 203.229671 262.538937 201.521917 261.279979 200.262958 
C 260.02102 199.004 258.313266 198.296625 256.53283 198.296625 
C 254.752393 198.296625 253.044639 199.004 251.785681 200.262958 
C 250.526722 201.521917 249.819347 203.229671 249.819347 205.010107 
C 249.819347 206.790544 250.526722 208.498298 251.785681 209.757256 
C 253.044639 211.016215 254.752393 211.72359 256.53283 211.72359 
z
" style="fill:#25838e;"/>
   </g>
   <g id="text_1">
    <!-- Structure #4913, $E_N$=-182.52eV, ΔE=0.25eV -->
    <defs>
     <path d="M 53.515625 70.515625 
L 53.515625 60.890625 
Q 47.90625 63.578125 42.921875 64.890625 
Q 37.9375 66.21875 33.296875 66.21875 
Q 25.25 66.21875 20.875 63.09375 
Q 16.5 59.96875 16.5 54.203125 
Q 16.5 49.359375 19.40625 46.890625 
Q 22.3125 44.4375 30.421875 42.921875 
L 36.375 41.703125 
Q 47.40625 39.59375 52.65625 34.296875 
Q 57.90625 29 57.90625 20.125 
Q 57.90625 9.515625 50.796875 4.046875 
Q 43.703125 -1.421875 29.984375 -1.421875 
Q 24.8125 -1.421875 18.96875 -0.25 
Q 13.140625 0.921875 6.890625 3.21875 
L 6.890625 13.375 
Q 12.890625 10.015625 18.65625 8.296875 
Q 24.421875 6.59375 29.984375 6.59375 
Q 38.421875 6.59375 43.015625 9.90625 
Q 47.609375 13.234375 47.609375 19.390625 
Q 47.609375 24.75 44.3125 27.78125 
Q 41.015625 30.8125 33.5 32.328125 
L 27.484375 33.5 
Q 16.453125 35.6875 11.515625 40.375 
Q 6.59375 45.0625 6.59375 53.421875 
Q 6.59375 63.09375 13.40625 68.65625 
Q 20.21875 74.21875 32.171875 74.21875 
Q 37.3125 74.21875 42.625 73.28125 
Q 47.953125 72.359375 53.515625 70.515625 
z
" id="DejaVuSans-53"/>
     <path d="M 18.3125 70.21875 
L 18.3125 54.6875 
L 36.8125 54.6875 
L 36.8125 47.703125 
L 18.3125 47.703125 
L 18.3125 18.015625 
Q 18.3125 11.328125 20.140625 9.421875 
Q 21.96875 7.515625 27.59375 7.515625 
L 36.8125 7.515625 
L 36.8125 0 
L 27.59375 0 
Q 17.1875 0 13.234375 3.875 
Q 9.28125 7.765625 9.28125 18.015625 
L 9.28125 47.703125 
L 2.6875 47.703125 
L 2.6875 54.6875 
L 9.28125 54.6875 
L 9.28125 70.21875 
z
" id="DejaVuSans-74"/>
     <path d="M 41.109375 46.296875 
Q 39.59375 47.171875 37.8125 47.578125 
Q 36.03125 48 33.890625 48 
Q 26.265625 48 22.1875 43.046875 
Q 18.109375 38.09375 18.109375 28.8125 
L 18.109375 0 
L 9.078125 0 
L 9.078125 54.6875 
L 18.109375 54.6875 
L 18.109375 46.1875 
Q 20.953125 51.171875 25.484375 53.578125 
Q 30.03125 56 36.53125 56 
Q 37.453125 56 38.578125 55.875 
Q 39.703125 55.765625 41.0625 55.515625 
z
" id="DejaVuSans-72"/>
     <path d="M 8.5 21.578125 
L 8.5 54.6875 
L 17.484375 54.6875 
L 17.484375 21.921875 
Q 17.484375 14.15625 20.5 10.265625 
Q 23.53125 6.390625 29.59375 6.390625 
Q 36.859375 6.390625 41.078125 11.03125 
Q 45.3125 15.671875 45.3125 23.6875 
L 45.3125 54.6875 
L 54.296875 54.6875 
L 54.296875 0 
L 45.3125 0 
L 45.3125 8.40625 
Q 42.046875 3.421875 37.71875 1 
Q 33.40625 -1.421875 27.6875 -1.421875 
Q 18.265625 -1.421875 13.375 4.4375 
Q 8.5 10.296875 8.5 21.578125 
z
M 31.109375 56 
z
" id="DejaVuSans-75"/>
     <path d="M 48.78125 52.59375 
L 48.78125 44.1875 
Q 44.96875 46.296875 41.140625 47.34375 
Q 37.3125 48.390625 33.40625 48.390625 
Q 24.65625 48.390625 19.8125 42.84375 
Q 14.984375 37.3125 14.984375 27.296875 
Q 14.984375 17.28125 19.8125 11.734375 
Q 24.65625 6.203125 33.40625 6.203125 
Q 37.3125 6.203125 41.140625 7.25 
Q 44.96875 8.296875 48.78125 10.40625 
L 48.78125 2.09375 
Q 45.015625 0.34375 40.984375 -0.53125 
Q 36.96875 -1.421875 32.421875 -1.421875 
Q 20.0625 -1.421875 12.78125 6.34375 
Q 5.515625 14.109375 5.515625 27.296875 
Q 5.515625 40.671875 12.859375 48.328125 
Q 20.21875 56 33.015625 56 
Q 37.15625 56 41.109375 55.140625 
Q 45.0625 54.296875 48.78125 52.59375 
z
" id="DejaVuSans-63"/>
     <path d="M 56.203125 29.59375 
L 56.203125 25.203125 
L 14.890625 25.203125 
Q 15.484375 15.921875 20.484375 11.0625 
Q 25.484375 6.203125 34.421875 6.203125 
Q 39.59375 6.203125 44.453125 7.46875 
Q 49.3125 8.734375 54.109375 11.28125 
L 54.109375 2.78125 
Q 49.265625 0.734375 44.1875 -0.34375 
Q 39.109375 -1.421875 33.890625 -1.421875 
Q 20.796875 -1.421875 13.15625 6.1875 
Q 5.515625 13.8125 5.515625 26.8125 
Q 5.515625 40.234375 12.765625 48.109375 
Q 20.015625 56 32.328125 56 
Q 43.359375 56 49.78125 48.890625 
Q 56.203125 41.796875 56.203125 29.59375 
z
M 47.21875 32.234375 
Q 47.125 39.59375 43.09375 43.984375 
Q 39.0625 48.390625 32.421875 48.390625 
Q 24.90625 48.390625 20.390625 44.140625 
Q 15.875 39.890625 15.1875 32.171875 
z
" id="DejaVuSans-65"/>
     <path id="DejaVuSans-20"/>
     <path d="M 51.125 44 
L 36.921875 44 
L 32.8125 27.6875 
L 47.125 27.6875 
z
M 43.796875 71.78125 
L 38.71875 51.515625 
L 52.984375 51.515625 
L 58.109375 71.78125 
L 65.921875 71.78125 
L 60.890625 51.515625 
L 76.125 51.515625 
L 76.125 44 
L 58.984375 44 
L 54.984375 27.6875 
L 70.515625 27.6875 
L 70.515625 20.21875 
L 53.078125 20.21875 
L 48 0 
L 40.1875 0 
L 45.21875 20.21875 
L 30.90625 20.21875 
L 25.875 0 
L 18.015625 0 
L 23.09375 20.21875 
L 7.71875 20.21875 
L 7.71875 27.6875 
L 24.90625 27.6875 
L 29 44 
L 13.28125 44 
L 13.28125 51.515625 
L 30.90625 51.515625 
L 35.890625 71.78125 
z
" id="DejaVuSans-23"/>
     <path d="M 37.796875 64.3125 
L 12.890625 25.390625 
L 37.796875 25.390625 
z
M 35.203125 72.90625 
L 47.609375 72.90625 
L 47.609375 25.390625 
L 58.015625 25.390625 
L 58.015625 17.1875 
L 47.609375 17.1875 
L 47.609375 0 
L 37.796875 0 
L 37.796875 17.1875 
L 4.890625 17.1875 
L 4.890625 26.703125 
z
" id="DejaVuSans-34"/>
     <path d="M 10.984375 1.515625 
L 10.984375 10.5 
Q 14.703125 8.734375 18.5 7.8125 
Q 22.3125 6.890625 25.984375 6.890625 
Q 35.75 6.890625 40.890625 13.453125 
Q 46.046875 20.015625 46.78125 33.40625 
Q 43.953125 29.203125 39.59375 26.953125 
Q 35.25 24.703125 29.984375 24.703125 
Q 19.046875 24.703125 12.671875 31.3125 
Q 6.296875 37.9375 6.296875 49.421875 
Q 6.296875 60.640625 12.9375 67.421875 
Q 19.578125 74.21875 30.609375 74.21875 
Q 43.265625 74.21875 49.921875 64.515625 
Q 56.59375 54.828125 56.59375 36.375 
Q 56.59375 19.140625 48.40625 8.859375 
Q 40.234375 -1.421875 26.421875 -1.421875 
Q 22.703125 -1.421875 18.890625 -0.6875 
Q 15.09375 0.046875 10.984375 1.515625 
z
M 30.609375 32.421875 
Q 37.25 32.421875 41.125 36.953125 
Q 45.015625 41.5 45.015625 49.421875 
Q 45.015625 57.28125 41.125 61.84375 
Q 37.25 66.40625 30.609375 66.40625 
Q 23.96875 66.40625 20.09375 61.84375 
Q 16.21875 57.28125 16.21875 49.421875 
Q 16.21875 41.5 20.09375 36.953125 
Q 23.96875 32.421875 30.609375 32.421875 
z
" id="DejaVuSans-39"/>
     <path d="M 12.40625 8.296875 
L 28.515625 8.296875 
L 28.515625 63.921875 
L 10.984375 60.40625 
L 10.984375 69.390625 
L 28.421875 72.90625 
L 38.28125 72.90625 
L 38.28125 8.296875 
L 54.390625 8.296875 
L 54.390625 0 
L 12.40625 0 
z
" id="DejaVuSans-31"/>
     <path d="M 40.578125 39.3125 
Q 47.65625 37.796875 51.625 33 
Q 55.609375 28.21875 55.609375 21.1875 
Q 55.609375 10.40625 48.1875 4.484375 
Q 40.765625 -1.421875 27.09375 -1.421875 
Q 22.515625 -1.421875 17.65625 -0.515625 
Q 12.796875 0.390625 7.625 2.203125 
L 7.625 11.71875 
Q 11.71875 9.328125 16.59375 8.109375 
Q 21.484375 6.890625 26.8125 6.890625 
Q 36.078125 6.890625 40.9375 10.546875 
Q 45.796875 14.203125 45.796875 21.1875 
Q 45.796875 27.640625 41.28125 31.265625 
Q 36.765625 34.90625 28.71875 34.90625 
L 20.21875 34.90625 
L 20.21875 43.015625 
L 29.109375 43.015625 
Q 36.375 43.015625 40.234375 45.921875 
Q 44.09375 48.828125 44.09375 54.296875 
Q 44.09375 59.90625 40.109375 62.90625 
Q 36.140625 65.921875 28.71875 65.921875 
Q 24.65625 65.921875 20.015625 65.03125 
Q 15.375 64.15625 9.8125 62.3125 
L 9.8125 71.09375 
Q 15.4375 72.65625 20.34375 73.4375 
Q 25.25 74.21875 29.59375 74.21875 
Q 40.828125 74.21875 47.359375 69.109375 
Q 53.90625 64.015625 53.90625 55.328125 
Q 53.90625 49.265625 50.4375 45.09375 
Q 46.96875 40.921875 40.578125 39.3125 
z
" id="DejaVuSans-33"/>
     <path d="M 11.71875 12.40625 
L 22.015625 12.40625 
L 22.015625 4 
L 14.015625 -11.625 
L 7.71875 -11.625 
L 11.71875 4 
z
" id="DejaVuSans-2c"/>
     <path d="M 16.890625 72.90625 
L 62.984375 72.90625 
L 61.375 64.59375 
L 25.09375 64.59375 
L 20.90625 43.015625 
L 55.71875 43.015625 
L 54.109375 34.71875 
L 19.28125 34.71875 
L 14.203125 8.296875 
L 51.3125 8.296875 
L 49.703125 0 
L 2.6875 0 
z
" id="DejaVuSans-Oblique-45"/>
     <path d="M 16.890625 72.90625 
L 30.171875 72.90625 
L 50.296875 10.40625 
L 62.5 72.90625 
L 72.125 72.90625 
L 57.90625 0 
L 44.578125 0 
L 24.515625 62.890625 
L 12.3125 0 
L 2.6875 0 
z
" id="DejaVuSans-Oblique-4e"/>
     <path d="M 10.59375 45.40625 
L 73.1875 45.40625 
L 73.1875 37.203125 
L 10.59375 37.203125 
z
M 10.59375 25.484375 
L 73.1875 25.484375 
L 73.1875 17.1875 
L 10.59375 17.1875 
z
" id="DejaVuSans-3d"/>
     <path d="M 4.890625 31.390625 
L 31.203125 31.390625 
L 31.203125 23.390625 
L 4.890625 23.390625 
z
" id="DejaVuSans-2d"/>
     <path d="M 31.78125 34.625 
Q 24.75 34.625 20.71875 30.859375 
Q 16.703125 27.09375 16.703125 20.515625 
Q 16.703125 13.921875 20.71875 10.15625 
Q 24.75 6.390625 31.78125 6.390625 
Q 38.8125 6.390625 42.859375 10.171875 
Q 46.921875 13.96875 46.921875 20.515625 
Q 46.921875 27.09375 42.890625 30.859375 
Q 38.875 34.625 31.78125 34.625 
z
M 21.921875 38.8125 
Q 15.578125 40.375 12.03125 44.71875 
Q 8.5 49.078125 8.5 55.328125 
Q 8.5 64.0625 14.71875 69.140625 
Q 20.953125 74.21875 31.78125 74.21875 
Q 42.671875 74.21875 48.875 69.140625 
Q 55.078125 64.0625 55.078125 55.328125 
Q 55.078125 49.078125 51.53125 44.71875 
Q 48 40.375 41.703125 38.8125 
Q 48.828125 37.15625 52.796875 32.3125 
Q 56.78125 27.484375 56.78125 20.515625 
Q 56.78125 9.90625 50.3125 4.234375 
Q 43.84375 -1.421875 31.78125 -1.421875 
Q 19.734375 -1.421875 13.25 4.234375 
Q 6.78125 9.90625 6.78125 20.515625 
Q 6.78125 27.484375 10.78125 32.3125 
Q 14.796875 37.15625 21.921875 38.8125 
z
M 18.3125 54.390625 
Q 18.3125 48.734375 21.84375 45.5625 
Q 25.390625 42.390625 31.78125 42.390625 
Q 38.140625 42.390625 41.71875 45.5625 
Q 45.3125 48.734375 45.3125 54.390625 
Q 45.3125 60.0625 41.71875 63.234375 
Q 38.140625 66.40625 31.78125 66.40625 
Q 25.390625 66.40625 21.84375 63.234375 
Q 18.3125 60.0625 18.3125 54.390625 
z
" id="DejaVuSans-38"/>
     <path d="M 19.1875 8.296875 
L 53.609375 8.296875 
L 53.609375 0 
L 7.328125 0 
L 7.328125 8.296875 
Q 12.9375 14.109375 22.625 23.890625 
Q 32.328125 33.6875 34.8125 36.53125 
Q 39.546875 41.84375 41.421875 45.53125 
Q 43.3125 49.21875 43.3125 52.78125 
Q 43.3125 58.59375 39.234375 62.25 
Q 35.15625 65.921875 28.609375 65.921875 
Q 23.96875 65.921875 18.8125 64.3125 
Q 13.671875 62.703125 7.8125 59.421875 
L 7.8125 69.390625 
Q 13.765625 71.78125 18.9375 73 
Q 24.125 74.21875 28.421875 74.21875 
Q 39.75 74.21875 46.484375 68.546875 
Q 53.21875 62.890625 53.21875 53.421875 
Q 53.21875 48.921875 51.53125 44.890625 
Q 49.859375 40.875 45.40625 35.40625 
Q 44.1875 33.984375 37.640625 27.21875 
Q 31.109375 20.453125 19.1875 8.296875 
z
" id="DejaVuSans-32"/>
     <path d="M 10.6875 12.40625 
L 21 12.40625 
L 21 0 
L 10.6875 0 
z
" id="DejaVuSans-2e"/>
     <path d="M 10.796875 72.90625 
L 49.515625 72.90625 
L 49.515625 64.59375 
L 19.828125 64.59375 
L 19.828125 46.734375 
Q 21.96875 47.46875 24.109375 47.828125 
Q 26.265625 48.1875 28.421875 48.1875 
Q 40.625 48.1875 47.75 41.5 
Q 54.890625 34.8125 54.890625 23.390625 
Q 54.890625 11.625 47.5625 5.09375 
Q 40.234375 -1.421875 26.90625 -1.421875 
Q 22.3125 -1.421875 17.546875 -0.640625 
Q 12.796875 0.140625 7.71875 1.703125 
L 7.71875 11.625 
Q 12.109375 9.234375 16.796875 8.0625 
Q 21.484375 6.890625 26.703125 6.890625 
Q 35.15625 6.890625 40.078125 11.328125 
Q 45.015625 15.765625 45.015625 23.390625 
Q 45.015625 31 40.078125 35.4375 
Q 35.15625 39.890625 26.703125 39.890625 
Q 22.75 39.890625 18.8125 39.015625 
Q 14.890625 38.140625 10.796875 36.28125 
z
" id="DejaVuSans-35"/>
     <path d="M 28.609375 0 
L 0.78125 72.90625 
L 11.078125 72.90625 
L 34.1875 11.53125 
L 57.328125 72.90625 
L 67.578125 72.90625 
L 39.796875 0 
z
" id="DejaVuSans-56"/>
     <path d="M 34.1875 63.1875 
L 14.15625 8.203125 
L 54.25 8.203125 
z
M 0.78125 0 
L 28.609375 72.90625 
L 39.796875 72.90625 
L 67.578125 0 
z
" id="DejaVuSans-394"/>
     <path d="M 9.8125 72.90625 
L 55.90625 72.90625 
L 55.90625 64.59375 
L 19.671875 64.59375 
L 19.671875 43.015625 
L 54.390625 43.015625 
L 54.390625 34.71875 
L 19.671875 34.71875 
L 19.671875 8.296875 
L 56.78125 8.296875 
L 56.78125 0 
L 9.8125 0 
z
" id="DejaVuSans-45"/>
     <path d="M 31.78125 66.40625 
Q 24.171875 66.40625 20.328125 58.90625 
Q 16.5 51.421875 16.5 36.375 
Q 16.5 21.390625 20.328125 13.890625 
Q 24.171875 6.390625 31.78125 6.390625 
Q 39.453125 6.390625 43.28125 13.890625 
Q 47.125 21.390625 47.125 36.375 
Q 47.125 51.421875 43.28125 58.90625 
Q 39.453125 66.40625 31.78125 66.40625 
z
M 31.78125 74.21875 
Q 44.046875 74.21875 50.515625 64.515625 
Q 56.984375 54.828125 56.984375 36.375 
Q 56.984375 17.96875 50.515625 8.265625 
Q 44.046875 -1.421875 31.78125 -1.421875 
Q 19.53125 -1.421875 13.0625 8.265625 
Q 6.59375 17.96875 6.59375 36.375 
Q 6.59375 54.828125 13.0625 64.515625 
Q 19.53125 74.21875 31.78125 74.21875 
z
" id="DejaVuSans-30"/>
    </defs>
    <g transform="translate(65.388 35.472)scale(0.12 -0.12)">
     <use transform="translate(0 0.78125)" xlink:href="#DejaVuSans-53"/>
     <use transform="translate(63.476562 0.78125)" xlink:href="#DejaVuSans-74"/>
     <use transform="translate(102.685547 0.78125)" xlink:href="#DejaVuSans-72"/>
     <use transform="translate(143.798828 0.78125)" xlink:href="#DejaVuSans-75"/>
     <use transform="translate(207.177734 0.78125)" xlink:href="#DejaVuSans-63"/>
     <use transform="translate(262.158203 0.78125)" xlink:href="#DejaVuSans-74"/>
     <use transform="translate(301.367188 0.78125)" xlink:href="#DejaVuSans-75"/>
     <use transform="translate(364.746094 0.78125)" xlink:href="#DejaVuSans-72"/>
     <use transform="translate(405.859375 0.78125)" xlink:href="#DejaVuSans-65"/>
     <use transform="translate(467.382812 0.78125)" xlink:href="#DejaVuSans-20"/>
     <use transform="translate(499.169922 0.78125)" xlink:href="#DejaVuSans-23"/>
     <use transform="translate(582.958984 0.78125)" xlink:href="#DejaVuSans-34"/>
     <use transform="translate(646.582031 0.78125)" xlink:href="#DejaVuSans-39"/>
     <use transform="translate(710.205078 0.78125)" xlink:href="#DejaVuSans-31"/>
     <use transform="translate(773.828125 0.78125)" xlink:href="#DejaVuSans-33"/>
     <use transform="translate(837.451172 0.78125)" xlink:href="#DejaVuSans-2c"/>
     <use transform="translate(869.238281 0.78125)" xlink:href="#DejaVuSans-20"/>
     <use transform="translate(901.025391 0.78125)" xlink:href="#DejaVuSans-Oblique-45"/>
     <use transform="translate(964.208984 -15.625)scale(0.7)" xlink:href="#DejaVuSans-Oblique-4e"/>
     <use transform="translate(1019.306641 0.78125)" xlink:href="#DejaVuSans-3d"/>
     <use transform="translate(1103.095703 0.78125)" xlink:href="#DejaVuSans-2d"/>
     <use transform="translate(1139.179688 0.78125)" xlink:href="#DejaVuSans-31"/>
     <use transform="translate(1202.802734 0.78125)" xlink:href="#DejaVuSans-38"/>
     <use transform="translate(1266.425781 0.78125)" xlink:href="#DejaVuSans-32"/>
     <use transform="translate(1330.048828 0.78125)" xlink:href="#DejaVuSans-2e"/>
     <use transform="translate(1361.835938 0.78125)" xlink:href="#DejaVuSans-35"/>
     <use transform="translate(1425.458984 0.78125)" xlink:href="#DejaVuSans-32"/>
     <use transform="translate(1489.082031 0.78125)" xlink:href="#DejaVuSans-65"/>
     <use transform="translate(1550.605469 0.78125)" xlink:href="#DejaVuSans-56"/>
     <use transform="translate(1619.013672 0.78125)" xlink:href="#DejaVuSans-2c"/>
     <use transform="translate(1650.800781 0.78125)" xlink:href="#DejaVuSans-20"/>
     <use transform="translate(1682.587891 0.78125)" xlink:href="#DejaVuSans-394"/>
     <use transform="translate(1750.996094 0.78125)" xlink:href="#DejaVuSans-45"/>
     <use transform="translate(1814.179688 0.78125)" xlink:href="#DejaVuSans-3d"/>
     <use transform="translate(1897.96875 0.78125)" xlink:href="#DejaVuSans-30"/>
     <use transform="translate(1961.591797 0.78125)" xlink:href="#DejaVuSans-2e"/>
     <use transform="translate(1993.300781 0.78125)" xlink:href="#DejaVuSans-32"/>
     <use transform="translate(2056.923828 0.78125)" xlink:href="#DejaVuSans-35"/>
     <use transform="translate(2120.546875 0.78125)" xlink:href="#DejaVuSans-65"/>
     <use transform="translate(2182.070312 0.78125)" xlink:href="#DejaVuSans-56"/>
    </g>
   </g>
  </g>
  <g id="axes_2">
   <g id="patch_2">
    <path clip-path="url(#p379b6ad0cd)" d="M 361.152 307.584 
L 361.152 306.5445 
L 361.152 42.5115 
L 361.152 41.472 
L 374.4576 41.472 
L 374.4576 42.5115 
L 374.4576 306.5445 
L 374.4576 307.584 
z
" style="fill:#ffffff;stroke:#ffffff;stroke-linejoin:miter;stroke-width:0.01;"/>
   </g>
   <image height="265.68" id="image7c751bc19c" transform="scale(1 -1)translate(0 -265.68)" width="12.96" x="361.44" xlink:href="data:image/png;base64,
iVBORw0KGgoAAAANSUhEUgAAABIAAAFxCAYAAAB+2fgXAAAABHNCSVQICAgIfAhkiAAAAeVJREFUeJztncmNw0AQA2ckheYQNv9QLIfQ8ygsCgQ7AEI8+jAs2Puz/94F1LP2ReCsZ18bAWIeZ5XaGRBE7VnbptG+KI101FYyNSiQG2oRITXKNaX9uclOdi2XWjftVE32CZCO2ou5Bj1TcCBr/1zB9ge7Fq0Rg2NM9pvbtG+ua1QgsRYhDy0ISEiNc40BEibbSI0Coj5CBGtkpFbXJiAjNZlrwhuSOv2M1DjXbEdEciBt1JSDDQKKpmZr2rr2j0DBGpXaWEJq3bQzEPIS26r9J+Wzv9Tm8o3aajRXqc3VUXsApKNWjeZq0x4ABVNbm7lrszVigDqP5vIl2+eaT2yfRkL7g+dRcNPqjohkjaCvRVBq0H2U3LQrOJCx9kdTg4B8oxZzzTdqdYHEngjUCAPyUctN9sVRq2sTECW2UKNLd2jVtRmo1A6AhMmWaSRcR8nUdIHUuVb75zJS218EyEitro1At69pIdeSk30Lkw0FktNImGyZRhy1O5galmxd03LUsHWk06jUZiCq+5Wb1kZNN4+wJxJuWt8RAW5am2sYNZ9rYCBzZ3buPKJ2P5Yj4Toy3keyIyJbIxs1rml1byCA84gpch5RQNB7Q0qNMGq2Hy4BXdNR41yz/cEEJfZzUz96r9PoB0okjeQ8y9TkAAAAAElFTkSuQmCC" y="-41.76"/>
   <g id="matplotlib.axis_1"/>
   <g id="matplotlib.axis_2">
    <g id="ytick_1">
     <g id="line2d_1">
      <defs>
       <path d="M 0 0 
L 3.5 0 
" id="me59cd1f74b" style="stroke:#000000;stroke-width:0.8;"/>
      </defs>
      <g>
       <use style="stroke:#000000;stroke-width:0.8;" x="374.4576" xlink:href="#me59cd1f74b" y="296.877058"/>
      </g>
     </g>
     <g id="text_2">
      <!-- −9.0 -->
      <defs>
       <path d="M 10.59375 35.5 
L 73.1875 35.5 
L 73.1875 27.203125 
L 10.59375 27.203125 
z
" id="DejaVuSans-2212"/>
      </defs>
      <g transform="translate(381.4576 300.676276)scale(0.1 -0.1)">
       <use xlink:href="#DejaVuSans-2212"/>
       <use x="83.789062" xlink:href="#DejaVuSans-39"/>
       <use x="147.412109" xlink:href="#DejaVuSans-2e"/>
       <use x="179.199219" xlink:href="#DejaVuSans-30"/>
      </g>
     </g>
    </g>
    <g id="ytick_2">
     <g id="line2d_2">
      <g>
       <use style="stroke:#000000;stroke-width:0.8;" x="374.4576" xlink:href="#me59cd1f74b" y="250.21243"/>
      </g>
     </g>
     <g id="text_3">
      <!-- −8.5 -->
      <g transform="translate(381.4576 254.011648)scale(0.1 -0.1)">
       <use xlink:href="#DejaVuSans-2212"/>
       <use x="83.789062" xlink:href="#DejaVuSans-38"/>
       <use x="147.412109" xlink:href="#DejaVuSans-2e"/>
       <use x="179.199219" xlink:href="#DejaVuSans-35"/>
      </g>
     </g>
    </g>
    <g id="ytick_3">
     <g id="line2d_3">
      <g>
       <use style="stroke:#000000;stroke-width:0.8;" x="374.4576" xlink:href="#me59cd1f74b" y="203.547801"/>
      </g>
     </g>
     <g id="text_4">
      <!-- −8.0 -->
      <g transform="translate(381.4576 207.34702)scale(0.1 -0.1)">
       <use xlink:href="#DejaVuSans-2212"/>
       <use x="83.789062" xlink:href="#DejaVuSans-38"/>
       <use x="147.412109" xlink:href="#DejaVuSans-2e"/>
       <use x="179.199219" xlink:href="#DejaVuSans-30"/>
      </g>
     </g>
    </g>
    <g id="ytick_4">
     <g id="line2d_4">
      <g>
       <use style="stroke:#000000;stroke-width:0.8;" x="374.4576" xlink:href="#me59cd1f74b" y="156.883173"/>
      </g>
     </g>
     <g id="text_5">
      <!-- −7.5 -->
      <defs>
       <path d="M 8.203125 72.90625 
L 55.078125 72.90625 
L 55.078125 68.703125 
L 28.609375 0 
L 18.3125 0 
L 43.21875 64.59375 
L 8.203125 64.59375 
z
" id="DejaVuSans-37"/>
      </defs>
      <g transform="translate(381.4576 160.682392)scale(0.1 -0.1)">
       <use xlink:href="#DejaVuSans-2212"/>
       <use x="83.789062" xlink:href="#DejaVuSans-37"/>
       <use x="147.412109" xlink:href="#DejaVuSans-2e"/>
       <use x="179.199219" xlink:href="#DejaVuSans-35"/>
      </g>
     </g>
    </g>
    <g id="ytick_5">
     <g id="line2d_5">
      <g>
       <use style="stroke:#000000;stroke-width:0.8;" x="374.4576" xlink:href="#me59cd1f74b" y="110.218545"/>
      </g>
     </g>
     <g id="text_6">
      <!-- −7.0 -->
      <g transform="translate(381.4576 114.017764)scale(0.1 -0.1)">
       <use xlink:href="#DejaVuSans-2212"/>
       <use x="83.789062" xlink:href="#DejaVuSans-37"/>
       <use x="147.412109" xlink:href="#DejaVuSans-2e"/>
       <use x="179.199219" xlink:href="#DejaVuSans-30"/>
      </g>
     </g>
    </g>
    <g id="ytick_6">
     <g id="line2d_6">
      <g>
       <use style="stroke:#000000;stroke-width:0.8;" x="374.4576" xlink:href="#me59cd1f74b" y="63.553917"/>
      </g>
     </g>
     <g id="text_7">
      <!-- −6.5 -->
      <defs>
       <path d="M 33.015625 40.375 
Q 26.375 40.375 22.484375 35.828125 
Q 18.609375 31.296875 18.609375 23.390625 
Q 18.609375 15.53125 22.484375 10.953125 
Q 26.375 6.390625 33.015625 6.390625 
Q 39.65625 6.390625 43.53125 10.953125 
Q 47.40625 15.53125 47.40625 23.390625 
Q 47.40625 31.296875 43.53125 35.828125 
Q 39.65625 40.375 33.015625 40.375 
z
M 52.59375 71.296875 
L 52.59375 62.3125 
Q 48.875 64.0625 45.09375 64.984375 
Q 41.3125 65.921875 37.59375 65.921875 
Q 27.828125 65.921875 22.671875 59.328125 
Q 17.53125 52.734375 16.796875 39.40625 
Q 19.671875 43.65625 24.015625 45.921875 
Q 28.375 48.1875 33.59375 48.1875 
Q 44.578125 48.1875 50.953125 41.515625 
Q 57.328125 34.859375 57.328125 23.390625 
Q 57.328125 12.15625 50.6875 5.359375 
Q 44.046875 -1.421875 33.015625 -1.421875 
Q 20.359375 -1.421875 13.671875 8.265625 
Q 6.984375 17.96875 6.984375 36.375 
Q 6.984375 53.65625 15.1875 63.9375 
Q 23.390625 74.21875 37.203125 74.21875 
Q 40.921875 74.21875 44.703125 73.484375 
Q 48.484375 72.75 52.59375 71.296875 
z
" id="DejaVuSans-36"/>
      </defs>
      <g transform="translate(381.4576 67.353136)scale(0.1 -0.1)">
       <use xlink:href="#DejaVuSans-2212"/>
       <use x="83.789062" xlink:href="#DejaVuSans-36"/>
       <use x="147.412109" xlink:href="#DejaVuSans-2e"/>
       <use x="179.199219" xlink:href="#DejaVuSans-35"/>
      </g>
     </g>
    </g>
    <g id="text_8">
     <!-- Energy [eV] -->
     <defs>
      <path d="M 54.890625 33.015625 
L 54.890625 0 
L 45.90625 0 
L 45.90625 32.71875 
Q 45.90625 40.484375 42.875 44.328125 
Q 39.84375 48.1875 33.796875 48.1875 
Q 26.515625 48.1875 22.3125 43.546875 
Q 18.109375 38.921875 18.109375 30.90625 
L 18.109375 0 
L 9.078125 0 
L 9.078125 54.6875 
L 18.109375 54.6875 
L 18.109375 46.1875 
Q 21.34375 51.125 25.703125 53.5625 
Q 30.078125 56 35.796875 56 
Q 45.21875 56 50.046875 50.171875 
Q 54.890625 44.34375 54.890625 33.015625 
z
" id="DejaVuSans-6e"/>
      <path d="M 45.40625 27.984375 
Q 45.40625 37.75 41.375 43.109375 
Q 37.359375 48.484375 30.078125 48.484375 
Q 22.859375 48.484375 18.828125 43.109375 
Q 14.796875 37.75 14.796875 27.984375 
Q 14.796875 18.265625 18.828125 12.890625 
Q 22.859375 7.515625 30.078125 7.515625 
Q 37.359375 7.515625 41.375 12.890625 
Q 45.40625 18.265625 45.40625 27.984375 
z
M 54.390625 6.78125 
Q 54.390625 -7.171875 48.1875 -13.984375 
Q 42 -20.796875 29.203125 -20.796875 
Q 24.46875 -20.796875 20.265625 -20.09375 
Q 16.0625 -19.390625 12.109375 -17.921875 
L 12.109375 -9.1875 
Q 16.0625 -11.328125 19.921875 -12.34375 
Q 23.78125 -13.375 27.78125 -13.375 
Q 36.625 -13.375 41.015625 -8.765625 
Q 45.40625 -4.15625 45.40625 5.171875 
L 45.40625 9.625 
Q 42.625 4.78125 38.28125 2.390625 
Q 33.9375 0 27.875 0 
Q 17.828125 0 11.671875 7.65625 
Q 5.515625 15.328125 5.515625 27.984375 
Q 5.515625 40.671875 11.671875 48.328125 
Q 17.828125 56 27.875 56 
Q 33.9375 56 38.28125 53.609375 
Q 42.625 51.21875 45.40625 46.390625 
L 45.40625 54.6875 
L 54.390625 54.6875 
z
" id="DejaVuSans-67"/>
      <path d="M 32.171875 -5.078125 
Q 28.375 -14.84375 24.75 -17.8125 
Q 21.140625 -20.796875 15.09375 -20.796875 
L 7.90625 -20.796875 
L 7.90625 -13.28125 
L 13.1875 -13.28125 
Q 16.890625 -13.28125 18.9375 -11.515625 
Q 21 -9.765625 23.484375 -3.21875 
L 25.09375 0.875 
L 2.984375 54.6875 
L 12.5 54.6875 
L 29.59375 11.921875 
L 46.6875 54.6875 
L 56.203125 54.6875 
z
" id="DejaVuSans-79"/>
      <path d="M 8.59375 75.984375 
L 29.296875 75.984375 
L 29.296875 69 
L 17.578125 69 
L 17.578125 -6.203125 
L 29.296875 -6.203125 
L 29.296875 -13.1875 
L 8.59375 -13.1875 
z
" id="DejaVuSans-5b"/>
      <path d="M 30.421875 75.984375 
L 30.421875 -13.1875 
L 9.71875 -13.1875 
L 9.71875 -6.203125 
L 21.390625 -6.203125 
L 21.390625 69 
L 9.71875 69 
L 9.71875 75.984375 
z
" id="DejaVuSans-5d"/>
     </defs>
     <g transform="translate(417.33885 204.108469)rotate(-90)scale(0.1 -0.1)">
      <use xlink:href="#DejaVuSans-45"/>
      <use x="63.183594" xlink:href="#DejaVuSans-6e"/>
      <use x="126.5625" xlink:href="#DejaVuSans-65"/>
      <use x="188.085938" xlink:href="#DejaVuSans-72"/>
      <use x="229.183594" xlink:href="#DejaVuSans-67"/>
      <use x="292.660156" xlink:href="#DejaVuSans-79"/>
      <use x="351.839844" xlink:href="#DejaVuSans-20"/>
      <use x="383.626953" xlink:href="#DejaVuSans-5b"/>
      <use x="422.640625" xlink:href="#DejaVuSans-65"/>
      <use x="484.164062" xlink:href="#DejaVuSans-56"/>
      <use x="552.572266" xlink:href="#DejaVuSans-5d"/>
     </g>
    </g>
   </g>
   <g id="patch_3">
    <path d="M 361.152 307.584 
L 361.152 306.5445 
L 361.152 42.5115 
L 361.152 41.472 
L 374.4576 41.472 
L 374.4576 42.5115 
L 374.4576 306.5445 
L 374.4576 307.584 
z
" style="fill:none;stroke:#000000;stroke-linejoin:miter;stroke-width:0.8;"/>
   </g>
  </g>
 </g>
 <defs>
  <clipPath id="p6c38da1321">
   <rect height="266.112" width="285.696" x="57.6" y="41.472"/>
  </clipPath>
  <clipPath id="p379b6ad0cd">
   <rect height="266.112" width="13.3056" x="361.152" y="41.472"/>
  </clipPath>
 </defs>
</svg>
