<?xml version="1.0" encoding="utf-8" standalone="no"?>
<!DOCTYPE svg PUBLIC "-//W3C//DTD SVG 1.1//EN"
  "http://www.w3.org/Graphics/SVG/1.1/DTD/svg11.dtd">
<!-- Created with matplotlib (http://matplotlib.org/) -->
<svg height="345.6pt" version="1.1" viewBox="0 0 460.8 345.6" width="460.8pt" xmlns="http://www.w3.org/2000/svg" xmlns:xlink="http://www.w3.org/1999/xlink">
 <defs>
  <style type="text/css">
*{stroke-linecap:butt;stroke-linejoin:round;}
  </style>
 </defs>
 <g id="figure_1">
  <g id="patch_1">
   <path d="M 0 345.6 
L 460.8 345.6 
L 460.8 0 
L 0 0 
z
" style="fill:#ffffff;"/>
  </g>
  <g id="axes_1">
   <g id="CircleCollection_1">
    <path clip-path="url(#p1894386c4c)" d="M 182.645072 243.653987 
C 184.404155 243.653987 186.091427 242.955096 187.335286 241.711237 
C 188.579146 240.467377 189.278037 238.780105 189.278037 237.021022 
C 189.278037 235.261939 188.579146 233.574667 187.335286 232.330808 
C 186.091427 231.086948 184.404155 230.388057 182.645072 230.388057 
C 180.885989 230.388057 179.198717 231.086948 177.954857 232.330808 
C 176.710998 233.574667 176.012107 235.261939 176.012107 237.021022 
C 176.012107 238.780105 176.710998 240.467377 177.954857 241.711237 
C 179.198717 242.955096 180.885989 243.653987 182.645072 243.653987 
z
" style="fill:#440154;"/>
    <path clip-path="url(#p1894386c4c)" d="M 225.147988 128.749348 
C 226.939631 128.749348 228.658134 128.037521 229.925017 126.770638 
C 231.1919 125.503755 231.903727 123.785252 231.903727 121.99361 
C 231.903727 120.201967 231.1919 118.483464 229.925017 117.216581 
C 228.658134 115.949698 226.939631 115.237871 225.147988 115.237871 
C 223.356345 115.237871 221.637842 115.949698 220.37096 117.216581 
C 219.104077 118.483464 218.39225 120.201967 218.39225 121.99361 
C 218.39225 123.785252 219.104077 125.503755 220.37096 126.770638 
C 221.637842 128.037521 223.356345 128.749348 225.147988 128.749348 
z
" style="fill:#472e7c;"/>
    <path clip-path="url(#p1894386c4c)" d="M 112.100777 127.532175 
C 113.895339 127.532175 115.616642 126.819188 116.885589 125.550241 
C 118.154536 124.281294 118.867523 122.559991 118.867523 120.765429 
C 118.867523 118.970867 118.154536 117.249564 116.885589 115.980617 
C 115.616642 114.71167 113.895339 113.998683 112.100777 113.998683 
C 110.306215 113.998683 108.584912 114.71167 107.315965 115.980617 
C 106.047018 117.249564 105.334031 118.970867 105.334031 120.765429 
C 105.334031 122.559991 106.047018 124.281294 107.315965 125.550241 
C 108.584912 126.819188 110.306215 127.532175 112.100777 127.532175 
z
" style="fill:#26828e;"/>
    <path clip-path="url(#p1894386c4c)" d="M 224.830554 185.327057 
C 226.608068 185.327057 228.313019 184.620843 229.569911 183.363951 
C 230.826803 182.107059 231.533017 180.402108 231.533017 178.624594 
C 231.533017 176.84708 230.826803 175.142129 229.569911 173.885237 
C 228.313019 172.628345 226.608068 171.922132 224.830554 171.922132 
C 223.05304 171.922132 221.348089 172.628345 220.091197 173.885237 
C 218.834305 175.142129 218.128091 176.84708 218.128091 178.624594 
C 218.128091 180.402108 218.834305 182.107059 220.091197 183.363951 
C 221.348089 184.620843 223.05304 185.327057 224.830554 185.327057 
z
" style="fill:#26818e;"/>
    <path clip-path="url(#p1894386c4c)" d="M 150.864888 114.659187 
C 152.65934 114.659187 154.380536 113.946244 155.649405 112.677375 
C 156.918274 111.408507 157.631217 109.68731 157.631217 107.892859 
C 157.631217 106.098407 156.918274 104.377211 155.649405 103.108342 
C 154.380536 101.839473 152.65934 101.12653 150.864888 101.12653 
C 149.070437 101.12653 147.34924 101.839473 146.080372 103.108342 
C 144.811503 104.377211 144.09856 106.098407 144.09856 107.892859 
C 144.09856 109.68731 144.811503 111.408507 146.080372 112.677375 
C 147.34924 113.946244 149.070437 114.659187 150.864888 114.659187 
z
" style="fill:#46085c;"/>
    <path clip-path="url(#p1894386c4c)" d="M 232.937832 94.304544 
C 234.740927 94.304544 236.470416 93.588167 237.745397 92.313186 
C 239.020378 91.038204 239.736756 89.308716 239.736756 87.50562 
C 239.736756 85.702524 239.020378 83.973036 237.745397 82.698055 
C 236.470416 81.423073 234.740927 80.706696 232.937832 80.706696 
C 231.134736 80.706696 229.405247 81.423073 228.130266 82.698055 
C 226.855285 83.973036 226.138907 85.702524 226.138907 87.50562 
C 226.138907 89.308716 226.855285 91.038204 228.130266 92.313186 
C 229.405247 93.588167 231.134736 94.304544 232.937832 94.304544 
z
" style="fill:#2a788e;"/>
    <path clip-path="url(#p1894386c4c)" d="M 282.955252 290.95053 
C 284.685357 290.95053 286.344834 290.263152 287.568203 289.039783 
C 288.791572 287.816414 289.47895 286.156936 289.47895 284.426831 
C 289.47895 282.696726 288.791572 281.037249 287.568203 279.81388 
C 286.344834 278.590511 284.685357 277.903133 282.955252 277.903133 
C 281.225147 277.903133 279.565669 278.590511 278.3423 279.81388 
C 277.118931 281.037249 276.431553 282.696726 276.431553 284.426831 
C 276.431553 286.156936 277.118931 287.816414 278.3423 289.039783 
C 279.565669 290.263152 281.225147 290.95053 282.955252 290.95053 
z
" style="fill:#2d718e;"/>
    <path clip-path="url(#p1894386c4c)" d="M 70.985443 181.605039 
C 72.770268 181.605039 74.482232 180.89592 75.744293 179.633858 
C 77.006355 178.371797 77.715474 176.659833 77.715474 174.875008 
C 77.715474 173.090183 77.006355 171.37822 75.744293 170.116158 
C 74.482232 168.854096 72.770268 168.144977 70.985443 168.144977 
C 69.200618 168.144977 67.488655 168.854096 66.226593 170.116158 
C 64.964531 171.37822 64.255412 173.090183 64.255412 174.875008 
C 64.255412 176.659833 64.964531 178.371797 66.226593 179.633858 
C 67.488655 180.89592 69.200618 181.605039 70.985443 181.605039 
z
" style="fill:#2d718e;"/>
    <path clip-path="url(#p1894386c4c)" d="M 329.907345 154.355868 
C 331.706529 154.355868 333.432264 153.641045 334.704479 152.36883 
C 335.976694 151.096615 336.691517 149.370879 336.691517 147.571696 
C 336.691517 145.772512 335.976694 144.046776 334.704479 142.774561 
C 333.432264 141.502347 331.706529 140.787523 329.907345 140.787523 
C 328.108161 140.787523 326.382426 141.502347 325.110211 142.774561 
C 323.837996 144.046776 323.123173 145.772512 323.123173 147.571696 
C 323.123173 149.370879 323.837996 151.096615 325.110211 152.36883 
C 326.382426 153.641045 328.108161 154.355868 329.907345 154.355868 
z
" style="fill:#fde725;"/>
    <path clip-path="url(#p1894386c4c)" d="M 251.59892 157.518066 
C 253.384083 157.518066 255.096369 156.808813 256.35867 155.546513 
C 257.62097 154.284213 258.330222 152.571926 258.330222 150.786764 
C 258.330222 149.001602 257.62097 147.289315 256.35867 146.027014 
C 255.096369 144.764714 253.384083 144.055462 251.59892 144.055462 
C 249.813758 144.055462 248.101471 144.764714 246.839171 146.027014 
C 245.576871 147.289315 244.867618 149.001602 244.867618 150.786764 
C 244.867618 152.571926 245.576871 154.284213 246.839171 155.546513 
C 248.101471 156.808813 249.813758 157.518066 251.59892 157.518066 
z
" style="fill:#481f70;"/>
    <path clip-path="url(#p1894386c4c)" d="M 247.445204 277.657254 
C 249.185572 277.657254 250.854894 276.965798 252.08552 275.735172 
C 253.316146 274.504545 254.007602 272.835224 254.007602 271.094856 
C 254.007602 269.354487 253.316146 267.685166 252.08552 266.454539 
C 250.854894 265.223913 249.185572 264.532457 247.445204 264.532457 
C 245.704836 264.532457 244.035514 265.223913 242.804888 266.454539 
C 241.574262 267.685166 240.882806 269.354487 240.882806 271.094856 
C 240.882806 272.835224 241.574262 274.504545 242.804888 275.735172 
C 244.035514 276.965798 245.704836 277.657254 247.445204 277.657254 
z
" style="fill:#355e8d;"/>
    <path clip-path="url(#p1894386c4c)" d="M 194.423066 208.37675 
C 196.193351 208.37675 197.891369 207.673408 199.143149 206.421627 
C 200.39493 205.169846 201.098272 203.471829 201.098272 201.701544 
C 201.098272 199.931259 200.39493 198.233241 199.143149 196.981461 
C 197.891369 195.72968 196.193351 195.026338 194.423066 195.026338 
C 192.652781 195.026338 190.954764 195.72968 189.702983 196.981461 
C 188.451202 198.233241 187.747861 199.931259 187.747861 201.701544 
C 187.747861 203.471829 188.451202 205.169846 189.702983 206.421627 
C 190.954764 207.673408 192.652781 208.37675 194.423066 208.37675 
z
" style="fill:#31668e;"/>
    <path clip-path="url(#p1894386c4c)" d="M 141.223393 247.94125 
C 142.982723 247.94125 144.670231 247.242261 145.914265 245.998227 
C 147.158299 244.754193 147.857289 243.066684 147.857289 241.307355 
C 147.857289 239.548025 147.158299 237.860516 145.914265 236.616482 
C 144.670231 235.372448 142.982723 234.673459 141.223393 234.673459 
C 139.464063 234.673459 137.776554 235.372448 136.53252 236.616482 
C 135.288486 237.860516 134.589497 239.548025 134.589497 241.307355 
C 134.589497 243.066684 135.288486 244.754193 136.53252 245.998227 
C 137.776554 247.242261 139.464063 247.94125 141.223393 247.94125 
z
" style="fill:#238a8d;"/>
    <path clip-path="url(#p1894386c4c)" d="M 292.693174 157.7483 
C 294.48143 157.7483 296.196685 157.037818 297.461173 155.77333 
C 298.725661 154.508842 299.436143 152.793587 299.436143 151.005331 
C 299.436143 149.217074 298.725661 147.50182 297.461173 146.237331 
C 296.196685 144.972843 294.48143 144.262361 292.693174 144.262361 
C 290.904917 144.262361 289.189663 144.972843 287.925174 146.237331 
C 286.660686 147.50182 285.950204 149.217074 285.950204 151.005331 
C 285.950204 152.793587 286.660686 154.508842 287.925174 155.77333 
C 289.189663 157.037818 290.904917 157.7483 292.693174 157.7483 
z
" style="fill:#26818e;"/>
    <path clip-path="url(#p1894386c4c)" d="M 318.619903 301.504123 
C 320.33199 301.504123 321.974186 300.823903 323.184814 299.613274 
C 324.395443 298.402646 325.075662 296.760451 325.075662 295.048363 
C 325.075662 293.336276 324.395443 291.694081 323.184814 290.483452 
C 321.974186 289.272824 320.33199 288.592604 318.619903 288.592604 
C 316.907816 288.592604 315.26562 289.272824 314.054992 290.483452 
C 312.844363 291.694081 312.164144 293.336276 312.164144 295.048363 
C 312.164144 296.760451 312.844363 298.402646 314.054992 299.613274 
C 315.26562 300.823903 316.907816 301.504123 318.619903 301.504123 
z
" style="fill:#e5e419;"/>
    <path clip-path="url(#p1894386c4c)" d="M 183.003807 174.525847 
C 184.783085 174.525847 186.489727 173.818932 187.747867 172.560793 
C 189.006006 171.302654 189.71292 169.596011 189.71292 167.816734 
C 189.71292 166.037456 189.006006 164.330814 187.747867 163.072674 
C 186.489727 161.814535 184.783085 161.107621 183.003807 161.107621 
C 181.22453 161.107621 179.517887 161.814535 178.259748 163.072674 
C 177.001609 164.330814 176.294694 166.037456 176.294694 167.816734 
C 176.294694 169.596011 177.001609 171.302654 178.259748 172.560793 
C 179.517887 173.818932 181.22453 174.525847 183.003807 174.525847 
z
" style="fill:#26828e;"/>
    <path clip-path="url(#p1894386c4c)" d="M 212.13587 267.121593 
C 213.884654 267.121593 215.562048 266.426794 216.798625 265.190217 
C 218.035202 263.95364 218.730001 262.276246 218.730001 260.527462 
C 218.730001 258.778678 218.035202 257.101284 216.798625 255.864707 
C 215.562048 254.62813 213.884654 253.933331 212.13587 253.933331 
C 210.387086 253.933331 208.709692 254.62813 207.473115 255.864707 
C 206.236538 257.101284 205.541739 258.778678 205.541739 260.527462 
C 205.541739 262.276246 206.236538 263.95364 207.473115 265.190217 
C 208.709692 266.426794 210.387086 267.121593 212.13587 267.121593 
z
" style="fill:#25848e;"/>
    <path clip-path="url(#p1894386c4c)" d="M 239.36764 60.890948 
C 241.185886 60.890948 242.929906 60.168551 244.2156 58.882857 
C 245.501294 57.597163 246.223691 55.853143 246.223691 54.034896 
C 246.223691 52.21665 245.501294 50.47263 244.2156 49.186936 
C 242.929906 47.901242 241.185886 47.178845 239.36764 47.178845 
C 237.549394 47.178845 235.805374 47.901242 234.51968 49.186936 
C 233.233985 50.47263 232.511589 52.21665 232.511589 54.034896 
C 232.511589 55.853143 233.233985 57.597163 234.51968 58.882857 
C 235.805374 60.168551 237.549394 60.890948 239.36764 60.890948 
z
" style="fill:#44bf70;"/>
    <path clip-path="url(#p1894386c4c)" d="M 79.43034 212.220028 
C 81.204283 212.220028 82.905809 211.515233 84.160176 210.260866 
C 85.414543 209.006499 86.119338 207.304974 86.119338 205.531031 
C 86.119338 203.757088 85.414543 202.055563 84.160176 200.801196 
C 82.905809 199.546829 81.204283 198.842034 79.43034 198.842034 
C 77.656398 198.842034 75.954872 199.546829 74.700505 200.801196 
C 73.446138 202.055563 72.741343 203.757088 72.741343 205.531031 
C 72.741343 207.304974 73.446138 209.006499 74.700505 210.260866 
C 75.954872 211.515233 77.656398 212.220028 79.43034 212.220028 
z
" style="fill:#2e6f8e;"/>
    <path clip-path="url(#p1894386c4c)" d="M 163.399199 81.004923 
C 165.197125 81.004923 166.921654 80.2906 168.192979 79.019274 
C 169.464304 77.747949 170.178628 76.02342 170.178628 74.225495 
C 170.178628 72.427569 169.464304 70.70304 168.192979 69.431715 
C 166.921654 68.16039 165.197125 67.446066 163.399199 67.446066 
C 161.601274 67.446066 159.876745 68.16039 158.60542 69.431715 
C 157.334094 70.70304 156.619771 72.427569 156.619771 74.225495 
C 156.619771 76.02342 157.334094 77.747949 158.60542 79.019274 
C 159.876745 80.2906 161.601274 81.004923 163.399199 81.004923 
z
" style="fill:#1e9d89;"/>
    <path clip-path="url(#p1894386c4c)" d="M 198.769469 68.821445 
C 200.576521 68.821445 202.309804 68.103495 203.587583 66.825716 
C 204.865362 65.547937 205.583312 63.814654 205.583312 62.007602 
C 205.583312 60.200549 204.865362 58.467266 203.587583 57.189487 
C 202.309804 55.911708 200.576521 55.193758 198.769469 55.193758 
C 196.962416 55.193758 195.229133 55.911708 193.951354 57.189487 
C 192.673575 58.467266 191.955625 60.200549 191.955625 62.007602 
C 191.955625 63.814654 192.673575 65.547937 193.951354 66.825716 
C 195.229133 68.103495 196.962416 68.821445 198.769469 68.821445 
z
" style="fill:#34608d;"/>
    <path clip-path="url(#p1894386c4c)" d="M 86.971079 150.558213 
C 88.762516 150.558213 90.480821 149.846468 91.747557 148.579731 
C 93.014294 147.312994 93.726039 145.594689 93.726039 143.803253 
C 93.726039 142.011816 93.014294 140.293511 91.747557 139.026775 
C 90.480821 137.760038 88.762516 137.048293 86.971079 137.048293 
C 85.179643 137.048293 83.461338 137.760038 82.194601 139.026775 
C 80.927864 140.293511 80.216119 142.011816 80.216119 143.803253 
C 80.216119 145.594689 80.927864 147.312994 82.194601 148.579731 
C 83.461338 149.846468 85.179643 150.558213 86.971079 150.558213 
z
" style="fill:#33628d;"/>
    <path clip-path="url(#p1894386c4c)" d="M 106.943025 236.37854 
C 108.708013 236.37854 110.400948 235.677303 111.648983 234.429268 
C 112.897017 233.181234 113.598254 231.488298 113.598254 229.723311 
C 113.598254 227.958323 112.897017 226.265388 111.648983 225.017353 
C 110.400948 223.769319 108.708013 223.068082 106.943025 223.068082 
C 105.178038 223.068082 103.485102 223.769319 102.237068 225.017353 
C 100.989033 226.265388 100.287796 227.958323 100.287796 229.723311 
C 100.287796 231.488298 100.989033 233.181234 102.237068 234.429268 
C 103.485102 235.677303 105.178038 236.37854 106.943025 236.37854 
z
" style="fill:#33638d;"/>
    <path clip-path="url(#p1894386c4c)" d="M 183.153826 139.160947 
C 184.942353 139.160947 186.657868 138.450358 187.922547 137.185678 
C 189.187227 135.920999 189.897816 134.205484 189.897816 132.416957 
C 189.897816 130.62843 189.187227 128.912916 187.922547 127.648236 
C 186.657868 126.383556 184.942353 125.672967 183.153826 125.672967 
C 181.365299 125.672967 179.649784 126.383556 178.385105 127.648236 
C 177.120425 128.912916 176.409836 130.62843 176.409836 132.416957 
C 176.409836 134.205484 177.120425 135.920999 178.385105 137.185678 
C 179.649784 138.450358 181.365299 139.160947 183.153826 139.160947 
z
" style="fill:#424086;"/>
   </g>
   <g id="text_1">
    <!-- Structure #920, $E_N$=-178.94eV, ΔE=0.44eV -->
    <defs>
     <path d="M 53.515625 70.515625 
L 53.515625 60.890625 
Q 47.90625 63.578125 42.921875 64.890625 
Q 37.9375 66.21875 33.296875 66.21875 
Q 25.25 66.21875 20.875 63.09375 
Q 16.5 59.96875 16.5 54.203125 
Q 16.5 49.359375 19.40625 46.890625 
Q 22.3125 44.4375 30.421875 42.921875 
L 36.375 41.703125 
Q 47.40625 39.59375 52.65625 34.296875 
Q 57.90625 29 57.90625 20.125 
Q 57.90625 9.515625 50.796875 4.046875 
Q 43.703125 -1.421875 29.984375 -1.421875 
Q 24.8125 -1.421875 18.96875 -0.25 
Q 13.140625 0.921875 6.890625 3.21875 
L 6.890625 13.375 
Q 12.890625 10.015625 18.65625 8.296875 
Q 24.421875 6.59375 29.984375 6.59375 
Q 38.421875 6.59375 43.015625 9.90625 
Q 47.609375 13.234375 47.609375 19.390625 
Q 47.609375 24.75 44.3125 27.78125 
Q 41.015625 30.8125 33.5 32.328125 
L 27.484375 33.5 
Q 16.453125 35.6875 11.515625 40.375 
Q 6.59375 45.0625 6.59375 53.421875 
Q 6.59375 63.09375 13.40625 68.65625 
Q 20.21875 74.21875 32.171875 74.21875 
Q 37.3125 74.21875 42.625 73.28125 
Q 47.953125 72.359375 53.515625 70.515625 
z
" id="DejaVuSans-53"/>
     <path d="M 18.3125 70.21875 
L 18.3125 54.6875 
L 36.8125 54.6875 
L 36.8125 47.703125 
L 18.3125 47.703125 
L 18.3125 18.015625 
Q 18.3125 11.328125 20.140625 9.421875 
Q 21.96875 7.515625 27.59375 7.515625 
L 36.8125 7.515625 
L 36.8125 0 
L 27.59375 0 
Q 17.1875 0 13.234375 3.875 
Q 9.28125 7.765625 9.28125 18.015625 
L 9.28125 47.703125 
L 2.6875 47.703125 
L 2.6875 54.6875 
L 9.28125 54.6875 
L 9.28125 70.21875 
z
" id="DejaVuSans-74"/>
     <path d="M 41.109375 46.296875 
Q 39.59375 47.171875 37.8125 47.578125 
Q 36.03125 48 33.890625 48 
Q 26.265625 48 22.1875 43.046875 
Q 18.109375 38.09375 18.109375 28.8125 
L 18.109375 0 
L 9.078125 0 
L 9.078125 54.6875 
L 18.109375 54.6875 
L 18.109375 46.1875 
Q 20.953125 51.171875 25.484375 53.578125 
Q 30.03125 56 36.53125 56 
Q 37.453125 56 38.578125 55.875 
Q 39.703125 55.765625 41.0625 55.515625 
z
" id="DejaVuSans-72"/>
     <path d="M 8.5 21.578125 
L 8.5 54.6875 
L 17.484375 54.6875 
L 17.484375 21.921875 
Q 17.484375 14.15625 20.5 10.265625 
Q 23.53125 6.390625 29.59375 6.390625 
Q 36.859375 6.390625 41.078125 11.03125 
Q 45.3125 15.671875 45.3125 23.6875 
L 45.3125 54.6875 
L 54.296875 54.6875 
L 54.296875 0 
L 45.3125 0 
L 45.3125 8.40625 
Q 42.046875 3.421875 37.71875 1 
Q 33.40625 -1.421875 27.6875 -1.421875 
Q 18.265625 -1.421875 13.375 4.4375 
Q 8.5 10.296875 8.5 21.578125 
z
M 31.109375 56 
z
" id="DejaVuSans-75"/>
     <path d="M 48.78125 52.59375 
L 48.78125 44.1875 
Q 44.96875 46.296875 41.140625 47.34375 
Q 37.3125 48.390625 33.40625 48.390625 
Q 24.65625 48.390625 19.8125 42.84375 
Q 14.984375 37.3125 14.984375 27.296875 
Q 14.984375 17.28125 19.8125 11.734375 
Q 24.65625 6.203125 33.40625 6.203125 
Q 37.3125 6.203125 41.140625 7.25 
Q 44.96875 8.296875 48.78125 10.40625 
L 48.78125 2.09375 
Q 45.015625 0.34375 40.984375 -0.53125 
Q 36.96875 -1.421875 32.421875 -1.421875 
Q 20.0625 -1.421875 12.78125 6.34375 
Q 5.515625 14.109375 5.515625 27.296875 
Q 5.515625 40.671875 12.859375 48.328125 
Q 20.21875 56 33.015625 56 
Q 37.15625 56 41.109375 55.140625 
Q 45.0625 54.296875 48.78125 52.59375 
z
" id="DejaVuSans-63"/>
     <path d="M 56.203125 29.59375 
L 56.203125 25.203125 
L 14.890625 25.203125 
Q 15.484375 15.921875 20.484375 11.0625 
Q 25.484375 6.203125 34.421875 6.203125 
Q 39.59375 6.203125 44.453125 7.46875 
Q 49.3125 8.734375 54.109375 11.28125 
L 54.109375 2.78125 
Q 49.265625 0.734375 44.1875 -0.34375 
Q 39.109375 -1.421875 33.890625 -1.421875 
Q 20.796875 -1.421875 13.15625 6.1875 
Q 5.515625 13.8125 5.515625 26.8125 
Q 5.515625 40.234375 12.765625 48.109375 
Q 20.015625 56 32.328125 56 
Q 43.359375 56 49.78125 48.890625 
Q 56.203125 41.796875 56.203125 29.59375 
z
M 47.21875 32.234375 
Q 47.125 39.59375 43.09375 43.984375 
Q 39.0625 48.390625 32.421875 48.390625 
Q 24.90625 48.390625 20.390625 44.140625 
Q 15.875 39.890625 15.1875 32.171875 
z
" id="DejaVuSans-65"/>
     <path id="DejaVuSans-20"/>
     <path d="M 51.125 44 
L 36.921875 44 
L 32.8125 27.6875 
L 47.125 27.6875 
z
M 43.796875 71.78125 
L 38.71875 51.515625 
L 52.984375 51.515625 
L 58.109375 71.78125 
L 65.921875 71.78125 
L 60.890625 51.515625 
L 76.125 51.515625 
L 76.125 44 
L 58.984375 44 
L 54.984375 27.6875 
L 70.515625 27.6875 
L 70.515625 20.21875 
L 53.078125 20.21875 
L 48 0 
L 40.1875 0 
L 45.21875 20.21875 
L 30.90625 20.21875 
L 25.875 0 
L 18.015625 0 
L 23.09375 20.21875 
L 7.71875 20.21875 
L 7.71875 27.6875 
L 24.90625 27.6875 
L 29 44 
L 13.28125 44 
L 13.28125 51.515625 
L 30.90625 51.515625 
L 35.890625 71.78125 
z
" id="DejaVuSans-23"/>
     <path d="M 10.984375 1.515625 
L 10.984375 10.5 
Q 14.703125 8.734375 18.5 7.8125 
Q 22.3125 6.890625 25.984375 6.890625 
Q 35.75 6.890625 40.890625 13.453125 
Q 46.046875 20.015625 46.78125 33.40625 
Q 43.953125 29.203125 39.59375 26.953125 
Q 35.25 24.703125 29.984375 24.703125 
Q 19.046875 24.703125 12.671875 31.3125 
Q 6.296875 37.9375 6.296875 49.421875 
Q 6.296875 60.640625 12.9375 67.421875 
Q 19.578125 74.21875 30.609375 74.21875 
Q 43.265625 74.21875 49.921875 64.515625 
Q 56.59375 54.828125 56.59375 36.375 
Q 56.59375 19.140625 48.40625 8.859375 
Q 40.234375 -1.421875 26.421875 -1.421875 
Q 22.703125 -1.421875 18.890625 -0.6875 
Q 15.09375 0.046875 10.984375 1.515625 
z
M 30.609375 32.421875 
Q 37.25 32.421875 41.125 36.953125 
Q 45.015625 41.5 45.015625 49.421875 
Q 45.015625 57.28125 41.125 61.84375 
Q 37.25 66.40625 30.609375 66.40625 
Q 23.96875 66.40625 20.09375 61.84375 
Q 16.21875 57.28125 16.21875 49.421875 
Q 16.21875 41.5 20.09375 36.953125 
Q 23.96875 32.421875 30.609375 32.421875 
z
" id="DejaVuSans-39"/>
     <path d="M 19.1875 8.296875 
L 53.609375 8.296875 
L 53.609375 0 
L 7.328125 0 
L 7.328125 8.296875 
Q 12.9375 14.109375 22.625 23.890625 
Q 32.328125 33.6875 34.8125 36.53125 
Q 39.546875 41.84375 41.421875 45.53125 
Q 43.3125 49.21875 43.3125 52.78125 
Q 43.3125 58.59375 39.234375 62.25 
Q 35.15625 65.921875 28.609375 65.921875 
Q 23.96875 65.921875 18.8125 64.3125 
Q 13.671875 62.703125 7.8125 59.421875 
L 7.8125 69.390625 
Q 13.765625 71.78125 18.9375 73 
Q 24.125 74.21875 28.421875 74.21875 
Q 39.75 74.21875 46.484375 68.546875 
Q 53.21875 62.890625 53.21875 53.421875 
Q 53.21875 48.921875 51.53125 44.890625 
Q 49.859375 40.875 45.40625 35.40625 
Q 44.1875 33.984375 37.640625 27.21875 
Q 31.109375 20.453125 19.1875 8.296875 
z
" id="DejaVuSans-32"/>
     <path d="M 31.78125 66.40625 
Q 24.171875 66.40625 20.328125 58.90625 
Q 16.5 51.421875 16.5 36.375 
Q 16.5 21.390625 20.328125 13.890625 
Q 24.171875 6.390625 31.78125 6.390625 
Q 39.453125 6.390625 43.28125 13.890625 
Q 47.125 21.390625 47.125 36.375 
Q 47.125 51.421875 43.28125 58.90625 
Q 39.453125 66.40625 31.78125 66.40625 
z
M 31.78125 74.21875 
Q 44.046875 74.21875 50.515625 64.515625 
Q 56.984375 54.828125 56.984375 36.375 
Q 56.984375 17.96875 50.515625 8.265625 
Q 44.046875 -1.421875 31.78125 -1.421875 
Q 19.53125 -1.421875 13.0625 8.265625 
Q 6.59375 17.96875 6.59375 36.375 
Q 6.59375 54.828125 13.0625 64.515625 
Q 19.53125 74.21875 31.78125 74.21875 
z
" id="DejaVuSans-30"/>
     <path d="M 11.71875 12.40625 
L 22.015625 12.40625 
L 22.015625 4 
L 14.015625 -11.625 
L 7.71875 -11.625 
L 11.71875 4 
z
" id="DejaVuSans-2c"/>
     <path d="M 16.890625 72.90625 
L 62.984375 72.90625 
L 61.375 64.59375 
L 25.09375 64.59375 
L 20.90625 43.015625 
L 55.71875 43.015625 
L 54.109375 34.71875 
L 19.28125 34.71875 
L 14.203125 8.296875 
L 51.3125 8.296875 
L 49.703125 0 
L 2.6875 0 
z
" id="DejaVuSans-Oblique-45"/>
     <path d="M 16.890625 72.90625 
L 30.171875 72.90625 
L 50.296875 10.40625 
L 62.5 72.90625 
L 72.125 72.90625 
L 57.90625 0 
L 44.578125 0 
L 24.515625 62.890625 
L 12.3125 0 
L 2.6875 0 
z
" id="DejaVuSans-Oblique-4e"/>
     <path d="M 10.59375 45.40625 
L 73.1875 45.40625 
L 73.1875 37.203125 
L 10.59375 37.203125 
z
M 10.59375 25.484375 
L 73.1875 25.484375 
L 73.1875 17.1875 
L 10.59375 17.1875 
z
" id="DejaVuSans-3d"/>
     <path d="M 4.890625 31.390625 
L 31.203125 31.390625 
L 31.203125 23.390625 
L 4.890625 23.390625 
z
" id="DejaVuSans-2d"/>
     <path d="M 12.40625 8.296875 
L 28.515625 8.296875 
L 28.515625 63.921875 
L 10.984375 60.40625 
L 10.984375 69.390625 
L 28.421875 72.90625 
L 38.28125 72.90625 
L 38.28125 8.296875 
L 54.390625 8.296875 
L 54.390625 0 
L 12.40625 0 
z
" id="DejaVuSans-31"/>
     <path d="M 8.203125 72.90625 
L 55.078125 72.90625 
L 55.078125 68.703125 
L 28.609375 0 
L 18.3125 0 
L 43.21875 64.59375 
L 8.203125 64.59375 
z
" id="DejaVuSans-37"/>
     <path d="M 31.78125 34.625 
Q 24.75 34.625 20.71875 30.859375 
Q 16.703125 27.09375 16.703125 20.515625 
Q 16.703125 13.921875 20.71875 10.15625 
Q 24.75 6.390625 31.78125 6.390625 
Q 38.8125 6.390625 42.859375 10.171875 
Q 46.921875 13.96875 46.921875 20.515625 
Q 46.921875 27.09375 42.890625 30.859375 
Q 38.875 34.625 31.78125 34.625 
z
M 21.921875 38.8125 
Q 15.578125 40.375 12.03125 44.71875 
Q 8.5 49.078125 8.5 55.328125 
Q 8.5 64.0625 14.71875 69.140625 
Q 20.953125 74.21875 31.78125 74.21875 
Q 42.671875 74.21875 48.875 69.140625 
Q 55.078125 64.0625 55.078125 55.328125 
Q 55.078125 49.078125 51.53125 44.71875 
Q 48 40.375 41.703125 38.8125 
Q 48.828125 37.15625 52.796875 32.3125 
Q 56.78125 27.484375 56.78125 20.515625 
Q 56.78125 9.90625 50.3125 4.234375 
Q 43.84375 -1.421875 31.78125 -1.421875 
Q 19.734375 -1.421875 13.25 4.234375 
Q 6.78125 9.90625 6.78125 20.515625 
Q 6.78125 27.484375 10.78125 32.3125 
Q 14.796875 37.15625 21.921875 38.8125 
z
M 18.3125 54.390625 
Q 18.3125 48.734375 21.84375 45.5625 
Q 25.390625 42.390625 31.78125 42.390625 
Q 38.140625 42.390625 41.71875 45.5625 
Q 45.3125 48.734375 45.3125 54.390625 
Q 45.3125 60.0625 41.71875 63.234375 
Q 38.140625 66.40625 31.78125 66.40625 
Q 25.390625 66.40625 21.84375 63.234375 
Q 18.3125 60.0625 18.3125 54.390625 
z
" id="DejaVuSans-38"/>
     <path d="M 10.6875 12.40625 
L 21 12.40625 
L 21 0 
L 10.6875 0 
z
" id="DejaVuSans-2e"/>
     <path d="M 37.796875 64.3125 
L 12.890625 25.390625 
L 37.796875 25.390625 
z
M 35.203125 72.90625 
L 47.609375 72.90625 
L 47.609375 25.390625 
L 58.015625 25.390625 
L 58.015625 17.1875 
L 47.609375 17.1875 
L 47.609375 0 
L 37.796875 0 
L 37.796875 17.1875 
L 4.890625 17.1875 
L 4.890625 26.703125 
z
" id="DejaVuSans-34"/>
     <path d="M 28.609375 0 
L 0.78125 72.90625 
L 11.078125 72.90625 
L 34.1875 11.53125 
L 57.328125 72.90625 
L 67.578125 72.90625 
L 39.796875 0 
z
" id="DejaVuSans-56"/>
     <path d="M 34.1875 63.1875 
L 14.15625 8.203125 
L 54.25 8.203125 
z
M 0.78125 0 
L 28.609375 72.90625 
L 39.796875 72.90625 
L 67.578125 0 
z
" id="DejaVuSans-394"/>
     <path d="M 9.8125 72.90625 
L 55.90625 72.90625 
L 55.90625 64.59375 
L 19.671875 64.59375 
L 19.671875 43.015625 
L 54.390625 43.015625 
L 54.390625 34.71875 
L 19.671875 34.71875 
L 19.671875 8.296875 
L 56.78125 8.296875 
L 56.78125 0 
L 9.8125 0 
z
" id="DejaVuSans-45"/>
    </defs>
    <g transform="translate(69.228 35.472)scale(0.12 -0.12)">
     <use transform="translate(0 0.78125)" xlink:href="#DejaVuSans-53"/>
     <use transform="translate(63.476562 0.78125)" xlink:href="#DejaVuSans-74"/>
     <use transform="translate(102.685547 0.78125)" xlink:href="#DejaVuSans-72"/>
     <use transform="translate(143.798828 0.78125)" xlink:href="#DejaVuSans-75"/>
     <use transform="translate(207.177734 0.78125)" xlink:href="#DejaVuSans-63"/>
     <use transform="translate(262.158203 0.78125)" xlink:href="#DejaVuSans-74"/>
     <use transform="translate(301.367188 0.78125)" xlink:href="#DejaVuSans-75"/>
     <use transform="translate(364.746094 0.78125)" xlink:href="#DejaVuSans-72"/>
     <use transform="translate(405.859375 0.78125)" xlink:href="#DejaVuSans-65"/>
     <use transform="translate(467.382812 0.78125)" xlink:href="#DejaVuSans-20"/>
     <use transform="translate(499.169922 0.78125)" xlink:href="#DejaVuSans-23"/>
     <use transform="translate(582.958984 0.78125)" xlink:href="#DejaVuSans-39"/>
     <use transform="translate(646.566406 0.78125)" xlink:href="#DejaVuSans-32"/>
     <use transform="translate(710.189453 0.78125)" xlink:href="#DejaVuSans-30"/>
     <use transform="translate(773.8125 0.78125)" xlink:href="#DejaVuSans-2c"/>
     <use transform="translate(805.599609 0.78125)" xlink:href="#DejaVuSans-20"/>
     <use transform="translate(837.386719 0.78125)" xlink:href="#DejaVuSans-Oblique-45"/>
     <use transform="translate(900.570312 -15.625)scale(0.7)" xlink:href="#DejaVuSans-Oblique-4e"/>
     <use transform="translate(955.667969 0.78125)" xlink:href="#DejaVuSans-3d"/>
     <use transform="translate(1039.457031 0.78125)" xlink:href="#DejaVuSans-2d"/>
     <use transform="translate(1075.541016 0.78125)" xlink:href="#DejaVuSans-31"/>
     <use transform="translate(1139.164062 0.78125)" xlink:href="#DejaVuSans-37"/>
     <use transform="translate(1202.787109 0.78125)" xlink:href="#DejaVuSans-38"/>
     <use transform="translate(1266.410156 0.78125)" xlink:href="#DejaVuSans-2e"/>
     <use transform="translate(1298.197266 0.78125)" xlink:href="#DejaVuSans-39"/>
     <use transform="translate(1361.820312 0.78125)" xlink:href="#DejaVuSans-34"/>
     <use transform="translate(1425.443359 0.78125)" xlink:href="#DejaVuSans-65"/>
     <use transform="translate(1486.966797 0.78125)" xlink:href="#DejaVuSans-56"/>
     <use transform="translate(1555.375 0.78125)" xlink:href="#DejaVuSans-2c"/>
     <use transform="translate(1587.162109 0.78125)" xlink:href="#DejaVuSans-20"/>
     <use transform="translate(1618.949219 0.78125)" xlink:href="#DejaVuSans-394"/>
     <use transform="translate(1687.357422 0.78125)" xlink:href="#DejaVuSans-45"/>
     <use transform="translate(1750.541016 0.78125)" xlink:href="#DejaVuSans-3d"/>
     <use transform="translate(1834.330078 0.78125)" xlink:href="#DejaVuSans-30"/>
     <use transform="translate(1897.953125 0.78125)" xlink:href="#DejaVuSans-2e"/>
     <use transform="translate(1929.740234 0.78125)" xlink:href="#DejaVuSans-34"/>
     <use transform="translate(1993.363281 0.78125)" xlink:href="#DejaVuSans-34"/>
     <use transform="translate(2056.986328 0.78125)" xlink:href="#DejaVuSans-65"/>
     <use transform="translate(2118.509766 0.78125)" xlink:href="#DejaVuSans-56"/>
    </g>
   </g>
  </g>
  <g id="axes_2">
   <g id="patch_2">
    <path clip-path="url(#p8ff2da4bc0)" d="M 361.152 307.584 
L 361.152 306.5445 
L 361.152 42.5115 
L 361.152 41.472 
L 374.4576 41.472 
L 374.4576 42.5115 
L 374.4576 306.5445 
L 374.4576 307.584 
z
" style="fill:#ffffff;stroke:#ffffff;stroke-linejoin:miter;stroke-width:0.01;"/>
   </g>
   <image height="265.68" id="image2d1a39f419" transform="scale(1 -1)translate(0 -265.68)" width="12.96" x="361.44" xlink:href="data:image/png;base64,
iVBORw0KGgoAAAANSUhEUgAAABIAAAFxCAYAAAB+2fgXAAAABHNCSVQICAgIfAhkiAAAAeVJREFUeJztncmNw0AQA2ckheYQNv9QLIfQ8ygsCgQ7AEI8+jAs2Puz/94F1LP2ReCsZ18bAWIeZ5XaGRBE7VnbptG+KI101FYyNSiQG2oRITXKNaX9uclOdi2XWjftVE32CZCO2ou5Bj1TcCBr/1zB9ge7Fq0Rg2NM9pvbtG+ua1QgsRYhDy0ISEiNc40BEibbSI0Coj5CBGtkpFbXJiAjNZlrwhuSOv2M1DjXbEdEciBt1JSDDQKKpmZr2rr2j0DBGpXaWEJq3bQzEPIS26r9J+Wzv9Tm8o3aajRXqc3VUXsApKNWjeZq0x4ABVNbm7lrszVigDqP5vIl2+eaT2yfRkL7g+dRcNPqjohkjaCvRVBq0H2U3LQrOJCx9kdTg4B8oxZzzTdqdYHEngjUCAPyUctN9sVRq2sTECW2UKNLd2jVtRmo1A6AhMmWaSRcR8nUdIHUuVb75zJS218EyEitro1At69pIdeSk30Lkw0FktNImGyZRhy1O5galmxd03LUsHWk06jUZiCq+5Wb1kZNN4+wJxJuWt8RAW5am2sYNZ9rYCBzZ3buPKJ2P5Yj4Toy3keyIyJbIxs1rml1byCA84gpch5RQNB7Q0qNMGq2Hy4BXdNR41yz/cEEJfZzUz96r9PoB0okjeQ8y9TkAAAAAElFTkSuQmCC" y="-41.76"/>
   <g id="matplotlib.axis_1"/>
   <g id="matplotlib.axis_2">
    <g id="ytick_1">
     <g id="line2d_1">
      <defs>
       <path d="M 0 0 
L 3.5 0 
" id="m0f0185f696" style="stroke:#000000;stroke-width:0.8;"/>
      </defs>
      <g>
       <use style="stroke:#000000;stroke-width:0.8;" x="374.4576" xlink:href="#m0f0185f696" y="300.450868"/>
      </g>
     </g>
     <g id="text_2">
      <!-- −9.0 -->
      <defs>
       <path d="M 10.59375 35.5 
L 73.1875 35.5 
L 73.1875 27.203125 
L 10.59375 27.203125 
z
" id="DejaVuSans-2212"/>
      </defs>
      <g transform="translate(381.4576 304.250086)scale(0.1 -0.1)">
       <use xlink:href="#DejaVuSans-2212"/>
       <use x="83.789062" xlink:href="#DejaVuSans-39"/>
       <use x="147.412109" xlink:href="#DejaVuSans-2e"/>
       <use x="179.199219" xlink:href="#DejaVuSans-30"/>
      </g>
     </g>
    </g>
    <g id="ytick_2">
     <g id="line2d_2">
      <g>
       <use style="stroke:#000000;stroke-width:0.8;" x="374.4576" xlink:href="#m0f0185f696" y="269.13752"/>
      </g>
     </g>
     <g id="text_3">
      <!-- −8.5 -->
      <defs>
       <path d="M 10.796875 72.90625 
L 49.515625 72.90625 
L 49.515625 64.59375 
L 19.828125 64.59375 
L 19.828125 46.734375 
Q 21.96875 47.46875 24.109375 47.828125 
Q 26.265625 48.1875 28.421875 48.1875 
Q 40.625 48.1875 47.75 41.5 
Q 54.890625 34.8125 54.890625 23.390625 
Q 54.890625 11.625 47.5625 5.09375 
Q 40.234375 -1.421875 26.90625 -1.421875 
Q 22.3125 -1.421875 17.546875 -0.640625 
Q 12.796875 0.140625 7.71875 1.703125 
L 7.71875 11.625 
Q 12.109375 9.234375 16.796875 8.0625 
Q 21.484375 6.890625 26.703125 6.890625 
Q 35.15625 6.890625 40.078125 11.328125 
Q 45.015625 15.765625 45.015625 23.390625 
Q 45.015625 31 40.078125 35.4375 
Q 35.15625 39.890625 26.703125 39.890625 
Q 22.75 39.890625 18.8125 39.015625 
Q 14.890625 38.140625 10.796875 36.28125 
z
" id="DejaVuSans-35"/>
      </defs>
      <g transform="translate(381.4576 272.936739)scale(0.1 -0.1)">
       <use xlink:href="#DejaVuSans-2212"/>
       <use x="83.789062" xlink:href="#DejaVuSans-38"/>
       <use x="147.412109" xlink:href="#DejaVuSans-2e"/>
       <use x="179.199219" xlink:href="#DejaVuSans-35"/>
      </g>
     </g>
    </g>
    <g id="ytick_3">
     <g id="line2d_3">
      <g>
       <use style="stroke:#000000;stroke-width:0.8;" x="374.4576" xlink:href="#m0f0185f696" y="237.824173"/>
      </g>
     </g>
     <g id="text_4">
      <!-- −8.0 -->
      <g transform="translate(381.4576 241.623391)scale(0.1 -0.1)">
       <use xlink:href="#DejaVuSans-2212"/>
       <use x="83.789062" xlink:href="#DejaVuSans-38"/>
       <use x="147.412109" xlink:href="#DejaVuSans-2e"/>
       <use x="179.199219" xlink:href="#DejaVuSans-30"/>
      </g>
     </g>
    </g>
    <g id="ytick_4">
     <g id="line2d_4">
      <g>
       <use style="stroke:#000000;stroke-width:0.8;" x="374.4576" xlink:href="#m0f0185f696" y="206.510825"/>
      </g>
     </g>
     <g id="text_5">
      <!-- −7.5 -->
      <g transform="translate(381.4576 210.310044)scale(0.1 -0.1)">
       <use xlink:href="#DejaVuSans-2212"/>
       <use x="83.789062" xlink:href="#DejaVuSans-37"/>
       <use x="147.412109" xlink:href="#DejaVuSans-2e"/>
       <use x="179.199219" xlink:href="#DejaVuSans-35"/>
      </g>
     </g>
    </g>
    <g id="ytick_5">
     <g id="line2d_5">
      <g>
       <use style="stroke:#000000;stroke-width:0.8;" x="374.4576" xlink:href="#m0f0185f696" y="175.197478"/>
      </g>
     </g>
     <g id="text_6">
      <!-- −7.0 -->
      <g transform="translate(381.4576 178.996696)scale(0.1 -0.1)">
       <use xlink:href="#DejaVuSans-2212"/>
       <use x="83.789062" xlink:href="#DejaVuSans-37"/>
       <use x="147.412109" xlink:href="#DejaVuSans-2e"/>
       <use x="179.199219" xlink:href="#DejaVuSans-30"/>
      </g>
     </g>
    </g>
    <g id="ytick_6">
     <g id="line2d_6">
      <g>
       <use style="stroke:#000000;stroke-width:0.8;" x="374.4576" xlink:href="#m0f0185f696" y="143.88413"/>
      </g>
     </g>
     <g id="text_7">
      <!-- −6.5 -->
      <defs>
       <path d="M 33.015625 40.375 
Q 26.375 40.375 22.484375 35.828125 
Q 18.609375 31.296875 18.609375 23.390625 
Q 18.609375 15.53125 22.484375 10.953125 
Q 26.375 6.390625 33.015625 6.390625 
Q 39.65625 6.390625 43.53125 10.953125 
Q 47.40625 15.53125 47.40625 23.390625 
Q 47.40625 31.296875 43.53125 35.828125 
Q 39.65625 40.375 33.015625 40.375 
z
M 52.59375 71.296875 
L 52.59375 62.3125 
Q 48.875 64.0625 45.09375 64.984375 
Q 41.3125 65.921875 37.59375 65.921875 
Q 27.828125 65.921875 22.671875 59.328125 
Q 17.53125 52.734375 16.796875 39.40625 
Q 19.671875 43.65625 24.015625 45.921875 
Q 28.375 48.1875 33.59375 48.1875 
Q 44.578125 48.1875 50.953125 41.515625 
Q 57.328125 34.859375 57.328125 23.390625 
Q 57.328125 12.15625 50.6875 5.359375 
Q 44.046875 -1.421875 33.015625 -1.421875 
Q 20.359375 -1.421875 13.671875 8.265625 
Q 6.984375 17.96875 6.984375 36.375 
Q 6.984375 53.65625 15.1875 63.9375 
Q 23.390625 74.21875 37.203125 74.21875 
Q 40.921875 74.21875 44.703125 73.484375 
Q 48.484375 72.75 52.59375 71.296875 
z
" id="DejaVuSans-36"/>
      </defs>
      <g transform="translate(381.4576 147.683349)scale(0.1 -0.1)">
       <use xlink:href="#DejaVuSans-2212"/>
       <use x="83.789062" xlink:href="#DejaVuSans-36"/>
       <use x="147.412109" xlink:href="#DejaVuSans-2e"/>
       <use x="179.199219" xlink:href="#DejaVuSans-35"/>
      </g>
     </g>
    </g>
    <g id="ytick_7">
     <g id="line2d_7">
      <g>
       <use style="stroke:#000000;stroke-width:0.8;" x="374.4576" xlink:href="#m0f0185f696" y="112.570783"/>
      </g>
     </g>
     <g id="text_8">
      <!-- −6.0 -->
      <g transform="translate(381.4576 116.370002)scale(0.1 -0.1)">
       <use xlink:href="#DejaVuSans-2212"/>
       <use x="83.789062" xlink:href="#DejaVuSans-36"/>
       <use x="147.412109" xlink:href="#DejaVuSans-2e"/>
       <use x="179.199219" xlink:href="#DejaVuSans-30"/>
      </g>
     </g>
    </g>
    <g id="ytick_8">
     <g id="line2d_8">
      <g>
       <use style="stroke:#000000;stroke-width:0.8;" x="374.4576" xlink:href="#m0f0185f696" y="81.257435"/>
      </g>
     </g>
     <g id="text_9">
      <!-- −5.5 -->
      <g transform="translate(381.4576 85.056654)scale(0.1 -0.1)">
       <use xlink:href="#DejaVuSans-2212"/>
       <use x="83.789062" xlink:href="#DejaVuSans-35"/>
       <use x="147.412109" xlink:href="#DejaVuSans-2e"/>
       <use x="179.199219" xlink:href="#DejaVuSans-35"/>
      </g>
     </g>
    </g>
    <g id="ytick_9">
     <g id="line2d_9">
      <g>
       <use style="stroke:#000000;stroke-width:0.8;" x="374.4576" xlink:href="#m0f0185f696" y="49.944088"/>
      </g>
     </g>
     <g id="text_10">
      <!-- −5.0 -->
      <g transform="translate(381.4576 53.743307)scale(0.1 -0.1)">
       <use xlink:href="#DejaVuSans-2212"/>
       <use x="83.789062" xlink:href="#DejaVuSans-35"/>
       <use x="147.412109" xlink:href="#DejaVuSans-2e"/>
       <use x="179.199219" xlink:href="#DejaVuSans-30"/>
      </g>
     </g>
    </g>
    <g id="text_11">
     <!-- Energy [eV] -->
     <defs>
      <path d="M 54.890625 33.015625 
L 54.890625 0 
L 45.90625 0 
L 45.90625 32.71875 
Q 45.90625 40.484375 42.875 44.328125 
Q 39.84375 48.1875 33.796875 48.1875 
Q 26.515625 48.1875 22.3125 43.546875 
Q 18.109375 38.921875 18.109375 30.90625 
L 18.109375 0 
L 9.078125 0 
L 9.078125 54.6875 
L 18.109375 54.6875 
L 18.109375 46.1875 
Q 21.34375 51.125 25.703125 53.5625 
Q 30.078125 56 35.796875 56 
Q 45.21875 56 50.046875 50.171875 
Q 54.890625 44.34375 54.890625 33.015625 
z
" id="DejaVuSans-6e"/>
      <path d="M 45.40625 27.984375 
Q 45.40625 37.75 41.375 43.109375 
Q 37.359375 48.484375 30.078125 48.484375 
Q 22.859375 48.484375 18.828125 43.109375 
Q 14.796875 37.75 14.796875 27.984375 
Q 14.796875 18.265625 18.828125 12.890625 
Q 22.859375 7.515625 30.078125 7.515625 
Q 37.359375 7.515625 41.375 12.890625 
Q 45.40625 18.265625 45.40625 27.984375 
z
M 54.390625 6.78125 
Q 54.390625 -7.171875 48.1875 -13.984375 
Q 42 -20.796875 29.203125 -20.796875 
Q 24.46875 -20.796875 20.265625 -20.09375 
Q 16.0625 -19.390625 12.109375 -17.921875 
L 12.109375 -9.1875 
Q 16.0625 -11.328125 19.921875 -12.34375 
Q 23.78125 -13.375 27.78125 -13.375 
Q 36.625 -13.375 41.015625 -8.765625 
Q 45.40625 -4.15625 45.40625 5.171875 
L 45.40625 9.625 
Q 42.625 4.78125 38.28125 2.390625 
Q 33.9375 0 27.875 0 
Q 17.828125 0 11.671875 7.65625 
Q 5.515625 15.328125 5.515625 27.984375 
Q 5.515625 40.671875 11.671875 48.328125 
Q 17.828125 56 27.875 56 
Q 33.9375 56 38.28125 53.609375 
Q 42.625 51.21875 45.40625 46.390625 
L 45.40625 54.6875 
L 54.390625 54.6875 
z
" id="DejaVuSans-67"/>
      <path d="M 32.171875 -5.078125 
Q 28.375 -14.84375 24.75 -17.8125 
Q 21.140625 -20.796875 15.09375 -20.796875 
L 7.90625 -20.796875 
L 7.90625 -13.28125 
L 13.1875 -13.28125 
Q 16.890625 -13.28125 18.9375 -11.515625 
Q 21 -9.765625 23.484375 -3.21875 
L 25.09375 0.875 
L 2.984375 54.6875 
L 12.5 54.6875 
L 29.59375 11.921875 
L 46.6875 54.6875 
L 56.203125 54.6875 
z
" id="DejaVuSans-79"/>
      <path d="M 8.59375 75.984375 
L 29.296875 75.984375 
L 29.296875 69 
L 17.578125 69 
L 17.578125 -6.203125 
L 29.296875 -6.203125 
L 29.296875 -13.1875 
L 8.59375 -13.1875 
z
" id="DejaVuSans-5b"/>
      <path d="M 30.421875 75.984375 
L 30.421875 -13.1875 
L 9.71875 -13.1875 
L 9.71875 -6.203125 
L 21.390625 -6.203125 
L 21.390625 69 
L 9.71875 69 
L 9.71875 75.984375 
z
" id="DejaVuSans-5d"/>
     </defs>
     <g transform="translate(417.33885 204.108469)rotate(-90)scale(0.1 -0.1)">
      <use xlink:href="#DejaVuSans-45"/>
      <use x="63.183594" xlink:href="#DejaVuSans-6e"/>
      <use x="126.5625" xlink:href="#DejaVuSans-65"/>
      <use x="188.085938" xlink:href="#DejaVuSans-72"/>
      <use x="229.183594" xlink:href="#DejaVuSans-67"/>
      <use x="292.660156" xlink:href="#DejaVuSans-79"/>
      <use x="351.839844" xlink:href="#DejaVuSans-20"/>
      <use x="383.626953" xlink:href="#DejaVuSans-5b"/>
      <use x="422.640625" xlink:href="#DejaVuSans-65"/>
      <use x="484.164062" xlink:href="#DejaVuSans-56"/>
      <use x="552.572266" xlink:href="#DejaVuSans-5d"/>
     </g>
    </g>
   </g>
   <g id="patch_3">
    <path d="M 361.152 307.584 
L 361.152 306.5445 
L 361.152 42.5115 
L 361.152 41.472 
L 374.4576 41.472 
L 374.4576 42.5115 
L 374.4576 306.5445 
L 374.4576 307.584 
z
" style="fill:none;stroke:#000000;stroke-linejoin:miter;stroke-width:0.8;"/>
   </g>
  </g>
 </g>
 <defs>
  <clipPath id="p1894386c4c">
   <rect height="266.112" width="285.696" x="57.6" y="41.472"/>
  </clipPath>
  <clipPath id="p8ff2da4bc0">
   <rect height="266.112" width="13.3056" x="361.152" y="41.472"/>
  </clipPath>
 </defs>
</svg>
