<?xml version="1.0" encoding="utf-8" standalone="no"?>
<!DOCTYPE svg PUBLIC "-//W3C//DTD SVG 1.1//EN"
  "http://www.w3.org/Graphics/SVG/1.1/DTD/svg11.dtd">
<!-- Created with matplotlib (http://matplotlib.org/) -->
<svg height="345.6pt" version="1.1" viewBox="0 0 460.8 345.6" width="460.8pt" xmlns="http://www.w3.org/2000/svg" xmlns:xlink="http://www.w3.org/1999/xlink">
 <defs>
  <style type="text/css">
*{stroke-linecap:butt;stroke-linejoin:round;}
  </style>
 </defs>
 <g id="figure_1">
  <g id="patch_1">
   <path d="M 0 345.6 
L 460.8 345.6 
L 460.8 0 
L 0 0 
z
" style="fill:#ffffff;"/>
  </g>
  <g id="axes_1">
   <g id="CircleCollection_1">
    <path clip-path="url(#p6b8878169d)" d="M 210.370964 156.877058 
C 212.140849 156.877058 213.838482 156.173876 215.08998 154.922378 
C 216.341478 153.67088 217.04466 151.973247 217.04466 150.203362 
C 217.04466 148.433477 216.341478 146.735844 215.08998 145.484346 
C 213.838482 144.232849 212.140849 143.529666 210.370964 143.529666 
C 208.601079 143.529666 206.903446 144.232849 205.651948 145.484346 
C 204.400451 146.735844 203.697268 148.433477 203.697268 150.203362 
C 203.697268 151.973247 204.400451 153.67088 205.651948 154.922378 
C 206.903446 156.173876 208.601079 156.877058 210.370964 156.877058 
z
" style="fill:#472d7b;"/>
    <path clip-path="url(#p6b8878169d)" d="M 284.350284 96.373187 
C 286.107595 96.373187 287.793168 95.675 289.035774 94.432394 
C 290.278381 93.189787 290.976568 91.504214 290.976568 89.746903 
C 290.976568 87.989592 290.278381 86.304019 289.035774 85.061413 
C 287.793168 83.818806 286.107595 83.120619 284.350284 83.120619 
C 282.592973 83.120619 280.9074 83.818806 279.664793 85.061413 
C 278.422187 86.304019 277.724 87.989592 277.724 89.746903 
C 277.724 91.504214 278.422187 93.189787 279.664793 94.432394 
C 280.9074 95.675 282.592973 96.373187 284.350284 96.373187 
z
" style="fill:#7fd34e;"/>
    <path clip-path="url(#p6b8878169d)" d="M 306.574805 259.874652 
C 308.383467 259.874652 310.118295 259.156063 311.397212 257.877146 
C 312.67613 256.598228 313.394719 254.863401 313.394719 253.054738 
C 313.394719 251.246076 312.67613 249.511248 311.397212 248.232331 
C 310.118295 246.953413 308.383467 246.234824 306.574805 246.234824 
C 304.766142 246.234824 303.031315 246.953413 301.752397 248.232331 
C 300.47348 249.511248 299.754891 251.246076 299.754891 253.054738 
C 299.754891 254.863401 300.47348 256.598228 301.752397 257.877146 
C 303.031315 259.156063 304.766142 259.874652 306.574805 259.874652 
z
" style="fill:#26828e;"/>
    <path clip-path="url(#p6b8878169d)" d="M 98.873001 293.245899 
C 100.59948 293.245899 102.25548 292.559961 103.476285 291.339156 
C 104.69709 290.118351 105.383028 288.462351 105.383028 286.735872 
C 105.383028 285.009392 104.69709 283.353392 103.476285 282.132587 
C 102.25548 280.911782 100.59948 280.225844 98.873001 280.225844 
C 97.146521 280.225844 95.490521 280.911782 94.269716 282.132587 
C 93.048911 283.353392 92.362973 285.009392 92.362973 286.735872 
C 92.362973 288.462351 93.048911 290.118351 94.269716 291.339156 
C 95.490521 292.559961 97.146521 293.245899 98.873001 293.245899 
z
" style="fill:#eae51a;"/>
    <path clip-path="url(#p6b8878169d)" d="M 170.231656 183.462097 
C 172.037216 183.462097 173.769068 182.744741 175.045792 181.468017 
C 176.322516 180.191293 177.039872 178.459441 177.039872 176.653881 
C 177.039872 174.848321 176.322516 173.116469 175.045792 171.839745 
C 173.769068 170.563022 172.037216 169.845665 170.231656 169.845665 
C 168.426096 169.845665 166.694244 170.563022 165.41752 171.839745 
C 164.140796 173.116469 163.42344 174.848321 163.42344 176.653881 
C 163.42344 178.459441 164.140796 180.191293 165.41752 181.468017 
C 166.694244 182.744741 168.426096 183.462097 170.231656 183.462097 
z
" style="fill:#440256;"/>
    <path clip-path="url(#p6b8878169d)" d="M 131.345503 112.231813 
C 133.210116 112.231813 134.998611 111.490994 136.317092 110.172513 
C 137.635573 108.854032 138.376391 107.065538 138.376391 105.200924 
C 138.376391 103.336311 137.635573 101.547816 136.317092 100.229335 
C 134.998611 98.910854 133.210116 98.170035 131.345503 98.170035 
C 129.480889 98.170035 127.692394 98.910854 126.373914 100.229335 
C 125.055433 101.547816 124.314614 103.336311 124.314614 105.200924 
C 124.314614 107.065538 125.055433 108.854032 126.373914 110.172513 
C 127.692394 111.490994 129.480889 112.231813 131.345503 112.231813 
z
" style="fill:#3c4f8a;"/>
    <path clip-path="url(#p6b8878169d)" d="M 208.974231 61.141512 
C 210.821558 61.141512 212.593473 60.407561 213.899731 59.101304 
C 215.205989 57.795046 215.93994 56.023131 215.93994 54.175804 
C 215.93994 52.328476 215.205989 50.556562 213.899731 49.250304 
C 212.593473 47.944046 210.821558 47.210095 208.974231 47.210095 
C 207.126903 47.210095 205.354989 47.944046 204.048731 49.250304 
C 202.742473 50.556562 202.008522 52.328476 202.008522 54.175804 
C 202.008522 56.023131 202.742473 57.795046 204.048731 59.101304 
C 205.354989 60.407561 207.126903 61.141512 208.974231 61.141512 
z
" style="fill:#218f8d;"/>
    <path clip-path="url(#p6b8878169d)" d="M 255.633943 275.687279 
C 257.444305 275.687279 259.180762 274.968014 260.460882 273.687895 
C 261.741001 272.407776 262.460265 270.671318 262.460265 268.860956 
C 262.460265 267.050594 261.741001 265.314136 260.460882 264.034017 
C 259.180762 262.753898 257.444305 262.034634 255.633943 262.034634 
C 253.823581 262.034634 252.087123 262.753898 250.807004 264.034017 
C 249.526884 265.314136 248.80762 267.050594 248.80762 268.860956 
C 248.80762 270.671318 249.526884 272.407776 250.807004 273.687895 
C 252.087123 274.968014 253.823581 275.687279 255.633943 275.687279 
z
" style="fill:#25848e;"/>
    <path clip-path="url(#p6b8878169d)" d="M 329.800329 176.081576 
C 331.586818 176.081576 333.300377 175.371796 334.563615 174.108558 
C 335.826853 172.84532 336.536633 171.13176 336.536633 169.345272 
C 336.536633 167.558783 335.826853 165.845224 334.563615 164.581986 
C 333.300377 163.318747 331.586818 162.608968 329.800329 162.608968 
C 328.01384 162.608968 326.300281 163.318747 325.037043 164.581986 
C 323.773805 165.845224 323.064025 167.558783 323.064025 169.345272 
C 323.064025 171.13176 323.773805 172.84532 325.037043 174.108558 
C 326.300281 175.371796 328.01384 176.081576 329.800329 176.081576 
z
" style="fill:#cde11d;"/>
    <path clip-path="url(#p6b8878169d)" d="M 166.09177 231.939048 
C 167.87195 231.939048 169.579458 231.231775 170.838236 229.972998 
C 172.097013 228.71422 172.804286 227.006712 172.804286 225.226532 
C 172.804286 223.446352 172.097013 221.738844 170.838236 220.480067 
C 169.579458 219.221289 167.87195 218.514016 166.09177 218.514016 
C 164.31159 218.514016 162.604082 219.221289 161.345305 220.480067 
C 160.086527 221.738844 159.379254 223.446352 159.379254 225.226532 
C 159.379254 227.006712 160.086527 228.71422 161.345305 229.972998 
C 162.604082 231.231775 164.31159 231.939048 166.09177 231.939048 
z
" style="fill:#482979;"/>
    <path clip-path="url(#p6b8878169d)" d="M 191.014787 223.226875 
C 192.877274 223.226875 194.663729 222.486901 195.980707 221.169924 
C 197.297684 219.852947 198.037658 218.066492 198.037658 216.204004 
C 198.037658 214.341517 197.297684 212.555062 195.980707 211.238085 
C 194.663729 209.921108 192.877274 209.181134 191.014787 209.181134 
C 189.1523 209.181134 187.365845 209.921108 186.048867 211.238085 
C 184.73189 212.555062 183.991916 214.341517 183.991916 216.204004 
C 183.991916 218.066492 184.73189 219.852947 186.048867 221.169924 
C 187.365845 222.486901 189.1523 223.226875 191.014787 223.226875 
z
" style="fill:#fde725;"/>
    <path clip-path="url(#p6b8878169d)" d="M 292.758457 144.029287 
C 294.516178 144.029287 296.202144 143.330937 297.44504 142.088041 
C 298.687936 140.845145 299.386286 139.159179 299.386286 137.401458 
C 299.386286 135.643737 298.687936 133.957772 297.44504 132.714876 
C 296.202144 131.471979 294.516178 130.773629 292.758457 130.773629 
C 291.000736 130.773629 289.314771 131.471979 288.071875 132.714876 
C 286.828978 133.957772 286.130628 135.643737 286.130628 137.401458 
C 286.130628 139.159179 286.828978 140.845145 288.071875 142.088041 
C 289.314771 143.330937 291.000736 144.029287 292.758457 144.029287 
z
" style="fill:#414287;"/>
    <path clip-path="url(#p6b8878169d)" d="M 252.274963 85.37242 
C 254.096718 85.37242 255.844103 84.648629 257.132278 83.360454 
C 258.420453 82.072279 259.144244 80.324893 259.144244 78.503139 
C 259.144244 76.681384 258.420453 74.933999 257.132278 73.645824 
C 255.844103 72.357649 254.096718 71.633858 252.274963 71.633858 
C 250.453209 71.633858 248.705823 72.357649 247.417648 73.645824 
C 246.129473 74.933999 245.405682 76.681384 245.405682 78.503139 
C 245.405682 80.324893 246.129473 82.072279 247.417648 83.360454 
C 248.705823 84.648629 250.453209 85.37242 252.274963 85.37242 
z
" style="fill:#463480;"/>
    <path clip-path="url(#p6b8878169d)" d="M 132.008304 156.261055 
C 133.852316 156.261055 135.62105 155.528422 136.924963 154.224509 
C 138.228876 152.920596 138.96151 151.151862 138.96151 149.30785 
C 138.96151 147.463838 138.228876 145.695104 136.924963 144.391191 
C 135.62105 143.087278 133.852316 142.354645 132.008304 142.354645 
C 130.164293 142.354645 128.395559 143.087278 127.091645 144.391191 
C 125.787732 145.695104 125.055099 147.463838 125.055099 149.30785 
C 125.055099 151.151862 125.787732 152.920596 127.091645 154.224509 
C 128.395559 155.528422 130.164293 156.261055 132.008304 156.261055 
z
" style="fill:#30698e;"/>
    <path clip-path="url(#p6b8878169d)" d="M 71.080244 255.800191 
C 72.812639 255.800191 74.474314 255.111903 75.699302 253.886914 
C 76.924291 252.661926 77.612579 251.000252 77.612579 249.267856 
C 77.612579 247.535461 76.924291 245.873787 75.699302 244.648798 
C 74.474314 243.423809 72.812639 242.735521 71.080244 242.735521 
C 69.347849 242.735521 67.686174 243.423809 66.461186 244.648798 
C 65.236197 245.873787 64.547909 247.535461 64.547909 249.267856 
C 64.547909 251.000252 65.236197 252.661926 66.461186 253.886914 
C 67.686174 255.111903 69.347849 255.800191 71.080244 255.800191 
z
" style="fill:#eae51a;"/>
    <path clip-path="url(#p6b8878169d)" d="M 167.058142 80.142921 
C 168.917104 80.142921 170.700178 79.404347 172.014663 78.089863 
C 173.329147 76.775378 174.067721 74.992304 174.067721 73.133342 
C 174.067721 71.27438 173.329147 69.491305 172.014663 68.176821 
C 170.700178 66.862336 168.917104 66.123762 167.058142 66.123762 
C 165.199179 66.123762 163.416105 66.862336 162.101621 68.176821 
C 160.787136 69.491305 160.048562 71.27438 160.048562 73.133342 
C 160.048562 74.992304 160.787136 76.775378 162.101621 78.089863 
C 163.416105 79.404347 165.199179 80.142921 167.058142 80.142921 
z
" style="fill:#2a778e;"/>
    <path clip-path="url(#p6b8878169d)" d="M 86.596912 138.804302 
C 88.472808 138.804302 90.272125 138.059001 91.598584 136.732542 
C 92.925043 135.406083 93.670344 133.606766 93.670344 131.73087 
C 93.670344 129.854973 92.925043 128.055656 91.598584 126.729197 
C 90.272125 125.402738 88.472808 124.657437 86.596912 124.657437 
C 84.721015 124.657437 82.921698 125.402738 81.595239 126.729197 
C 80.26878 128.055656 79.523479 129.854973 79.523479 131.73087 
C 79.523479 133.606766 80.26878 135.406083 81.595239 136.732542 
C 82.921698 138.059001 84.721015 138.804302 86.596912 138.804302 
z
" style="fill:#7ad151;"/>
    <path clip-path="url(#p6b8878169d)" d="M 307.79821 217.08497 
C 309.568459 217.08497 311.266442 216.381642 312.518197 215.129887 
C 313.769953 213.878131 314.47328 212.180149 314.47328 210.409899 
C 314.47328 208.63965 313.769953 206.941667 312.518197 205.689912 
C 311.266442 204.438156 309.568459 203.734829 307.79821 203.734829 
C 306.02796 203.734829 304.329977 204.438156 303.078222 205.689912 
C 301.826467 206.941667 301.123139 208.63965 301.123139 210.409899 
C 301.123139 212.180149 301.826467 213.878131 303.078222 215.129887 
C 304.329977 216.381642 306.02796 217.08497 307.79821 217.08497 
z
" style="fill:#460b5e;"/>
    <path clip-path="url(#p6b8878169d)" d="M 295.598509 301.825172 
C 297.439813 301.825172 299.205949 301.093614 300.507947 299.791616 
C 301.809945 298.489618 302.541503 296.723482 302.541503 294.882178 
C 302.541503 293.040875 301.809945 291.274739 300.507947 289.97274 
C 299.205949 288.670742 297.439813 287.939185 295.598509 287.939185 
C 293.757206 287.939185 291.99107 288.670742 290.689071 289.97274 
C 289.387073 291.274739 288.655516 293.040875 288.655516 294.882178 
C 288.655516 296.723482 289.387073 298.489618 290.689071 299.791616 
C 291.99107 301.093614 293.757206 301.825172 295.598509 301.825172 
z
" style="fill:#84d44b;"/>
    <path clip-path="url(#p6b8878169d)" d="M 122.767808 255.175588 
C 124.521764 255.175588 126.204118 254.478734 127.444352 253.2385 
C 128.684585 251.998267 129.381439 250.315913 129.381439 248.561957 
C 129.381439 246.808002 128.684585 245.125648 127.444352 243.885414 
C 126.204118 242.64518 124.521764 241.948326 122.767808 241.948326 
C 121.013853 241.948326 119.331499 242.64518 118.091265 243.885414 
C 116.851031 245.125648 116.154178 246.808002 116.154178 248.561957 
C 116.154178 250.315913 116.851031 251.998267 118.091265 253.2385 
C 119.331499 254.478734 121.013853 255.175588 122.767808 255.175588 
z
" style="fill:#3b528b;"/>
    <path clip-path="url(#p6b8878169d)" d="M 222.008715 242.212812 
C 223.785601 242.212812 225.489949 241.506847 226.746397 240.2504 
C 228.002845 238.993952 228.708809 237.289604 228.708809 235.512718 
C 228.708809 233.735832 228.002845 232.031484 226.746397 230.775036 
C 225.489949 229.518589 223.785601 228.812624 222.008715 228.812624 
C 220.23183 228.812624 218.527481 229.518589 217.271034 230.775036 
C 216.014586 232.031484 215.308622 233.735832 215.308622 235.512718 
C 215.308622 237.289604 216.014586 238.993952 217.271034 240.2504 
C 218.527481 241.506847 220.23183 242.212812 222.008715 242.212812 
z
" style="fill:#482979;"/>
    <path clip-path="url(#p6b8878169d)" d="M 247.229639 132.393085 
C 249.04897 132.393085 250.794031 131.670257 252.080492 130.383796 
C 253.366953 129.097335 254.08978 127.352275 254.08978 125.532944 
C 254.08978 123.713613 253.366953 121.968553 252.080492 120.682092 
C 250.794031 119.395631 249.04897 118.672803 247.229639 118.672803 
C 245.410309 118.672803 243.665248 119.395631 242.378787 120.682092 
C 241.092326 121.968553 240.369498 123.713613 240.369498 125.532944 
C 240.369498 127.352275 241.092326 129.097335 242.378787 130.383796 
C 243.665248 131.670257 245.410309 132.393085 247.229639 132.393085 
z
" style="fill:#24868e;"/>
    <path clip-path="url(#p6b8878169d)" d="M 247.594009 169.523509 
C 249.303241 169.523509 250.942697 168.844424 252.151307 167.635814 
C 253.359916 166.427205 254.039001 164.787749 254.039001 163.078517 
C 254.039001 161.369285 253.359916 159.729829 252.151307 158.521219 
C 250.942697 157.31261 249.303241 156.633525 247.594009 156.633525 
C 245.884778 156.633525 244.245321 157.31261 243.036712 158.521219 
C 241.828102 159.729829 241.149017 161.369285 241.149017 163.078517 
C 241.149017 164.787749 241.828102 166.427205 243.036712 167.635814 
C 244.245321 168.844424 245.884778 169.523509 247.594009 169.523509 
z
" style="fill:#277f8e;"/>
    <path clip-path="url(#p6b8878169d)" d="M 257.394038 212.365628 
C 259.129163 212.365628 260.793456 211.676255 262.020375 210.449337 
C 263.247293 209.222418 263.936666 207.558125 263.936666 205.822999 
C 263.936666 204.087874 263.247293 202.423581 262.020375 201.196662 
C 260.793456 199.969744 259.129163 199.280371 257.394038 199.280371 
C 255.658912 199.280371 253.994619 199.969744 252.767701 201.196662 
C 251.540782 202.423581 250.851409 204.087874 250.851409 205.822999 
C 250.851409 207.558125 251.540782 209.222418 252.767701 210.449337 
C 253.994619 211.676255 255.658912 212.365628 257.394038 212.365628 
z
" style="fill:#440154;"/>
   </g>
   <g id="text_1">
    <!-- Structure #9279, $E_N$=-172.60eV, ΔE=-0.05eV -->
    <defs>
     <path d="M 53.515625 70.515625 
L 53.515625 60.890625 
Q 47.90625 63.578125 42.921875 64.890625 
Q 37.9375 66.21875 33.296875 66.21875 
Q 25.25 66.21875 20.875 63.09375 
Q 16.5 59.96875 16.5 54.203125 
Q 16.5 49.359375 19.40625 46.890625 
Q 22.3125 44.4375 30.421875 42.921875 
L 36.375 41.703125 
Q 47.40625 39.59375 52.65625 34.296875 
Q 57.90625 29 57.90625 20.125 
Q 57.90625 9.515625 50.796875 4.046875 
Q 43.703125 -1.421875 29.984375 -1.421875 
Q 24.8125 -1.421875 18.96875 -0.25 
Q 13.140625 0.921875 6.890625 3.21875 
L 6.890625 13.375 
Q 12.890625 10.015625 18.65625 8.296875 
Q 24.421875 6.59375 29.984375 6.59375 
Q 38.421875 6.59375 43.015625 9.90625 
Q 47.609375 13.234375 47.609375 19.390625 
Q 47.609375 24.75 44.3125 27.78125 
Q 41.015625 30.8125 33.5 32.328125 
L 27.484375 33.5 
Q 16.453125 35.6875 11.515625 40.375 
Q 6.59375 45.0625 6.59375 53.421875 
Q 6.59375 63.09375 13.40625 68.65625 
Q 20.21875 74.21875 32.171875 74.21875 
Q 37.3125 74.21875 42.625 73.28125 
Q 47.953125 72.359375 53.515625 70.515625 
z
" id="DejaVuSans-53"/>
     <path d="M 18.3125 70.21875 
L 18.3125 54.6875 
L 36.8125 54.6875 
L 36.8125 47.703125 
L 18.3125 47.703125 
L 18.3125 18.015625 
Q 18.3125 11.328125 20.140625 9.421875 
Q 21.96875 7.515625 27.59375 7.515625 
L 36.8125 7.515625 
L 36.8125 0 
L 27.59375 0 
Q 17.1875 0 13.234375 3.875 
Q 9.28125 7.765625 9.28125 18.015625 
L 9.28125 47.703125 
L 2.6875 47.703125 
L 2.6875 54.6875 
L 9.28125 54.6875 
L 9.28125 70.21875 
z
" id="DejaVuSans-74"/>
     <path d="M 41.109375 46.296875 
Q 39.59375 47.171875 37.8125 47.578125 
Q 36.03125 48 33.890625 48 
Q 26.265625 48 22.1875 43.046875 
Q 18.109375 38.09375 18.109375 28.8125 
L 18.109375 0 
L 9.078125 0 
L 9.078125 54.6875 
L 18.109375 54.6875 
L 18.109375 46.1875 
Q 20.953125 51.171875 25.484375 53.578125 
Q 30.03125 56 36.53125 56 
Q 37.453125 56 38.578125 55.875 
Q 39.703125 55.765625 41.0625 55.515625 
z
" id="DejaVuSans-72"/>
     <path d="M 8.5 21.578125 
L 8.5 54.6875 
L 17.484375 54.6875 
L 17.484375 21.921875 
Q 17.484375 14.15625 20.5 10.265625 
Q 23.53125 6.390625 29.59375 6.390625 
Q 36.859375 6.390625 41.078125 11.03125 
Q 45.3125 15.671875 45.3125 23.6875 
L 45.3125 54.6875 
L 54.296875 54.6875 
L 54.296875 0 
L 45.3125 0 
L 45.3125 8.40625 
Q 42.046875 3.421875 37.71875 1 
Q 33.40625 -1.421875 27.6875 -1.421875 
Q 18.265625 -1.421875 13.375 4.4375 
Q 8.5 10.296875 8.5 21.578125 
z
M 31.109375 56 
z
" id="DejaVuSans-75"/>
     <path d="M 48.78125 52.59375 
L 48.78125 44.1875 
Q 44.96875 46.296875 41.140625 47.34375 
Q 37.3125 48.390625 33.40625 48.390625 
Q 24.65625 48.390625 19.8125 42.84375 
Q 14.984375 37.3125 14.984375 27.296875 
Q 14.984375 17.28125 19.8125 11.734375 
Q 24.65625 6.203125 33.40625 6.203125 
Q 37.3125 6.203125 41.140625 7.25 
Q 44.96875 8.296875 48.78125 10.40625 
L 48.78125 2.09375 
Q 45.015625 0.34375 40.984375 -0.53125 
Q 36.96875 -1.421875 32.421875 -1.421875 
Q 20.0625 -1.421875 12.78125 6.34375 
Q 5.515625 14.109375 5.515625 27.296875 
Q 5.515625 40.671875 12.859375 48.328125 
Q 20.21875 56 33.015625 56 
Q 37.15625 56 41.109375 55.140625 
Q 45.0625 54.296875 48.78125 52.59375 
z
" id="DejaVuSans-63"/>
     <path d="M 56.203125 29.59375 
L 56.203125 25.203125 
L 14.890625 25.203125 
Q 15.484375 15.921875 20.484375 11.0625 
Q 25.484375 6.203125 34.421875 6.203125 
Q 39.59375 6.203125 44.453125 7.46875 
Q 49.3125 8.734375 54.109375 11.28125 
L 54.109375 2.78125 
Q 49.265625 0.734375 44.1875 -0.34375 
Q 39.109375 -1.421875 33.890625 -1.421875 
Q 20.796875 -1.421875 13.15625 6.1875 
Q 5.515625 13.8125 5.515625 26.8125 
Q 5.515625 40.234375 12.765625 48.109375 
Q 20.015625 56 32.328125 56 
Q 43.359375 56 49.78125 48.890625 
Q 56.203125 41.796875 56.203125 29.59375 
z
M 47.21875 32.234375 
Q 47.125 39.59375 43.09375 43.984375 
Q 39.0625 48.390625 32.421875 48.390625 
Q 24.90625 48.390625 20.390625 44.140625 
Q 15.875 39.890625 15.1875 32.171875 
z
" id="DejaVuSans-65"/>
     <path id="DejaVuSans-20"/>
     <path d="M 51.125 44 
L 36.921875 44 
L 32.8125 27.6875 
L 47.125 27.6875 
z
M 43.796875 71.78125 
L 38.71875 51.515625 
L 52.984375 51.515625 
L 58.109375 71.78125 
L 65.921875 71.78125 
L 60.890625 51.515625 
L 76.125 51.515625 
L 76.125 44 
L 58.984375 44 
L 54.984375 27.6875 
L 70.515625 27.6875 
L 70.515625 20.21875 
L 53.078125 20.21875 
L 48 0 
L 40.1875 0 
L 45.21875 20.21875 
L 30.90625 20.21875 
L 25.875 0 
L 18.015625 0 
L 23.09375 20.21875 
L 7.71875 20.21875 
L 7.71875 27.6875 
L 24.90625 27.6875 
L 29 44 
L 13.28125 44 
L 13.28125 51.515625 
L 30.90625 51.515625 
L 35.890625 71.78125 
z
" id="DejaVuSans-23"/>
     <path d="M 10.984375 1.515625 
L 10.984375 10.5 
Q 14.703125 8.734375 18.5 7.8125 
Q 22.3125 6.890625 25.984375 6.890625 
Q 35.75 6.890625 40.890625 13.453125 
Q 46.046875 20.015625 46.78125 33.40625 
Q 43.953125 29.203125 39.59375 26.953125 
Q 35.25 24.703125 29.984375 24.703125 
Q 19.046875 24.703125 12.671875 31.3125 
Q 6.296875 37.9375 6.296875 49.421875 
Q 6.296875 60.640625 12.9375 67.421875 
Q 19.578125 74.21875 30.609375 74.21875 
Q 43.265625 74.21875 49.921875 64.515625 
Q 56.59375 54.828125 56.59375 36.375 
Q 56.59375 19.140625 48.40625 8.859375 
Q 40.234375 -1.421875 26.421875 -1.421875 
Q 22.703125 -1.421875 18.890625 -0.6875 
Q 15.09375 0.046875 10.984375 1.515625 
z
M 30.609375 32.421875 
Q 37.25 32.421875 41.125 36.953125 
Q 45.015625 41.5 45.015625 49.421875 
Q 45.015625 57.28125 41.125 61.84375 
Q 37.25 66.40625 30.609375 66.40625 
Q 23.96875 66.40625 20.09375 61.84375 
Q 16.21875 57.28125 16.21875 49.421875 
Q 16.21875 41.5 20.09375 36.953125 
Q 23.96875 32.421875 30.609375 32.421875 
z
" id="DejaVuSans-39"/>
     <path d="M 19.1875 8.296875 
L 53.609375 8.296875 
L 53.609375 0 
L 7.328125 0 
L 7.328125 8.296875 
Q 12.9375 14.109375 22.625 23.890625 
Q 32.328125 33.6875 34.8125 36.53125 
Q 39.546875 41.84375 41.421875 45.53125 
Q 43.3125 49.21875 43.3125 52.78125 
Q 43.3125 58.59375 39.234375 62.25 
Q 35.15625 65.921875 28.609375 65.921875 
Q 23.96875 65.921875 18.8125 64.3125 
Q 13.671875 62.703125 7.8125 59.421875 
L 7.8125 69.390625 
Q 13.765625 71.78125 18.9375 73 
Q 24.125 74.21875 28.421875 74.21875 
Q 39.75 74.21875 46.484375 68.546875 
Q 53.21875 62.890625 53.21875 53.421875 
Q 53.21875 48.921875 51.53125 44.890625 
Q 49.859375 40.875 45.40625 35.40625 
Q 44.1875 33.984375 37.640625 27.21875 
Q 31.109375 20.453125 19.1875 8.296875 
z
" id="DejaVuSans-32"/>
     <path d="M 8.203125 72.90625 
L 55.078125 72.90625 
L 55.078125 68.703125 
L 28.609375 0 
L 18.3125 0 
L 43.21875 64.59375 
L 8.203125 64.59375 
z
" id="DejaVuSans-37"/>
     <path d="M 11.71875 12.40625 
L 22.015625 12.40625 
L 22.015625 4 
L 14.015625 -11.625 
L 7.71875 -11.625 
L 11.71875 4 
z
" id="DejaVuSans-2c"/>
     <path d="M 16.890625 72.90625 
L 62.984375 72.90625 
L 61.375 64.59375 
L 25.09375 64.59375 
L 20.90625 43.015625 
L 55.71875 43.015625 
L 54.109375 34.71875 
L 19.28125 34.71875 
L 14.203125 8.296875 
L 51.3125 8.296875 
L 49.703125 0 
L 2.6875 0 
z
" id="DejaVuSans-Oblique-45"/>
     <path d="M 16.890625 72.90625 
L 30.171875 72.90625 
L 50.296875 10.40625 
L 62.5 72.90625 
L 72.125 72.90625 
L 57.90625 0 
L 44.578125 0 
L 24.515625 62.890625 
L 12.3125 0 
L 2.6875 0 
z
" id="DejaVuSans-Oblique-4e"/>
     <path d="M 10.59375 45.40625 
L 73.1875 45.40625 
L 73.1875 37.203125 
L 10.59375 37.203125 
z
M 10.59375 25.484375 
L 73.1875 25.484375 
L 73.1875 17.1875 
L 10.59375 17.1875 
z
" id="DejaVuSans-3d"/>
     <path d="M 4.890625 31.390625 
L 31.203125 31.390625 
L 31.203125 23.390625 
L 4.890625 23.390625 
z
" id="DejaVuSans-2d"/>
     <path d="M 12.40625 8.296875 
L 28.515625 8.296875 
L 28.515625 63.921875 
L 10.984375 60.40625 
L 10.984375 69.390625 
L 28.421875 72.90625 
L 38.28125 72.90625 
L 38.28125 8.296875 
L 54.390625 8.296875 
L 54.390625 0 
L 12.40625 0 
z
" id="DejaVuSans-31"/>
     <path d="M 10.6875 12.40625 
L 21 12.40625 
L 21 0 
L 10.6875 0 
z
" id="DejaVuSans-2e"/>
     <path d="M 33.015625 40.375 
Q 26.375 40.375 22.484375 35.828125 
Q 18.609375 31.296875 18.609375 23.390625 
Q 18.609375 15.53125 22.484375 10.953125 
Q 26.375 6.390625 33.015625 6.390625 
Q 39.65625 6.390625 43.53125 10.953125 
Q 47.40625 15.53125 47.40625 23.390625 
Q 47.40625 31.296875 43.53125 35.828125 
Q 39.65625 40.375 33.015625 40.375 
z
M 52.59375 71.296875 
L 52.59375 62.3125 
Q 48.875 64.0625 45.09375 64.984375 
Q 41.3125 65.921875 37.59375 65.921875 
Q 27.828125 65.921875 22.671875 59.328125 
Q 17.53125 52.734375 16.796875 39.40625 
Q 19.671875 43.65625 24.015625 45.921875 
Q 28.375 48.1875 33.59375 48.1875 
Q 44.578125 48.1875 50.953125 41.515625 
Q 57.328125 34.859375 57.328125 23.390625 
Q 57.328125 12.15625 50.6875 5.359375 
Q 44.046875 -1.421875 33.015625 -1.421875 
Q 20.359375 -1.421875 13.671875 8.265625 
Q 6.984375 17.96875 6.984375 36.375 
Q 6.984375 53.65625 15.1875 63.9375 
Q 23.390625 74.21875 37.203125 74.21875 
Q 40.921875 74.21875 44.703125 73.484375 
Q 48.484375 72.75 52.59375 71.296875 
z
" id="DejaVuSans-36"/>
     <path d="M 31.78125 66.40625 
Q 24.171875 66.40625 20.328125 58.90625 
Q 16.5 51.421875 16.5 36.375 
Q 16.5 21.390625 20.328125 13.890625 
Q 24.171875 6.390625 31.78125 6.390625 
Q 39.453125 6.390625 43.28125 13.890625 
Q 47.125 21.390625 47.125 36.375 
Q 47.125 51.421875 43.28125 58.90625 
Q 39.453125 66.40625 31.78125 66.40625 
z
M 31.78125 74.21875 
Q 44.046875 74.21875 50.515625 64.515625 
Q 56.984375 54.828125 56.984375 36.375 
Q 56.984375 17.96875 50.515625 8.265625 
Q 44.046875 -1.421875 31.78125 -1.421875 
Q 19.53125 -1.421875 13.0625 8.265625 
Q 6.59375 17.96875 6.59375 36.375 
Q 6.59375 54.828125 13.0625 64.515625 
Q 19.53125 74.21875 31.78125 74.21875 
z
" id="DejaVuSans-30"/>
     <path d="M 28.609375 0 
L 0.78125 72.90625 
L 11.078125 72.90625 
L 34.1875 11.53125 
L 57.328125 72.90625 
L 67.578125 72.90625 
L 39.796875 0 
z
" id="DejaVuSans-56"/>
     <path d="M 34.1875 63.1875 
L 14.15625 8.203125 
L 54.25 8.203125 
z
M 0.78125 0 
L 28.609375 72.90625 
L 39.796875 72.90625 
L 67.578125 0 
z
" id="DejaVuSans-394"/>
     <path d="M 9.8125 72.90625 
L 55.90625 72.90625 
L 55.90625 64.59375 
L 19.671875 64.59375 
L 19.671875 43.015625 
L 54.390625 43.015625 
L 54.390625 34.71875 
L 19.671875 34.71875 
L 19.671875 8.296875 
L 56.78125 8.296875 
L 56.78125 0 
L 9.8125 0 
z
" id="DejaVuSans-45"/>
     <path d="M 10.796875 72.90625 
L 49.515625 72.90625 
L 49.515625 64.59375 
L 19.828125 64.59375 
L 19.828125 46.734375 
Q 21.96875 47.46875 24.109375 47.828125 
Q 26.265625 48.1875 28.421875 48.1875 
Q 40.625 48.1875 47.75 41.5 
Q 54.890625 34.8125 54.890625 23.390625 
Q 54.890625 11.625 47.5625 5.09375 
Q 40.234375 -1.421875 26.90625 -1.421875 
Q 22.3125 -1.421875 17.546875 -0.640625 
Q 12.796875 0.140625 7.71875 1.703125 
L 7.71875 11.625 
Q 12.109375 9.234375 16.796875 8.0625 
Q 21.484375 6.890625 26.703125 6.890625 
Q 35.15625 6.890625 40.078125 11.328125 
Q 45.015625 15.765625 45.015625 23.390625 
Q 45.015625 31 40.078125 35.4375 
Q 35.15625 39.890625 26.703125 39.890625 
Q 22.75 39.890625 18.8125 39.015625 
Q 14.890625 38.140625 10.796875 36.28125 
z
" id="DejaVuSans-35"/>
    </defs>
    <g transform="translate(63.228 35.472)scale(0.12 -0.12)">
     <use transform="translate(0 0.78125)" xlink:href="#DejaVuSans-53"/>
     <use transform="translate(63.476562 0.78125)" xlink:href="#DejaVuSans-74"/>
     <use transform="translate(102.685547 0.78125)" xlink:href="#DejaVuSans-72"/>
     <use transform="translate(143.798828 0.78125)" xlink:href="#DejaVuSans-75"/>
     <use transform="translate(207.177734 0.78125)" xlink:href="#DejaVuSans-63"/>
     <use transform="translate(262.158203 0.78125)" xlink:href="#DejaVuSans-74"/>
     <use transform="translate(301.367188 0.78125)" xlink:href="#DejaVuSans-75"/>
     <use transform="translate(364.746094 0.78125)" xlink:href="#DejaVuSans-72"/>
     <use transform="translate(405.859375 0.78125)" xlink:href="#DejaVuSans-65"/>
     <use transform="translate(467.382812 0.78125)" xlink:href="#DejaVuSans-20"/>
     <use transform="translate(499.169922 0.78125)" xlink:href="#DejaVuSans-23"/>
     <use transform="translate(582.958984 0.78125)" xlink:href="#DejaVuSans-39"/>
     <use transform="translate(646.566406 0.78125)" xlink:href="#DejaVuSans-32"/>
     <use transform="translate(710.189453 0.78125)" xlink:href="#DejaVuSans-37"/>
     <use transform="translate(773.8125 0.78125)" xlink:href="#DejaVuSans-39"/>
     <use transform="translate(837.435547 0.78125)" xlink:href="#DejaVuSans-2c"/>
     <use transform="translate(869.222656 0.78125)" xlink:href="#DejaVuSans-20"/>
     <use transform="translate(901.009766 0.78125)" xlink:href="#DejaVuSans-Oblique-45"/>
     <use transform="translate(964.193359 -15.625)scale(0.7)" xlink:href="#DejaVuSans-Oblique-4e"/>
     <use transform="translate(1019.291016 0.78125)" xlink:href="#DejaVuSans-3d"/>
     <use transform="translate(1103.080078 0.78125)" xlink:href="#DejaVuSans-2d"/>
     <use transform="translate(1139.164062 0.78125)" xlink:href="#DejaVuSans-31"/>
     <use transform="translate(1202.787109 0.78125)" xlink:href="#DejaVuSans-37"/>
     <use transform="translate(1266.410156 0.78125)" xlink:href="#DejaVuSans-32"/>
     <use transform="translate(1330.033203 0.78125)" xlink:href="#DejaVuSans-2e"/>
     <use transform="translate(1361.820312 0.78125)" xlink:href="#DejaVuSans-36"/>
     <use transform="translate(1425.443359 0.78125)" xlink:href="#DejaVuSans-30"/>
     <use transform="translate(1489.066406 0.78125)" xlink:href="#DejaVuSans-65"/>
     <use transform="translate(1550.589844 0.78125)" xlink:href="#DejaVuSans-56"/>
     <use transform="translate(1618.998047 0.78125)" xlink:href="#DejaVuSans-2c"/>
     <use transform="translate(1650.785156 0.78125)" xlink:href="#DejaVuSans-20"/>
     <use transform="translate(1682.572266 0.78125)" xlink:href="#DejaVuSans-394"/>
     <use transform="translate(1750.980469 0.78125)" xlink:href="#DejaVuSans-45"/>
     <use transform="translate(1814.164062 0.78125)" xlink:href="#DejaVuSans-3d"/>
     <use transform="translate(1897.953125 0.78125)" xlink:href="#DejaVuSans-2d"/>
     <use transform="translate(1934.037109 0.78125)" xlink:href="#DejaVuSans-30"/>
     <use transform="translate(1997.660156 0.78125)" xlink:href="#DejaVuSans-2e"/>
     <use transform="translate(2029.447266 0.78125)" xlink:href="#DejaVuSans-30"/>
     <use transform="translate(2093.070312 0.78125)" xlink:href="#DejaVuSans-35"/>
     <use transform="translate(2156.693359 0.78125)" xlink:href="#DejaVuSans-65"/>
     <use transform="translate(2218.216797 0.78125)" xlink:href="#DejaVuSans-56"/>
    </g>
   </g>
  </g>
  <g id="axes_2">
   <g id="patch_2">
    <path clip-path="url(#p3777ec625d)" d="M 361.152 307.584 
L 361.152 306.5445 
L 361.152 42.5115 
L 361.152 41.472 
L 374.4576 41.472 
L 374.4576 42.5115 
L 374.4576 306.5445 
L 374.4576 307.584 
z
" style="fill:#ffffff;stroke:#ffffff;stroke-linejoin:miter;stroke-width:0.01;"/>
   </g>
   <image height="265.68" id="image0826351814" transform="scale(1 -1)translate(0 -265.68)" width="12.96" x="361.44" xlink:href="data:image/png;base64,
iVBORw0KGgoAAAANSUhEUgAAABIAAAFxCAYAAAB+2fgXAAAABHNCSVQICAgIfAhkiAAAAeVJREFUeJztncmNw0AQA2ckheYQNv9QLIfQ8ygsCgQ7AEI8+jAs2Puz/94F1LP2ReCsZ18bAWIeZ5XaGRBE7VnbptG+KI101FYyNSiQG2oRITXKNaX9uclOdi2XWjftVE32CZCO2ou5Bj1TcCBr/1zB9ge7Fq0Rg2NM9pvbtG+ua1QgsRYhDy0ISEiNc40BEibbSI0Coj5CBGtkpFbXJiAjNZlrwhuSOv2M1DjXbEdEciBt1JSDDQKKpmZr2rr2j0DBGpXaWEJq3bQzEPIS26r9J+Wzv9Tm8o3aajRXqc3VUXsApKNWjeZq0x4ABVNbm7lrszVigDqP5vIl2+eaT2yfRkL7g+dRcNPqjohkjaCvRVBq0H2U3LQrOJCx9kdTg4B8oxZzzTdqdYHEngjUCAPyUctN9sVRq2sTECW2UKNLd2jVtRmo1A6AhMmWaSRcR8nUdIHUuVb75zJS218EyEitro1At69pIdeSk30Lkw0FktNImGyZRhy1O5galmxd03LUsHWk06jUZiCq+5Wb1kZNN4+wJxJuWt8RAW5am2sYNZ9rYCBzZ3buPKJ2P5Yj4Toy3keyIyJbIxs1rml1byCA84gpch5RQNB7Q0qNMGq2Hy4BXdNR41yz/cEEJfZzUz96r9PoB0okjeQ8y9TkAAAAAElFTkSuQmCC" y="-41.76"/>
   <g id="matplotlib.axis_1"/>
   <g id="matplotlib.axis_2">
    <g id="ytick_1">
     <g id="line2d_1">
      <defs>
       <path d="M 0 0 
L 3.5 0 
" id="m2672f5c482" style="stroke:#000000;stroke-width:0.8;"/>
      </defs>
      <g>
       <use style="stroke:#000000;stroke-width:0.8;" x="374.4576" xlink:href="#m2672f5c482" y="267.899505"/>
      </g>
     </g>
     <g id="text_2">
      <!-- −8.0 -->
      <defs>
       <path d="M 10.59375 35.5 
L 73.1875 35.5 
L 73.1875 27.203125 
L 10.59375 27.203125 
z
" id="DejaVuSans-2212"/>
       <path d="M 31.78125 34.625 
Q 24.75 34.625 20.71875 30.859375 
Q 16.703125 27.09375 16.703125 20.515625 
Q 16.703125 13.921875 20.71875 10.15625 
Q 24.75 6.390625 31.78125 6.390625 
Q 38.8125 6.390625 42.859375 10.171875 
Q 46.921875 13.96875 46.921875 20.515625 
Q 46.921875 27.09375 42.890625 30.859375 
Q 38.875 34.625 31.78125 34.625 
z
M 21.921875 38.8125 
Q 15.578125 40.375 12.03125 44.71875 
Q 8.5 49.078125 8.5 55.328125 
Q 8.5 64.0625 14.71875 69.140625 
Q 20.953125 74.21875 31.78125 74.21875 
Q 42.671875 74.21875 48.875 69.140625 
Q 55.078125 64.0625 55.078125 55.328125 
Q 55.078125 49.078125 51.53125 44.71875 
Q 48 40.375 41.703125 38.8125 
Q 48.828125 37.15625 52.796875 32.3125 
Q 56.78125 27.484375 56.78125 20.515625 
Q 56.78125 9.90625 50.3125 4.234375 
Q 43.84375 -1.421875 31.78125 -1.421875 
Q 19.734375 -1.421875 13.25 4.234375 
Q 6.78125 9.90625 6.78125 20.515625 
Q 6.78125 27.484375 10.78125 32.3125 
Q 14.796875 37.15625 21.921875 38.8125 
z
M 18.3125 54.390625 
Q 18.3125 48.734375 21.84375 45.5625 
Q 25.390625 42.390625 31.78125 42.390625 
Q 38.140625 42.390625 41.71875 45.5625 
Q 45.3125 48.734375 45.3125 54.390625 
Q 45.3125 60.0625 41.71875 63.234375 
Q 38.140625 66.40625 31.78125 66.40625 
Q 25.390625 66.40625 21.84375 63.234375 
Q 18.3125 60.0625 18.3125 54.390625 
z
" id="DejaVuSans-38"/>
      </defs>
      <g transform="translate(381.4576 271.698724)scale(0.1 -0.1)">
       <use xlink:href="#DejaVuSans-2212"/>
       <use x="83.789062" xlink:href="#DejaVuSans-38"/>
       <use x="147.412109" xlink:href="#DejaVuSans-2e"/>
       <use x="179.199219" xlink:href="#DejaVuSans-30"/>
      </g>
     </g>
    </g>
    <g id="ytick_2">
     <g id="line2d_2">
      <g>
       <use style="stroke:#000000;stroke-width:0.8;" x="374.4576" xlink:href="#m2672f5c482" y="220.242479"/>
      </g>
     </g>
     <g id="text_3">
      <!-- −7.5 -->
      <g transform="translate(381.4576 224.041697)scale(0.1 -0.1)">
       <use xlink:href="#DejaVuSans-2212"/>
       <use x="83.789062" xlink:href="#DejaVuSans-37"/>
       <use x="147.412109" xlink:href="#DejaVuSans-2e"/>
       <use x="179.199219" xlink:href="#DejaVuSans-35"/>
      </g>
     </g>
    </g>
    <g id="ytick_3">
     <g id="line2d_3">
      <g>
       <use style="stroke:#000000;stroke-width:0.8;" x="374.4576" xlink:href="#m2672f5c482" y="172.585452"/>
      </g>
     </g>
     <g id="text_4">
      <!-- −7.0 -->
      <g transform="translate(381.4576 176.384671)scale(0.1 -0.1)">
       <use xlink:href="#DejaVuSans-2212"/>
       <use x="83.789062" xlink:href="#DejaVuSans-37"/>
       <use x="147.412109" xlink:href="#DejaVuSans-2e"/>
       <use x="179.199219" xlink:href="#DejaVuSans-30"/>
      </g>
     </g>
    </g>
    <g id="ytick_4">
     <g id="line2d_4">
      <g>
       <use style="stroke:#000000;stroke-width:0.8;" x="374.4576" xlink:href="#m2672f5c482" y="124.928426"/>
      </g>
     </g>
     <g id="text_5">
      <!-- −6.5 -->
      <g transform="translate(381.4576 128.727645)scale(0.1 -0.1)">
       <use xlink:href="#DejaVuSans-2212"/>
       <use x="83.789062" xlink:href="#DejaVuSans-36"/>
       <use x="147.412109" xlink:href="#DejaVuSans-2e"/>
       <use x="179.199219" xlink:href="#DejaVuSans-35"/>
      </g>
     </g>
    </g>
    <g id="ytick_5">
     <g id="line2d_5">
      <g>
       <use style="stroke:#000000;stroke-width:0.8;" x="374.4576" xlink:href="#m2672f5c482" y="77.2714"/>
      </g>
     </g>
     <g id="text_6">
      <!-- −6.0 -->
      <g transform="translate(381.4576 81.070618)scale(0.1 -0.1)">
       <use xlink:href="#DejaVuSans-2212"/>
       <use x="83.789062" xlink:href="#DejaVuSans-36"/>
       <use x="147.412109" xlink:href="#DejaVuSans-2e"/>
       <use x="179.199219" xlink:href="#DejaVuSans-30"/>
      </g>
     </g>
    </g>
    <g id="text_7">
     <!-- Energy [eV] -->
     <defs>
      <path d="M 54.890625 33.015625 
L 54.890625 0 
L 45.90625 0 
L 45.90625 32.71875 
Q 45.90625 40.484375 42.875 44.328125 
Q 39.84375 48.1875 33.796875 48.1875 
Q 26.515625 48.1875 22.3125 43.546875 
Q 18.109375 38.921875 18.109375 30.90625 
L 18.109375 0 
L 9.078125 0 
L 9.078125 54.6875 
L 18.109375 54.6875 
L 18.109375 46.1875 
Q 21.34375 51.125 25.703125 53.5625 
Q 30.078125 56 35.796875 56 
Q 45.21875 56 50.046875 50.171875 
Q 54.890625 44.34375 54.890625 33.015625 
z
" id="DejaVuSans-6e"/>
      <path d="M 45.40625 27.984375 
Q 45.40625 37.75 41.375 43.109375 
Q 37.359375 48.484375 30.078125 48.484375 
Q 22.859375 48.484375 18.828125 43.109375 
Q 14.796875 37.75 14.796875 27.984375 
Q 14.796875 18.265625 18.828125 12.890625 
Q 22.859375 7.515625 30.078125 7.515625 
Q 37.359375 7.515625 41.375 12.890625 
Q 45.40625 18.265625 45.40625 27.984375 
z
M 54.390625 6.78125 
Q 54.390625 -7.171875 48.1875 -13.984375 
Q 42 -20.796875 29.203125 -20.796875 
Q 24.46875 -20.796875 20.265625 -20.09375 
Q 16.0625 -19.390625 12.109375 -17.921875 
L 12.109375 -9.1875 
Q 16.0625 -11.328125 19.921875 -12.34375 
Q 23.78125 -13.375 27.78125 -13.375 
Q 36.625 -13.375 41.015625 -8.765625 
Q 45.40625 -4.15625 45.40625 5.171875 
L 45.40625 9.625 
Q 42.625 4.78125 38.28125 2.390625 
Q 33.9375 0 27.875 0 
Q 17.828125 0 11.671875 7.65625 
Q 5.515625 15.328125 5.515625 27.984375 
Q 5.515625 40.671875 11.671875 48.328125 
Q 17.828125 56 27.875 56 
Q 33.9375 56 38.28125 53.609375 
Q 42.625 51.21875 45.40625 46.390625 
L 45.40625 54.6875 
L 54.390625 54.6875 
z
" id="DejaVuSans-67"/>
      <path d="M 32.171875 -5.078125 
Q 28.375 -14.84375 24.75 -17.8125 
Q 21.140625 -20.796875 15.09375 -20.796875 
L 7.90625 -20.796875 
L 7.90625 -13.28125 
L 13.1875 -13.28125 
Q 16.890625 -13.28125 18.9375 -11.515625 
Q 21 -9.765625 23.484375 -3.21875 
L 25.09375 0.875 
L 2.984375 54.6875 
L 12.5 54.6875 
L 29.59375 11.921875 
L 46.6875 54.6875 
L 56.203125 54.6875 
z
" id="DejaVuSans-79"/>
      <path d="M 8.59375 75.984375 
L 29.296875 75.984375 
L 29.296875 69 
L 17.578125 69 
L 17.578125 -6.203125 
L 29.296875 -6.203125 
L 29.296875 -13.1875 
L 8.59375 -13.1875 
z
" id="DejaVuSans-5b"/>
      <path d="M 30.421875 75.984375 
L 30.421875 -13.1875 
L 9.71875 -13.1875 
L 9.71875 -6.203125 
L 21.390625 -6.203125 
L 21.390625 69 
L 9.71875 69 
L 9.71875 75.984375 
z
" id="DejaVuSans-5d"/>
     </defs>
     <g transform="translate(417.33885 204.108469)rotate(-90)scale(0.1 -0.1)">
      <use xlink:href="#DejaVuSans-45"/>
      <use x="63.183594" xlink:href="#DejaVuSans-6e"/>
      <use x="126.5625" xlink:href="#DejaVuSans-65"/>
      <use x="188.085938" xlink:href="#DejaVuSans-72"/>
      <use x="229.183594" xlink:href="#DejaVuSans-67"/>
      <use x="292.660156" xlink:href="#DejaVuSans-79"/>
      <use x="351.839844" xlink:href="#DejaVuSans-20"/>
      <use x="383.626953" xlink:href="#DejaVuSans-5b"/>
      <use x="422.640625" xlink:href="#DejaVuSans-65"/>
      <use x="484.164062" xlink:href="#DejaVuSans-56"/>
      <use x="552.572266" xlink:href="#DejaVuSans-5d"/>
     </g>
    </g>
   </g>
   <g id="patch_3">
    <path d="M 361.152 307.584 
L 361.152 306.5445 
L 361.152 42.5115 
L 361.152 41.472 
L 374.4576 41.472 
L 374.4576 42.5115 
L 374.4576 306.5445 
L 374.4576 307.584 
z
" style="fill:none;stroke:#000000;stroke-linejoin:miter;stroke-width:0.8;"/>
   </g>
  </g>
 </g>
 <defs>
  <clipPath id="p6b8878169d">
   <rect height="266.112" width="285.696" x="57.6" y="41.472"/>
  </clipPath>
  <clipPath id="p3777ec625d">
   <rect height="266.112" width="13.3056" x="361.152" y="41.472"/>
  </clipPath>
 </defs>
</svg>
