<?xml version="1.0" encoding="utf-8" standalone="no"?>
<!DOCTYPE svg PUBLIC "-//W3C//DTD SVG 1.1//EN"
  "http://www.w3.org/Graphics/SVG/1.1/DTD/svg11.dtd">
<!-- Created with matplotlib (http://matplotlib.org/) -->
<svg height="345.6pt" version="1.1" viewBox="0 0 460.8 345.6" width="460.8pt" xmlns="http://www.w3.org/2000/svg" xmlns:xlink="http://www.w3.org/1999/xlink">
 <defs>
  <style type="text/css">
*{stroke-linecap:butt;stroke-linejoin:round;}
  </style>
 </defs>
 <g id="figure_1">
  <g id="patch_1">
   <path d="M 0 345.6 
L 460.8 345.6 
L 460.8 0 
L 0 0 
z
" style="fill:#ffffff;"/>
  </g>
  <g id="axes_1">
   <g id="CircleCollection_1">
    <path clip-path="url(#p15fd86156d)" d="M 295.221291 60.435479 
C 296.942332 60.435479 298.593116 59.751702 299.810075 58.534742 
C 301.027035 57.317783 301.710812 55.666999 301.710812 53.945958 
C 301.710812 52.224917 301.027035 50.574134 299.810075 49.357174 
C 298.593116 48.140214 296.942332 47.456437 295.221291 47.456437 
C 293.50025 47.456437 291.849467 48.140214 290.632507 49.357174 
C 289.415547 50.574134 288.73177 52.224917 288.73177 53.945958 
C 288.73177 55.666999 289.415547 57.317783 290.632507 58.534742 
C 291.849467 59.751702 293.50025 60.435479 295.221291 60.435479 
z
" style="fill:#dae319;"/>
    <path clip-path="url(#p15fd86156d)" d="M 310.963182 112.648355 
C 312.697546 112.648355 314.361107 111.959285 315.587487 110.732905 
C 316.813867 109.506525 317.502937 107.842963 317.502937 106.1086 
C 317.502937 104.374236 316.813867 102.710675 315.587487 101.484295 
C 314.361107 100.257915 312.697546 99.568845 310.963182 99.568845 
C 309.228819 99.568845 307.565257 100.257915 306.338877 101.484295 
C 305.112497 102.710675 304.423428 104.374236 304.423428 106.1086 
C 304.423428 107.842963 305.112497 109.506525 306.338877 110.732905 
C 307.565257 111.959285 309.228819 112.648355 310.963182 112.648355 
z
" style="fill:#39568c;"/>
    <path clip-path="url(#p15fd86156d)" d="M 323.372696 84.32284 
C 325.077147 84.32284 326.712018 83.645654 327.917247 82.440425 
C 329.122476 81.235196 329.799662 79.600325 329.799662 77.895874 
C 329.799662 76.191423 329.122476 74.556552 327.917247 73.351323 
C 326.712018 72.146094 325.077147 71.468908 323.372696 71.468908 
C 321.668245 71.468908 320.033374 72.146094 318.828145 73.351323 
C 317.622916 74.556552 316.94573 76.191423 316.94573 77.895874 
C 316.94573 79.600325 317.622916 81.235196 318.828145 82.440425 
C 320.033374 83.645654 321.668245 84.32284 323.372696 84.32284 
z
" style="fill:#f4e61e;"/>
    <path clip-path="url(#p15fd86156d)" d="M 200.959882 297.918528 
C 202.727676 297.918528 204.423304 297.216176 205.673323 295.966157 
C 206.923342 294.716137 207.625694 293.020509 207.625694 291.252715 
C 207.625694 289.484921 206.923342 287.789293 205.673323 286.539274 
C 204.423304 285.289255 202.727676 284.586902 200.959882 284.586902 
C 199.192087 284.586902 197.496459 285.289255 196.24644 286.539274 
C 194.996421 287.789293 194.294069 289.484921 194.294069 291.252715 
C 194.294069 293.020509 194.996421 294.716137 196.24644 295.966157 
C 197.496459 297.216176 199.192087 297.918528 200.959882 297.918528 
z
" style="fill:#5ac864;"/>
    <path clip-path="url(#p15fd86156d)" d="M 71.089282 213.020779 
C 72.873838 213.020779 74.585543 212.311768 75.847415 211.049896 
C 77.109287 209.788025 77.818298 208.076319 77.818298 206.291763 
C 77.818298 204.507208 77.109287 202.795502 75.847415 201.533631 
C 74.585543 200.271759 72.873838 199.562747 71.089282 199.562747 
C 69.304726 199.562747 67.593021 200.271759 66.331149 201.533631 
C 65.069278 202.795502 64.360266 204.507208 64.360266 206.291763 
C 64.360266 208.076319 65.069278 209.788025 66.331149 211.049896 
C 67.593021 212.311768 69.304726 213.020779 71.089282 213.020779 
z
" style="fill:#dfe318;"/>
    <path clip-path="url(#p15fd86156d)" d="M 196.683901 249.312749 
C 198.460286 249.312749 200.164153 248.606984 201.420246 247.350891 
C 202.67634 246.094797 203.382105 244.39093 203.382105 242.614546 
C 203.382105 240.838161 202.67634 239.134294 201.420246 237.8782 
C 200.164153 236.622107 198.460286 235.916342 196.683901 235.916342 
C 194.907517 235.916342 193.203649 236.622107 191.947556 237.8782 
C 190.691463 239.134294 189.985698 240.838161 189.985698 242.614546 
C 189.985698 244.39093 190.691463 246.094797 191.947556 247.350891 
C 193.203649 248.606984 194.907517 249.312749 196.683901 249.312749 
z
" style="fill:#3f4788;"/>
    <path clip-path="url(#p15fd86156d)" d="M 292.049434 190.33148 
C 293.813299 190.33148 295.505158 189.630689 296.752398 188.383448 
C 297.999639 187.136207 298.70043 185.444348 298.70043 183.680483 
C 298.70043 181.916618 297.999639 180.224759 296.752398 178.977519 
C 295.505158 177.730278 293.813299 177.029487 292.049434 177.029487 
C 290.285569 177.029487 288.59371 177.730278 287.346469 178.977519 
C 286.099228 180.224759 285.398437 181.916618 285.398437 183.680483 
C 285.398437 185.444348 286.099228 187.136207 287.346469 188.383448 
C 288.59371 189.630689 290.285569 190.33148 292.049434 190.33148 
z
" style="fill:#27808e;"/>
    <path clip-path="url(#p15fd86156d)" d="M 72.725977 184.467445 
C 74.507569 184.467445 76.216431 183.759611 77.476207 182.499835 
C 78.735983 181.240059 79.443817 179.531197 79.443817 177.749605 
C 79.443817 175.968013 78.735983 174.259151 77.476207 172.999375 
C 76.216431 171.739599 74.507569 171.031765 72.725977 171.031765 
C 70.944385 171.031765 69.235523 171.739599 67.975747 172.999375 
C 66.715971 174.259151 66.008137 175.968013 66.008137 177.749605 
C 66.008137 179.531197 66.715971 181.240059 67.975747 182.499835 
C 69.235523 183.759611 70.944385 184.467445 72.725977 184.467445 
z
" style="fill:#23a983;"/>
    <path clip-path="url(#p15fd86156d)" d="M 329.819594 140.062389 
C 331.558477 140.062389 333.226373 139.371524 334.455949 138.141948 
C 335.685524 136.912373 336.37639 135.244476 336.37639 133.505594 
C 336.37639 131.766711 335.685524 130.098814 334.455949 128.869239 
C 333.226373 127.639663 331.558477 126.948798 329.819594 126.948798 
C 328.080711 126.948798 326.412815 127.639663 325.183239 128.869239 
C 323.953664 130.098814 323.262798 131.766711 323.262798 133.505594 
C 323.262798 135.244476 323.953664 136.912373 325.183239 138.141948 
C 326.412815 139.371524 328.080711 140.062389 329.819594 140.062389 
z
" style="fill:#23a983;"/>
    <path clip-path="url(#p15fd86156d)" d="M 120.822366 222.647618 
C 122.603728 222.647618 124.312369 221.939876 125.571982 220.680263 
C 126.831595 219.42065 127.539337 217.712009 127.539337 215.930647 
C 127.539337 214.149286 126.831595 212.440645 125.571982 211.181032 
C 124.312369 209.921419 122.603728 209.213677 120.822366 209.213677 
C 119.041005 209.213677 117.332363 209.921419 116.072751 211.181032 
C 114.813138 212.440645 114.105395 214.149286 114.105395 215.930647 
C 114.105395 217.712009 114.813138 219.42065 116.072751 220.680263 
C 117.332363 221.939876 119.041005 222.647618 120.822366 222.647618 
z
" style="fill:#482979;"/>
    <path clip-path="url(#p15fd86156d)" d="M 122.727096 279.759166 
C 124.502202 279.759166 126.204843 279.05391 127.460032 277.79872 
C 128.715221 276.543531 129.420478 274.840891 129.420478 273.065785 
C 129.420478 271.290679 128.715221 269.588039 127.460032 268.33285 
C 126.204843 267.07766 124.502202 266.372403 122.727096 266.372403 
C 120.951991 266.372403 119.24935 267.07766 117.994161 268.33285 
C 116.738972 269.588039 116.033715 271.290679 116.033715 273.065785 
C 116.033715 274.840891 116.738972 276.543531 117.994161 277.79872 
C 119.24935 279.05391 120.951991 279.759166 122.727096 279.759166 
z
" style="fill:#95d840;"/>
    <path clip-path="url(#p15fd86156d)" d="M 141.313074 251.938741 
C 143.092252 251.938741 144.798799 251.231866 146.056868 249.973797 
C 147.314937 248.715728 148.021812 247.009181 148.021812 245.230003 
C 148.021812 243.450825 147.314937 241.744278 146.056868 240.486209 
C 144.798799 239.22814 143.092252 238.521265 141.313074 238.521265 
C 139.533895 238.521265 137.827348 239.22814 136.569279 240.486209 
C 135.31121 241.744278 134.604335 243.450825 134.604335 245.230003 
C 134.604335 247.009181 135.31121 248.715728 136.569279 249.973797 
C 137.827348 251.231866 139.533895 251.938741 141.313074 251.938741 
z
" style="fill:#404588;"/>
    <path clip-path="url(#p15fd86156d)" d="M 254.087527 206.181819 
C 255.858898 206.181819 257.557956 205.478046 258.810503 204.225498 
C 260.063051 202.97295 260.766824 201.273892 260.766824 199.502522 
C 260.766824 197.731152 260.063051 196.032094 258.810503 194.779546 
C 257.557956 193.526998 255.858898 192.823225 254.087527 192.823225 
C 252.316157 192.823225 250.617099 193.526998 249.364551 194.779546 
C 248.112004 196.032094 247.408231 197.731152 247.408231 199.502522 
C 247.408231 201.273892 248.112004 202.97295 249.364551 204.225498 
C 250.617099 205.478046 252.316157 206.181819 254.087527 206.181819 
z
" style="fill:#22a785;"/>
    <path clip-path="url(#p15fd86156d)" d="M 207.755172 218.4264 
C 209.530192 218.4264 211.232751 217.721177 212.48788 216.466049 
C 213.743008 215.21092 214.448231 213.508361 214.448231 211.733341 
C 214.448231 209.95832 213.743008 208.255761 212.48788 207.000632 
C 211.232751 205.745504 209.530192 205.040281 207.755172 205.040281 
C 205.980151 205.040281 204.277592 205.745504 203.022463 207.000632 
C 201.767335 208.255761 201.062112 209.95832 201.062112 211.733341 
C 201.062112 213.508361 201.767335 215.21092 203.022463 216.466049 
C 204.277592 217.721177 205.980151 218.4264 207.755172 218.4264 
z
" style="fill:#481a6c;"/>
    <path clip-path="url(#p15fd86156d)" d="M 189.500692 149.864135 
C 191.263553 149.864135 192.954449 149.163743 194.20098 147.917212 
C 195.447511 146.670681 196.147903 144.979785 196.147903 143.216924 
C 196.147903 141.454063 195.447511 139.763167 194.20098 138.516636 
C 192.954449 137.270105 191.263553 136.569713 189.500692 136.569713 
C 187.737831 136.569713 186.046935 137.270105 184.800404 138.516636 
C 183.553873 139.763167 182.853481 141.454063 182.853481 143.216924 
C 182.853481 144.979785 183.553873 146.670681 184.800404 147.917212 
C 186.046935 149.163743 187.737831 149.864135 189.500692 149.864135 
z
" style="fill:#26ad81;"/>
    <path clip-path="url(#p15fd86156d)" d="M 152.509365 171.081945 
C 154.283165 171.081945 155.984554 170.377206 157.238821 169.12294 
C 158.493087 167.868674 159.197825 166.167285 159.197825 164.393484 
C 159.197825 162.619684 158.493087 160.918295 157.238821 159.664029 
C 155.984554 158.409762 154.283165 157.705024 152.509365 157.705024 
C 150.735564 157.705024 149.034176 158.409762 147.779909 159.664029 
C 146.525643 160.918295 145.820905 162.619684 145.820905 164.393484 
C 145.820905 166.167285 146.525643 167.868674 147.779909 169.12294 
C 149.034176 170.377206 150.735564 171.081945 152.509365 171.081945 
z
" style="fill:#440154;"/>
    <path clip-path="url(#p15fd86156d)" d="M 101.098917 161.800464 
C 102.877236 161.800464 104.582958 161.09393 105.840419 159.836469 
C 107.09788 158.579009 107.804413 156.873286 107.804413 155.094968 
C 107.804413 153.31665 107.09788 151.610928 105.840419 150.353467 
C 104.582958 149.096006 102.877236 148.389473 101.098917 148.389473 
C 99.320599 148.389473 97.614877 149.096006 96.357416 150.353467 
C 95.099955 151.610928 94.393422 153.31665 94.393422 155.094968 
C 94.393422 156.873286 95.099955 158.579009 96.357416 159.836469 
C 97.614877 161.09393 99.320599 161.800464 101.098917 161.800464 
z
" style="fill:#f8e621;"/>
    <path clip-path="url(#p15fd86156d)" d="M 161.472942 202.051385 
C 163.25035 202.051385 164.9552 201.345213 166.212017 200.088395 
C 167.468835 198.831578 168.175007 197.126728 168.175007 195.34932 
C 168.175007 193.571911 167.468835 191.867061 166.212017 190.610244 
C 164.9552 189.353426 163.25035 188.647254 161.472942 188.647254 
C 159.695533 188.647254 157.990683 189.353426 156.733866 190.610244 
C 155.477048 191.867061 154.770876 193.571911 154.770876 195.34932 
C 154.770876 197.126728 155.477048 198.831578 156.733866 200.088395 
C 157.990683 201.345213 159.695533 202.051385 161.472942 202.051385 
z
" style="fill:#355e8d;"/>
    <path clip-path="url(#p15fd86156d)" d="M 254.163382 107.882261 
C 255.904475 107.882261 257.574492 107.190518 258.805631 105.959379 
C 260.03677 104.72824 260.728513 103.058223 260.728513 101.31713 
C 260.728513 99.576037 260.03677 97.90602 258.805631 96.674881 
C 257.574492 95.443742 255.904475 94.751998 254.163382 94.751998 
C 252.422288 94.751998 250.752272 95.443742 249.521133 96.674881 
C 248.289994 97.90602 247.59825 99.576037 247.59825 101.31713 
C 247.59825 103.058223 248.289994 104.72824 249.521133 105.959379 
C 250.752272 107.190518 252.422288 107.882261 254.163382 107.882261 
z
" style="fill:#39568c;"/>
    <path clip-path="url(#p15fd86156d)" d="M 152.595244 301.813832 
C 154.376624 301.813832 156.085283 301.106082 157.344909 299.846456 
C 158.604535 298.58683 159.312285 296.878171 159.312285 295.096791 
C 159.312285 293.315411 158.604535 291.606751 157.344909 290.347125 
C 156.085283 289.087499 154.376624 288.379749 152.595244 288.379749 
C 150.813864 288.379749 149.105205 289.087499 147.845579 290.347125 
C 146.585953 291.606751 145.878203 293.315411 145.878203 295.096791 
C 145.878203 296.878171 146.585953 298.58683 147.845579 299.846456 
C 149.105205 301.106082 150.813864 301.813832 152.595244 301.813832 
z
" style="fill:#26ad81;"/>
    <path clip-path="url(#p15fd86156d)" d="M 218.236393 129.06272 
C 219.986382 129.06272 221.664931 128.367442 222.90236 127.130013 
C 224.139789 125.892584 224.835067 124.214035 224.835067 122.464046 
C 224.835067 120.714057 224.139789 119.035507 222.90236 117.798078 
C 221.664931 116.560649 219.986382 115.865371 218.236393 115.865371 
C 216.486404 115.865371 214.807855 116.560649 213.570426 117.798078 
C 212.332996 119.035507 211.637719 120.714057 211.637719 122.464046 
C 211.637719 124.214035 212.332996 125.892584 213.570426 127.130013 
C 214.807855 128.367442 216.486404 129.06272 218.236393 129.06272 
z
" style="fill:#20928c;"/>
    <path clip-path="url(#p15fd86156d)" d="M 317.756704 166.210595 
C 319.509429 166.210595 321.190602 165.51423 322.429966 164.274866 
C 323.669329 163.035503 324.365694 161.354329 324.365694 159.601604 
C 324.365694 157.84888 323.669329 156.167706 322.429966 154.928342 
C 321.190602 153.688979 319.509429 152.992614 317.756704 152.992614 
C 316.003979 152.992614 314.322806 153.688979 313.083442 154.928342 
C 311.844079 156.167706 311.147714 157.84888 311.147714 159.601604 
C 311.147714 161.354329 311.844079 163.035503 313.083442 164.274866 
C 314.322806 165.51423 316.003979 166.210595 317.756704 166.210595 
z
" style="fill:#24878e;"/>
    <path clip-path="url(#p15fd86156d)" d="M 226.404236 274.153459 
C 228.18088 274.153459 229.884996 273.447591 231.141273 272.191314 
C 232.397549 270.935037 233.103417 269.230921 233.103417 267.454278 
C 233.103417 265.677634 232.397549 263.973518 231.141273 262.717242 
C 229.884996 261.460965 228.18088 260.755097 226.404236 260.755097 
C 224.627593 260.755097 222.923477 261.460965 221.6672 262.717242 
C 220.410924 263.973518 219.705056 265.677634 219.705056 267.454278 
C 219.705056 269.230921 220.410924 270.935037 221.6672 272.191314 
C 222.923477 273.447591 224.627593 274.153459 226.404236 274.153459 
z
" style="fill:#cae11f;"/>
    <path clip-path="url(#p15fd86156d)" d="M 255.480845 78.748822 
C 257.193681 78.748822 258.836594 78.068305 260.047753 76.857147 
C 261.258911 75.645989 261.939428 74.003075 261.939428 72.290239 
C 261.939428 70.577402 261.258911 68.934489 260.047753 67.723331 
C 258.836594 66.512173 257.193681 65.831656 255.480845 65.831656 
C 253.768008 65.831656 252.125095 66.512173 250.913937 67.723331 
C 249.702778 68.934489 249.022261 70.577402 249.022261 72.290239 
C 249.022261 74.003075 249.702778 75.645989 250.913937 76.857147 
C 252.125095 78.068305 253.768008 78.748822 255.480845 78.748822 
z
" style="fill:#fde725;"/>
   </g>
   <g id="text_1">
    <!-- Structure #846, $E_N$=-180.49eV, ΔE=-0.00eV -->
    <defs>
     <path d="M 53.515625 70.515625 
L 53.515625 60.890625 
Q 47.90625 63.578125 42.921875 64.890625 
Q 37.9375 66.21875 33.296875 66.21875 
Q 25.25 66.21875 20.875 63.09375 
Q 16.5 59.96875 16.5 54.203125 
Q 16.5 49.359375 19.40625 46.890625 
Q 22.3125 44.4375 30.421875 42.921875 
L 36.375 41.703125 
Q 47.40625 39.59375 52.65625 34.296875 
Q 57.90625 29 57.90625 20.125 
Q 57.90625 9.515625 50.796875 4.046875 
Q 43.703125 -1.421875 29.984375 -1.421875 
Q 24.8125 -1.421875 18.96875 -0.25 
Q 13.140625 0.921875 6.890625 3.21875 
L 6.890625 13.375 
Q 12.890625 10.015625 18.65625 8.296875 
Q 24.421875 6.59375 29.984375 6.59375 
Q 38.421875 6.59375 43.015625 9.90625 
Q 47.609375 13.234375 47.609375 19.390625 
Q 47.609375 24.75 44.3125 27.78125 
Q 41.015625 30.8125 33.5 32.328125 
L 27.484375 33.5 
Q 16.453125 35.6875 11.515625 40.375 
Q 6.59375 45.0625 6.59375 53.421875 
Q 6.59375 63.09375 13.40625 68.65625 
Q 20.21875 74.21875 32.171875 74.21875 
Q 37.3125 74.21875 42.625 73.28125 
Q 47.953125 72.359375 53.515625 70.515625 
z
" id="DejaVuSans-53"/>
     <path d="M 18.3125 70.21875 
L 18.3125 54.6875 
L 36.8125 54.6875 
L 36.8125 47.703125 
L 18.3125 47.703125 
L 18.3125 18.015625 
Q 18.3125 11.328125 20.140625 9.421875 
Q 21.96875 7.515625 27.59375 7.515625 
L 36.8125 7.515625 
L 36.8125 0 
L 27.59375 0 
Q 17.1875 0 13.234375 3.875 
Q 9.28125 7.765625 9.28125 18.015625 
L 9.28125 47.703125 
L 2.6875 47.703125 
L 2.6875 54.6875 
L 9.28125 54.6875 
L 9.28125 70.21875 
z
" id="DejaVuSans-74"/>
     <path d="M 41.109375 46.296875 
Q 39.59375 47.171875 37.8125 47.578125 
Q 36.03125 48 33.890625 48 
Q 26.265625 48 22.1875 43.046875 
Q 18.109375 38.09375 18.109375 28.8125 
L 18.109375 0 
L 9.078125 0 
L 9.078125 54.6875 
L 18.109375 54.6875 
L 18.109375 46.1875 
Q 20.953125 51.171875 25.484375 53.578125 
Q 30.03125 56 36.53125 56 
Q 37.453125 56 38.578125 55.875 
Q 39.703125 55.765625 41.0625 55.515625 
z
" id="DejaVuSans-72"/>
     <path d="M 8.5 21.578125 
L 8.5 54.6875 
L 17.484375 54.6875 
L 17.484375 21.921875 
Q 17.484375 14.15625 20.5 10.265625 
Q 23.53125 6.390625 29.59375 6.390625 
Q 36.859375 6.390625 41.078125 11.03125 
Q 45.3125 15.671875 45.3125 23.6875 
L 45.3125 54.6875 
L 54.296875 54.6875 
L 54.296875 0 
L 45.3125 0 
L 45.3125 8.40625 
Q 42.046875 3.421875 37.71875 1 
Q 33.40625 -1.421875 27.6875 -1.421875 
Q 18.265625 -1.421875 13.375 4.4375 
Q 8.5 10.296875 8.5 21.578125 
z
M 31.109375 56 
z
" id="DejaVuSans-75"/>
     <path d="M 48.78125 52.59375 
L 48.78125 44.1875 
Q 44.96875 46.296875 41.140625 47.34375 
Q 37.3125 48.390625 33.40625 48.390625 
Q 24.65625 48.390625 19.8125 42.84375 
Q 14.984375 37.3125 14.984375 27.296875 
Q 14.984375 17.28125 19.8125 11.734375 
Q 24.65625 6.203125 33.40625 6.203125 
Q 37.3125 6.203125 41.140625 7.25 
Q 44.96875 8.296875 48.78125 10.40625 
L 48.78125 2.09375 
Q 45.015625 0.34375 40.984375 -0.53125 
Q 36.96875 -1.421875 32.421875 -1.421875 
Q 20.0625 -1.421875 12.78125 6.34375 
Q 5.515625 14.109375 5.515625 27.296875 
Q 5.515625 40.671875 12.859375 48.328125 
Q 20.21875 56 33.015625 56 
Q 37.15625 56 41.109375 55.140625 
Q 45.0625 54.296875 48.78125 52.59375 
z
" id="DejaVuSans-63"/>
     <path d="M 56.203125 29.59375 
L 56.203125 25.203125 
L 14.890625 25.203125 
Q 15.484375 15.921875 20.484375 11.0625 
Q 25.484375 6.203125 34.421875 6.203125 
Q 39.59375 6.203125 44.453125 7.46875 
Q 49.3125 8.734375 54.109375 11.28125 
L 54.109375 2.78125 
Q 49.265625 0.734375 44.1875 -0.34375 
Q 39.109375 -1.421875 33.890625 -1.421875 
Q 20.796875 -1.421875 13.15625 6.1875 
Q 5.515625 13.8125 5.515625 26.8125 
Q 5.515625 40.234375 12.765625 48.109375 
Q 20.015625 56 32.328125 56 
Q 43.359375 56 49.78125 48.890625 
Q 56.203125 41.796875 56.203125 29.59375 
z
M 47.21875 32.234375 
Q 47.125 39.59375 43.09375 43.984375 
Q 39.0625 48.390625 32.421875 48.390625 
Q 24.90625 48.390625 20.390625 44.140625 
Q 15.875 39.890625 15.1875 32.171875 
z
" id="DejaVuSans-65"/>
     <path id="DejaVuSans-20"/>
     <path d="M 51.125 44 
L 36.921875 44 
L 32.8125 27.6875 
L 47.125 27.6875 
z
M 43.796875 71.78125 
L 38.71875 51.515625 
L 52.984375 51.515625 
L 58.109375 71.78125 
L 65.921875 71.78125 
L 60.890625 51.515625 
L 76.125 51.515625 
L 76.125 44 
L 58.984375 44 
L 54.984375 27.6875 
L 70.515625 27.6875 
L 70.515625 20.21875 
L 53.078125 20.21875 
L 48 0 
L 40.1875 0 
L 45.21875 20.21875 
L 30.90625 20.21875 
L 25.875 0 
L 18.015625 0 
L 23.09375 20.21875 
L 7.71875 20.21875 
L 7.71875 27.6875 
L 24.90625 27.6875 
L 29 44 
L 13.28125 44 
L 13.28125 51.515625 
L 30.90625 51.515625 
L 35.890625 71.78125 
z
" id="DejaVuSans-23"/>
     <path d="M 31.78125 34.625 
Q 24.75 34.625 20.71875 30.859375 
Q 16.703125 27.09375 16.703125 20.515625 
Q 16.703125 13.921875 20.71875 10.15625 
Q 24.75 6.390625 31.78125 6.390625 
Q 38.8125 6.390625 42.859375 10.171875 
Q 46.921875 13.96875 46.921875 20.515625 
Q 46.921875 27.09375 42.890625 30.859375 
Q 38.875 34.625 31.78125 34.625 
z
M 21.921875 38.8125 
Q 15.578125 40.375 12.03125 44.71875 
Q 8.5 49.078125 8.5 55.328125 
Q 8.5 64.0625 14.71875 69.140625 
Q 20.953125 74.21875 31.78125 74.21875 
Q 42.671875 74.21875 48.875 69.140625 
Q 55.078125 64.0625 55.078125 55.328125 
Q 55.078125 49.078125 51.53125 44.71875 
Q 48 40.375 41.703125 38.8125 
Q 48.828125 37.15625 52.796875 32.3125 
Q 56.78125 27.484375 56.78125 20.515625 
Q 56.78125 9.90625 50.3125 4.234375 
Q 43.84375 -1.421875 31.78125 -1.421875 
Q 19.734375 -1.421875 13.25 4.234375 
Q 6.78125 9.90625 6.78125 20.515625 
Q 6.78125 27.484375 10.78125 32.3125 
Q 14.796875 37.15625 21.921875 38.8125 
z
M 18.3125 54.390625 
Q 18.3125 48.734375 21.84375 45.5625 
Q 25.390625 42.390625 31.78125 42.390625 
Q 38.140625 42.390625 41.71875 45.5625 
Q 45.3125 48.734375 45.3125 54.390625 
Q 45.3125 60.0625 41.71875 63.234375 
Q 38.140625 66.40625 31.78125 66.40625 
Q 25.390625 66.40625 21.84375 63.234375 
Q 18.3125 60.0625 18.3125 54.390625 
z
" id="DejaVuSans-38"/>
     <path d="M 37.796875 64.3125 
L 12.890625 25.390625 
L 37.796875 25.390625 
z
M 35.203125 72.90625 
L 47.609375 72.90625 
L 47.609375 25.390625 
L 58.015625 25.390625 
L 58.015625 17.1875 
L 47.609375 17.1875 
L 47.609375 0 
L 37.796875 0 
L 37.796875 17.1875 
L 4.890625 17.1875 
L 4.890625 26.703125 
z
" id="DejaVuSans-34"/>
     <path d="M 33.015625 40.375 
Q 26.375 40.375 22.484375 35.828125 
Q 18.609375 31.296875 18.609375 23.390625 
Q 18.609375 15.53125 22.484375 10.953125 
Q 26.375 6.390625 33.015625 6.390625 
Q 39.65625 6.390625 43.53125 10.953125 
Q 47.40625 15.53125 47.40625 23.390625 
Q 47.40625 31.296875 43.53125 35.828125 
Q 39.65625 40.375 33.015625 40.375 
z
M 52.59375 71.296875 
L 52.59375 62.3125 
Q 48.875 64.0625 45.09375 64.984375 
Q 41.3125 65.921875 37.59375 65.921875 
Q 27.828125 65.921875 22.671875 59.328125 
Q 17.53125 52.734375 16.796875 39.40625 
Q 19.671875 43.65625 24.015625 45.921875 
Q 28.375 48.1875 33.59375 48.1875 
Q 44.578125 48.1875 50.953125 41.515625 
Q 57.328125 34.859375 57.328125 23.390625 
Q 57.328125 12.15625 50.6875 5.359375 
Q 44.046875 -1.421875 33.015625 -1.421875 
Q 20.359375 -1.421875 13.671875 8.265625 
Q 6.984375 17.96875 6.984375 36.375 
Q 6.984375 53.65625 15.1875 63.9375 
Q 23.390625 74.21875 37.203125 74.21875 
Q 40.921875 74.21875 44.703125 73.484375 
Q 48.484375 72.75 52.59375 71.296875 
z
" id="DejaVuSans-36"/>
     <path d="M 11.71875 12.40625 
L 22.015625 12.40625 
L 22.015625 4 
L 14.015625 -11.625 
L 7.71875 -11.625 
L 11.71875 4 
z
" id="DejaVuSans-2c"/>
     <path d="M 16.890625 72.90625 
L 62.984375 72.90625 
L 61.375 64.59375 
L 25.09375 64.59375 
L 20.90625 43.015625 
L 55.71875 43.015625 
L 54.109375 34.71875 
L 19.28125 34.71875 
L 14.203125 8.296875 
L 51.3125 8.296875 
L 49.703125 0 
L 2.6875 0 
z
" id="DejaVuSans-Oblique-45"/>
     <path d="M 16.890625 72.90625 
L 30.171875 72.90625 
L 50.296875 10.40625 
L 62.5 72.90625 
L 72.125 72.90625 
L 57.90625 0 
L 44.578125 0 
L 24.515625 62.890625 
L 12.3125 0 
L 2.6875 0 
z
" id="DejaVuSans-Oblique-4e"/>
     <path d="M 10.59375 45.40625 
L 73.1875 45.40625 
L 73.1875 37.203125 
L 10.59375 37.203125 
z
M 10.59375 25.484375 
L 73.1875 25.484375 
L 73.1875 17.1875 
L 10.59375 17.1875 
z
" id="DejaVuSans-3d"/>
     <path d="M 4.890625 31.390625 
L 31.203125 31.390625 
L 31.203125 23.390625 
L 4.890625 23.390625 
z
" id="DejaVuSans-2d"/>
     <path d="M 12.40625 8.296875 
L 28.515625 8.296875 
L 28.515625 63.921875 
L 10.984375 60.40625 
L 10.984375 69.390625 
L 28.421875 72.90625 
L 38.28125 72.90625 
L 38.28125 8.296875 
L 54.390625 8.296875 
L 54.390625 0 
L 12.40625 0 
z
" id="DejaVuSans-31"/>
     <path d="M 31.78125 66.40625 
Q 24.171875 66.40625 20.328125 58.90625 
Q 16.5 51.421875 16.5 36.375 
Q 16.5 21.390625 20.328125 13.890625 
Q 24.171875 6.390625 31.78125 6.390625 
Q 39.453125 6.390625 43.28125 13.890625 
Q 47.125 21.390625 47.125 36.375 
Q 47.125 51.421875 43.28125 58.90625 
Q 39.453125 66.40625 31.78125 66.40625 
z
M 31.78125 74.21875 
Q 44.046875 74.21875 50.515625 64.515625 
Q 56.984375 54.828125 56.984375 36.375 
Q 56.984375 17.96875 50.515625 8.265625 
Q 44.046875 -1.421875 31.78125 -1.421875 
Q 19.53125 -1.421875 13.0625 8.265625 
Q 6.59375 17.96875 6.59375 36.375 
Q 6.59375 54.828125 13.0625 64.515625 
Q 19.53125 74.21875 31.78125 74.21875 
z
" id="DejaVuSans-30"/>
     <path d="M 10.6875 12.40625 
L 21 12.40625 
L 21 0 
L 10.6875 0 
z
" id="DejaVuSans-2e"/>
     <path d="M 10.984375 1.515625 
L 10.984375 10.5 
Q 14.703125 8.734375 18.5 7.8125 
Q 22.3125 6.890625 25.984375 6.890625 
Q 35.75 6.890625 40.890625 13.453125 
Q 46.046875 20.015625 46.78125 33.40625 
Q 43.953125 29.203125 39.59375 26.953125 
Q 35.25 24.703125 29.984375 24.703125 
Q 19.046875 24.703125 12.671875 31.3125 
Q 6.296875 37.9375 6.296875 49.421875 
Q 6.296875 60.640625 12.9375 67.421875 
Q 19.578125 74.21875 30.609375 74.21875 
Q 43.265625 74.21875 49.921875 64.515625 
Q 56.59375 54.828125 56.59375 36.375 
Q 56.59375 19.140625 48.40625 8.859375 
Q 40.234375 -1.421875 26.421875 -1.421875 
Q 22.703125 -1.421875 18.890625 -0.6875 
Q 15.09375 0.046875 10.984375 1.515625 
z
M 30.609375 32.421875 
Q 37.25 32.421875 41.125 36.953125 
Q 45.015625 41.5 45.015625 49.421875 
Q 45.015625 57.28125 41.125 61.84375 
Q 37.25 66.40625 30.609375 66.40625 
Q 23.96875 66.40625 20.09375 61.84375 
Q 16.21875 57.28125 16.21875 49.421875 
Q 16.21875 41.5 20.09375 36.953125 
Q 23.96875 32.421875 30.609375 32.421875 
z
" id="DejaVuSans-39"/>
     <path d="M 28.609375 0 
L 0.78125 72.90625 
L 11.078125 72.90625 
L 34.1875 11.53125 
L 57.328125 72.90625 
L 67.578125 72.90625 
L 39.796875 0 
z
" id="DejaVuSans-56"/>
     <path d="M 34.1875 63.1875 
L 14.15625 8.203125 
L 54.25 8.203125 
z
M 0.78125 0 
L 28.609375 72.90625 
L 39.796875 72.90625 
L 67.578125 0 
z
" id="DejaVuSans-394"/>
     <path d="M 9.8125 72.90625 
L 55.90625 72.90625 
L 55.90625 64.59375 
L 19.671875 64.59375 
L 19.671875 43.015625 
L 54.390625 43.015625 
L 54.390625 34.71875 
L 19.671875 34.71875 
L 19.671875 8.296875 
L 56.78125 8.296875 
L 56.78125 0 
L 9.8125 0 
z
" id="DejaVuSans-45"/>
    </defs>
    <g transform="translate(67.008 35.472)scale(0.12 -0.12)">
     <use transform="translate(0 0.78125)" xlink:href="#DejaVuSans-53"/>
     <use transform="translate(63.476562 0.78125)" xlink:href="#DejaVuSans-74"/>
     <use transform="translate(102.685547 0.78125)" xlink:href="#DejaVuSans-72"/>
     <use transform="translate(143.798828 0.78125)" xlink:href="#DejaVuSans-75"/>
     <use transform="translate(207.177734 0.78125)" xlink:href="#DejaVuSans-63"/>
     <use transform="translate(262.158203 0.78125)" xlink:href="#DejaVuSans-74"/>
     <use transform="translate(301.367188 0.78125)" xlink:href="#DejaVuSans-75"/>
     <use transform="translate(364.746094 0.78125)" xlink:href="#DejaVuSans-72"/>
     <use transform="translate(405.859375 0.78125)" xlink:href="#DejaVuSans-65"/>
     <use transform="translate(467.382812 0.78125)" xlink:href="#DejaVuSans-20"/>
     <use transform="translate(499.169922 0.78125)" xlink:href="#DejaVuSans-23"/>
     <use transform="translate(582.958984 0.78125)" xlink:href="#DejaVuSans-38"/>
     <use transform="translate(646.582031 0.78125)" xlink:href="#DejaVuSans-34"/>
     <use transform="translate(710.205078 0.78125)" xlink:href="#DejaVuSans-36"/>
     <use transform="translate(773.828125 0.78125)" xlink:href="#DejaVuSans-2c"/>
     <use transform="translate(805.615234 0.78125)" xlink:href="#DejaVuSans-20"/>
     <use transform="translate(837.402344 0.78125)" xlink:href="#DejaVuSans-Oblique-45"/>
     <use transform="translate(900.585938 -15.625)scale(0.7)" xlink:href="#DejaVuSans-Oblique-4e"/>
     <use transform="translate(955.683594 0.78125)" xlink:href="#DejaVuSans-3d"/>
     <use transform="translate(1039.472656 0.78125)" xlink:href="#DejaVuSans-2d"/>
     <use transform="translate(1075.556641 0.78125)" xlink:href="#DejaVuSans-31"/>
     <use transform="translate(1139.179688 0.78125)" xlink:href="#DejaVuSans-38"/>
     <use transform="translate(1202.802734 0.78125)" xlink:href="#DejaVuSans-30"/>
     <use transform="translate(1266.425781 0.78125)" xlink:href="#DejaVuSans-2e"/>
     <use transform="translate(1298.212891 0.78125)" xlink:href="#DejaVuSans-34"/>
     <use transform="translate(1361.835938 0.78125)" xlink:href="#DejaVuSans-39"/>
     <use transform="translate(1425.458984 0.78125)" xlink:href="#DejaVuSans-65"/>
     <use transform="translate(1486.982422 0.78125)" xlink:href="#DejaVuSans-56"/>
     <use transform="translate(1555.390625 0.78125)" xlink:href="#DejaVuSans-2c"/>
     <use transform="translate(1587.177734 0.78125)" xlink:href="#DejaVuSans-20"/>
     <use transform="translate(1618.964844 0.78125)" xlink:href="#DejaVuSans-394"/>
     <use transform="translate(1687.373047 0.78125)" xlink:href="#DejaVuSans-45"/>
     <use transform="translate(1750.556641 0.78125)" xlink:href="#DejaVuSans-3d"/>
     <use transform="translate(1834.345703 0.78125)" xlink:href="#DejaVuSans-2d"/>
     <use transform="translate(1870.429688 0.78125)" xlink:href="#DejaVuSans-30"/>
     <use transform="translate(1934.052734 0.78125)" xlink:href="#DejaVuSans-2e"/>
     <use transform="translate(1965.839844 0.78125)" xlink:href="#DejaVuSans-30"/>
     <use transform="translate(2029.462891 0.78125)" xlink:href="#DejaVuSans-30"/>
     <use transform="translate(2093.085938 0.78125)" xlink:href="#DejaVuSans-65"/>
     <use transform="translate(2154.609375 0.78125)" xlink:href="#DejaVuSans-56"/>
    </g>
   </g>
  </g>
  <g id="axes_2">
   <g id="patch_2">
    <path clip-path="url(#pf4ae792437)" d="M 361.152 307.584 
L 361.152 306.5445 
L 361.152 42.5115 
L 361.152 41.472 
L 374.4576 41.472 
L 374.4576 42.5115 
L 374.4576 306.5445 
L 374.4576 307.584 
z
" style="fill:#ffffff;stroke:#ffffff;stroke-linejoin:miter;stroke-width:0.01;"/>
   </g>
   <image height="265.68" id="image028f6b753b" transform="scale(1 -1)translate(0 -265.68)" width="12.96" x="361.44" xlink:href="data:image/png;base64,
iVBORw0KGgoAAAANSUhEUgAAABIAAAFxCAYAAAB+2fgXAAAABHNCSVQICAgIfAhkiAAAAeVJREFUeJztncmNw0AQA2ckheYQNv9QLIfQ8ygsCgQ7AEI8+jAs2Puz/94F1LP2ReCsZ18bAWIeZ5XaGRBE7VnbptG+KI101FYyNSiQG2oRITXKNaX9uclOdi2XWjftVE32CZCO2ou5Bj1TcCBr/1zB9ge7Fq0Rg2NM9pvbtG+ua1QgsRYhDy0ISEiNc40BEibbSI0Coj5CBGtkpFbXJiAjNZlrwhuSOv2M1DjXbEdEciBt1JSDDQKKpmZr2rr2j0DBGpXaWEJq3bQzEPIS26r9J+Wzv9Tm8o3aajRXqc3VUXsApKNWjeZq0x4ABVNbm7lrszVigDqP5vIl2+eaT2yfRkL7g+dRcNPqjohkjaCvRVBq0H2U3LQrOJCx9kdTg4B8oxZzzTdqdYHEngjUCAPyUctN9sVRq2sTECW2UKNLd2jVtRmo1A6AhMmWaSRcR8nUdIHUuVb75zJS218EyEitro1At69pIdeSk30Lkw0FktNImGyZRhy1O5galmxd03LUsHWk06jUZiCq+5Wb1kZNN4+wJxJuWt8RAW5am2sYNZ9rYCBzZ3buPKJ2P5Yj4Toy3keyIyJbIxs1rml1byCA84gpch5RQNB7Q0qNMGq2Hy4BXdNR41yz/cEEJfZzUz96r9PoB0okjeQ8y9TkAAAAAElFTkSuQmCC" y="-41.76"/>
   <g id="matplotlib.axis_1"/>
   <g id="matplotlib.axis_2">
    <g id="ytick_1">
     <g id="line2d_1">
      <defs>
       <path d="M 0 0 
L 3.5 0 
" id="me8f6fa523e" style="stroke:#000000;stroke-width:0.8;"/>
      </defs>
      <g>
       <use style="stroke:#000000;stroke-width:0.8;" x="374.4576" xlink:href="#me8f6fa523e" y="260.974893"/>
      </g>
     </g>
     <g id="text_2">
      <!-- −8.5 -->
      <defs>
       <path d="M 10.59375 35.5 
L 73.1875 35.5 
L 73.1875 27.203125 
L 10.59375 27.203125 
z
" id="DejaVuSans-2212"/>
       <path d="M 10.796875 72.90625 
L 49.515625 72.90625 
L 49.515625 64.59375 
L 19.828125 64.59375 
L 19.828125 46.734375 
Q 21.96875 47.46875 24.109375 47.828125 
Q 26.265625 48.1875 28.421875 48.1875 
Q 40.625 48.1875 47.75 41.5 
Q 54.890625 34.8125 54.890625 23.390625 
Q 54.890625 11.625 47.5625 5.09375 
Q 40.234375 -1.421875 26.90625 -1.421875 
Q 22.3125 -1.421875 17.546875 -0.640625 
Q 12.796875 0.140625 7.71875 1.703125 
L 7.71875 11.625 
Q 12.109375 9.234375 16.796875 8.0625 
Q 21.484375 6.890625 26.703125 6.890625 
Q 35.15625 6.890625 40.078125 11.328125 
Q 45.015625 15.765625 45.015625 23.390625 
Q 45.015625 31 40.078125 35.4375 
Q 35.15625 39.890625 26.703125 39.890625 
Q 22.75 39.890625 18.8125 39.015625 
Q 14.890625 38.140625 10.796875 36.28125 
z
" id="DejaVuSans-35"/>
      </defs>
      <g transform="translate(381.4576 264.774112)scale(0.1 -0.1)">
       <use xlink:href="#DejaVuSans-2212"/>
       <use x="83.789062" xlink:href="#DejaVuSans-38"/>
       <use x="147.412109" xlink:href="#DejaVuSans-2e"/>
       <use x="179.199219" xlink:href="#DejaVuSans-35"/>
      </g>
     </g>
    </g>
    <g id="ytick_2">
     <g id="line2d_2">
      <g>
       <use style="stroke:#000000;stroke-width:0.8;" x="374.4576" xlink:href="#me8f6fa523e" y="209.80767"/>
      </g>
     </g>
     <g id="text_3">
      <!-- −8.0 -->
      <g transform="translate(381.4576 213.606889)scale(0.1 -0.1)">
       <use xlink:href="#DejaVuSans-2212"/>
       <use x="83.789062" xlink:href="#DejaVuSans-38"/>
       <use x="147.412109" xlink:href="#DejaVuSans-2e"/>
       <use x="179.199219" xlink:href="#DejaVuSans-30"/>
      </g>
     </g>
    </g>
    <g id="ytick_3">
     <g id="line2d_3">
      <g>
       <use style="stroke:#000000;stroke-width:0.8;" x="374.4576" xlink:href="#me8f6fa523e" y="158.640448"/>
      </g>
     </g>
     <g id="text_4">
      <!-- −7.5 -->
      <defs>
       <path d="M 8.203125 72.90625 
L 55.078125 72.90625 
L 55.078125 68.703125 
L 28.609375 0 
L 18.3125 0 
L 43.21875 64.59375 
L 8.203125 64.59375 
z
" id="DejaVuSans-37"/>
      </defs>
      <g transform="translate(381.4576 162.439667)scale(0.1 -0.1)">
       <use xlink:href="#DejaVuSans-2212"/>
       <use x="83.789062" xlink:href="#DejaVuSans-37"/>
       <use x="147.412109" xlink:href="#DejaVuSans-2e"/>
       <use x="179.199219" xlink:href="#DejaVuSans-35"/>
      </g>
     </g>
    </g>
    <g id="ytick_4">
     <g id="line2d_4">
      <g>
       <use style="stroke:#000000;stroke-width:0.8;" x="374.4576" xlink:href="#me8f6fa523e" y="107.473226"/>
      </g>
     </g>
     <g id="text_5">
      <!-- −7.0 -->
      <g transform="translate(381.4576 111.272444)scale(0.1 -0.1)">
       <use xlink:href="#DejaVuSans-2212"/>
       <use x="83.789062" xlink:href="#DejaVuSans-37"/>
       <use x="147.412109" xlink:href="#DejaVuSans-2e"/>
       <use x="179.199219" xlink:href="#DejaVuSans-30"/>
      </g>
     </g>
    </g>
    <g id="ytick_5">
     <g id="line2d_5">
      <g>
       <use style="stroke:#000000;stroke-width:0.8;" x="374.4576" xlink:href="#me8f6fa523e" y="56.306003"/>
      </g>
     </g>
     <g id="text_6">
      <!-- −6.5 -->
      <g transform="translate(381.4576 60.105222)scale(0.1 -0.1)">
       <use xlink:href="#DejaVuSans-2212"/>
       <use x="83.789062" xlink:href="#DejaVuSans-36"/>
       <use x="147.412109" xlink:href="#DejaVuSans-2e"/>
       <use x="179.199219" xlink:href="#DejaVuSans-35"/>
      </g>
     </g>
    </g>
    <g id="text_7">
     <!-- Energy [eV] -->
     <defs>
      <path d="M 54.890625 33.015625 
L 54.890625 0 
L 45.90625 0 
L 45.90625 32.71875 
Q 45.90625 40.484375 42.875 44.328125 
Q 39.84375 48.1875 33.796875 48.1875 
Q 26.515625 48.1875 22.3125 43.546875 
Q 18.109375 38.921875 18.109375 30.90625 
L 18.109375 0 
L 9.078125 0 
L 9.078125 54.6875 
L 18.109375 54.6875 
L 18.109375 46.1875 
Q 21.34375 51.125 25.703125 53.5625 
Q 30.078125 56 35.796875 56 
Q 45.21875 56 50.046875 50.171875 
Q 54.890625 44.34375 54.890625 33.015625 
z
" id="DejaVuSans-6e"/>
      <path d="M 45.40625 27.984375 
Q 45.40625 37.75 41.375 43.109375 
Q 37.359375 48.484375 30.078125 48.484375 
Q 22.859375 48.484375 18.828125 43.109375 
Q 14.796875 37.75 14.796875 27.984375 
Q 14.796875 18.265625 18.828125 12.890625 
Q 22.859375 7.515625 30.078125 7.515625 
Q 37.359375 7.515625 41.375 12.890625 
Q 45.40625 18.265625 45.40625 27.984375 
z
M 54.390625 6.78125 
Q 54.390625 -7.171875 48.1875 -13.984375 
Q 42 -20.796875 29.203125 -20.796875 
Q 24.46875 -20.796875 20.265625 -20.09375 
Q 16.0625 -19.390625 12.109375 -17.921875 
L 12.109375 -9.1875 
Q 16.0625 -11.328125 19.921875 -12.34375 
Q 23.78125 -13.375 27.78125 -13.375 
Q 36.625 -13.375 41.015625 -8.765625 
Q 45.40625 -4.15625 45.40625 5.171875 
L 45.40625 9.625 
Q 42.625 4.78125 38.28125 2.390625 
Q 33.9375 0 27.875 0 
Q 17.828125 0 11.671875 7.65625 
Q 5.515625 15.328125 5.515625 27.984375 
Q 5.515625 40.671875 11.671875 48.328125 
Q 17.828125 56 27.875 56 
Q 33.9375 56 38.28125 53.609375 
Q 42.625 51.21875 45.40625 46.390625 
L 45.40625 54.6875 
L 54.390625 54.6875 
z
" id="DejaVuSans-67"/>
      <path d="M 32.171875 -5.078125 
Q 28.375 -14.84375 24.75 -17.8125 
Q 21.140625 -20.796875 15.09375 -20.796875 
L 7.90625 -20.796875 
L 7.90625 -13.28125 
L 13.1875 -13.28125 
Q 16.890625 -13.28125 18.9375 -11.515625 
Q 21 -9.765625 23.484375 -3.21875 
L 25.09375 0.875 
L 2.984375 54.6875 
L 12.5 54.6875 
L 29.59375 11.921875 
L 46.6875 54.6875 
L 56.203125 54.6875 
z
" id="DejaVuSans-79"/>
      <path d="M 8.59375 75.984375 
L 29.296875 75.984375 
L 29.296875 69 
L 17.578125 69 
L 17.578125 -6.203125 
L 29.296875 -6.203125 
L 29.296875 -13.1875 
L 8.59375 -13.1875 
z
" id="DejaVuSans-5b"/>
      <path d="M 30.421875 75.984375 
L 30.421875 -13.1875 
L 9.71875 -13.1875 
L 9.71875 -6.203125 
L 21.390625 -6.203125 
L 21.390625 69 
L 9.71875 69 
L 9.71875 75.984375 
z
" id="DejaVuSans-5d"/>
     </defs>
     <g transform="translate(417.33885 204.108469)rotate(-90)scale(0.1 -0.1)">
      <use xlink:href="#DejaVuSans-45"/>
      <use x="63.183594" xlink:href="#DejaVuSans-6e"/>
      <use x="126.5625" xlink:href="#DejaVuSans-65"/>
      <use x="188.085938" xlink:href="#DejaVuSans-72"/>
      <use x="229.183594" xlink:href="#DejaVuSans-67"/>
      <use x="292.660156" xlink:href="#DejaVuSans-79"/>
      <use x="351.839844" xlink:href="#DejaVuSans-20"/>
      <use x="383.626953" xlink:href="#DejaVuSans-5b"/>
      <use x="422.640625" xlink:href="#DejaVuSans-65"/>
      <use x="484.164062" xlink:href="#DejaVuSans-56"/>
      <use x="552.572266" xlink:href="#DejaVuSans-5d"/>
     </g>
    </g>
   </g>
   <g id="patch_3">
    <path d="M 361.152 307.584 
L 361.152 306.5445 
L 361.152 42.5115 
L 361.152 41.472 
L 374.4576 41.472 
L 374.4576 42.5115 
L 374.4576 306.5445 
L 374.4576 307.584 
z
" style="fill:none;stroke:#000000;stroke-linejoin:miter;stroke-width:0.8;"/>
   </g>
  </g>
 </g>
 <defs>
  <clipPath id="p15fd86156d">
   <rect height="266.112" width="285.696" x="57.6" y="41.472"/>
  </clipPath>
  <clipPath id="pf4ae792437">
   <rect height="266.112" width="13.3056" x="361.152" y="41.472"/>
  </clipPath>
 </defs>
</svg>
