<?xml version="1.0" encoding="utf-8" standalone="no"?>
<!DOCTYPE svg PUBLIC "-//W3C//DTD SVG 1.1//EN"
  "http://www.w3.org/Graphics/SVG/1.1/DTD/svg11.dtd">
<!-- Created with matplotlib (http://matplotlib.org/) -->
<svg height="345.6pt" version="1.1" viewBox="0 0 460.8 345.6" width="460.8pt" xmlns="http://www.w3.org/2000/svg" xmlns:xlink="http://www.w3.org/1999/xlink">
 <defs>
  <style type="text/css">
*{stroke-linecap:butt;stroke-linejoin:round;}
  </style>
 </defs>
 <g id="figure_1">
  <g id="patch_1">
   <path d="M 0 345.6 
L 460.8 345.6 
L 460.8 0 
L 0 0 
z
" style="fill:#ffffff;"/>
  </g>
  <g id="axes_1">
   <g id="CircleCollection_1">
    <path clip-path="url(#pf2be3aff6e)" d="M 302.301258 169.98684 
C 304.027339 169.98684 305.682956 169.301061 306.90348 168.080537 
C 308.124003 166.860014 308.809782 165.204397 308.809782 163.478316 
C 308.809782 161.752235 308.124003 160.096618 306.90348 158.876095 
C 305.682956 157.655571 304.027339 156.969792 302.301258 156.969792 
C 300.575178 156.969792 298.91956 157.655571 297.699037 158.876095 
C 296.478514 160.096618 295.792735 161.752235 295.792735 163.478316 
C 295.792735 165.204397 296.478514 166.860014 297.699037 168.080537 
C 298.91956 169.301061 300.575178 169.98684 302.301258 169.98684 
z
" style="fill:#481668;"/>
    <path clip-path="url(#pf2be3aff6e)" d="M 322.525574 135.423006 
C 324.23859 135.423006 325.881676 134.742417 327.092961 133.531132 
C 328.304246 132.319847 328.984834 130.676761 328.984834 128.963746 
C 328.984834 127.25073 328.304246 125.607644 327.092961 124.396359 
C 325.881676 123.185074 324.23859 122.504486 322.525574 122.504486 
C 320.812559 122.504486 319.169473 123.185074 317.958188 124.396359 
C 316.746903 125.607644 316.066314 127.25073 316.066314 128.963746 
C 316.066314 130.676761 316.746903 132.319847 317.958188 133.531132 
C 319.169473 134.742417 320.812559 135.423006 322.525574 135.423006 
z
" style="fill:#26828e;"/>
    <path clip-path="url(#pf2be3aff6e)" d="M 248.481263 175.948062 
C 250.228453 175.948062 251.904317 175.253896 253.139767 174.018446 
C 254.375217 172.782996 255.069382 171.107132 255.069382 169.359942 
C 255.069382 167.612753 254.375217 165.936888 253.139767 164.701438 
C 251.904317 163.465989 250.228453 162.771823 248.481263 162.771823 
C 246.734073 162.771823 245.058209 163.465989 243.822759 164.701438 
C 242.587309 165.936888 241.893144 167.612753 241.893144 169.359942 
C 241.893144 171.107132 242.587309 172.782996 243.822759 174.018446 
C 245.058209 175.253896 246.734073 175.948062 248.481263 175.948062 
z
" style="fill:#472a7a;"/>
    <path clip-path="url(#pf2be3aff6e)" d="M 181.188141 121.85916 
C 182.958483 121.85916 184.656555 121.155795 185.908375 119.903974 
C 187.160196 118.652153 187.863561 116.954081 187.863561 115.183739 
C 187.863561 113.413397 187.160196 111.715325 185.908375 110.463504 
C 184.656555 109.211683 182.958483 108.508319 181.188141 108.508319 
C 179.417798 108.508319 177.719727 109.211683 176.467906 110.463504 
C 175.216085 111.715325 174.51272 113.413397 174.51272 115.183739 
C 174.51272 116.954081 175.216085 118.652153 176.467906 119.903974 
C 177.719727 121.155795 179.417798 121.85916 181.188141 121.85916 
z
" style="fill:#46327e;"/>
    <path clip-path="url(#pf2be3aff6e)" d="M 329.80106 234.900875 
C 331.530403 234.900875 333.18915 234.213799 334.41198 232.990969 
C 335.63481 231.768139 336.321885 230.109392 336.321885 228.380049 
C 336.321885 226.650706 335.63481 224.99196 334.41198 223.769129 
C 333.18915 222.546299 331.530403 221.859224 329.80106 221.859224 
C 328.071717 221.859224 326.41297 222.546299 325.19014 223.769129 
C 323.96731 224.99196 323.280235 226.650706 323.280235 228.380049 
C 323.280235 230.109392 323.96731 231.768139 325.19014 232.990969 
C 326.41297 234.213799 328.071717 234.900875 329.80106 234.900875 
z
" style="fill:#1f9f88;"/>
    <path clip-path="url(#pf2be3aff6e)" d="M 326.825895 201.035074 
C 328.548653 201.035074 330.201083 200.350615 331.419256 199.132441 
C 332.63743 197.914268 333.321889 196.261838 333.321889 194.53908 
C 333.321889 192.816322 332.63743 191.163892 331.419256 189.945719 
C 330.201083 188.727545 328.548653 188.043086 326.825895 188.043086 
C 325.103137 188.043086 323.450707 188.727545 322.232534 189.945719 
C 321.01436 191.163892 320.329901 192.816322 320.329901 194.53908 
C 320.329901 196.261838 321.01436 197.914268 322.232534 199.132441 
C 323.450707 200.350615 325.103137 201.035074 326.825895 201.035074 
z
" style="fill:#277f8e;"/>
    <path clip-path="url(#pf2be3aff6e)" d="M 116.294427 301.927576 
C 118.126475 301.927576 119.883733 301.199696 121.179187 299.904243 
C 122.47464 298.608789 123.202521 296.85153 123.202521 295.019482 
C 123.202521 293.187434 122.47464 291.430176 121.179187 290.134722 
C 119.883733 288.839269 118.126475 288.111388 116.294427 288.111388 
C 114.462379 288.111388 112.70512 288.839269 111.409666 290.134722 
C 110.114213 291.430176 109.386332 293.187434 109.386332 295.019482 
C 109.386332 296.85153 110.114213 298.608789 111.409666 299.904243 
C 112.70512 301.199696 114.462379 301.927576 116.294427 301.927576 
z
" style="fill:#dae319;"/>
    <path clip-path="url(#pf2be3aff6e)" d="M 235.286036 210.995377 
C 237.043012 210.995377 238.728263 210.297323 239.970632 209.054953 
C 241.213002 207.812584 241.911056 206.127332 241.911056 204.370357 
C 241.911056 202.613381 241.213002 200.928129 239.970632 199.68576 
C 238.728263 198.44339 237.043012 197.745336 235.286036 197.745336 
C 233.52906 197.745336 231.843809 198.44339 230.601439 199.68576 
C 229.359069 200.928129 228.661015 202.613381 228.661015 204.370357 
C 228.661015 206.127332 229.359069 207.812584 230.601439 209.054953 
C 231.843809 210.297323 233.52906 210.995377 235.286036 210.995377 
z
" style="fill:#481a6c;"/>
    <path clip-path="url(#pf2be3aff6e)" d="M 154.470071 242.566962 
C 156.267713 242.566962 157.99197 241.852751 159.263096 240.581626 
C 160.534221 239.310501 161.248431 237.586243 161.248431 235.788601 
C 161.248431 233.990959 160.534221 232.266701 159.263096 230.995576 
C 157.99197 229.724451 156.267713 229.01024 154.470071 229.01024 
C 152.672428 229.01024 150.948171 229.724451 149.677046 230.995576 
C 148.405921 232.266701 147.69171 233.990959 147.69171 235.788601 
C 147.69171 237.586243 148.405921 239.310501 149.677046 240.581626 
C 150.948171 241.852751 152.672428 242.566962 154.470071 242.566962 
z
" style="fill:#2f6b8e;"/>
    <path clip-path="url(#pf2be3aff6e)" d="M 278.362667 230.633889 
C 280.108285 230.633889 281.782642 229.940348 283.01698 228.70601 
C 284.251318 227.471672 284.94486 225.797315 284.94486 224.051697 
C 284.94486 222.306079 284.251318 220.631722 283.01698 219.397384 
C 281.782642 218.163046 280.108285 217.469504 278.362667 217.469504 
C 276.617049 217.469504 274.942693 218.163046 273.708354 219.397384 
C 272.474016 220.631722 271.780475 222.306079 271.780475 224.051697 
C 271.780475 225.797315 272.474016 227.471672 273.708354 228.70601 
C 274.942693 229.940348 276.617049 230.633889 278.362667 230.633889 
z
" style="fill:#287c8e;"/>
    <path clip-path="url(#pf2be3aff6e)" d="M 113.376942 161.168104 
C 115.178645 161.168104 116.906797 160.45228 118.180794 159.178283 
C 119.45479 157.904287 120.170614 156.176135 120.170614 154.374432 
C 120.170614 152.572729 119.45479 150.844577 118.180794 149.570581 
C 116.906797 148.296585 115.178645 147.58076 113.376942 147.58076 
C 111.57524 147.58076 109.847087 148.296585 108.573091 149.570581 
C 107.299095 150.844577 106.583271 152.572729 106.583271 154.374432 
C 106.583271 156.176135 107.299095 157.904287 108.573091 159.178283 
C 109.847087 160.45228 111.57524 161.168104 113.376942 161.168104 
z
" style="fill:#470d60;"/>
    <path clip-path="url(#pf2be3aff6e)" d="M 201.574382 156.145715 
C 203.338445 156.145715 205.030494 155.444845 206.277876 154.197464 
C 207.525257 152.950083 208.226126 151.258034 208.226126 149.493971 
C 208.226126 147.729908 207.525257 146.037859 206.277876 144.790478 
C 205.030494 143.543097 203.338445 142.842227 201.574382 142.842227 
C 199.810319 142.842227 198.11827 143.543097 196.870889 144.790478 
C 195.623508 146.037859 194.922638 147.729908 194.922638 149.493971 
C 194.922638 151.258034 195.623508 152.950083 196.870889 154.197464 
C 198.11827 155.444845 199.810319 156.145715 201.574382 156.145715 
z
" style="fill:#472f7d;"/>
    <path clip-path="url(#pf2be3aff6e)" d="M 298.421151 112.246397 
C 300.194068 112.246397 301.89461 111.542009 303.148252 110.288367 
C 304.401894 109.034725 305.106282 107.334183 305.106282 105.561266 
C 305.106282 103.788348 304.401894 102.087806 303.148252 100.834165 
C 301.89461 99.580523 300.194068 98.876135 298.421151 98.876135 
C 296.648233 98.876135 294.947692 99.580523 293.69405 100.834165 
C 292.440408 102.087806 291.73602 103.788348 291.73602 105.561266 
C 291.73602 107.334183 292.440408 109.034725 293.69405 110.288367 
C 294.947692 111.542009 296.648233 112.246397 298.421151 112.246397 
z
" style="fill:#20938c;"/>
    <path clip-path="url(#pf2be3aff6e)" d="M 126.096922 69.085742 
C 127.887623 69.085742 129.605222 68.374289 130.871439 67.108073 
C 132.137655 65.841856 132.849108 64.124257 132.849108 62.333556 
C 132.849108 60.542855 132.137655 58.825256 130.871439 57.55904 
C 129.605222 56.292823 127.887623 55.58137 126.096922 55.58137 
C 124.306221 55.58137 122.588622 56.292823 121.322405 57.55904 
C 120.056189 58.825256 119.344736 60.542855 119.344736 62.333556 
C 119.344736 64.124257 120.056189 65.841856 121.322405 67.108073 
C 122.588622 68.374289 124.306221 69.085742 126.096922 69.085742 
z
" style="fill:#2e6e8e;"/>
    <path clip-path="url(#pf2be3aff6e)" d="M 260.706692 90.921899 
C 262.441804 90.921899 264.106083 90.232531 265.332993 89.005622 
C 266.559902 87.778713 267.249269 86.114433 267.249269 84.379321 
C 267.249269 82.64421 266.559902 80.97993 265.332993 79.753021 
C 264.106083 78.526111 262.441804 77.836744 260.706692 77.836744 
C 258.97158 77.836744 257.3073 78.526111 256.080391 79.753021 
C 254.853482 80.97993 254.164115 82.64421 254.164115 84.379321 
C 254.164115 86.114433 254.853482 87.778713 256.080391 89.005622 
C 257.3073 90.232531 258.97158 90.921899 260.706692 90.921899 
z
" style="fill:#31668e;"/>
    <path clip-path="url(#pf2be3aff6e)" d="M 173.54378 60.698105 
C 175.314606 60.698105 177.013142 59.994549 178.265304 58.742386 
C 179.517467 57.490223 180.221024 55.791687 180.221024 54.020861 
C 180.221024 52.250035 179.517467 50.551499 178.265304 49.299336 
C 177.013142 48.047173 175.314606 47.343617 173.54378 47.343617 
C 171.772954 47.343617 170.074418 48.047173 168.822255 49.299336 
C 167.570092 50.551499 166.866536 52.250035 166.866536 54.020861 
C 166.866536 55.791687 167.570092 57.490223 168.822255 58.742386 
C 170.074418 59.994549 171.772954 60.698105 173.54378 60.698105 
z
" style="fill:#1e9c89;"/>
    <path clip-path="url(#pf2be3aff6e)" d="M 283.045089 113.621098 
C 284.719789 113.621098 286.326122 112.955733 287.510313 111.771542 
C 288.694504 110.587351 289.359869 108.981018 289.359869 107.306318 
C 289.359869 105.631619 288.694504 104.025286 287.510313 102.841095 
C 286.326122 101.656904 284.719789 100.991539 283.045089 100.991539 
C 281.37039 100.991539 279.764057 101.656904 278.579866 102.841095 
C 277.395674 104.025286 276.730309 105.631619 276.730309 107.306318 
C 276.730309 108.981018 277.395674 110.587351 278.579866 111.771542 
C 279.764057 112.955733 281.37039 113.621098 283.045089 113.621098 
z
" style="fill:#20938c;"/>
    <path clip-path="url(#pf2be3aff6e)" d="M 205.503339 89.227525 
C 207.262149 89.227525 208.94916 88.528742 210.192827 87.285075 
C 211.436494 86.041408 212.135277 84.354397 212.135277 82.595587 
C 212.135277 80.836776 211.436494 79.149766 210.192827 77.906099 
C 208.94916 76.662432 207.262149 75.963649 205.503339 75.963649 
C 203.744529 75.963649 202.057518 76.662432 200.813851 77.906099 
C 199.570184 79.149766 198.871401 80.836776 198.871401 82.595587 
C 198.871401 84.354397 199.570184 86.041408 200.813851 87.285075 
C 202.057518 88.528742 203.744529 89.227525 205.503339 89.227525 
z
" style="fill:#450457;"/>
    <path clip-path="url(#pf2be3aff6e)" d="M 161.814141 179.322585 
C 163.596806 179.322585 165.306699 178.614324 166.567234 177.353789 
C 167.827769 176.093254 168.53603 174.383362 168.53603 172.600696 
C 168.53603 170.81803 167.827769 169.108137 166.567234 167.847602 
C 165.306699 166.587067 163.596806 165.878806 161.814141 165.878806 
C 160.031475 165.878806 158.321582 166.587067 157.061047 167.847602 
C 155.800512 169.108137 155.092251 170.81803 155.092251 172.600696 
C 155.092251 174.383362 155.800512 176.093254 157.061047 177.353789 
C 158.321582 178.614324 160.031475 179.322585 161.814141 179.322585 
z
" style="fill:#472c7a;"/>
    <path clip-path="url(#pf2be3aff6e)" d="M 179.903081 213.896144 
C 181.683279 213.896144 183.390806 213.188863 184.649596 211.930073 
C 185.908387 210.671282 186.615668 208.963756 186.615668 207.183557 
C 186.615668 205.403358 185.908387 203.695832 184.649596 202.437041 
C 183.390806 201.17825 181.683279 200.47097 179.903081 200.47097 
C 178.122882 200.47097 176.415355 201.17825 175.156565 202.437041 
C 173.897774 203.695832 173.190494 205.403358 173.190494 207.183557 
C 173.190494 208.963756 173.897774 210.671282 175.156565 211.930073 
C 176.415355 213.188863 178.122882 213.896144 179.903081 213.896144 
z
" style="fill:#440154;"/>
    <path clip-path="url(#pf2be3aff6e)" d="M 126.608077 124.713635 
C 128.401569 124.713635 130.121846 124.001073 131.390036 122.732883 
C 132.658227 121.464692 133.370788 119.744416 133.370788 117.950924 
C 133.370788 116.157432 132.658227 114.437155 131.390036 113.168965 
C 130.121846 111.900774 128.401569 111.188212 126.608077 111.188212 
C 124.814585 111.188212 123.094308 111.900774 121.826118 113.168965 
C 120.557928 114.437155 119.845366 116.157432 119.845366 117.950924 
C 119.845366 119.744416 120.557928 121.464692 121.826118 122.732883 
C 123.094308 124.001073 124.814585 124.713635 126.608077 124.713635 
z
" style="fill:#481a6c;"/>
    <path clip-path="url(#pf2be3aff6e)" d="M 133.392628 271.409079 
C 135.20692 271.409079 136.947148 270.688253 138.230047 269.405355 
C 139.512945 268.122457 140.233771 266.382229 140.233771 264.567936 
C 140.233771 262.753644 139.512945 261.013416 138.230047 259.730518 
C 136.947148 258.447619 135.20692 257.726793 133.392628 257.726793 
C 131.578336 257.726793 129.838108 258.447619 128.555209 259.730518 
C 127.272311 261.013416 126.551485 262.753644 126.551485 264.567936 
C 126.551485 266.382229 127.272311 268.122457 128.555209 269.405355 
C 129.838108 270.688253 131.578336 271.409079 133.392628 271.409079 
z
" style="fill:#3f4788;"/>
    <path clip-path="url(#pf2be3aff6e)" d="M 96.844253 95.612318 
C 98.648139 95.612318 100.378385 94.895626 101.653924 93.620087 
C 102.929464 92.344547 103.646155 90.614301 103.646155 88.810415 
C 103.646155 87.00653 102.929464 85.276284 101.653924 84.000744 
C 100.378385 82.725204 98.648139 82.008513 96.844253 82.008513 
C 95.040368 82.008513 93.310122 82.725204 92.034582 84.000744 
C 90.759042 85.276284 90.042351 87.00653 90.042351 88.810415 
C 90.042351 90.614301 90.759042 92.344547 92.034582 93.620087 
C 93.310122 94.895626 95.040368 95.612318 96.844253 95.612318 
z
" style="fill:#1f998a;"/>
    <path clip-path="url(#pf2be3aff6e)" d="M 71.121671 179.208866 
C 72.941877 179.208866 74.687777 178.48569 75.974857 177.19861 
C 77.261937 175.91153 77.985113 174.16563 77.985113 172.345424 
C 77.985113 170.525218 77.261937 168.779318 75.974857 167.492238 
C 74.687777 166.205158 72.941877 165.481983 71.121671 165.481983 
C 69.301465 165.481983 67.555565 166.205158 66.268485 167.492238 
C 64.981405 168.779318 64.25823 170.525218 64.25823 172.345424 
C 64.25823 174.16563 64.981405 175.91153 66.268485 177.19861 
C 67.555565 178.48569 69.301465 179.208866 71.121671 179.208866 
z
" style="fill:#fde725;"/>
   </g>
   <g id="text_1">
    <!-- Structure #1896, $E_N$=-177.97eV, ΔE=-0.24eV -->
    <defs>
     <path d="M 53.515625 70.515625 
L 53.515625 60.890625 
Q 47.90625 63.578125 42.921875 64.890625 
Q 37.9375 66.21875 33.296875 66.21875 
Q 25.25 66.21875 20.875 63.09375 
Q 16.5 59.96875 16.5 54.203125 
Q 16.5 49.359375 19.40625 46.890625 
Q 22.3125 44.4375 30.421875 42.921875 
L 36.375 41.703125 
Q 47.40625 39.59375 52.65625 34.296875 
Q 57.90625 29 57.90625 20.125 
Q 57.90625 9.515625 50.796875 4.046875 
Q 43.703125 -1.421875 29.984375 -1.421875 
Q 24.8125 -1.421875 18.96875 -0.25 
Q 13.140625 0.921875 6.890625 3.21875 
L 6.890625 13.375 
Q 12.890625 10.015625 18.65625 8.296875 
Q 24.421875 6.59375 29.984375 6.59375 
Q 38.421875 6.59375 43.015625 9.90625 
Q 47.609375 13.234375 47.609375 19.390625 
Q 47.609375 24.75 44.3125 27.78125 
Q 41.015625 30.8125 33.5 32.328125 
L 27.484375 33.5 
Q 16.453125 35.6875 11.515625 40.375 
Q 6.59375 45.0625 6.59375 53.421875 
Q 6.59375 63.09375 13.40625 68.65625 
Q 20.21875 74.21875 32.171875 74.21875 
Q 37.3125 74.21875 42.625 73.28125 
Q 47.953125 72.359375 53.515625 70.515625 
z
" id="DejaVuSans-53"/>
     <path d="M 18.3125 70.21875 
L 18.3125 54.6875 
L 36.8125 54.6875 
L 36.8125 47.703125 
L 18.3125 47.703125 
L 18.3125 18.015625 
Q 18.3125 11.328125 20.140625 9.421875 
Q 21.96875 7.515625 27.59375 7.515625 
L 36.8125 7.515625 
L 36.8125 0 
L 27.59375 0 
Q 17.1875 0 13.234375 3.875 
Q 9.28125 7.765625 9.28125 18.015625 
L 9.28125 47.703125 
L 2.6875 47.703125 
L 2.6875 54.6875 
L 9.28125 54.6875 
L 9.28125 70.21875 
z
" id="DejaVuSans-74"/>
     <path d="M 41.109375 46.296875 
Q 39.59375 47.171875 37.8125 47.578125 
Q 36.03125 48 33.890625 48 
Q 26.265625 48 22.1875 43.046875 
Q 18.109375 38.09375 18.109375 28.8125 
L 18.109375 0 
L 9.078125 0 
L 9.078125 54.6875 
L 18.109375 54.6875 
L 18.109375 46.1875 
Q 20.953125 51.171875 25.484375 53.578125 
Q 30.03125 56 36.53125 56 
Q 37.453125 56 38.578125 55.875 
Q 39.703125 55.765625 41.0625 55.515625 
z
" id="DejaVuSans-72"/>
     <path d="M 8.5 21.578125 
L 8.5 54.6875 
L 17.484375 54.6875 
L 17.484375 21.921875 
Q 17.484375 14.15625 20.5 10.265625 
Q 23.53125 6.390625 29.59375 6.390625 
Q 36.859375 6.390625 41.078125 11.03125 
Q 45.3125 15.671875 45.3125 23.6875 
L 45.3125 54.6875 
L 54.296875 54.6875 
L 54.296875 0 
L 45.3125 0 
L 45.3125 8.40625 
Q 42.046875 3.421875 37.71875 1 
Q 33.40625 -1.421875 27.6875 -1.421875 
Q 18.265625 -1.421875 13.375 4.4375 
Q 8.5 10.296875 8.5 21.578125 
z
M 31.109375 56 
z
" id="DejaVuSans-75"/>
     <path d="M 48.78125 52.59375 
L 48.78125 44.1875 
Q 44.96875 46.296875 41.140625 47.34375 
Q 37.3125 48.390625 33.40625 48.390625 
Q 24.65625 48.390625 19.8125 42.84375 
Q 14.984375 37.3125 14.984375 27.296875 
Q 14.984375 17.28125 19.8125 11.734375 
Q 24.65625 6.203125 33.40625 6.203125 
Q 37.3125 6.203125 41.140625 7.25 
Q 44.96875 8.296875 48.78125 10.40625 
L 48.78125 2.09375 
Q 45.015625 0.34375 40.984375 -0.53125 
Q 36.96875 -1.421875 32.421875 -1.421875 
Q 20.0625 -1.421875 12.78125 6.34375 
Q 5.515625 14.109375 5.515625 27.296875 
Q 5.515625 40.671875 12.859375 48.328125 
Q 20.21875 56 33.015625 56 
Q 37.15625 56 41.109375 55.140625 
Q 45.0625 54.296875 48.78125 52.59375 
z
" id="DejaVuSans-63"/>
     <path d="M 56.203125 29.59375 
L 56.203125 25.203125 
L 14.890625 25.203125 
Q 15.484375 15.921875 20.484375 11.0625 
Q 25.484375 6.203125 34.421875 6.203125 
Q 39.59375 6.203125 44.453125 7.46875 
Q 49.3125 8.734375 54.109375 11.28125 
L 54.109375 2.78125 
Q 49.265625 0.734375 44.1875 -0.34375 
Q 39.109375 -1.421875 33.890625 -1.421875 
Q 20.796875 -1.421875 13.15625 6.1875 
Q 5.515625 13.8125 5.515625 26.8125 
Q 5.515625 40.234375 12.765625 48.109375 
Q 20.015625 56 32.328125 56 
Q 43.359375 56 49.78125 48.890625 
Q 56.203125 41.796875 56.203125 29.59375 
z
M 47.21875 32.234375 
Q 47.125 39.59375 43.09375 43.984375 
Q 39.0625 48.390625 32.421875 48.390625 
Q 24.90625 48.390625 20.390625 44.140625 
Q 15.875 39.890625 15.1875 32.171875 
z
" id="DejaVuSans-65"/>
     <path id="DejaVuSans-20"/>
     <path d="M 51.125 44 
L 36.921875 44 
L 32.8125 27.6875 
L 47.125 27.6875 
z
M 43.796875 71.78125 
L 38.71875 51.515625 
L 52.984375 51.515625 
L 58.109375 71.78125 
L 65.921875 71.78125 
L 60.890625 51.515625 
L 76.125 51.515625 
L 76.125 44 
L 58.984375 44 
L 54.984375 27.6875 
L 70.515625 27.6875 
L 70.515625 20.21875 
L 53.078125 20.21875 
L 48 0 
L 40.1875 0 
L 45.21875 20.21875 
L 30.90625 20.21875 
L 25.875 0 
L 18.015625 0 
L 23.09375 20.21875 
L 7.71875 20.21875 
L 7.71875 27.6875 
L 24.90625 27.6875 
L 29 44 
L 13.28125 44 
L 13.28125 51.515625 
L 30.90625 51.515625 
L 35.890625 71.78125 
z
" id="DejaVuSans-23"/>
     <path d="M 12.40625 8.296875 
L 28.515625 8.296875 
L 28.515625 63.921875 
L 10.984375 60.40625 
L 10.984375 69.390625 
L 28.421875 72.90625 
L 38.28125 72.90625 
L 38.28125 8.296875 
L 54.390625 8.296875 
L 54.390625 0 
L 12.40625 0 
z
" id="DejaVuSans-31"/>
     <path d="M 31.78125 34.625 
Q 24.75 34.625 20.71875 30.859375 
Q 16.703125 27.09375 16.703125 20.515625 
Q 16.703125 13.921875 20.71875 10.15625 
Q 24.75 6.390625 31.78125 6.390625 
Q 38.8125 6.390625 42.859375 10.171875 
Q 46.921875 13.96875 46.921875 20.515625 
Q 46.921875 27.09375 42.890625 30.859375 
Q 38.875 34.625 31.78125 34.625 
z
M 21.921875 38.8125 
Q 15.578125 40.375 12.03125 44.71875 
Q 8.5 49.078125 8.5 55.328125 
Q 8.5 64.0625 14.71875 69.140625 
Q 20.953125 74.21875 31.78125 74.21875 
Q 42.671875 74.21875 48.875 69.140625 
Q 55.078125 64.0625 55.078125 55.328125 
Q 55.078125 49.078125 51.53125 44.71875 
Q 48 40.375 41.703125 38.8125 
Q 48.828125 37.15625 52.796875 32.3125 
Q 56.78125 27.484375 56.78125 20.515625 
Q 56.78125 9.90625 50.3125 4.234375 
Q 43.84375 -1.421875 31.78125 -1.421875 
Q 19.734375 -1.421875 13.25 4.234375 
Q 6.78125 9.90625 6.78125 20.515625 
Q 6.78125 27.484375 10.78125 32.3125 
Q 14.796875 37.15625 21.921875 38.8125 
z
M 18.3125 54.390625 
Q 18.3125 48.734375 21.84375 45.5625 
Q 25.390625 42.390625 31.78125 42.390625 
Q 38.140625 42.390625 41.71875 45.5625 
Q 45.3125 48.734375 45.3125 54.390625 
Q 45.3125 60.0625 41.71875 63.234375 
Q 38.140625 66.40625 31.78125 66.40625 
Q 25.390625 66.40625 21.84375 63.234375 
Q 18.3125 60.0625 18.3125 54.390625 
z
" id="DejaVuSans-38"/>
     <path d="M 10.984375 1.515625 
L 10.984375 10.5 
Q 14.703125 8.734375 18.5 7.8125 
Q 22.3125 6.890625 25.984375 6.890625 
Q 35.75 6.890625 40.890625 13.453125 
Q 46.046875 20.015625 46.78125 33.40625 
Q 43.953125 29.203125 39.59375 26.953125 
Q 35.25 24.703125 29.984375 24.703125 
Q 19.046875 24.703125 12.671875 31.3125 
Q 6.296875 37.9375 6.296875 49.421875 
Q 6.296875 60.640625 12.9375 67.421875 
Q 19.578125 74.21875 30.609375 74.21875 
Q 43.265625 74.21875 49.921875 64.515625 
Q 56.59375 54.828125 56.59375 36.375 
Q 56.59375 19.140625 48.40625 8.859375 
Q 40.234375 -1.421875 26.421875 -1.421875 
Q 22.703125 -1.421875 18.890625 -0.6875 
Q 15.09375 0.046875 10.984375 1.515625 
z
M 30.609375 32.421875 
Q 37.25 32.421875 41.125 36.953125 
Q 45.015625 41.5 45.015625 49.421875 
Q 45.015625 57.28125 41.125 61.84375 
Q 37.25 66.40625 30.609375 66.40625 
Q 23.96875 66.40625 20.09375 61.84375 
Q 16.21875 57.28125 16.21875 49.421875 
Q 16.21875 41.5 20.09375 36.953125 
Q 23.96875 32.421875 30.609375 32.421875 
z
" id="DejaVuSans-39"/>
     <path d="M 33.015625 40.375 
Q 26.375 40.375 22.484375 35.828125 
Q 18.609375 31.296875 18.609375 23.390625 
Q 18.609375 15.53125 22.484375 10.953125 
Q 26.375 6.390625 33.015625 6.390625 
Q 39.65625 6.390625 43.53125 10.953125 
Q 47.40625 15.53125 47.40625 23.390625 
Q 47.40625 31.296875 43.53125 35.828125 
Q 39.65625 40.375 33.015625 40.375 
z
M 52.59375 71.296875 
L 52.59375 62.3125 
Q 48.875 64.0625 45.09375 64.984375 
Q 41.3125 65.921875 37.59375 65.921875 
Q 27.828125 65.921875 22.671875 59.328125 
Q 17.53125 52.734375 16.796875 39.40625 
Q 19.671875 43.65625 24.015625 45.921875 
Q 28.375 48.1875 33.59375 48.1875 
Q 44.578125 48.1875 50.953125 41.515625 
Q 57.328125 34.859375 57.328125 23.390625 
Q 57.328125 12.15625 50.6875 5.359375 
Q 44.046875 -1.421875 33.015625 -1.421875 
Q 20.359375 -1.421875 13.671875 8.265625 
Q 6.984375 17.96875 6.984375 36.375 
Q 6.984375 53.65625 15.1875 63.9375 
Q 23.390625 74.21875 37.203125 74.21875 
Q 40.921875 74.21875 44.703125 73.484375 
Q 48.484375 72.75 52.59375 71.296875 
z
" id="DejaVuSans-36"/>
     <path d="M 11.71875 12.40625 
L 22.015625 12.40625 
L 22.015625 4 
L 14.015625 -11.625 
L 7.71875 -11.625 
L 11.71875 4 
z
" id="DejaVuSans-2c"/>
     <path d="M 16.890625 72.90625 
L 62.984375 72.90625 
L 61.375 64.59375 
L 25.09375 64.59375 
L 20.90625 43.015625 
L 55.71875 43.015625 
L 54.109375 34.71875 
L 19.28125 34.71875 
L 14.203125 8.296875 
L 51.3125 8.296875 
L 49.703125 0 
L 2.6875 0 
z
" id="DejaVuSans-Oblique-45"/>
     <path d="M 16.890625 72.90625 
L 30.171875 72.90625 
L 50.296875 10.40625 
L 62.5 72.90625 
L 72.125 72.90625 
L 57.90625 0 
L 44.578125 0 
L 24.515625 62.890625 
L 12.3125 0 
L 2.6875 0 
z
" id="DejaVuSans-Oblique-4e"/>
     <path d="M 10.59375 45.40625 
L 73.1875 45.40625 
L 73.1875 37.203125 
L 10.59375 37.203125 
z
M 10.59375 25.484375 
L 73.1875 25.484375 
L 73.1875 17.1875 
L 10.59375 17.1875 
z
" id="DejaVuSans-3d"/>
     <path d="M 4.890625 31.390625 
L 31.203125 31.390625 
L 31.203125 23.390625 
L 4.890625 23.390625 
z
" id="DejaVuSans-2d"/>
     <path d="M 8.203125 72.90625 
L 55.078125 72.90625 
L 55.078125 68.703125 
L 28.609375 0 
L 18.3125 0 
L 43.21875 64.59375 
L 8.203125 64.59375 
z
" id="DejaVuSans-37"/>
     <path d="M 10.6875 12.40625 
L 21 12.40625 
L 21 0 
L 10.6875 0 
z
" id="DejaVuSans-2e"/>
     <path d="M 28.609375 0 
L 0.78125 72.90625 
L 11.078125 72.90625 
L 34.1875 11.53125 
L 57.328125 72.90625 
L 67.578125 72.90625 
L 39.796875 0 
z
" id="DejaVuSans-56"/>
     <path d="M 34.1875 63.1875 
L 14.15625 8.203125 
L 54.25 8.203125 
z
M 0.78125 0 
L 28.609375 72.90625 
L 39.796875 72.90625 
L 67.578125 0 
z
" id="DejaVuSans-394"/>
     <path d="M 9.8125 72.90625 
L 55.90625 72.90625 
L 55.90625 64.59375 
L 19.671875 64.59375 
L 19.671875 43.015625 
L 54.390625 43.015625 
L 54.390625 34.71875 
L 19.671875 34.71875 
L 19.671875 8.296875 
L 56.78125 8.296875 
L 56.78125 0 
L 9.8125 0 
z
" id="DejaVuSans-45"/>
     <path d="M 31.78125 66.40625 
Q 24.171875 66.40625 20.328125 58.90625 
Q 16.5 51.421875 16.5 36.375 
Q 16.5 21.390625 20.328125 13.890625 
Q 24.171875 6.390625 31.78125 6.390625 
Q 39.453125 6.390625 43.28125 13.890625 
Q 47.125 21.390625 47.125 36.375 
Q 47.125 51.421875 43.28125 58.90625 
Q 39.453125 66.40625 31.78125 66.40625 
z
M 31.78125 74.21875 
Q 44.046875 74.21875 50.515625 64.515625 
Q 56.984375 54.828125 56.984375 36.375 
Q 56.984375 17.96875 50.515625 8.265625 
Q 44.046875 -1.421875 31.78125 -1.421875 
Q 19.53125 -1.421875 13.0625 8.265625 
Q 6.59375 17.96875 6.59375 36.375 
Q 6.59375 54.828125 13.0625 64.515625 
Q 19.53125 74.21875 31.78125 74.21875 
z
" id="DejaVuSans-30"/>
     <path d="M 19.1875 8.296875 
L 53.609375 8.296875 
L 53.609375 0 
L 7.328125 0 
L 7.328125 8.296875 
Q 12.9375 14.109375 22.625 23.890625 
Q 32.328125 33.6875 34.8125 36.53125 
Q 39.546875 41.84375 41.421875 45.53125 
Q 43.3125 49.21875 43.3125 52.78125 
Q 43.3125 58.59375 39.234375 62.25 
Q 35.15625 65.921875 28.609375 65.921875 
Q 23.96875 65.921875 18.8125 64.3125 
Q 13.671875 62.703125 7.8125 59.421875 
L 7.8125 69.390625 
Q 13.765625 71.78125 18.9375 73 
Q 24.125 74.21875 28.421875 74.21875 
Q 39.75 74.21875 46.484375 68.546875 
Q 53.21875 62.890625 53.21875 53.421875 
Q 53.21875 48.921875 51.53125 44.890625 
Q 49.859375 40.875 45.40625 35.40625 
Q 44.1875 33.984375 37.640625 27.21875 
Q 31.109375 20.453125 19.1875 8.296875 
z
" id="DejaVuSans-32"/>
     <path d="M 37.796875 64.3125 
L 12.890625 25.390625 
L 37.796875 25.390625 
z
M 35.203125 72.90625 
L 47.609375 72.90625 
L 47.609375 25.390625 
L 58.015625 25.390625 
L 58.015625 17.1875 
L 47.609375 17.1875 
L 47.609375 0 
L 37.796875 0 
L 37.796875 17.1875 
L 4.890625 17.1875 
L 4.890625 26.703125 
z
" id="DejaVuSans-34"/>
    </defs>
    <g transform="translate(63.228 35.472)scale(0.12 -0.12)">
     <use transform="translate(0 0.78125)" xlink:href="#DejaVuSans-53"/>
     <use transform="translate(63.476562 0.78125)" xlink:href="#DejaVuSans-74"/>
     <use transform="translate(102.685547 0.78125)" xlink:href="#DejaVuSans-72"/>
     <use transform="translate(143.798828 0.78125)" xlink:href="#DejaVuSans-75"/>
     <use transform="translate(207.177734 0.78125)" xlink:href="#DejaVuSans-63"/>
     <use transform="translate(262.158203 0.78125)" xlink:href="#DejaVuSans-74"/>
     <use transform="translate(301.367188 0.78125)" xlink:href="#DejaVuSans-75"/>
     <use transform="translate(364.746094 0.78125)" xlink:href="#DejaVuSans-72"/>
     <use transform="translate(405.859375 0.78125)" xlink:href="#DejaVuSans-65"/>
     <use transform="translate(467.382812 0.78125)" xlink:href="#DejaVuSans-20"/>
     <use transform="translate(499.169922 0.78125)" xlink:href="#DejaVuSans-23"/>
     <use transform="translate(582.958984 0.78125)" xlink:href="#DejaVuSans-31"/>
     <use transform="translate(646.582031 0.78125)" xlink:href="#DejaVuSans-38"/>
     <use transform="translate(710.205078 0.78125)" xlink:href="#DejaVuSans-39"/>
     <use transform="translate(773.828125 0.78125)" xlink:href="#DejaVuSans-36"/>
     <use transform="translate(837.451172 0.78125)" xlink:href="#DejaVuSans-2c"/>
     <use transform="translate(869.238281 0.78125)" xlink:href="#DejaVuSans-20"/>
     <use transform="translate(901.025391 0.78125)" xlink:href="#DejaVuSans-Oblique-45"/>
     <use transform="translate(964.208984 -15.625)scale(0.7)" xlink:href="#DejaVuSans-Oblique-4e"/>
     <use transform="translate(1019.306641 0.78125)" xlink:href="#DejaVuSans-3d"/>
     <use transform="translate(1103.095703 0.78125)" xlink:href="#DejaVuSans-2d"/>
     <use transform="translate(1139.179688 0.78125)" xlink:href="#DejaVuSans-31"/>
     <use transform="translate(1202.802734 0.78125)" xlink:href="#DejaVuSans-37"/>
     <use transform="translate(1266.410156 0.78125)" xlink:href="#DejaVuSans-37"/>
     <use transform="translate(1330.033203 0.78125)" xlink:href="#DejaVuSans-2e"/>
     <use transform="translate(1361.820312 0.78125)" xlink:href="#DejaVuSans-39"/>
     <use transform="translate(1425.443359 0.78125)" xlink:href="#DejaVuSans-37"/>
     <use transform="translate(1489.066406 0.78125)" xlink:href="#DejaVuSans-65"/>
     <use transform="translate(1550.589844 0.78125)" xlink:href="#DejaVuSans-56"/>
     <use transform="translate(1618.998047 0.78125)" xlink:href="#DejaVuSans-2c"/>
     <use transform="translate(1650.785156 0.78125)" xlink:href="#DejaVuSans-20"/>
     <use transform="translate(1682.572266 0.78125)" xlink:href="#DejaVuSans-394"/>
     <use transform="translate(1750.980469 0.78125)" xlink:href="#DejaVuSans-45"/>
     <use transform="translate(1814.164062 0.78125)" xlink:href="#DejaVuSans-3d"/>
     <use transform="translate(1897.953125 0.78125)" xlink:href="#DejaVuSans-2d"/>
     <use transform="translate(1934.037109 0.78125)" xlink:href="#DejaVuSans-30"/>
     <use transform="translate(1997.660156 0.78125)" xlink:href="#DejaVuSans-2e"/>
     <use transform="translate(2029.369141 0.78125)" xlink:href="#DejaVuSans-32"/>
     <use transform="translate(2092.992188 0.78125)" xlink:href="#DejaVuSans-34"/>
     <use transform="translate(2156.615234 0.78125)" xlink:href="#DejaVuSans-65"/>
     <use transform="translate(2218.138672 0.78125)" xlink:href="#DejaVuSans-56"/>
    </g>
   </g>
  </g>
  <g id="axes_2">
   <g id="patch_2">
    <path clip-path="url(#pa638f9dbed)" d="M 361.152 307.584 
L 361.152 306.5445 
L 361.152 42.5115 
L 361.152 41.472 
L 374.4576 41.472 
L 374.4576 42.5115 
L 374.4576 306.5445 
L 374.4576 307.584 
z
" style="fill:#ffffff;stroke:#ffffff;stroke-linejoin:miter;stroke-width:0.01;"/>
   </g>
   <image height="265.68" id="imagec94003ecd8" transform="scale(1 -1)translate(0 -265.68)" width="12.96" x="361.44" xlink:href="data:image/png;base64,
iVBORw0KGgoAAAANSUhEUgAAABIAAAFxCAYAAAB+2fgXAAAABHNCSVQICAgIfAhkiAAAAeVJREFUeJztncmNw0AQA2ckheYQNv9QLIfQ8ygsCgQ7AEI8+jAs2Puz/94F1LP2ReCsZ18bAWIeZ5XaGRBE7VnbptG+KI101FYyNSiQG2oRITXKNaX9uclOdi2XWjftVE32CZCO2ou5Bj1TcCBr/1zB9ge7Fq0Rg2NM9pvbtG+ua1QgsRYhDy0ISEiNc40BEibbSI0Coj5CBGtkpFbXJiAjNZlrwhuSOv2M1DjXbEdEciBt1JSDDQKKpmZr2rr2j0DBGpXaWEJq3bQzEPIS26r9J+Wzv9Tm8o3aajRXqc3VUXsApKNWjeZq0x4ABVNbm7lrszVigDqP5vIl2+eaT2yfRkL7g+dRcNPqjohkjaCvRVBq0H2U3LQrOJCx9kdTg4B8oxZzzTdqdYHEngjUCAPyUctN9sVRq2sTECW2UKNLd2jVtRmo1A6AhMmWaSRcR8nUdIHUuVb75zJS218EyEitro1At69pIdeSk30Lkw0FktNImGyZRhy1O5galmxd03LUsHWk06jUZiCq+5Wb1kZNN4+wJxJuWt8RAW5am2sYNZ9rYCBzZ3buPKJ2P5Yj4Toy3keyIyJbIxs1rml1byCA84gpch5RQNB7Q0qNMGq2Hy4BXdNR41yz/cEEJfZzUz96r9PoB0okjeQ8y9TkAAAAAElFTkSuQmCC" y="-41.76"/>
   <g id="matplotlib.axis_1"/>
   <g id="matplotlib.axis_2">
    <g id="ytick_1">
     <g id="line2d_1">
      <defs>
       <path d="M 0 0 
L 3.5 0 
" id="m399f86132a" style="stroke:#000000;stroke-width:0.8;"/>
      </defs>
      <g>
       <use style="stroke:#000000;stroke-width:0.8;" x="374.4576" xlink:href="#m399f86132a" y="290.269968"/>
      </g>
     </g>
     <g id="text_2">
      <!-- −8.5 -->
      <defs>
       <path d="M 10.59375 35.5 
L 73.1875 35.5 
L 73.1875 27.203125 
L 10.59375 27.203125 
z
" id="DejaVuSans-2212"/>
       <path d="M 10.796875 72.90625 
L 49.515625 72.90625 
L 49.515625 64.59375 
L 19.828125 64.59375 
L 19.828125 46.734375 
Q 21.96875 47.46875 24.109375 47.828125 
Q 26.265625 48.1875 28.421875 48.1875 
Q 40.625 48.1875 47.75 41.5 
Q 54.890625 34.8125 54.890625 23.390625 
Q 54.890625 11.625 47.5625 5.09375 
Q 40.234375 -1.421875 26.90625 -1.421875 
Q 22.3125 -1.421875 17.546875 -0.640625 
Q 12.796875 0.140625 7.71875 1.703125 
L 7.71875 11.625 
Q 12.109375 9.234375 16.796875 8.0625 
Q 21.484375 6.890625 26.703125 6.890625 
Q 35.15625 6.890625 40.078125 11.328125 
Q 45.015625 15.765625 45.015625 23.390625 
Q 45.015625 31 40.078125 35.4375 
Q 35.15625 39.890625 26.703125 39.890625 
Q 22.75 39.890625 18.8125 39.015625 
Q 14.890625 38.140625 10.796875 36.28125 
z
" id="DejaVuSans-35"/>
      </defs>
      <g transform="translate(381.4576 294.069187)scale(0.1 -0.1)">
       <use xlink:href="#DejaVuSans-2212"/>
       <use x="83.789062" xlink:href="#DejaVuSans-38"/>
       <use x="147.412109" xlink:href="#DejaVuSans-2e"/>
       <use x="179.199219" xlink:href="#DejaVuSans-35"/>
      </g>
     </g>
    </g>
    <g id="ytick_2">
     <g id="line2d_2">
      <g>
       <use style="stroke:#000000;stroke-width:0.8;" x="374.4576" xlink:href="#m399f86132a" y="257.820749"/>
      </g>
     </g>
     <g id="text_3">
      <!-- −8.0 -->
      <g transform="translate(381.4576 261.619967)scale(0.1 -0.1)">
       <use xlink:href="#DejaVuSans-2212"/>
       <use x="83.789062" xlink:href="#DejaVuSans-38"/>
       <use x="147.412109" xlink:href="#DejaVuSans-2e"/>
       <use x="179.199219" xlink:href="#DejaVuSans-30"/>
      </g>
     </g>
    </g>
    <g id="ytick_3">
     <g id="line2d_3">
      <g>
       <use style="stroke:#000000;stroke-width:0.8;" x="374.4576" xlink:href="#m399f86132a" y="225.371529"/>
      </g>
     </g>
     <g id="text_4">
      <!-- −7.5 -->
      <g transform="translate(381.4576 229.170748)scale(0.1 -0.1)">
       <use xlink:href="#DejaVuSans-2212"/>
       <use x="83.789062" xlink:href="#DejaVuSans-37"/>
       <use x="147.412109" xlink:href="#DejaVuSans-2e"/>
       <use x="179.199219" xlink:href="#DejaVuSans-35"/>
      </g>
     </g>
    </g>
    <g id="ytick_4">
     <g id="line2d_4">
      <g>
       <use style="stroke:#000000;stroke-width:0.8;" x="374.4576" xlink:href="#m399f86132a" y="192.92231"/>
      </g>
     </g>
     <g id="text_5">
      <!-- −7.0 -->
      <g transform="translate(381.4576 196.721529)scale(0.1 -0.1)">
       <use xlink:href="#DejaVuSans-2212"/>
       <use x="83.789062" xlink:href="#DejaVuSans-37"/>
       <use x="147.412109" xlink:href="#DejaVuSans-2e"/>
       <use x="179.199219" xlink:href="#DejaVuSans-30"/>
      </g>
     </g>
    </g>
    <g id="ytick_5">
     <g id="line2d_5">
      <g>
       <use style="stroke:#000000;stroke-width:0.8;" x="374.4576" xlink:href="#m399f86132a" y="160.473091"/>
      </g>
     </g>
     <g id="text_6">
      <!-- −6.5 -->
      <g transform="translate(381.4576 164.27231)scale(0.1 -0.1)">
       <use xlink:href="#DejaVuSans-2212"/>
       <use x="83.789062" xlink:href="#DejaVuSans-36"/>
       <use x="147.412109" xlink:href="#DejaVuSans-2e"/>
       <use x="179.199219" xlink:href="#DejaVuSans-35"/>
      </g>
     </g>
    </g>
    <g id="ytick_6">
     <g id="line2d_6">
      <g>
       <use style="stroke:#000000;stroke-width:0.8;" x="374.4576" xlink:href="#m399f86132a" y="128.023872"/>
      </g>
     </g>
     <g id="text_7">
      <!-- −6.0 -->
      <g transform="translate(381.4576 131.82309)scale(0.1 -0.1)">
       <use xlink:href="#DejaVuSans-2212"/>
       <use x="83.789062" xlink:href="#DejaVuSans-36"/>
       <use x="147.412109" xlink:href="#DejaVuSans-2e"/>
       <use x="179.199219" xlink:href="#DejaVuSans-30"/>
      </g>
     </g>
    </g>
    <g id="ytick_7">
     <g id="line2d_7">
      <g>
       <use style="stroke:#000000;stroke-width:0.8;" x="374.4576" xlink:href="#m399f86132a" y="95.574652"/>
      </g>
     </g>
     <g id="text_8">
      <!-- −5.5 -->
      <g transform="translate(381.4576 99.373871)scale(0.1 -0.1)">
       <use xlink:href="#DejaVuSans-2212"/>
       <use x="83.789062" xlink:href="#DejaVuSans-35"/>
       <use x="147.412109" xlink:href="#DejaVuSans-2e"/>
       <use x="179.199219" xlink:href="#DejaVuSans-35"/>
      </g>
     </g>
    </g>
    <g id="ytick_8">
     <g id="line2d_8">
      <g>
       <use style="stroke:#000000;stroke-width:0.8;" x="374.4576" xlink:href="#m399f86132a" y="63.125433"/>
      </g>
     </g>
     <g id="text_9">
      <!-- −5.0 -->
      <g transform="translate(381.4576 66.924652)scale(0.1 -0.1)">
       <use xlink:href="#DejaVuSans-2212"/>
       <use x="83.789062" xlink:href="#DejaVuSans-35"/>
       <use x="147.412109" xlink:href="#DejaVuSans-2e"/>
       <use x="179.199219" xlink:href="#DejaVuSans-30"/>
      </g>
     </g>
    </g>
    <g id="text_10">
     <!-- Energy [eV] -->
     <defs>
      <path d="M 54.890625 33.015625 
L 54.890625 0 
L 45.90625 0 
L 45.90625 32.71875 
Q 45.90625 40.484375 42.875 44.328125 
Q 39.84375 48.1875 33.796875 48.1875 
Q 26.515625 48.1875 22.3125 43.546875 
Q 18.109375 38.921875 18.109375 30.90625 
L 18.109375 0 
L 9.078125 0 
L 9.078125 54.6875 
L 18.109375 54.6875 
L 18.109375 46.1875 
Q 21.34375 51.125 25.703125 53.5625 
Q 30.078125 56 35.796875 56 
Q 45.21875 56 50.046875 50.171875 
Q 54.890625 44.34375 54.890625 33.015625 
z
" id="DejaVuSans-6e"/>
      <path d="M 45.40625 27.984375 
Q 45.40625 37.75 41.375 43.109375 
Q 37.359375 48.484375 30.078125 48.484375 
Q 22.859375 48.484375 18.828125 43.109375 
Q 14.796875 37.75 14.796875 27.984375 
Q 14.796875 18.265625 18.828125 12.890625 
Q 22.859375 7.515625 30.078125 7.515625 
Q 37.359375 7.515625 41.375 12.890625 
Q 45.40625 18.265625 45.40625 27.984375 
z
M 54.390625 6.78125 
Q 54.390625 -7.171875 48.1875 -13.984375 
Q 42 -20.796875 29.203125 -20.796875 
Q 24.46875 -20.796875 20.265625 -20.09375 
Q 16.0625 -19.390625 12.109375 -17.921875 
L 12.109375 -9.1875 
Q 16.0625 -11.328125 19.921875 -12.34375 
Q 23.78125 -13.375 27.78125 -13.375 
Q 36.625 -13.375 41.015625 -8.765625 
Q 45.40625 -4.15625 45.40625 5.171875 
L 45.40625 9.625 
Q 42.625 4.78125 38.28125 2.390625 
Q 33.9375 0 27.875 0 
Q 17.828125 0 11.671875 7.65625 
Q 5.515625 15.328125 5.515625 27.984375 
Q 5.515625 40.671875 11.671875 48.328125 
Q 17.828125 56 27.875 56 
Q 33.9375 56 38.28125 53.609375 
Q 42.625 51.21875 45.40625 46.390625 
L 45.40625 54.6875 
L 54.390625 54.6875 
z
" id="DejaVuSans-67"/>
      <path d="M 32.171875 -5.078125 
Q 28.375 -14.84375 24.75 -17.8125 
Q 21.140625 -20.796875 15.09375 -20.796875 
L 7.90625 -20.796875 
L 7.90625 -13.28125 
L 13.1875 -13.28125 
Q 16.890625 -13.28125 18.9375 -11.515625 
Q 21 -9.765625 23.484375 -3.21875 
L 25.09375 0.875 
L 2.984375 54.6875 
L 12.5 54.6875 
L 29.59375 11.921875 
L 46.6875 54.6875 
L 56.203125 54.6875 
z
" id="DejaVuSans-79"/>
      <path d="M 8.59375 75.984375 
L 29.296875 75.984375 
L 29.296875 69 
L 17.578125 69 
L 17.578125 -6.203125 
L 29.296875 -6.203125 
L 29.296875 -13.1875 
L 8.59375 -13.1875 
z
" id="DejaVuSans-5b"/>
      <path d="M 30.421875 75.984375 
L 30.421875 -13.1875 
L 9.71875 -13.1875 
L 9.71875 -6.203125 
L 21.390625 -6.203125 
L 21.390625 69 
L 9.71875 69 
L 9.71875 75.984375 
z
" id="DejaVuSans-5d"/>
     </defs>
     <g transform="translate(417.33885 204.108469)rotate(-90)scale(0.1 -0.1)">
      <use xlink:href="#DejaVuSans-45"/>
      <use x="63.183594" xlink:href="#DejaVuSans-6e"/>
      <use x="126.5625" xlink:href="#DejaVuSans-65"/>
      <use x="188.085938" xlink:href="#DejaVuSans-72"/>
      <use x="229.183594" xlink:href="#DejaVuSans-67"/>
      <use x="292.660156" xlink:href="#DejaVuSans-79"/>
      <use x="351.839844" xlink:href="#DejaVuSans-20"/>
      <use x="383.626953" xlink:href="#DejaVuSans-5b"/>
      <use x="422.640625" xlink:href="#DejaVuSans-65"/>
      <use x="484.164062" xlink:href="#DejaVuSans-56"/>
      <use x="552.572266" xlink:href="#DejaVuSans-5d"/>
     </g>
    </g>
   </g>
   <g id="patch_3">
    <path d="M 361.152 307.584 
L 361.152 306.5445 
L 361.152 42.5115 
L 361.152 41.472 
L 374.4576 41.472 
L 374.4576 42.5115 
L 374.4576 306.5445 
L 374.4576 307.584 
z
" style="fill:none;stroke:#000000;stroke-linejoin:miter;stroke-width:0.8;"/>
   </g>
  </g>
 </g>
 <defs>
  <clipPath id="pf2be3aff6e">
   <rect height="266.112" width="285.696" x="57.6" y="41.472"/>
  </clipPath>
  <clipPath id="pa638f9dbed">
   <rect height="266.112" width="13.3056" x="361.152" y="41.472"/>
  </clipPath>
 </defs>
</svg>
