<?xml version="1.0" encoding="utf-8" standalone="no"?>
<!DOCTYPE svg PUBLIC "-//W3C//DTD SVG 1.1//EN"
  "http://www.w3.org/Graphics/SVG/1.1/DTD/svg11.dtd">
<!-- Created with matplotlib (http://matplotlib.org/) -->
<svg height="345.6pt" version="1.1" viewBox="0 0 460.8 345.6" width="460.8pt" xmlns="http://www.w3.org/2000/svg" xmlns:xlink="http://www.w3.org/1999/xlink">
 <defs>
  <style type="text/css">
*{stroke-linecap:butt;stroke-linejoin:round;}
  </style>
 </defs>
 <g id="figure_1">
  <g id="patch_1">
   <path d="M 0 345.6 
L 460.8 345.6 
L 460.8 0 
L 0 0 
z
" style="fill:#ffffff;"/>
  </g>
  <g id="axes_1">
   <g id="CircleCollection_1">
    <path clip-path="url(#p2717b3a9f4)" d="M 159.790463 196.991914 
C 161.602491 196.991914 163.340547 196.271988 164.621844 194.990691 
C 165.903142 193.709393 166.623068 191.971337 166.623068 190.159309 
C 166.623068 188.347281 165.903142 186.609225 164.621844 185.327927 
C 163.340547 184.04663 161.602491 183.326703 159.790463 183.326703 
C 157.978435 183.326703 156.240378 184.04663 154.959081 185.327927 
C 153.677784 186.609225 152.957857 188.347281 152.957857 190.159309 
C 152.957857 191.971337 153.677784 193.709393 154.959081 194.990691 
C 156.240378 196.271988 157.978435 196.991914 159.790463 196.991914 
z
" style="fill:#23888e;"/>
    <path clip-path="url(#p2717b3a9f4)" d="M 84.92796 238.789743 
C 86.69356 238.789743 88.387084 238.088263 89.635551 236.839795 
C 90.884019 235.591327 91.585499 233.897804 91.585499 232.132204 
C 91.585499 230.366604 90.884019 228.673081 89.635551 227.424613 
C 88.387084 226.176145 86.69356 225.474665 84.92796 225.474665 
C 83.16236 225.474665 81.468837 226.176145 80.220369 227.424613 
C 78.971902 228.673081 78.270421 230.366604 78.270421 232.132204 
C 78.270421 233.897804 78.971902 235.591327 80.220369 236.839795 
C 81.468837 238.088263 83.16236 238.789743 84.92796 238.789743 
z
" style="fill:#3e4989;"/>
    <path clip-path="url(#p2717b3a9f4)" d="M 243.515371 256.504536 
C 245.287557 256.504536 246.987398 255.800439 248.240523 254.547315 
C 249.493648 253.29419 250.197745 251.594349 250.197745 249.822163 
C 250.197745 248.049977 249.493648 246.350136 248.240523 245.097012 
C 246.987398 243.843887 245.287557 243.13979 243.515371 243.13979 
C 241.743185 243.13979 240.043345 243.843887 238.79022 245.097012 
C 237.537095 246.350136 236.832998 248.049977 236.832998 249.822163 
C 236.832998 251.594349 237.537095 253.29419 238.79022 254.547315 
C 240.043345 255.800439 241.743185 256.504536 243.515371 256.504536 
z
" style="fill:#355f8d;"/>
    <path clip-path="url(#p2717b3a9f4)" d="M 94.635885 269.186186 
C 96.385285 269.186186 98.06327 268.491142 99.300283 267.254129 
C 100.537296 266.017116 101.23234 264.339132 101.23234 262.589731 
C 101.23234 260.840331 100.537296 259.162346 99.300283 257.925334 
C 98.06327 256.688321 96.385285 255.993277 94.635885 255.993277 
C 92.886485 255.993277 91.2085 256.688321 89.971487 257.925334 
C 88.734475 259.162346 88.039431 260.840331 88.039431 262.589731 
C 88.039431 264.339132 88.734475 266.017116 89.971487 267.254129 
C 91.2085 268.491142 92.886485 269.186186 94.635885 269.186186 
z
" style="fill:#31678e;"/>
    <path clip-path="url(#p2717b3a9f4)" d="M 302.707023 249.291297 
C 304.528794 249.291297 306.276195 248.567499 307.564382 247.279313 
C 308.852569 245.991126 309.576366 244.243725 309.576366 242.421954 
C 309.576366 240.600183 308.852569 238.852781 307.564382 237.564595 
C 306.276195 236.276408 304.528794 235.552611 302.707023 235.552611 
C 300.885252 235.552611 299.137851 236.276408 297.849664 237.564595 
C 296.561477 238.852781 295.83768 240.600183 295.83768 242.421954 
C 295.83768 244.243725 296.561477 245.991126 297.849664 247.279313 
C 299.137851 248.567499 300.885252 249.291297 302.707023 249.291297 
z
" style="fill:#22a785;"/>
    <path clip-path="url(#p2717b3a9f4)" d="M 213.367302 260.317898 
C 215.143319 260.317898 216.846834 259.612279 218.102667 258.356446 
C 219.358501 257.100612 220.06412 255.397097 220.06412 253.62108 
C 220.06412 251.845063 219.358501 250.141548 218.102667 248.885714 
C 216.846834 247.629881 215.143319 246.924262 213.367302 246.924262 
C 211.591285 246.924262 209.887769 247.629881 208.631936 248.885714 
C 207.376102 250.141548 206.670483 251.845063 206.670483 253.62108 
C 206.670483 255.397097 207.376102 257.100612 208.631936 258.356446 
C 209.887769 259.612279 211.591285 260.317898 213.367302 260.317898 
z
" style="fill:#3b528b;"/>
    <path clip-path="url(#p2717b3a9f4)" d="M 183.525237 263.711795 
C 185.304165 263.711795 187.010472 263.005019 188.268364 261.747127 
C 189.526256 260.489235 190.233032 258.782928 190.233032 257.004 
C 190.233032 255.225072 189.526256 253.518765 188.268364 252.260873 
C 187.010472 251.002981 185.304165 250.296205 183.525237 250.296205 
C 181.746309 250.296205 180.040002 251.002981 178.782109 252.260873 
C 177.524217 253.518765 176.817442 255.225072 176.817442 257.004 
C 176.817442 258.782928 177.524217 260.489235 178.782109 261.747127 
C 180.040002 263.005019 181.746309 263.711795 183.525237 263.711795 
z
" style="fill:#287c8e;"/>
    <path clip-path="url(#p2717b3a9f4)" d="M 124.327826 112.689964 
C 126.140324 112.689964 127.878831 111.969851 129.160461 110.688221 
C 130.44209 109.406592 131.162203 107.668085 131.162203 105.855587 
C 131.162203 104.043089 130.44209 102.304583 129.160461 101.022953 
C 127.878831 99.741324 126.140324 99.021211 124.327826 99.021211 
C 122.515328 99.021211 120.776822 99.741324 119.495192 101.022953 
C 118.213563 102.304583 117.49345 104.043089 117.49345 105.855587 
C 117.49345 107.668085 118.213563 109.406592 119.495192 110.688221 
C 120.776822 111.969851 122.515328 112.689964 124.327826 112.689964 
z
" style="fill:#433d84;"/>
    <path clip-path="url(#p2717b3a9f4)" d="M 301.280466 238.039838 
C 303.008494 238.039838 304.665979 237.353286 305.88788 236.131385 
C 307.10978 234.909485 307.796333 233.252 307.796333 231.523971 
C 307.796333 229.795943 307.10978 228.138458 305.88788 226.916558 
C 304.665979 225.694657 303.008494 225.008104 301.280466 225.008104 
C 299.552438 225.008104 297.894953 225.694657 296.673052 226.916558 
C 295.451152 228.138458 294.764599 229.795943 294.764599 231.523971 
C 294.764599 233.252 295.451152 234.909485 296.673052 236.131385 
C 297.894953 237.353286 299.552438 238.039838 301.280466 238.039838 
z
" style="fill:#22a785;"/>
    <path clip-path="url(#p2717b3a9f4)" d="M 131.340517 146.100961 
C 133.164293 146.100961 134.913617 145.376367 136.203222 144.086763 
C 137.492826 142.797159 138.21742 141.047834 138.21742 139.224059 
C 138.21742 137.400283 137.492826 135.650958 136.203222 134.361354 
C 134.913617 133.07175 133.164293 132.347156 131.340517 132.347156 
C 129.516741 132.347156 127.767417 133.07175 126.477812 134.361354 
C 125.188208 135.650958 124.463614 137.400283 124.463614 139.224059 
C 124.463614 141.047834 125.188208 142.797159 126.477812 144.086763 
C 127.767417 145.376367 129.516741 146.100961 131.340517 146.100961 
z
" style="fill:#355f8d;"/>
    <path clip-path="url(#p2717b3a9f4)" d="M 109.805938 216.950101 
C 111.599492 216.950101 113.319828 216.237515 114.588062 214.969281 
C 115.856295 213.701047 116.568882 211.980712 116.568882 210.187158 
C 116.568882 208.393605 115.856295 206.673269 114.588062 205.405035 
C 113.319828 204.136801 111.599492 203.424215 109.805938 203.424215 
C 108.012385 203.424215 106.292049 204.136801 105.023815 205.405035 
C 103.755582 206.673269 103.042995 208.393605 103.042995 210.187158 
C 103.042995 211.980712 103.755582 213.701047 105.023815 214.969281 
C 106.292049 216.237515 108.012385 216.950101 109.805938 216.950101 
z
" style="fill:#3b528b;"/>
    <path clip-path="url(#p2717b3a9f4)" d="M 152.35579 256.94322 
C 154.136414 256.94322 155.844347 256.235771 157.103438 254.97668 
C 158.362528 253.717589 159.069978 252.009656 159.069978 250.229033 
C 159.069978 248.44841 158.362528 246.740476 157.103438 245.481386 
C 155.844347 244.222295 154.136414 243.514846 152.35579 243.514846 
C 150.575167 243.514846 148.867234 244.222295 147.608143 245.481386 
C 146.349052 246.740476 145.641603 248.44841 145.641603 250.229033 
C 145.641603 252.009656 146.349052 253.717589 147.608143 254.97668 
C 148.867234 256.235771 150.575167 256.94322 152.35579 256.94322 
z
" style="fill:#440154;"/>
    <path clip-path="url(#p2717b3a9f4)" d="M 70.894801 209.862812 
C 72.629254 209.862812 74.292902 209.173706 75.519345 207.947263 
C 76.745788 206.72082 77.434894 205.057172 77.434894 203.322719 
C 77.434894 201.588267 76.745788 199.924619 75.519345 198.698176 
C 74.292902 197.471732 72.629254 196.782627 70.894801 196.782627 
C 69.160348 196.782627 67.496701 197.471732 66.270257 198.698176 
C 65.043814 199.924619 64.354709 201.588267 64.354709 203.322719 
C 64.354709 205.057172 65.043814 206.72082 66.270257 207.947263 
C 67.496701 209.173706 69.160348 209.862812 70.894801 209.862812 
z
" style="fill:#73d056;"/>
    <path clip-path="url(#p2717b3a9f4)" d="M 329.993472 237.101643 
C 331.771352 237.101643 333.476654 236.395284 334.733805 235.138132 
C 335.990956 233.880981 336.697315 232.175679 336.697315 230.397799 
C 336.697315 228.619919 335.990956 226.914617 334.733805 225.657466 
C 333.476654 224.400314 331.771352 223.693955 329.993472 223.693955 
C 328.215591 223.693955 326.510289 224.400314 325.253138 225.657466 
C 323.995987 226.914617 323.289628 228.619919 323.289628 230.397799 
C 323.289628 232.175679 323.995987 233.880981 325.253138 235.138132 
C 326.510289 236.395284 328.215591 237.101643 329.993472 237.101643 
z
" style="fill:#50c46a;"/>
    <path clip-path="url(#p2717b3a9f4)" d="M 273.671126 249.995474 
C 275.444209 249.995474 277.14491 249.291021 278.398669 248.037262 
C 279.652428 246.783502 280.356882 245.082802 280.356882 243.309719 
C 280.356882 241.536635 279.652428 239.835935 278.398669 238.582176 
C 277.14491 237.328416 275.444209 236.623963 273.671126 236.623963 
C 271.898043 236.623963 270.197342 237.328416 268.943583 238.582176 
C 267.689824 239.835935 266.985371 241.536635 266.985371 243.309719 
C 266.985371 245.082802 267.689824 246.783502 268.943583 248.037262 
C 270.197342 249.291021 271.898043 249.995474 273.671126 249.995474 
z
" style="fill:#32658e;"/>
    <path clip-path="url(#p2717b3a9f4)" d="M 126.804663 277.718975 
C 128.564035 277.718975 130.251585 277.019969 131.495649 275.775905 
C 132.739713 274.531841 133.438719 272.844291 133.438719 271.084919 
C 133.438719 269.325546 132.739713 267.637997 131.495649 266.393932 
C 130.251585 265.149868 128.564035 264.450862 126.804663 264.450862 
C 125.045291 264.450862 123.357741 265.149868 122.113676 266.393932 
C 120.869612 267.637997 120.170606 269.325546 120.170606 271.084919 
C 120.170606 272.844291 120.869612 274.531841 122.113676 275.775905 
C 123.357741 277.019969 125.045291 277.718975 126.804663 277.718975 
z
" style="fill:#2d708e;"/>
    <path clip-path="url(#p2717b3a9f4)" d="M 156.010769 167.961964 
C 157.832745 167.961964 159.580343 167.238085 160.868675 165.949754 
C 162.157006 164.661422 162.880885 162.913824 162.880885 161.091848 
C 162.880885 159.269872 162.157006 157.522274 160.868675 156.233942 
C 159.580343 154.94561 157.832745 154.221731 156.010769 154.221731 
C 154.188792 154.221731 152.441194 154.94561 151.152863 156.233942 
C 149.864531 157.522274 149.140652 159.269872 149.140652 161.091848 
C 149.140652 162.913824 149.864531 164.661422 151.152863 165.949754 
C 152.441194 167.238085 154.188792 167.961964 156.010769 167.961964 
z
" style="fill:#287d8e;"/>
    <path clip-path="url(#p2717b3a9f4)" d="M 101.42209 157.253643 
C 103.207691 157.253643 104.920398 156.544216 106.183008 155.281606 
C 107.445619 154.018995 108.155045 152.306288 108.155045 150.520687 
C 108.155045 148.735087 107.445619 147.022379 106.183008 145.759769 
C 104.920398 144.497159 103.207691 143.787732 101.42209 143.787732 
C 99.636489 143.787732 97.923782 144.497159 96.661172 145.759769 
C 95.398561 147.022379 94.689135 148.735087 94.689135 150.520687 
C 94.689135 152.306288 95.398561 154.018995 96.661172 155.281606 
C 97.923782 156.544216 99.636489 157.253643 101.42209 157.253643 
z
" style="fill:#404588;"/>
    <path clip-path="url(#p2717b3a9f4)" d="M 102.342059 126.005724 
C 104.092435 126.005724 105.771356 125.310292 107.009059 124.072589 
C 108.246761 122.834886 108.942193 121.155966 108.942193 119.40559 
C 108.942193 117.655213 108.246761 115.976293 107.009059 114.73859 
C 105.771356 113.500887 104.092435 112.805455 102.342059 112.805455 
C 100.591683 112.805455 98.912762 113.500887 97.675059 114.73859 
C 96.437357 115.976293 95.741925 117.655213 95.741925 119.40559 
C 95.741925 121.155966 96.437357 122.834886 97.675059 124.072589 
C 98.912762 125.310292 100.591683 126.005724 102.342059 126.005724 
z
" style="fill:#69cd5b;"/>
    <path clip-path="url(#p2717b3a9f4)" d="M 155.039683 60.992025 
C 156.891187 60.992025 158.667106 60.256415 159.976317 58.947204 
C 161.285528 57.637993 162.021138 55.862074 162.021138 54.01057 
C 162.021138 52.159067 161.285528 50.383147 159.976317 49.073936 
C 158.667106 47.764726 156.891187 47.029116 155.039683 47.029116 
C 153.18818 47.029116 151.41226 47.764726 150.103049 49.073936 
C 148.793839 50.383147 148.058229 52.159067 148.058229 54.01057 
C 148.058229 55.862074 148.793839 57.637993 150.103049 58.947204 
C 151.41226 60.256415 153.18818 60.992025 155.039683 60.992025 
z
" style="fill:#fde725;"/>
    <path clip-path="url(#p2717b3a9f4)" d="M 142.144896 224.306637 
C 143.941177 224.306637 145.664129 223.592967 146.934291 222.322804 
C 148.204454 221.052642 148.918124 219.32969 148.918124 217.533409 
C 148.918124 215.737128 148.204454 214.014176 146.934291 212.744014 
C 145.664129 211.473851 143.941177 210.760181 142.144896 210.760181 
C 140.348615 210.760181 138.625663 211.473851 137.355501 212.744014 
C 136.085338 214.014176 135.371668 215.737128 135.371668 217.533409 
C 135.371668 219.32969 136.085338 221.052642 137.355501 222.322804 
C 138.625663 223.592967 140.348615 224.306637 142.144896 224.306637 
z
" style="fill:#471365;"/>
    <path clip-path="url(#p2717b3a9f4)" d="M 137.955526 85.101011 
C 139.78903 85.101011 141.547684 84.372552 142.844167 83.076069 
C 144.14065 81.779587 144.869108 80.020932 144.869108 78.187429 
C 144.869108 76.353925 144.14065 74.595271 142.844167 73.298788 
C 141.547684 72.002305 139.78903 71.273847 137.955526 71.273847 
C 136.122023 71.273847 134.363368 72.002305 133.066885 73.298788 
C 131.770403 74.595271 131.041944 76.353925 131.041944 78.187429 
C 131.041944 80.020932 131.770403 81.779587 133.066885 83.076069 
C 134.363368 84.372552 136.122023 85.101011 137.955526 85.101011 
z
" style="fill:#30698e;"/>
    <path clip-path="url(#p2717b3a9f4)" d="M 104.812779 301.643223 
C 106.555648 301.643223 108.227368 300.950774 109.459762 299.71838 
C 110.692156 298.485986 111.384605 296.814266 111.384605 295.071397 
C 111.384605 293.328528 110.692156 291.656808 109.459762 290.424414 
C 108.227368 289.19202 106.555648 288.499571 104.812779 288.499571 
C 103.069911 288.499571 101.398191 289.19202 100.165796 290.424414 
C 98.933402 291.656808 98.240953 293.328528 98.240953 295.071397 
C 98.240953 296.814266 98.933402 298.485986 100.165796 299.71838 
C 101.398191 300.950774 103.069911 301.643223 104.812779 301.643223 
z
" style="fill:#50c46a;"/>
    <path clip-path="url(#p2717b3a9f4)" d="M 91.81874 188.140705 
C 93.597181 188.140705 95.303021 187.434123 96.560569 186.176575 
C 97.818117 184.919028 98.524699 183.213188 98.524699 181.434747 
C 98.524699 179.656306 97.818117 177.950465 96.560569 176.692918 
C 95.303021 175.43537 93.597181 174.728788 91.81874 174.728788 
C 90.040299 174.728788 88.334459 175.43537 87.076912 176.692918 
C 85.819364 177.950465 85.112782 179.656306 85.112782 181.434747 
C 85.112782 183.213188 85.819364 184.919028 87.076912 186.176575 
C 88.334459 187.434123 90.040299 188.140705 91.81874 188.140705 
z
" style="fill:#433d84;"/>
   </g>
   <g id="text_1">
    <!-- Structure #6703, $E_N$=-175.59eV, ΔE=0.30eV -->
    <defs>
     <path d="M 53.515625 70.515625 
L 53.515625 60.890625 
Q 47.90625 63.578125 42.921875 64.890625 
Q 37.9375 66.21875 33.296875 66.21875 
Q 25.25 66.21875 20.875 63.09375 
Q 16.5 59.96875 16.5 54.203125 
Q 16.5 49.359375 19.40625 46.890625 
Q 22.3125 44.4375 30.421875 42.921875 
L 36.375 41.703125 
Q 47.40625 39.59375 52.65625 34.296875 
Q 57.90625 29 57.90625 20.125 
Q 57.90625 9.515625 50.796875 4.046875 
Q 43.703125 -1.421875 29.984375 -1.421875 
Q 24.8125 -1.421875 18.96875 -0.25 
Q 13.140625 0.921875 6.890625 3.21875 
L 6.890625 13.375 
Q 12.890625 10.015625 18.65625 8.296875 
Q 24.421875 6.59375 29.984375 6.59375 
Q 38.421875 6.59375 43.015625 9.90625 
Q 47.609375 13.234375 47.609375 19.390625 
Q 47.609375 24.75 44.3125 27.78125 
Q 41.015625 30.8125 33.5 32.328125 
L 27.484375 33.5 
Q 16.453125 35.6875 11.515625 40.375 
Q 6.59375 45.0625 6.59375 53.421875 
Q 6.59375 63.09375 13.40625 68.65625 
Q 20.21875 74.21875 32.171875 74.21875 
Q 37.3125 74.21875 42.625 73.28125 
Q 47.953125 72.359375 53.515625 70.515625 
z
" id="DejaVuSans-53"/>
     <path d="M 18.3125 70.21875 
L 18.3125 54.6875 
L 36.8125 54.6875 
L 36.8125 47.703125 
L 18.3125 47.703125 
L 18.3125 18.015625 
Q 18.3125 11.328125 20.140625 9.421875 
Q 21.96875 7.515625 27.59375 7.515625 
L 36.8125 7.515625 
L 36.8125 0 
L 27.59375 0 
Q 17.1875 0 13.234375 3.875 
Q 9.28125 7.765625 9.28125 18.015625 
L 9.28125 47.703125 
L 2.6875 47.703125 
L 2.6875 54.6875 
L 9.28125 54.6875 
L 9.28125 70.21875 
z
" id="DejaVuSans-74"/>
     <path d="M 41.109375 46.296875 
Q 39.59375 47.171875 37.8125 47.578125 
Q 36.03125 48 33.890625 48 
Q 26.265625 48 22.1875 43.046875 
Q 18.109375 38.09375 18.109375 28.8125 
L 18.109375 0 
L 9.078125 0 
L 9.078125 54.6875 
L 18.109375 54.6875 
L 18.109375 46.1875 
Q 20.953125 51.171875 25.484375 53.578125 
Q 30.03125 56 36.53125 56 
Q 37.453125 56 38.578125 55.875 
Q 39.703125 55.765625 41.0625 55.515625 
z
" id="DejaVuSans-72"/>
     <path d="M 8.5 21.578125 
L 8.5 54.6875 
L 17.484375 54.6875 
L 17.484375 21.921875 
Q 17.484375 14.15625 20.5 10.265625 
Q 23.53125 6.390625 29.59375 6.390625 
Q 36.859375 6.390625 41.078125 11.03125 
Q 45.3125 15.671875 45.3125 23.6875 
L 45.3125 54.6875 
L 54.296875 54.6875 
L 54.296875 0 
L 45.3125 0 
L 45.3125 8.40625 
Q 42.046875 3.421875 37.71875 1 
Q 33.40625 -1.421875 27.6875 -1.421875 
Q 18.265625 -1.421875 13.375 4.4375 
Q 8.5 10.296875 8.5 21.578125 
z
M 31.109375 56 
z
" id="DejaVuSans-75"/>
     <path d="M 48.78125 52.59375 
L 48.78125 44.1875 
Q 44.96875 46.296875 41.140625 47.34375 
Q 37.3125 48.390625 33.40625 48.390625 
Q 24.65625 48.390625 19.8125 42.84375 
Q 14.984375 37.3125 14.984375 27.296875 
Q 14.984375 17.28125 19.8125 11.734375 
Q 24.65625 6.203125 33.40625 6.203125 
Q 37.3125 6.203125 41.140625 7.25 
Q 44.96875 8.296875 48.78125 10.40625 
L 48.78125 2.09375 
Q 45.015625 0.34375 40.984375 -0.53125 
Q 36.96875 -1.421875 32.421875 -1.421875 
Q 20.0625 -1.421875 12.78125 6.34375 
Q 5.515625 14.109375 5.515625 27.296875 
Q 5.515625 40.671875 12.859375 48.328125 
Q 20.21875 56 33.015625 56 
Q 37.15625 56 41.109375 55.140625 
Q 45.0625 54.296875 48.78125 52.59375 
z
" id="DejaVuSans-63"/>
     <path d="M 56.203125 29.59375 
L 56.203125 25.203125 
L 14.890625 25.203125 
Q 15.484375 15.921875 20.484375 11.0625 
Q 25.484375 6.203125 34.421875 6.203125 
Q 39.59375 6.203125 44.453125 7.46875 
Q 49.3125 8.734375 54.109375 11.28125 
L 54.109375 2.78125 
Q 49.265625 0.734375 44.1875 -0.34375 
Q 39.109375 -1.421875 33.890625 -1.421875 
Q 20.796875 -1.421875 13.15625 6.1875 
Q 5.515625 13.8125 5.515625 26.8125 
Q 5.515625 40.234375 12.765625 48.109375 
Q 20.015625 56 32.328125 56 
Q 43.359375 56 49.78125 48.890625 
Q 56.203125 41.796875 56.203125 29.59375 
z
M 47.21875 32.234375 
Q 47.125 39.59375 43.09375 43.984375 
Q 39.0625 48.390625 32.421875 48.390625 
Q 24.90625 48.390625 20.390625 44.140625 
Q 15.875 39.890625 15.1875 32.171875 
z
" id="DejaVuSans-65"/>
     <path id="DejaVuSans-20"/>
     <path d="M 51.125 44 
L 36.921875 44 
L 32.8125 27.6875 
L 47.125 27.6875 
z
M 43.796875 71.78125 
L 38.71875 51.515625 
L 52.984375 51.515625 
L 58.109375 71.78125 
L 65.921875 71.78125 
L 60.890625 51.515625 
L 76.125 51.515625 
L 76.125 44 
L 58.984375 44 
L 54.984375 27.6875 
L 70.515625 27.6875 
L 70.515625 20.21875 
L 53.078125 20.21875 
L 48 0 
L 40.1875 0 
L 45.21875 20.21875 
L 30.90625 20.21875 
L 25.875 0 
L 18.015625 0 
L 23.09375 20.21875 
L 7.71875 20.21875 
L 7.71875 27.6875 
L 24.90625 27.6875 
L 29 44 
L 13.28125 44 
L 13.28125 51.515625 
L 30.90625 51.515625 
L 35.890625 71.78125 
z
" id="DejaVuSans-23"/>
     <path d="M 33.015625 40.375 
Q 26.375 40.375 22.484375 35.828125 
Q 18.609375 31.296875 18.609375 23.390625 
Q 18.609375 15.53125 22.484375 10.953125 
Q 26.375 6.390625 33.015625 6.390625 
Q 39.65625 6.390625 43.53125 10.953125 
Q 47.40625 15.53125 47.40625 23.390625 
Q 47.40625 31.296875 43.53125 35.828125 
Q 39.65625 40.375 33.015625 40.375 
z
M 52.59375 71.296875 
L 52.59375 62.3125 
Q 48.875 64.0625 45.09375 64.984375 
Q 41.3125 65.921875 37.59375 65.921875 
Q 27.828125 65.921875 22.671875 59.328125 
Q 17.53125 52.734375 16.796875 39.40625 
Q 19.671875 43.65625 24.015625 45.921875 
Q 28.375 48.1875 33.59375 48.1875 
Q 44.578125 48.1875 50.953125 41.515625 
Q 57.328125 34.859375 57.328125 23.390625 
Q 57.328125 12.15625 50.6875 5.359375 
Q 44.046875 -1.421875 33.015625 -1.421875 
Q 20.359375 -1.421875 13.671875 8.265625 
Q 6.984375 17.96875 6.984375 36.375 
Q 6.984375 53.65625 15.1875 63.9375 
Q 23.390625 74.21875 37.203125 74.21875 
Q 40.921875 74.21875 44.703125 73.484375 
Q 48.484375 72.75 52.59375 71.296875 
z
" id="DejaVuSans-36"/>
     <path d="M 8.203125 72.90625 
L 55.078125 72.90625 
L 55.078125 68.703125 
L 28.609375 0 
L 18.3125 0 
L 43.21875 64.59375 
L 8.203125 64.59375 
z
" id="DejaVuSans-37"/>
     <path d="M 31.78125 66.40625 
Q 24.171875 66.40625 20.328125 58.90625 
Q 16.5 51.421875 16.5 36.375 
Q 16.5 21.390625 20.328125 13.890625 
Q 24.171875 6.390625 31.78125 6.390625 
Q 39.453125 6.390625 43.28125 13.890625 
Q 47.125 21.390625 47.125 36.375 
Q 47.125 51.421875 43.28125 58.90625 
Q 39.453125 66.40625 31.78125 66.40625 
z
M 31.78125 74.21875 
Q 44.046875 74.21875 50.515625 64.515625 
Q 56.984375 54.828125 56.984375 36.375 
Q 56.984375 17.96875 50.515625 8.265625 
Q 44.046875 -1.421875 31.78125 -1.421875 
Q 19.53125 -1.421875 13.0625 8.265625 
Q 6.59375 17.96875 6.59375 36.375 
Q 6.59375 54.828125 13.0625 64.515625 
Q 19.53125 74.21875 31.78125 74.21875 
z
" id="DejaVuSans-30"/>
     <path d="M 40.578125 39.3125 
Q 47.65625 37.796875 51.625 33 
Q 55.609375 28.21875 55.609375 21.1875 
Q 55.609375 10.40625 48.1875 4.484375 
Q 40.765625 -1.421875 27.09375 -1.421875 
Q 22.515625 -1.421875 17.65625 -0.515625 
Q 12.796875 0.390625 7.625 2.203125 
L 7.625 11.71875 
Q 11.71875 9.328125 16.59375 8.109375 
Q 21.484375 6.890625 26.8125 6.890625 
Q 36.078125 6.890625 40.9375 10.546875 
Q 45.796875 14.203125 45.796875 21.1875 
Q 45.796875 27.640625 41.28125 31.265625 
Q 36.765625 34.90625 28.71875 34.90625 
L 20.21875 34.90625 
L 20.21875 43.015625 
L 29.109375 43.015625 
Q 36.375 43.015625 40.234375 45.921875 
Q 44.09375 48.828125 44.09375 54.296875 
Q 44.09375 59.90625 40.109375 62.90625 
Q 36.140625 65.921875 28.71875 65.921875 
Q 24.65625 65.921875 20.015625 65.03125 
Q 15.375 64.15625 9.8125 62.3125 
L 9.8125 71.09375 
Q 15.4375 72.65625 20.34375 73.4375 
Q 25.25 74.21875 29.59375 74.21875 
Q 40.828125 74.21875 47.359375 69.109375 
Q 53.90625 64.015625 53.90625 55.328125 
Q 53.90625 49.265625 50.4375 45.09375 
Q 46.96875 40.921875 40.578125 39.3125 
z
" id="DejaVuSans-33"/>
     <path d="M 11.71875 12.40625 
L 22.015625 12.40625 
L 22.015625 4 
L 14.015625 -11.625 
L 7.71875 -11.625 
L 11.71875 4 
z
" id="DejaVuSans-2c"/>
     <path d="M 16.890625 72.90625 
L 62.984375 72.90625 
L 61.375 64.59375 
L 25.09375 64.59375 
L 20.90625 43.015625 
L 55.71875 43.015625 
L 54.109375 34.71875 
L 19.28125 34.71875 
L 14.203125 8.296875 
L 51.3125 8.296875 
L 49.703125 0 
L 2.6875 0 
z
" id="DejaVuSans-Oblique-45"/>
     <path d="M 16.890625 72.90625 
L 30.171875 72.90625 
L 50.296875 10.40625 
L 62.5 72.90625 
L 72.125 72.90625 
L 57.90625 0 
L 44.578125 0 
L 24.515625 62.890625 
L 12.3125 0 
L 2.6875 0 
z
" id="DejaVuSans-Oblique-4e"/>
     <path d="M 10.59375 45.40625 
L 73.1875 45.40625 
L 73.1875 37.203125 
L 10.59375 37.203125 
z
M 10.59375 25.484375 
L 73.1875 25.484375 
L 73.1875 17.1875 
L 10.59375 17.1875 
z
" id="DejaVuSans-3d"/>
     <path d="M 4.890625 31.390625 
L 31.203125 31.390625 
L 31.203125 23.390625 
L 4.890625 23.390625 
z
" id="DejaVuSans-2d"/>
     <path d="M 12.40625 8.296875 
L 28.515625 8.296875 
L 28.515625 63.921875 
L 10.984375 60.40625 
L 10.984375 69.390625 
L 28.421875 72.90625 
L 38.28125 72.90625 
L 38.28125 8.296875 
L 54.390625 8.296875 
L 54.390625 0 
L 12.40625 0 
z
" id="DejaVuSans-31"/>
     <path d="M 10.796875 72.90625 
L 49.515625 72.90625 
L 49.515625 64.59375 
L 19.828125 64.59375 
L 19.828125 46.734375 
Q 21.96875 47.46875 24.109375 47.828125 
Q 26.265625 48.1875 28.421875 48.1875 
Q 40.625 48.1875 47.75 41.5 
Q 54.890625 34.8125 54.890625 23.390625 
Q 54.890625 11.625 47.5625 5.09375 
Q 40.234375 -1.421875 26.90625 -1.421875 
Q 22.3125 -1.421875 17.546875 -0.640625 
Q 12.796875 0.140625 7.71875 1.703125 
L 7.71875 11.625 
Q 12.109375 9.234375 16.796875 8.0625 
Q 21.484375 6.890625 26.703125 6.890625 
Q 35.15625 6.890625 40.078125 11.328125 
Q 45.015625 15.765625 45.015625 23.390625 
Q 45.015625 31 40.078125 35.4375 
Q 35.15625 39.890625 26.703125 39.890625 
Q 22.75 39.890625 18.8125 39.015625 
Q 14.890625 38.140625 10.796875 36.28125 
z
" id="DejaVuSans-35"/>
     <path d="M 10.6875 12.40625 
L 21 12.40625 
L 21 0 
L 10.6875 0 
z
" id="DejaVuSans-2e"/>
     <path d="M 10.984375 1.515625 
L 10.984375 10.5 
Q 14.703125 8.734375 18.5 7.8125 
Q 22.3125 6.890625 25.984375 6.890625 
Q 35.75 6.890625 40.890625 13.453125 
Q 46.046875 20.015625 46.78125 33.40625 
Q 43.953125 29.203125 39.59375 26.953125 
Q 35.25 24.703125 29.984375 24.703125 
Q 19.046875 24.703125 12.671875 31.3125 
Q 6.296875 37.9375 6.296875 49.421875 
Q 6.296875 60.640625 12.9375 67.421875 
Q 19.578125 74.21875 30.609375 74.21875 
Q 43.265625 74.21875 49.921875 64.515625 
Q 56.59375 54.828125 56.59375 36.375 
Q 56.59375 19.140625 48.40625 8.859375 
Q 40.234375 -1.421875 26.421875 -1.421875 
Q 22.703125 -1.421875 18.890625 -0.6875 
Q 15.09375 0.046875 10.984375 1.515625 
z
M 30.609375 32.421875 
Q 37.25 32.421875 41.125 36.953125 
Q 45.015625 41.5 45.015625 49.421875 
Q 45.015625 57.28125 41.125 61.84375 
Q 37.25 66.40625 30.609375 66.40625 
Q 23.96875 66.40625 20.09375 61.84375 
Q 16.21875 57.28125 16.21875 49.421875 
Q 16.21875 41.5 20.09375 36.953125 
Q 23.96875 32.421875 30.609375 32.421875 
z
" id="DejaVuSans-39"/>
     <path d="M 28.609375 0 
L 0.78125 72.90625 
L 11.078125 72.90625 
L 34.1875 11.53125 
L 57.328125 72.90625 
L 67.578125 72.90625 
L 39.796875 0 
z
" id="DejaVuSans-56"/>
     <path d="M 34.1875 63.1875 
L 14.15625 8.203125 
L 54.25 8.203125 
z
M 0.78125 0 
L 28.609375 72.90625 
L 39.796875 72.90625 
L 67.578125 0 
z
" id="DejaVuSans-394"/>
     <path d="M 9.8125 72.90625 
L 55.90625 72.90625 
L 55.90625 64.59375 
L 19.671875 64.59375 
L 19.671875 43.015625 
L 54.390625 43.015625 
L 54.390625 34.71875 
L 19.671875 34.71875 
L 19.671875 8.296875 
L 56.78125 8.296875 
L 56.78125 0 
L 9.8125 0 
z
" id="DejaVuSans-45"/>
    </defs>
    <g transform="translate(65.388 35.472)scale(0.12 -0.12)">
     <use transform="translate(0 0.78125)" xlink:href="#DejaVuSans-53"/>
     <use transform="translate(63.476562 0.78125)" xlink:href="#DejaVuSans-74"/>
     <use transform="translate(102.685547 0.78125)" xlink:href="#DejaVuSans-72"/>
     <use transform="translate(143.798828 0.78125)" xlink:href="#DejaVuSans-75"/>
     <use transform="translate(207.177734 0.78125)" xlink:href="#DejaVuSans-63"/>
     <use transform="translate(262.158203 0.78125)" xlink:href="#DejaVuSans-74"/>
     <use transform="translate(301.367188 0.78125)" xlink:href="#DejaVuSans-75"/>
     <use transform="translate(364.746094 0.78125)" xlink:href="#DejaVuSans-72"/>
     <use transform="translate(405.859375 0.78125)" xlink:href="#DejaVuSans-65"/>
     <use transform="translate(467.382812 0.78125)" xlink:href="#DejaVuSans-20"/>
     <use transform="translate(499.169922 0.78125)" xlink:href="#DejaVuSans-23"/>
     <use transform="translate(582.958984 0.78125)" xlink:href="#DejaVuSans-36"/>
     <use transform="translate(646.582031 0.78125)" xlink:href="#DejaVuSans-37"/>
     <use transform="translate(710.205078 0.78125)" xlink:href="#DejaVuSans-30"/>
     <use transform="translate(773.828125 0.78125)" xlink:href="#DejaVuSans-33"/>
     <use transform="translate(837.451172 0.78125)" xlink:href="#DejaVuSans-2c"/>
     <use transform="translate(869.238281 0.78125)" xlink:href="#DejaVuSans-20"/>
     <use transform="translate(901.025391 0.78125)" xlink:href="#DejaVuSans-Oblique-45"/>
     <use transform="translate(964.208984 -15.625)scale(0.7)" xlink:href="#DejaVuSans-Oblique-4e"/>
     <use transform="translate(1019.306641 0.78125)" xlink:href="#DejaVuSans-3d"/>
     <use transform="translate(1103.095703 0.78125)" xlink:href="#DejaVuSans-2d"/>
     <use transform="translate(1139.179688 0.78125)" xlink:href="#DejaVuSans-31"/>
     <use transform="translate(1202.802734 0.78125)" xlink:href="#DejaVuSans-37"/>
     <use transform="translate(1266.425781 0.78125)" xlink:href="#DejaVuSans-35"/>
     <use transform="translate(1330.048828 0.78125)" xlink:href="#DejaVuSans-2e"/>
     <use transform="translate(1361.835938 0.78125)" xlink:href="#DejaVuSans-35"/>
     <use transform="translate(1425.380859 0.78125)" xlink:href="#DejaVuSans-39"/>
     <use transform="translate(1489.003906 0.78125)" xlink:href="#DejaVuSans-65"/>
     <use transform="translate(1550.527344 0.78125)" xlink:href="#DejaVuSans-56"/>
     <use transform="translate(1618.935547 0.78125)" xlink:href="#DejaVuSans-2c"/>
     <use transform="translate(1650.722656 0.78125)" xlink:href="#DejaVuSans-20"/>
     <use transform="translate(1682.509766 0.78125)" xlink:href="#DejaVuSans-394"/>
     <use transform="translate(1750.917969 0.78125)" xlink:href="#DejaVuSans-45"/>
     <use transform="translate(1814.101562 0.78125)" xlink:href="#DejaVuSans-3d"/>
     <use transform="translate(1897.890625 0.78125)" xlink:href="#DejaVuSans-30"/>
     <use transform="translate(1961.513672 0.78125)" xlink:href="#DejaVuSans-2e"/>
     <use transform="translate(1993.300781 0.78125)" xlink:href="#DejaVuSans-33"/>
     <use transform="translate(2056.923828 0.78125)" xlink:href="#DejaVuSans-30"/>
     <use transform="translate(2120.546875 0.78125)" xlink:href="#DejaVuSans-65"/>
     <use transform="translate(2182.070312 0.78125)" xlink:href="#DejaVuSans-56"/>
    </g>
   </g>
  </g>
  <g id="axes_2">
   <g id="patch_2">
    <path clip-path="url(#pe83a059ac2)" d="M 361.152 307.584 
L 361.152 306.5445 
L 361.152 42.5115 
L 361.152 41.472 
L 374.4576 41.472 
L 374.4576 42.5115 
L 374.4576 306.5445 
L 374.4576 307.584 
z
" style="fill:#ffffff;stroke:#ffffff;stroke-linejoin:miter;stroke-width:0.01;"/>
   </g>
   <image height="265.68" id="imaged8c8e821a0" transform="scale(1 -1)translate(0 -265.68)" width="12.96" x="361.44" xlink:href="data:image/png;base64,
iVBORw0KGgoAAAANSUhEUgAAABIAAAFxCAYAAAB+2fgXAAAABHNCSVQICAgIfAhkiAAAAeVJREFUeJztncmNw0AQA2ckheYQNv9QLIfQ8ygsCgQ7AEI8+jAs2Puz/94F1LP2ReCsZ18bAWIeZ5XaGRBE7VnbptG+KI101FYyNSiQG2oRITXKNaX9uclOdi2XWjftVE32CZCO2ou5Bj1TcCBr/1zB9ge7Fq0Rg2NM9pvbtG+ua1QgsRYhDy0ISEiNc40BEibbSI0Coj5CBGtkpFbXJiAjNZlrwhuSOv2M1DjXbEdEciBt1JSDDQKKpmZr2rr2j0DBGpXaWEJq3bQzEPIS26r9J+Wzv9Tm8o3aajRXqc3VUXsApKNWjeZq0x4ABVNbm7lrszVigDqP5vIl2+eaT2yfRkL7g+dRcNPqjohkjaCvRVBq0H2U3LQrOJCx9kdTg4B8oxZzzTdqdYHEngjUCAPyUctN9sVRq2sTECW2UKNLd2jVtRmo1A6AhMmWaSRcR8nUdIHUuVb75zJS218EyEitro1At69pIdeSk30Lkw0FktNImGyZRhy1O5galmxd03LUsHWk06jUZiCq+5Wb1kZNN4+wJxJuWt8RAW5am2sYNZ9rYCBzZ3buPKJ2P5Yj4Toy3keyIyJbIxs1rml1byCA84gpch5RQNB7Q0qNMGq2Hy4BXdNR41yz/cEEJfZzUz96r9PoB0okjeQ8y9TkAAAAAElFTkSuQmCC" y="-41.76"/>
   <g id="matplotlib.axis_1"/>
   <g id="matplotlib.axis_2">
    <g id="ytick_1">
     <g id="line2d_1">
      <defs>
       <path d="M 0 0 
L 3.5 0 
" id="m19c55522ae" style="stroke:#000000;stroke-width:0.8;"/>
      </defs>
      <g>
       <use style="stroke:#000000;stroke-width:0.8;" x="374.4576" xlink:href="#m19c55522ae" y="282.675538"/>
      </g>
     </g>
     <g id="text_2">
      <!-- −8.5 -->
      <defs>
       <path d="M 10.59375 35.5 
L 73.1875 35.5 
L 73.1875 27.203125 
L 10.59375 27.203125 
z
" id="DejaVuSans-2212"/>
       <path d="M 31.78125 34.625 
Q 24.75 34.625 20.71875 30.859375 
Q 16.703125 27.09375 16.703125 20.515625 
Q 16.703125 13.921875 20.71875 10.15625 
Q 24.75 6.390625 31.78125 6.390625 
Q 38.8125 6.390625 42.859375 10.171875 
Q 46.921875 13.96875 46.921875 20.515625 
Q 46.921875 27.09375 42.890625 30.859375 
Q 38.875 34.625 31.78125 34.625 
z
M 21.921875 38.8125 
Q 15.578125 40.375 12.03125 44.71875 
Q 8.5 49.078125 8.5 55.328125 
Q 8.5 64.0625 14.71875 69.140625 
Q 20.953125 74.21875 31.78125 74.21875 
Q 42.671875 74.21875 48.875 69.140625 
Q 55.078125 64.0625 55.078125 55.328125 
Q 55.078125 49.078125 51.53125 44.71875 
Q 48 40.375 41.703125 38.8125 
Q 48.828125 37.15625 52.796875 32.3125 
Q 56.78125 27.484375 56.78125 20.515625 
Q 56.78125 9.90625 50.3125 4.234375 
Q 43.84375 -1.421875 31.78125 -1.421875 
Q 19.734375 -1.421875 13.25 4.234375 
Q 6.78125 9.90625 6.78125 20.515625 
Q 6.78125 27.484375 10.78125 32.3125 
Q 14.796875 37.15625 21.921875 38.8125 
z
M 18.3125 54.390625 
Q 18.3125 48.734375 21.84375 45.5625 
Q 25.390625 42.390625 31.78125 42.390625 
Q 38.140625 42.390625 41.71875 45.5625 
Q 45.3125 48.734375 45.3125 54.390625 
Q 45.3125 60.0625 41.71875 63.234375 
Q 38.140625 66.40625 31.78125 66.40625 
Q 25.390625 66.40625 21.84375 63.234375 
Q 18.3125 60.0625 18.3125 54.390625 
z
" id="DejaVuSans-38"/>
      </defs>
      <g transform="translate(381.4576 286.474757)scale(0.1 -0.1)">
       <use xlink:href="#DejaVuSans-2212"/>
       <use x="83.789062" xlink:href="#DejaVuSans-38"/>
       <use x="147.412109" xlink:href="#DejaVuSans-2e"/>
       <use x="179.199219" xlink:href="#DejaVuSans-35"/>
      </g>
     </g>
    </g>
    <g id="ytick_2">
     <g id="line2d_2">
      <g>
       <use style="stroke:#000000;stroke-width:0.8;" x="374.4576" xlink:href="#m19c55522ae" y="247.330231"/>
      </g>
     </g>
     <g id="text_3">
      <!-- −8.0 -->
      <g transform="translate(381.4576 251.129449)scale(0.1 -0.1)">
       <use xlink:href="#DejaVuSans-2212"/>
       <use x="83.789062" xlink:href="#DejaVuSans-38"/>
       <use x="147.412109" xlink:href="#DejaVuSans-2e"/>
       <use x="179.199219" xlink:href="#DejaVuSans-30"/>
      </g>
     </g>
    </g>
    <g id="ytick_3">
     <g id="line2d_3">
      <g>
       <use style="stroke:#000000;stroke-width:0.8;" x="374.4576" xlink:href="#m19c55522ae" y="211.984923"/>
      </g>
     </g>
     <g id="text_4">
      <!-- −7.5 -->
      <g transform="translate(381.4576 215.784142)scale(0.1 -0.1)">
       <use xlink:href="#DejaVuSans-2212"/>
       <use x="83.789062" xlink:href="#DejaVuSans-37"/>
       <use x="147.412109" xlink:href="#DejaVuSans-2e"/>
       <use x="179.199219" xlink:href="#DejaVuSans-35"/>
      </g>
     </g>
    </g>
    <g id="ytick_4">
     <g id="line2d_4">
      <g>
       <use style="stroke:#000000;stroke-width:0.8;" x="374.4576" xlink:href="#m19c55522ae" y="176.639615"/>
      </g>
     </g>
     <g id="text_5">
      <!-- −7.0 -->
      <g transform="translate(381.4576 180.438834)scale(0.1 -0.1)">
       <use xlink:href="#DejaVuSans-2212"/>
       <use x="83.789062" xlink:href="#DejaVuSans-37"/>
       <use x="147.412109" xlink:href="#DejaVuSans-2e"/>
       <use x="179.199219" xlink:href="#DejaVuSans-30"/>
      </g>
     </g>
    </g>
    <g id="ytick_5">
     <g id="line2d_5">
      <g>
       <use style="stroke:#000000;stroke-width:0.8;" x="374.4576" xlink:href="#m19c55522ae" y="141.294308"/>
      </g>
     </g>
     <g id="text_6">
      <!-- −6.5 -->
      <g transform="translate(381.4576 145.093526)scale(0.1 -0.1)">
       <use xlink:href="#DejaVuSans-2212"/>
       <use x="83.789062" xlink:href="#DejaVuSans-36"/>
       <use x="147.412109" xlink:href="#DejaVuSans-2e"/>
       <use x="179.199219" xlink:href="#DejaVuSans-35"/>
      </g>
     </g>
    </g>
    <g id="ytick_6">
     <g id="line2d_6">
      <g>
       <use style="stroke:#000000;stroke-width:0.8;" x="374.4576" xlink:href="#m19c55522ae" y="105.949"/>
      </g>
     </g>
     <g id="text_7">
      <!-- −6.0 -->
      <g transform="translate(381.4576 109.748219)scale(0.1 -0.1)">
       <use xlink:href="#DejaVuSans-2212"/>
       <use x="83.789062" xlink:href="#DejaVuSans-36"/>
       <use x="147.412109" xlink:href="#DejaVuSans-2e"/>
       <use x="179.199219" xlink:href="#DejaVuSans-30"/>
      </g>
     </g>
    </g>
    <g id="ytick_7">
     <g id="line2d_7">
      <g>
       <use style="stroke:#000000;stroke-width:0.8;" x="374.4576" xlink:href="#m19c55522ae" y="70.603692"/>
      </g>
     </g>
     <g id="text_8">
      <!-- −5.5 -->
      <g transform="translate(381.4576 74.402911)scale(0.1 -0.1)">
       <use xlink:href="#DejaVuSans-2212"/>
       <use x="83.789062" xlink:href="#DejaVuSans-35"/>
       <use x="147.412109" xlink:href="#DejaVuSans-2e"/>
       <use x="179.199219" xlink:href="#DejaVuSans-35"/>
      </g>
     </g>
    </g>
    <g id="text_9">
     <!-- Energy [eV] -->
     <defs>
      <path d="M 54.890625 33.015625 
L 54.890625 0 
L 45.90625 0 
L 45.90625 32.71875 
Q 45.90625 40.484375 42.875 44.328125 
Q 39.84375 48.1875 33.796875 48.1875 
Q 26.515625 48.1875 22.3125 43.546875 
Q 18.109375 38.921875 18.109375 30.90625 
L 18.109375 0 
L 9.078125 0 
L 9.078125 54.6875 
L 18.109375 54.6875 
L 18.109375 46.1875 
Q 21.34375 51.125 25.703125 53.5625 
Q 30.078125 56 35.796875 56 
Q 45.21875 56 50.046875 50.171875 
Q 54.890625 44.34375 54.890625 33.015625 
z
" id="DejaVuSans-6e"/>
      <path d="M 45.40625 27.984375 
Q 45.40625 37.75 41.375 43.109375 
Q 37.359375 48.484375 30.078125 48.484375 
Q 22.859375 48.484375 18.828125 43.109375 
Q 14.796875 37.75 14.796875 27.984375 
Q 14.796875 18.265625 18.828125 12.890625 
Q 22.859375 7.515625 30.078125 7.515625 
Q 37.359375 7.515625 41.375 12.890625 
Q 45.40625 18.265625 45.40625 27.984375 
z
M 54.390625 6.78125 
Q 54.390625 -7.171875 48.1875 -13.984375 
Q 42 -20.796875 29.203125 -20.796875 
Q 24.46875 -20.796875 20.265625 -20.09375 
Q 16.0625 -19.390625 12.109375 -17.921875 
L 12.109375 -9.1875 
Q 16.0625 -11.328125 19.921875 -12.34375 
Q 23.78125 -13.375 27.78125 -13.375 
Q 36.625 -13.375 41.015625 -8.765625 
Q 45.40625 -4.15625 45.40625 5.171875 
L 45.40625 9.625 
Q 42.625 4.78125 38.28125 2.390625 
Q 33.9375 0 27.875 0 
Q 17.828125 0 11.671875 7.65625 
Q 5.515625 15.328125 5.515625 27.984375 
Q 5.515625 40.671875 11.671875 48.328125 
Q 17.828125 56 27.875 56 
Q 33.9375 56 38.28125 53.609375 
Q 42.625 51.21875 45.40625 46.390625 
L 45.40625 54.6875 
L 54.390625 54.6875 
z
" id="DejaVuSans-67"/>
      <path d="M 32.171875 -5.078125 
Q 28.375 -14.84375 24.75 -17.8125 
Q 21.140625 -20.796875 15.09375 -20.796875 
L 7.90625 -20.796875 
L 7.90625 -13.28125 
L 13.1875 -13.28125 
Q 16.890625 -13.28125 18.9375 -11.515625 
Q 21 -9.765625 23.484375 -3.21875 
L 25.09375 0.875 
L 2.984375 54.6875 
L 12.5 54.6875 
L 29.59375 11.921875 
L 46.6875 54.6875 
L 56.203125 54.6875 
z
" id="DejaVuSans-79"/>
      <path d="M 8.59375 75.984375 
L 29.296875 75.984375 
L 29.296875 69 
L 17.578125 69 
L 17.578125 -6.203125 
L 29.296875 -6.203125 
L 29.296875 -13.1875 
L 8.59375 -13.1875 
z
" id="DejaVuSans-5b"/>
      <path d="M 30.421875 75.984375 
L 30.421875 -13.1875 
L 9.71875 -13.1875 
L 9.71875 -6.203125 
L 21.390625 -6.203125 
L 21.390625 69 
L 9.71875 69 
L 9.71875 75.984375 
z
" id="DejaVuSans-5d"/>
     </defs>
     <g transform="translate(417.33885 204.108469)rotate(-90)scale(0.1 -0.1)">
      <use xlink:href="#DejaVuSans-45"/>
      <use x="63.183594" xlink:href="#DejaVuSans-6e"/>
      <use x="126.5625" xlink:href="#DejaVuSans-65"/>
      <use x="188.085938" xlink:href="#DejaVuSans-72"/>
      <use x="229.183594" xlink:href="#DejaVuSans-67"/>
      <use x="292.660156" xlink:href="#DejaVuSans-79"/>
      <use x="351.839844" xlink:href="#DejaVuSans-20"/>
      <use x="383.626953" xlink:href="#DejaVuSans-5b"/>
      <use x="422.640625" xlink:href="#DejaVuSans-65"/>
      <use x="484.164062" xlink:href="#DejaVuSans-56"/>
      <use x="552.572266" xlink:href="#DejaVuSans-5d"/>
     </g>
    </g>
   </g>
   <g id="patch_3">
    <path d="M 361.152 307.584 
L 361.152 306.5445 
L 361.152 42.5115 
L 361.152 41.472 
L 374.4576 41.472 
L 374.4576 42.5115 
L 374.4576 306.5445 
L 374.4576 307.584 
z
" style="fill:none;stroke:#000000;stroke-linejoin:miter;stroke-width:0.8;"/>
   </g>
  </g>
 </g>
 <defs>
  <clipPath id="p2717b3a9f4">
   <rect height="266.112" width="285.696" x="57.6" y="41.472"/>
  </clipPath>
  <clipPath id="pe83a059ac2">
   <rect height="266.112" width="13.3056" x="361.152" y="41.472"/>
  </clipPath>
 </defs>
</svg>
