<?xml version="1.0" encoding="utf-8" standalone="no"?>
<!DOCTYPE svg PUBLIC "-//W3C//DTD SVG 1.1//EN"
  "http://www.w3.org/Graphics/SVG/1.1/DTD/svg11.dtd">
<!-- Created with matplotlib (http://matplotlib.org/) -->
<svg height="345.6pt" version="1.1" viewBox="0 0 460.8 345.6" width="460.8pt" xmlns="http://www.w3.org/2000/svg" xmlns:xlink="http://www.w3.org/1999/xlink">
 <defs>
  <style type="text/css">
*{stroke-linecap:butt;stroke-linejoin:round;}
  </style>
 </defs>
 <g id="figure_1">
  <g id="patch_1">
   <path d="M 0 345.6 
L 460.8 345.6 
L 460.8 0 
L 0 0 
z
" style="fill:#ffffff;"/>
  </g>
  <g id="axes_1">
   <g id="CircleCollection_1">
    <path clip-path="url(#p0afa394dd9)" d="M 202.546061 161.509646 
C 204.315039 161.509646 206.011802 160.806824 207.262659 159.555968 
C 208.513515 158.305112 209.216337 156.608348 209.216337 154.83937 
C 209.216337 153.070393 208.513515 151.373629 207.262659 150.122773 
C 206.011802 148.871917 204.315039 148.169095 202.546061 148.169095 
C 200.777083 148.169095 199.08032 148.871917 197.829464 150.122773 
C 196.578608 151.373629 195.875785 153.070393 195.875785 154.83937 
C 195.875785 156.608348 196.578608 158.305112 197.829464 159.555968 
C 199.08032 160.806824 200.777083 161.509646 202.546061 161.509646 
z
" style="fill:#482173;"/>
    <path clip-path="url(#p0afa394dd9)" d="M 281.404256 268.249265 
C 283.18491 268.249265 284.892872 267.541804 286.151984 266.282692 
C 287.411096 265.02358 288.118557 263.315617 288.118557 261.534964 
C 288.118557 259.754311 287.411096 258.046348 286.151984 256.787236 
C 284.892872 255.528124 283.18491 254.820663 281.404256 254.820663 
C 279.623603 254.820663 277.915641 255.528124 276.656529 256.787236 
C 275.397416 258.046348 274.689955 259.754311 274.689955 261.534964 
C 274.689955 263.315617 275.397416 265.02358 276.656529 266.282692 
C 277.915641 267.541804 279.623603 268.249265 281.404256 268.249265 
z
" style="fill:#1f9e89;"/>
    <path clip-path="url(#p0afa394dd9)" d="M 325.092187 287.393714 
C 326.869944 287.393714 328.575127 286.687404 329.832191 285.43034 
C 331.089255 284.173277 331.795565 282.468093 331.795565 280.690336 
C 331.795565 278.91258 331.089255 277.207396 329.832191 275.950332 
C 328.575127 274.693269 326.869944 273.986958 325.092187 273.986958 
C 323.314431 273.986958 321.609247 274.693269 320.352183 275.950332 
C 319.09512 277.207396 318.388809 278.91258 318.388809 280.690336 
C 318.388809 282.468093 319.09512 284.173277 320.352183 285.43034 
C 321.609247 286.687404 323.314431 287.393714 325.092187 287.393714 
z
" style="fill:#42be71;"/>
    <path clip-path="url(#p0afa394dd9)" d="M 157.404449 145.963433 
C 159.168992 145.963433 160.861501 145.262372 162.109222 144.014652 
C 163.356942 142.766932 164.058002 141.074423 164.058002 139.30988 
C 164.058002 137.545337 163.356942 135.852827 162.109222 134.605107 
C 160.861501 133.357387 159.168992 132.656326 157.404449 132.656326 
C 155.639906 132.656326 153.947397 133.357387 152.699676 134.605107 
C 151.451956 135.852827 150.750896 137.545337 150.750896 139.30988 
C 150.750896 141.074423 151.451956 142.766932 152.699676 144.014652 
C 153.947397 145.262372 155.639906 145.963433 157.404449 145.963433 
z
" style="fill:#472e7c;"/>
    <path clip-path="url(#p0afa394dd9)" d="M 93.435763 301.655665 
C 95.193282 301.655665 96.879055 300.957395 98.121809 299.714641 
C 99.364563 298.471887 100.062833 296.786114 100.062833 295.028594 
C 100.062833 293.271075 99.364563 291.585302 98.121809 290.342548 
C 96.879055 289.099794 95.193282 288.401524 93.435763 288.401524 
C 91.678243 288.401524 89.99247 289.099794 88.749716 290.342548 
C 87.506962 291.585302 86.808693 293.271075 86.808693 295.028594 
C 86.808693 296.786114 87.506962 298.471887 88.749716 299.714641 
C 89.99247 300.957395 91.678243 301.655665 93.435763 301.655665 
z
" style="fill:#fde725;"/>
    <path clip-path="url(#p0afa394dd9)" d="M 248.138164 143.059562 
C 249.904378 143.059562 251.598489 142.357838 252.84739 141.108937 
C 254.096292 139.860036 254.798016 138.165924 254.798016 136.399711 
C 254.798016 134.633498 254.096292 132.939386 252.84739 131.690485 
C 251.598489 130.441584 249.904378 129.73986 248.138164 129.73986 
C 246.371951 129.73986 244.67784 130.441584 243.428938 131.690485 
C 242.180037 132.939386 241.478313 134.633498 241.478313 136.399711 
C 241.478313 138.165924 242.180037 139.860036 243.428938 141.108937 
C 244.67784 142.357838 246.371951 143.059562 248.138164 143.059562 
z
" style="fill:#471164;"/>
    <path clip-path="url(#p0afa394dd9)" d="M 241.47423 107.140416 
C 243.230788 107.140416 244.915638 106.442529 246.157712 105.200455 
C 247.399786 103.958381 248.097673 102.273531 248.097673 100.516973 
C 248.097673 98.760415 247.399786 97.075565 246.157712 95.833491 
C 244.915638 94.591417 243.230788 93.89353 241.47423 93.89353 
C 239.717672 93.89353 238.032822 94.591417 236.790748 95.833491 
C 235.548674 97.075565 234.850787 98.760415 234.850787 100.516973 
C 234.850787 102.273531 235.548674 103.958381 236.790748 105.200455 
C 238.032822 106.442529 239.717672 107.140416 241.47423 107.140416 
z
" style="fill:#3c508b;"/>
    <path clip-path="url(#p0afa394dd9)" d="M 153.236806 108.322289 
C 155.001273 108.322289 156.693711 107.621258 157.941378 106.373591 
C 159.189045 105.125924 159.890076 103.433487 159.890076 101.669019 
C 159.890076 99.904551 159.189045 98.212114 157.941378 96.964446 
C 156.693711 95.716779 155.001273 95.015749 153.236806 95.015749 
C 151.472338 95.015749 149.7799 95.716779 148.532233 96.964446 
C 147.284566 98.212114 146.583536 99.904551 146.583536 101.669019 
C 146.583536 103.433487 147.284566 105.125924 148.532233 106.373591 
C 149.7799 107.621258 151.472338 108.322289 153.236806 108.322289 
z
" style="fill:#440154;"/>
    <path clip-path="url(#p0afa394dd9)" d="M 329.84071 250.087873 
C 331.614128 250.087873 333.315151 249.383286 334.569147 248.12929 
C 335.823144 246.875294 336.52773 245.174271 336.52773 243.400852 
C 336.52773 241.627434 335.823144 239.926411 334.569147 238.672415 
C 333.315151 237.418418 331.614128 236.713832 329.84071 236.713832 
C 328.067291 236.713832 326.366268 237.418418 325.112272 238.672415 
C 323.858276 239.926411 323.153689 241.627434 323.153689 243.400852 
C 323.153689 245.174271 323.858276 246.875294 325.112272 248.12929 
C 326.366268 249.383286 328.067291 250.087873 329.84071 250.087873 
z
" style="fill:#1f9e89;"/>
    <path clip-path="url(#p0afa394dd9)" d="M 113.071022 272.091363 
C 114.833998 272.091363 116.525005 271.390925 117.771617 270.144312 
C 119.01823 268.8977 119.718667 267.206693 119.718667 265.443717 
C 119.718667 263.680741 119.01823 261.989734 117.771617 260.743122 
C 116.525005 259.496509 114.833998 258.796071 113.071022 258.796071 
C 111.308046 258.796071 109.617039 259.496509 108.370426 260.743122 
C 107.123814 261.989734 106.423376 263.680741 106.423376 265.443717 
C 106.423376 267.206693 107.123814 268.8977 108.370426 270.144312 
C 109.617039 271.390925 111.308046 272.091363 113.071022 272.091363 
z
" style="fill:#38588c;"/>
    <path clip-path="url(#p0afa394dd9)" d="M 286.504244 231.414019 
C 288.278995 231.414019 289.981295 230.708903 291.236234 229.453965 
C 292.491172 228.199027 293.196288 226.496726 293.196288 224.721976 
C 293.196288 222.947225 292.491172 221.244925 291.236234 219.989987 
C 289.981295 218.735048 288.278995 218.029932 286.504244 218.029932 
C 284.729494 218.029932 283.027193 218.735048 281.772255 219.989987 
C 280.517317 221.244925 279.812201 222.947225 279.812201 224.721976 
C 279.812201 226.496726 280.517317 228.199027 281.772255 229.453965 
C 283.027193 230.708903 284.729494 231.414019 286.504244 231.414019 
z
" style="fill:#375a8c;"/>
    <path clip-path="url(#p0afa394dd9)" d="M 76.710102 118.117248 
C 78.468079 118.117248 80.154291 117.418796 81.397369 116.175719 
C 82.640446 114.932641 83.338898 113.246429 83.338898 111.488452 
C 83.338898 109.730475 82.640446 108.044263 81.397369 106.801186 
C 80.154291 105.558108 78.468079 104.859656 76.710102 104.859656 
C 74.952125 104.859656 73.265913 105.558108 72.022836 106.801186 
C 70.779758 108.044263 70.081306 109.730475 70.081306 111.488452 
C 70.081306 113.246429 70.779758 114.932641 72.022836 116.175719 
C 73.265913 117.418796 74.952125 118.117248 76.710102 118.117248 
z
" style="fill:#2c738e;"/>
    <path clip-path="url(#p0afa394dd9)" d="M 254.731134 72.349558 
C 256.460059 72.349558 258.118404 71.662649 259.340939 70.440115 
C 260.563473 69.21758 261.250382 67.559235 261.250382 65.83031 
C 261.250382 64.101385 260.563473 62.44304 259.340939 61.220506 
C 258.118404 59.997971 256.460059 59.311062 254.731134 59.311062 
C 253.002209 59.311062 251.343864 59.997971 250.12133 61.220506 
C 248.898795 62.44304 248.211886 64.101385 248.211886 65.83031 
C 248.211886 67.559235 248.898795 69.21758 250.12133 70.440115 
C 251.343864 71.662649 253.002209 72.349558 254.731134 72.349558 
z
" style="fill:#44bf70;"/>
    <path clip-path="url(#p0afa394dd9)" d="M 263.391647 200.781888 
C 265.162853 200.781888 266.861754 200.078181 268.114186 198.825749 
C 269.366617 197.573317 270.070325 195.874417 270.070325 194.103211 
C 270.070325 192.332005 269.366617 190.633104 268.114186 189.380673 
C 266.861754 188.128241 265.162853 187.424533 263.391647 187.424533 
C 261.620441 187.424533 259.921541 188.128241 258.669109 189.380673 
C 257.416677 190.633104 256.71297 192.332005 256.71297 194.103211 
C 256.71297 195.874417 257.416677 197.573317 258.669109 198.825749 
C 259.921541 200.078181 261.620441 200.781888 263.391647 200.781888 
z
" style="fill:#440154;"/>
    <path clip-path="url(#p0afa394dd9)" d="M 224.507329 60.810293 
C 226.303492 60.810293 228.026332 60.09667 229.296412 58.82659 
C 230.566491 57.55651 231.280115 55.833671 231.280115 54.037507 
C 231.280115 52.241343 230.566491 50.518504 229.296412 49.248424 
C 228.026332 47.978344 226.303492 47.264721 224.507329 47.264721 
C 222.711165 47.264721 220.988325 47.978344 219.718246 49.248424 
C 218.448166 50.518504 217.734542 52.241343 217.734542 54.037507 
C 217.734542 55.833671 218.448166 57.55651 219.718246 58.82659 
C 220.988325 60.09667 222.711165 60.810293 224.507329 60.810293 
z
" style="fill:#48c16e;"/>
    <path clip-path="url(#p0afa394dd9)" d="M 126.776023 203.57699 
C 128.541363 203.57699 130.234636 202.875613 131.48292 201.627329 
C 132.731204 200.379045 133.432581 198.685771 133.432581 196.920431 
C 133.432581 195.155091 132.731204 193.461817 131.48292 192.213533 
C 130.234636 190.965249 128.541363 190.263872 126.776023 190.263872 
C 125.010683 190.263872 123.317409 190.965249 122.069125 192.213533 
C 120.820841 193.461817 120.119464 195.155091 120.119464 196.920431 
C 120.119464 198.685771 120.820841 200.379045 122.069125 201.627329 
C 123.317409 202.875613 125.010683 203.57699 126.776023 203.57699 
z
" style="fill:#34618d;"/>
    <path clip-path="url(#p0afa394dd9)" d="M 171.776157 217.668477 
C 173.54564 217.668477 175.242887 216.965454 176.4941 215.714241 
C 177.745313 214.463028 178.448336 212.765781 178.448336 210.996298 
C 178.448336 209.226816 177.745313 207.529569 176.4941 206.278356 
C 175.242887 205.027143 173.54564 204.32412 171.776157 204.32412 
C 170.006675 204.32412 168.309428 205.027143 167.058215 206.278356 
C 165.807002 207.529569 165.103979 209.226816 165.103979 210.996298 
C 165.103979 212.765781 165.807002 214.463028 167.058215 215.714241 
C 168.309428 216.965454 170.006675 217.668477 171.776157 217.668477 
z
" style="fill:#355f8d;"/>
    <path clip-path="url(#p0afa394dd9)" d="M 107.939389 93.719079 
C 109.705078 93.719079 111.398688 93.017563 112.647219 91.769031 
C 113.89575 90.5205 114.597266 88.826891 114.597266 87.061201 
C 114.597266 85.295512 113.89575 83.601902 112.647219 82.353371 
C 111.398688 81.10484 109.705078 80.403324 107.939389 80.403324 
C 106.173699 80.403324 104.48009 81.10484 103.231559 82.353371 
C 101.983027 83.601902 101.281511 85.295512 101.281511 87.061201 
C 101.281511 88.826891 101.983027 90.5205 103.231559 91.769031 
C 104.48009 93.017563 106.173699 93.719079 107.939389 93.719079 
z
" style="fill:#22a884;"/>
    <path clip-path="url(#p0afa394dd9)" d="M 131.696088 239.969815 
C 133.461893 239.969815 135.155612 239.268253 136.404225 238.019641 
C 137.652837 236.771029 138.354399 235.077309 138.354399 233.311504 
C 138.354399 231.5457 137.652837 229.85198 136.404225 228.603367 
C 135.155612 227.354755 133.461893 226.653193 131.696088 226.653193 
C 129.930283 226.653193 128.236564 227.354755 126.987951 228.603367 
C 125.739339 229.85198 125.037777 231.5457 125.037777 233.311504 
C 125.037777 235.077309 125.739339 236.771029 126.987951 238.019641 
C 128.236564 239.268253 129.930283 239.969815 131.696088 239.969815 
z
" style="fill:#3b518b;"/>
    <path clip-path="url(#p0afa394dd9)" d="M 284.417863 166.900714 
C 286.180605 166.900714 287.871387 166.200369 289.117834 164.953922 
C 290.364281 163.707476 291.064626 162.016693 291.064626 160.253951 
C 291.064626 158.491209 290.364281 156.800427 289.117834 155.55398 
C 287.871387 154.307533 286.180605 153.607189 284.417863 153.607189 
C 282.655121 153.607189 280.964339 154.307533 279.717892 155.55398 
C 278.471445 156.800427 277.7711 158.491209 277.7711 160.253951 
C 277.7711 162.016693 278.471445 163.707476 279.717892 164.953922 
C 280.964339 166.200369 282.655121 166.900714 284.417863 166.900714 
z
" style="fill:#69cd5b;"/>
    <path clip-path="url(#p0afa394dd9)" d="M 197.638569 91.31468 
C 199.41085 91.31468 201.11078 90.610545 202.363972 89.357354 
C 203.617163 88.104162 204.321298 86.404231 204.321298 84.631951 
C 204.321298 82.859671 203.617163 81.15974 202.363972 79.906549 
C 201.11078 78.653357 199.41085 77.949223 197.638569 77.949223 
C 195.866289 77.949223 194.166358 78.653357 192.913167 79.906549 
C 191.659975 81.15974 190.955841 82.859671 190.955841 84.631951 
C 190.955841 86.404231 191.659975 88.104162 192.913167 89.357354 
C 194.166358 90.610545 195.866289 91.31468 197.638569 91.31468 
z
" style="fill:#3a548c;"/>
    <path clip-path="url(#p0afa394dd9)" d="M 115.580968 167.90614 
C 117.343833 167.90614 119.034732 167.205747 120.281266 165.959213 
C 121.527799 164.71268 122.228193 163.02178 122.228193 161.258916 
C 122.228193 159.496051 121.527799 157.805151 120.281266 156.558618 
C 119.034732 155.312084 117.343833 154.611691 115.580968 154.611691 
C 113.818104 154.611691 112.127204 155.312084 110.880671 156.558618 
C 109.634137 157.805151 108.933744 159.496051 108.933744 161.258916 
C 108.933744 163.02178 109.634137 164.71268 110.880671 165.959213 
C 112.127204 167.205747 113.818104 167.90614 115.580968 167.90614 
z
" style="fill:#440154;"/>
    <path clip-path="url(#p0afa394dd9)" d="M 71.052426 151.433817 
C 72.815014 151.433817 74.505649 150.733533 75.751988 149.487195 
C 76.998326 148.240856 77.69861 146.550221 77.69861 144.787633 
C 77.69861 143.025044 76.998326 141.334409 75.751988 140.088071 
C 74.505649 138.841732 72.815014 138.141448 71.052426 138.141448 
C 69.289837 138.141448 67.599202 138.841732 66.352864 140.088071 
C 65.106525 141.334409 64.406241 143.025044 64.406241 144.787633 
C 64.406241 146.550221 65.106525 148.240856 66.352864 149.487195 
C 67.599202 150.733533 69.289837 151.433817 71.052426 151.433817 
z
" style="fill:#22a785;"/>
    <path clip-path="url(#p0afa394dd9)" d="M 211.90057 197.155716 
C 213.672883 197.155716 215.372844 196.451569 216.626058 195.198355 
C 217.879273 193.94514 218.58342 192.245179 218.58342 190.472866 
C 218.58342 188.700554 217.879273 187.000592 216.626058 185.747378 
C 215.372844 184.494163 213.672883 183.790016 211.90057 183.790016 
C 210.128257 183.790016 208.428296 184.494163 207.175081 185.747378 
C 205.921867 187.000592 205.21772 188.700554 205.21772 190.472866 
C 205.21772 192.245179 205.921867 193.94514 207.175081 195.198355 
C 208.428296 196.451569 210.128257 197.155716 211.90057 197.155716 
z
" style="fill:#481c6e;"/>
   </g>
   <g id="text_1">
    <!-- Structure #6903, $E_N$=-177.18eV, ΔE=-0.42eV -->
    <defs>
     <path d="M 53.515625 70.515625 
L 53.515625 60.890625 
Q 47.90625 63.578125 42.921875 64.890625 
Q 37.9375 66.21875 33.296875 66.21875 
Q 25.25 66.21875 20.875 63.09375 
Q 16.5 59.96875 16.5 54.203125 
Q 16.5 49.359375 19.40625 46.890625 
Q 22.3125 44.4375 30.421875 42.921875 
L 36.375 41.703125 
Q 47.40625 39.59375 52.65625 34.296875 
Q 57.90625 29 57.90625 20.125 
Q 57.90625 9.515625 50.796875 4.046875 
Q 43.703125 -1.421875 29.984375 -1.421875 
Q 24.8125 -1.421875 18.96875 -0.25 
Q 13.140625 0.921875 6.890625 3.21875 
L 6.890625 13.375 
Q 12.890625 10.015625 18.65625 8.296875 
Q 24.421875 6.59375 29.984375 6.59375 
Q 38.421875 6.59375 43.015625 9.90625 
Q 47.609375 13.234375 47.609375 19.390625 
Q 47.609375 24.75 44.3125 27.78125 
Q 41.015625 30.8125 33.5 32.328125 
L 27.484375 33.5 
Q 16.453125 35.6875 11.515625 40.375 
Q 6.59375 45.0625 6.59375 53.421875 
Q 6.59375 63.09375 13.40625 68.65625 
Q 20.21875 74.21875 32.171875 74.21875 
Q 37.3125 74.21875 42.625 73.28125 
Q 47.953125 72.359375 53.515625 70.515625 
z
" id="DejaVuSans-53"/>
     <path d="M 18.3125 70.21875 
L 18.3125 54.6875 
L 36.8125 54.6875 
L 36.8125 47.703125 
L 18.3125 47.703125 
L 18.3125 18.015625 
Q 18.3125 11.328125 20.140625 9.421875 
Q 21.96875 7.515625 27.59375 7.515625 
L 36.8125 7.515625 
L 36.8125 0 
L 27.59375 0 
Q 17.1875 0 13.234375 3.875 
Q 9.28125 7.765625 9.28125 18.015625 
L 9.28125 47.703125 
L 2.6875 47.703125 
L 2.6875 54.6875 
L 9.28125 54.6875 
L 9.28125 70.21875 
z
" id="DejaVuSans-74"/>
     <path d="M 41.109375 46.296875 
Q 39.59375 47.171875 37.8125 47.578125 
Q 36.03125 48 33.890625 48 
Q 26.265625 48 22.1875 43.046875 
Q 18.109375 38.09375 18.109375 28.8125 
L 18.109375 0 
L 9.078125 0 
L 9.078125 54.6875 
L 18.109375 54.6875 
L 18.109375 46.1875 
Q 20.953125 51.171875 25.484375 53.578125 
Q 30.03125 56 36.53125 56 
Q 37.453125 56 38.578125 55.875 
Q 39.703125 55.765625 41.0625 55.515625 
z
" id="DejaVuSans-72"/>
     <path d="M 8.5 21.578125 
L 8.5 54.6875 
L 17.484375 54.6875 
L 17.484375 21.921875 
Q 17.484375 14.15625 20.5 10.265625 
Q 23.53125 6.390625 29.59375 6.390625 
Q 36.859375 6.390625 41.078125 11.03125 
Q 45.3125 15.671875 45.3125 23.6875 
L 45.3125 54.6875 
L 54.296875 54.6875 
L 54.296875 0 
L 45.3125 0 
L 45.3125 8.40625 
Q 42.046875 3.421875 37.71875 1 
Q 33.40625 -1.421875 27.6875 -1.421875 
Q 18.265625 -1.421875 13.375 4.4375 
Q 8.5 10.296875 8.5 21.578125 
z
M 31.109375 56 
z
" id="DejaVuSans-75"/>
     <path d="M 48.78125 52.59375 
L 48.78125 44.1875 
Q 44.96875 46.296875 41.140625 47.34375 
Q 37.3125 48.390625 33.40625 48.390625 
Q 24.65625 48.390625 19.8125 42.84375 
Q 14.984375 37.3125 14.984375 27.296875 
Q 14.984375 17.28125 19.8125 11.734375 
Q 24.65625 6.203125 33.40625 6.203125 
Q 37.3125 6.203125 41.140625 7.25 
Q 44.96875 8.296875 48.78125 10.40625 
L 48.78125 2.09375 
Q 45.015625 0.34375 40.984375 -0.53125 
Q 36.96875 -1.421875 32.421875 -1.421875 
Q 20.0625 -1.421875 12.78125 6.34375 
Q 5.515625 14.109375 5.515625 27.296875 
Q 5.515625 40.671875 12.859375 48.328125 
Q 20.21875 56 33.015625 56 
Q 37.15625 56 41.109375 55.140625 
Q 45.0625 54.296875 48.78125 52.59375 
z
" id="DejaVuSans-63"/>
     <path d="M 56.203125 29.59375 
L 56.203125 25.203125 
L 14.890625 25.203125 
Q 15.484375 15.921875 20.484375 11.0625 
Q 25.484375 6.203125 34.421875 6.203125 
Q 39.59375 6.203125 44.453125 7.46875 
Q 49.3125 8.734375 54.109375 11.28125 
L 54.109375 2.78125 
Q 49.265625 0.734375 44.1875 -0.34375 
Q 39.109375 -1.421875 33.890625 -1.421875 
Q 20.796875 -1.421875 13.15625 6.1875 
Q 5.515625 13.8125 5.515625 26.8125 
Q 5.515625 40.234375 12.765625 48.109375 
Q 20.015625 56 32.328125 56 
Q 43.359375 56 49.78125 48.890625 
Q 56.203125 41.796875 56.203125 29.59375 
z
M 47.21875 32.234375 
Q 47.125 39.59375 43.09375 43.984375 
Q 39.0625 48.390625 32.421875 48.390625 
Q 24.90625 48.390625 20.390625 44.140625 
Q 15.875 39.890625 15.1875 32.171875 
z
" id="DejaVuSans-65"/>
     <path id="DejaVuSans-20"/>
     <path d="M 51.125 44 
L 36.921875 44 
L 32.8125 27.6875 
L 47.125 27.6875 
z
M 43.796875 71.78125 
L 38.71875 51.515625 
L 52.984375 51.515625 
L 58.109375 71.78125 
L 65.921875 71.78125 
L 60.890625 51.515625 
L 76.125 51.515625 
L 76.125 44 
L 58.984375 44 
L 54.984375 27.6875 
L 70.515625 27.6875 
L 70.515625 20.21875 
L 53.078125 20.21875 
L 48 0 
L 40.1875 0 
L 45.21875 20.21875 
L 30.90625 20.21875 
L 25.875 0 
L 18.015625 0 
L 23.09375 20.21875 
L 7.71875 20.21875 
L 7.71875 27.6875 
L 24.90625 27.6875 
L 29 44 
L 13.28125 44 
L 13.28125 51.515625 
L 30.90625 51.515625 
L 35.890625 71.78125 
z
" id="DejaVuSans-23"/>
     <path d="M 33.015625 40.375 
Q 26.375 40.375 22.484375 35.828125 
Q 18.609375 31.296875 18.609375 23.390625 
Q 18.609375 15.53125 22.484375 10.953125 
Q 26.375 6.390625 33.015625 6.390625 
Q 39.65625 6.390625 43.53125 10.953125 
Q 47.40625 15.53125 47.40625 23.390625 
Q 47.40625 31.296875 43.53125 35.828125 
Q 39.65625 40.375 33.015625 40.375 
z
M 52.59375 71.296875 
L 52.59375 62.3125 
Q 48.875 64.0625 45.09375 64.984375 
Q 41.3125 65.921875 37.59375 65.921875 
Q 27.828125 65.921875 22.671875 59.328125 
Q 17.53125 52.734375 16.796875 39.40625 
Q 19.671875 43.65625 24.015625 45.921875 
Q 28.375 48.1875 33.59375 48.1875 
Q 44.578125 48.1875 50.953125 41.515625 
Q 57.328125 34.859375 57.328125 23.390625 
Q 57.328125 12.15625 50.6875 5.359375 
Q 44.046875 -1.421875 33.015625 -1.421875 
Q 20.359375 -1.421875 13.671875 8.265625 
Q 6.984375 17.96875 6.984375 36.375 
Q 6.984375 53.65625 15.1875 63.9375 
Q 23.390625 74.21875 37.203125 74.21875 
Q 40.921875 74.21875 44.703125 73.484375 
Q 48.484375 72.75 52.59375 71.296875 
z
" id="DejaVuSans-36"/>
     <path d="M 10.984375 1.515625 
L 10.984375 10.5 
Q 14.703125 8.734375 18.5 7.8125 
Q 22.3125 6.890625 25.984375 6.890625 
Q 35.75 6.890625 40.890625 13.453125 
Q 46.046875 20.015625 46.78125 33.40625 
Q 43.953125 29.203125 39.59375 26.953125 
Q 35.25 24.703125 29.984375 24.703125 
Q 19.046875 24.703125 12.671875 31.3125 
Q 6.296875 37.9375 6.296875 49.421875 
Q 6.296875 60.640625 12.9375 67.421875 
Q 19.578125 74.21875 30.609375 74.21875 
Q 43.265625 74.21875 49.921875 64.515625 
Q 56.59375 54.828125 56.59375 36.375 
Q 56.59375 19.140625 48.40625 8.859375 
Q 40.234375 -1.421875 26.421875 -1.421875 
Q 22.703125 -1.421875 18.890625 -0.6875 
Q 15.09375 0.046875 10.984375 1.515625 
z
M 30.609375 32.421875 
Q 37.25 32.421875 41.125 36.953125 
Q 45.015625 41.5 45.015625 49.421875 
Q 45.015625 57.28125 41.125 61.84375 
Q 37.25 66.40625 30.609375 66.40625 
Q 23.96875 66.40625 20.09375 61.84375 
Q 16.21875 57.28125 16.21875 49.421875 
Q 16.21875 41.5 20.09375 36.953125 
Q 23.96875 32.421875 30.609375 32.421875 
z
" id="DejaVuSans-39"/>
     <path d="M 31.78125 66.40625 
Q 24.171875 66.40625 20.328125 58.90625 
Q 16.5 51.421875 16.5 36.375 
Q 16.5 21.390625 20.328125 13.890625 
Q 24.171875 6.390625 31.78125 6.390625 
Q 39.453125 6.390625 43.28125 13.890625 
Q 47.125 21.390625 47.125 36.375 
Q 47.125 51.421875 43.28125 58.90625 
Q 39.453125 66.40625 31.78125 66.40625 
z
M 31.78125 74.21875 
Q 44.046875 74.21875 50.515625 64.515625 
Q 56.984375 54.828125 56.984375 36.375 
Q 56.984375 17.96875 50.515625 8.265625 
Q 44.046875 -1.421875 31.78125 -1.421875 
Q 19.53125 -1.421875 13.0625 8.265625 
Q 6.59375 17.96875 6.59375 36.375 
Q 6.59375 54.828125 13.0625 64.515625 
Q 19.53125 74.21875 31.78125 74.21875 
z
" id="DejaVuSans-30"/>
     <path d="M 40.578125 39.3125 
Q 47.65625 37.796875 51.625 33 
Q 55.609375 28.21875 55.609375 21.1875 
Q 55.609375 10.40625 48.1875 4.484375 
Q 40.765625 -1.421875 27.09375 -1.421875 
Q 22.515625 -1.421875 17.65625 -0.515625 
Q 12.796875 0.390625 7.625 2.203125 
L 7.625 11.71875 
Q 11.71875 9.328125 16.59375 8.109375 
Q 21.484375 6.890625 26.8125 6.890625 
Q 36.078125 6.890625 40.9375 10.546875 
Q 45.796875 14.203125 45.796875 21.1875 
Q 45.796875 27.640625 41.28125 31.265625 
Q 36.765625 34.90625 28.71875 34.90625 
L 20.21875 34.90625 
L 20.21875 43.015625 
L 29.109375 43.015625 
Q 36.375 43.015625 40.234375 45.921875 
Q 44.09375 48.828125 44.09375 54.296875 
Q 44.09375 59.90625 40.109375 62.90625 
Q 36.140625 65.921875 28.71875 65.921875 
Q 24.65625 65.921875 20.015625 65.03125 
Q 15.375 64.15625 9.8125 62.3125 
L 9.8125 71.09375 
Q 15.4375 72.65625 20.34375 73.4375 
Q 25.25 74.21875 29.59375 74.21875 
Q 40.828125 74.21875 47.359375 69.109375 
Q 53.90625 64.015625 53.90625 55.328125 
Q 53.90625 49.265625 50.4375 45.09375 
Q 46.96875 40.921875 40.578125 39.3125 
z
" id="DejaVuSans-33"/>
     <path d="M 11.71875 12.40625 
L 22.015625 12.40625 
L 22.015625 4 
L 14.015625 -11.625 
L 7.71875 -11.625 
L 11.71875 4 
z
" id="DejaVuSans-2c"/>
     <path d="M 16.890625 72.90625 
L 62.984375 72.90625 
L 61.375 64.59375 
L 25.09375 64.59375 
L 20.90625 43.015625 
L 55.71875 43.015625 
L 54.109375 34.71875 
L 19.28125 34.71875 
L 14.203125 8.296875 
L 51.3125 8.296875 
L 49.703125 0 
L 2.6875 0 
z
" id="DejaVuSans-Oblique-45"/>
     <path d="M 16.890625 72.90625 
L 30.171875 72.90625 
L 50.296875 10.40625 
L 62.5 72.90625 
L 72.125 72.90625 
L 57.90625 0 
L 44.578125 0 
L 24.515625 62.890625 
L 12.3125 0 
L 2.6875 0 
z
" id="DejaVuSans-Oblique-4e"/>
     <path d="M 10.59375 45.40625 
L 73.1875 45.40625 
L 73.1875 37.203125 
L 10.59375 37.203125 
z
M 10.59375 25.484375 
L 73.1875 25.484375 
L 73.1875 17.1875 
L 10.59375 17.1875 
z
" id="DejaVuSans-3d"/>
     <path d="M 4.890625 31.390625 
L 31.203125 31.390625 
L 31.203125 23.390625 
L 4.890625 23.390625 
z
" id="DejaVuSans-2d"/>
     <path d="M 12.40625 8.296875 
L 28.515625 8.296875 
L 28.515625 63.921875 
L 10.984375 60.40625 
L 10.984375 69.390625 
L 28.421875 72.90625 
L 38.28125 72.90625 
L 38.28125 8.296875 
L 54.390625 8.296875 
L 54.390625 0 
L 12.40625 0 
z
" id="DejaVuSans-31"/>
     <path d="M 8.203125 72.90625 
L 55.078125 72.90625 
L 55.078125 68.703125 
L 28.609375 0 
L 18.3125 0 
L 43.21875 64.59375 
L 8.203125 64.59375 
z
" id="DejaVuSans-37"/>
     <path d="M 10.6875 12.40625 
L 21 12.40625 
L 21 0 
L 10.6875 0 
z
" id="DejaVuSans-2e"/>
     <path d="M 31.78125 34.625 
Q 24.75 34.625 20.71875 30.859375 
Q 16.703125 27.09375 16.703125 20.515625 
Q 16.703125 13.921875 20.71875 10.15625 
Q 24.75 6.390625 31.78125 6.390625 
Q 38.8125 6.390625 42.859375 10.171875 
Q 46.921875 13.96875 46.921875 20.515625 
Q 46.921875 27.09375 42.890625 30.859375 
Q 38.875 34.625 31.78125 34.625 
z
M 21.921875 38.8125 
Q 15.578125 40.375 12.03125 44.71875 
Q 8.5 49.078125 8.5 55.328125 
Q 8.5 64.0625 14.71875 69.140625 
Q 20.953125 74.21875 31.78125 74.21875 
Q 42.671875 74.21875 48.875 69.140625 
Q 55.078125 64.0625 55.078125 55.328125 
Q 55.078125 49.078125 51.53125 44.71875 
Q 48 40.375 41.703125 38.8125 
Q 48.828125 37.15625 52.796875 32.3125 
Q 56.78125 27.484375 56.78125 20.515625 
Q 56.78125 9.90625 50.3125 4.234375 
Q 43.84375 -1.421875 31.78125 -1.421875 
Q 19.734375 -1.421875 13.25 4.234375 
Q 6.78125 9.90625 6.78125 20.515625 
Q 6.78125 27.484375 10.78125 32.3125 
Q 14.796875 37.15625 21.921875 38.8125 
z
M 18.3125 54.390625 
Q 18.3125 48.734375 21.84375 45.5625 
Q 25.390625 42.390625 31.78125 42.390625 
Q 38.140625 42.390625 41.71875 45.5625 
Q 45.3125 48.734375 45.3125 54.390625 
Q 45.3125 60.0625 41.71875 63.234375 
Q 38.140625 66.40625 31.78125 66.40625 
Q 25.390625 66.40625 21.84375 63.234375 
Q 18.3125 60.0625 18.3125 54.390625 
z
" id="DejaVuSans-38"/>
     <path d="M 28.609375 0 
L 0.78125 72.90625 
L 11.078125 72.90625 
L 34.1875 11.53125 
L 57.328125 72.90625 
L 67.578125 72.90625 
L 39.796875 0 
z
" id="DejaVuSans-56"/>
     <path d="M 34.1875 63.1875 
L 14.15625 8.203125 
L 54.25 8.203125 
z
M 0.78125 0 
L 28.609375 72.90625 
L 39.796875 72.90625 
L 67.578125 0 
z
" id="DejaVuSans-394"/>
     <path d="M 9.8125 72.90625 
L 55.90625 72.90625 
L 55.90625 64.59375 
L 19.671875 64.59375 
L 19.671875 43.015625 
L 54.390625 43.015625 
L 54.390625 34.71875 
L 19.671875 34.71875 
L 19.671875 8.296875 
L 56.78125 8.296875 
L 56.78125 0 
L 9.8125 0 
z
" id="DejaVuSans-45"/>
     <path d="M 37.796875 64.3125 
L 12.890625 25.390625 
L 37.796875 25.390625 
z
M 35.203125 72.90625 
L 47.609375 72.90625 
L 47.609375 25.390625 
L 58.015625 25.390625 
L 58.015625 17.1875 
L 47.609375 17.1875 
L 47.609375 0 
L 37.796875 0 
L 37.796875 17.1875 
L 4.890625 17.1875 
L 4.890625 26.703125 
z
" id="DejaVuSans-34"/>
     <path d="M 19.1875 8.296875 
L 53.609375 8.296875 
L 53.609375 0 
L 7.328125 0 
L 7.328125 8.296875 
Q 12.9375 14.109375 22.625 23.890625 
Q 32.328125 33.6875 34.8125 36.53125 
Q 39.546875 41.84375 41.421875 45.53125 
Q 43.3125 49.21875 43.3125 52.78125 
Q 43.3125 58.59375 39.234375 62.25 
Q 35.15625 65.921875 28.609375 65.921875 
Q 23.96875 65.921875 18.8125 64.3125 
Q 13.671875 62.703125 7.8125 59.421875 
L 7.8125 69.390625 
Q 13.765625 71.78125 18.9375 73 
Q 24.125 74.21875 28.421875 74.21875 
Q 39.75 74.21875 46.484375 68.546875 
Q 53.21875 62.890625 53.21875 53.421875 
Q 53.21875 48.921875 51.53125 44.890625 
Q 49.859375 40.875 45.40625 35.40625 
Q 44.1875 33.984375 37.640625 27.21875 
Q 31.109375 20.453125 19.1875 8.296875 
z
" id="DejaVuSans-32"/>
    </defs>
    <g transform="translate(63.228 35.472)scale(0.12 -0.12)">
     <use transform="translate(0 0.78125)" xlink:href="#DejaVuSans-53"/>
     <use transform="translate(63.476562 0.78125)" xlink:href="#DejaVuSans-74"/>
     <use transform="translate(102.685547 0.78125)" xlink:href="#DejaVuSans-72"/>
     <use transform="translate(143.798828 0.78125)" xlink:href="#DejaVuSans-75"/>
     <use transform="translate(207.177734 0.78125)" xlink:href="#DejaVuSans-63"/>
     <use transform="translate(262.158203 0.78125)" xlink:href="#DejaVuSans-74"/>
     <use transform="translate(301.367188 0.78125)" xlink:href="#DejaVuSans-75"/>
     <use transform="translate(364.746094 0.78125)" xlink:href="#DejaVuSans-72"/>
     <use transform="translate(405.859375 0.78125)" xlink:href="#DejaVuSans-65"/>
     <use transform="translate(467.382812 0.78125)" xlink:href="#DejaVuSans-20"/>
     <use transform="translate(499.169922 0.78125)" xlink:href="#DejaVuSans-23"/>
     <use transform="translate(582.958984 0.78125)" xlink:href="#DejaVuSans-36"/>
     <use transform="translate(646.582031 0.78125)" xlink:href="#DejaVuSans-39"/>
     <use transform="translate(710.205078 0.78125)" xlink:href="#DejaVuSans-30"/>
     <use transform="translate(773.828125 0.78125)" xlink:href="#DejaVuSans-33"/>
     <use transform="translate(837.451172 0.78125)" xlink:href="#DejaVuSans-2c"/>
     <use transform="translate(869.238281 0.78125)" xlink:href="#DejaVuSans-20"/>
     <use transform="translate(901.025391 0.78125)" xlink:href="#DejaVuSans-Oblique-45"/>
     <use transform="translate(964.208984 -15.625)scale(0.7)" xlink:href="#DejaVuSans-Oblique-4e"/>
     <use transform="translate(1019.306641 0.78125)" xlink:href="#DejaVuSans-3d"/>
     <use transform="translate(1103.095703 0.78125)" xlink:href="#DejaVuSans-2d"/>
     <use transform="translate(1139.179688 0.78125)" xlink:href="#DejaVuSans-31"/>
     <use transform="translate(1202.802734 0.78125)" xlink:href="#DejaVuSans-37"/>
     <use transform="translate(1266.410156 0.78125)" xlink:href="#DejaVuSans-37"/>
     <use transform="translate(1330.033203 0.78125)" xlink:href="#DejaVuSans-2e"/>
     <use transform="translate(1361.820312 0.78125)" xlink:href="#DejaVuSans-31"/>
     <use transform="translate(1425.443359 0.78125)" xlink:href="#DejaVuSans-38"/>
     <use transform="translate(1489.066406 0.78125)" xlink:href="#DejaVuSans-65"/>
     <use transform="translate(1550.589844 0.78125)" xlink:href="#DejaVuSans-56"/>
     <use transform="translate(1618.998047 0.78125)" xlink:href="#DejaVuSans-2c"/>
     <use transform="translate(1650.785156 0.78125)" xlink:href="#DejaVuSans-20"/>
     <use transform="translate(1682.572266 0.78125)" xlink:href="#DejaVuSans-394"/>
     <use transform="translate(1750.980469 0.78125)" xlink:href="#DejaVuSans-45"/>
     <use transform="translate(1814.164062 0.78125)" xlink:href="#DejaVuSans-3d"/>
     <use transform="translate(1897.953125 0.78125)" xlink:href="#DejaVuSans-2d"/>
     <use transform="translate(1934.037109 0.78125)" xlink:href="#DejaVuSans-30"/>
     <use transform="translate(1997.660156 0.78125)" xlink:href="#DejaVuSans-2e"/>
     <use transform="translate(2029.447266 0.78125)" xlink:href="#DejaVuSans-34"/>
     <use transform="translate(2093.070312 0.78125)" xlink:href="#DejaVuSans-32"/>
     <use transform="translate(2156.693359 0.78125)" xlink:href="#DejaVuSans-65"/>
     <use transform="translate(2218.216797 0.78125)" xlink:href="#DejaVuSans-56"/>
    </g>
   </g>
  </g>
  <g id="axes_2">
   <g id="patch_2">
    <path clip-path="url(#p868be62d29)" d="M 361.152 307.584 
L 361.152 306.5445 
L 361.152 42.5115 
L 361.152 41.472 
L 374.4576 41.472 
L 374.4576 42.5115 
L 374.4576 306.5445 
L 374.4576 307.584 
z
" style="fill:#ffffff;stroke:#ffffff;stroke-linejoin:miter;stroke-width:0.01;"/>
   </g>
   <image height="265.68" id="image3b63de8be6" transform="scale(1 -1)translate(0 -265.68)" width="12.96" x="361.44" xlink:href="data:image/png;base64,
iVBORw0KGgoAAAANSUhEUgAAABIAAAFxCAYAAAB+2fgXAAAABHNCSVQICAgIfAhkiAAAAeVJREFUeJztncmNw0AQA2ckheYQNv9QLIfQ8ygsCgQ7AEI8+jAs2Puz/94F1LP2ReCsZ18bAWIeZ5XaGRBE7VnbptG+KI101FYyNSiQG2oRITXKNaX9uclOdi2XWjftVE32CZCO2ou5Bj1TcCBr/1zB9ge7Fq0Rg2NM9pvbtG+ua1QgsRYhDy0ISEiNc40BEibbSI0Coj5CBGtkpFbXJiAjNZlrwhuSOv2M1DjXbEdEciBt1JSDDQKKpmZr2rr2j0DBGpXaWEJq3bQzEPIS26r9J+Wzv9Tm8o3aajRXqc3VUXsApKNWjeZq0x4ABVNbm7lrszVigDqP5vIl2+eaT2yfRkL7g+dRcNPqjohkjaCvRVBq0H2U3LQrOJCx9kdTg4B8oxZzzTdqdYHEngjUCAPyUctN9sVRq2sTECW2UKNLd2jVtRmo1A6AhMmWaSRcR8nUdIHUuVb75zJS218EyEitro1At69pIdeSk30Lkw0FktNImGyZRhy1O5galmxd03LUsHWk06jUZiCq+5Wb1kZNN4+wJxJuWt8RAW5am2sYNZ9rYCBzZ3buPKJ2P5Yj4Toy3keyIyJbIxs1rml1byCA84gpch5RQNB7Q0qNMGq2Hy4BXdNR41yz/cEEJfZzUz96r9PoB0okjeQ8y9TkAAAAAElFTkSuQmCC" y="-41.76"/>
   <g id="matplotlib.axis_1"/>
   <g id="matplotlib.axis_2">
    <g id="ytick_1">
     <g id="line2d_1">
      <defs>
       <path d="M 0 0 
L 3.5 0 
" id="maffeeacfaa" style="stroke:#000000;stroke-width:0.8;"/>
      </defs>
      <g>
       <use style="stroke:#000000;stroke-width:0.8;" x="374.4576" xlink:href="#maffeeacfaa" y="285.750483"/>
      </g>
     </g>
     <g id="text_2">
      <!-- −8.5 -->
      <defs>
       <path d="M 10.59375 35.5 
L 73.1875 35.5 
L 73.1875 27.203125 
L 10.59375 27.203125 
z
" id="DejaVuSans-2212"/>
       <path d="M 10.796875 72.90625 
L 49.515625 72.90625 
L 49.515625 64.59375 
L 19.828125 64.59375 
L 19.828125 46.734375 
Q 21.96875 47.46875 24.109375 47.828125 
Q 26.265625 48.1875 28.421875 48.1875 
Q 40.625 48.1875 47.75 41.5 
Q 54.890625 34.8125 54.890625 23.390625 
Q 54.890625 11.625 47.5625 5.09375 
Q 40.234375 -1.421875 26.90625 -1.421875 
Q 22.3125 -1.421875 17.546875 -0.640625 
Q 12.796875 0.140625 7.71875 1.703125 
L 7.71875 11.625 
Q 12.109375 9.234375 16.796875 8.0625 
Q 21.484375 6.890625 26.703125 6.890625 
Q 35.15625 6.890625 40.078125 11.328125 
Q 45.015625 15.765625 45.015625 23.390625 
Q 45.015625 31 40.078125 35.4375 
Q 35.15625 39.890625 26.703125 39.890625 
Q 22.75 39.890625 18.8125 39.015625 
Q 14.890625 38.140625 10.796875 36.28125 
z
" id="DejaVuSans-35"/>
      </defs>
      <g transform="translate(381.4576 289.549701)scale(0.1 -0.1)">
       <use xlink:href="#DejaVuSans-2212"/>
       <use x="83.789062" xlink:href="#DejaVuSans-38"/>
       <use x="147.412109" xlink:href="#DejaVuSans-2e"/>
       <use x="179.199219" xlink:href="#DejaVuSans-35"/>
      </g>
     </g>
    </g>
    <g id="ytick_2">
     <g id="line2d_2">
      <g>
       <use style="stroke:#000000;stroke-width:0.8;" x="374.4576" xlink:href="#maffeeacfaa" y="251.770872"/>
      </g>
     </g>
     <g id="text_3">
      <!-- −8.0 -->
      <g transform="translate(381.4576 255.570091)scale(0.1 -0.1)">
       <use xlink:href="#DejaVuSans-2212"/>
       <use x="83.789062" xlink:href="#DejaVuSans-38"/>
       <use x="147.412109" xlink:href="#DejaVuSans-2e"/>
       <use x="179.199219" xlink:href="#DejaVuSans-30"/>
      </g>
     </g>
    </g>
    <g id="ytick_3">
     <g id="line2d_3">
      <g>
       <use style="stroke:#000000;stroke-width:0.8;" x="374.4576" xlink:href="#maffeeacfaa" y="217.791262"/>
      </g>
     </g>
     <g id="text_4">
      <!-- −7.5 -->
      <g transform="translate(381.4576 221.590481)scale(0.1 -0.1)">
       <use xlink:href="#DejaVuSans-2212"/>
       <use x="83.789062" xlink:href="#DejaVuSans-37"/>
       <use x="147.412109" xlink:href="#DejaVuSans-2e"/>
       <use x="179.199219" xlink:href="#DejaVuSans-35"/>
      </g>
     </g>
    </g>
    <g id="ytick_4">
     <g id="line2d_4">
      <g>
       <use style="stroke:#000000;stroke-width:0.8;" x="374.4576" xlink:href="#maffeeacfaa" y="183.811652"/>
      </g>
     </g>
     <g id="text_5">
      <!-- −7.0 -->
      <g transform="translate(381.4576 187.610871)scale(0.1 -0.1)">
       <use xlink:href="#DejaVuSans-2212"/>
       <use x="83.789062" xlink:href="#DejaVuSans-37"/>
       <use x="147.412109" xlink:href="#DejaVuSans-2e"/>
       <use x="179.199219" xlink:href="#DejaVuSans-30"/>
      </g>
     </g>
    </g>
    <g id="ytick_5">
     <g id="line2d_5">
      <g>
       <use style="stroke:#000000;stroke-width:0.8;" x="374.4576" xlink:href="#maffeeacfaa" y="149.832042"/>
      </g>
     </g>
     <g id="text_6">
      <!-- −6.5 -->
      <g transform="translate(381.4576 153.63126)scale(0.1 -0.1)">
       <use xlink:href="#DejaVuSans-2212"/>
       <use x="83.789062" xlink:href="#DejaVuSans-36"/>
       <use x="147.412109" xlink:href="#DejaVuSans-2e"/>
       <use x="179.199219" xlink:href="#DejaVuSans-35"/>
      </g>
     </g>
    </g>
    <g id="ytick_6">
     <g id="line2d_6">
      <g>
       <use style="stroke:#000000;stroke-width:0.8;" x="374.4576" xlink:href="#maffeeacfaa" y="115.852431"/>
      </g>
     </g>
     <g id="text_7">
      <!-- −6.0 -->
      <g transform="translate(381.4576 119.65165)scale(0.1 -0.1)">
       <use xlink:href="#DejaVuSans-2212"/>
       <use x="83.789062" xlink:href="#DejaVuSans-36"/>
       <use x="147.412109" xlink:href="#DejaVuSans-2e"/>
       <use x="179.199219" xlink:href="#DejaVuSans-30"/>
      </g>
     </g>
    </g>
    <g id="ytick_7">
     <g id="line2d_7">
      <g>
       <use style="stroke:#000000;stroke-width:0.8;" x="374.4576" xlink:href="#maffeeacfaa" y="81.872821"/>
      </g>
     </g>
     <g id="text_8">
      <!-- −5.5 -->
      <g transform="translate(381.4576 85.67204)scale(0.1 -0.1)">
       <use xlink:href="#DejaVuSans-2212"/>
       <use x="83.789062" xlink:href="#DejaVuSans-35"/>
       <use x="147.412109" xlink:href="#DejaVuSans-2e"/>
       <use x="179.199219" xlink:href="#DejaVuSans-35"/>
      </g>
     </g>
    </g>
    <g id="ytick_8">
     <g id="line2d_8">
      <g>
       <use style="stroke:#000000;stroke-width:0.8;" x="374.4576" xlink:href="#maffeeacfaa" y="47.893211"/>
      </g>
     </g>
     <g id="text_9">
      <!-- −5.0 -->
      <g transform="translate(381.4576 51.69243)scale(0.1 -0.1)">
       <use xlink:href="#DejaVuSans-2212"/>
       <use x="83.789062" xlink:href="#DejaVuSans-35"/>
       <use x="147.412109" xlink:href="#DejaVuSans-2e"/>
       <use x="179.199219" xlink:href="#DejaVuSans-30"/>
      </g>
     </g>
    </g>
    <g id="text_10">
     <!-- Energy [eV] -->
     <defs>
      <path d="M 54.890625 33.015625 
L 54.890625 0 
L 45.90625 0 
L 45.90625 32.71875 
Q 45.90625 40.484375 42.875 44.328125 
Q 39.84375 48.1875 33.796875 48.1875 
Q 26.515625 48.1875 22.3125 43.546875 
Q 18.109375 38.921875 18.109375 30.90625 
L 18.109375 0 
L 9.078125 0 
L 9.078125 54.6875 
L 18.109375 54.6875 
L 18.109375 46.1875 
Q 21.34375 51.125 25.703125 53.5625 
Q 30.078125 56 35.796875 56 
Q 45.21875 56 50.046875 50.171875 
Q 54.890625 44.34375 54.890625 33.015625 
z
" id="DejaVuSans-6e"/>
      <path d="M 45.40625 27.984375 
Q 45.40625 37.75 41.375 43.109375 
Q 37.359375 48.484375 30.078125 48.484375 
Q 22.859375 48.484375 18.828125 43.109375 
Q 14.796875 37.75 14.796875 27.984375 
Q 14.796875 18.265625 18.828125 12.890625 
Q 22.859375 7.515625 30.078125 7.515625 
Q 37.359375 7.515625 41.375 12.890625 
Q 45.40625 18.265625 45.40625 27.984375 
z
M 54.390625 6.78125 
Q 54.390625 -7.171875 48.1875 -13.984375 
Q 42 -20.796875 29.203125 -20.796875 
Q 24.46875 -20.796875 20.265625 -20.09375 
Q 16.0625 -19.390625 12.109375 -17.921875 
L 12.109375 -9.1875 
Q 16.0625 -11.328125 19.921875 -12.34375 
Q 23.78125 -13.375 27.78125 -13.375 
Q 36.625 -13.375 41.015625 -8.765625 
Q 45.40625 -4.15625 45.40625 5.171875 
L 45.40625 9.625 
Q 42.625 4.78125 38.28125 2.390625 
Q 33.9375 0 27.875 0 
Q 17.828125 0 11.671875 7.65625 
Q 5.515625 15.328125 5.515625 27.984375 
Q 5.515625 40.671875 11.671875 48.328125 
Q 17.828125 56 27.875 56 
Q 33.9375 56 38.28125 53.609375 
Q 42.625 51.21875 45.40625 46.390625 
L 45.40625 54.6875 
L 54.390625 54.6875 
z
" id="DejaVuSans-67"/>
      <path d="M 32.171875 -5.078125 
Q 28.375 -14.84375 24.75 -17.8125 
Q 21.140625 -20.796875 15.09375 -20.796875 
L 7.90625 -20.796875 
L 7.90625 -13.28125 
L 13.1875 -13.28125 
Q 16.890625 -13.28125 18.9375 -11.515625 
Q 21 -9.765625 23.484375 -3.21875 
L 25.09375 0.875 
L 2.984375 54.6875 
L 12.5 54.6875 
L 29.59375 11.921875 
L 46.6875 54.6875 
L 56.203125 54.6875 
z
" id="DejaVuSans-79"/>
      <path d="M 8.59375 75.984375 
L 29.296875 75.984375 
L 29.296875 69 
L 17.578125 69 
L 17.578125 -6.203125 
L 29.296875 -6.203125 
L 29.296875 -13.1875 
L 8.59375 -13.1875 
z
" id="DejaVuSans-5b"/>
      <path d="M 30.421875 75.984375 
L 30.421875 -13.1875 
L 9.71875 -13.1875 
L 9.71875 -6.203125 
L 21.390625 -6.203125 
L 21.390625 69 
L 9.71875 69 
L 9.71875 75.984375 
z
" id="DejaVuSans-5d"/>
     </defs>
     <g transform="translate(417.33885 204.108469)rotate(-90)scale(0.1 -0.1)">
      <use xlink:href="#DejaVuSans-45"/>
      <use x="63.183594" xlink:href="#DejaVuSans-6e"/>
      <use x="126.5625" xlink:href="#DejaVuSans-65"/>
      <use x="188.085938" xlink:href="#DejaVuSans-72"/>
      <use x="229.183594" xlink:href="#DejaVuSans-67"/>
      <use x="292.660156" xlink:href="#DejaVuSans-79"/>
      <use x="351.839844" xlink:href="#DejaVuSans-20"/>
      <use x="383.626953" xlink:href="#DejaVuSans-5b"/>
      <use x="422.640625" xlink:href="#DejaVuSans-65"/>
      <use x="484.164062" xlink:href="#DejaVuSans-56"/>
      <use x="552.572266" xlink:href="#DejaVuSans-5d"/>
     </g>
    </g>
   </g>
   <g id="patch_3">
    <path d="M 361.152 307.584 
L 361.152 306.5445 
L 361.152 42.5115 
L 361.152 41.472 
L 374.4576 41.472 
L 374.4576 42.5115 
L 374.4576 306.5445 
L 374.4576 307.584 
z
" style="fill:none;stroke:#000000;stroke-linejoin:miter;stroke-width:0.8;"/>
   </g>
  </g>
 </g>
 <defs>
  <clipPath id="p0afa394dd9">
   <rect height="266.112" width="285.696" x="57.6" y="41.472"/>
  </clipPath>
  <clipPath id="p868be62d29">
   <rect height="266.112" width="13.3056" x="361.152" y="41.472"/>
  </clipPath>
 </defs>
</svg>
