<?xml version="1.0" encoding="utf-8" standalone="no"?>
<!DOCTYPE svg PUBLIC "-//W3C//DTD SVG 1.1//EN"
  "http://www.w3.org/Graphics/SVG/1.1/DTD/svg11.dtd">
<!-- Created with matplotlib (http://matplotlib.org/) -->
<svg height="345.6pt" version="1.1" viewBox="0 0 460.8 345.6" width="460.8pt" xmlns="http://www.w3.org/2000/svg" xmlns:xlink="http://www.w3.org/1999/xlink">
 <defs>
  <style type="text/css">
*{stroke-linecap:butt;stroke-linejoin:round;}
  </style>
 </defs>
 <g id="figure_1">
  <g id="patch_1">
   <path d="M 0 345.6 
L 460.8 345.6 
L 460.8 0 
L 0 0 
z
" style="fill:#ffffff;"/>
  </g>
  <g id="axes_1">
   <g id="CircleCollection_1">
    <path clip-path="url(#p694a643325)" d="M 143.715979 301.981443 
C 145.565161 301.981443 147.338855 301.246755 148.646424 299.939186 
C 149.953993 298.631617 150.688681 296.857923 150.688681 295.008741 
C 150.688681 293.159559 149.953993 291.385866 148.646424 290.078297 
C 147.338855 288.770728 145.565161 288.03604 143.715979 288.03604 
C 141.866797 288.03604 140.093104 288.770728 138.785535 290.078297 
C 137.477966 291.385866 136.743278 293.159559 136.743278 295.008741 
C 136.743278 296.857923 137.477966 298.631617 138.785535 299.939186 
C 140.093104 301.246755 141.866797 301.981443 143.715979 301.981443 
z
" style="fill:#efe51c;"/>
    <path clip-path="url(#p694a643325)" d="M 184.828065 218.602335 
C 186.665813 218.602335 188.428539 217.87219 189.728023 216.572706 
C 191.027507 215.273222 191.757652 213.510496 191.757652 211.672748 
C 191.757652 209.835001 191.027507 208.072275 189.728023 206.772791 
C 188.428539 205.473307 186.665813 204.743162 184.828065 204.743162 
C 182.990317 204.743162 181.227592 205.473307 179.928108 206.772791 
C 178.628624 208.072275 177.898479 209.835001 177.898479 211.672748 
C 177.898479 213.510496 178.628624 215.273222 179.928108 216.572706 
C 181.227592 217.87219 182.990317 218.602335 184.828065 218.602335 
z
" style="fill:#423f85;"/>
    <path clip-path="url(#p694a643325)" d="M 213.286509 96.435759 
C 215.127185 96.435759 216.892719 95.70445 218.194274 94.402896 
C 219.495829 93.101341 220.227137 91.335806 220.227137 89.49513 
C 220.227137 87.654454 219.495829 85.88892 218.194274 84.587365 
C 216.892719 83.28581 215.127185 82.554502 213.286509 82.554502 
C 211.445833 82.554502 209.680298 83.28581 208.378743 84.587365 
C 207.077189 85.88892 206.34588 87.654454 206.34588 89.49513 
C 206.34588 91.335806 207.077189 93.101341 208.378743 94.402896 
C 209.680298 95.70445 211.445833 96.435759 213.286509 96.435759 
z
" style="fill:#29798e;"/>
    <path clip-path="url(#p694a643325)" d="M 330.053288 171.105984 
C 331.820831 171.105984 333.516217 170.403731 334.766059 169.15389 
C 336.0159 167.904049 336.718152 166.208662 336.718152 164.44112 
C 336.718152 162.673578 336.0159 160.978191 334.766059 159.72835 
C 333.516217 158.478509 331.820831 157.776257 330.053288 157.776257 
C 328.285746 157.776257 326.59036 158.478509 325.340518 159.72835 
C 324.090677 160.978191 323.388425 162.673578 323.388425 164.44112 
C 323.388425 166.208662 324.090677 167.904049 325.340518 169.15389 
C 326.59036 170.403731 328.285746 171.105984 330.053288 171.105984 
z
" style="fill:#dde318;"/>
    <path clip-path="url(#p694a643325)" d="M 157.960983 274.27837 
C 159.807757 274.27837 161.579141 273.544638 162.885008 272.238772 
C 164.190874 270.932905 164.924605 269.161522 164.924605 267.314747 
C 164.924605 265.467973 164.190874 263.69659 162.885008 262.390723 
C 161.579141 261.084856 159.807757 260.351125 157.960983 260.351125 
C 156.114209 260.351125 154.342825 261.084856 153.036959 262.390723 
C 151.731092 263.69659 150.997361 265.467973 150.997361 267.314747 
C 150.997361 269.161522 151.731092 270.932905 153.036959 272.238772 
C 154.342825 273.544638 156.114209 274.27837 157.960983 274.27837 
z
" style="fill:#3d4d8a;"/>
    <path clip-path="url(#p694a643325)" d="M 259.247676 145.995549 
C 260.967459 145.995549 262.617035 145.312272 263.833105 144.096203 
C 265.049175 142.880133 265.732451 141.230557 265.732451 139.510774 
C 265.732451 137.790992 265.049175 136.141415 263.833105 134.925346 
C 262.617035 133.709276 260.967459 133.025999 259.247676 133.025999 
C 257.527894 133.025999 255.878318 133.709276 254.662248 134.925346 
C 253.446178 136.141415 252.762901 137.790992 252.762901 139.510774 
C 252.762901 141.230557 253.446178 142.880133 254.662248 144.096203 
C 255.878318 145.312272 257.527894 145.995549 259.247676 145.995549 
z
" style="fill:#365d8d;"/>
    <path clip-path="url(#p694a643325)" d="M 282.174287 155.620803 
C 283.907511 155.620803 285.56998 154.932186 286.795554 153.706612 
C 288.021128 152.481038 288.709745 150.818569 288.709745 149.085346 
C 288.709745 147.352122 288.021128 145.689653 286.795554 144.464079 
C 285.56998 143.238505 283.907511 142.549888 282.174287 142.549888 
C 280.441064 142.549888 278.778595 143.238505 277.553021 144.464079 
C 276.327447 145.689653 275.63883 147.352122 275.63883 149.085346 
C 275.63883 150.818569 276.327447 152.481038 277.553021 153.706612 
C 278.778595 154.932186 280.441064 155.620803 282.174287 155.620803 
z
" style="fill:#424186;"/>
    <path clip-path="url(#p694a643325)" d="M 70.837567 174.392358 
C 72.569666 174.392358 74.231055 173.704188 75.455834 172.479409 
C 76.680612 171.254631 77.368782 169.593242 77.368782 167.861143 
C 77.368782 166.129045 76.680612 164.467656 75.455834 163.242877 
C 74.231055 162.018099 72.569666 161.329929 70.837567 161.329929 
C 69.105469 161.329929 67.44408 162.018099 66.219301 163.242877 
C 64.994523 164.467656 64.306353 166.129045 64.306353 167.861143 
C 64.306353 169.593242 64.994523 171.254631 66.219301 172.479409 
C 67.44408 173.704188 69.105469 174.392358 70.837567 174.392358 
z
" style="fill:#fde725;"/>
    <path clip-path="url(#p694a643325)" d="M 189.814883 126.501526 
C 191.496279 126.501526 193.109037 125.8335 194.297963 124.644573 
C 195.48689 123.455646 196.154916 121.842889 196.154916 120.161493 
C 196.154916 118.480097 195.48689 116.86734 194.297963 115.678413 
C 193.109037 114.489486 191.496279 113.82146 189.814883 113.82146 
C 188.133487 113.82146 186.52073 114.489486 185.331803 115.678413 
C 184.142876 116.86734 183.47485 118.480097 183.47485 120.161493 
C 183.47485 121.842889 184.142876 123.455646 185.331803 124.644573 
C 186.52073 125.8335 188.133487 126.501526 189.814883 126.501526 
z
" style="fill:#440154;"/>
    <path clip-path="url(#p694a643325)" d="M 228.776697 95.932375 
C 230.469243 95.932375 232.092694 95.25992 233.289505 94.063109 
C 234.486315 92.866299 235.158771 91.242847 235.158771 89.550301 
C 235.158771 87.857756 234.486315 86.234304 233.289505 85.037494 
C 232.092694 83.840683 230.469243 83.168227 228.776697 83.168227 
C 227.084151 83.168227 225.4607 83.840683 224.263889 85.037494 
C 223.067078 86.234304 222.394623 87.857756 222.394623 89.550301 
C 222.394623 91.242847 223.067078 92.866299 224.263889 94.063109 
C 225.4607 95.25992 227.084151 95.932375 228.776697 95.932375 
z
" style="fill:#2a788e;"/>
    <path clip-path="url(#p694a643325)" d="M 194.521393 60.48739 
C 196.238419 60.48739 197.885352 59.805208 199.099473 58.591087 
C 200.313594 57.376966 200.995775 55.730034 200.995775 54.013007 
C 200.995775 52.295981 200.313594 50.649049 199.099473 49.434928 
C 197.885352 48.220807 196.238419 47.538625 194.521393 47.538625 
C 192.804367 47.538625 191.157434 48.220807 189.943314 49.434928 
C 188.729193 50.649049 188.047011 52.295981 188.047011 54.013007 
C 188.047011 55.730034 188.729193 57.376966 189.943314 58.591087 
C 191.157434 59.805208 192.804367 60.48739 194.521393 60.48739 
z
" style="fill:#5cc863;"/>
    <path clip-path="url(#p694a643325)" d="M 171.556079 246.447486 
C 173.399603 246.447486 175.167869 245.715046 176.471437 244.411478 
C 177.775006 243.107909 178.507445 241.339643 178.507445 239.496119 
C 178.507445 237.652595 177.775006 235.884329 176.471437 234.580761 
C 175.167869 233.277193 173.399603 232.544753 171.556079 232.544753 
C 169.712555 232.544753 167.944289 233.277193 166.64072 234.580761 
C 165.337152 235.884329 164.604712 237.652595 164.604712 239.496119 
C 164.604712 241.339643 165.337152 243.107909 166.64072 244.411478 
C 167.944289 245.715046 169.712555 246.447486 171.556079 246.447486 
z
" style="fill:#3f4889;"/>
    <path clip-path="url(#p694a643325)" d="M 206.088424 159.180619 
C 207.898104 159.180619 209.633908 158.461626 210.913545 157.181989 
C 212.193181 155.902352 212.912175 154.166548 212.912175 152.356868 
C 212.912175 150.547189 212.193181 148.811385 210.913545 147.531748 
C 209.633908 146.252111 207.898104 145.533118 206.088424 145.533118 
C 204.278744 145.533118 202.542941 146.252111 201.263304 147.531748 
C 199.983667 148.811385 199.264674 150.547189 199.264674 152.356868 
C 199.264674 154.166548 199.983667 155.902352 201.263304 157.181989 
C 202.542941 158.461626 204.278744 159.180619 206.088424 159.180619 
z
" style="fill:#440256;"/>
    <path clip-path="url(#p694a643325)" d="M 201.45795 92.510519 
C 203.131836 92.510519 204.737389 91.845477 205.921005 90.661861 
C 207.104621 89.478246 207.769662 87.872693 207.769662 86.198807 
C 207.769662 84.524921 207.104621 82.919368 205.921005 81.735753 
C 204.737389 80.552137 203.131836 79.887095 201.45795 79.887095 
C 199.784065 79.887095 198.178512 80.552137 196.994896 81.735753 
C 195.81128 82.919368 195.146238 84.524921 195.146238 86.198807 
C 195.146238 87.872693 195.81128 89.478246 196.994896 90.661861 
C 198.178512 91.845477 199.784065 92.510519 201.45795 92.510519 
z
" style="fill:#3f4889;"/>
    <path clip-path="url(#p694a643325)" d="M 306.066942 165.183748 
C 307.815667 165.183748 309.493005 164.488972 310.729541 163.252436 
C 311.966077 162.0159 312.660853 160.338562 312.660853 158.589837 
C 312.660853 156.841111 311.966077 155.163773 310.729541 153.927237 
C 309.493005 152.690701 307.815667 151.995925 306.066942 151.995925 
C 304.318216 151.995925 302.640878 152.690701 301.404342 153.927237 
C 300.167806 155.163773 299.47303 156.841111 299.47303 158.589837 
C 299.47303 160.338562 300.167806 162.0159 301.404342 163.252436 
C 302.640878 164.488972 304.318216 165.183748 306.066942 165.183748 
z
" style="fill:#38598c;"/>
    <path clip-path="url(#p694a643325)" d="M 196.035841 189.712083 
C 197.865512 189.712083 199.620491 188.985147 200.914264 187.691374 
C 202.208037 186.397601 202.934973 184.642622 202.934973 182.812951 
C 202.934973 180.98328 202.208037 179.228301 200.914264 177.934528 
C 199.620491 176.640755 197.865512 175.913819 196.035841 175.913819 
C 194.20617 175.913819 192.451191 176.640755 191.157418 177.934528 
C 189.863645 179.228301 189.136709 180.98328 189.136709 182.812951 
C 189.136709 184.642622 189.863645 186.397601 191.157418 187.691374 
C 192.451191 188.985147 194.20617 189.712083 196.035841 189.712083 
z
" style="fill:#355f8d;"/>
    <path clip-path="url(#p694a643325)" d="M 209.124769 127.696445 
C 210.977288 127.696445 212.754182 126.960432 214.064111 125.650503 
C 215.37404 124.340574 216.110054 122.56368 216.110054 120.71116 
C 216.110054 118.858641 215.37404 117.081747 214.064111 115.771818 
C 212.754182 114.461889 210.977288 113.725875 209.124769 113.725875 
C 207.272249 113.725875 205.495355 114.461889 204.185426 115.771818 
C 202.875497 117.081747 202.139484 118.858641 202.139484 120.71116 
C 202.139484 122.56368 202.875497 124.340574 204.185426 125.650503 
C 205.495355 126.960432 207.272249 127.696445 209.124769 127.696445 
z
" style="fill:#26828e;"/>
    <path clip-path="url(#p694a643325)" d="M 235.866474 132.528251 
C 237.568726 132.528251 239.201488 131.851938 240.405163 130.648264 
C 241.608837 129.44459 242.285149 127.811828 242.285149 126.109575 
C 242.285149 124.407322 241.608837 122.77456 240.405163 121.570886 
C 239.201488 120.367211 237.568726 119.690899 235.866474 119.690899 
C 234.164221 119.690899 232.531459 120.367211 231.327785 121.570886 
C 230.12411 122.77456 229.447798 124.407322 229.447798 126.109575 
C 229.447798 127.811828 230.12411 129.44459 231.327785 130.648264 
C 232.531459 131.851938 234.164221 132.528251 235.866474 132.528251 
z
" style="fill:#460b5e;"/>
    <path clip-path="url(#p694a643325)" d="M 216.021541 77.566539 
C 217.786038 77.566539 219.478504 76.865497 220.726192 75.617809 
C 221.973881 74.37012 222.674923 72.677654 222.674923 70.913157 
C 222.674923 69.148659 221.973881 67.456193 220.726192 66.208505 
C 219.478504 64.960817 217.786038 64.259775 216.021541 64.259775 
C 214.257043 64.259775 212.564577 64.960817 211.316889 66.208505 
C 210.069201 67.456193 209.368159 69.148659 209.368159 70.913157 
C 209.368159 72.677654 210.069201 74.37012 211.316889 75.617809 
C 212.564577 76.865497 214.257043 77.566539 216.021541 77.566539 
z
" style="fill:#375a8c;"/>
    <path clip-path="url(#p694a643325)" d="M 210.575869 147.694545 
C 212.294145 147.694545 213.942276 147.011867 215.157281 145.796862 
C 216.372286 144.581857 217.054964 142.933726 217.054964 141.21545 
C 217.054964 139.497174 216.372286 137.849043 215.157281 136.634038 
C 213.942276 135.419033 212.294145 134.736355 210.575869 134.736355 
C 208.857593 134.736355 207.209461 135.419033 205.994457 136.634038 
C 204.779452 137.849043 204.096774 139.497174 204.096774 141.21545 
C 204.096774 142.933726 204.779452 144.581857 205.994457 145.796862 
C 207.209461 147.011867 208.857593 147.694545 210.575869 147.694545 
z
" style="fill:#3a548c;"/>
    <path clip-path="url(#p694a643325)" d="M 93.816448 163.036317 
C 95.526274 163.036317 97.166299 162.356996 98.375328 161.147967 
C 99.584357 159.938938 100.263678 158.298912 100.263678 156.589087 
C 100.263678 154.879261 99.584357 153.239236 98.375328 152.030207 
C 97.166299 150.821178 95.526274 150.141857 93.816448 150.141857 
C 92.106623 150.141857 90.466597 150.821178 89.257568 152.030207 
C 88.048539 153.239236 87.369218 154.879261 87.369218 156.589087 
C 87.369218 158.298912 88.048539 159.938938 89.257568 161.147967 
C 90.466597 162.356996 92.106623 163.036317 93.816448 163.036317 
z
" style="fill:#3c4f8a;"/>
    <path clip-path="url(#p694a643325)" d="M 141.163193 143.839059 
C 142.8509 143.839059 144.469711 143.168526 145.663101 141.975137 
C 146.85649 140.781747 147.527023 139.162936 147.527023 137.475229 
C 147.527023 135.787521 146.85649 134.16871 145.663101 132.975321 
C 144.469711 131.781931 142.8509 131.111398 141.163193 131.111398 
C 139.475485 131.111398 137.856674 131.781931 136.663285 132.975321 
C 135.469895 134.16871 134.799362 135.787521 134.799362 137.475229 
C 134.799362 139.162936 135.469895 140.781747 136.663285 141.975137 
C 137.856674 143.168526 139.475485 143.839059 141.163193 143.839059 
z
" style="fill:#433e85;"/>
    <path clip-path="url(#p694a643325)" d="M 164.513507 134.484047 
C 166.197884 134.484047 167.8135 133.814837 169.004535 132.623802 
C 170.195569 131.432768 170.864779 129.817152 170.864779 128.132774 
C 170.864779 126.448397 170.195569 124.832781 169.004535 123.641747 
C 167.8135 122.450712 166.197884 121.781502 164.513507 121.781502 
C 162.82913 121.781502 161.213514 122.450712 160.02248 123.641747 
C 158.831445 124.832781 158.162235 126.448397 158.162235 128.132774 
C 158.162235 129.817152 158.831445 131.432768 160.02248 132.623802 
C 161.213514 133.814837 162.82913 134.484047 164.513507 134.484047 
z
" style="fill:#32658e;"/>
    <path clip-path="url(#p694a643325)" d="M 117.344212 153.150161 
C 119.041918 153.150161 120.670319 152.475656 121.870779 151.275196 
C 123.071238 150.074736 123.745744 148.446335 123.745744 146.748629 
C 123.745744 145.050923 123.071238 143.422521 121.870779 142.222062 
C 120.670319 141.021602 119.041918 140.347096 117.344212 140.347096 
C 115.646505 140.347096 114.018104 141.021602 112.817645 142.222062 
C 111.617185 143.422521 110.942679 145.050923 110.942679 146.748629 
C 110.942679 148.446335 111.617185 150.074736 112.817645 151.275196 
C 114.018104 152.475656 115.646505 153.150161 117.344212 153.150161 
z
" style="fill:#3d4d8a;"/>
   </g>
   <g id="text_1">
    <!-- Structure #8963, $E_N$=-174.83eV, ΔE=0.24eV -->
    <defs>
     <path d="M 53.515625 70.515625 
L 53.515625 60.890625 
Q 47.90625 63.578125 42.921875 64.890625 
Q 37.9375 66.21875 33.296875 66.21875 
Q 25.25 66.21875 20.875 63.09375 
Q 16.5 59.96875 16.5 54.203125 
Q 16.5 49.359375 19.40625 46.890625 
Q 22.3125 44.4375 30.421875 42.921875 
L 36.375 41.703125 
Q 47.40625 39.59375 52.65625 34.296875 
Q 57.90625 29 57.90625 20.125 
Q 57.90625 9.515625 50.796875 4.046875 
Q 43.703125 -1.421875 29.984375 -1.421875 
Q 24.8125 -1.421875 18.96875 -0.25 
Q 13.140625 0.921875 6.890625 3.21875 
L 6.890625 13.375 
Q 12.890625 10.015625 18.65625 8.296875 
Q 24.421875 6.59375 29.984375 6.59375 
Q 38.421875 6.59375 43.015625 9.90625 
Q 47.609375 13.234375 47.609375 19.390625 
Q 47.609375 24.75 44.3125 27.78125 
Q 41.015625 30.8125 33.5 32.328125 
L 27.484375 33.5 
Q 16.453125 35.6875 11.515625 40.375 
Q 6.59375 45.0625 6.59375 53.421875 
Q 6.59375 63.09375 13.40625 68.65625 
Q 20.21875 74.21875 32.171875 74.21875 
Q 37.3125 74.21875 42.625 73.28125 
Q 47.953125 72.359375 53.515625 70.515625 
z
" id="DejaVuSans-53"/>
     <path d="M 18.3125 70.21875 
L 18.3125 54.6875 
L 36.8125 54.6875 
L 36.8125 47.703125 
L 18.3125 47.703125 
L 18.3125 18.015625 
Q 18.3125 11.328125 20.140625 9.421875 
Q 21.96875 7.515625 27.59375 7.515625 
L 36.8125 7.515625 
L 36.8125 0 
L 27.59375 0 
Q 17.1875 0 13.234375 3.875 
Q 9.28125 7.765625 9.28125 18.015625 
L 9.28125 47.703125 
L 2.6875 47.703125 
L 2.6875 54.6875 
L 9.28125 54.6875 
L 9.28125 70.21875 
z
" id="DejaVuSans-74"/>
     <path d="M 41.109375 46.296875 
Q 39.59375 47.171875 37.8125 47.578125 
Q 36.03125 48 33.890625 48 
Q 26.265625 48 22.1875 43.046875 
Q 18.109375 38.09375 18.109375 28.8125 
L 18.109375 0 
L 9.078125 0 
L 9.078125 54.6875 
L 18.109375 54.6875 
L 18.109375 46.1875 
Q 20.953125 51.171875 25.484375 53.578125 
Q 30.03125 56 36.53125 56 
Q 37.453125 56 38.578125 55.875 
Q 39.703125 55.765625 41.0625 55.515625 
z
" id="DejaVuSans-72"/>
     <path d="M 8.5 21.578125 
L 8.5 54.6875 
L 17.484375 54.6875 
L 17.484375 21.921875 
Q 17.484375 14.15625 20.5 10.265625 
Q 23.53125 6.390625 29.59375 6.390625 
Q 36.859375 6.390625 41.078125 11.03125 
Q 45.3125 15.671875 45.3125 23.6875 
L 45.3125 54.6875 
L 54.296875 54.6875 
L 54.296875 0 
L 45.3125 0 
L 45.3125 8.40625 
Q 42.046875 3.421875 37.71875 1 
Q 33.40625 -1.421875 27.6875 -1.421875 
Q 18.265625 -1.421875 13.375 4.4375 
Q 8.5 10.296875 8.5 21.578125 
z
M 31.109375 56 
z
" id="DejaVuSans-75"/>
     <path d="M 48.78125 52.59375 
L 48.78125 44.1875 
Q 44.96875 46.296875 41.140625 47.34375 
Q 37.3125 48.390625 33.40625 48.390625 
Q 24.65625 48.390625 19.8125 42.84375 
Q 14.984375 37.3125 14.984375 27.296875 
Q 14.984375 17.28125 19.8125 11.734375 
Q 24.65625 6.203125 33.40625 6.203125 
Q 37.3125 6.203125 41.140625 7.25 
Q 44.96875 8.296875 48.78125 10.40625 
L 48.78125 2.09375 
Q 45.015625 0.34375 40.984375 -0.53125 
Q 36.96875 -1.421875 32.421875 -1.421875 
Q 20.0625 -1.421875 12.78125 6.34375 
Q 5.515625 14.109375 5.515625 27.296875 
Q 5.515625 40.671875 12.859375 48.328125 
Q 20.21875 56 33.015625 56 
Q 37.15625 56 41.109375 55.140625 
Q 45.0625 54.296875 48.78125 52.59375 
z
" id="DejaVuSans-63"/>
     <path d="M 56.203125 29.59375 
L 56.203125 25.203125 
L 14.890625 25.203125 
Q 15.484375 15.921875 20.484375 11.0625 
Q 25.484375 6.203125 34.421875 6.203125 
Q 39.59375 6.203125 44.453125 7.46875 
Q 49.3125 8.734375 54.109375 11.28125 
L 54.109375 2.78125 
Q 49.265625 0.734375 44.1875 -0.34375 
Q 39.109375 -1.421875 33.890625 -1.421875 
Q 20.796875 -1.421875 13.15625 6.1875 
Q 5.515625 13.8125 5.515625 26.8125 
Q 5.515625 40.234375 12.765625 48.109375 
Q 20.015625 56 32.328125 56 
Q 43.359375 56 49.78125 48.890625 
Q 56.203125 41.796875 56.203125 29.59375 
z
M 47.21875 32.234375 
Q 47.125 39.59375 43.09375 43.984375 
Q 39.0625 48.390625 32.421875 48.390625 
Q 24.90625 48.390625 20.390625 44.140625 
Q 15.875 39.890625 15.1875 32.171875 
z
" id="DejaVuSans-65"/>
     <path id="DejaVuSans-20"/>
     <path d="M 51.125 44 
L 36.921875 44 
L 32.8125 27.6875 
L 47.125 27.6875 
z
M 43.796875 71.78125 
L 38.71875 51.515625 
L 52.984375 51.515625 
L 58.109375 71.78125 
L 65.921875 71.78125 
L 60.890625 51.515625 
L 76.125 51.515625 
L 76.125 44 
L 58.984375 44 
L 54.984375 27.6875 
L 70.515625 27.6875 
L 70.515625 20.21875 
L 53.078125 20.21875 
L 48 0 
L 40.1875 0 
L 45.21875 20.21875 
L 30.90625 20.21875 
L 25.875 0 
L 18.015625 0 
L 23.09375 20.21875 
L 7.71875 20.21875 
L 7.71875 27.6875 
L 24.90625 27.6875 
L 29 44 
L 13.28125 44 
L 13.28125 51.515625 
L 30.90625 51.515625 
L 35.890625 71.78125 
z
" id="DejaVuSans-23"/>
     <path d="M 31.78125 34.625 
Q 24.75 34.625 20.71875 30.859375 
Q 16.703125 27.09375 16.703125 20.515625 
Q 16.703125 13.921875 20.71875 10.15625 
Q 24.75 6.390625 31.78125 6.390625 
Q 38.8125 6.390625 42.859375 10.171875 
Q 46.921875 13.96875 46.921875 20.515625 
Q 46.921875 27.09375 42.890625 30.859375 
Q 38.875 34.625 31.78125 34.625 
z
M 21.921875 38.8125 
Q 15.578125 40.375 12.03125 44.71875 
Q 8.5 49.078125 8.5 55.328125 
Q 8.5 64.0625 14.71875 69.140625 
Q 20.953125 74.21875 31.78125 74.21875 
Q 42.671875 74.21875 48.875 69.140625 
Q 55.078125 64.0625 55.078125 55.328125 
Q 55.078125 49.078125 51.53125 44.71875 
Q 48 40.375 41.703125 38.8125 
Q 48.828125 37.15625 52.796875 32.3125 
Q 56.78125 27.484375 56.78125 20.515625 
Q 56.78125 9.90625 50.3125 4.234375 
Q 43.84375 -1.421875 31.78125 -1.421875 
Q 19.734375 -1.421875 13.25 4.234375 
Q 6.78125 9.90625 6.78125 20.515625 
Q 6.78125 27.484375 10.78125 32.3125 
Q 14.796875 37.15625 21.921875 38.8125 
z
M 18.3125 54.390625 
Q 18.3125 48.734375 21.84375 45.5625 
Q 25.390625 42.390625 31.78125 42.390625 
Q 38.140625 42.390625 41.71875 45.5625 
Q 45.3125 48.734375 45.3125 54.390625 
Q 45.3125 60.0625 41.71875 63.234375 
Q 38.140625 66.40625 31.78125 66.40625 
Q 25.390625 66.40625 21.84375 63.234375 
Q 18.3125 60.0625 18.3125 54.390625 
z
" id="DejaVuSans-38"/>
     <path d="M 10.984375 1.515625 
L 10.984375 10.5 
Q 14.703125 8.734375 18.5 7.8125 
Q 22.3125 6.890625 25.984375 6.890625 
Q 35.75 6.890625 40.890625 13.453125 
Q 46.046875 20.015625 46.78125 33.40625 
Q 43.953125 29.203125 39.59375 26.953125 
Q 35.25 24.703125 29.984375 24.703125 
Q 19.046875 24.703125 12.671875 31.3125 
Q 6.296875 37.9375 6.296875 49.421875 
Q 6.296875 60.640625 12.9375 67.421875 
Q 19.578125 74.21875 30.609375 74.21875 
Q 43.265625 74.21875 49.921875 64.515625 
Q 56.59375 54.828125 56.59375 36.375 
Q 56.59375 19.140625 48.40625 8.859375 
Q 40.234375 -1.421875 26.421875 -1.421875 
Q 22.703125 -1.421875 18.890625 -0.6875 
Q 15.09375 0.046875 10.984375 1.515625 
z
M 30.609375 32.421875 
Q 37.25 32.421875 41.125 36.953125 
Q 45.015625 41.5 45.015625 49.421875 
Q 45.015625 57.28125 41.125 61.84375 
Q 37.25 66.40625 30.609375 66.40625 
Q 23.96875 66.40625 20.09375 61.84375 
Q 16.21875 57.28125 16.21875 49.421875 
Q 16.21875 41.5 20.09375 36.953125 
Q 23.96875 32.421875 30.609375 32.421875 
z
" id="DejaVuSans-39"/>
     <path d="M 33.015625 40.375 
Q 26.375 40.375 22.484375 35.828125 
Q 18.609375 31.296875 18.609375 23.390625 
Q 18.609375 15.53125 22.484375 10.953125 
Q 26.375 6.390625 33.015625 6.390625 
Q 39.65625 6.390625 43.53125 10.953125 
Q 47.40625 15.53125 47.40625 23.390625 
Q 47.40625 31.296875 43.53125 35.828125 
Q 39.65625 40.375 33.015625 40.375 
z
M 52.59375 71.296875 
L 52.59375 62.3125 
Q 48.875 64.0625 45.09375 64.984375 
Q 41.3125 65.921875 37.59375 65.921875 
Q 27.828125 65.921875 22.671875 59.328125 
Q 17.53125 52.734375 16.796875 39.40625 
Q 19.671875 43.65625 24.015625 45.921875 
Q 28.375 48.1875 33.59375 48.1875 
Q 44.578125 48.1875 50.953125 41.515625 
Q 57.328125 34.859375 57.328125 23.390625 
Q 57.328125 12.15625 50.6875 5.359375 
Q 44.046875 -1.421875 33.015625 -1.421875 
Q 20.359375 -1.421875 13.671875 8.265625 
Q 6.984375 17.96875 6.984375 36.375 
Q 6.984375 53.65625 15.1875 63.9375 
Q 23.390625 74.21875 37.203125 74.21875 
Q 40.921875 74.21875 44.703125 73.484375 
Q 48.484375 72.75 52.59375 71.296875 
z
" id="DejaVuSans-36"/>
     <path d="M 40.578125 39.3125 
Q 47.65625 37.796875 51.625 33 
Q 55.609375 28.21875 55.609375 21.1875 
Q 55.609375 10.40625 48.1875 4.484375 
Q 40.765625 -1.421875 27.09375 -1.421875 
Q 22.515625 -1.421875 17.65625 -0.515625 
Q 12.796875 0.390625 7.625 2.203125 
L 7.625 11.71875 
Q 11.71875 9.328125 16.59375 8.109375 
Q 21.484375 6.890625 26.8125 6.890625 
Q 36.078125 6.890625 40.9375 10.546875 
Q 45.796875 14.203125 45.796875 21.1875 
Q 45.796875 27.640625 41.28125 31.265625 
Q 36.765625 34.90625 28.71875 34.90625 
L 20.21875 34.90625 
L 20.21875 43.015625 
L 29.109375 43.015625 
Q 36.375 43.015625 40.234375 45.921875 
Q 44.09375 48.828125 44.09375 54.296875 
Q 44.09375 59.90625 40.109375 62.90625 
Q 36.140625 65.921875 28.71875 65.921875 
Q 24.65625 65.921875 20.015625 65.03125 
Q 15.375 64.15625 9.8125 62.3125 
L 9.8125 71.09375 
Q 15.4375 72.65625 20.34375 73.4375 
Q 25.25 74.21875 29.59375 74.21875 
Q 40.828125 74.21875 47.359375 69.109375 
Q 53.90625 64.015625 53.90625 55.328125 
Q 53.90625 49.265625 50.4375 45.09375 
Q 46.96875 40.921875 40.578125 39.3125 
z
" id="DejaVuSans-33"/>
     <path d="M 11.71875 12.40625 
L 22.015625 12.40625 
L 22.015625 4 
L 14.015625 -11.625 
L 7.71875 -11.625 
L 11.71875 4 
z
" id="DejaVuSans-2c"/>
     <path d="M 16.890625 72.90625 
L 62.984375 72.90625 
L 61.375 64.59375 
L 25.09375 64.59375 
L 20.90625 43.015625 
L 55.71875 43.015625 
L 54.109375 34.71875 
L 19.28125 34.71875 
L 14.203125 8.296875 
L 51.3125 8.296875 
L 49.703125 0 
L 2.6875 0 
z
" id="DejaVuSans-Oblique-45"/>
     <path d="M 16.890625 72.90625 
L 30.171875 72.90625 
L 50.296875 10.40625 
L 62.5 72.90625 
L 72.125 72.90625 
L 57.90625 0 
L 44.578125 0 
L 24.515625 62.890625 
L 12.3125 0 
L 2.6875 0 
z
" id="DejaVuSans-Oblique-4e"/>
     <path d="M 10.59375 45.40625 
L 73.1875 45.40625 
L 73.1875 37.203125 
L 10.59375 37.203125 
z
M 10.59375 25.484375 
L 73.1875 25.484375 
L 73.1875 17.1875 
L 10.59375 17.1875 
z
" id="DejaVuSans-3d"/>
     <path d="M 4.890625 31.390625 
L 31.203125 31.390625 
L 31.203125 23.390625 
L 4.890625 23.390625 
z
" id="DejaVuSans-2d"/>
     <path d="M 12.40625 8.296875 
L 28.515625 8.296875 
L 28.515625 63.921875 
L 10.984375 60.40625 
L 10.984375 69.390625 
L 28.421875 72.90625 
L 38.28125 72.90625 
L 38.28125 8.296875 
L 54.390625 8.296875 
L 54.390625 0 
L 12.40625 0 
z
" id="DejaVuSans-31"/>
     <path d="M 8.203125 72.90625 
L 55.078125 72.90625 
L 55.078125 68.703125 
L 28.609375 0 
L 18.3125 0 
L 43.21875 64.59375 
L 8.203125 64.59375 
z
" id="DejaVuSans-37"/>
     <path d="M 37.796875 64.3125 
L 12.890625 25.390625 
L 37.796875 25.390625 
z
M 35.203125 72.90625 
L 47.609375 72.90625 
L 47.609375 25.390625 
L 58.015625 25.390625 
L 58.015625 17.1875 
L 47.609375 17.1875 
L 47.609375 0 
L 37.796875 0 
L 37.796875 17.1875 
L 4.890625 17.1875 
L 4.890625 26.703125 
z
" id="DejaVuSans-34"/>
     <path d="M 10.6875 12.40625 
L 21 12.40625 
L 21 0 
L 10.6875 0 
z
" id="DejaVuSans-2e"/>
     <path d="M 28.609375 0 
L 0.78125 72.90625 
L 11.078125 72.90625 
L 34.1875 11.53125 
L 57.328125 72.90625 
L 67.578125 72.90625 
L 39.796875 0 
z
" id="DejaVuSans-56"/>
     <path d="M 34.1875 63.1875 
L 14.15625 8.203125 
L 54.25 8.203125 
z
M 0.78125 0 
L 28.609375 72.90625 
L 39.796875 72.90625 
L 67.578125 0 
z
" id="DejaVuSans-394"/>
     <path d="M 9.8125 72.90625 
L 55.90625 72.90625 
L 55.90625 64.59375 
L 19.671875 64.59375 
L 19.671875 43.015625 
L 54.390625 43.015625 
L 54.390625 34.71875 
L 19.671875 34.71875 
L 19.671875 8.296875 
L 56.78125 8.296875 
L 56.78125 0 
L 9.8125 0 
z
" id="DejaVuSans-45"/>
     <path d="M 31.78125 66.40625 
Q 24.171875 66.40625 20.328125 58.90625 
Q 16.5 51.421875 16.5 36.375 
Q 16.5 21.390625 20.328125 13.890625 
Q 24.171875 6.390625 31.78125 6.390625 
Q 39.453125 6.390625 43.28125 13.890625 
Q 47.125 21.390625 47.125 36.375 
Q 47.125 51.421875 43.28125 58.90625 
Q 39.453125 66.40625 31.78125 66.40625 
z
M 31.78125 74.21875 
Q 44.046875 74.21875 50.515625 64.515625 
Q 56.984375 54.828125 56.984375 36.375 
Q 56.984375 17.96875 50.515625 8.265625 
Q 44.046875 -1.421875 31.78125 -1.421875 
Q 19.53125 -1.421875 13.0625 8.265625 
Q 6.59375 17.96875 6.59375 36.375 
Q 6.59375 54.828125 13.0625 64.515625 
Q 19.53125 74.21875 31.78125 74.21875 
z
" id="DejaVuSans-30"/>
     <path d="M 19.1875 8.296875 
L 53.609375 8.296875 
L 53.609375 0 
L 7.328125 0 
L 7.328125 8.296875 
Q 12.9375 14.109375 22.625 23.890625 
Q 32.328125 33.6875 34.8125 36.53125 
Q 39.546875 41.84375 41.421875 45.53125 
Q 43.3125 49.21875 43.3125 52.78125 
Q 43.3125 58.59375 39.234375 62.25 
Q 35.15625 65.921875 28.609375 65.921875 
Q 23.96875 65.921875 18.8125 64.3125 
Q 13.671875 62.703125 7.8125 59.421875 
L 7.8125 69.390625 
Q 13.765625 71.78125 18.9375 73 
Q 24.125 74.21875 28.421875 74.21875 
Q 39.75 74.21875 46.484375 68.546875 
Q 53.21875 62.890625 53.21875 53.421875 
Q 53.21875 48.921875 51.53125 44.890625 
Q 49.859375 40.875 45.40625 35.40625 
Q 44.1875 33.984375 37.640625 27.21875 
Q 31.109375 20.453125 19.1875 8.296875 
z
" id="DejaVuSans-32"/>
    </defs>
    <g transform="translate(65.388 35.472)scale(0.12 -0.12)">
     <use transform="translate(0 0.78125)" xlink:href="#DejaVuSans-53"/>
     <use transform="translate(63.476562 0.78125)" xlink:href="#DejaVuSans-74"/>
     <use transform="translate(102.685547 0.78125)" xlink:href="#DejaVuSans-72"/>
     <use transform="translate(143.798828 0.78125)" xlink:href="#DejaVuSans-75"/>
     <use transform="translate(207.177734 0.78125)" xlink:href="#DejaVuSans-63"/>
     <use transform="translate(262.158203 0.78125)" xlink:href="#DejaVuSans-74"/>
     <use transform="translate(301.367188 0.78125)" xlink:href="#DejaVuSans-75"/>
     <use transform="translate(364.746094 0.78125)" xlink:href="#DejaVuSans-72"/>
     <use transform="translate(405.859375 0.78125)" xlink:href="#DejaVuSans-65"/>
     <use transform="translate(467.382812 0.78125)" xlink:href="#DejaVuSans-20"/>
     <use transform="translate(499.169922 0.78125)" xlink:href="#DejaVuSans-23"/>
     <use transform="translate(582.958984 0.78125)" xlink:href="#DejaVuSans-38"/>
     <use transform="translate(646.582031 0.78125)" xlink:href="#DejaVuSans-39"/>
     <use transform="translate(710.205078 0.78125)" xlink:href="#DejaVuSans-36"/>
     <use transform="translate(773.828125 0.78125)" xlink:href="#DejaVuSans-33"/>
     <use transform="translate(837.451172 0.78125)" xlink:href="#DejaVuSans-2c"/>
     <use transform="translate(869.238281 0.78125)" xlink:href="#DejaVuSans-20"/>
     <use transform="translate(901.025391 0.78125)" xlink:href="#DejaVuSans-Oblique-45"/>
     <use transform="translate(964.208984 -15.625)scale(0.7)" xlink:href="#DejaVuSans-Oblique-4e"/>
     <use transform="translate(1019.306641 0.78125)" xlink:href="#DejaVuSans-3d"/>
     <use transform="translate(1103.095703 0.78125)" xlink:href="#DejaVuSans-2d"/>
     <use transform="translate(1139.179688 0.78125)" xlink:href="#DejaVuSans-31"/>
     <use transform="translate(1202.802734 0.78125)" xlink:href="#DejaVuSans-37"/>
     <use transform="translate(1266.425781 0.78125)" xlink:href="#DejaVuSans-34"/>
     <use transform="translate(1330.048828 0.78125)" xlink:href="#DejaVuSans-2e"/>
     <use transform="translate(1361.804688 0.78125)" xlink:href="#DejaVuSans-38"/>
     <use transform="translate(1425.427734 0.78125)" xlink:href="#DejaVuSans-33"/>
     <use transform="translate(1489.050781 0.78125)" xlink:href="#DejaVuSans-65"/>
     <use transform="translate(1550.574219 0.78125)" xlink:href="#DejaVuSans-56"/>
     <use transform="translate(1618.982422 0.78125)" xlink:href="#DejaVuSans-2c"/>
     <use transform="translate(1650.769531 0.78125)" xlink:href="#DejaVuSans-20"/>
     <use transform="translate(1682.556641 0.78125)" xlink:href="#DejaVuSans-394"/>
     <use transform="translate(1750.964844 0.78125)" xlink:href="#DejaVuSans-45"/>
     <use transform="translate(1814.148438 0.78125)" xlink:href="#DejaVuSans-3d"/>
     <use transform="translate(1897.9375 0.78125)" xlink:href="#DejaVuSans-30"/>
     <use transform="translate(1961.560547 0.78125)" xlink:href="#DejaVuSans-2e"/>
     <use transform="translate(1993.269531 0.78125)" xlink:href="#DejaVuSans-32"/>
     <use transform="translate(2056.892578 0.78125)" xlink:href="#DejaVuSans-34"/>
     <use transform="translate(2120.515625 0.78125)" xlink:href="#DejaVuSans-65"/>
     <use transform="translate(2182.039062 0.78125)" xlink:href="#DejaVuSans-56"/>
    </g>
   </g>
  </g>
  <g id="axes_2">
   <g id="patch_2">
    <path clip-path="url(#p902be2a6af)" d="M 361.152 307.584 
L 361.152 306.5445 
L 361.152 42.5115 
L 361.152 41.472 
L 374.4576 41.472 
L 374.4576 42.5115 
L 374.4576 306.5445 
L 374.4576 307.584 
z
" style="fill:#ffffff;stroke:#ffffff;stroke-linejoin:miter;stroke-width:0.01;"/>
   </g>
   <image height="265.68" id="image4018d10e55" transform="scale(1 -1)translate(0 -265.68)" width="12.96" x="361.44" xlink:href="data:image/png;base64,
iVBORw0KGgoAAAANSUhEUgAAABIAAAFxCAYAAAB+2fgXAAAABHNCSVQICAgIfAhkiAAAAeVJREFUeJztncmNw0AQA2ckheYQNv9QLIfQ8ygsCgQ7AEI8+jAs2Puz/94F1LP2ReCsZ18bAWIeZ5XaGRBE7VnbptG+KI101FYyNSiQG2oRITXKNaX9uclOdi2XWjftVE32CZCO2ou5Bj1TcCBr/1zB9ge7Fq0Rg2NM9pvbtG+ua1QgsRYhDy0ISEiNc40BEibbSI0Coj5CBGtkpFbXJiAjNZlrwhuSOv2M1DjXbEdEciBt1JSDDQKKpmZr2rr2j0DBGpXaWEJq3bQzEPIS26r9J+Wzv9Tm8o3aajRXqc3VUXsApKNWjeZq0x4ABVNbm7lrszVigDqP5vIl2+eaT2yfRkL7g+dRcNPqjohkjaCvRVBq0H2U3LQrOJCx9kdTg4B8oxZzzTdqdYHEngjUCAPyUctN9sVRq2sTECW2UKNLd2jVtRmo1A6AhMmWaSRcR8nUdIHUuVb75zJS218EyEitro1At69pIdeSk30Lkw0FktNImGyZRhy1O5galmxd03LUsHWk06jUZiCq+5Wb1kZNN4+wJxJuWt8RAW5am2sYNZ9rYCBzZ3buPKJ2P5Yj4Toy3keyIyJbIxs1rml1byCA84gpch5RQNB7Q0qNMGq2Hy4BXdNR41yz/cEEJfZzUz96r9PoB0okjeQ8y9TkAAAAAElFTkSuQmCC" y="-41.76"/>
   <g id="matplotlib.axis_1"/>
   <g id="matplotlib.axis_2">
    <g id="ytick_1">
     <g id="line2d_1">
      <defs>
       <path d="M 0 0 
L 3.5 0 
" id="mc4f02e0be2" style="stroke:#000000;stroke-width:0.8;"/>
      </defs>
      <g>
       <use style="stroke:#000000;stroke-width:0.8;" x="374.4576" xlink:href="#mc4f02e0be2" y="301.249674"/>
      </g>
     </g>
     <g id="text_2">
      <!-- −8.5 -->
      <defs>
       <path d="M 10.59375 35.5 
L 73.1875 35.5 
L 73.1875 27.203125 
L 10.59375 27.203125 
z
" id="DejaVuSans-2212"/>
       <path d="M 10.796875 72.90625 
L 49.515625 72.90625 
L 49.515625 64.59375 
L 19.828125 64.59375 
L 19.828125 46.734375 
Q 21.96875 47.46875 24.109375 47.828125 
Q 26.265625 48.1875 28.421875 48.1875 
Q 40.625 48.1875 47.75 41.5 
Q 54.890625 34.8125 54.890625 23.390625 
Q 54.890625 11.625 47.5625 5.09375 
Q 40.234375 -1.421875 26.90625 -1.421875 
Q 22.3125 -1.421875 17.546875 -0.640625 
Q 12.796875 0.140625 7.71875 1.703125 
L 7.71875 11.625 
Q 12.109375 9.234375 16.796875 8.0625 
Q 21.484375 6.890625 26.703125 6.890625 
Q 35.15625 6.890625 40.078125 11.328125 
Q 45.015625 15.765625 45.015625 23.390625 
Q 45.015625 31 40.078125 35.4375 
Q 35.15625 39.890625 26.703125 39.890625 
Q 22.75 39.890625 18.8125 39.015625 
Q 14.890625 38.140625 10.796875 36.28125 
z
" id="DejaVuSans-35"/>
      </defs>
      <g transform="translate(381.4576 305.048892)scale(0.1 -0.1)">
       <use xlink:href="#DejaVuSans-2212"/>
       <use x="83.789062" xlink:href="#DejaVuSans-38"/>
       <use x="147.412109" xlink:href="#DejaVuSans-2e"/>
       <use x="179.199219" xlink:href="#DejaVuSans-35"/>
      </g>
     </g>
    </g>
    <g id="ytick_2">
     <g id="line2d_2">
      <g>
       <use style="stroke:#000000;stroke-width:0.8;" x="374.4576" xlink:href="#mc4f02e0be2" y="265.590871"/>
      </g>
     </g>
     <g id="text_3">
      <!-- −8.0 -->
      <g transform="translate(381.4576 269.390089)scale(0.1 -0.1)">
       <use xlink:href="#DejaVuSans-2212"/>
       <use x="83.789062" xlink:href="#DejaVuSans-38"/>
       <use x="147.412109" xlink:href="#DejaVuSans-2e"/>
       <use x="179.199219" xlink:href="#DejaVuSans-30"/>
      </g>
     </g>
    </g>
    <g id="ytick_3">
     <g id="line2d_3">
      <g>
       <use style="stroke:#000000;stroke-width:0.8;" x="374.4576" xlink:href="#mc4f02e0be2" y="229.932067"/>
      </g>
     </g>
     <g id="text_4">
      <!-- −7.5 -->
      <g transform="translate(381.4576 233.731286)scale(0.1 -0.1)">
       <use xlink:href="#DejaVuSans-2212"/>
       <use x="83.789062" xlink:href="#DejaVuSans-37"/>
       <use x="147.412109" xlink:href="#DejaVuSans-2e"/>
       <use x="179.199219" xlink:href="#DejaVuSans-35"/>
      </g>
     </g>
    </g>
    <g id="ytick_4">
     <g id="line2d_4">
      <g>
       <use style="stroke:#000000;stroke-width:0.8;" x="374.4576" xlink:href="#mc4f02e0be2" y="194.273264"/>
      </g>
     </g>
     <g id="text_5">
      <!-- −7.0 -->
      <g transform="translate(381.4576 198.072483)scale(0.1 -0.1)">
       <use xlink:href="#DejaVuSans-2212"/>
       <use x="83.789062" xlink:href="#DejaVuSans-37"/>
       <use x="147.412109" xlink:href="#DejaVuSans-2e"/>
       <use x="179.199219" xlink:href="#DejaVuSans-30"/>
      </g>
     </g>
    </g>
    <g id="ytick_5">
     <g id="line2d_5">
      <g>
       <use style="stroke:#000000;stroke-width:0.8;" x="374.4576" xlink:href="#mc4f02e0be2" y="158.614461"/>
      </g>
     </g>
     <g id="text_6">
      <!-- −6.5 -->
      <g transform="translate(381.4576 162.41368)scale(0.1 -0.1)">
       <use xlink:href="#DejaVuSans-2212"/>
       <use x="83.789062" xlink:href="#DejaVuSans-36"/>
       <use x="147.412109" xlink:href="#DejaVuSans-2e"/>
       <use x="179.199219" xlink:href="#DejaVuSans-35"/>
      </g>
     </g>
    </g>
    <g id="ytick_6">
     <g id="line2d_6">
      <g>
       <use style="stroke:#000000;stroke-width:0.8;" x="374.4576" xlink:href="#mc4f02e0be2" y="122.955658"/>
      </g>
     </g>
     <g id="text_7">
      <!-- −6.0 -->
      <g transform="translate(381.4576 126.754877)scale(0.1 -0.1)">
       <use xlink:href="#DejaVuSans-2212"/>
       <use x="83.789062" xlink:href="#DejaVuSans-36"/>
       <use x="147.412109" xlink:href="#DejaVuSans-2e"/>
       <use x="179.199219" xlink:href="#DejaVuSans-30"/>
      </g>
     </g>
    </g>
    <g id="ytick_7">
     <g id="line2d_7">
      <g>
       <use style="stroke:#000000;stroke-width:0.8;" x="374.4576" xlink:href="#mc4f02e0be2" y="87.296855"/>
      </g>
     </g>
     <g id="text_8">
      <!-- −5.5 -->
      <g transform="translate(381.4576 91.096074)scale(0.1 -0.1)">
       <use xlink:href="#DejaVuSans-2212"/>
       <use x="83.789062" xlink:href="#DejaVuSans-35"/>
       <use x="147.412109" xlink:href="#DejaVuSans-2e"/>
       <use x="179.199219" xlink:href="#DejaVuSans-35"/>
      </g>
     </g>
    </g>
    <g id="ytick_8">
     <g id="line2d_8">
      <g>
       <use style="stroke:#000000;stroke-width:0.8;" x="374.4576" xlink:href="#mc4f02e0be2" y="51.638052"/>
      </g>
     </g>
     <g id="text_9">
      <!-- −5.0 -->
      <g transform="translate(381.4576 55.437271)scale(0.1 -0.1)">
       <use xlink:href="#DejaVuSans-2212"/>
       <use x="83.789062" xlink:href="#DejaVuSans-35"/>
       <use x="147.412109" xlink:href="#DejaVuSans-2e"/>
       <use x="179.199219" xlink:href="#DejaVuSans-30"/>
      </g>
     </g>
    </g>
    <g id="text_10">
     <!-- Energy [eV] -->
     <defs>
      <path d="M 54.890625 33.015625 
L 54.890625 0 
L 45.90625 0 
L 45.90625 32.71875 
Q 45.90625 40.484375 42.875 44.328125 
Q 39.84375 48.1875 33.796875 48.1875 
Q 26.515625 48.1875 22.3125 43.546875 
Q 18.109375 38.921875 18.109375 30.90625 
L 18.109375 0 
L 9.078125 0 
L 9.078125 54.6875 
L 18.109375 54.6875 
L 18.109375 46.1875 
Q 21.34375 51.125 25.703125 53.5625 
Q 30.078125 56 35.796875 56 
Q 45.21875 56 50.046875 50.171875 
Q 54.890625 44.34375 54.890625 33.015625 
z
" id="DejaVuSans-6e"/>
      <path d="M 45.40625 27.984375 
Q 45.40625 37.75 41.375 43.109375 
Q 37.359375 48.484375 30.078125 48.484375 
Q 22.859375 48.484375 18.828125 43.109375 
Q 14.796875 37.75 14.796875 27.984375 
Q 14.796875 18.265625 18.828125 12.890625 
Q 22.859375 7.515625 30.078125 7.515625 
Q 37.359375 7.515625 41.375 12.890625 
Q 45.40625 18.265625 45.40625 27.984375 
z
M 54.390625 6.78125 
Q 54.390625 -7.171875 48.1875 -13.984375 
Q 42 -20.796875 29.203125 -20.796875 
Q 24.46875 -20.796875 20.265625 -20.09375 
Q 16.0625 -19.390625 12.109375 -17.921875 
L 12.109375 -9.1875 
Q 16.0625 -11.328125 19.921875 -12.34375 
Q 23.78125 -13.375 27.78125 -13.375 
Q 36.625 -13.375 41.015625 -8.765625 
Q 45.40625 -4.15625 45.40625 5.171875 
L 45.40625 9.625 
Q 42.625 4.78125 38.28125 2.390625 
Q 33.9375 0 27.875 0 
Q 17.828125 0 11.671875 7.65625 
Q 5.515625 15.328125 5.515625 27.984375 
Q 5.515625 40.671875 11.671875 48.328125 
Q 17.828125 56 27.875 56 
Q 33.9375 56 38.28125 53.609375 
Q 42.625 51.21875 45.40625 46.390625 
L 45.40625 54.6875 
L 54.390625 54.6875 
z
" id="DejaVuSans-67"/>
      <path d="M 32.171875 -5.078125 
Q 28.375 -14.84375 24.75 -17.8125 
Q 21.140625 -20.796875 15.09375 -20.796875 
L 7.90625 -20.796875 
L 7.90625 -13.28125 
L 13.1875 -13.28125 
Q 16.890625 -13.28125 18.9375 -11.515625 
Q 21 -9.765625 23.484375 -3.21875 
L 25.09375 0.875 
L 2.984375 54.6875 
L 12.5 54.6875 
L 29.59375 11.921875 
L 46.6875 54.6875 
L 56.203125 54.6875 
z
" id="DejaVuSans-79"/>
      <path d="M 8.59375 75.984375 
L 29.296875 75.984375 
L 29.296875 69 
L 17.578125 69 
L 17.578125 -6.203125 
L 29.296875 -6.203125 
L 29.296875 -13.1875 
L 8.59375 -13.1875 
z
" id="DejaVuSans-5b"/>
      <path d="M 30.421875 75.984375 
L 30.421875 -13.1875 
L 9.71875 -13.1875 
L 9.71875 -6.203125 
L 21.390625 -6.203125 
L 21.390625 69 
L 9.71875 69 
L 9.71875 75.984375 
z
" id="DejaVuSans-5d"/>
     </defs>
     <g transform="translate(417.33885 204.108469)rotate(-90)scale(0.1 -0.1)">
      <use xlink:href="#DejaVuSans-45"/>
      <use x="63.183594" xlink:href="#DejaVuSans-6e"/>
      <use x="126.5625" xlink:href="#DejaVuSans-65"/>
      <use x="188.085938" xlink:href="#DejaVuSans-72"/>
      <use x="229.183594" xlink:href="#DejaVuSans-67"/>
      <use x="292.660156" xlink:href="#DejaVuSans-79"/>
      <use x="351.839844" xlink:href="#DejaVuSans-20"/>
      <use x="383.626953" xlink:href="#DejaVuSans-5b"/>
      <use x="422.640625" xlink:href="#DejaVuSans-65"/>
      <use x="484.164062" xlink:href="#DejaVuSans-56"/>
      <use x="552.572266" xlink:href="#DejaVuSans-5d"/>
     </g>
    </g>
   </g>
   <g id="patch_3">
    <path d="M 361.152 307.584 
L 361.152 306.5445 
L 361.152 42.5115 
L 361.152 41.472 
L 374.4576 41.472 
L 374.4576 42.5115 
L 374.4576 306.5445 
L 374.4576 307.584 
z
" style="fill:none;stroke:#000000;stroke-linejoin:miter;stroke-width:0.8;"/>
   </g>
  </g>
 </g>
 <defs>
  <clipPath id="p694a643325">
   <rect height="266.112" width="285.696" x="57.6" y="41.472"/>
  </clipPath>
  <clipPath id="p902be2a6af">
   <rect height="266.112" width="13.3056" x="361.152" y="41.472"/>
  </clipPath>
 </defs>
</svg>
