<?xml version="1.0" encoding="utf-8" standalone="no"?>
<!DOCTYPE svg PUBLIC "-//W3C//DTD SVG 1.1//EN"
  "http://www.w3.org/Graphics/SVG/1.1/DTD/svg11.dtd">
<!-- Created with matplotlib (http://matplotlib.org/) -->
<svg height="345.6pt" version="1.1" viewBox="0 0 460.8 345.6" width="460.8pt" xmlns="http://www.w3.org/2000/svg" xmlns:xlink="http://www.w3.org/1999/xlink">
 <defs>
  <style type="text/css">
*{stroke-linecap:butt;stroke-linejoin:round;}
  </style>
 </defs>
 <g id="figure_1">
  <g id="patch_1">
   <path d="M 0 345.6 
L 460.8 345.6 
L 460.8 0 
L 0 0 
z
" style="fill:#ffffff;"/>
  </g>
  <g id="axes_1">
   <g id="CircleCollection_1">
    <path clip-path="url(#p51f9f2a2e3)" d="M 263.444342 169.703077 
C 265.205776 169.703077 266.895304 169.003252 268.140827 167.757729 
C 269.386349 166.512207 270.086174 164.822679 270.086174 163.061245 
C 270.086174 161.29981 269.386349 159.610282 268.140827 158.36476 
C 266.895304 157.119238 265.205776 156.419412 263.444342 156.419412 
C 261.682907 156.419412 259.993379 157.119238 258.747857 158.36476 
C 257.502335 159.610282 256.80251 161.29981 256.80251 163.061245 
C 256.80251 164.822679 257.502335 166.512207 258.747857 167.757729 
C 259.993379 169.003252 261.682907 169.703077 263.444342 169.703077 
z
" style="fill:#2b748e;"/>
    <path clip-path="url(#p51f9f2a2e3)" d="M 138.738505 189.90996 
C 140.357878 189.90996 141.911143 189.266577 143.056213 188.121507 
C 144.201282 186.976438 144.844666 185.423173 144.844666 183.8038 
C 144.844666 182.184427 144.201282 180.631162 143.056213 179.486092 
C 141.911143 178.341023 140.357878 177.697639 138.738505 177.697639 
C 137.119133 177.697639 135.565867 178.341023 134.420798 179.486092 
C 133.275729 180.631162 132.632345 182.184427 132.632345 183.8038 
C 132.632345 185.423173 133.275729 186.976438 134.420798 188.121507 
C 135.565867 189.266577 137.119133 189.90996 138.738505 189.90996 
z
" style="fill:#355f8d;"/>
    <path clip-path="url(#p51f9f2a2e3)" d="M 250.784237 227.646918 
C 252.514864 227.646918 254.174842 226.959332 255.39858 225.735594 
C 256.622318 224.511856 257.309903 222.851878 257.309903 221.121252 
C 257.309903 219.390625 256.622318 217.730647 255.39858 216.506909 
C 254.174842 215.283171 252.514864 214.595586 250.784237 214.595586 
C 249.05361 214.595586 247.393632 215.283171 246.169894 216.506909 
C 244.946156 217.730647 244.258571 219.390625 244.258571 221.121252 
C 244.258571 222.851878 244.946156 224.511856 246.169894 225.735594 
C 247.393632 226.959332 249.05361 227.646918 250.784237 227.646918 
z
" style="fill:#440256;"/>
    <path clip-path="url(#p51f9f2a2e3)" d="M 185.625384 187.00332 
C 187.313772 187.00332 188.933235 186.332516 190.127106 185.138646 
C 191.320977 183.944775 191.99178 182.325312 191.99178 180.636924 
C 191.99178 178.948536 191.320977 177.329072 190.127106 176.135202 
C 188.933235 174.941331 187.313772 174.270527 185.625384 174.270527 
C 183.936996 174.270527 182.317533 174.941331 181.123662 176.135202 
C 179.929791 177.329072 179.258988 178.948536 179.258988 180.636924 
C 179.258988 182.325312 179.929791 183.944775 181.123662 185.138646 
C 182.317533 186.332516 183.936996 187.00332 185.625384 187.00332 
z
" style="fill:#440154;"/>
    <path clip-path="url(#p51f9f2a2e3)" d="M 70.804415 194.026592 
C 72.300849 194.026592 73.736195 193.432053 74.794333 192.373914 
C 75.852472 191.315775 76.447012 189.88043 76.447012 188.383995 
C 76.447012 186.887561 75.852472 185.452216 74.794333 184.394077 
C 73.736195 183.335938 72.300849 182.741398 70.804415 182.741398 
C 69.307981 182.741398 67.872635 183.335938 66.814496 184.394077 
C 65.756357 185.452216 65.161818 186.887561 65.161818 188.383995 
C 65.161818 189.88043 65.756357 191.315775 66.814496 192.373914 
C 67.872635 193.432053 69.307981 194.026592 70.804415 194.026592 
z
" style="fill:#eae51a;"/>
    <path clip-path="url(#p51f9f2a2e3)" d="M 203.418223 212.167483 
C 205.112441 212.167483 206.737496 211.494363 207.935489 210.29637 
C 209.133482 209.098377 209.806602 207.473322 209.806602 205.779104 
C 209.806602 204.084886 209.133482 202.459831 207.935489 201.261838 
C 206.737496 200.063845 205.112441 199.390725 203.418223 199.390725 
C 201.724005 199.390725 200.09895 200.063845 198.900957 201.261838 
C 197.702964 202.459831 197.029844 204.084886 197.029844 205.779104 
C 197.029844 207.473322 197.702964 209.098377 198.900957 210.29637 
C 200.09895 211.494363 201.724005 212.167483 203.418223 212.167483 
z
" style="fill:#25858e;"/>
    <path clip-path="url(#p51f9f2a2e3)" d="M 279.138318 278.418489 
C 280.88758 278.418489 282.565432 277.7235 283.802347 276.486585 
C 285.039262 275.24967 285.734251 273.571818 285.734251 271.822556 
C 285.734251 270.073294 285.039262 268.395442 283.802347 267.158527 
C 282.565432 265.921612 280.88758 265.226623 279.138318 265.226623 
C 277.389056 265.226623 275.711204 265.921612 274.474289 267.158527 
C 273.237374 268.395442 272.542385 270.073294 272.542385 271.822556 
C 272.542385 273.571818 273.237374 275.24967 274.474289 276.486585 
C 275.711204 277.7235 277.389056 278.418489 279.138318 278.418489 
z
" style="fill:#34618d;"/>
    <path clip-path="url(#p51f9f2a2e3)" d="M 161.106284 188.706499 
C 162.76071 188.706499 164.347597 188.049189 165.517453 186.879333 
C 166.687308 185.709477 167.344619 184.12259 167.344619 182.468164 
C 167.344619 180.813739 166.687308 179.226851 165.517453 178.056996 
C 164.347597 176.88714 162.76071 176.22983 161.106284 176.22983 
C 159.451858 176.22983 157.864971 176.88714 156.695115 178.056996 
C 155.52526 179.226851 154.867949 180.813739 154.867949 182.468164 
C 154.867949 184.12259 155.52526 185.709477 156.695115 186.879333 
C 157.864971 188.049189 159.451858 188.706499 161.106284 188.706499 
z
" style="fill:#24868e;"/>
    <path clip-path="url(#p51f9f2a2e3)" d="M 260.137939 137.740272 
C 261.913391 137.740272 263.616364 137.034877 264.871798 135.779443 
C 266.127233 134.524009 266.832627 132.821036 266.832627 131.045584 
C 266.832627 129.270131 266.127233 127.567158 264.871798 126.311724 
C 263.616364 125.05629 261.913391 124.350895 260.137939 124.350895 
C 258.362487 124.350895 256.659514 125.05629 255.404079 126.311724 
C 254.148645 127.567158 253.44325 129.270131 253.44325 131.045584 
C 253.44325 132.821036 254.148645 134.524009 255.404079 135.779443 
C 256.659514 137.034877 258.362487 137.740272 260.137939 137.740272 
z
" style="fill:#472f7d;"/>
    <path clip-path="url(#p51f9f2a2e3)" d="M 213.438569 140.136355 
C 215.18102 140.136355 216.852339 139.444072 218.084438 138.211973 
C 219.316537 136.979874 220.00882 135.308555 220.00882 133.566103 
C 220.00882 131.823652 219.316537 130.152333 218.084438 128.920234 
C 216.852339 127.688135 215.18102 126.995852 213.438569 126.995852 
C 211.696117 126.995852 210.024798 127.688135 208.792699 128.920234 
C 207.5606 130.152333 206.868317 131.823652 206.868317 133.566103 
C 206.868317 135.308555 207.5606 136.979874 208.792699 138.211973 
C 210.024798 139.444072 211.696117 140.136355 213.438569 140.136355 
z
" style="fill:#2c738e;"/>
    <path clip-path="url(#p51f9f2a2e3)" d="M 330.046099 123.074307 
C 331.854432 123.074307 333.588944 122.355848 334.867628 121.077164 
C 336.146313 119.79848 336.864771 118.063968 336.864771 116.255635 
C 336.864771 114.447302 336.146313 112.71279 334.867628 111.434106 
C 333.588944 110.155422 331.854432 109.436963 330.046099 109.436963 
C 328.237766 109.436963 326.503255 110.155422 325.22457 111.434106 
C 323.945886 112.71279 323.227428 114.447302 323.227428 116.255635 
C 323.227428 118.063968 323.945886 119.79848 325.22457 121.077164 
C 326.503255 122.355848 328.237766 123.074307 330.046099 123.074307 
z
" style="fill:#cde11d;"/>
    <path clip-path="url(#p51f9f2a2e3)" d="M 93.598686 192.29134 
C 95.137793 192.29134 96.614069 191.679846 97.702382 190.591533 
C 98.790695 189.50322 99.402189 188.026944 99.402189 186.487837 
C 99.402189 184.94873 98.790695 183.472453 97.702382 182.38414 
C 96.614069 181.295827 95.137793 180.684333 93.598686 180.684333 
C 92.059579 180.684333 90.583302 181.295827 89.494989 182.38414 
C 88.406676 183.472453 87.795183 184.94873 87.795183 186.487837 
C 87.795183 188.026944 88.406676 189.50322 89.494989 190.591533 
C 90.583302 191.679846 92.059579 192.29134 93.598686 192.29134 
z
" style="fill:#306a8e;"/>
    <path clip-path="url(#p51f9f2a2e3)" d="M 116.071577 191.070811 
C 117.651794 191.070811 119.167502 190.442984 120.284884 189.325603 
C 121.402265 188.208221 122.030092 186.692513 122.030092 185.112297 
C 122.030092 183.53208 121.402265 182.016372 120.284884 180.89899 
C 119.167502 179.781609 117.651794 179.153782 116.071577 179.153782 
C 114.491361 179.153782 112.975653 179.781609 111.858271 180.89899 
C 110.74089 182.016372 110.113063 183.53208 110.113063 185.112297 
C 110.113063 186.692513 110.74089 188.208221 111.858271 189.325603 
C 112.975653 190.442984 114.491361 191.070811 116.071577 191.070811 
z
" style="fill:#2f6b8e;"/>
    <path clip-path="url(#p51f9f2a2e3)" d="M 279.197103 114.641942 
C 280.996847 114.641942 282.72312 113.926897 283.995731 112.654286 
C 285.268342 111.381675 285.983388 109.655401 285.983388 107.855658 
C 285.983388 106.055914 285.268342 104.329641 283.995731 103.05703 
C 282.72312 101.784419 280.996847 101.069373 279.197103 101.069373 
C 277.397359 101.069373 275.671086 101.784419 274.398475 103.05703 
C 273.125864 104.329641 272.410819 106.055914 272.410819 107.855658 
C 272.410819 109.655401 273.125864 111.381675 274.398475 112.654286 
C 275.671086 113.926897 277.397359 114.641942 279.197103 114.641942 
z
" style="fill:#472c7a;"/>
    <path clip-path="url(#p51f9f2a2e3)" d="M 247.011091 60.829066 
C 248.823348 60.829066 250.561623 60.109049 251.843082 58.82759 
C 253.124541 57.546131 253.844558 55.807856 253.844558 53.995599 
C 253.844558 52.183342 253.124541 50.445067 251.843082 49.163608 
C 250.561623 47.882149 248.823348 47.162132 247.011091 47.162132 
C 245.198835 47.162132 243.460559 47.882149 242.1791 49.163608 
C 240.897642 50.445067 240.177624 52.183342 240.177624 53.995599 
C 240.177624 55.807856 240.897642 57.546131 242.1791 58.82759 
C 243.460559 60.109049 245.198835 60.829066 247.011091 60.829066 
z
" style="fill:#44bf70;"/>
    <path clip-path="url(#p51f9f2a2e3)" d="M 264.989844 254.100089 
C 266.728314 254.100089 268.395815 253.409387 269.625098 252.180104 
C 270.854382 250.95082 271.545084 249.283319 271.545084 247.54485 
C 271.545084 245.80638 270.854382 244.138879 269.625098 242.909595 
C 268.395815 241.680312 266.728314 240.98961 264.989844 240.98961 
C 263.251375 240.98961 261.583874 241.680312 260.35459 242.909595 
C 259.125307 244.138879 258.434605 245.80638 258.434605 247.54485 
C 258.434605 249.283319 259.125307 250.95082 260.35459 252.180104 
C 261.583874 253.409387 263.251375 254.100089 264.989844 254.100089 
z
" style="fill:#228b8d;"/>
    <path clip-path="url(#p51f9f2a2e3)" d="M 261.288892 197.904076 
C 263.037743 197.904076 264.715202 197.20925 265.951827 195.972625 
C 267.188452 194.736 267.883278 193.058542 267.883278 191.30969 
C 267.883278 189.560839 267.188452 187.88338 265.951827 186.646755 
C 264.715202 185.41013 263.037743 184.715304 261.288892 184.715304 
C 259.54004 184.715304 257.862581 185.41013 256.625957 186.646755 
C 255.389332 187.88338 254.694506 189.560839 254.694506 191.30969 
C 254.694506 193.058542 255.389332 194.736 256.625957 195.972625 
C 257.862581 197.20925 259.54004 197.904076 261.288892 197.904076 
z
" style="fill:#25858e;"/>
    <path clip-path="url(#p51f9f2a2e3)" d="M 238.329981 91.11289 
C 240.118214 91.11289 241.833447 90.402418 243.097919 89.137945 
C 244.362391 87.873473 245.072864 86.15824 245.072864 84.370007 
C 245.072864 82.581773 244.362391 80.86654 243.097919 79.602068 
C 241.833447 78.337596 240.118214 77.627123 238.329981 77.627123 
C 236.541747 77.627123 234.826514 78.337596 233.562042 79.602068 
C 232.29757 80.86654 231.587097 82.581773 231.587097 84.370007 
C 231.587097 86.15824 232.29757 87.873473 233.562042 89.137945 
C 234.826514 90.402418 236.541747 91.11289 238.329981 91.11289 
z
" style="fill:#23898e;"/>
    <path clip-path="url(#p51f9f2a2e3)" d="M 264.71296 85.769163 
C 266.521618 85.769163 268.256442 85.050575 269.535357 83.771661 
C 270.814272 82.492746 271.532859 80.757922 271.532859 78.949264 
C 271.532859 77.140605 270.814272 75.405781 269.535357 74.126866 
C 268.256442 72.847952 266.521618 72.129364 264.71296 72.129364 
C 262.904301 72.129364 261.169477 72.847952 259.890563 74.126866 
C 258.611648 75.405781 257.89306 77.140605 257.89306 78.949264 
C 257.89306 80.757922 258.611648 82.492746 259.890563 83.771661 
C 261.169477 85.050575 262.904301 85.769163 264.71296 85.769163 
z
" style="fill:#24868e;"/>
    <path clip-path="url(#p51f9f2a2e3)" d="M 305.265433 118.672664 
C 307.07474 118.672664 308.810186 117.953819 310.089559 116.674446 
C 311.368932 115.395072 312.087777 113.659626 312.087777 111.85032 
C 312.087777 110.041013 311.368932 108.305567 310.089559 107.026194 
C 308.810186 105.74682 307.07474 105.027975 305.265433 105.027975 
C 303.456126 105.027975 301.72068 105.74682 300.441307 107.026194 
C 299.161934 108.305567 298.443089 110.041013 298.443089 111.85032 
C 298.443089 113.659626 299.161934 115.395072 300.441307 116.674446 
C 301.72068 117.953819 303.456126 118.672664 305.265433 118.672664 
z
" style="fill:#228b8d;"/>
    <path clip-path="url(#p51f9f2a2e3)" d="M 235.124291 123.423473 
C 236.891494 123.423473 238.586556 122.721356 239.836158 121.471754 
C 241.08576 120.222152 241.787877 118.52709 241.787877 116.759886 
C 241.787877 114.992682 241.08576 113.297621 239.836158 112.048019 
C 238.586556 110.798417 236.891494 110.096299 235.124291 110.096299 
C 233.357087 110.096299 231.662025 110.798417 230.412423 112.048019 
C 229.162821 113.297621 228.460704 114.992682 228.460704 116.759886 
C 228.460704 118.52709 229.162821 120.222152 230.412423 121.471754 
C 231.662025 122.721356 233.357087 123.423473 235.124291 123.423473 
z
" style="fill:#482677;"/>
    <path clip-path="url(#p51f9f2a2e3)" d="M 295.223548 301.726346 
C 296.988412 301.726346 298.681229 301.025158 299.929176 299.777211 
C 301.177123 298.529264 301.87831 296.836447 301.87831 295.071583 
C 301.87831 293.30672 301.177123 291.613903 299.929176 290.365956 
C 298.681229 289.118009 296.988412 288.416821 295.223548 288.416821 
C 293.458684 288.416821 291.765867 289.118009 290.51792 290.365956 
C 289.269973 291.613903 288.568786 293.30672 288.568786 295.071583 
C 288.568786 296.836447 289.269973 298.529264 290.51792 299.777211 
C 291.765867 301.025158 293.458684 301.726346 295.223548 301.726346 
z
" style="fill:#fde725;"/>
    <path clip-path="url(#p51f9f2a2e3)" d="M 224.247196 225.270018 
C 225.954938 225.270018 227.592965 224.591525 228.800521 223.383969 
C 230.008077 222.176413 230.68657 220.538386 230.68657 218.830644 
C 230.68657 217.122902 230.008077 215.484874 228.800521 214.277318 
C 227.592965 213.069762 225.954938 212.391269 224.247196 212.391269 
C 222.539454 212.391269 220.901426 213.069762 219.69387 214.277318 
C 218.486314 215.484874 217.807821 217.122902 217.807821 218.830644 
C 217.807821 220.538386 218.486314 222.176413 219.69387 223.383969 
C 220.901426 224.591525 222.539454 225.270018 224.247196 225.270018 
z
" style="fill:#25848e;"/>
    <path clip-path="url(#p51f9f2a2e3)" d="M 197.25426 159.337556 
C 198.971891 159.337556 200.619404 158.655133 201.833953 157.440585 
C 203.048502 156.226036 203.730924 154.578523 203.730924 152.860892 
C 203.730924 151.143261 203.048502 149.495748 201.833953 148.281199 
C 200.619404 147.06665 198.971891 146.384228 197.25426 146.384228 
C 195.536629 146.384228 193.889116 147.06665 192.674567 148.281199 
C 191.460019 149.495748 190.777596 151.143261 190.777596 152.860892 
C 190.777596 154.578523 191.460019 156.226036 192.674567 157.440585 
C 193.889116 158.655133 195.536629 159.337556 197.25426 159.337556 
z
" style="fill:#26828e;"/>
   </g>
   <g id="text_1">
    <!-- Structure #9398, $E_N$=-176.83eV, ΔE=0.22eV -->
    <defs>
     <path d="M 53.515625 70.515625 
L 53.515625 60.890625 
Q 47.90625 63.578125 42.921875 64.890625 
Q 37.9375 66.21875 33.296875 66.21875 
Q 25.25 66.21875 20.875 63.09375 
Q 16.5 59.96875 16.5 54.203125 
Q 16.5 49.359375 19.40625 46.890625 
Q 22.3125 44.4375 30.421875 42.921875 
L 36.375 41.703125 
Q 47.40625 39.59375 52.65625 34.296875 
Q 57.90625 29 57.90625 20.125 
Q 57.90625 9.515625 50.796875 4.046875 
Q 43.703125 -1.421875 29.984375 -1.421875 
Q 24.8125 -1.421875 18.96875 -0.25 
Q 13.140625 0.921875 6.890625 3.21875 
L 6.890625 13.375 
Q 12.890625 10.015625 18.65625 8.296875 
Q 24.421875 6.59375 29.984375 6.59375 
Q 38.421875 6.59375 43.015625 9.90625 
Q 47.609375 13.234375 47.609375 19.390625 
Q 47.609375 24.75 44.3125 27.78125 
Q 41.015625 30.8125 33.5 32.328125 
L 27.484375 33.5 
Q 16.453125 35.6875 11.515625 40.375 
Q 6.59375 45.0625 6.59375 53.421875 
Q 6.59375 63.09375 13.40625 68.65625 
Q 20.21875 74.21875 32.171875 74.21875 
Q 37.3125 74.21875 42.625 73.28125 
Q 47.953125 72.359375 53.515625 70.515625 
z
" id="DejaVuSans-53"/>
     <path d="M 18.3125 70.21875 
L 18.3125 54.6875 
L 36.8125 54.6875 
L 36.8125 47.703125 
L 18.3125 47.703125 
L 18.3125 18.015625 
Q 18.3125 11.328125 20.140625 9.421875 
Q 21.96875 7.515625 27.59375 7.515625 
L 36.8125 7.515625 
L 36.8125 0 
L 27.59375 0 
Q 17.1875 0 13.234375 3.875 
Q 9.28125 7.765625 9.28125 18.015625 
L 9.28125 47.703125 
L 2.6875 47.703125 
L 2.6875 54.6875 
L 9.28125 54.6875 
L 9.28125 70.21875 
z
" id="DejaVuSans-74"/>
     <path d="M 41.109375 46.296875 
Q 39.59375 47.171875 37.8125 47.578125 
Q 36.03125 48 33.890625 48 
Q 26.265625 48 22.1875 43.046875 
Q 18.109375 38.09375 18.109375 28.8125 
L 18.109375 0 
L 9.078125 0 
L 9.078125 54.6875 
L 18.109375 54.6875 
L 18.109375 46.1875 
Q 20.953125 51.171875 25.484375 53.578125 
Q 30.03125 56 36.53125 56 
Q 37.453125 56 38.578125 55.875 
Q 39.703125 55.765625 41.0625 55.515625 
z
" id="DejaVuSans-72"/>
     <path d="M 8.5 21.578125 
L 8.5 54.6875 
L 17.484375 54.6875 
L 17.484375 21.921875 
Q 17.484375 14.15625 20.5 10.265625 
Q 23.53125 6.390625 29.59375 6.390625 
Q 36.859375 6.390625 41.078125 11.03125 
Q 45.3125 15.671875 45.3125 23.6875 
L 45.3125 54.6875 
L 54.296875 54.6875 
L 54.296875 0 
L 45.3125 0 
L 45.3125 8.40625 
Q 42.046875 3.421875 37.71875 1 
Q 33.40625 -1.421875 27.6875 -1.421875 
Q 18.265625 -1.421875 13.375 4.4375 
Q 8.5 10.296875 8.5 21.578125 
z
M 31.109375 56 
z
" id="DejaVuSans-75"/>
     <path d="M 48.78125 52.59375 
L 48.78125 44.1875 
Q 44.96875 46.296875 41.140625 47.34375 
Q 37.3125 48.390625 33.40625 48.390625 
Q 24.65625 48.390625 19.8125 42.84375 
Q 14.984375 37.3125 14.984375 27.296875 
Q 14.984375 17.28125 19.8125 11.734375 
Q 24.65625 6.203125 33.40625 6.203125 
Q 37.3125 6.203125 41.140625 7.25 
Q 44.96875 8.296875 48.78125 10.40625 
L 48.78125 2.09375 
Q 45.015625 0.34375 40.984375 -0.53125 
Q 36.96875 -1.421875 32.421875 -1.421875 
Q 20.0625 -1.421875 12.78125 6.34375 
Q 5.515625 14.109375 5.515625 27.296875 
Q 5.515625 40.671875 12.859375 48.328125 
Q 20.21875 56 33.015625 56 
Q 37.15625 56 41.109375 55.140625 
Q 45.0625 54.296875 48.78125 52.59375 
z
" id="DejaVuSans-63"/>
     <path d="M 56.203125 29.59375 
L 56.203125 25.203125 
L 14.890625 25.203125 
Q 15.484375 15.921875 20.484375 11.0625 
Q 25.484375 6.203125 34.421875 6.203125 
Q 39.59375 6.203125 44.453125 7.46875 
Q 49.3125 8.734375 54.109375 11.28125 
L 54.109375 2.78125 
Q 49.265625 0.734375 44.1875 -0.34375 
Q 39.109375 -1.421875 33.890625 -1.421875 
Q 20.796875 -1.421875 13.15625 6.1875 
Q 5.515625 13.8125 5.515625 26.8125 
Q 5.515625 40.234375 12.765625 48.109375 
Q 20.015625 56 32.328125 56 
Q 43.359375 56 49.78125 48.890625 
Q 56.203125 41.796875 56.203125 29.59375 
z
M 47.21875 32.234375 
Q 47.125 39.59375 43.09375 43.984375 
Q 39.0625 48.390625 32.421875 48.390625 
Q 24.90625 48.390625 20.390625 44.140625 
Q 15.875 39.890625 15.1875 32.171875 
z
" id="DejaVuSans-65"/>
     <path id="DejaVuSans-20"/>
     <path d="M 51.125 44 
L 36.921875 44 
L 32.8125 27.6875 
L 47.125 27.6875 
z
M 43.796875 71.78125 
L 38.71875 51.515625 
L 52.984375 51.515625 
L 58.109375 71.78125 
L 65.921875 71.78125 
L 60.890625 51.515625 
L 76.125 51.515625 
L 76.125 44 
L 58.984375 44 
L 54.984375 27.6875 
L 70.515625 27.6875 
L 70.515625 20.21875 
L 53.078125 20.21875 
L 48 0 
L 40.1875 0 
L 45.21875 20.21875 
L 30.90625 20.21875 
L 25.875 0 
L 18.015625 0 
L 23.09375 20.21875 
L 7.71875 20.21875 
L 7.71875 27.6875 
L 24.90625 27.6875 
L 29 44 
L 13.28125 44 
L 13.28125 51.515625 
L 30.90625 51.515625 
L 35.890625 71.78125 
z
" id="DejaVuSans-23"/>
     <path d="M 10.984375 1.515625 
L 10.984375 10.5 
Q 14.703125 8.734375 18.5 7.8125 
Q 22.3125 6.890625 25.984375 6.890625 
Q 35.75 6.890625 40.890625 13.453125 
Q 46.046875 20.015625 46.78125 33.40625 
Q 43.953125 29.203125 39.59375 26.953125 
Q 35.25 24.703125 29.984375 24.703125 
Q 19.046875 24.703125 12.671875 31.3125 
Q 6.296875 37.9375 6.296875 49.421875 
Q 6.296875 60.640625 12.9375 67.421875 
Q 19.578125 74.21875 30.609375 74.21875 
Q 43.265625 74.21875 49.921875 64.515625 
Q 56.59375 54.828125 56.59375 36.375 
Q 56.59375 19.140625 48.40625 8.859375 
Q 40.234375 -1.421875 26.421875 -1.421875 
Q 22.703125 -1.421875 18.890625 -0.6875 
Q 15.09375 0.046875 10.984375 1.515625 
z
M 30.609375 32.421875 
Q 37.25 32.421875 41.125 36.953125 
Q 45.015625 41.5 45.015625 49.421875 
Q 45.015625 57.28125 41.125 61.84375 
Q 37.25 66.40625 30.609375 66.40625 
Q 23.96875 66.40625 20.09375 61.84375 
Q 16.21875 57.28125 16.21875 49.421875 
Q 16.21875 41.5 20.09375 36.953125 
Q 23.96875 32.421875 30.609375 32.421875 
z
" id="DejaVuSans-39"/>
     <path d="M 40.578125 39.3125 
Q 47.65625 37.796875 51.625 33 
Q 55.609375 28.21875 55.609375 21.1875 
Q 55.609375 10.40625 48.1875 4.484375 
Q 40.765625 -1.421875 27.09375 -1.421875 
Q 22.515625 -1.421875 17.65625 -0.515625 
Q 12.796875 0.390625 7.625 2.203125 
L 7.625 11.71875 
Q 11.71875 9.328125 16.59375 8.109375 
Q 21.484375 6.890625 26.8125 6.890625 
Q 36.078125 6.890625 40.9375 10.546875 
Q 45.796875 14.203125 45.796875 21.1875 
Q 45.796875 27.640625 41.28125 31.265625 
Q 36.765625 34.90625 28.71875 34.90625 
L 20.21875 34.90625 
L 20.21875 43.015625 
L 29.109375 43.015625 
Q 36.375 43.015625 40.234375 45.921875 
Q 44.09375 48.828125 44.09375 54.296875 
Q 44.09375 59.90625 40.109375 62.90625 
Q 36.140625 65.921875 28.71875 65.921875 
Q 24.65625 65.921875 20.015625 65.03125 
Q 15.375 64.15625 9.8125 62.3125 
L 9.8125 71.09375 
Q 15.4375 72.65625 20.34375 73.4375 
Q 25.25 74.21875 29.59375 74.21875 
Q 40.828125 74.21875 47.359375 69.109375 
Q 53.90625 64.015625 53.90625 55.328125 
Q 53.90625 49.265625 50.4375 45.09375 
Q 46.96875 40.921875 40.578125 39.3125 
z
" id="DejaVuSans-33"/>
     <path d="M 31.78125 34.625 
Q 24.75 34.625 20.71875 30.859375 
Q 16.703125 27.09375 16.703125 20.515625 
Q 16.703125 13.921875 20.71875 10.15625 
Q 24.75 6.390625 31.78125 6.390625 
Q 38.8125 6.390625 42.859375 10.171875 
Q 46.921875 13.96875 46.921875 20.515625 
Q 46.921875 27.09375 42.890625 30.859375 
Q 38.875 34.625 31.78125 34.625 
z
M 21.921875 38.8125 
Q 15.578125 40.375 12.03125 44.71875 
Q 8.5 49.078125 8.5 55.328125 
Q 8.5 64.0625 14.71875 69.140625 
Q 20.953125 74.21875 31.78125 74.21875 
Q 42.671875 74.21875 48.875 69.140625 
Q 55.078125 64.0625 55.078125 55.328125 
Q 55.078125 49.078125 51.53125 44.71875 
Q 48 40.375 41.703125 38.8125 
Q 48.828125 37.15625 52.796875 32.3125 
Q 56.78125 27.484375 56.78125 20.515625 
Q 56.78125 9.90625 50.3125 4.234375 
Q 43.84375 -1.421875 31.78125 -1.421875 
Q 19.734375 -1.421875 13.25 4.234375 
Q 6.78125 9.90625 6.78125 20.515625 
Q 6.78125 27.484375 10.78125 32.3125 
Q 14.796875 37.15625 21.921875 38.8125 
z
M 18.3125 54.390625 
Q 18.3125 48.734375 21.84375 45.5625 
Q 25.390625 42.390625 31.78125 42.390625 
Q 38.140625 42.390625 41.71875 45.5625 
Q 45.3125 48.734375 45.3125 54.390625 
Q 45.3125 60.0625 41.71875 63.234375 
Q 38.140625 66.40625 31.78125 66.40625 
Q 25.390625 66.40625 21.84375 63.234375 
Q 18.3125 60.0625 18.3125 54.390625 
z
" id="DejaVuSans-38"/>
     <path d="M 11.71875 12.40625 
L 22.015625 12.40625 
L 22.015625 4 
L 14.015625 -11.625 
L 7.71875 -11.625 
L 11.71875 4 
z
" id="DejaVuSans-2c"/>
     <path d="M 16.890625 72.90625 
L 62.984375 72.90625 
L 61.375 64.59375 
L 25.09375 64.59375 
L 20.90625 43.015625 
L 55.71875 43.015625 
L 54.109375 34.71875 
L 19.28125 34.71875 
L 14.203125 8.296875 
L 51.3125 8.296875 
L 49.703125 0 
L 2.6875 0 
z
" id="DejaVuSans-Oblique-45"/>
     <path d="M 16.890625 72.90625 
L 30.171875 72.90625 
L 50.296875 10.40625 
L 62.5 72.90625 
L 72.125 72.90625 
L 57.90625 0 
L 44.578125 0 
L 24.515625 62.890625 
L 12.3125 0 
L 2.6875 0 
z
" id="DejaVuSans-Oblique-4e"/>
     <path d="M 10.59375 45.40625 
L 73.1875 45.40625 
L 73.1875 37.203125 
L 10.59375 37.203125 
z
M 10.59375 25.484375 
L 73.1875 25.484375 
L 73.1875 17.1875 
L 10.59375 17.1875 
z
" id="DejaVuSans-3d"/>
     <path d="M 4.890625 31.390625 
L 31.203125 31.390625 
L 31.203125 23.390625 
L 4.890625 23.390625 
z
" id="DejaVuSans-2d"/>
     <path d="M 12.40625 8.296875 
L 28.515625 8.296875 
L 28.515625 63.921875 
L 10.984375 60.40625 
L 10.984375 69.390625 
L 28.421875 72.90625 
L 38.28125 72.90625 
L 38.28125 8.296875 
L 54.390625 8.296875 
L 54.390625 0 
L 12.40625 0 
z
" id="DejaVuSans-31"/>
     <path d="M 8.203125 72.90625 
L 55.078125 72.90625 
L 55.078125 68.703125 
L 28.609375 0 
L 18.3125 0 
L 43.21875 64.59375 
L 8.203125 64.59375 
z
" id="DejaVuSans-37"/>
     <path d="M 33.015625 40.375 
Q 26.375 40.375 22.484375 35.828125 
Q 18.609375 31.296875 18.609375 23.390625 
Q 18.609375 15.53125 22.484375 10.953125 
Q 26.375 6.390625 33.015625 6.390625 
Q 39.65625 6.390625 43.53125 10.953125 
Q 47.40625 15.53125 47.40625 23.390625 
Q 47.40625 31.296875 43.53125 35.828125 
Q 39.65625 40.375 33.015625 40.375 
z
M 52.59375 71.296875 
L 52.59375 62.3125 
Q 48.875 64.0625 45.09375 64.984375 
Q 41.3125 65.921875 37.59375 65.921875 
Q 27.828125 65.921875 22.671875 59.328125 
Q 17.53125 52.734375 16.796875 39.40625 
Q 19.671875 43.65625 24.015625 45.921875 
Q 28.375 48.1875 33.59375 48.1875 
Q 44.578125 48.1875 50.953125 41.515625 
Q 57.328125 34.859375 57.328125 23.390625 
Q 57.328125 12.15625 50.6875 5.359375 
Q 44.046875 -1.421875 33.015625 -1.421875 
Q 20.359375 -1.421875 13.671875 8.265625 
Q 6.984375 17.96875 6.984375 36.375 
Q 6.984375 53.65625 15.1875 63.9375 
Q 23.390625 74.21875 37.203125 74.21875 
Q 40.921875 74.21875 44.703125 73.484375 
Q 48.484375 72.75 52.59375 71.296875 
z
" id="DejaVuSans-36"/>
     <path d="M 10.6875 12.40625 
L 21 12.40625 
L 21 0 
L 10.6875 0 
z
" id="DejaVuSans-2e"/>
     <path d="M 28.609375 0 
L 0.78125 72.90625 
L 11.078125 72.90625 
L 34.1875 11.53125 
L 57.328125 72.90625 
L 67.578125 72.90625 
L 39.796875 0 
z
" id="DejaVuSans-56"/>
     <path d="M 34.1875 63.1875 
L 14.15625 8.203125 
L 54.25 8.203125 
z
M 0.78125 0 
L 28.609375 72.90625 
L 39.796875 72.90625 
L 67.578125 0 
z
" id="DejaVuSans-394"/>
     <path d="M 9.8125 72.90625 
L 55.90625 72.90625 
L 55.90625 64.59375 
L 19.671875 64.59375 
L 19.671875 43.015625 
L 54.390625 43.015625 
L 54.390625 34.71875 
L 19.671875 34.71875 
L 19.671875 8.296875 
L 56.78125 8.296875 
L 56.78125 0 
L 9.8125 0 
z
" id="DejaVuSans-45"/>
     <path d="M 31.78125 66.40625 
Q 24.171875 66.40625 20.328125 58.90625 
Q 16.5 51.421875 16.5 36.375 
Q 16.5 21.390625 20.328125 13.890625 
Q 24.171875 6.390625 31.78125 6.390625 
Q 39.453125 6.390625 43.28125 13.890625 
Q 47.125 21.390625 47.125 36.375 
Q 47.125 51.421875 43.28125 58.90625 
Q 39.453125 66.40625 31.78125 66.40625 
z
M 31.78125 74.21875 
Q 44.046875 74.21875 50.515625 64.515625 
Q 56.984375 54.828125 56.984375 36.375 
Q 56.984375 17.96875 50.515625 8.265625 
Q 44.046875 -1.421875 31.78125 -1.421875 
Q 19.53125 -1.421875 13.0625 8.265625 
Q 6.59375 17.96875 6.59375 36.375 
Q 6.59375 54.828125 13.0625 64.515625 
Q 19.53125 74.21875 31.78125 74.21875 
z
" id="DejaVuSans-30"/>
     <path d="M 19.1875 8.296875 
L 53.609375 8.296875 
L 53.609375 0 
L 7.328125 0 
L 7.328125 8.296875 
Q 12.9375 14.109375 22.625 23.890625 
Q 32.328125 33.6875 34.8125 36.53125 
Q 39.546875 41.84375 41.421875 45.53125 
Q 43.3125 49.21875 43.3125 52.78125 
Q 43.3125 58.59375 39.234375 62.25 
Q 35.15625 65.921875 28.609375 65.921875 
Q 23.96875 65.921875 18.8125 64.3125 
Q 13.671875 62.703125 7.8125 59.421875 
L 7.8125 69.390625 
Q 13.765625 71.78125 18.9375 73 
Q 24.125 74.21875 28.421875 74.21875 
Q 39.75 74.21875 46.484375 68.546875 
Q 53.21875 62.890625 53.21875 53.421875 
Q 53.21875 48.921875 51.53125 44.890625 
Q 49.859375 40.875 45.40625 35.40625 
Q 44.1875 33.984375 37.640625 27.21875 
Q 31.109375 20.453125 19.1875 8.296875 
z
" id="DejaVuSans-32"/>
    </defs>
    <g transform="translate(65.388 35.472)scale(0.12 -0.12)">
     <use transform="translate(0 0.78125)" xlink:href="#DejaVuSans-53"/>
     <use transform="translate(63.476562 0.78125)" xlink:href="#DejaVuSans-74"/>
     <use transform="translate(102.685547 0.78125)" xlink:href="#DejaVuSans-72"/>
     <use transform="translate(143.798828 0.78125)" xlink:href="#DejaVuSans-75"/>
     <use transform="translate(207.177734 0.78125)" xlink:href="#DejaVuSans-63"/>
     <use transform="translate(262.158203 0.78125)" xlink:href="#DejaVuSans-74"/>
     <use transform="translate(301.367188 0.78125)" xlink:href="#DejaVuSans-75"/>
     <use transform="translate(364.746094 0.78125)" xlink:href="#DejaVuSans-72"/>
     <use transform="translate(405.859375 0.78125)" xlink:href="#DejaVuSans-65"/>
     <use transform="translate(467.382812 0.78125)" xlink:href="#DejaVuSans-20"/>
     <use transform="translate(499.169922 0.78125)" xlink:href="#DejaVuSans-23"/>
     <use transform="translate(582.958984 0.78125)" xlink:href="#DejaVuSans-39"/>
     <use transform="translate(646.582031 0.78125)" xlink:href="#DejaVuSans-33"/>
     <use transform="translate(710.205078 0.78125)" xlink:href="#DejaVuSans-39"/>
     <use transform="translate(773.828125 0.78125)" xlink:href="#DejaVuSans-38"/>
     <use transform="translate(837.451172 0.78125)" xlink:href="#DejaVuSans-2c"/>
     <use transform="translate(869.238281 0.78125)" xlink:href="#DejaVuSans-20"/>
     <use transform="translate(901.025391 0.78125)" xlink:href="#DejaVuSans-Oblique-45"/>
     <use transform="translate(964.208984 -15.625)scale(0.7)" xlink:href="#DejaVuSans-Oblique-4e"/>
     <use transform="translate(1019.306641 0.78125)" xlink:href="#DejaVuSans-3d"/>
     <use transform="translate(1103.095703 0.78125)" xlink:href="#DejaVuSans-2d"/>
     <use transform="translate(1139.179688 0.78125)" xlink:href="#DejaVuSans-31"/>
     <use transform="translate(1202.802734 0.78125)" xlink:href="#DejaVuSans-37"/>
     <use transform="translate(1266.425781 0.78125)" xlink:href="#DejaVuSans-36"/>
     <use transform="translate(1330.048828 0.78125)" xlink:href="#DejaVuSans-2e"/>
     <use transform="translate(1361.804688 0.78125)" xlink:href="#DejaVuSans-38"/>
     <use transform="translate(1425.427734 0.78125)" xlink:href="#DejaVuSans-33"/>
     <use transform="translate(1489.050781 0.78125)" xlink:href="#DejaVuSans-65"/>
     <use transform="translate(1550.574219 0.78125)" xlink:href="#DejaVuSans-56"/>
     <use transform="translate(1618.982422 0.78125)" xlink:href="#DejaVuSans-2c"/>
     <use transform="translate(1650.769531 0.78125)" xlink:href="#DejaVuSans-20"/>
     <use transform="translate(1682.556641 0.78125)" xlink:href="#DejaVuSans-394"/>
     <use transform="translate(1750.964844 0.78125)" xlink:href="#DejaVuSans-45"/>
     <use transform="translate(1814.148438 0.78125)" xlink:href="#DejaVuSans-3d"/>
     <use transform="translate(1897.9375 0.78125)" xlink:href="#DejaVuSans-30"/>
     <use transform="translate(1961.560547 0.78125)" xlink:href="#DejaVuSans-2e"/>
     <use transform="translate(1993.269531 0.78125)" xlink:href="#DejaVuSans-32"/>
     <use transform="translate(2056.892578 0.78125)" xlink:href="#DejaVuSans-32"/>
     <use transform="translate(2120.515625 0.78125)" xlink:href="#DejaVuSans-65"/>
     <use transform="translate(2182.039062 0.78125)" xlink:href="#DejaVuSans-56"/>
    </g>
   </g>
  </g>
  <g id="axes_2">
   <g id="patch_2">
    <path clip-path="url(#pb120c303b7)" d="M 361.152 307.584 
L 361.152 306.5445 
L 361.152 42.5115 
L 361.152 41.472 
L 374.4576 41.472 
L 374.4576 42.5115 
L 374.4576 306.5445 
L 374.4576 307.584 
z
" style="fill:#ffffff;stroke:#ffffff;stroke-linejoin:miter;stroke-width:0.01;"/>
   </g>
   <image height="265.68" id="image9b1d5e8542" transform="scale(1 -1)translate(0 -265.68)" width="12.96" x="361.44" xlink:href="data:image/png;base64,
iVBORw0KGgoAAAANSUhEUgAAABIAAAFxCAYAAAB+2fgXAAAABHNCSVQICAgIfAhkiAAAAeVJREFUeJztncmNw0AQA2ckheYQNv9QLIfQ8ygsCgQ7AEI8+jAs2Puz/94F1LP2ReCsZ18bAWIeZ5XaGRBE7VnbptG+KI101FYyNSiQG2oRITXKNaX9uclOdi2XWjftVE32CZCO2ou5Bj1TcCBr/1zB9ge7Fq0Rg2NM9pvbtG+ua1QgsRYhDy0ISEiNc40BEibbSI0Coj5CBGtkpFbXJiAjNZlrwhuSOv2M1DjXbEdEciBt1JSDDQKKpmZr2rr2j0DBGpXaWEJq3bQzEPIS26r9J+Wzv9Tm8o3aajRXqc3VUXsApKNWjeZq0x4ABVNbm7lrszVigDqP5vIl2+eaT2yfRkL7g+dRcNPqjohkjaCvRVBq0H2U3LQrOJCx9kdTg4B8oxZzzTdqdYHEngjUCAPyUctN9sVRq2sTECW2UKNLd2jVtRmo1A6AhMmWaSRcR8nUdIHUuVb75zJS218EyEitro1At69pIdeSk30Lkw0FktNImGyZRhy1O5galmxd03LUsHWk06jUZiCq+5Wb1kZNN4+wJxJuWt8RAW5am2sYNZ9rYCBzZ3buPKJ2P5Yj4Toy3keyIyJbIxs1rml1byCA84gpch5RQNB7Q0qNMGq2Hy4BXdNR41yz/cEEJfZzUz96r9PoB0okjeQ8y9TkAAAAAElFTkSuQmCC" y="-41.76"/>
   <g id="matplotlib.axis_1"/>
   <g id="matplotlib.axis_2">
    <g id="ytick_1">
     <g id="line2d_1">
      <defs>
       <path d="M 0 0 
L 3.5 0 
" id="m1dd500c880" style="stroke:#000000;stroke-width:0.8;"/>
      </defs>
      <g>
       <use style="stroke:#000000;stroke-width:0.8;" x="374.4576" xlink:href="#m1dd500c880" y="291.442592"/>
      </g>
     </g>
     <g id="text_2">
      <!-- −9.0 -->
      <defs>
       <path d="M 10.59375 35.5 
L 73.1875 35.5 
L 73.1875 27.203125 
L 10.59375 27.203125 
z
" id="DejaVuSans-2212"/>
      </defs>
      <g transform="translate(381.4576 295.241811)scale(0.1 -0.1)">
       <use xlink:href="#DejaVuSans-2212"/>
       <use x="83.789062" xlink:href="#DejaVuSans-39"/>
       <use x="147.412109" xlink:href="#DejaVuSans-2e"/>
       <use x="179.199219" xlink:href="#DejaVuSans-30"/>
      </g>
     </g>
    </g>
    <g id="ytick_2">
     <g id="line2d_2">
      <g>
       <use style="stroke:#000000;stroke-width:0.8;" x="374.4576" xlink:href="#m1dd500c880" y="261.839321"/>
      </g>
     </g>
     <g id="text_3">
      <!-- −8.5 -->
      <defs>
       <path d="M 10.796875 72.90625 
L 49.515625 72.90625 
L 49.515625 64.59375 
L 19.828125 64.59375 
L 19.828125 46.734375 
Q 21.96875 47.46875 24.109375 47.828125 
Q 26.265625 48.1875 28.421875 48.1875 
Q 40.625 48.1875 47.75 41.5 
Q 54.890625 34.8125 54.890625 23.390625 
Q 54.890625 11.625 47.5625 5.09375 
Q 40.234375 -1.421875 26.90625 -1.421875 
Q 22.3125 -1.421875 17.546875 -0.640625 
Q 12.796875 0.140625 7.71875 1.703125 
L 7.71875 11.625 
Q 12.109375 9.234375 16.796875 8.0625 
Q 21.484375 6.890625 26.703125 6.890625 
Q 35.15625 6.890625 40.078125 11.328125 
Q 45.015625 15.765625 45.015625 23.390625 
Q 45.015625 31 40.078125 35.4375 
Q 35.15625 39.890625 26.703125 39.890625 
Q 22.75 39.890625 18.8125 39.015625 
Q 14.890625 38.140625 10.796875 36.28125 
z
" id="DejaVuSans-35"/>
      </defs>
      <g transform="translate(381.4576 265.63854)scale(0.1 -0.1)">
       <use xlink:href="#DejaVuSans-2212"/>
       <use x="83.789062" xlink:href="#DejaVuSans-38"/>
       <use x="147.412109" xlink:href="#DejaVuSans-2e"/>
       <use x="179.199219" xlink:href="#DejaVuSans-35"/>
      </g>
     </g>
    </g>
    <g id="ytick_3">
     <g id="line2d_3">
      <g>
       <use style="stroke:#000000;stroke-width:0.8;" x="374.4576" xlink:href="#m1dd500c880" y="232.23605"/>
      </g>
     </g>
     <g id="text_4">
      <!-- −8.0 -->
      <g transform="translate(381.4576 236.035269)scale(0.1 -0.1)">
       <use xlink:href="#DejaVuSans-2212"/>
       <use x="83.789062" xlink:href="#DejaVuSans-38"/>
       <use x="147.412109" xlink:href="#DejaVuSans-2e"/>
       <use x="179.199219" xlink:href="#DejaVuSans-30"/>
      </g>
     </g>
    </g>
    <g id="ytick_4">
     <g id="line2d_4">
      <g>
       <use style="stroke:#000000;stroke-width:0.8;" x="374.4576" xlink:href="#m1dd500c880" y="202.632779"/>
      </g>
     </g>
     <g id="text_5">
      <!-- −7.5 -->
      <g transform="translate(381.4576 206.431998)scale(0.1 -0.1)">
       <use xlink:href="#DejaVuSans-2212"/>
       <use x="83.789062" xlink:href="#DejaVuSans-37"/>
       <use x="147.412109" xlink:href="#DejaVuSans-2e"/>
       <use x="179.199219" xlink:href="#DejaVuSans-35"/>
      </g>
     </g>
    </g>
    <g id="ytick_5">
     <g id="line2d_5">
      <g>
       <use style="stroke:#000000;stroke-width:0.8;" x="374.4576" xlink:href="#m1dd500c880" y="173.029508"/>
      </g>
     </g>
     <g id="text_6">
      <!-- −7.0 -->
      <g transform="translate(381.4576 176.828727)scale(0.1 -0.1)">
       <use xlink:href="#DejaVuSans-2212"/>
       <use x="83.789062" xlink:href="#DejaVuSans-37"/>
       <use x="147.412109" xlink:href="#DejaVuSans-2e"/>
       <use x="179.199219" xlink:href="#DejaVuSans-30"/>
      </g>
     </g>
    </g>
    <g id="ytick_6">
     <g id="line2d_6">
      <g>
       <use style="stroke:#000000;stroke-width:0.8;" x="374.4576" xlink:href="#m1dd500c880" y="143.426237"/>
      </g>
     </g>
     <g id="text_7">
      <!-- −6.5 -->
      <g transform="translate(381.4576 147.225456)scale(0.1 -0.1)">
       <use xlink:href="#DejaVuSans-2212"/>
       <use x="83.789062" xlink:href="#DejaVuSans-36"/>
       <use x="147.412109" xlink:href="#DejaVuSans-2e"/>
       <use x="179.199219" xlink:href="#DejaVuSans-35"/>
      </g>
     </g>
    </g>
    <g id="ytick_7">
     <g id="line2d_7">
      <g>
       <use style="stroke:#000000;stroke-width:0.8;" x="374.4576" xlink:href="#m1dd500c880" y="113.822966"/>
      </g>
     </g>
     <g id="text_8">
      <!-- −6.0 -->
      <g transform="translate(381.4576 117.622185)scale(0.1 -0.1)">
       <use xlink:href="#DejaVuSans-2212"/>
       <use x="83.789062" xlink:href="#DejaVuSans-36"/>
       <use x="147.412109" xlink:href="#DejaVuSans-2e"/>
       <use x="179.199219" xlink:href="#DejaVuSans-30"/>
      </g>
     </g>
    </g>
    <g id="ytick_8">
     <g id="line2d_8">
      <g>
       <use style="stroke:#000000;stroke-width:0.8;" x="374.4576" xlink:href="#m1dd500c880" y="84.219695"/>
      </g>
     </g>
     <g id="text_9">
      <!-- −5.5 -->
      <g transform="translate(381.4576 88.018914)scale(0.1 -0.1)">
       <use xlink:href="#DejaVuSans-2212"/>
       <use x="83.789062" xlink:href="#DejaVuSans-35"/>
       <use x="147.412109" xlink:href="#DejaVuSans-2e"/>
       <use x="179.199219" xlink:href="#DejaVuSans-35"/>
      </g>
     </g>
    </g>
    <g id="ytick_9">
     <g id="line2d_9">
      <g>
       <use style="stroke:#000000;stroke-width:0.8;" x="374.4576" xlink:href="#m1dd500c880" y="54.616424"/>
      </g>
     </g>
     <g id="text_10">
      <!-- −5.0 -->
      <g transform="translate(381.4576 58.415643)scale(0.1 -0.1)">
       <use xlink:href="#DejaVuSans-2212"/>
       <use x="83.789062" xlink:href="#DejaVuSans-35"/>
       <use x="147.412109" xlink:href="#DejaVuSans-2e"/>
       <use x="179.199219" xlink:href="#DejaVuSans-30"/>
      </g>
     </g>
    </g>
    <g id="text_11">
     <!-- Energy [eV] -->
     <defs>
      <path d="M 54.890625 33.015625 
L 54.890625 0 
L 45.90625 0 
L 45.90625 32.71875 
Q 45.90625 40.484375 42.875 44.328125 
Q 39.84375 48.1875 33.796875 48.1875 
Q 26.515625 48.1875 22.3125 43.546875 
Q 18.109375 38.921875 18.109375 30.90625 
L 18.109375 0 
L 9.078125 0 
L 9.078125 54.6875 
L 18.109375 54.6875 
L 18.109375 46.1875 
Q 21.34375 51.125 25.703125 53.5625 
Q 30.078125 56 35.796875 56 
Q 45.21875 56 50.046875 50.171875 
Q 54.890625 44.34375 54.890625 33.015625 
z
" id="DejaVuSans-6e"/>
      <path d="M 45.40625 27.984375 
Q 45.40625 37.75 41.375 43.109375 
Q 37.359375 48.484375 30.078125 48.484375 
Q 22.859375 48.484375 18.828125 43.109375 
Q 14.796875 37.75 14.796875 27.984375 
Q 14.796875 18.265625 18.828125 12.890625 
Q 22.859375 7.515625 30.078125 7.515625 
Q 37.359375 7.515625 41.375 12.890625 
Q 45.40625 18.265625 45.40625 27.984375 
z
M 54.390625 6.78125 
Q 54.390625 -7.171875 48.1875 -13.984375 
Q 42 -20.796875 29.203125 -20.796875 
Q 24.46875 -20.796875 20.265625 -20.09375 
Q 16.0625 -19.390625 12.109375 -17.921875 
L 12.109375 -9.1875 
Q 16.0625 -11.328125 19.921875 -12.34375 
Q 23.78125 -13.375 27.78125 -13.375 
Q 36.625 -13.375 41.015625 -8.765625 
Q 45.40625 -4.15625 45.40625 5.171875 
L 45.40625 9.625 
Q 42.625 4.78125 38.28125 2.390625 
Q 33.9375 0 27.875 0 
Q 17.828125 0 11.671875 7.65625 
Q 5.515625 15.328125 5.515625 27.984375 
Q 5.515625 40.671875 11.671875 48.328125 
Q 17.828125 56 27.875 56 
Q 33.9375 56 38.28125 53.609375 
Q 42.625 51.21875 45.40625 46.390625 
L 45.40625 54.6875 
L 54.390625 54.6875 
z
" id="DejaVuSans-67"/>
      <path d="M 32.171875 -5.078125 
Q 28.375 -14.84375 24.75 -17.8125 
Q 21.140625 -20.796875 15.09375 -20.796875 
L 7.90625 -20.796875 
L 7.90625 -13.28125 
L 13.1875 -13.28125 
Q 16.890625 -13.28125 18.9375 -11.515625 
Q 21 -9.765625 23.484375 -3.21875 
L 25.09375 0.875 
L 2.984375 54.6875 
L 12.5 54.6875 
L 29.59375 11.921875 
L 46.6875 54.6875 
L 56.203125 54.6875 
z
" id="DejaVuSans-79"/>
      <path d="M 8.59375 75.984375 
L 29.296875 75.984375 
L 29.296875 69 
L 17.578125 69 
L 17.578125 -6.203125 
L 29.296875 -6.203125 
L 29.296875 -13.1875 
L 8.59375 -13.1875 
z
" id="DejaVuSans-5b"/>
      <path d="M 30.421875 75.984375 
L 30.421875 -13.1875 
L 9.71875 -13.1875 
L 9.71875 -6.203125 
L 21.390625 -6.203125 
L 21.390625 69 
L 9.71875 69 
L 9.71875 75.984375 
z
" id="DejaVuSans-5d"/>
     </defs>
     <g transform="translate(417.33885 204.108469)rotate(-90)scale(0.1 -0.1)">
      <use xlink:href="#DejaVuSans-45"/>
      <use x="63.183594" xlink:href="#DejaVuSans-6e"/>
      <use x="126.5625" xlink:href="#DejaVuSans-65"/>
      <use x="188.085938" xlink:href="#DejaVuSans-72"/>
      <use x="229.183594" xlink:href="#DejaVuSans-67"/>
      <use x="292.660156" xlink:href="#DejaVuSans-79"/>
      <use x="351.839844" xlink:href="#DejaVuSans-20"/>
      <use x="383.626953" xlink:href="#DejaVuSans-5b"/>
      <use x="422.640625" xlink:href="#DejaVuSans-65"/>
      <use x="484.164062" xlink:href="#DejaVuSans-56"/>
      <use x="552.572266" xlink:href="#DejaVuSans-5d"/>
     </g>
    </g>
   </g>
   <g id="patch_3">
    <path d="M 361.152 307.584 
L 361.152 306.5445 
L 361.152 42.5115 
L 361.152 41.472 
L 374.4576 41.472 
L 374.4576 42.5115 
L 374.4576 306.5445 
L 374.4576 307.584 
z
" style="fill:none;stroke:#000000;stroke-linejoin:miter;stroke-width:0.8;"/>
   </g>
  </g>
 </g>
 <defs>
  <clipPath id="p51f9f2a2e3">
   <rect height="266.112" width="285.696" x="57.6" y="41.472"/>
  </clipPath>
  <clipPath id="pb120c303b7">
   <rect height="266.112" width="13.3056" x="361.152" y="41.472"/>
  </clipPath>
 </defs>
</svg>
