<?xml version="1.0" encoding="utf-8" standalone="no"?>
<!DOCTYPE svg PUBLIC "-//W3C//DTD SVG 1.1//EN"
  "http://www.w3.org/Graphics/SVG/1.1/DTD/svg11.dtd">
<!-- Created with matplotlib (http://matplotlib.org/) -->
<svg height="345.6pt" version="1.1" viewBox="0 0 460.8 345.6" width="460.8pt" xmlns="http://www.w3.org/2000/svg" xmlns:xlink="http://www.w3.org/1999/xlink">
 <defs>
  <style type="text/css">
*{stroke-linecap:butt;stroke-linejoin:round;}
  </style>
 </defs>
 <g id="figure_1">
  <g id="patch_1">
   <path d="M 0 345.6 
L 460.8 345.6 
L 460.8 0 
L 0 0 
z
" style="fill:#ffffff;"/>
  </g>
  <g id="axes_1">
   <g id="CircleCollection_1">
    <path clip-path="url(#p3dcf0eac98)" d="M 132.452762 232.818492 
C 134.124927 232.818492 135.72883 232.154134 136.911229 230.971735 
C 138.093628 229.789336 138.757986 228.185433 138.757986 226.513268 
C 138.757986 224.841104 138.093628 223.237201 136.911229 222.054802 
C 135.72883 220.872403 134.124927 220.208045 132.452762 220.208045 
C 130.780597 220.208045 129.176695 220.872403 127.994296 222.054802 
C 126.811897 223.237201 126.147538 224.841104 126.147538 226.513268 
C 126.147538 228.185433 126.811897 229.789336 127.994296 230.971735 
C 129.176695 232.154134 130.780597 232.818492 132.452762 232.818492 
z
" style="fill:#addc30;"/>
    <path clip-path="url(#p3dcf0eac98)" d="M 73.09824 109.319115 
C 74.827621 109.319115 76.486403 108.632025 77.70926 107.409168 
C 78.932117 106.186311 79.619207 104.527529 79.619207 102.798148 
C 79.619207 101.068767 78.932117 99.409984 77.70926 98.187127 
C 76.486403 96.964271 74.827621 96.27718 73.09824 96.27718 
C 71.368859 96.27718 69.710076 96.964271 68.487219 98.187127 
C 67.264362 99.409984 66.577272 101.068767 66.577272 102.798148 
C 66.577272 104.527529 67.264362 106.186311 68.487219 107.409168 
C 69.710076 108.632025 71.368859 109.319115 73.09824 109.319115 
z
" style="fill:#2a768e;"/>
    <path clip-path="url(#p3dcf0eac98)" d="M 279.2139 272.343244 
C 281.050461 272.343244 282.812048 271.61357 284.110693 270.314926 
C 285.409338 269.016281 286.139011 267.254694 286.139011 265.418133 
C 286.139011 263.581572 285.409338 261.819985 284.110693 260.52134 
C 282.812048 259.222695 281.050461 258.493022 279.2139 258.493022 
C 277.377339 258.493022 275.615752 259.222695 274.317108 260.52134 
C 273.018463 261.819985 272.28879 263.581572 272.28879 265.418133 
C 272.28879 267.254694 273.018463 269.016281 274.317108 270.314926 
C 275.615752 271.61357 277.377339 272.343244 279.2139 272.343244 
z
" style="fill:#2f6b8e;"/>
    <path clip-path="url(#p3dcf0eac98)" d="M 163.667269 136.666029 
C 165.46808 136.666029 167.195377 135.950559 168.468743 134.677193 
C 169.742108 133.403828 170.457578 131.676531 170.457578 129.87572 
C 170.457578 128.074909 169.742108 126.347612 168.468743 125.074246 
C 167.195377 123.80088 165.46808 123.08541 163.667269 123.08541 
C 161.866458 123.08541 160.139161 123.80088 158.865795 125.074246 
C 157.59243 126.347612 156.87696 128.074909 156.87696 129.87572 
C 156.87696 131.676531 157.59243 133.403828 158.865795 134.677193 
C 160.139161 135.950559 161.866458 136.666029 163.667269 136.666029 
z
" style="fill:#375a8c;"/>
    <path clip-path="url(#p3dcf0eac98)" d="M 107.745843 72.531755 
C 109.50229 72.531755 111.187033 71.833912 112.429029 70.591916 
C 113.671024 69.349921 114.368868 67.665177 114.368868 65.90873 
C 114.368868 64.152284 113.671024 62.46754 112.429029 61.225544 
C 111.187033 59.983549 109.50229 59.285705 107.745843 59.285705 
C 105.989396 59.285705 104.304652 59.983549 103.062657 61.225544 
C 101.820661 62.46754 101.122818 64.152284 101.122818 65.90873 
C 101.122818 67.665177 101.820661 69.349921 103.062657 70.591916 
C 104.304652 71.833912 105.989396 72.531755 107.745843 72.531755 
z
" style="fill:#4ec36b;"/>
    <path clip-path="url(#p3dcf0eac98)" d="M 257.53771 220.514735 
C 259.406442 220.514735 261.198887 219.77228 262.52028 218.450887 
C 263.841673 217.129494 264.584128 215.337049 264.584128 213.468317 
C 264.584128 211.599585 263.841673 209.807139 262.52028 208.485746 
C 261.198887 207.164353 259.406442 206.421898 257.53771 206.421898 
C 255.668978 206.421898 253.876532 207.164353 252.555139 208.485746 
C 251.233746 209.807139 250.491291 211.599585 250.491291 213.468317 
C 250.491291 215.337049 251.233746 217.129494 252.555139 218.450887 
C 253.876532 219.77228 255.668978 220.514735 257.53771 220.514735 
z
" style="fill:#287c8e;"/>
    <path clip-path="url(#p3dcf0eac98)" d="M 184.338346 158.587995 
C 186.012609 158.587995 187.618523 157.922803 188.802405 156.738921 
C 189.986288 155.555039 190.651479 153.949124 190.651479 152.274862 
C 190.651479 150.600599 189.986288 148.994685 188.802405 147.810803 
C 187.618523 146.626921 186.012609 145.961729 184.338346 145.961729 
C 182.664084 145.961729 181.05817 146.626921 179.874287 147.810803 
C 178.690405 148.994685 178.025213 150.600599 178.025213 152.274862 
C 178.025213 153.949124 178.690405 155.555039 179.874287 156.738921 
C 181.05817 157.922803 182.664084 158.587995 184.338346 158.587995 
z
" style="fill:#d2e21b;"/>
    <path clip-path="url(#p3dcf0eac98)" d="M 322.676564 218.694745 
C 324.456372 218.694745 326.163522 217.98762 327.422036 216.729106 
C 328.68055 215.470592 329.387675 213.763442 329.387675 211.983634 
C 329.387675 210.203827 328.68055 208.496676 327.422036 207.238162 
C 326.163522 205.979649 324.456372 205.272524 322.676564 205.272524 
C 320.896757 205.272524 319.189606 205.979649 317.931092 207.238162 
C 316.672579 208.496676 315.965454 210.203827 315.965454 211.983634 
C 315.965454 213.763442 316.672579 215.470592 317.931092 216.729106 
C 319.189606 217.98762 320.896757 218.694745 322.676564 218.694745 
z
" style="fill:#a8db34;"/>
    <path clip-path="url(#p3dcf0eac98)" d="M 290.608966 182.392813 
C 292.434696 182.392813 294.185894 181.667443 295.47688 180.376457 
C 296.767866 179.085471 297.493236 177.334272 297.493236 175.508543 
C 297.493236 173.682813 296.767866 171.931614 295.47688 170.640628 
C 294.185894 169.349643 292.434696 168.624272 290.608966 168.624272 
C 288.783236 168.624272 287.032038 169.349643 285.741052 170.640628 
C 284.450066 171.931614 283.724696 173.682813 283.724696 175.508543 
C 283.724696 177.334272 284.450066 179.085471 285.741052 180.376457 
C 287.032038 181.667443 288.783236 182.392813 290.608966 182.392813 
z
" style="fill:#472c7a;"/>
    <path clip-path="url(#p3dcf0eac98)" d="M 209.514339 61.139542 
C 211.337306 61.139542 213.085855 60.415269 214.374887 59.126237 
C 215.66392 57.837204 216.388192 56.088655 216.388192 54.265688 
C 216.388192 52.44272 215.66392 50.694172 214.374887 49.405139 
C 213.085855 48.116107 211.337306 47.391834 209.514339 47.391834 
C 207.691371 47.391834 205.942822 48.116107 204.65379 49.405139 
C 203.364757 50.694172 202.640485 52.44272 202.640485 54.265688 
C 202.640485 56.088655 203.364757 57.837204 204.65379 59.126237 
C 205.942822 60.415269 207.691371 61.139542 209.514339 61.139542 
z
" style="fill:#3bbb75;"/>
    <path clip-path="url(#p3dcf0eac98)" d="M 185.10017 301.434583 
C 186.855373 301.434583 188.538924 300.737233 189.78004 299.496117 
C 191.021156 298.255001 191.718506 296.57145 191.718506 294.816247 
C 191.718506 293.061044 191.021156 291.377493 189.78004 290.136377 
C 188.538924 288.895261 186.855373 288.197911 185.10017 288.197911 
C 183.344967 288.197911 181.661416 288.895261 180.4203 290.136377 
C 179.179184 291.377493 178.481834 293.061044 178.481834 294.816247 
C 178.481834 296.57145 179.179184 298.255001 180.4203 299.496117 
C 181.661416 300.737233 183.344967 301.434583 185.10017 301.434583 
z
" style="fill:#fde725;"/>
    <path clip-path="url(#p3dcf0eac98)" d="M 76.78884 155.593012 
C 78.466911 155.593012 80.076478 154.926307 81.263054 153.739732 
C 82.449629 152.553156 83.116334 150.943589 83.116334 149.265518 
C 83.116334 147.587447 82.449629 145.97788 81.263054 144.791304 
C 80.076478 143.604729 78.466911 142.938024 76.78884 142.938024 
C 75.110769 142.938024 73.501202 143.604729 72.314626 144.791304 
C 71.128051 145.97788 70.461346 147.587447 70.461346 149.265518 
C 70.461346 150.943589 71.128051 152.553156 72.314626 153.739732 
C 73.501202 154.926307 75.110769 155.593012 76.78884 155.593012 
z
" style="fill:#3dbc74;"/>
    <path clip-path="url(#p3dcf0eac98)" d="M 221.672053 285.523882 
C 223.489746 285.523882 225.233235 284.801705 226.518538 283.516402 
C 227.803841 282.231099 228.526018 280.48761 228.526018 278.669917 
C 228.526018 276.852224 227.803841 275.108735 226.518538 273.823432 
C 225.233235 272.538129 223.489746 271.815952 221.672053 271.815952 
C 219.85436 271.815952 218.110871 272.538129 216.825568 273.823432 
C 215.540265 275.108735 214.818088 276.852224 214.818088 278.669917 
C 214.818088 280.48761 215.540265 282.231099 216.825568 283.516402 
C 218.110871 284.801705 219.85436 285.523882 221.672053 285.523882 
z
" style="fill:#424186;"/>
    <path clip-path="url(#p3dcf0eac98)" d="M 329.740749 267.532692 
C 331.529441 267.532692 333.245114 266.822037 334.509911 265.55724 
C 335.774707 264.292444 336.485362 262.576771 336.485362 260.788078 
C 336.485362 258.999386 335.774707 257.283713 334.509911 256.018916 
C 333.245114 254.754119 331.529441 254.043464 329.740749 254.043464 
C 327.952056 254.043464 326.236383 254.754119 324.971586 256.018916 
C 323.70679 257.283713 322.996135 258.999386 322.996135 260.788078 
C 322.996135 262.576771 323.70679 264.292444 324.971586 265.55724 
C 326.236383 266.822037 327.952056 267.532692 329.740749 267.532692 
z
" style="fill:#40bd72;"/>
    <path clip-path="url(#p3dcf0eac98)" d="M 122.821747 174.819575 
C 124.636128 174.819575 126.37644 174.098714 127.659401 172.815753 
C 128.942362 171.532792 129.663224 169.792479 129.663224 167.978098 
C 129.663224 166.163717 128.942362 164.423404 127.659401 163.140443 
C 126.37644 161.857482 124.636128 161.136621 122.821747 161.136621 
C 121.007366 161.136621 119.267053 161.857482 117.984092 163.140443 
C 116.701131 164.423404 115.98027 166.163717 115.98027 167.978098 
C 115.98027 169.792479 116.701131 171.532792 117.984092 172.815753 
C 119.267053 174.098714 121.007366 174.819575 122.821747 174.819575 
z
" style="fill:#440154;"/>
    <path clip-path="url(#p3dcf0eac98)" d="M 200.527304 236.288758 
C 202.380133 236.288758 204.157324 235.552622 205.467472 234.242474 
C 206.77762 232.932326 207.513756 231.155135 207.513756 229.302306 
C 207.513756 227.449477 206.77762 225.672286 205.467472 224.362138 
C 204.157324 223.051991 202.380133 222.315854 200.527304 222.315854 
C 198.674476 222.315854 196.897284 223.051991 195.587137 224.362138 
C 194.276989 225.672286 193.540852 227.449477 193.540852 229.302306 
C 193.540852 231.155135 194.276989 232.932326 195.587137 234.242474 
C 196.897284 235.552622 198.674476 236.288758 200.527304 236.288758 
z
" style="fill:#3b518b;"/>
    <path clip-path="url(#p3dcf0eac98)" d="M 71.149578 160.164227 
C 72.920436 160.164227 74.619003 159.460658 75.871189 158.208472 
C 77.123375 156.956286 77.826944 155.257719 77.826944 153.486861 
C 77.826944 151.716002 77.123375 150.017435 75.871189 148.765249 
C 74.619003 147.513063 72.920436 146.809494 71.149578 146.809494 
C 69.378719 146.809494 67.680152 147.513063 66.427966 148.765249 
C 65.17578 150.017435 64.472211 151.716002 64.472211 153.486861 
C 64.472211 155.257719 65.17578 156.956286 66.427966 158.208472 
C 67.680152 159.460658 69.378719 160.164227 71.149578 160.164227 
z
" style="fill:#25ab82;"/>
    <path clip-path="url(#p3dcf0eac98)" d="M 265.039239 135.488362 
C 266.835484 135.488362 268.558402 134.774706 269.828539 133.504569 
C 271.098677 132.234432 271.812333 130.511514 271.812333 128.715269 
C 271.812333 126.919023 271.098677 125.196105 269.828539 123.925968 
C 268.558402 122.655831 266.835484 121.942175 265.039239 121.942175 
C 263.242993 121.942175 261.520076 122.655831 260.249938 123.925968 
C 258.979801 125.196105 258.266145 126.919023 258.266145 128.715269 
C 258.266145 130.511514 258.979801 132.234432 260.249938 133.504569 
C 261.520076 134.774706 263.242993 135.488362 265.039239 135.488362 
z
" style="fill:#48186a;"/>
    <path clip-path="url(#p3dcf0eac98)" d="M 214.593986 149.073963 
C 216.340263 149.073963 218.015252 148.38016 219.250056 147.145355 
C 220.48486 145.910551 221.178663 144.235562 221.178663 142.489286 
C 221.178663 140.743009 220.48486 139.06802 219.250056 137.833216 
C 218.015252 136.598412 216.340263 135.904609 214.593986 135.904609 
C 212.847709 135.904609 211.172721 136.598412 209.937916 137.833216 
C 208.703112 139.06802 208.009309 140.743009 208.009309 142.489286 
C 208.009309 144.235562 208.703112 145.910551 209.937916 147.145355 
C 211.172721 148.38016 212.847709 149.073963 214.593986 149.073963 
z
" style="fill:#424086;"/>
    <path clip-path="url(#p3dcf0eac98)" d="M 155.375196 80.244352 
C 157.178319 80.244352 158.907834 79.527963 160.182835 78.252963 
C 161.457835 76.977962 162.174224 75.248448 162.174224 73.445324 
C 162.174224 71.642201 161.457835 69.912687 160.182835 68.637686 
C 158.907834 67.362685 157.178319 66.646297 155.375196 66.646297 
C 153.572073 66.646297 151.842559 67.362685 150.567558 68.637686 
C 149.292557 69.912687 148.576169 71.642201 148.576169 73.445324 
C 148.576169 75.248448 149.292557 76.977962 150.567558 78.252963 
C 151.842559 79.527963 153.572073 80.244352 155.375196 80.244352 
z
" style="fill:#440154;"/>
    <path clip-path="url(#p3dcf0eac98)" d="M 131.504131 182.165086 
C 133.157424 182.165086 134.743225 181.508225 135.91228 180.339171 
C 137.081334 179.170116 137.738195 177.584315 137.738195 175.931022 
C 137.738195 174.277729 137.081334 172.691929 135.91228 171.522874 
C 134.743225 170.353819 133.157424 169.696959 131.504131 169.696959 
C 129.850838 169.696959 128.265037 170.353819 127.095983 171.522874 
C 125.926928 172.691929 125.270068 174.277729 125.270068 175.931022 
C 125.270068 177.584315 125.926928 179.170116 127.095983 180.339171 
C 128.265037 181.508225 129.850838 182.165086 131.504131 182.165086 
z
" style="fill:#470e61;"/>
    <path clip-path="url(#p3dcf0eac98)" d="M 148.098288 223.605424 
C 149.915693 223.605424 151.658906 222.883362 152.944005 221.598263 
C 154.229104 220.313164 154.951167 218.569951 154.951167 216.752546 
C 154.951167 214.935141 154.229104 213.191928 152.944005 211.906829 
C 151.658906 210.62173 149.915693 209.899667 148.098288 209.899667 
C 146.280884 209.899667 144.53767 210.62173 143.252571 211.906829 
C 141.967472 213.191928 141.24541 214.935141 141.24541 216.752546 
C 141.24541 218.569951 141.967472 220.313164 143.252571 221.598263 
C 144.53767 222.883362 146.280884 223.605424 148.098288 223.605424 
z
" style="fill:#481f70;"/>
    <path clip-path="url(#p3dcf0eac98)" d="M 254.72689 87.440004 
C 256.556935 87.440004 258.312272 86.712919 259.606308 85.418883 
C 260.900345 84.124846 261.627429 82.369509 261.627429 80.539465 
C 261.627429 78.70942 260.900345 76.954084 259.606308 75.660047 
C 258.312272 74.36601 256.556935 73.638926 254.72689 73.638926 
C 252.896846 73.638926 251.141509 74.36601 249.847473 75.660047 
C 248.553436 76.954084 247.826351 78.70942 247.826351 80.539465 
C 247.826351 82.369509 248.553436 84.124846 249.847473 85.418883 
C 251.141509 86.712919 252.896846 87.440004 254.72689 87.440004 
z
" style="fill:#35b779;"/>
    <path clip-path="url(#p3dcf0eac98)" d="M 144.414525 261.132281 
C 146.159002 261.132281 147.832265 260.439193 149.065796 259.205662 
C 150.299327 257.97213 150.992415 256.298868 150.992415 254.554391 
C 150.992415 252.809914 150.299327 251.136651 149.065796 249.90312 
C 147.832265 248.669588 146.159002 247.9765 144.414525 247.9765 
C 142.670048 247.9765 140.996786 248.669588 139.763254 249.90312 
C 138.529723 251.136651 137.836635 252.809914 137.836635 254.554391 
C 137.836635 256.298868 138.529723 257.97213 139.763254 259.205662 
C 140.996786 260.439193 142.670048 261.132281 144.414525 261.132281 
z
" style="fill:#470e61;"/>
   </g>
   <g id="text_1">
    <!-- Structure #7812, $E_N$=-176.28eV, ΔE=0.07eV -->
    <defs>
     <path d="M 53.515625 70.515625 
L 53.515625 60.890625 
Q 47.90625 63.578125 42.921875 64.890625 
Q 37.9375 66.21875 33.296875 66.21875 
Q 25.25 66.21875 20.875 63.09375 
Q 16.5 59.96875 16.5 54.203125 
Q 16.5 49.359375 19.40625 46.890625 
Q 22.3125 44.4375 30.421875 42.921875 
L 36.375 41.703125 
Q 47.40625 39.59375 52.65625 34.296875 
Q 57.90625 29 57.90625 20.125 
Q 57.90625 9.515625 50.796875 4.046875 
Q 43.703125 -1.421875 29.984375 -1.421875 
Q 24.8125 -1.421875 18.96875 -0.25 
Q 13.140625 0.921875 6.890625 3.21875 
L 6.890625 13.375 
Q 12.890625 10.015625 18.65625 8.296875 
Q 24.421875 6.59375 29.984375 6.59375 
Q 38.421875 6.59375 43.015625 9.90625 
Q 47.609375 13.234375 47.609375 19.390625 
Q 47.609375 24.75 44.3125 27.78125 
Q 41.015625 30.8125 33.5 32.328125 
L 27.484375 33.5 
Q 16.453125 35.6875 11.515625 40.375 
Q 6.59375 45.0625 6.59375 53.421875 
Q 6.59375 63.09375 13.40625 68.65625 
Q 20.21875 74.21875 32.171875 74.21875 
Q 37.3125 74.21875 42.625 73.28125 
Q 47.953125 72.359375 53.515625 70.515625 
z
" id="DejaVuSans-53"/>
     <path d="M 18.3125 70.21875 
L 18.3125 54.6875 
L 36.8125 54.6875 
L 36.8125 47.703125 
L 18.3125 47.703125 
L 18.3125 18.015625 
Q 18.3125 11.328125 20.140625 9.421875 
Q 21.96875 7.515625 27.59375 7.515625 
L 36.8125 7.515625 
L 36.8125 0 
L 27.59375 0 
Q 17.1875 0 13.234375 3.875 
Q 9.28125 7.765625 9.28125 18.015625 
L 9.28125 47.703125 
L 2.6875 47.703125 
L 2.6875 54.6875 
L 9.28125 54.6875 
L 9.28125 70.21875 
z
" id="DejaVuSans-74"/>
     <path d="M 41.109375 46.296875 
Q 39.59375 47.171875 37.8125 47.578125 
Q 36.03125 48 33.890625 48 
Q 26.265625 48 22.1875 43.046875 
Q 18.109375 38.09375 18.109375 28.8125 
L 18.109375 0 
L 9.078125 0 
L 9.078125 54.6875 
L 18.109375 54.6875 
L 18.109375 46.1875 
Q 20.953125 51.171875 25.484375 53.578125 
Q 30.03125 56 36.53125 56 
Q 37.453125 56 38.578125 55.875 
Q 39.703125 55.765625 41.0625 55.515625 
z
" id="DejaVuSans-72"/>
     <path d="M 8.5 21.578125 
L 8.5 54.6875 
L 17.484375 54.6875 
L 17.484375 21.921875 
Q 17.484375 14.15625 20.5 10.265625 
Q 23.53125 6.390625 29.59375 6.390625 
Q 36.859375 6.390625 41.078125 11.03125 
Q 45.3125 15.671875 45.3125 23.6875 
L 45.3125 54.6875 
L 54.296875 54.6875 
L 54.296875 0 
L 45.3125 0 
L 45.3125 8.40625 
Q 42.046875 3.421875 37.71875 1 
Q 33.40625 -1.421875 27.6875 -1.421875 
Q 18.265625 -1.421875 13.375 4.4375 
Q 8.5 10.296875 8.5 21.578125 
z
M 31.109375 56 
z
" id="DejaVuSans-75"/>
     <path d="M 48.78125 52.59375 
L 48.78125 44.1875 
Q 44.96875 46.296875 41.140625 47.34375 
Q 37.3125 48.390625 33.40625 48.390625 
Q 24.65625 48.390625 19.8125 42.84375 
Q 14.984375 37.3125 14.984375 27.296875 
Q 14.984375 17.28125 19.8125 11.734375 
Q 24.65625 6.203125 33.40625 6.203125 
Q 37.3125 6.203125 41.140625 7.25 
Q 44.96875 8.296875 48.78125 10.40625 
L 48.78125 2.09375 
Q 45.015625 0.34375 40.984375 -0.53125 
Q 36.96875 -1.421875 32.421875 -1.421875 
Q 20.0625 -1.421875 12.78125 6.34375 
Q 5.515625 14.109375 5.515625 27.296875 
Q 5.515625 40.671875 12.859375 48.328125 
Q 20.21875 56 33.015625 56 
Q 37.15625 56 41.109375 55.140625 
Q 45.0625 54.296875 48.78125 52.59375 
z
" id="DejaVuSans-63"/>
     <path d="M 56.203125 29.59375 
L 56.203125 25.203125 
L 14.890625 25.203125 
Q 15.484375 15.921875 20.484375 11.0625 
Q 25.484375 6.203125 34.421875 6.203125 
Q 39.59375 6.203125 44.453125 7.46875 
Q 49.3125 8.734375 54.109375 11.28125 
L 54.109375 2.78125 
Q 49.265625 0.734375 44.1875 -0.34375 
Q 39.109375 -1.421875 33.890625 -1.421875 
Q 20.796875 -1.421875 13.15625 6.1875 
Q 5.515625 13.8125 5.515625 26.8125 
Q 5.515625 40.234375 12.765625 48.109375 
Q 20.015625 56 32.328125 56 
Q 43.359375 56 49.78125 48.890625 
Q 56.203125 41.796875 56.203125 29.59375 
z
M 47.21875 32.234375 
Q 47.125 39.59375 43.09375 43.984375 
Q 39.0625 48.390625 32.421875 48.390625 
Q 24.90625 48.390625 20.390625 44.140625 
Q 15.875 39.890625 15.1875 32.171875 
z
" id="DejaVuSans-65"/>
     <path id="DejaVuSans-20"/>
     <path d="M 51.125 44 
L 36.921875 44 
L 32.8125 27.6875 
L 47.125 27.6875 
z
M 43.796875 71.78125 
L 38.71875 51.515625 
L 52.984375 51.515625 
L 58.109375 71.78125 
L 65.921875 71.78125 
L 60.890625 51.515625 
L 76.125 51.515625 
L 76.125 44 
L 58.984375 44 
L 54.984375 27.6875 
L 70.515625 27.6875 
L 70.515625 20.21875 
L 53.078125 20.21875 
L 48 0 
L 40.1875 0 
L 45.21875 20.21875 
L 30.90625 20.21875 
L 25.875 0 
L 18.015625 0 
L 23.09375 20.21875 
L 7.71875 20.21875 
L 7.71875 27.6875 
L 24.90625 27.6875 
L 29 44 
L 13.28125 44 
L 13.28125 51.515625 
L 30.90625 51.515625 
L 35.890625 71.78125 
z
" id="DejaVuSans-23"/>
     <path d="M 8.203125 72.90625 
L 55.078125 72.90625 
L 55.078125 68.703125 
L 28.609375 0 
L 18.3125 0 
L 43.21875 64.59375 
L 8.203125 64.59375 
z
" id="DejaVuSans-37"/>
     <path d="M 31.78125 34.625 
Q 24.75 34.625 20.71875 30.859375 
Q 16.703125 27.09375 16.703125 20.515625 
Q 16.703125 13.921875 20.71875 10.15625 
Q 24.75 6.390625 31.78125 6.390625 
Q 38.8125 6.390625 42.859375 10.171875 
Q 46.921875 13.96875 46.921875 20.515625 
Q 46.921875 27.09375 42.890625 30.859375 
Q 38.875 34.625 31.78125 34.625 
z
M 21.921875 38.8125 
Q 15.578125 40.375 12.03125 44.71875 
Q 8.5 49.078125 8.5 55.328125 
Q 8.5 64.0625 14.71875 69.140625 
Q 20.953125 74.21875 31.78125 74.21875 
Q 42.671875 74.21875 48.875 69.140625 
Q 55.078125 64.0625 55.078125 55.328125 
Q 55.078125 49.078125 51.53125 44.71875 
Q 48 40.375 41.703125 38.8125 
Q 48.828125 37.15625 52.796875 32.3125 
Q 56.78125 27.484375 56.78125 20.515625 
Q 56.78125 9.90625 50.3125 4.234375 
Q 43.84375 -1.421875 31.78125 -1.421875 
Q 19.734375 -1.421875 13.25 4.234375 
Q 6.78125 9.90625 6.78125 20.515625 
Q 6.78125 27.484375 10.78125 32.3125 
Q 14.796875 37.15625 21.921875 38.8125 
z
M 18.3125 54.390625 
Q 18.3125 48.734375 21.84375 45.5625 
Q 25.390625 42.390625 31.78125 42.390625 
Q 38.140625 42.390625 41.71875 45.5625 
Q 45.3125 48.734375 45.3125 54.390625 
Q 45.3125 60.0625 41.71875 63.234375 
Q 38.140625 66.40625 31.78125 66.40625 
Q 25.390625 66.40625 21.84375 63.234375 
Q 18.3125 60.0625 18.3125 54.390625 
z
" id="DejaVuSans-38"/>
     <path d="M 12.40625 8.296875 
L 28.515625 8.296875 
L 28.515625 63.921875 
L 10.984375 60.40625 
L 10.984375 69.390625 
L 28.421875 72.90625 
L 38.28125 72.90625 
L 38.28125 8.296875 
L 54.390625 8.296875 
L 54.390625 0 
L 12.40625 0 
z
" id="DejaVuSans-31"/>
     <path d="M 19.1875 8.296875 
L 53.609375 8.296875 
L 53.609375 0 
L 7.328125 0 
L 7.328125 8.296875 
Q 12.9375 14.109375 22.625 23.890625 
Q 32.328125 33.6875 34.8125 36.53125 
Q 39.546875 41.84375 41.421875 45.53125 
Q 43.3125 49.21875 43.3125 52.78125 
Q 43.3125 58.59375 39.234375 62.25 
Q 35.15625 65.921875 28.609375 65.921875 
Q 23.96875 65.921875 18.8125 64.3125 
Q 13.671875 62.703125 7.8125 59.421875 
L 7.8125 69.390625 
Q 13.765625 71.78125 18.9375 73 
Q 24.125 74.21875 28.421875 74.21875 
Q 39.75 74.21875 46.484375 68.546875 
Q 53.21875 62.890625 53.21875 53.421875 
Q 53.21875 48.921875 51.53125 44.890625 
Q 49.859375 40.875 45.40625 35.40625 
Q 44.1875 33.984375 37.640625 27.21875 
Q 31.109375 20.453125 19.1875 8.296875 
z
" id="DejaVuSans-32"/>
     <path d="M 11.71875 12.40625 
L 22.015625 12.40625 
L 22.015625 4 
L 14.015625 -11.625 
L 7.71875 -11.625 
L 11.71875 4 
z
" id="DejaVuSans-2c"/>
     <path d="M 16.890625 72.90625 
L 62.984375 72.90625 
L 61.375 64.59375 
L 25.09375 64.59375 
L 20.90625 43.015625 
L 55.71875 43.015625 
L 54.109375 34.71875 
L 19.28125 34.71875 
L 14.203125 8.296875 
L 51.3125 8.296875 
L 49.703125 0 
L 2.6875 0 
z
" id="DejaVuSans-Oblique-45"/>
     <path d="M 16.890625 72.90625 
L 30.171875 72.90625 
L 50.296875 10.40625 
L 62.5 72.90625 
L 72.125 72.90625 
L 57.90625 0 
L 44.578125 0 
L 24.515625 62.890625 
L 12.3125 0 
L 2.6875 0 
z
" id="DejaVuSans-Oblique-4e"/>
     <path d="M 10.59375 45.40625 
L 73.1875 45.40625 
L 73.1875 37.203125 
L 10.59375 37.203125 
z
M 10.59375 25.484375 
L 73.1875 25.484375 
L 73.1875 17.1875 
L 10.59375 17.1875 
z
" id="DejaVuSans-3d"/>
     <path d="M 4.890625 31.390625 
L 31.203125 31.390625 
L 31.203125 23.390625 
L 4.890625 23.390625 
z
" id="DejaVuSans-2d"/>
     <path d="M 33.015625 40.375 
Q 26.375 40.375 22.484375 35.828125 
Q 18.609375 31.296875 18.609375 23.390625 
Q 18.609375 15.53125 22.484375 10.953125 
Q 26.375 6.390625 33.015625 6.390625 
Q 39.65625 6.390625 43.53125 10.953125 
Q 47.40625 15.53125 47.40625 23.390625 
Q 47.40625 31.296875 43.53125 35.828125 
Q 39.65625 40.375 33.015625 40.375 
z
M 52.59375 71.296875 
L 52.59375 62.3125 
Q 48.875 64.0625 45.09375 64.984375 
Q 41.3125 65.921875 37.59375 65.921875 
Q 27.828125 65.921875 22.671875 59.328125 
Q 17.53125 52.734375 16.796875 39.40625 
Q 19.671875 43.65625 24.015625 45.921875 
Q 28.375 48.1875 33.59375 48.1875 
Q 44.578125 48.1875 50.953125 41.515625 
Q 57.328125 34.859375 57.328125 23.390625 
Q 57.328125 12.15625 50.6875 5.359375 
Q 44.046875 -1.421875 33.015625 -1.421875 
Q 20.359375 -1.421875 13.671875 8.265625 
Q 6.984375 17.96875 6.984375 36.375 
Q 6.984375 53.65625 15.1875 63.9375 
Q 23.390625 74.21875 37.203125 74.21875 
Q 40.921875 74.21875 44.703125 73.484375 
Q 48.484375 72.75 52.59375 71.296875 
z
" id="DejaVuSans-36"/>
     <path d="M 10.6875 12.40625 
L 21 12.40625 
L 21 0 
L 10.6875 0 
z
" id="DejaVuSans-2e"/>
     <path d="M 28.609375 0 
L 0.78125 72.90625 
L 11.078125 72.90625 
L 34.1875 11.53125 
L 57.328125 72.90625 
L 67.578125 72.90625 
L 39.796875 0 
z
" id="DejaVuSans-56"/>
     <path d="M 34.1875 63.1875 
L 14.15625 8.203125 
L 54.25 8.203125 
z
M 0.78125 0 
L 28.609375 72.90625 
L 39.796875 72.90625 
L 67.578125 0 
z
" id="DejaVuSans-394"/>
     <path d="M 9.8125 72.90625 
L 55.90625 72.90625 
L 55.90625 64.59375 
L 19.671875 64.59375 
L 19.671875 43.015625 
L 54.390625 43.015625 
L 54.390625 34.71875 
L 19.671875 34.71875 
L 19.671875 8.296875 
L 56.78125 8.296875 
L 56.78125 0 
L 9.8125 0 
z
" id="DejaVuSans-45"/>
     <path d="M 31.78125 66.40625 
Q 24.171875 66.40625 20.328125 58.90625 
Q 16.5 51.421875 16.5 36.375 
Q 16.5 21.390625 20.328125 13.890625 
Q 24.171875 6.390625 31.78125 6.390625 
Q 39.453125 6.390625 43.28125 13.890625 
Q 47.125 21.390625 47.125 36.375 
Q 47.125 51.421875 43.28125 58.90625 
Q 39.453125 66.40625 31.78125 66.40625 
z
M 31.78125 74.21875 
Q 44.046875 74.21875 50.515625 64.515625 
Q 56.984375 54.828125 56.984375 36.375 
Q 56.984375 17.96875 50.515625 8.265625 
Q 44.046875 -1.421875 31.78125 -1.421875 
Q 19.53125 -1.421875 13.0625 8.265625 
Q 6.59375 17.96875 6.59375 36.375 
Q 6.59375 54.828125 13.0625 64.515625 
Q 19.53125 74.21875 31.78125 74.21875 
z
" id="DejaVuSans-30"/>
    </defs>
    <g transform="translate(65.388 35.472)scale(0.12 -0.12)">
     <use transform="translate(0 0.78125)" xlink:href="#DejaVuSans-53"/>
     <use transform="translate(63.476562 0.78125)" xlink:href="#DejaVuSans-74"/>
     <use transform="translate(102.685547 0.78125)" xlink:href="#DejaVuSans-72"/>
     <use transform="translate(143.798828 0.78125)" xlink:href="#DejaVuSans-75"/>
     <use transform="translate(207.177734 0.78125)" xlink:href="#DejaVuSans-63"/>
     <use transform="translate(262.158203 0.78125)" xlink:href="#DejaVuSans-74"/>
     <use transform="translate(301.367188 0.78125)" xlink:href="#DejaVuSans-75"/>
     <use transform="translate(364.746094 0.78125)" xlink:href="#DejaVuSans-72"/>
     <use transform="translate(405.859375 0.78125)" xlink:href="#DejaVuSans-65"/>
     <use transform="translate(467.382812 0.78125)" xlink:href="#DejaVuSans-20"/>
     <use transform="translate(499.169922 0.78125)" xlink:href="#DejaVuSans-23"/>
     <use transform="translate(582.958984 0.78125)" xlink:href="#DejaVuSans-37"/>
     <use transform="translate(646.582031 0.78125)" xlink:href="#DejaVuSans-38"/>
     <use transform="translate(710.205078 0.78125)" xlink:href="#DejaVuSans-31"/>
     <use transform="translate(773.828125 0.78125)" xlink:href="#DejaVuSans-32"/>
     <use transform="translate(837.451172 0.78125)" xlink:href="#DejaVuSans-2c"/>
     <use transform="translate(869.238281 0.78125)" xlink:href="#DejaVuSans-20"/>
     <use transform="translate(901.025391 0.78125)" xlink:href="#DejaVuSans-Oblique-45"/>
     <use transform="translate(964.208984 -15.625)scale(0.7)" xlink:href="#DejaVuSans-Oblique-4e"/>
     <use transform="translate(1019.306641 0.78125)" xlink:href="#DejaVuSans-3d"/>
     <use transform="translate(1103.095703 0.78125)" xlink:href="#DejaVuSans-2d"/>
     <use transform="translate(1139.179688 0.78125)" xlink:href="#DejaVuSans-31"/>
     <use transform="translate(1202.802734 0.78125)" xlink:href="#DejaVuSans-37"/>
     <use transform="translate(1266.425781 0.78125)" xlink:href="#DejaVuSans-36"/>
     <use transform="translate(1330.048828 0.78125)" xlink:href="#DejaVuSans-2e"/>
     <use transform="translate(1361.757812 0.78125)" xlink:href="#DejaVuSans-32"/>
     <use transform="translate(1425.380859 0.78125)" xlink:href="#DejaVuSans-38"/>
     <use transform="translate(1489.003906 0.78125)" xlink:href="#DejaVuSans-65"/>
     <use transform="translate(1550.527344 0.78125)" xlink:href="#DejaVuSans-56"/>
     <use transform="translate(1618.935547 0.78125)" xlink:href="#DejaVuSans-2c"/>
     <use transform="translate(1650.722656 0.78125)" xlink:href="#DejaVuSans-20"/>
     <use transform="translate(1682.509766 0.78125)" xlink:href="#DejaVuSans-394"/>
     <use transform="translate(1750.917969 0.78125)" xlink:href="#DejaVuSans-45"/>
     <use transform="translate(1814.101562 0.78125)" xlink:href="#DejaVuSans-3d"/>
     <use transform="translate(1897.890625 0.78125)" xlink:href="#DejaVuSans-30"/>
     <use transform="translate(1961.513672 0.78125)" xlink:href="#DejaVuSans-2e"/>
     <use transform="translate(1993.300781 0.78125)" xlink:href="#DejaVuSans-30"/>
     <use transform="translate(2056.923828 0.78125)" xlink:href="#DejaVuSans-37"/>
     <use transform="translate(2120.546875 0.78125)" xlink:href="#DejaVuSans-65"/>
     <use transform="translate(2182.070312 0.78125)" xlink:href="#DejaVuSans-56"/>
    </g>
   </g>
  </g>
  <g id="axes_2">
   <g id="patch_2">
    <path clip-path="url(#pac14e95042)" d="M 361.152 307.584 
L 361.152 306.5445 
L 361.152 42.5115 
L 361.152 41.472 
L 374.4576 41.472 
L 374.4576 42.5115 
L 374.4576 306.5445 
L 374.4576 307.584 
z
" style="fill:#ffffff;stroke:#ffffff;stroke-linejoin:miter;stroke-width:0.01;"/>
   </g>
   <image height="265.68" id="image76d796695e" transform="scale(1 -1)translate(0 -265.68)" width="12.96" x="361.44" xlink:href="data:image/png;base64,
iVBORw0KGgoAAAANSUhEUgAAABIAAAFxCAYAAAB+2fgXAAAABHNCSVQICAgIfAhkiAAAAeVJREFUeJztncmNw0AQA2ckheYQNv9QLIfQ8ygsCgQ7AEI8+jAs2Puz/94F1LP2ReCsZ18bAWIeZ5XaGRBE7VnbptG+KI101FYyNSiQG2oRITXKNaX9uclOdi2XWjftVE32CZCO2ou5Bj1TcCBr/1zB9ge7Fq0Rg2NM9pvbtG+ua1QgsRYhDy0ISEiNc40BEibbSI0Coj5CBGtkpFbXJiAjNZlrwhuSOv2M1DjXbEdEciBt1JSDDQKKpmZr2rr2j0DBGpXaWEJq3bQzEPIS26r9J+Wzv9Tm8o3aajRXqc3VUXsApKNWjeZq0x4ABVNbm7lrszVigDqP5vIl2+eaT2yfRkL7g+dRcNPqjohkjaCvRVBq0H2U3LQrOJCx9kdTg4B8oxZzzTdqdYHEngjUCAPyUctN9sVRq2sTECW2UKNLd2jVtRmo1A6AhMmWaSRcR8nUdIHUuVb75zJS218EyEitro1At69pIdeSk30Lkw0FktNImGyZRhy1O5galmxd03LUsHWk06jUZiCq+5Wb1kZNN4+wJxJuWt8RAW5am2sYNZ9rYCBzZ3buPKJ2P5Yj4Toy3keyIyJbIxs1rml1byCA84gpch5RQNB7Q0qNMGq2Hy4BXdNR41yz/cEEJfZzUz96r9PoB0okjeQ8y9TkAAAAAElFTkSuQmCC" y="-41.76"/>
   <g id="matplotlib.axis_1"/>
   <g id="matplotlib.axis_2">
    <g id="ytick_1">
     <g id="line2d_1">
      <defs>
       <path d="M 0 0 
L 3.5 0 
" id="m53ff378e3a" style="stroke:#000000;stroke-width:0.8;"/>
      </defs>
      <g>
       <use style="stroke:#000000;stroke-width:0.8;" x="374.4576" xlink:href="#m53ff378e3a" y="265.760795"/>
      </g>
     </g>
     <g id="text_2">
      <!-- −8.0 -->
      <defs>
       <path d="M 10.59375 35.5 
L 73.1875 35.5 
L 73.1875 27.203125 
L 10.59375 27.203125 
z
" id="DejaVuSans-2212"/>
      </defs>
      <g transform="translate(381.4576 269.560014)scale(0.1 -0.1)">
       <use xlink:href="#DejaVuSans-2212"/>
       <use x="83.789062" xlink:href="#DejaVuSans-38"/>
       <use x="147.412109" xlink:href="#DejaVuSans-2e"/>
       <use x="179.199219" xlink:href="#DejaVuSans-30"/>
      </g>
     </g>
    </g>
    <g id="ytick_2">
     <g id="line2d_2">
      <g>
       <use style="stroke:#000000;stroke-width:0.8;" x="374.4576" xlink:href="#m53ff378e3a" y="211.736043"/>
      </g>
     </g>
     <g id="text_3">
      <!-- −7.5 -->
      <defs>
       <path d="M 10.796875 72.90625 
L 49.515625 72.90625 
L 49.515625 64.59375 
L 19.828125 64.59375 
L 19.828125 46.734375 
Q 21.96875 47.46875 24.109375 47.828125 
Q 26.265625 48.1875 28.421875 48.1875 
Q 40.625 48.1875 47.75 41.5 
Q 54.890625 34.8125 54.890625 23.390625 
Q 54.890625 11.625 47.5625 5.09375 
Q 40.234375 -1.421875 26.90625 -1.421875 
Q 22.3125 -1.421875 17.546875 -0.640625 
Q 12.796875 0.140625 7.71875 1.703125 
L 7.71875 11.625 
Q 12.109375 9.234375 16.796875 8.0625 
Q 21.484375 6.890625 26.703125 6.890625 
Q 35.15625 6.890625 40.078125 11.328125 
Q 45.015625 15.765625 45.015625 23.390625 
Q 45.015625 31 40.078125 35.4375 
Q 35.15625 39.890625 26.703125 39.890625 
Q 22.75 39.890625 18.8125 39.015625 
Q 14.890625 38.140625 10.796875 36.28125 
z
" id="DejaVuSans-35"/>
      </defs>
      <g transform="translate(381.4576 215.535261)scale(0.1 -0.1)">
       <use xlink:href="#DejaVuSans-2212"/>
       <use x="83.789062" xlink:href="#DejaVuSans-37"/>
       <use x="147.412109" xlink:href="#DejaVuSans-2e"/>
       <use x="179.199219" xlink:href="#DejaVuSans-35"/>
      </g>
     </g>
    </g>
    <g id="ytick_3">
     <g id="line2d_3">
      <g>
       <use style="stroke:#000000;stroke-width:0.8;" x="374.4576" xlink:href="#m53ff378e3a" y="157.71129"/>
      </g>
     </g>
     <g id="text_4">
      <!-- −7.0 -->
      <g transform="translate(381.4576 161.510509)scale(0.1 -0.1)">
       <use xlink:href="#DejaVuSans-2212"/>
       <use x="83.789062" xlink:href="#DejaVuSans-37"/>
       <use x="147.412109" xlink:href="#DejaVuSans-2e"/>
       <use x="179.199219" xlink:href="#DejaVuSans-30"/>
      </g>
     </g>
    </g>
    <g id="ytick_4">
     <g id="line2d_4">
      <g>
       <use style="stroke:#000000;stroke-width:0.8;" x="374.4576" xlink:href="#m53ff378e3a" y="103.686538"/>
      </g>
     </g>
     <g id="text_5">
      <!-- −6.5 -->
      <g transform="translate(381.4576 107.485757)scale(0.1 -0.1)">
       <use xlink:href="#DejaVuSans-2212"/>
       <use x="83.789062" xlink:href="#DejaVuSans-36"/>
       <use x="147.412109" xlink:href="#DejaVuSans-2e"/>
       <use x="179.199219" xlink:href="#DejaVuSans-35"/>
      </g>
     </g>
    </g>
    <g id="ytick_5">
     <g id="line2d_5">
      <g>
       <use style="stroke:#000000;stroke-width:0.8;" x="374.4576" xlink:href="#m53ff378e3a" y="49.661786"/>
      </g>
     </g>
     <g id="text_6">
      <!-- −6.0 -->
      <g transform="translate(381.4576 53.461004)scale(0.1 -0.1)">
       <use xlink:href="#DejaVuSans-2212"/>
       <use x="83.789062" xlink:href="#DejaVuSans-36"/>
       <use x="147.412109" xlink:href="#DejaVuSans-2e"/>
       <use x="179.199219" xlink:href="#DejaVuSans-30"/>
      </g>
     </g>
    </g>
    <g id="text_7">
     <!-- Energy [eV] -->
     <defs>
      <path d="M 54.890625 33.015625 
L 54.890625 0 
L 45.90625 0 
L 45.90625 32.71875 
Q 45.90625 40.484375 42.875 44.328125 
Q 39.84375 48.1875 33.796875 48.1875 
Q 26.515625 48.1875 22.3125 43.546875 
Q 18.109375 38.921875 18.109375 30.90625 
L 18.109375 0 
L 9.078125 0 
L 9.078125 54.6875 
L 18.109375 54.6875 
L 18.109375 46.1875 
Q 21.34375 51.125 25.703125 53.5625 
Q 30.078125 56 35.796875 56 
Q 45.21875 56 50.046875 50.171875 
Q 54.890625 44.34375 54.890625 33.015625 
z
" id="DejaVuSans-6e"/>
      <path d="M 45.40625 27.984375 
Q 45.40625 37.75 41.375 43.109375 
Q 37.359375 48.484375 30.078125 48.484375 
Q 22.859375 48.484375 18.828125 43.109375 
Q 14.796875 37.75 14.796875 27.984375 
Q 14.796875 18.265625 18.828125 12.890625 
Q 22.859375 7.515625 30.078125 7.515625 
Q 37.359375 7.515625 41.375 12.890625 
Q 45.40625 18.265625 45.40625 27.984375 
z
M 54.390625 6.78125 
Q 54.390625 -7.171875 48.1875 -13.984375 
Q 42 -20.796875 29.203125 -20.796875 
Q 24.46875 -20.796875 20.265625 -20.09375 
Q 16.0625 -19.390625 12.109375 -17.921875 
L 12.109375 -9.1875 
Q 16.0625 -11.328125 19.921875 -12.34375 
Q 23.78125 -13.375 27.78125 -13.375 
Q 36.625 -13.375 41.015625 -8.765625 
Q 45.40625 -4.15625 45.40625 5.171875 
L 45.40625 9.625 
Q 42.625 4.78125 38.28125 2.390625 
Q 33.9375 0 27.875 0 
Q 17.828125 0 11.671875 7.65625 
Q 5.515625 15.328125 5.515625 27.984375 
Q 5.515625 40.671875 11.671875 48.328125 
Q 17.828125 56 27.875 56 
Q 33.9375 56 38.28125 53.609375 
Q 42.625 51.21875 45.40625 46.390625 
L 45.40625 54.6875 
L 54.390625 54.6875 
z
" id="DejaVuSans-67"/>
      <path d="M 32.171875 -5.078125 
Q 28.375 -14.84375 24.75 -17.8125 
Q 21.140625 -20.796875 15.09375 -20.796875 
L 7.90625 -20.796875 
L 7.90625 -13.28125 
L 13.1875 -13.28125 
Q 16.890625 -13.28125 18.9375 -11.515625 
Q 21 -9.765625 23.484375 -3.21875 
L 25.09375 0.875 
L 2.984375 54.6875 
L 12.5 54.6875 
L 29.59375 11.921875 
L 46.6875 54.6875 
L 56.203125 54.6875 
z
" id="DejaVuSans-79"/>
      <path d="M 8.59375 75.984375 
L 29.296875 75.984375 
L 29.296875 69 
L 17.578125 69 
L 17.578125 -6.203125 
L 29.296875 -6.203125 
L 29.296875 -13.1875 
L 8.59375 -13.1875 
z
" id="DejaVuSans-5b"/>
      <path d="M 30.421875 75.984375 
L 30.421875 -13.1875 
L 9.71875 -13.1875 
L 9.71875 -6.203125 
L 21.390625 -6.203125 
L 21.390625 69 
L 9.71875 69 
L 9.71875 75.984375 
z
" id="DejaVuSans-5d"/>
     </defs>
     <g transform="translate(417.33885 204.108469)rotate(-90)scale(0.1 -0.1)">
      <use xlink:href="#DejaVuSans-45"/>
      <use x="63.183594" xlink:href="#DejaVuSans-6e"/>
      <use x="126.5625" xlink:href="#DejaVuSans-65"/>
      <use x="188.085938" xlink:href="#DejaVuSans-72"/>
      <use x="229.183594" xlink:href="#DejaVuSans-67"/>
      <use x="292.660156" xlink:href="#DejaVuSans-79"/>
      <use x="351.839844" xlink:href="#DejaVuSans-20"/>
      <use x="383.626953" xlink:href="#DejaVuSans-5b"/>
      <use x="422.640625" xlink:href="#DejaVuSans-65"/>
      <use x="484.164062" xlink:href="#DejaVuSans-56"/>
      <use x="552.572266" xlink:href="#DejaVuSans-5d"/>
     </g>
    </g>
   </g>
   <g id="patch_3">
    <path d="M 361.152 307.584 
L 361.152 306.5445 
L 361.152 42.5115 
L 361.152 41.472 
L 374.4576 41.472 
L 374.4576 42.5115 
L 374.4576 306.5445 
L 374.4576 307.584 
z
" style="fill:none;stroke:#000000;stroke-linejoin:miter;stroke-width:0.8;"/>
   </g>
  </g>
 </g>
 <defs>
  <clipPath id="p3dcf0eac98">
   <rect height="266.112" width="285.696" x="57.6" y="41.472"/>
  </clipPath>
  <clipPath id="pac14e95042">
   <rect height="266.112" width="13.3056" x="361.152" y="41.472"/>
  </clipPath>
 </defs>
</svg>
