<?xml version="1.0" encoding="utf-8" standalone="no"?>
<!DOCTYPE svg PUBLIC "-//W3C//DTD SVG 1.1//EN"
  "http://www.w3.org/Graphics/SVG/1.1/DTD/svg11.dtd">
<!-- Created with matplotlib (http://matplotlib.org/) -->
<svg height="345.6pt" version="1.1" viewBox="0 0 460.8 345.6" width="460.8pt" xmlns="http://www.w3.org/2000/svg" xmlns:xlink="http://www.w3.org/1999/xlink">
 <defs>
  <style type="text/css">
*{stroke-linecap:butt;stroke-linejoin:round;}
  </style>
 </defs>
 <g id="figure_1">
  <g id="patch_1">
   <path d="M 0 345.6 
L 460.8 345.6 
L 460.8 0 
L 0 0 
z
" style="fill:#ffffff;"/>
  </g>
  <g id="axes_1">
   <g id="CircleCollection_1">
    <path clip-path="url(#pb5f2c1b169)" d="M 78.075055 130.446643 
C 79.728296 130.446643 81.314047 129.789803 82.483065 128.620785 
C 83.652083 127.451767 84.308923 125.866016 84.308923 124.212775 
C 84.308923 122.559534 83.652083 120.973782 82.483065 119.804764 
C 81.314047 118.635746 79.728296 117.978906 78.075055 117.978906 
C 76.421814 117.978906 74.836062 118.635746 73.667044 119.804764 
C 72.498026 120.973782 71.841186 122.559534 71.841186 124.212775 
C 71.841186 125.866016 72.498026 127.451767 73.667044 128.620785 
C 74.836062 129.789803 76.421814 130.446643 78.075055 130.446643 
z
" style="fill:#1f948c;"/>
    <path clip-path="url(#pb5f2c1b169)" d="M 122.110417 174.929536 
C 123.815203 174.929536 125.450395 174.252217 126.655861 173.046751 
C 127.861327 171.841286 128.538645 170.206094 128.538645 168.501308 
C 128.538645 166.796522 127.861327 165.16133 126.655861 163.955864 
C 125.450395 162.750398 123.815203 162.07308 122.110417 162.07308 
C 120.405631 162.07308 118.770439 162.750398 117.564973 163.955864 
C 116.359508 165.16133 115.682189 166.796522 115.682189 168.501308 
C 115.682189 170.206094 116.359508 171.841286 117.564973 173.046751 
C 118.770439 174.252217 120.405631 174.929536 122.110417 174.929536 
z
" style="fill:#25848e;"/>
    <path clip-path="url(#pb5f2c1b169)" d="M 87.405923 170.027739 
C 89.086322 170.027739 90.698121 169.360109 91.886342 168.171888 
C 93.074563 166.983667 93.742193 165.371868 93.742193 163.691469 
C 93.742193 162.011071 93.074563 160.399271 91.886342 159.21105 
C 90.698121 158.022829 89.086322 157.3552 87.405923 157.3552 
C 85.725525 157.3552 84.113725 158.022829 82.925504 159.21105 
C 81.737283 160.399271 81.069654 162.011071 81.069654 163.691469 
C 81.069654 165.371868 81.737283 166.983667 82.925504 168.171888 
C 84.113725 169.360109 85.725525 170.027739 87.405923 170.027739 
z
" style="fill:#46075a;"/>
    <path clip-path="url(#pb5f2c1b169)" d="M 171.001006 278.051936 
C 172.755573 278.051936 174.438513 277.354839 175.679179 276.114173 
C 176.919845 274.873507 177.616942 273.190567 177.616942 271.436 
C 177.616942 269.681433 176.919845 267.998493 175.679179 266.757827 
C 174.438513 265.517161 172.755573 264.820064 171.001006 264.820064 
C 169.24644 264.820064 167.563499 265.517161 166.322833 266.757827 
C 165.082167 267.998493 164.385071 269.681433 164.385071 271.436 
C 164.385071 273.190567 165.082167 274.873507 166.322833 276.114173 
C 167.563499 277.354839 169.24644 278.051936 171.001006 278.051936 
z
" style="fill:#3f4788;"/>
    <path clip-path="url(#pb5f2c1b169)" d="M 81.716626 242.989517 
C 83.421357 242.989517 85.056496 242.312221 86.261922 241.106794 
C 87.467349 239.901367 88.144646 238.266228 88.144646 236.561497 
C 88.144646 234.856766 87.467349 233.221627 86.261922 232.0162 
C 85.056496 230.810774 83.421357 230.133477 81.716626 230.133477 
C 80.011895 230.133477 78.376756 230.810774 77.171329 232.0162 
C 75.965902 233.221627 75.288605 234.856766 75.288605 236.561497 
C 75.288605 238.266228 75.965902 239.901367 77.171329 241.106794 
C 78.376756 242.312221 80.011895 242.989517 81.716626 242.989517 
z
" style="fill:#2d718e;"/>
    <path clip-path="url(#pb5f2c1b169)" d="M 329.954773 176.59068 
C 331.784799 176.59068 333.540118 175.863603 334.834142 174.569579 
C 336.128166 173.275556 336.855243 171.520236 336.855243 169.69021 
C 336.855243 167.860184 336.128166 166.104865 334.834142 164.810841 
C 333.540118 163.516817 331.784799 162.78974 329.954773 162.78974 
C 328.124747 162.78974 326.369428 163.516817 325.075404 164.810841 
C 323.78138 166.104865 323.054303 167.860184 323.054303 169.69021 
C 323.054303 171.520236 323.78138 173.275556 325.075404 174.569579 
C 326.369428 175.863603 328.124747 176.59068 329.954773 176.59068 
z
" style="fill:#fde725;"/>
    <path clip-path="url(#pb5f2c1b169)" d="M 191.52898 241.116857 
C 193.290332 241.116857 194.97978 240.417065 196.225243 239.171602 
C 197.470707 237.926138 198.170499 236.23669 198.170499 234.475339 
C 198.170499 232.713988 197.470707 231.02454 196.225243 229.779076 
C 194.97978 228.533613 193.290332 227.83382 191.52898 227.83382 
C 189.767629 227.83382 188.078181 228.533613 186.832718 229.779076 
C 185.587254 231.02454 184.887462 232.713988 184.887462 234.475339 
C 184.887462 236.23669 185.587254 237.926138 186.832718 239.171602 
C 188.078181 240.417065 189.767629 241.116857 191.52898 241.116857 
z
" style="fill:#3a548c;"/>
    <path clip-path="url(#pb5f2c1b169)" d="M 207.597961 167.112365 
C 209.340465 167.112365 211.011836 166.42006 212.243972 165.187924 
C 213.476109 163.955787 214.168413 162.284416 214.168413 160.541912 
C 214.168413 158.799408 213.476109 157.128037 212.243972 155.8959 
C 211.011836 154.663764 209.340465 153.971459 207.597961 153.971459 
C 205.855456 153.971459 204.184086 154.663764 202.951949 155.8959 
C 201.719812 157.128037 201.027508 158.799408 201.027508 160.541912 
C 201.027508 162.284416 201.719812 163.955787 202.951949 165.187924 
C 204.184086 166.42006 205.855456 167.112365 207.597961 167.112365 
z
" style="fill:#1e9b8a;"/>
    <path clip-path="url(#pb5f2c1b169)" d="M 211.538139 130.381839 
C 213.265288 130.381839 214.921929 129.695636 216.143207 128.474357 
C 217.364485 127.253079 218.050688 125.596438 218.050688 123.86929 
C 218.050688 122.142142 217.364485 120.485501 216.143207 119.264222 
C 214.921929 118.042944 213.265288 117.356741 211.538139 117.356741 
C 209.810991 117.356741 208.15435 118.042944 206.933072 119.264222 
C 205.711794 120.485501 205.025591 122.142142 205.025591 123.86929 
C 205.025591 125.596438 205.711794 127.253079 206.933072 128.474357 
C 208.15435 129.695636 209.810991 130.381839 211.538139 130.381839 
z
" style="fill:#30698e;"/>
    <path clip-path="url(#pb5f2c1b169)" d="M 222.979564 264.873168 
C 224.754502 264.873168 226.456982 264.167978 227.712053 262.912907 
C 228.967123 261.657837 229.672313 259.955357 229.672313 258.180419 
C 229.672313 256.405481 228.967123 254.703001 227.712053 253.447931 
C 226.456982 252.19286 224.754502 251.48767 222.979564 251.48767 
C 221.204627 251.48767 219.502147 252.19286 218.247076 253.447931 
C 216.992006 254.703001 216.286815 256.405481 216.286815 258.180419 
C 216.286815 259.955357 216.992006 261.657837 218.247076 262.912907 
C 219.502147 264.167978 221.204627 264.873168 222.979564 264.873168 
z
" style="fill:#3e4a89;"/>
    <path clip-path="url(#pb5f2c1b169)" d="M 70.913259 207.85463 
C 72.59913 207.85463 74.216179 207.184827 75.408269 205.992736 
C 76.60036 204.800646 77.270163 203.183597 77.270163 201.497726 
C 77.270163 199.811856 76.60036 198.194807 75.408269 197.002716 
C 74.216179 195.810626 72.59913 195.140822 70.913259 195.140822 
C 69.227389 195.140822 67.61034 195.810626 66.418249 197.002716 
C 65.226159 198.194807 64.556355 199.811856 64.556355 201.497726 
C 64.556355 203.183597 65.226159 204.800646 66.418249 205.992736 
C 67.61034 207.184827 69.227389 207.85463 70.913259 207.85463 
z
" style="fill:#1e9c89;"/>
    <path clip-path="url(#pb5f2c1b169)" d="M 105.698679 270.090444 
C 107.423208 270.090444 109.077337 269.405281 110.296764 268.185854 
C 111.51619 266.966428 112.201353 265.312299 112.201353 263.58777 
C 112.201353 261.86324 111.51619 260.209111 110.296764 258.989685 
C 109.077337 257.770259 107.423208 257.085096 105.698679 257.085096 
C 103.97415 257.085096 102.32002 257.770259 101.100594 258.989685 
C 99.881168 260.209111 99.196005 261.86324 99.196005 263.58777 
C 99.196005 265.312299 99.881168 266.966428 101.100594 268.185854 
C 102.32002 269.405281 103.97415 270.090444 105.698679 270.090444 
z
" style="fill:#2e6d8e;"/>
    <path clip-path="url(#pb5f2c1b169)" d="M 184.557131 200.781901 
C 186.301564 200.781901 187.974785 200.088831 189.208285 198.85533 
C 190.441786 197.62183 191.134856 195.948609 191.134856 194.204176 
C 191.134856 192.459743 190.441786 190.786523 189.208285 189.553022 
C 187.974785 188.319522 186.301564 187.626451 184.557131 187.626451 
C 182.812698 187.626451 181.139478 188.319522 179.905977 189.553022 
C 178.672477 190.786523 177.979406 192.459743 177.979406 194.204176 
C 177.979406 195.948609 178.672477 197.62183 179.905977 198.85533 
C 181.139478 200.088831 182.812698 200.781901 184.557131 200.781901 
z
" style="fill:#440154;"/>
    <path clip-path="url(#pb5f2c1b169)" d="M 147.645982 60.298252 
C 149.297053 60.298252 150.880722 59.642274 152.048205 58.474791 
C 153.215688 57.307308 153.871665 55.723639 153.871665 54.072568 
C 153.871665 52.421498 153.215688 50.837829 152.048205 49.670346 
C 150.880722 48.502862 149.297053 47.846885 147.645982 47.846885 
C 145.994912 47.846885 144.411243 48.502862 143.243759 49.670346 
C 142.076276 50.837829 141.420299 52.421498 141.420299 54.072568 
C 141.420299 55.723639 142.076276 57.307308 143.243759 58.474791 
C 144.411243 59.642274 145.994912 60.298252 147.645982 60.298252 
z
" style="fill:#2a778e;"/>
    <path clip-path="url(#pb5f2c1b169)" d="M 150.770427 188.554123 
C 152.495403 188.554123 154.14996 187.868783 155.369702 186.649041 
C 156.589444 185.429299 157.274784 183.774742 157.274784 182.049766 
C 157.274784 180.324791 156.589444 178.670233 155.369702 177.450491 
C 154.14996 176.230749 152.495403 175.545409 150.770427 175.545409 
C 149.045452 175.545409 147.390895 176.230749 146.171153 177.450491 
C 144.951411 178.670233 144.266071 180.324791 144.266071 182.049766 
C 144.266071 183.774742 144.951411 185.429299 146.171153 186.649041 
C 147.390895 187.868783 149.045452 188.554123 150.770427 188.554123 
z
" style="fill:#25838e;"/>
    <path clip-path="url(#pb5f2c1b169)" d="M 280.009299 227.800925 
C 281.813276 227.800925 283.54361 227.084197 284.819214 225.808593 
C 286.094819 224.532988 286.811547 222.802654 286.811547 220.998677 
C 286.811547 219.1947 286.094819 217.464366 284.819214 216.188761 
C 283.54361 214.913157 281.813276 214.196429 280.009299 214.196429 
C 278.205322 214.196429 276.474988 214.913157 275.199383 216.188761 
C 273.923779 217.464366 273.207051 219.1947 273.207051 220.998677 
C 273.207051 222.802654 273.923779 224.532988 275.199383 225.808593 
C 276.474988 227.084197 278.205322 227.800925 280.009299 227.800925 
z
" style="fill:#32658e;"/>
    <path clip-path="url(#pb5f2c1b169)" d="M 136.397074 280.287344 
C 138.137087 280.287344 139.806069 279.596029 141.036444 278.365654 
C 142.26682 277.135278 142.958135 275.466297 142.958135 273.726283 
C 142.958135 271.986269 142.26682 270.317288 141.036444 269.086912 
C 139.806069 267.856537 138.137087 267.165222 136.397074 267.165222 
C 134.65706 267.165222 132.988078 267.856537 131.757703 269.086912 
C 130.527327 270.317288 129.836012 271.986269 129.836012 273.726283 
C 129.836012 275.466297 130.527327 277.135278 131.757703 278.365654 
C 132.988078 279.596029 134.65706 280.287344 136.397074 280.287344 
z
" style="fill:#26828e;"/>
    <path clip-path="url(#pb5f2c1b169)" d="M 201.98543 93.195329 
C 203.686859 93.195329 205.31883 92.519344 206.521922 91.316252 
C 207.725014 90.11316 208.400999 88.481189 208.400999 86.77976 
C 208.400999 85.078331 207.725014 83.446359 206.521922 82.243268 
C 205.31883 81.040176 203.686859 80.364191 201.98543 80.364191 
C 200.284001 80.364191 198.652029 81.040176 197.448937 82.243268 
C 196.245846 83.446359 195.569861 85.078331 195.569861 86.77976 
C 195.569861 88.481189 196.245846 90.11316 197.448937 91.316252 
C 198.652029 92.519344 200.284001 93.195329 201.98543 93.195329 
z
" style="fill:#2a788e;"/>
    <path clip-path="url(#pb5f2c1b169)" d="M 180.309096 67.752287 
C 181.983231 67.752287 183.589023 67.087146 184.772815 65.903354 
C 185.956607 64.719562 186.621748 63.11377 186.621748 61.439635 
C 186.621748 59.7655 185.956607 58.159707 184.772815 56.975915 
C 183.589023 55.792123 181.983231 55.126982 180.309096 55.126982 
C 178.634961 55.126982 177.029169 55.792123 175.845376 56.975915 
C 174.661584 58.159707 173.996443 59.7655 173.996443 61.439635 
C 173.996443 63.11377 174.661584 64.719562 175.845376 65.903354 
C 177.029169 67.087146 178.634961 67.752287 180.309096 67.752287 
z
" style="fill:#2c738e;"/>
    <path clip-path="url(#pb5f2c1b169)" d="M 92.666873 96.879114 
C 94.309005 96.879114 95.884102 96.226688 97.045265 95.065524 
C 98.206429 93.904361 98.858855 92.329264 98.858855 90.687131 
C 98.858855 89.044999 98.206429 87.469902 97.045265 86.308739 
C 95.884102 85.147575 94.309005 84.495149 92.666873 84.495149 
C 91.02474 84.495149 89.449643 85.147575 88.28848 86.308739 
C 87.127316 87.469902 86.47489 89.044999 86.47489 90.687131 
C 86.47489 92.329264 87.127316 93.904361 88.28848 95.065524 
C 89.449643 96.226688 91.02474 96.879114 92.666873 96.879114 
z
" style="fill:#2c718e;"/>
    <path clip-path="url(#pb5f2c1b169)" d="M 306.321333 203.72954 
C 308.13875 203.72954 309.881975 203.007473 311.167082 201.722365 
C 312.45219 200.437257 313.174257 198.694033 313.174257 196.876616 
C 313.174257 195.059199 312.45219 193.315975 311.167082 192.030867 
C 309.881975 190.745759 308.13875 190.023692 306.321333 190.023692 
C 304.503917 190.023692 302.760692 190.745759 301.475584 192.030867 
C 300.190477 193.315975 299.46841 195.059199 299.46841 196.876616 
C 299.46841 198.694033 300.190477 200.437257 301.475584 201.722365 
C 302.760692 203.007473 304.503917 203.72954 306.321333 203.72954 
z
" style="fill:#2b748e;"/>
    <path clip-path="url(#pb5f2c1b169)" d="M 202.682396 301.570499 
C 204.437759 301.570499 206.121463 300.873086 207.362693 299.631856 
C 208.603922 298.390627 209.301335 296.706923 209.301335 294.95156 
C 209.301335 293.196197 208.603922 291.512492 207.362693 290.271263 
C 206.121463 289.030034 204.437759 288.332621 202.682396 288.332621 
C 200.927033 288.332621 199.243328 289.030034 198.002099 290.271263 
C 196.76087 291.512492 196.063457 293.196197 196.063457 294.95156 
C 196.063457 296.706923 196.76087 298.390627 198.002099 299.631856 
C 199.243328 300.873086 200.927033 301.570499 202.682396 301.570499 
z
" style="fill:#a8db34;"/>
    <path clip-path="url(#pb5f2c1b169)" d="M 255.008539 251.647048 
C 256.799038 251.647048 258.516445 250.935675 259.782519 249.669601 
C 261.048593 248.403526 261.759966 246.68612 261.759966 244.895621 
C 261.759966 243.105122 261.048593 241.387716 259.782519 240.121642 
C 258.516445 238.855568 256.799038 238.144195 255.008539 238.144195 
C 253.21804 238.144195 251.500634 238.855568 250.23456 240.121642 
C 248.968486 241.387716 248.257113 243.105122 248.257113 244.895621 
C 248.257113 246.68612 248.968486 248.403526 250.23456 249.669601 
C 251.500634 250.935675 253.21804 251.647048 255.008539 251.647048 
z
" style="fill:#2a768e;"/>
    <path clip-path="url(#pb5f2c1b169)" d="M 116.194107 67.351527 
C 117.831614 67.351527 119.402274 66.700938 120.560166 65.543046 
C 121.718059 64.385153 122.368647 62.814493 122.368647 61.176986 
C 122.368647 59.539479 121.718059 57.968819 120.560166 56.810927 
C 119.402274 55.653034 117.831614 55.002446 116.194107 55.002446 
C 114.5566 55.002446 112.98594 55.653034 111.828047 56.810927 
C 110.670155 57.968819 110.019566 59.539479 110.019566 61.176986 
C 110.019566 62.814493 110.670155 64.385153 111.828047 65.543046 
C 112.98594 66.700938 114.5566 67.351527 116.194107 67.351527 
z
" style="fill:#2b758e;"/>
   </g>
   <g id="text_1">
    <!-- Structure #9731, $E_N$=-180.10eV, ΔE=0.13eV -->
    <defs>
     <path d="M 53.515625 70.515625 
L 53.515625 60.890625 
Q 47.90625 63.578125 42.921875 64.890625 
Q 37.9375 66.21875 33.296875 66.21875 
Q 25.25 66.21875 20.875 63.09375 
Q 16.5 59.96875 16.5 54.203125 
Q 16.5 49.359375 19.40625 46.890625 
Q 22.3125 44.4375 30.421875 42.921875 
L 36.375 41.703125 
Q 47.40625 39.59375 52.65625 34.296875 
Q 57.90625 29 57.90625 20.125 
Q 57.90625 9.515625 50.796875 4.046875 
Q 43.703125 -1.421875 29.984375 -1.421875 
Q 24.8125 -1.421875 18.96875 -0.25 
Q 13.140625 0.921875 6.890625 3.21875 
L 6.890625 13.375 
Q 12.890625 10.015625 18.65625 8.296875 
Q 24.421875 6.59375 29.984375 6.59375 
Q 38.421875 6.59375 43.015625 9.90625 
Q 47.609375 13.234375 47.609375 19.390625 
Q 47.609375 24.75 44.3125 27.78125 
Q 41.015625 30.8125 33.5 32.328125 
L 27.484375 33.5 
Q 16.453125 35.6875 11.515625 40.375 
Q 6.59375 45.0625 6.59375 53.421875 
Q 6.59375 63.09375 13.40625 68.65625 
Q 20.21875 74.21875 32.171875 74.21875 
Q 37.3125 74.21875 42.625 73.28125 
Q 47.953125 72.359375 53.515625 70.515625 
z
" id="DejaVuSans-53"/>
     <path d="M 18.3125 70.21875 
L 18.3125 54.6875 
L 36.8125 54.6875 
L 36.8125 47.703125 
L 18.3125 47.703125 
L 18.3125 18.015625 
Q 18.3125 11.328125 20.140625 9.421875 
Q 21.96875 7.515625 27.59375 7.515625 
L 36.8125 7.515625 
L 36.8125 0 
L 27.59375 0 
Q 17.1875 0 13.234375 3.875 
Q 9.28125 7.765625 9.28125 18.015625 
L 9.28125 47.703125 
L 2.6875 47.703125 
L 2.6875 54.6875 
L 9.28125 54.6875 
L 9.28125 70.21875 
z
" id="DejaVuSans-74"/>
     <path d="M 41.109375 46.296875 
Q 39.59375 47.171875 37.8125 47.578125 
Q 36.03125 48 33.890625 48 
Q 26.265625 48 22.1875 43.046875 
Q 18.109375 38.09375 18.109375 28.8125 
L 18.109375 0 
L 9.078125 0 
L 9.078125 54.6875 
L 18.109375 54.6875 
L 18.109375 46.1875 
Q 20.953125 51.171875 25.484375 53.578125 
Q 30.03125 56 36.53125 56 
Q 37.453125 56 38.578125 55.875 
Q 39.703125 55.765625 41.0625 55.515625 
z
" id="DejaVuSans-72"/>
     <path d="M 8.5 21.578125 
L 8.5 54.6875 
L 17.484375 54.6875 
L 17.484375 21.921875 
Q 17.484375 14.15625 20.5 10.265625 
Q 23.53125 6.390625 29.59375 6.390625 
Q 36.859375 6.390625 41.078125 11.03125 
Q 45.3125 15.671875 45.3125 23.6875 
L 45.3125 54.6875 
L 54.296875 54.6875 
L 54.296875 0 
L 45.3125 0 
L 45.3125 8.40625 
Q 42.046875 3.421875 37.71875 1 
Q 33.40625 -1.421875 27.6875 -1.421875 
Q 18.265625 -1.421875 13.375 4.4375 
Q 8.5 10.296875 8.5 21.578125 
z
M 31.109375 56 
z
" id="DejaVuSans-75"/>
     <path d="M 48.78125 52.59375 
L 48.78125 44.1875 
Q 44.96875 46.296875 41.140625 47.34375 
Q 37.3125 48.390625 33.40625 48.390625 
Q 24.65625 48.390625 19.8125 42.84375 
Q 14.984375 37.3125 14.984375 27.296875 
Q 14.984375 17.28125 19.8125 11.734375 
Q 24.65625 6.203125 33.40625 6.203125 
Q 37.3125 6.203125 41.140625 7.25 
Q 44.96875 8.296875 48.78125 10.40625 
L 48.78125 2.09375 
Q 45.015625 0.34375 40.984375 -0.53125 
Q 36.96875 -1.421875 32.421875 -1.421875 
Q 20.0625 -1.421875 12.78125 6.34375 
Q 5.515625 14.109375 5.515625 27.296875 
Q 5.515625 40.671875 12.859375 48.328125 
Q 20.21875 56 33.015625 56 
Q 37.15625 56 41.109375 55.140625 
Q 45.0625 54.296875 48.78125 52.59375 
z
" id="DejaVuSans-63"/>
     <path d="M 56.203125 29.59375 
L 56.203125 25.203125 
L 14.890625 25.203125 
Q 15.484375 15.921875 20.484375 11.0625 
Q 25.484375 6.203125 34.421875 6.203125 
Q 39.59375 6.203125 44.453125 7.46875 
Q 49.3125 8.734375 54.109375 11.28125 
L 54.109375 2.78125 
Q 49.265625 0.734375 44.1875 -0.34375 
Q 39.109375 -1.421875 33.890625 -1.421875 
Q 20.796875 -1.421875 13.15625 6.1875 
Q 5.515625 13.8125 5.515625 26.8125 
Q 5.515625 40.234375 12.765625 48.109375 
Q 20.015625 56 32.328125 56 
Q 43.359375 56 49.78125 48.890625 
Q 56.203125 41.796875 56.203125 29.59375 
z
M 47.21875 32.234375 
Q 47.125 39.59375 43.09375 43.984375 
Q 39.0625 48.390625 32.421875 48.390625 
Q 24.90625 48.390625 20.390625 44.140625 
Q 15.875 39.890625 15.1875 32.171875 
z
" id="DejaVuSans-65"/>
     <path id="DejaVuSans-20"/>
     <path d="M 51.125 44 
L 36.921875 44 
L 32.8125 27.6875 
L 47.125 27.6875 
z
M 43.796875 71.78125 
L 38.71875 51.515625 
L 52.984375 51.515625 
L 58.109375 71.78125 
L 65.921875 71.78125 
L 60.890625 51.515625 
L 76.125 51.515625 
L 76.125 44 
L 58.984375 44 
L 54.984375 27.6875 
L 70.515625 27.6875 
L 70.515625 20.21875 
L 53.078125 20.21875 
L 48 0 
L 40.1875 0 
L 45.21875 20.21875 
L 30.90625 20.21875 
L 25.875 0 
L 18.015625 0 
L 23.09375 20.21875 
L 7.71875 20.21875 
L 7.71875 27.6875 
L 24.90625 27.6875 
L 29 44 
L 13.28125 44 
L 13.28125 51.515625 
L 30.90625 51.515625 
L 35.890625 71.78125 
z
" id="DejaVuSans-23"/>
     <path d="M 10.984375 1.515625 
L 10.984375 10.5 
Q 14.703125 8.734375 18.5 7.8125 
Q 22.3125 6.890625 25.984375 6.890625 
Q 35.75 6.890625 40.890625 13.453125 
Q 46.046875 20.015625 46.78125 33.40625 
Q 43.953125 29.203125 39.59375 26.953125 
Q 35.25 24.703125 29.984375 24.703125 
Q 19.046875 24.703125 12.671875 31.3125 
Q 6.296875 37.9375 6.296875 49.421875 
Q 6.296875 60.640625 12.9375 67.421875 
Q 19.578125 74.21875 30.609375 74.21875 
Q 43.265625 74.21875 49.921875 64.515625 
Q 56.59375 54.828125 56.59375 36.375 
Q 56.59375 19.140625 48.40625 8.859375 
Q 40.234375 -1.421875 26.421875 -1.421875 
Q 22.703125 -1.421875 18.890625 -0.6875 
Q 15.09375 0.046875 10.984375 1.515625 
z
M 30.609375 32.421875 
Q 37.25 32.421875 41.125 36.953125 
Q 45.015625 41.5 45.015625 49.421875 
Q 45.015625 57.28125 41.125 61.84375 
Q 37.25 66.40625 30.609375 66.40625 
Q 23.96875 66.40625 20.09375 61.84375 
Q 16.21875 57.28125 16.21875 49.421875 
Q 16.21875 41.5 20.09375 36.953125 
Q 23.96875 32.421875 30.609375 32.421875 
z
" id="DejaVuSans-39"/>
     <path d="M 8.203125 72.90625 
L 55.078125 72.90625 
L 55.078125 68.703125 
L 28.609375 0 
L 18.3125 0 
L 43.21875 64.59375 
L 8.203125 64.59375 
z
" id="DejaVuSans-37"/>
     <path d="M 40.578125 39.3125 
Q 47.65625 37.796875 51.625 33 
Q 55.609375 28.21875 55.609375 21.1875 
Q 55.609375 10.40625 48.1875 4.484375 
Q 40.765625 -1.421875 27.09375 -1.421875 
Q 22.515625 -1.421875 17.65625 -0.515625 
Q 12.796875 0.390625 7.625 2.203125 
L 7.625 11.71875 
Q 11.71875 9.328125 16.59375 8.109375 
Q 21.484375 6.890625 26.8125 6.890625 
Q 36.078125 6.890625 40.9375 10.546875 
Q 45.796875 14.203125 45.796875 21.1875 
Q 45.796875 27.640625 41.28125 31.265625 
Q 36.765625 34.90625 28.71875 34.90625 
L 20.21875 34.90625 
L 20.21875 43.015625 
L 29.109375 43.015625 
Q 36.375 43.015625 40.234375 45.921875 
Q 44.09375 48.828125 44.09375 54.296875 
Q 44.09375 59.90625 40.109375 62.90625 
Q 36.140625 65.921875 28.71875 65.921875 
Q 24.65625 65.921875 20.015625 65.03125 
Q 15.375 64.15625 9.8125 62.3125 
L 9.8125 71.09375 
Q 15.4375 72.65625 20.34375 73.4375 
Q 25.25 74.21875 29.59375 74.21875 
Q 40.828125 74.21875 47.359375 69.109375 
Q 53.90625 64.015625 53.90625 55.328125 
Q 53.90625 49.265625 50.4375 45.09375 
Q 46.96875 40.921875 40.578125 39.3125 
z
" id="DejaVuSans-33"/>
     <path d="M 12.40625 8.296875 
L 28.515625 8.296875 
L 28.515625 63.921875 
L 10.984375 60.40625 
L 10.984375 69.390625 
L 28.421875 72.90625 
L 38.28125 72.90625 
L 38.28125 8.296875 
L 54.390625 8.296875 
L 54.390625 0 
L 12.40625 0 
z
" id="DejaVuSans-31"/>
     <path d="M 11.71875 12.40625 
L 22.015625 12.40625 
L 22.015625 4 
L 14.015625 -11.625 
L 7.71875 -11.625 
L 11.71875 4 
z
" id="DejaVuSans-2c"/>
     <path d="M 16.890625 72.90625 
L 62.984375 72.90625 
L 61.375 64.59375 
L 25.09375 64.59375 
L 20.90625 43.015625 
L 55.71875 43.015625 
L 54.109375 34.71875 
L 19.28125 34.71875 
L 14.203125 8.296875 
L 51.3125 8.296875 
L 49.703125 0 
L 2.6875 0 
z
" id="DejaVuSans-Oblique-45"/>
     <path d="M 16.890625 72.90625 
L 30.171875 72.90625 
L 50.296875 10.40625 
L 62.5 72.90625 
L 72.125 72.90625 
L 57.90625 0 
L 44.578125 0 
L 24.515625 62.890625 
L 12.3125 0 
L 2.6875 0 
z
" id="DejaVuSans-Oblique-4e"/>
     <path d="M 10.59375 45.40625 
L 73.1875 45.40625 
L 73.1875 37.203125 
L 10.59375 37.203125 
z
M 10.59375 25.484375 
L 73.1875 25.484375 
L 73.1875 17.1875 
L 10.59375 17.1875 
z
" id="DejaVuSans-3d"/>
     <path d="M 4.890625 31.390625 
L 31.203125 31.390625 
L 31.203125 23.390625 
L 4.890625 23.390625 
z
" id="DejaVuSans-2d"/>
     <path d="M 31.78125 34.625 
Q 24.75 34.625 20.71875 30.859375 
Q 16.703125 27.09375 16.703125 20.515625 
Q 16.703125 13.921875 20.71875 10.15625 
Q 24.75 6.390625 31.78125 6.390625 
Q 38.8125 6.390625 42.859375 10.171875 
Q 46.921875 13.96875 46.921875 20.515625 
Q 46.921875 27.09375 42.890625 30.859375 
Q 38.875 34.625 31.78125 34.625 
z
M 21.921875 38.8125 
Q 15.578125 40.375 12.03125 44.71875 
Q 8.5 49.078125 8.5 55.328125 
Q 8.5 64.0625 14.71875 69.140625 
Q 20.953125 74.21875 31.78125 74.21875 
Q 42.671875 74.21875 48.875 69.140625 
Q 55.078125 64.0625 55.078125 55.328125 
Q 55.078125 49.078125 51.53125 44.71875 
Q 48 40.375 41.703125 38.8125 
Q 48.828125 37.15625 52.796875 32.3125 
Q 56.78125 27.484375 56.78125 20.515625 
Q 56.78125 9.90625 50.3125 4.234375 
Q 43.84375 -1.421875 31.78125 -1.421875 
Q 19.734375 -1.421875 13.25 4.234375 
Q 6.78125 9.90625 6.78125 20.515625 
Q 6.78125 27.484375 10.78125 32.3125 
Q 14.796875 37.15625 21.921875 38.8125 
z
M 18.3125 54.390625 
Q 18.3125 48.734375 21.84375 45.5625 
Q 25.390625 42.390625 31.78125 42.390625 
Q 38.140625 42.390625 41.71875 45.5625 
Q 45.3125 48.734375 45.3125 54.390625 
Q 45.3125 60.0625 41.71875 63.234375 
Q 38.140625 66.40625 31.78125 66.40625 
Q 25.390625 66.40625 21.84375 63.234375 
Q 18.3125 60.0625 18.3125 54.390625 
z
" id="DejaVuSans-38"/>
     <path d="M 31.78125 66.40625 
Q 24.171875 66.40625 20.328125 58.90625 
Q 16.5 51.421875 16.5 36.375 
Q 16.5 21.390625 20.328125 13.890625 
Q 24.171875 6.390625 31.78125 6.390625 
Q 39.453125 6.390625 43.28125 13.890625 
Q 47.125 21.390625 47.125 36.375 
Q 47.125 51.421875 43.28125 58.90625 
Q 39.453125 66.40625 31.78125 66.40625 
z
M 31.78125 74.21875 
Q 44.046875 74.21875 50.515625 64.515625 
Q 56.984375 54.828125 56.984375 36.375 
Q 56.984375 17.96875 50.515625 8.265625 
Q 44.046875 -1.421875 31.78125 -1.421875 
Q 19.53125 -1.421875 13.0625 8.265625 
Q 6.59375 17.96875 6.59375 36.375 
Q 6.59375 54.828125 13.0625 64.515625 
Q 19.53125 74.21875 31.78125 74.21875 
z
" id="DejaVuSans-30"/>
     <path d="M 10.6875 12.40625 
L 21 12.40625 
L 21 0 
L 10.6875 0 
z
" id="DejaVuSans-2e"/>
     <path d="M 28.609375 0 
L 0.78125 72.90625 
L 11.078125 72.90625 
L 34.1875 11.53125 
L 57.328125 72.90625 
L 67.578125 72.90625 
L 39.796875 0 
z
" id="DejaVuSans-56"/>
     <path d="M 34.1875 63.1875 
L 14.15625 8.203125 
L 54.25 8.203125 
z
M 0.78125 0 
L 28.609375 72.90625 
L 39.796875 72.90625 
L 67.578125 0 
z
" id="DejaVuSans-394"/>
     <path d="M 9.8125 72.90625 
L 55.90625 72.90625 
L 55.90625 64.59375 
L 19.671875 64.59375 
L 19.671875 43.015625 
L 54.390625 43.015625 
L 54.390625 34.71875 
L 19.671875 34.71875 
L 19.671875 8.296875 
L 56.78125 8.296875 
L 56.78125 0 
L 9.8125 0 
z
" id="DejaVuSans-45"/>
    </defs>
    <g transform="translate(65.388 35.472)scale(0.12 -0.12)">
     <use transform="translate(0 0.78125)" xlink:href="#DejaVuSans-53"/>
     <use transform="translate(63.476562 0.78125)" xlink:href="#DejaVuSans-74"/>
     <use transform="translate(102.685547 0.78125)" xlink:href="#DejaVuSans-72"/>
     <use transform="translate(143.798828 0.78125)" xlink:href="#DejaVuSans-75"/>
     <use transform="translate(207.177734 0.78125)" xlink:href="#DejaVuSans-63"/>
     <use transform="translate(262.158203 0.78125)" xlink:href="#DejaVuSans-74"/>
     <use transform="translate(301.367188 0.78125)" xlink:href="#DejaVuSans-75"/>
     <use transform="translate(364.746094 0.78125)" xlink:href="#DejaVuSans-72"/>
     <use transform="translate(405.859375 0.78125)" xlink:href="#DejaVuSans-65"/>
     <use transform="translate(467.382812 0.78125)" xlink:href="#DejaVuSans-20"/>
     <use transform="translate(499.169922 0.78125)" xlink:href="#DejaVuSans-23"/>
     <use transform="translate(582.958984 0.78125)" xlink:href="#DejaVuSans-39"/>
     <use transform="translate(646.582031 0.78125)" xlink:href="#DejaVuSans-37"/>
     <use transform="translate(710.205078 0.78125)" xlink:href="#DejaVuSans-33"/>
     <use transform="translate(773.828125 0.78125)" xlink:href="#DejaVuSans-31"/>
     <use transform="translate(837.451172 0.78125)" xlink:href="#DejaVuSans-2c"/>
     <use transform="translate(869.238281 0.78125)" xlink:href="#DejaVuSans-20"/>
     <use transform="translate(901.025391 0.78125)" xlink:href="#DejaVuSans-Oblique-45"/>
     <use transform="translate(964.208984 -15.625)scale(0.7)" xlink:href="#DejaVuSans-Oblique-4e"/>
     <use transform="translate(1019.306641 0.78125)" xlink:href="#DejaVuSans-3d"/>
     <use transform="translate(1103.095703 0.78125)" xlink:href="#DejaVuSans-2d"/>
     <use transform="translate(1139.179688 0.78125)" xlink:href="#DejaVuSans-31"/>
     <use transform="translate(1202.802734 0.78125)" xlink:href="#DejaVuSans-38"/>
     <use transform="translate(1266.425781 0.78125)" xlink:href="#DejaVuSans-30"/>
     <use transform="translate(1330.048828 0.78125)" xlink:href="#DejaVuSans-2e"/>
     <use transform="translate(1361.835938 0.78125)" xlink:href="#DejaVuSans-31"/>
     <use transform="translate(1425.458984 0.78125)" xlink:href="#DejaVuSans-30"/>
     <use transform="translate(1489.082031 0.78125)" xlink:href="#DejaVuSans-65"/>
     <use transform="translate(1550.605469 0.78125)" xlink:href="#DejaVuSans-56"/>
     <use transform="translate(1619.013672 0.78125)" xlink:href="#DejaVuSans-2c"/>
     <use transform="translate(1650.800781 0.78125)" xlink:href="#DejaVuSans-20"/>
     <use transform="translate(1682.587891 0.78125)" xlink:href="#DejaVuSans-394"/>
     <use transform="translate(1750.996094 0.78125)" xlink:href="#DejaVuSans-45"/>
     <use transform="translate(1814.179688 0.78125)" xlink:href="#DejaVuSans-3d"/>
     <use transform="translate(1897.96875 0.78125)" xlink:href="#DejaVuSans-30"/>
     <use transform="translate(1961.591797 0.78125)" xlink:href="#DejaVuSans-2e"/>
     <use transform="translate(1993.378906 0.78125)" xlink:href="#DejaVuSans-31"/>
     <use transform="translate(2057.001953 0.78125)" xlink:href="#DejaVuSans-33"/>
     <use transform="translate(2120.625 0.78125)" xlink:href="#DejaVuSans-65"/>
     <use transform="translate(2182.148438 0.78125)" xlink:href="#DejaVuSans-56"/>
    </g>
   </g>
  </g>
  <g id="axes_2">
   <g id="patch_2">
    <path clip-path="url(#pff6c9e1888)" d="M 361.152 307.584 
L 361.152 306.5445 
L 361.152 42.5115 
L 361.152 41.472 
L 374.4576 41.472 
L 374.4576 42.5115 
L 374.4576 306.5445 
L 374.4576 307.584 
z
" style="fill:#ffffff;stroke:#ffffff;stroke-linejoin:miter;stroke-width:0.01;"/>
   </g>
   <image height="265.68" id="image3a63afc365" transform="scale(1 -1)translate(0 -265.68)" width="12.96" x="361.44" xlink:href="data:image/png;base64,
iVBORw0KGgoAAAANSUhEUgAAABIAAAFxCAYAAAB+2fgXAAAABHNCSVQICAgIfAhkiAAAAeVJREFUeJztncmNw0AQA2ckheYQNv9QLIfQ8ygsCgQ7AEI8+jAs2Puz/94F1LP2ReCsZ18bAWIeZ5XaGRBE7VnbptG+KI101FYyNSiQG2oRITXKNaX9uclOdi2XWjftVE32CZCO2ou5Bj1TcCBr/1zB9ge7Fq0Rg2NM9pvbtG+ua1QgsRYhDy0ISEiNc40BEibbSI0Coj5CBGtkpFbXJiAjNZlrwhuSOv2M1DjXbEdEciBt1JSDDQKKpmZr2rr2j0DBGpXaWEJq3bQzEPIS26r9J+Wzv9Tm8o3aajRXqc3VUXsApKNWjeZq0x4ABVNbm7lrszVigDqP5vIl2+eaT2yfRkL7g+dRcNPqjohkjaCvRVBq0H2U3LQrOJCx9kdTg4B8oxZzzTdqdYHEngjUCAPyUctN9sVRq2sTECW2UKNLd2jVtRmo1A6AhMmWaSRcR8nUdIHUuVb75zJS218EyEitro1At69pIdeSk30Lkw0FktNImGyZRhy1O5galmxd03LUsHWk06jUZiCq+5Wb1kZNN4+wJxJuWt8RAW5am2sYNZ9rYCBzZ3buPKJ2P5Yj4Toy3keyIyJbIxs1rml1byCA84gpch5RQNB7Q0qNMGq2Hy4BXdNR41yz/cEEJfZzUz96r9PoB0okjeQ8y9TkAAAAAElFTkSuQmCC" y="-41.76"/>
   <g id="matplotlib.axis_1"/>
   <g id="matplotlib.axis_2">
    <g id="ytick_1">
     <g id="line2d_1">
      <defs>
       <path d="M 0 0 
L 3.5 0 
" id="m6f3b82b0d8" style="stroke:#000000;stroke-width:0.8;"/>
      </defs>
      <g>
       <use style="stroke:#000000;stroke-width:0.8;" x="374.4576" xlink:href="#m6f3b82b0d8" y="297.667059"/>
      </g>
     </g>
     <g id="text_2">
      <!-- −9.0 -->
      <defs>
       <path d="M 10.59375 35.5 
L 73.1875 35.5 
L 73.1875 27.203125 
L 10.59375 27.203125 
z
" id="DejaVuSans-2212"/>
      </defs>
      <g transform="translate(381.4576 301.466278)scale(0.1 -0.1)">
       <use xlink:href="#DejaVuSans-2212"/>
       <use x="83.789062" xlink:href="#DejaVuSans-39"/>
       <use x="147.412109" xlink:href="#DejaVuSans-2e"/>
       <use x="179.199219" xlink:href="#DejaVuSans-30"/>
      </g>
     </g>
    </g>
    <g id="ytick_2">
     <g id="line2d_2">
      <g>
       <use style="stroke:#000000;stroke-width:0.8;" x="374.4576" xlink:href="#m6f3b82b0d8" y="265.262972"/>
      </g>
     </g>
     <g id="text_3">
      <!-- −8.5 -->
      <defs>
       <path d="M 10.796875 72.90625 
L 49.515625 72.90625 
L 49.515625 64.59375 
L 19.828125 64.59375 
L 19.828125 46.734375 
Q 21.96875 47.46875 24.109375 47.828125 
Q 26.265625 48.1875 28.421875 48.1875 
Q 40.625 48.1875 47.75 41.5 
Q 54.890625 34.8125 54.890625 23.390625 
Q 54.890625 11.625 47.5625 5.09375 
Q 40.234375 -1.421875 26.90625 -1.421875 
Q 22.3125 -1.421875 17.546875 -0.640625 
Q 12.796875 0.140625 7.71875 1.703125 
L 7.71875 11.625 
Q 12.109375 9.234375 16.796875 8.0625 
Q 21.484375 6.890625 26.703125 6.890625 
Q 35.15625 6.890625 40.078125 11.328125 
Q 45.015625 15.765625 45.015625 23.390625 
Q 45.015625 31 40.078125 35.4375 
Q 35.15625 39.890625 26.703125 39.890625 
Q 22.75 39.890625 18.8125 39.015625 
Q 14.890625 38.140625 10.796875 36.28125 
z
" id="DejaVuSans-35"/>
      </defs>
      <g transform="translate(381.4576 269.062191)scale(0.1 -0.1)">
       <use xlink:href="#DejaVuSans-2212"/>
       <use x="83.789062" xlink:href="#DejaVuSans-38"/>
       <use x="147.412109" xlink:href="#DejaVuSans-2e"/>
       <use x="179.199219" xlink:href="#DejaVuSans-35"/>
      </g>
     </g>
    </g>
    <g id="ytick_3">
     <g id="line2d_3">
      <g>
       <use style="stroke:#000000;stroke-width:0.8;" x="374.4576" xlink:href="#m6f3b82b0d8" y="232.858886"/>
      </g>
     </g>
     <g id="text_4">
      <!-- −8.0 -->
      <g transform="translate(381.4576 236.658104)scale(0.1 -0.1)">
       <use xlink:href="#DejaVuSans-2212"/>
       <use x="83.789062" xlink:href="#DejaVuSans-38"/>
       <use x="147.412109" xlink:href="#DejaVuSans-2e"/>
       <use x="179.199219" xlink:href="#DejaVuSans-30"/>
      </g>
     </g>
    </g>
    <g id="ytick_4">
     <g id="line2d_4">
      <g>
       <use style="stroke:#000000;stroke-width:0.8;" x="374.4576" xlink:href="#m6f3b82b0d8" y="200.454799"/>
      </g>
     </g>
     <g id="text_5">
      <!-- −7.5 -->
      <g transform="translate(381.4576 204.254017)scale(0.1 -0.1)">
       <use xlink:href="#DejaVuSans-2212"/>
       <use x="83.789062" xlink:href="#DejaVuSans-37"/>
       <use x="147.412109" xlink:href="#DejaVuSans-2e"/>
       <use x="179.199219" xlink:href="#DejaVuSans-35"/>
      </g>
     </g>
    </g>
    <g id="ytick_5">
     <g id="line2d_5">
      <g>
       <use style="stroke:#000000;stroke-width:0.8;" x="374.4576" xlink:href="#m6f3b82b0d8" y="168.050712"/>
      </g>
     </g>
     <g id="text_6">
      <!-- −7.0 -->
      <g transform="translate(381.4576 171.84993)scale(0.1 -0.1)">
       <use xlink:href="#DejaVuSans-2212"/>
       <use x="83.789062" xlink:href="#DejaVuSans-37"/>
       <use x="147.412109" xlink:href="#DejaVuSans-2e"/>
       <use x="179.199219" xlink:href="#DejaVuSans-30"/>
      </g>
     </g>
    </g>
    <g id="ytick_6">
     <g id="line2d_6">
      <g>
       <use style="stroke:#000000;stroke-width:0.8;" x="374.4576" xlink:href="#m6f3b82b0d8" y="135.646625"/>
      </g>
     </g>
     <g id="text_7">
      <!-- −6.5 -->
      <defs>
       <path d="M 33.015625 40.375 
Q 26.375 40.375 22.484375 35.828125 
Q 18.609375 31.296875 18.609375 23.390625 
Q 18.609375 15.53125 22.484375 10.953125 
Q 26.375 6.390625 33.015625 6.390625 
Q 39.65625 6.390625 43.53125 10.953125 
Q 47.40625 15.53125 47.40625 23.390625 
Q 47.40625 31.296875 43.53125 35.828125 
Q 39.65625 40.375 33.015625 40.375 
z
M 52.59375 71.296875 
L 52.59375 62.3125 
Q 48.875 64.0625 45.09375 64.984375 
Q 41.3125 65.921875 37.59375 65.921875 
Q 27.828125 65.921875 22.671875 59.328125 
Q 17.53125 52.734375 16.796875 39.40625 
Q 19.671875 43.65625 24.015625 45.921875 
Q 28.375 48.1875 33.59375 48.1875 
Q 44.578125 48.1875 50.953125 41.515625 
Q 57.328125 34.859375 57.328125 23.390625 
Q 57.328125 12.15625 50.6875 5.359375 
Q 44.046875 -1.421875 33.015625 -1.421875 
Q 20.359375 -1.421875 13.671875 8.265625 
Q 6.984375 17.96875 6.984375 36.375 
Q 6.984375 53.65625 15.1875 63.9375 
Q 23.390625 74.21875 37.203125 74.21875 
Q 40.921875 74.21875 44.703125 73.484375 
Q 48.484375 72.75 52.59375 71.296875 
z
" id="DejaVuSans-36"/>
      </defs>
      <g transform="translate(381.4576 139.445844)scale(0.1 -0.1)">
       <use xlink:href="#DejaVuSans-2212"/>
       <use x="83.789062" xlink:href="#DejaVuSans-36"/>
       <use x="147.412109" xlink:href="#DejaVuSans-2e"/>
       <use x="179.199219" xlink:href="#DejaVuSans-35"/>
      </g>
     </g>
    </g>
    <g id="ytick_7">
     <g id="line2d_7">
      <g>
       <use style="stroke:#000000;stroke-width:0.8;" x="374.4576" xlink:href="#m6f3b82b0d8" y="103.242538"/>
      </g>
     </g>
     <g id="text_8">
      <!-- −6.0 -->
      <g transform="translate(381.4576 107.041757)scale(0.1 -0.1)">
       <use xlink:href="#DejaVuSans-2212"/>
       <use x="83.789062" xlink:href="#DejaVuSans-36"/>
       <use x="147.412109" xlink:href="#DejaVuSans-2e"/>
       <use x="179.199219" xlink:href="#DejaVuSans-30"/>
      </g>
     </g>
    </g>
    <g id="ytick_8">
     <g id="line2d_8">
      <g>
       <use style="stroke:#000000;stroke-width:0.8;" x="374.4576" xlink:href="#m6f3b82b0d8" y="70.838451"/>
      </g>
     </g>
     <g id="text_9">
      <!-- −5.5 -->
      <g transform="translate(381.4576 74.63767)scale(0.1 -0.1)">
       <use xlink:href="#DejaVuSans-2212"/>
       <use x="83.789062" xlink:href="#DejaVuSans-35"/>
       <use x="147.412109" xlink:href="#DejaVuSans-2e"/>
       <use x="179.199219" xlink:href="#DejaVuSans-35"/>
      </g>
     </g>
    </g>
    <g id="text_10">
     <!-- Energy [eV] -->
     <defs>
      <path d="M 54.890625 33.015625 
L 54.890625 0 
L 45.90625 0 
L 45.90625 32.71875 
Q 45.90625 40.484375 42.875 44.328125 
Q 39.84375 48.1875 33.796875 48.1875 
Q 26.515625 48.1875 22.3125 43.546875 
Q 18.109375 38.921875 18.109375 30.90625 
L 18.109375 0 
L 9.078125 0 
L 9.078125 54.6875 
L 18.109375 54.6875 
L 18.109375 46.1875 
Q 21.34375 51.125 25.703125 53.5625 
Q 30.078125 56 35.796875 56 
Q 45.21875 56 50.046875 50.171875 
Q 54.890625 44.34375 54.890625 33.015625 
z
" id="DejaVuSans-6e"/>
      <path d="M 45.40625 27.984375 
Q 45.40625 37.75 41.375 43.109375 
Q 37.359375 48.484375 30.078125 48.484375 
Q 22.859375 48.484375 18.828125 43.109375 
Q 14.796875 37.75 14.796875 27.984375 
Q 14.796875 18.265625 18.828125 12.890625 
Q 22.859375 7.515625 30.078125 7.515625 
Q 37.359375 7.515625 41.375 12.890625 
Q 45.40625 18.265625 45.40625 27.984375 
z
M 54.390625 6.78125 
Q 54.390625 -7.171875 48.1875 -13.984375 
Q 42 -20.796875 29.203125 -20.796875 
Q 24.46875 -20.796875 20.265625 -20.09375 
Q 16.0625 -19.390625 12.109375 -17.921875 
L 12.109375 -9.1875 
Q 16.0625 -11.328125 19.921875 -12.34375 
Q 23.78125 -13.375 27.78125 -13.375 
Q 36.625 -13.375 41.015625 -8.765625 
Q 45.40625 -4.15625 45.40625 5.171875 
L 45.40625 9.625 
Q 42.625 4.78125 38.28125 2.390625 
Q 33.9375 0 27.875 0 
Q 17.828125 0 11.671875 7.65625 
Q 5.515625 15.328125 5.515625 27.984375 
Q 5.515625 40.671875 11.671875 48.328125 
Q 17.828125 56 27.875 56 
Q 33.9375 56 38.28125 53.609375 
Q 42.625 51.21875 45.40625 46.390625 
L 45.40625 54.6875 
L 54.390625 54.6875 
z
" id="DejaVuSans-67"/>
      <path d="M 32.171875 -5.078125 
Q 28.375 -14.84375 24.75 -17.8125 
Q 21.140625 -20.796875 15.09375 -20.796875 
L 7.90625 -20.796875 
L 7.90625 -13.28125 
L 13.1875 -13.28125 
Q 16.890625 -13.28125 18.9375 -11.515625 
Q 21 -9.765625 23.484375 -3.21875 
L 25.09375 0.875 
L 2.984375 54.6875 
L 12.5 54.6875 
L 29.59375 11.921875 
L 46.6875 54.6875 
L 56.203125 54.6875 
z
" id="DejaVuSans-79"/>
      <path d="M 8.59375 75.984375 
L 29.296875 75.984375 
L 29.296875 69 
L 17.578125 69 
L 17.578125 -6.203125 
L 29.296875 -6.203125 
L 29.296875 -13.1875 
L 8.59375 -13.1875 
z
" id="DejaVuSans-5b"/>
      <path d="M 30.421875 75.984375 
L 30.421875 -13.1875 
L 9.71875 -13.1875 
L 9.71875 -6.203125 
L 21.390625 -6.203125 
L 21.390625 69 
L 9.71875 69 
L 9.71875 75.984375 
z
" id="DejaVuSans-5d"/>
     </defs>
     <g transform="translate(417.33885 204.108469)rotate(-90)scale(0.1 -0.1)">
      <use xlink:href="#DejaVuSans-45"/>
      <use x="63.183594" xlink:href="#DejaVuSans-6e"/>
      <use x="126.5625" xlink:href="#DejaVuSans-65"/>
      <use x="188.085938" xlink:href="#DejaVuSans-72"/>
      <use x="229.183594" xlink:href="#DejaVuSans-67"/>
      <use x="292.660156" xlink:href="#DejaVuSans-79"/>
      <use x="351.839844" xlink:href="#DejaVuSans-20"/>
      <use x="383.626953" xlink:href="#DejaVuSans-5b"/>
      <use x="422.640625" xlink:href="#DejaVuSans-65"/>
      <use x="484.164062" xlink:href="#DejaVuSans-56"/>
      <use x="552.572266" xlink:href="#DejaVuSans-5d"/>
     </g>
    </g>
   </g>
   <g id="patch_3">
    <path d="M 361.152 307.584 
L 361.152 306.5445 
L 361.152 42.5115 
L 361.152 41.472 
L 374.4576 41.472 
L 374.4576 42.5115 
L 374.4576 306.5445 
L 374.4576 307.584 
z
" style="fill:none;stroke:#000000;stroke-linejoin:miter;stroke-width:0.8;"/>
   </g>
  </g>
 </g>
 <defs>
  <clipPath id="pb5f2c1b169">
   <rect height="266.112" width="285.696" x="57.6" y="41.472"/>
  </clipPath>
  <clipPath id="pff6c9e1888">
   <rect height="266.112" width="13.3056" x="361.152" y="41.472"/>
  </clipPath>
 </defs>
</svg>
