<?xml version="1.0" encoding="utf-8" standalone="no"?>
<!DOCTYPE svg PUBLIC "-//W3C//DTD SVG 1.1//EN"
  "http://www.w3.org/Graphics/SVG/1.1/DTD/svg11.dtd">
<!-- Created with matplotlib (http://matplotlib.org/) -->
<svg height="345.6pt" version="1.1" viewBox="0 0 460.8 345.6" width="460.8pt" xmlns="http://www.w3.org/2000/svg" xmlns:xlink="http://www.w3.org/1999/xlink">
 <defs>
  <style type="text/css">
*{stroke-linecap:butt;stroke-linejoin:round;}
  </style>
 </defs>
 <g id="figure_1">
  <g id="patch_1">
   <path d="M 0 345.6 
L 460.8 345.6 
L 460.8 0 
L 0 0 
z
" style="fill:#ffffff;"/>
  </g>
  <g id="axes_1">
   <g id="CircleCollection_1">
    <path clip-path="url(#p8ecef6cbf5)" d="M 194.790891 61.945144 
C 196.562736 61.945144 198.262249 61.241182 199.515133 59.988299 
C 200.768017 58.735415 201.471978 57.035902 201.471978 55.264057 
C 201.471978 53.492212 200.768017 51.792699 199.515133 50.539815 
C 198.262249 49.286931 196.562736 48.58297 194.790891 48.58297 
C 193.019046 48.58297 191.319533 49.286931 190.066649 50.539815 
C 188.813766 51.792699 188.109804 53.492212 188.109804 55.264057 
C 188.109804 57.035902 188.813766 58.735415 190.066649 59.988299 
C 191.319533 61.241182 193.019046 61.945144 194.790891 61.945144 
z
" style="fill:#450457;"/>
    <path clip-path="url(#p8ecef6cbf5)" d="M 247.954696 73.949654 
C 249.726509 73.949654 251.425991 73.245705 252.678851 71.992845 
C 253.931712 70.739984 254.63566 69.040502 254.63566 67.26869 
C 254.63566 65.496877 253.931712 63.797395 252.678851 62.544535 
C 251.425991 61.291674 249.726509 60.587726 247.954696 60.587726 
C 246.182884 60.587726 244.483402 61.291674 243.230541 62.544535 
C 241.977681 63.797395 241.273732 65.496877 241.273732 67.26869 
C 241.273732 69.040502 241.977681 70.739984 243.230541 71.992845 
C 244.483402 73.245705 246.182884 73.949654 247.954696 73.949654 
z
" style="fill:#443b84;"/>
    <path clip-path="url(#p8ecef6cbf5)" d="M 301.492406 164.273208 
C 303.256732 164.273208 304.949033 163.572233 306.1966 162.324666 
C 307.444167 161.077099 308.145141 159.384798 308.145141 157.620472 
C 308.145141 155.856145 307.444167 154.163844 306.1966 152.916277 
C 304.949033 151.66871 303.256732 150.967736 301.492406 150.967736 
C 299.728079 150.967736 298.035778 151.66871 296.788211 152.916277 
C 295.540644 154.163844 294.83967 155.856145 294.83967 157.620472 
C 294.83967 159.384798 295.540644 161.077099 296.788211 162.324666 
C 298.035778 163.572233 299.728079 164.273208 301.492406 164.273208 
z
" style="fill:#f8e621;"/>
    <path clip-path="url(#p8ecef6cbf5)" d="M 263.704488 116.885364 
C 265.475204 116.885364 267.173635 116.181851 268.42572 114.929765 
C 269.677806 113.67768 270.381319 111.979249 270.381319 110.208533 
C 270.381319 108.437816 269.677806 106.739386 268.42572 105.4873 
C 267.173635 104.235215 265.475204 103.531701 263.704488 103.531701 
C 261.933771 103.531701 260.235341 104.235215 258.983255 105.4873 
C 257.73117 106.739386 257.027656 108.437816 257.027656 110.208533 
C 257.027656 111.979249 257.73117 113.67768 258.983255 114.929765 
C 260.235341 116.181851 261.933771 116.885364 263.704488 116.885364 
z
" style="fill:#2d718e;"/>
    <path clip-path="url(#p8ecef6cbf5)" d="M 228.430259 74.865811 
C 230.201186 74.865811 231.899819 74.162214 233.152053 72.90998 
C 234.404288 71.657745 235.107885 69.959113 235.107885 68.188186 
C 235.107885 66.417259 234.404288 64.718626 233.152053 63.466391 
C 231.899819 62.214157 230.201186 61.51056 228.430259 61.51056 
C 226.659332 61.51056 224.960699 62.214157 223.708465 63.466391 
C 222.456231 64.718626 221.752634 66.417259 221.752634 68.188186 
C 221.752634 69.959113 222.456231 71.657745 223.708465 72.90998 
C 224.960699 74.162214 226.659332 74.865811 228.430259 74.865811 
z
" style="fill:#471164;"/>
    <path clip-path="url(#p8ecef6cbf5)" d="M 326.127768 278.284212 
C 327.867958 278.284212 329.537108 277.592827 330.767608 276.362327 
C 331.998108 275.131827 332.689493 273.462677 332.689493 271.722487 
C 332.689493 269.982297 331.998108 268.313147 330.767608 267.082647 
C 329.537108 265.852147 327.867958 265.160762 326.127768 265.160762 
C 324.387578 265.160762 322.718428 265.852147 321.487928 267.082647 
C 320.257428 268.313147 319.566043 269.982297 319.566043 271.722487 
C 319.566043 273.462677 320.257428 275.131827 321.487928 276.362327 
C 322.718428 277.592827 324.387578 278.284212 326.127768 278.284212 
z
" style="fill:#471365;"/>
    <path clip-path="url(#p8ecef6cbf5)" d="M 177.00131 60.579707 
C 178.773301 60.579707 180.472955 59.875687 181.725943 58.6227 
C 182.97893 57.369712 183.68295 55.670058 183.68295 53.898066 
C 183.68295 52.126075 182.97893 50.426421 181.725943 49.173433 
C 180.472955 47.920446 178.773301 47.216426 177.00131 47.216426 
C 175.229318 47.216426 173.529664 47.920446 172.276676 49.173433 
C 171.023689 50.426421 170.319669 52.126075 170.319669 53.898066 
C 170.319669 55.670058 171.023689 57.369712 172.276676 58.6227 
C 173.529664 59.875687 175.229318 60.579707 177.00131 60.579707 
z
" style="fill:#460b5e;"/>
    <path clip-path="url(#p8ecef6cbf5)" d="M 84.586039 126.018068 
C 86.344304 126.018068 88.030792 125.319502 89.274074 124.076221 
C 90.517355 122.832939 91.215921 121.146452 91.215921 119.388186 
C 91.215921 117.629921 90.517355 115.943433 89.274074 114.700152 
C 88.030792 113.456871 86.344304 112.758305 84.586039 112.758305 
C 82.827774 112.758305 81.141286 113.456871 79.898005 114.700152 
C 78.654724 115.943433 77.956158 117.629921 77.956158 119.388186 
C 77.956158 121.146452 78.654724 122.832939 79.898005 124.076221 
C 81.141286 125.319502 82.827774 126.018068 84.586039 126.018068 
z
" style="fill:#481b6d;"/>
    <path clip-path="url(#p8ecef6cbf5)" d="M 98.87861 111.539367 
C 100.640336 111.539367 102.330144 110.839426 103.575873 109.593697 
C 104.821602 108.347968 105.521544 106.65816 105.521544 104.896433 
C 105.521544 103.134707 104.821602 101.444899 103.575873 100.19917 
C 102.330144 98.953441 100.640336 98.253499 98.87861 98.253499 
C 97.116883 98.253499 95.427075 98.953441 94.181346 100.19917 
C 92.935617 101.444899 92.235676 103.134707 92.235676 104.896433 
C 92.235676 106.65816 92.935617 108.347968 94.181346 109.593697 
C 95.427075 110.839426 97.116883 111.539367 98.87861 111.539367 
z
" style="fill:#46085c;"/>
    <path clip-path="url(#p8ecef6cbf5)" d="M 313.326324 209.367986 
C 315.080429 209.367986 316.762926 208.671073 318.003266 207.430733 
C 319.243606 206.190394 319.940519 204.507896 319.940519 202.753791 
C 319.940519 200.999686 319.243606 199.317188 318.003266 198.076849 
C 316.762926 196.836509 315.080429 196.139596 313.326324 196.139596 
C 311.572218 196.139596 309.889721 196.836509 308.649381 198.076849 
C 307.409042 199.317188 306.712128 200.999686 306.712128 202.753791 
C 306.712128 204.507896 307.409042 206.190394 308.649381 207.430733 
C 309.889721 208.671073 311.572218 209.367986 313.326324 209.367986 
z
" style="fill:#460a5d;"/>
    <path clip-path="url(#p8ecef6cbf5)" d="M 266.109576 77.09374 
C 267.881709 77.09374 269.581499 76.389664 270.834586 75.136576 
C 272.087673 73.883489 272.791749 72.183699 272.791749 70.411566 
C 272.791749 68.639433 272.087673 66.939643 270.834586 65.686556 
C 269.581499 64.433468 267.881709 63.729392 266.109576 63.729392 
C 264.337443 63.729392 262.637653 64.433468 261.384566 65.686556 
C 260.131478 66.939643 259.427402 68.639433 259.427402 70.411566 
C 259.427402 72.183699 260.131478 73.883489 261.384566 75.136576 
C 262.637653 76.389664 264.337443 77.09374 266.109576 77.09374 
z
" style="fill:#355f8d;"/>
    <path clip-path="url(#p8ecef6cbf5)" d="M 330.130615 301.713797 
C 331.867517 301.713797 333.533513 301.023719 334.761689 299.795544 
C 335.989864 298.567368 336.679942 296.901372 336.679942 295.16447 
C 336.679942 293.427568 335.989864 291.761571 334.761689 290.533396 
C 333.533513 289.305221 331.867517 288.615142 330.130615 288.615142 
C 328.393713 288.615142 326.727716 289.305221 325.499541 290.533396 
C 324.271366 291.761571 323.581287 293.427568 323.581287 295.16447 
C 323.581287 296.901372 324.271366 298.567368 325.499541 299.795544 
C 326.727716 301.023719 328.393713 301.713797 330.130615 301.713797 
z
" style="fill:#fde725;"/>
    <path clip-path="url(#p8ecef6cbf5)" d="M 322.07512 255.045983 
C 323.819469 255.045983 325.492608 254.352946 326.726048 253.119506 
C 327.959489 251.886065 328.652525 250.212926 328.652525 248.468578 
C 328.652525 246.72423 327.959489 245.051091 326.726048 243.817651 
C 325.492608 242.58421 323.819469 241.891173 322.07512 241.891173 
C 320.330772 241.891173 318.657633 242.58421 317.424193 243.817651 
C 316.190752 245.051091 315.497715 246.72423 315.497715 248.468578 
C 315.497715 250.212926 316.190752 251.886065 317.424193 253.119506 
C 318.657633 254.352946 320.330772 255.045983 322.07512 255.045983 
z
" style="fill:#46085c;"/>
    <path clip-path="url(#p8ecef6cbf5)" d="M 159.993789 65.83016 
C 161.765149 65.83016 163.464198 65.126391 164.716739 63.87385 
C 165.96928 62.621309 166.673049 60.92226 166.673049 59.1509 
C 166.673049 57.379539 165.96928 55.680491 164.716739 54.42795 
C 163.464198 53.175409 161.765149 52.47164 159.993789 52.47164 
C 158.222428 52.47164 156.52338 53.175409 155.270839 54.42795 
C 154.018298 55.680491 153.314529 57.379539 153.314529 59.1509 
C 153.314529 60.92226 154.018298 62.621309 155.270839 63.87385 
C 156.52338 65.126391 158.222428 65.83016 159.993789 65.83016 
z
" style="fill:#46075a;"/>
    <path clip-path="url(#p8ecef6cbf5)" d="M 70.767242 141.108296 
C 72.522141 141.108296 74.205401 140.411067 75.446302 139.170166 
C 76.687203 137.929265 77.384432 136.246005 77.384432 134.491106 
C 77.384432 132.736207 76.687203 131.052948 75.446302 129.812047 
C 74.205401 128.571146 72.522141 127.873917 70.767242 127.873917 
C 69.012343 127.873917 67.329084 128.571146 66.088183 129.812047 
C 64.847281 131.052948 64.150053 132.736207 64.150053 134.491106 
C 64.150053 136.246005 64.847281 137.929265 66.088183 139.170166 
C 67.329084 140.411067 69.012343 141.108296 70.767242 141.108296 
z
" style="fill:#f4e61e;"/>
    <path clip-path="url(#p8ecef6cbf5)" d="M 237.756366 98.155069 
C 239.526868 98.155069 241.225092 97.451641 242.477026 96.199708 
C 243.728959 94.947774 244.432387 93.24955 244.432387 91.479049 
C 244.432387 89.708547 243.728959 88.010323 242.477026 86.758389 
C 241.225092 85.506456 239.526868 84.803028 237.756366 84.803028 
C 235.985865 84.803028 234.287641 85.506456 233.035707 86.758389 
C 231.783774 88.010323 231.080346 89.708547 231.080346 91.479049 
C 231.080346 93.24955 231.783774 94.947774 233.035707 96.199708 
C 234.287641 97.451641 235.985865 98.155069 237.756366 98.155069 
z
" style="fill:#3e4a89;"/>
    <path clip-path="url(#p8ecef6cbf5)" d="M 308.197366 186.464188 
C 309.956424 186.464188 311.643672 185.765307 312.887514 184.521465 
C 314.131356 183.277623 314.830237 181.590375 314.830237 179.831317 
C 314.830237 178.072259 314.131356 176.38501 312.887514 175.141168 
C 311.643672 173.897326 309.956424 173.198445 308.197366 173.198445 
C 306.438307 173.198445 304.751059 173.897326 303.507217 175.141168 
C 302.263375 176.38501 301.564494 178.072259 301.564494 179.831317 
C 301.564494 181.590375 302.263375 183.277623 303.507217 184.521465 
C 304.751059 185.765307 306.438307 186.464188 308.197366 186.464188 
z
" style="fill:#481467;"/>
    <path clip-path="url(#p8ecef6cbf5)" d="M 245.871072 120.730743 
C 247.64068 120.730743 249.338048 120.02767 250.58935 118.776368 
C 251.840651 117.525067 252.543724 115.827699 252.543724 114.058091 
C 252.543724 112.288483 251.840651 110.591115 250.58935 109.339813 
C 249.338048 108.088511 247.64068 107.385438 245.871072 107.385438 
C 244.101464 107.385438 242.404096 108.088511 241.152794 109.339813 
C 239.901492 110.591115 239.19842 112.288483 239.19842 114.058091 
C 239.19842 115.827699 239.901492 117.525067 241.152794 118.776368 
C 242.404096 120.02767 244.101464 120.730743 245.871072 120.730743 
z
" style="fill:#34608d;"/>
    <path clip-path="url(#p8ecef6cbf5)" d="M 317.978575 232.083078 
C 319.727489 232.083078 321.405007 231.388228 322.641676 230.151559 
C 323.878345 228.91489 324.573196 227.237371 324.573196 225.488457 
C 324.573196 223.739543 323.878345 222.062025 322.641676 220.825356 
C 321.405007 219.588687 319.727489 218.893836 317.978575 218.893836 
C 316.229661 218.893836 314.552142 219.588687 313.315473 220.825356 
C 312.078805 222.062025 311.383954 223.739543 311.383954 225.488457 
C 311.383954 227.237371 312.078805 228.91489 313.315473 230.151559 
C 314.552142 231.388228 316.229661 232.083078 317.978575 232.083078 
z
" style="fill:#440154;"/>
    <path clip-path="url(#p8ecef6cbf5)" d="M 275.133043 98.18523 
C 276.904914 98.18523 278.604452 97.481258 279.857354 96.228357 
C 281.110256 94.975455 281.814227 93.275917 281.814227 91.504046 
C 281.814227 89.732175 281.110256 88.032637 279.857354 86.779736 
C 278.604452 85.526834 276.904914 84.822862 275.133043 84.822862 
C 273.361173 84.822862 271.661635 85.526834 270.408733 86.779736 
C 269.155831 88.032637 268.451859 89.732175 268.451859 91.504046 
C 268.451859 93.275917 269.155831 94.975455 270.408733 96.228357 
C 271.661635 97.481258 273.361173 98.18523 275.133043 98.18523 
z
" style="fill:#404588;"/>
    <path clip-path="url(#p8ecef6cbf5)" d="M 112.889185 97.539916 
C 114.654062 97.539916 116.346891 96.838723 117.594847 95.590767 
C 118.842803 94.342811 119.543995 92.649982 119.543995 90.885106 
C 119.543995 89.12023 118.842803 87.427401 117.594847 86.179445 
C 116.346891 84.931489 114.654062 84.230296 112.889185 84.230296 
C 111.124309 84.230296 109.43148 84.931489 108.183524 86.179445 
C 106.935568 87.427401 106.234376 89.12023 106.234376 90.885106 
C 106.234376 92.649982 106.935568 94.342811 108.183524 95.590767 
C 109.43148 96.838723 111.124309 97.539916 112.889185 97.539916 
z
" style="fill:#450457;"/>
    <path clip-path="url(#p8ecef6cbf5)" d="M 143.159118 73.377071 
C 144.929612 73.377071 146.627829 72.673647 147.879757 71.421719 
C 149.131685 70.169791 149.835109 68.471574 149.835109 66.70108 
C 149.835109 64.930587 149.131685 63.23237 147.879757 61.980442 
C 146.627829 60.728514 144.929612 60.025089 143.159118 60.025089 
C 141.388625 60.025089 139.690408 60.728514 138.43848 61.980442 
C 137.186552 63.23237 136.483127 64.930587 136.483127 66.70108 
C 136.483127 68.471574 137.186552 70.169791 138.43848 71.421719 
C 139.690408 72.673647 141.388625 73.377071 143.159118 73.377071 
z
" style="fill:#46085c;"/>
    <path clip-path="url(#p8ecef6cbf5)" d="M 212.121003 63.66477 
C 213.892342 63.66477 215.59137 62.961009 216.843895 61.708484 
C 218.096421 60.455958 218.800181 58.756931 218.800181 56.985592 
C 218.800181 55.214253 218.096421 53.515226 216.843895 52.2627 
C 215.59137 51.010174 213.892342 50.306414 212.121003 50.306414 
C 210.349665 50.306414 208.650637 51.010174 207.398112 52.2627 
C 206.145586 53.515226 205.441826 55.214253 205.441826 56.985592 
C 205.441826 58.756931 206.145586 60.455958 207.398112 61.708484 
C 208.650637 62.961009 210.349665 63.66477 212.121003 63.66477 
z
" style="fill:#482173;"/>
    <path clip-path="url(#p8ecef6cbf5)" d="M 127.924408 84.880725 
C 129.692353 84.880725 131.388126 84.178313 132.638251 82.928187 
C 133.888377 81.678061 134.590789 79.982289 134.590789 78.214344 
C 134.590789 76.446399 133.888377 74.750627 132.638251 73.500501 
C 131.388126 72.250375 129.692353 71.547963 127.924408 71.547963 
C 126.156463 71.547963 124.460691 72.250375 123.210565 73.500501 
C 121.960439 74.750627 121.258027 76.446399 121.258027 78.214344 
C 121.258027 79.982289 121.960439 81.678061 123.210565 82.928187 
C 124.460691 84.178313 126.156463 84.880725 127.924408 84.880725 
z
" style="fill:#46075a;"/>
   </g>
   <g id="text_1">
    <!-- Structure #1377, $E_N$=-174.25eV, ΔE=-0.05eV -->
    <defs>
     <path d="M 53.515625 70.515625 
L 53.515625 60.890625 
Q 47.90625 63.578125 42.921875 64.890625 
Q 37.9375 66.21875 33.296875 66.21875 
Q 25.25 66.21875 20.875 63.09375 
Q 16.5 59.96875 16.5 54.203125 
Q 16.5 49.359375 19.40625 46.890625 
Q 22.3125 44.4375 30.421875 42.921875 
L 36.375 41.703125 
Q 47.40625 39.59375 52.65625 34.296875 
Q 57.90625 29 57.90625 20.125 
Q 57.90625 9.515625 50.796875 4.046875 
Q 43.703125 -1.421875 29.984375 -1.421875 
Q 24.8125 -1.421875 18.96875 -0.25 
Q 13.140625 0.921875 6.890625 3.21875 
L 6.890625 13.375 
Q 12.890625 10.015625 18.65625 8.296875 
Q 24.421875 6.59375 29.984375 6.59375 
Q 38.421875 6.59375 43.015625 9.90625 
Q 47.609375 13.234375 47.609375 19.390625 
Q 47.609375 24.75 44.3125 27.78125 
Q 41.015625 30.8125 33.5 32.328125 
L 27.484375 33.5 
Q 16.453125 35.6875 11.515625 40.375 
Q 6.59375 45.0625 6.59375 53.421875 
Q 6.59375 63.09375 13.40625 68.65625 
Q 20.21875 74.21875 32.171875 74.21875 
Q 37.3125 74.21875 42.625 73.28125 
Q 47.953125 72.359375 53.515625 70.515625 
z
" id="DejaVuSans-53"/>
     <path d="M 18.3125 70.21875 
L 18.3125 54.6875 
L 36.8125 54.6875 
L 36.8125 47.703125 
L 18.3125 47.703125 
L 18.3125 18.015625 
Q 18.3125 11.328125 20.140625 9.421875 
Q 21.96875 7.515625 27.59375 7.515625 
L 36.8125 7.515625 
L 36.8125 0 
L 27.59375 0 
Q 17.1875 0 13.234375 3.875 
Q 9.28125 7.765625 9.28125 18.015625 
L 9.28125 47.703125 
L 2.6875 47.703125 
L 2.6875 54.6875 
L 9.28125 54.6875 
L 9.28125 70.21875 
z
" id="DejaVuSans-74"/>
     <path d="M 41.109375 46.296875 
Q 39.59375 47.171875 37.8125 47.578125 
Q 36.03125 48 33.890625 48 
Q 26.265625 48 22.1875 43.046875 
Q 18.109375 38.09375 18.109375 28.8125 
L 18.109375 0 
L 9.078125 0 
L 9.078125 54.6875 
L 18.109375 54.6875 
L 18.109375 46.1875 
Q 20.953125 51.171875 25.484375 53.578125 
Q 30.03125 56 36.53125 56 
Q 37.453125 56 38.578125 55.875 
Q 39.703125 55.765625 41.0625 55.515625 
z
" id="DejaVuSans-72"/>
     <path d="M 8.5 21.578125 
L 8.5 54.6875 
L 17.484375 54.6875 
L 17.484375 21.921875 
Q 17.484375 14.15625 20.5 10.265625 
Q 23.53125 6.390625 29.59375 6.390625 
Q 36.859375 6.390625 41.078125 11.03125 
Q 45.3125 15.671875 45.3125 23.6875 
L 45.3125 54.6875 
L 54.296875 54.6875 
L 54.296875 0 
L 45.3125 0 
L 45.3125 8.40625 
Q 42.046875 3.421875 37.71875 1 
Q 33.40625 -1.421875 27.6875 -1.421875 
Q 18.265625 -1.421875 13.375 4.4375 
Q 8.5 10.296875 8.5 21.578125 
z
M 31.109375 56 
z
" id="DejaVuSans-75"/>
     <path d="M 48.78125 52.59375 
L 48.78125 44.1875 
Q 44.96875 46.296875 41.140625 47.34375 
Q 37.3125 48.390625 33.40625 48.390625 
Q 24.65625 48.390625 19.8125 42.84375 
Q 14.984375 37.3125 14.984375 27.296875 
Q 14.984375 17.28125 19.8125 11.734375 
Q 24.65625 6.203125 33.40625 6.203125 
Q 37.3125 6.203125 41.140625 7.25 
Q 44.96875 8.296875 48.78125 10.40625 
L 48.78125 2.09375 
Q 45.015625 0.34375 40.984375 -0.53125 
Q 36.96875 -1.421875 32.421875 -1.421875 
Q 20.0625 -1.421875 12.78125 6.34375 
Q 5.515625 14.109375 5.515625 27.296875 
Q 5.515625 40.671875 12.859375 48.328125 
Q 20.21875 56 33.015625 56 
Q 37.15625 56 41.109375 55.140625 
Q 45.0625 54.296875 48.78125 52.59375 
z
" id="DejaVuSans-63"/>
     <path d="M 56.203125 29.59375 
L 56.203125 25.203125 
L 14.890625 25.203125 
Q 15.484375 15.921875 20.484375 11.0625 
Q 25.484375 6.203125 34.421875 6.203125 
Q 39.59375 6.203125 44.453125 7.46875 
Q 49.3125 8.734375 54.109375 11.28125 
L 54.109375 2.78125 
Q 49.265625 0.734375 44.1875 -0.34375 
Q 39.109375 -1.421875 33.890625 -1.421875 
Q 20.796875 -1.421875 13.15625 6.1875 
Q 5.515625 13.8125 5.515625 26.8125 
Q 5.515625 40.234375 12.765625 48.109375 
Q 20.015625 56 32.328125 56 
Q 43.359375 56 49.78125 48.890625 
Q 56.203125 41.796875 56.203125 29.59375 
z
M 47.21875 32.234375 
Q 47.125 39.59375 43.09375 43.984375 
Q 39.0625 48.390625 32.421875 48.390625 
Q 24.90625 48.390625 20.390625 44.140625 
Q 15.875 39.890625 15.1875 32.171875 
z
" id="DejaVuSans-65"/>
     <path id="DejaVuSans-20"/>
     <path d="M 51.125 44 
L 36.921875 44 
L 32.8125 27.6875 
L 47.125 27.6875 
z
M 43.796875 71.78125 
L 38.71875 51.515625 
L 52.984375 51.515625 
L 58.109375 71.78125 
L 65.921875 71.78125 
L 60.890625 51.515625 
L 76.125 51.515625 
L 76.125 44 
L 58.984375 44 
L 54.984375 27.6875 
L 70.515625 27.6875 
L 70.515625 20.21875 
L 53.078125 20.21875 
L 48 0 
L 40.1875 0 
L 45.21875 20.21875 
L 30.90625 20.21875 
L 25.875 0 
L 18.015625 0 
L 23.09375 20.21875 
L 7.71875 20.21875 
L 7.71875 27.6875 
L 24.90625 27.6875 
L 29 44 
L 13.28125 44 
L 13.28125 51.515625 
L 30.90625 51.515625 
L 35.890625 71.78125 
z
" id="DejaVuSans-23"/>
     <path d="M 12.40625 8.296875 
L 28.515625 8.296875 
L 28.515625 63.921875 
L 10.984375 60.40625 
L 10.984375 69.390625 
L 28.421875 72.90625 
L 38.28125 72.90625 
L 38.28125 8.296875 
L 54.390625 8.296875 
L 54.390625 0 
L 12.40625 0 
z
" id="DejaVuSans-31"/>
     <path d="M 40.578125 39.3125 
Q 47.65625 37.796875 51.625 33 
Q 55.609375 28.21875 55.609375 21.1875 
Q 55.609375 10.40625 48.1875 4.484375 
Q 40.765625 -1.421875 27.09375 -1.421875 
Q 22.515625 -1.421875 17.65625 -0.515625 
Q 12.796875 0.390625 7.625 2.203125 
L 7.625 11.71875 
Q 11.71875 9.328125 16.59375 8.109375 
Q 21.484375 6.890625 26.8125 6.890625 
Q 36.078125 6.890625 40.9375 10.546875 
Q 45.796875 14.203125 45.796875 21.1875 
Q 45.796875 27.640625 41.28125 31.265625 
Q 36.765625 34.90625 28.71875 34.90625 
L 20.21875 34.90625 
L 20.21875 43.015625 
L 29.109375 43.015625 
Q 36.375 43.015625 40.234375 45.921875 
Q 44.09375 48.828125 44.09375 54.296875 
Q 44.09375 59.90625 40.109375 62.90625 
Q 36.140625 65.921875 28.71875 65.921875 
Q 24.65625 65.921875 20.015625 65.03125 
Q 15.375 64.15625 9.8125 62.3125 
L 9.8125 71.09375 
Q 15.4375 72.65625 20.34375 73.4375 
Q 25.25 74.21875 29.59375 74.21875 
Q 40.828125 74.21875 47.359375 69.109375 
Q 53.90625 64.015625 53.90625 55.328125 
Q 53.90625 49.265625 50.4375 45.09375 
Q 46.96875 40.921875 40.578125 39.3125 
z
" id="DejaVuSans-33"/>
     <path d="M 8.203125 72.90625 
L 55.078125 72.90625 
L 55.078125 68.703125 
L 28.609375 0 
L 18.3125 0 
L 43.21875 64.59375 
L 8.203125 64.59375 
z
" id="DejaVuSans-37"/>
     <path d="M 11.71875 12.40625 
L 22.015625 12.40625 
L 22.015625 4 
L 14.015625 -11.625 
L 7.71875 -11.625 
L 11.71875 4 
z
" id="DejaVuSans-2c"/>
     <path d="M 16.890625 72.90625 
L 62.984375 72.90625 
L 61.375 64.59375 
L 25.09375 64.59375 
L 20.90625 43.015625 
L 55.71875 43.015625 
L 54.109375 34.71875 
L 19.28125 34.71875 
L 14.203125 8.296875 
L 51.3125 8.296875 
L 49.703125 0 
L 2.6875 0 
z
" id="DejaVuSans-Oblique-45"/>
     <path d="M 16.890625 72.90625 
L 30.171875 72.90625 
L 50.296875 10.40625 
L 62.5 72.90625 
L 72.125 72.90625 
L 57.90625 0 
L 44.578125 0 
L 24.515625 62.890625 
L 12.3125 0 
L 2.6875 0 
z
" id="DejaVuSans-Oblique-4e"/>
     <path d="M 10.59375 45.40625 
L 73.1875 45.40625 
L 73.1875 37.203125 
L 10.59375 37.203125 
z
M 10.59375 25.484375 
L 73.1875 25.484375 
L 73.1875 17.1875 
L 10.59375 17.1875 
z
" id="DejaVuSans-3d"/>
     <path d="M 4.890625 31.390625 
L 31.203125 31.390625 
L 31.203125 23.390625 
L 4.890625 23.390625 
z
" id="DejaVuSans-2d"/>
     <path d="M 37.796875 64.3125 
L 12.890625 25.390625 
L 37.796875 25.390625 
z
M 35.203125 72.90625 
L 47.609375 72.90625 
L 47.609375 25.390625 
L 58.015625 25.390625 
L 58.015625 17.1875 
L 47.609375 17.1875 
L 47.609375 0 
L 37.796875 0 
L 37.796875 17.1875 
L 4.890625 17.1875 
L 4.890625 26.703125 
z
" id="DejaVuSans-34"/>
     <path d="M 10.6875 12.40625 
L 21 12.40625 
L 21 0 
L 10.6875 0 
z
" id="DejaVuSans-2e"/>
     <path d="M 19.1875 8.296875 
L 53.609375 8.296875 
L 53.609375 0 
L 7.328125 0 
L 7.328125 8.296875 
Q 12.9375 14.109375 22.625 23.890625 
Q 32.328125 33.6875 34.8125 36.53125 
Q 39.546875 41.84375 41.421875 45.53125 
Q 43.3125 49.21875 43.3125 52.78125 
Q 43.3125 58.59375 39.234375 62.25 
Q 35.15625 65.921875 28.609375 65.921875 
Q 23.96875 65.921875 18.8125 64.3125 
Q 13.671875 62.703125 7.8125 59.421875 
L 7.8125 69.390625 
Q 13.765625 71.78125 18.9375 73 
Q 24.125 74.21875 28.421875 74.21875 
Q 39.75 74.21875 46.484375 68.546875 
Q 53.21875 62.890625 53.21875 53.421875 
Q 53.21875 48.921875 51.53125 44.890625 
Q 49.859375 40.875 45.40625 35.40625 
Q 44.1875 33.984375 37.640625 27.21875 
Q 31.109375 20.453125 19.1875 8.296875 
z
" id="DejaVuSans-32"/>
     <path d="M 10.796875 72.90625 
L 49.515625 72.90625 
L 49.515625 64.59375 
L 19.828125 64.59375 
L 19.828125 46.734375 
Q 21.96875 47.46875 24.109375 47.828125 
Q 26.265625 48.1875 28.421875 48.1875 
Q 40.625 48.1875 47.75 41.5 
Q 54.890625 34.8125 54.890625 23.390625 
Q 54.890625 11.625 47.5625 5.09375 
Q 40.234375 -1.421875 26.90625 -1.421875 
Q 22.3125 -1.421875 17.546875 -0.640625 
Q 12.796875 0.140625 7.71875 1.703125 
L 7.71875 11.625 
Q 12.109375 9.234375 16.796875 8.0625 
Q 21.484375 6.890625 26.703125 6.890625 
Q 35.15625 6.890625 40.078125 11.328125 
Q 45.015625 15.765625 45.015625 23.390625 
Q 45.015625 31 40.078125 35.4375 
Q 35.15625 39.890625 26.703125 39.890625 
Q 22.75 39.890625 18.8125 39.015625 
Q 14.890625 38.140625 10.796875 36.28125 
z
" id="DejaVuSans-35"/>
     <path d="M 28.609375 0 
L 0.78125 72.90625 
L 11.078125 72.90625 
L 34.1875 11.53125 
L 57.328125 72.90625 
L 67.578125 72.90625 
L 39.796875 0 
z
" id="DejaVuSans-56"/>
     <path d="M 34.1875 63.1875 
L 14.15625 8.203125 
L 54.25 8.203125 
z
M 0.78125 0 
L 28.609375 72.90625 
L 39.796875 72.90625 
L 67.578125 0 
z
" id="DejaVuSans-394"/>
     <path d="M 9.8125 72.90625 
L 55.90625 72.90625 
L 55.90625 64.59375 
L 19.671875 64.59375 
L 19.671875 43.015625 
L 54.390625 43.015625 
L 54.390625 34.71875 
L 19.671875 34.71875 
L 19.671875 8.296875 
L 56.78125 8.296875 
L 56.78125 0 
L 9.8125 0 
z
" id="DejaVuSans-45"/>
     <path d="M 31.78125 66.40625 
Q 24.171875 66.40625 20.328125 58.90625 
Q 16.5 51.421875 16.5 36.375 
Q 16.5 21.390625 20.328125 13.890625 
Q 24.171875 6.390625 31.78125 6.390625 
Q 39.453125 6.390625 43.28125 13.890625 
Q 47.125 21.390625 47.125 36.375 
Q 47.125 51.421875 43.28125 58.90625 
Q 39.453125 66.40625 31.78125 66.40625 
z
M 31.78125 74.21875 
Q 44.046875 74.21875 50.515625 64.515625 
Q 56.984375 54.828125 56.984375 36.375 
Q 56.984375 17.96875 50.515625 8.265625 
Q 44.046875 -1.421875 31.78125 -1.421875 
Q 19.53125 -1.421875 13.0625 8.265625 
Q 6.59375 17.96875 6.59375 36.375 
Q 6.59375 54.828125 13.0625 64.515625 
Q 19.53125 74.21875 31.78125 74.21875 
z
" id="DejaVuSans-30"/>
    </defs>
    <g transform="translate(63.228 35.472)scale(0.12 -0.12)">
     <use transform="translate(0 0.78125)" xlink:href="#DejaVuSans-53"/>
     <use transform="translate(63.476562 0.78125)" xlink:href="#DejaVuSans-74"/>
     <use transform="translate(102.685547 0.78125)" xlink:href="#DejaVuSans-72"/>
     <use transform="translate(143.798828 0.78125)" xlink:href="#DejaVuSans-75"/>
     <use transform="translate(207.177734 0.78125)" xlink:href="#DejaVuSans-63"/>
     <use transform="translate(262.158203 0.78125)" xlink:href="#DejaVuSans-74"/>
     <use transform="translate(301.367188 0.78125)" xlink:href="#DejaVuSans-75"/>
     <use transform="translate(364.746094 0.78125)" xlink:href="#DejaVuSans-72"/>
     <use transform="translate(405.859375 0.78125)" xlink:href="#DejaVuSans-65"/>
     <use transform="translate(467.382812 0.78125)" xlink:href="#DejaVuSans-20"/>
     <use transform="translate(499.169922 0.78125)" xlink:href="#DejaVuSans-23"/>
     <use transform="translate(582.958984 0.78125)" xlink:href="#DejaVuSans-31"/>
     <use transform="translate(646.582031 0.78125)" xlink:href="#DejaVuSans-33"/>
     <use transform="translate(710.205078 0.78125)" xlink:href="#DejaVuSans-37"/>
     <use transform="translate(773.8125 0.78125)" xlink:href="#DejaVuSans-37"/>
     <use transform="translate(837.435547 0.78125)" xlink:href="#DejaVuSans-2c"/>
     <use transform="translate(869.222656 0.78125)" xlink:href="#DejaVuSans-20"/>
     <use transform="translate(901.009766 0.78125)" xlink:href="#DejaVuSans-Oblique-45"/>
     <use transform="translate(964.193359 -15.625)scale(0.7)" xlink:href="#DejaVuSans-Oblique-4e"/>
     <use transform="translate(1019.291016 0.78125)" xlink:href="#DejaVuSans-3d"/>
     <use transform="translate(1103.080078 0.78125)" xlink:href="#DejaVuSans-2d"/>
     <use transform="translate(1139.164062 0.78125)" xlink:href="#DejaVuSans-31"/>
     <use transform="translate(1202.787109 0.78125)" xlink:href="#DejaVuSans-37"/>
     <use transform="translate(1266.410156 0.78125)" xlink:href="#DejaVuSans-34"/>
     <use transform="translate(1330.033203 0.78125)" xlink:href="#DejaVuSans-2e"/>
     <use transform="translate(1361.742188 0.78125)" xlink:href="#DejaVuSans-32"/>
     <use transform="translate(1425.365234 0.78125)" xlink:href="#DejaVuSans-35"/>
     <use transform="translate(1488.988281 0.78125)" xlink:href="#DejaVuSans-65"/>
     <use transform="translate(1550.511719 0.78125)" xlink:href="#DejaVuSans-56"/>
     <use transform="translate(1618.919922 0.78125)" xlink:href="#DejaVuSans-2c"/>
     <use transform="translate(1650.707031 0.78125)" xlink:href="#DejaVuSans-20"/>
     <use transform="translate(1682.494141 0.78125)" xlink:href="#DejaVuSans-394"/>
     <use transform="translate(1750.902344 0.78125)" xlink:href="#DejaVuSans-45"/>
     <use transform="translate(1814.085938 0.78125)" xlink:href="#DejaVuSans-3d"/>
     <use transform="translate(1897.875 0.78125)" xlink:href="#DejaVuSans-2d"/>
     <use transform="translate(1933.958984 0.78125)" xlink:href="#DejaVuSans-30"/>
     <use transform="translate(1997.582031 0.78125)" xlink:href="#DejaVuSans-2e"/>
     <use transform="translate(2029.369141 0.78125)" xlink:href="#DejaVuSans-30"/>
     <use transform="translate(2092.992188 0.78125)" xlink:href="#DejaVuSans-35"/>
     <use transform="translate(2156.615234 0.78125)" xlink:href="#DejaVuSans-65"/>
     <use transform="translate(2218.138672 0.78125)" xlink:href="#DejaVuSans-56"/>
    </g>
   </g>
  </g>
  <g id="axes_2">
   <g id="patch_2">
    <path clip-path="url(#pe198788f16)" d="M 361.152 307.584 
L 361.152 306.5445 
L 361.152 42.5115 
L 361.152 41.472 
L 374.4576 41.472 
L 374.4576 42.5115 
L 374.4576 306.5445 
L 374.4576 307.584 
z
" style="fill:#ffffff;stroke:#ffffff;stroke-linejoin:miter;stroke-width:0.01;"/>
   </g>
   <image height="265.68" id="imagebb1d1555a4" transform="scale(1 -1)translate(0 -265.68)" width="12.96" x="361.44" xlink:href="data:image/png;base64,
iVBORw0KGgoAAAANSUhEUgAAABIAAAFxCAYAAAB+2fgXAAAABHNCSVQICAgIfAhkiAAAAeVJREFUeJztncmNw0AQA2ckheYQNv9QLIfQ8ygsCgQ7AEI8+jAs2Puz/94F1LP2ReCsZ18bAWIeZ5XaGRBE7VnbptG+KI101FYyNSiQG2oRITXKNaX9uclOdi2XWjftVE32CZCO2ou5Bj1TcCBr/1zB9ge7Fq0Rg2NM9pvbtG+ua1QgsRYhDy0ISEiNc40BEibbSI0Coj5CBGtkpFbXJiAjNZlrwhuSOv2M1DjXbEdEciBt1JSDDQKKpmZr2rr2j0DBGpXaWEJq3bQzEPIS26r9J+Wzv9Tm8o3aajRXqc3VUXsApKNWjeZq0x4ABVNbm7lrszVigDqP5vIl2+eaT2yfRkL7g+dRcNPqjohkjaCvRVBq0H2U3LQrOJCx9kdTg4B8oxZzzTdqdYHEngjUCAPyUctN9sVRq2sTECW2UKNLd2jVtRmo1A6AhMmWaSRcR8nUdIHUuVb75zJS218EyEitro1At69pIdeSk30Lkw0FktNImGyZRhy1O5galmxd03LUsHWk06jUZiCq+5Wb1kZNN4+wJxJuWt8RAW5am2sYNZ9rYCBzZ3buPKJ2P5Yj4Toy3keyIyJbIxs1rml1byCA84gpch5RQNB7Q0qNMGq2Hy4BXdNR41yz/cEEJfZzUz96r9PoB0okjeQ8y9TkAAAAAElFTkSuQmCC" y="-41.76"/>
   <g id="matplotlib.axis_1"/>
   <g id="matplotlib.axis_2">
    <g id="ytick_1">
     <g id="line2d_1">
      <defs>
       <path d="M 0 0 
L 3.5 0 
" id="m48ffc956c3" style="stroke:#000000;stroke-width:0.8;"/>
      </defs>
      <g>
       <use style="stroke:#000000;stroke-width:0.8;" x="374.4576" xlink:href="#m48ffc956c3" y="274.033261"/>
      </g>
     </g>
     <g id="text_2">
      <!-- −7.5 -->
      <defs>
       <path d="M 10.59375 35.5 
L 73.1875 35.5 
L 73.1875 27.203125 
L 10.59375 27.203125 
z
" id="DejaVuSans-2212"/>
      </defs>
      <g transform="translate(381.4576 277.83248)scale(0.1 -0.1)">
       <use xlink:href="#DejaVuSans-2212"/>
       <use x="83.789062" xlink:href="#DejaVuSans-37"/>
       <use x="147.412109" xlink:href="#DejaVuSans-2e"/>
       <use x="179.199219" xlink:href="#DejaVuSans-35"/>
      </g>
     </g>
    </g>
    <g id="ytick_2">
     <g id="line2d_2">
      <g>
       <use style="stroke:#000000;stroke-width:0.8;" x="374.4576" xlink:href="#m48ffc956c3" y="227.692094"/>
      </g>
     </g>
     <g id="text_3">
      <!-- −7.0 -->
      <g transform="translate(381.4576 231.491313)scale(0.1 -0.1)">
       <use xlink:href="#DejaVuSans-2212"/>
       <use x="83.789062" xlink:href="#DejaVuSans-37"/>
       <use x="147.412109" xlink:href="#DejaVuSans-2e"/>
       <use x="179.199219" xlink:href="#DejaVuSans-30"/>
      </g>
     </g>
    </g>
    <g id="ytick_3">
     <g id="line2d_3">
      <g>
       <use style="stroke:#000000;stroke-width:0.8;" x="374.4576" xlink:href="#m48ffc956c3" y="181.350927"/>
      </g>
     </g>
     <g id="text_4">
      <!-- −6.5 -->
      <defs>
       <path d="M 33.015625 40.375 
Q 26.375 40.375 22.484375 35.828125 
Q 18.609375 31.296875 18.609375 23.390625 
Q 18.609375 15.53125 22.484375 10.953125 
Q 26.375 6.390625 33.015625 6.390625 
Q 39.65625 6.390625 43.53125 10.953125 
Q 47.40625 15.53125 47.40625 23.390625 
Q 47.40625 31.296875 43.53125 35.828125 
Q 39.65625 40.375 33.015625 40.375 
z
M 52.59375 71.296875 
L 52.59375 62.3125 
Q 48.875 64.0625 45.09375 64.984375 
Q 41.3125 65.921875 37.59375 65.921875 
Q 27.828125 65.921875 22.671875 59.328125 
Q 17.53125 52.734375 16.796875 39.40625 
Q 19.671875 43.65625 24.015625 45.921875 
Q 28.375 48.1875 33.59375 48.1875 
Q 44.578125 48.1875 50.953125 41.515625 
Q 57.328125 34.859375 57.328125 23.390625 
Q 57.328125 12.15625 50.6875 5.359375 
Q 44.046875 -1.421875 33.015625 -1.421875 
Q 20.359375 -1.421875 13.671875 8.265625 
Q 6.984375 17.96875 6.984375 36.375 
Q 6.984375 53.65625 15.1875 63.9375 
Q 23.390625 74.21875 37.203125 74.21875 
Q 40.921875 74.21875 44.703125 73.484375 
Q 48.484375 72.75 52.59375 71.296875 
z
" id="DejaVuSans-36"/>
      </defs>
      <g transform="translate(381.4576 185.150146)scale(0.1 -0.1)">
       <use xlink:href="#DejaVuSans-2212"/>
       <use x="83.789062" xlink:href="#DejaVuSans-36"/>
       <use x="147.412109" xlink:href="#DejaVuSans-2e"/>
       <use x="179.199219" xlink:href="#DejaVuSans-35"/>
      </g>
     </g>
    </g>
    <g id="ytick_4">
     <g id="line2d_4">
      <g>
       <use style="stroke:#000000;stroke-width:0.8;" x="374.4576" xlink:href="#m48ffc956c3" y="135.00976"/>
      </g>
     </g>
     <g id="text_5">
      <!-- −6.0 -->
      <g transform="translate(381.4576 138.808979)scale(0.1 -0.1)">
       <use xlink:href="#DejaVuSans-2212"/>
       <use x="83.789062" xlink:href="#DejaVuSans-36"/>
       <use x="147.412109" xlink:href="#DejaVuSans-2e"/>
       <use x="179.199219" xlink:href="#DejaVuSans-30"/>
      </g>
     </g>
    </g>
    <g id="ytick_5">
     <g id="line2d_5">
      <g>
       <use style="stroke:#000000;stroke-width:0.8;" x="374.4576" xlink:href="#m48ffc956c3" y="88.668593"/>
      </g>
     </g>
     <g id="text_6">
      <!-- −5.5 -->
      <g transform="translate(381.4576 92.467812)scale(0.1 -0.1)">
       <use xlink:href="#DejaVuSans-2212"/>
       <use x="83.789062" xlink:href="#DejaVuSans-35"/>
       <use x="147.412109" xlink:href="#DejaVuSans-2e"/>
       <use x="179.199219" xlink:href="#DejaVuSans-35"/>
      </g>
     </g>
    </g>
    <g id="ytick_6">
     <g id="line2d_6">
      <g>
       <use style="stroke:#000000;stroke-width:0.8;" x="374.4576" xlink:href="#m48ffc956c3" y="42.327426"/>
      </g>
     </g>
     <g id="text_7">
      <!-- −5.0 -->
      <g transform="translate(381.4576 46.126645)scale(0.1 -0.1)">
       <use xlink:href="#DejaVuSans-2212"/>
       <use x="83.789062" xlink:href="#DejaVuSans-35"/>
       <use x="147.412109" xlink:href="#DejaVuSans-2e"/>
       <use x="179.199219" xlink:href="#DejaVuSans-30"/>
      </g>
     </g>
    </g>
    <g id="text_8">
     <!-- Energy [eV] -->
     <defs>
      <path d="M 54.890625 33.015625 
L 54.890625 0 
L 45.90625 0 
L 45.90625 32.71875 
Q 45.90625 40.484375 42.875 44.328125 
Q 39.84375 48.1875 33.796875 48.1875 
Q 26.515625 48.1875 22.3125 43.546875 
Q 18.109375 38.921875 18.109375 30.90625 
L 18.109375 0 
L 9.078125 0 
L 9.078125 54.6875 
L 18.109375 54.6875 
L 18.109375 46.1875 
Q 21.34375 51.125 25.703125 53.5625 
Q 30.078125 56 35.796875 56 
Q 45.21875 56 50.046875 50.171875 
Q 54.890625 44.34375 54.890625 33.015625 
z
" id="DejaVuSans-6e"/>
      <path d="M 45.40625 27.984375 
Q 45.40625 37.75 41.375 43.109375 
Q 37.359375 48.484375 30.078125 48.484375 
Q 22.859375 48.484375 18.828125 43.109375 
Q 14.796875 37.75 14.796875 27.984375 
Q 14.796875 18.265625 18.828125 12.890625 
Q 22.859375 7.515625 30.078125 7.515625 
Q 37.359375 7.515625 41.375 12.890625 
Q 45.40625 18.265625 45.40625 27.984375 
z
M 54.390625 6.78125 
Q 54.390625 -7.171875 48.1875 -13.984375 
Q 42 -20.796875 29.203125 -20.796875 
Q 24.46875 -20.796875 20.265625 -20.09375 
Q 16.0625 -19.390625 12.109375 -17.921875 
L 12.109375 -9.1875 
Q 16.0625 -11.328125 19.921875 -12.34375 
Q 23.78125 -13.375 27.78125 -13.375 
Q 36.625 -13.375 41.015625 -8.765625 
Q 45.40625 -4.15625 45.40625 5.171875 
L 45.40625 9.625 
Q 42.625 4.78125 38.28125 2.390625 
Q 33.9375 0 27.875 0 
Q 17.828125 0 11.671875 7.65625 
Q 5.515625 15.328125 5.515625 27.984375 
Q 5.515625 40.671875 11.671875 48.328125 
Q 17.828125 56 27.875 56 
Q 33.9375 56 38.28125 53.609375 
Q 42.625 51.21875 45.40625 46.390625 
L 45.40625 54.6875 
L 54.390625 54.6875 
z
" id="DejaVuSans-67"/>
      <path d="M 32.171875 -5.078125 
Q 28.375 -14.84375 24.75 -17.8125 
Q 21.140625 -20.796875 15.09375 -20.796875 
L 7.90625 -20.796875 
L 7.90625 -13.28125 
L 13.1875 -13.28125 
Q 16.890625 -13.28125 18.9375 -11.515625 
Q 21 -9.765625 23.484375 -3.21875 
L 25.09375 0.875 
L 2.984375 54.6875 
L 12.5 54.6875 
L 29.59375 11.921875 
L 46.6875 54.6875 
L 56.203125 54.6875 
z
" id="DejaVuSans-79"/>
      <path d="M 8.59375 75.984375 
L 29.296875 75.984375 
L 29.296875 69 
L 17.578125 69 
L 17.578125 -6.203125 
L 29.296875 -6.203125 
L 29.296875 -13.1875 
L 8.59375 -13.1875 
z
" id="DejaVuSans-5b"/>
      <path d="M 30.421875 75.984375 
L 30.421875 -13.1875 
L 9.71875 -13.1875 
L 9.71875 -6.203125 
L 21.390625 -6.203125 
L 21.390625 69 
L 9.71875 69 
L 9.71875 75.984375 
z
" id="DejaVuSans-5d"/>
     </defs>
     <g transform="translate(417.33885 204.108469)rotate(-90)scale(0.1 -0.1)">
      <use xlink:href="#DejaVuSans-45"/>
      <use x="63.183594" xlink:href="#DejaVuSans-6e"/>
      <use x="126.5625" xlink:href="#DejaVuSans-65"/>
      <use x="188.085938" xlink:href="#DejaVuSans-72"/>
      <use x="229.183594" xlink:href="#DejaVuSans-67"/>
      <use x="292.660156" xlink:href="#DejaVuSans-79"/>
      <use x="351.839844" xlink:href="#DejaVuSans-20"/>
      <use x="383.626953" xlink:href="#DejaVuSans-5b"/>
      <use x="422.640625" xlink:href="#DejaVuSans-65"/>
      <use x="484.164062" xlink:href="#DejaVuSans-56"/>
      <use x="552.572266" xlink:href="#DejaVuSans-5d"/>
     </g>
    </g>
   </g>
   <g id="patch_3">
    <path d="M 361.152 307.584 
L 361.152 306.5445 
L 361.152 42.5115 
L 361.152 41.472 
L 374.4576 41.472 
L 374.4576 42.5115 
L 374.4576 306.5445 
L 374.4576 307.584 
z
" style="fill:none;stroke:#000000;stroke-linejoin:miter;stroke-width:0.8;"/>
   </g>
  </g>
 </g>
 <defs>
  <clipPath id="p8ecef6cbf5">
   <rect height="266.112" width="285.696" x="57.6" y="41.472"/>
  </clipPath>
  <clipPath id="pe198788f16">
   <rect height="266.112" width="13.3056" x="361.152" y="41.472"/>
  </clipPath>
 </defs>
</svg>
