<?xml version="1.0" encoding="utf-8" standalone="no"?>
<!DOCTYPE svg PUBLIC "-//W3C//DTD SVG 1.1//EN"
  "http://www.w3.org/Graphics/SVG/1.1/DTD/svg11.dtd">
<!-- Created with matplotlib (http://matplotlib.org/) -->
<svg height="345.6pt" version="1.1" viewBox="0 0 460.8 345.6" width="460.8pt" xmlns="http://www.w3.org/2000/svg" xmlns:xlink="http://www.w3.org/1999/xlink">
 <defs>
  <style type="text/css">
*{stroke-linecap:butt;stroke-linejoin:round;}
  </style>
 </defs>
 <g id="figure_1">
  <g id="patch_1">
   <path d="M 0 345.6 
L 460.8 345.6 
L 460.8 0 
L 0 0 
z
" style="fill:#ffffff;"/>
  </g>
  <g id="axes_1">
   <g id="CircleCollection_1">
    <path clip-path="url(#p317b76759e)" d="M 197.190198 61.097233 
C 198.991977 61.097233 200.720203 60.381378 201.994253 59.107328 
C 203.268304 57.833278 203.984158 56.105052 203.984158 54.303273 
C 203.984158 52.501494 203.268304 50.773268 201.994253 49.499218 
C 200.720203 48.225167 198.991977 47.509313 197.190198 47.509313 
C 195.388419 47.509313 193.660193 48.225167 192.386143 49.499218 
C 191.112093 50.773268 190.396238 52.501494 190.396238 54.303273 
C 190.396238 56.105052 191.112093 57.833278 192.386143 59.107328 
C 193.660193 60.381378 195.388419 61.097233 197.190198 61.097233 
z
" style="fill:#1e9b8a;"/>
    <path clip-path="url(#p317b76759e)" d="M 272.374698 119.553641 
C 274.134724 119.553641 275.822902 118.854375 277.067428 117.609849 
C 278.311955 116.365322 279.011221 114.677145 279.011221 112.917118 
C 279.011221 111.157092 278.311955 109.468915 277.067428 108.224388 
C 275.822902 106.979861 274.134724 106.280595 272.374698 106.280595 
C 270.614671 106.280595 268.926494 106.979861 267.681967 108.224388 
C 266.437441 109.468915 265.738175 111.157092 265.738175 112.917118 
C 265.738175 114.677145 266.437441 116.365322 267.681967 117.609849 
C 268.926494 118.854375 270.614671 119.553641 272.374698 119.553641 
z
" style="fill:#481a6c;"/>
    <path clip-path="url(#p317b76759e)" d="M 257.034928 215.76982 
C 258.845906 215.76982 260.582955 215.05031 261.86351 213.769755 
C 263.144066 212.4892 263.863575 210.752151 263.863575 208.941172 
C 263.863575 207.130194 263.144066 205.393144 261.86351 204.112589 
C 260.582955 202.832034 258.845906 202.112525 257.034928 202.112525 
C 255.223949 202.112525 253.4869 202.832034 252.206345 204.112589 
C 250.92579 205.393144 250.20628 207.130194 250.20628 208.941172 
C 250.20628 210.752151 250.92579 212.4892 252.206345 213.769755 
C 253.4869 215.05031 255.223949 215.76982 257.034928 215.76982 
z
" style="fill:#3c4f8a;"/>
    <path clip-path="url(#p317b76759e)" d="M 216.717673 301.288976 
C 218.442812 301.288976 220.097527 300.603571 221.317384 299.383714 
C 222.537242 298.163856 223.222647 296.509142 223.222647 294.784003 
C 223.222647 293.058863 222.537242 291.404149 221.317384 290.184292 
C 220.097527 288.964434 218.442812 288.279029 216.717673 288.279029 
C 214.992534 288.279029 213.33782 288.964434 212.117962 290.184292 
C 210.898105 291.404149 210.212699 293.058863 210.212699 294.784003 
C 210.212699 296.509142 210.898105 298.163856 212.117962 299.383714 
C 213.33782 300.603571 214.992534 301.288976 216.717673 301.288976 
z
" style="fill:#228c8d;"/>
    <path clip-path="url(#p317b76759e)" d="M 244.720092 69.782272 
C 246.491409 69.782272 248.190416 69.078521 249.442926 67.826011 
C 250.695436 66.5735 251.399188 64.874494 251.399188 63.103177 
C 251.399188 61.33186 250.695436 59.632853 249.442926 58.380343 
C 248.190416 57.127833 246.491409 56.424082 244.720092 56.424082 
C 242.948775 56.424082 241.249769 57.127833 239.997259 58.380343 
C 238.744748 59.632853 238.040997 61.33186 238.040997 63.103177 
C 238.040997 64.874494 238.744748 66.5735 239.997259 67.826011 
C 241.249769 69.078521 242.948775 69.782272 244.720092 69.782272 
z
" style="fill:#228d8d;"/>
    <path clip-path="url(#p317b76759e)" d="M 175.330958 189.56772 
C 177.088832 189.56772 178.774945 188.86931 180.01795 187.626305 
C 181.260955 186.3833 181.959366 184.697187 181.959366 182.939313 
C 181.959366 181.181439 181.260955 179.495326 180.01795 178.252321 
C 178.774945 177.009316 177.088832 176.310905 175.330958 176.310905 
C 173.573084 176.310905 171.886971 177.009316 170.643966 178.252321 
C 169.400961 179.495326 168.70255 181.181439 168.70255 182.939313 
C 168.70255 184.697187 169.400961 186.3833 170.643966 187.626305 
C 171.886971 188.86931 173.573084 189.56772 175.330958 189.56772 
z
" style="fill:#25838e;"/>
    <path clip-path="url(#p317b76759e)" d="M 183.468469 149.868196 
C 185.310392 149.868196 187.077123 149.136392 188.379559 147.833956 
C 189.681996 146.53152 190.413799 144.764789 190.413799 142.922866 
C 190.413799 141.080943 189.681996 139.314212 188.379559 138.011775 
C 187.077123 136.709339 185.310392 135.977535 183.468469 135.977535 
C 181.626546 135.977535 179.859815 136.709339 178.557379 138.011775 
C 177.254943 139.314212 176.523139 141.080943 176.523139 142.922866 
C 176.523139 144.764789 177.254943 146.53152 178.557379 147.833956 
C 179.859815 149.136392 181.626546 149.868196 183.468469 149.868196 
z
" style="fill:#404588;"/>
    <path clip-path="url(#p317b76759e)" d="M 315.056234 200.336844 
C 316.905158 200.336844 318.678604 199.602258 319.985991 198.294872 
C 321.293377 196.987485 322.027963 195.214039 322.027963 193.365115 
C 322.027963 191.516191 321.293377 189.742745 319.985991 188.435358 
C 318.678604 187.127972 316.905158 186.393386 315.056234 186.393386 
C 313.20731 186.393386 311.433864 187.127972 310.126477 188.435358 
C 308.819091 189.742745 308.084505 191.516191 308.084505 193.365115 
C 308.084505 195.214039 308.819091 196.987485 310.126477 198.294872 
C 311.433864 199.602258 313.20731 200.336844 315.056234 200.336844 
z
" style="fill:#fde725;"/>
    <path clip-path="url(#p317b76759e)" d="M 160.791925 200.362521 
C 162.667163 200.362521 164.465848 199.617481 165.791841 198.291487 
C 167.117835 196.965494 167.862875 195.166809 167.862875 193.291571 
C 167.862875 191.416333 167.117835 189.617648 165.791841 188.291654 
C 164.465848 186.965661 162.667163 186.220621 160.791925 186.220621 
C 158.916687 186.220621 157.118002 186.965661 155.792008 188.291654 
C 154.466015 189.617648 153.720975 191.416333 153.720975 193.291571 
C 153.720975 195.166809 154.466015 196.965494 155.792008 198.291487 
C 157.118002 199.617481 158.916687 200.362521 160.791925 200.362521 
z
" style="fill:#2c738e;"/>
    <path clip-path="url(#p317b76759e)" d="M 286.132982 238.963816 
C 287.865444 238.963816 289.527182 238.275502 290.752217 237.050466 
C 291.977252 235.825431 292.665566 234.163694 292.665566 232.431232 
C 292.665566 230.69877 291.977252 229.037033 290.752217 227.811998 
C 289.527182 226.586962 287.865444 225.898648 286.132982 225.898648 
C 284.400521 225.898648 282.738783 226.586962 281.513748 227.811998 
C 280.288713 229.037033 279.600398 230.69877 279.600398 232.431232 
C 279.600398 234.163694 280.288713 235.825431 281.513748 237.050466 
C 282.738783 238.275502 284.400521 238.963816 286.132982 238.963816 
z
" style="fill:#365d8d;"/>
    <path clip-path="url(#p317b76759e)" d="M 267.856084 288.429322 
C 269.564208 288.429322 271.202601 287.750677 272.410427 286.542851 
C 273.618253 285.335026 274.296898 283.696632 274.296898 281.988508 
C 274.296898 280.280384 273.618253 278.641991 272.410427 277.434165 
C 271.202601 276.226339 269.564208 275.547694 267.856084 275.547694 
C 266.14796 275.547694 264.509567 276.226339 263.301741 277.434165 
C 262.093915 278.641991 261.41527 280.280384 261.41527 281.988508 
C 261.41527 283.696632 262.093915 285.335026 263.301741 286.542851 
C 264.509567 287.750677 266.14796 288.429322 267.856084 288.429322 
z
" style="fill:#2b758e;"/>
    <path clip-path="url(#p317b76759e)" d="M 322.664356 145.129304 
C 324.416698 145.129304 326.097505 144.433091 327.336599 143.193998 
C 328.575692 141.954904 329.271905 140.274097 329.271905 138.521755 
C 329.271905 136.769412 328.575692 135.088605 327.336599 133.849512 
C 326.097505 132.610418 324.416698 131.914205 322.664356 131.914205 
C 320.912013 131.914205 319.231206 132.610418 317.992112 133.849512 
C 316.753019 135.088605 316.056806 136.769412 316.056806 138.521755 
C 316.056806 140.274097 316.753019 141.954904 317.992112 143.193998 
C 319.231206 144.433091 320.912013 145.129304 322.664356 145.129304 
z
" style="fill:#8ed645;"/>
    <path clip-path="url(#p317b76759e)" d="M 100.098172 102.180004 
C 101.939517 102.180004 103.705693 101.44843 105.007721 100.146403 
C 106.309748 98.844375 107.041323 97.078199 107.041323 95.236853 
C 107.041323 93.395508 106.309748 91.629332 105.007721 90.327304 
C 103.705693 89.025277 101.939517 88.293703 100.098172 88.293703 
C 98.256827 88.293703 96.49065 89.025277 95.188623 90.327304 
C 93.886595 91.629332 93.155021 93.395508 93.155021 95.236853 
C 93.155021 97.078199 93.886595 98.844375 95.188623 100.146403 
C 96.49065 101.44843 98.256827 102.180004 100.098172 102.180004 
z
" style="fill:#35b779;"/>
    <path clip-path="url(#p317b76759e)" d="M 71.139274 187.016211 
C 72.906709 187.016211 74.601993 186.314002 75.851758 185.064237 
C 77.101523 183.814471 77.803733 182.119188 77.803733 180.351753 
C 77.803733 178.584318 77.101523 176.889034 75.851758 175.639269 
C 74.601993 174.389504 72.906709 173.687294 71.139274 173.687294 
C 69.371839 173.687294 67.676556 174.389504 66.42679 175.639269 
C 65.177025 176.889034 64.474816 178.584318 64.474816 180.351753 
C 64.474816 182.119188 65.177025 183.814471 66.42679 185.064237 
C 67.676556 186.314002 69.371839 187.016211 71.139274 187.016211 
z
" style="fill:#1f958b;"/>
    <path clip-path="url(#p317b76759e)" d="M 80.004734 153.214625 
C 81.846388 153.214625 83.612861 152.482928 84.915107 151.180682 
C 86.217353 149.878436 86.94905 148.111963 86.94905 146.270309 
C 86.94905 144.428655 86.217353 142.662182 84.915107 141.359936 
C 83.612861 140.05769 81.846388 139.325993 80.004734 139.325993 
C 78.16308 139.325993 76.396607 140.05769 75.094361 141.359936 
C 73.792115 142.662182 73.060418 144.428655 73.060418 146.270309 
C 73.060418 148.111963 73.792115 149.878436 75.094361 151.180682 
C 76.396607 152.482928 78.16308 153.214625 80.004734 153.214625 
z
" style="fill:#3e4989;"/>
    <path clip-path="url(#p317b76759e)" d="M 156.351426 95.901431 
C 158.188859 95.901431 159.951282 95.171412 161.250542 93.872151 
C 162.549803 92.57289 163.279823 90.810467 163.279823 88.973035 
C 163.279823 87.135603 162.549803 85.37318 161.250542 84.073919 
C 159.951282 82.774658 158.188859 82.044638 156.351426 82.044638 
C 154.513994 82.044638 152.751571 82.774658 151.45231 84.073919 
C 150.15305 85.37318 149.42303 87.135603 149.42303 88.973035 
C 149.42303 90.810467 150.15305 92.57289 151.45231 93.872151 
C 152.751571 95.171412 154.513994 95.901431 156.351426 95.901431 
z
" style="fill:#440154;"/>
    <path clip-path="url(#p317b76759e)" d="M 231.751609 162.566543 
C 233.541345 162.566543 235.258019 161.855474 236.523553 160.589939 
C 237.789088 159.324405 238.500157 157.607731 238.500157 155.817995 
C 238.500157 154.028259 237.789088 152.311585 236.523553 151.046051 
C 235.258019 149.780517 233.541345 149.069447 231.751609 149.069447 
C 229.961873 149.069447 228.245199 149.780517 226.979665 151.046051 
C 225.71413 152.311585 225.003061 154.028259 225.003061 155.817995 
C 225.003061 157.607731 225.71413 159.324405 226.979665 160.589939 
C 228.245199 161.855474 229.961873 162.566543 231.751609 162.566543 
z
" style="fill:#443983;"/>
    <path clip-path="url(#p317b76759e)" d="M 101.695296 204.431857 
C 103.5773 204.431857 105.382475 203.684129 106.713253 202.353351 
C 108.04403 201.022573 108.791758 199.217398 108.791758 197.335394 
C 108.791758 195.45339 108.04403 193.648215 106.713253 192.317437 
C 105.382475 190.986659 103.5773 190.238931 101.695296 190.238931 
C 99.813292 190.238931 98.008116 190.986659 96.677339 192.317437 
C 95.346561 193.648215 94.598833 195.45339 94.598833 197.335394 
C 94.598833 199.217398 95.346561 201.022573 96.677339 202.353351 
C 98.008116 203.684129 99.813292 204.431857 101.695296 204.431857 
z
" style="fill:#277e8e;"/>
    <path clip-path="url(#p317b76759e)" d="M 117.438253 266.67776 
C 119.190436 266.67776 120.871091 265.98161 122.110071 264.742629 
C 123.349052 263.503649 124.045202 261.822995 124.045202 260.070811 
C 124.045202 258.318628 123.349052 256.637974 122.110071 255.398993 
C 120.871091 254.160013 119.190436 253.463863 117.438253 253.463863 
C 115.68607 253.463863 114.005416 254.160013 112.766435 255.398993 
C 111.527455 256.637974 110.831305 258.318628 110.831305 260.070811 
C 110.831305 261.822995 111.527455 263.503649 112.766435 264.742629 
C 114.005416 265.98161 115.68607 266.67776 117.438253 266.67776 
z
" style="fill:#228b8d;"/>
    <path clip-path="url(#p317b76759e)" d="M 84.678213 238.72133 
C 86.489355 238.72133 88.226561 238.001756 89.507231 236.721085 
C 90.787902 235.440414 91.507476 233.703208 91.507476 231.892067 
C 91.507476 230.080925 90.787902 228.343719 89.507231 227.063048 
C 88.226561 225.782377 86.489355 225.062803 84.678213 225.062803 
C 82.867071 225.062803 81.129865 225.782377 79.849194 227.063048 
C 78.568523 228.343719 77.848949 230.080925 77.848949 231.892067 
C 77.848949 233.703208 78.568523 235.440414 79.849194 236.721085 
C 81.129865 238.001756 82.867071 238.72133 84.678213 238.72133 
z
" style="fill:#2c718e;"/>
    <path clip-path="url(#p317b76759e)" d="M 329.759764 200.141257 
C 331.51749 200.141257 333.20346 199.442905 334.44636 198.200006 
C 335.689259 196.957106 336.387611 195.271136 336.387611 193.51341 
C 336.387611 191.755685 335.689259 190.069715 334.44636 188.826815 
C 333.20346 187.583915 331.51749 186.885564 329.759764 186.885564 
C 328.002039 186.885564 326.316069 187.583915 325.073169 188.826815 
C 323.830269 190.069715 323.131918 191.755685 323.131918 193.51341 
C 323.131918 195.271136 323.830269 196.957106 325.073169 198.200006 
C 326.316069 199.442905 328.002039 200.141257 329.759764 200.141257 
z
" style="fill:#33638d;"/>
    <path clip-path="url(#p317b76759e)" d="M 195.300839 236.572392 
C 197.120391 236.572392 198.865664 235.849477 200.152281 234.562859 
C 201.438899 233.276242 202.161814 231.530969 202.161814 229.711417 
C 202.161814 227.891865 201.438899 226.146592 200.152281 224.859975 
C 198.865664 223.573357 197.120391 222.850442 195.300839 222.850442 
C 193.481287 222.850442 191.736014 223.573357 190.449397 224.859975 
C 189.162779 226.146592 188.439864 227.891865 188.439864 229.711417 
C 188.439864 231.530969 189.162779 233.276242 190.449397 234.562859 
C 191.736014 235.849477 193.481287 236.572392 195.300839 236.572392 
z
" style="fill:#31668e;"/>
    <path clip-path="url(#p317b76759e)" d="M 172.859761 287.031149 
C 174.63377 287.031149 176.335358 286.326328 177.589772 285.071915 
C 178.844186 283.817501 179.549007 282.115912 179.549007 280.341903 
C 179.549007 278.567895 178.844186 276.866306 177.589772 275.611892 
C 176.335358 274.357479 174.63377 273.652657 172.859761 273.652657 
C 171.085752 273.652657 169.384163 274.357479 168.12975 275.611892 
C 166.875336 276.866306 166.170515 278.567895 166.170515 280.341903 
C 166.170515 282.115912 166.875336 283.817501 168.12975 285.071915 
C 169.384163 286.326328 171.085752 287.031149 172.859761 287.031149 
z
" style="fill:#3d4d8a;"/>
    <path clip-path="url(#p317b76759e)" d="M 121.218789 205.974037 
C 122.942893 205.974037 124.596614 205.289044 125.815739 204.069918 
C 127.034864 202.850793 127.719858 201.197072 127.719858 199.472969 
C 127.719858 197.748865 127.034864 196.095145 125.815739 194.876019 
C 124.596614 193.656894 122.942893 192.9719 121.218789 192.9719 
C 119.494686 192.9719 117.840965 193.656894 116.62184 194.876019 
C 115.402715 196.095145 114.717721 197.748865 114.717721 199.472969 
C 114.717721 201.197072 115.402715 202.850793 116.62184 204.069918 
C 117.840965 205.289044 119.494686 205.974037 121.218789 205.974037 
z
" style="fill:#2a788e;"/>
   </g>
   <g id="text_1">
    <!-- Structure #7951, $E_N$=-175.87eV, ΔE=-0.76eV -->
    <defs>
     <path d="M 53.515625 70.515625 
L 53.515625 60.890625 
Q 47.90625 63.578125 42.921875 64.890625 
Q 37.9375 66.21875 33.296875 66.21875 
Q 25.25 66.21875 20.875 63.09375 
Q 16.5 59.96875 16.5 54.203125 
Q 16.5 49.359375 19.40625 46.890625 
Q 22.3125 44.4375 30.421875 42.921875 
L 36.375 41.703125 
Q 47.40625 39.59375 52.65625 34.296875 
Q 57.90625 29 57.90625 20.125 
Q 57.90625 9.515625 50.796875 4.046875 
Q 43.703125 -1.421875 29.984375 -1.421875 
Q 24.8125 -1.421875 18.96875 -0.25 
Q 13.140625 0.921875 6.890625 3.21875 
L 6.890625 13.375 
Q 12.890625 10.015625 18.65625 8.296875 
Q 24.421875 6.59375 29.984375 6.59375 
Q 38.421875 6.59375 43.015625 9.90625 
Q 47.609375 13.234375 47.609375 19.390625 
Q 47.609375 24.75 44.3125 27.78125 
Q 41.015625 30.8125 33.5 32.328125 
L 27.484375 33.5 
Q 16.453125 35.6875 11.515625 40.375 
Q 6.59375 45.0625 6.59375 53.421875 
Q 6.59375 63.09375 13.40625 68.65625 
Q 20.21875 74.21875 32.171875 74.21875 
Q 37.3125 74.21875 42.625 73.28125 
Q 47.953125 72.359375 53.515625 70.515625 
z
" id="DejaVuSans-53"/>
     <path d="M 18.3125 70.21875 
L 18.3125 54.6875 
L 36.8125 54.6875 
L 36.8125 47.703125 
L 18.3125 47.703125 
L 18.3125 18.015625 
Q 18.3125 11.328125 20.140625 9.421875 
Q 21.96875 7.515625 27.59375 7.515625 
L 36.8125 7.515625 
L 36.8125 0 
L 27.59375 0 
Q 17.1875 0 13.234375 3.875 
Q 9.28125 7.765625 9.28125 18.015625 
L 9.28125 47.703125 
L 2.6875 47.703125 
L 2.6875 54.6875 
L 9.28125 54.6875 
L 9.28125 70.21875 
z
" id="DejaVuSans-74"/>
     <path d="M 41.109375 46.296875 
Q 39.59375 47.171875 37.8125 47.578125 
Q 36.03125 48 33.890625 48 
Q 26.265625 48 22.1875 43.046875 
Q 18.109375 38.09375 18.109375 28.8125 
L 18.109375 0 
L 9.078125 0 
L 9.078125 54.6875 
L 18.109375 54.6875 
L 18.109375 46.1875 
Q 20.953125 51.171875 25.484375 53.578125 
Q 30.03125 56 36.53125 56 
Q 37.453125 56 38.578125 55.875 
Q 39.703125 55.765625 41.0625 55.515625 
z
" id="DejaVuSans-72"/>
     <path d="M 8.5 21.578125 
L 8.5 54.6875 
L 17.484375 54.6875 
L 17.484375 21.921875 
Q 17.484375 14.15625 20.5 10.265625 
Q 23.53125 6.390625 29.59375 6.390625 
Q 36.859375 6.390625 41.078125 11.03125 
Q 45.3125 15.671875 45.3125 23.6875 
L 45.3125 54.6875 
L 54.296875 54.6875 
L 54.296875 0 
L 45.3125 0 
L 45.3125 8.40625 
Q 42.046875 3.421875 37.71875 1 
Q 33.40625 -1.421875 27.6875 -1.421875 
Q 18.265625 -1.421875 13.375 4.4375 
Q 8.5 10.296875 8.5 21.578125 
z
M 31.109375 56 
z
" id="DejaVuSans-75"/>
     <path d="M 48.78125 52.59375 
L 48.78125 44.1875 
Q 44.96875 46.296875 41.140625 47.34375 
Q 37.3125 48.390625 33.40625 48.390625 
Q 24.65625 48.390625 19.8125 42.84375 
Q 14.984375 37.3125 14.984375 27.296875 
Q 14.984375 17.28125 19.8125 11.734375 
Q 24.65625 6.203125 33.40625 6.203125 
Q 37.3125 6.203125 41.140625 7.25 
Q 44.96875 8.296875 48.78125 10.40625 
L 48.78125 2.09375 
Q 45.015625 0.34375 40.984375 -0.53125 
Q 36.96875 -1.421875 32.421875 -1.421875 
Q 20.0625 -1.421875 12.78125 6.34375 
Q 5.515625 14.109375 5.515625 27.296875 
Q 5.515625 40.671875 12.859375 48.328125 
Q 20.21875 56 33.015625 56 
Q 37.15625 56 41.109375 55.140625 
Q 45.0625 54.296875 48.78125 52.59375 
z
" id="DejaVuSans-63"/>
     <path d="M 56.203125 29.59375 
L 56.203125 25.203125 
L 14.890625 25.203125 
Q 15.484375 15.921875 20.484375 11.0625 
Q 25.484375 6.203125 34.421875 6.203125 
Q 39.59375 6.203125 44.453125 7.46875 
Q 49.3125 8.734375 54.109375 11.28125 
L 54.109375 2.78125 
Q 49.265625 0.734375 44.1875 -0.34375 
Q 39.109375 -1.421875 33.890625 -1.421875 
Q 20.796875 -1.421875 13.15625 6.1875 
Q 5.515625 13.8125 5.515625 26.8125 
Q 5.515625 40.234375 12.765625 48.109375 
Q 20.015625 56 32.328125 56 
Q 43.359375 56 49.78125 48.890625 
Q 56.203125 41.796875 56.203125 29.59375 
z
M 47.21875 32.234375 
Q 47.125 39.59375 43.09375 43.984375 
Q 39.0625 48.390625 32.421875 48.390625 
Q 24.90625 48.390625 20.390625 44.140625 
Q 15.875 39.890625 15.1875 32.171875 
z
" id="DejaVuSans-65"/>
     <path id="DejaVuSans-20"/>
     <path d="M 51.125 44 
L 36.921875 44 
L 32.8125 27.6875 
L 47.125 27.6875 
z
M 43.796875 71.78125 
L 38.71875 51.515625 
L 52.984375 51.515625 
L 58.109375 71.78125 
L 65.921875 71.78125 
L 60.890625 51.515625 
L 76.125 51.515625 
L 76.125 44 
L 58.984375 44 
L 54.984375 27.6875 
L 70.515625 27.6875 
L 70.515625 20.21875 
L 53.078125 20.21875 
L 48 0 
L 40.1875 0 
L 45.21875 20.21875 
L 30.90625 20.21875 
L 25.875 0 
L 18.015625 0 
L 23.09375 20.21875 
L 7.71875 20.21875 
L 7.71875 27.6875 
L 24.90625 27.6875 
L 29 44 
L 13.28125 44 
L 13.28125 51.515625 
L 30.90625 51.515625 
L 35.890625 71.78125 
z
" id="DejaVuSans-23"/>
     <path d="M 8.203125 72.90625 
L 55.078125 72.90625 
L 55.078125 68.703125 
L 28.609375 0 
L 18.3125 0 
L 43.21875 64.59375 
L 8.203125 64.59375 
z
" id="DejaVuSans-37"/>
     <path d="M 10.984375 1.515625 
L 10.984375 10.5 
Q 14.703125 8.734375 18.5 7.8125 
Q 22.3125 6.890625 25.984375 6.890625 
Q 35.75 6.890625 40.890625 13.453125 
Q 46.046875 20.015625 46.78125 33.40625 
Q 43.953125 29.203125 39.59375 26.953125 
Q 35.25 24.703125 29.984375 24.703125 
Q 19.046875 24.703125 12.671875 31.3125 
Q 6.296875 37.9375 6.296875 49.421875 
Q 6.296875 60.640625 12.9375 67.421875 
Q 19.578125 74.21875 30.609375 74.21875 
Q 43.265625 74.21875 49.921875 64.515625 
Q 56.59375 54.828125 56.59375 36.375 
Q 56.59375 19.140625 48.40625 8.859375 
Q 40.234375 -1.421875 26.421875 -1.421875 
Q 22.703125 -1.421875 18.890625 -0.6875 
Q 15.09375 0.046875 10.984375 1.515625 
z
M 30.609375 32.421875 
Q 37.25 32.421875 41.125 36.953125 
Q 45.015625 41.5 45.015625 49.421875 
Q 45.015625 57.28125 41.125 61.84375 
Q 37.25 66.40625 30.609375 66.40625 
Q 23.96875 66.40625 20.09375 61.84375 
Q 16.21875 57.28125 16.21875 49.421875 
Q 16.21875 41.5 20.09375 36.953125 
Q 23.96875 32.421875 30.609375 32.421875 
z
" id="DejaVuSans-39"/>
     <path d="M 10.796875 72.90625 
L 49.515625 72.90625 
L 49.515625 64.59375 
L 19.828125 64.59375 
L 19.828125 46.734375 
Q 21.96875 47.46875 24.109375 47.828125 
Q 26.265625 48.1875 28.421875 48.1875 
Q 40.625 48.1875 47.75 41.5 
Q 54.890625 34.8125 54.890625 23.390625 
Q 54.890625 11.625 47.5625 5.09375 
Q 40.234375 -1.421875 26.90625 -1.421875 
Q 22.3125 -1.421875 17.546875 -0.640625 
Q 12.796875 0.140625 7.71875 1.703125 
L 7.71875 11.625 
Q 12.109375 9.234375 16.796875 8.0625 
Q 21.484375 6.890625 26.703125 6.890625 
Q 35.15625 6.890625 40.078125 11.328125 
Q 45.015625 15.765625 45.015625 23.390625 
Q 45.015625 31 40.078125 35.4375 
Q 35.15625 39.890625 26.703125 39.890625 
Q 22.75 39.890625 18.8125 39.015625 
Q 14.890625 38.140625 10.796875 36.28125 
z
" id="DejaVuSans-35"/>
     <path d="M 12.40625 8.296875 
L 28.515625 8.296875 
L 28.515625 63.921875 
L 10.984375 60.40625 
L 10.984375 69.390625 
L 28.421875 72.90625 
L 38.28125 72.90625 
L 38.28125 8.296875 
L 54.390625 8.296875 
L 54.390625 0 
L 12.40625 0 
z
" id="DejaVuSans-31"/>
     <path d="M 11.71875 12.40625 
L 22.015625 12.40625 
L 22.015625 4 
L 14.015625 -11.625 
L 7.71875 -11.625 
L 11.71875 4 
z
" id="DejaVuSans-2c"/>
     <path d="M 16.890625 72.90625 
L 62.984375 72.90625 
L 61.375 64.59375 
L 25.09375 64.59375 
L 20.90625 43.015625 
L 55.71875 43.015625 
L 54.109375 34.71875 
L 19.28125 34.71875 
L 14.203125 8.296875 
L 51.3125 8.296875 
L 49.703125 0 
L 2.6875 0 
z
" id="DejaVuSans-Oblique-45"/>
     <path d="M 16.890625 72.90625 
L 30.171875 72.90625 
L 50.296875 10.40625 
L 62.5 72.90625 
L 72.125 72.90625 
L 57.90625 0 
L 44.578125 0 
L 24.515625 62.890625 
L 12.3125 0 
L 2.6875 0 
z
" id="DejaVuSans-Oblique-4e"/>
     <path d="M 10.59375 45.40625 
L 73.1875 45.40625 
L 73.1875 37.203125 
L 10.59375 37.203125 
z
M 10.59375 25.484375 
L 73.1875 25.484375 
L 73.1875 17.1875 
L 10.59375 17.1875 
z
" id="DejaVuSans-3d"/>
     <path d="M 4.890625 31.390625 
L 31.203125 31.390625 
L 31.203125 23.390625 
L 4.890625 23.390625 
z
" id="DejaVuSans-2d"/>
     <path d="M 10.6875 12.40625 
L 21 12.40625 
L 21 0 
L 10.6875 0 
z
" id="DejaVuSans-2e"/>
     <path d="M 31.78125 34.625 
Q 24.75 34.625 20.71875 30.859375 
Q 16.703125 27.09375 16.703125 20.515625 
Q 16.703125 13.921875 20.71875 10.15625 
Q 24.75 6.390625 31.78125 6.390625 
Q 38.8125 6.390625 42.859375 10.171875 
Q 46.921875 13.96875 46.921875 20.515625 
Q 46.921875 27.09375 42.890625 30.859375 
Q 38.875 34.625 31.78125 34.625 
z
M 21.921875 38.8125 
Q 15.578125 40.375 12.03125 44.71875 
Q 8.5 49.078125 8.5 55.328125 
Q 8.5 64.0625 14.71875 69.140625 
Q 20.953125 74.21875 31.78125 74.21875 
Q 42.671875 74.21875 48.875 69.140625 
Q 55.078125 64.0625 55.078125 55.328125 
Q 55.078125 49.078125 51.53125 44.71875 
Q 48 40.375 41.703125 38.8125 
Q 48.828125 37.15625 52.796875 32.3125 
Q 56.78125 27.484375 56.78125 20.515625 
Q 56.78125 9.90625 50.3125 4.234375 
Q 43.84375 -1.421875 31.78125 -1.421875 
Q 19.734375 -1.421875 13.25 4.234375 
Q 6.78125 9.90625 6.78125 20.515625 
Q 6.78125 27.484375 10.78125 32.3125 
Q 14.796875 37.15625 21.921875 38.8125 
z
M 18.3125 54.390625 
Q 18.3125 48.734375 21.84375 45.5625 
Q 25.390625 42.390625 31.78125 42.390625 
Q 38.140625 42.390625 41.71875 45.5625 
Q 45.3125 48.734375 45.3125 54.390625 
Q 45.3125 60.0625 41.71875 63.234375 
Q 38.140625 66.40625 31.78125 66.40625 
Q 25.390625 66.40625 21.84375 63.234375 
Q 18.3125 60.0625 18.3125 54.390625 
z
" id="DejaVuSans-38"/>
     <path d="M 28.609375 0 
L 0.78125 72.90625 
L 11.078125 72.90625 
L 34.1875 11.53125 
L 57.328125 72.90625 
L 67.578125 72.90625 
L 39.796875 0 
z
" id="DejaVuSans-56"/>
     <path d="M 34.1875 63.1875 
L 14.15625 8.203125 
L 54.25 8.203125 
z
M 0.78125 0 
L 28.609375 72.90625 
L 39.796875 72.90625 
L 67.578125 0 
z
" id="DejaVuSans-394"/>
     <path d="M 9.8125 72.90625 
L 55.90625 72.90625 
L 55.90625 64.59375 
L 19.671875 64.59375 
L 19.671875 43.015625 
L 54.390625 43.015625 
L 54.390625 34.71875 
L 19.671875 34.71875 
L 19.671875 8.296875 
L 56.78125 8.296875 
L 56.78125 0 
L 9.8125 0 
z
" id="DejaVuSans-45"/>
     <path d="M 31.78125 66.40625 
Q 24.171875 66.40625 20.328125 58.90625 
Q 16.5 51.421875 16.5 36.375 
Q 16.5 21.390625 20.328125 13.890625 
Q 24.171875 6.390625 31.78125 6.390625 
Q 39.453125 6.390625 43.28125 13.890625 
Q 47.125 21.390625 47.125 36.375 
Q 47.125 51.421875 43.28125 58.90625 
Q 39.453125 66.40625 31.78125 66.40625 
z
M 31.78125 74.21875 
Q 44.046875 74.21875 50.515625 64.515625 
Q 56.984375 54.828125 56.984375 36.375 
Q 56.984375 17.96875 50.515625 8.265625 
Q 44.046875 -1.421875 31.78125 -1.421875 
Q 19.53125 -1.421875 13.0625 8.265625 
Q 6.59375 17.96875 6.59375 36.375 
Q 6.59375 54.828125 13.0625 64.515625 
Q 19.53125 74.21875 31.78125 74.21875 
z
" id="DejaVuSans-30"/>
     <path d="M 33.015625 40.375 
Q 26.375 40.375 22.484375 35.828125 
Q 18.609375 31.296875 18.609375 23.390625 
Q 18.609375 15.53125 22.484375 10.953125 
Q 26.375 6.390625 33.015625 6.390625 
Q 39.65625 6.390625 43.53125 10.953125 
Q 47.40625 15.53125 47.40625 23.390625 
Q 47.40625 31.296875 43.53125 35.828125 
Q 39.65625 40.375 33.015625 40.375 
z
M 52.59375 71.296875 
L 52.59375 62.3125 
Q 48.875 64.0625 45.09375 64.984375 
Q 41.3125 65.921875 37.59375 65.921875 
Q 27.828125 65.921875 22.671875 59.328125 
Q 17.53125 52.734375 16.796875 39.40625 
Q 19.671875 43.65625 24.015625 45.921875 
Q 28.375 48.1875 33.59375 48.1875 
Q 44.578125 48.1875 50.953125 41.515625 
Q 57.328125 34.859375 57.328125 23.390625 
Q 57.328125 12.15625 50.6875 5.359375 
Q 44.046875 -1.421875 33.015625 -1.421875 
Q 20.359375 -1.421875 13.671875 8.265625 
Q 6.984375 17.96875 6.984375 36.375 
Q 6.984375 53.65625 15.1875 63.9375 
Q 23.390625 74.21875 37.203125 74.21875 
Q 40.921875 74.21875 44.703125 73.484375 
Q 48.484375 72.75 52.59375 71.296875 
z
" id="DejaVuSans-36"/>
    </defs>
    <g transform="translate(63.228 35.472)scale(0.12 -0.12)">
     <use transform="translate(0 0.78125)" xlink:href="#DejaVuSans-53"/>
     <use transform="translate(63.476562 0.78125)" xlink:href="#DejaVuSans-74"/>
     <use transform="translate(102.685547 0.78125)" xlink:href="#DejaVuSans-72"/>
     <use transform="translate(143.798828 0.78125)" xlink:href="#DejaVuSans-75"/>
     <use transform="translate(207.177734 0.78125)" xlink:href="#DejaVuSans-63"/>
     <use transform="translate(262.158203 0.78125)" xlink:href="#DejaVuSans-74"/>
     <use transform="translate(301.367188 0.78125)" xlink:href="#DejaVuSans-75"/>
     <use transform="translate(364.746094 0.78125)" xlink:href="#DejaVuSans-72"/>
     <use transform="translate(405.859375 0.78125)" xlink:href="#DejaVuSans-65"/>
     <use transform="translate(467.382812 0.78125)" xlink:href="#DejaVuSans-20"/>
     <use transform="translate(499.169922 0.78125)" xlink:href="#DejaVuSans-23"/>
     <use transform="translate(582.958984 0.78125)" xlink:href="#DejaVuSans-37"/>
     <use transform="translate(646.582031 0.78125)" xlink:href="#DejaVuSans-39"/>
     <use transform="translate(710.205078 0.78125)" xlink:href="#DejaVuSans-35"/>
     <use transform="translate(773.828125 0.78125)" xlink:href="#DejaVuSans-31"/>
     <use transform="translate(837.451172 0.78125)" xlink:href="#DejaVuSans-2c"/>
     <use transform="translate(869.238281 0.78125)" xlink:href="#DejaVuSans-20"/>
     <use transform="translate(901.025391 0.78125)" xlink:href="#DejaVuSans-Oblique-45"/>
     <use transform="translate(964.208984 -15.625)scale(0.7)" xlink:href="#DejaVuSans-Oblique-4e"/>
     <use transform="translate(1019.306641 0.78125)" xlink:href="#DejaVuSans-3d"/>
     <use transform="translate(1103.095703 0.78125)" xlink:href="#DejaVuSans-2d"/>
     <use transform="translate(1139.179688 0.78125)" xlink:href="#DejaVuSans-31"/>
     <use transform="translate(1202.802734 0.78125)" xlink:href="#DejaVuSans-37"/>
     <use transform="translate(1266.425781 0.78125)" xlink:href="#DejaVuSans-35"/>
     <use transform="translate(1330.048828 0.78125)" xlink:href="#DejaVuSans-2e"/>
     <use transform="translate(1361.804688 0.78125)" xlink:href="#DejaVuSans-38"/>
     <use transform="translate(1425.427734 0.78125)" xlink:href="#DejaVuSans-37"/>
     <use transform="translate(1489.050781 0.78125)" xlink:href="#DejaVuSans-65"/>
     <use transform="translate(1550.574219 0.78125)" xlink:href="#DejaVuSans-56"/>
     <use transform="translate(1618.982422 0.78125)" xlink:href="#DejaVuSans-2c"/>
     <use transform="translate(1650.769531 0.78125)" xlink:href="#DejaVuSans-20"/>
     <use transform="translate(1682.556641 0.78125)" xlink:href="#DejaVuSans-394"/>
     <use transform="translate(1750.964844 0.78125)" xlink:href="#DejaVuSans-45"/>
     <use transform="translate(1814.148438 0.78125)" xlink:href="#DejaVuSans-3d"/>
     <use transform="translate(1897.9375 0.78125)" xlink:href="#DejaVuSans-2d"/>
     <use transform="translate(1934.021484 0.78125)" xlink:href="#DejaVuSans-30"/>
     <use transform="translate(1997.644531 0.78125)" xlink:href="#DejaVuSans-2e"/>
     <use transform="translate(2029.322266 0.78125)" xlink:href="#DejaVuSans-37"/>
     <use transform="translate(2092.945312 0.78125)" xlink:href="#DejaVuSans-36"/>
     <use transform="translate(2156.568359 0.78125)" xlink:href="#DejaVuSans-65"/>
     <use transform="translate(2218.091797 0.78125)" xlink:href="#DejaVuSans-56"/>
    </g>
   </g>
  </g>
  <g id="axes_2">
   <g id="patch_2">
    <path clip-path="url(#p51ad770f7d)" d="M 361.152 307.584 
L 361.152 306.5445 
L 361.152 42.5115 
L 361.152 41.472 
L 374.4576 41.472 
L 374.4576 42.5115 
L 374.4576 306.5445 
L 374.4576 307.584 
z
" style="fill:#ffffff;stroke:#ffffff;stroke-linejoin:miter;stroke-width:0.01;"/>
   </g>
   <image height="265.68" id="image6ba060030b" transform="scale(1 -1)translate(0 -265.68)" width="12.96" x="361.44" xlink:href="data:image/png;base64,
iVBORw0KGgoAAAANSUhEUgAAABIAAAFxCAYAAAB+2fgXAAAABHNCSVQICAgIfAhkiAAAAeVJREFUeJztncmNw0AQA2ckheYQNv9QLIfQ8ygsCgQ7AEI8+jAs2Puz/94F1LP2ReCsZ18bAWIeZ5XaGRBE7VnbptG+KI101FYyNSiQG2oRITXKNaX9uclOdi2XWjftVE32CZCO2ou5Bj1TcCBr/1zB9ge7Fq0Rg2NM9pvbtG+ua1QgsRYhDy0ISEiNc40BEibbSI0Coj5CBGtkpFbXJiAjNZlrwhuSOv2M1DjXbEdEciBt1JSDDQKKpmZr2rr2j0DBGpXaWEJq3bQzEPIS26r9J+Wzv9Tm8o3aajRXqc3VUXsApKNWjeZq0x4ABVNbm7lrszVigDqP5vIl2+eaT2yfRkL7g+dRcNPqjohkjaCvRVBq0H2U3LQrOJCx9kdTg4B8oxZzzTdqdYHEngjUCAPyUctN9sVRq2sTECW2UKNLd2jVtRmo1A6AhMmWaSRcR8nUdIHUuVb75zJS218EyEitro1At69pIdeSk30Lkw0FktNImGyZRhy1O5galmxd03LUsHWk06jUZiCq+5Wb1kZNN4+wJxJuWt8RAW5am2sYNZ9rYCBzZ3buPKJ2P5Yj4Toy3keyIyJbIxs1rml1byCA84gpch5RQNB7Q0qNMGq2Hy4BXdNR41yz/cEEJfZzUz96r9PoB0okjeQ8y9TkAAAAAElFTkSuQmCC" y="-41.76"/>
   <g id="matplotlib.axis_1"/>
   <g id="matplotlib.axis_2">
    <g id="ytick_1">
     <g id="line2d_1">
      <defs>
       <path d="M 0 0 
L 3.5 0 
" id="m5c6b2ef104" style="stroke:#000000;stroke-width:0.8;"/>
      </defs>
      <g>
       <use style="stroke:#000000;stroke-width:0.8;" x="374.4576" xlink:href="#m5c6b2ef104" y="303.169122"/>
      </g>
     </g>
     <g id="text_2">
      <!-- −8.5 -->
      <defs>
       <path d="M 10.59375 35.5 
L 73.1875 35.5 
L 73.1875 27.203125 
L 10.59375 27.203125 
z
" id="DejaVuSans-2212"/>
      </defs>
      <g transform="translate(381.4576 306.968341)scale(0.1 -0.1)">
       <use xlink:href="#DejaVuSans-2212"/>
       <use x="83.789062" xlink:href="#DejaVuSans-38"/>
       <use x="147.412109" xlink:href="#DejaVuSans-2e"/>
       <use x="179.199219" xlink:href="#DejaVuSans-35"/>
      </g>
     </g>
    </g>
    <g id="ytick_2">
     <g id="line2d_2">
      <g>
       <use style="stroke:#000000;stroke-width:0.8;" x="374.4576" xlink:href="#m5c6b2ef104" y="260.175933"/>
      </g>
     </g>
     <g id="text_3">
      <!-- −8.0 -->
      <g transform="translate(381.4576 263.975151)scale(0.1 -0.1)">
       <use xlink:href="#DejaVuSans-2212"/>
       <use x="83.789062" xlink:href="#DejaVuSans-38"/>
       <use x="147.412109" xlink:href="#DejaVuSans-2e"/>
       <use x="179.199219" xlink:href="#DejaVuSans-30"/>
      </g>
     </g>
    </g>
    <g id="ytick_3">
     <g id="line2d_3">
      <g>
       <use style="stroke:#000000;stroke-width:0.8;" x="374.4576" xlink:href="#m5c6b2ef104" y="217.182743"/>
      </g>
     </g>
     <g id="text_4">
      <!-- −7.5 -->
      <g transform="translate(381.4576 220.981962)scale(0.1 -0.1)">
       <use xlink:href="#DejaVuSans-2212"/>
       <use x="83.789062" xlink:href="#DejaVuSans-37"/>
       <use x="147.412109" xlink:href="#DejaVuSans-2e"/>
       <use x="179.199219" xlink:href="#DejaVuSans-35"/>
      </g>
     </g>
    </g>
    <g id="ytick_4">
     <g id="line2d_4">
      <g>
       <use style="stroke:#000000;stroke-width:0.8;" x="374.4576" xlink:href="#m5c6b2ef104" y="174.189553"/>
      </g>
     </g>
     <g id="text_5">
      <!-- −7.0 -->
      <g transform="translate(381.4576 177.988772)scale(0.1 -0.1)">
       <use xlink:href="#DejaVuSans-2212"/>
       <use x="83.789062" xlink:href="#DejaVuSans-37"/>
       <use x="147.412109" xlink:href="#DejaVuSans-2e"/>
       <use x="179.199219" xlink:href="#DejaVuSans-30"/>
      </g>
     </g>
    </g>
    <g id="ytick_5">
     <g id="line2d_5">
      <g>
       <use style="stroke:#000000;stroke-width:0.8;" x="374.4576" xlink:href="#m5c6b2ef104" y="131.196363"/>
      </g>
     </g>
     <g id="text_6">
      <!-- −6.5 -->
      <g transform="translate(381.4576 134.995582)scale(0.1 -0.1)">
       <use xlink:href="#DejaVuSans-2212"/>
       <use x="83.789062" xlink:href="#DejaVuSans-36"/>
       <use x="147.412109" xlink:href="#DejaVuSans-2e"/>
       <use x="179.199219" xlink:href="#DejaVuSans-35"/>
      </g>
     </g>
    </g>
    <g id="ytick_6">
     <g id="line2d_6">
      <g>
       <use style="stroke:#000000;stroke-width:0.8;" x="374.4576" xlink:href="#m5c6b2ef104" y="88.203174"/>
      </g>
     </g>
     <g id="text_7">
      <!-- −6.0 -->
      <g transform="translate(381.4576 92.002392)scale(0.1 -0.1)">
       <use xlink:href="#DejaVuSans-2212"/>
       <use x="83.789062" xlink:href="#DejaVuSans-36"/>
       <use x="147.412109" xlink:href="#DejaVuSans-2e"/>
       <use x="179.199219" xlink:href="#DejaVuSans-30"/>
      </g>
     </g>
    </g>
    <g id="ytick_7">
     <g id="line2d_7">
      <g>
       <use style="stroke:#000000;stroke-width:0.8;" x="374.4576" xlink:href="#m5c6b2ef104" y="45.209984"/>
      </g>
     </g>
     <g id="text_8">
      <!-- −5.5 -->
      <g transform="translate(381.4576 49.009203)scale(0.1 -0.1)">
       <use xlink:href="#DejaVuSans-2212"/>
       <use x="83.789062" xlink:href="#DejaVuSans-35"/>
       <use x="147.412109" xlink:href="#DejaVuSans-2e"/>
       <use x="179.199219" xlink:href="#DejaVuSans-35"/>
      </g>
     </g>
    </g>
    <g id="text_9">
     <!-- Energy [eV] -->
     <defs>
      <path d="M 54.890625 33.015625 
L 54.890625 0 
L 45.90625 0 
L 45.90625 32.71875 
Q 45.90625 40.484375 42.875 44.328125 
Q 39.84375 48.1875 33.796875 48.1875 
Q 26.515625 48.1875 22.3125 43.546875 
Q 18.109375 38.921875 18.109375 30.90625 
L 18.109375 0 
L 9.078125 0 
L 9.078125 54.6875 
L 18.109375 54.6875 
L 18.109375 46.1875 
Q 21.34375 51.125 25.703125 53.5625 
Q 30.078125 56 35.796875 56 
Q 45.21875 56 50.046875 50.171875 
Q 54.890625 44.34375 54.890625 33.015625 
z
" id="DejaVuSans-6e"/>
      <path d="M 45.40625 27.984375 
Q 45.40625 37.75 41.375 43.109375 
Q 37.359375 48.484375 30.078125 48.484375 
Q 22.859375 48.484375 18.828125 43.109375 
Q 14.796875 37.75 14.796875 27.984375 
Q 14.796875 18.265625 18.828125 12.890625 
Q 22.859375 7.515625 30.078125 7.515625 
Q 37.359375 7.515625 41.375 12.890625 
Q 45.40625 18.265625 45.40625 27.984375 
z
M 54.390625 6.78125 
Q 54.390625 -7.171875 48.1875 -13.984375 
Q 42 -20.796875 29.203125 -20.796875 
Q 24.46875 -20.796875 20.265625 -20.09375 
Q 16.0625 -19.390625 12.109375 -17.921875 
L 12.109375 -9.1875 
Q 16.0625 -11.328125 19.921875 -12.34375 
Q 23.78125 -13.375 27.78125 -13.375 
Q 36.625 -13.375 41.015625 -8.765625 
Q 45.40625 -4.15625 45.40625 5.171875 
L 45.40625 9.625 
Q 42.625 4.78125 38.28125 2.390625 
Q 33.9375 0 27.875 0 
Q 17.828125 0 11.671875 7.65625 
Q 5.515625 15.328125 5.515625 27.984375 
Q 5.515625 40.671875 11.671875 48.328125 
Q 17.828125 56 27.875 56 
Q 33.9375 56 38.28125 53.609375 
Q 42.625 51.21875 45.40625 46.390625 
L 45.40625 54.6875 
L 54.390625 54.6875 
z
" id="DejaVuSans-67"/>
      <path d="M 32.171875 -5.078125 
Q 28.375 -14.84375 24.75 -17.8125 
Q 21.140625 -20.796875 15.09375 -20.796875 
L 7.90625 -20.796875 
L 7.90625 -13.28125 
L 13.1875 -13.28125 
Q 16.890625 -13.28125 18.9375 -11.515625 
Q 21 -9.765625 23.484375 -3.21875 
L 25.09375 0.875 
L 2.984375 54.6875 
L 12.5 54.6875 
L 29.59375 11.921875 
L 46.6875 54.6875 
L 56.203125 54.6875 
z
" id="DejaVuSans-79"/>
      <path d="M 8.59375 75.984375 
L 29.296875 75.984375 
L 29.296875 69 
L 17.578125 69 
L 17.578125 -6.203125 
L 29.296875 -6.203125 
L 29.296875 -13.1875 
L 8.59375 -13.1875 
z
" id="DejaVuSans-5b"/>
      <path d="M 30.421875 75.984375 
L 30.421875 -13.1875 
L 9.71875 -13.1875 
L 9.71875 -6.203125 
L 21.390625 -6.203125 
L 21.390625 69 
L 9.71875 69 
L 9.71875 75.984375 
z
" id="DejaVuSans-5d"/>
     </defs>
     <g transform="translate(417.33885 204.108469)rotate(-90)scale(0.1 -0.1)">
      <use xlink:href="#DejaVuSans-45"/>
      <use x="63.183594" xlink:href="#DejaVuSans-6e"/>
      <use x="126.5625" xlink:href="#DejaVuSans-65"/>
      <use x="188.085938" xlink:href="#DejaVuSans-72"/>
      <use x="229.183594" xlink:href="#DejaVuSans-67"/>
      <use x="292.660156" xlink:href="#DejaVuSans-79"/>
      <use x="351.839844" xlink:href="#DejaVuSans-20"/>
      <use x="383.626953" xlink:href="#DejaVuSans-5b"/>
      <use x="422.640625" xlink:href="#DejaVuSans-65"/>
      <use x="484.164062" xlink:href="#DejaVuSans-56"/>
      <use x="552.572266" xlink:href="#DejaVuSans-5d"/>
     </g>
    </g>
   </g>
   <g id="patch_3">
    <path d="M 361.152 307.584 
L 361.152 306.5445 
L 361.152 42.5115 
L 361.152 41.472 
L 374.4576 41.472 
L 374.4576 42.5115 
L 374.4576 306.5445 
L 374.4576 307.584 
z
" style="fill:none;stroke:#000000;stroke-linejoin:miter;stroke-width:0.8;"/>
   </g>
  </g>
 </g>
 <defs>
  <clipPath id="p317b76759e">
   <rect height="266.112" width="285.696" x="57.6" y="41.472"/>
  </clipPath>
  <clipPath id="p51ad770f7d">
   <rect height="266.112" width="13.3056" x="361.152" y="41.472"/>
  </clipPath>
 </defs>
</svg>
