<?xml version="1.0" encoding="utf-8" standalone="no"?>
<!DOCTYPE svg PUBLIC "-//W3C//DTD SVG 1.1//EN"
  "http://www.w3.org/Graphics/SVG/1.1/DTD/svg11.dtd">
<!-- Created with matplotlib (http://matplotlib.org/) -->
<svg height="345.6pt" version="1.1" viewBox="0 0 460.8 345.6" width="460.8pt" xmlns="http://www.w3.org/2000/svg" xmlns:xlink="http://www.w3.org/1999/xlink">
 <defs>
  <style type="text/css">
*{stroke-linecap:butt;stroke-linejoin:round;}
  </style>
 </defs>
 <g id="figure_1">
  <g id="patch_1">
   <path d="M 0 345.6 
L 460.8 345.6 
L 460.8 0 
L 0 0 
z
" style="fill:#ffffff;"/>
  </g>
  <g id="axes_1">
   <g id="CircleCollection_1">
    <path clip-path="url(#p7daa902fae)" d="M 291.992789 221.196636 
C 293.749482 221.196636 295.434461 220.498694 296.676631 219.256525 
C 297.9188 218.014355 298.616742 216.329376 298.616742 214.572683 
C 298.616742 212.81599 297.9188 211.131011 296.676631 209.888841 
C 295.434461 208.646672 293.749482 207.94873 291.992789 207.94873 
C 290.236096 207.94873 288.551117 208.646672 287.308947 209.888841 
C 286.066778 211.131011 285.368836 212.81599 285.368836 214.572683 
C 285.368836 216.329376 286.066778 218.014355 287.308947 219.256525 
C 288.551117 220.498694 290.236096 221.196636 291.992789 221.196636 
z
" style="fill:#1f948c;"/>
    <path clip-path="url(#p7daa902fae)" d="M 232.258549 273.760804 
C 234.031694 273.760804 235.732455 273.056326 236.986259 271.802522 
C 238.240062 270.548719 238.94454 268.847958 238.94454 267.074812 
C 238.94454 265.301666 238.240062 263.600905 236.986259 262.347102 
C 235.732455 261.093299 234.031694 260.38882 232.258549 260.38882 
C 230.485403 260.38882 228.784642 261.093299 227.530838 262.347102 
C 226.277035 263.600905 225.572557 265.301666 225.572557 267.074812 
C 225.572557 268.847958 226.277035 270.548719 227.530838 271.802522 
C 228.784642 273.056326 230.485403 273.760804 232.258549 273.760804 
z
" style="fill:#1f948c;"/>
    <path clip-path="url(#p7daa902fae)" d="M 140.600465 176.568601 
C 142.381495 176.568601 144.089817 175.860991 145.349195 174.601613 
C 146.608573 173.342235 147.316183 171.633913 147.316183 169.852883 
C 147.316183 168.071854 146.608573 166.363532 145.349195 165.104154 
C 144.089817 163.844776 142.381495 163.137166 140.600465 163.137166 
C 138.819436 163.137166 137.111114 163.844776 135.851736 165.104154 
C 134.592358 166.363532 133.884748 168.071854 133.884748 169.852883 
C 133.884748 171.633913 134.592358 173.342235 135.851736 174.601613 
C 137.111114 175.860991 138.819436 176.568601 140.600465 176.568601 
z
" style="fill:#414287;"/>
    <path clip-path="url(#p7daa902fae)" d="M 248.673688 163.761545 
C 250.421255 163.761545 252.097482 163.067229 253.333199 161.831512 
C 254.568916 160.595795 255.263232 158.919568 255.263232 157.172 
C 255.263232 155.424433 254.568916 153.748206 253.333199 152.512489 
C 252.097482 151.276772 250.421255 150.582456 248.673688 150.582456 
C 246.92612 150.582456 245.249893 151.276772 244.014176 152.512489 
C 242.778459 153.748206 242.084143 155.424433 242.084143 157.172 
C 242.084143 158.919568 242.778459 160.595795 244.014176 161.831512 
C 245.249893 163.067229 246.92612 163.761545 248.673688 163.761545 
z
" style="fill:#440154;"/>
    <path clip-path="url(#p7daa902fae)" d="M 80.19954 295.662644 
C 81.943592 295.662644 83.616446 294.969725 84.849677 293.736494 
C 86.082907 292.503263 86.775826 290.830409 86.775826 289.086357 
C 86.775826 287.342306 86.082907 285.669452 84.849677 284.436221 
C 83.616446 283.20299 81.943592 282.510071 80.19954 282.510071 
C 78.455489 282.510071 76.782634 283.20299 75.549404 284.436221 
C 74.316173 285.669452 73.623254 287.342306 73.623254 289.086357 
C 73.623254 290.830409 74.316173 292.503263 75.549404 293.736494 
C 76.782634 294.969725 78.455489 295.662644 80.19954 295.662644 
z
" style="fill:#fde725;"/>
    <path clip-path="url(#p7daa902fae)" d="M 198.415635 292.228491 
C 200.197108 292.228491 201.905856 291.520704 203.165547 290.261013 
C 204.425238 289.001321 205.133025 287.292573 205.133025 285.511101 
C 205.133025 283.729628 204.425238 282.02088 203.165547 280.761189 
C 201.905856 279.501498 200.197108 278.793711 198.415635 278.793711 
C 196.634163 278.793711 194.925415 279.501498 193.665723 280.761189 
C 192.406032 282.02088 191.698245 283.729628 191.698245 285.511101 
C 191.698245 287.292573 192.406032 289.001321 193.665723 290.261013 
C 194.925415 291.520704 196.634163 292.228491 198.415635 292.228491 
z
" style="fill:#1f9e89;"/>
    <path clip-path="url(#p7daa902fae)" d="M 195.926606 60.721722 
C 197.679338 60.721722 199.360519 60.025354 200.599888 58.785985 
C 201.839257 57.546616 202.535625 55.865435 202.535625 54.112703 
C 202.535625 52.35997 201.839257 50.678789 200.599888 49.43942 
C 199.360519 48.200051 197.679338 47.503684 195.926606 47.503684 
C 194.173873 47.503684 192.492692 48.200051 191.253323 49.43942 
C 190.013954 50.678789 189.317586 52.35997 189.317586 54.112703 
C 189.317586 55.865435 190.013954 57.546616 191.253323 58.785985 
C 192.492692 60.025354 194.173873 60.721722 195.926606 60.721722 
z
" style="fill:#1e9d89;"/>
    <path clip-path="url(#p7daa902fae)" d="M 290.696507 177.813988 
C 292.441507 177.813988 294.115272 177.120692 295.349173 175.886791 
C 296.583074 174.65289 297.27637 172.979125 297.27637 171.234125 
C 297.27637 169.489125 296.583074 167.81536 295.349173 166.581459 
C 294.115272 165.347557 292.441507 164.654261 290.696507 164.654261 
C 288.951507 164.654261 287.277742 165.347557 286.043841 166.581459 
C 284.809939 167.81536 284.116643 169.489125 284.116643 171.234125 
C 284.116643 172.979125 284.809939 174.65289 286.043841 175.886791 
C 287.277742 177.120692 288.951507 177.813988 290.696507 177.813988 
z
" style="fill:#1e9b8a;"/>
    <path clip-path="url(#p7daa902fae)" d="M 228.243839 85.373247 
C 229.983595 85.373247 231.652329 84.682034 232.882522 83.451841 
C 234.112715 82.221648 234.803928 80.552914 234.803928 78.813158 
C 234.803928 77.073402 234.112715 75.404668 232.882522 74.174475 
C 231.652329 72.944282 229.983595 72.25307 228.243839 72.25307 
C 226.504083 72.25307 224.835349 72.944282 223.605156 74.174475 
C 222.374963 75.404668 221.68375 77.073402 221.68375 78.813158 
C 221.68375 80.552914 222.374963 82.221648 223.605156 83.451841 
C 224.835349 84.682034 226.504083 85.373247 228.243839 85.373247 
z
" style="fill:#2a768e;"/>
    <path clip-path="url(#p7daa902fae)" d="M 73.322304 223.53355 
C 75.130688 223.53355 76.865249 222.815072 78.143969 221.536351 
C 79.42269 220.25763 80.141169 218.523069 80.141169 216.714685 
C 80.141169 214.906301 79.42269 213.17174 78.143969 211.89302 
C 76.865249 210.614299 75.130688 209.895821 73.322304 209.895821 
C 71.51392 209.895821 69.779359 210.614299 68.500638 211.89302 
C 67.221918 213.17174 66.503439 214.906301 66.503439 216.714685 
C 66.503439 218.523069 67.221918 220.25763 68.500638 221.536351 
C 69.779359 222.815072 71.51392 223.53355 73.322304 223.53355 
z
" style="fill:#7cd250;"/>
    <path clip-path="url(#p7daa902fae)" d="M 71.011812 266.331326 
C 72.823614 266.331326 74.561453 265.611489 75.842591 264.330352 
C 77.123728 263.049214 77.843565 261.311375 77.843565 259.499573 
C 77.843565 257.68777 77.123728 255.949931 75.842591 254.668794 
C 74.561453 253.387656 72.823614 252.667819 71.011812 252.667819 
C 69.20001 252.667819 67.46217 253.387656 66.181033 254.668794 
C 64.899895 255.949931 64.180058 257.68777 64.180058 259.499573 
C 64.180058 261.311375 64.899895 263.049214 66.181033 264.330352 
C 67.46217 265.611489 69.20001 266.331326 71.011812 266.331326 
z
" style="fill:#31688e;"/>
    <path clip-path="url(#p7daa902fae)" d="M 177.950075 203.230819 
C 179.721772 203.230819 181.421143 202.526916 182.673922 201.274137 
C 183.926701 200.021358 184.630604 198.321986 184.630604 196.550289 
C 184.630604 194.778592 183.926701 193.07922 182.673922 191.826441 
C 181.421143 190.573662 179.721772 189.86976 177.950075 189.86976 
C 176.178377 189.86976 174.479006 190.573662 173.226227 191.826441 
C 171.973448 193.07922 171.269545 194.778592 171.269545 196.550289 
C 171.269545 198.321986 171.973448 200.021358 173.226227 201.274137 
C 174.479006 202.526916 176.178377 203.230819 177.950075 203.230819 
z
" style="fill:#32658e;"/>
    <path clip-path="url(#p7daa902fae)" d="M 157.079208 61.066739 
C 158.847701 61.066739 160.543999 60.364109 161.794512 59.113596 
C 163.045025 57.863083 163.747655 56.166785 163.747655 54.398292 
C 163.747655 52.6298 163.045025 50.933502 161.794512 49.682989 
C 160.543999 48.432476 158.847701 47.729846 157.079208 47.729846 
C 155.310716 47.729846 153.614418 48.432476 152.363905 49.682989 
C 151.113392 50.933502 150.410762 52.6298 150.410762 54.398292 
C 150.410762 56.166785 151.113392 57.863083 152.363905 59.113596 
C 153.614418 60.364109 155.310716 61.066739 157.079208 61.066739 
z
" style="fill:#1f9e89;"/>
    <path clip-path="url(#p7daa902fae)" d="M 135.659501 135.103703 
C 137.441926 135.103703 139.151587 134.395538 140.411951 133.135174 
C 141.672315 131.874809 142.38048 130.165148 142.38048 128.382724 
C 142.38048 126.600299 141.672315 124.890638 140.411951 123.630274 
C 139.151587 122.36991 137.441926 121.661745 135.659501 121.661745 
C 133.877077 121.661745 132.167416 122.36991 130.907051 123.630274 
C 129.646687 124.890638 128.938522 126.600299 128.938522 128.382724 
C 128.938522 130.165148 129.646687 131.874809 130.907051 133.135174 
C 132.167416 134.395538 133.877077 135.103703 135.659501 135.103703 
z
" style="fill:#25848e;"/>
    <path clip-path="url(#p7daa902fae)" d="M 116.220549 301.710112 
C 118.018888 301.710112 119.743814 300.995624 121.015432 299.724007 
C 122.287049 298.452389 123.001537 296.727463 123.001537 294.929124 
C 123.001537 293.130785 122.287049 291.405859 121.015432 290.134241 
C 119.743814 288.862623 118.018888 288.148135 116.220549 288.148135 
C 114.42221 288.148135 112.697284 288.862623 111.425666 290.134241 
C 110.154048 291.405859 109.43956 293.130785 109.43956 294.929124 
C 109.43956 296.727463 110.154048 298.452389 111.425666 299.724007 
C 112.697284 300.995624 114.42221 301.710112 116.220549 301.710112 
z
" style="fill:#2c718e;"/>
    <path clip-path="url(#p7daa902fae)" d="M 329.898917 198.511674 
C 331.648023 198.511674 333.325726 197.816747 334.56253 196.579942 
C 335.799335 195.343138 336.494262 193.665435 336.494262 191.916329 
C 336.494262 190.167223 335.799335 188.48952 334.56253 187.252716 
C 333.325726 186.015911 331.648023 185.320984 329.898917 185.320984 
C 328.149811 185.320984 326.472108 186.015911 325.235304 187.252716 
C 323.998499 188.48952 323.303572 190.167223 323.303572 191.916329 
C 323.303572 193.665435 323.998499 195.343138 325.235304 196.579942 
C 326.472108 197.816747 328.149811 198.511674 329.898917 198.511674 
z
" style="fill:#c0df25;"/>
    <path clip-path="url(#p7daa902fae)" d="M 237.842099 122.859954 
C 239.584369 122.859954 241.255514 122.167743 242.487485 120.935772 
C 243.719456 119.703801 244.411667 118.032656 244.411667 116.290386 
C 244.411667 114.548116 243.719456 112.87697 242.487485 111.644999 
C 241.255514 110.413028 239.584369 109.720817 237.842099 109.720817 
C 236.099829 109.720817 234.428683 110.413028 233.196712 111.644999 
C 231.964741 112.87697 231.27253 114.548116 231.27253 116.290386 
C 231.27253 118.032656 231.964741 119.703801 233.196712 120.935772 
C 234.428683 122.167743 236.099829 122.859954 237.842099 122.859954 
z
" style="fill:#1fa287;"/>
    <path clip-path="url(#p7daa902fae)" d="M 156.371971 281.710719 
C 158.15811 281.710719 159.871334 281.001079 161.134325 279.738088 
C 162.397315 278.475097 163.106956 276.761874 163.106956 274.975735 
C 163.106956 273.189596 162.397315 271.476372 161.134325 270.213381 
C 159.871334 268.950391 158.15811 268.24075 156.371971 268.24075 
C 154.585833 268.24075 152.872609 268.950391 151.609618 270.213381 
C 150.346627 271.476372 149.636987 273.189596 149.636987 274.975735 
C 149.636987 276.761874 150.346627 278.475097 151.609618 279.738088 
C 152.872609 281.001079 154.585833 281.710719 156.371971 281.710719 
z
" style="fill:#46085c;"/>
    <path clip-path="url(#p7daa902fae)" d="M 113.306714 212.453402 
C 115.09755 212.453402 116.815279 211.741896 118.081591 210.475584 
C 119.347902 209.209272 120.059409 207.491543 120.059409 205.700707 
C 120.059409 203.909872 119.347902 202.192143 118.081591 200.925831 
C 116.815279 199.659519 115.09755 198.948013 113.306714 198.948013 
C 111.515879 198.948013 109.79815 199.659519 108.531838 200.925831 
C 107.265526 202.192143 106.55402 203.909872 106.55402 205.700707 
C 106.55402 207.491543 107.265526 209.209272 108.531838 210.475584 
C 109.79815 211.741896 111.515879 212.453402 113.306714 212.453402 
z
" style="fill:#3c4f8a;"/>
    <path clip-path="url(#p7daa902fae)" d="M 89.482202 295.625012 
C 91.351971 295.625012 93.145411 294.882145 94.467537 293.560019 
C 95.789663 292.237893 96.53253 290.444454 96.53253 288.574685 
C 96.53253 286.704916 95.789663 284.911477 94.467537 283.589351 
C 93.145411 282.267225 91.351971 281.524358 89.482202 281.524358 
C 87.612434 281.524358 85.818994 282.267225 84.496868 283.589351 
C 83.174742 284.911477 82.431875 286.704916 82.431875 288.574685 
C 82.431875 290.444454 83.174742 292.237893 84.496868 293.560019 
C 85.818994 294.882145 87.612434 295.625012 89.482202 295.625012 
z
" style="fill:#fde725;"/>
    <path clip-path="url(#p7daa902fae)" d="M 136.282851 96.568552 
C 138.063407 96.568552 139.771276 95.86113 141.030319 94.602086 
C 142.289363 93.343043 142.996785 91.635174 142.996785 89.854618 
C 142.996785 88.074062 142.289363 86.366194 141.030319 85.10715 
C 139.771276 83.848107 138.063407 83.140685 136.282851 83.140685 
C 134.502295 83.140685 132.794427 83.848107 131.535383 85.10715 
C 130.27634 86.366194 129.568918 88.074062 129.568918 89.854618 
C 129.568918 91.635174 130.27634 93.343043 131.535383 94.602086 
C 132.794427 95.86113 134.502295 96.568552 136.282851 96.568552 
z
" style="fill:#26828e;"/>
    <path clip-path="url(#p7daa902fae)" d="M 250.432957 235.491462 
C 252.197641 235.491462 253.890286 234.790345 255.138105 233.542525 
C 256.385925 232.294706 257.087041 230.602061 257.087041 228.837377 
C 257.087041 227.072694 256.385925 225.380049 255.138105 224.13223 
C 253.890286 222.88441 252.197641 222.183293 250.432957 222.183293 
C 248.668274 222.183293 246.975629 222.88441 245.727809 224.13223 
C 244.47999 225.380049 243.778873 227.072694 243.778873 228.837377 
C 243.778873 230.602061 244.47999 232.294706 245.727809 233.542525 
C 246.975629 234.790345 248.668274 235.491462 250.432957 235.491462 
z
" style="fill:#471164;"/>
    <path clip-path="url(#p7daa902fae)" d="M 222.020889 199.584825 
C 223.781993 199.584825 225.471203 198.885132 226.716491 197.639843 
C 227.96178 196.394555 228.661473 194.705345 228.661473 192.944241 
C 228.661473 191.183138 227.96178 189.493928 226.716491 188.248639 
C 225.471203 187.003351 223.781993 186.303657 222.020889 186.303657 
C 220.259786 186.303657 218.570576 187.003351 217.325287 188.248639 
C 216.079999 189.493928 215.380305 191.183138 215.380305 192.944241 
C 215.380305 194.705345 216.079999 196.394555 217.325287 197.639843 
C 218.570576 198.885132 220.259786 199.584825 222.020889 199.584825 
z
" style="fill:#3f4889;"/>
    <path clip-path="url(#p7daa902fae)" d="M 151.265676 238.802416 
C 153.04691 238.802416 154.755429 238.094724 156.014952 236.835202 
C 157.274474 235.575679 157.982166 233.86716 157.982166 232.085926 
C 157.982166 230.304692 157.274474 228.596173 156.014952 227.33665 
C 154.755429 226.077128 153.04691 225.369436 151.265676 225.369436 
C 149.484442 225.369436 147.775923 226.077128 146.5164 227.33665 
C 145.256878 228.596173 144.549186 230.304692 144.549186 232.085926 
C 144.549186 233.86716 145.256878 235.575679 146.5164 236.835202 
C 147.775923 238.094724 149.484442 238.802416 151.265676 238.802416 
z
" style="fill:#365d8d;"/>
   </g>
   <g id="text_1">
    <!-- Structure #8562, $E_N$=-180.12eV, ΔE=0.16eV -->
    <defs>
     <path d="M 53.515625 70.515625 
L 53.515625 60.890625 
Q 47.90625 63.578125 42.921875 64.890625 
Q 37.9375 66.21875 33.296875 66.21875 
Q 25.25 66.21875 20.875 63.09375 
Q 16.5 59.96875 16.5 54.203125 
Q 16.5 49.359375 19.40625 46.890625 
Q 22.3125 44.4375 30.421875 42.921875 
L 36.375 41.703125 
Q 47.40625 39.59375 52.65625 34.296875 
Q 57.90625 29 57.90625 20.125 
Q 57.90625 9.515625 50.796875 4.046875 
Q 43.703125 -1.421875 29.984375 -1.421875 
Q 24.8125 -1.421875 18.96875 -0.25 
Q 13.140625 0.921875 6.890625 3.21875 
L 6.890625 13.375 
Q 12.890625 10.015625 18.65625 8.296875 
Q 24.421875 6.59375 29.984375 6.59375 
Q 38.421875 6.59375 43.015625 9.90625 
Q 47.609375 13.234375 47.609375 19.390625 
Q 47.609375 24.75 44.3125 27.78125 
Q 41.015625 30.8125 33.5 32.328125 
L 27.484375 33.5 
Q 16.453125 35.6875 11.515625 40.375 
Q 6.59375 45.0625 6.59375 53.421875 
Q 6.59375 63.09375 13.40625 68.65625 
Q 20.21875 74.21875 32.171875 74.21875 
Q 37.3125 74.21875 42.625 73.28125 
Q 47.953125 72.359375 53.515625 70.515625 
z
" id="DejaVuSans-53"/>
     <path d="M 18.3125 70.21875 
L 18.3125 54.6875 
L 36.8125 54.6875 
L 36.8125 47.703125 
L 18.3125 47.703125 
L 18.3125 18.015625 
Q 18.3125 11.328125 20.140625 9.421875 
Q 21.96875 7.515625 27.59375 7.515625 
L 36.8125 7.515625 
L 36.8125 0 
L 27.59375 0 
Q 17.1875 0 13.234375 3.875 
Q 9.28125 7.765625 9.28125 18.015625 
L 9.28125 47.703125 
L 2.6875 47.703125 
L 2.6875 54.6875 
L 9.28125 54.6875 
L 9.28125 70.21875 
z
" id="DejaVuSans-74"/>
     <path d="M 41.109375 46.296875 
Q 39.59375 47.171875 37.8125 47.578125 
Q 36.03125 48 33.890625 48 
Q 26.265625 48 22.1875 43.046875 
Q 18.109375 38.09375 18.109375 28.8125 
L 18.109375 0 
L 9.078125 0 
L 9.078125 54.6875 
L 18.109375 54.6875 
L 18.109375 46.1875 
Q 20.953125 51.171875 25.484375 53.578125 
Q 30.03125 56 36.53125 56 
Q 37.453125 56 38.578125 55.875 
Q 39.703125 55.765625 41.0625 55.515625 
z
" id="DejaVuSans-72"/>
     <path d="M 8.5 21.578125 
L 8.5 54.6875 
L 17.484375 54.6875 
L 17.484375 21.921875 
Q 17.484375 14.15625 20.5 10.265625 
Q 23.53125 6.390625 29.59375 6.390625 
Q 36.859375 6.390625 41.078125 11.03125 
Q 45.3125 15.671875 45.3125 23.6875 
L 45.3125 54.6875 
L 54.296875 54.6875 
L 54.296875 0 
L 45.3125 0 
L 45.3125 8.40625 
Q 42.046875 3.421875 37.71875 1 
Q 33.40625 -1.421875 27.6875 -1.421875 
Q 18.265625 -1.421875 13.375 4.4375 
Q 8.5 10.296875 8.5 21.578125 
z
M 31.109375 56 
z
" id="DejaVuSans-75"/>
     <path d="M 48.78125 52.59375 
L 48.78125 44.1875 
Q 44.96875 46.296875 41.140625 47.34375 
Q 37.3125 48.390625 33.40625 48.390625 
Q 24.65625 48.390625 19.8125 42.84375 
Q 14.984375 37.3125 14.984375 27.296875 
Q 14.984375 17.28125 19.8125 11.734375 
Q 24.65625 6.203125 33.40625 6.203125 
Q 37.3125 6.203125 41.140625 7.25 
Q 44.96875 8.296875 48.78125 10.40625 
L 48.78125 2.09375 
Q 45.015625 0.34375 40.984375 -0.53125 
Q 36.96875 -1.421875 32.421875 -1.421875 
Q 20.0625 -1.421875 12.78125 6.34375 
Q 5.515625 14.109375 5.515625 27.296875 
Q 5.515625 40.671875 12.859375 48.328125 
Q 20.21875 56 33.015625 56 
Q 37.15625 56 41.109375 55.140625 
Q 45.0625 54.296875 48.78125 52.59375 
z
" id="DejaVuSans-63"/>
     <path d="M 56.203125 29.59375 
L 56.203125 25.203125 
L 14.890625 25.203125 
Q 15.484375 15.921875 20.484375 11.0625 
Q 25.484375 6.203125 34.421875 6.203125 
Q 39.59375 6.203125 44.453125 7.46875 
Q 49.3125 8.734375 54.109375 11.28125 
L 54.109375 2.78125 
Q 49.265625 0.734375 44.1875 -0.34375 
Q 39.109375 -1.421875 33.890625 -1.421875 
Q 20.796875 -1.421875 13.15625 6.1875 
Q 5.515625 13.8125 5.515625 26.8125 
Q 5.515625 40.234375 12.765625 48.109375 
Q 20.015625 56 32.328125 56 
Q 43.359375 56 49.78125 48.890625 
Q 56.203125 41.796875 56.203125 29.59375 
z
M 47.21875 32.234375 
Q 47.125 39.59375 43.09375 43.984375 
Q 39.0625 48.390625 32.421875 48.390625 
Q 24.90625 48.390625 20.390625 44.140625 
Q 15.875 39.890625 15.1875 32.171875 
z
" id="DejaVuSans-65"/>
     <path id="DejaVuSans-20"/>
     <path d="M 51.125 44 
L 36.921875 44 
L 32.8125 27.6875 
L 47.125 27.6875 
z
M 43.796875 71.78125 
L 38.71875 51.515625 
L 52.984375 51.515625 
L 58.109375 71.78125 
L 65.921875 71.78125 
L 60.890625 51.515625 
L 76.125 51.515625 
L 76.125 44 
L 58.984375 44 
L 54.984375 27.6875 
L 70.515625 27.6875 
L 70.515625 20.21875 
L 53.078125 20.21875 
L 48 0 
L 40.1875 0 
L 45.21875 20.21875 
L 30.90625 20.21875 
L 25.875 0 
L 18.015625 0 
L 23.09375 20.21875 
L 7.71875 20.21875 
L 7.71875 27.6875 
L 24.90625 27.6875 
L 29 44 
L 13.28125 44 
L 13.28125 51.515625 
L 30.90625 51.515625 
L 35.890625 71.78125 
z
" id="DejaVuSans-23"/>
     <path d="M 31.78125 34.625 
Q 24.75 34.625 20.71875 30.859375 
Q 16.703125 27.09375 16.703125 20.515625 
Q 16.703125 13.921875 20.71875 10.15625 
Q 24.75 6.390625 31.78125 6.390625 
Q 38.8125 6.390625 42.859375 10.171875 
Q 46.921875 13.96875 46.921875 20.515625 
Q 46.921875 27.09375 42.890625 30.859375 
Q 38.875 34.625 31.78125 34.625 
z
M 21.921875 38.8125 
Q 15.578125 40.375 12.03125 44.71875 
Q 8.5 49.078125 8.5 55.328125 
Q 8.5 64.0625 14.71875 69.140625 
Q 20.953125 74.21875 31.78125 74.21875 
Q 42.671875 74.21875 48.875 69.140625 
Q 55.078125 64.0625 55.078125 55.328125 
Q 55.078125 49.078125 51.53125 44.71875 
Q 48 40.375 41.703125 38.8125 
Q 48.828125 37.15625 52.796875 32.3125 
Q 56.78125 27.484375 56.78125 20.515625 
Q 56.78125 9.90625 50.3125 4.234375 
Q 43.84375 -1.421875 31.78125 -1.421875 
Q 19.734375 -1.421875 13.25 4.234375 
Q 6.78125 9.90625 6.78125 20.515625 
Q 6.78125 27.484375 10.78125 32.3125 
Q 14.796875 37.15625 21.921875 38.8125 
z
M 18.3125 54.390625 
Q 18.3125 48.734375 21.84375 45.5625 
Q 25.390625 42.390625 31.78125 42.390625 
Q 38.140625 42.390625 41.71875 45.5625 
Q 45.3125 48.734375 45.3125 54.390625 
Q 45.3125 60.0625 41.71875 63.234375 
Q 38.140625 66.40625 31.78125 66.40625 
Q 25.390625 66.40625 21.84375 63.234375 
Q 18.3125 60.0625 18.3125 54.390625 
z
" id="DejaVuSans-38"/>
     <path d="M 10.796875 72.90625 
L 49.515625 72.90625 
L 49.515625 64.59375 
L 19.828125 64.59375 
L 19.828125 46.734375 
Q 21.96875 47.46875 24.109375 47.828125 
Q 26.265625 48.1875 28.421875 48.1875 
Q 40.625 48.1875 47.75 41.5 
Q 54.890625 34.8125 54.890625 23.390625 
Q 54.890625 11.625 47.5625 5.09375 
Q 40.234375 -1.421875 26.90625 -1.421875 
Q 22.3125 -1.421875 17.546875 -0.640625 
Q 12.796875 0.140625 7.71875 1.703125 
L 7.71875 11.625 
Q 12.109375 9.234375 16.796875 8.0625 
Q 21.484375 6.890625 26.703125 6.890625 
Q 35.15625 6.890625 40.078125 11.328125 
Q 45.015625 15.765625 45.015625 23.390625 
Q 45.015625 31 40.078125 35.4375 
Q 35.15625 39.890625 26.703125 39.890625 
Q 22.75 39.890625 18.8125 39.015625 
Q 14.890625 38.140625 10.796875 36.28125 
z
" id="DejaVuSans-35"/>
     <path d="M 33.015625 40.375 
Q 26.375 40.375 22.484375 35.828125 
Q 18.609375 31.296875 18.609375 23.390625 
Q 18.609375 15.53125 22.484375 10.953125 
Q 26.375 6.390625 33.015625 6.390625 
Q 39.65625 6.390625 43.53125 10.953125 
Q 47.40625 15.53125 47.40625 23.390625 
Q 47.40625 31.296875 43.53125 35.828125 
Q 39.65625 40.375 33.015625 40.375 
z
M 52.59375 71.296875 
L 52.59375 62.3125 
Q 48.875 64.0625 45.09375 64.984375 
Q 41.3125 65.921875 37.59375 65.921875 
Q 27.828125 65.921875 22.671875 59.328125 
Q 17.53125 52.734375 16.796875 39.40625 
Q 19.671875 43.65625 24.015625 45.921875 
Q 28.375 48.1875 33.59375 48.1875 
Q 44.578125 48.1875 50.953125 41.515625 
Q 57.328125 34.859375 57.328125 23.390625 
Q 57.328125 12.15625 50.6875 5.359375 
Q 44.046875 -1.421875 33.015625 -1.421875 
Q 20.359375 -1.421875 13.671875 8.265625 
Q 6.984375 17.96875 6.984375 36.375 
Q 6.984375 53.65625 15.1875 63.9375 
Q 23.390625 74.21875 37.203125 74.21875 
Q 40.921875 74.21875 44.703125 73.484375 
Q 48.484375 72.75 52.59375 71.296875 
z
" id="DejaVuSans-36"/>
     <path d="M 19.1875 8.296875 
L 53.609375 8.296875 
L 53.609375 0 
L 7.328125 0 
L 7.328125 8.296875 
Q 12.9375 14.109375 22.625 23.890625 
Q 32.328125 33.6875 34.8125 36.53125 
Q 39.546875 41.84375 41.421875 45.53125 
Q 43.3125 49.21875 43.3125 52.78125 
Q 43.3125 58.59375 39.234375 62.25 
Q 35.15625 65.921875 28.609375 65.921875 
Q 23.96875 65.921875 18.8125 64.3125 
Q 13.671875 62.703125 7.8125 59.421875 
L 7.8125 69.390625 
Q 13.765625 71.78125 18.9375 73 
Q 24.125 74.21875 28.421875 74.21875 
Q 39.75 74.21875 46.484375 68.546875 
Q 53.21875 62.890625 53.21875 53.421875 
Q 53.21875 48.921875 51.53125 44.890625 
Q 49.859375 40.875 45.40625 35.40625 
Q 44.1875 33.984375 37.640625 27.21875 
Q 31.109375 20.453125 19.1875 8.296875 
z
" id="DejaVuSans-32"/>
     <path d="M 11.71875 12.40625 
L 22.015625 12.40625 
L 22.015625 4 
L 14.015625 -11.625 
L 7.71875 -11.625 
L 11.71875 4 
z
" id="DejaVuSans-2c"/>
     <path d="M 16.890625 72.90625 
L 62.984375 72.90625 
L 61.375 64.59375 
L 25.09375 64.59375 
L 20.90625 43.015625 
L 55.71875 43.015625 
L 54.109375 34.71875 
L 19.28125 34.71875 
L 14.203125 8.296875 
L 51.3125 8.296875 
L 49.703125 0 
L 2.6875 0 
z
" id="DejaVuSans-Oblique-45"/>
     <path d="M 16.890625 72.90625 
L 30.171875 72.90625 
L 50.296875 10.40625 
L 62.5 72.90625 
L 72.125 72.90625 
L 57.90625 0 
L 44.578125 0 
L 24.515625 62.890625 
L 12.3125 0 
L 2.6875 0 
z
" id="DejaVuSans-Oblique-4e"/>
     <path d="M 10.59375 45.40625 
L 73.1875 45.40625 
L 73.1875 37.203125 
L 10.59375 37.203125 
z
M 10.59375 25.484375 
L 73.1875 25.484375 
L 73.1875 17.1875 
L 10.59375 17.1875 
z
" id="DejaVuSans-3d"/>
     <path d="M 4.890625 31.390625 
L 31.203125 31.390625 
L 31.203125 23.390625 
L 4.890625 23.390625 
z
" id="DejaVuSans-2d"/>
     <path d="M 12.40625 8.296875 
L 28.515625 8.296875 
L 28.515625 63.921875 
L 10.984375 60.40625 
L 10.984375 69.390625 
L 28.421875 72.90625 
L 38.28125 72.90625 
L 38.28125 8.296875 
L 54.390625 8.296875 
L 54.390625 0 
L 12.40625 0 
z
" id="DejaVuSans-31"/>
     <path d="M 31.78125 66.40625 
Q 24.171875 66.40625 20.328125 58.90625 
Q 16.5 51.421875 16.5 36.375 
Q 16.5 21.390625 20.328125 13.890625 
Q 24.171875 6.390625 31.78125 6.390625 
Q 39.453125 6.390625 43.28125 13.890625 
Q 47.125 21.390625 47.125 36.375 
Q 47.125 51.421875 43.28125 58.90625 
Q 39.453125 66.40625 31.78125 66.40625 
z
M 31.78125 74.21875 
Q 44.046875 74.21875 50.515625 64.515625 
Q 56.984375 54.828125 56.984375 36.375 
Q 56.984375 17.96875 50.515625 8.265625 
Q 44.046875 -1.421875 31.78125 -1.421875 
Q 19.53125 -1.421875 13.0625 8.265625 
Q 6.59375 17.96875 6.59375 36.375 
Q 6.59375 54.828125 13.0625 64.515625 
Q 19.53125 74.21875 31.78125 74.21875 
z
" id="DejaVuSans-30"/>
     <path d="M 10.6875 12.40625 
L 21 12.40625 
L 21 0 
L 10.6875 0 
z
" id="DejaVuSans-2e"/>
     <path d="M 28.609375 0 
L 0.78125 72.90625 
L 11.078125 72.90625 
L 34.1875 11.53125 
L 57.328125 72.90625 
L 67.578125 72.90625 
L 39.796875 0 
z
" id="DejaVuSans-56"/>
     <path d="M 34.1875 63.1875 
L 14.15625 8.203125 
L 54.25 8.203125 
z
M 0.78125 0 
L 28.609375 72.90625 
L 39.796875 72.90625 
L 67.578125 0 
z
" id="DejaVuSans-394"/>
     <path d="M 9.8125 72.90625 
L 55.90625 72.90625 
L 55.90625 64.59375 
L 19.671875 64.59375 
L 19.671875 43.015625 
L 54.390625 43.015625 
L 54.390625 34.71875 
L 19.671875 34.71875 
L 19.671875 8.296875 
L 56.78125 8.296875 
L 56.78125 0 
L 9.8125 0 
z
" id="DejaVuSans-45"/>
    </defs>
    <g transform="translate(65.388 35.472)scale(0.12 -0.12)">
     <use transform="translate(0 0.78125)" xlink:href="#DejaVuSans-53"/>
     <use transform="translate(63.476562 0.78125)" xlink:href="#DejaVuSans-74"/>
     <use transform="translate(102.685547 0.78125)" xlink:href="#DejaVuSans-72"/>
     <use transform="translate(143.798828 0.78125)" xlink:href="#DejaVuSans-75"/>
     <use transform="translate(207.177734 0.78125)" xlink:href="#DejaVuSans-63"/>
     <use transform="translate(262.158203 0.78125)" xlink:href="#DejaVuSans-74"/>
     <use transform="translate(301.367188 0.78125)" xlink:href="#DejaVuSans-75"/>
     <use transform="translate(364.746094 0.78125)" xlink:href="#DejaVuSans-72"/>
     <use transform="translate(405.859375 0.78125)" xlink:href="#DejaVuSans-65"/>
     <use transform="translate(467.382812 0.78125)" xlink:href="#DejaVuSans-20"/>
     <use transform="translate(499.169922 0.78125)" xlink:href="#DejaVuSans-23"/>
     <use transform="translate(582.958984 0.78125)" xlink:href="#DejaVuSans-38"/>
     <use transform="translate(646.582031 0.78125)" xlink:href="#DejaVuSans-35"/>
     <use transform="translate(710.205078 0.78125)" xlink:href="#DejaVuSans-36"/>
     <use transform="translate(773.828125 0.78125)" xlink:href="#DejaVuSans-32"/>
     <use transform="translate(837.451172 0.78125)" xlink:href="#DejaVuSans-2c"/>
     <use transform="translate(869.238281 0.78125)" xlink:href="#DejaVuSans-20"/>
     <use transform="translate(901.025391 0.78125)" xlink:href="#DejaVuSans-Oblique-45"/>
     <use transform="translate(964.208984 -15.625)scale(0.7)" xlink:href="#DejaVuSans-Oblique-4e"/>
     <use transform="translate(1019.306641 0.78125)" xlink:href="#DejaVuSans-3d"/>
     <use transform="translate(1103.095703 0.78125)" xlink:href="#DejaVuSans-2d"/>
     <use transform="translate(1139.179688 0.78125)" xlink:href="#DejaVuSans-31"/>
     <use transform="translate(1202.802734 0.78125)" xlink:href="#DejaVuSans-38"/>
     <use transform="translate(1266.425781 0.78125)" xlink:href="#DejaVuSans-30"/>
     <use transform="translate(1330.048828 0.78125)" xlink:href="#DejaVuSans-2e"/>
     <use transform="translate(1361.835938 0.78125)" xlink:href="#DejaVuSans-31"/>
     <use transform="translate(1425.458984 0.78125)" xlink:href="#DejaVuSans-32"/>
     <use transform="translate(1489.082031 0.78125)" xlink:href="#DejaVuSans-65"/>
     <use transform="translate(1550.605469 0.78125)" xlink:href="#DejaVuSans-56"/>
     <use transform="translate(1619.013672 0.78125)" xlink:href="#DejaVuSans-2c"/>
     <use transform="translate(1650.800781 0.78125)" xlink:href="#DejaVuSans-20"/>
     <use transform="translate(1682.587891 0.78125)" xlink:href="#DejaVuSans-394"/>
     <use transform="translate(1750.996094 0.78125)" xlink:href="#DejaVuSans-45"/>
     <use transform="translate(1814.179688 0.78125)" xlink:href="#DejaVuSans-3d"/>
     <use transform="translate(1897.96875 0.78125)" xlink:href="#DejaVuSans-30"/>
     <use transform="translate(1961.591797 0.78125)" xlink:href="#DejaVuSans-2e"/>
     <use transform="translate(1993.378906 0.78125)" xlink:href="#DejaVuSans-31"/>
     <use transform="translate(2057.001953 0.78125)" xlink:href="#DejaVuSans-36"/>
     <use transform="translate(2120.625 0.78125)" xlink:href="#DejaVuSans-65"/>
     <use transform="translate(2182.148438 0.78125)" xlink:href="#DejaVuSans-56"/>
    </g>
   </g>
  </g>
  <g id="axes_2">
   <g id="patch_2">
    <path clip-path="url(#p8622f0b4ff)" d="M 361.152 307.584 
L 361.152 306.5445 
L 361.152 42.5115 
L 361.152 41.472 
L 374.4576 41.472 
L 374.4576 42.5115 
L 374.4576 306.5445 
L 374.4576 307.584 
z
" style="fill:#ffffff;stroke:#ffffff;stroke-linejoin:miter;stroke-width:0.01;"/>
   </g>
   <image height="265.68" id="image414495fff3" transform="scale(1 -1)translate(0 -265.68)" width="12.96" x="361.44" xlink:href="data:image/png;base64,
iVBORw0KGgoAAAANSUhEUgAAABIAAAFxCAYAAAB+2fgXAAAABHNCSVQICAgIfAhkiAAAAeVJREFUeJztncmNw0AQA2ckheYQNv9QLIfQ8ygsCgQ7AEI8+jAs2Puz/94F1LP2ReCsZ18bAWIeZ5XaGRBE7VnbptG+KI101FYyNSiQG2oRITXKNaX9uclOdi2XWjftVE32CZCO2ou5Bj1TcCBr/1zB9ge7Fq0Rg2NM9pvbtG+ua1QgsRYhDy0ISEiNc40BEibbSI0Coj5CBGtkpFbXJiAjNZlrwhuSOv2M1DjXbEdEciBt1JSDDQKKpmZr2rr2j0DBGpXaWEJq3bQzEPIS26r9J+Wzv9Tm8o3aajRXqc3VUXsApKNWjeZq0x4ABVNbm7lrszVigDqP5vIl2+eaT2yfRkL7g+dRcNPqjohkjaCvRVBq0H2U3LQrOJCx9kdTg4B8oxZzzTdqdYHEngjUCAPyUctN9sVRq2sTECW2UKNLd2jVtRmo1A6AhMmWaSRcR8nUdIHUuVb75zJS218EyEitro1At69pIdeSk30Lkw0FktNImGyZRhy1O5galmxd03LUsHWk06jUZiCq+5Wb1kZNN4+wJxJuWt8RAW5am2sYNZ9rYCBzZ3buPKJ2P5Yj4Toy3keyIyJbIxs1rml1byCA84gpch5RQNB7Q0qNMGq2Hy4BXdNR41yz/cEEJfZzUz96r9PoB0okjeQ8y9TkAAAAAElFTkSuQmCC" y="-41.76"/>
   <g id="matplotlib.axis_1"/>
   <g id="matplotlib.axis_2">
    <g id="ytick_1">
     <g id="line2d_1">
      <defs>
       <path d="M 0 0 
L 3.5 0 
" id="mc4d7b9a175" style="stroke:#000000;stroke-width:0.8;"/>
      </defs>
      <g>
       <use style="stroke:#000000;stroke-width:0.8;" x="374.4576" xlink:href="#mc4d7b9a175" y="279.262455"/>
      </g>
     </g>
     <g id="text_2">
      <!-- −8.5 -->
      <defs>
       <path d="M 10.59375 35.5 
L 73.1875 35.5 
L 73.1875 27.203125 
L 10.59375 27.203125 
z
" id="DejaVuSans-2212"/>
      </defs>
      <g transform="translate(381.4576 283.061674)scale(0.1 -0.1)">
       <use xlink:href="#DejaVuSans-2212"/>
       <use x="83.789062" xlink:href="#DejaVuSans-38"/>
       <use x="147.412109" xlink:href="#DejaVuSans-2e"/>
       <use x="179.199219" xlink:href="#DejaVuSans-35"/>
      </g>
     </g>
    </g>
    <g id="ytick_2">
     <g id="line2d_2">
      <g>
       <use style="stroke:#000000;stroke-width:0.8;" x="374.4576" xlink:href="#mc4d7b9a175" y="233.050483"/>
      </g>
     </g>
     <g id="text_3">
      <!-- −8.0 -->
      <g transform="translate(381.4576 236.849702)scale(0.1 -0.1)">
       <use xlink:href="#DejaVuSans-2212"/>
       <use x="83.789062" xlink:href="#DejaVuSans-38"/>
       <use x="147.412109" xlink:href="#DejaVuSans-2e"/>
       <use x="179.199219" xlink:href="#DejaVuSans-30"/>
      </g>
     </g>
    </g>
    <g id="ytick_3">
     <g id="line2d_3">
      <g>
       <use style="stroke:#000000;stroke-width:0.8;" x="374.4576" xlink:href="#mc4d7b9a175" y="186.83851"/>
      </g>
     </g>
     <g id="text_4">
      <!-- −7.5 -->
      <defs>
       <path d="M 8.203125 72.90625 
L 55.078125 72.90625 
L 55.078125 68.703125 
L 28.609375 0 
L 18.3125 0 
L 43.21875 64.59375 
L 8.203125 64.59375 
z
" id="DejaVuSans-37"/>
      </defs>
      <g transform="translate(381.4576 190.637729)scale(0.1 -0.1)">
       <use xlink:href="#DejaVuSans-2212"/>
       <use x="83.789062" xlink:href="#DejaVuSans-37"/>
       <use x="147.412109" xlink:href="#DejaVuSans-2e"/>
       <use x="179.199219" xlink:href="#DejaVuSans-35"/>
      </g>
     </g>
    </g>
    <g id="ytick_4">
     <g id="line2d_4">
      <g>
       <use style="stroke:#000000;stroke-width:0.8;" x="374.4576" xlink:href="#mc4d7b9a175" y="140.626538"/>
      </g>
     </g>
     <g id="text_5">
      <!-- −7.0 -->
      <g transform="translate(381.4576 144.425757)scale(0.1 -0.1)">
       <use xlink:href="#DejaVuSans-2212"/>
       <use x="83.789062" xlink:href="#DejaVuSans-37"/>
       <use x="147.412109" xlink:href="#DejaVuSans-2e"/>
       <use x="179.199219" xlink:href="#DejaVuSans-30"/>
      </g>
     </g>
    </g>
    <g id="ytick_5">
     <g id="line2d_5">
      <g>
       <use style="stroke:#000000;stroke-width:0.8;" x="374.4576" xlink:href="#mc4d7b9a175" y="94.414566"/>
      </g>
     </g>
     <g id="text_6">
      <!-- −6.5 -->
      <g transform="translate(381.4576 98.213784)scale(0.1 -0.1)">
       <use xlink:href="#DejaVuSans-2212"/>
       <use x="83.789062" xlink:href="#DejaVuSans-36"/>
       <use x="147.412109" xlink:href="#DejaVuSans-2e"/>
       <use x="179.199219" xlink:href="#DejaVuSans-35"/>
      </g>
     </g>
    </g>
    <g id="ytick_6">
     <g id="line2d_6">
      <g>
       <use style="stroke:#000000;stroke-width:0.8;" x="374.4576" xlink:href="#mc4d7b9a175" y="48.202593"/>
      </g>
     </g>
     <g id="text_7">
      <!-- −6.0 -->
      <g transform="translate(381.4576 52.001812)scale(0.1 -0.1)">
       <use xlink:href="#DejaVuSans-2212"/>
       <use x="83.789062" xlink:href="#DejaVuSans-36"/>
       <use x="147.412109" xlink:href="#DejaVuSans-2e"/>
       <use x="179.199219" xlink:href="#DejaVuSans-30"/>
      </g>
     </g>
    </g>
    <g id="text_8">
     <!-- Energy [eV] -->
     <defs>
      <path d="M 54.890625 33.015625 
L 54.890625 0 
L 45.90625 0 
L 45.90625 32.71875 
Q 45.90625 40.484375 42.875 44.328125 
Q 39.84375 48.1875 33.796875 48.1875 
Q 26.515625 48.1875 22.3125 43.546875 
Q 18.109375 38.921875 18.109375 30.90625 
L 18.109375 0 
L 9.078125 0 
L 9.078125 54.6875 
L 18.109375 54.6875 
L 18.109375 46.1875 
Q 21.34375 51.125 25.703125 53.5625 
Q 30.078125 56 35.796875 56 
Q 45.21875 56 50.046875 50.171875 
Q 54.890625 44.34375 54.890625 33.015625 
z
" id="DejaVuSans-6e"/>
      <path d="M 45.40625 27.984375 
Q 45.40625 37.75 41.375 43.109375 
Q 37.359375 48.484375 30.078125 48.484375 
Q 22.859375 48.484375 18.828125 43.109375 
Q 14.796875 37.75 14.796875 27.984375 
Q 14.796875 18.265625 18.828125 12.890625 
Q 22.859375 7.515625 30.078125 7.515625 
Q 37.359375 7.515625 41.375 12.890625 
Q 45.40625 18.265625 45.40625 27.984375 
z
M 54.390625 6.78125 
Q 54.390625 -7.171875 48.1875 -13.984375 
Q 42 -20.796875 29.203125 -20.796875 
Q 24.46875 -20.796875 20.265625 -20.09375 
Q 16.0625 -19.390625 12.109375 -17.921875 
L 12.109375 -9.1875 
Q 16.0625 -11.328125 19.921875 -12.34375 
Q 23.78125 -13.375 27.78125 -13.375 
Q 36.625 -13.375 41.015625 -8.765625 
Q 45.40625 -4.15625 45.40625 5.171875 
L 45.40625 9.625 
Q 42.625 4.78125 38.28125 2.390625 
Q 33.9375 0 27.875 0 
Q 17.828125 0 11.671875 7.65625 
Q 5.515625 15.328125 5.515625 27.984375 
Q 5.515625 40.671875 11.671875 48.328125 
Q 17.828125 56 27.875 56 
Q 33.9375 56 38.28125 53.609375 
Q 42.625 51.21875 45.40625 46.390625 
L 45.40625 54.6875 
L 54.390625 54.6875 
z
" id="DejaVuSans-67"/>
      <path d="M 32.171875 -5.078125 
Q 28.375 -14.84375 24.75 -17.8125 
Q 21.140625 -20.796875 15.09375 -20.796875 
L 7.90625 -20.796875 
L 7.90625 -13.28125 
L 13.1875 -13.28125 
Q 16.890625 -13.28125 18.9375 -11.515625 
Q 21 -9.765625 23.484375 -3.21875 
L 25.09375 0.875 
L 2.984375 54.6875 
L 12.5 54.6875 
L 29.59375 11.921875 
L 46.6875 54.6875 
L 56.203125 54.6875 
z
" id="DejaVuSans-79"/>
      <path d="M 8.59375 75.984375 
L 29.296875 75.984375 
L 29.296875 69 
L 17.578125 69 
L 17.578125 -6.203125 
L 29.296875 -6.203125 
L 29.296875 -13.1875 
L 8.59375 -13.1875 
z
" id="DejaVuSans-5b"/>
      <path d="M 30.421875 75.984375 
L 30.421875 -13.1875 
L 9.71875 -13.1875 
L 9.71875 -6.203125 
L 21.390625 -6.203125 
L 21.390625 69 
L 9.71875 69 
L 9.71875 75.984375 
z
" id="DejaVuSans-5d"/>
     </defs>
     <g transform="translate(417.33885 204.108469)rotate(-90)scale(0.1 -0.1)">
      <use xlink:href="#DejaVuSans-45"/>
      <use x="63.183594" xlink:href="#DejaVuSans-6e"/>
      <use x="126.5625" xlink:href="#DejaVuSans-65"/>
      <use x="188.085938" xlink:href="#DejaVuSans-72"/>
      <use x="229.183594" xlink:href="#DejaVuSans-67"/>
      <use x="292.660156" xlink:href="#DejaVuSans-79"/>
      <use x="351.839844" xlink:href="#DejaVuSans-20"/>
      <use x="383.626953" xlink:href="#DejaVuSans-5b"/>
      <use x="422.640625" xlink:href="#DejaVuSans-65"/>
      <use x="484.164062" xlink:href="#DejaVuSans-56"/>
      <use x="552.572266" xlink:href="#DejaVuSans-5d"/>
     </g>
    </g>
   </g>
   <g id="patch_3">
    <path d="M 361.152 307.584 
L 361.152 306.5445 
L 361.152 42.5115 
L 361.152 41.472 
L 374.4576 41.472 
L 374.4576 42.5115 
L 374.4576 306.5445 
L 374.4576 307.584 
z
" style="fill:none;stroke:#000000;stroke-linejoin:miter;stroke-width:0.8;"/>
   </g>
  </g>
 </g>
 <defs>
  <clipPath id="p7daa902fae">
   <rect height="266.112" width="285.696" x="57.6" y="41.472"/>
  </clipPath>
  <clipPath id="p8622f0b4ff">
   <rect height="266.112" width="13.3056" x="361.152" y="41.472"/>
  </clipPath>
 </defs>
</svg>
