<?xml version="1.0" encoding="utf-8" standalone="no"?>
<!DOCTYPE svg PUBLIC "-//W3C//DTD SVG 1.1//EN"
  "http://www.w3.org/Graphics/SVG/1.1/DTD/svg11.dtd">
<!-- Created with matplotlib (http://matplotlib.org/) -->
<svg height="345.6pt" version="1.1" viewBox="0 0 460.8 345.6" width="460.8pt" xmlns="http://www.w3.org/2000/svg" xmlns:xlink="http://www.w3.org/1999/xlink">
 <defs>
  <style type="text/css">
*{stroke-linecap:butt;stroke-linejoin:round;}
  </style>
 </defs>
 <g id="figure_1">
  <g id="patch_1">
   <path d="M 0 345.6 
L 460.8 345.6 
L 460.8 0 
L 0 0 
z
" style="fill:#ffffff;"/>
  </g>
  <g id="axes_1">
   <g id="CircleCollection_1">
    <path clip-path="url(#pda6c2a0e7d)" d="M 249.074884 301.584329 
C 250.848485 301.584329 252.549683 300.87967 253.803809 299.625544 
C 255.057934 298.371419 255.762593 296.670221 255.762593 294.896619 
C 255.762593 293.123018 255.057934 291.42182 253.803809 290.167694 
C 252.549683 288.913569 250.848485 288.208909 249.074884 288.208909 
C 247.301282 288.208909 245.600084 288.913569 244.345959 290.167694 
C 243.091833 291.42182 242.387174 293.123018 242.387174 294.896619 
C 242.387174 296.670221 243.091833 298.371419 244.345959 299.625544 
C 245.600084 300.87967 247.301282 301.584329 249.074884 301.584329 
z
" style="fill:#2f6c8e;"/>
    <path clip-path="url(#pda6c2a0e7d)" d="M 185.390718 63.836825 
C 187.152824 63.836825 188.842995 63.136733 190.088991 61.890737 
C 191.334987 60.644741 192.035079 58.95457 192.035079 57.192464 
C 192.035079 55.430359 191.334987 53.740188 190.088991 52.494192 
C 188.842995 51.248195 187.152824 50.548104 185.390718 50.548104 
C 183.628613 50.548104 181.938442 51.248195 180.692446 52.494192 
C 179.44645 53.740188 178.746358 55.430359 178.746358 57.192464 
C 178.746358 58.95457 179.44645 60.644741 180.692446 61.890737 
C 181.938442 63.136733 183.628613 63.836825 185.390718 63.836825 
z
" style="fill:#29798e;"/>
    <path clip-path="url(#pda6c2a0e7d)" d="M 298.753463 295.287348 
C 300.558249 295.287348 302.289358 294.570299 303.565535 293.294123 
C 304.841711 292.017946 305.55876 290.286836 305.55876 288.48205 
C 305.55876 286.677264 304.841711 284.946154 303.565535 283.669978 
C 302.289358 282.393802 300.558249 281.676752 298.753463 281.676752 
C 296.948676 281.676752 295.217567 282.393802 293.94139 283.669978 
C 292.665214 284.946154 291.948165 286.677264 291.948165 288.48205 
C 291.948165 290.286836 292.665214 292.017946 293.94139 293.294123 
C 295.217567 294.570299 296.948676 295.287348 298.753463 295.287348 
z
" style="fill:#26818e;"/>
    <path clip-path="url(#pda6c2a0e7d)" d="M 233.200208 123.468844 
C 235.073766 123.468844 236.870839 122.724472 238.195644 121.399667 
C 239.520449 120.074862 240.264821 118.277789 240.264821 116.404231 
C 240.264821 114.530674 239.520449 112.733601 238.195644 111.408795 
C 236.870839 110.08399 235.073766 109.339618 233.200208 109.339618 
C 231.326651 109.339618 229.529578 110.08399 228.204772 111.408795 
C 226.879967 112.733601 226.135595 114.530674 226.135595 116.404231 
C 226.135595 118.277789 226.879967 120.074862 228.204772 121.399667 
C 229.529578 122.724472 231.326651 123.468844 233.200208 123.468844 
z
" style="fill:#33628d;"/>
    <path clip-path="url(#pda6c2a0e7d)" d="M 172.992187 109.712565 
C 174.737945 109.712565 176.412436 109.018968 177.646874 107.78453 
C 178.881311 106.550093 179.574908 104.875602 179.574908 103.129844 
C 179.574908 101.384086 178.881311 99.709595 177.646874 98.475157 
C 176.412436 97.24072 174.737945 96.547123 172.992187 96.547123 
C 171.246429 96.547123 169.571938 97.24072 168.337501 98.475157 
C 167.103063 99.709595 166.409466 101.384086 166.409466 103.129844 
C 166.409466 104.875602 167.103063 106.550093 168.337501 107.78453 
C 169.571938 109.018968 171.246429 109.712565 172.992187 109.712565 
z
" style="fill:#3bbb75;"/>
    <path clip-path="url(#pda6c2a0e7d)" d="M 80.159976 139.266212 
C 81.946286 139.266212 83.659675 138.556503 84.922787 137.293391 
C 86.185899 136.030278 86.895608 134.31689 86.895608 132.530579 
C 86.895608 130.744269 86.185899 129.03088 84.922787 127.767768 
C 83.659675 126.504656 81.946286 125.794947 80.159976 125.794947 
C 78.373665 125.794947 76.660277 126.504656 75.397164 127.767768 
C 74.134052 129.03088 73.424343 130.744269 73.424343 132.530579 
C 73.424343 134.31689 74.134052 136.030278 75.397164 137.293391 
C 76.660277 138.556503 78.373665 139.266212 80.159976 139.266212 
z
" style="fill:#3a548c;"/>
    <path clip-path="url(#pda6c2a0e7d)" d="M 200.208738 289.194498 
C 201.981039 289.194498 203.68099 288.490356 204.934196 287.23715 
C 206.187402 285.983944 206.891545 284.283993 206.891545 282.511692 
C 206.891545 280.739391 206.187402 279.03944 204.934196 277.786234 
C 203.68099 276.533028 201.981039 275.828885 200.208738 275.828885 
C 198.436437 275.828885 196.736486 276.533028 195.48328 277.786234 
C 194.230074 279.03944 193.525931 280.739391 193.525931 282.511692 
C 193.525931 284.283993 194.230074 285.983944 195.48328 287.23715 
C 196.736486 288.490356 198.436437 289.194498 200.208738 289.194498 
z
" style="fill:#25848e;"/>
    <path clip-path="url(#pda6c2a0e7d)" d="M 109.863492 108.161027 
C 111.595897 108.161027 113.257581 107.472734 114.482577 106.247739 
C 115.707573 105.022743 116.395865 103.361059 116.395865 101.628653 
C 116.395865 99.896247 115.707573 98.234563 114.482577 97.009567 
C 113.257581 95.784572 111.595897 95.096279 109.863492 95.096279 
C 108.131086 95.096279 106.469402 95.784572 105.244406 97.009567 
C 104.01941 98.234563 103.331118 99.896247 103.331118 101.628653 
C 103.331118 103.361059 104.01941 105.022743 105.244406 106.247739 
C 106.469402 107.472734 108.131086 108.161027 109.863492 108.161027 
z
" style="fill:#20a386;"/>
    <path clip-path="url(#pda6c2a0e7d)" d="M 82.093005 219.63518 
C 83.814085 219.63518 85.464906 218.951387 86.681893 217.7344 
C 87.89888 216.517413 88.582672 214.866592 88.582672 213.145512 
C 88.582672 211.424432 87.89888 209.773612 86.681893 208.556624 
C 85.464906 207.339637 83.814085 206.655845 82.093005 206.655845 
C 80.371925 206.655845 78.721104 207.339637 77.504117 208.556624 
C 76.28713 209.773612 75.603338 211.424432 75.603338 213.145512 
C 75.603338 214.866592 76.28713 216.517413 77.504117 217.7344 
C 78.721104 218.951387 80.371925 219.63518 82.093005 219.63518 
z
" style="fill:#fde725;"/>
    <path clip-path="url(#pda6c2a0e7d)" d="M 329.745823 267.493587 
C 331.584622 267.493587 333.348356 266.763025 334.648583 265.462797 
C 335.948811 264.16257 336.679373 262.398836 336.679373 260.560037 
C 336.679373 258.721238 335.948811 256.957504 334.648583 255.657276 
C 333.348356 254.357049 331.584622 253.626487 329.745823 253.626487 
C 327.907024 253.626487 326.14329 254.357049 324.843063 255.657276 
C 323.542835 256.957504 322.812273 258.721238 322.812273 260.560037 
C 322.812273 262.398836 323.542835 264.16257 324.843063 265.462797 
C 326.14329 266.763025 327.907024 267.493587 329.745823 267.493587 
z
" style="fill:#24878e;"/>
    <path clip-path="url(#pda6c2a0e7d)" d="M 225.066367 61.047001 
C 226.888678 61.047001 228.636597 60.32299 229.925166 59.034421 
C 231.213734 57.745853 231.937746 55.997933 231.937746 54.175622 
C 231.937746 52.353311 231.213734 50.605392 229.925166 49.316824 
C 228.636597 48.028255 226.888678 47.304243 225.066367 47.304243 
C 223.244056 47.304243 221.496137 48.028255 220.207568 49.316824 
C 218.919 50.605392 218.194988 52.353311 218.194988 54.175622 
C 218.194988 55.997933 218.919 57.745853 220.207568 59.034421 
C 221.496137 60.32299 223.244056 61.047001 225.066367 61.047001 
z
" style="fill:#27ad81;"/>
    <path clip-path="url(#pda6c2a0e7d)" d="M 249.436744 168.044551 
C 251.311991 168.044551 253.110686 167.299507 254.436686 165.973507 
C 255.762686 164.647507 256.50773 162.848812 256.50773 160.973565 
C 256.50773 159.098317 255.762686 157.299623 254.436686 155.973622 
C 253.110686 154.647622 251.311991 153.902579 249.436744 153.902579 
C 247.561497 153.902579 245.762802 154.647622 244.436802 155.973622 
C 243.110802 157.299623 242.365758 159.098317 242.365758 160.973565 
C 242.365758 162.848812 243.110802 164.647507 244.436802 165.973507 
C 245.762802 167.299507 247.561497 168.044551 249.436744 168.044551 
z
" style="fill:#440154;"/>
    <path clip-path="url(#pda6c2a0e7d)" d="M 71.132309 184.801191 
C 72.912853 184.801191 74.620711 184.093773 75.879746 182.834738 
C 77.138781 181.575703 77.846198 179.867846 77.846198 178.087302 
C 77.846198 176.306758 77.138781 174.5989 75.879746 173.339865 
C 74.620711 172.08083 72.912853 171.373413 71.132309 171.373413 
C 69.351765 171.373413 67.643907 172.08083 66.384873 173.339865 
C 65.125838 174.5989 64.41842 176.306758 64.41842 178.087302 
C 64.41842 179.867846 65.125838 181.575703 66.384873 182.834738 
C 67.643907 184.093773 69.351765 184.801191 71.132309 184.801191 
z
" style="fill:#424186;"/>
    <path clip-path="url(#pda6c2a0e7d)" d="M 98.195222 255.699523 
C 99.972287 255.699523 101.676807 254.993488 102.933381 253.736913 
C 104.189956 252.480339 104.895991 250.775819 104.895991 248.998754 
C 104.895991 247.22169 104.189956 245.51717 102.933381 244.260595 
C 101.676807 243.004021 99.972287 242.297986 98.195222 242.297986 
C 96.418158 242.297986 94.713638 243.004021 93.457063 244.260595 
C 92.200489 245.51717 91.494454 247.22169 91.494454 248.998754 
C 91.494454 250.775819 92.200489 252.480339 93.457063 253.736913 
C 94.713638 254.993488 96.418158 255.699523 98.195222 255.699523 
z
" style="fill:#35b779;"/>
    <path clip-path="url(#pda6c2a0e7d)" d="M 126.854224 71.429527 
C 128.639319 71.429527 130.351542 70.720301 131.613795 69.458048 
C 132.876048 68.195795 133.585274 66.483572 133.585274 64.698477 
C 133.585274 62.913381 132.876048 61.201158 131.613795 59.938905 
C 130.351542 58.676652 128.639319 57.967426 126.854224 57.967426 
C 125.069128 57.967426 123.356905 58.676652 122.094652 59.938905 
C 120.832399 61.201158 120.123173 62.913381 120.123173 64.698477 
C 120.123173 66.483572 120.832399 68.195795 122.094652 69.458048 
C 123.356905 70.720301 125.069128 71.429527 126.854224 71.429527 
z
" style="fill:#4ec36b;"/>
    <path clip-path="url(#pda6c2a0e7d)" d="M 256.651902 79.926057 
C 258.526408 79.926057 260.324392 79.181308 261.649868 77.855832 
C 262.975344 76.530355 263.720093 74.732372 263.720093 72.857866 
C 263.720093 70.983359 262.975344 69.185376 261.649868 67.8599 
C 260.324392 66.534424 258.526408 65.789674 256.651902 65.789674 
C 254.777396 65.789674 252.979412 66.534424 251.653936 67.8599 
C 250.32846 69.185376 249.583711 70.983359 249.583711 72.857866 
C 249.583711 74.732372 250.32846 76.530355 251.653936 77.855832 
C 252.979412 79.181308 254.777396 79.926057 256.651902 79.926057 
z
" style="fill:#29af7f;"/>
    <path clip-path="url(#pda6c2a0e7d)" d="M 101.530397 215.533798 
C 103.360331 215.533798 105.115561 214.806758 106.409519 213.5128 
C 107.703477 212.218842 108.430517 210.463611 108.430517 208.633678 
C 108.430517 206.803745 107.703477 205.048515 106.409519 203.754557 
C 105.115561 202.460599 103.360331 201.733559 101.530397 201.733559 
C 99.700464 201.733559 97.945234 202.460599 96.651276 203.754557 
C 95.357318 205.048515 94.630278 206.803745 94.630278 208.633678 
C 94.630278 210.463611 95.357318 212.218842 96.651276 213.5128 
C 97.945234 214.806758 99.700464 215.533798 101.530397 215.533798 
z
" style="fill:#1f948c;"/>
    <path clip-path="url(#pda6c2a0e7d)" d="M 297.078901 192.269803 
C 298.963633 192.269803 300.771425 191.520991 302.104132 190.188284 
C 303.436838 188.855577 304.18565 187.047786 304.18565 185.163054 
C 304.18565 183.278322 303.436838 181.47053 302.104132 180.137824 
C 300.771425 178.805117 298.963633 178.056305 297.078901 178.056305 
C 295.19417 178.056305 293.386378 178.805117 292.053671 180.137824 
C 290.720964 181.47053 289.972153 183.278322 289.972153 185.163054 
C 289.972153 187.047786 290.720964 188.855577 292.053671 190.188284 
C 293.386378 191.520991 295.19417 192.269803 297.078901 192.269803 
z
" style="fill:#228b8d;"/>
    <path clip-path="url(#pda6c2a0e7d)" d="M 161.820286 218.853442 
C 163.655226 218.853442 165.415259 218.124413 166.712758 216.826914 
C 168.010256 215.529415 168.739286 213.769383 168.739286 211.934442 
C 168.739286 210.099502 168.010256 208.339469 166.712758 207.041971 
C 165.415259 205.744472 163.655226 205.015443 161.820286 205.015443 
C 159.985346 205.015443 158.225313 205.744472 156.927814 207.041971 
C 155.630316 208.339469 154.901286 210.099502 154.901286 211.934442 
C 154.901286 213.769383 155.630316 215.529415 156.927814 216.826914 
C 158.225313 218.124413 159.985346 218.853442 161.820286 218.853442 
z
" style="fill:#453781;"/>
    <path clip-path="url(#pda6c2a0e7d)" d="M 321.535505 227.669684 
C 323.407402 227.669684 325.202883 226.925971 326.526515 225.60234 
C 327.850146 224.278708 328.593859 222.483227 328.593859 220.61133 
C 328.593859 218.739432 327.850146 216.943951 326.526515 215.620319 
C 325.202883 214.296688 323.407402 213.552975 321.535505 213.552975 
C 319.663607 213.552975 317.868126 214.296688 316.544495 215.620319 
C 315.220863 216.943951 314.477151 218.739432 314.477151 220.61133 
C 314.477151 222.483227 315.220863 224.278708 316.544495 225.60234 
C 317.868126 226.925971 319.663607 227.669684 321.535505 227.669684 
z
" style="fill:#30698e;"/>
    <path clip-path="url(#pda6c2a0e7d)" d="M 177.8489 136.150882 
C 179.681744 136.150882 181.439766 135.422685 182.735783 134.126669 
C 184.031799 132.830653 184.759996 131.07263 184.759996 129.239786 
C 184.759996 127.406942 184.031799 125.64892 182.735783 124.352903 
C 181.439766 123.056887 179.681744 122.32869 177.8489 122.32869 
C 176.016056 122.32869 174.258034 123.056887 172.962017 124.352903 
C 171.666001 125.64892 170.937804 127.406942 170.937804 129.239786 
C 170.937804 131.07263 171.666001 132.830653 172.962017 134.126669 
C 174.258034 135.422685 176.016056 136.150882 177.8489 136.150882 
z
" style="fill:#2e6e8e;"/>
    <path clip-path="url(#pda6c2a0e7d)" d="M 118.337565 117.378531 
C 120.175948 117.378531 121.939283 116.648134 123.239216 115.348201 
C 124.539149 114.048268 125.269547 112.284933 125.269547 110.44655 
C 125.269547 108.608167 124.539149 106.844832 123.239216 105.544899 
C 121.939283 104.244966 120.175948 103.514569 118.337565 103.514569 
C 116.499182 103.514569 114.735847 104.244966 113.435914 105.544899 
C 112.135981 106.844832 111.405584 108.608167 111.405584 110.44655 
C 111.405584 112.284933 112.135981 114.048268 113.435914 115.348201 
C 114.735847 116.648134 116.499182 117.378531 118.337565 117.378531 
z
" style="fill:#5ec962;"/>
    <path clip-path="url(#pda6c2a0e7d)" d="M 195.037937 183.069139 
C 196.885179 183.069139 198.657012 182.335222 199.96321 181.029024 
C 201.269407 179.722826 202.003325 177.950993 202.003325 176.103751 
C 202.003325 174.256508 201.269407 172.484675 199.96321 171.178478 
C 198.657012 169.87228 196.885179 169.138363 195.037937 169.138363 
C 193.190694 169.138363 191.418861 169.87228 190.112663 171.178478 
C 188.806466 172.484675 188.072549 174.256508 188.072549 176.103751 
C 188.072549 177.950993 188.806466 179.722826 190.112663 181.029024 
C 191.418861 182.335222 193.190694 183.069139 195.037937 183.069139 
z
" style="fill:#414287;"/>
    <path clip-path="url(#pda6c2a0e7d)" d="M 158.315207 261.72767 
C 160.107712 261.72767 161.827042 261.0155 163.094534 259.748008 
C 164.362026 258.480515 165.074196 256.761185 165.074196 254.968681 
C 165.074196 253.176176 164.362026 251.456846 163.094534 250.189353 
C 161.827042 248.921861 160.107712 248.209691 158.315207 248.209691 
C 156.522702 248.209691 154.803372 248.921861 153.535879 250.189353 
C 152.268387 251.456846 151.556217 253.176176 151.556217 254.968681 
C 151.556217 256.761185 152.268387 258.480515 153.535879 259.748008 
C 154.803372 261.0155 156.522702 261.72767 158.315207 261.72767 
z
" style="fill:#443983;"/>
   </g>
   <g id="text_1">
    <!-- Structure #7138, $E_N$=-177.03eV, ΔE=-0.34eV -->
    <defs>
     <path d="M 53.515625 70.515625 
L 53.515625 60.890625 
Q 47.90625 63.578125 42.921875 64.890625 
Q 37.9375 66.21875 33.296875 66.21875 
Q 25.25 66.21875 20.875 63.09375 
Q 16.5 59.96875 16.5 54.203125 
Q 16.5 49.359375 19.40625 46.890625 
Q 22.3125 44.4375 30.421875 42.921875 
L 36.375 41.703125 
Q 47.40625 39.59375 52.65625 34.296875 
Q 57.90625 29 57.90625 20.125 
Q 57.90625 9.515625 50.796875 4.046875 
Q 43.703125 -1.421875 29.984375 -1.421875 
Q 24.8125 -1.421875 18.96875 -0.25 
Q 13.140625 0.921875 6.890625 3.21875 
L 6.890625 13.375 
Q 12.890625 10.015625 18.65625 8.296875 
Q 24.421875 6.59375 29.984375 6.59375 
Q 38.421875 6.59375 43.015625 9.90625 
Q 47.609375 13.234375 47.609375 19.390625 
Q 47.609375 24.75 44.3125 27.78125 
Q 41.015625 30.8125 33.5 32.328125 
L 27.484375 33.5 
Q 16.453125 35.6875 11.515625 40.375 
Q 6.59375 45.0625 6.59375 53.421875 
Q 6.59375 63.09375 13.40625 68.65625 
Q 20.21875 74.21875 32.171875 74.21875 
Q 37.3125 74.21875 42.625 73.28125 
Q 47.953125 72.359375 53.515625 70.515625 
z
" id="DejaVuSans-53"/>
     <path d="M 18.3125 70.21875 
L 18.3125 54.6875 
L 36.8125 54.6875 
L 36.8125 47.703125 
L 18.3125 47.703125 
L 18.3125 18.015625 
Q 18.3125 11.328125 20.140625 9.421875 
Q 21.96875 7.515625 27.59375 7.515625 
L 36.8125 7.515625 
L 36.8125 0 
L 27.59375 0 
Q 17.1875 0 13.234375 3.875 
Q 9.28125 7.765625 9.28125 18.015625 
L 9.28125 47.703125 
L 2.6875 47.703125 
L 2.6875 54.6875 
L 9.28125 54.6875 
L 9.28125 70.21875 
z
" id="DejaVuSans-74"/>
     <path d="M 41.109375 46.296875 
Q 39.59375 47.171875 37.8125 47.578125 
Q 36.03125 48 33.890625 48 
Q 26.265625 48 22.1875 43.046875 
Q 18.109375 38.09375 18.109375 28.8125 
L 18.109375 0 
L 9.078125 0 
L 9.078125 54.6875 
L 18.109375 54.6875 
L 18.109375 46.1875 
Q 20.953125 51.171875 25.484375 53.578125 
Q 30.03125 56 36.53125 56 
Q 37.453125 56 38.578125 55.875 
Q 39.703125 55.765625 41.0625 55.515625 
z
" id="DejaVuSans-72"/>
     <path d="M 8.5 21.578125 
L 8.5 54.6875 
L 17.484375 54.6875 
L 17.484375 21.921875 
Q 17.484375 14.15625 20.5 10.265625 
Q 23.53125 6.390625 29.59375 6.390625 
Q 36.859375 6.390625 41.078125 11.03125 
Q 45.3125 15.671875 45.3125 23.6875 
L 45.3125 54.6875 
L 54.296875 54.6875 
L 54.296875 0 
L 45.3125 0 
L 45.3125 8.40625 
Q 42.046875 3.421875 37.71875 1 
Q 33.40625 -1.421875 27.6875 -1.421875 
Q 18.265625 -1.421875 13.375 4.4375 
Q 8.5 10.296875 8.5 21.578125 
z
M 31.109375 56 
z
" id="DejaVuSans-75"/>
     <path d="M 48.78125 52.59375 
L 48.78125 44.1875 
Q 44.96875 46.296875 41.140625 47.34375 
Q 37.3125 48.390625 33.40625 48.390625 
Q 24.65625 48.390625 19.8125 42.84375 
Q 14.984375 37.3125 14.984375 27.296875 
Q 14.984375 17.28125 19.8125 11.734375 
Q 24.65625 6.203125 33.40625 6.203125 
Q 37.3125 6.203125 41.140625 7.25 
Q 44.96875 8.296875 48.78125 10.40625 
L 48.78125 2.09375 
Q 45.015625 0.34375 40.984375 -0.53125 
Q 36.96875 -1.421875 32.421875 -1.421875 
Q 20.0625 -1.421875 12.78125 6.34375 
Q 5.515625 14.109375 5.515625 27.296875 
Q 5.515625 40.671875 12.859375 48.328125 
Q 20.21875 56 33.015625 56 
Q 37.15625 56 41.109375 55.140625 
Q 45.0625 54.296875 48.78125 52.59375 
z
" id="DejaVuSans-63"/>
     <path d="M 56.203125 29.59375 
L 56.203125 25.203125 
L 14.890625 25.203125 
Q 15.484375 15.921875 20.484375 11.0625 
Q 25.484375 6.203125 34.421875 6.203125 
Q 39.59375 6.203125 44.453125 7.46875 
Q 49.3125 8.734375 54.109375 11.28125 
L 54.109375 2.78125 
Q 49.265625 0.734375 44.1875 -0.34375 
Q 39.109375 -1.421875 33.890625 -1.421875 
Q 20.796875 -1.421875 13.15625 6.1875 
Q 5.515625 13.8125 5.515625 26.8125 
Q 5.515625 40.234375 12.765625 48.109375 
Q 20.015625 56 32.328125 56 
Q 43.359375 56 49.78125 48.890625 
Q 56.203125 41.796875 56.203125 29.59375 
z
M 47.21875 32.234375 
Q 47.125 39.59375 43.09375 43.984375 
Q 39.0625 48.390625 32.421875 48.390625 
Q 24.90625 48.390625 20.390625 44.140625 
Q 15.875 39.890625 15.1875 32.171875 
z
" id="DejaVuSans-65"/>
     <path id="DejaVuSans-20"/>
     <path d="M 51.125 44 
L 36.921875 44 
L 32.8125 27.6875 
L 47.125 27.6875 
z
M 43.796875 71.78125 
L 38.71875 51.515625 
L 52.984375 51.515625 
L 58.109375 71.78125 
L 65.921875 71.78125 
L 60.890625 51.515625 
L 76.125 51.515625 
L 76.125 44 
L 58.984375 44 
L 54.984375 27.6875 
L 70.515625 27.6875 
L 70.515625 20.21875 
L 53.078125 20.21875 
L 48 0 
L 40.1875 0 
L 45.21875 20.21875 
L 30.90625 20.21875 
L 25.875 0 
L 18.015625 0 
L 23.09375 20.21875 
L 7.71875 20.21875 
L 7.71875 27.6875 
L 24.90625 27.6875 
L 29 44 
L 13.28125 44 
L 13.28125 51.515625 
L 30.90625 51.515625 
L 35.890625 71.78125 
z
" id="DejaVuSans-23"/>
     <path d="M 8.203125 72.90625 
L 55.078125 72.90625 
L 55.078125 68.703125 
L 28.609375 0 
L 18.3125 0 
L 43.21875 64.59375 
L 8.203125 64.59375 
z
" id="DejaVuSans-37"/>
     <path d="M 12.40625 8.296875 
L 28.515625 8.296875 
L 28.515625 63.921875 
L 10.984375 60.40625 
L 10.984375 69.390625 
L 28.421875 72.90625 
L 38.28125 72.90625 
L 38.28125 8.296875 
L 54.390625 8.296875 
L 54.390625 0 
L 12.40625 0 
z
" id="DejaVuSans-31"/>
     <path d="M 40.578125 39.3125 
Q 47.65625 37.796875 51.625 33 
Q 55.609375 28.21875 55.609375 21.1875 
Q 55.609375 10.40625 48.1875 4.484375 
Q 40.765625 -1.421875 27.09375 -1.421875 
Q 22.515625 -1.421875 17.65625 -0.515625 
Q 12.796875 0.390625 7.625 2.203125 
L 7.625 11.71875 
Q 11.71875 9.328125 16.59375 8.109375 
Q 21.484375 6.890625 26.8125 6.890625 
Q 36.078125 6.890625 40.9375 10.546875 
Q 45.796875 14.203125 45.796875 21.1875 
Q 45.796875 27.640625 41.28125 31.265625 
Q 36.765625 34.90625 28.71875 34.90625 
L 20.21875 34.90625 
L 20.21875 43.015625 
L 29.109375 43.015625 
Q 36.375 43.015625 40.234375 45.921875 
Q 44.09375 48.828125 44.09375 54.296875 
Q 44.09375 59.90625 40.109375 62.90625 
Q 36.140625 65.921875 28.71875 65.921875 
Q 24.65625 65.921875 20.015625 65.03125 
Q 15.375 64.15625 9.8125 62.3125 
L 9.8125 71.09375 
Q 15.4375 72.65625 20.34375 73.4375 
Q 25.25 74.21875 29.59375 74.21875 
Q 40.828125 74.21875 47.359375 69.109375 
Q 53.90625 64.015625 53.90625 55.328125 
Q 53.90625 49.265625 50.4375 45.09375 
Q 46.96875 40.921875 40.578125 39.3125 
z
" id="DejaVuSans-33"/>
     <path d="M 31.78125 34.625 
Q 24.75 34.625 20.71875 30.859375 
Q 16.703125 27.09375 16.703125 20.515625 
Q 16.703125 13.921875 20.71875 10.15625 
Q 24.75 6.390625 31.78125 6.390625 
Q 38.8125 6.390625 42.859375 10.171875 
Q 46.921875 13.96875 46.921875 20.515625 
Q 46.921875 27.09375 42.890625 30.859375 
Q 38.875 34.625 31.78125 34.625 
z
M 21.921875 38.8125 
Q 15.578125 40.375 12.03125 44.71875 
Q 8.5 49.078125 8.5 55.328125 
Q 8.5 64.0625 14.71875 69.140625 
Q 20.953125 74.21875 31.78125 74.21875 
Q 42.671875 74.21875 48.875 69.140625 
Q 55.078125 64.0625 55.078125 55.328125 
Q 55.078125 49.078125 51.53125 44.71875 
Q 48 40.375 41.703125 38.8125 
Q 48.828125 37.15625 52.796875 32.3125 
Q 56.78125 27.484375 56.78125 20.515625 
Q 56.78125 9.90625 50.3125 4.234375 
Q 43.84375 -1.421875 31.78125 -1.421875 
Q 19.734375 -1.421875 13.25 4.234375 
Q 6.78125 9.90625 6.78125 20.515625 
Q 6.78125 27.484375 10.78125 32.3125 
Q 14.796875 37.15625 21.921875 38.8125 
z
M 18.3125 54.390625 
Q 18.3125 48.734375 21.84375 45.5625 
Q 25.390625 42.390625 31.78125 42.390625 
Q 38.140625 42.390625 41.71875 45.5625 
Q 45.3125 48.734375 45.3125 54.390625 
Q 45.3125 60.0625 41.71875 63.234375 
Q 38.140625 66.40625 31.78125 66.40625 
Q 25.390625 66.40625 21.84375 63.234375 
Q 18.3125 60.0625 18.3125 54.390625 
z
" id="DejaVuSans-38"/>
     <path d="M 11.71875 12.40625 
L 22.015625 12.40625 
L 22.015625 4 
L 14.015625 -11.625 
L 7.71875 -11.625 
L 11.71875 4 
z
" id="DejaVuSans-2c"/>
     <path d="M 16.890625 72.90625 
L 62.984375 72.90625 
L 61.375 64.59375 
L 25.09375 64.59375 
L 20.90625 43.015625 
L 55.71875 43.015625 
L 54.109375 34.71875 
L 19.28125 34.71875 
L 14.203125 8.296875 
L 51.3125 8.296875 
L 49.703125 0 
L 2.6875 0 
z
" id="DejaVuSans-Oblique-45"/>
     <path d="M 16.890625 72.90625 
L 30.171875 72.90625 
L 50.296875 10.40625 
L 62.5 72.90625 
L 72.125 72.90625 
L 57.90625 0 
L 44.578125 0 
L 24.515625 62.890625 
L 12.3125 0 
L 2.6875 0 
z
" id="DejaVuSans-Oblique-4e"/>
     <path d="M 10.59375 45.40625 
L 73.1875 45.40625 
L 73.1875 37.203125 
L 10.59375 37.203125 
z
M 10.59375 25.484375 
L 73.1875 25.484375 
L 73.1875 17.1875 
L 10.59375 17.1875 
z
" id="DejaVuSans-3d"/>
     <path d="M 4.890625 31.390625 
L 31.203125 31.390625 
L 31.203125 23.390625 
L 4.890625 23.390625 
z
" id="DejaVuSans-2d"/>
     <path d="M 10.6875 12.40625 
L 21 12.40625 
L 21 0 
L 10.6875 0 
z
" id="DejaVuSans-2e"/>
     <path d="M 31.78125 66.40625 
Q 24.171875 66.40625 20.328125 58.90625 
Q 16.5 51.421875 16.5 36.375 
Q 16.5 21.390625 20.328125 13.890625 
Q 24.171875 6.390625 31.78125 6.390625 
Q 39.453125 6.390625 43.28125 13.890625 
Q 47.125 21.390625 47.125 36.375 
Q 47.125 51.421875 43.28125 58.90625 
Q 39.453125 66.40625 31.78125 66.40625 
z
M 31.78125 74.21875 
Q 44.046875 74.21875 50.515625 64.515625 
Q 56.984375 54.828125 56.984375 36.375 
Q 56.984375 17.96875 50.515625 8.265625 
Q 44.046875 -1.421875 31.78125 -1.421875 
Q 19.53125 -1.421875 13.0625 8.265625 
Q 6.59375 17.96875 6.59375 36.375 
Q 6.59375 54.828125 13.0625 64.515625 
Q 19.53125 74.21875 31.78125 74.21875 
z
" id="DejaVuSans-30"/>
     <path d="M 28.609375 0 
L 0.78125 72.90625 
L 11.078125 72.90625 
L 34.1875 11.53125 
L 57.328125 72.90625 
L 67.578125 72.90625 
L 39.796875 0 
z
" id="DejaVuSans-56"/>
     <path d="M 34.1875 63.1875 
L 14.15625 8.203125 
L 54.25 8.203125 
z
M 0.78125 0 
L 28.609375 72.90625 
L 39.796875 72.90625 
L 67.578125 0 
z
" id="DejaVuSans-394"/>
     <path d="M 9.8125 72.90625 
L 55.90625 72.90625 
L 55.90625 64.59375 
L 19.671875 64.59375 
L 19.671875 43.015625 
L 54.390625 43.015625 
L 54.390625 34.71875 
L 19.671875 34.71875 
L 19.671875 8.296875 
L 56.78125 8.296875 
L 56.78125 0 
L 9.8125 0 
z
" id="DejaVuSans-45"/>
     <path d="M 37.796875 64.3125 
L 12.890625 25.390625 
L 37.796875 25.390625 
z
M 35.203125 72.90625 
L 47.609375 72.90625 
L 47.609375 25.390625 
L 58.015625 25.390625 
L 58.015625 17.1875 
L 47.609375 17.1875 
L 47.609375 0 
L 37.796875 0 
L 37.796875 17.1875 
L 4.890625 17.1875 
L 4.890625 26.703125 
z
" id="DejaVuSans-34"/>
    </defs>
    <g transform="translate(63.228 35.472)scale(0.12 -0.12)">
     <use transform="translate(0 0.78125)" xlink:href="#DejaVuSans-53"/>
     <use transform="translate(63.476562 0.78125)" xlink:href="#DejaVuSans-74"/>
     <use transform="translate(102.685547 0.78125)" xlink:href="#DejaVuSans-72"/>
     <use transform="translate(143.798828 0.78125)" xlink:href="#DejaVuSans-75"/>
     <use transform="translate(207.177734 0.78125)" xlink:href="#DejaVuSans-63"/>
     <use transform="translate(262.158203 0.78125)" xlink:href="#DejaVuSans-74"/>
     <use transform="translate(301.367188 0.78125)" xlink:href="#DejaVuSans-75"/>
     <use transform="translate(364.746094 0.78125)" xlink:href="#DejaVuSans-72"/>
     <use transform="translate(405.859375 0.78125)" xlink:href="#DejaVuSans-65"/>
     <use transform="translate(467.382812 0.78125)" xlink:href="#DejaVuSans-20"/>
     <use transform="translate(499.169922 0.78125)" xlink:href="#DejaVuSans-23"/>
     <use transform="translate(582.958984 0.78125)" xlink:href="#DejaVuSans-37"/>
     <use transform="translate(646.582031 0.78125)" xlink:href="#DejaVuSans-31"/>
     <use transform="translate(710.205078 0.78125)" xlink:href="#DejaVuSans-33"/>
     <use transform="translate(773.828125 0.78125)" xlink:href="#DejaVuSans-38"/>
     <use transform="translate(837.451172 0.78125)" xlink:href="#DejaVuSans-2c"/>
     <use transform="translate(869.238281 0.78125)" xlink:href="#DejaVuSans-20"/>
     <use transform="translate(901.025391 0.78125)" xlink:href="#DejaVuSans-Oblique-45"/>
     <use transform="translate(964.208984 -15.625)scale(0.7)" xlink:href="#DejaVuSans-Oblique-4e"/>
     <use transform="translate(1019.306641 0.78125)" xlink:href="#DejaVuSans-3d"/>
     <use transform="translate(1103.095703 0.78125)" xlink:href="#DejaVuSans-2d"/>
     <use transform="translate(1139.179688 0.78125)" xlink:href="#DejaVuSans-31"/>
     <use transform="translate(1202.802734 0.78125)" xlink:href="#DejaVuSans-37"/>
     <use transform="translate(1266.410156 0.78125)" xlink:href="#DejaVuSans-37"/>
     <use transform="translate(1330.033203 0.78125)" xlink:href="#DejaVuSans-2e"/>
     <use transform="translate(1361.820312 0.78125)" xlink:href="#DejaVuSans-30"/>
     <use transform="translate(1425.443359 0.78125)" xlink:href="#DejaVuSans-33"/>
     <use transform="translate(1489.066406 0.78125)" xlink:href="#DejaVuSans-65"/>
     <use transform="translate(1550.589844 0.78125)" xlink:href="#DejaVuSans-56"/>
     <use transform="translate(1618.998047 0.78125)" xlink:href="#DejaVuSans-2c"/>
     <use transform="translate(1650.785156 0.78125)" xlink:href="#DejaVuSans-20"/>
     <use transform="translate(1682.572266 0.78125)" xlink:href="#DejaVuSans-394"/>
     <use transform="translate(1750.980469 0.78125)" xlink:href="#DejaVuSans-45"/>
     <use transform="translate(1814.164062 0.78125)" xlink:href="#DejaVuSans-3d"/>
     <use transform="translate(1897.953125 0.78125)" xlink:href="#DejaVuSans-2d"/>
     <use transform="translate(1934.037109 0.78125)" xlink:href="#DejaVuSans-30"/>
     <use transform="translate(1997.660156 0.78125)" xlink:href="#DejaVuSans-2e"/>
     <use transform="translate(2029.447266 0.78125)" xlink:href="#DejaVuSans-33"/>
     <use transform="translate(2093.070312 0.78125)" xlink:href="#DejaVuSans-34"/>
     <use transform="translate(2156.693359 0.78125)" xlink:href="#DejaVuSans-65"/>
     <use transform="translate(2218.216797 0.78125)" xlink:href="#DejaVuSans-56"/>
    </g>
   </g>
  </g>
  <g id="axes_2">
   <g id="patch_2">
    <path clip-path="url(#pbe816a576b)" d="M 361.152 307.584 
L 361.152 306.5445 
L 361.152 42.5115 
L 361.152 41.472 
L 374.4576 41.472 
L 374.4576 42.5115 
L 374.4576 306.5445 
L 374.4576 307.584 
z
" style="fill:#ffffff;stroke:#ffffff;stroke-linejoin:miter;stroke-width:0.01;"/>
   </g>
   <image height="265.68" id="image9918466b71" transform="scale(1 -1)translate(0 -265.68)" width="12.96" x="361.44" xlink:href="data:image/png;base64,
iVBORw0KGgoAAAANSUhEUgAAABIAAAFxCAYAAAB+2fgXAAAABHNCSVQICAgIfAhkiAAAAeVJREFUeJztncmNw0AQA2ckheYQNv9QLIfQ8ygsCgQ7AEI8+jAs2Puz/94F1LP2ReCsZ18bAWIeZ5XaGRBE7VnbptG+KI101FYyNSiQG2oRITXKNaX9uclOdi2XWjftVE32CZCO2ou5Bj1TcCBr/1zB9ge7Fq0Rg2NM9pvbtG+ua1QgsRYhDy0ISEiNc40BEibbSI0Coj5CBGtkpFbXJiAjNZlrwhuSOv2M1DjXbEdEciBt1JSDDQKKpmZr2rr2j0DBGpXaWEJq3bQzEPIS26r9J+Wzv9Tm8o3aajRXqc3VUXsApKNWjeZq0x4ABVNbm7lrszVigDqP5vIl2+eaT2yfRkL7g+dRcNPqjohkjaCvRVBq0H2U3LQrOJCx9kdTg4B8oxZzzTdqdYHEngjUCAPyUctN9sVRq2sTECW2UKNLd2jVtRmo1A6AhMmWaSRcR8nUdIHUuVb75zJS218EyEitro1At69pIdeSk30Lkw0FktNImGyZRhy1O5galmxd03LUsHWk06jUZiCq+5Wb1kZNN4+wJxJuWt8RAW5am2sYNZ9rYCBzZ3buPKJ2P5Yj4Toy3keyIyJbIxs1rml1byCA84gpch5RQNB7Q0qNMGq2Hy4BXdNR41yz/cEEJfZzUz96r9PoB0okjeQ8y9TkAAAAAElFTkSuQmCC" y="-41.76"/>
   <g id="matplotlib.axis_1"/>
   <g id="matplotlib.axis_2">
    <g id="ytick_1">
     <g id="line2d_1">
      <defs>
       <path d="M 0 0 
L 3.5 0 
" id="mbc59c19c9d" style="stroke:#000000;stroke-width:0.8;"/>
      </defs>
      <g>
       <use style="stroke:#000000;stroke-width:0.8;" x="374.4576" xlink:href="#mbc59c19c9d" y="260.774096"/>
      </g>
     </g>
     <g id="text_2">
      <!-- −8.0 -->
      <defs>
       <path d="M 10.59375 35.5 
L 73.1875 35.5 
L 73.1875 27.203125 
L 10.59375 27.203125 
z
" id="DejaVuSans-2212"/>
      </defs>
      <g transform="translate(381.4576 264.573315)scale(0.1 -0.1)">
       <use xlink:href="#DejaVuSans-2212"/>
       <use x="83.789062" xlink:href="#DejaVuSans-38"/>
       <use x="147.412109" xlink:href="#DejaVuSans-2e"/>
       <use x="179.199219" xlink:href="#DejaVuSans-30"/>
      </g>
     </g>
    </g>
    <g id="ytick_2">
     <g id="line2d_2">
      <g>
       <use style="stroke:#000000;stroke-width:0.8;" x="374.4576" xlink:href="#mbc59c19c9d" y="202.962271"/>
      </g>
     </g>
     <g id="text_3">
      <!-- −7.5 -->
      <defs>
       <path d="M 10.796875 72.90625 
L 49.515625 72.90625 
L 49.515625 64.59375 
L 19.828125 64.59375 
L 19.828125 46.734375 
Q 21.96875 47.46875 24.109375 47.828125 
Q 26.265625 48.1875 28.421875 48.1875 
Q 40.625 48.1875 47.75 41.5 
Q 54.890625 34.8125 54.890625 23.390625 
Q 54.890625 11.625 47.5625 5.09375 
Q 40.234375 -1.421875 26.90625 -1.421875 
Q 22.3125 -1.421875 17.546875 -0.640625 
Q 12.796875 0.140625 7.71875 1.703125 
L 7.71875 11.625 
Q 12.109375 9.234375 16.796875 8.0625 
Q 21.484375 6.890625 26.703125 6.890625 
Q 35.15625 6.890625 40.078125 11.328125 
Q 45.015625 15.765625 45.015625 23.390625 
Q 45.015625 31 40.078125 35.4375 
Q 35.15625 39.890625 26.703125 39.890625 
Q 22.75 39.890625 18.8125 39.015625 
Q 14.890625 38.140625 10.796875 36.28125 
z
" id="DejaVuSans-35"/>
      </defs>
      <g transform="translate(381.4576 206.76149)scale(0.1 -0.1)">
       <use xlink:href="#DejaVuSans-2212"/>
       <use x="83.789062" xlink:href="#DejaVuSans-37"/>
       <use x="147.412109" xlink:href="#DejaVuSans-2e"/>
       <use x="179.199219" xlink:href="#DejaVuSans-35"/>
      </g>
     </g>
    </g>
    <g id="ytick_3">
     <g id="line2d_3">
      <g>
       <use style="stroke:#000000;stroke-width:0.8;" x="374.4576" xlink:href="#mbc59c19c9d" y="145.150447"/>
      </g>
     </g>
     <g id="text_4">
      <!-- −7.0 -->
      <g transform="translate(381.4576 148.949666)scale(0.1 -0.1)">
       <use xlink:href="#DejaVuSans-2212"/>
       <use x="83.789062" xlink:href="#DejaVuSans-37"/>
       <use x="147.412109" xlink:href="#DejaVuSans-2e"/>
       <use x="179.199219" xlink:href="#DejaVuSans-30"/>
      </g>
     </g>
    </g>
    <g id="ytick_4">
     <g id="line2d_4">
      <g>
       <use style="stroke:#000000;stroke-width:0.8;" x="374.4576" xlink:href="#mbc59c19c9d" y="87.338623"/>
      </g>
     </g>
     <g id="text_5">
      <!-- −6.5 -->
      <defs>
       <path d="M 33.015625 40.375 
Q 26.375 40.375 22.484375 35.828125 
Q 18.609375 31.296875 18.609375 23.390625 
Q 18.609375 15.53125 22.484375 10.953125 
Q 26.375 6.390625 33.015625 6.390625 
Q 39.65625 6.390625 43.53125 10.953125 
Q 47.40625 15.53125 47.40625 23.390625 
Q 47.40625 31.296875 43.53125 35.828125 
Q 39.65625 40.375 33.015625 40.375 
z
M 52.59375 71.296875 
L 52.59375 62.3125 
Q 48.875 64.0625 45.09375 64.984375 
Q 41.3125 65.921875 37.59375 65.921875 
Q 27.828125 65.921875 22.671875 59.328125 
Q 17.53125 52.734375 16.796875 39.40625 
Q 19.671875 43.65625 24.015625 45.921875 
Q 28.375 48.1875 33.59375 48.1875 
Q 44.578125 48.1875 50.953125 41.515625 
Q 57.328125 34.859375 57.328125 23.390625 
Q 57.328125 12.15625 50.6875 5.359375 
Q 44.046875 -1.421875 33.015625 -1.421875 
Q 20.359375 -1.421875 13.671875 8.265625 
Q 6.984375 17.96875 6.984375 36.375 
Q 6.984375 53.65625 15.1875 63.9375 
Q 23.390625 74.21875 37.203125 74.21875 
Q 40.921875 74.21875 44.703125 73.484375 
Q 48.484375 72.75 52.59375 71.296875 
z
" id="DejaVuSans-36"/>
      </defs>
      <g transform="translate(381.4576 91.137841)scale(0.1 -0.1)">
       <use xlink:href="#DejaVuSans-2212"/>
       <use x="83.789062" xlink:href="#DejaVuSans-36"/>
       <use x="147.412109" xlink:href="#DejaVuSans-2e"/>
       <use x="179.199219" xlink:href="#DejaVuSans-35"/>
      </g>
     </g>
    </g>
    <g id="text_6">
     <!-- Energy [eV] -->
     <defs>
      <path d="M 54.890625 33.015625 
L 54.890625 0 
L 45.90625 0 
L 45.90625 32.71875 
Q 45.90625 40.484375 42.875 44.328125 
Q 39.84375 48.1875 33.796875 48.1875 
Q 26.515625 48.1875 22.3125 43.546875 
Q 18.109375 38.921875 18.109375 30.90625 
L 18.109375 0 
L 9.078125 0 
L 9.078125 54.6875 
L 18.109375 54.6875 
L 18.109375 46.1875 
Q 21.34375 51.125 25.703125 53.5625 
Q 30.078125 56 35.796875 56 
Q 45.21875 56 50.046875 50.171875 
Q 54.890625 44.34375 54.890625 33.015625 
z
" id="DejaVuSans-6e"/>
      <path d="M 45.40625 27.984375 
Q 45.40625 37.75 41.375 43.109375 
Q 37.359375 48.484375 30.078125 48.484375 
Q 22.859375 48.484375 18.828125 43.109375 
Q 14.796875 37.75 14.796875 27.984375 
Q 14.796875 18.265625 18.828125 12.890625 
Q 22.859375 7.515625 30.078125 7.515625 
Q 37.359375 7.515625 41.375 12.890625 
Q 45.40625 18.265625 45.40625 27.984375 
z
M 54.390625 6.78125 
Q 54.390625 -7.171875 48.1875 -13.984375 
Q 42 -20.796875 29.203125 -20.796875 
Q 24.46875 -20.796875 20.265625 -20.09375 
Q 16.0625 -19.390625 12.109375 -17.921875 
L 12.109375 -9.1875 
Q 16.0625 -11.328125 19.921875 -12.34375 
Q 23.78125 -13.375 27.78125 -13.375 
Q 36.625 -13.375 41.015625 -8.765625 
Q 45.40625 -4.15625 45.40625 5.171875 
L 45.40625 9.625 
Q 42.625 4.78125 38.28125 2.390625 
Q 33.9375 0 27.875 0 
Q 17.828125 0 11.671875 7.65625 
Q 5.515625 15.328125 5.515625 27.984375 
Q 5.515625 40.671875 11.671875 48.328125 
Q 17.828125 56 27.875 56 
Q 33.9375 56 38.28125 53.609375 
Q 42.625 51.21875 45.40625 46.390625 
L 45.40625 54.6875 
L 54.390625 54.6875 
z
" id="DejaVuSans-67"/>
      <path d="M 32.171875 -5.078125 
Q 28.375 -14.84375 24.75 -17.8125 
Q 21.140625 -20.796875 15.09375 -20.796875 
L 7.90625 -20.796875 
L 7.90625 -13.28125 
L 13.1875 -13.28125 
Q 16.890625 -13.28125 18.9375 -11.515625 
Q 21 -9.765625 23.484375 -3.21875 
L 25.09375 0.875 
L 2.984375 54.6875 
L 12.5 54.6875 
L 29.59375 11.921875 
L 46.6875 54.6875 
L 56.203125 54.6875 
z
" id="DejaVuSans-79"/>
      <path d="M 8.59375 75.984375 
L 29.296875 75.984375 
L 29.296875 69 
L 17.578125 69 
L 17.578125 -6.203125 
L 29.296875 -6.203125 
L 29.296875 -13.1875 
L 8.59375 -13.1875 
z
" id="DejaVuSans-5b"/>
      <path d="M 30.421875 75.984375 
L 30.421875 -13.1875 
L 9.71875 -13.1875 
L 9.71875 -6.203125 
L 21.390625 -6.203125 
L 21.390625 69 
L 9.71875 69 
L 9.71875 75.984375 
z
" id="DejaVuSans-5d"/>
     </defs>
     <g transform="translate(417.33885 204.108469)rotate(-90)scale(0.1 -0.1)">
      <use xlink:href="#DejaVuSans-45"/>
      <use x="63.183594" xlink:href="#DejaVuSans-6e"/>
      <use x="126.5625" xlink:href="#DejaVuSans-65"/>
      <use x="188.085938" xlink:href="#DejaVuSans-72"/>
      <use x="229.183594" xlink:href="#DejaVuSans-67"/>
      <use x="292.660156" xlink:href="#DejaVuSans-79"/>
      <use x="351.839844" xlink:href="#DejaVuSans-20"/>
      <use x="383.626953" xlink:href="#DejaVuSans-5b"/>
      <use x="422.640625" xlink:href="#DejaVuSans-65"/>
      <use x="484.164062" xlink:href="#DejaVuSans-56"/>
      <use x="552.572266" xlink:href="#DejaVuSans-5d"/>
     </g>
    </g>
   </g>
   <g id="patch_3">
    <path d="M 361.152 307.584 
L 361.152 306.5445 
L 361.152 42.5115 
L 361.152 41.472 
L 374.4576 41.472 
L 374.4576 42.5115 
L 374.4576 306.5445 
L 374.4576 307.584 
z
" style="fill:none;stroke:#000000;stroke-linejoin:miter;stroke-width:0.8;"/>
   </g>
  </g>
 </g>
 <defs>
  <clipPath id="pda6c2a0e7d">
   <rect height="266.112" width="285.696" x="57.6" y="41.472"/>
  </clipPath>
  <clipPath id="pbe816a576b">
   <rect height="266.112" width="13.3056" x="361.152" y="41.472"/>
  </clipPath>
 </defs>
</svg>
