<?xml version="1.0" encoding="utf-8" standalone="no"?>
<!DOCTYPE svg PUBLIC "-//W3C//DTD SVG 1.1//EN"
  "http://www.w3.org/Graphics/SVG/1.1/DTD/svg11.dtd">
<!-- Created with matplotlib (http://matplotlib.org/) -->
<svg height="345.6pt" version="1.1" viewBox="0 0 460.8 345.6" width="460.8pt" xmlns="http://www.w3.org/2000/svg" xmlns:xlink="http://www.w3.org/1999/xlink">
 <defs>
  <style type="text/css">
*{stroke-linecap:butt;stroke-linejoin:round;}
  </style>
 </defs>
 <g id="figure_1">
  <g id="patch_1">
   <path d="M 0 345.6 
L 460.8 345.6 
L 460.8 0 
L 0 0 
z
" style="fill:#ffffff;"/>
  </g>
  <g id="axes_1">
   <g id="CircleCollection_1">
    <path clip-path="url(#p1caed130a2)" d="M 177.94952 61.208723 
C 179.830646 61.208723 181.63498 60.461344 182.965137 59.131186 
C 184.295294 57.801029 185.042673 55.996696 185.042673 54.115569 
C 185.042673 52.234443 184.295294 50.43011 182.965137 49.099952 
C 181.63498 47.769795 179.830646 47.022416 177.94952 47.022416 
C 176.068393 47.022416 174.26406 47.769795 172.933903 49.099952 
C 171.603746 50.43011 170.856366 52.234443 170.856366 54.115569 
C 170.856366 55.996696 171.603746 57.801029 172.933903 59.131186 
C 174.26406 60.461344 176.068393 61.208723 177.94952 61.208723 
z
" style="fill:#2b748e;"/>
    <path clip-path="url(#p1caed130a2)" d="M 90.121341 200.369348 
C 91.884339 200.369348 93.575367 199.668901 94.821995 198.422273 
C 96.068623 197.175645 96.76907 195.484617 96.76907 193.721619 
C 96.76907 191.95862 96.068623 190.267593 94.821995 189.020964 
C 93.575367 187.774336 91.884339 187.07389 90.121341 187.07389 
C 88.358342 187.07389 86.667314 187.774336 85.420686 189.020964 
C 84.174058 190.267593 83.473612 191.95862 83.473612 193.721619 
C 83.473612 195.484617 84.174058 197.175645 85.420686 198.422273 
C 86.667314 199.668901 88.358342 200.369348 90.121341 200.369348 
z
" style="fill:#228d8d;"/>
    <path clip-path="url(#p1caed130a2)" d="M 103.887963 99.606908 
C 105.729552 99.606908 107.495961 98.875237 108.798161 97.573038 
C 110.100361 96.270838 110.832032 94.504428 110.832032 92.662839 
C 110.832032 90.821251 110.100361 89.054841 108.798161 87.752641 
C 107.495961 86.450441 105.729552 85.71877 103.887963 85.71877 
C 102.046374 85.71877 100.279965 86.450441 98.977765 87.752641 
C 97.675565 89.054841 96.943894 90.821251 96.943894 92.662839 
C 96.943894 94.504428 97.675565 96.270838 98.977765 97.573038 
C 100.279965 98.875237 102.046374 99.606908 103.887963 99.606908 
z
" style="fill:#2f6c8e;"/>
    <path clip-path="url(#p1caed130a2)" d="M 252.219789 275.893638 
C 253.826275 275.893638 255.36718 275.255375 256.503137 274.119417 
C 257.639094 272.98346 258.277357 271.442556 258.277357 269.83607 
C 258.277357 268.229584 257.639094 266.68868 256.503137 265.552723 
C 255.36718 264.416766 253.826275 263.778502 252.219789 263.778502 
C 250.613304 263.778502 249.072399 264.416766 247.936442 265.552723 
C 246.800485 266.68868 246.162221 268.229584 246.162221 269.83607 
C 246.162221 271.442556 246.800485 272.98346 247.936442 274.119417 
C 249.072399 275.255375 250.613304 275.893638 252.219789 275.893638 
z
" style="fill:#20928c;"/>
    <path clip-path="url(#p1caed130a2)" d="M 253.695837 247.443831 
C 255.368097 247.443831 256.972091 246.779435 258.154558 245.596969 
C 259.337025 244.414502 260.001421 242.810508 260.001421 241.138247 
C 260.001421 239.465987 259.337025 237.861993 258.154558 236.679526 
C 256.972091 235.497059 255.368097 234.832663 253.695837 234.832663 
C 252.023576 234.832663 250.419582 235.497059 249.237115 236.679526 
C 248.054648 237.861993 247.390252 239.465987 247.390252 241.138247 
C 247.390252 242.810508 248.054648 244.414502 249.237115 245.596969 
C 250.419582 246.779435 252.023576 247.443831 253.695837 247.443831 
z
" style="fill:#440154;"/>
    <path clip-path="url(#p1caed130a2)" d="M 212.336091 236.075535 
C 214.060028 236.075535 215.713589 235.390608 216.932597 234.1716 
C 218.151604 232.952592 218.836532 231.299031 218.836532 229.575094 
C 218.836532 227.851157 218.151604 226.197596 216.932597 224.978588 
C 215.713589 223.75958 214.060028 223.074653 212.336091 223.074653 
C 210.612154 223.074653 208.958592 223.75958 207.739585 224.978588 
C 206.520577 226.197596 205.83565 227.851157 205.83565 229.575094 
C 205.83565 231.299031 206.520577 232.952592 207.739585 234.1716 
C 208.958592 235.390608 210.612154 236.075535 212.336091 236.075535 
z
" style="fill:#287c8e;"/>
    <path clip-path="url(#p1caed130a2)" d="M 224.863715 67.538775 
C 226.747146 67.538775 228.55369 66.790479 229.885477 65.458692 
C 231.217264 64.126905 231.96556 62.320361 231.96556 60.43693 
C 231.96556 58.553498 231.217264 56.746954 229.885477 55.415167 
C 228.55369 54.08338 226.747146 53.335085 224.863715 53.335085 
C 222.980283 53.335085 221.173739 54.08338 219.841952 55.415167 
C 218.510165 56.746954 217.76187 58.553498 217.76187 60.43693 
C 217.76187 62.320361 218.510165 64.126905 219.841952 65.458692 
C 221.173739 66.790479 222.980283 67.538775 224.863715 67.538775 
z
" style="fill:#2e6e8e;"/>
    <path clip-path="url(#p1caed130a2)" d="M 329.835055 165.00403 
C 331.597613 165.00403 333.288219 164.303758 334.534536 163.057441 
C 335.780852 161.811125 336.481124 160.120519 336.481124 158.357961 
C 336.481124 156.595403 335.780852 154.904797 334.534536 153.658481 
C 333.288219 152.412164 331.597613 151.711892 329.835055 151.711892 
C 328.072497 151.711892 326.381892 152.412164 325.135575 153.658481 
C 323.889258 154.904797 323.188986 156.595403 323.188986 158.357961 
C 323.188986 160.120519 323.889258 161.811125 325.135575 163.057441 
C 326.381892 164.303758 328.072497 165.00403 329.835055 165.00403 
z
" style="fill:#2d708e;"/>
    <path clip-path="url(#p1caed130a2)" d="M 86.910216 130.841919 
C 88.725898 130.841919 90.467459 130.12054 91.75134 128.836659 
C 93.035221 127.552778 93.756599 125.811218 93.756599 123.995536 
C 93.756599 122.179854 93.035221 120.438293 91.75134 119.154412 
C 90.467459 117.870531 88.725898 117.149153 86.910216 117.149153 
C 85.094534 117.149153 83.352974 117.870531 82.069092 119.154412 
C 80.785211 120.438293 80.063833 122.179854 80.063833 123.995536 
C 80.063833 125.811218 80.785211 127.552778 82.069092 128.836659 
C 83.352974 130.12054 85.094534 130.841919 86.910216 130.841919 
z
" style="fill:#2e6f8e;"/>
    <path clip-path="url(#p1caed130a2)" d="M 217.942285 176.555998 
C 219.767038 176.555998 221.517299 175.831016 222.807594 174.540721 
C 224.09789 173.250426 224.822872 171.500165 224.822872 169.675412 
C 224.822872 167.850659 224.09789 166.100397 222.807594 164.810102 
C 221.517299 163.519807 219.767038 162.794825 217.942285 162.794825 
C 216.117532 162.794825 214.36727 163.519807 213.076975 164.810102 
C 211.78668 166.100397 211.061698 167.850659 211.061698 169.675412 
C 211.061698 171.500165 211.78668 173.250426 213.076975 174.540721 
C 214.36727 175.831016 216.117532 176.555998 217.942285 176.555998 
z
" style="fill:#31668e;"/>
    <path clip-path="url(#p1caed130a2)" d="M 250.333651 300.843946 
C 251.872889 300.843946 253.349291 300.2324 254.437696 299.143995 
C 255.526101 298.055589 256.137647 296.579187 256.137647 295.03995 
C 256.137647 293.500712 255.526101 292.02431 254.437696 290.935905 
C 253.349291 289.847499 251.872889 289.235954 250.333651 289.235954 
C 248.794413 289.235954 247.318011 289.847499 246.229606 290.935905 
C 245.141201 292.02431 244.529655 293.500712 244.529655 295.03995 
C 244.529655 296.579187 245.141201 298.055589 246.229606 299.143995 
C 247.318011 300.2324 248.794413 300.843946 250.333651 300.843946 
z
" style="fill:#fde725;"/>
    <path clip-path="url(#p1caed130a2)" d="M 264.252704 83.860472 
C 266.123621 83.860472 267.918162 83.117149 269.241099 81.794211 
C 270.564037 80.471273 271.30736 78.676732 271.30736 76.805816 
C 271.30736 74.934899 270.564037 73.140359 269.241099 71.817421 
C 267.918162 70.494483 266.123621 69.75116 264.252704 69.75116 
C 262.381788 69.75116 260.587247 70.494483 259.26431 71.817421 
C 257.941372 73.140359 257.198049 74.934899 257.198049 76.805816 
C 257.198049 78.676732 257.941372 80.471273 259.26431 81.794211 
C 260.587247 83.117149 262.381788 83.860472 264.252704 83.860472 
z
" style="fill:#1f968b;"/>
    <path clip-path="url(#p1caed130a2)" d="M 112.941428 233.994295 
C 114.677529 233.994295 116.342758 233.304534 117.570366 232.076926 
C 118.797975 230.849317 119.487735 229.184089 119.487735 227.447988 
C 119.487735 225.711887 118.797975 224.046658 117.570366 222.819049 
C 116.342758 221.591441 114.677529 220.90168 112.941428 220.90168 
C 111.205327 220.90168 109.540099 221.591441 108.31249 222.819049 
C 107.084881 224.046658 106.395121 225.711887 106.395121 227.447988 
C 106.395121 229.184089 107.084881 230.849317 108.31249 232.076926 
C 109.540099 233.304534 111.205327 233.994295 112.941428 233.994295 
z
" style="fill:#440154;"/>
    <path clip-path="url(#p1caed130a2)" d="M 83.702242 166.552193 
C 85.489462 166.552193 87.203723 165.842123 88.467478 164.578367 
C 89.731234 163.314612 90.441304 161.600351 90.441304 159.813131 
C 90.441304 158.02591 89.731234 156.31165 88.467478 155.047894 
C 87.203723 153.784139 85.489462 153.074069 83.702242 153.074069 
C 81.915022 153.074069 80.200761 153.784139 78.937005 155.047894 
C 77.67325 156.31165 76.96318 158.02591 76.96318 159.813131 
C 76.96318 161.600351 77.67325 163.314612 78.937005 164.578367 
C 80.200761 165.842123 81.915022 166.552193 83.702242 166.552193 
z
" style="fill:#32648e;"/>
    <path clip-path="url(#p1caed130a2)" d="M 71.043033 299.834748 
C 72.739094 299.834748 74.365918 299.160896 75.565214 297.9616 
C 76.76451 296.762303 77.438363 295.13548 77.438363 293.439419 
C 77.438363 291.743358 76.76451 290.116534 75.565214 288.917238 
C 74.365918 287.717942 72.739094 287.044089 71.043033 287.044089 
C 69.346972 287.044089 67.720149 287.717942 66.520852 288.917238 
C 65.321556 290.116534 64.647704 291.743358 64.647704 293.439419 
C 64.647704 295.13548 65.321556 296.762303 66.520852 297.9616 
C 67.720149 299.160896 69.346972 299.834748 71.043033 299.834748 
z
" style="fill:#f6e620;"/>
    <path clip-path="url(#p1caed130a2)" d="M 319.966261 135.713367 
C 321.771643 135.713367 323.503325 134.996081 324.779923 133.719483 
C 326.056521 132.442885 326.773807 130.711203 326.773807 128.905821 
C 326.773807 127.100439 326.056521 125.368757 324.779923 124.092159 
C 323.503325 122.815561 321.771643 122.098275 319.966261 122.098275 
C 318.160879 122.098275 316.429197 122.815561 315.152599 124.092159 
C 313.876001 125.368757 313.158715 127.100439 313.158715 128.905821 
C 313.158715 130.711203 313.876001 132.442885 315.152599 133.719483 
C 316.429197 134.996081 318.160879 135.713367 319.966261 135.713367 
z
" style="fill:#1f9a8a;"/>
    <path clip-path="url(#p1caed130a2)" d="M 199.771736 207.130698 
C 201.555328 207.130698 203.266109 206.422069 204.527299 205.160879 
C 205.788489 203.899689 206.497118 202.188908 206.497118 200.405316 
C 206.497118 198.621724 205.788489 196.910943 204.527299 195.649753 
C 203.266109 194.388563 201.555328 193.679934 199.771736 193.679934 
C 197.988144 193.679934 196.277363 194.388563 195.016173 195.649753 
C 193.754983 196.910943 193.046354 198.621724 193.046354 200.405316 
C 193.046354 202.188908 193.754983 203.899689 195.016173 205.160879 
C 196.277363 206.422069 197.988144 207.130698 199.771736 207.130698 
z
" style="fill:#34608d;"/>
    <path clip-path="url(#p1caed130a2)" d="M 164.407639 230.454889 
C 166.153612 230.454889 167.82831 229.761207 169.0629 228.526617 
C 170.297489 227.292028 170.991172 225.61733 170.991172 223.871357 
C 170.991172 222.125384 170.297489 220.450686 169.0629 219.216097 
C 167.82831 217.981507 166.153612 217.287825 164.407639 217.287825 
C 162.661666 217.287825 160.986968 217.981507 159.752379 219.216097 
C 158.51779 220.450686 157.824107 222.125384 157.824107 223.871357 
C 157.824107 225.61733 158.51779 227.292028 159.752379 228.526617 
C 160.986968 229.761207 162.661666 230.454889 164.407639 230.454889 
z
" style="fill:#29798e;"/>
    <path clip-path="url(#p1caed130a2)" d="M 293.123514 224.121503 
C 294.816015 224.121503 296.439424 223.449065 297.636203 222.252286 
C 298.832982 221.055507 299.505419 219.432098 299.505419 217.739597 
C 299.505419 216.047096 298.832982 214.423688 297.636203 213.226909 
C 296.439424 212.03013 294.816015 211.357692 293.123514 211.357692 
C 291.431013 211.357692 289.807604 212.03013 288.610825 213.226909 
C 287.414046 214.423688 286.741609 216.047096 286.741609 217.739597 
C 286.741609 219.432098 287.414046 221.055507 288.610825 222.252286 
C 289.807604 223.449065 291.431013 224.121503 293.123514 224.121503 
z
" style="fill:#21918c;"/>
    <path clip-path="url(#p1caed130a2)" d="M 279.206868 120.628748 
C 281.052638 120.628748 282.823058 119.895416 284.128215 118.59026 
C 285.433371 117.285104 286.166703 115.514683 286.166703 113.668913 
C 286.166703 111.823144 285.433371 110.052723 284.128215 108.747567 
C 282.823058 107.442411 281.052638 106.709078 279.206868 106.709078 
C 277.361098 106.709078 275.590678 107.442411 274.285522 108.747567 
C 272.980365 110.052723 272.247033 111.823144 272.247033 113.668913 
C 272.247033 115.514683 272.980365 117.285104 274.285522 118.59026 
C 275.590678 119.895416 277.361098 120.628748 279.206868 120.628748 
z
" style="fill:#46075a;"/>
    <path clip-path="url(#p1caed130a2)" d="M 137.398597 75.550796 
C 139.265205 75.550796 141.055613 74.809185 142.375504 73.489294 
C 143.695395 72.169402 144.437006 70.378995 144.437006 68.512387 
C 144.437006 66.645779 143.695395 64.855371 142.375504 63.53548 
C 141.055613 62.215589 139.265205 61.473977 137.398597 61.473977 
C 135.531989 61.473977 133.741581 62.215589 132.42169 63.53548 
C 131.101799 64.855371 130.360188 66.645779 130.360188 68.512387 
C 130.360188 70.378995 131.101799 72.169402 132.42169 73.489294 
C 133.741581 74.809185 135.531989 75.550796 137.398597 75.550796 
z
" style="fill:#2d708e;"/>
    <path clip-path="url(#p1caed130a2)" d="M 318.548724 197.085174 
C 320.268683 197.085174 321.918428 196.401827 323.134623 195.185633 
C 324.350817 193.969438 325.034164 192.319692 325.034164 190.599733 
C 325.034164 188.879774 324.350817 187.230029 323.134623 186.013834 
C 321.918428 184.79764 320.268683 184.114293 318.548724 184.114293 
C 316.828765 184.114293 315.179019 184.79764 313.962825 186.013834 
C 312.74663 187.230029 312.063283 188.879774 312.063283 190.599733 
C 312.063283 192.319692 312.74663 193.969438 313.962825 195.185633 
C 315.179019 196.401827 316.828765 197.085174 318.548724 197.085174 
z
" style="fill:#306a8e;"/>
    <path clip-path="url(#p1caed130a2)" d="M 91.370765 266.858559 
C 93.075815 266.858559 94.71126 266.181135 95.916913 264.975482 
C 97.122566 263.76983 97.799989 262.134385 97.799989 260.429334 
C 97.799989 258.724284 97.122566 257.088839 95.916913 255.883186 
C 94.71126 254.677534 93.075815 254.00011 91.370765 254.00011 
C 89.665715 254.00011 88.030269 254.677534 86.824617 255.883186 
C 85.618964 257.088839 84.941541 258.724284 84.941541 260.429334 
C 84.941541 262.134385 85.618964 263.76983 86.824617 264.975482 
C 88.030269 266.181135 89.665715 266.858559 91.370765 266.858559 
z
" style="fill:#1f958b;"/>
    <path clip-path="url(#p1caed130a2)" d="M 243.636838 148.781373 
C 245.480281 148.781373 247.248471 148.048965 248.551982 146.745453 
C 249.855494 145.441942 250.587902 143.673753 250.587902 141.830309 
C 250.587902 139.986865 249.855494 138.218676 248.551982 136.915164 
C 247.248471 135.611653 245.480281 134.879245 243.636838 134.879245 
C 241.793394 134.879245 240.025205 135.611653 238.721693 136.915164 
C 237.418182 138.218676 236.685774 139.986865 236.685774 141.830309 
C 236.685774 143.673753 237.418182 145.441942 238.721693 146.745453 
C 240.025205 148.048965 241.793394 148.781373 243.636838 148.781373 
z
" style="fill:#23888e;"/>
   </g>
   <g id="text_1">
    <!-- Structure #2298, $E_N$=-179.12eV, ΔE=-0.21eV -->
    <defs>
     <path d="M 53.515625 70.515625 
L 53.515625 60.890625 
Q 47.90625 63.578125 42.921875 64.890625 
Q 37.9375 66.21875 33.296875 66.21875 
Q 25.25 66.21875 20.875 63.09375 
Q 16.5 59.96875 16.5 54.203125 
Q 16.5 49.359375 19.40625 46.890625 
Q 22.3125 44.4375 30.421875 42.921875 
L 36.375 41.703125 
Q 47.40625 39.59375 52.65625 34.296875 
Q 57.90625 29 57.90625 20.125 
Q 57.90625 9.515625 50.796875 4.046875 
Q 43.703125 -1.421875 29.984375 -1.421875 
Q 24.8125 -1.421875 18.96875 -0.25 
Q 13.140625 0.921875 6.890625 3.21875 
L 6.890625 13.375 
Q 12.890625 10.015625 18.65625 8.296875 
Q 24.421875 6.59375 29.984375 6.59375 
Q 38.421875 6.59375 43.015625 9.90625 
Q 47.609375 13.234375 47.609375 19.390625 
Q 47.609375 24.75 44.3125 27.78125 
Q 41.015625 30.8125 33.5 32.328125 
L 27.484375 33.5 
Q 16.453125 35.6875 11.515625 40.375 
Q 6.59375 45.0625 6.59375 53.421875 
Q 6.59375 63.09375 13.40625 68.65625 
Q 20.21875 74.21875 32.171875 74.21875 
Q 37.3125 74.21875 42.625 73.28125 
Q 47.953125 72.359375 53.515625 70.515625 
z
" id="DejaVuSans-53"/>
     <path d="M 18.3125 70.21875 
L 18.3125 54.6875 
L 36.8125 54.6875 
L 36.8125 47.703125 
L 18.3125 47.703125 
L 18.3125 18.015625 
Q 18.3125 11.328125 20.140625 9.421875 
Q 21.96875 7.515625 27.59375 7.515625 
L 36.8125 7.515625 
L 36.8125 0 
L 27.59375 0 
Q 17.1875 0 13.234375 3.875 
Q 9.28125 7.765625 9.28125 18.015625 
L 9.28125 47.703125 
L 2.6875 47.703125 
L 2.6875 54.6875 
L 9.28125 54.6875 
L 9.28125 70.21875 
z
" id="DejaVuSans-74"/>
     <path d="M 41.109375 46.296875 
Q 39.59375 47.171875 37.8125 47.578125 
Q 36.03125 48 33.890625 48 
Q 26.265625 48 22.1875 43.046875 
Q 18.109375 38.09375 18.109375 28.8125 
L 18.109375 0 
L 9.078125 0 
L 9.078125 54.6875 
L 18.109375 54.6875 
L 18.109375 46.1875 
Q 20.953125 51.171875 25.484375 53.578125 
Q 30.03125 56 36.53125 56 
Q 37.453125 56 38.578125 55.875 
Q 39.703125 55.765625 41.0625 55.515625 
z
" id="DejaVuSans-72"/>
     <path d="M 8.5 21.578125 
L 8.5 54.6875 
L 17.484375 54.6875 
L 17.484375 21.921875 
Q 17.484375 14.15625 20.5 10.265625 
Q 23.53125 6.390625 29.59375 6.390625 
Q 36.859375 6.390625 41.078125 11.03125 
Q 45.3125 15.671875 45.3125 23.6875 
L 45.3125 54.6875 
L 54.296875 54.6875 
L 54.296875 0 
L 45.3125 0 
L 45.3125 8.40625 
Q 42.046875 3.421875 37.71875 1 
Q 33.40625 -1.421875 27.6875 -1.421875 
Q 18.265625 -1.421875 13.375 4.4375 
Q 8.5 10.296875 8.5 21.578125 
z
M 31.109375 56 
z
" id="DejaVuSans-75"/>
     <path d="M 48.78125 52.59375 
L 48.78125 44.1875 
Q 44.96875 46.296875 41.140625 47.34375 
Q 37.3125 48.390625 33.40625 48.390625 
Q 24.65625 48.390625 19.8125 42.84375 
Q 14.984375 37.3125 14.984375 27.296875 
Q 14.984375 17.28125 19.8125 11.734375 
Q 24.65625 6.203125 33.40625 6.203125 
Q 37.3125 6.203125 41.140625 7.25 
Q 44.96875 8.296875 48.78125 10.40625 
L 48.78125 2.09375 
Q 45.015625 0.34375 40.984375 -0.53125 
Q 36.96875 -1.421875 32.421875 -1.421875 
Q 20.0625 -1.421875 12.78125 6.34375 
Q 5.515625 14.109375 5.515625 27.296875 
Q 5.515625 40.671875 12.859375 48.328125 
Q 20.21875 56 33.015625 56 
Q 37.15625 56 41.109375 55.140625 
Q 45.0625 54.296875 48.78125 52.59375 
z
" id="DejaVuSans-63"/>
     <path d="M 56.203125 29.59375 
L 56.203125 25.203125 
L 14.890625 25.203125 
Q 15.484375 15.921875 20.484375 11.0625 
Q 25.484375 6.203125 34.421875 6.203125 
Q 39.59375 6.203125 44.453125 7.46875 
Q 49.3125 8.734375 54.109375 11.28125 
L 54.109375 2.78125 
Q 49.265625 0.734375 44.1875 -0.34375 
Q 39.109375 -1.421875 33.890625 -1.421875 
Q 20.796875 -1.421875 13.15625 6.1875 
Q 5.515625 13.8125 5.515625 26.8125 
Q 5.515625 40.234375 12.765625 48.109375 
Q 20.015625 56 32.328125 56 
Q 43.359375 56 49.78125 48.890625 
Q 56.203125 41.796875 56.203125 29.59375 
z
M 47.21875 32.234375 
Q 47.125 39.59375 43.09375 43.984375 
Q 39.0625 48.390625 32.421875 48.390625 
Q 24.90625 48.390625 20.390625 44.140625 
Q 15.875 39.890625 15.1875 32.171875 
z
" id="DejaVuSans-65"/>
     <path id="DejaVuSans-20"/>
     <path d="M 51.125 44 
L 36.921875 44 
L 32.8125 27.6875 
L 47.125 27.6875 
z
M 43.796875 71.78125 
L 38.71875 51.515625 
L 52.984375 51.515625 
L 58.109375 71.78125 
L 65.921875 71.78125 
L 60.890625 51.515625 
L 76.125 51.515625 
L 76.125 44 
L 58.984375 44 
L 54.984375 27.6875 
L 70.515625 27.6875 
L 70.515625 20.21875 
L 53.078125 20.21875 
L 48 0 
L 40.1875 0 
L 45.21875 20.21875 
L 30.90625 20.21875 
L 25.875 0 
L 18.015625 0 
L 23.09375 20.21875 
L 7.71875 20.21875 
L 7.71875 27.6875 
L 24.90625 27.6875 
L 29 44 
L 13.28125 44 
L 13.28125 51.515625 
L 30.90625 51.515625 
L 35.890625 71.78125 
z
" id="DejaVuSans-23"/>
     <path d="M 19.1875 8.296875 
L 53.609375 8.296875 
L 53.609375 0 
L 7.328125 0 
L 7.328125 8.296875 
Q 12.9375 14.109375 22.625 23.890625 
Q 32.328125 33.6875 34.8125 36.53125 
Q 39.546875 41.84375 41.421875 45.53125 
Q 43.3125 49.21875 43.3125 52.78125 
Q 43.3125 58.59375 39.234375 62.25 
Q 35.15625 65.921875 28.609375 65.921875 
Q 23.96875 65.921875 18.8125 64.3125 
Q 13.671875 62.703125 7.8125 59.421875 
L 7.8125 69.390625 
Q 13.765625 71.78125 18.9375 73 
Q 24.125 74.21875 28.421875 74.21875 
Q 39.75 74.21875 46.484375 68.546875 
Q 53.21875 62.890625 53.21875 53.421875 
Q 53.21875 48.921875 51.53125 44.890625 
Q 49.859375 40.875 45.40625 35.40625 
Q 44.1875 33.984375 37.640625 27.21875 
Q 31.109375 20.453125 19.1875 8.296875 
z
" id="DejaVuSans-32"/>
     <path d="M 10.984375 1.515625 
L 10.984375 10.5 
Q 14.703125 8.734375 18.5 7.8125 
Q 22.3125 6.890625 25.984375 6.890625 
Q 35.75 6.890625 40.890625 13.453125 
Q 46.046875 20.015625 46.78125 33.40625 
Q 43.953125 29.203125 39.59375 26.953125 
Q 35.25 24.703125 29.984375 24.703125 
Q 19.046875 24.703125 12.671875 31.3125 
Q 6.296875 37.9375 6.296875 49.421875 
Q 6.296875 60.640625 12.9375 67.421875 
Q 19.578125 74.21875 30.609375 74.21875 
Q 43.265625 74.21875 49.921875 64.515625 
Q 56.59375 54.828125 56.59375 36.375 
Q 56.59375 19.140625 48.40625 8.859375 
Q 40.234375 -1.421875 26.421875 -1.421875 
Q 22.703125 -1.421875 18.890625 -0.6875 
Q 15.09375 0.046875 10.984375 1.515625 
z
M 30.609375 32.421875 
Q 37.25 32.421875 41.125 36.953125 
Q 45.015625 41.5 45.015625 49.421875 
Q 45.015625 57.28125 41.125 61.84375 
Q 37.25 66.40625 30.609375 66.40625 
Q 23.96875 66.40625 20.09375 61.84375 
Q 16.21875 57.28125 16.21875 49.421875 
Q 16.21875 41.5 20.09375 36.953125 
Q 23.96875 32.421875 30.609375 32.421875 
z
" id="DejaVuSans-39"/>
     <path d="M 31.78125 34.625 
Q 24.75 34.625 20.71875 30.859375 
Q 16.703125 27.09375 16.703125 20.515625 
Q 16.703125 13.921875 20.71875 10.15625 
Q 24.75 6.390625 31.78125 6.390625 
Q 38.8125 6.390625 42.859375 10.171875 
Q 46.921875 13.96875 46.921875 20.515625 
Q 46.921875 27.09375 42.890625 30.859375 
Q 38.875 34.625 31.78125 34.625 
z
M 21.921875 38.8125 
Q 15.578125 40.375 12.03125 44.71875 
Q 8.5 49.078125 8.5 55.328125 
Q 8.5 64.0625 14.71875 69.140625 
Q 20.953125 74.21875 31.78125 74.21875 
Q 42.671875 74.21875 48.875 69.140625 
Q 55.078125 64.0625 55.078125 55.328125 
Q 55.078125 49.078125 51.53125 44.71875 
Q 48 40.375 41.703125 38.8125 
Q 48.828125 37.15625 52.796875 32.3125 
Q 56.78125 27.484375 56.78125 20.515625 
Q 56.78125 9.90625 50.3125 4.234375 
Q 43.84375 -1.421875 31.78125 -1.421875 
Q 19.734375 -1.421875 13.25 4.234375 
Q 6.78125 9.90625 6.78125 20.515625 
Q 6.78125 27.484375 10.78125 32.3125 
Q 14.796875 37.15625 21.921875 38.8125 
z
M 18.3125 54.390625 
Q 18.3125 48.734375 21.84375 45.5625 
Q 25.390625 42.390625 31.78125 42.390625 
Q 38.140625 42.390625 41.71875 45.5625 
Q 45.3125 48.734375 45.3125 54.390625 
Q 45.3125 60.0625 41.71875 63.234375 
Q 38.140625 66.40625 31.78125 66.40625 
Q 25.390625 66.40625 21.84375 63.234375 
Q 18.3125 60.0625 18.3125 54.390625 
z
" id="DejaVuSans-38"/>
     <path d="M 11.71875 12.40625 
L 22.015625 12.40625 
L 22.015625 4 
L 14.015625 -11.625 
L 7.71875 -11.625 
L 11.71875 4 
z
" id="DejaVuSans-2c"/>
     <path d="M 16.890625 72.90625 
L 62.984375 72.90625 
L 61.375 64.59375 
L 25.09375 64.59375 
L 20.90625 43.015625 
L 55.71875 43.015625 
L 54.109375 34.71875 
L 19.28125 34.71875 
L 14.203125 8.296875 
L 51.3125 8.296875 
L 49.703125 0 
L 2.6875 0 
z
" id="DejaVuSans-Oblique-45"/>
     <path d="M 16.890625 72.90625 
L 30.171875 72.90625 
L 50.296875 10.40625 
L 62.5 72.90625 
L 72.125 72.90625 
L 57.90625 0 
L 44.578125 0 
L 24.515625 62.890625 
L 12.3125 0 
L 2.6875 0 
z
" id="DejaVuSans-Oblique-4e"/>
     <path d="M 10.59375 45.40625 
L 73.1875 45.40625 
L 73.1875 37.203125 
L 10.59375 37.203125 
z
M 10.59375 25.484375 
L 73.1875 25.484375 
L 73.1875 17.1875 
L 10.59375 17.1875 
z
" id="DejaVuSans-3d"/>
     <path d="M 4.890625 31.390625 
L 31.203125 31.390625 
L 31.203125 23.390625 
L 4.890625 23.390625 
z
" id="DejaVuSans-2d"/>
     <path d="M 12.40625 8.296875 
L 28.515625 8.296875 
L 28.515625 63.921875 
L 10.984375 60.40625 
L 10.984375 69.390625 
L 28.421875 72.90625 
L 38.28125 72.90625 
L 38.28125 8.296875 
L 54.390625 8.296875 
L 54.390625 0 
L 12.40625 0 
z
" id="DejaVuSans-31"/>
     <path d="M 8.203125 72.90625 
L 55.078125 72.90625 
L 55.078125 68.703125 
L 28.609375 0 
L 18.3125 0 
L 43.21875 64.59375 
L 8.203125 64.59375 
z
" id="DejaVuSans-37"/>
     <path d="M 10.6875 12.40625 
L 21 12.40625 
L 21 0 
L 10.6875 0 
z
" id="DejaVuSans-2e"/>
     <path d="M 28.609375 0 
L 0.78125 72.90625 
L 11.078125 72.90625 
L 34.1875 11.53125 
L 57.328125 72.90625 
L 67.578125 72.90625 
L 39.796875 0 
z
" id="DejaVuSans-56"/>
     <path d="M 34.1875 63.1875 
L 14.15625 8.203125 
L 54.25 8.203125 
z
M 0.78125 0 
L 28.609375 72.90625 
L 39.796875 72.90625 
L 67.578125 0 
z
" id="DejaVuSans-394"/>
     <path d="M 9.8125 72.90625 
L 55.90625 72.90625 
L 55.90625 64.59375 
L 19.671875 64.59375 
L 19.671875 43.015625 
L 54.390625 43.015625 
L 54.390625 34.71875 
L 19.671875 34.71875 
L 19.671875 8.296875 
L 56.78125 8.296875 
L 56.78125 0 
L 9.8125 0 
z
" id="DejaVuSans-45"/>
     <path d="M 31.78125 66.40625 
Q 24.171875 66.40625 20.328125 58.90625 
Q 16.5 51.421875 16.5 36.375 
Q 16.5 21.390625 20.328125 13.890625 
Q 24.171875 6.390625 31.78125 6.390625 
Q 39.453125 6.390625 43.28125 13.890625 
Q 47.125 21.390625 47.125 36.375 
Q 47.125 51.421875 43.28125 58.90625 
Q 39.453125 66.40625 31.78125 66.40625 
z
M 31.78125 74.21875 
Q 44.046875 74.21875 50.515625 64.515625 
Q 56.984375 54.828125 56.984375 36.375 
Q 56.984375 17.96875 50.515625 8.265625 
Q 44.046875 -1.421875 31.78125 -1.421875 
Q 19.53125 -1.421875 13.0625 8.265625 
Q 6.59375 17.96875 6.59375 36.375 
Q 6.59375 54.828125 13.0625 64.515625 
Q 19.53125 74.21875 31.78125 74.21875 
z
" id="DejaVuSans-30"/>
    </defs>
    <g transform="translate(63.228 35.472)scale(0.12 -0.12)">
     <use transform="translate(0 0.78125)" xlink:href="#DejaVuSans-53"/>
     <use transform="translate(63.476562 0.78125)" xlink:href="#DejaVuSans-74"/>
     <use transform="translate(102.685547 0.78125)" xlink:href="#DejaVuSans-72"/>
     <use transform="translate(143.798828 0.78125)" xlink:href="#DejaVuSans-75"/>
     <use transform="translate(207.177734 0.78125)" xlink:href="#DejaVuSans-63"/>
     <use transform="translate(262.158203 0.78125)" xlink:href="#DejaVuSans-74"/>
     <use transform="translate(301.367188 0.78125)" xlink:href="#DejaVuSans-75"/>
     <use transform="translate(364.746094 0.78125)" xlink:href="#DejaVuSans-72"/>
     <use transform="translate(405.859375 0.78125)" xlink:href="#DejaVuSans-65"/>
     <use transform="translate(467.382812 0.78125)" xlink:href="#DejaVuSans-20"/>
     <use transform="translate(499.169922 0.78125)" xlink:href="#DejaVuSans-23"/>
     <use transform="translate(582.958984 0.78125)" xlink:href="#DejaVuSans-32"/>
     <use transform="translate(646.582031 0.78125)" xlink:href="#DejaVuSans-32"/>
     <use transform="translate(710.189453 0.78125)" xlink:href="#DejaVuSans-39"/>
     <use transform="translate(773.8125 0.78125)" xlink:href="#DejaVuSans-38"/>
     <use transform="translate(837.435547 0.78125)" xlink:href="#DejaVuSans-2c"/>
     <use transform="translate(869.222656 0.78125)" xlink:href="#DejaVuSans-20"/>
     <use transform="translate(901.009766 0.78125)" xlink:href="#DejaVuSans-Oblique-45"/>
     <use transform="translate(964.193359 -15.625)scale(0.7)" xlink:href="#DejaVuSans-Oblique-4e"/>
     <use transform="translate(1019.291016 0.78125)" xlink:href="#DejaVuSans-3d"/>
     <use transform="translate(1103.080078 0.78125)" xlink:href="#DejaVuSans-2d"/>
     <use transform="translate(1139.164062 0.78125)" xlink:href="#DejaVuSans-31"/>
     <use transform="translate(1202.787109 0.78125)" xlink:href="#DejaVuSans-37"/>
     <use transform="translate(1266.410156 0.78125)" xlink:href="#DejaVuSans-39"/>
     <use transform="translate(1330.033203 0.78125)" xlink:href="#DejaVuSans-2e"/>
     <use transform="translate(1361.820312 0.78125)" xlink:href="#DejaVuSans-31"/>
     <use transform="translate(1425.443359 0.78125)" xlink:href="#DejaVuSans-32"/>
     <use transform="translate(1489.066406 0.78125)" xlink:href="#DejaVuSans-65"/>
     <use transform="translate(1550.589844 0.78125)" xlink:href="#DejaVuSans-56"/>
     <use transform="translate(1618.998047 0.78125)" xlink:href="#DejaVuSans-2c"/>
     <use transform="translate(1650.785156 0.78125)" xlink:href="#DejaVuSans-20"/>
     <use transform="translate(1682.572266 0.78125)" xlink:href="#DejaVuSans-394"/>
     <use transform="translate(1750.980469 0.78125)" xlink:href="#DejaVuSans-45"/>
     <use transform="translate(1814.164062 0.78125)" xlink:href="#DejaVuSans-3d"/>
     <use transform="translate(1897.953125 0.78125)" xlink:href="#DejaVuSans-2d"/>
     <use transform="translate(1934.037109 0.78125)" xlink:href="#DejaVuSans-30"/>
     <use transform="translate(1997.660156 0.78125)" xlink:href="#DejaVuSans-2e"/>
     <use transform="translate(2029.369141 0.78125)" xlink:href="#DejaVuSans-32"/>
     <use transform="translate(2092.992188 0.78125)" xlink:href="#DejaVuSans-31"/>
     <use transform="translate(2156.615234 0.78125)" xlink:href="#DejaVuSans-65"/>
     <use transform="translate(2218.138672 0.78125)" xlink:href="#DejaVuSans-56"/>
    </g>
   </g>
  </g>
  <g id="axes_2">
   <g id="patch_2">
    <path clip-path="url(#p29e1790044)" d="M 361.152 307.584 
L 361.152 306.5445 
L 361.152 42.5115 
L 361.152 41.472 
L 374.4576 41.472 
L 374.4576 42.5115 
L 374.4576 306.5445 
L 374.4576 307.584 
z
" style="fill:#ffffff;stroke:#ffffff;stroke-linejoin:miter;stroke-width:0.01;"/>
   </g>
   <image height="265.68" id="imagee5583b1899" transform="scale(1 -1)translate(0 -265.68)" width="12.96" x="361.44" xlink:href="data:image/png;base64,
iVBORw0KGgoAAAANSUhEUgAAABIAAAFxCAYAAAB+2fgXAAAABHNCSVQICAgIfAhkiAAAAeVJREFUeJztncmNw0AQA2ckheYQNv9QLIfQ8ygsCgQ7AEI8+jAs2Puz/94F1LP2ReCsZ18bAWIeZ5XaGRBE7VnbptG+KI101FYyNSiQG2oRITXKNaX9uclOdi2XWjftVE32CZCO2ou5Bj1TcCBr/1zB9ge7Fq0Rg2NM9pvbtG+ua1QgsRYhDy0ISEiNc40BEibbSI0Coj5CBGtkpFbXJiAjNZlrwhuSOv2M1DjXbEdEciBt1JSDDQKKpmZr2rr2j0DBGpXaWEJq3bQzEPIS26r9J+Wzv9Tm8o3aajRXqc3VUXsApKNWjeZq0x4ABVNbm7lrszVigDqP5vIl2+eaT2yfRkL7g+dRcNPqjohkjaCvRVBq0H2U3LQrOJCx9kdTg4B8oxZzzTdqdYHEngjUCAPyUctN9sVRq2sTECW2UKNLd2jVtRmo1A6AhMmWaSRcR8nUdIHUuVb75zJS218EyEitro1At69pIdeSk30Lkw0FktNImGyZRhy1O5galmxd03LUsHWk06jUZiCq+5Wb1kZNN4+wJxJuWt8RAW5am2sYNZ9rYCBzZ3buPKJ2P5Yj4Toy3keyIyJbIxs1rml1byCA84gpch5RQNB7Q0qNMGq2Hy4BXdNR41yz/cEEJfZzUz96r9PoB0okjeQ8y9TkAAAAAElFTkSuQmCC" y="-41.76"/>
   <g id="matplotlib.axis_1"/>
   <g id="matplotlib.axis_2">
    <g id="ytick_1">
     <g id="line2d_1">
      <defs>
       <path d="M 0 0 
L 3.5 0 
" id="m735ef7762d" style="stroke:#000000;stroke-width:0.8;"/>
      </defs>
      <g>
       <use style="stroke:#000000;stroke-width:0.8;" x="374.4576" xlink:href="#m735ef7762d" y="298.013538"/>
      </g>
     </g>
     <g id="text_2">
      <!-- −9.0 -->
      <defs>
       <path d="M 10.59375 35.5 
L 73.1875 35.5 
L 73.1875 27.203125 
L 10.59375 27.203125 
z
" id="DejaVuSans-2212"/>
      </defs>
      <g transform="translate(381.4576 301.812757)scale(0.1 -0.1)">
       <use xlink:href="#DejaVuSans-2212"/>
       <use x="83.789062" xlink:href="#DejaVuSans-39"/>
       <use x="147.412109" xlink:href="#DejaVuSans-2e"/>
       <use x="179.199219" xlink:href="#DejaVuSans-30"/>
      </g>
     </g>
    </g>
    <g id="ytick_2">
     <g id="line2d_2">
      <g>
       <use style="stroke:#000000;stroke-width:0.8;" x="374.4576" xlink:href="#m735ef7762d" y="265.57235"/>
      </g>
     </g>
     <g id="text_3">
      <!-- −8.5 -->
      <defs>
       <path d="M 10.796875 72.90625 
L 49.515625 72.90625 
L 49.515625 64.59375 
L 19.828125 64.59375 
L 19.828125 46.734375 
Q 21.96875 47.46875 24.109375 47.828125 
Q 26.265625 48.1875 28.421875 48.1875 
Q 40.625 48.1875 47.75 41.5 
Q 54.890625 34.8125 54.890625 23.390625 
Q 54.890625 11.625 47.5625 5.09375 
Q 40.234375 -1.421875 26.90625 -1.421875 
Q 22.3125 -1.421875 17.546875 -0.640625 
Q 12.796875 0.140625 7.71875 1.703125 
L 7.71875 11.625 
Q 12.109375 9.234375 16.796875 8.0625 
Q 21.484375 6.890625 26.703125 6.890625 
Q 35.15625 6.890625 40.078125 11.328125 
Q 45.015625 15.765625 45.015625 23.390625 
Q 45.015625 31 40.078125 35.4375 
Q 35.15625 39.890625 26.703125 39.890625 
Q 22.75 39.890625 18.8125 39.015625 
Q 14.890625 38.140625 10.796875 36.28125 
z
" id="DejaVuSans-35"/>
      </defs>
      <g transform="translate(381.4576 269.371569)scale(0.1 -0.1)">
       <use xlink:href="#DejaVuSans-2212"/>
       <use x="83.789062" xlink:href="#DejaVuSans-38"/>
       <use x="147.412109" xlink:href="#DejaVuSans-2e"/>
       <use x="179.199219" xlink:href="#DejaVuSans-35"/>
      </g>
     </g>
    </g>
    <g id="ytick_3">
     <g id="line2d_3">
      <g>
       <use style="stroke:#000000;stroke-width:0.8;" x="374.4576" xlink:href="#m735ef7762d" y="233.131163"/>
      </g>
     </g>
     <g id="text_4">
      <!-- −8.0 -->
      <g transform="translate(381.4576 236.930382)scale(0.1 -0.1)">
       <use xlink:href="#DejaVuSans-2212"/>
       <use x="83.789062" xlink:href="#DejaVuSans-38"/>
       <use x="147.412109" xlink:href="#DejaVuSans-2e"/>
       <use x="179.199219" xlink:href="#DejaVuSans-30"/>
      </g>
     </g>
    </g>
    <g id="ytick_4">
     <g id="line2d_4">
      <g>
       <use style="stroke:#000000;stroke-width:0.8;" x="374.4576" xlink:href="#m735ef7762d" y="200.689975"/>
      </g>
     </g>
     <g id="text_5">
      <!-- −7.5 -->
      <g transform="translate(381.4576 204.489194)scale(0.1 -0.1)">
       <use xlink:href="#DejaVuSans-2212"/>
       <use x="83.789062" xlink:href="#DejaVuSans-37"/>
       <use x="147.412109" xlink:href="#DejaVuSans-2e"/>
       <use x="179.199219" xlink:href="#DejaVuSans-35"/>
      </g>
     </g>
    </g>
    <g id="ytick_5">
     <g id="line2d_5">
      <g>
       <use style="stroke:#000000;stroke-width:0.8;" x="374.4576" xlink:href="#m735ef7762d" y="168.248788"/>
      </g>
     </g>
     <g id="text_6">
      <!-- −7.0 -->
      <g transform="translate(381.4576 172.048007)scale(0.1 -0.1)">
       <use xlink:href="#DejaVuSans-2212"/>
       <use x="83.789062" xlink:href="#DejaVuSans-37"/>
       <use x="147.412109" xlink:href="#DejaVuSans-2e"/>
       <use x="179.199219" xlink:href="#DejaVuSans-30"/>
      </g>
     </g>
    </g>
    <g id="ytick_6">
     <g id="line2d_6">
      <g>
       <use style="stroke:#000000;stroke-width:0.8;" x="374.4576" xlink:href="#m735ef7762d" y="135.807601"/>
      </g>
     </g>
     <g id="text_7">
      <!-- −6.5 -->
      <defs>
       <path d="M 33.015625 40.375 
Q 26.375 40.375 22.484375 35.828125 
Q 18.609375 31.296875 18.609375 23.390625 
Q 18.609375 15.53125 22.484375 10.953125 
Q 26.375 6.390625 33.015625 6.390625 
Q 39.65625 6.390625 43.53125 10.953125 
Q 47.40625 15.53125 47.40625 23.390625 
Q 47.40625 31.296875 43.53125 35.828125 
Q 39.65625 40.375 33.015625 40.375 
z
M 52.59375 71.296875 
L 52.59375 62.3125 
Q 48.875 64.0625 45.09375 64.984375 
Q 41.3125 65.921875 37.59375 65.921875 
Q 27.828125 65.921875 22.671875 59.328125 
Q 17.53125 52.734375 16.796875 39.40625 
Q 19.671875 43.65625 24.015625 45.921875 
Q 28.375 48.1875 33.59375 48.1875 
Q 44.578125 48.1875 50.953125 41.515625 
Q 57.328125 34.859375 57.328125 23.390625 
Q 57.328125 12.15625 50.6875 5.359375 
Q 44.046875 -1.421875 33.015625 -1.421875 
Q 20.359375 -1.421875 13.671875 8.265625 
Q 6.984375 17.96875 6.984375 36.375 
Q 6.984375 53.65625 15.1875 63.9375 
Q 23.390625 74.21875 37.203125 74.21875 
Q 40.921875 74.21875 44.703125 73.484375 
Q 48.484375 72.75 52.59375 71.296875 
z
" id="DejaVuSans-36"/>
      </defs>
      <g transform="translate(381.4576 139.606819)scale(0.1 -0.1)">
       <use xlink:href="#DejaVuSans-2212"/>
       <use x="83.789062" xlink:href="#DejaVuSans-36"/>
       <use x="147.412109" xlink:href="#DejaVuSans-2e"/>
       <use x="179.199219" xlink:href="#DejaVuSans-35"/>
      </g>
     </g>
    </g>
    <g id="ytick_7">
     <g id="line2d_7">
      <g>
       <use style="stroke:#000000;stroke-width:0.8;" x="374.4576" xlink:href="#m735ef7762d" y="103.366413"/>
      </g>
     </g>
     <g id="text_8">
      <!-- −6.0 -->
      <g transform="translate(381.4576 107.165632)scale(0.1 -0.1)">
       <use xlink:href="#DejaVuSans-2212"/>
       <use x="83.789062" xlink:href="#DejaVuSans-36"/>
       <use x="147.412109" xlink:href="#DejaVuSans-2e"/>
       <use x="179.199219" xlink:href="#DejaVuSans-30"/>
      </g>
     </g>
    </g>
    <g id="ytick_8">
     <g id="line2d_8">
      <g>
       <use style="stroke:#000000;stroke-width:0.8;" x="374.4576" xlink:href="#m735ef7762d" y="70.925226"/>
      </g>
     </g>
     <g id="text_9">
      <!-- −5.5 -->
      <g transform="translate(381.4576 74.724444)scale(0.1 -0.1)">
       <use xlink:href="#DejaVuSans-2212"/>
       <use x="83.789062" xlink:href="#DejaVuSans-35"/>
       <use x="147.412109" xlink:href="#DejaVuSans-2e"/>
       <use x="179.199219" xlink:href="#DejaVuSans-35"/>
      </g>
     </g>
    </g>
    <g id="text_10">
     <!-- Energy [eV] -->
     <defs>
      <path d="M 54.890625 33.015625 
L 54.890625 0 
L 45.90625 0 
L 45.90625 32.71875 
Q 45.90625 40.484375 42.875 44.328125 
Q 39.84375 48.1875 33.796875 48.1875 
Q 26.515625 48.1875 22.3125 43.546875 
Q 18.109375 38.921875 18.109375 30.90625 
L 18.109375 0 
L 9.078125 0 
L 9.078125 54.6875 
L 18.109375 54.6875 
L 18.109375 46.1875 
Q 21.34375 51.125 25.703125 53.5625 
Q 30.078125 56 35.796875 56 
Q 45.21875 56 50.046875 50.171875 
Q 54.890625 44.34375 54.890625 33.015625 
z
" id="DejaVuSans-6e"/>
      <path d="M 45.40625 27.984375 
Q 45.40625 37.75 41.375 43.109375 
Q 37.359375 48.484375 30.078125 48.484375 
Q 22.859375 48.484375 18.828125 43.109375 
Q 14.796875 37.75 14.796875 27.984375 
Q 14.796875 18.265625 18.828125 12.890625 
Q 22.859375 7.515625 30.078125 7.515625 
Q 37.359375 7.515625 41.375 12.890625 
Q 45.40625 18.265625 45.40625 27.984375 
z
M 54.390625 6.78125 
Q 54.390625 -7.171875 48.1875 -13.984375 
Q 42 -20.796875 29.203125 -20.796875 
Q 24.46875 -20.796875 20.265625 -20.09375 
Q 16.0625 -19.390625 12.109375 -17.921875 
L 12.109375 -9.1875 
Q 16.0625 -11.328125 19.921875 -12.34375 
Q 23.78125 -13.375 27.78125 -13.375 
Q 36.625 -13.375 41.015625 -8.765625 
Q 45.40625 -4.15625 45.40625 5.171875 
L 45.40625 9.625 
Q 42.625 4.78125 38.28125 2.390625 
Q 33.9375 0 27.875 0 
Q 17.828125 0 11.671875 7.65625 
Q 5.515625 15.328125 5.515625 27.984375 
Q 5.515625 40.671875 11.671875 48.328125 
Q 17.828125 56 27.875 56 
Q 33.9375 56 38.28125 53.609375 
Q 42.625 51.21875 45.40625 46.390625 
L 45.40625 54.6875 
L 54.390625 54.6875 
z
" id="DejaVuSans-67"/>
      <path d="M 32.171875 -5.078125 
Q 28.375 -14.84375 24.75 -17.8125 
Q 21.140625 -20.796875 15.09375 -20.796875 
L 7.90625 -20.796875 
L 7.90625 -13.28125 
L 13.1875 -13.28125 
Q 16.890625 -13.28125 18.9375 -11.515625 
Q 21 -9.765625 23.484375 -3.21875 
L 25.09375 0.875 
L 2.984375 54.6875 
L 12.5 54.6875 
L 29.59375 11.921875 
L 46.6875 54.6875 
L 56.203125 54.6875 
z
" id="DejaVuSans-79"/>
      <path d="M 8.59375 75.984375 
L 29.296875 75.984375 
L 29.296875 69 
L 17.578125 69 
L 17.578125 -6.203125 
L 29.296875 -6.203125 
L 29.296875 -13.1875 
L 8.59375 -13.1875 
z
" id="DejaVuSans-5b"/>
      <path d="M 30.421875 75.984375 
L 30.421875 -13.1875 
L 9.71875 -13.1875 
L 9.71875 -6.203125 
L 21.390625 -6.203125 
L 21.390625 69 
L 9.71875 69 
L 9.71875 75.984375 
z
" id="DejaVuSans-5d"/>
     </defs>
     <g transform="translate(417.33885 204.108469)rotate(-90)scale(0.1 -0.1)">
      <use xlink:href="#DejaVuSans-45"/>
      <use x="63.183594" xlink:href="#DejaVuSans-6e"/>
      <use x="126.5625" xlink:href="#DejaVuSans-65"/>
      <use x="188.085938" xlink:href="#DejaVuSans-72"/>
      <use x="229.183594" xlink:href="#DejaVuSans-67"/>
      <use x="292.660156" xlink:href="#DejaVuSans-79"/>
      <use x="351.839844" xlink:href="#DejaVuSans-20"/>
      <use x="383.626953" xlink:href="#DejaVuSans-5b"/>
      <use x="422.640625" xlink:href="#DejaVuSans-65"/>
      <use x="484.164062" xlink:href="#DejaVuSans-56"/>
      <use x="552.572266" xlink:href="#DejaVuSans-5d"/>
     </g>
    </g>
   </g>
   <g id="patch_3">
    <path d="M 361.152 307.584 
L 361.152 306.5445 
L 361.152 42.5115 
L 361.152 41.472 
L 374.4576 41.472 
L 374.4576 42.5115 
L 374.4576 306.5445 
L 374.4576 307.584 
z
" style="fill:none;stroke:#000000;stroke-linejoin:miter;stroke-width:0.8;"/>
   </g>
  </g>
 </g>
 <defs>
  <clipPath id="p1caed130a2">
   <rect height="266.112" width="285.696" x="57.6" y="41.472"/>
  </clipPath>
  <clipPath id="p29e1790044">
   <rect height="266.112" width="13.3056" x="361.152" y="41.472"/>
  </clipPath>
 </defs>
</svg>
