<?xml version="1.0" encoding="utf-8" standalone="no"?>
<!DOCTYPE svg PUBLIC "-//W3C//DTD SVG 1.1//EN"
  "http://www.w3.org/Graphics/SVG/1.1/DTD/svg11.dtd">
<!-- Created with matplotlib (http://matplotlib.org/) -->
<svg height="345.6pt" version="1.1" viewBox="0 0 460.8 345.6" width="460.8pt" xmlns="http://www.w3.org/2000/svg" xmlns:xlink="http://www.w3.org/1999/xlink">
 <defs>
  <style type="text/css">
*{stroke-linecap:butt;stroke-linejoin:round;}
  </style>
 </defs>
 <g id="figure_1">
  <g id="patch_1">
   <path d="M 0 345.6 
L 460.8 345.6 
L 460.8 0 
L 0 0 
z
" style="fill:#ffffff;"/>
  </g>
  <g id="axes_1">
   <g id="CircleCollection_1">
    <path clip-path="url(#p813c96b1e0)" d="M 196.758427 82.061106 
C 198.564689 82.061106 200.297215 81.34347 201.574435 80.06625 
C 202.851655 78.78903 203.569291 77.056504 203.569291 75.250242 
C 203.569291 73.443979 202.851655 71.711454 201.574435 70.434233 
C 200.297215 69.157013 198.564689 68.439377 196.758427 68.439377 
C 194.952164 68.439377 193.219639 69.157013 191.942418 70.434233 
C 190.665198 71.711454 189.947562 73.443979 189.947562 75.250242 
C 189.947562 77.056504 190.665198 78.78903 191.942418 80.06625 
C 193.219639 81.34347 194.952164 82.061106 196.758427 82.061106 
z
" style="fill:#93d741;"/>
    <path clip-path="url(#p813c96b1e0)" d="M 329.914178 269.583655 
C 331.70705 269.583655 333.426731 268.87134 334.694483 267.603588 
C 335.962235 266.335836 336.674551 264.616154 336.674551 262.823283 
C 336.674551 261.030411 335.962235 259.310729 334.694483 258.042977 
C 333.426731 256.775225 331.70705 256.06291 329.914178 256.06291 
C 328.121306 256.06291 326.401624 256.775225 325.133872 258.042977 
C 323.86612 259.310729 323.153805 261.030411 323.153805 262.823283 
C 323.153805 264.616154 323.86612 266.335836 325.133872 267.603588 
C 326.401624 268.87134 328.121306 269.583655 329.914178 269.583655 
z
" style="fill:#25ab82;"/>
    <path clip-path="url(#p813c96b1e0)" d="M 200.948461 127.074672 
C 202.745847 127.074672 204.469859 126.360563 205.740803 125.089619 
C 207.011747 123.818675 207.725856 122.094664 207.725856 120.297278 
C 207.725856 118.499892 207.011747 116.77588 205.740803 115.504936 
C 204.469859 114.233992 202.745847 113.519883 200.948461 113.519883 
C 199.151075 113.519883 197.427063 114.233992 196.156119 115.504936 
C 194.885176 116.77588 194.171066 118.499892 194.171066 120.297278 
C 194.171066 122.094664 194.885176 123.818675 196.156119 125.089619 
C 197.427063 126.360563 199.151075 127.074672 200.948461 127.074672 
z
" style="fill:#440154;"/>
    <path clip-path="url(#p813c96b1e0)" d="M 229.983885 281.793728 
C 231.770428 281.793728 233.48404 281.083927 234.747316 279.82065 
C 236.010593 278.557374 236.720394 276.843762 236.720394 275.057219 
C 236.720394 273.270676 236.010593 271.557064 234.747316 270.293788 
C 233.48404 269.030511 231.770428 268.32071 229.983885 268.32071 
C 228.197342 268.32071 226.483731 269.030511 225.220454 270.293788 
C 223.957177 271.557064 223.247376 273.270676 223.247376 275.057219 
C 223.247376 276.843762 223.957177 278.557374 225.220454 279.82065 
C 226.483731 281.083927 228.197342 281.793728 229.983885 281.793728 
z
" style="fill:#58c765;"/>
    <path clip-path="url(#p813c96b1e0)" d="M 229.905317 205.01607 
C 231.695363 205.01607 233.412333 204.304878 234.678086 203.039124 
C 235.943839 201.773371 236.655032 200.056401 236.655032 198.266355 
C 236.655032 196.47631 235.943839 194.75934 234.678086 193.493587 
C 233.412333 192.227833 231.695363 191.516641 229.905317 191.516641 
C 228.115272 191.516641 226.398301 192.227833 225.132548 193.493587 
C 223.866795 194.75934 223.155603 196.47631 223.155603 198.266355 
C 223.155603 200.056401 223.866795 201.773371 225.132548 203.039124 
C 226.398301 204.304878 228.115272 205.01607 229.905317 205.01607 
z
" style="fill:#2ab07f;"/>
    <path clip-path="url(#p813c96b1e0)" d="M 207.128251 244.668079 
C 208.915276 244.668079 210.62935 243.958086 211.892968 242.694468 
C 213.156586 241.43085 213.866578 239.716776 213.866578 237.929751 
C 213.866578 236.142726 213.156586 234.428652 211.892968 233.165034 
C 210.62935 231.901416 208.915276 231.191424 207.128251 231.191424 
C 205.341225 231.191424 203.627151 231.901416 202.363534 233.165034 
C 201.099916 234.428652 200.389923 236.142726 200.389923 237.929751 
C 200.389923 239.716776 201.099916 241.43085 202.363534 242.694468 
C 203.627151 243.958086 205.341225 244.668079 207.128251 244.668079 
z
" style="fill:#471164;"/>
    <path clip-path="url(#p813c96b1e0)" d="M 306.28238 191.190407 
C 308.079193 191.190407 309.802655 190.476526 311.073194 189.205987 
C 312.343733 187.935448 313.057615 186.211986 313.057615 184.415173 
C 313.057615 182.618359 312.343733 180.894897 311.073194 179.624358 
C 309.802655 178.353819 308.079193 177.639938 306.28238 177.639938 
C 304.485566 177.639938 302.762104 178.353819 301.491565 179.624358 
C 300.221026 180.894897 299.507145 182.618359 299.507145 184.415173 
C 299.507145 186.211986 300.221026 187.935448 301.491565 189.205987 
C 302.762104 190.476526 304.485566 191.190407 306.28238 191.190407 
z
" style="fill:#1e9d89;"/>
    <path clip-path="url(#p813c96b1e0)" d="M 165.083869 238.49066 
C 166.870645 238.49066 168.584479 237.780767 169.84792 236.517326 
C 171.111361 235.253885 171.821255 233.54005 171.821255 231.753275 
C 171.821255 229.966499 171.111361 228.252665 169.84792 226.989224 
C 168.584479 225.725783 166.870645 225.015889 165.083869 225.015889 
C 163.297093 225.015889 161.583259 225.725783 160.319818 226.989224 
C 159.056377 228.252665 158.346483 229.966499 158.346483 231.753275 
C 158.346483 233.54005 159.056377 235.253885 160.319818 236.517326 
C 161.583259 237.780767 163.297093 238.49066 165.083869 238.49066 
z
" style="fill:#482374;"/>
    <path clip-path="url(#p813c96b1e0)" d="M 266.471951 183.311642 
C 268.266115 183.311642 269.987036 182.598813 271.255701 181.330148 
C 272.524366 180.061483 273.237195 178.340562 273.237195 176.546398 
C 273.237195 174.752235 272.524366 173.031314 271.255701 171.762649 
C 269.987036 170.493984 268.266115 169.781155 266.471951 169.781155 
C 264.677788 169.781155 262.956867 170.493984 261.688202 171.762649 
C 260.419537 173.031314 259.706708 174.752235 259.706708 176.546398 
C 259.706708 178.340562 260.419537 180.061483 261.688202 181.330148 
C 262.956867 182.598813 264.677788 183.311642 266.471951 183.311642 
z
" style="fill:#228c8d;"/>
    <path clip-path="url(#p813c96b1e0)" d="M 231.077631 159.565513 
C 232.87207 159.565513 234.593254 158.852575 235.862113 157.583716 
C 237.130973 156.314856 237.843911 154.593672 237.843911 152.799234 
C 237.843911 151.004795 237.130973 149.283611 235.862113 148.014752 
C 234.593254 146.745892 232.87207 146.032954 231.077631 146.032954 
C 229.283193 146.032954 227.562009 146.745892 226.29315 148.014752 
C 225.02429 149.283611 224.311352 151.004795 224.311352 152.799234 
C 224.311352 154.593672 225.02429 156.314856 226.29315 157.583716 
C 227.562009 158.852575 229.283193 159.565513 231.077631 159.565513 
z
" style="fill:#1e9d89;"/>
    <path clip-path="url(#p813c96b1e0)" d="M 129.609292 262.520454 
C 131.401165 262.520454 133.11989 261.808535 134.386936 260.541489 
C 135.653982 259.274443 136.365901 257.555719 136.365901 255.763845 
C 136.365901 253.971971 135.653982 252.253247 134.386936 250.986201 
C 133.11989 249.719155 131.401165 249.007236 129.609292 249.007236 
C 127.817418 249.007236 126.098693 249.719155 124.831647 250.986201 
C 123.564601 252.253247 122.852682 253.971971 122.852682 255.763845 
C 122.852682 257.555719 123.564601 259.274443 124.831647 260.541489 
C 126.098693 261.808535 127.817418 262.520454 129.609292 262.520454 
z
" style="fill:#fde725;"/>
    <path clip-path="url(#p813c96b1e0)" d="M 161.989472 65.592733 
C 163.800268 65.592733 165.537143 64.873296 166.817569 63.59287 
C 168.097996 62.312443 168.817433 60.575569 168.817433 58.764773 
C 168.817433 56.953976 168.097996 55.217102 166.817569 53.936675 
C 165.537143 52.656249 163.800268 51.936812 161.989472 51.936812 
C 160.178676 51.936812 158.441801 52.656249 157.161375 53.936675 
C 155.880948 55.217102 155.161511 56.953976 155.161511 58.764773 
C 155.161511 60.575569 155.880948 62.312443 157.161375 63.59287 
C 158.441801 64.873296 160.178676 65.592733 161.989472 65.592733 
z
" style="fill:#1f9e89;"/>
    <path clip-path="url(#p813c96b1e0)" d="M 72.605726 207.019991 
C 74.40685 207.019991 76.134447 206.304397 77.408034 205.030811 
C 78.68162 203.757224 79.397215 202.029627 79.397215 200.228503 
C 79.397215 198.427379 78.68162 196.699782 77.408034 195.426195 
C 76.134447 194.152608 74.40685 193.437014 72.605726 193.437014 
C 70.804602 193.437014 69.077005 194.152608 67.803418 195.426195 
C 66.529831 196.699782 65.814237 198.427379 65.814237 200.228503 
C 65.814237 202.029627 66.529831 203.757224 67.803418 205.030811 
C 69.077005 206.304397 70.804602 207.019991 72.605726 207.019991 
z
" style="fill:#cae11f;"/>
    <path clip-path="url(#p813c96b1e0)" d="M 155.749866 194.064329 
C 157.535885 194.064329 159.248995 193.354735 160.511901 192.091829 
C 161.774808 190.828922 162.484401 189.115812 162.484401 187.329793 
C 162.484401 185.543773 161.774808 183.830663 160.511901 182.567757 
C 159.248995 181.30485 157.535885 180.595257 155.749866 180.595257 
C 153.963846 180.595257 152.250736 181.30485 150.98783 182.567757 
C 149.724923 183.830663 149.01533 185.543773 149.01533 187.329793 
C 149.01533 189.115812 149.724923 190.828922 150.98783 192.091829 
C 152.250736 193.354735 153.963846 194.064329 155.749866 194.064329 
z
" style="fill:#33628d;"/>
    <path clip-path="url(#p813c96b1e0)" d="M 166.151407 151.082929 
C 167.942267 151.082929 169.660019 150.371413 170.926348 149.105083 
C 172.192678 147.838754 172.904194 146.121002 172.904194 144.330142 
C 172.904194 142.539282 172.192678 140.821529 170.926348 139.5552 
C 169.660019 138.288871 167.942267 137.577354 166.151407 137.577354 
C 164.360546 137.577354 162.642794 138.288871 161.376465 139.5552 
C 160.110136 140.821529 159.398619 142.539282 159.398619 144.330142 
C 159.398619 146.121002 160.110136 147.838754 161.376465 149.105083 
C 162.642794 150.371413 164.360546 151.082929 166.151407 151.082929 
z
" style="fill:#277f8e;"/>
    <path clip-path="url(#p813c96b1e0)" d="M 97.324891 238.8232 
C 99.120159 238.8232 100.84214 238.109932 102.111586 236.840486 
C 103.381032 235.571039 104.0943 233.849059 104.0943 232.05379 
C 104.0943 230.258522 103.381032 228.536542 102.111586 227.267095 
C 100.84214 225.997649 99.120159 225.284381 97.324891 225.284381 
C 95.529622 225.284381 93.807642 225.997649 92.538196 227.267095 
C 91.268749 228.536542 90.555482 230.258522 90.555482 232.05379 
C 90.555482 233.849059 91.268749 235.571039 92.538196 236.840486 
C 93.807642 238.109932 95.529622 238.8232 97.324891 238.8232 
z
" style="fill:#20a386;"/>
    <path clip-path="url(#p813c96b1e0)" d="M 300.510751 294.697019 
C 302.300805 294.697019 304.017784 293.985824 305.283543 292.720064 
C 306.549302 291.454305 307.260498 289.737326 307.260498 287.947273 
C 307.260498 286.157219 306.549302 284.44024 305.283543 283.174481 
C 304.017784 281.908721 302.300805 281.197526 300.510751 281.197526 
C 298.720697 281.197526 297.003718 281.908721 295.737959 283.174481 
C 294.4722 284.44024 293.761004 286.157219 293.761004 287.947273 
C 293.761004 289.737326 294.4722 291.454305 295.737959 292.720064 
C 297.003718 293.985824 298.720697 294.697019 300.510751 294.697019 
z
" style="fill:#34b679;"/>
    <path clip-path="url(#p813c96b1e0)" d="M 123.874727 60.998922 
C 125.688816 60.998922 127.42885 60.278177 128.711606 58.995421 
C 129.994361 57.712666 130.715106 55.972632 130.715106 54.158542 
C 130.715106 52.344452 129.994361 50.604419 128.711606 49.321663 
C 127.42885 48.038908 125.688816 47.318162 123.874727 47.318162 
C 122.060637 47.318162 120.320603 48.038908 119.037848 49.321663 
C 117.755092 50.604419 117.034347 52.344452 117.034347 54.158542 
C 117.034347 55.972632 117.755092 57.712666 119.037848 58.995421 
C 120.320603 60.278177 122.060637 60.998922 123.874727 60.998922 
z
" style="fill:#1f9e89;"/>
    <path clip-path="url(#p813c96b1e0)" d="M 70.985482 120.492022 
C 72.79494 120.492022 74.530531 119.773117 75.810011 118.493637 
C 77.089491 117.214157 77.808397 115.478566 77.808397 113.669108 
C 77.808397 111.85965 77.089491 110.124059 75.810011 108.844579 
C 74.530531 107.565099 72.79494 106.846193 70.985482 106.846193 
C 69.176024 106.846193 67.440433 107.565099 66.160953 108.844579 
C 64.881473 110.124059 64.162568 111.85965 64.162568 113.669108 
C 64.162568 115.478566 64.881473 117.214157 66.160953 118.493637 
C 67.440433 119.773117 69.176024 120.492022 70.985482 120.492022 
z
" style="fill:#8bd646;"/>
    <path clip-path="url(#p813c96b1e0)" d="M 126.528669 164.439882 
C 128.319781 164.439882 130.037774 163.728266 131.304281 162.461759 
C 132.570788 161.195252 133.282405 159.477259 133.282405 157.686147 
C 133.282405 155.895035 132.570788 154.177042 131.304281 152.910535 
C 130.037774 151.644028 128.319781 150.932411 126.528669 150.932411 
C 124.737557 150.932411 123.019564 151.644028 121.753057 152.910535 
C 120.48655 154.177042 119.774934 155.895035 119.774934 157.686147 
C 119.774934 159.477259 120.48655 161.195252 121.753057 162.461759 
C 123.019564 163.728266 124.737557 164.439882 126.528669 164.439882 
z
" style="fill:#277f8e;"/>
    <path clip-path="url(#p813c96b1e0)" d="M 93.888613 87.22113 
C 95.700643 87.22113 97.438701 86.501203 98.72 85.219904 
C 100.001299 83.938605 100.721226 82.200547 100.721226 80.388516 
C 100.721226 78.576486 100.001299 76.838428 98.72 75.557129 
C 97.438701 74.27583 95.700643 73.555903 93.888613 73.555903 
C 92.076582 73.555903 90.338524 74.27583 89.057225 75.557129 
C 87.775926 76.838428 87.055999 78.576486 87.055999 80.388516 
C 87.055999 82.200547 87.775926 83.938605 89.057225 85.219904 
C 90.338524 86.501203 92.076582 87.22113 93.888613 87.22113 
z
" style="fill:#1e9d89;"/>
    <path clip-path="url(#p813c96b1e0)" d="M 84.842172 162.842535 
C 86.6425 162.842535 88.369333 162.127257 89.642357 160.854233 
C 90.915381 159.58121 91.630658 157.854376 91.630658 156.054049 
C 91.630658 154.253721 90.915381 152.526888 89.642357 151.253864 
C 88.369333 149.98084 86.6425 149.265562 84.842172 149.265562 
C 83.041844 149.265562 81.315011 149.98084 80.041987 151.253864 
C 78.768963 152.526888 78.053685 154.253721 78.053685 156.054049 
C 78.053685 157.854376 78.768963 159.58121 80.041987 160.854233 
C 81.315011 162.127257 83.041844 162.842535 84.842172 162.842535 
z
" style="fill:#470e61;"/>
    <path clip-path="url(#p813c96b1e0)" d="M 324.30132 226.5903 
C 326.097452 226.5903 327.820261 225.876689 329.090318 224.606632 
C 330.360376 223.336575 331.073987 221.613766 331.073987 219.817633 
C 331.073987 218.021501 330.360376 216.298692 329.090318 215.028635 
C 327.820261 213.758577 326.097452 213.044966 324.30132 213.044966 
C 322.505187 213.044966 320.782378 213.758577 319.512321 215.028635 
C 318.242264 216.298692 317.528653 218.021501 317.528653 219.817633 
C 317.528653 221.613766 318.242264 223.336575 319.512321 224.606632 
C 320.782378 225.876689 322.505187 226.5903 324.30132 226.5903 
z
" style="fill:#2eb37c;"/>
    <path clip-path="url(#p813c96b1e0)" d="M 262.024799 301.642777 
C 263.811297 301.642777 265.524864 300.932994 266.788109 299.669749 
C 268.051353 298.406505 268.761136 296.692937 268.761136 294.90644 
C 268.761136 293.119943 268.051353 291.406375 266.788109 290.14313 
C 265.524864 288.879886 263.811297 288.170103 262.024799 288.170103 
C 260.238302 288.170103 258.524734 288.879886 257.26149 290.14313 
C 255.998245 291.406375 255.288462 293.119943 255.288462 294.90644 
C 255.288462 296.692937 255.998245 298.406505 257.26149 299.669749 
C 258.524734 300.932994 260.238302 301.642777 262.024799 301.642777 
z
" style="fill:#238a8d;"/>
   </g>
   <g id="text_1">
    <!-- Structure #8500, $E_N$=-181.69eV, ΔE=0.37eV -->
    <defs>
     <path d="M 53.515625 70.515625 
L 53.515625 60.890625 
Q 47.90625 63.578125 42.921875 64.890625 
Q 37.9375 66.21875 33.296875 66.21875 
Q 25.25 66.21875 20.875 63.09375 
Q 16.5 59.96875 16.5 54.203125 
Q 16.5 49.359375 19.40625 46.890625 
Q 22.3125 44.4375 30.421875 42.921875 
L 36.375 41.703125 
Q 47.40625 39.59375 52.65625 34.296875 
Q 57.90625 29 57.90625 20.125 
Q 57.90625 9.515625 50.796875 4.046875 
Q 43.703125 -1.421875 29.984375 -1.421875 
Q 24.8125 -1.421875 18.96875 -0.25 
Q 13.140625 0.921875 6.890625 3.21875 
L 6.890625 13.375 
Q 12.890625 10.015625 18.65625 8.296875 
Q 24.421875 6.59375 29.984375 6.59375 
Q 38.421875 6.59375 43.015625 9.90625 
Q 47.609375 13.234375 47.609375 19.390625 
Q 47.609375 24.75 44.3125 27.78125 
Q 41.015625 30.8125 33.5 32.328125 
L 27.484375 33.5 
Q 16.453125 35.6875 11.515625 40.375 
Q 6.59375 45.0625 6.59375 53.421875 
Q 6.59375 63.09375 13.40625 68.65625 
Q 20.21875 74.21875 32.171875 74.21875 
Q 37.3125 74.21875 42.625 73.28125 
Q 47.953125 72.359375 53.515625 70.515625 
z
" id="DejaVuSans-53"/>
     <path d="M 18.3125 70.21875 
L 18.3125 54.6875 
L 36.8125 54.6875 
L 36.8125 47.703125 
L 18.3125 47.703125 
L 18.3125 18.015625 
Q 18.3125 11.328125 20.140625 9.421875 
Q 21.96875 7.515625 27.59375 7.515625 
L 36.8125 7.515625 
L 36.8125 0 
L 27.59375 0 
Q 17.1875 0 13.234375 3.875 
Q 9.28125 7.765625 9.28125 18.015625 
L 9.28125 47.703125 
L 2.6875 47.703125 
L 2.6875 54.6875 
L 9.28125 54.6875 
L 9.28125 70.21875 
z
" id="DejaVuSans-74"/>
     <path d="M 41.109375 46.296875 
Q 39.59375 47.171875 37.8125 47.578125 
Q 36.03125 48 33.890625 48 
Q 26.265625 48 22.1875 43.046875 
Q 18.109375 38.09375 18.109375 28.8125 
L 18.109375 0 
L 9.078125 0 
L 9.078125 54.6875 
L 18.109375 54.6875 
L 18.109375 46.1875 
Q 20.953125 51.171875 25.484375 53.578125 
Q 30.03125 56 36.53125 56 
Q 37.453125 56 38.578125 55.875 
Q 39.703125 55.765625 41.0625 55.515625 
z
" id="DejaVuSans-72"/>
     <path d="M 8.5 21.578125 
L 8.5 54.6875 
L 17.484375 54.6875 
L 17.484375 21.921875 
Q 17.484375 14.15625 20.5 10.265625 
Q 23.53125 6.390625 29.59375 6.390625 
Q 36.859375 6.390625 41.078125 11.03125 
Q 45.3125 15.671875 45.3125 23.6875 
L 45.3125 54.6875 
L 54.296875 54.6875 
L 54.296875 0 
L 45.3125 0 
L 45.3125 8.40625 
Q 42.046875 3.421875 37.71875 1 
Q 33.40625 -1.421875 27.6875 -1.421875 
Q 18.265625 -1.421875 13.375 4.4375 
Q 8.5 10.296875 8.5 21.578125 
z
M 31.109375 56 
z
" id="DejaVuSans-75"/>
     <path d="M 48.78125 52.59375 
L 48.78125 44.1875 
Q 44.96875 46.296875 41.140625 47.34375 
Q 37.3125 48.390625 33.40625 48.390625 
Q 24.65625 48.390625 19.8125 42.84375 
Q 14.984375 37.3125 14.984375 27.296875 
Q 14.984375 17.28125 19.8125 11.734375 
Q 24.65625 6.203125 33.40625 6.203125 
Q 37.3125 6.203125 41.140625 7.25 
Q 44.96875 8.296875 48.78125 10.40625 
L 48.78125 2.09375 
Q 45.015625 0.34375 40.984375 -0.53125 
Q 36.96875 -1.421875 32.421875 -1.421875 
Q 20.0625 -1.421875 12.78125 6.34375 
Q 5.515625 14.109375 5.515625 27.296875 
Q 5.515625 40.671875 12.859375 48.328125 
Q 20.21875 56 33.015625 56 
Q 37.15625 56 41.109375 55.140625 
Q 45.0625 54.296875 48.78125 52.59375 
z
" id="DejaVuSans-63"/>
     <path d="M 56.203125 29.59375 
L 56.203125 25.203125 
L 14.890625 25.203125 
Q 15.484375 15.921875 20.484375 11.0625 
Q 25.484375 6.203125 34.421875 6.203125 
Q 39.59375 6.203125 44.453125 7.46875 
Q 49.3125 8.734375 54.109375 11.28125 
L 54.109375 2.78125 
Q 49.265625 0.734375 44.1875 -0.34375 
Q 39.109375 -1.421875 33.890625 -1.421875 
Q 20.796875 -1.421875 13.15625 6.1875 
Q 5.515625 13.8125 5.515625 26.8125 
Q 5.515625 40.234375 12.765625 48.109375 
Q 20.015625 56 32.328125 56 
Q 43.359375 56 49.78125 48.890625 
Q 56.203125 41.796875 56.203125 29.59375 
z
M 47.21875 32.234375 
Q 47.125 39.59375 43.09375 43.984375 
Q 39.0625 48.390625 32.421875 48.390625 
Q 24.90625 48.390625 20.390625 44.140625 
Q 15.875 39.890625 15.1875 32.171875 
z
" id="DejaVuSans-65"/>
     <path id="DejaVuSans-20"/>
     <path d="M 51.125 44 
L 36.921875 44 
L 32.8125 27.6875 
L 47.125 27.6875 
z
M 43.796875 71.78125 
L 38.71875 51.515625 
L 52.984375 51.515625 
L 58.109375 71.78125 
L 65.921875 71.78125 
L 60.890625 51.515625 
L 76.125 51.515625 
L 76.125 44 
L 58.984375 44 
L 54.984375 27.6875 
L 70.515625 27.6875 
L 70.515625 20.21875 
L 53.078125 20.21875 
L 48 0 
L 40.1875 0 
L 45.21875 20.21875 
L 30.90625 20.21875 
L 25.875 0 
L 18.015625 0 
L 23.09375 20.21875 
L 7.71875 20.21875 
L 7.71875 27.6875 
L 24.90625 27.6875 
L 29 44 
L 13.28125 44 
L 13.28125 51.515625 
L 30.90625 51.515625 
L 35.890625 71.78125 
z
" id="DejaVuSans-23"/>
     <path d="M 31.78125 34.625 
Q 24.75 34.625 20.71875 30.859375 
Q 16.703125 27.09375 16.703125 20.515625 
Q 16.703125 13.921875 20.71875 10.15625 
Q 24.75 6.390625 31.78125 6.390625 
Q 38.8125 6.390625 42.859375 10.171875 
Q 46.921875 13.96875 46.921875 20.515625 
Q 46.921875 27.09375 42.890625 30.859375 
Q 38.875 34.625 31.78125 34.625 
z
M 21.921875 38.8125 
Q 15.578125 40.375 12.03125 44.71875 
Q 8.5 49.078125 8.5 55.328125 
Q 8.5 64.0625 14.71875 69.140625 
Q 20.953125 74.21875 31.78125 74.21875 
Q 42.671875 74.21875 48.875 69.140625 
Q 55.078125 64.0625 55.078125 55.328125 
Q 55.078125 49.078125 51.53125 44.71875 
Q 48 40.375 41.703125 38.8125 
Q 48.828125 37.15625 52.796875 32.3125 
Q 56.78125 27.484375 56.78125 20.515625 
Q 56.78125 9.90625 50.3125 4.234375 
Q 43.84375 -1.421875 31.78125 -1.421875 
Q 19.734375 -1.421875 13.25 4.234375 
Q 6.78125 9.90625 6.78125 20.515625 
Q 6.78125 27.484375 10.78125 32.3125 
Q 14.796875 37.15625 21.921875 38.8125 
z
M 18.3125 54.390625 
Q 18.3125 48.734375 21.84375 45.5625 
Q 25.390625 42.390625 31.78125 42.390625 
Q 38.140625 42.390625 41.71875 45.5625 
Q 45.3125 48.734375 45.3125 54.390625 
Q 45.3125 60.0625 41.71875 63.234375 
Q 38.140625 66.40625 31.78125 66.40625 
Q 25.390625 66.40625 21.84375 63.234375 
Q 18.3125 60.0625 18.3125 54.390625 
z
" id="DejaVuSans-38"/>
     <path d="M 10.796875 72.90625 
L 49.515625 72.90625 
L 49.515625 64.59375 
L 19.828125 64.59375 
L 19.828125 46.734375 
Q 21.96875 47.46875 24.109375 47.828125 
Q 26.265625 48.1875 28.421875 48.1875 
Q 40.625 48.1875 47.75 41.5 
Q 54.890625 34.8125 54.890625 23.390625 
Q 54.890625 11.625 47.5625 5.09375 
Q 40.234375 -1.421875 26.90625 -1.421875 
Q 22.3125 -1.421875 17.546875 -0.640625 
Q 12.796875 0.140625 7.71875 1.703125 
L 7.71875 11.625 
Q 12.109375 9.234375 16.796875 8.0625 
Q 21.484375 6.890625 26.703125 6.890625 
Q 35.15625 6.890625 40.078125 11.328125 
Q 45.015625 15.765625 45.015625 23.390625 
Q 45.015625 31 40.078125 35.4375 
Q 35.15625 39.890625 26.703125 39.890625 
Q 22.75 39.890625 18.8125 39.015625 
Q 14.890625 38.140625 10.796875 36.28125 
z
" id="DejaVuSans-35"/>
     <path d="M 31.78125 66.40625 
Q 24.171875 66.40625 20.328125 58.90625 
Q 16.5 51.421875 16.5 36.375 
Q 16.5 21.390625 20.328125 13.890625 
Q 24.171875 6.390625 31.78125 6.390625 
Q 39.453125 6.390625 43.28125 13.890625 
Q 47.125 21.390625 47.125 36.375 
Q 47.125 51.421875 43.28125 58.90625 
Q 39.453125 66.40625 31.78125 66.40625 
z
M 31.78125 74.21875 
Q 44.046875 74.21875 50.515625 64.515625 
Q 56.984375 54.828125 56.984375 36.375 
Q 56.984375 17.96875 50.515625 8.265625 
Q 44.046875 -1.421875 31.78125 -1.421875 
Q 19.53125 -1.421875 13.0625 8.265625 
Q 6.59375 17.96875 6.59375 36.375 
Q 6.59375 54.828125 13.0625 64.515625 
Q 19.53125 74.21875 31.78125 74.21875 
z
" id="DejaVuSans-30"/>
     <path d="M 11.71875 12.40625 
L 22.015625 12.40625 
L 22.015625 4 
L 14.015625 -11.625 
L 7.71875 -11.625 
L 11.71875 4 
z
" id="DejaVuSans-2c"/>
     <path d="M 16.890625 72.90625 
L 62.984375 72.90625 
L 61.375 64.59375 
L 25.09375 64.59375 
L 20.90625 43.015625 
L 55.71875 43.015625 
L 54.109375 34.71875 
L 19.28125 34.71875 
L 14.203125 8.296875 
L 51.3125 8.296875 
L 49.703125 0 
L 2.6875 0 
z
" id="DejaVuSans-Oblique-45"/>
     <path d="M 16.890625 72.90625 
L 30.171875 72.90625 
L 50.296875 10.40625 
L 62.5 72.90625 
L 72.125 72.90625 
L 57.90625 0 
L 44.578125 0 
L 24.515625 62.890625 
L 12.3125 0 
L 2.6875 0 
z
" id="DejaVuSans-Oblique-4e"/>
     <path d="M 10.59375 45.40625 
L 73.1875 45.40625 
L 73.1875 37.203125 
L 10.59375 37.203125 
z
M 10.59375 25.484375 
L 73.1875 25.484375 
L 73.1875 17.1875 
L 10.59375 17.1875 
z
" id="DejaVuSans-3d"/>
     <path d="M 4.890625 31.390625 
L 31.203125 31.390625 
L 31.203125 23.390625 
L 4.890625 23.390625 
z
" id="DejaVuSans-2d"/>
     <path d="M 12.40625 8.296875 
L 28.515625 8.296875 
L 28.515625 63.921875 
L 10.984375 60.40625 
L 10.984375 69.390625 
L 28.421875 72.90625 
L 38.28125 72.90625 
L 38.28125 8.296875 
L 54.390625 8.296875 
L 54.390625 0 
L 12.40625 0 
z
" id="DejaVuSans-31"/>
     <path d="M 10.6875 12.40625 
L 21 12.40625 
L 21 0 
L 10.6875 0 
z
" id="DejaVuSans-2e"/>
     <path d="M 33.015625 40.375 
Q 26.375 40.375 22.484375 35.828125 
Q 18.609375 31.296875 18.609375 23.390625 
Q 18.609375 15.53125 22.484375 10.953125 
Q 26.375 6.390625 33.015625 6.390625 
Q 39.65625 6.390625 43.53125 10.953125 
Q 47.40625 15.53125 47.40625 23.390625 
Q 47.40625 31.296875 43.53125 35.828125 
Q 39.65625 40.375 33.015625 40.375 
z
M 52.59375 71.296875 
L 52.59375 62.3125 
Q 48.875 64.0625 45.09375 64.984375 
Q 41.3125 65.921875 37.59375 65.921875 
Q 27.828125 65.921875 22.671875 59.328125 
Q 17.53125 52.734375 16.796875 39.40625 
Q 19.671875 43.65625 24.015625 45.921875 
Q 28.375 48.1875 33.59375 48.1875 
Q 44.578125 48.1875 50.953125 41.515625 
Q 57.328125 34.859375 57.328125 23.390625 
Q 57.328125 12.15625 50.6875 5.359375 
Q 44.046875 -1.421875 33.015625 -1.421875 
Q 20.359375 -1.421875 13.671875 8.265625 
Q 6.984375 17.96875 6.984375 36.375 
Q 6.984375 53.65625 15.1875 63.9375 
Q 23.390625 74.21875 37.203125 74.21875 
Q 40.921875 74.21875 44.703125 73.484375 
Q 48.484375 72.75 52.59375 71.296875 
z
" id="DejaVuSans-36"/>
     <path d="M 10.984375 1.515625 
L 10.984375 10.5 
Q 14.703125 8.734375 18.5 7.8125 
Q 22.3125 6.890625 25.984375 6.890625 
Q 35.75 6.890625 40.890625 13.453125 
Q 46.046875 20.015625 46.78125 33.40625 
Q 43.953125 29.203125 39.59375 26.953125 
Q 35.25 24.703125 29.984375 24.703125 
Q 19.046875 24.703125 12.671875 31.3125 
Q 6.296875 37.9375 6.296875 49.421875 
Q 6.296875 60.640625 12.9375 67.421875 
Q 19.578125 74.21875 30.609375 74.21875 
Q 43.265625 74.21875 49.921875 64.515625 
Q 56.59375 54.828125 56.59375 36.375 
Q 56.59375 19.140625 48.40625 8.859375 
Q 40.234375 -1.421875 26.421875 -1.421875 
Q 22.703125 -1.421875 18.890625 -0.6875 
Q 15.09375 0.046875 10.984375 1.515625 
z
M 30.609375 32.421875 
Q 37.25 32.421875 41.125 36.953125 
Q 45.015625 41.5 45.015625 49.421875 
Q 45.015625 57.28125 41.125 61.84375 
Q 37.25 66.40625 30.609375 66.40625 
Q 23.96875 66.40625 20.09375 61.84375 
Q 16.21875 57.28125 16.21875 49.421875 
Q 16.21875 41.5 20.09375 36.953125 
Q 23.96875 32.421875 30.609375 32.421875 
z
" id="DejaVuSans-39"/>
     <path d="M 28.609375 0 
L 0.78125 72.90625 
L 11.078125 72.90625 
L 34.1875 11.53125 
L 57.328125 72.90625 
L 67.578125 72.90625 
L 39.796875 0 
z
" id="DejaVuSans-56"/>
     <path d="M 34.1875 63.1875 
L 14.15625 8.203125 
L 54.25 8.203125 
z
M 0.78125 0 
L 28.609375 72.90625 
L 39.796875 72.90625 
L 67.578125 0 
z
" id="DejaVuSans-394"/>
     <path d="M 9.8125 72.90625 
L 55.90625 72.90625 
L 55.90625 64.59375 
L 19.671875 64.59375 
L 19.671875 43.015625 
L 54.390625 43.015625 
L 54.390625 34.71875 
L 19.671875 34.71875 
L 19.671875 8.296875 
L 56.78125 8.296875 
L 56.78125 0 
L 9.8125 0 
z
" id="DejaVuSans-45"/>
     <path d="M 40.578125 39.3125 
Q 47.65625 37.796875 51.625 33 
Q 55.609375 28.21875 55.609375 21.1875 
Q 55.609375 10.40625 48.1875 4.484375 
Q 40.765625 -1.421875 27.09375 -1.421875 
Q 22.515625 -1.421875 17.65625 -0.515625 
Q 12.796875 0.390625 7.625 2.203125 
L 7.625 11.71875 
Q 11.71875 9.328125 16.59375 8.109375 
Q 21.484375 6.890625 26.8125 6.890625 
Q 36.078125 6.890625 40.9375 10.546875 
Q 45.796875 14.203125 45.796875 21.1875 
Q 45.796875 27.640625 41.28125 31.265625 
Q 36.765625 34.90625 28.71875 34.90625 
L 20.21875 34.90625 
L 20.21875 43.015625 
L 29.109375 43.015625 
Q 36.375 43.015625 40.234375 45.921875 
Q 44.09375 48.828125 44.09375 54.296875 
Q 44.09375 59.90625 40.109375 62.90625 
Q 36.140625 65.921875 28.71875 65.921875 
Q 24.65625 65.921875 20.015625 65.03125 
Q 15.375 64.15625 9.8125 62.3125 
L 9.8125 71.09375 
Q 15.4375 72.65625 20.34375 73.4375 
Q 25.25 74.21875 29.59375 74.21875 
Q 40.828125 74.21875 47.359375 69.109375 
Q 53.90625 64.015625 53.90625 55.328125 
Q 53.90625 49.265625 50.4375 45.09375 
Q 46.96875 40.921875 40.578125 39.3125 
z
" id="DejaVuSans-33"/>
     <path d="M 8.203125 72.90625 
L 55.078125 72.90625 
L 55.078125 68.703125 
L 28.609375 0 
L 18.3125 0 
L 43.21875 64.59375 
L 8.203125 64.59375 
z
" id="DejaVuSans-37"/>
    </defs>
    <g transform="translate(65.388 35.472)scale(0.12 -0.12)">
     <use transform="translate(0 0.78125)" xlink:href="#DejaVuSans-53"/>
     <use transform="translate(63.476562 0.78125)" xlink:href="#DejaVuSans-74"/>
     <use transform="translate(102.685547 0.78125)" xlink:href="#DejaVuSans-72"/>
     <use transform="translate(143.798828 0.78125)" xlink:href="#DejaVuSans-75"/>
     <use transform="translate(207.177734 0.78125)" xlink:href="#DejaVuSans-63"/>
     <use transform="translate(262.158203 0.78125)" xlink:href="#DejaVuSans-74"/>
     <use transform="translate(301.367188 0.78125)" xlink:href="#DejaVuSans-75"/>
     <use transform="translate(364.746094 0.78125)" xlink:href="#DejaVuSans-72"/>
     <use transform="translate(405.859375 0.78125)" xlink:href="#DejaVuSans-65"/>
     <use transform="translate(467.382812 0.78125)" xlink:href="#DejaVuSans-20"/>
     <use transform="translate(499.169922 0.78125)" xlink:href="#DejaVuSans-23"/>
     <use transform="translate(582.958984 0.78125)" xlink:href="#DejaVuSans-38"/>
     <use transform="translate(646.582031 0.78125)" xlink:href="#DejaVuSans-35"/>
     <use transform="translate(710.205078 0.78125)" xlink:href="#DejaVuSans-30"/>
     <use transform="translate(773.828125 0.78125)" xlink:href="#DejaVuSans-30"/>
     <use transform="translate(837.451172 0.78125)" xlink:href="#DejaVuSans-2c"/>
     <use transform="translate(869.238281 0.78125)" xlink:href="#DejaVuSans-20"/>
     <use transform="translate(901.025391 0.78125)" xlink:href="#DejaVuSans-Oblique-45"/>
     <use transform="translate(964.208984 -15.625)scale(0.7)" xlink:href="#DejaVuSans-Oblique-4e"/>
     <use transform="translate(1019.306641 0.78125)" xlink:href="#DejaVuSans-3d"/>
     <use transform="translate(1103.095703 0.78125)" xlink:href="#DejaVuSans-2d"/>
     <use transform="translate(1139.179688 0.78125)" xlink:href="#DejaVuSans-31"/>
     <use transform="translate(1202.802734 0.78125)" xlink:href="#DejaVuSans-38"/>
     <use transform="translate(1266.425781 0.78125)" xlink:href="#DejaVuSans-31"/>
     <use transform="translate(1330.048828 0.78125)" xlink:href="#DejaVuSans-2e"/>
     <use transform="translate(1361.835938 0.78125)" xlink:href="#DejaVuSans-36"/>
     <use transform="translate(1425.458984 0.78125)" xlink:href="#DejaVuSans-39"/>
     <use transform="translate(1489.082031 0.78125)" xlink:href="#DejaVuSans-65"/>
     <use transform="translate(1550.605469 0.78125)" xlink:href="#DejaVuSans-56"/>
     <use transform="translate(1619.013672 0.78125)" xlink:href="#DejaVuSans-2c"/>
     <use transform="translate(1650.800781 0.78125)" xlink:href="#DejaVuSans-20"/>
     <use transform="translate(1682.587891 0.78125)" xlink:href="#DejaVuSans-394"/>
     <use transform="translate(1750.996094 0.78125)" xlink:href="#DejaVuSans-45"/>
     <use transform="translate(1814.179688 0.78125)" xlink:href="#DejaVuSans-3d"/>
     <use transform="translate(1897.96875 0.78125)" xlink:href="#DejaVuSans-30"/>
     <use transform="translate(1961.591797 0.78125)" xlink:href="#DejaVuSans-2e"/>
     <use transform="translate(1993.378906 0.78125)" xlink:href="#DejaVuSans-33"/>
     <use transform="translate(2057.001953 0.78125)" xlink:href="#DejaVuSans-37"/>
     <use transform="translate(2120.625 0.78125)" xlink:href="#DejaVuSans-65"/>
     <use transform="translate(2182.148438 0.78125)" xlink:href="#DejaVuSans-56"/>
    </g>
   </g>
  </g>
  <g id="axes_2">
   <g id="patch_2">
    <path clip-path="url(#pd670c5e02d)" d="M 361.152 307.584 
L 361.152 306.5445 
L 361.152 42.5115 
L 361.152 41.472 
L 374.4576 41.472 
L 374.4576 42.5115 
L 374.4576 306.5445 
L 374.4576 307.584 
z
" style="fill:#ffffff;stroke:#ffffff;stroke-linejoin:miter;stroke-width:0.01;"/>
   </g>
   <image height="265.68" id="image4a689b0602" transform="scale(1 -1)translate(0 -265.68)" width="12.96" x="361.44" xlink:href="data:image/png;base64,
iVBORw0KGgoAAAANSUhEUgAAABIAAAFxCAYAAAB+2fgXAAAABHNCSVQICAgIfAhkiAAAAeVJREFUeJztncmNw0AQA2ckheYQNv9QLIfQ8ygsCgQ7AEI8+jAs2Puz/94F1LP2ReCsZ18bAWIeZ5XaGRBE7VnbptG+KI101FYyNSiQG2oRITXKNaX9uclOdi2XWjftVE32CZCO2ou5Bj1TcCBr/1zB9ge7Fq0Rg2NM9pvbtG+ua1QgsRYhDy0ISEiNc40BEibbSI0Coj5CBGtkpFbXJiAjNZlrwhuSOv2M1DjXbEdEciBt1JSDDQKKpmZr2rr2j0DBGpXaWEJq3bQzEPIS26r9J+Wzv9Tm8o3aajRXqc3VUXsApKNWjeZq0x4ABVNbm7lrszVigDqP5vIl2+eaT2yfRkL7g+dRcNPqjohkjaCvRVBq0H2U3LQrOJCx9kdTg4B8oxZzzTdqdYHEngjUCAPyUctN9sVRq2sTECW2UKNLd2jVtRmo1A6AhMmWaSRcR8nUdIHUuVb75zJS218EyEitro1At69pIdeSk30Lkw0FktNImGyZRhy1O5galmxd03LUsHWk06jUZiCq+5Wb1kZNN4+wJxJuWt8RAW5am2sYNZ9rYCBzZ3buPKJ2P5Yj4Toy3keyIyJbIxs1rml1byCA84gpch5RQNB7Q0qNMGq2Hy4BXdNR41yz/cEEJfZzUz96r9PoB0okjeQ8y9TkAAAAAElFTkSuQmCC" y="-41.76"/>
   <g id="matplotlib.axis_1"/>
   <g id="matplotlib.axis_2">
    <g id="ytick_1">
     <g id="line2d_1">
      <defs>
       <path d="M 0 0 
L 3.5 0 
" id="m1381b6481b" style="stroke:#000000;stroke-width:0.8;"/>
      </defs>
      <g>
       <use style="stroke:#000000;stroke-width:0.8;" x="374.4576" xlink:href="#m1381b6481b" y="276.191902"/>
      </g>
     </g>
     <g id="text_2">
      <!-- −8.5 -->
      <defs>
       <path d="M 10.59375 35.5 
L 73.1875 35.5 
L 73.1875 27.203125 
L 10.59375 27.203125 
z
" id="DejaVuSans-2212"/>
      </defs>
      <g transform="translate(381.4576 279.991121)scale(0.1 -0.1)">
       <use xlink:href="#DejaVuSans-2212"/>
       <use x="83.789062" xlink:href="#DejaVuSans-38"/>
       <use x="147.412109" xlink:href="#DejaVuSans-2e"/>
       <use x="179.199219" xlink:href="#DejaVuSans-35"/>
      </g>
     </g>
    </g>
    <g id="ytick_2">
     <g id="line2d_2">
      <g>
       <use style="stroke:#000000;stroke-width:0.8;" x="374.4576" xlink:href="#m1381b6481b" y="218.343727"/>
      </g>
     </g>
     <g id="text_3">
      <!-- −8.0 -->
      <g transform="translate(381.4576 222.142946)scale(0.1 -0.1)">
       <use xlink:href="#DejaVuSans-2212"/>
       <use x="83.789062" xlink:href="#DejaVuSans-38"/>
       <use x="147.412109" xlink:href="#DejaVuSans-2e"/>
       <use x="179.199219" xlink:href="#DejaVuSans-30"/>
      </g>
     </g>
    </g>
    <g id="ytick_3">
     <g id="line2d_3">
      <g>
       <use style="stroke:#000000;stroke-width:0.8;" x="374.4576" xlink:href="#m1381b6481b" y="160.495552"/>
      </g>
     </g>
     <g id="text_4">
      <!-- −7.5 -->
      <g transform="translate(381.4576 164.294771)scale(0.1 -0.1)">
       <use xlink:href="#DejaVuSans-2212"/>
       <use x="83.789062" xlink:href="#DejaVuSans-37"/>
       <use x="147.412109" xlink:href="#DejaVuSans-2e"/>
       <use x="179.199219" xlink:href="#DejaVuSans-35"/>
      </g>
     </g>
    </g>
    <g id="ytick_4">
     <g id="line2d_4">
      <g>
       <use style="stroke:#000000;stroke-width:0.8;" x="374.4576" xlink:href="#m1381b6481b" y="102.647377"/>
      </g>
     </g>
     <g id="text_5">
      <!-- −7.0 -->
      <g transform="translate(381.4576 106.446595)scale(0.1 -0.1)">
       <use xlink:href="#DejaVuSans-2212"/>
       <use x="83.789062" xlink:href="#DejaVuSans-37"/>
       <use x="147.412109" xlink:href="#DejaVuSans-2e"/>
       <use x="179.199219" xlink:href="#DejaVuSans-30"/>
      </g>
     </g>
    </g>
    <g id="ytick_5">
     <g id="line2d_5">
      <g>
       <use style="stroke:#000000;stroke-width:0.8;" x="374.4576" xlink:href="#m1381b6481b" y="44.799201"/>
      </g>
     </g>
     <g id="text_6">
      <!-- −6.5 -->
      <g transform="translate(381.4576 48.59842)scale(0.1 -0.1)">
       <use xlink:href="#DejaVuSans-2212"/>
       <use x="83.789062" xlink:href="#DejaVuSans-36"/>
       <use x="147.412109" xlink:href="#DejaVuSans-2e"/>
       <use x="179.199219" xlink:href="#DejaVuSans-35"/>
      </g>
     </g>
    </g>
    <g id="text_7">
     <!-- Energy [eV] -->
     <defs>
      <path d="M 54.890625 33.015625 
L 54.890625 0 
L 45.90625 0 
L 45.90625 32.71875 
Q 45.90625 40.484375 42.875 44.328125 
Q 39.84375 48.1875 33.796875 48.1875 
Q 26.515625 48.1875 22.3125 43.546875 
Q 18.109375 38.921875 18.109375 30.90625 
L 18.109375 0 
L 9.078125 0 
L 9.078125 54.6875 
L 18.109375 54.6875 
L 18.109375 46.1875 
Q 21.34375 51.125 25.703125 53.5625 
Q 30.078125 56 35.796875 56 
Q 45.21875 56 50.046875 50.171875 
Q 54.890625 44.34375 54.890625 33.015625 
z
" id="DejaVuSans-6e"/>
      <path d="M 45.40625 27.984375 
Q 45.40625 37.75 41.375 43.109375 
Q 37.359375 48.484375 30.078125 48.484375 
Q 22.859375 48.484375 18.828125 43.109375 
Q 14.796875 37.75 14.796875 27.984375 
Q 14.796875 18.265625 18.828125 12.890625 
Q 22.859375 7.515625 30.078125 7.515625 
Q 37.359375 7.515625 41.375 12.890625 
Q 45.40625 18.265625 45.40625 27.984375 
z
M 54.390625 6.78125 
Q 54.390625 -7.171875 48.1875 -13.984375 
Q 42 -20.796875 29.203125 -20.796875 
Q 24.46875 -20.796875 20.265625 -20.09375 
Q 16.0625 -19.390625 12.109375 -17.921875 
L 12.109375 -9.1875 
Q 16.0625 -11.328125 19.921875 -12.34375 
Q 23.78125 -13.375 27.78125 -13.375 
Q 36.625 -13.375 41.015625 -8.765625 
Q 45.40625 -4.15625 45.40625 5.171875 
L 45.40625 9.625 
Q 42.625 4.78125 38.28125 2.390625 
Q 33.9375 0 27.875 0 
Q 17.828125 0 11.671875 7.65625 
Q 5.515625 15.328125 5.515625 27.984375 
Q 5.515625 40.671875 11.671875 48.328125 
Q 17.828125 56 27.875 56 
Q 33.9375 56 38.28125 53.609375 
Q 42.625 51.21875 45.40625 46.390625 
L 45.40625 54.6875 
L 54.390625 54.6875 
z
" id="DejaVuSans-67"/>
      <path d="M 32.171875 -5.078125 
Q 28.375 -14.84375 24.75 -17.8125 
Q 21.140625 -20.796875 15.09375 -20.796875 
L 7.90625 -20.796875 
L 7.90625 -13.28125 
L 13.1875 -13.28125 
Q 16.890625 -13.28125 18.9375 -11.515625 
Q 21 -9.765625 23.484375 -3.21875 
L 25.09375 0.875 
L 2.984375 54.6875 
L 12.5 54.6875 
L 29.59375 11.921875 
L 46.6875 54.6875 
L 56.203125 54.6875 
z
" id="DejaVuSans-79"/>
      <path d="M 8.59375 75.984375 
L 29.296875 75.984375 
L 29.296875 69 
L 17.578125 69 
L 17.578125 -6.203125 
L 29.296875 -6.203125 
L 29.296875 -13.1875 
L 8.59375 -13.1875 
z
" id="DejaVuSans-5b"/>
      <path d="M 30.421875 75.984375 
L 30.421875 -13.1875 
L 9.71875 -13.1875 
L 9.71875 -6.203125 
L 21.390625 -6.203125 
L 21.390625 69 
L 9.71875 69 
L 9.71875 75.984375 
z
" id="DejaVuSans-5d"/>
     </defs>
     <g transform="translate(417.33885 204.108469)rotate(-90)scale(0.1 -0.1)">
      <use xlink:href="#DejaVuSans-45"/>
      <use x="63.183594" xlink:href="#DejaVuSans-6e"/>
      <use x="126.5625" xlink:href="#DejaVuSans-65"/>
      <use x="188.085938" xlink:href="#DejaVuSans-72"/>
      <use x="229.183594" xlink:href="#DejaVuSans-67"/>
      <use x="292.660156" xlink:href="#DejaVuSans-79"/>
      <use x="351.839844" xlink:href="#DejaVuSans-20"/>
      <use x="383.626953" xlink:href="#DejaVuSans-5b"/>
      <use x="422.640625" xlink:href="#DejaVuSans-65"/>
      <use x="484.164062" xlink:href="#DejaVuSans-56"/>
      <use x="552.572266" xlink:href="#DejaVuSans-5d"/>
     </g>
    </g>
   </g>
   <g id="patch_3">
    <path d="M 361.152 307.584 
L 361.152 306.5445 
L 361.152 42.5115 
L 361.152 41.472 
L 374.4576 41.472 
L 374.4576 42.5115 
L 374.4576 306.5445 
L 374.4576 307.584 
z
" style="fill:none;stroke:#000000;stroke-linejoin:miter;stroke-width:0.8;"/>
   </g>
  </g>
 </g>
 <defs>
  <clipPath id="p813c96b1e0">
   <rect height="266.112" width="285.696" x="57.6" y="41.472"/>
  </clipPath>
  <clipPath id="pd670c5e02d">
   <rect height="266.112" width="13.3056" x="361.152" y="41.472"/>
  </clipPath>
 </defs>
</svg>
