<?xml version="1.0" encoding="utf-8" standalone="no"?>
<!DOCTYPE svg PUBLIC "-//W3C//DTD SVG 1.1//EN"
  "http://www.w3.org/Graphics/SVG/1.1/DTD/svg11.dtd">
<!-- Created with matplotlib (http://matplotlib.org/) -->
<svg height="345.6pt" version="1.1" viewBox="0 0 460.8 345.6" width="460.8pt" xmlns="http://www.w3.org/2000/svg" xmlns:xlink="http://www.w3.org/1999/xlink">
 <defs>
  <style type="text/css">
*{stroke-linecap:butt;stroke-linejoin:round;}
  </style>
 </defs>
 <g id="figure_1">
  <g id="patch_1">
   <path d="M 0 345.6 
L 460.8 345.6 
L 460.8 0 
L 0 0 
z
" style="fill:#ffffff;"/>
  </g>
  <g id="axes_1">
   <g id="CircleCollection_1">
    <path clip-path="url(#p7ab116987d)" d="M 110.327785 114.436834 
C 112.152838 114.436834 113.903387 113.711733 115.193895 112.421226 
C 116.484402 111.130718 117.209503 109.380169 117.209503 107.555116 
C 117.209503 105.730063 116.484402 103.979514 115.193895 102.689007 
C 113.903387 101.3985 112.152838 100.673398 110.327785 100.673398 
C 108.502732 100.673398 106.752183 101.3985 105.461676 102.689007 
C 104.171168 103.979514 103.446067 105.730063 103.446067 107.555116 
C 103.446067 109.380169 104.171168 111.130718 105.461676 112.421226 
C 106.752183 113.711733 108.502732 114.436834 110.327785 114.436834 
z
" style="fill:#2e6f8e;"/>
    <path clip-path="url(#p7ab116987d)" d="M 81.884277 289.094601 
C 83.589166 289.094601 85.224456 288.417242 86.429995 287.211703 
C 87.635533 286.006165 88.312893 284.370874 88.312893 282.665985 
C 88.312893 280.961096 87.635533 279.325806 86.429995 278.120267 
C 85.224456 276.914729 83.589166 276.237369 81.884277 276.237369 
C 80.179388 276.237369 78.544097 276.914729 77.338559 278.120267 
C 76.13302 279.325806 75.455661 280.961096 75.455661 282.665985 
C 75.455661 284.370874 76.13302 286.006165 77.338559 287.211703 
C 78.544097 288.417242 80.179388 289.094601 81.884277 289.094601 
z
" style="fill:#fde725;"/>
    <path clip-path="url(#p7ab116987d)" d="M 294.679405 294.866415 
C 296.478966 294.866415 298.205063 294.151442 299.477545 292.878961 
C 300.750027 291.606479 301.465 289.880381 301.465 288.08082 
C 301.465 286.28126 300.750027 284.555162 299.477545 283.28268 
C 298.205063 282.010199 296.478966 281.295225 294.679405 281.295225 
C 292.879844 281.295225 291.153746 282.010199 289.881265 283.28268 
C 288.608783 284.555162 287.89381 286.28126 287.89381 288.08082 
C 287.89381 289.880381 288.608783 291.606479 289.881265 292.878961 
C 291.153746 294.151442 292.879844 294.866415 294.679405 294.866415 
z
" style="fill:#27808e;"/>
    <path clip-path="url(#p7ab116987d)" d="M 231.080584 76.803812 
C 232.819452 76.803812 234.487335 76.112953 235.7169 74.883387 
C 236.946466 73.653822 237.637326 71.985939 237.637326 70.247071 
C 237.637326 68.508203 236.946466 66.84032 235.7169 65.610755 
C 234.487335 64.381189 232.819452 63.69033 231.080584 63.69033 
C 229.341716 63.69033 227.673833 64.381189 226.444268 65.610755 
C 225.214703 66.84032 224.523843 68.508203 224.523843 70.247071 
C 224.523843 71.985939 225.214703 73.653822 226.444268 74.883387 
C 227.673833 76.112953 229.341716 76.803812 231.080584 76.803812 
z
" style="fill:#2db27d;"/>
    <path clip-path="url(#p7ab116987d)" d="M 329.81649 227.222544 
C 331.646211 227.222544 333.401239 226.495588 334.695047 225.201779 
C 335.988856 223.907971 336.715812 222.152943 336.715812 220.323222 
C 336.715812 218.4935 335.988856 216.738473 334.695047 215.444665 
C 333.401239 214.150856 331.646211 213.4239 329.81649 213.4239 
C 327.986768 213.4239 326.231741 214.150856 324.937932 215.444665 
C 323.644124 216.738473 322.917168 218.4935 322.917168 220.323222 
C 322.917168 222.152943 323.644124 223.907971 324.937932 225.201779 
C 326.231741 226.495588 327.986768 227.222544 329.81649 227.222544 
z
" style="fill:#2d718e;"/>
    <path clip-path="url(#p7ab116987d)" d="M 249.474066 301.628409 
C 251.251177 301.628409 252.955742 300.922356 254.21235 299.665748 
C 255.468957 298.409141 256.175011 296.704576 256.175011 294.927464 
C 256.175011 293.150353 255.468957 291.445788 254.21235 290.189181 
C 252.955742 288.932573 251.251177 288.22652 249.474066 288.22652 
C 247.696955 288.22652 245.99239 288.932573 244.735782 290.189181 
C 243.479175 291.445788 242.773121 293.150353 242.773121 294.927464 
C 242.773121 296.704576 243.479175 298.409141 244.735782 299.665748 
C 245.99239 300.922356 247.696955 301.628409 249.474066 301.628409 
z
" style="fill:#2f6c8e;"/>
    <path clip-path="url(#p7ab116987d)" d="M 208.683009 288.365734 
C 210.441873 288.365734 212.128935 287.66693 213.372639 286.423226 
C 214.616344 285.179521 215.315148 283.49246 215.315148 281.733596 
C 215.315148 279.974732 214.616344 278.28767 213.372639 277.043966 
C 212.128935 275.800261 210.441873 275.101458 208.683009 275.101458 
C 206.924146 275.101458 205.237084 275.800261 203.993379 277.043966 
C 202.749675 278.28767 202.050871 279.974732 202.050871 281.733596 
C 202.050871 283.49246 202.749675 285.179521 203.993379 286.423226 
C 205.237084 287.66693 206.924146 288.365734 208.683009 288.365734 
z
" style="fill:#20928c;"/>
    <path clip-path="url(#p7ab116987d)" d="M 176.825163 61.142539 
C 178.678889 61.142539 180.456942 60.406046 181.767724 59.095263 
C 183.078507 57.78448 183.815 56.006428 183.815 54.152701 
C 183.815 52.298975 183.078507 50.520923 181.767724 49.21014 
C 180.456942 47.899357 178.678889 47.162864 176.825163 47.162864 
C 174.971436 47.162864 173.193384 47.899357 171.882601 49.21014 
C 170.571819 50.520923 169.835325 52.298975 169.835325 54.152701 
C 169.835325 56.006428 170.571819 57.78448 171.882601 59.095263 
C 173.193384 60.406046 174.971436 61.142539 176.825163 61.142539 
z
" style="fill:#1f978b;"/>
    <path clip-path="url(#p7ab116987d)" d="M 287.777986 155.68651 
C 289.596201 155.68651 291.340191 154.964125 292.625863 153.678453 
C 293.911535 152.392781 294.63392 150.648791 294.63392 148.830576 
C 294.63392 147.012361 293.911535 145.268371 292.625863 143.982699 
C 291.340191 142.697026 289.596201 141.974642 287.777986 141.974642 
C 285.959771 141.974642 284.21578 142.697026 282.930108 143.982699 
C 281.644436 145.268371 280.922052 147.012361 280.922052 148.830576 
C 280.922052 150.648791 281.644436 152.392781 282.930108 153.678453 
C 284.21578 154.964125 285.959771 155.68651 287.777986 155.68651 
z
" style="fill:#463480;"/>
    <path clip-path="url(#p7ab116987d)" d="M 139.124274 82.367993 
C 140.970059 82.367993 142.740493 81.634655 144.04566 80.329488 
C 145.350827 79.024321 146.084165 77.253887 146.084165 75.408102 
C 146.084165 73.562318 145.350827 71.791883 144.04566 70.486716 
C 142.740493 69.181549 140.970059 68.448211 139.124274 68.448211 
C 137.278489 68.448211 135.508055 69.181549 134.202888 70.486716 
C 132.897721 71.791883 132.164383 73.562318 132.164383 75.408102 
C 132.164383 77.253887 132.897721 79.024321 134.202888 80.329488 
C 135.508055 81.634655 137.278489 82.367993 139.124274 82.367993 
z
" style="fill:#297a8e;"/>
    <path clip-path="url(#p7ab116987d)" d="M 71.073436 141.93276 
C 72.880627 141.93276 74.614044 141.214755 75.891921 139.936878 
C 77.169798 138.659 77.887803 136.925584 77.887803 135.118392 
C 77.887803 133.311201 77.169798 131.577784 75.891921 130.299907 
C 74.614044 129.02203 72.880627 128.304025 71.073436 128.304025 
C 69.266244 128.304025 67.532828 129.02203 66.25495 130.299907 
C 64.977073 131.577784 64.259068 133.311201 64.259068 135.118392 
C 64.259068 136.925584 64.977073 138.659 66.25495 139.936878 
C 67.532828 141.214755 69.266244 141.93276 71.073436 141.93276 
z
" style="fill:#4cc26c;"/>
    <path clip-path="url(#p7ab116987d)" d="M 156.676617 179.129479 
C 158.440014 179.129479 160.131423 178.428874 161.378333 177.181965 
C 162.625243 175.935055 163.325848 174.243645 163.325848 172.480249 
C 163.325848 170.716852 162.625243 169.025442 161.378333 167.778533 
C 160.131423 166.531623 158.440014 165.831018 156.676617 165.831018 
C 154.91322 165.831018 153.221811 166.531623 151.974901 167.778533 
C 150.727991 169.025442 150.027386 170.716852 150.027386 172.480249 
C 150.027386 174.243645 150.727991 175.935055 151.974901 177.181965 
C 153.221811 178.428874 154.91322 179.129479 156.676617 179.129479 
z
" style="fill:#2d708e;"/>
    <path clip-path="url(#p7ab116987d)" d="M 168.86197 262.554141 
C 170.610154 262.554141 172.286973 261.85958 173.523126 260.623426 
C 174.75928 259.387273 175.453841 257.710454 175.453841 255.96227 
C 175.453841 254.214085 174.75928 252.537266 173.523126 251.301113 
C 172.286973 250.06496 170.610154 249.370399 168.86197 249.370399 
C 167.113785 249.370399 165.436966 250.06496 164.200813 251.301113 
C 162.96466 252.537266 162.270099 254.214085 162.270099 255.96227 
C 162.270099 257.710454 162.96466 259.387273 164.200813 260.623426 
C 165.436966 261.85958 167.113785 262.554141 168.86197 262.554141 
z
" style="fill:#440154;"/>
    <path clip-path="url(#p7ab116987d)" d="M 316.24894 189.889852 
C 318.078695 189.889852 319.833754 189.162883 321.127585 187.869051 
C 322.421417 186.575219 323.148386 184.820161 323.148386 182.990406 
C 323.148386 181.160652 322.421417 179.405593 321.127585 178.111761 
C 319.833754 176.81793 318.078695 176.090961 316.24894 176.090961 
C 314.419186 176.090961 312.664127 176.81793 311.370296 178.111761 
C 310.076464 179.405593 309.349495 181.160652 309.349495 182.990406 
C 309.349495 184.820161 310.076464 186.575219 311.370296 187.869051 
C 312.664127 189.162883 314.419186 189.889852 316.24894 189.889852 
z
" style="fill:#25848e;"/>
    <path clip-path="url(#p7ab116987d)" d="M 325.149844 268.304584 
C 326.972712 268.304584 328.721165 267.580351 330.010127 266.291389 
C 331.299089 265.002427 332.023322 263.253974 332.023322 261.431107 
C 332.023322 259.608239 331.299089 257.859786 330.010127 256.570824 
C 328.721165 255.281862 326.972712 254.557629 325.149844 254.557629 
C 323.326977 254.557629 321.578524 255.281862 320.289562 256.570824 
C 319.0006 257.859786 318.276367 259.608239 318.276367 261.431107 
C 318.276367 263.253974 319.0006 265.002427 320.289562 266.291389 
C 321.578524 267.580351 323.326977 268.304584 325.149844 268.304584 
z
" style="fill:#287c8e;"/>
    <path clip-path="url(#p7ab116987d)" d="M 122.435074 275.935903 
C 124.167447 275.935903 125.8291 275.247624 127.054073 274.022651 
C 128.279045 272.797679 128.967325 271.136026 128.967325 269.403652 
C 128.967325 267.671279 128.279045 266.009626 127.054073 264.784654 
C 125.8291 263.559681 124.167447 262.871402 122.435074 262.871402 
C 120.7027 262.871402 119.041047 263.559681 117.816075 264.784654 
C 116.591102 266.009626 115.902823 267.671279 115.902823 269.403652 
C 115.902823 271.136026 116.591102 272.797679 117.816075 274.022651 
C 119.041047 275.247624 120.7027 275.935903 122.435074 275.935903 
z
" style="fill:#1f988b;"/>
    <path clip-path="url(#p7ab116987d)" d="M 247.368452 154.418427 
C 249.122129 154.418427 250.804216 153.721683 252.044254 152.481646 
C 253.284291 151.241609 253.981034 149.559522 253.981034 147.805844 
C 253.981034 146.052167 253.284291 144.370079 252.044254 143.130042 
C 250.804216 141.890005 249.122129 141.193261 247.368452 141.193261 
C 245.614774 141.193261 243.932687 141.890005 242.692649 143.130042 
C 241.452612 144.370079 240.755869 146.052167 240.755869 147.805844 
C 240.755869 149.559522 241.452612 151.241609 242.692649 152.481646 
C 243.932687 153.721683 245.614774 154.418427 247.368452 154.418427 
z
" style="fill:#3e4c8a;"/>
    <path clip-path="url(#p7ab116987d)" d="M 206.818933 182.477864 
C 208.576126 182.477864 210.261586 181.779724 211.504109 180.537201 
C 212.746633 179.294678 213.444773 177.609218 213.444773 175.852025 
C 213.444773 174.094832 212.746633 172.409372 211.504109 171.166849 
C 210.261586 169.924325 208.576126 169.226185 206.818933 169.226185 
C 205.06174 169.226185 203.37628 169.924325 202.133757 171.166849 
C 200.891234 172.409372 200.193094 174.094832 200.193094 175.852025 
C 200.193094 177.609218 200.891234 179.294678 202.133757 180.537201 
C 203.37628 181.779724 205.06174 182.477864 206.818933 182.477864 
z
" style="fill:#277e8e;"/>
    <path clip-path="url(#p7ab116987d)" d="M 261.042118 85.718086 
C 262.915417 85.718086 264.712243 84.973817 266.036865 83.649194 
C 267.361488 82.324572 268.105757 80.527746 268.105757 78.654447 
C 268.105757 76.781148 267.361488 74.984322 266.036865 73.6597 
C 264.712243 72.335077 262.915417 71.590808 261.042118 71.590808 
C 259.168819 71.590808 257.371993 72.335077 256.047371 73.6597 
C 254.722748 74.984322 253.978479 76.781148 253.978479 78.654447 
C 253.978479 80.527746 254.722748 82.324572 256.047371 83.649194 
C 257.371993 84.973817 259.168819 85.718086 261.042118 85.718086 
z
" style="fill:#1e9b8a;"/>
    <path clip-path="url(#p7ab116987d)" d="M 284.114187 119.078577 
C 285.979476 119.078577 287.76862 118.337489 289.087579 117.01853 
C 290.406538 115.699571 291.147626 113.910428 291.147626 112.045138 
C 291.147626 110.179848 290.406538 108.390704 289.087579 107.071745 
C 287.76862 105.752786 285.979476 105.011698 284.114187 105.011698 
C 282.248897 105.011698 280.459753 105.752786 279.140794 107.071745 
C 277.821835 108.390704 277.080747 110.179848 277.080747 112.045138 
C 277.080747 113.910428 277.821835 115.699571 279.140794 117.01853 
C 280.459753 118.337489 282.248897 119.078577 284.114187 119.078577 
z
" style="fill:#1f998a;"/>
    <path clip-path="url(#p7ab116987d)" d="M 178.595525 218.98816 
C 180.351988 218.98816 182.036747 218.29031 183.278754 217.048303 
C 184.520761 215.806296 185.218611 214.121537 185.218611 212.365074 
C 185.218611 210.608611 184.520761 208.923851 183.278754 207.681844 
C 182.036747 206.439837 180.351988 205.741987 178.595525 205.741987 
C 176.839062 205.741987 175.154303 206.439837 173.912296 207.681844 
C 172.670289 208.923851 171.972439 210.608611 171.972439 212.365074 
C 171.972439 214.121537 172.670289 215.806296 173.912296 217.048303 
C 175.154303 218.29031 176.839062 218.98816 178.595525 218.98816 
z
" style="fill:#287d8e;"/>
    <path clip-path="url(#p7ab116987d)" d="M 223.827911 67.539227 
C 225.654319 67.539227 227.406167 66.813587 228.697632 65.522122 
C 229.989098 64.230657 230.714737 62.478808 230.714737 60.652401 
C 230.714737 58.825993 229.989098 57.074145 228.697632 55.78268 
C 227.406167 54.491215 225.654319 53.765575 223.827911 53.765575 
C 222.001504 53.765575 220.249655 54.491215 218.95819 55.78268 
C 217.666725 57.074145 216.941086 58.825993 216.941086 60.652401 
C 216.941086 62.478808 217.666725 64.230657 218.95819 65.522122 
C 220.249655 66.813587 222.001504 67.539227 223.827911 67.539227 
z
" style="fill:#460a5d;"/>
    <path clip-path="url(#p7ab116987d)" d="M 236.005127 115.398194 
C 237.727508 115.398194 239.379577 114.713884 240.597484 113.495977 
C 241.815391 112.27807 242.4997 110.626001 242.4997 108.90362 
C 242.4997 107.181239 241.815391 105.529171 240.597484 104.311263 
C 239.379577 103.093356 237.727508 102.409047 236.005127 102.409047 
C 234.282746 102.409047 232.630678 103.093356 231.41277 104.311263 
C 230.194863 105.529171 229.510554 107.181239 229.510554 108.90362 
C 229.510554 110.626001 230.194863 112.27807 231.41277 113.495977 
C 232.630678 114.713884 234.282746 115.398194 236.005127 115.398194 
z
" style="fill:#1f988b;"/>
    <path clip-path="url(#p7ab116987d)" d="M 118.429397 153.744151 
C 120.215551 153.744151 121.928789 153.034505 123.191791 151.771503 
C 124.454793 150.508501 125.164439 148.795263 125.164439 147.009109 
C 125.164439 145.222955 124.454793 143.509716 123.191791 142.246715 
C 121.928789 140.983713 120.215551 140.274066 118.429397 140.274066 
C 116.643243 140.274066 114.930004 140.983713 113.667002 142.246715 
C 112.404001 143.509716 111.694354 145.222955 111.694354 147.009109 
C 111.694354 148.795263 112.404001 150.508501 113.667002 151.771503 
C 114.930004 153.034505 116.643243 153.744151 118.429397 153.744151 
z
" style="fill:#2c738e;"/>
   </g>
   <g id="text_1">
    <!-- Structure #6676, $E_N$=-178.40eV, ΔE=0.49eV -->
    <defs>
     <path d="M 53.515625 70.515625 
L 53.515625 60.890625 
Q 47.90625 63.578125 42.921875 64.890625 
Q 37.9375 66.21875 33.296875 66.21875 
Q 25.25 66.21875 20.875 63.09375 
Q 16.5 59.96875 16.5 54.203125 
Q 16.5 49.359375 19.40625 46.890625 
Q 22.3125 44.4375 30.421875 42.921875 
L 36.375 41.703125 
Q 47.40625 39.59375 52.65625 34.296875 
Q 57.90625 29 57.90625 20.125 
Q 57.90625 9.515625 50.796875 4.046875 
Q 43.703125 -1.421875 29.984375 -1.421875 
Q 24.8125 -1.421875 18.96875 -0.25 
Q 13.140625 0.921875 6.890625 3.21875 
L 6.890625 13.375 
Q 12.890625 10.015625 18.65625 8.296875 
Q 24.421875 6.59375 29.984375 6.59375 
Q 38.421875 6.59375 43.015625 9.90625 
Q 47.609375 13.234375 47.609375 19.390625 
Q 47.609375 24.75 44.3125 27.78125 
Q 41.015625 30.8125 33.5 32.328125 
L 27.484375 33.5 
Q 16.453125 35.6875 11.515625 40.375 
Q 6.59375 45.0625 6.59375 53.421875 
Q 6.59375 63.09375 13.40625 68.65625 
Q 20.21875 74.21875 32.171875 74.21875 
Q 37.3125 74.21875 42.625 73.28125 
Q 47.953125 72.359375 53.515625 70.515625 
z
" id="DejaVuSans-53"/>
     <path d="M 18.3125 70.21875 
L 18.3125 54.6875 
L 36.8125 54.6875 
L 36.8125 47.703125 
L 18.3125 47.703125 
L 18.3125 18.015625 
Q 18.3125 11.328125 20.140625 9.421875 
Q 21.96875 7.515625 27.59375 7.515625 
L 36.8125 7.515625 
L 36.8125 0 
L 27.59375 0 
Q 17.1875 0 13.234375 3.875 
Q 9.28125 7.765625 9.28125 18.015625 
L 9.28125 47.703125 
L 2.6875 47.703125 
L 2.6875 54.6875 
L 9.28125 54.6875 
L 9.28125 70.21875 
z
" id="DejaVuSans-74"/>
     <path d="M 41.109375 46.296875 
Q 39.59375 47.171875 37.8125 47.578125 
Q 36.03125 48 33.890625 48 
Q 26.265625 48 22.1875 43.046875 
Q 18.109375 38.09375 18.109375 28.8125 
L 18.109375 0 
L 9.078125 0 
L 9.078125 54.6875 
L 18.109375 54.6875 
L 18.109375 46.1875 
Q 20.953125 51.171875 25.484375 53.578125 
Q 30.03125 56 36.53125 56 
Q 37.453125 56 38.578125 55.875 
Q 39.703125 55.765625 41.0625 55.515625 
z
" id="DejaVuSans-72"/>
     <path d="M 8.5 21.578125 
L 8.5 54.6875 
L 17.484375 54.6875 
L 17.484375 21.921875 
Q 17.484375 14.15625 20.5 10.265625 
Q 23.53125 6.390625 29.59375 6.390625 
Q 36.859375 6.390625 41.078125 11.03125 
Q 45.3125 15.671875 45.3125 23.6875 
L 45.3125 54.6875 
L 54.296875 54.6875 
L 54.296875 0 
L 45.3125 0 
L 45.3125 8.40625 
Q 42.046875 3.421875 37.71875 1 
Q 33.40625 -1.421875 27.6875 -1.421875 
Q 18.265625 -1.421875 13.375 4.4375 
Q 8.5 10.296875 8.5 21.578125 
z
M 31.109375 56 
z
" id="DejaVuSans-75"/>
     <path d="M 48.78125 52.59375 
L 48.78125 44.1875 
Q 44.96875 46.296875 41.140625 47.34375 
Q 37.3125 48.390625 33.40625 48.390625 
Q 24.65625 48.390625 19.8125 42.84375 
Q 14.984375 37.3125 14.984375 27.296875 
Q 14.984375 17.28125 19.8125 11.734375 
Q 24.65625 6.203125 33.40625 6.203125 
Q 37.3125 6.203125 41.140625 7.25 
Q 44.96875 8.296875 48.78125 10.40625 
L 48.78125 2.09375 
Q 45.015625 0.34375 40.984375 -0.53125 
Q 36.96875 -1.421875 32.421875 -1.421875 
Q 20.0625 -1.421875 12.78125 6.34375 
Q 5.515625 14.109375 5.515625 27.296875 
Q 5.515625 40.671875 12.859375 48.328125 
Q 20.21875 56 33.015625 56 
Q 37.15625 56 41.109375 55.140625 
Q 45.0625 54.296875 48.78125 52.59375 
z
" id="DejaVuSans-63"/>
     <path d="M 56.203125 29.59375 
L 56.203125 25.203125 
L 14.890625 25.203125 
Q 15.484375 15.921875 20.484375 11.0625 
Q 25.484375 6.203125 34.421875 6.203125 
Q 39.59375 6.203125 44.453125 7.46875 
Q 49.3125 8.734375 54.109375 11.28125 
L 54.109375 2.78125 
Q 49.265625 0.734375 44.1875 -0.34375 
Q 39.109375 -1.421875 33.890625 -1.421875 
Q 20.796875 -1.421875 13.15625 6.1875 
Q 5.515625 13.8125 5.515625 26.8125 
Q 5.515625 40.234375 12.765625 48.109375 
Q 20.015625 56 32.328125 56 
Q 43.359375 56 49.78125 48.890625 
Q 56.203125 41.796875 56.203125 29.59375 
z
M 47.21875 32.234375 
Q 47.125 39.59375 43.09375 43.984375 
Q 39.0625 48.390625 32.421875 48.390625 
Q 24.90625 48.390625 20.390625 44.140625 
Q 15.875 39.890625 15.1875 32.171875 
z
" id="DejaVuSans-65"/>
     <path id="DejaVuSans-20"/>
     <path d="M 51.125 44 
L 36.921875 44 
L 32.8125 27.6875 
L 47.125 27.6875 
z
M 43.796875 71.78125 
L 38.71875 51.515625 
L 52.984375 51.515625 
L 58.109375 71.78125 
L 65.921875 71.78125 
L 60.890625 51.515625 
L 76.125 51.515625 
L 76.125 44 
L 58.984375 44 
L 54.984375 27.6875 
L 70.515625 27.6875 
L 70.515625 20.21875 
L 53.078125 20.21875 
L 48 0 
L 40.1875 0 
L 45.21875 20.21875 
L 30.90625 20.21875 
L 25.875 0 
L 18.015625 0 
L 23.09375 20.21875 
L 7.71875 20.21875 
L 7.71875 27.6875 
L 24.90625 27.6875 
L 29 44 
L 13.28125 44 
L 13.28125 51.515625 
L 30.90625 51.515625 
L 35.890625 71.78125 
z
" id="DejaVuSans-23"/>
     <path d="M 33.015625 40.375 
Q 26.375 40.375 22.484375 35.828125 
Q 18.609375 31.296875 18.609375 23.390625 
Q 18.609375 15.53125 22.484375 10.953125 
Q 26.375 6.390625 33.015625 6.390625 
Q 39.65625 6.390625 43.53125 10.953125 
Q 47.40625 15.53125 47.40625 23.390625 
Q 47.40625 31.296875 43.53125 35.828125 
Q 39.65625 40.375 33.015625 40.375 
z
M 52.59375 71.296875 
L 52.59375 62.3125 
Q 48.875 64.0625 45.09375 64.984375 
Q 41.3125 65.921875 37.59375 65.921875 
Q 27.828125 65.921875 22.671875 59.328125 
Q 17.53125 52.734375 16.796875 39.40625 
Q 19.671875 43.65625 24.015625 45.921875 
Q 28.375 48.1875 33.59375 48.1875 
Q 44.578125 48.1875 50.953125 41.515625 
Q 57.328125 34.859375 57.328125 23.390625 
Q 57.328125 12.15625 50.6875 5.359375 
Q 44.046875 -1.421875 33.015625 -1.421875 
Q 20.359375 -1.421875 13.671875 8.265625 
Q 6.984375 17.96875 6.984375 36.375 
Q 6.984375 53.65625 15.1875 63.9375 
Q 23.390625 74.21875 37.203125 74.21875 
Q 40.921875 74.21875 44.703125 73.484375 
Q 48.484375 72.75 52.59375 71.296875 
z
" id="DejaVuSans-36"/>
     <path d="M 8.203125 72.90625 
L 55.078125 72.90625 
L 55.078125 68.703125 
L 28.609375 0 
L 18.3125 0 
L 43.21875 64.59375 
L 8.203125 64.59375 
z
" id="DejaVuSans-37"/>
     <path d="M 11.71875 12.40625 
L 22.015625 12.40625 
L 22.015625 4 
L 14.015625 -11.625 
L 7.71875 -11.625 
L 11.71875 4 
z
" id="DejaVuSans-2c"/>
     <path d="M 16.890625 72.90625 
L 62.984375 72.90625 
L 61.375 64.59375 
L 25.09375 64.59375 
L 20.90625 43.015625 
L 55.71875 43.015625 
L 54.109375 34.71875 
L 19.28125 34.71875 
L 14.203125 8.296875 
L 51.3125 8.296875 
L 49.703125 0 
L 2.6875 0 
z
" id="DejaVuSans-Oblique-45"/>
     <path d="M 16.890625 72.90625 
L 30.171875 72.90625 
L 50.296875 10.40625 
L 62.5 72.90625 
L 72.125 72.90625 
L 57.90625 0 
L 44.578125 0 
L 24.515625 62.890625 
L 12.3125 0 
L 2.6875 0 
z
" id="DejaVuSans-Oblique-4e"/>
     <path d="M 10.59375 45.40625 
L 73.1875 45.40625 
L 73.1875 37.203125 
L 10.59375 37.203125 
z
M 10.59375 25.484375 
L 73.1875 25.484375 
L 73.1875 17.1875 
L 10.59375 17.1875 
z
" id="DejaVuSans-3d"/>
     <path d="M 4.890625 31.390625 
L 31.203125 31.390625 
L 31.203125 23.390625 
L 4.890625 23.390625 
z
" id="DejaVuSans-2d"/>
     <path d="M 12.40625 8.296875 
L 28.515625 8.296875 
L 28.515625 63.921875 
L 10.984375 60.40625 
L 10.984375 69.390625 
L 28.421875 72.90625 
L 38.28125 72.90625 
L 38.28125 8.296875 
L 54.390625 8.296875 
L 54.390625 0 
L 12.40625 0 
z
" id="DejaVuSans-31"/>
     <path d="M 31.78125 34.625 
Q 24.75 34.625 20.71875 30.859375 
Q 16.703125 27.09375 16.703125 20.515625 
Q 16.703125 13.921875 20.71875 10.15625 
Q 24.75 6.390625 31.78125 6.390625 
Q 38.8125 6.390625 42.859375 10.171875 
Q 46.921875 13.96875 46.921875 20.515625 
Q 46.921875 27.09375 42.890625 30.859375 
Q 38.875 34.625 31.78125 34.625 
z
M 21.921875 38.8125 
Q 15.578125 40.375 12.03125 44.71875 
Q 8.5 49.078125 8.5 55.328125 
Q 8.5 64.0625 14.71875 69.140625 
Q 20.953125 74.21875 31.78125 74.21875 
Q 42.671875 74.21875 48.875 69.140625 
Q 55.078125 64.0625 55.078125 55.328125 
Q 55.078125 49.078125 51.53125 44.71875 
Q 48 40.375 41.703125 38.8125 
Q 48.828125 37.15625 52.796875 32.3125 
Q 56.78125 27.484375 56.78125 20.515625 
Q 56.78125 9.90625 50.3125 4.234375 
Q 43.84375 -1.421875 31.78125 -1.421875 
Q 19.734375 -1.421875 13.25 4.234375 
Q 6.78125 9.90625 6.78125 20.515625 
Q 6.78125 27.484375 10.78125 32.3125 
Q 14.796875 37.15625 21.921875 38.8125 
z
M 18.3125 54.390625 
Q 18.3125 48.734375 21.84375 45.5625 
Q 25.390625 42.390625 31.78125 42.390625 
Q 38.140625 42.390625 41.71875 45.5625 
Q 45.3125 48.734375 45.3125 54.390625 
Q 45.3125 60.0625 41.71875 63.234375 
Q 38.140625 66.40625 31.78125 66.40625 
Q 25.390625 66.40625 21.84375 63.234375 
Q 18.3125 60.0625 18.3125 54.390625 
z
" id="DejaVuSans-38"/>
     <path d="M 10.6875 12.40625 
L 21 12.40625 
L 21 0 
L 10.6875 0 
z
" id="DejaVuSans-2e"/>
     <path d="M 37.796875 64.3125 
L 12.890625 25.390625 
L 37.796875 25.390625 
z
M 35.203125 72.90625 
L 47.609375 72.90625 
L 47.609375 25.390625 
L 58.015625 25.390625 
L 58.015625 17.1875 
L 47.609375 17.1875 
L 47.609375 0 
L 37.796875 0 
L 37.796875 17.1875 
L 4.890625 17.1875 
L 4.890625 26.703125 
z
" id="DejaVuSans-34"/>
     <path d="M 31.78125 66.40625 
Q 24.171875 66.40625 20.328125 58.90625 
Q 16.5 51.421875 16.5 36.375 
Q 16.5 21.390625 20.328125 13.890625 
Q 24.171875 6.390625 31.78125 6.390625 
Q 39.453125 6.390625 43.28125 13.890625 
Q 47.125 21.390625 47.125 36.375 
Q 47.125 51.421875 43.28125 58.90625 
Q 39.453125 66.40625 31.78125 66.40625 
z
M 31.78125 74.21875 
Q 44.046875 74.21875 50.515625 64.515625 
Q 56.984375 54.828125 56.984375 36.375 
Q 56.984375 17.96875 50.515625 8.265625 
Q 44.046875 -1.421875 31.78125 -1.421875 
Q 19.53125 -1.421875 13.0625 8.265625 
Q 6.59375 17.96875 6.59375 36.375 
Q 6.59375 54.828125 13.0625 64.515625 
Q 19.53125 74.21875 31.78125 74.21875 
z
" id="DejaVuSans-30"/>
     <path d="M 28.609375 0 
L 0.78125 72.90625 
L 11.078125 72.90625 
L 34.1875 11.53125 
L 57.328125 72.90625 
L 67.578125 72.90625 
L 39.796875 0 
z
" id="DejaVuSans-56"/>
     <path d="M 34.1875 63.1875 
L 14.15625 8.203125 
L 54.25 8.203125 
z
M 0.78125 0 
L 28.609375 72.90625 
L 39.796875 72.90625 
L 67.578125 0 
z
" id="DejaVuSans-394"/>
     <path d="M 9.8125 72.90625 
L 55.90625 72.90625 
L 55.90625 64.59375 
L 19.671875 64.59375 
L 19.671875 43.015625 
L 54.390625 43.015625 
L 54.390625 34.71875 
L 19.671875 34.71875 
L 19.671875 8.296875 
L 56.78125 8.296875 
L 56.78125 0 
L 9.8125 0 
z
" id="DejaVuSans-45"/>
     <path d="M 10.984375 1.515625 
L 10.984375 10.5 
Q 14.703125 8.734375 18.5 7.8125 
Q 22.3125 6.890625 25.984375 6.890625 
Q 35.75 6.890625 40.890625 13.453125 
Q 46.046875 20.015625 46.78125 33.40625 
Q 43.953125 29.203125 39.59375 26.953125 
Q 35.25 24.703125 29.984375 24.703125 
Q 19.046875 24.703125 12.671875 31.3125 
Q 6.296875 37.9375 6.296875 49.421875 
Q 6.296875 60.640625 12.9375 67.421875 
Q 19.578125 74.21875 30.609375 74.21875 
Q 43.265625 74.21875 49.921875 64.515625 
Q 56.59375 54.828125 56.59375 36.375 
Q 56.59375 19.140625 48.40625 8.859375 
Q 40.234375 -1.421875 26.421875 -1.421875 
Q 22.703125 -1.421875 18.890625 -0.6875 
Q 15.09375 0.046875 10.984375 1.515625 
z
M 30.609375 32.421875 
Q 37.25 32.421875 41.125 36.953125 
Q 45.015625 41.5 45.015625 49.421875 
Q 45.015625 57.28125 41.125 61.84375 
Q 37.25 66.40625 30.609375 66.40625 
Q 23.96875 66.40625 20.09375 61.84375 
Q 16.21875 57.28125 16.21875 49.421875 
Q 16.21875 41.5 20.09375 36.953125 
Q 23.96875 32.421875 30.609375 32.421875 
z
" id="DejaVuSans-39"/>
    </defs>
    <g transform="translate(65.388 35.472)scale(0.12 -0.12)">
     <use transform="translate(0 0.78125)" xlink:href="#DejaVuSans-53"/>
     <use transform="translate(63.476562 0.78125)" xlink:href="#DejaVuSans-74"/>
     <use transform="translate(102.685547 0.78125)" xlink:href="#DejaVuSans-72"/>
     <use transform="translate(143.798828 0.78125)" xlink:href="#DejaVuSans-75"/>
     <use transform="translate(207.177734 0.78125)" xlink:href="#DejaVuSans-63"/>
     <use transform="translate(262.158203 0.78125)" xlink:href="#DejaVuSans-74"/>
     <use transform="translate(301.367188 0.78125)" xlink:href="#DejaVuSans-75"/>
     <use transform="translate(364.746094 0.78125)" xlink:href="#DejaVuSans-72"/>
     <use transform="translate(405.859375 0.78125)" xlink:href="#DejaVuSans-65"/>
     <use transform="translate(467.382812 0.78125)" xlink:href="#DejaVuSans-20"/>
     <use transform="translate(499.169922 0.78125)" xlink:href="#DejaVuSans-23"/>
     <use transform="translate(582.958984 0.78125)" xlink:href="#DejaVuSans-36"/>
     <use transform="translate(646.582031 0.78125)" xlink:href="#DejaVuSans-36"/>
     <use transform="translate(710.205078 0.78125)" xlink:href="#DejaVuSans-37"/>
     <use transform="translate(773.828125 0.78125)" xlink:href="#DejaVuSans-36"/>
     <use transform="translate(837.451172 0.78125)" xlink:href="#DejaVuSans-2c"/>
     <use transform="translate(869.238281 0.78125)" xlink:href="#DejaVuSans-20"/>
     <use transform="translate(901.025391 0.78125)" xlink:href="#DejaVuSans-Oblique-45"/>
     <use transform="translate(964.208984 -15.625)scale(0.7)" xlink:href="#DejaVuSans-Oblique-4e"/>
     <use transform="translate(1019.306641 0.78125)" xlink:href="#DejaVuSans-3d"/>
     <use transform="translate(1103.095703 0.78125)" xlink:href="#DejaVuSans-2d"/>
     <use transform="translate(1139.179688 0.78125)" xlink:href="#DejaVuSans-31"/>
     <use transform="translate(1202.802734 0.78125)" xlink:href="#DejaVuSans-37"/>
     <use transform="translate(1266.425781 0.78125)" xlink:href="#DejaVuSans-38"/>
     <use transform="translate(1330.048828 0.78125)" xlink:href="#DejaVuSans-2e"/>
     <use transform="translate(1361.835938 0.78125)" xlink:href="#DejaVuSans-34"/>
     <use transform="translate(1425.458984 0.78125)" xlink:href="#DejaVuSans-30"/>
     <use transform="translate(1489.082031 0.78125)" xlink:href="#DejaVuSans-65"/>
     <use transform="translate(1550.605469 0.78125)" xlink:href="#DejaVuSans-56"/>
     <use transform="translate(1619.013672 0.78125)" xlink:href="#DejaVuSans-2c"/>
     <use transform="translate(1650.800781 0.78125)" xlink:href="#DejaVuSans-20"/>
     <use transform="translate(1682.587891 0.78125)" xlink:href="#DejaVuSans-394"/>
     <use transform="translate(1750.996094 0.78125)" xlink:href="#DejaVuSans-45"/>
     <use transform="translate(1814.179688 0.78125)" xlink:href="#DejaVuSans-3d"/>
     <use transform="translate(1897.96875 0.78125)" xlink:href="#DejaVuSans-30"/>
     <use transform="translate(1961.591797 0.78125)" xlink:href="#DejaVuSans-2e"/>
     <use transform="translate(1993.378906 0.78125)" xlink:href="#DejaVuSans-34"/>
     <use transform="translate(2057.001953 0.78125)" xlink:href="#DejaVuSans-39"/>
     <use transform="translate(2120.625 0.78125)" xlink:href="#DejaVuSans-65"/>
     <use transform="translate(2182.148438 0.78125)" xlink:href="#DejaVuSans-56"/>
    </g>
   </g>
  </g>
  <g id="axes_2">
   <g id="patch_2">
    <path clip-path="url(#pc4155f3699)" d="M 361.152 307.584 
L 361.152 306.5445 
L 361.152 42.5115 
L 361.152 41.472 
L 374.4576 41.472 
L 374.4576 42.5115 
L 374.4576 306.5445 
L 374.4576 307.584 
z
" style="fill:#ffffff;stroke:#ffffff;stroke-linejoin:miter;stroke-width:0.01;"/>
   </g>
   <image height="265.68" id="imagee32f30dfea" transform="scale(1 -1)translate(0 -265.68)" width="12.96" x="361.44" xlink:href="data:image/png;base64,
iVBORw0KGgoAAAANSUhEUgAAABIAAAFxCAYAAAB+2fgXAAAABHNCSVQICAgIfAhkiAAAAeVJREFUeJztncmNw0AQA2ckheYQNv9QLIfQ8ygsCgQ7AEI8+jAs2Puz/94F1LP2ReCsZ18bAWIeZ5XaGRBE7VnbptG+KI101FYyNSiQG2oRITXKNaX9uclOdi2XWjftVE32CZCO2ou5Bj1TcCBr/1zB9ge7Fq0Rg2NM9pvbtG+ua1QgsRYhDy0ISEiNc40BEibbSI0Coj5CBGtkpFbXJiAjNZlrwhuSOv2M1DjXbEdEciBt1JSDDQKKpmZr2rr2j0DBGpXaWEJq3bQzEPIS26r9J+Wzv9Tm8o3aajRXqc3VUXsApKNWjeZq0x4ABVNbm7lrszVigDqP5vIl2+eaT2yfRkL7g+dRcNPqjohkjaCvRVBq0H2U3LQrOJCx9kdTg4B8oxZzzTdqdYHEngjUCAPyUctN9sVRq2sTECW2UKNLd2jVtRmo1A6AhMmWaSRcR8nUdIHUuVb75zJS218EyEitro1At69pIdeSk30Lkw0FktNImGyZRhy1O5galmxd03LUsHWk06jUZiCq+5Wb1kZNN4+wJxJuWt8RAW5am2sYNZ9rYCBzZ3buPKJ2P5Yj4Toy3keyIyJbIxs1rml1byCA84gpch5RQNB7Q0qNMGq2Hy4BXdNR41yz/cEEJfZzUz96r9PoB0okjeQ8y9TkAAAAAElFTkSuQmCC" y="-41.76"/>
   <g id="matplotlib.axis_1"/>
   <g id="matplotlib.axis_2">
    <g id="ytick_1">
     <g id="line2d_1">
      <defs>
       <path d="M 0 0 
L 3.5 0 
" id="m26952af31f" style="stroke:#000000;stroke-width:0.8;"/>
      </defs>
      <g>
       <use style="stroke:#000000;stroke-width:0.8;" x="374.4576" xlink:href="#m26952af31f" y="290.965292"/>
      </g>
     </g>
     <g id="text_2">
      <!-- −9.0 -->
      <defs>
       <path d="M 10.59375 35.5 
L 73.1875 35.5 
L 73.1875 27.203125 
L 10.59375 27.203125 
z
" id="DejaVuSans-2212"/>
      </defs>
      <g transform="translate(381.4576 294.764511)scale(0.1 -0.1)">
       <use xlink:href="#DejaVuSans-2212"/>
       <use x="83.789062" xlink:href="#DejaVuSans-39"/>
       <use x="147.412109" xlink:href="#DejaVuSans-2e"/>
       <use x="179.199219" xlink:href="#DejaVuSans-30"/>
      </g>
     </g>
    </g>
    <g id="ytick_2">
     <g id="line2d_2">
      <g>
       <use style="stroke:#000000;stroke-width:0.8;" x="374.4576" xlink:href="#m26952af31f" y="259.73247"/>
      </g>
     </g>
     <g id="text_3">
      <!-- −8.5 -->
      <defs>
       <path d="M 10.796875 72.90625 
L 49.515625 72.90625 
L 49.515625 64.59375 
L 19.828125 64.59375 
L 19.828125 46.734375 
Q 21.96875 47.46875 24.109375 47.828125 
Q 26.265625 48.1875 28.421875 48.1875 
Q 40.625 48.1875 47.75 41.5 
Q 54.890625 34.8125 54.890625 23.390625 
Q 54.890625 11.625 47.5625 5.09375 
Q 40.234375 -1.421875 26.90625 -1.421875 
Q 22.3125 -1.421875 17.546875 -0.640625 
Q 12.796875 0.140625 7.71875 1.703125 
L 7.71875 11.625 
Q 12.109375 9.234375 16.796875 8.0625 
Q 21.484375 6.890625 26.703125 6.890625 
Q 35.15625 6.890625 40.078125 11.328125 
Q 45.015625 15.765625 45.015625 23.390625 
Q 45.015625 31 40.078125 35.4375 
Q 35.15625 39.890625 26.703125 39.890625 
Q 22.75 39.890625 18.8125 39.015625 
Q 14.890625 38.140625 10.796875 36.28125 
z
" id="DejaVuSans-35"/>
      </defs>
      <g transform="translate(381.4576 263.531688)scale(0.1 -0.1)">
       <use xlink:href="#DejaVuSans-2212"/>
       <use x="83.789062" xlink:href="#DejaVuSans-38"/>
       <use x="147.412109" xlink:href="#DejaVuSans-2e"/>
       <use x="179.199219" xlink:href="#DejaVuSans-35"/>
      </g>
     </g>
    </g>
    <g id="ytick_3">
     <g id="line2d_3">
      <g>
       <use style="stroke:#000000;stroke-width:0.8;" x="374.4576" xlink:href="#m26952af31f" y="228.499647"/>
      </g>
     </g>
     <g id="text_4">
      <!-- −8.0 -->
      <g transform="translate(381.4576 232.298866)scale(0.1 -0.1)">
       <use xlink:href="#DejaVuSans-2212"/>
       <use x="83.789062" xlink:href="#DejaVuSans-38"/>
       <use x="147.412109" xlink:href="#DejaVuSans-2e"/>
       <use x="179.199219" xlink:href="#DejaVuSans-30"/>
      </g>
     </g>
    </g>
    <g id="ytick_4">
     <g id="line2d_4">
      <g>
       <use style="stroke:#000000;stroke-width:0.8;" x="374.4576" xlink:href="#m26952af31f" y="197.266825"/>
      </g>
     </g>
     <g id="text_5">
      <!-- −7.5 -->
      <g transform="translate(381.4576 201.066044)scale(0.1 -0.1)">
       <use xlink:href="#DejaVuSans-2212"/>
       <use x="83.789062" xlink:href="#DejaVuSans-37"/>
       <use x="147.412109" xlink:href="#DejaVuSans-2e"/>
       <use x="179.199219" xlink:href="#DejaVuSans-35"/>
      </g>
     </g>
    </g>
    <g id="ytick_5">
     <g id="line2d_5">
      <g>
       <use style="stroke:#000000;stroke-width:0.8;" x="374.4576" xlink:href="#m26952af31f" y="166.034003"/>
      </g>
     </g>
     <g id="text_6">
      <!-- −7.0 -->
      <g transform="translate(381.4576 169.833222)scale(0.1 -0.1)">
       <use xlink:href="#DejaVuSans-2212"/>
       <use x="83.789062" xlink:href="#DejaVuSans-37"/>
       <use x="147.412109" xlink:href="#DejaVuSans-2e"/>
       <use x="179.199219" xlink:href="#DejaVuSans-30"/>
      </g>
     </g>
    </g>
    <g id="ytick_6">
     <g id="line2d_6">
      <g>
       <use style="stroke:#000000;stroke-width:0.8;" x="374.4576" xlink:href="#m26952af31f" y="134.801181"/>
      </g>
     </g>
     <g id="text_7">
      <!-- −6.5 -->
      <g transform="translate(381.4576 138.600399)scale(0.1 -0.1)">
       <use xlink:href="#DejaVuSans-2212"/>
       <use x="83.789062" xlink:href="#DejaVuSans-36"/>
       <use x="147.412109" xlink:href="#DejaVuSans-2e"/>
       <use x="179.199219" xlink:href="#DejaVuSans-35"/>
      </g>
     </g>
    </g>
    <g id="ytick_7">
     <g id="line2d_7">
      <g>
       <use style="stroke:#000000;stroke-width:0.8;" x="374.4576" xlink:href="#m26952af31f" y="103.568358"/>
      </g>
     </g>
     <g id="text_8">
      <!-- −6.0 -->
      <g transform="translate(381.4576 107.367577)scale(0.1 -0.1)">
       <use xlink:href="#DejaVuSans-2212"/>
       <use x="83.789062" xlink:href="#DejaVuSans-36"/>
       <use x="147.412109" xlink:href="#DejaVuSans-2e"/>
       <use x="179.199219" xlink:href="#DejaVuSans-30"/>
      </g>
     </g>
    </g>
    <g id="ytick_8">
     <g id="line2d_8">
      <g>
       <use style="stroke:#000000;stroke-width:0.8;" x="374.4576" xlink:href="#m26952af31f" y="72.335536"/>
      </g>
     </g>
     <g id="text_9">
      <!-- −5.5 -->
      <g transform="translate(381.4576 76.134755)scale(0.1 -0.1)">
       <use xlink:href="#DejaVuSans-2212"/>
       <use x="83.789062" xlink:href="#DejaVuSans-35"/>
       <use x="147.412109" xlink:href="#DejaVuSans-2e"/>
       <use x="179.199219" xlink:href="#DejaVuSans-35"/>
      </g>
     </g>
    </g>
    <g id="text_10">
     <!-- Energy [eV] -->
     <defs>
      <path d="M 54.890625 33.015625 
L 54.890625 0 
L 45.90625 0 
L 45.90625 32.71875 
Q 45.90625 40.484375 42.875 44.328125 
Q 39.84375 48.1875 33.796875 48.1875 
Q 26.515625 48.1875 22.3125 43.546875 
Q 18.109375 38.921875 18.109375 30.90625 
L 18.109375 0 
L 9.078125 0 
L 9.078125 54.6875 
L 18.109375 54.6875 
L 18.109375 46.1875 
Q 21.34375 51.125 25.703125 53.5625 
Q 30.078125 56 35.796875 56 
Q 45.21875 56 50.046875 50.171875 
Q 54.890625 44.34375 54.890625 33.015625 
z
" id="DejaVuSans-6e"/>
      <path d="M 45.40625 27.984375 
Q 45.40625 37.75 41.375 43.109375 
Q 37.359375 48.484375 30.078125 48.484375 
Q 22.859375 48.484375 18.828125 43.109375 
Q 14.796875 37.75 14.796875 27.984375 
Q 14.796875 18.265625 18.828125 12.890625 
Q 22.859375 7.515625 30.078125 7.515625 
Q 37.359375 7.515625 41.375 12.890625 
Q 45.40625 18.265625 45.40625 27.984375 
z
M 54.390625 6.78125 
Q 54.390625 -7.171875 48.1875 -13.984375 
Q 42 -20.796875 29.203125 -20.796875 
Q 24.46875 -20.796875 20.265625 -20.09375 
Q 16.0625 -19.390625 12.109375 -17.921875 
L 12.109375 -9.1875 
Q 16.0625 -11.328125 19.921875 -12.34375 
Q 23.78125 -13.375 27.78125 -13.375 
Q 36.625 -13.375 41.015625 -8.765625 
Q 45.40625 -4.15625 45.40625 5.171875 
L 45.40625 9.625 
Q 42.625 4.78125 38.28125 2.390625 
Q 33.9375 0 27.875 0 
Q 17.828125 0 11.671875 7.65625 
Q 5.515625 15.328125 5.515625 27.984375 
Q 5.515625 40.671875 11.671875 48.328125 
Q 17.828125 56 27.875 56 
Q 33.9375 56 38.28125 53.609375 
Q 42.625 51.21875 45.40625 46.390625 
L 45.40625 54.6875 
L 54.390625 54.6875 
z
" id="DejaVuSans-67"/>
      <path d="M 32.171875 -5.078125 
Q 28.375 -14.84375 24.75 -17.8125 
Q 21.140625 -20.796875 15.09375 -20.796875 
L 7.90625 -20.796875 
L 7.90625 -13.28125 
L 13.1875 -13.28125 
Q 16.890625 -13.28125 18.9375 -11.515625 
Q 21 -9.765625 23.484375 -3.21875 
L 25.09375 0.875 
L 2.984375 54.6875 
L 12.5 54.6875 
L 29.59375 11.921875 
L 46.6875 54.6875 
L 56.203125 54.6875 
z
" id="DejaVuSans-79"/>
      <path d="M 8.59375 75.984375 
L 29.296875 75.984375 
L 29.296875 69 
L 17.578125 69 
L 17.578125 -6.203125 
L 29.296875 -6.203125 
L 29.296875 -13.1875 
L 8.59375 -13.1875 
z
" id="DejaVuSans-5b"/>
      <path d="M 30.421875 75.984375 
L 30.421875 -13.1875 
L 9.71875 -13.1875 
L 9.71875 -6.203125 
L 21.390625 -6.203125 
L 21.390625 69 
L 9.71875 69 
L 9.71875 75.984375 
z
" id="DejaVuSans-5d"/>
     </defs>
     <g transform="translate(417.33885 204.108469)rotate(-90)scale(0.1 -0.1)">
      <use xlink:href="#DejaVuSans-45"/>
      <use x="63.183594" xlink:href="#DejaVuSans-6e"/>
      <use x="126.5625" xlink:href="#DejaVuSans-65"/>
      <use x="188.085938" xlink:href="#DejaVuSans-72"/>
      <use x="229.183594" xlink:href="#DejaVuSans-67"/>
      <use x="292.660156" xlink:href="#DejaVuSans-79"/>
      <use x="351.839844" xlink:href="#DejaVuSans-20"/>
      <use x="383.626953" xlink:href="#DejaVuSans-5b"/>
      <use x="422.640625" xlink:href="#DejaVuSans-65"/>
      <use x="484.164062" xlink:href="#DejaVuSans-56"/>
      <use x="552.572266" xlink:href="#DejaVuSans-5d"/>
     </g>
    </g>
   </g>
   <g id="patch_3">
    <path d="M 361.152 307.584 
L 361.152 306.5445 
L 361.152 42.5115 
L 361.152 41.472 
L 374.4576 41.472 
L 374.4576 42.5115 
L 374.4576 306.5445 
L 374.4576 307.584 
z
" style="fill:none;stroke:#000000;stroke-linejoin:miter;stroke-width:0.8;"/>
   </g>
  </g>
 </g>
 <defs>
  <clipPath id="p7ab116987d">
   <rect height="266.112" width="285.696" x="57.6" y="41.472"/>
  </clipPath>
  <clipPath id="pc4155f3699">
   <rect height="266.112" width="13.3056" x="361.152" y="41.472"/>
  </clipPath>
 </defs>
</svg>
