<?xml version="1.0" encoding="utf-8" standalone="no"?>
<!DOCTYPE svg PUBLIC "-//W3C//DTD SVG 1.1//EN"
  "http://www.w3.org/Graphics/SVG/1.1/DTD/svg11.dtd">
<!-- Created with matplotlib (http://matplotlib.org/) -->
<svg height="345.6pt" version="1.1" viewBox="0 0 460.8 345.6" width="460.8pt" xmlns="http://www.w3.org/2000/svg" xmlns:xlink="http://www.w3.org/1999/xlink">
 <defs>
  <style type="text/css">
*{stroke-linecap:butt;stroke-linejoin:round;}
  </style>
 </defs>
 <g id="figure_1">
  <g id="patch_1">
   <path d="M 0 345.6 
L 460.8 345.6 
L 460.8 0 
L 0 0 
z
" style="fill:#ffffff;"/>
  </g>
  <g id="axes_1">
   <g id="CircleCollection_1">
    <path clip-path="url(#pbe9fad6978)" d="M 104.909103 103.316119 
C 106.789814 103.316119 108.593749 102.568905 109.923613 101.239041 
C 111.253476 99.909178 112.000691 98.105242 112.000691 96.224531 
C 112.000691 94.34382 111.253476 92.539885 109.923613 91.210022 
C 108.593749 89.880158 106.789814 89.132944 104.909103 89.132944 
C 103.028392 89.132944 101.224457 89.880158 99.894593 91.210022 
C 98.564729 92.539885 97.817515 94.34382 97.817515 96.224531 
C 97.817515 98.105242 98.564729 99.909178 99.894593 101.239041 
C 101.224457 102.568905 103.028392 103.316119 104.909103 103.316119 
z
" style="fill:#2e6d8e;"/>
    <path clip-path="url(#pbe9fad6978)" d="M 188.268956 114.117459 
C 190.052997 114.117459 191.764208 113.408652 193.025716 112.147145 
C 194.287223 110.885637 194.99603 109.174426 194.99603 107.390385 
C 194.99603 105.606345 194.287223 103.895134 193.025716 102.633626 
C 191.764208 101.372119 190.052997 100.663312 188.268956 100.663312 
C 186.484916 100.663312 184.773705 101.372119 183.512197 102.633626 
C 182.25069 103.895134 181.541883 105.606345 181.541883 107.390385 
C 181.541883 109.174426 182.25069 110.885637 183.512197 112.147145 
C 184.773705 113.408652 186.484916 114.117459 188.268956 114.117459 
z
" style="fill:#32658e;"/>
    <path clip-path="url(#pbe9fad6978)" d="M 147.525415 230.315693 
C 149.376969 230.315693 151.152938 229.580063 152.462185 228.270816 
C 153.771431 226.961569 154.507061 225.185601 154.507061 223.334046 
C 154.507061 221.482492 153.771431 219.706523 152.462185 218.397277 
C 151.152938 217.08803 149.376969 216.3524 147.525415 216.3524 
C 145.673861 216.3524 143.897892 217.08803 142.588646 218.397277 
C 141.279399 219.706523 140.543769 221.482492 140.543769 223.334046 
C 140.543769 225.185601 141.279399 226.961569 142.588646 228.270816 
C 143.897892 229.580063 145.673861 230.315693 147.525415 230.315693 
z
" style="fill:#471164;"/>
    <path clip-path="url(#pbe9fad6978)" d="M 210.019649 71.592086 
C 211.794972 71.592086 213.497822 70.886743 214.753165 69.631399 
C 216.008508 68.376056 216.713852 66.673206 216.713852 64.897883 
C 216.713852 63.12256 216.008508 61.41971 214.753165 60.164367 
C 213.497822 58.909024 211.794972 58.20368 210.019649 58.20368 
C 208.244325 58.20368 206.541476 58.909024 205.286133 60.164367 
C 204.030789 61.41971 203.325446 63.12256 203.325446 64.897883 
C 203.325446 66.673206 204.030789 68.376056 205.286133 69.631399 
C 206.541476 70.886743 208.244325 71.592086 210.019649 71.592086 
z
" style="fill:#355f8d;"/>
    <path clip-path="url(#pbe9fad6978)" d="M 167.583531 74.956826 
C 169.392042 74.956826 171.126724 74.238297 172.405534 72.959486 
C 173.684345 71.680676 174.402873 69.945994 174.402873 68.137483 
C 174.402873 66.328972 173.684345 64.59429 172.405534 63.31548 
C 171.126724 62.036669 169.392042 61.31814 167.583531 61.31814 
C 165.77502 61.31814 164.040338 62.036669 162.761527 63.31548 
C 161.482717 64.59429 160.764188 66.328972 160.764188 68.137483 
C 160.764188 69.945994 161.482717 71.680676 162.761527 72.959486 
C 164.040338 74.238297 165.77502 74.956826 167.583531 74.956826 
z
" style="fill:#31688e;"/>
    <path clip-path="url(#pbe9fad6978)" d="M 106.718622 228.448693 
C 108.614977 228.448693 110.433918 227.695263 111.774844 226.354337 
C 113.11577 225.013411 113.8692 223.19447 113.8692 221.298115 
C 113.8692 219.401759 113.11577 217.582818 111.774844 216.241892 
C 110.433918 214.900966 108.614977 214.147536 106.718622 214.147536 
C 104.822266 214.147536 103.003325 214.900966 101.662399 216.241892 
C 100.321473 217.582818 99.568043 219.401759 99.568043 221.298115 
C 99.568043 223.19447 100.321473 225.013411 101.662399 226.354337 
C 103.003325 227.695263 104.822266 228.448693 106.718622 228.448693 
z
" style="fill:#440154;"/>
    <path clip-path="url(#pbe9fad6978)" d="M 286.719723 80.726805 
C 288.456838 80.726805 290.12304 80.036642 291.351366 78.808315 
C 292.579693 77.579989 293.269856 75.913787 293.269856 74.176672 
C 293.269856 72.439556 292.579693 70.773355 291.351366 69.545028 
C 290.12304 68.316702 288.456838 67.626539 286.719723 67.626539 
C 284.982607 67.626539 283.316405 68.316702 282.088079 69.545028 
C 280.859753 70.773355 280.16959 72.439556 280.16959 74.176672 
C 280.16959 75.913787 280.859753 77.579989 282.088079 78.808315 
C 283.316405 80.036642 284.982607 80.726805 286.719723 80.726805 
z
" style="fill:#34618d;"/>
    <path clip-path="url(#pbe9fad6978)" d="M 288.712036 260.505448 
C 290.47924 260.505448 292.174302 259.803331 293.423904 258.553729 
C 294.673506 257.304127 295.375623 255.609065 295.375623 253.841861 
C 295.375623 252.074657 294.673506 250.379596 293.423904 249.129994 
C 292.174302 247.880392 290.47924 247.178274 288.712036 247.178274 
C 286.944832 247.178274 285.24977 247.880392 284.000168 249.129994 
C 282.750567 250.379596 282.048449 252.074657 282.048449 253.841861 
C 282.048449 255.609065 282.750567 257.304127 284.000168 258.553729 
C 285.24977 259.803331 286.944832 260.505448 288.712036 260.505448 
z
" style="fill:#31668e;"/>
    <path clip-path="url(#pbe9fad6978)" d="M 176.550685 265.943958 
C 178.392213 265.943958 180.158564 265.212311 181.460721 263.910154 
C 182.762878 262.607997 183.494525 260.841646 183.494525 259.000118 
C 183.494525 257.15859 182.762878 255.392239 181.460721 254.090082 
C 180.158564 252.787925 178.392213 252.056278 176.550685 252.056278 
C 174.709157 252.056278 172.942806 252.787925 171.640649 254.090082 
C 170.338492 255.392239 169.606845 257.15859 169.606845 259.000118 
C 169.606845 260.841646 170.338492 262.607997 171.640649 263.910154 
C 172.942806 265.212311 174.709157 265.943958 176.550685 265.943958 
z
" style="fill:#218e8d;"/>
    <path clip-path="url(#pbe9fad6978)" d="M 313.810926 226.423193 
C 315.556247 226.423193 317.230319 225.729769 318.464447 224.495641 
C 319.698575 223.261513 320.391999 221.587441 320.391999 219.84212 
C 320.391999 218.096799 319.698575 216.422727 318.464447 215.188599 
C 317.230319 213.95447 315.556247 213.261047 313.810926 213.261047 
C 312.065605 213.261047 310.391533 213.95447 309.157405 215.188599 
C 307.923277 216.422727 307.229853 218.096799 307.229853 219.84212 
C 307.229853 221.587441 307.923277 223.261513 309.157405 224.495641 
C 310.391533 225.729769 312.065605 226.423193 313.810926 226.423193 
z
" style="fill:#32648e;"/>
    <path clip-path="url(#pbe9fad6978)" d="M 212.825085 280.138456 
C 214.644897 280.138456 216.390419 279.415437 217.67722 278.128636 
C 218.964022 276.841834 219.68704 275.096312 219.68704 273.276501 
C 219.68704 271.456689 218.964022 269.711167 217.67722 268.424365 
C 216.390419 267.137564 214.644897 266.414545 212.825085 266.414545 
C 211.005273 266.414545 209.259751 267.137564 207.97295 268.424365 
C 206.686148 269.711167 205.96313 271.456689 205.96313 273.276501 
C 205.96313 275.096312 206.686148 276.841834 207.97295 278.128636 
C 209.259751 279.415437 211.005273 280.138456 212.825085 280.138456 
z
" style="fill:#355f8d;"/>
    <path clip-path="url(#pbe9fad6978)" d="M 71.062234 302.194273 
C 73.013756 302.194273 74.885611 301.418925 76.265546 300.03899 
C 77.64548 298.659056 78.420828 296.7872 78.420828 294.835678 
C 78.420828 292.884156 77.64548 291.012301 76.265546 289.632366 
C 74.885611 288.252432 73.013756 287.477084 71.062234 287.477084 
C 69.110712 287.477084 67.238856 288.252432 65.858922 289.632366 
C 64.478987 291.012301 63.703639 292.884156 63.703639 294.835678 
C 63.703639 296.7872 64.478987 298.659056 65.858922 300.03899 
C 67.238856 301.418925 69.110712 302.194273 71.062234 302.194273 
z
" style="fill:#fde725;"/>
    <path clip-path="url(#pbe9fad6978)" d="M 87.520133 265.991086 
C 89.446736 265.991086 91.29469 265.225639 92.657004 263.863325 
C 94.019319 262.50101 94.784766 260.653056 94.784766 258.726453 
C 94.784766 256.79985 94.019319 254.951896 92.657004 253.589582 
C 91.29469 252.227267 89.446736 251.46182 87.520133 251.46182 
C 85.59353 251.46182 83.745576 252.227267 82.383261 253.589582 
C 81.020947 254.951896 80.2555 256.79985 80.2555 258.726453 
C 80.2555 260.653056 81.020947 262.50101 82.383261 263.863325 
C 83.745576 265.225639 85.59353 265.991086 87.520133 265.991086 
z
" style="fill:#25848e;"/>
    <path clip-path="url(#pbe9fad6978)" d="M 310.882323 107.815202 
C 312.557402 107.815202 314.164099 107.149686 315.348559 105.965227 
C 316.533019 104.780767 317.198534 103.17407 317.198534 101.498991 
C 317.198534 99.823912 316.533019 98.217214 315.348559 97.032755 
C 314.164099 95.848295 312.557402 95.182779 310.882323 95.182779 
C 309.207244 95.182779 307.600546 95.848295 306.416087 97.032755 
C 305.231627 98.217214 304.566111 99.823912 304.566111 101.498991 
C 304.566111 103.17407 305.231627 104.780767 306.416087 105.965227 
C 307.600546 107.149686 309.207244 107.815202 310.882323 107.815202 
z
" style="fill:#37b878;"/>
    <path clip-path="url(#pbe9fad6978)" d="M 324.369489 144.796955 
C 326.096258 144.796955 327.752535 144.110903 328.973544 142.889893 
C 330.194554 141.668883 330.880606 140.012607 330.880606 138.285838 
C 330.880606 136.55907 330.194554 134.902793 328.973544 133.681783 
C 327.752535 132.460774 326.096258 131.774721 324.369489 131.774721 
C 322.642721 131.774721 320.986444 132.460774 319.765435 133.681783 
C 318.544425 134.902793 317.858373 136.55907 317.858373 138.285838 
C 317.858373 140.012607 318.544425 141.668883 319.765435 142.889893 
C 320.986444 144.110903 322.642721 144.796955 324.369489 144.796955 
z
" style="fill:#3e4c8a;"/>
    <path clip-path="url(#pbe9fad6978)" d="M 314.326893 111.638701 
C 316.114006 111.638701 317.828164 110.928673 319.091844 109.664993 
C 320.355524 108.401314 321.065551 106.687156 321.065551 104.900042 
C 321.065551 103.112929 320.355524 101.398771 319.091844 100.135091 
C 317.828164 98.871412 316.114006 98.161384 314.326893 98.161384 
C 312.53978 98.161384 310.825621 98.871412 309.561942 100.135091 
C 308.298262 101.398771 307.588234 103.112929 307.588234 104.900042 
C 307.588234 106.687156 308.298262 108.401314 309.561942 109.664993 
C 310.825621 110.928673 312.53978 111.638701 314.326893 111.638701 
z
" style="fill:#3dbc74;"/>
    <path clip-path="url(#pbe9fad6978)" d="M 90.846947 144.016692 
C 92.746751 144.016692 94.569 143.261891 95.912365 141.918527 
C 97.255729 140.575162 98.010529 138.752913 98.010529 136.853109 
C 98.010529 134.953305 97.255729 133.131055 95.912365 131.787691 
C 94.569 130.444326 92.746751 129.689526 90.846947 129.689526 
C 88.947142 129.689526 87.124893 130.444326 85.781529 131.787691 
C 84.438164 133.131055 83.683364 134.953305 83.683364 136.853109 
C 83.683364 138.752913 84.438164 140.575162 85.781529 141.918527 
C 87.124893 143.261891 88.947142 144.016692 90.846947 144.016692 
z
" style="fill:#34608d;"/>
    <path clip-path="url(#pbe9fad6978)" d="M 182.176702 157.620323 
C 183.969293 157.620323 185.688706 156.908119 186.95626 155.640566 
C 188.223813 154.373012 188.936018 152.653599 188.936018 150.861008 
C 188.936018 149.068416 188.223813 147.349003 186.95626 146.08145 
C 185.688706 144.813896 183.969293 144.101692 182.176702 144.101692 
C 180.38411 144.101692 178.664697 144.813896 177.397144 146.08145 
C 176.12959 147.349003 175.417386 149.068416 175.417386 150.861008 
C 175.417386 152.653599 176.12959 154.373012 177.397144 155.640566 
C 178.664697 156.908119 180.38411 157.620323 182.176702 157.620323 
z
" style="fill:#375a8c;"/>
    <path clip-path="url(#pbe9fad6978)" d="M 249.556922 60.73872 
C 251.303766 60.73872 252.979299 60.044692 254.214504 58.809487 
C 255.449709 57.574282 256.143737 55.898749 256.143737 54.151905 
C 256.143737 52.405061 255.449709 50.729529 254.214504 49.494324 
C 252.979299 48.259119 251.303766 47.56509 249.556922 47.56509 
C 247.810078 47.56509 246.134546 48.259119 244.899341 49.494324 
C 243.664136 50.729529 242.970107 52.405061 242.970107 54.151905 
C 242.970107 55.898749 243.664136 57.574282 244.899341 58.809487 
C 246.134546 60.044692 247.810078 60.73872 249.556922 60.73872 
z
" style="fill:#29798e;"/>
    <path clip-path="url(#pbe9fad6978)" d="M 165.49096 192.921553 
C 167.308557 192.921553 169.051955 192.199414 170.337191 190.914179 
C 171.622426 189.628943 172.344565 187.885545 172.344565 186.067948 
C 172.344565 184.250351 171.622426 182.506953 170.337191 181.221718 
C 169.051955 179.936482 167.308557 179.214343 165.49096 179.214343 
C 163.673363 179.214343 161.929965 179.936482 160.64473 181.221718 
C 159.359494 182.506953 158.637355 184.250351 158.637355 186.067948 
C 158.637355 187.885545 159.359494 189.628943 160.64473 190.914179 
C 161.929965 192.199414 163.673363 192.921553 165.49096 192.921553 
z
" style="fill:#2c738e;"/>
    <path clip-path="url(#pbe9fad6978)" d="M 329.888952 189.612282 
C 331.614246 189.612282 333.269109 188.926815 334.489076 187.706848 
C 335.709043 186.486881 336.394509 184.832019 336.394509 183.106725 
C 336.394509 181.381431 335.709043 179.726569 334.489076 178.506602 
C 333.269109 177.286635 331.614246 176.601168 329.888952 176.601168 
C 328.163658 176.601168 326.508796 177.286635 325.288829 178.506602 
C 324.068862 179.726569 323.383395 181.381431 323.383395 183.106725 
C 323.383395 184.832019 324.068862 186.486881 325.288829 187.706848 
C 326.508796 188.926815 328.163658 189.612282 329.888952 189.612282 
z
" style="fill:#2c728e;"/>
    <path clip-path="url(#pbe9fad6978)" d="M 253.763545 276.592582 
C 255.55797 276.592582 257.279142 275.87965 258.547993 274.610799 
C 259.816843 273.341949 260.529776 271.620777 260.529776 269.826351 
C 260.529776 268.031926 259.816843 266.310753 258.547993 265.041903 
C 257.279142 263.773053 255.55797 263.06012 253.763545 263.06012 
C 251.969119 263.06012 250.247947 263.773053 248.979097 265.041903 
C 247.710246 266.310753 246.997313 268.031926 246.997313 269.826351 
C 246.997313 271.620777 247.710246 273.341949 248.979097 274.610799 
C 250.247947 275.87965 251.969119 276.592582 253.763545 276.592582 
z
" style="fill:#30698e;"/>
    <path clip-path="url(#pbe9fad6978)" d="M 129.183509 73.353102 
C 131.036772 73.353102 132.814379 72.616793 134.124834 71.306338 
C 135.435289 69.995883 136.171598 68.218275 136.171598 66.365012 
C 136.171598 64.511749 135.435289 62.734142 134.124834 61.423687 
C 132.814379 60.113232 131.036772 59.376923 129.183509 59.376923 
C 127.330246 59.376923 125.552638 60.113232 124.242183 61.423687 
C 122.931728 62.734142 122.195419 64.511749 122.195419 66.365012 
C 122.195419 68.218275 122.931728 69.995883 124.242183 71.306338 
C 125.552638 72.616793 127.330246 73.353102 129.183509 73.353102 
z
" style="fill:#277f8e;"/>
    <path clip-path="url(#pbe9fad6978)" d="M 90.556042 185.136415 
C 92.461883 185.136415 94.289923 184.379217 95.637556 183.031583 
C 96.985189 181.68395 97.742388 179.85591 97.742388 177.950069 
C 97.742388 176.044228 96.985189 174.216188 95.637556 172.868555 
C 94.289923 171.520922 92.461883 170.763723 90.556042 170.763723 
C 88.6502 170.763723 86.822161 171.520922 85.474528 172.868555 
C 84.126894 174.216188 83.369696 176.044228 83.369696 177.950069 
C 83.369696 179.85591 84.126894 181.68395 85.474528 183.031583 
C 86.822161 184.379217 88.6502 185.136415 90.556042 185.136415 
z
" style="fill:#238a8d;"/>
   </g>
   <g id="text_1">
    <!-- Structure #5457, $E_N$=-178.67eV, ΔE=-0.12eV -->
    <defs>
     <path d="M 53.515625 70.515625 
L 53.515625 60.890625 
Q 47.90625 63.578125 42.921875 64.890625 
Q 37.9375 66.21875 33.296875 66.21875 
Q 25.25 66.21875 20.875 63.09375 
Q 16.5 59.96875 16.5 54.203125 
Q 16.5 49.359375 19.40625 46.890625 
Q 22.3125 44.4375 30.421875 42.921875 
L 36.375 41.703125 
Q 47.40625 39.59375 52.65625 34.296875 
Q 57.90625 29 57.90625 20.125 
Q 57.90625 9.515625 50.796875 4.046875 
Q 43.703125 -1.421875 29.984375 -1.421875 
Q 24.8125 -1.421875 18.96875 -0.25 
Q 13.140625 0.921875 6.890625 3.21875 
L 6.890625 13.375 
Q 12.890625 10.015625 18.65625 8.296875 
Q 24.421875 6.59375 29.984375 6.59375 
Q 38.421875 6.59375 43.015625 9.90625 
Q 47.609375 13.234375 47.609375 19.390625 
Q 47.609375 24.75 44.3125 27.78125 
Q 41.015625 30.8125 33.5 32.328125 
L 27.484375 33.5 
Q 16.453125 35.6875 11.515625 40.375 
Q 6.59375 45.0625 6.59375 53.421875 
Q 6.59375 63.09375 13.40625 68.65625 
Q 20.21875 74.21875 32.171875 74.21875 
Q 37.3125 74.21875 42.625 73.28125 
Q 47.953125 72.359375 53.515625 70.515625 
z
" id="DejaVuSans-53"/>
     <path d="M 18.3125 70.21875 
L 18.3125 54.6875 
L 36.8125 54.6875 
L 36.8125 47.703125 
L 18.3125 47.703125 
L 18.3125 18.015625 
Q 18.3125 11.328125 20.140625 9.421875 
Q 21.96875 7.515625 27.59375 7.515625 
L 36.8125 7.515625 
L 36.8125 0 
L 27.59375 0 
Q 17.1875 0 13.234375 3.875 
Q 9.28125 7.765625 9.28125 18.015625 
L 9.28125 47.703125 
L 2.6875 47.703125 
L 2.6875 54.6875 
L 9.28125 54.6875 
L 9.28125 70.21875 
z
" id="DejaVuSans-74"/>
     <path d="M 41.109375 46.296875 
Q 39.59375 47.171875 37.8125 47.578125 
Q 36.03125 48 33.890625 48 
Q 26.265625 48 22.1875 43.046875 
Q 18.109375 38.09375 18.109375 28.8125 
L 18.109375 0 
L 9.078125 0 
L 9.078125 54.6875 
L 18.109375 54.6875 
L 18.109375 46.1875 
Q 20.953125 51.171875 25.484375 53.578125 
Q 30.03125 56 36.53125 56 
Q 37.453125 56 38.578125 55.875 
Q 39.703125 55.765625 41.0625 55.515625 
z
" id="DejaVuSans-72"/>
     <path d="M 8.5 21.578125 
L 8.5 54.6875 
L 17.484375 54.6875 
L 17.484375 21.921875 
Q 17.484375 14.15625 20.5 10.265625 
Q 23.53125 6.390625 29.59375 6.390625 
Q 36.859375 6.390625 41.078125 11.03125 
Q 45.3125 15.671875 45.3125 23.6875 
L 45.3125 54.6875 
L 54.296875 54.6875 
L 54.296875 0 
L 45.3125 0 
L 45.3125 8.40625 
Q 42.046875 3.421875 37.71875 1 
Q 33.40625 -1.421875 27.6875 -1.421875 
Q 18.265625 -1.421875 13.375 4.4375 
Q 8.5 10.296875 8.5 21.578125 
z
M 31.109375 56 
z
" id="DejaVuSans-75"/>
     <path d="M 48.78125 52.59375 
L 48.78125 44.1875 
Q 44.96875 46.296875 41.140625 47.34375 
Q 37.3125 48.390625 33.40625 48.390625 
Q 24.65625 48.390625 19.8125 42.84375 
Q 14.984375 37.3125 14.984375 27.296875 
Q 14.984375 17.28125 19.8125 11.734375 
Q 24.65625 6.203125 33.40625 6.203125 
Q 37.3125 6.203125 41.140625 7.25 
Q 44.96875 8.296875 48.78125 10.40625 
L 48.78125 2.09375 
Q 45.015625 0.34375 40.984375 -0.53125 
Q 36.96875 -1.421875 32.421875 -1.421875 
Q 20.0625 -1.421875 12.78125 6.34375 
Q 5.515625 14.109375 5.515625 27.296875 
Q 5.515625 40.671875 12.859375 48.328125 
Q 20.21875 56 33.015625 56 
Q 37.15625 56 41.109375 55.140625 
Q 45.0625 54.296875 48.78125 52.59375 
z
" id="DejaVuSans-63"/>
     <path d="M 56.203125 29.59375 
L 56.203125 25.203125 
L 14.890625 25.203125 
Q 15.484375 15.921875 20.484375 11.0625 
Q 25.484375 6.203125 34.421875 6.203125 
Q 39.59375 6.203125 44.453125 7.46875 
Q 49.3125 8.734375 54.109375 11.28125 
L 54.109375 2.78125 
Q 49.265625 0.734375 44.1875 -0.34375 
Q 39.109375 -1.421875 33.890625 -1.421875 
Q 20.796875 -1.421875 13.15625 6.1875 
Q 5.515625 13.8125 5.515625 26.8125 
Q 5.515625 40.234375 12.765625 48.109375 
Q 20.015625 56 32.328125 56 
Q 43.359375 56 49.78125 48.890625 
Q 56.203125 41.796875 56.203125 29.59375 
z
M 47.21875 32.234375 
Q 47.125 39.59375 43.09375 43.984375 
Q 39.0625 48.390625 32.421875 48.390625 
Q 24.90625 48.390625 20.390625 44.140625 
Q 15.875 39.890625 15.1875 32.171875 
z
" id="DejaVuSans-65"/>
     <path id="DejaVuSans-20"/>
     <path d="M 51.125 44 
L 36.921875 44 
L 32.8125 27.6875 
L 47.125 27.6875 
z
M 43.796875 71.78125 
L 38.71875 51.515625 
L 52.984375 51.515625 
L 58.109375 71.78125 
L 65.921875 71.78125 
L 60.890625 51.515625 
L 76.125 51.515625 
L 76.125 44 
L 58.984375 44 
L 54.984375 27.6875 
L 70.515625 27.6875 
L 70.515625 20.21875 
L 53.078125 20.21875 
L 48 0 
L 40.1875 0 
L 45.21875 20.21875 
L 30.90625 20.21875 
L 25.875 0 
L 18.015625 0 
L 23.09375 20.21875 
L 7.71875 20.21875 
L 7.71875 27.6875 
L 24.90625 27.6875 
L 29 44 
L 13.28125 44 
L 13.28125 51.515625 
L 30.90625 51.515625 
L 35.890625 71.78125 
z
" id="DejaVuSans-23"/>
     <path d="M 10.796875 72.90625 
L 49.515625 72.90625 
L 49.515625 64.59375 
L 19.828125 64.59375 
L 19.828125 46.734375 
Q 21.96875 47.46875 24.109375 47.828125 
Q 26.265625 48.1875 28.421875 48.1875 
Q 40.625 48.1875 47.75 41.5 
Q 54.890625 34.8125 54.890625 23.390625 
Q 54.890625 11.625 47.5625 5.09375 
Q 40.234375 -1.421875 26.90625 -1.421875 
Q 22.3125 -1.421875 17.546875 -0.640625 
Q 12.796875 0.140625 7.71875 1.703125 
L 7.71875 11.625 
Q 12.109375 9.234375 16.796875 8.0625 
Q 21.484375 6.890625 26.703125 6.890625 
Q 35.15625 6.890625 40.078125 11.328125 
Q 45.015625 15.765625 45.015625 23.390625 
Q 45.015625 31 40.078125 35.4375 
Q 35.15625 39.890625 26.703125 39.890625 
Q 22.75 39.890625 18.8125 39.015625 
Q 14.890625 38.140625 10.796875 36.28125 
z
" id="DejaVuSans-35"/>
     <path d="M 37.796875 64.3125 
L 12.890625 25.390625 
L 37.796875 25.390625 
z
M 35.203125 72.90625 
L 47.609375 72.90625 
L 47.609375 25.390625 
L 58.015625 25.390625 
L 58.015625 17.1875 
L 47.609375 17.1875 
L 47.609375 0 
L 37.796875 0 
L 37.796875 17.1875 
L 4.890625 17.1875 
L 4.890625 26.703125 
z
" id="DejaVuSans-34"/>
     <path d="M 8.203125 72.90625 
L 55.078125 72.90625 
L 55.078125 68.703125 
L 28.609375 0 
L 18.3125 0 
L 43.21875 64.59375 
L 8.203125 64.59375 
z
" id="DejaVuSans-37"/>
     <path d="M 11.71875 12.40625 
L 22.015625 12.40625 
L 22.015625 4 
L 14.015625 -11.625 
L 7.71875 -11.625 
L 11.71875 4 
z
" id="DejaVuSans-2c"/>
     <path d="M 16.890625 72.90625 
L 62.984375 72.90625 
L 61.375 64.59375 
L 25.09375 64.59375 
L 20.90625 43.015625 
L 55.71875 43.015625 
L 54.109375 34.71875 
L 19.28125 34.71875 
L 14.203125 8.296875 
L 51.3125 8.296875 
L 49.703125 0 
L 2.6875 0 
z
" id="DejaVuSans-Oblique-45"/>
     <path d="M 16.890625 72.90625 
L 30.171875 72.90625 
L 50.296875 10.40625 
L 62.5 72.90625 
L 72.125 72.90625 
L 57.90625 0 
L 44.578125 0 
L 24.515625 62.890625 
L 12.3125 0 
L 2.6875 0 
z
" id="DejaVuSans-Oblique-4e"/>
     <path d="M 10.59375 45.40625 
L 73.1875 45.40625 
L 73.1875 37.203125 
L 10.59375 37.203125 
z
M 10.59375 25.484375 
L 73.1875 25.484375 
L 73.1875 17.1875 
L 10.59375 17.1875 
z
" id="DejaVuSans-3d"/>
     <path d="M 4.890625 31.390625 
L 31.203125 31.390625 
L 31.203125 23.390625 
L 4.890625 23.390625 
z
" id="DejaVuSans-2d"/>
     <path d="M 12.40625 8.296875 
L 28.515625 8.296875 
L 28.515625 63.921875 
L 10.984375 60.40625 
L 10.984375 69.390625 
L 28.421875 72.90625 
L 38.28125 72.90625 
L 38.28125 8.296875 
L 54.390625 8.296875 
L 54.390625 0 
L 12.40625 0 
z
" id="DejaVuSans-31"/>
     <path d="M 31.78125 34.625 
Q 24.75 34.625 20.71875 30.859375 
Q 16.703125 27.09375 16.703125 20.515625 
Q 16.703125 13.921875 20.71875 10.15625 
Q 24.75 6.390625 31.78125 6.390625 
Q 38.8125 6.390625 42.859375 10.171875 
Q 46.921875 13.96875 46.921875 20.515625 
Q 46.921875 27.09375 42.890625 30.859375 
Q 38.875 34.625 31.78125 34.625 
z
M 21.921875 38.8125 
Q 15.578125 40.375 12.03125 44.71875 
Q 8.5 49.078125 8.5 55.328125 
Q 8.5 64.0625 14.71875 69.140625 
Q 20.953125 74.21875 31.78125 74.21875 
Q 42.671875 74.21875 48.875 69.140625 
Q 55.078125 64.0625 55.078125 55.328125 
Q 55.078125 49.078125 51.53125 44.71875 
Q 48 40.375 41.703125 38.8125 
Q 48.828125 37.15625 52.796875 32.3125 
Q 56.78125 27.484375 56.78125 20.515625 
Q 56.78125 9.90625 50.3125 4.234375 
Q 43.84375 -1.421875 31.78125 -1.421875 
Q 19.734375 -1.421875 13.25 4.234375 
Q 6.78125 9.90625 6.78125 20.515625 
Q 6.78125 27.484375 10.78125 32.3125 
Q 14.796875 37.15625 21.921875 38.8125 
z
M 18.3125 54.390625 
Q 18.3125 48.734375 21.84375 45.5625 
Q 25.390625 42.390625 31.78125 42.390625 
Q 38.140625 42.390625 41.71875 45.5625 
Q 45.3125 48.734375 45.3125 54.390625 
Q 45.3125 60.0625 41.71875 63.234375 
Q 38.140625 66.40625 31.78125 66.40625 
Q 25.390625 66.40625 21.84375 63.234375 
Q 18.3125 60.0625 18.3125 54.390625 
z
" id="DejaVuSans-38"/>
     <path d="M 10.6875 12.40625 
L 21 12.40625 
L 21 0 
L 10.6875 0 
z
" id="DejaVuSans-2e"/>
     <path d="M 33.015625 40.375 
Q 26.375 40.375 22.484375 35.828125 
Q 18.609375 31.296875 18.609375 23.390625 
Q 18.609375 15.53125 22.484375 10.953125 
Q 26.375 6.390625 33.015625 6.390625 
Q 39.65625 6.390625 43.53125 10.953125 
Q 47.40625 15.53125 47.40625 23.390625 
Q 47.40625 31.296875 43.53125 35.828125 
Q 39.65625 40.375 33.015625 40.375 
z
M 52.59375 71.296875 
L 52.59375 62.3125 
Q 48.875 64.0625 45.09375 64.984375 
Q 41.3125 65.921875 37.59375 65.921875 
Q 27.828125 65.921875 22.671875 59.328125 
Q 17.53125 52.734375 16.796875 39.40625 
Q 19.671875 43.65625 24.015625 45.921875 
Q 28.375 48.1875 33.59375 48.1875 
Q 44.578125 48.1875 50.953125 41.515625 
Q 57.328125 34.859375 57.328125 23.390625 
Q 57.328125 12.15625 50.6875 5.359375 
Q 44.046875 -1.421875 33.015625 -1.421875 
Q 20.359375 -1.421875 13.671875 8.265625 
Q 6.984375 17.96875 6.984375 36.375 
Q 6.984375 53.65625 15.1875 63.9375 
Q 23.390625 74.21875 37.203125 74.21875 
Q 40.921875 74.21875 44.703125 73.484375 
Q 48.484375 72.75 52.59375 71.296875 
z
" id="DejaVuSans-36"/>
     <path d="M 28.609375 0 
L 0.78125 72.90625 
L 11.078125 72.90625 
L 34.1875 11.53125 
L 57.328125 72.90625 
L 67.578125 72.90625 
L 39.796875 0 
z
" id="DejaVuSans-56"/>
     <path d="M 34.1875 63.1875 
L 14.15625 8.203125 
L 54.25 8.203125 
z
M 0.78125 0 
L 28.609375 72.90625 
L 39.796875 72.90625 
L 67.578125 0 
z
" id="DejaVuSans-394"/>
     <path d="M 9.8125 72.90625 
L 55.90625 72.90625 
L 55.90625 64.59375 
L 19.671875 64.59375 
L 19.671875 43.015625 
L 54.390625 43.015625 
L 54.390625 34.71875 
L 19.671875 34.71875 
L 19.671875 8.296875 
L 56.78125 8.296875 
L 56.78125 0 
L 9.8125 0 
z
" id="DejaVuSans-45"/>
     <path d="M 31.78125 66.40625 
Q 24.171875 66.40625 20.328125 58.90625 
Q 16.5 51.421875 16.5 36.375 
Q 16.5 21.390625 20.328125 13.890625 
Q 24.171875 6.390625 31.78125 6.390625 
Q 39.453125 6.390625 43.28125 13.890625 
Q 47.125 21.390625 47.125 36.375 
Q 47.125 51.421875 43.28125 58.90625 
Q 39.453125 66.40625 31.78125 66.40625 
z
M 31.78125 74.21875 
Q 44.046875 74.21875 50.515625 64.515625 
Q 56.984375 54.828125 56.984375 36.375 
Q 56.984375 17.96875 50.515625 8.265625 
Q 44.046875 -1.421875 31.78125 -1.421875 
Q 19.53125 -1.421875 13.0625 8.265625 
Q 6.59375 17.96875 6.59375 36.375 
Q 6.59375 54.828125 13.0625 64.515625 
Q 19.53125 74.21875 31.78125 74.21875 
z
" id="DejaVuSans-30"/>
     <path d="M 19.1875 8.296875 
L 53.609375 8.296875 
L 53.609375 0 
L 7.328125 0 
L 7.328125 8.296875 
Q 12.9375 14.109375 22.625 23.890625 
Q 32.328125 33.6875 34.8125 36.53125 
Q 39.546875 41.84375 41.421875 45.53125 
Q 43.3125 49.21875 43.3125 52.78125 
Q 43.3125 58.59375 39.234375 62.25 
Q 35.15625 65.921875 28.609375 65.921875 
Q 23.96875 65.921875 18.8125 64.3125 
Q 13.671875 62.703125 7.8125 59.421875 
L 7.8125 69.390625 
Q 13.765625 71.78125 18.9375 73 
Q 24.125 74.21875 28.421875 74.21875 
Q 39.75 74.21875 46.484375 68.546875 
Q 53.21875 62.890625 53.21875 53.421875 
Q 53.21875 48.921875 51.53125 44.890625 
Q 49.859375 40.875 45.40625 35.40625 
Q 44.1875 33.984375 37.640625 27.21875 
Q 31.109375 20.453125 19.1875 8.296875 
z
" id="DejaVuSans-32"/>
    </defs>
    <g transform="translate(63.228 35.472)scale(0.12 -0.12)">
     <use transform="translate(0 0.78125)" xlink:href="#DejaVuSans-53"/>
     <use transform="translate(63.476562 0.78125)" xlink:href="#DejaVuSans-74"/>
     <use transform="translate(102.685547 0.78125)" xlink:href="#DejaVuSans-72"/>
     <use transform="translate(143.798828 0.78125)" xlink:href="#DejaVuSans-75"/>
     <use transform="translate(207.177734 0.78125)" xlink:href="#DejaVuSans-63"/>
     <use transform="translate(262.158203 0.78125)" xlink:href="#DejaVuSans-74"/>
     <use transform="translate(301.367188 0.78125)" xlink:href="#DejaVuSans-75"/>
     <use transform="translate(364.746094 0.78125)" xlink:href="#DejaVuSans-72"/>
     <use transform="translate(405.859375 0.78125)" xlink:href="#DejaVuSans-65"/>
     <use transform="translate(467.382812 0.78125)" xlink:href="#DejaVuSans-20"/>
     <use transform="translate(499.169922 0.78125)" xlink:href="#DejaVuSans-23"/>
     <use transform="translate(582.958984 0.78125)" xlink:href="#DejaVuSans-35"/>
     <use transform="translate(646.582031 0.78125)" xlink:href="#DejaVuSans-34"/>
     <use transform="translate(710.205078 0.78125)" xlink:href="#DejaVuSans-35"/>
     <use transform="translate(773.71875 0.78125)" xlink:href="#DejaVuSans-37"/>
     <use transform="translate(837.341797 0.78125)" xlink:href="#DejaVuSans-2c"/>
     <use transform="translate(869.128906 0.78125)" xlink:href="#DejaVuSans-20"/>
     <use transform="translate(900.916016 0.78125)" xlink:href="#DejaVuSans-Oblique-45"/>
     <use transform="translate(964.099609 -15.625)scale(0.7)" xlink:href="#DejaVuSans-Oblique-4e"/>
     <use transform="translate(1019.197266 0.78125)" xlink:href="#DejaVuSans-3d"/>
     <use transform="translate(1102.986328 0.78125)" xlink:href="#DejaVuSans-2d"/>
     <use transform="translate(1139.070312 0.78125)" xlink:href="#DejaVuSans-31"/>
     <use transform="translate(1202.693359 0.78125)" xlink:href="#DejaVuSans-37"/>
     <use transform="translate(1266.316406 0.78125)" xlink:href="#DejaVuSans-38"/>
     <use transform="translate(1329.939453 0.78125)" xlink:href="#DejaVuSans-2e"/>
     <use transform="translate(1361.726562 0.78125)" xlink:href="#DejaVuSans-36"/>
     <use transform="translate(1425.349609 0.78125)" xlink:href="#DejaVuSans-37"/>
     <use transform="translate(1488.972656 0.78125)" xlink:href="#DejaVuSans-65"/>
     <use transform="translate(1550.496094 0.78125)" xlink:href="#DejaVuSans-56"/>
     <use transform="translate(1618.904297 0.78125)" xlink:href="#DejaVuSans-2c"/>
     <use transform="translate(1650.691406 0.78125)" xlink:href="#DejaVuSans-20"/>
     <use transform="translate(1682.478516 0.78125)" xlink:href="#DejaVuSans-394"/>
     <use transform="translate(1750.886719 0.78125)" xlink:href="#DejaVuSans-45"/>
     <use transform="translate(1814.070312 0.78125)" xlink:href="#DejaVuSans-3d"/>
     <use transform="translate(1897.859375 0.78125)" xlink:href="#DejaVuSans-2d"/>
     <use transform="translate(1933.943359 0.78125)" xlink:href="#DejaVuSans-30"/>
     <use transform="translate(1997.566406 0.78125)" xlink:href="#DejaVuSans-2e"/>
     <use transform="translate(2029.353516 0.78125)" xlink:href="#DejaVuSans-31"/>
     <use transform="translate(2092.976562 0.78125)" xlink:href="#DejaVuSans-32"/>
     <use transform="translate(2156.599609 0.78125)" xlink:href="#DejaVuSans-65"/>
     <use transform="translate(2218.123047 0.78125)" xlink:href="#DejaVuSans-56"/>
    </g>
   </g>
  </g>
  <g id="axes_2">
   <g id="patch_2">
    <path clip-path="url(#pb46544dd5e)" d="M 361.152 307.584 
L 361.152 306.5445 
L 361.152 42.5115 
L 361.152 41.472 
L 374.4576 41.472 
L 374.4576 42.5115 
L 374.4576 306.5445 
L 374.4576 307.584 
z
" style="fill:#ffffff;stroke:#ffffff;stroke-linejoin:miter;stroke-width:0.01;"/>
   </g>
   <image height="265.68" id="image236c1f7207" transform="scale(1 -1)translate(0 -265.68)" width="12.96" x="361.44" xlink:href="data:image/png;base64,
iVBORw0KGgoAAAANSUhEUgAAABIAAAFxCAYAAAB+2fgXAAAABHNCSVQICAgIfAhkiAAAAeVJREFUeJztncmNw0AQA2ckheYQNv9QLIfQ8ygsCgQ7AEI8+jAs2Puz/94F1LP2ReCsZ18bAWIeZ5XaGRBE7VnbptG+KI101FYyNSiQG2oRITXKNaX9uclOdi2XWjftVE32CZCO2ou5Bj1TcCBr/1zB9ge7Fq0Rg2NM9pvbtG+ua1QgsRYhDy0ISEiNc40BEibbSI0Coj5CBGtkpFbXJiAjNZlrwhuSOv2M1DjXbEdEciBt1JSDDQKKpmZr2rr2j0DBGpXaWEJq3bQzEPIS26r9J+Wzv9Tm8o3aajRXqc3VUXsApKNWjeZq0x4ABVNbm7lrszVigDqP5vIl2+eaT2yfRkL7g+dRcNPqjohkjaCvRVBq0H2U3LQrOJCx9kdTg4B8oxZzzTdqdYHEngjUCAPyUctN9sVRq2sTECW2UKNLd2jVtRmo1A6AhMmWaSRcR8nUdIHUuVb75zJS218EyEitro1At69pIdeSk30Lkw0FktNImGyZRhy1O5galmxd03LUsHWk06jUZiCq+5Wb1kZNN4+wJxJuWt8RAW5am2sYNZ9rYCBzZ3buPKJ2P5Yj4Toy3keyIyJbIxs1rml1byCA84gpch5RQNB7Q0qNMGq2Hy4BXdNR41yz/cEEJfZzUz96r9PoB0okjeQ8y9TkAAAAAElFTkSuQmCC" y="-41.76"/>
   <g id="matplotlib.axis_1"/>
   <g id="matplotlib.axis_2">
    <g id="ytick_1">
     <g id="line2d_1">
      <defs>
       <path d="M 0 0 
L 3.5 0 
" id="m469f78d6ba" style="stroke:#000000;stroke-width:0.8;"/>
      </defs>
      <g>
       <use style="stroke:#000000;stroke-width:0.8;" x="374.4576" xlink:href="#m469f78d6ba" y="276.556347"/>
      </g>
     </g>
     <g id="text_2">
      <!-- −8.5 -->
      <defs>
       <path d="M 10.59375 35.5 
L 73.1875 35.5 
L 73.1875 27.203125 
L 10.59375 27.203125 
z
" id="DejaVuSans-2212"/>
      </defs>
      <g transform="translate(381.4576 280.355566)scale(0.1 -0.1)">
       <use xlink:href="#DejaVuSans-2212"/>
       <use x="83.789062" xlink:href="#DejaVuSans-38"/>
       <use x="147.412109" xlink:href="#DejaVuSans-2e"/>
       <use x="179.199219" xlink:href="#DejaVuSans-35"/>
      </g>
     </g>
    </g>
    <g id="ytick_2">
     <g id="line2d_2">
      <g>
       <use style="stroke:#000000;stroke-width:0.8;" x="374.4576" xlink:href="#m469f78d6ba" y="243.391833"/>
      </g>
     </g>
     <g id="text_3">
      <!-- −8.0 -->
      <g transform="translate(381.4576 247.191052)scale(0.1 -0.1)">
       <use xlink:href="#DejaVuSans-2212"/>
       <use x="83.789062" xlink:href="#DejaVuSans-38"/>
       <use x="147.412109" xlink:href="#DejaVuSans-2e"/>
       <use x="179.199219" xlink:href="#DejaVuSans-30"/>
      </g>
     </g>
    </g>
    <g id="ytick_3">
     <g id="line2d_3">
      <g>
       <use style="stroke:#000000;stroke-width:0.8;" x="374.4576" xlink:href="#m469f78d6ba" y="210.22732"/>
      </g>
     </g>
     <g id="text_4">
      <!-- −7.5 -->
      <g transform="translate(381.4576 214.026538)scale(0.1 -0.1)">
       <use xlink:href="#DejaVuSans-2212"/>
       <use x="83.789062" xlink:href="#DejaVuSans-37"/>
       <use x="147.412109" xlink:href="#DejaVuSans-2e"/>
       <use x="179.199219" xlink:href="#DejaVuSans-35"/>
      </g>
     </g>
    </g>
    <g id="ytick_4">
     <g id="line2d_4">
      <g>
       <use style="stroke:#000000;stroke-width:0.8;" x="374.4576" xlink:href="#m469f78d6ba" y="177.062806"/>
      </g>
     </g>
     <g id="text_5">
      <!-- −7.0 -->
      <g transform="translate(381.4576 180.862025)scale(0.1 -0.1)">
       <use xlink:href="#DejaVuSans-2212"/>
       <use x="83.789062" xlink:href="#DejaVuSans-37"/>
       <use x="147.412109" xlink:href="#DejaVuSans-2e"/>
       <use x="179.199219" xlink:href="#DejaVuSans-30"/>
      </g>
     </g>
    </g>
    <g id="ytick_5">
     <g id="line2d_5">
      <g>
       <use style="stroke:#000000;stroke-width:0.8;" x="374.4576" xlink:href="#m469f78d6ba" y="143.898292"/>
      </g>
     </g>
     <g id="text_6">
      <!-- −6.5 -->
      <g transform="translate(381.4576 147.697511)scale(0.1 -0.1)">
       <use xlink:href="#DejaVuSans-2212"/>
       <use x="83.789062" xlink:href="#DejaVuSans-36"/>
       <use x="147.412109" xlink:href="#DejaVuSans-2e"/>
       <use x="179.199219" xlink:href="#DejaVuSans-35"/>
      </g>
     </g>
    </g>
    <g id="ytick_6">
     <g id="line2d_6">
      <g>
       <use style="stroke:#000000;stroke-width:0.8;" x="374.4576" xlink:href="#m469f78d6ba" y="110.733779"/>
      </g>
     </g>
     <g id="text_7">
      <!-- −6.0 -->
      <g transform="translate(381.4576 114.532997)scale(0.1 -0.1)">
       <use xlink:href="#DejaVuSans-2212"/>
       <use x="83.789062" xlink:href="#DejaVuSans-36"/>
       <use x="147.412109" xlink:href="#DejaVuSans-2e"/>
       <use x="179.199219" xlink:href="#DejaVuSans-30"/>
      </g>
     </g>
    </g>
    <g id="ytick_7">
     <g id="line2d_7">
      <g>
       <use style="stroke:#000000;stroke-width:0.8;" x="374.4576" xlink:href="#m469f78d6ba" y="77.569265"/>
      </g>
     </g>
     <g id="text_8">
      <!-- −5.5 -->
      <g transform="translate(381.4576 81.368484)scale(0.1 -0.1)">
       <use xlink:href="#DejaVuSans-2212"/>
       <use x="83.789062" xlink:href="#DejaVuSans-35"/>
       <use x="147.412109" xlink:href="#DejaVuSans-2e"/>
       <use x="179.199219" xlink:href="#DejaVuSans-35"/>
      </g>
     </g>
    </g>
    <g id="ytick_8">
     <g id="line2d_8">
      <g>
       <use style="stroke:#000000;stroke-width:0.8;" x="374.4576" xlink:href="#m469f78d6ba" y="44.404751"/>
      </g>
     </g>
     <g id="text_9">
      <!-- −5.0 -->
      <g transform="translate(381.4576 48.20397)scale(0.1 -0.1)">
       <use xlink:href="#DejaVuSans-2212"/>
       <use x="83.789062" xlink:href="#DejaVuSans-35"/>
       <use x="147.412109" xlink:href="#DejaVuSans-2e"/>
       <use x="179.199219" xlink:href="#DejaVuSans-30"/>
      </g>
     </g>
    </g>
    <g id="text_10">
     <!-- Energy [eV] -->
     <defs>
      <path d="M 54.890625 33.015625 
L 54.890625 0 
L 45.90625 0 
L 45.90625 32.71875 
Q 45.90625 40.484375 42.875 44.328125 
Q 39.84375 48.1875 33.796875 48.1875 
Q 26.515625 48.1875 22.3125 43.546875 
Q 18.109375 38.921875 18.109375 30.90625 
L 18.109375 0 
L 9.078125 0 
L 9.078125 54.6875 
L 18.109375 54.6875 
L 18.109375 46.1875 
Q 21.34375 51.125 25.703125 53.5625 
Q 30.078125 56 35.796875 56 
Q 45.21875 56 50.046875 50.171875 
Q 54.890625 44.34375 54.890625 33.015625 
z
" id="DejaVuSans-6e"/>
      <path d="M 45.40625 27.984375 
Q 45.40625 37.75 41.375 43.109375 
Q 37.359375 48.484375 30.078125 48.484375 
Q 22.859375 48.484375 18.828125 43.109375 
Q 14.796875 37.75 14.796875 27.984375 
Q 14.796875 18.265625 18.828125 12.890625 
Q 22.859375 7.515625 30.078125 7.515625 
Q 37.359375 7.515625 41.375 12.890625 
Q 45.40625 18.265625 45.40625 27.984375 
z
M 54.390625 6.78125 
Q 54.390625 -7.171875 48.1875 -13.984375 
Q 42 -20.796875 29.203125 -20.796875 
Q 24.46875 -20.796875 20.265625 -20.09375 
Q 16.0625 -19.390625 12.109375 -17.921875 
L 12.109375 -9.1875 
Q 16.0625 -11.328125 19.921875 -12.34375 
Q 23.78125 -13.375 27.78125 -13.375 
Q 36.625 -13.375 41.015625 -8.765625 
Q 45.40625 -4.15625 45.40625 5.171875 
L 45.40625 9.625 
Q 42.625 4.78125 38.28125 2.390625 
Q 33.9375 0 27.875 0 
Q 17.828125 0 11.671875 7.65625 
Q 5.515625 15.328125 5.515625 27.984375 
Q 5.515625 40.671875 11.671875 48.328125 
Q 17.828125 56 27.875 56 
Q 33.9375 56 38.28125 53.609375 
Q 42.625 51.21875 45.40625 46.390625 
L 45.40625 54.6875 
L 54.390625 54.6875 
z
" id="DejaVuSans-67"/>
      <path d="M 32.171875 -5.078125 
Q 28.375 -14.84375 24.75 -17.8125 
Q 21.140625 -20.796875 15.09375 -20.796875 
L 7.90625 -20.796875 
L 7.90625 -13.28125 
L 13.1875 -13.28125 
Q 16.890625 -13.28125 18.9375 -11.515625 
Q 21 -9.765625 23.484375 -3.21875 
L 25.09375 0.875 
L 2.984375 54.6875 
L 12.5 54.6875 
L 29.59375 11.921875 
L 46.6875 54.6875 
L 56.203125 54.6875 
z
" id="DejaVuSans-79"/>
      <path d="M 8.59375 75.984375 
L 29.296875 75.984375 
L 29.296875 69 
L 17.578125 69 
L 17.578125 -6.203125 
L 29.296875 -6.203125 
L 29.296875 -13.1875 
L 8.59375 -13.1875 
z
" id="DejaVuSans-5b"/>
      <path d="M 30.421875 75.984375 
L 30.421875 -13.1875 
L 9.71875 -13.1875 
L 9.71875 -6.203125 
L 21.390625 -6.203125 
L 21.390625 69 
L 9.71875 69 
L 9.71875 75.984375 
z
" id="DejaVuSans-5d"/>
     </defs>
     <g transform="translate(417.33885 204.108469)rotate(-90)scale(0.1 -0.1)">
      <use xlink:href="#DejaVuSans-45"/>
      <use x="63.183594" xlink:href="#DejaVuSans-6e"/>
      <use x="126.5625" xlink:href="#DejaVuSans-65"/>
      <use x="188.085938" xlink:href="#DejaVuSans-72"/>
      <use x="229.183594" xlink:href="#DejaVuSans-67"/>
      <use x="292.660156" xlink:href="#DejaVuSans-79"/>
      <use x="351.839844" xlink:href="#DejaVuSans-20"/>
      <use x="383.626953" xlink:href="#DejaVuSans-5b"/>
      <use x="422.640625" xlink:href="#DejaVuSans-65"/>
      <use x="484.164062" xlink:href="#DejaVuSans-56"/>
      <use x="552.572266" xlink:href="#DejaVuSans-5d"/>
     </g>
    </g>
   </g>
   <g id="patch_3">
    <path d="M 361.152 307.584 
L 361.152 306.5445 
L 361.152 42.5115 
L 361.152 41.472 
L 374.4576 41.472 
L 374.4576 42.5115 
L 374.4576 306.5445 
L 374.4576 307.584 
z
" style="fill:none;stroke:#000000;stroke-linejoin:miter;stroke-width:0.8;"/>
   </g>
  </g>
 </g>
 <defs>
  <clipPath id="pbe9fad6978">
   <rect height="266.112" width="285.696" x="57.6" y="41.472"/>
  </clipPath>
  <clipPath id="pb46544dd5e">
   <rect height="266.112" width="13.3056" x="361.152" y="41.472"/>
  </clipPath>
 </defs>
</svg>
