<?xml version="1.0" encoding="utf-8" standalone="no"?>
<!DOCTYPE svg PUBLIC "-//W3C//DTD SVG 1.1//EN"
  "http://www.w3.org/Graphics/SVG/1.1/DTD/svg11.dtd">
<!-- Created with matplotlib (http://matplotlib.org/) -->
<svg height="345.6pt" version="1.1" viewBox="0 0 460.8 345.6" width="460.8pt" xmlns="http://www.w3.org/2000/svg" xmlns:xlink="http://www.w3.org/1999/xlink">
 <defs>
  <style type="text/css">
*{stroke-linecap:butt;stroke-linejoin:round;}
  </style>
 </defs>
 <g id="figure_1">
  <g id="patch_1">
   <path d="M 0 345.6 
L 460.8 345.6 
L 460.8 0 
L 0 0 
z
" style="fill:#ffffff;"/>
  </g>
  <g id="axes_1">
   <g id="CircleCollection_1">
    <path clip-path="url(#p348507d42d)" d="M 299.807606 256.405082 
C 301.60513 256.405082 303.329275 255.690918 304.600317 254.419876 
C 305.871359 253.148835 306.585523 251.42469 306.585523 249.627165 
C 306.585523 247.829641 305.871359 246.105496 304.600317 244.834455 
C 303.329275 243.563413 301.60513 242.849249 299.807606 242.849249 
C 298.010081 242.849249 296.285937 243.563413 295.014895 244.834455 
C 293.743853 246.105496 293.029689 247.829641 293.029689 249.627165 
C 293.029689 251.42469 293.743853 253.148835 295.014895 254.419876 
C 296.285937 255.690918 298.010081 256.405082 299.807606 256.405082 
z
" style="fill:#3d4e8a;"/>
    <path clip-path="url(#p348507d42d)" d="M 167.471603 180.092394 
C 169.304343 180.092394 171.062265 179.364239 172.358208 178.068296 
C 173.654151 176.772353 174.382307 175.01443 174.382307 173.18169 
C 174.382307 171.34895 173.654151 169.591027 172.358208 168.295084 
C 171.062265 166.999141 169.304343 166.270986 167.471603 166.270986 
C 165.638863 166.270986 163.88094 166.999141 162.584997 168.295084 
C 161.289054 169.591027 160.560899 171.34895 160.560899 173.18169 
C 160.560899 175.01443 161.289054 176.772353 162.584997 178.068296 
C 163.88094 179.364239 165.638863 180.092394 167.471603 180.092394 
z
" style="fill:#470d60;"/>
    <path clip-path="url(#p348507d42d)" d="M 314.048523 160.399459 
C 315.816687 160.399459 317.512669 159.69696 318.762949 158.44668 
C 320.013229 157.1964 320.715728 155.500417 320.715728 153.732254 
C 320.715728 151.964091 320.013229 150.268109 318.762949 149.017828 
C 317.512669 147.767548 315.816687 147.065049 314.048523 147.065049 
C 312.28036 147.065049 310.584378 147.767548 309.334098 149.017828 
C 308.083817 150.268109 307.381318 151.964091 307.381318 153.732254 
C 307.381318 155.500417 308.083817 157.1964 309.334098 158.44668 
C 310.584378 159.69696 312.28036 160.399459 314.048523 160.399459 
z
" style="fill:#2e6e8e;"/>
    <path clip-path="url(#p348507d42d)" d="M 177.977197 223.775406 
C 179.810499 223.775406 181.568962 223.047027 182.865302 221.750686 
C 184.161643 220.454346 184.890022 218.695883 184.890022 216.862581 
C 184.890022 215.029278 184.161643 213.270816 182.865302 211.974475 
C 181.568962 210.678134 179.810499 209.949755 177.977197 209.949755 
C 176.143894 209.949755 174.385432 210.678134 173.089091 211.974475 
C 171.79275 213.270816 171.064371 215.029278 171.064371 216.862581 
C 171.064371 218.695883 171.79275 220.454346 173.089091 221.750686 
C 174.385432 223.047027 176.143894 223.775406 177.977197 223.775406 
z
" style="fill:#453581;"/>
    <path clip-path="url(#p348507d42d)" d="M 254.99032 69.589506 
C 256.75133 69.589506 258.440451 68.889849 259.685673 67.644627 
C 260.930895 66.399405 261.630552 64.710284 261.630552 62.949274 
C 261.630552 61.188264 260.930895 59.499143 259.685673 58.253921 
C 258.440451 57.008699 256.75133 56.309042 254.99032 56.309042 
C 253.22931 56.309042 251.540189 57.008699 250.294967 58.253921 
C 249.049745 59.499143 248.350088 61.188264 248.350088 62.949274 
C 248.350088 64.710284 249.049745 66.399405 250.294967 67.644627 
C 251.540189 68.889849 253.22931 69.589506 254.99032 69.589506 
z
" style="fill:#287d8e;"/>
    <path clip-path="url(#p348507d42d)" d="M 227.595425 186.63025 
C 229.400564 186.63025 231.132012 185.913061 232.408437 184.636636 
C 233.684863 183.36021 234.402052 181.628762 234.402052 179.823623 
C 234.402052 178.018485 233.684863 176.287037 232.408437 175.010611 
C 231.132012 173.734186 229.400564 173.016996 227.595425 173.016996 
C 225.790287 173.016996 224.058839 173.734186 222.782413 175.010611 
C 221.505987 176.287037 220.788798 178.018485 220.788798 179.823623 
C 220.788798 181.628762 221.505987 183.36021 222.782413 184.636636 
C 224.058839 185.913061 225.790287 186.63025 227.595425 186.63025 
z
" style="fill:#3d4e8a;"/>
    <path clip-path="url(#p348507d42d)" d="M 103.652748 160.000419 
C 105.526466 160.000419 107.323694 159.255983 108.648612 157.931065 
C 109.973531 156.606146 110.717967 154.808919 110.717967 152.935201 
C 110.717967 151.061483 109.973531 149.264256 108.648612 147.939337 
C 107.323694 146.614419 105.526466 145.869983 103.652748 145.869983 
C 101.779031 145.869983 99.981803 146.614419 98.656885 147.939337 
C 97.331966 149.264256 96.58753 151.061483 96.58753 152.935201 
C 96.58753 154.808919 97.331966 156.606146 98.656885 157.931065 
C 99.981803 159.255983 101.779031 160.000419 103.652748 160.000419 
z
" style="fill:#3f4889;"/>
    <path clip-path="url(#p348507d42d)" d="M 70.959368 157.12876 
C 72.857425 157.12876 74.677998 156.374654 76.020128 155.032525 
C 77.362257 153.690395 78.116363 151.869822 78.116363 149.971765 
C 78.116363 148.073707 77.362257 146.253134 76.020128 144.911005 
C 74.677998 143.568876 72.857425 142.814769 70.959368 142.814769 
C 69.06131 142.814769 67.240737 143.568876 65.898608 144.911005 
C 64.556479 146.253134 63.802372 148.073707 63.802372 149.971765 
C 63.802372 151.869822 64.556479 153.690395 65.898608 155.032525 
C 67.240737 156.374654 69.06131 157.12876 70.959368 157.12876 
z
" style="fill:#a5db36;"/>
    <path clip-path="url(#p348507d42d)" d="M 135.277901 166.556836 
C 137.129994 166.556836 138.90648 165.820991 140.216108 164.511363 
C 141.525736 163.201735 142.26158 161.42525 142.26158 159.573156 
C 142.26158 157.721062 141.525736 155.944576 140.216108 154.634949 
C 138.90648 153.325321 137.129994 152.589476 135.277901 152.589476 
C 133.425807 152.589476 131.649321 153.325321 130.339693 154.634949 
C 129.030065 155.944576 128.294221 157.721062 128.294221 159.573156 
C 128.294221 161.42525 129.030065 163.201735 130.339693 164.511363 
C 131.649321 165.820991 133.425807 166.556836 135.277901 166.556836 
z
" style="fill:#2e6d8e;"/>
    <path clip-path="url(#p348507d42d)" d="M 216.205645 226.653596 
C 218.02273 226.653596 219.765637 225.931661 221.05051 224.646788 
C 222.335383 223.361914 223.057319 221.619008 223.057319 219.801923 
C 223.057319 217.984838 222.335383 216.241931 221.05051 214.957058 
C 219.765637 213.672185 218.02273 212.95025 216.205645 212.95025 
C 214.38856 212.95025 212.645654 213.672185 211.360781 214.957058 
C 210.075908 216.241931 209.353972 217.984838 209.353972 219.801923 
C 209.353972 221.619008 210.075908 223.361914 211.360781 224.646788 
C 212.645654 225.931661 214.38856 226.653596 216.205645 226.653596 
z
" style="fill:#424086;"/>
    <path clip-path="url(#p348507d42d)" d="M 219.625509 124.565459 
C 221.420414 124.565459 223.142046 123.852336 224.411235 122.583147 
C 225.680425 121.313957 226.393548 119.592325 226.393548 117.797421 
C 226.393548 116.002516 225.680425 114.280884 224.411235 113.011695 
C 223.142046 111.742505 221.420414 111.029382 219.625509 111.029382 
C 217.830604 111.029382 216.108972 111.742505 214.839783 113.011695 
C 213.570594 114.280884 212.85747 116.002516 212.85747 117.797421 
C 212.85747 119.592325 213.570594 121.313957 214.839783 122.583147 
C 216.108972 123.852336 217.830604 124.565459 219.625509 124.565459 
z
" style="fill:#404688;"/>
    <path clip-path="url(#p348507d42d)" d="M 280.461228 92.715201 
C 282.217995 92.715201 283.903047 92.01723 285.145269 90.775008 
C 286.387491 89.532786 287.085462 87.847734 287.085462 86.090967 
C 287.085462 84.334199 286.387491 82.649148 285.145269 81.406926 
C 283.903047 80.164704 282.217995 79.466733 280.461228 79.466733 
C 278.70446 79.466733 277.019409 80.164704 275.777187 81.406926 
C 274.534964 82.649148 273.836993 84.334199 273.836993 86.090967 
C 273.836993 87.847734 274.534964 89.532786 275.777187 90.775008 
C 277.019409 92.01723 278.70446 92.715201 280.461228 92.715201 
z
" style="fill:#26818e;"/>
    <path clip-path="url(#p348507d42d)" d="M 233.280201 267.080009 
C 235.095779 267.080009 236.83724 266.358672 238.121048 265.074864 
C 239.404855 263.791056 240.126192 262.049595 240.126192 260.234017 
C 240.126192 258.418439 239.404855 256.676977 238.121048 255.39317 
C 236.83724 254.109362 235.095779 253.388025 233.280201 253.388025 
C 231.464622 253.388025 229.723161 254.109362 228.439353 255.39317 
C 227.155546 256.676977 226.434209 258.418439 226.434209 260.234017 
C 226.434209 262.049595 227.155546 263.791056 228.439353 265.074864 
C 229.723161 266.358672 231.464622 267.080009 233.280201 267.080009 
z
" style="fill:#440154;"/>
    <path clip-path="url(#p348507d42d)" d="M 189.600234 60.924097 
C 191.404009 60.924097 193.134148 60.20745 194.409609 58.931989 
C 195.68507 57.656528 196.401717 55.926388 196.401717 54.122614 
C 196.401717 52.31884 195.68507 50.588701 194.409609 49.313239 
C 193.134148 48.037778 191.404009 47.321131 189.600234 47.321131 
C 187.79646 47.321131 186.066321 48.037778 184.79086 49.313239 
C 183.515399 50.588701 182.798752 52.31884 182.798752 54.122614 
C 182.798752 55.926388 183.515399 57.656528 184.79086 58.931989 
C 186.066321 60.20745 187.79646 60.924097 189.600234 60.924097 
z
" style="fill:#fde725;"/>
    <path clip-path="url(#p348507d42d)" d="M 250.446452 150.726343 
C 252.233106 150.726343 253.946824 150.016497 255.21018 148.753142 
C 256.473535 147.489786 257.183381 145.776068 257.183381 143.989414 
C 257.183381 142.202759 256.473535 140.489041 255.21018 139.225686 
C 253.946824 137.96233 252.233106 137.252485 250.446452 137.252485 
C 248.659797 137.252485 246.946079 137.96233 245.682723 139.225686 
C 244.419368 140.489041 243.709523 142.202759 243.709523 143.989414 
C 243.709523 145.776068 244.419368 147.489786 245.682723 148.753142 
C 246.946079 150.016497 248.659797 150.726343 250.446452 150.726343 
z
" style="fill:#39558c;"/>
    <path clip-path="url(#p348507d42d)" d="M 269.167814 268.869936 
C 270.975487 268.869936 272.709367 268.151739 273.987585 266.873521 
C 275.265804 265.595302 275.984 263.861423 275.984 262.053749 
C 275.984 260.246075 275.265804 258.512196 273.987585 257.233977 
C 272.709367 255.955759 270.975487 255.237562 269.167814 255.237562 
C 267.36014 255.237562 265.62626 255.955759 264.348042 257.233977 
C 263.069823 258.512196 262.351627 260.246075 262.351627 262.053749 
C 262.351627 263.861423 263.069823 265.595302 264.348042 266.873521 
C 265.62626 268.151739 267.36014 268.869936 269.167814 268.869936 
z
" style="fill:#306a8e;"/>
    <path clip-path="url(#p348507d42d)" d="M 211.037052 301.808197 
C 212.862 301.808197 214.612448 301.083138 215.902881 299.792705 
C 217.193314 298.502272 217.918374 296.751823 217.918374 294.926876 
C 217.918374 293.101928 217.193314 291.35148 215.902881 290.061047 
C 214.612448 288.770614 212.862 288.045554 211.037052 288.045554 
C 209.212104 288.045554 207.461656 288.770614 206.171223 290.061047 
C 204.88079 291.35148 204.155731 293.101928 204.155731 294.926876 
C 204.155731 296.751823 204.88079 298.502272 206.171223 299.792705 
C 207.461656 301.083138 209.212104 301.808197 211.037052 301.808197 
z
" style="fill:#21908d;"/>
    <path clip-path="url(#p348507d42d)" d="M 219.684564 80.554075 
C 221.468983 80.554075 223.180557 79.845118 224.442331 78.583344 
C 225.704106 77.321569 226.413063 75.609996 226.413063 73.825577 
C 226.413063 72.041158 225.704106 70.329585 224.442331 69.06781 
C 223.180557 67.806036 221.468983 67.097079 219.684564 67.097079 
C 217.900146 67.097079 216.188572 67.806036 214.926798 69.06781 
C 213.665023 70.329585 212.956066 72.041158 212.956066 73.825577 
C 212.956066 75.609996 213.665023 77.321569 214.926798 78.583344 
C 216.188572 79.845118 217.900146 80.554075 219.684564 80.554075 
z
" style="fill:#46085c;"/>
    <path clip-path="url(#p348507d42d)" d="M 157.382547 258.300637 
C 159.227165 258.300637 160.996481 257.567762 162.300823 256.26342 
C 163.605165 254.959078 164.33804 253.189762 164.33804 251.345144 
C 164.33804 249.500525 163.605165 247.731209 162.300823 246.426867 
C 160.996481 245.122525 159.227165 244.38965 157.382547 244.38965 
C 155.537929 244.38965 153.768613 245.122525 152.46427 246.426867 
C 151.159928 247.731209 150.427054 249.500525 150.427054 251.345144 
C 150.427054 253.189762 151.159928 254.959078 152.46427 256.26342 
C 153.768613 257.567762 155.537929 258.300637 157.382547 258.300637 
z
" style="fill:#25858e;"/>
    <path clip-path="url(#p348507d42d)" d="M 329.959071 236.549828 
C 331.743003 236.549828 333.454111 235.841064 334.715541 234.579634 
C 335.976972 233.318203 336.685736 231.607096 336.685736 229.823163 
C 336.685736 228.039231 335.976972 226.328123 334.715541 225.066693 
C 333.454111 223.805262 331.743003 223.096498 329.959071 223.096498 
C 328.175139 223.096498 326.464031 223.805262 325.2026 225.066693 
C 323.94117 226.328123 323.232406 228.039231 323.232406 229.823163 
C 323.232406 231.607096 323.94117 233.318203 325.2026 234.579634 
C 326.464031 235.841064 328.175139 236.549828 329.959071 236.549828 
z
" style="fill:#2d718e;"/>
    <path clip-path="url(#p348507d42d)" d="M 284.858597 135.990403 
C 286.62761 135.990403 288.324407 135.287567 289.575289 134.036686 
C 290.82617 132.785805 291.529006 131.089008 291.529006 129.319995 
C 291.529006 127.550981 290.82617 125.854184 289.575289 124.603303 
C 288.324407 123.352422 286.62761 122.649586 284.858597 122.649586 
C 283.089584 122.649586 281.392787 123.352422 280.141906 124.603303 
C 278.891025 125.854184 278.188188 127.550981 278.188188 129.319995 
C 278.188188 131.089008 278.891025 132.785805 280.141906 134.036686 
C 281.392787 135.287567 283.089584 135.990403 284.858597 135.990403 
z
" style="fill:#440154;"/>
    <path clip-path="url(#p348507d42d)" d="M 179.486168 288.57517 
C 181.321774 288.57517 183.082445 287.845876 184.380415 286.547907 
C 185.678384 285.249937 186.407678 283.489266 186.407678 281.65366 
C 186.407678 279.818053 185.678384 278.057382 184.380415 276.759412 
C 183.082445 275.461443 181.321774 274.732149 179.486168 274.732149 
C 177.650561 274.732149 175.88989 275.461443 174.59192 276.759412 
C 173.293951 278.057382 172.564657 279.818053 172.564657 281.65366 
C 172.564657 283.489266 173.293951 285.249937 174.59192 286.547907 
C 175.88989 287.845876 177.650561 288.57517 179.486168 288.57517 
z
" style="fill:#31678e;"/>
    <path clip-path="url(#p348507d42d)" d="M 198.405165 158.973501 
C 200.218542 158.973501 201.957893 158.253038 203.240145 156.970786 
C 204.522397 155.688535 205.24286 153.949184 205.24286 152.135806 
C 205.24286 150.322428 204.522397 148.583077 203.240145 147.300825 
C 201.957893 146.018573 200.218542 145.298111 198.405165 145.298111 
C 196.591787 145.298111 194.852436 146.018573 193.570184 147.300825 
C 192.287932 148.583077 191.567469 150.322428 191.567469 152.135806 
C 191.567469 153.949184 192.287932 155.688535 193.570184 156.970786 
C 194.852436 158.253038 196.591787 158.973501 198.405165 158.973501 
z
" style="fill:#443983;"/>
    <path clip-path="url(#p348507d42d)" d="M 324.40816 196.778788 
C 326.183768 196.778788 327.886891 196.073332 329.142436 194.817787 
C 330.39798 193.562243 331.103437 191.85912 331.103437 190.083512 
C 331.103437 188.307903 330.39798 186.604781 329.142436 185.349236 
C 327.886891 184.093691 326.183768 183.388235 324.40816 183.388235 
C 322.632552 183.388235 320.929429 184.093691 319.673884 185.349236 
C 318.41834 186.604781 317.712883 188.307903 317.712883 190.083512 
C 317.712883 191.85912 318.41834 193.562243 319.673884 194.817787 
C 320.929429 196.073332 322.632552 196.778788 324.40816 196.778788 
z
" style="fill:#3a538b;"/>
   </g>
   <g id="text_1">
    <!-- Structure #10729, $E_N$=-178.47eV, ΔE=-0.24eV -->
    <defs>
     <path d="M 53.515625 70.515625 
L 53.515625 60.890625 
Q 47.90625 63.578125 42.921875 64.890625 
Q 37.9375 66.21875 33.296875 66.21875 
Q 25.25 66.21875 20.875 63.09375 
Q 16.5 59.96875 16.5 54.203125 
Q 16.5 49.359375 19.40625 46.890625 
Q 22.3125 44.4375 30.421875 42.921875 
L 36.375 41.703125 
Q 47.40625 39.59375 52.65625 34.296875 
Q 57.90625 29 57.90625 20.125 
Q 57.90625 9.515625 50.796875 4.046875 
Q 43.703125 -1.421875 29.984375 -1.421875 
Q 24.8125 -1.421875 18.96875 -0.25 
Q 13.140625 0.921875 6.890625 3.21875 
L 6.890625 13.375 
Q 12.890625 10.015625 18.65625 8.296875 
Q 24.421875 6.59375 29.984375 6.59375 
Q 38.421875 6.59375 43.015625 9.90625 
Q 47.609375 13.234375 47.609375 19.390625 
Q 47.609375 24.75 44.3125 27.78125 
Q 41.015625 30.8125 33.5 32.328125 
L 27.484375 33.5 
Q 16.453125 35.6875 11.515625 40.375 
Q 6.59375 45.0625 6.59375 53.421875 
Q 6.59375 63.09375 13.40625 68.65625 
Q 20.21875 74.21875 32.171875 74.21875 
Q 37.3125 74.21875 42.625 73.28125 
Q 47.953125 72.359375 53.515625 70.515625 
z
" id="DejaVuSans-53"/>
     <path d="M 18.3125 70.21875 
L 18.3125 54.6875 
L 36.8125 54.6875 
L 36.8125 47.703125 
L 18.3125 47.703125 
L 18.3125 18.015625 
Q 18.3125 11.328125 20.140625 9.421875 
Q 21.96875 7.515625 27.59375 7.515625 
L 36.8125 7.515625 
L 36.8125 0 
L 27.59375 0 
Q 17.1875 0 13.234375 3.875 
Q 9.28125 7.765625 9.28125 18.015625 
L 9.28125 47.703125 
L 2.6875 47.703125 
L 2.6875 54.6875 
L 9.28125 54.6875 
L 9.28125 70.21875 
z
" id="DejaVuSans-74"/>
     <path d="M 41.109375 46.296875 
Q 39.59375 47.171875 37.8125 47.578125 
Q 36.03125 48 33.890625 48 
Q 26.265625 48 22.1875 43.046875 
Q 18.109375 38.09375 18.109375 28.8125 
L 18.109375 0 
L 9.078125 0 
L 9.078125 54.6875 
L 18.109375 54.6875 
L 18.109375 46.1875 
Q 20.953125 51.171875 25.484375 53.578125 
Q 30.03125 56 36.53125 56 
Q 37.453125 56 38.578125 55.875 
Q 39.703125 55.765625 41.0625 55.515625 
z
" id="DejaVuSans-72"/>
     <path d="M 8.5 21.578125 
L 8.5 54.6875 
L 17.484375 54.6875 
L 17.484375 21.921875 
Q 17.484375 14.15625 20.5 10.265625 
Q 23.53125 6.390625 29.59375 6.390625 
Q 36.859375 6.390625 41.078125 11.03125 
Q 45.3125 15.671875 45.3125 23.6875 
L 45.3125 54.6875 
L 54.296875 54.6875 
L 54.296875 0 
L 45.3125 0 
L 45.3125 8.40625 
Q 42.046875 3.421875 37.71875 1 
Q 33.40625 -1.421875 27.6875 -1.421875 
Q 18.265625 -1.421875 13.375 4.4375 
Q 8.5 10.296875 8.5 21.578125 
z
M 31.109375 56 
z
" id="DejaVuSans-75"/>
     <path d="M 48.78125 52.59375 
L 48.78125 44.1875 
Q 44.96875 46.296875 41.140625 47.34375 
Q 37.3125 48.390625 33.40625 48.390625 
Q 24.65625 48.390625 19.8125 42.84375 
Q 14.984375 37.3125 14.984375 27.296875 
Q 14.984375 17.28125 19.8125 11.734375 
Q 24.65625 6.203125 33.40625 6.203125 
Q 37.3125 6.203125 41.140625 7.25 
Q 44.96875 8.296875 48.78125 10.40625 
L 48.78125 2.09375 
Q 45.015625 0.34375 40.984375 -0.53125 
Q 36.96875 -1.421875 32.421875 -1.421875 
Q 20.0625 -1.421875 12.78125 6.34375 
Q 5.515625 14.109375 5.515625 27.296875 
Q 5.515625 40.671875 12.859375 48.328125 
Q 20.21875 56 33.015625 56 
Q 37.15625 56 41.109375 55.140625 
Q 45.0625 54.296875 48.78125 52.59375 
z
" id="DejaVuSans-63"/>
     <path d="M 56.203125 29.59375 
L 56.203125 25.203125 
L 14.890625 25.203125 
Q 15.484375 15.921875 20.484375 11.0625 
Q 25.484375 6.203125 34.421875 6.203125 
Q 39.59375 6.203125 44.453125 7.46875 
Q 49.3125 8.734375 54.109375 11.28125 
L 54.109375 2.78125 
Q 49.265625 0.734375 44.1875 -0.34375 
Q 39.109375 -1.421875 33.890625 -1.421875 
Q 20.796875 -1.421875 13.15625 6.1875 
Q 5.515625 13.8125 5.515625 26.8125 
Q 5.515625 40.234375 12.765625 48.109375 
Q 20.015625 56 32.328125 56 
Q 43.359375 56 49.78125 48.890625 
Q 56.203125 41.796875 56.203125 29.59375 
z
M 47.21875 32.234375 
Q 47.125 39.59375 43.09375 43.984375 
Q 39.0625 48.390625 32.421875 48.390625 
Q 24.90625 48.390625 20.390625 44.140625 
Q 15.875 39.890625 15.1875 32.171875 
z
" id="DejaVuSans-65"/>
     <path id="DejaVuSans-20"/>
     <path d="M 51.125 44 
L 36.921875 44 
L 32.8125 27.6875 
L 47.125 27.6875 
z
M 43.796875 71.78125 
L 38.71875 51.515625 
L 52.984375 51.515625 
L 58.109375 71.78125 
L 65.921875 71.78125 
L 60.890625 51.515625 
L 76.125 51.515625 
L 76.125 44 
L 58.984375 44 
L 54.984375 27.6875 
L 70.515625 27.6875 
L 70.515625 20.21875 
L 53.078125 20.21875 
L 48 0 
L 40.1875 0 
L 45.21875 20.21875 
L 30.90625 20.21875 
L 25.875 0 
L 18.015625 0 
L 23.09375 20.21875 
L 7.71875 20.21875 
L 7.71875 27.6875 
L 24.90625 27.6875 
L 29 44 
L 13.28125 44 
L 13.28125 51.515625 
L 30.90625 51.515625 
L 35.890625 71.78125 
z
" id="DejaVuSans-23"/>
     <path d="M 12.40625 8.296875 
L 28.515625 8.296875 
L 28.515625 63.921875 
L 10.984375 60.40625 
L 10.984375 69.390625 
L 28.421875 72.90625 
L 38.28125 72.90625 
L 38.28125 8.296875 
L 54.390625 8.296875 
L 54.390625 0 
L 12.40625 0 
z
" id="DejaVuSans-31"/>
     <path d="M 31.78125 66.40625 
Q 24.171875 66.40625 20.328125 58.90625 
Q 16.5 51.421875 16.5 36.375 
Q 16.5 21.390625 20.328125 13.890625 
Q 24.171875 6.390625 31.78125 6.390625 
Q 39.453125 6.390625 43.28125 13.890625 
Q 47.125 21.390625 47.125 36.375 
Q 47.125 51.421875 43.28125 58.90625 
Q 39.453125 66.40625 31.78125 66.40625 
z
M 31.78125 74.21875 
Q 44.046875 74.21875 50.515625 64.515625 
Q 56.984375 54.828125 56.984375 36.375 
Q 56.984375 17.96875 50.515625 8.265625 
Q 44.046875 -1.421875 31.78125 -1.421875 
Q 19.53125 -1.421875 13.0625 8.265625 
Q 6.59375 17.96875 6.59375 36.375 
Q 6.59375 54.828125 13.0625 64.515625 
Q 19.53125 74.21875 31.78125 74.21875 
z
" id="DejaVuSans-30"/>
     <path d="M 8.203125 72.90625 
L 55.078125 72.90625 
L 55.078125 68.703125 
L 28.609375 0 
L 18.3125 0 
L 43.21875 64.59375 
L 8.203125 64.59375 
z
" id="DejaVuSans-37"/>
     <path d="M 19.1875 8.296875 
L 53.609375 8.296875 
L 53.609375 0 
L 7.328125 0 
L 7.328125 8.296875 
Q 12.9375 14.109375 22.625 23.890625 
Q 32.328125 33.6875 34.8125 36.53125 
Q 39.546875 41.84375 41.421875 45.53125 
Q 43.3125 49.21875 43.3125 52.78125 
Q 43.3125 58.59375 39.234375 62.25 
Q 35.15625 65.921875 28.609375 65.921875 
Q 23.96875 65.921875 18.8125 64.3125 
Q 13.671875 62.703125 7.8125 59.421875 
L 7.8125 69.390625 
Q 13.765625 71.78125 18.9375 73 
Q 24.125 74.21875 28.421875 74.21875 
Q 39.75 74.21875 46.484375 68.546875 
Q 53.21875 62.890625 53.21875 53.421875 
Q 53.21875 48.921875 51.53125 44.890625 
Q 49.859375 40.875 45.40625 35.40625 
Q 44.1875 33.984375 37.640625 27.21875 
Q 31.109375 20.453125 19.1875 8.296875 
z
" id="DejaVuSans-32"/>
     <path d="M 10.984375 1.515625 
L 10.984375 10.5 
Q 14.703125 8.734375 18.5 7.8125 
Q 22.3125 6.890625 25.984375 6.890625 
Q 35.75 6.890625 40.890625 13.453125 
Q 46.046875 20.015625 46.78125 33.40625 
Q 43.953125 29.203125 39.59375 26.953125 
Q 35.25 24.703125 29.984375 24.703125 
Q 19.046875 24.703125 12.671875 31.3125 
Q 6.296875 37.9375 6.296875 49.421875 
Q 6.296875 60.640625 12.9375 67.421875 
Q 19.578125 74.21875 30.609375 74.21875 
Q 43.265625 74.21875 49.921875 64.515625 
Q 56.59375 54.828125 56.59375 36.375 
Q 56.59375 19.140625 48.40625 8.859375 
Q 40.234375 -1.421875 26.421875 -1.421875 
Q 22.703125 -1.421875 18.890625 -0.6875 
Q 15.09375 0.046875 10.984375 1.515625 
z
M 30.609375 32.421875 
Q 37.25 32.421875 41.125 36.953125 
Q 45.015625 41.5 45.015625 49.421875 
Q 45.015625 57.28125 41.125 61.84375 
Q 37.25 66.40625 30.609375 66.40625 
Q 23.96875 66.40625 20.09375 61.84375 
Q 16.21875 57.28125 16.21875 49.421875 
Q 16.21875 41.5 20.09375 36.953125 
Q 23.96875 32.421875 30.609375 32.421875 
z
" id="DejaVuSans-39"/>
     <path d="M 11.71875 12.40625 
L 22.015625 12.40625 
L 22.015625 4 
L 14.015625 -11.625 
L 7.71875 -11.625 
L 11.71875 4 
z
" id="DejaVuSans-2c"/>
     <path d="M 16.890625 72.90625 
L 62.984375 72.90625 
L 61.375 64.59375 
L 25.09375 64.59375 
L 20.90625 43.015625 
L 55.71875 43.015625 
L 54.109375 34.71875 
L 19.28125 34.71875 
L 14.203125 8.296875 
L 51.3125 8.296875 
L 49.703125 0 
L 2.6875 0 
z
" id="DejaVuSans-Oblique-45"/>
     <path d="M 16.890625 72.90625 
L 30.171875 72.90625 
L 50.296875 10.40625 
L 62.5 72.90625 
L 72.125 72.90625 
L 57.90625 0 
L 44.578125 0 
L 24.515625 62.890625 
L 12.3125 0 
L 2.6875 0 
z
" id="DejaVuSans-Oblique-4e"/>
     <path d="M 10.59375 45.40625 
L 73.1875 45.40625 
L 73.1875 37.203125 
L 10.59375 37.203125 
z
M 10.59375 25.484375 
L 73.1875 25.484375 
L 73.1875 17.1875 
L 10.59375 17.1875 
z
" id="DejaVuSans-3d"/>
     <path d="M 4.890625 31.390625 
L 31.203125 31.390625 
L 31.203125 23.390625 
L 4.890625 23.390625 
z
" id="DejaVuSans-2d"/>
     <path d="M 31.78125 34.625 
Q 24.75 34.625 20.71875 30.859375 
Q 16.703125 27.09375 16.703125 20.515625 
Q 16.703125 13.921875 20.71875 10.15625 
Q 24.75 6.390625 31.78125 6.390625 
Q 38.8125 6.390625 42.859375 10.171875 
Q 46.921875 13.96875 46.921875 20.515625 
Q 46.921875 27.09375 42.890625 30.859375 
Q 38.875 34.625 31.78125 34.625 
z
M 21.921875 38.8125 
Q 15.578125 40.375 12.03125 44.71875 
Q 8.5 49.078125 8.5 55.328125 
Q 8.5 64.0625 14.71875 69.140625 
Q 20.953125 74.21875 31.78125 74.21875 
Q 42.671875 74.21875 48.875 69.140625 
Q 55.078125 64.0625 55.078125 55.328125 
Q 55.078125 49.078125 51.53125 44.71875 
Q 48 40.375 41.703125 38.8125 
Q 48.828125 37.15625 52.796875 32.3125 
Q 56.78125 27.484375 56.78125 20.515625 
Q 56.78125 9.90625 50.3125 4.234375 
Q 43.84375 -1.421875 31.78125 -1.421875 
Q 19.734375 -1.421875 13.25 4.234375 
Q 6.78125 9.90625 6.78125 20.515625 
Q 6.78125 27.484375 10.78125 32.3125 
Q 14.796875 37.15625 21.921875 38.8125 
z
M 18.3125 54.390625 
Q 18.3125 48.734375 21.84375 45.5625 
Q 25.390625 42.390625 31.78125 42.390625 
Q 38.140625 42.390625 41.71875 45.5625 
Q 45.3125 48.734375 45.3125 54.390625 
Q 45.3125 60.0625 41.71875 63.234375 
Q 38.140625 66.40625 31.78125 66.40625 
Q 25.390625 66.40625 21.84375 63.234375 
Q 18.3125 60.0625 18.3125 54.390625 
z
" id="DejaVuSans-38"/>
     <path d="M 10.6875 12.40625 
L 21 12.40625 
L 21 0 
L 10.6875 0 
z
" id="DejaVuSans-2e"/>
     <path d="M 37.796875 64.3125 
L 12.890625 25.390625 
L 37.796875 25.390625 
z
M 35.203125 72.90625 
L 47.609375 72.90625 
L 47.609375 25.390625 
L 58.015625 25.390625 
L 58.015625 17.1875 
L 47.609375 17.1875 
L 47.609375 0 
L 37.796875 0 
L 37.796875 17.1875 
L 4.890625 17.1875 
L 4.890625 26.703125 
z
" id="DejaVuSans-34"/>
     <path d="M 28.609375 0 
L 0.78125 72.90625 
L 11.078125 72.90625 
L 34.1875 11.53125 
L 57.328125 72.90625 
L 67.578125 72.90625 
L 39.796875 0 
z
" id="DejaVuSans-56"/>
     <path d="M 34.1875 63.1875 
L 14.15625 8.203125 
L 54.25 8.203125 
z
M 0.78125 0 
L 28.609375 72.90625 
L 39.796875 72.90625 
L 67.578125 0 
z
" id="DejaVuSans-394"/>
     <path d="M 9.8125 72.90625 
L 55.90625 72.90625 
L 55.90625 64.59375 
L 19.671875 64.59375 
L 19.671875 43.015625 
L 54.390625 43.015625 
L 54.390625 34.71875 
L 19.671875 34.71875 
L 19.671875 8.296875 
L 56.78125 8.296875 
L 56.78125 0 
L 9.8125 0 
z
" id="DejaVuSans-45"/>
    </defs>
    <g transform="translate(59.388 35.472)scale(0.12 -0.12)">
     <use transform="translate(0 0.78125)" xlink:href="#DejaVuSans-53"/>
     <use transform="translate(63.476562 0.78125)" xlink:href="#DejaVuSans-74"/>
     <use transform="translate(102.685547 0.78125)" xlink:href="#DejaVuSans-72"/>
     <use transform="translate(143.798828 0.78125)" xlink:href="#DejaVuSans-75"/>
     <use transform="translate(207.177734 0.78125)" xlink:href="#DejaVuSans-63"/>
     <use transform="translate(262.158203 0.78125)" xlink:href="#DejaVuSans-74"/>
     <use transform="translate(301.367188 0.78125)" xlink:href="#DejaVuSans-75"/>
     <use transform="translate(364.746094 0.78125)" xlink:href="#DejaVuSans-72"/>
     <use transform="translate(405.859375 0.78125)" xlink:href="#DejaVuSans-65"/>
     <use transform="translate(467.382812 0.78125)" xlink:href="#DejaVuSans-20"/>
     <use transform="translate(499.169922 0.78125)" xlink:href="#DejaVuSans-23"/>
     <use transform="translate(582.958984 0.78125)" xlink:href="#DejaVuSans-31"/>
     <use transform="translate(646.582031 0.78125)" xlink:href="#DejaVuSans-30"/>
     <use transform="translate(710.205078 0.78125)" xlink:href="#DejaVuSans-37"/>
     <use transform="translate(773.828125 0.78125)" xlink:href="#DejaVuSans-32"/>
     <use transform="translate(837.435547 0.78125)" xlink:href="#DejaVuSans-39"/>
     <use transform="translate(901.058594 0.78125)" xlink:href="#DejaVuSans-2c"/>
     <use transform="translate(932.845703 0.78125)" xlink:href="#DejaVuSans-20"/>
     <use transform="translate(964.632812 0.78125)" xlink:href="#DejaVuSans-Oblique-45"/>
     <use transform="translate(1027.816406 -15.625)scale(0.7)" xlink:href="#DejaVuSans-Oblique-4e"/>
     <use transform="translate(1082.914062 0.78125)" xlink:href="#DejaVuSans-3d"/>
     <use transform="translate(1166.703125 0.78125)" xlink:href="#DejaVuSans-2d"/>
     <use transform="translate(1202.787109 0.78125)" xlink:href="#DejaVuSans-31"/>
     <use transform="translate(1266.410156 0.78125)" xlink:href="#DejaVuSans-37"/>
     <use transform="translate(1330.033203 0.78125)" xlink:href="#DejaVuSans-38"/>
     <use transform="translate(1393.65625 0.78125)" xlink:href="#DejaVuSans-2e"/>
     <use transform="translate(1425.443359 0.78125)" xlink:href="#DejaVuSans-34"/>
     <use transform="translate(1489.066406 0.78125)" xlink:href="#DejaVuSans-37"/>
     <use transform="translate(1552.689453 0.78125)" xlink:href="#DejaVuSans-65"/>
     <use transform="translate(1614.212891 0.78125)" xlink:href="#DejaVuSans-56"/>
     <use transform="translate(1682.621094 0.78125)" xlink:href="#DejaVuSans-2c"/>
     <use transform="translate(1714.408203 0.78125)" xlink:href="#DejaVuSans-20"/>
     <use transform="translate(1746.195312 0.78125)" xlink:href="#DejaVuSans-394"/>
     <use transform="translate(1814.603516 0.78125)" xlink:href="#DejaVuSans-45"/>
     <use transform="translate(1877.787109 0.78125)" xlink:href="#DejaVuSans-3d"/>
     <use transform="translate(1961.576172 0.78125)" xlink:href="#DejaVuSans-2d"/>
     <use transform="translate(1997.660156 0.78125)" xlink:href="#DejaVuSans-30"/>
     <use transform="translate(2061.283203 0.78125)" xlink:href="#DejaVuSans-2e"/>
     <use transform="translate(2092.992188 0.78125)" xlink:href="#DejaVuSans-32"/>
     <use transform="translate(2156.615234 0.78125)" xlink:href="#DejaVuSans-34"/>
     <use transform="translate(2220.238281 0.78125)" xlink:href="#DejaVuSans-65"/>
     <use transform="translate(2281.761719 0.78125)" xlink:href="#DejaVuSans-56"/>
    </g>
   </g>
  </g>
  <g id="axes_2">
   <g id="patch_2">
    <path clip-path="url(#p3ff926d2cc)" d="M 361.152 307.584 
L 361.152 306.5445 
L 361.152 42.5115 
L 361.152 41.472 
L 374.4576 41.472 
L 374.4576 42.5115 
L 374.4576 306.5445 
L 374.4576 307.584 
z
" style="fill:#ffffff;stroke:#ffffff;stroke-linejoin:miter;stroke-width:0.01;"/>
   </g>
   <image height="265.68" id="image8b138f6ea7" transform="scale(1 -1)translate(0 -265.68)" width="12.96" x="361.44" xlink:href="data:image/png;base64,
iVBORw0KGgoAAAANSUhEUgAAABIAAAFxCAYAAAB+2fgXAAAABHNCSVQICAgIfAhkiAAAAeVJREFUeJztncmNw0AQA2ckheYQNv9QLIfQ8ygsCgQ7AEI8+jAs2Puz/94F1LP2ReCsZ18bAWIeZ5XaGRBE7VnbptG+KI101FYyNSiQG2oRITXKNaX9uclOdi2XWjftVE32CZCO2ou5Bj1TcCBr/1zB9ge7Fq0Rg2NM9pvbtG+ua1QgsRYhDy0ISEiNc40BEibbSI0Coj5CBGtkpFbXJiAjNZlrwhuSOv2M1DjXbEdEciBt1JSDDQKKpmZr2rr2j0DBGpXaWEJq3bQzEPIS26r9J+Wzv9Tm8o3aajRXqc3VUXsApKNWjeZq0x4ABVNbm7lrszVigDqP5vIl2+eaT2yfRkL7g+dRcNPqjohkjaCvRVBq0H2U3LQrOJCx9kdTg4B8oxZzzTdqdYHEngjUCAPyUctN9sVRq2sTECW2UKNLd2jVtRmo1A6AhMmWaSRcR8nUdIHUuVb75zJS218EyEitro1At69pIdeSk30Lkw0FktNImGyZRhy1O5galmxd03LUsHWk06jUZiCq+5Wb1kZNN4+wJxJuWt8RAW5am2sYNZ9rYCBzZ3buPKJ2P5Yj4Toy3keyIyJbIxs1rml1byCA84gpch5RQNB7Q0qNMGq2Hy4BXdNR41yz/cEEJfZzUz96r9PoB0okjeQ8y9TkAAAAAElFTkSuQmCC" y="-41.76"/>
   <g id="matplotlib.axis_1"/>
   <g id="matplotlib.axis_2">
    <g id="ytick_1">
     <g id="line2d_1">
      <defs>
       <path d="M 0 0 
L 3.5 0 
" id="me8cb5e36dc" style="stroke:#000000;stroke-width:0.8;"/>
      </defs>
      <g>
       <use style="stroke:#000000;stroke-width:0.8;" x="374.4576" xlink:href="#me8cb5e36dc" y="256.65252"/>
      </g>
     </g>
     <g id="text_2">
      <!-- −8 -->
      <defs>
       <path d="M 10.59375 35.5 
L 73.1875 35.5 
L 73.1875 27.203125 
L 10.59375 27.203125 
z
" id="DejaVuSans-2212"/>
      </defs>
      <g transform="translate(381.4576 260.451739)scale(0.1 -0.1)">
       <use xlink:href="#DejaVuSans-2212"/>
       <use x="83.789062" xlink:href="#DejaVuSans-38"/>
      </g>
     </g>
    </g>
    <g id="ytick_2">
     <g id="line2d_2">
      <g>
       <use style="stroke:#000000;stroke-width:0.8;" x="374.4576" xlink:href="#me8cb5e36dc" y="201.137188"/>
      </g>
     </g>
     <g id="text_3">
      <!-- −7 -->
      <g transform="translate(381.4576 204.936407)scale(0.1 -0.1)">
       <use xlink:href="#DejaVuSans-2212"/>
       <use x="83.789062" xlink:href="#DejaVuSans-37"/>
      </g>
     </g>
    </g>
    <g id="ytick_3">
     <g id="line2d_3">
      <g>
       <use style="stroke:#000000;stroke-width:0.8;" x="374.4576" xlink:href="#me8cb5e36dc" y="145.621856"/>
      </g>
     </g>
     <g id="text_4">
      <!-- −6 -->
      <defs>
       <path d="M 33.015625 40.375 
Q 26.375 40.375 22.484375 35.828125 
Q 18.609375 31.296875 18.609375 23.390625 
Q 18.609375 15.53125 22.484375 10.953125 
Q 26.375 6.390625 33.015625 6.390625 
Q 39.65625 6.390625 43.53125 10.953125 
Q 47.40625 15.53125 47.40625 23.390625 
Q 47.40625 31.296875 43.53125 35.828125 
Q 39.65625 40.375 33.015625 40.375 
z
M 52.59375 71.296875 
L 52.59375 62.3125 
Q 48.875 64.0625 45.09375 64.984375 
Q 41.3125 65.921875 37.59375 65.921875 
Q 27.828125 65.921875 22.671875 59.328125 
Q 17.53125 52.734375 16.796875 39.40625 
Q 19.671875 43.65625 24.015625 45.921875 
Q 28.375 48.1875 33.59375 48.1875 
Q 44.578125 48.1875 50.953125 41.515625 
Q 57.328125 34.859375 57.328125 23.390625 
Q 57.328125 12.15625 50.6875 5.359375 
Q 44.046875 -1.421875 33.015625 -1.421875 
Q 20.359375 -1.421875 13.671875 8.265625 
Q 6.984375 17.96875 6.984375 36.375 
Q 6.984375 53.65625 15.1875 63.9375 
Q 23.390625 74.21875 37.203125 74.21875 
Q 40.921875 74.21875 44.703125 73.484375 
Q 48.484375 72.75 52.59375 71.296875 
z
" id="DejaVuSans-36"/>
      </defs>
      <g transform="translate(381.4576 149.421075)scale(0.1 -0.1)">
       <use xlink:href="#DejaVuSans-2212"/>
       <use x="83.789062" xlink:href="#DejaVuSans-36"/>
      </g>
     </g>
    </g>
    <g id="ytick_4">
     <g id="line2d_4">
      <g>
       <use style="stroke:#000000;stroke-width:0.8;" x="374.4576" xlink:href="#me8cb5e36dc" y="90.106524"/>
      </g>
     </g>
     <g id="text_5">
      <!-- −5 -->
      <defs>
       <path d="M 10.796875 72.90625 
L 49.515625 72.90625 
L 49.515625 64.59375 
L 19.828125 64.59375 
L 19.828125 46.734375 
Q 21.96875 47.46875 24.109375 47.828125 
Q 26.265625 48.1875 28.421875 48.1875 
Q 40.625 48.1875 47.75 41.5 
Q 54.890625 34.8125 54.890625 23.390625 
Q 54.890625 11.625 47.5625 5.09375 
Q 40.234375 -1.421875 26.90625 -1.421875 
Q 22.3125 -1.421875 17.546875 -0.640625 
Q 12.796875 0.140625 7.71875 1.703125 
L 7.71875 11.625 
Q 12.109375 9.234375 16.796875 8.0625 
Q 21.484375 6.890625 26.703125 6.890625 
Q 35.15625 6.890625 40.078125 11.328125 
Q 45.015625 15.765625 45.015625 23.390625 
Q 45.015625 31 40.078125 35.4375 
Q 35.15625 39.890625 26.703125 39.890625 
Q 22.75 39.890625 18.8125 39.015625 
Q 14.890625 38.140625 10.796875 36.28125 
z
" id="DejaVuSans-35"/>
      </defs>
      <g transform="translate(381.4576 93.905743)scale(0.1 -0.1)">
       <use xlink:href="#DejaVuSans-2212"/>
       <use x="83.789062" xlink:href="#DejaVuSans-35"/>
      </g>
     </g>
    </g>
    <g id="text_6">
     <!-- Energy [eV] -->
     <defs>
      <path d="M 54.890625 33.015625 
L 54.890625 0 
L 45.90625 0 
L 45.90625 32.71875 
Q 45.90625 40.484375 42.875 44.328125 
Q 39.84375 48.1875 33.796875 48.1875 
Q 26.515625 48.1875 22.3125 43.546875 
Q 18.109375 38.921875 18.109375 30.90625 
L 18.109375 0 
L 9.078125 0 
L 9.078125 54.6875 
L 18.109375 54.6875 
L 18.109375 46.1875 
Q 21.34375 51.125 25.703125 53.5625 
Q 30.078125 56 35.796875 56 
Q 45.21875 56 50.046875 50.171875 
Q 54.890625 44.34375 54.890625 33.015625 
z
" id="DejaVuSans-6e"/>
      <path d="M 45.40625 27.984375 
Q 45.40625 37.75 41.375 43.109375 
Q 37.359375 48.484375 30.078125 48.484375 
Q 22.859375 48.484375 18.828125 43.109375 
Q 14.796875 37.75 14.796875 27.984375 
Q 14.796875 18.265625 18.828125 12.890625 
Q 22.859375 7.515625 30.078125 7.515625 
Q 37.359375 7.515625 41.375 12.890625 
Q 45.40625 18.265625 45.40625 27.984375 
z
M 54.390625 6.78125 
Q 54.390625 -7.171875 48.1875 -13.984375 
Q 42 -20.796875 29.203125 -20.796875 
Q 24.46875 -20.796875 20.265625 -20.09375 
Q 16.0625 -19.390625 12.109375 -17.921875 
L 12.109375 -9.1875 
Q 16.0625 -11.328125 19.921875 -12.34375 
Q 23.78125 -13.375 27.78125 -13.375 
Q 36.625 -13.375 41.015625 -8.765625 
Q 45.40625 -4.15625 45.40625 5.171875 
L 45.40625 9.625 
Q 42.625 4.78125 38.28125 2.390625 
Q 33.9375 0 27.875 0 
Q 17.828125 0 11.671875 7.65625 
Q 5.515625 15.328125 5.515625 27.984375 
Q 5.515625 40.671875 11.671875 48.328125 
Q 17.828125 56 27.875 56 
Q 33.9375 56 38.28125 53.609375 
Q 42.625 51.21875 45.40625 46.390625 
L 45.40625 54.6875 
L 54.390625 54.6875 
z
" id="DejaVuSans-67"/>
      <path d="M 32.171875 -5.078125 
Q 28.375 -14.84375 24.75 -17.8125 
Q 21.140625 -20.796875 15.09375 -20.796875 
L 7.90625 -20.796875 
L 7.90625 -13.28125 
L 13.1875 -13.28125 
Q 16.890625 -13.28125 18.9375 -11.515625 
Q 21 -9.765625 23.484375 -3.21875 
L 25.09375 0.875 
L 2.984375 54.6875 
L 12.5 54.6875 
L 29.59375 11.921875 
L 46.6875 54.6875 
L 56.203125 54.6875 
z
" id="DejaVuSans-79"/>
      <path d="M 8.59375 75.984375 
L 29.296875 75.984375 
L 29.296875 69 
L 17.578125 69 
L 17.578125 -6.203125 
L 29.296875 -6.203125 
L 29.296875 -13.1875 
L 8.59375 -13.1875 
z
" id="DejaVuSans-5b"/>
      <path d="M 30.421875 75.984375 
L 30.421875 -13.1875 
L 9.71875 -13.1875 
L 9.71875 -6.203125 
L 21.390625 -6.203125 
L 21.390625 69 
L 9.71875 69 
L 9.71875 75.984375 
z
" id="DejaVuSans-5d"/>
     </defs>
     <g transform="translate(407.798225 204.108469)rotate(-90)scale(0.1 -0.1)">
      <use xlink:href="#DejaVuSans-45"/>
      <use x="63.183594" xlink:href="#DejaVuSans-6e"/>
      <use x="126.5625" xlink:href="#DejaVuSans-65"/>
      <use x="188.085938" xlink:href="#DejaVuSans-72"/>
      <use x="229.183594" xlink:href="#DejaVuSans-67"/>
      <use x="292.660156" xlink:href="#DejaVuSans-79"/>
      <use x="351.839844" xlink:href="#DejaVuSans-20"/>
      <use x="383.626953" xlink:href="#DejaVuSans-5b"/>
      <use x="422.640625" xlink:href="#DejaVuSans-65"/>
      <use x="484.164062" xlink:href="#DejaVuSans-56"/>
      <use x="552.572266" xlink:href="#DejaVuSans-5d"/>
     </g>
    </g>
   </g>
   <g id="patch_3">
    <path d="M 361.152 307.584 
L 361.152 306.5445 
L 361.152 42.5115 
L 361.152 41.472 
L 374.4576 41.472 
L 374.4576 42.5115 
L 374.4576 306.5445 
L 374.4576 307.584 
z
" style="fill:none;stroke:#000000;stroke-linejoin:miter;stroke-width:0.8;"/>
   </g>
  </g>
 </g>
 <defs>
  <clipPath id="p348507d42d">
   <rect height="266.112" width="285.696" x="57.6" y="41.472"/>
  </clipPath>
  <clipPath id="p3ff926d2cc">
   <rect height="266.112" width="13.3056" x="361.152" y="41.472"/>
  </clipPath>
 </defs>
</svg>
