<?xml version="1.0" encoding="utf-8" standalone="no"?>
<!DOCTYPE svg PUBLIC "-//W3C//DTD SVG 1.1//EN"
  "http://www.w3.org/Graphics/SVG/1.1/DTD/svg11.dtd">
<!-- Created with matplotlib (http://matplotlib.org/) -->
<svg height="345.6pt" version="1.1" viewBox="0 0 460.8 345.6" width="460.8pt" xmlns="http://www.w3.org/2000/svg" xmlns:xlink="http://www.w3.org/1999/xlink">
 <defs>
  <style type="text/css">
*{stroke-linecap:butt;stroke-linejoin:round;}
  </style>
 </defs>
 <g id="figure_1">
  <g id="patch_1">
   <path d="M 0 345.6 
L 460.8 345.6 
L 460.8 0 
L 0 0 
z
" style="fill:#ffffff;"/>
  </g>
  <g id="axes_1">
   <g id="CircleCollection_1">
    <path clip-path="url(#p1601f2deec)" d="M 112.333075 90.557813 
C 114.08078 90.557813 115.757139 89.863442 116.992953 88.627628 
C 118.228768 87.391814 118.923138 85.715455 118.923138 83.967749 
C 118.923138 82.220044 118.228768 80.543685 116.992953 79.307871 
C 115.757139 78.072057 114.08078 77.377686 112.333075 77.377686 
C 110.58537 77.377686 108.90901 78.072057 107.673196 79.307871 
C 106.437382 80.543685 105.743011 82.220044 105.743011 83.967749 
C 105.743011 85.715455 106.437382 87.391814 107.673196 88.627628 
C 108.90901 89.863442 110.58537 90.557813 112.333075 90.557813 
z
" style="fill:#30698e;"/>
    <path clip-path="url(#p1601f2deec)" d="M 202.270914 301.3169 
C 203.99303 301.3169 205.644844 300.632696 206.862564 299.414976 
C 208.080283 298.197256 208.764487 296.545442 208.764487 294.823326 
C 208.764487 293.101211 208.080283 291.449397 206.862564 290.231677 
C 205.644844 289.013957 203.99303 288.329753 202.270914 288.329753 
C 200.548798 288.329753 198.896984 289.013957 197.679265 290.231677 
C 196.461545 291.449397 195.777341 293.101211 195.777341 294.823326 
C 195.777341 296.545442 196.461545 298.197256 197.679265 299.414976 
C 198.896984 300.632696 200.548798 301.3169 202.270914 301.3169 
z
" style="fill:#32648e;"/>
    <path clip-path="url(#p1601f2deec)" d="M 286.255319 264.644561 
C 287.987655 264.644561 289.649272 263.956296 290.874218 262.73135 
C 292.099165 261.506404 292.787429 259.844787 292.787429 258.112451 
C 292.787429 256.380116 292.099165 254.718499 290.874218 253.493552 
C 289.649272 252.268606 287.987655 251.580342 286.255319 251.580342 
C 284.522984 251.580342 282.861367 252.268606 281.63642 253.493552 
C 280.411474 254.718499 279.72321 256.380116 279.72321 258.112451 
C 279.72321 259.844787 280.411474 261.506404 281.63642 262.73135 
C 282.861367 263.956296 284.522984 264.644561 286.255319 264.644561 
z
" style="fill:#30698e;"/>
    <path clip-path="url(#p1601f2deec)" d="M 223.423784 166.799789 
C 225.136038 166.799789 226.778393 166.119503 227.98914 164.908756 
C 229.199887 163.69801 229.880172 162.055655 229.880172 160.3434 
C 229.880172 158.631146 229.199887 156.988791 227.98914 155.778044 
C 226.778393 154.567298 225.136038 153.887012 223.423784 153.887012 
C 221.71153 153.887012 220.069174 154.567298 218.858428 155.778044 
C 217.647681 156.988791 216.967395 158.631146 216.967395 160.3434 
C 216.967395 162.055655 217.647681 163.69801 218.858428 164.908756 
C 220.069174 166.119503 221.71153 166.799789 223.423784 166.799789 
z
" style="fill:#fde725;"/>
    <path clip-path="url(#p1601f2deec)" d="M 156.128566 301.378605 
C 157.85402 301.378605 159.509036 300.693075 160.729116 299.472995 
C 161.949196 298.252914 162.634727 296.597898 162.634727 294.872444 
C 162.634727 293.14699 161.949196 291.491974 160.729116 290.271894 
C 159.509036 289.051814 157.85402 288.366284 156.128566 288.366284 
C 154.403112 288.366284 152.748096 289.051814 151.528016 290.271894 
C 150.307936 291.491974 149.622405 293.14699 149.622405 294.872444 
C 149.622405 296.597898 150.307936 298.252914 151.528016 299.472995 
C 152.748096 300.693075 154.403112 301.378605 156.128566 301.378605 
z
" style="fill:#31678e;"/>
    <path clip-path="url(#p1601f2deec)" d="M 186.172573 170.954035 
C 188.032291 170.954035 189.81609 170.215161 191.13111 168.900141 
C 192.446129 167.585122 193.185003 165.801323 193.185003 163.941605 
C 193.185003 162.081886 192.446129 160.298087 191.13111 158.983068 
C 189.81609 157.668049 188.032291 156.929175 186.172573 156.929175 
C 184.312855 156.929175 182.529055 157.668049 181.214036 158.983068 
C 179.899017 160.298087 179.160143 162.081886 179.160143 163.941605 
C 179.160143 165.801323 179.899017 167.585122 181.214036 168.900141 
C 182.529055 170.215161 184.312855 170.954035 186.172573 170.954035 
z
" style="fill:#26818e;"/>
    <path clip-path="url(#p1601f2deec)" d="M 78.426286 120.12913 
C 80.184778 120.12913 81.871482 119.430474 83.114924 118.187033 
C 84.358365 116.943592 85.057021 115.256887 85.057021 113.498396 
C 85.057021 111.739905 84.358365 110.0532 83.114924 108.809759 
C 81.871482 107.566318 80.184778 106.867662 78.426286 106.867662 
C 76.667795 106.867662 74.98109 107.566318 73.737649 108.809759 
C 72.494208 110.0532 71.795552 111.739905 71.795552 113.498396 
C 71.795552 115.256887 72.494208 116.943592 73.737649 118.187033 
C 74.98109 119.430474 76.667795 120.12913 78.426286 120.12913 
z
" style="fill:#25848e;"/>
    <path clip-path="url(#p1601f2deec)" d="M 326.522482 184.572026 
C 328.276984 184.572026 329.959863 183.874955 331.200483 182.634335 
C 332.441103 181.393714 333.138174 179.710836 333.138174 177.956334 
C 333.138174 176.201832 332.441103 174.518954 331.200483 173.278334 
C 329.959863 172.037713 328.276984 171.340642 326.522482 171.340642 
C 324.76798 171.340642 323.085102 172.037713 321.844482 173.278334 
C 320.603862 174.518954 319.906791 176.201832 319.906791 177.956334 
C 319.906791 179.710836 320.603862 181.393714 321.844482 182.634335 
C 323.085102 183.874955 324.76798 184.572026 326.522482 184.572026 
z
" style="fill:#218f8d;"/>
    <path clip-path="url(#p1601f2deec)" d="M 296.425262 60.745989 
C 298.16435 60.745989 299.832443 60.055042 301.062164 58.825321 
C 302.291885 57.5956 302.982831 55.927507 302.982831 54.188419 
C 302.982831 52.449332 302.291885 50.781238 301.062164 49.551518 
C 299.832443 48.321797 298.16435 47.63085 296.425262 47.63085 
C 294.686175 47.63085 293.018081 48.321797 291.788361 49.551518 
C 290.55864 50.781238 289.867693 52.449332 289.867693 54.188419 
C 289.867693 55.927507 290.55864 57.5956 291.788361 58.825321 
C 293.018081 60.055042 294.686175 60.745989 296.425262 60.745989 
z
" style="fill:#60ca60;"/>
    <path clip-path="url(#p1601f2deec)" d="M 72.171477 211.698873 
C 73.977408 211.698873 75.709616 210.981369 76.986601 209.704383 
C 78.263587 208.427397 78.981091 206.69519 78.981091 204.889259 
C 78.981091 203.083328 78.263587 201.351121 76.986601 200.074135 
C 75.709616 198.797149 73.977408 198.079645 72.171477 198.079645 
C 70.365547 198.079645 68.633339 198.797149 67.356353 200.074135 
C 66.079367 201.351121 65.361864 203.083328 65.361864 204.889259 
C 65.361864 206.69519 66.079367 208.427397 67.356353 209.704383 
C 68.633339 210.981369 70.365547 211.698873 72.171477 211.698873 
z
" style="fill:#31668e;"/>
    <path clip-path="url(#p1601f2deec)" d="M 248.608997 76.999619 
C 250.358789 76.999619 252.03715 76.304419 253.27444 75.067129 
C 254.51173 73.829839 255.20693 72.151478 255.20693 70.401685 
C 255.20693 68.651893 254.51173 66.973532 253.27444 65.736242 
C 252.03715 64.498952 250.358789 63.803752 248.608997 63.803752 
C 246.859204 63.803752 245.180843 64.498952 243.943553 65.736242 
C 242.706263 66.973532 242.011063 68.651893 242.011063 70.401685 
C 242.011063 72.151478 242.706263 73.829839 243.943553 75.067129 
C 245.180843 76.304419 246.859204 76.999619 248.608997 76.999619 
z
" style="fill:#440154;"/>
    <path clip-path="url(#p1601f2deec)" d="M 200.669244 62.449509 
C 202.410599 62.449509 204.080867 61.757661 205.312191 60.526337 
C 206.543514 59.295014 207.235362 57.624746 207.235362 55.883391 
C 207.235362 54.142036 206.543514 52.471768 205.312191 51.240444 
C 204.080867 50.009121 202.410599 49.317273 200.669244 49.317273 
C 198.927889 49.317273 197.257621 50.009121 196.026298 51.240444 
C 194.794974 52.471768 194.103126 54.142036 194.103126 55.883391 
C 194.103126 57.624746 194.794974 59.295014 196.026298 60.526337 
C 197.257621 61.757661 198.927889 62.449509 200.669244 62.449509 
z
" style="fill:#23888e;"/>
    <path clip-path="url(#p1601f2deec)" d="M 329.827977 92.478183 
C 331.575257 92.478183 333.251207 91.783982 334.48672 90.548469 
C 335.722233 89.312956 336.416435 87.637005 336.416435 85.889726 
C 336.416435 84.142446 335.722233 82.466496 334.48672 81.230983 
C 333.251207 79.99547 331.575257 79.301268 329.827977 79.301268 
C 328.080698 79.301268 326.404747 79.99547 325.169234 81.230983 
C 323.933721 82.466496 323.23952 84.142446 323.23952 85.889726 
C 323.23952 87.637005 323.933721 89.312956 325.169234 90.548469 
C 326.404747 91.783982 328.080698 92.478183 329.827977 92.478183 
z
" style="fill:#60ca60;"/>
    <path clip-path="url(#p1601f2deec)" d="M 114.018996 280.537021 
C 115.764205 280.537021 117.438169 279.843643 118.672217 278.609594 
C 119.906266 277.375546 120.599645 275.701582 120.599645 273.956373 
C 120.599645 272.211165 119.906266 270.537201 118.672217 269.303152 
C 117.438169 268.069104 115.764205 267.375725 114.018996 267.375725 
C 112.273788 267.375725 110.599824 268.069104 109.365775 269.303152 
C 108.131727 270.537201 107.438348 272.211165 107.438348 273.956373 
C 107.438348 275.701582 108.131727 277.375546 109.365775 278.609594 
C 110.599824 279.843643 112.273788 280.537021 114.018996 280.537021 
z
" style="fill:#32648e;"/>
    <path clip-path="url(#p1601f2deec)" d="M 311.706925 138.025011 
C 313.466919 138.025011 315.155065 137.325758 316.399569 136.081254 
C 317.644073 134.83675 318.343326 133.148604 318.343326 131.38861 
C 318.343326 129.628615 317.644073 127.940469 316.399569 126.695965 
C 315.155065 125.451461 313.466919 124.752208 311.706925 124.752208 
C 309.94693 124.752208 308.258784 125.451461 307.01428 126.695965 
C 305.769776 127.940469 305.070523 129.628615 305.070523 131.38861 
C 305.070523 133.148604 305.769776 134.83675 307.01428 136.081254 
C 308.258784 137.325758 309.94693 138.025011 311.706925 138.025011 
z
" style="fill:#460a5d;"/>
    <path clip-path="url(#p1601f2deec)" d="M 255.779826 130.313949 
C 257.541292 130.313949 259.23085 129.614111 260.476395 128.368567 
C 261.72194 127.123022 262.421778 125.433464 262.421778 123.671997 
C 262.421778 121.910531 261.72194 120.220972 260.476395 118.975428 
C 259.23085 117.729883 257.541292 117.030045 255.779826 117.030045 
C 254.018359 117.030045 252.328801 117.729883 251.083256 118.975428 
C 249.837711 120.220972 249.137873 121.910531 249.137873 123.671997 
C 249.137873 125.433464 249.837711 127.123022 251.083256 128.368567 
C 252.328801 129.614111 254.018359 130.313949 255.779826 130.313949 
z
" style="fill:#38588c;"/>
    <path clip-path="url(#p1601f2deec)" d="M 314.140949 226.923025 
C 315.885498 226.923025 317.558829 226.229909 318.792411 224.996327 
C 320.025993 223.762744 320.71911 222.089413 320.71911 220.344865 
C 320.71911 218.600316 320.025993 216.926985 318.792411 215.693403 
C 317.558829 214.459821 315.885498 213.766704 314.140949 213.766704 
C 312.396401 213.766704 310.72307 214.459821 309.489488 215.693403 
C 308.255905 216.926985 307.562789 218.600316 307.562789 220.344865 
C 307.562789 222.089413 308.255905 223.762744 309.489488 224.996327 
C 310.72307 226.229909 312.396401 226.923025 314.140949 226.923025 
z
" style="fill:#355f8d;"/>
    <path clip-path="url(#p1601f2deec)" d="M 155.384766 69.124735 
C 157.121839 69.124735 158.788 68.434589 160.016296 67.206293 
C 161.244593 65.977997 161.934739 64.311836 161.934739 62.574763 
C 161.934739 60.837689 161.244593 59.171528 160.016296 57.943232 
C 158.788 56.714936 157.121839 56.02479 155.384766 56.02479 
C 153.647693 56.02479 151.981532 56.714936 150.753236 57.943232 
C 149.52494 59.171528 148.834793 60.837689 148.834793 62.574763 
C 148.834793 64.311836 149.52494 65.977997 150.753236 67.206293 
C 151.981532 68.434589 153.647693 69.124735 155.384766 69.124735 
z
" style="fill:#355f8d;"/>
    <path clip-path="url(#p1601f2deec)" d="M 220.409798 163.441821 
C 222.210152 163.441821 223.93701 162.726533 225.210052 161.45349 
C 226.483095 160.180448 227.198383 158.45359 227.198383 156.653236 
C 227.198383 154.852882 226.483095 153.126024 225.210052 151.852982 
C 223.93701 150.579939 222.210152 149.864651 220.409798 149.864651 
C 218.609444 149.864651 216.882586 150.579939 215.609544 151.852982 
C 214.336501 153.126024 213.621213 154.852882 213.621213 156.653236 
C 213.621213 158.45359 214.336501 160.180448 215.609544 161.45349 
C 216.882586 162.726533 218.609444 163.441821 220.409798 163.441821 
z
" style="fill:#355f8d;"/>
    <path clip-path="url(#p1601f2deec)" d="M 71.083366 161.638814 
C 72.886286 161.638814 74.615605 160.922506 75.890461 159.64765 
C 77.165318 158.372793 77.881625 156.643474 77.881625 154.840555 
C 77.881625 153.037636 77.165318 151.308317 75.890461 150.03346 
C 74.615605 148.758604 72.886286 148.042296 71.083366 148.042296 
C 69.280447 148.042296 67.551128 148.758604 66.276272 150.03346 
C 65.001415 151.308317 64.285108 153.037636 64.285108 154.840555 
C 64.285108 156.643474 65.001415 158.372793 66.276272 159.64765 
C 67.551128 160.922506 69.280447 161.638814 71.083366 161.638814 
z
" style="fill:#2e6d8e;"/>
    <path clip-path="url(#p1601f2deec)" d="M 101.150353 185.372775 
C 103.011873 185.372775 104.7974 184.633186 106.113693 183.316893 
C 107.429986 182.0006 108.169575 180.215073 108.169575 178.353553 
C 108.169575 176.492034 107.429986 174.706507 106.113693 173.390214 
C 104.7974 172.073921 103.011873 171.334331 101.150353 171.334331 
C 99.288834 171.334331 97.503307 172.073921 96.187014 173.390214 
C 94.870721 174.706507 94.131131 176.492034 94.131131 178.353553 
C 94.131131 180.215073 94.870721 182.0006 96.187014 183.316893 
C 97.503307 184.633186 99.288834 185.372775 101.150353 185.372775 
z
" style="fill:#2c738e;"/>
    <path clip-path="url(#p1601f2deec)" d="M 249.563866 291.342864 
C 251.288676 291.342864 252.943075 290.65759 254.162699 289.437965 
C 255.382324 288.21834 256.067599 286.563942 256.067599 284.839132 
C 256.067599 283.114322 255.382324 281.459924 254.162699 280.240299 
C 252.943075 279.020674 251.288676 278.3354 249.563866 278.3354 
C 247.839056 278.3354 246.184658 279.020674 244.965033 280.240299 
C 243.745408 281.459924 243.060134 283.114322 243.060134 284.839132 
C 243.060134 286.563942 243.745408 288.21834 244.965033 289.437965 
C 246.184658 290.65759 247.839056 291.342864 249.563866 291.342864 
z
" style="fill:#33638d;"/>
    <path clip-path="url(#p1601f2deec)" d="M 78.868519 254.007736 
C 80.633653 254.007736 82.326729 253.306441 83.574867 252.058303 
C 84.823006 250.810165 85.524301 249.117089 85.524301 247.351955 
C 85.524301 245.586821 84.823006 243.893745 83.574867 242.645607 
C 82.326729 241.397468 80.633653 240.696173 78.868519 240.696173 
C 77.103385 240.696173 75.410309 241.397468 74.162171 242.645607 
C 72.914033 243.893745 72.212738 245.586821 72.212738 247.351955 
C 72.212738 249.117089 72.914033 250.810165 74.162171 252.058303 
C 75.410309 253.306441 77.103385 254.007736 78.868519 254.007736 
z
" style="fill:#26828e;"/>
    <path clip-path="url(#p1601f2deec)" d="M 146.85612 182.037385 
C 148.750902 182.037385 150.568333 181.284581 151.908146 179.944768 
C 153.247959 178.604955 154.000764 176.787523 154.000764 174.892741 
C 154.000764 172.99796 153.247959 171.180528 151.908146 169.840715 
C 150.568333 168.500902 148.750902 167.748098 146.85612 167.748098 
C 144.961339 167.748098 143.143907 168.500902 141.804094 169.840715 
C 140.464281 171.180528 139.711476 172.99796 139.711476 174.892741 
C 139.711476 176.787523 140.464281 178.604955 141.804094 179.944768 
C 143.143907 181.284581 144.961339 182.037385 146.85612 182.037385 
z
" style="fill:#2c738e;"/>
   </g>
   <g id="text_1">
    <!-- Structure #4466, $E_N$=-180.08eV, ΔE=0.15eV -->
    <defs>
     <path d="M 53.515625 70.515625 
L 53.515625 60.890625 
Q 47.90625 63.578125 42.921875 64.890625 
Q 37.9375 66.21875 33.296875 66.21875 
Q 25.25 66.21875 20.875 63.09375 
Q 16.5 59.96875 16.5 54.203125 
Q 16.5 49.359375 19.40625 46.890625 
Q 22.3125 44.4375 30.421875 42.921875 
L 36.375 41.703125 
Q 47.40625 39.59375 52.65625 34.296875 
Q 57.90625 29 57.90625 20.125 
Q 57.90625 9.515625 50.796875 4.046875 
Q 43.703125 -1.421875 29.984375 -1.421875 
Q 24.8125 -1.421875 18.96875 -0.25 
Q 13.140625 0.921875 6.890625 3.21875 
L 6.890625 13.375 
Q 12.890625 10.015625 18.65625 8.296875 
Q 24.421875 6.59375 29.984375 6.59375 
Q 38.421875 6.59375 43.015625 9.90625 
Q 47.609375 13.234375 47.609375 19.390625 
Q 47.609375 24.75 44.3125 27.78125 
Q 41.015625 30.8125 33.5 32.328125 
L 27.484375 33.5 
Q 16.453125 35.6875 11.515625 40.375 
Q 6.59375 45.0625 6.59375 53.421875 
Q 6.59375 63.09375 13.40625 68.65625 
Q 20.21875 74.21875 32.171875 74.21875 
Q 37.3125 74.21875 42.625 73.28125 
Q 47.953125 72.359375 53.515625 70.515625 
z
" id="DejaVuSans-53"/>
     <path d="M 18.3125 70.21875 
L 18.3125 54.6875 
L 36.8125 54.6875 
L 36.8125 47.703125 
L 18.3125 47.703125 
L 18.3125 18.015625 
Q 18.3125 11.328125 20.140625 9.421875 
Q 21.96875 7.515625 27.59375 7.515625 
L 36.8125 7.515625 
L 36.8125 0 
L 27.59375 0 
Q 17.1875 0 13.234375 3.875 
Q 9.28125 7.765625 9.28125 18.015625 
L 9.28125 47.703125 
L 2.6875 47.703125 
L 2.6875 54.6875 
L 9.28125 54.6875 
L 9.28125 70.21875 
z
" id="DejaVuSans-74"/>
     <path d="M 41.109375 46.296875 
Q 39.59375 47.171875 37.8125 47.578125 
Q 36.03125 48 33.890625 48 
Q 26.265625 48 22.1875 43.046875 
Q 18.109375 38.09375 18.109375 28.8125 
L 18.109375 0 
L 9.078125 0 
L 9.078125 54.6875 
L 18.109375 54.6875 
L 18.109375 46.1875 
Q 20.953125 51.171875 25.484375 53.578125 
Q 30.03125 56 36.53125 56 
Q 37.453125 56 38.578125 55.875 
Q 39.703125 55.765625 41.0625 55.515625 
z
" id="DejaVuSans-72"/>
     <path d="M 8.5 21.578125 
L 8.5 54.6875 
L 17.484375 54.6875 
L 17.484375 21.921875 
Q 17.484375 14.15625 20.5 10.265625 
Q 23.53125 6.390625 29.59375 6.390625 
Q 36.859375 6.390625 41.078125 11.03125 
Q 45.3125 15.671875 45.3125 23.6875 
L 45.3125 54.6875 
L 54.296875 54.6875 
L 54.296875 0 
L 45.3125 0 
L 45.3125 8.40625 
Q 42.046875 3.421875 37.71875 1 
Q 33.40625 -1.421875 27.6875 -1.421875 
Q 18.265625 -1.421875 13.375 4.4375 
Q 8.5 10.296875 8.5 21.578125 
z
M 31.109375 56 
z
" id="DejaVuSans-75"/>
     <path d="M 48.78125 52.59375 
L 48.78125 44.1875 
Q 44.96875 46.296875 41.140625 47.34375 
Q 37.3125 48.390625 33.40625 48.390625 
Q 24.65625 48.390625 19.8125 42.84375 
Q 14.984375 37.3125 14.984375 27.296875 
Q 14.984375 17.28125 19.8125 11.734375 
Q 24.65625 6.203125 33.40625 6.203125 
Q 37.3125 6.203125 41.140625 7.25 
Q 44.96875 8.296875 48.78125 10.40625 
L 48.78125 2.09375 
Q 45.015625 0.34375 40.984375 -0.53125 
Q 36.96875 -1.421875 32.421875 -1.421875 
Q 20.0625 -1.421875 12.78125 6.34375 
Q 5.515625 14.109375 5.515625 27.296875 
Q 5.515625 40.671875 12.859375 48.328125 
Q 20.21875 56 33.015625 56 
Q 37.15625 56 41.109375 55.140625 
Q 45.0625 54.296875 48.78125 52.59375 
z
" id="DejaVuSans-63"/>
     <path d="M 56.203125 29.59375 
L 56.203125 25.203125 
L 14.890625 25.203125 
Q 15.484375 15.921875 20.484375 11.0625 
Q 25.484375 6.203125 34.421875 6.203125 
Q 39.59375 6.203125 44.453125 7.46875 
Q 49.3125 8.734375 54.109375 11.28125 
L 54.109375 2.78125 
Q 49.265625 0.734375 44.1875 -0.34375 
Q 39.109375 -1.421875 33.890625 -1.421875 
Q 20.796875 -1.421875 13.15625 6.1875 
Q 5.515625 13.8125 5.515625 26.8125 
Q 5.515625 40.234375 12.765625 48.109375 
Q 20.015625 56 32.328125 56 
Q 43.359375 56 49.78125 48.890625 
Q 56.203125 41.796875 56.203125 29.59375 
z
M 47.21875 32.234375 
Q 47.125 39.59375 43.09375 43.984375 
Q 39.0625 48.390625 32.421875 48.390625 
Q 24.90625 48.390625 20.390625 44.140625 
Q 15.875 39.890625 15.1875 32.171875 
z
" id="DejaVuSans-65"/>
     <path id="DejaVuSans-20"/>
     <path d="M 51.125 44 
L 36.921875 44 
L 32.8125 27.6875 
L 47.125 27.6875 
z
M 43.796875 71.78125 
L 38.71875 51.515625 
L 52.984375 51.515625 
L 58.109375 71.78125 
L 65.921875 71.78125 
L 60.890625 51.515625 
L 76.125 51.515625 
L 76.125 44 
L 58.984375 44 
L 54.984375 27.6875 
L 70.515625 27.6875 
L 70.515625 20.21875 
L 53.078125 20.21875 
L 48 0 
L 40.1875 0 
L 45.21875 20.21875 
L 30.90625 20.21875 
L 25.875 0 
L 18.015625 0 
L 23.09375 20.21875 
L 7.71875 20.21875 
L 7.71875 27.6875 
L 24.90625 27.6875 
L 29 44 
L 13.28125 44 
L 13.28125 51.515625 
L 30.90625 51.515625 
L 35.890625 71.78125 
z
" id="DejaVuSans-23"/>
     <path d="M 37.796875 64.3125 
L 12.890625 25.390625 
L 37.796875 25.390625 
z
M 35.203125 72.90625 
L 47.609375 72.90625 
L 47.609375 25.390625 
L 58.015625 25.390625 
L 58.015625 17.1875 
L 47.609375 17.1875 
L 47.609375 0 
L 37.796875 0 
L 37.796875 17.1875 
L 4.890625 17.1875 
L 4.890625 26.703125 
z
" id="DejaVuSans-34"/>
     <path d="M 33.015625 40.375 
Q 26.375 40.375 22.484375 35.828125 
Q 18.609375 31.296875 18.609375 23.390625 
Q 18.609375 15.53125 22.484375 10.953125 
Q 26.375 6.390625 33.015625 6.390625 
Q 39.65625 6.390625 43.53125 10.953125 
Q 47.40625 15.53125 47.40625 23.390625 
Q 47.40625 31.296875 43.53125 35.828125 
Q 39.65625 40.375 33.015625 40.375 
z
M 52.59375 71.296875 
L 52.59375 62.3125 
Q 48.875 64.0625 45.09375 64.984375 
Q 41.3125 65.921875 37.59375 65.921875 
Q 27.828125 65.921875 22.671875 59.328125 
Q 17.53125 52.734375 16.796875 39.40625 
Q 19.671875 43.65625 24.015625 45.921875 
Q 28.375 48.1875 33.59375 48.1875 
Q 44.578125 48.1875 50.953125 41.515625 
Q 57.328125 34.859375 57.328125 23.390625 
Q 57.328125 12.15625 50.6875 5.359375 
Q 44.046875 -1.421875 33.015625 -1.421875 
Q 20.359375 -1.421875 13.671875 8.265625 
Q 6.984375 17.96875 6.984375 36.375 
Q 6.984375 53.65625 15.1875 63.9375 
Q 23.390625 74.21875 37.203125 74.21875 
Q 40.921875 74.21875 44.703125 73.484375 
Q 48.484375 72.75 52.59375 71.296875 
z
" id="DejaVuSans-36"/>
     <path d="M 11.71875 12.40625 
L 22.015625 12.40625 
L 22.015625 4 
L 14.015625 -11.625 
L 7.71875 -11.625 
L 11.71875 4 
z
" id="DejaVuSans-2c"/>
     <path d="M 16.890625 72.90625 
L 62.984375 72.90625 
L 61.375 64.59375 
L 25.09375 64.59375 
L 20.90625 43.015625 
L 55.71875 43.015625 
L 54.109375 34.71875 
L 19.28125 34.71875 
L 14.203125 8.296875 
L 51.3125 8.296875 
L 49.703125 0 
L 2.6875 0 
z
" id="DejaVuSans-Oblique-45"/>
     <path d="M 16.890625 72.90625 
L 30.171875 72.90625 
L 50.296875 10.40625 
L 62.5 72.90625 
L 72.125 72.90625 
L 57.90625 0 
L 44.578125 0 
L 24.515625 62.890625 
L 12.3125 0 
L 2.6875 0 
z
" id="DejaVuSans-Oblique-4e"/>
     <path d="M 10.59375 45.40625 
L 73.1875 45.40625 
L 73.1875 37.203125 
L 10.59375 37.203125 
z
M 10.59375 25.484375 
L 73.1875 25.484375 
L 73.1875 17.1875 
L 10.59375 17.1875 
z
" id="DejaVuSans-3d"/>
     <path d="M 4.890625 31.390625 
L 31.203125 31.390625 
L 31.203125 23.390625 
L 4.890625 23.390625 
z
" id="DejaVuSans-2d"/>
     <path d="M 12.40625 8.296875 
L 28.515625 8.296875 
L 28.515625 63.921875 
L 10.984375 60.40625 
L 10.984375 69.390625 
L 28.421875 72.90625 
L 38.28125 72.90625 
L 38.28125 8.296875 
L 54.390625 8.296875 
L 54.390625 0 
L 12.40625 0 
z
" id="DejaVuSans-31"/>
     <path d="M 31.78125 34.625 
Q 24.75 34.625 20.71875 30.859375 
Q 16.703125 27.09375 16.703125 20.515625 
Q 16.703125 13.921875 20.71875 10.15625 
Q 24.75 6.390625 31.78125 6.390625 
Q 38.8125 6.390625 42.859375 10.171875 
Q 46.921875 13.96875 46.921875 20.515625 
Q 46.921875 27.09375 42.890625 30.859375 
Q 38.875 34.625 31.78125 34.625 
z
M 21.921875 38.8125 
Q 15.578125 40.375 12.03125 44.71875 
Q 8.5 49.078125 8.5 55.328125 
Q 8.5 64.0625 14.71875 69.140625 
Q 20.953125 74.21875 31.78125 74.21875 
Q 42.671875 74.21875 48.875 69.140625 
Q 55.078125 64.0625 55.078125 55.328125 
Q 55.078125 49.078125 51.53125 44.71875 
Q 48 40.375 41.703125 38.8125 
Q 48.828125 37.15625 52.796875 32.3125 
Q 56.78125 27.484375 56.78125 20.515625 
Q 56.78125 9.90625 50.3125 4.234375 
Q 43.84375 -1.421875 31.78125 -1.421875 
Q 19.734375 -1.421875 13.25 4.234375 
Q 6.78125 9.90625 6.78125 20.515625 
Q 6.78125 27.484375 10.78125 32.3125 
Q 14.796875 37.15625 21.921875 38.8125 
z
M 18.3125 54.390625 
Q 18.3125 48.734375 21.84375 45.5625 
Q 25.390625 42.390625 31.78125 42.390625 
Q 38.140625 42.390625 41.71875 45.5625 
Q 45.3125 48.734375 45.3125 54.390625 
Q 45.3125 60.0625 41.71875 63.234375 
Q 38.140625 66.40625 31.78125 66.40625 
Q 25.390625 66.40625 21.84375 63.234375 
Q 18.3125 60.0625 18.3125 54.390625 
z
" id="DejaVuSans-38"/>
     <path d="M 31.78125 66.40625 
Q 24.171875 66.40625 20.328125 58.90625 
Q 16.5 51.421875 16.5 36.375 
Q 16.5 21.390625 20.328125 13.890625 
Q 24.171875 6.390625 31.78125 6.390625 
Q 39.453125 6.390625 43.28125 13.890625 
Q 47.125 21.390625 47.125 36.375 
Q 47.125 51.421875 43.28125 58.90625 
Q 39.453125 66.40625 31.78125 66.40625 
z
M 31.78125 74.21875 
Q 44.046875 74.21875 50.515625 64.515625 
Q 56.984375 54.828125 56.984375 36.375 
Q 56.984375 17.96875 50.515625 8.265625 
Q 44.046875 -1.421875 31.78125 -1.421875 
Q 19.53125 -1.421875 13.0625 8.265625 
Q 6.59375 17.96875 6.59375 36.375 
Q 6.59375 54.828125 13.0625 64.515625 
Q 19.53125 74.21875 31.78125 74.21875 
z
" id="DejaVuSans-30"/>
     <path d="M 10.6875 12.40625 
L 21 12.40625 
L 21 0 
L 10.6875 0 
z
" id="DejaVuSans-2e"/>
     <path d="M 28.609375 0 
L 0.78125 72.90625 
L 11.078125 72.90625 
L 34.1875 11.53125 
L 57.328125 72.90625 
L 67.578125 72.90625 
L 39.796875 0 
z
" id="DejaVuSans-56"/>
     <path d="M 34.1875 63.1875 
L 14.15625 8.203125 
L 54.25 8.203125 
z
M 0.78125 0 
L 28.609375 72.90625 
L 39.796875 72.90625 
L 67.578125 0 
z
" id="DejaVuSans-394"/>
     <path d="M 9.8125 72.90625 
L 55.90625 72.90625 
L 55.90625 64.59375 
L 19.671875 64.59375 
L 19.671875 43.015625 
L 54.390625 43.015625 
L 54.390625 34.71875 
L 19.671875 34.71875 
L 19.671875 8.296875 
L 56.78125 8.296875 
L 56.78125 0 
L 9.8125 0 
z
" id="DejaVuSans-45"/>
     <path d="M 10.796875 72.90625 
L 49.515625 72.90625 
L 49.515625 64.59375 
L 19.828125 64.59375 
L 19.828125 46.734375 
Q 21.96875 47.46875 24.109375 47.828125 
Q 26.265625 48.1875 28.421875 48.1875 
Q 40.625 48.1875 47.75 41.5 
Q 54.890625 34.8125 54.890625 23.390625 
Q 54.890625 11.625 47.5625 5.09375 
Q 40.234375 -1.421875 26.90625 -1.421875 
Q 22.3125 -1.421875 17.546875 -0.640625 
Q 12.796875 0.140625 7.71875 1.703125 
L 7.71875 11.625 
Q 12.109375 9.234375 16.796875 8.0625 
Q 21.484375 6.890625 26.703125 6.890625 
Q 35.15625 6.890625 40.078125 11.328125 
Q 45.015625 15.765625 45.015625 23.390625 
Q 45.015625 31 40.078125 35.4375 
Q 35.15625 39.890625 26.703125 39.890625 
Q 22.75 39.890625 18.8125 39.015625 
Q 14.890625 38.140625 10.796875 36.28125 
z
" id="DejaVuSans-35"/>
    </defs>
    <g transform="translate(65.388 35.472)scale(0.12 -0.12)">
     <use transform="translate(0 0.78125)" xlink:href="#DejaVuSans-53"/>
     <use transform="translate(63.476562 0.78125)" xlink:href="#DejaVuSans-74"/>
     <use transform="translate(102.685547 0.78125)" xlink:href="#DejaVuSans-72"/>
     <use transform="translate(143.798828 0.78125)" xlink:href="#DejaVuSans-75"/>
     <use transform="translate(207.177734 0.78125)" xlink:href="#DejaVuSans-63"/>
     <use transform="translate(262.158203 0.78125)" xlink:href="#DejaVuSans-74"/>
     <use transform="translate(301.367188 0.78125)" xlink:href="#DejaVuSans-75"/>
     <use transform="translate(364.746094 0.78125)" xlink:href="#DejaVuSans-72"/>
     <use transform="translate(405.859375 0.78125)" xlink:href="#DejaVuSans-65"/>
     <use transform="translate(467.382812 0.78125)" xlink:href="#DejaVuSans-20"/>
     <use transform="translate(499.169922 0.78125)" xlink:href="#DejaVuSans-23"/>
     <use transform="translate(582.958984 0.78125)" xlink:href="#DejaVuSans-34"/>
     <use transform="translate(646.582031 0.78125)" xlink:href="#DejaVuSans-34"/>
     <use transform="translate(710.205078 0.78125)" xlink:href="#DejaVuSans-36"/>
     <use transform="translate(773.828125 0.78125)" xlink:href="#DejaVuSans-36"/>
     <use transform="translate(837.451172 0.78125)" xlink:href="#DejaVuSans-2c"/>
     <use transform="translate(869.238281 0.78125)" xlink:href="#DejaVuSans-20"/>
     <use transform="translate(901.025391 0.78125)" xlink:href="#DejaVuSans-Oblique-45"/>
     <use transform="translate(964.208984 -15.625)scale(0.7)" xlink:href="#DejaVuSans-Oblique-4e"/>
     <use transform="translate(1019.306641 0.78125)" xlink:href="#DejaVuSans-3d"/>
     <use transform="translate(1103.095703 0.78125)" xlink:href="#DejaVuSans-2d"/>
     <use transform="translate(1139.179688 0.78125)" xlink:href="#DejaVuSans-31"/>
     <use transform="translate(1202.802734 0.78125)" xlink:href="#DejaVuSans-38"/>
     <use transform="translate(1266.425781 0.78125)" xlink:href="#DejaVuSans-30"/>
     <use transform="translate(1330.048828 0.78125)" xlink:href="#DejaVuSans-2e"/>
     <use transform="translate(1361.835938 0.78125)" xlink:href="#DejaVuSans-30"/>
     <use transform="translate(1425.458984 0.78125)" xlink:href="#DejaVuSans-38"/>
     <use transform="translate(1489.082031 0.78125)" xlink:href="#DejaVuSans-65"/>
     <use transform="translate(1550.605469 0.78125)" xlink:href="#DejaVuSans-56"/>
     <use transform="translate(1619.013672 0.78125)" xlink:href="#DejaVuSans-2c"/>
     <use transform="translate(1650.800781 0.78125)" xlink:href="#DejaVuSans-20"/>
     <use transform="translate(1682.587891 0.78125)" xlink:href="#DejaVuSans-394"/>
     <use transform="translate(1750.996094 0.78125)" xlink:href="#DejaVuSans-45"/>
     <use transform="translate(1814.179688 0.78125)" xlink:href="#DejaVuSans-3d"/>
     <use transform="translate(1897.96875 0.78125)" xlink:href="#DejaVuSans-30"/>
     <use transform="translate(1961.591797 0.78125)" xlink:href="#DejaVuSans-2e"/>
     <use transform="translate(1993.378906 0.78125)" xlink:href="#DejaVuSans-31"/>
     <use transform="translate(2057.001953 0.78125)" xlink:href="#DejaVuSans-35"/>
     <use transform="translate(2120.625 0.78125)" xlink:href="#DejaVuSans-65"/>
     <use transform="translate(2182.148438 0.78125)" xlink:href="#DejaVuSans-56"/>
    </g>
   </g>
  </g>
  <g id="axes_2">
   <g id="patch_2">
    <path clip-path="url(#p02e26912f5)" d="M 361.152 307.584 
L 361.152 306.5445 
L 361.152 42.5115 
L 361.152 41.472 
L 374.4576 41.472 
L 374.4576 42.5115 
L 374.4576 306.5445 
L 374.4576 307.584 
z
" style="fill:#ffffff;stroke:#ffffff;stroke-linejoin:miter;stroke-width:0.01;"/>
   </g>
   <image height="265.68" id="image81f05e5307" transform="scale(1 -1)translate(0 -265.68)" width="12.96" x="361.44" xlink:href="data:image/png;base64,
iVBORw0KGgoAAAANSUhEUgAAABIAAAFxCAYAAAB+2fgXAAAABHNCSVQICAgIfAhkiAAAAeVJREFUeJztncmNw0AQA2ckheYQNv9QLIfQ8ygsCgQ7AEI8+jAs2Puz/94F1LP2ReCsZ18bAWIeZ5XaGRBE7VnbptG+KI101FYyNSiQG2oRITXKNaX9uclOdi2XWjftVE32CZCO2ou5Bj1TcCBr/1zB9ge7Fq0Rg2NM9pvbtG+ua1QgsRYhDy0ISEiNc40BEibbSI0Coj5CBGtkpFbXJiAjNZlrwhuSOv2M1DjXbEdEciBt1JSDDQKKpmZr2rr2j0DBGpXaWEJq3bQzEPIS26r9J+Wzv9Tm8o3aajRXqc3VUXsApKNWjeZq0x4ABVNbm7lrszVigDqP5vIl2+eaT2yfRkL7g+dRcNPqjohkjaCvRVBq0H2U3LQrOJCx9kdTg4B8oxZzzTdqdYHEngjUCAPyUctN9sVRq2sTECW2UKNLd2jVtRmo1A6AhMmWaSRcR8nUdIHUuVb75zJS218EyEitro1At69pIdeSk30Lkw0FktNImGyZRhy1O5galmxd03LUsHWk06jUZiCq+5Wb1kZNN4+wJxJuWt8RAW5am2sYNZ9rYCBzZ3buPKJ2P5Yj4Toy3keyIyJbIxs1rml1byCA84gpch5RQNB7Q0qNMGq2Hy4BXdNR41yz/cEEJfZzUz96r9PoB0okjeQ8y9TkAAAAAElFTkSuQmCC" y="-41.76"/>
   <g id="matplotlib.axis_1"/>
   <g id="matplotlib.axis_2">
    <g id="ytick_1">
     <g id="line2d_1">
      <defs>
       <path d="M 0 0 
L 3.5 0 
" id="ma4efaf5788" style="stroke:#000000;stroke-width:0.8;"/>
      </defs>
      <g>
       <use style="stroke:#000000;stroke-width:0.8;" x="374.4576" xlink:href="#ma4efaf5788" y="256.134994"/>
      </g>
     </g>
     <g id="text_2">
      <!-- −8.0 -->
      <defs>
       <path d="M 10.59375 35.5 
L 73.1875 35.5 
L 73.1875 27.203125 
L 10.59375 27.203125 
z
" id="DejaVuSans-2212"/>
      </defs>
      <g transform="translate(381.4576 259.934212)scale(0.1 -0.1)">
       <use xlink:href="#DejaVuSans-2212"/>
       <use x="83.789062" xlink:href="#DejaVuSans-38"/>
       <use x="147.412109" xlink:href="#DejaVuSans-2e"/>
       <use x="179.199219" xlink:href="#DejaVuSans-30"/>
      </g>
     </g>
    </g>
    <g id="ytick_2">
     <g id="line2d_2">
      <g>
       <use style="stroke:#000000;stroke-width:0.8;" x="374.4576" xlink:href="#ma4efaf5788" y="203.005944"/>
      </g>
     </g>
     <g id="text_3">
      <!-- −7.5 -->
      <defs>
       <path d="M 8.203125 72.90625 
L 55.078125 72.90625 
L 55.078125 68.703125 
L 28.609375 0 
L 18.3125 0 
L 43.21875 64.59375 
L 8.203125 64.59375 
z
" id="DejaVuSans-37"/>
      </defs>
      <g transform="translate(381.4576 206.805163)scale(0.1 -0.1)">
       <use xlink:href="#DejaVuSans-2212"/>
       <use x="83.789062" xlink:href="#DejaVuSans-37"/>
       <use x="147.412109" xlink:href="#DejaVuSans-2e"/>
       <use x="179.199219" xlink:href="#DejaVuSans-35"/>
      </g>
     </g>
    </g>
    <g id="ytick_3">
     <g id="line2d_3">
      <g>
       <use style="stroke:#000000;stroke-width:0.8;" x="374.4576" xlink:href="#ma4efaf5788" y="149.876894"/>
      </g>
     </g>
     <g id="text_4">
      <!-- −7.0 -->
      <g transform="translate(381.4576 153.676113)scale(0.1 -0.1)">
       <use xlink:href="#DejaVuSans-2212"/>
       <use x="83.789062" xlink:href="#DejaVuSans-37"/>
       <use x="147.412109" xlink:href="#DejaVuSans-2e"/>
       <use x="179.199219" xlink:href="#DejaVuSans-30"/>
      </g>
     </g>
    </g>
    <g id="ytick_4">
     <g id="line2d_4">
      <g>
       <use style="stroke:#000000;stroke-width:0.8;" x="374.4576" xlink:href="#ma4efaf5788" y="96.747845"/>
      </g>
     </g>
     <g id="text_5">
      <!-- −6.5 -->
      <g transform="translate(381.4576 100.547063)scale(0.1 -0.1)">
       <use xlink:href="#DejaVuSans-2212"/>
       <use x="83.789062" xlink:href="#DejaVuSans-36"/>
       <use x="147.412109" xlink:href="#DejaVuSans-2e"/>
       <use x="179.199219" xlink:href="#DejaVuSans-35"/>
      </g>
     </g>
    </g>
    <g id="ytick_5">
     <g id="line2d_5">
      <g>
       <use style="stroke:#000000;stroke-width:0.8;" x="374.4576" xlink:href="#ma4efaf5788" y="43.618795"/>
      </g>
     </g>
     <g id="text_6">
      <!-- −6.0 -->
      <g transform="translate(381.4576 47.418014)scale(0.1 -0.1)">
       <use xlink:href="#DejaVuSans-2212"/>
       <use x="83.789062" xlink:href="#DejaVuSans-36"/>
       <use x="147.412109" xlink:href="#DejaVuSans-2e"/>
       <use x="179.199219" xlink:href="#DejaVuSans-30"/>
      </g>
     </g>
    </g>
    <g id="text_7">
     <!-- Energy [eV] -->
     <defs>
      <path d="M 54.890625 33.015625 
L 54.890625 0 
L 45.90625 0 
L 45.90625 32.71875 
Q 45.90625 40.484375 42.875 44.328125 
Q 39.84375 48.1875 33.796875 48.1875 
Q 26.515625 48.1875 22.3125 43.546875 
Q 18.109375 38.921875 18.109375 30.90625 
L 18.109375 0 
L 9.078125 0 
L 9.078125 54.6875 
L 18.109375 54.6875 
L 18.109375 46.1875 
Q 21.34375 51.125 25.703125 53.5625 
Q 30.078125 56 35.796875 56 
Q 45.21875 56 50.046875 50.171875 
Q 54.890625 44.34375 54.890625 33.015625 
z
" id="DejaVuSans-6e"/>
      <path d="M 45.40625 27.984375 
Q 45.40625 37.75 41.375 43.109375 
Q 37.359375 48.484375 30.078125 48.484375 
Q 22.859375 48.484375 18.828125 43.109375 
Q 14.796875 37.75 14.796875 27.984375 
Q 14.796875 18.265625 18.828125 12.890625 
Q 22.859375 7.515625 30.078125 7.515625 
Q 37.359375 7.515625 41.375 12.890625 
Q 45.40625 18.265625 45.40625 27.984375 
z
M 54.390625 6.78125 
Q 54.390625 -7.171875 48.1875 -13.984375 
Q 42 -20.796875 29.203125 -20.796875 
Q 24.46875 -20.796875 20.265625 -20.09375 
Q 16.0625 -19.390625 12.109375 -17.921875 
L 12.109375 -9.1875 
Q 16.0625 -11.328125 19.921875 -12.34375 
Q 23.78125 -13.375 27.78125 -13.375 
Q 36.625 -13.375 41.015625 -8.765625 
Q 45.40625 -4.15625 45.40625 5.171875 
L 45.40625 9.625 
Q 42.625 4.78125 38.28125 2.390625 
Q 33.9375 0 27.875 0 
Q 17.828125 0 11.671875 7.65625 
Q 5.515625 15.328125 5.515625 27.984375 
Q 5.515625 40.671875 11.671875 48.328125 
Q 17.828125 56 27.875 56 
Q 33.9375 56 38.28125 53.609375 
Q 42.625 51.21875 45.40625 46.390625 
L 45.40625 54.6875 
L 54.390625 54.6875 
z
" id="DejaVuSans-67"/>
      <path d="M 32.171875 -5.078125 
Q 28.375 -14.84375 24.75 -17.8125 
Q 21.140625 -20.796875 15.09375 -20.796875 
L 7.90625 -20.796875 
L 7.90625 -13.28125 
L 13.1875 -13.28125 
Q 16.890625 -13.28125 18.9375 -11.515625 
Q 21 -9.765625 23.484375 -3.21875 
L 25.09375 0.875 
L 2.984375 54.6875 
L 12.5 54.6875 
L 29.59375 11.921875 
L 46.6875 54.6875 
L 56.203125 54.6875 
z
" id="DejaVuSans-79"/>
      <path d="M 8.59375 75.984375 
L 29.296875 75.984375 
L 29.296875 69 
L 17.578125 69 
L 17.578125 -6.203125 
L 29.296875 -6.203125 
L 29.296875 -13.1875 
L 8.59375 -13.1875 
z
" id="DejaVuSans-5b"/>
      <path d="M 30.421875 75.984375 
L 30.421875 -13.1875 
L 9.71875 -13.1875 
L 9.71875 -6.203125 
L 21.390625 -6.203125 
L 21.390625 69 
L 9.71875 69 
L 9.71875 75.984375 
z
" id="DejaVuSans-5d"/>
     </defs>
     <g transform="translate(417.33885 204.108469)rotate(-90)scale(0.1 -0.1)">
      <use xlink:href="#DejaVuSans-45"/>
      <use x="63.183594" xlink:href="#DejaVuSans-6e"/>
      <use x="126.5625" xlink:href="#DejaVuSans-65"/>
      <use x="188.085938" xlink:href="#DejaVuSans-72"/>
      <use x="229.183594" xlink:href="#DejaVuSans-67"/>
      <use x="292.660156" xlink:href="#DejaVuSans-79"/>
      <use x="351.839844" xlink:href="#DejaVuSans-20"/>
      <use x="383.626953" xlink:href="#DejaVuSans-5b"/>
      <use x="422.640625" xlink:href="#DejaVuSans-65"/>
      <use x="484.164062" xlink:href="#DejaVuSans-56"/>
      <use x="552.572266" xlink:href="#DejaVuSans-5d"/>
     </g>
    </g>
   </g>
   <g id="patch_3">
    <path d="M 361.152 307.584 
L 361.152 306.5445 
L 361.152 42.5115 
L 361.152 41.472 
L 374.4576 41.472 
L 374.4576 42.5115 
L 374.4576 306.5445 
L 374.4576 307.584 
z
" style="fill:none;stroke:#000000;stroke-linejoin:miter;stroke-width:0.8;"/>
   </g>
  </g>
 </g>
 <defs>
  <clipPath id="p1601f2deec">
   <rect height="266.112" width="285.696" x="57.6" y="41.472"/>
  </clipPath>
  <clipPath id="p02e26912f5">
   <rect height="266.112" width="13.3056" x="361.152" y="41.472"/>
  </clipPath>
 </defs>
</svg>
