<?xml version="1.0" encoding="utf-8" standalone="no"?>
<!DOCTYPE svg PUBLIC "-//W3C//DTD SVG 1.1//EN"
  "http://www.w3.org/Graphics/SVG/1.1/DTD/svg11.dtd">
<!-- Created with matplotlib (http://matplotlib.org/) -->
<svg height="345.6pt" version="1.1" viewBox="0 0 460.8 345.6" width="460.8pt" xmlns="http://www.w3.org/2000/svg" xmlns:xlink="http://www.w3.org/1999/xlink">
 <defs>
  <style type="text/css">
*{stroke-linecap:butt;stroke-linejoin:round;}
  </style>
 </defs>
 <g id="figure_1">
  <g id="patch_1">
   <path d="M 0 345.6 
L 460.8 345.6 
L 460.8 0 
L 0 0 
z
" style="fill:#ffffff;"/>
  </g>
  <g id="axes_1">
   <g id="CircleCollection_1">
    <path clip-path="url(#p1d0e47d846)" d="M 281.555634 272.352267 
C 283.266748 272.352267 284.90801 271.672434 286.117951 270.462493 
C 287.327892 269.252552 288.007725 267.61129 288.007725 265.900176 
C 288.007725 264.189061 287.327892 262.547799 286.117951 261.337859 
C 284.90801 260.127918 283.266748 259.448085 281.555634 259.448085 
C 279.844519 259.448085 278.203257 260.127918 276.993317 261.337859 
C 275.783376 262.547799 275.103543 264.189061 275.103543 265.900176 
C 275.103543 267.61129 275.783376 269.252552 276.993317 270.462493 
C 278.203257 271.672434 279.844519 272.352267 281.555634 272.352267 
z
" style="fill:#25858e;"/>
    <path clip-path="url(#p1d0e47d846)" d="M 213.541902 69.850079 
C 215.325167 69.850079 217.035635 69.14158 218.296594 67.880621 
C 219.557553 66.619661 220.266052 64.909194 220.266052 63.125928 
C 220.266052 61.342662 219.557553 59.632195 218.296594 58.371235 
C 217.035635 57.110276 215.325167 56.401777 213.541902 56.401777 
C 211.758636 56.401777 210.048168 57.110276 208.787209 58.371235 
C 207.52625 59.632195 206.817751 61.342662 206.817751 63.125928 
C 206.817751 64.909194 207.52625 66.619661 208.787209 67.880621 
C 210.048168 69.14158 211.758636 69.850079 213.541902 69.850079 
z
" style="fill:#3f4889;"/>
    <path clip-path="url(#p1d0e47d846)" d="M 165.762037 168.990399 
C 167.582051 168.990399 169.327766 168.2673 170.61471 166.980356 
C 171.901654 165.693412 172.624753 163.947697 172.624753 162.127683 
C 172.624753 160.30767 171.901654 158.561955 170.61471 157.275011 
C 169.327766 155.988067 167.582051 155.264968 165.762037 155.264968 
C 163.942024 155.264968 162.196308 155.988067 160.909365 157.275011 
C 159.622421 158.561955 158.899322 160.30767 158.899322 162.127683 
C 158.899322 163.947697 159.622421 165.693412 160.909365 166.980356 
C 162.196308 168.2673 163.942024 168.990399 165.762037 168.990399 
z
" style="fill:#365c8d;"/>
    <path clip-path="url(#p1d0e47d846)" d="M 239.383738 103.828968 
C 241.185547 103.828968 242.913802 103.113102 244.187874 101.83903 
C 245.461946 100.564958 246.177812 98.836704 246.177812 97.034894 
C 246.177812 95.233085 245.461946 93.50483 244.187874 92.230758 
C 242.913802 90.956686 241.185547 90.24082 239.383738 90.24082 
C 237.581928 90.24082 235.853674 90.956686 234.579602 92.230758 
C 233.30553 93.50483 232.589664 95.233085 232.589664 97.034894 
C 232.589664 98.836704 233.30553 100.564958 234.579602 101.83903 
C 235.853674 103.113102 237.581928 103.828968 239.383738 103.828968 
z
" style="fill:#33638d;"/>
    <path clip-path="url(#p1d0e47d846)" d="M 246.193036 283.089228 
C 247.933472 283.089228 249.602859 282.397746 250.833533 281.167071 
C 252.064207 279.936397 252.75569 278.267011 252.75569 276.526574 
C 252.75569 274.786138 252.064207 273.116752 250.833533 271.886077 
C 249.602859 270.655403 247.933472 269.963921 246.193036 269.963921 
C 244.4526 269.963921 242.783213 270.655403 241.552539 271.886077 
C 240.321865 273.116752 239.630382 274.786138 239.630382 276.526574 
C 239.630382 278.267011 240.321865 279.936397 241.552539 281.167071 
C 242.783213 282.397746 244.4526 283.089228 246.193036 283.089228 
z
" style="fill:#38598c;"/>
    <path clip-path="url(#p1d0e47d846)" d="M 139.143295 135.53712 
C 140.940621 135.53712 142.664574 134.823035 143.935476 133.552134 
C 145.206377 132.281233 145.920462 130.557279 145.920462 128.759954 
C 145.920462 126.962628 145.206377 125.238674 143.935476 123.967773 
C 142.664574 122.696872 140.940621 121.982787 139.143295 121.982787 
C 137.345969 121.982787 135.622016 122.696872 134.351114 123.967773 
C 133.080213 125.238674 132.366128 126.962628 132.366128 128.759954 
C 132.366128 130.557279 133.080213 132.281233 134.351114 133.552134 
C 135.622016 134.823035 137.345969 135.53712 139.143295 135.53712 
z
" style="fill:#355e8d;"/>
    <path clip-path="url(#p1d0e47d846)" d="M 170.41581 301.443728 
C 172.146321 301.443728 173.806188 300.756189 175.029844 299.532533 
C 176.2535 298.308877 176.941039 296.64901 176.941039 294.918499 
C 176.941039 293.187988 176.2535 291.528121 175.029844 290.304465 
C 173.806188 289.080809 172.146321 288.393269 170.41581 288.393269 
C 168.685299 288.393269 167.025432 289.080809 165.801776 290.304465 
C 164.57812 291.528121 163.89058 293.187988 163.89058 294.918499 
C 163.89058 296.64901 164.57812 298.308877 165.801776 299.532533 
C 167.025432 300.756189 168.685299 301.443728 170.41581 301.443728 
z
" style="fill:#2a778e;"/>
    <path clip-path="url(#p1d0e47d846)" d="M 203.498136 176.280051 
C 205.330004 176.280051 207.087091 175.552242 208.382418 174.256915 
C 209.677744 172.961588 210.405553 171.204502 210.405553 169.372633 
C 210.405553 167.540765 209.677744 165.783678 208.382418 164.488352 
C 207.087091 163.193025 205.330004 162.465216 203.498136 162.465216 
C 201.666268 162.465216 199.909181 163.193025 198.613854 164.488352 
C 197.318528 165.783678 196.590719 167.540765 196.590719 169.372633 
C 196.590719 171.204502 197.318528 172.961588 198.613854 174.256915 
C 199.909181 175.552242 201.666268 176.280051 203.498136 176.280051 
z
" style="fill:#440154;"/>
    <path clip-path="url(#p1d0e47d846)" d="M 108.725066 255.823052 
C 110.46763 255.823052 112.139058 255.130724 113.371237 253.898545 
C 114.603415 252.666367 115.295743 250.994939 115.295743 249.252375 
C 115.295743 247.509811 114.603415 245.838383 113.371237 244.606205 
C 112.139058 243.374026 110.46763 242.681698 108.725066 242.681698 
C 106.982502 242.681698 105.311075 243.374026 104.078896 244.606205 
C 102.846717 245.838383 102.154389 247.509811 102.154389 249.252375 
C 102.154389 250.994939 102.846717 252.666367 104.078896 253.898545 
C 105.311075 255.130724 106.982502 255.823052 108.725066 255.823052 
z
" style="fill:#3d4e8a;"/>
    <path clip-path="url(#p1d0e47d846)" d="M 236.661943 148.208914 
C 238.482791 148.208914 240.229307 147.485484 241.516841 146.197949 
C 242.804375 144.910415 243.527806 143.163899 243.527806 141.343051 
C 243.527806 139.522203 242.804375 137.775687 241.516841 136.488153 
C 240.229307 135.200619 238.482791 134.477188 236.661943 134.477188 
C 234.841095 134.477188 233.094579 135.200619 231.807044 136.488153 
C 230.51951 137.775687 229.79608 139.522203 229.79608 141.343051 
C 229.79608 143.163899 230.51951 144.910415 231.807044 146.197949 
C 233.094579 147.485484 234.841095 148.208914 236.661943 148.208914 
z
" style="fill:#460a5d;"/>
    <path clip-path="url(#p1d0e47d846)" d="M 142.993412 91.11749 
C 144.771792 91.11749 146.477572 90.410933 147.735076 89.153429 
C 148.99258 87.895925 149.699137 86.190145 149.699137 84.411765 
C 149.699137 82.633386 148.99258 80.927606 147.735076 79.670102 
C 146.477572 78.412598 144.771792 77.706041 142.993412 77.706041 
C 141.215033 77.706041 139.509253 78.412598 138.251749 79.670102 
C 136.994245 80.927606 136.287688 82.633386 136.287688 84.411765 
C 136.287688 86.190145 136.994245 87.895925 138.251749 89.153429 
C 139.509253 90.410933 141.215033 91.11749 142.993412 91.11749 
z
" style="fill:#26828e;"/>
    <path clip-path="url(#p1d0e47d846)" d="M 295.518486 197.290465 
C 297.297085 197.290465 299.003077 196.58382 300.260736 195.32616 
C 301.518396 194.068501 302.225041 192.362509 302.225041 190.58391 
C 302.225041 188.805311 301.518396 187.099319 300.260736 185.84166 
C 299.003077 184.584 297.297085 183.877355 295.518486 183.877355 
C 293.739887 183.877355 292.033895 184.584 290.776236 185.84166 
C 289.518576 187.099319 288.811931 188.805311 288.811931 190.58391 
C 288.811931 192.362509 289.518576 194.068501 290.776236 195.32616 
C 292.033895 196.58382 293.739887 197.290465 295.518486 197.290465 
z
" style="fill:#277e8e;"/>
    <path clip-path="url(#p1d0e47d846)" d="M 207.4564 290.278844 
C 209.208147 290.278844 210.888384 289.582867 212.127056 288.344194 
C 213.365729 287.105522 214.061706 285.425285 214.061706 283.673538 
C 214.061706 281.92179 213.365729 280.241554 212.127056 279.002881 
C 210.888384 277.764208 209.208147 277.068231 207.4564 277.068231 
C 205.704652 277.068231 204.024416 277.764208 202.785743 279.002881 
C 201.54707 280.241554 200.851093 281.92179 200.851093 283.673538 
C 200.851093 285.425285 201.54707 287.105522 202.785743 288.344194 
C 204.024416 289.582867 205.704652 290.278844 207.4564 290.278844 
z
" style="fill:#3e4989;"/>
    <path clip-path="url(#p1d0e47d846)" d="M 175.346939 73.251494 
C 177.125001 73.251494 178.830477 72.545062 180.087757 71.287783 
C 181.345036 70.030503 182.051468 68.325026 182.051468 66.546965 
C 182.051468 64.768903 181.345036 63.063426 180.087757 61.806147 
C 178.830477 60.548867 177.125001 59.842435 175.346939 59.842435 
C 173.568877 59.842435 171.8634 60.548867 170.606121 61.806147 
C 169.348841 63.063426 168.64241 64.768903 168.64241 66.546965 
C 168.64241 68.325026 169.348841 70.030503 170.606121 71.287783 
C 171.8634 72.545062 173.568877 73.251494 175.346939 73.251494 
z
" style="fill:#287c8e;"/>
    <path clip-path="url(#p1d0e47d846)" d="M 223.92912 255.013513 
C 225.724419 255.013513 227.44643 254.300233 228.715898 253.030765 
C 229.985366 251.761296 230.698646 250.039286 230.698646 248.243987 
C 230.698646 246.448688 229.985366 244.726677 228.715898 243.457209 
C 227.44643 242.187741 225.724419 241.474461 223.92912 241.474461 
C 222.133821 241.474461 220.411811 242.187741 219.142342 243.457209 
C 217.872874 244.726677 217.159594 246.448688 217.159594 248.243987 
C 217.159594 250.039286 217.872874 251.761296 219.142342 253.030765 
C 220.411811 254.300233 222.133821 255.013513 223.92912 255.013513 
z
" style="fill:#3a548c;"/>
    <path clip-path="url(#p1d0e47d846)" d="M 329.937612 205.369604 
C 331.681582 205.369604 333.354358 204.676717 334.587532 203.443544 
C 335.820705 202.210371 336.513592 200.537594 336.513592 198.793624 
C 336.513592 197.049654 335.820705 195.376877 334.587532 194.143704 
C 333.354358 192.910531 331.681582 192.217644 329.937612 192.217644 
C 328.193641 192.217644 326.520865 192.910531 325.287692 194.143704 
C 324.054518 195.376877 323.361632 197.049654 323.361632 198.793624 
C 323.361632 200.537594 324.054518 202.210371 325.287692 203.443544 
C 326.520865 204.676717 328.193641 205.369604 329.937612 205.369604 
z
" style="fill:#ece51b;"/>
    <path clip-path="url(#p1d0e47d846)" d="M 261.199013 185.841552 
C 263.014796 185.841552 264.756453 185.120134 266.040405 183.836182 
C 267.324357 182.55223 268.045775 180.810573 268.045775 178.99479 
C 268.045775 177.179008 267.324357 175.437351 266.040405 174.153398 
C 264.756453 172.869446 263.014796 172.148028 261.199013 172.148028 
C 259.383231 172.148028 257.641574 172.869446 256.357622 174.153398 
C 255.07367 175.437351 254.352251 177.179008 254.352251 178.99479 
C 254.352251 180.810573 255.07367 182.55223 256.357622 183.836182 
C 257.641574 185.120134 259.383231 185.841552 261.199013 185.841552 
z
" style="fill:#471063;"/>
    <path clip-path="url(#p1d0e47d846)" d="M 104.134125 212.737146 
C 105.90098 212.737146 107.595707 212.035167 108.845063 210.785811 
C 110.094418 209.536456 110.796397 207.841729 110.796397 206.074874 
C 110.796397 204.308019 110.094418 202.613292 108.845063 201.363936 
C 107.595707 200.114581 105.90098 199.412602 104.134125 199.412602 
C 102.36727 199.412602 100.672543 200.114581 99.423187 201.363936 
C 98.173832 202.613292 97.471853 204.308019 97.471853 206.074874 
C 97.471853 207.841729 98.173832 209.536456 99.423187 210.785811 
C 100.672543 212.035167 102.36727 212.737146 104.134125 212.737146 
z
" style="fill:#375b8d;"/>
    <path clip-path="url(#p1d0e47d846)" d="M 70.958362 236.211144 
C 72.702208 236.211144 74.374865 235.518306 75.60795 234.285221 
C 76.841035 233.052136 77.533872 231.379479 77.533872 229.635633 
C 77.533872 227.891788 76.841035 226.21913 75.60795 224.986045 
C 74.374865 223.75296 72.702208 223.060123 70.958362 223.060123 
C 69.214516 223.060123 67.541859 223.75296 66.308774 224.986045 
C 65.075689 226.21913 64.382851 227.891788 64.382851 229.635633 
C 64.382851 231.379479 65.075689 233.052136 66.308774 234.285221 
C 67.541859 235.518306 69.214516 236.211144 70.958362 236.211144 
z
" style="fill:#f4e61e;"/>
    <path clip-path="url(#p1d0e47d846)" d="M 228.314506 214.598448 
C 230.141282 214.598448 231.893484 213.872662 233.18521 212.580936 
C 234.476936 211.28921 235.202721 209.537008 235.202721 207.710232 
C 235.202721 205.883456 234.476936 204.131254 233.18521 202.839529 
C 231.893484 201.547803 230.141282 200.822017 228.314506 200.822017 
C 226.48773 200.822017 224.735528 201.547803 223.443802 202.839529 
C 222.152077 204.131254 221.426291 205.883456 221.426291 207.710232 
C 221.426291 209.537008 222.152077 211.28921 223.443802 212.580936 
C 224.735528 213.872662 226.48773 214.598448 228.314506 214.598448 
z
" style="fill:#450559;"/>
    <path clip-path="url(#p1d0e47d846)" d="M 138.530858 283.645489 
C 140.266689 283.645489 141.931658 282.955836 143.159076 281.728419 
C 144.386493 280.501001 145.076146 278.836032 145.076146 277.100202 
C 145.076146 275.364371 144.386493 273.699402 143.159076 272.471985 
C 141.931658 271.244567 140.266689 270.554914 138.530858 270.554914 
C 136.795028 270.554914 135.130059 271.244567 133.902641 272.471985 
C 132.675224 273.699402 131.985571 275.364371 131.985571 277.100202 
C 131.985571 278.836032 132.675224 280.501001 133.902641 281.728419 
C 135.130059 282.955836 136.795028 283.645489 138.530858 283.645489 
z
" style="fill:#2d708e;"/>
    <path clip-path="url(#p1d0e47d846)" d="M 303.923415 240.05467 
C 305.652481 240.05467 307.310963 239.367705 308.533597 238.14507 
C 309.756232 236.922436 310.443197 235.263955 310.443197 233.534888 
C 310.443197 231.805822 309.756232 230.147341 308.533597 228.924706 
C 307.310963 227.702072 305.652481 227.015106 303.923415 227.015106 
C 302.194349 227.015106 300.535868 227.702072 299.313233 228.924706 
C 298.090598 230.147341 297.403633 231.805822 297.403633 233.534888 
C 297.403633 235.263955 298.090598 236.922436 299.313233 238.14507 
C 300.535868 239.367705 302.194349 240.05467 303.923415 240.05467 
z
" style="fill:#355e8d;"/>
    <path clip-path="url(#p1d0e47d846)" d="M 127.54567 178.372248 
C 129.34124 178.372248 131.06351 177.65886 132.33317 176.3892 
C 133.60283 175.11954 134.316218 173.39727 134.316218 171.6017 
C 134.316218 169.806129 133.60283 168.083859 132.33317 166.814199 
C 131.06351 165.544539 129.34124 164.831151 127.54567 164.831151 
C 125.750099 164.831151 124.027829 165.544539 122.758169 166.814199 
C 121.488509 168.083859 120.775122 169.806129 120.775122 171.6017 
C 120.775122 173.39727 121.488509 175.11954 122.758169 176.3892 
C 124.027829 177.65886 125.750099 178.372248 127.54567 178.372248 
z
" style="fill:#365d8d;"/>
    <path clip-path="url(#p1d0e47d846)" d="M 253.278868 60.889754 
C 255.064754 60.889754 256.777735 60.180214 258.040546 58.917402 
C 259.303358 57.654591 260.012898 55.94161 260.012898 54.155725 
C 260.012898 52.369839 259.303358 50.656859 258.040546 49.394047 
C 256.777735 48.131235 255.064754 47.421695 253.278868 47.421695 
C 251.492983 47.421695 249.780002 48.131235 248.517191 49.394047 
C 247.254379 50.656859 246.544839 52.369839 246.544839 54.155725 
C 246.544839 55.94161 247.254379 57.654591 248.517191 58.917402 
C 249.780002 60.180214 251.492983 60.889754 253.278868 60.889754 
z
" style="fill:#fde725;"/>
   </g>
   <g id="text_1">
    <!-- Structure #10682, $E_N$=-180.27eV, ΔE=0.33eV -->
    <defs>
     <path d="M 53.515625 70.515625 
L 53.515625 60.890625 
Q 47.90625 63.578125 42.921875 64.890625 
Q 37.9375 66.21875 33.296875 66.21875 
Q 25.25 66.21875 20.875 63.09375 
Q 16.5 59.96875 16.5 54.203125 
Q 16.5 49.359375 19.40625 46.890625 
Q 22.3125 44.4375 30.421875 42.921875 
L 36.375 41.703125 
Q 47.40625 39.59375 52.65625 34.296875 
Q 57.90625 29 57.90625 20.125 
Q 57.90625 9.515625 50.796875 4.046875 
Q 43.703125 -1.421875 29.984375 -1.421875 
Q 24.8125 -1.421875 18.96875 -0.25 
Q 13.140625 0.921875 6.890625 3.21875 
L 6.890625 13.375 
Q 12.890625 10.015625 18.65625 8.296875 
Q 24.421875 6.59375 29.984375 6.59375 
Q 38.421875 6.59375 43.015625 9.90625 
Q 47.609375 13.234375 47.609375 19.390625 
Q 47.609375 24.75 44.3125 27.78125 
Q 41.015625 30.8125 33.5 32.328125 
L 27.484375 33.5 
Q 16.453125 35.6875 11.515625 40.375 
Q 6.59375 45.0625 6.59375 53.421875 
Q 6.59375 63.09375 13.40625 68.65625 
Q 20.21875 74.21875 32.171875 74.21875 
Q 37.3125 74.21875 42.625 73.28125 
Q 47.953125 72.359375 53.515625 70.515625 
z
" id="DejaVuSans-53"/>
     <path d="M 18.3125 70.21875 
L 18.3125 54.6875 
L 36.8125 54.6875 
L 36.8125 47.703125 
L 18.3125 47.703125 
L 18.3125 18.015625 
Q 18.3125 11.328125 20.140625 9.421875 
Q 21.96875 7.515625 27.59375 7.515625 
L 36.8125 7.515625 
L 36.8125 0 
L 27.59375 0 
Q 17.1875 0 13.234375 3.875 
Q 9.28125 7.765625 9.28125 18.015625 
L 9.28125 47.703125 
L 2.6875 47.703125 
L 2.6875 54.6875 
L 9.28125 54.6875 
L 9.28125 70.21875 
z
" id="DejaVuSans-74"/>
     <path d="M 41.109375 46.296875 
Q 39.59375 47.171875 37.8125 47.578125 
Q 36.03125 48 33.890625 48 
Q 26.265625 48 22.1875 43.046875 
Q 18.109375 38.09375 18.109375 28.8125 
L 18.109375 0 
L 9.078125 0 
L 9.078125 54.6875 
L 18.109375 54.6875 
L 18.109375 46.1875 
Q 20.953125 51.171875 25.484375 53.578125 
Q 30.03125 56 36.53125 56 
Q 37.453125 56 38.578125 55.875 
Q 39.703125 55.765625 41.0625 55.515625 
z
" id="DejaVuSans-72"/>
     <path d="M 8.5 21.578125 
L 8.5 54.6875 
L 17.484375 54.6875 
L 17.484375 21.921875 
Q 17.484375 14.15625 20.5 10.265625 
Q 23.53125 6.390625 29.59375 6.390625 
Q 36.859375 6.390625 41.078125 11.03125 
Q 45.3125 15.671875 45.3125 23.6875 
L 45.3125 54.6875 
L 54.296875 54.6875 
L 54.296875 0 
L 45.3125 0 
L 45.3125 8.40625 
Q 42.046875 3.421875 37.71875 1 
Q 33.40625 -1.421875 27.6875 -1.421875 
Q 18.265625 -1.421875 13.375 4.4375 
Q 8.5 10.296875 8.5 21.578125 
z
M 31.109375 56 
z
" id="DejaVuSans-75"/>
     <path d="M 48.78125 52.59375 
L 48.78125 44.1875 
Q 44.96875 46.296875 41.140625 47.34375 
Q 37.3125 48.390625 33.40625 48.390625 
Q 24.65625 48.390625 19.8125 42.84375 
Q 14.984375 37.3125 14.984375 27.296875 
Q 14.984375 17.28125 19.8125 11.734375 
Q 24.65625 6.203125 33.40625 6.203125 
Q 37.3125 6.203125 41.140625 7.25 
Q 44.96875 8.296875 48.78125 10.40625 
L 48.78125 2.09375 
Q 45.015625 0.34375 40.984375 -0.53125 
Q 36.96875 -1.421875 32.421875 -1.421875 
Q 20.0625 -1.421875 12.78125 6.34375 
Q 5.515625 14.109375 5.515625 27.296875 
Q 5.515625 40.671875 12.859375 48.328125 
Q 20.21875 56 33.015625 56 
Q 37.15625 56 41.109375 55.140625 
Q 45.0625 54.296875 48.78125 52.59375 
z
" id="DejaVuSans-63"/>
     <path d="M 56.203125 29.59375 
L 56.203125 25.203125 
L 14.890625 25.203125 
Q 15.484375 15.921875 20.484375 11.0625 
Q 25.484375 6.203125 34.421875 6.203125 
Q 39.59375 6.203125 44.453125 7.46875 
Q 49.3125 8.734375 54.109375 11.28125 
L 54.109375 2.78125 
Q 49.265625 0.734375 44.1875 -0.34375 
Q 39.109375 -1.421875 33.890625 -1.421875 
Q 20.796875 -1.421875 13.15625 6.1875 
Q 5.515625 13.8125 5.515625 26.8125 
Q 5.515625 40.234375 12.765625 48.109375 
Q 20.015625 56 32.328125 56 
Q 43.359375 56 49.78125 48.890625 
Q 56.203125 41.796875 56.203125 29.59375 
z
M 47.21875 32.234375 
Q 47.125 39.59375 43.09375 43.984375 
Q 39.0625 48.390625 32.421875 48.390625 
Q 24.90625 48.390625 20.390625 44.140625 
Q 15.875 39.890625 15.1875 32.171875 
z
" id="DejaVuSans-65"/>
     <path id="DejaVuSans-20"/>
     <path d="M 51.125 44 
L 36.921875 44 
L 32.8125 27.6875 
L 47.125 27.6875 
z
M 43.796875 71.78125 
L 38.71875 51.515625 
L 52.984375 51.515625 
L 58.109375 71.78125 
L 65.921875 71.78125 
L 60.890625 51.515625 
L 76.125 51.515625 
L 76.125 44 
L 58.984375 44 
L 54.984375 27.6875 
L 70.515625 27.6875 
L 70.515625 20.21875 
L 53.078125 20.21875 
L 48 0 
L 40.1875 0 
L 45.21875 20.21875 
L 30.90625 20.21875 
L 25.875 0 
L 18.015625 0 
L 23.09375 20.21875 
L 7.71875 20.21875 
L 7.71875 27.6875 
L 24.90625 27.6875 
L 29 44 
L 13.28125 44 
L 13.28125 51.515625 
L 30.90625 51.515625 
L 35.890625 71.78125 
z
" id="DejaVuSans-23"/>
     <path d="M 12.40625 8.296875 
L 28.515625 8.296875 
L 28.515625 63.921875 
L 10.984375 60.40625 
L 10.984375 69.390625 
L 28.421875 72.90625 
L 38.28125 72.90625 
L 38.28125 8.296875 
L 54.390625 8.296875 
L 54.390625 0 
L 12.40625 0 
z
" id="DejaVuSans-31"/>
     <path d="M 31.78125 66.40625 
Q 24.171875 66.40625 20.328125 58.90625 
Q 16.5 51.421875 16.5 36.375 
Q 16.5 21.390625 20.328125 13.890625 
Q 24.171875 6.390625 31.78125 6.390625 
Q 39.453125 6.390625 43.28125 13.890625 
Q 47.125 21.390625 47.125 36.375 
Q 47.125 51.421875 43.28125 58.90625 
Q 39.453125 66.40625 31.78125 66.40625 
z
M 31.78125 74.21875 
Q 44.046875 74.21875 50.515625 64.515625 
Q 56.984375 54.828125 56.984375 36.375 
Q 56.984375 17.96875 50.515625 8.265625 
Q 44.046875 -1.421875 31.78125 -1.421875 
Q 19.53125 -1.421875 13.0625 8.265625 
Q 6.59375 17.96875 6.59375 36.375 
Q 6.59375 54.828125 13.0625 64.515625 
Q 19.53125 74.21875 31.78125 74.21875 
z
" id="DejaVuSans-30"/>
     <path d="M 33.015625 40.375 
Q 26.375 40.375 22.484375 35.828125 
Q 18.609375 31.296875 18.609375 23.390625 
Q 18.609375 15.53125 22.484375 10.953125 
Q 26.375 6.390625 33.015625 6.390625 
Q 39.65625 6.390625 43.53125 10.953125 
Q 47.40625 15.53125 47.40625 23.390625 
Q 47.40625 31.296875 43.53125 35.828125 
Q 39.65625 40.375 33.015625 40.375 
z
M 52.59375 71.296875 
L 52.59375 62.3125 
Q 48.875 64.0625 45.09375 64.984375 
Q 41.3125 65.921875 37.59375 65.921875 
Q 27.828125 65.921875 22.671875 59.328125 
Q 17.53125 52.734375 16.796875 39.40625 
Q 19.671875 43.65625 24.015625 45.921875 
Q 28.375 48.1875 33.59375 48.1875 
Q 44.578125 48.1875 50.953125 41.515625 
Q 57.328125 34.859375 57.328125 23.390625 
Q 57.328125 12.15625 50.6875 5.359375 
Q 44.046875 -1.421875 33.015625 -1.421875 
Q 20.359375 -1.421875 13.671875 8.265625 
Q 6.984375 17.96875 6.984375 36.375 
Q 6.984375 53.65625 15.1875 63.9375 
Q 23.390625 74.21875 37.203125 74.21875 
Q 40.921875 74.21875 44.703125 73.484375 
Q 48.484375 72.75 52.59375 71.296875 
z
" id="DejaVuSans-36"/>
     <path d="M 31.78125 34.625 
Q 24.75 34.625 20.71875 30.859375 
Q 16.703125 27.09375 16.703125 20.515625 
Q 16.703125 13.921875 20.71875 10.15625 
Q 24.75 6.390625 31.78125 6.390625 
Q 38.8125 6.390625 42.859375 10.171875 
Q 46.921875 13.96875 46.921875 20.515625 
Q 46.921875 27.09375 42.890625 30.859375 
Q 38.875 34.625 31.78125 34.625 
z
M 21.921875 38.8125 
Q 15.578125 40.375 12.03125 44.71875 
Q 8.5 49.078125 8.5 55.328125 
Q 8.5 64.0625 14.71875 69.140625 
Q 20.953125 74.21875 31.78125 74.21875 
Q 42.671875 74.21875 48.875 69.140625 
Q 55.078125 64.0625 55.078125 55.328125 
Q 55.078125 49.078125 51.53125 44.71875 
Q 48 40.375 41.703125 38.8125 
Q 48.828125 37.15625 52.796875 32.3125 
Q 56.78125 27.484375 56.78125 20.515625 
Q 56.78125 9.90625 50.3125 4.234375 
Q 43.84375 -1.421875 31.78125 -1.421875 
Q 19.734375 -1.421875 13.25 4.234375 
Q 6.78125 9.90625 6.78125 20.515625 
Q 6.78125 27.484375 10.78125 32.3125 
Q 14.796875 37.15625 21.921875 38.8125 
z
M 18.3125 54.390625 
Q 18.3125 48.734375 21.84375 45.5625 
Q 25.390625 42.390625 31.78125 42.390625 
Q 38.140625 42.390625 41.71875 45.5625 
Q 45.3125 48.734375 45.3125 54.390625 
Q 45.3125 60.0625 41.71875 63.234375 
Q 38.140625 66.40625 31.78125 66.40625 
Q 25.390625 66.40625 21.84375 63.234375 
Q 18.3125 60.0625 18.3125 54.390625 
z
" id="DejaVuSans-38"/>
     <path d="M 19.1875 8.296875 
L 53.609375 8.296875 
L 53.609375 0 
L 7.328125 0 
L 7.328125 8.296875 
Q 12.9375 14.109375 22.625 23.890625 
Q 32.328125 33.6875 34.8125 36.53125 
Q 39.546875 41.84375 41.421875 45.53125 
Q 43.3125 49.21875 43.3125 52.78125 
Q 43.3125 58.59375 39.234375 62.25 
Q 35.15625 65.921875 28.609375 65.921875 
Q 23.96875 65.921875 18.8125 64.3125 
Q 13.671875 62.703125 7.8125 59.421875 
L 7.8125 69.390625 
Q 13.765625 71.78125 18.9375 73 
Q 24.125 74.21875 28.421875 74.21875 
Q 39.75 74.21875 46.484375 68.546875 
Q 53.21875 62.890625 53.21875 53.421875 
Q 53.21875 48.921875 51.53125 44.890625 
Q 49.859375 40.875 45.40625 35.40625 
Q 44.1875 33.984375 37.640625 27.21875 
Q 31.109375 20.453125 19.1875 8.296875 
z
" id="DejaVuSans-32"/>
     <path d="M 11.71875 12.40625 
L 22.015625 12.40625 
L 22.015625 4 
L 14.015625 -11.625 
L 7.71875 -11.625 
L 11.71875 4 
z
" id="DejaVuSans-2c"/>
     <path d="M 16.890625 72.90625 
L 62.984375 72.90625 
L 61.375 64.59375 
L 25.09375 64.59375 
L 20.90625 43.015625 
L 55.71875 43.015625 
L 54.109375 34.71875 
L 19.28125 34.71875 
L 14.203125 8.296875 
L 51.3125 8.296875 
L 49.703125 0 
L 2.6875 0 
z
" id="DejaVuSans-Oblique-45"/>
     <path d="M 16.890625 72.90625 
L 30.171875 72.90625 
L 50.296875 10.40625 
L 62.5 72.90625 
L 72.125 72.90625 
L 57.90625 0 
L 44.578125 0 
L 24.515625 62.890625 
L 12.3125 0 
L 2.6875 0 
z
" id="DejaVuSans-Oblique-4e"/>
     <path d="M 10.59375 45.40625 
L 73.1875 45.40625 
L 73.1875 37.203125 
L 10.59375 37.203125 
z
M 10.59375 25.484375 
L 73.1875 25.484375 
L 73.1875 17.1875 
L 10.59375 17.1875 
z
" id="DejaVuSans-3d"/>
     <path d="M 4.890625 31.390625 
L 31.203125 31.390625 
L 31.203125 23.390625 
L 4.890625 23.390625 
z
" id="DejaVuSans-2d"/>
     <path d="M 10.6875 12.40625 
L 21 12.40625 
L 21 0 
L 10.6875 0 
z
" id="DejaVuSans-2e"/>
     <path d="M 8.203125 72.90625 
L 55.078125 72.90625 
L 55.078125 68.703125 
L 28.609375 0 
L 18.3125 0 
L 43.21875 64.59375 
L 8.203125 64.59375 
z
" id="DejaVuSans-37"/>
     <path d="M 28.609375 0 
L 0.78125 72.90625 
L 11.078125 72.90625 
L 34.1875 11.53125 
L 57.328125 72.90625 
L 67.578125 72.90625 
L 39.796875 0 
z
" id="DejaVuSans-56"/>
     <path d="M 34.1875 63.1875 
L 14.15625 8.203125 
L 54.25 8.203125 
z
M 0.78125 0 
L 28.609375 72.90625 
L 39.796875 72.90625 
L 67.578125 0 
z
" id="DejaVuSans-394"/>
     <path d="M 9.8125 72.90625 
L 55.90625 72.90625 
L 55.90625 64.59375 
L 19.671875 64.59375 
L 19.671875 43.015625 
L 54.390625 43.015625 
L 54.390625 34.71875 
L 19.671875 34.71875 
L 19.671875 8.296875 
L 56.78125 8.296875 
L 56.78125 0 
L 9.8125 0 
z
" id="DejaVuSans-45"/>
     <path d="M 40.578125 39.3125 
Q 47.65625 37.796875 51.625 33 
Q 55.609375 28.21875 55.609375 21.1875 
Q 55.609375 10.40625 48.1875 4.484375 
Q 40.765625 -1.421875 27.09375 -1.421875 
Q 22.515625 -1.421875 17.65625 -0.515625 
Q 12.796875 0.390625 7.625 2.203125 
L 7.625 11.71875 
Q 11.71875 9.328125 16.59375 8.109375 
Q 21.484375 6.890625 26.8125 6.890625 
Q 36.078125 6.890625 40.9375 10.546875 
Q 45.796875 14.203125 45.796875 21.1875 
Q 45.796875 27.640625 41.28125 31.265625 
Q 36.765625 34.90625 28.71875 34.90625 
L 20.21875 34.90625 
L 20.21875 43.015625 
L 29.109375 43.015625 
Q 36.375 43.015625 40.234375 45.921875 
Q 44.09375 48.828125 44.09375 54.296875 
Q 44.09375 59.90625 40.109375 62.90625 
Q 36.140625 65.921875 28.71875 65.921875 
Q 24.65625 65.921875 20.015625 65.03125 
Q 15.375 64.15625 9.8125 62.3125 
L 9.8125 71.09375 
Q 15.4375 72.65625 20.34375 73.4375 
Q 25.25 74.21875 29.59375 74.21875 
Q 40.828125 74.21875 47.359375 69.109375 
Q 53.90625 64.015625 53.90625 55.328125 
Q 53.90625 49.265625 50.4375 45.09375 
Q 46.96875 40.921875 40.578125 39.3125 
z
" id="DejaVuSans-33"/>
    </defs>
    <g transform="translate(61.548 35.472)scale(0.12 -0.12)">
     <use transform="translate(0 0.78125)" xlink:href="#DejaVuSans-53"/>
     <use transform="translate(63.476562 0.78125)" xlink:href="#DejaVuSans-74"/>
     <use transform="translate(102.685547 0.78125)" xlink:href="#DejaVuSans-72"/>
     <use transform="translate(143.798828 0.78125)" xlink:href="#DejaVuSans-75"/>
     <use transform="translate(207.177734 0.78125)" xlink:href="#DejaVuSans-63"/>
     <use transform="translate(262.158203 0.78125)" xlink:href="#DejaVuSans-74"/>
     <use transform="translate(301.367188 0.78125)" xlink:href="#DejaVuSans-75"/>
     <use transform="translate(364.746094 0.78125)" xlink:href="#DejaVuSans-72"/>
     <use transform="translate(405.859375 0.78125)" xlink:href="#DejaVuSans-65"/>
     <use transform="translate(467.382812 0.78125)" xlink:href="#DejaVuSans-20"/>
     <use transform="translate(499.169922 0.78125)" xlink:href="#DejaVuSans-23"/>
     <use transform="translate(582.958984 0.78125)" xlink:href="#DejaVuSans-31"/>
     <use transform="translate(646.582031 0.78125)" xlink:href="#DejaVuSans-30"/>
     <use transform="translate(710.205078 0.78125)" xlink:href="#DejaVuSans-36"/>
     <use transform="translate(773.828125 0.78125)" xlink:href="#DejaVuSans-38"/>
     <use transform="translate(837.451172 0.78125)" xlink:href="#DejaVuSans-32"/>
     <use transform="translate(901.074219 0.78125)" xlink:href="#DejaVuSans-2c"/>
     <use transform="translate(932.861328 0.78125)" xlink:href="#DejaVuSans-20"/>
     <use transform="translate(964.648438 0.78125)" xlink:href="#DejaVuSans-Oblique-45"/>
     <use transform="translate(1027.832031 -15.625)scale(0.7)" xlink:href="#DejaVuSans-Oblique-4e"/>
     <use transform="translate(1082.929688 0.78125)" xlink:href="#DejaVuSans-3d"/>
     <use transform="translate(1166.71875 0.78125)" xlink:href="#DejaVuSans-2d"/>
     <use transform="translate(1202.802734 0.78125)" xlink:href="#DejaVuSans-31"/>
     <use transform="translate(1266.425781 0.78125)" xlink:href="#DejaVuSans-38"/>
     <use transform="translate(1330.048828 0.78125)" xlink:href="#DejaVuSans-30"/>
     <use transform="translate(1393.671875 0.78125)" xlink:href="#DejaVuSans-2e"/>
     <use transform="translate(1425.380859 0.78125)" xlink:href="#DejaVuSans-32"/>
     <use transform="translate(1489.003906 0.78125)" xlink:href="#DejaVuSans-37"/>
     <use transform="translate(1552.626953 0.78125)" xlink:href="#DejaVuSans-65"/>
     <use transform="translate(1614.150391 0.78125)" xlink:href="#DejaVuSans-56"/>
     <use transform="translate(1682.558594 0.78125)" xlink:href="#DejaVuSans-2c"/>
     <use transform="translate(1714.345703 0.78125)" xlink:href="#DejaVuSans-20"/>
     <use transform="translate(1746.132812 0.78125)" xlink:href="#DejaVuSans-394"/>
     <use transform="translate(1814.541016 0.78125)" xlink:href="#DejaVuSans-45"/>
     <use transform="translate(1877.724609 0.78125)" xlink:href="#DejaVuSans-3d"/>
     <use transform="translate(1961.513672 0.78125)" xlink:href="#DejaVuSans-30"/>
     <use transform="translate(2025.136719 0.78125)" xlink:href="#DejaVuSans-2e"/>
     <use transform="translate(2056.923828 0.78125)" xlink:href="#DejaVuSans-33"/>
     <use transform="translate(2120.546875 0.78125)" xlink:href="#DejaVuSans-33"/>
     <use transform="translate(2184.169922 0.78125)" xlink:href="#DejaVuSans-65"/>
     <use transform="translate(2245.693359 0.78125)" xlink:href="#DejaVuSans-56"/>
    </g>
   </g>
  </g>
  <g id="axes_2">
   <g id="patch_2">
    <path clip-path="url(#p3c28acc4a1)" d="M 361.152 307.584 
L 361.152 306.5445 
L 361.152 42.5115 
L 361.152 41.472 
L 374.4576 41.472 
L 374.4576 42.5115 
L 374.4576 306.5445 
L 374.4576 307.584 
z
" style="fill:#ffffff;stroke:#ffffff;stroke-linejoin:miter;stroke-width:0.01;"/>
   </g>
   <image height="265.68" id="imagedc7a038a36" transform="scale(1 -1)translate(0 -265.68)" width="12.96" x="361.44" xlink:href="data:image/png;base64,
iVBORw0KGgoAAAANSUhEUgAAABIAAAFxCAYAAAB+2fgXAAAABHNCSVQICAgIfAhkiAAAAeVJREFUeJztncmNw0AQA2ckheYQNv9QLIfQ8ygsCgQ7AEI8+jAs2Puz/94F1LP2ReCsZ18bAWIeZ5XaGRBE7VnbptG+KI101FYyNSiQG2oRITXKNaX9uclOdi2XWjftVE32CZCO2ou5Bj1TcCBr/1zB9ge7Fq0Rg2NM9pvbtG+ua1QgsRYhDy0ISEiNc40BEibbSI0Coj5CBGtkpFbXJiAjNZlrwhuSOv2M1DjXbEdEciBt1JSDDQKKpmZr2rr2j0DBGpXaWEJq3bQzEPIS26r9J+Wzv9Tm8o3aajRXqc3VUXsApKNWjeZq0x4ABVNbm7lrszVigDqP5vIl2+eaT2yfRkL7g+dRcNPqjohkjaCvRVBq0H2U3LQrOJCx9kdTg4B8oxZzzTdqdYHEngjUCAPyUctN9sVRq2sTECW2UKNLd2jVtRmo1A6AhMmWaSRcR8nUdIHUuVb75zJS218EyEitro1At69pIdeSk30Lkw0FktNImGyZRhy1O5galmxd03LUsHWk06jUZiCq+5Wb1kZNN4+wJxJuWt8RAW5am2sYNZ9rYCBzZ3buPKJ2P5Yj4Toy3keyIyJbIxs1rml1byCA84gpch5RQNB7Q0qNMGq2Hy4BXdNR41yz/cEEJfZzUz96r9PoB0okjeQ8y9TkAAAAAElFTkSuQmCC" y="-41.76"/>
   <g id="matplotlib.axis_1"/>
   <g id="matplotlib.axis_2">
    <g id="ytick_1">
     <g id="line2d_1">
      <defs>
       <path d="M 0 0 
L 3.5 0 
" id="mc816d72c24" style="stroke:#000000;stroke-width:0.8;"/>
      </defs>
      <g>
       <use style="stroke:#000000;stroke-width:0.8;" x="374.4576" xlink:href="#mc816d72c24" y="277.516279"/>
      </g>
     </g>
     <g id="text_2">
      <!-- −8.00 -->
      <defs>
       <path d="M 10.59375 35.5 
L 73.1875 35.5 
L 73.1875 27.203125 
L 10.59375 27.203125 
z
" id="DejaVuSans-2212"/>
      </defs>
      <g transform="translate(381.4576 281.315498)scale(0.1 -0.1)">
       <use xlink:href="#DejaVuSans-2212"/>
       <use x="83.789062" xlink:href="#DejaVuSans-38"/>
       <use x="147.412109" xlink:href="#DejaVuSans-2e"/>
       <use x="179.199219" xlink:href="#DejaVuSans-30"/>
       <use x="242.822266" xlink:href="#DejaVuSans-30"/>
      </g>
     </g>
    </g>
    <g id="ytick_2">
     <g id="line2d_2">
      <g>
       <use style="stroke:#000000;stroke-width:0.8;" x="374.4576" xlink:href="#mc816d72c24" y="244.635949"/>
      </g>
     </g>
     <g id="text_3">
      <!-- −7.75 -->
      <defs>
       <path d="M 10.796875 72.90625 
L 49.515625 72.90625 
L 49.515625 64.59375 
L 19.828125 64.59375 
L 19.828125 46.734375 
Q 21.96875 47.46875 24.109375 47.828125 
Q 26.265625 48.1875 28.421875 48.1875 
Q 40.625 48.1875 47.75 41.5 
Q 54.890625 34.8125 54.890625 23.390625 
Q 54.890625 11.625 47.5625 5.09375 
Q 40.234375 -1.421875 26.90625 -1.421875 
Q 22.3125 -1.421875 17.546875 -0.640625 
Q 12.796875 0.140625 7.71875 1.703125 
L 7.71875 11.625 
Q 12.109375 9.234375 16.796875 8.0625 
Q 21.484375 6.890625 26.703125 6.890625 
Q 35.15625 6.890625 40.078125 11.328125 
Q 45.015625 15.765625 45.015625 23.390625 
Q 45.015625 31 40.078125 35.4375 
Q 35.15625 39.890625 26.703125 39.890625 
Q 22.75 39.890625 18.8125 39.015625 
Q 14.890625 38.140625 10.796875 36.28125 
z
" id="DejaVuSans-35"/>
      </defs>
      <g transform="translate(381.4576 248.435168)scale(0.1 -0.1)">
       <use xlink:href="#DejaVuSans-2212"/>
       <use x="83.789062" xlink:href="#DejaVuSans-37"/>
       <use x="147.412109" xlink:href="#DejaVuSans-2e"/>
       <use x="179.199219" xlink:href="#DejaVuSans-37"/>
       <use x="242.822266" xlink:href="#DejaVuSans-35"/>
      </g>
     </g>
    </g>
    <g id="ytick_3">
     <g id="line2d_3">
      <g>
       <use style="stroke:#000000;stroke-width:0.8;" x="374.4576" xlink:href="#mc816d72c24" y="211.755619"/>
      </g>
     </g>
     <g id="text_4">
      <!-- −7.50 -->
      <g transform="translate(381.4576 215.554838)scale(0.1 -0.1)">
       <use xlink:href="#DejaVuSans-2212"/>
       <use x="83.789062" xlink:href="#DejaVuSans-37"/>
       <use x="147.412109" xlink:href="#DejaVuSans-2e"/>
       <use x="179.199219" xlink:href="#DejaVuSans-35"/>
       <use x="242.822266" xlink:href="#DejaVuSans-30"/>
      </g>
     </g>
    </g>
    <g id="ytick_4">
     <g id="line2d_4">
      <g>
       <use style="stroke:#000000;stroke-width:0.8;" x="374.4576" xlink:href="#mc816d72c24" y="178.875289"/>
      </g>
     </g>
     <g id="text_5">
      <!-- −7.25 -->
      <g transform="translate(381.4576 182.674508)scale(0.1 -0.1)">
       <use xlink:href="#DejaVuSans-2212"/>
       <use x="83.789062" xlink:href="#DejaVuSans-37"/>
       <use x="147.412109" xlink:href="#DejaVuSans-2e"/>
       <use x="179.199219" xlink:href="#DejaVuSans-32"/>
       <use x="242.822266" xlink:href="#DejaVuSans-35"/>
      </g>
     </g>
    </g>
    <g id="ytick_5">
     <g id="line2d_5">
      <g>
       <use style="stroke:#000000;stroke-width:0.8;" x="374.4576" xlink:href="#mc816d72c24" y="145.994959"/>
      </g>
     </g>
     <g id="text_6">
      <!-- −7.00 -->
      <g transform="translate(381.4576 149.794178)scale(0.1 -0.1)">
       <use xlink:href="#DejaVuSans-2212"/>
       <use x="83.789062" xlink:href="#DejaVuSans-37"/>
       <use x="147.412109" xlink:href="#DejaVuSans-2e"/>
       <use x="179.199219" xlink:href="#DejaVuSans-30"/>
       <use x="242.822266" xlink:href="#DejaVuSans-30"/>
      </g>
     </g>
    </g>
    <g id="ytick_6">
     <g id="line2d_6">
      <g>
       <use style="stroke:#000000;stroke-width:0.8;" x="374.4576" xlink:href="#mc816d72c24" y="113.114629"/>
      </g>
     </g>
     <g id="text_7">
      <!-- −6.75 -->
      <g transform="translate(381.4576 116.913848)scale(0.1 -0.1)">
       <use xlink:href="#DejaVuSans-2212"/>
       <use x="83.789062" xlink:href="#DejaVuSans-36"/>
       <use x="147.412109" xlink:href="#DejaVuSans-2e"/>
       <use x="179.199219" xlink:href="#DejaVuSans-37"/>
       <use x="242.822266" xlink:href="#DejaVuSans-35"/>
      </g>
     </g>
    </g>
    <g id="ytick_7">
     <g id="line2d_7">
      <g>
       <use style="stroke:#000000;stroke-width:0.8;" x="374.4576" xlink:href="#mc816d72c24" y="80.2343"/>
      </g>
     </g>
     <g id="text_8">
      <!-- −6.50 -->
      <g transform="translate(381.4576 84.033518)scale(0.1 -0.1)">
       <use xlink:href="#DejaVuSans-2212"/>
       <use x="83.789062" xlink:href="#DejaVuSans-36"/>
       <use x="147.412109" xlink:href="#DejaVuSans-2e"/>
       <use x="179.199219" xlink:href="#DejaVuSans-35"/>
       <use x="242.822266" xlink:href="#DejaVuSans-30"/>
      </g>
     </g>
    </g>
    <g id="ytick_8">
     <g id="line2d_8">
      <g>
       <use style="stroke:#000000;stroke-width:0.8;" x="374.4576" xlink:href="#mc816d72c24" y="47.35397"/>
      </g>
     </g>
     <g id="text_9">
      <!-- −6.25 -->
      <g transform="translate(381.4576 51.153188)scale(0.1 -0.1)">
       <use xlink:href="#DejaVuSans-2212"/>
       <use x="83.789062" xlink:href="#DejaVuSans-36"/>
       <use x="147.412109" xlink:href="#DejaVuSans-2e"/>
       <use x="179.199219" xlink:href="#DejaVuSans-32"/>
       <use x="242.822266" xlink:href="#DejaVuSans-35"/>
      </g>
     </g>
    </g>
    <g id="text_10">
     <!-- Energy [eV] -->
     <defs>
      <path d="M 54.890625 33.015625 
L 54.890625 0 
L 45.90625 0 
L 45.90625 32.71875 
Q 45.90625 40.484375 42.875 44.328125 
Q 39.84375 48.1875 33.796875 48.1875 
Q 26.515625 48.1875 22.3125 43.546875 
Q 18.109375 38.921875 18.109375 30.90625 
L 18.109375 0 
L 9.078125 0 
L 9.078125 54.6875 
L 18.109375 54.6875 
L 18.109375 46.1875 
Q 21.34375 51.125 25.703125 53.5625 
Q 30.078125 56 35.796875 56 
Q 45.21875 56 50.046875 50.171875 
Q 54.890625 44.34375 54.890625 33.015625 
z
" id="DejaVuSans-6e"/>
      <path d="M 45.40625 27.984375 
Q 45.40625 37.75 41.375 43.109375 
Q 37.359375 48.484375 30.078125 48.484375 
Q 22.859375 48.484375 18.828125 43.109375 
Q 14.796875 37.75 14.796875 27.984375 
Q 14.796875 18.265625 18.828125 12.890625 
Q 22.859375 7.515625 30.078125 7.515625 
Q 37.359375 7.515625 41.375 12.890625 
Q 45.40625 18.265625 45.40625 27.984375 
z
M 54.390625 6.78125 
Q 54.390625 -7.171875 48.1875 -13.984375 
Q 42 -20.796875 29.203125 -20.796875 
Q 24.46875 -20.796875 20.265625 -20.09375 
Q 16.0625 -19.390625 12.109375 -17.921875 
L 12.109375 -9.1875 
Q 16.0625 -11.328125 19.921875 -12.34375 
Q 23.78125 -13.375 27.78125 -13.375 
Q 36.625 -13.375 41.015625 -8.765625 
Q 45.40625 -4.15625 45.40625 5.171875 
L 45.40625 9.625 
Q 42.625 4.78125 38.28125 2.390625 
Q 33.9375 0 27.875 0 
Q 17.828125 0 11.671875 7.65625 
Q 5.515625 15.328125 5.515625 27.984375 
Q 5.515625 40.671875 11.671875 48.328125 
Q 17.828125 56 27.875 56 
Q 33.9375 56 38.28125 53.609375 
Q 42.625 51.21875 45.40625 46.390625 
L 45.40625 54.6875 
L 54.390625 54.6875 
z
" id="DejaVuSans-67"/>
      <path d="M 32.171875 -5.078125 
Q 28.375 -14.84375 24.75 -17.8125 
Q 21.140625 -20.796875 15.09375 -20.796875 
L 7.90625 -20.796875 
L 7.90625 -13.28125 
L 13.1875 -13.28125 
Q 16.890625 -13.28125 18.9375 -11.515625 
Q 21 -9.765625 23.484375 -3.21875 
L 25.09375 0.875 
L 2.984375 54.6875 
L 12.5 54.6875 
L 29.59375 11.921875 
L 46.6875 54.6875 
L 56.203125 54.6875 
z
" id="DejaVuSans-79"/>
      <path d="M 8.59375 75.984375 
L 29.296875 75.984375 
L 29.296875 69 
L 17.578125 69 
L 17.578125 -6.203125 
L 29.296875 -6.203125 
L 29.296875 -13.1875 
L 8.59375 -13.1875 
z
" id="DejaVuSans-5b"/>
      <path d="M 30.421875 75.984375 
L 30.421875 -13.1875 
L 9.71875 -13.1875 
L 9.71875 -6.203125 
L 21.390625 -6.203125 
L 21.390625 69 
L 9.71875 69 
L 9.71875 75.984375 
z
" id="DejaVuSans-5d"/>
     </defs>
     <g transform="translate(423.70135 204.108469)rotate(-90)scale(0.1 -0.1)">
      <use xlink:href="#DejaVuSans-45"/>
      <use x="63.183594" xlink:href="#DejaVuSans-6e"/>
      <use x="126.5625" xlink:href="#DejaVuSans-65"/>
      <use x="188.085938" xlink:href="#DejaVuSans-72"/>
      <use x="229.183594" xlink:href="#DejaVuSans-67"/>
      <use x="292.660156" xlink:href="#DejaVuSans-79"/>
      <use x="351.839844" xlink:href="#DejaVuSans-20"/>
      <use x="383.626953" xlink:href="#DejaVuSans-5b"/>
      <use x="422.640625" xlink:href="#DejaVuSans-65"/>
      <use x="484.164062" xlink:href="#DejaVuSans-56"/>
      <use x="552.572266" xlink:href="#DejaVuSans-5d"/>
     </g>
    </g>
   </g>
   <g id="patch_3">
    <path d="M 361.152 307.584 
L 361.152 306.5445 
L 361.152 42.5115 
L 361.152 41.472 
L 374.4576 41.472 
L 374.4576 42.5115 
L 374.4576 306.5445 
L 374.4576 307.584 
z
" style="fill:none;stroke:#000000;stroke-linejoin:miter;stroke-width:0.8;"/>
   </g>
  </g>
 </g>
 <defs>
  <clipPath id="p1d0e47d846">
   <rect height="266.112" width="285.696" x="57.6" y="41.472"/>
  </clipPath>
  <clipPath id="p3c28acc4a1">
   <rect height="266.112" width="13.3056" x="361.152" y="41.472"/>
  </clipPath>
 </defs>
</svg>
