<?xml version="1.0" encoding="utf-8" standalone="no"?>
<!DOCTYPE svg PUBLIC "-//W3C//DTD SVG 1.1//EN"
  "http://www.w3.org/Graphics/SVG/1.1/DTD/svg11.dtd">
<!-- Created with matplotlib (http://matplotlib.org/) -->
<svg height="345.6pt" version="1.1" viewBox="0 0 460.8 345.6" width="460.8pt" xmlns="http://www.w3.org/2000/svg" xmlns:xlink="http://www.w3.org/1999/xlink">
 <defs>
  <style type="text/css">
*{stroke-linecap:butt;stroke-linejoin:round;}
  </style>
 </defs>
 <g id="figure_1">
  <g id="patch_1">
   <path d="M 0 345.6 
L 460.8 345.6 
L 460.8 0 
L 0 0 
z
" style="fill:#ffffff;"/>
  </g>
  <g id="axes_1">
   <g id="CircleCollection_1">
    <path clip-path="url(#p5b910ebfac)" d="M 245.277028 255.944222 
C 247.043984 255.944222 248.738808 255.242202 249.988234 253.992776 
C 251.237661 252.743349 251.93968 251.048526 251.93968 249.28157 
C 251.93968 247.514614 251.237661 245.81979 249.988234 244.570363 
C 248.738808 243.320937 247.043984 242.618918 245.277028 242.618918 
C 243.510072 242.618918 241.815248 243.320937 240.565822 244.570363 
C 239.316395 245.81979 238.614376 247.514614 238.614376 249.28157 
C 238.614376 251.048526 239.316395 252.743349 240.565822 253.992776 
C 241.815248 255.242202 243.510072 255.944222 245.277028 255.944222 
z
" style="fill:#3e4989;"/>
    <path clip-path="url(#p5b910ebfac)" d="M 89.335649 237.020363 
C 91.06792 237.020363 92.729474 236.332124 93.954375 235.107224 
C 95.179275 233.882323 95.867514 232.220769 95.867514 230.488498 
C 95.867514 228.756227 95.179275 227.094672 93.954375 225.869772 
C 92.729474 224.644871 91.06792 223.956633 89.335649 223.956633 
C 87.603378 223.956633 85.941823 224.644871 84.716923 225.869772 
C 83.492022 227.094672 82.803784 228.756227 82.803784 230.488498 
C 82.803784 232.220769 83.492022 233.882323 84.716923 235.107224 
C 85.941823 236.332124 87.603378 237.020363 89.335649 237.020363 
z
" style="fill:#20938c;"/>
    <path clip-path="url(#p5b910ebfac)" d="M 264.481635 300.486486 
C 266.236584 300.486486 267.919892 299.789237 269.160829 298.5483 
C 270.401766 297.307363 271.099015 295.624055 271.099015 293.869105 
C 271.099015 292.114155 270.401766 290.430847 269.160829 289.18991 
C 267.919892 287.948974 266.236584 287.251725 264.481635 287.251725 
C 262.726685 287.251725 261.043377 287.948974 259.80244 289.18991 
C 258.561503 290.430847 257.864254 292.114155 257.864254 293.869105 
C 257.864254 295.624055 258.561503 297.307363 259.80244 298.5483 
C 261.043377 299.789237 262.726685 300.486486 264.481635 300.486486 
z
" style="fill:#4ec36b;"/>
    <path clip-path="url(#p5b910ebfac)" d="M 229.144914 124.092576 
C 231.003303 124.092576 232.785827 123.35423 234.099907 122.04015 
C 235.413986 120.726071 236.152332 118.943546 236.152332 117.085157 
C 236.152332 115.226768 235.413986 113.444244 234.099907 112.130164 
C 232.785827 110.816085 231.003303 110.077739 229.144914 110.077739 
C 227.286525 110.077739 225.504 110.816085 224.189921 112.130164 
C 222.875841 113.444244 222.137495 115.226768 222.137495 117.085157 
C 222.137495 118.943546 222.875841 120.726071 224.189921 122.04015 
C 225.504 123.35423 227.286525 124.092576 229.144914 124.092576 
z
" style="fill:#67cc5c;"/>
    <path clip-path="url(#p5b910ebfac)" d="M 116.349234 262.823823 
C 118.06543 262.823823 119.711565 262.141972 120.925099 260.928438 
C 122.138632 259.714905 122.820484 258.068769 122.820484 256.352574 
C 122.820484 254.636379 122.138632 252.990243 120.925099 251.77671 
C 119.711565 250.563176 118.06543 249.881325 116.349234 249.881325 
C 114.633039 249.881325 112.986903 250.563176 111.77337 251.77671 
C 110.559837 252.990243 109.877985 254.636379 109.877985 256.352574 
C 109.877985 258.068769 110.559837 259.714905 111.77337 260.928438 
C 112.986903 262.141972 114.633039 262.823823 116.349234 262.823823 
z
" style="fill:#1f9a8a;"/>
    <path clip-path="url(#p5b910ebfac)" d="M 210.12554 242.296318 
C 211.86862 242.296318 213.540542 241.603785 214.773086 240.371242 
C 216.005629 239.138698 216.698162 237.466776 216.698162 235.723696 
C 216.698162 233.980616 216.005629 232.308694 214.773086 231.07615 
C 213.540542 229.843607 211.86862 229.151074 210.12554 229.151074 
C 208.38246 229.151074 206.710538 229.843607 205.477994 231.07615 
C 204.245451 232.308694 203.552918 233.980616 203.552918 235.723696 
C 203.552918 237.466776 204.245451 239.138698 205.477994 240.371242 
C 206.710538 241.603785 208.38246 242.296318 210.12554 242.296318 
z
" style="fill:#482878;"/>
    <path clip-path="url(#p5b910ebfac)" d="M 176.366682 61.364882 
C 178.23798 61.364882 180.032887 60.621408 181.356094 59.2982 
C 182.679302 57.974992 183.422776 56.180086 183.422776 54.308788 
C 183.422776 52.43749 182.679302 50.642584 181.356094 49.319376 
C 180.032887 47.996168 178.23798 47.252694 176.366682 47.252694 
C 174.495384 47.252694 172.700478 47.996168 171.37727 49.319376 
C 170.054063 50.642584 169.310588 52.43749 169.310588 54.308788 
C 169.310588 56.180086 170.054063 57.974992 171.37727 59.2982 
C 172.700478 60.621408 174.495384 61.364882 176.366682 61.364882 
z
" style="fill:#fde725;"/>
    <path clip-path="url(#p5b910ebfac)" d="M 161.46838 114.668398 
C 163.227283 114.668398 164.914383 113.969578 166.158115 112.725846 
C 167.401847 111.482114 168.100666 109.795015 168.100666 108.036112 
C 168.100666 106.277209 167.401847 104.59011 166.158115 103.346377 
C 164.914383 102.102645 163.227283 101.403826 161.46838 101.403826 
C 159.709477 101.403826 158.022378 102.102645 156.778646 103.346377 
C 155.534914 104.59011 154.836094 106.277209 154.836094 108.036112 
C 154.836094 109.795015 155.534914 111.482114 156.778646 112.725846 
C 158.022378 113.969578 159.709477 114.668398 161.46838 114.668398 
z
" style="fill:#6ece58;"/>
    <path clip-path="url(#p5b910ebfac)" d="M 70.933118 147.343045 
C 72.722553 147.343045 74.438939 146.632095 75.704261 145.366773 
C 76.969583 144.101451 77.680533 142.385065 77.680533 140.595629 
C 77.680533 138.806194 76.969583 137.089808 75.704261 135.824486 
C 74.438939 134.559164 72.722553 133.848214 70.933118 133.848214 
C 69.143682 133.848214 67.427296 134.559164 66.161974 135.824486 
C 64.896652 137.089808 64.185702 138.806194 64.185702 140.595629 
C 64.185702 142.385065 64.896652 144.101451 66.161974 145.366773 
C 67.427296 146.632095 69.143682 147.343045 70.933118 147.343045 
z
" style="fill:#1f9a8a;"/>
    <path clip-path="url(#p5b910ebfac)" d="M 75.287608 193.284965 
C 77.048813 193.284965 78.738121 192.58523 79.983481 191.33987 
C 81.228841 190.09451 81.928575 188.405203 81.928575 186.643997 
C 81.928575 184.882792 81.228841 183.193485 79.983481 181.948125 
C 78.738121 180.702764 77.048813 180.00303 75.287608 180.00303 
C 73.526403 180.00303 71.837095 180.702764 70.591735 181.948125 
C 69.346375 183.193485 68.646641 184.882792 68.646641 186.643997 
C 68.646641 188.405203 69.346375 190.09451 70.591735 191.33987 
C 71.837095 192.58523 73.526403 193.284965 75.287608 193.284965 
z
" style="fill:#1e9d89;"/>
    <path clip-path="url(#p5b910ebfac)" d="M 149.147821 76.942018 
C 150.966771 76.942018 152.711467 76.219341 153.997659 74.933149 
C 155.283851 73.646957 156.006527 71.902261 156.006527 70.083311 
C 156.006527 68.26436 155.283851 66.519665 153.997659 65.233473 
C 152.711467 63.947281 150.966771 63.224604 149.147821 63.224604 
C 147.32887 63.224604 145.584175 63.947281 144.297983 65.233473 
C 143.01179 66.519665 142.289114 68.26436 142.289114 70.083311 
C 142.289114 71.902261 143.01179 73.646957 144.297983 74.933149 
C 145.584175 76.219341 147.32887 76.942018 149.147821 76.942018 
z
" style="fill:#440154;"/>
    <path clip-path="url(#p5b910ebfac)" d="M 233.64399 169.078137 
C 235.455897 169.078137 237.193838 168.358259 238.47505 167.077046 
C 239.756262 165.795834 240.47614 164.057894 240.47614 162.245986 
C 240.47614 160.434079 239.756262 158.696139 238.47505 157.414926 
C 237.193838 156.133714 235.455897 155.413836 233.64399 155.413836 
C 231.832082 155.413836 230.094142 156.133714 228.81293 157.414926 
C 227.531717 158.696139 226.811839 160.434079 226.811839 162.245986 
C 226.811839 164.057894 227.531717 165.795834 228.81293 167.077046 
C 230.094142 168.358259 231.832082 169.078137 233.64399 169.078137 
z
" style="fill:#433d84;"/>
    <path clip-path="url(#p5b910ebfac)" d="M 204.853566 189.258016 
C 206.617005 189.258016 208.308456 188.557394 209.555396 187.310454 
C 210.802335 186.063514 211.502957 184.372063 211.502957 182.608624 
C 211.502957 180.845185 210.802335 179.153734 209.555396 177.906794 
C 208.308456 176.659855 206.617005 175.959233 204.853566 175.959233 
C 203.090127 175.959233 201.398676 176.659855 200.151736 177.906794 
C 198.904796 179.153734 198.204174 180.845185 198.204174 182.608624 
C 198.204174 184.372063 198.904796 186.063514 200.151736 187.310454 
C 201.398676 188.557394 203.090127 189.258016 204.853566 189.258016 
z
" style="fill:#481a6c;"/>
    <path clip-path="url(#p5b910ebfac)" d="M 204.682137 90.308135 
C 206.546407 90.308135 208.334572 89.567453 209.65281 88.249215 
C 210.971048 86.930977 211.71173 85.142812 211.71173 83.278542 
C 211.71173 81.414272 210.971048 79.626107 209.65281 78.307869 
C 208.334572 76.989632 206.546407 76.248949 204.682137 76.248949 
C 202.817867 76.248949 201.029702 76.989632 199.711464 78.307869 
C 198.393226 79.626107 197.652544 81.414272 197.652544 83.278542 
C 197.652544 85.142812 198.393226 86.930977 199.711464 88.249215 
C 201.029702 89.567453 202.817867 90.308135 204.682137 90.308135 
z
" style="fill:#1f998a;"/>
    <path clip-path="url(#p5b910ebfac)" d="M 312.574023 251.734616 
C 314.402033 251.734616 316.155419 251.00834 317.448018 249.715741 
C 318.740617 248.423143 319.466893 246.669756 319.466893 244.841746 
C 319.466893 243.013735 318.740617 241.260349 317.448018 239.96775 
C 316.155419 238.675151 314.402033 237.948875 312.574023 237.948875 
C 310.746012 237.948875 308.992626 238.675151 307.700027 239.96775 
C 306.407428 241.260349 305.681152 243.013735 305.681152 244.841746 
C 305.681152 246.669756 306.407428 248.423143 307.700027 249.715741 
C 308.992626 251.00834 310.746012 251.734616 312.574023 251.734616 
z
" style="fill:#21908d;"/>
    <path clip-path="url(#p5b910ebfac)" d="M 329.958437 297.99755 
C 331.7708 297.99755 333.509176 297.277491 334.79071 295.995958 
C 336.072243 294.714424 336.792302 292.976048 336.792302 291.163686 
C 336.792302 289.351324 336.072243 287.612947 334.79071 286.331414 
C 333.509176 285.04988 331.7708 284.329821 329.958437 284.329821 
C 328.146075 284.329821 326.407699 285.04988 325.126165 286.331414 
C 323.844632 287.612947 323.124573 289.351324 323.124573 291.163686 
C 323.124573 292.976048 323.844632 294.714424 325.126165 295.995958 
C 326.407699 297.277491 328.146075 297.99755 329.958437 297.99755 
z
" style="fill:#f6e620;"/>
    <path clip-path="url(#p5b910ebfac)" d="M 113.377119 74.617892 
C 115.205235 74.617892 116.958722 73.891574 118.251395 72.598901 
C 119.544068 71.306228 120.270386 69.552741 120.270386 67.724626 
C 120.270386 65.89651 119.544068 64.143023 118.251395 62.85035 
C 116.958722 61.557677 115.205235 60.831359 113.377119 60.831359 
C 111.549003 60.831359 109.795517 61.557677 108.502844 62.85035 
C 107.210171 64.143023 106.483852 65.89651 106.483852 67.724626 
C 106.483852 69.552741 107.210171 71.306228 108.502844 72.598901 
C 109.795517 73.891574 111.549003 74.617892 113.377119 74.617892 
z
" style="fill:#63cb5f;"/>
    <path clip-path="url(#p5b910ebfac)" d="M 176.629304 156.544659 
C 178.375818 156.544659 180.051034 155.850762 181.286005 154.61579 
C 182.520977 153.380818 183.214874 151.705602 183.214874 149.959089 
C 183.214874 148.212575 182.520977 146.537359 181.286005 145.302388 
C 180.051034 144.067416 178.375818 143.373519 176.629304 143.373519 
C 174.88279 143.373519 173.207574 144.067416 171.972603 145.302388 
C 170.737631 146.537359 170.043734 148.212575 170.043734 149.959089 
C 170.043734 151.705602 170.737631 153.380818 171.972603 154.61579 
C 173.207574 155.850762 174.88279 156.544659 176.629304 156.544659 
z
" style="fill:#28ae80;"/>
    <path clip-path="url(#p5b910ebfac)" d="M 181.208204 270.192228 
C 182.925904 270.192228 184.573483 269.509779 185.78808 268.295182 
C 187.002677 267.080584 187.685127 265.433005 187.685127 263.715305 
C 187.685127 261.997605 187.002677 260.350027 185.78808 259.135429 
C 184.573483 257.920832 182.925904 257.238382 181.208204 257.238382 
C 179.490504 257.238382 177.842925 257.920832 176.628328 259.135429 
C 175.41373 260.350027 174.731281 261.997605 174.731281 263.715305 
C 174.731281 265.433005 175.41373 267.080584 176.628328 268.295182 
C 177.842925 269.509779 179.490504 270.192228 181.208204 270.192228 
z
" style="fill:#46c06f;"/>
    <path clip-path="url(#p5b910ebfac)" d="M 293.74969 209.478154 
C 295.588539 209.478154 297.352321 208.747572 298.652584 207.447309 
C 299.952846 206.147047 300.683429 204.383264 300.683429 202.544415 
C 300.683429 200.705566 299.952846 198.941784 298.652584 197.641521 
C 297.352321 196.341259 295.588539 195.610676 293.74969 195.610676 
C 291.910841 195.610676 290.147058 196.341259 288.846796 197.641521 
C 287.546533 198.941784 286.815951 200.705566 286.815951 202.544415 
C 286.815951 204.383264 287.546533 206.147047 288.846796 207.447309 
C 290.147058 208.747572 291.910841 209.478154 293.74969 209.478154 
z
" style="fill:#56c667;"/>
    <path clip-path="url(#p5b910ebfac)" d="M 260.57975 208.686642 
C 262.38923 208.686642 264.124843 207.967727 265.404339 206.688231 
C 266.683835 205.408735 267.402749 203.673123 267.402749 201.863642 
C 267.402749 200.054161 266.683835 198.318549 265.404339 197.039053 
C 264.124843 195.759557 262.38923 195.040642 260.57975 195.040642 
C 258.770269 195.040642 257.034656 195.759557 255.75516 197.039053 
C 254.475664 198.318549 253.75675 200.054161 253.75675 201.863642 
C 253.75675 203.673123 254.475664 205.408735 255.75516 206.688231 
C 257.034656 207.967727 258.770269 208.686642 260.57975 208.686642 
z
" style="fill:#3e4c8a;"/>
    <path clip-path="url(#p5b910ebfac)" d="M 149.36031 274.696764 
C 151.066893 274.696764 152.703807 274.018732 153.910543 272.811996 
C 155.117279 271.60526 155.795311 269.968345 155.795311 268.261763 
C 155.795311 266.555181 155.117279 264.918266 153.910543 263.71153 
C 152.703807 262.504794 151.066893 261.826762 149.36031 261.826762 
C 147.653728 261.826762 146.016813 262.504794 144.810077 263.71153 
C 143.603341 264.918266 142.925309 266.555181 142.925309 268.261763 
C 142.925309 269.968345 143.603341 271.60526 144.810077 272.811996 
C 146.016813 274.018732 147.653728 274.696764 149.36031 274.696764 
z
" style="fill:#23888e;"/>
    <path clip-path="url(#p5b910ebfac)" d="M 88.772417 105.264761 
C 90.584337 105.264761 92.322289 104.544878 93.60351 103.263657 
C 94.884731 101.982436 95.604615 100.244483 95.604615 98.432563 
C 95.604615 96.620643 94.884731 94.882691 93.60351 93.60147 
C 92.322289 92.320249 90.584337 91.600366 88.772417 91.600366 
C 86.960497 91.600366 85.222545 92.320249 83.941324 93.60147 
C 82.660103 94.882691 81.940219 96.620643 81.940219 98.432563 
C 81.940219 100.244483 82.660103 101.982436 83.941324 103.263657 
C 85.222545 104.544878 86.960497 105.264761 88.772417 105.264761 
z
" style="fill:#1f988b;"/>
    <path clip-path="url(#p5b910ebfac)" d="M 296.480636 301.501654 
C 298.262551 301.501654 299.971723 300.793692 301.231727 299.533688 
C 302.491732 298.273683 303.199694 296.564511 303.199694 294.782596 
C 303.199694 293.000681 302.491732 291.291508 301.231727 290.031504 
C 299.971723 288.7715 298.262551 288.063537 296.480636 288.063537 
C 294.69872 288.063537 292.989548 288.7715 291.729544 290.031504 
C 290.469539 291.291508 289.761577 293.000681 289.761577 294.782596 
C 289.761577 296.564511 290.469539 298.273683 291.729544 299.533688 
C 292.989548 300.793692 294.69872 301.501654 296.480636 301.501654 
z
" style="fill:#20928c;"/>
   </g>
   <g id="text_1">
    <!-- Structure #9941, $E_N$=-183.11eV, ΔE=0.13eV -->
    <defs>
     <path d="M 53.515625 70.515625 
L 53.515625 60.890625 
Q 47.90625 63.578125 42.921875 64.890625 
Q 37.9375 66.21875 33.296875 66.21875 
Q 25.25 66.21875 20.875 63.09375 
Q 16.5 59.96875 16.5 54.203125 
Q 16.5 49.359375 19.40625 46.890625 
Q 22.3125 44.4375 30.421875 42.921875 
L 36.375 41.703125 
Q 47.40625 39.59375 52.65625 34.296875 
Q 57.90625 29 57.90625 20.125 
Q 57.90625 9.515625 50.796875 4.046875 
Q 43.703125 -1.421875 29.984375 -1.421875 
Q 24.8125 -1.421875 18.96875 -0.25 
Q 13.140625 0.921875 6.890625 3.21875 
L 6.890625 13.375 
Q 12.890625 10.015625 18.65625 8.296875 
Q 24.421875 6.59375 29.984375 6.59375 
Q 38.421875 6.59375 43.015625 9.90625 
Q 47.609375 13.234375 47.609375 19.390625 
Q 47.609375 24.75 44.3125 27.78125 
Q 41.015625 30.8125 33.5 32.328125 
L 27.484375 33.5 
Q 16.453125 35.6875 11.515625 40.375 
Q 6.59375 45.0625 6.59375 53.421875 
Q 6.59375 63.09375 13.40625 68.65625 
Q 20.21875 74.21875 32.171875 74.21875 
Q 37.3125 74.21875 42.625 73.28125 
Q 47.953125 72.359375 53.515625 70.515625 
z
" id="DejaVuSans-53"/>
     <path d="M 18.3125 70.21875 
L 18.3125 54.6875 
L 36.8125 54.6875 
L 36.8125 47.703125 
L 18.3125 47.703125 
L 18.3125 18.015625 
Q 18.3125 11.328125 20.140625 9.421875 
Q 21.96875 7.515625 27.59375 7.515625 
L 36.8125 7.515625 
L 36.8125 0 
L 27.59375 0 
Q 17.1875 0 13.234375 3.875 
Q 9.28125 7.765625 9.28125 18.015625 
L 9.28125 47.703125 
L 2.6875 47.703125 
L 2.6875 54.6875 
L 9.28125 54.6875 
L 9.28125 70.21875 
z
" id="DejaVuSans-74"/>
     <path d="M 41.109375 46.296875 
Q 39.59375 47.171875 37.8125 47.578125 
Q 36.03125 48 33.890625 48 
Q 26.265625 48 22.1875 43.046875 
Q 18.109375 38.09375 18.109375 28.8125 
L 18.109375 0 
L 9.078125 0 
L 9.078125 54.6875 
L 18.109375 54.6875 
L 18.109375 46.1875 
Q 20.953125 51.171875 25.484375 53.578125 
Q 30.03125 56 36.53125 56 
Q 37.453125 56 38.578125 55.875 
Q 39.703125 55.765625 41.0625 55.515625 
z
" id="DejaVuSans-72"/>
     <path d="M 8.5 21.578125 
L 8.5 54.6875 
L 17.484375 54.6875 
L 17.484375 21.921875 
Q 17.484375 14.15625 20.5 10.265625 
Q 23.53125 6.390625 29.59375 6.390625 
Q 36.859375 6.390625 41.078125 11.03125 
Q 45.3125 15.671875 45.3125 23.6875 
L 45.3125 54.6875 
L 54.296875 54.6875 
L 54.296875 0 
L 45.3125 0 
L 45.3125 8.40625 
Q 42.046875 3.421875 37.71875 1 
Q 33.40625 -1.421875 27.6875 -1.421875 
Q 18.265625 -1.421875 13.375 4.4375 
Q 8.5 10.296875 8.5 21.578125 
z
M 31.109375 56 
z
" id="DejaVuSans-75"/>
     <path d="M 48.78125 52.59375 
L 48.78125 44.1875 
Q 44.96875 46.296875 41.140625 47.34375 
Q 37.3125 48.390625 33.40625 48.390625 
Q 24.65625 48.390625 19.8125 42.84375 
Q 14.984375 37.3125 14.984375 27.296875 
Q 14.984375 17.28125 19.8125 11.734375 
Q 24.65625 6.203125 33.40625 6.203125 
Q 37.3125 6.203125 41.140625 7.25 
Q 44.96875 8.296875 48.78125 10.40625 
L 48.78125 2.09375 
Q 45.015625 0.34375 40.984375 -0.53125 
Q 36.96875 -1.421875 32.421875 -1.421875 
Q 20.0625 -1.421875 12.78125 6.34375 
Q 5.515625 14.109375 5.515625 27.296875 
Q 5.515625 40.671875 12.859375 48.328125 
Q 20.21875 56 33.015625 56 
Q 37.15625 56 41.109375 55.140625 
Q 45.0625 54.296875 48.78125 52.59375 
z
" id="DejaVuSans-63"/>
     <path d="M 56.203125 29.59375 
L 56.203125 25.203125 
L 14.890625 25.203125 
Q 15.484375 15.921875 20.484375 11.0625 
Q 25.484375 6.203125 34.421875 6.203125 
Q 39.59375 6.203125 44.453125 7.46875 
Q 49.3125 8.734375 54.109375 11.28125 
L 54.109375 2.78125 
Q 49.265625 0.734375 44.1875 -0.34375 
Q 39.109375 -1.421875 33.890625 -1.421875 
Q 20.796875 -1.421875 13.15625 6.1875 
Q 5.515625 13.8125 5.515625 26.8125 
Q 5.515625 40.234375 12.765625 48.109375 
Q 20.015625 56 32.328125 56 
Q 43.359375 56 49.78125 48.890625 
Q 56.203125 41.796875 56.203125 29.59375 
z
M 47.21875 32.234375 
Q 47.125 39.59375 43.09375 43.984375 
Q 39.0625 48.390625 32.421875 48.390625 
Q 24.90625 48.390625 20.390625 44.140625 
Q 15.875 39.890625 15.1875 32.171875 
z
" id="DejaVuSans-65"/>
     <path id="DejaVuSans-20"/>
     <path d="M 51.125 44 
L 36.921875 44 
L 32.8125 27.6875 
L 47.125 27.6875 
z
M 43.796875 71.78125 
L 38.71875 51.515625 
L 52.984375 51.515625 
L 58.109375 71.78125 
L 65.921875 71.78125 
L 60.890625 51.515625 
L 76.125 51.515625 
L 76.125 44 
L 58.984375 44 
L 54.984375 27.6875 
L 70.515625 27.6875 
L 70.515625 20.21875 
L 53.078125 20.21875 
L 48 0 
L 40.1875 0 
L 45.21875 20.21875 
L 30.90625 20.21875 
L 25.875 0 
L 18.015625 0 
L 23.09375 20.21875 
L 7.71875 20.21875 
L 7.71875 27.6875 
L 24.90625 27.6875 
L 29 44 
L 13.28125 44 
L 13.28125 51.515625 
L 30.90625 51.515625 
L 35.890625 71.78125 
z
" id="DejaVuSans-23"/>
     <path d="M 10.984375 1.515625 
L 10.984375 10.5 
Q 14.703125 8.734375 18.5 7.8125 
Q 22.3125 6.890625 25.984375 6.890625 
Q 35.75 6.890625 40.890625 13.453125 
Q 46.046875 20.015625 46.78125 33.40625 
Q 43.953125 29.203125 39.59375 26.953125 
Q 35.25 24.703125 29.984375 24.703125 
Q 19.046875 24.703125 12.671875 31.3125 
Q 6.296875 37.9375 6.296875 49.421875 
Q 6.296875 60.640625 12.9375 67.421875 
Q 19.578125 74.21875 30.609375 74.21875 
Q 43.265625 74.21875 49.921875 64.515625 
Q 56.59375 54.828125 56.59375 36.375 
Q 56.59375 19.140625 48.40625 8.859375 
Q 40.234375 -1.421875 26.421875 -1.421875 
Q 22.703125 -1.421875 18.890625 -0.6875 
Q 15.09375 0.046875 10.984375 1.515625 
z
M 30.609375 32.421875 
Q 37.25 32.421875 41.125 36.953125 
Q 45.015625 41.5 45.015625 49.421875 
Q 45.015625 57.28125 41.125 61.84375 
Q 37.25 66.40625 30.609375 66.40625 
Q 23.96875 66.40625 20.09375 61.84375 
Q 16.21875 57.28125 16.21875 49.421875 
Q 16.21875 41.5 20.09375 36.953125 
Q 23.96875 32.421875 30.609375 32.421875 
z
" id="DejaVuSans-39"/>
     <path d="M 37.796875 64.3125 
L 12.890625 25.390625 
L 37.796875 25.390625 
z
M 35.203125 72.90625 
L 47.609375 72.90625 
L 47.609375 25.390625 
L 58.015625 25.390625 
L 58.015625 17.1875 
L 47.609375 17.1875 
L 47.609375 0 
L 37.796875 0 
L 37.796875 17.1875 
L 4.890625 17.1875 
L 4.890625 26.703125 
z
" id="DejaVuSans-34"/>
     <path d="M 12.40625 8.296875 
L 28.515625 8.296875 
L 28.515625 63.921875 
L 10.984375 60.40625 
L 10.984375 69.390625 
L 28.421875 72.90625 
L 38.28125 72.90625 
L 38.28125 8.296875 
L 54.390625 8.296875 
L 54.390625 0 
L 12.40625 0 
z
" id="DejaVuSans-31"/>
     <path d="M 11.71875 12.40625 
L 22.015625 12.40625 
L 22.015625 4 
L 14.015625 -11.625 
L 7.71875 -11.625 
L 11.71875 4 
z
" id="DejaVuSans-2c"/>
     <path d="M 16.890625 72.90625 
L 62.984375 72.90625 
L 61.375 64.59375 
L 25.09375 64.59375 
L 20.90625 43.015625 
L 55.71875 43.015625 
L 54.109375 34.71875 
L 19.28125 34.71875 
L 14.203125 8.296875 
L 51.3125 8.296875 
L 49.703125 0 
L 2.6875 0 
z
" id="DejaVuSans-Oblique-45"/>
     <path d="M 16.890625 72.90625 
L 30.171875 72.90625 
L 50.296875 10.40625 
L 62.5 72.90625 
L 72.125 72.90625 
L 57.90625 0 
L 44.578125 0 
L 24.515625 62.890625 
L 12.3125 0 
L 2.6875 0 
z
" id="DejaVuSans-Oblique-4e"/>
     <path d="M 10.59375 45.40625 
L 73.1875 45.40625 
L 73.1875 37.203125 
L 10.59375 37.203125 
z
M 10.59375 25.484375 
L 73.1875 25.484375 
L 73.1875 17.1875 
L 10.59375 17.1875 
z
" id="DejaVuSans-3d"/>
     <path d="M 4.890625 31.390625 
L 31.203125 31.390625 
L 31.203125 23.390625 
L 4.890625 23.390625 
z
" id="DejaVuSans-2d"/>
     <path d="M 31.78125 34.625 
Q 24.75 34.625 20.71875 30.859375 
Q 16.703125 27.09375 16.703125 20.515625 
Q 16.703125 13.921875 20.71875 10.15625 
Q 24.75 6.390625 31.78125 6.390625 
Q 38.8125 6.390625 42.859375 10.171875 
Q 46.921875 13.96875 46.921875 20.515625 
Q 46.921875 27.09375 42.890625 30.859375 
Q 38.875 34.625 31.78125 34.625 
z
M 21.921875 38.8125 
Q 15.578125 40.375 12.03125 44.71875 
Q 8.5 49.078125 8.5 55.328125 
Q 8.5 64.0625 14.71875 69.140625 
Q 20.953125 74.21875 31.78125 74.21875 
Q 42.671875 74.21875 48.875 69.140625 
Q 55.078125 64.0625 55.078125 55.328125 
Q 55.078125 49.078125 51.53125 44.71875 
Q 48 40.375 41.703125 38.8125 
Q 48.828125 37.15625 52.796875 32.3125 
Q 56.78125 27.484375 56.78125 20.515625 
Q 56.78125 9.90625 50.3125 4.234375 
Q 43.84375 -1.421875 31.78125 -1.421875 
Q 19.734375 -1.421875 13.25 4.234375 
Q 6.78125 9.90625 6.78125 20.515625 
Q 6.78125 27.484375 10.78125 32.3125 
Q 14.796875 37.15625 21.921875 38.8125 
z
M 18.3125 54.390625 
Q 18.3125 48.734375 21.84375 45.5625 
Q 25.390625 42.390625 31.78125 42.390625 
Q 38.140625 42.390625 41.71875 45.5625 
Q 45.3125 48.734375 45.3125 54.390625 
Q 45.3125 60.0625 41.71875 63.234375 
Q 38.140625 66.40625 31.78125 66.40625 
Q 25.390625 66.40625 21.84375 63.234375 
Q 18.3125 60.0625 18.3125 54.390625 
z
" id="DejaVuSans-38"/>
     <path d="M 40.578125 39.3125 
Q 47.65625 37.796875 51.625 33 
Q 55.609375 28.21875 55.609375 21.1875 
Q 55.609375 10.40625 48.1875 4.484375 
Q 40.765625 -1.421875 27.09375 -1.421875 
Q 22.515625 -1.421875 17.65625 -0.515625 
Q 12.796875 0.390625 7.625 2.203125 
L 7.625 11.71875 
Q 11.71875 9.328125 16.59375 8.109375 
Q 21.484375 6.890625 26.8125 6.890625 
Q 36.078125 6.890625 40.9375 10.546875 
Q 45.796875 14.203125 45.796875 21.1875 
Q 45.796875 27.640625 41.28125 31.265625 
Q 36.765625 34.90625 28.71875 34.90625 
L 20.21875 34.90625 
L 20.21875 43.015625 
L 29.109375 43.015625 
Q 36.375 43.015625 40.234375 45.921875 
Q 44.09375 48.828125 44.09375 54.296875 
Q 44.09375 59.90625 40.109375 62.90625 
Q 36.140625 65.921875 28.71875 65.921875 
Q 24.65625 65.921875 20.015625 65.03125 
Q 15.375 64.15625 9.8125 62.3125 
L 9.8125 71.09375 
Q 15.4375 72.65625 20.34375 73.4375 
Q 25.25 74.21875 29.59375 74.21875 
Q 40.828125 74.21875 47.359375 69.109375 
Q 53.90625 64.015625 53.90625 55.328125 
Q 53.90625 49.265625 50.4375 45.09375 
Q 46.96875 40.921875 40.578125 39.3125 
z
" id="DejaVuSans-33"/>
     <path d="M 10.6875 12.40625 
L 21 12.40625 
L 21 0 
L 10.6875 0 
z
" id="DejaVuSans-2e"/>
     <path d="M 28.609375 0 
L 0.78125 72.90625 
L 11.078125 72.90625 
L 34.1875 11.53125 
L 57.328125 72.90625 
L 67.578125 72.90625 
L 39.796875 0 
z
" id="DejaVuSans-56"/>
     <path d="M 34.1875 63.1875 
L 14.15625 8.203125 
L 54.25 8.203125 
z
M 0.78125 0 
L 28.609375 72.90625 
L 39.796875 72.90625 
L 67.578125 0 
z
" id="DejaVuSans-394"/>
     <path d="M 9.8125 72.90625 
L 55.90625 72.90625 
L 55.90625 64.59375 
L 19.671875 64.59375 
L 19.671875 43.015625 
L 54.390625 43.015625 
L 54.390625 34.71875 
L 19.671875 34.71875 
L 19.671875 8.296875 
L 56.78125 8.296875 
L 56.78125 0 
L 9.8125 0 
z
" id="DejaVuSans-45"/>
     <path d="M 31.78125 66.40625 
Q 24.171875 66.40625 20.328125 58.90625 
Q 16.5 51.421875 16.5 36.375 
Q 16.5 21.390625 20.328125 13.890625 
Q 24.171875 6.390625 31.78125 6.390625 
Q 39.453125 6.390625 43.28125 13.890625 
Q 47.125 21.390625 47.125 36.375 
Q 47.125 51.421875 43.28125 58.90625 
Q 39.453125 66.40625 31.78125 66.40625 
z
M 31.78125 74.21875 
Q 44.046875 74.21875 50.515625 64.515625 
Q 56.984375 54.828125 56.984375 36.375 
Q 56.984375 17.96875 50.515625 8.265625 
Q 44.046875 -1.421875 31.78125 -1.421875 
Q 19.53125 -1.421875 13.0625 8.265625 
Q 6.59375 17.96875 6.59375 36.375 
Q 6.59375 54.828125 13.0625 64.515625 
Q 19.53125 74.21875 31.78125 74.21875 
z
" id="DejaVuSans-30"/>
    </defs>
    <g transform="translate(65.388 35.472)scale(0.12 -0.12)">
     <use transform="translate(0 0.78125)" xlink:href="#DejaVuSans-53"/>
     <use transform="translate(63.476562 0.78125)" xlink:href="#DejaVuSans-74"/>
     <use transform="translate(102.685547 0.78125)" xlink:href="#DejaVuSans-72"/>
     <use transform="translate(143.798828 0.78125)" xlink:href="#DejaVuSans-75"/>
     <use transform="translate(207.177734 0.78125)" xlink:href="#DejaVuSans-63"/>
     <use transform="translate(262.158203 0.78125)" xlink:href="#DejaVuSans-74"/>
     <use transform="translate(301.367188 0.78125)" xlink:href="#DejaVuSans-75"/>
     <use transform="translate(364.746094 0.78125)" xlink:href="#DejaVuSans-72"/>
     <use transform="translate(405.859375 0.78125)" xlink:href="#DejaVuSans-65"/>
     <use transform="translate(467.382812 0.78125)" xlink:href="#DejaVuSans-20"/>
     <use transform="translate(499.169922 0.78125)" xlink:href="#DejaVuSans-23"/>
     <use transform="translate(582.958984 0.78125)" xlink:href="#DejaVuSans-39"/>
     <use transform="translate(646.582031 0.78125)" xlink:href="#DejaVuSans-39"/>
     <use transform="translate(710.205078 0.78125)" xlink:href="#DejaVuSans-34"/>
     <use transform="translate(773.828125 0.78125)" xlink:href="#DejaVuSans-31"/>
     <use transform="translate(837.451172 0.78125)" xlink:href="#DejaVuSans-2c"/>
     <use transform="translate(869.238281 0.78125)" xlink:href="#DejaVuSans-20"/>
     <use transform="translate(901.025391 0.78125)" xlink:href="#DejaVuSans-Oblique-45"/>
     <use transform="translate(964.208984 -15.625)scale(0.7)" xlink:href="#DejaVuSans-Oblique-4e"/>
     <use transform="translate(1019.306641 0.78125)" xlink:href="#DejaVuSans-3d"/>
     <use transform="translate(1103.095703 0.78125)" xlink:href="#DejaVuSans-2d"/>
     <use transform="translate(1139.179688 0.78125)" xlink:href="#DejaVuSans-31"/>
     <use transform="translate(1202.802734 0.78125)" xlink:href="#DejaVuSans-38"/>
     <use transform="translate(1266.425781 0.78125)" xlink:href="#DejaVuSans-33"/>
     <use transform="translate(1330.048828 0.78125)" xlink:href="#DejaVuSans-2e"/>
     <use transform="translate(1361.835938 0.78125)" xlink:href="#DejaVuSans-31"/>
     <use transform="translate(1425.458984 0.78125)" xlink:href="#DejaVuSans-31"/>
     <use transform="translate(1489.082031 0.78125)" xlink:href="#DejaVuSans-65"/>
     <use transform="translate(1550.605469 0.78125)" xlink:href="#DejaVuSans-56"/>
     <use transform="translate(1619.013672 0.78125)" xlink:href="#DejaVuSans-2c"/>
     <use transform="translate(1650.800781 0.78125)" xlink:href="#DejaVuSans-20"/>
     <use transform="translate(1682.587891 0.78125)" xlink:href="#DejaVuSans-394"/>
     <use transform="translate(1750.996094 0.78125)" xlink:href="#DejaVuSans-45"/>
     <use transform="translate(1814.179688 0.78125)" xlink:href="#DejaVuSans-3d"/>
     <use transform="translate(1897.96875 0.78125)" xlink:href="#DejaVuSans-30"/>
     <use transform="translate(1961.591797 0.78125)" xlink:href="#DejaVuSans-2e"/>
     <use transform="translate(1993.378906 0.78125)" xlink:href="#DejaVuSans-31"/>
     <use transform="translate(2057.001953 0.78125)" xlink:href="#DejaVuSans-33"/>
     <use transform="translate(2120.625 0.78125)" xlink:href="#DejaVuSans-65"/>
     <use transform="translate(2182.148438 0.78125)" xlink:href="#DejaVuSans-56"/>
    </g>
   </g>
  </g>
  <g id="axes_2">
   <g id="patch_2">
    <path clip-path="url(#p4a11d39a85)" d="M 361.152 307.584 
L 361.152 306.5445 
L 361.152 42.5115 
L 361.152 41.472 
L 374.4576 41.472 
L 374.4576 42.5115 
L 374.4576 306.5445 
L 374.4576 307.584 
z
" style="fill:#ffffff;stroke:#ffffff;stroke-linejoin:miter;stroke-width:0.01;"/>
   </g>
   <image height="265.68" id="imagea0c98ee245" transform="scale(1 -1)translate(0 -265.68)" width="12.96" x="361.44" xlink:href="data:image/png;base64,
iVBORw0KGgoAAAANSUhEUgAAABIAAAFxCAYAAAB+2fgXAAAABHNCSVQICAgIfAhkiAAAAeVJREFUeJztncmNw0AQA2ckheYQNv9QLIfQ8ygsCgQ7AEI8+jAs2Puz/94F1LP2ReCsZ18bAWIeZ5XaGRBE7VnbptG+KI101FYyNSiQG2oRITXKNaX9uclOdi2XWjftVE32CZCO2ou5Bj1TcCBr/1zB9ge7Fq0Rg2NM9pvbtG+ua1QgsRYhDy0ISEiNc40BEibbSI0Coj5CBGtkpFbXJiAjNZlrwhuSOv2M1DjXbEdEciBt1JSDDQKKpmZr2rr2j0DBGpXaWEJq3bQzEPIS26r9J+Wzv9Tm8o3aajRXqc3VUXsApKNWjeZq0x4ABVNbm7lrszVigDqP5vIl2+eaT2yfRkL7g+dRcNPqjohkjaCvRVBq0H2U3LQrOJCx9kdTg4B8oxZzzTdqdYHEngjUCAPyUctN9sVRq2sTECW2UKNLd2jVtRmo1A6AhMmWaSRcR8nUdIHUuVb75zJS218EyEitro1At69pIdeSk30Lkw0FktNImGyZRhy1O5galmxd03LUsHWk06jUZiCq+5Wb1kZNN4+wJxJuWt8RAW5am2sYNZ9rYCBzZ3buPKJ2P5Yj4Toy3keyIyJbIxs1rml1byCA84gpch5RQNB7Q0qNMGq2Hy4BXdNR41yz/cEEJfZzUz96r9PoB0okjeQ8y9TkAAAAAElFTkSuQmCC" y="-41.76"/>
   <g id="matplotlib.axis_1"/>
   <g id="matplotlib.axis_2">
    <g id="ytick_1">
     <g id="line2d_1">
      <defs>
       <path d="M 0 0 
L 3.5 0 
" id="mdfbf0d8666" style="stroke:#000000;stroke-width:0.8;"/>
      </defs>
      <g>
       <use style="stroke:#000000;stroke-width:0.8;" x="374.4576" xlink:href="#mdfbf0d8666" y="258.108295"/>
      </g>
     </g>
     <g id="text_2">
      <!-- −8.5 -->
      <defs>
       <path d="M 10.59375 35.5 
L 73.1875 35.5 
L 73.1875 27.203125 
L 10.59375 27.203125 
z
" id="DejaVuSans-2212"/>
       <path d="M 10.796875 72.90625 
L 49.515625 72.90625 
L 49.515625 64.59375 
L 19.828125 64.59375 
L 19.828125 46.734375 
Q 21.96875 47.46875 24.109375 47.828125 
Q 26.265625 48.1875 28.421875 48.1875 
Q 40.625 48.1875 47.75 41.5 
Q 54.890625 34.8125 54.890625 23.390625 
Q 54.890625 11.625 47.5625 5.09375 
Q 40.234375 -1.421875 26.90625 -1.421875 
Q 22.3125 -1.421875 17.546875 -0.640625 
Q 12.796875 0.140625 7.71875 1.703125 
L 7.71875 11.625 
Q 12.109375 9.234375 16.796875 8.0625 
Q 21.484375 6.890625 26.703125 6.890625 
Q 35.15625 6.890625 40.078125 11.328125 
Q 45.015625 15.765625 45.015625 23.390625 
Q 45.015625 31 40.078125 35.4375 
Q 35.15625 39.890625 26.703125 39.890625 
Q 22.75 39.890625 18.8125 39.015625 
Q 14.890625 38.140625 10.796875 36.28125 
z
" id="DejaVuSans-35"/>
      </defs>
      <g transform="translate(381.4576 261.907513)scale(0.1 -0.1)">
       <use xlink:href="#DejaVuSans-2212"/>
       <use x="83.789062" xlink:href="#DejaVuSans-38"/>
       <use x="147.412109" xlink:href="#DejaVuSans-2e"/>
       <use x="179.199219" xlink:href="#DejaVuSans-35"/>
      </g>
     </g>
    </g>
    <g id="ytick_2">
     <g id="line2d_2">
      <g>
       <use style="stroke:#000000;stroke-width:0.8;" x="374.4576" xlink:href="#mdfbf0d8666" y="206.398349"/>
      </g>
     </g>
     <g id="text_3">
      <!-- −8.0 -->
      <g transform="translate(381.4576 210.197568)scale(0.1 -0.1)">
       <use xlink:href="#DejaVuSans-2212"/>
       <use x="83.789062" xlink:href="#DejaVuSans-38"/>
       <use x="147.412109" xlink:href="#DejaVuSans-2e"/>
       <use x="179.199219" xlink:href="#DejaVuSans-30"/>
      </g>
     </g>
    </g>
    <g id="ytick_3">
     <g id="line2d_3">
      <g>
       <use style="stroke:#000000;stroke-width:0.8;" x="374.4576" xlink:href="#mdfbf0d8666" y="154.688403"/>
      </g>
     </g>
     <g id="text_4">
      <!-- −7.5 -->
      <defs>
       <path d="M 8.203125 72.90625 
L 55.078125 72.90625 
L 55.078125 68.703125 
L 28.609375 0 
L 18.3125 0 
L 43.21875 64.59375 
L 8.203125 64.59375 
z
" id="DejaVuSans-37"/>
      </defs>
      <g transform="translate(381.4576 158.487622)scale(0.1 -0.1)">
       <use xlink:href="#DejaVuSans-2212"/>
       <use x="83.789062" xlink:href="#DejaVuSans-37"/>
       <use x="147.412109" xlink:href="#DejaVuSans-2e"/>
       <use x="179.199219" xlink:href="#DejaVuSans-35"/>
      </g>
     </g>
    </g>
    <g id="ytick_4">
     <g id="line2d_4">
      <g>
       <use style="stroke:#000000;stroke-width:0.8;" x="374.4576" xlink:href="#mdfbf0d8666" y="102.978458"/>
      </g>
     </g>
     <g id="text_5">
      <!-- −7.0 -->
      <g transform="translate(381.4576 106.777677)scale(0.1 -0.1)">
       <use xlink:href="#DejaVuSans-2212"/>
       <use x="83.789062" xlink:href="#DejaVuSans-37"/>
       <use x="147.412109" xlink:href="#DejaVuSans-2e"/>
       <use x="179.199219" xlink:href="#DejaVuSans-30"/>
      </g>
     </g>
    </g>
    <g id="ytick_5">
     <g id="line2d_5">
      <g>
       <use style="stroke:#000000;stroke-width:0.8;" x="374.4576" xlink:href="#mdfbf0d8666" y="51.268512"/>
      </g>
     </g>
     <g id="text_6">
      <!-- −6.5 -->
      <defs>
       <path d="M 33.015625 40.375 
Q 26.375 40.375 22.484375 35.828125 
Q 18.609375 31.296875 18.609375 23.390625 
Q 18.609375 15.53125 22.484375 10.953125 
Q 26.375 6.390625 33.015625 6.390625 
Q 39.65625 6.390625 43.53125 10.953125 
Q 47.40625 15.53125 47.40625 23.390625 
Q 47.40625 31.296875 43.53125 35.828125 
Q 39.65625 40.375 33.015625 40.375 
z
M 52.59375 71.296875 
L 52.59375 62.3125 
Q 48.875 64.0625 45.09375 64.984375 
Q 41.3125 65.921875 37.59375 65.921875 
Q 27.828125 65.921875 22.671875 59.328125 
Q 17.53125 52.734375 16.796875 39.40625 
Q 19.671875 43.65625 24.015625 45.921875 
Q 28.375 48.1875 33.59375 48.1875 
Q 44.578125 48.1875 50.953125 41.515625 
Q 57.328125 34.859375 57.328125 23.390625 
Q 57.328125 12.15625 50.6875 5.359375 
Q 44.046875 -1.421875 33.015625 -1.421875 
Q 20.359375 -1.421875 13.671875 8.265625 
Q 6.984375 17.96875 6.984375 36.375 
Q 6.984375 53.65625 15.1875 63.9375 
Q 23.390625 74.21875 37.203125 74.21875 
Q 40.921875 74.21875 44.703125 73.484375 
Q 48.484375 72.75 52.59375 71.296875 
z
" id="DejaVuSans-36"/>
      </defs>
      <g transform="translate(381.4576 55.067731)scale(0.1 -0.1)">
       <use xlink:href="#DejaVuSans-2212"/>
       <use x="83.789062" xlink:href="#DejaVuSans-36"/>
       <use x="147.412109" xlink:href="#DejaVuSans-2e"/>
       <use x="179.199219" xlink:href="#DejaVuSans-35"/>
      </g>
     </g>
    </g>
    <g id="text_7">
     <!-- Energy [eV] -->
     <defs>
      <path d="M 54.890625 33.015625 
L 54.890625 0 
L 45.90625 0 
L 45.90625 32.71875 
Q 45.90625 40.484375 42.875 44.328125 
Q 39.84375 48.1875 33.796875 48.1875 
Q 26.515625 48.1875 22.3125 43.546875 
Q 18.109375 38.921875 18.109375 30.90625 
L 18.109375 0 
L 9.078125 0 
L 9.078125 54.6875 
L 18.109375 54.6875 
L 18.109375 46.1875 
Q 21.34375 51.125 25.703125 53.5625 
Q 30.078125 56 35.796875 56 
Q 45.21875 56 50.046875 50.171875 
Q 54.890625 44.34375 54.890625 33.015625 
z
" id="DejaVuSans-6e"/>
      <path d="M 45.40625 27.984375 
Q 45.40625 37.75 41.375 43.109375 
Q 37.359375 48.484375 30.078125 48.484375 
Q 22.859375 48.484375 18.828125 43.109375 
Q 14.796875 37.75 14.796875 27.984375 
Q 14.796875 18.265625 18.828125 12.890625 
Q 22.859375 7.515625 30.078125 7.515625 
Q 37.359375 7.515625 41.375 12.890625 
Q 45.40625 18.265625 45.40625 27.984375 
z
M 54.390625 6.78125 
Q 54.390625 -7.171875 48.1875 -13.984375 
Q 42 -20.796875 29.203125 -20.796875 
Q 24.46875 -20.796875 20.265625 -20.09375 
Q 16.0625 -19.390625 12.109375 -17.921875 
L 12.109375 -9.1875 
Q 16.0625 -11.328125 19.921875 -12.34375 
Q 23.78125 -13.375 27.78125 -13.375 
Q 36.625 -13.375 41.015625 -8.765625 
Q 45.40625 -4.15625 45.40625 5.171875 
L 45.40625 9.625 
Q 42.625 4.78125 38.28125 2.390625 
Q 33.9375 0 27.875 0 
Q 17.828125 0 11.671875 7.65625 
Q 5.515625 15.328125 5.515625 27.984375 
Q 5.515625 40.671875 11.671875 48.328125 
Q 17.828125 56 27.875 56 
Q 33.9375 56 38.28125 53.609375 
Q 42.625 51.21875 45.40625 46.390625 
L 45.40625 54.6875 
L 54.390625 54.6875 
z
" id="DejaVuSans-67"/>
      <path d="M 32.171875 -5.078125 
Q 28.375 -14.84375 24.75 -17.8125 
Q 21.140625 -20.796875 15.09375 -20.796875 
L 7.90625 -20.796875 
L 7.90625 -13.28125 
L 13.1875 -13.28125 
Q 16.890625 -13.28125 18.9375 -11.515625 
Q 21 -9.765625 23.484375 -3.21875 
L 25.09375 0.875 
L 2.984375 54.6875 
L 12.5 54.6875 
L 29.59375 11.921875 
L 46.6875 54.6875 
L 56.203125 54.6875 
z
" id="DejaVuSans-79"/>
      <path d="M 8.59375 75.984375 
L 29.296875 75.984375 
L 29.296875 69 
L 17.578125 69 
L 17.578125 -6.203125 
L 29.296875 -6.203125 
L 29.296875 -13.1875 
L 8.59375 -13.1875 
z
" id="DejaVuSans-5b"/>
      <path d="M 30.421875 75.984375 
L 30.421875 -13.1875 
L 9.71875 -13.1875 
L 9.71875 -6.203125 
L 21.390625 -6.203125 
L 21.390625 69 
L 9.71875 69 
L 9.71875 75.984375 
z
" id="DejaVuSans-5d"/>
     </defs>
     <g transform="translate(417.33885 204.108469)rotate(-90)scale(0.1 -0.1)">
      <use xlink:href="#DejaVuSans-45"/>
      <use x="63.183594" xlink:href="#DejaVuSans-6e"/>
      <use x="126.5625" xlink:href="#DejaVuSans-65"/>
      <use x="188.085938" xlink:href="#DejaVuSans-72"/>
      <use x="229.183594" xlink:href="#DejaVuSans-67"/>
      <use x="292.660156" xlink:href="#DejaVuSans-79"/>
      <use x="351.839844" xlink:href="#DejaVuSans-20"/>
      <use x="383.626953" xlink:href="#DejaVuSans-5b"/>
      <use x="422.640625" xlink:href="#DejaVuSans-65"/>
      <use x="484.164062" xlink:href="#DejaVuSans-56"/>
      <use x="552.572266" xlink:href="#DejaVuSans-5d"/>
     </g>
    </g>
   </g>
   <g id="patch_3">
    <path d="M 361.152 307.584 
L 361.152 306.5445 
L 361.152 42.5115 
L 361.152 41.472 
L 374.4576 41.472 
L 374.4576 42.5115 
L 374.4576 306.5445 
L 374.4576 307.584 
z
" style="fill:none;stroke:#000000;stroke-linejoin:miter;stroke-width:0.8;"/>
   </g>
  </g>
 </g>
 <defs>
  <clipPath id="p5b910ebfac">
   <rect height="266.112" width="285.696" x="57.6" y="41.472"/>
  </clipPath>
  <clipPath id="p4a11d39a85">
   <rect height="266.112" width="13.3056" x="361.152" y="41.472"/>
  </clipPath>
 </defs>
</svg>
