<?xml version="1.0" encoding="utf-8" standalone="no"?>
<!DOCTYPE svg PUBLIC "-//W3C//DTD SVG 1.1//EN"
  "http://www.w3.org/Graphics/SVG/1.1/DTD/svg11.dtd">
<!-- Created with matplotlib (http://matplotlib.org/) -->
<svg height="345.6pt" version="1.1" viewBox="0 0 460.8 345.6" width="460.8pt" xmlns="http://www.w3.org/2000/svg" xmlns:xlink="http://www.w3.org/1999/xlink">
 <defs>
  <style type="text/css">
*{stroke-linecap:butt;stroke-linejoin:round;}
  </style>
 </defs>
 <g id="figure_1">
  <g id="patch_1">
   <path d="M 0 345.6 
L 460.8 345.6 
L 460.8 0 
L 0 0 
z
" style="fill:#ffffff;"/>
  </g>
  <g id="axes_1">
   <g id="CircleCollection_1">
    <path clip-path="url(#p5b929f56c7)" d="M 236.803717 207.777734 
C 238.557834 207.777734 240.240343 207.080816 241.480691 205.840468 
C 242.721039 204.60012 243.417957 202.917611 243.417957 201.163494 
C 243.417957 199.409377 242.721039 197.726868 241.480691 196.48652 
C 240.240343 195.246172 238.557834 194.549254 236.803717 194.549254 
C 235.0496 194.549254 233.367091 195.246172 232.126743 196.48652 
C 230.886395 197.726868 230.189477 199.409377 230.189477 201.163494 
C 230.189477 202.917611 230.886395 204.60012 232.126743 205.840468 
C 233.367091 207.080816 235.0496 207.777734 236.803717 207.777734 
z
" style="fill:#440154;"/>
    <path clip-path="url(#p5b929f56c7)" d="M 151.130523 60.460008 
C 152.839726 60.460008 154.479154 59.780935 155.687743 58.572346 
C 156.896332 57.363757 157.575405 55.724329 157.575405 54.015126 
C 157.575405 52.305924 156.896332 50.666495 155.687743 49.457906 
C 154.479154 48.249318 152.839726 47.570244 151.130523 47.570244 
C 149.42132 47.570244 147.781892 48.249318 146.573303 49.457906 
C 145.364714 50.666495 144.685641 52.305924 144.685641 54.015126 
C 144.685641 55.724329 145.364714 57.363757 146.573303 58.572346 
C 147.781892 59.780935 149.42132 60.460008 151.130523 60.460008 
z
" style="fill:#3b518b;"/>
    <path clip-path="url(#p5b929f56c7)" d="M 182.175309 80.089649 
C 183.894298 80.089649 185.543113 79.406688 186.758622 78.191179 
C 187.97413 76.975671 188.657092 75.326856 188.657092 73.607867 
C 188.657092 71.888878 187.97413 70.240063 186.758622 69.024555 
C 185.543113 67.809046 183.894298 67.126085 182.175309 67.126085 
C 180.456321 67.126085 178.807506 67.809046 177.591997 69.024555 
C 176.376489 70.240063 175.693527 71.888878 175.693527 73.607867 
C 175.693527 75.326856 176.376489 76.975671 177.591997 78.191179 
C 178.807506 79.406688 180.456321 80.089649 182.175309 80.089649 
z
" style="fill:#38588c;"/>
    <path clip-path="url(#p5b929f56c7)" d="M 263.85178 140.696812 
C 265.602668 140.696812 267.282081 140.001176 268.520146 138.763111 
C 269.758211 137.525046 270.453847 135.845633 270.453847 134.094745 
C 270.453847 132.343856 269.758211 130.664444 268.520146 129.426379 
C 267.282081 128.188313 265.602668 127.492678 263.85178 127.492678 
C 262.100891 127.492678 260.421479 128.188313 259.183413 129.426379 
C 257.945348 130.664444 257.249713 132.343856 257.249713 134.094745 
C 257.249713 135.845633 257.945348 137.525046 259.183413 138.763111 
C 260.421479 140.001176 262.100891 140.696812 263.85178 140.696812 
z
" style="fill:#460a5d;"/>
    <path clip-path="url(#p5b929f56c7)" d="M 300.378084 229.264864 
C 302.150424 229.264864 303.850413 228.560705 305.103646 227.307472 
C 306.35688 226.054238 307.061038 224.35425 307.061038 222.58191 
C 307.061038 220.80957 306.35688 219.109582 305.103646 217.856348 
C 303.850413 216.603115 302.150424 215.898956 300.378084 215.898956 
C 298.605744 215.898956 296.905756 216.603115 295.652523 217.856348 
C 294.399289 219.109582 293.695131 220.80957 293.695131 222.58191 
C 293.695131 224.35425 294.399289 226.054238 295.652523 227.307472 
C 296.905756 228.560705 298.605744 229.264864 300.378084 229.264864 
z
" style="fill:#46085c;"/>
    <path clip-path="url(#p5b929f56c7)" d="M 126.367801 194.811212 
C 128.096054 194.811212 129.753755 194.12457 130.975815 192.902511 
C 132.197875 191.680451 132.884517 190.02275 132.884517 188.294497 
C 132.884517 186.566243 132.197875 184.908542 130.975815 183.686483 
C 129.753755 182.464423 128.096054 181.777781 126.367801 181.777781 
C 124.639548 181.777781 122.981847 182.464423 121.759787 183.686483 
C 120.537728 184.908542 119.851085 186.566243 119.851085 188.294497 
C 119.851085 190.02275 120.537728 191.680451 121.759787 192.902511 
C 122.981847 194.12457 124.639548 194.811212 126.367801 194.811212 
z
" style="fill:#3b518b;"/>
    <path clip-path="url(#p5b929f56c7)" d="M 244.704735 272.149811 
C 246.473625 272.149811 248.170305 271.447023 249.4211 270.196229 
C 250.671894 268.945434 251.374682 267.248754 251.374682 265.479864 
C 251.374682 263.710973 250.671894 262.014293 249.4211 260.763499 
C 248.170305 259.512704 246.473625 258.809917 244.704735 258.809917 
C 242.935844 258.809917 241.239164 259.512704 239.98837 260.763499 
C 238.737575 262.014293 238.034788 263.710973 238.034788 265.479864 
C 238.034788 267.248754 238.737575 268.945434 239.98837 270.196229 
C 241.239164 271.447023 242.935844 272.149811 244.704735 272.149811 
z
" style="fill:#31688e;"/>
    <path clip-path="url(#p5b929f56c7)" d="M 73.920413 118.216346 
C 75.624997 118.216346 77.259995 117.539107 78.465318 116.333784 
C 79.670641 115.128462 80.347879 113.493463 80.347879 111.78888 
C 80.347879 110.084296 79.670641 108.449297 78.465318 107.243975 
C 77.259995 106.038652 75.624997 105.361413 73.920413 105.361413 
C 72.215829 105.361413 70.580831 106.038652 69.375508 107.243975 
C 68.170185 108.449297 67.492947 110.084296 67.492947 111.78888 
C 67.492947 113.493463 68.170185 115.128462 69.375508 116.333784 
C 70.580831 117.539107 72.215829 118.216346 73.920413 118.216346 
z
" style="fill:#30698e;"/>
    <path clip-path="url(#p5b929f56c7)" d="M 233.388368 118.708417 
C 235.127587 118.708417 236.795806 118.017418 238.02562 116.787605 
C 239.255433 115.557792 239.946432 113.889573 239.946432 112.150354 
C 239.946432 110.411135 239.255433 108.742916 238.02562 107.513103 
C 236.795806 106.283289 235.127587 105.59229 233.388368 105.59229 
C 231.64915 105.59229 229.980931 106.283289 228.751117 107.513103 
C 227.521304 108.742916 226.830305 110.411135 226.830305 112.150354 
C 226.830305 113.889573 227.521304 115.557792 228.751117 116.787605 
C 229.980931 118.017418 231.64915 118.708417 233.388368 118.708417 
z
" style="fill:#424186;"/>
    <path clip-path="url(#p5b929f56c7)" d="M 300.371519 191.69792 
C 302.139092 191.69792 303.834507 190.995655 305.08437 189.745793 
C 306.334233 188.49593 307.036497 186.800514 307.036497 185.032941 
C 307.036497 183.265368 306.334233 181.569952 305.08437 180.320089 
C 303.834507 179.070226 302.139092 178.367962 300.371519 178.367962 
C 298.603945 178.367962 296.90853 179.070226 295.658667 180.320089 
C 294.408804 181.569952 293.70654 183.265368 293.70654 185.032941 
C 293.70654 186.800514 294.408804 188.49593 295.658667 189.745793 
C 296.90853 190.995655 298.603945 191.69792 300.371519 191.69792 
z
" style="fill:#482173;"/>
    <path clip-path="url(#p5b929f56c7)" d="M 259.556745 239.94386 
C 261.321903 239.94386 263.015002 239.242556 264.263157 237.994401 
C 265.511312 236.746246 266.212616 235.053147 266.212616 233.28799 
C 266.212616 231.522832 265.511312 229.829733 264.263157 228.581578 
C 263.015002 227.333423 261.321903 226.632119 259.556745 226.632119 
C 257.791588 226.632119 256.098489 227.333423 254.850334 228.581578 
C 253.602179 229.829733 252.900875 231.522832 252.900875 233.28799 
C 252.900875 235.053147 253.602179 236.746246 254.850334 237.994401 
C 256.098489 239.242556 257.791588 239.94386 259.556745 239.94386 
z
" style="fill:#481f70;"/>
    <path clip-path="url(#p5b929f56c7)" d="M 70.953217 151.325318 
C 72.662932 151.325318 74.302852 150.646041 75.511802 149.43709 
C 76.720753 148.228139 77.40003 146.58822 77.40003 144.878505 
C 77.40003 143.16879 76.720753 141.528871 75.511802 140.31992 
C 74.302852 139.110969 72.662932 138.431692 70.953217 138.431692 
C 69.243503 138.431692 67.603583 139.110969 66.394632 140.31992 
C 65.185681 141.528871 64.506405 143.16879 64.506405 144.878505 
C 64.506405 146.58822 65.185681 148.228139 66.394632 149.43709 
C 67.603583 150.646041 69.243503 151.325318 70.953217 151.325318 
z
" style="fill:#3a548c;"/>
    <path clip-path="url(#p5b929f56c7)" d="M 227.488828 301.713538 
C 229.262942 301.713538 230.964633 301.008675 232.219121 299.754186 
C 233.47361 298.499698 234.178473 296.798008 234.178473 295.023893 
C 234.178473 293.249778 233.47361 291.548088 232.219121 290.293599 
C 230.964633 289.039111 229.262942 288.334248 227.488828 288.334248 
C 225.714713 288.334248 224.013023 289.039111 222.758534 290.293599 
C 221.504046 291.548088 220.799182 293.249778 220.799182 295.023893 
C 220.799182 296.798008 221.504046 298.499698 222.758534 299.754186 
C 224.013023 301.008675 225.714713 301.713538 227.488828 301.713538 
z
" style="fill:#a0da39;"/>
    <path clip-path="url(#p5b929f56c7)" d="M 116.149346 71.614342 
C 117.853737 71.614342 119.488551 70.93718 120.693737 69.731994 
C 121.898924 68.526807 122.576086 66.891994 122.576086 65.187603 
C 122.576086 63.483211 121.898924 61.848398 120.693737 60.643212 
C 119.488551 59.438025 117.853737 58.760863 116.149346 58.760863 
C 114.444955 58.760863 112.810142 59.438025 111.604955 60.643212 
C 110.399769 61.848398 109.722607 63.483211 109.722607 65.187603 
C 109.722607 66.891994 110.399769 68.526807 111.604955 69.731994 
C 112.810142 70.93718 114.444955 71.614342 116.149346 71.614342 
z
" style="fill:#306a8e;"/>
    <path clip-path="url(#p5b929f56c7)" d="M 329.927528 250.791062 
C 331.708302 250.791062 333.41638 250.083553 334.675578 248.824356 
C 335.934775 247.565158 336.642284 245.85708 336.642284 244.076306 
C 336.642284 242.295532 335.934775 240.587454 334.675578 239.328256 
C 333.41638 238.069059 331.708302 237.36155 329.927528 237.36155 
C 328.146754 237.36155 326.438676 238.069059 325.179478 239.328256 
C 323.920281 240.587454 323.212771 242.295532 323.212771 244.076306 
C 323.212771 245.85708 323.920281 247.565158 325.179478 248.824356 
C 326.438676 250.083553 328.146754 250.791062 329.927528 250.791062 
z
" style="fill:#fde725;"/>
    <path clip-path="url(#p5b929f56c7)" d="M 221.985966 83.559218 
C 223.715883 83.559218 225.375179 82.871915 226.598415 81.648679 
C 227.82165 80.425443 228.508953 78.766147 228.508953 77.036231 
C 228.508953 75.306314 227.82165 73.647018 226.598415 72.423782 
C 225.375179 71.200547 223.715883 70.513244 221.985966 70.513244 
C 220.25605 70.513244 218.596754 71.200547 217.373518 72.423782 
C 216.150283 73.647018 215.46298 75.306314 215.46298 77.036231 
C 215.46298 78.766147 216.150283 80.425443 217.373518 81.648679 
C 218.596754 82.871915 220.25605 83.559218 221.985966 83.559218 
z
" style="fill:#218e8d;"/>
    <path clip-path="url(#p5b929f56c7)" d="M 97.61882 175.480133 
C 99.337697 175.480133 100.986404 174.797216 102.201833 173.581787 
C 103.417262 172.366358 104.100179 170.717651 104.100179 168.998775 
C 104.100179 167.279899 103.417262 165.631192 102.201833 164.415763 
C 100.986404 163.200334 99.337697 162.517417 97.61882 162.517417 
C 95.899944 162.517417 94.251237 163.200334 93.035808 164.415763 
C 91.820379 165.631192 91.137462 167.279899 91.137462 168.998775 
C 91.137462 170.717651 91.820379 172.366358 93.035808 173.581787 
C 94.251237 174.797216 95.899944 175.480133 97.61882 175.480133 
z
" style="fill:#3a548c;"/>
    <path clip-path="url(#p5b929f56c7)" d="M 262.31407 179.673035 
C 264.070025 179.673035 265.754298 178.975387 266.995946 177.733738 
C 268.237594 176.49209 268.935243 174.807818 268.935243 173.051862 
C 268.935243 171.295906 268.237594 169.611634 266.995946 168.369986 
C 265.754298 167.128337 264.070025 166.430689 262.31407 166.430689 
C 260.558114 166.430689 258.873841 167.128337 257.632193 168.369986 
C 256.390545 169.611634 255.692896 171.295906 255.692896 173.051862 
C 255.692896 174.807818 256.390545 176.49209 257.632193 177.733738 
C 258.873841 178.975387 260.558114 179.673035 262.31407 179.673035 
z
" style="fill:#443983;"/>
    <path clip-path="url(#p5b929f56c7)" d="M 193.87663 116.85304 
C 195.60452 116.85304 197.261873 116.166542 198.483675 114.94474 
C 199.705478 113.722937 200.391976 112.065584 200.391976 110.337694 
C 200.391976 108.609805 199.705478 106.952452 198.483675 105.730649 
C 197.261873 104.508847 195.60452 103.822349 193.87663 103.822349 
C 192.14874 103.822349 190.491388 104.508847 189.269585 105.730649 
C 188.047782 106.952452 187.361284 108.609805 187.361284 110.337694 
C 187.361284 112.065584 188.047782 113.722937 189.269585 114.94474 
C 190.491388 116.166542 192.14874 116.85304 193.87663 116.85304 
z
" style="fill:#20928c;"/>
    <path clip-path="url(#p5b929f56c7)" d="M 322.471553 161.54044 
C 324.240154 161.54044 325.936555 160.837767 327.187145 159.587178 
C 328.437735 158.336588 329.140407 156.640187 329.140407 154.871586 
C 329.140407 153.102985 328.437735 151.406583 327.187145 150.155994 
C 325.936555 148.905404 324.240154 148.202732 322.471553 148.202732 
C 320.702952 148.202732 319.006551 148.905404 317.755961 150.155994 
C 316.505371 151.406583 315.802699 153.102985 315.802699 154.871586 
C 315.802699 156.640187 316.505371 158.336588 317.755961 159.587178 
C 319.006551 160.837767 320.702952 161.54044 322.471553 161.54044 
z
" style="fill:#1f968b;"/>
    <path clip-path="url(#p5b929f56c7)" d="M 82.225777 85.030911 
C 83.926565 85.030911 85.557922 84.355181 86.76056 83.152542 
C 87.963199 81.949904 88.638929 80.318547 88.638929 78.617759 
C 88.638929 76.916971 87.963199 75.285614 86.76056 74.082976 
C 85.557922 72.880337 83.926565 72.204607 82.225777 72.204607 
C 80.524989 72.204607 78.893633 72.880337 77.690994 74.082976 
C 76.488355 75.285614 75.812625 76.916971 75.812625 78.617759 
C 75.812625 80.318547 76.488355 81.949904 77.690994 83.152542 
C 78.893633 84.355181 80.524989 85.030911 82.225777 85.030911 
z
" style="fill:#3e4c8a;"/>
    <path clip-path="url(#p5b929f56c7)" d="M 303.223946 133.538956 
C 304.984736 133.538956 306.673646 132.839387 307.918712 131.59432 
C 309.163779 130.349253 309.863349 128.660343 309.863349 126.899553 
C 309.863349 125.138763 309.163779 123.449853 307.918712 122.204786 
C 306.673646 120.95972 304.984736 120.26015 303.223946 120.26015 
C 301.463155 120.26015 299.774245 120.95972 298.529179 122.204786 
C 297.284112 123.449853 296.584543 125.138763 296.584543 126.899553 
C 296.584543 128.660343 297.284112 130.349253 298.529179 131.59432 
C 299.774245 132.839387 301.463155 133.538956 303.223946 133.538956 
z
" style="fill:#20a486;"/>
    <path clip-path="url(#p5b929f56c7)" d="M 197.923309 207.572601 
C 199.66852 207.572601 201.342488 206.879221 202.576539 205.64517 
C 203.81059 204.411119 204.50397 202.737152 204.50397 200.99194 
C 204.50397 199.246728 203.81059 197.572761 202.576539 196.33871 
C 201.342488 195.104659 199.66852 194.411279 197.923309 194.411279 
C 196.178097 194.411279 194.504129 195.104659 193.270078 196.33871 
C 192.036027 197.572761 191.342647 199.246728 191.342647 200.99194 
C 191.342647 202.737152 192.036027 204.411119 193.270078 205.64517 
C 194.504129 206.879221 196.178097 207.572601 197.923309 207.572601 
z
" style="fill:#33638d;"/>
    <path clip-path="url(#p5b929f56c7)" d="M 162.854855 202.911791 
C 164.591724 202.911791 166.25769 202.221726 167.485842 200.993574 
C 168.713993 199.765422 169.404059 198.099457 169.404059 196.362588 
C 169.404059 194.625719 168.713993 192.959754 167.485842 191.731602 
C 166.25769 190.50345 164.591724 189.813384 162.854855 189.813384 
C 161.117986 189.813384 159.452021 190.50345 158.223869 191.731602 
C 156.995717 192.959754 156.305652 194.625719 156.305652 196.362588 
C 156.305652 198.099457 156.995717 199.765422 158.223869 200.993574 
C 159.452021 202.221726 161.117986 202.911791 162.854855 202.911791 
z
" style="fill:#404688;"/>
   </g>
   <g id="text_1">
    <!-- Structure #7595, $E_N$=-177.66eV, ΔE=0.24eV -->
    <defs>
     <path d="M 53.515625 70.515625 
L 53.515625 60.890625 
Q 47.90625 63.578125 42.921875 64.890625 
Q 37.9375 66.21875 33.296875 66.21875 
Q 25.25 66.21875 20.875 63.09375 
Q 16.5 59.96875 16.5 54.203125 
Q 16.5 49.359375 19.40625 46.890625 
Q 22.3125 44.4375 30.421875 42.921875 
L 36.375 41.703125 
Q 47.40625 39.59375 52.65625 34.296875 
Q 57.90625 29 57.90625 20.125 
Q 57.90625 9.515625 50.796875 4.046875 
Q 43.703125 -1.421875 29.984375 -1.421875 
Q 24.8125 -1.421875 18.96875 -0.25 
Q 13.140625 0.921875 6.890625 3.21875 
L 6.890625 13.375 
Q 12.890625 10.015625 18.65625 8.296875 
Q 24.421875 6.59375 29.984375 6.59375 
Q 38.421875 6.59375 43.015625 9.90625 
Q 47.609375 13.234375 47.609375 19.390625 
Q 47.609375 24.75 44.3125 27.78125 
Q 41.015625 30.8125 33.5 32.328125 
L 27.484375 33.5 
Q 16.453125 35.6875 11.515625 40.375 
Q 6.59375 45.0625 6.59375 53.421875 
Q 6.59375 63.09375 13.40625 68.65625 
Q 20.21875 74.21875 32.171875 74.21875 
Q 37.3125 74.21875 42.625 73.28125 
Q 47.953125 72.359375 53.515625 70.515625 
z
" id="DejaVuSans-53"/>
     <path d="M 18.3125 70.21875 
L 18.3125 54.6875 
L 36.8125 54.6875 
L 36.8125 47.703125 
L 18.3125 47.703125 
L 18.3125 18.015625 
Q 18.3125 11.328125 20.140625 9.421875 
Q 21.96875 7.515625 27.59375 7.515625 
L 36.8125 7.515625 
L 36.8125 0 
L 27.59375 0 
Q 17.1875 0 13.234375 3.875 
Q 9.28125 7.765625 9.28125 18.015625 
L 9.28125 47.703125 
L 2.6875 47.703125 
L 2.6875 54.6875 
L 9.28125 54.6875 
L 9.28125 70.21875 
z
" id="DejaVuSans-74"/>
     <path d="M 41.109375 46.296875 
Q 39.59375 47.171875 37.8125 47.578125 
Q 36.03125 48 33.890625 48 
Q 26.265625 48 22.1875 43.046875 
Q 18.109375 38.09375 18.109375 28.8125 
L 18.109375 0 
L 9.078125 0 
L 9.078125 54.6875 
L 18.109375 54.6875 
L 18.109375 46.1875 
Q 20.953125 51.171875 25.484375 53.578125 
Q 30.03125 56 36.53125 56 
Q 37.453125 56 38.578125 55.875 
Q 39.703125 55.765625 41.0625 55.515625 
z
" id="DejaVuSans-72"/>
     <path d="M 8.5 21.578125 
L 8.5 54.6875 
L 17.484375 54.6875 
L 17.484375 21.921875 
Q 17.484375 14.15625 20.5 10.265625 
Q 23.53125 6.390625 29.59375 6.390625 
Q 36.859375 6.390625 41.078125 11.03125 
Q 45.3125 15.671875 45.3125 23.6875 
L 45.3125 54.6875 
L 54.296875 54.6875 
L 54.296875 0 
L 45.3125 0 
L 45.3125 8.40625 
Q 42.046875 3.421875 37.71875 1 
Q 33.40625 -1.421875 27.6875 -1.421875 
Q 18.265625 -1.421875 13.375 4.4375 
Q 8.5 10.296875 8.5 21.578125 
z
M 31.109375 56 
z
" id="DejaVuSans-75"/>
     <path d="M 48.78125 52.59375 
L 48.78125 44.1875 
Q 44.96875 46.296875 41.140625 47.34375 
Q 37.3125 48.390625 33.40625 48.390625 
Q 24.65625 48.390625 19.8125 42.84375 
Q 14.984375 37.3125 14.984375 27.296875 
Q 14.984375 17.28125 19.8125 11.734375 
Q 24.65625 6.203125 33.40625 6.203125 
Q 37.3125 6.203125 41.140625 7.25 
Q 44.96875 8.296875 48.78125 10.40625 
L 48.78125 2.09375 
Q 45.015625 0.34375 40.984375 -0.53125 
Q 36.96875 -1.421875 32.421875 -1.421875 
Q 20.0625 -1.421875 12.78125 6.34375 
Q 5.515625 14.109375 5.515625 27.296875 
Q 5.515625 40.671875 12.859375 48.328125 
Q 20.21875 56 33.015625 56 
Q 37.15625 56 41.109375 55.140625 
Q 45.0625 54.296875 48.78125 52.59375 
z
" id="DejaVuSans-63"/>
     <path d="M 56.203125 29.59375 
L 56.203125 25.203125 
L 14.890625 25.203125 
Q 15.484375 15.921875 20.484375 11.0625 
Q 25.484375 6.203125 34.421875 6.203125 
Q 39.59375 6.203125 44.453125 7.46875 
Q 49.3125 8.734375 54.109375 11.28125 
L 54.109375 2.78125 
Q 49.265625 0.734375 44.1875 -0.34375 
Q 39.109375 -1.421875 33.890625 -1.421875 
Q 20.796875 -1.421875 13.15625 6.1875 
Q 5.515625 13.8125 5.515625 26.8125 
Q 5.515625 40.234375 12.765625 48.109375 
Q 20.015625 56 32.328125 56 
Q 43.359375 56 49.78125 48.890625 
Q 56.203125 41.796875 56.203125 29.59375 
z
M 47.21875 32.234375 
Q 47.125 39.59375 43.09375 43.984375 
Q 39.0625 48.390625 32.421875 48.390625 
Q 24.90625 48.390625 20.390625 44.140625 
Q 15.875 39.890625 15.1875 32.171875 
z
" id="DejaVuSans-65"/>
     <path id="DejaVuSans-20"/>
     <path d="M 51.125 44 
L 36.921875 44 
L 32.8125 27.6875 
L 47.125 27.6875 
z
M 43.796875 71.78125 
L 38.71875 51.515625 
L 52.984375 51.515625 
L 58.109375 71.78125 
L 65.921875 71.78125 
L 60.890625 51.515625 
L 76.125 51.515625 
L 76.125 44 
L 58.984375 44 
L 54.984375 27.6875 
L 70.515625 27.6875 
L 70.515625 20.21875 
L 53.078125 20.21875 
L 48 0 
L 40.1875 0 
L 45.21875 20.21875 
L 30.90625 20.21875 
L 25.875 0 
L 18.015625 0 
L 23.09375 20.21875 
L 7.71875 20.21875 
L 7.71875 27.6875 
L 24.90625 27.6875 
L 29 44 
L 13.28125 44 
L 13.28125 51.515625 
L 30.90625 51.515625 
L 35.890625 71.78125 
z
" id="DejaVuSans-23"/>
     <path d="M 8.203125 72.90625 
L 55.078125 72.90625 
L 55.078125 68.703125 
L 28.609375 0 
L 18.3125 0 
L 43.21875 64.59375 
L 8.203125 64.59375 
z
" id="DejaVuSans-37"/>
     <path d="M 10.796875 72.90625 
L 49.515625 72.90625 
L 49.515625 64.59375 
L 19.828125 64.59375 
L 19.828125 46.734375 
Q 21.96875 47.46875 24.109375 47.828125 
Q 26.265625 48.1875 28.421875 48.1875 
Q 40.625 48.1875 47.75 41.5 
Q 54.890625 34.8125 54.890625 23.390625 
Q 54.890625 11.625 47.5625 5.09375 
Q 40.234375 -1.421875 26.90625 -1.421875 
Q 22.3125 -1.421875 17.546875 -0.640625 
Q 12.796875 0.140625 7.71875 1.703125 
L 7.71875 11.625 
Q 12.109375 9.234375 16.796875 8.0625 
Q 21.484375 6.890625 26.703125 6.890625 
Q 35.15625 6.890625 40.078125 11.328125 
Q 45.015625 15.765625 45.015625 23.390625 
Q 45.015625 31 40.078125 35.4375 
Q 35.15625 39.890625 26.703125 39.890625 
Q 22.75 39.890625 18.8125 39.015625 
Q 14.890625 38.140625 10.796875 36.28125 
z
" id="DejaVuSans-35"/>
     <path d="M 10.984375 1.515625 
L 10.984375 10.5 
Q 14.703125 8.734375 18.5 7.8125 
Q 22.3125 6.890625 25.984375 6.890625 
Q 35.75 6.890625 40.890625 13.453125 
Q 46.046875 20.015625 46.78125 33.40625 
Q 43.953125 29.203125 39.59375 26.953125 
Q 35.25 24.703125 29.984375 24.703125 
Q 19.046875 24.703125 12.671875 31.3125 
Q 6.296875 37.9375 6.296875 49.421875 
Q 6.296875 60.640625 12.9375 67.421875 
Q 19.578125 74.21875 30.609375 74.21875 
Q 43.265625 74.21875 49.921875 64.515625 
Q 56.59375 54.828125 56.59375 36.375 
Q 56.59375 19.140625 48.40625 8.859375 
Q 40.234375 -1.421875 26.421875 -1.421875 
Q 22.703125 -1.421875 18.890625 -0.6875 
Q 15.09375 0.046875 10.984375 1.515625 
z
M 30.609375 32.421875 
Q 37.25 32.421875 41.125 36.953125 
Q 45.015625 41.5 45.015625 49.421875 
Q 45.015625 57.28125 41.125 61.84375 
Q 37.25 66.40625 30.609375 66.40625 
Q 23.96875 66.40625 20.09375 61.84375 
Q 16.21875 57.28125 16.21875 49.421875 
Q 16.21875 41.5 20.09375 36.953125 
Q 23.96875 32.421875 30.609375 32.421875 
z
" id="DejaVuSans-39"/>
     <path d="M 11.71875 12.40625 
L 22.015625 12.40625 
L 22.015625 4 
L 14.015625 -11.625 
L 7.71875 -11.625 
L 11.71875 4 
z
" id="DejaVuSans-2c"/>
     <path d="M 16.890625 72.90625 
L 62.984375 72.90625 
L 61.375 64.59375 
L 25.09375 64.59375 
L 20.90625 43.015625 
L 55.71875 43.015625 
L 54.109375 34.71875 
L 19.28125 34.71875 
L 14.203125 8.296875 
L 51.3125 8.296875 
L 49.703125 0 
L 2.6875 0 
z
" id="DejaVuSans-Oblique-45"/>
     <path d="M 16.890625 72.90625 
L 30.171875 72.90625 
L 50.296875 10.40625 
L 62.5 72.90625 
L 72.125 72.90625 
L 57.90625 0 
L 44.578125 0 
L 24.515625 62.890625 
L 12.3125 0 
L 2.6875 0 
z
" id="DejaVuSans-Oblique-4e"/>
     <path d="M 10.59375 45.40625 
L 73.1875 45.40625 
L 73.1875 37.203125 
L 10.59375 37.203125 
z
M 10.59375 25.484375 
L 73.1875 25.484375 
L 73.1875 17.1875 
L 10.59375 17.1875 
z
" id="DejaVuSans-3d"/>
     <path d="M 4.890625 31.390625 
L 31.203125 31.390625 
L 31.203125 23.390625 
L 4.890625 23.390625 
z
" id="DejaVuSans-2d"/>
     <path d="M 12.40625 8.296875 
L 28.515625 8.296875 
L 28.515625 63.921875 
L 10.984375 60.40625 
L 10.984375 69.390625 
L 28.421875 72.90625 
L 38.28125 72.90625 
L 38.28125 8.296875 
L 54.390625 8.296875 
L 54.390625 0 
L 12.40625 0 
z
" id="DejaVuSans-31"/>
     <path d="M 10.6875 12.40625 
L 21 12.40625 
L 21 0 
L 10.6875 0 
z
" id="DejaVuSans-2e"/>
     <path d="M 33.015625 40.375 
Q 26.375 40.375 22.484375 35.828125 
Q 18.609375 31.296875 18.609375 23.390625 
Q 18.609375 15.53125 22.484375 10.953125 
Q 26.375 6.390625 33.015625 6.390625 
Q 39.65625 6.390625 43.53125 10.953125 
Q 47.40625 15.53125 47.40625 23.390625 
Q 47.40625 31.296875 43.53125 35.828125 
Q 39.65625 40.375 33.015625 40.375 
z
M 52.59375 71.296875 
L 52.59375 62.3125 
Q 48.875 64.0625 45.09375 64.984375 
Q 41.3125 65.921875 37.59375 65.921875 
Q 27.828125 65.921875 22.671875 59.328125 
Q 17.53125 52.734375 16.796875 39.40625 
Q 19.671875 43.65625 24.015625 45.921875 
Q 28.375 48.1875 33.59375 48.1875 
Q 44.578125 48.1875 50.953125 41.515625 
Q 57.328125 34.859375 57.328125 23.390625 
Q 57.328125 12.15625 50.6875 5.359375 
Q 44.046875 -1.421875 33.015625 -1.421875 
Q 20.359375 -1.421875 13.671875 8.265625 
Q 6.984375 17.96875 6.984375 36.375 
Q 6.984375 53.65625 15.1875 63.9375 
Q 23.390625 74.21875 37.203125 74.21875 
Q 40.921875 74.21875 44.703125 73.484375 
Q 48.484375 72.75 52.59375 71.296875 
z
" id="DejaVuSans-36"/>
     <path d="M 28.609375 0 
L 0.78125 72.90625 
L 11.078125 72.90625 
L 34.1875 11.53125 
L 57.328125 72.90625 
L 67.578125 72.90625 
L 39.796875 0 
z
" id="DejaVuSans-56"/>
     <path d="M 34.1875 63.1875 
L 14.15625 8.203125 
L 54.25 8.203125 
z
M 0.78125 0 
L 28.609375 72.90625 
L 39.796875 72.90625 
L 67.578125 0 
z
" id="DejaVuSans-394"/>
     <path d="M 9.8125 72.90625 
L 55.90625 72.90625 
L 55.90625 64.59375 
L 19.671875 64.59375 
L 19.671875 43.015625 
L 54.390625 43.015625 
L 54.390625 34.71875 
L 19.671875 34.71875 
L 19.671875 8.296875 
L 56.78125 8.296875 
L 56.78125 0 
L 9.8125 0 
z
" id="DejaVuSans-45"/>
     <path d="M 31.78125 66.40625 
Q 24.171875 66.40625 20.328125 58.90625 
Q 16.5 51.421875 16.5 36.375 
Q 16.5 21.390625 20.328125 13.890625 
Q 24.171875 6.390625 31.78125 6.390625 
Q 39.453125 6.390625 43.28125 13.890625 
Q 47.125 21.390625 47.125 36.375 
Q 47.125 51.421875 43.28125 58.90625 
Q 39.453125 66.40625 31.78125 66.40625 
z
M 31.78125 74.21875 
Q 44.046875 74.21875 50.515625 64.515625 
Q 56.984375 54.828125 56.984375 36.375 
Q 56.984375 17.96875 50.515625 8.265625 
Q 44.046875 -1.421875 31.78125 -1.421875 
Q 19.53125 -1.421875 13.0625 8.265625 
Q 6.59375 17.96875 6.59375 36.375 
Q 6.59375 54.828125 13.0625 64.515625 
Q 19.53125 74.21875 31.78125 74.21875 
z
" id="DejaVuSans-30"/>
     <path d="M 19.1875 8.296875 
L 53.609375 8.296875 
L 53.609375 0 
L 7.328125 0 
L 7.328125 8.296875 
Q 12.9375 14.109375 22.625 23.890625 
Q 32.328125 33.6875 34.8125 36.53125 
Q 39.546875 41.84375 41.421875 45.53125 
Q 43.3125 49.21875 43.3125 52.78125 
Q 43.3125 58.59375 39.234375 62.25 
Q 35.15625 65.921875 28.609375 65.921875 
Q 23.96875 65.921875 18.8125 64.3125 
Q 13.671875 62.703125 7.8125 59.421875 
L 7.8125 69.390625 
Q 13.765625 71.78125 18.9375 73 
Q 24.125 74.21875 28.421875 74.21875 
Q 39.75 74.21875 46.484375 68.546875 
Q 53.21875 62.890625 53.21875 53.421875 
Q 53.21875 48.921875 51.53125 44.890625 
Q 49.859375 40.875 45.40625 35.40625 
Q 44.1875 33.984375 37.640625 27.21875 
Q 31.109375 20.453125 19.1875 8.296875 
z
" id="DejaVuSans-32"/>
     <path d="M 37.796875 64.3125 
L 12.890625 25.390625 
L 37.796875 25.390625 
z
M 35.203125 72.90625 
L 47.609375 72.90625 
L 47.609375 25.390625 
L 58.015625 25.390625 
L 58.015625 17.1875 
L 47.609375 17.1875 
L 47.609375 0 
L 37.796875 0 
L 37.796875 17.1875 
L 4.890625 17.1875 
L 4.890625 26.703125 
z
" id="DejaVuSans-34"/>
    </defs>
    <g transform="translate(65.388 35.472)scale(0.12 -0.12)">
     <use transform="translate(0 0.78125)" xlink:href="#DejaVuSans-53"/>
     <use transform="translate(63.476562 0.78125)" xlink:href="#DejaVuSans-74"/>
     <use transform="translate(102.685547 0.78125)" xlink:href="#DejaVuSans-72"/>
     <use transform="translate(143.798828 0.78125)" xlink:href="#DejaVuSans-75"/>
     <use transform="translate(207.177734 0.78125)" xlink:href="#DejaVuSans-63"/>
     <use transform="translate(262.158203 0.78125)" xlink:href="#DejaVuSans-74"/>
     <use transform="translate(301.367188 0.78125)" xlink:href="#DejaVuSans-75"/>
     <use transform="translate(364.746094 0.78125)" xlink:href="#DejaVuSans-72"/>
     <use transform="translate(405.859375 0.78125)" xlink:href="#DejaVuSans-65"/>
     <use transform="translate(467.382812 0.78125)" xlink:href="#DejaVuSans-20"/>
     <use transform="translate(499.169922 0.78125)" xlink:href="#DejaVuSans-23"/>
     <use transform="translate(582.958984 0.78125)" xlink:href="#DejaVuSans-37"/>
     <use transform="translate(646.582031 0.78125)" xlink:href="#DejaVuSans-35"/>
     <use transform="translate(710.126953 0.78125)" xlink:href="#DejaVuSans-39"/>
     <use transform="translate(773.75 0.78125)" xlink:href="#DejaVuSans-35"/>
     <use transform="translate(837.373047 0.78125)" xlink:href="#DejaVuSans-2c"/>
     <use transform="translate(869.160156 0.78125)" xlink:href="#DejaVuSans-20"/>
     <use transform="translate(900.947266 0.78125)" xlink:href="#DejaVuSans-Oblique-45"/>
     <use transform="translate(964.130859 -15.625)scale(0.7)" xlink:href="#DejaVuSans-Oblique-4e"/>
     <use transform="translate(1019.228516 0.78125)" xlink:href="#DejaVuSans-3d"/>
     <use transform="translate(1103.017578 0.78125)" xlink:href="#DejaVuSans-2d"/>
     <use transform="translate(1139.101562 0.78125)" xlink:href="#DejaVuSans-31"/>
     <use transform="translate(1202.724609 0.78125)" xlink:href="#DejaVuSans-37"/>
     <use transform="translate(1266.332031 0.78125)" xlink:href="#DejaVuSans-37"/>
     <use transform="translate(1329.955078 0.78125)" xlink:href="#DejaVuSans-2e"/>
     <use transform="translate(1361.742188 0.78125)" xlink:href="#DejaVuSans-36"/>
     <use transform="translate(1425.365234 0.78125)" xlink:href="#DejaVuSans-36"/>
     <use transform="translate(1488.988281 0.78125)" xlink:href="#DejaVuSans-65"/>
     <use transform="translate(1550.511719 0.78125)" xlink:href="#DejaVuSans-56"/>
     <use transform="translate(1618.919922 0.78125)" xlink:href="#DejaVuSans-2c"/>
     <use transform="translate(1650.707031 0.78125)" xlink:href="#DejaVuSans-20"/>
     <use transform="translate(1682.494141 0.78125)" xlink:href="#DejaVuSans-394"/>
     <use transform="translate(1750.902344 0.78125)" xlink:href="#DejaVuSans-45"/>
     <use transform="translate(1814.085938 0.78125)" xlink:href="#DejaVuSans-3d"/>
     <use transform="translate(1897.875 0.78125)" xlink:href="#DejaVuSans-30"/>
     <use transform="translate(1961.498047 0.78125)" xlink:href="#DejaVuSans-2e"/>
     <use transform="translate(1993.207031 0.78125)" xlink:href="#DejaVuSans-32"/>
     <use transform="translate(2056.830078 0.78125)" xlink:href="#DejaVuSans-34"/>
     <use transform="translate(2120.453125 0.78125)" xlink:href="#DejaVuSans-65"/>
     <use transform="translate(2181.976562 0.78125)" xlink:href="#DejaVuSans-56"/>
    </g>
   </g>
  </g>
  <g id="axes_2">
   <g id="patch_2">
    <path clip-path="url(#p86b7f47b11)" d="M 361.152 307.584 
L 361.152 306.5445 
L 361.152 42.5115 
L 361.152 41.472 
L 374.4576 41.472 
L 374.4576 42.5115 
L 374.4576 306.5445 
L 374.4576 307.584 
z
" style="fill:#ffffff;stroke:#ffffff;stroke-linejoin:miter;stroke-width:0.01;"/>
   </g>
   <image height="265.68" id="image597a8ca7e9" transform="scale(1 -1)translate(0 -265.68)" width="12.96" x="361.44" xlink:href="data:image/png;base64,
iVBORw0KGgoAAAANSUhEUgAAABIAAAFxCAYAAAB+2fgXAAAABHNCSVQICAgIfAhkiAAAAeVJREFUeJztncmNw0AQA2ckheYQNv9QLIfQ8ygsCgQ7AEI8+jAs2Puz/94F1LP2ReCsZ18bAWIeZ5XaGRBE7VnbptG+KI101FYyNSiQG2oRITXKNaX9uclOdi2XWjftVE32CZCO2ou5Bj1TcCBr/1zB9ge7Fq0Rg2NM9pvbtG+ua1QgsRYhDy0ISEiNc40BEibbSI0Coj5CBGtkpFbXJiAjNZlrwhuSOv2M1DjXbEdEciBt1JSDDQKKpmZr2rr2j0DBGpXaWEJq3bQzEPIS26r9J+Wzv9Tm8o3aajRXqc3VUXsApKNWjeZq0x4ABVNbm7lrszVigDqP5vIl2+eaT2yfRkL7g+dRcNPqjohkjaCvRVBq0H2U3LQrOJCx9kdTg4B8oxZzzTdqdYHEngjUCAPyUctN9sVRq2sTECW2UKNLd2jVtRmo1A6AhMmWaSRcR8nUdIHUuVb75zJS218EyEitro1At69pIdeSk30Lkw0FktNImGyZRhy1O5galmxd03LUsHWk06jUZiCq+5Wb1kZNN4+wJxJuWt8RAW5am2sYNZ9rYCBzZ3buPKJ2P5Yj4Toy3keyIyJbIxs1rml1byCA84gpch5RQNB7Q0qNMGq2Hy4BXdNR41yz/cEEJfZzUz96r9PoB0okjeQ8y9TkAAAAAElFTkSuQmCC" y="-41.76"/>
   <g id="matplotlib.axis_1"/>
   <g id="matplotlib.axis_2">
    <g id="ytick_1">
     <g id="line2d_1">
      <defs>
       <path d="M 0 0 
L 3.5 0 
" id="m1fc1587bf0" style="stroke:#000000;stroke-width:0.8;"/>
      </defs>
      <g>
       <use style="stroke:#000000;stroke-width:0.8;" x="374.4576" xlink:href="#m1fc1587bf0" y="291.958124"/>
      </g>
     </g>
     <g id="text_2">
      <!-- −8.5 -->
      <defs>
       <path d="M 10.59375 35.5 
L 73.1875 35.5 
L 73.1875 27.203125 
L 10.59375 27.203125 
z
" id="DejaVuSans-2212"/>
       <path d="M 31.78125 34.625 
Q 24.75 34.625 20.71875 30.859375 
Q 16.703125 27.09375 16.703125 20.515625 
Q 16.703125 13.921875 20.71875 10.15625 
Q 24.75 6.390625 31.78125 6.390625 
Q 38.8125 6.390625 42.859375 10.171875 
Q 46.921875 13.96875 46.921875 20.515625 
Q 46.921875 27.09375 42.890625 30.859375 
Q 38.875 34.625 31.78125 34.625 
z
M 21.921875 38.8125 
Q 15.578125 40.375 12.03125 44.71875 
Q 8.5 49.078125 8.5 55.328125 
Q 8.5 64.0625 14.71875 69.140625 
Q 20.953125 74.21875 31.78125 74.21875 
Q 42.671875 74.21875 48.875 69.140625 
Q 55.078125 64.0625 55.078125 55.328125 
Q 55.078125 49.078125 51.53125 44.71875 
Q 48 40.375 41.703125 38.8125 
Q 48.828125 37.15625 52.796875 32.3125 
Q 56.78125 27.484375 56.78125 20.515625 
Q 56.78125 9.90625 50.3125 4.234375 
Q 43.84375 -1.421875 31.78125 -1.421875 
Q 19.734375 -1.421875 13.25 4.234375 
Q 6.78125 9.90625 6.78125 20.515625 
Q 6.78125 27.484375 10.78125 32.3125 
Q 14.796875 37.15625 21.921875 38.8125 
z
M 18.3125 54.390625 
Q 18.3125 48.734375 21.84375 45.5625 
Q 25.390625 42.390625 31.78125 42.390625 
Q 38.140625 42.390625 41.71875 45.5625 
Q 45.3125 48.734375 45.3125 54.390625 
Q 45.3125 60.0625 41.71875 63.234375 
Q 38.140625 66.40625 31.78125 66.40625 
Q 25.390625 66.40625 21.84375 63.234375 
Q 18.3125 60.0625 18.3125 54.390625 
z
" id="DejaVuSans-38"/>
      </defs>
      <g transform="translate(381.4576 295.757343)scale(0.1 -0.1)">
       <use xlink:href="#DejaVuSans-2212"/>
       <use x="83.789062" xlink:href="#DejaVuSans-38"/>
       <use x="147.412109" xlink:href="#DejaVuSans-2e"/>
       <use x="179.199219" xlink:href="#DejaVuSans-35"/>
      </g>
     </g>
    </g>
    <g id="ytick_2">
     <g id="line2d_2">
      <g>
       <use style="stroke:#000000;stroke-width:0.8;" x="374.4576" xlink:href="#m1fc1587bf0" y="260.635758"/>
      </g>
     </g>
     <g id="text_3">
      <!-- −8.0 -->
      <g transform="translate(381.4576 264.434976)scale(0.1 -0.1)">
       <use xlink:href="#DejaVuSans-2212"/>
       <use x="83.789062" xlink:href="#DejaVuSans-38"/>
       <use x="147.412109" xlink:href="#DejaVuSans-2e"/>
       <use x="179.199219" xlink:href="#DejaVuSans-30"/>
      </g>
     </g>
    </g>
    <g id="ytick_3">
     <g id="line2d_3">
      <g>
       <use style="stroke:#000000;stroke-width:0.8;" x="374.4576" xlink:href="#m1fc1587bf0" y="229.313391"/>
      </g>
     </g>
     <g id="text_4">
      <!-- −7.5 -->
      <g transform="translate(381.4576 233.11261)scale(0.1 -0.1)">
       <use xlink:href="#DejaVuSans-2212"/>
       <use x="83.789062" xlink:href="#DejaVuSans-37"/>
       <use x="147.412109" xlink:href="#DejaVuSans-2e"/>
       <use x="179.199219" xlink:href="#DejaVuSans-35"/>
      </g>
     </g>
    </g>
    <g id="ytick_4">
     <g id="line2d_4">
      <g>
       <use style="stroke:#000000;stroke-width:0.8;" x="374.4576" xlink:href="#m1fc1587bf0" y="197.991024"/>
      </g>
     </g>
     <g id="text_5">
      <!-- −7.0 -->
      <g transform="translate(381.4576 201.790243)scale(0.1 -0.1)">
       <use xlink:href="#DejaVuSans-2212"/>
       <use x="83.789062" xlink:href="#DejaVuSans-37"/>
       <use x="147.412109" xlink:href="#DejaVuSans-2e"/>
       <use x="179.199219" xlink:href="#DejaVuSans-30"/>
      </g>
     </g>
    </g>
    <g id="ytick_5">
     <g id="line2d_5">
      <g>
       <use style="stroke:#000000;stroke-width:0.8;" x="374.4576" xlink:href="#m1fc1587bf0" y="166.668657"/>
      </g>
     </g>
     <g id="text_6">
      <!-- −6.5 -->
      <g transform="translate(381.4576 170.467876)scale(0.1 -0.1)">
       <use xlink:href="#DejaVuSans-2212"/>
       <use x="83.789062" xlink:href="#DejaVuSans-36"/>
       <use x="147.412109" xlink:href="#DejaVuSans-2e"/>
       <use x="179.199219" xlink:href="#DejaVuSans-35"/>
      </g>
     </g>
    </g>
    <g id="ytick_6">
     <g id="line2d_6">
      <g>
       <use style="stroke:#000000;stroke-width:0.8;" x="374.4576" xlink:href="#m1fc1587bf0" y="135.34629"/>
      </g>
     </g>
     <g id="text_7">
      <!-- −6.0 -->
      <g transform="translate(381.4576 139.145509)scale(0.1 -0.1)">
       <use xlink:href="#DejaVuSans-2212"/>
       <use x="83.789062" xlink:href="#DejaVuSans-36"/>
       <use x="147.412109" xlink:href="#DejaVuSans-2e"/>
       <use x="179.199219" xlink:href="#DejaVuSans-30"/>
      </g>
     </g>
    </g>
    <g id="ytick_7">
     <g id="line2d_7">
      <g>
       <use style="stroke:#000000;stroke-width:0.8;" x="374.4576" xlink:href="#m1fc1587bf0" y="104.023923"/>
      </g>
     </g>
     <g id="text_8">
      <!-- −5.5 -->
      <g transform="translate(381.4576 107.823142)scale(0.1 -0.1)">
       <use xlink:href="#DejaVuSans-2212"/>
       <use x="83.789062" xlink:href="#DejaVuSans-35"/>
       <use x="147.412109" xlink:href="#DejaVuSans-2e"/>
       <use x="179.199219" xlink:href="#DejaVuSans-35"/>
      </g>
     </g>
    </g>
    <g id="ytick_8">
     <g id="line2d_8">
      <g>
       <use style="stroke:#000000;stroke-width:0.8;" x="374.4576" xlink:href="#m1fc1587bf0" y="72.701557"/>
      </g>
     </g>
     <g id="text_9">
      <!-- −5.0 -->
      <g transform="translate(381.4576 76.500775)scale(0.1 -0.1)">
       <use xlink:href="#DejaVuSans-2212"/>
       <use x="83.789062" xlink:href="#DejaVuSans-35"/>
       <use x="147.412109" xlink:href="#DejaVuSans-2e"/>
       <use x="179.199219" xlink:href="#DejaVuSans-30"/>
      </g>
     </g>
    </g>
    <g id="text_10">
     <!-- Energy [eV] -->
     <defs>
      <path d="M 54.890625 33.015625 
L 54.890625 0 
L 45.90625 0 
L 45.90625 32.71875 
Q 45.90625 40.484375 42.875 44.328125 
Q 39.84375 48.1875 33.796875 48.1875 
Q 26.515625 48.1875 22.3125 43.546875 
Q 18.109375 38.921875 18.109375 30.90625 
L 18.109375 0 
L 9.078125 0 
L 9.078125 54.6875 
L 18.109375 54.6875 
L 18.109375 46.1875 
Q 21.34375 51.125 25.703125 53.5625 
Q 30.078125 56 35.796875 56 
Q 45.21875 56 50.046875 50.171875 
Q 54.890625 44.34375 54.890625 33.015625 
z
" id="DejaVuSans-6e"/>
      <path d="M 45.40625 27.984375 
Q 45.40625 37.75 41.375 43.109375 
Q 37.359375 48.484375 30.078125 48.484375 
Q 22.859375 48.484375 18.828125 43.109375 
Q 14.796875 37.75 14.796875 27.984375 
Q 14.796875 18.265625 18.828125 12.890625 
Q 22.859375 7.515625 30.078125 7.515625 
Q 37.359375 7.515625 41.375 12.890625 
Q 45.40625 18.265625 45.40625 27.984375 
z
M 54.390625 6.78125 
Q 54.390625 -7.171875 48.1875 -13.984375 
Q 42 -20.796875 29.203125 -20.796875 
Q 24.46875 -20.796875 20.265625 -20.09375 
Q 16.0625 -19.390625 12.109375 -17.921875 
L 12.109375 -9.1875 
Q 16.0625 -11.328125 19.921875 -12.34375 
Q 23.78125 -13.375 27.78125 -13.375 
Q 36.625 -13.375 41.015625 -8.765625 
Q 45.40625 -4.15625 45.40625 5.171875 
L 45.40625 9.625 
Q 42.625 4.78125 38.28125 2.390625 
Q 33.9375 0 27.875 0 
Q 17.828125 0 11.671875 7.65625 
Q 5.515625 15.328125 5.515625 27.984375 
Q 5.515625 40.671875 11.671875 48.328125 
Q 17.828125 56 27.875 56 
Q 33.9375 56 38.28125 53.609375 
Q 42.625 51.21875 45.40625 46.390625 
L 45.40625 54.6875 
L 54.390625 54.6875 
z
" id="DejaVuSans-67"/>
      <path d="M 32.171875 -5.078125 
Q 28.375 -14.84375 24.75 -17.8125 
Q 21.140625 -20.796875 15.09375 -20.796875 
L 7.90625 -20.796875 
L 7.90625 -13.28125 
L 13.1875 -13.28125 
Q 16.890625 -13.28125 18.9375 -11.515625 
Q 21 -9.765625 23.484375 -3.21875 
L 25.09375 0.875 
L 2.984375 54.6875 
L 12.5 54.6875 
L 29.59375 11.921875 
L 46.6875 54.6875 
L 56.203125 54.6875 
z
" id="DejaVuSans-79"/>
      <path d="M 8.59375 75.984375 
L 29.296875 75.984375 
L 29.296875 69 
L 17.578125 69 
L 17.578125 -6.203125 
L 29.296875 -6.203125 
L 29.296875 -13.1875 
L 8.59375 -13.1875 
z
" id="DejaVuSans-5b"/>
      <path d="M 30.421875 75.984375 
L 30.421875 -13.1875 
L 9.71875 -13.1875 
L 9.71875 -6.203125 
L 21.390625 -6.203125 
L 21.390625 69 
L 9.71875 69 
L 9.71875 75.984375 
z
" id="DejaVuSans-5d"/>
     </defs>
     <g transform="translate(417.33885 204.108469)rotate(-90)scale(0.1 -0.1)">
      <use xlink:href="#DejaVuSans-45"/>
      <use x="63.183594" xlink:href="#DejaVuSans-6e"/>
      <use x="126.5625" xlink:href="#DejaVuSans-65"/>
      <use x="188.085938" xlink:href="#DejaVuSans-72"/>
      <use x="229.183594" xlink:href="#DejaVuSans-67"/>
      <use x="292.660156" xlink:href="#DejaVuSans-79"/>
      <use x="351.839844" xlink:href="#DejaVuSans-20"/>
      <use x="383.626953" xlink:href="#DejaVuSans-5b"/>
      <use x="422.640625" xlink:href="#DejaVuSans-65"/>
      <use x="484.164062" xlink:href="#DejaVuSans-56"/>
      <use x="552.572266" xlink:href="#DejaVuSans-5d"/>
     </g>
    </g>
   </g>
   <g id="patch_3">
    <path d="M 361.152 307.584 
L 361.152 306.5445 
L 361.152 42.5115 
L 361.152 41.472 
L 374.4576 41.472 
L 374.4576 42.5115 
L 374.4576 306.5445 
L 374.4576 307.584 
z
" style="fill:none;stroke:#000000;stroke-linejoin:miter;stroke-width:0.8;"/>
   </g>
  </g>
 </g>
 <defs>
  <clipPath id="p5b929f56c7">
   <rect height="266.112" width="285.696" x="57.6" y="41.472"/>
  </clipPath>
  <clipPath id="p86b7f47b11">
   <rect height="266.112" width="13.3056" x="361.152" y="41.472"/>
  </clipPath>
 </defs>
</svg>
