<?xml version="1.0" encoding="utf-8" standalone="no"?>
<!DOCTYPE svg PUBLIC "-//W3C//DTD SVG 1.1//EN"
  "http://www.w3.org/Graphics/SVG/1.1/DTD/svg11.dtd">
<!-- Created with matplotlib (http://matplotlib.org/) -->
<svg height="345.6pt" version="1.1" viewBox="0 0 460.8 345.6" width="460.8pt" xmlns="http://www.w3.org/2000/svg" xmlns:xlink="http://www.w3.org/1999/xlink">
 <defs>
  <style type="text/css">
*{stroke-linecap:butt;stroke-linejoin:round;}
  </style>
 </defs>
 <g id="figure_1">
  <g id="patch_1">
   <path d="M 0 345.6 
L 460.8 345.6 
L 460.8 0 
L 0 0 
z
" style="fill:#ffffff;"/>
  </g>
  <g id="axes_1">
   <g id="CircleCollection_1">
    <path clip-path="url(#p4c605168ad)" d="M 228.316417 301.611439 
C 230.07373 301.611439 231.759305 300.913251 233.001913 299.670643 
C 234.244521 298.428035 234.942708 296.742461 234.942708 294.985148 
C 234.942708 293.227835 234.244521 291.54226 233.001913 290.299653 
C 231.759305 289.057045 230.07373 288.358857 228.316417 288.358857 
C 226.559104 288.358857 224.87353 289.057045 223.630922 290.299653 
C 222.388314 291.54226 221.690126 293.227835 221.690126 294.985148 
C 221.690126 296.742461 222.388314 298.428035 223.630922 299.670643 
C 224.87353 300.913251 226.559104 301.611439 228.316417 301.611439 
z
" style="fill:#1f9e89;"/>
    <path clip-path="url(#p4c605168ad)" d="M 270.449156 281.603633 
C 272.220103 281.603633 273.918755 280.900029 275.171003 279.64778 
C 276.423252 278.395532 277.126856 276.69688 277.126856 274.925933 
C 277.126856 273.154986 276.423252 271.456335 275.171003 270.204086 
C 273.918755 268.951838 272.220103 268.248233 270.449156 268.248233 
C 268.67821 268.248233 266.979558 268.951838 265.727309 270.204086 
C 264.475061 271.456335 263.771456 273.154986 263.771456 274.925933 
C 263.771456 276.69688 264.475061 278.395532 265.727309 279.64778 
C 266.979558 280.900029 268.67821 281.603633 270.449156 281.603633 
z
" style="fill:#20938c;"/>
    <path clip-path="url(#p4c605168ad)" d="M 264.287143 94.216205 
C 266.008463 94.216205 267.659513 93.532317 268.87667 92.315161 
C 270.093826 91.098004 270.777713 89.446954 270.777713 87.725634 
C 270.777713 86.004315 270.093826 84.353265 268.87667 83.136108 
C 267.659513 81.918952 266.008463 81.235064 264.287143 81.235064 
C 262.565824 81.235064 260.914774 81.918952 259.697617 83.136108 
C 258.480461 84.353265 257.796573 86.004315 257.796573 87.725634 
C 257.796573 89.446954 258.480461 91.098004 259.697617 92.315161 
C 260.914774 93.532317 262.565824 94.216205 264.287143 94.216205 
z
" style="fill:#218e8d;"/>
    <path clip-path="url(#p4c605168ad)" d="M 174.112406 93.549581 
C 175.904952 93.549581 177.624322 92.837394 178.891844 91.569873 
C 180.159366 90.302351 180.871552 88.582981 180.871552 86.790435 
C 180.871552 84.997888 180.159366 83.278518 178.891844 82.010997 
C 177.624322 80.743475 175.904952 80.031289 174.112406 80.031289 
C 172.319859 80.031289 170.60049 80.743475 169.332968 82.010997 
C 168.065446 83.278518 167.35326 84.997888 167.35326 86.790435 
C 167.35326 88.582981 168.065446 90.302351 169.332968 91.569873 
C 170.60049 92.837394 172.319859 93.549581 174.112406 93.549581 
z
" style="fill:#1f948c;"/>
    <path clip-path="url(#p4c605168ad)" d="M 318.276047 153.101299 
C 320.042052 153.101299 321.735965 152.399658 322.984719 151.150903 
C 324.233474 149.902149 324.935115 148.208236 324.935115 146.442231 
C 324.935115 144.676225 324.233474 142.982313 322.984719 141.733559 
C 321.735965 140.484804 320.042052 139.783163 318.276047 139.783163 
C 316.510041 139.783163 314.816129 140.484804 313.567375 141.733559 
C 312.31862 142.982313 311.616979 144.676225 311.616979 146.442231 
C 311.616979 148.208236 312.31862 149.902149 313.567375 151.150903 
C 314.816129 152.399658 316.510041 153.101299 318.276047 153.101299 
z
" style="fill:#1f998a;"/>
    <path clip-path="url(#p4c605168ad)" d="M 179.352411 300.182396 
C 181.121979 300.182396 182.819308 299.479339 184.070582 298.228065 
C 185.321856 296.976792 186.024912 295.279462 186.024912 293.509894 
C 186.024912 291.740326 185.321856 290.042996 184.070582 288.791723 
C 182.819308 287.540449 181.121979 286.837392 179.352411 286.837392 
C 177.582842 286.837392 175.885513 287.540449 174.634239 288.791723 
C 173.382966 290.042996 172.679909 291.740326 172.679909 293.509894 
C 172.679909 295.279462 173.382966 296.976792 174.634239 298.228065 
C 175.885513 299.479339 177.582842 300.182396 179.352411 300.182396 
z
" style="fill:#1e9d89;"/>
    <path clip-path="url(#p4c605168ad)" d="M 329.785017 186.006786 
C 331.593292 186.006786 333.327748 185.288351 334.606391 184.009707 
C 335.885034 182.731064 336.603469 180.996609 336.603469 179.188334 
C 336.603469 177.38006 335.885034 175.645604 334.606391 174.366961 
C 333.327748 173.088317 331.593292 172.369882 329.785017 172.369882 
C 327.976743 172.369882 326.242287 173.088317 324.963644 174.366961 
C 323.685001 175.645604 322.966566 177.38006 322.966566 179.188334 
C 322.966566 180.996609 323.685001 182.731064 324.963644 184.009707 
C 326.242287 185.288351 327.976743 186.006786 329.785017 186.006786 
z
" style="fill:#228d8d;"/>
    <path clip-path="url(#p4c605168ad)" d="M 318.591598 202.724361 
C 320.476404 202.724361 322.284266 201.97552 323.617025 200.642761 
C 324.949783 199.310002 325.698624 197.50214 325.698624 195.617335 
C 325.698624 193.732529 324.949783 191.924667 323.617025 190.591908 
C 322.284266 189.25915 320.476404 188.510309 318.591598 188.510309 
C 316.706793 188.510309 314.898931 189.25915 313.566172 190.591908 
C 312.233413 191.924667 311.484572 193.732529 311.484572 195.617335 
C 311.484572 197.50214 312.233413 199.310002 313.566172 200.642761 
C 314.898931 201.97552 316.706793 202.724361 318.591598 202.724361 
z
" style="fill:#1f968b;"/>
    <path clip-path="url(#p4c605168ad)" d="M 214.04187 81.859088 
C 215.784421 81.859088 217.455837 81.166765 218.688007 79.934595 
C 219.920177 78.702425 220.6125 77.03101 220.6125 75.288458 
C 220.6125 73.545907 219.920177 71.874491 218.688007 70.642321 
C 217.455837 69.410151 215.784421 68.717828 214.04187 68.717828 
C 212.299319 68.717828 210.627903 69.410151 209.395733 70.642321 
C 208.163563 71.874491 207.47124 73.545907 207.47124 75.288458 
C 207.47124 77.03101 208.163563 78.702425 209.395733 79.934595 
C 210.627903 81.166765 212.299319 81.859088 214.04187 81.859088 
z
" style="fill:#21908d;"/>
    <path clip-path="url(#p4c605168ad)" d="M 71.113056 237.718836 
C 72.928475 237.718836 74.669783 236.997562 75.953478 235.713867 
C 77.237173 234.430172 77.958447 232.688864 77.958447 230.873445 
C 77.958447 229.058026 77.237173 227.316717 75.953478 226.033022 
C 74.669783 224.749327 72.928475 224.028054 71.113056 224.028054 
C 69.297637 224.028054 67.556329 224.749327 66.272634 226.033022 
C 64.988939 227.316717 64.267665 229.058026 64.267665 230.873445 
C 64.267665 232.688864 64.988939 234.430172 66.272634 235.713867 
C 67.556329 236.997562 69.297637 237.718836 71.113056 237.718836 
z
" style="fill:#1e9d89;"/>
    <path clip-path="url(#p4c605168ad)" d="M 199.490465 171.876822 
C 201.454916 171.876822 203.339172 171.096338 204.728248 169.707261 
C 206.117324 168.318185 206.897809 166.433929 206.897809 164.469479 
C 206.897809 162.505028 206.117324 160.620772 204.728248 159.231696 
C 203.339172 157.84262 201.454916 157.062135 199.490465 157.062135 
C 197.526015 157.062135 195.641759 157.84262 194.252683 159.231696 
C 192.863607 160.620772 192.083122 162.505028 192.083122 164.469479 
C 192.083122 166.433929 192.863607 168.318185 194.252683 169.707261 
C 195.641759 171.096338 197.526015 171.876822 199.490465 171.876822 
z
" style="fill:#238a8d;"/>
    <path clip-path="url(#p4c605168ad)" d="M 292.641456 196.598651 
C 294.595461 196.598651 296.469698 195.822317 297.851388 194.440626 
C 299.233079 193.058936 300.009413 191.184699 300.009413 189.230694 
C 300.009413 187.276689 299.233079 185.402452 297.851388 184.020762 
C 296.469698 182.639072 294.595461 181.862737 292.641456 181.862737 
C 290.687451 181.862737 288.813214 182.639072 287.431524 184.020762 
C 286.049834 185.402452 285.273499 187.276689 285.273499 189.230694 
C 285.273499 191.184699 286.049834 193.058936 287.431524 194.440626 
C 288.813214 195.822317 290.687451 196.598651 292.641456 196.598651 
z
" style="fill:#1fa287;"/>
    <path clip-path="url(#p4c605168ad)" d="M 124.526977 144.985171 
C 126.401489 144.985171 128.199479 144.240419 129.52496 142.914938 
C 130.85044 141.589458 131.595192 139.791468 131.595192 137.916956 
C 131.595192 136.042444 130.85044 134.244454 129.52496 132.918973 
C 128.199479 131.593493 126.401489 130.848741 124.526977 130.848741 
C 122.652465 130.848741 120.854475 131.593493 119.528994 132.918973 
C 118.203514 134.244454 117.458762 136.042444 117.458762 137.916956 
C 117.458762 139.791468 118.203514 141.589458 119.528994 142.914938 
C 120.854475 144.240419 122.652465 144.985171 124.526977 144.985171 
z
" style="fill:#440154;"/>
    <path clip-path="url(#p4c605168ad)" d="M 162.246431 160.109654 
C 164.171502 160.109654 166.017987 159.344815 167.379218 157.983585 
C 168.740449 156.622354 169.505288 154.775869 169.505288 152.850798 
C 169.505288 150.925727 168.740449 149.079242 167.379218 147.718011 
C 166.017987 146.35678 164.171502 145.591942 162.246431 145.591942 
C 160.32136 145.591942 158.474875 146.35678 157.113645 147.718011 
C 155.752414 149.079242 154.987575 150.925727 154.987575 152.850798 
C 154.987575 154.775869 155.752414 156.622354 157.113645 157.983585 
C 158.474875 159.344815 160.32136 160.109654 162.246431 160.109654 
z
" style="fill:#50c46a;"/>
    <path clip-path="url(#p4c605168ad)" d="M 73.457383 202.727437 
C 75.299483 202.727437 77.066383 201.995563 78.368944 200.693002 
C 79.671505 199.390441 80.403379 197.623541 80.403379 195.781441 
C 80.403379 193.939342 79.671505 192.172442 78.368944 190.869881 
C 77.066383 189.56732 75.299483 188.835446 73.457383 188.835446 
C 71.615284 188.835446 69.848384 189.56732 68.545823 190.869881 
C 67.243261 192.172442 66.511387 193.939342 66.511387 195.781441 
C 66.511387 197.623541 67.243261 199.390441 68.545823 200.693002 
C 69.848384 201.995563 71.615284 202.727437 73.457383 202.727437 
z
" style="fill:#20928c;"/>
    <path clip-path="url(#p4c605168ad)" d="M 323.615094 226.010136 
C 325.429977 226.010136 327.170772 225.289075 328.454088 224.005759 
C 329.737404 222.722443 330.458465 220.981649 330.458465 219.166765 
C 330.458465 217.351882 329.737404 215.611088 328.454088 214.327772 
C 327.170772 213.044455 325.429977 212.323395 323.615094 212.323395 
C 321.800211 212.323395 320.059416 213.044455 318.7761 214.327772 
C 317.492784 215.611088 316.771723 217.351882 316.771723 219.166765 
C 316.771723 220.981649 317.492784 222.722443 318.7761 224.005759 
C 320.059416 225.289075 321.800211 226.010136 323.615094 226.010136 
z
" style="fill:#218e8d;"/>
    <path clip-path="url(#p4c605168ad)" d="M 141.476403 112.90448 
C 143.307331 112.90448 145.063516 112.177045 146.358178 110.882383 
C 147.65284 109.587721 148.380276 107.831536 148.380276 106.000607 
C 148.380276 104.169679 147.65284 102.413494 146.358178 101.118832 
C 145.063516 99.82417 143.307331 99.096734 141.476403 99.096734 
C 139.645474 99.096734 137.889289 99.82417 136.594627 101.118832 
C 135.299965 102.413494 134.572529 104.169679 134.572529 106.000607 
C 134.572529 107.831536 135.299965 109.587721 136.594627 110.882383 
C 137.889289 112.177045 139.645474 112.90448 141.476403 112.90448 
z
" style="fill:#42be71;"/>
    <path clip-path="url(#p4c605168ad)" d="M 130.144386 293.227649 
C 131.919293 293.227649 133.621743 292.522472 134.876791 291.267423 
C 136.13184 290.012374 136.837018 288.309924 136.837018 286.535018 
C 136.837018 284.760111 136.13184 283.057661 134.876791 281.802612 
C 133.621743 280.547564 131.919293 279.842386 130.144386 279.842386 
C 128.369479 279.842386 126.667029 280.547564 125.41198 281.802612 
C 124.156932 283.057661 123.451754 284.760111 123.451754 286.535018 
C 123.451754 288.309924 124.156932 290.012374 125.41198 291.267423 
C 126.667029 292.522472 128.369479 293.227649 130.144386 293.227649 
z
" style="fill:#1f9a8a;"/>
    <path clip-path="url(#p4c605168ad)" d="M 308.066342 259.212445 
C 309.847077 259.212445 311.555117 258.504951 312.814287 257.245781 
C 314.073457 255.986612 314.78095 254.278572 314.78095 252.497837 
C 314.78095 250.717102 314.073457 249.009062 312.814287 247.749892 
C 311.555117 246.490722 309.847077 245.783229 308.066342 245.783229 
C 306.285607 245.783229 304.577567 246.490722 303.318397 247.749892 
C 302.059228 249.009062 301.351734 250.717102 301.351734 252.497837 
C 301.351734 254.278572 302.059228 255.986612 303.318397 257.245781 
C 304.577567 258.504951 306.285607 259.212445 308.066342 259.212445 
z
" style="fill:#20a386;"/>
    <path clip-path="url(#p4c605168ad)" d="M 296.381665 123.502726 
C 298.123803 123.502726 299.794821 122.810567 301.026699 121.57869 
C 302.258576 120.346812 302.950735 118.675794 302.950735 116.933656 
C 302.950735 115.191518 302.258576 113.520499 301.026699 112.288622 
C 299.794821 111.056744 298.123803 110.364586 296.381665 110.364586 
C 294.639527 110.364586 292.968508 111.056744 291.736631 112.288622 
C 290.504753 113.520499 289.812595 115.191518 289.812595 116.933656 
C 289.812595 118.675794 290.504753 120.346812 291.736631 121.57869 
C 292.968508 122.810567 294.639527 123.502726 296.381665 123.502726 
z
" style="fill:#1f948c;"/>
    <path clip-path="url(#p4c605168ad)" d="M 82.189477 167.681219 
C 84.043106 167.681219 85.821065 166.944765 87.131779 165.634051 
C 88.442493 164.323337 89.178947 162.545378 89.178947 160.691749 
C 89.178947 158.83812 88.442493 157.060161 87.131779 155.749447 
C 85.821065 154.438734 84.043106 153.702279 82.189477 153.702279 
C 80.335848 153.702279 78.557889 154.438734 77.247175 155.749447 
C 75.936461 157.060161 75.200007 158.83812 75.200007 160.691749 
C 75.200007 162.545378 75.936461 164.323337 77.247175 165.634051 
C 78.557889 166.944765 80.335848 167.681219 82.189477 167.681219 
z
" style="fill:#75d054;"/>
    <path clip-path="url(#p4c605168ad)" d="M 244.764622 60.388582 
C 246.445876 60.388582 248.058496 59.720613 249.247321 58.531787 
C 250.436147 57.342961 251.104116 55.730341 251.104116 54.049088 
C 251.104116 52.367834 250.436147 50.755214 249.247321 49.566389 
C 248.058496 48.377563 246.445876 47.709594 244.764622 47.709594 
C 243.083369 47.709594 241.470749 48.377563 240.281923 49.566389 
C 239.093097 50.755214 238.425128 52.367834 238.425128 54.049088 
C 238.425128 55.730341 239.093097 57.342961 240.281923 58.531787 
C 241.470749 59.720613 243.083369 60.388582 244.764622 60.388582 
z
" style="fill:#fde725;"/>
    <path clip-path="url(#p4c605168ad)" d="M 98.030649 267.456174 
C 99.8306 267.456174 101.557072 266.741046 102.829829 265.468289 
C 104.102587 264.195531 104.817715 262.469059 104.817715 260.669108 
C 104.817715 258.869157 104.102587 257.142685 102.829829 255.869927 
C 101.557072 254.59717 99.8306 253.882042 98.030649 253.882042 
C 96.230698 253.882042 94.504226 254.59717 93.231468 255.869927 
C 91.958711 257.142685 91.243582 258.869157 91.243582 260.669108 
C 91.243582 262.469059 91.958711 264.195531 93.231468 265.468289 
C 94.504226 266.741046 96.230698 267.456174 98.030649 267.456174 
z
" style="fill:#1f9a8a;"/>
    <path clip-path="url(#p4c605168ad)" d="M 247.371678 185.553608 
C 249.338457 185.553608 251.224947 184.772198 252.615669 183.381476 
C 254.006392 181.990753 254.787802 180.104263 254.787802 178.137484 
C 254.787802 176.170705 254.006392 174.284216 252.615669 172.893493 
C 251.224947 171.50277 249.338457 170.721361 247.371678 170.721361 
C 245.404899 170.721361 243.51841 171.50277 242.127687 172.893493 
C 240.736964 174.284216 239.955555 176.170705 239.955555 178.137484 
C 239.955555 180.104263 240.736964 181.990753 242.127687 183.381476 
C 243.51841 184.772198 245.404899 185.553608 247.371678 185.553608 
z
" style="fill:#1f988b;"/>
   </g>
   <g id="text_1">
    <!-- Structure #5205, $E_N$=-181.85eV, ΔE=-0.01eV -->
    <defs>
     <path d="M 53.515625 70.515625 
L 53.515625 60.890625 
Q 47.90625 63.578125 42.921875 64.890625 
Q 37.9375 66.21875 33.296875 66.21875 
Q 25.25 66.21875 20.875 63.09375 
Q 16.5 59.96875 16.5 54.203125 
Q 16.5 49.359375 19.40625 46.890625 
Q 22.3125 44.4375 30.421875 42.921875 
L 36.375 41.703125 
Q 47.40625 39.59375 52.65625 34.296875 
Q 57.90625 29 57.90625 20.125 
Q 57.90625 9.515625 50.796875 4.046875 
Q 43.703125 -1.421875 29.984375 -1.421875 
Q 24.8125 -1.421875 18.96875 -0.25 
Q 13.140625 0.921875 6.890625 3.21875 
L 6.890625 13.375 
Q 12.890625 10.015625 18.65625 8.296875 
Q 24.421875 6.59375 29.984375 6.59375 
Q 38.421875 6.59375 43.015625 9.90625 
Q 47.609375 13.234375 47.609375 19.390625 
Q 47.609375 24.75 44.3125 27.78125 
Q 41.015625 30.8125 33.5 32.328125 
L 27.484375 33.5 
Q 16.453125 35.6875 11.515625 40.375 
Q 6.59375 45.0625 6.59375 53.421875 
Q 6.59375 63.09375 13.40625 68.65625 
Q 20.21875 74.21875 32.171875 74.21875 
Q 37.3125 74.21875 42.625 73.28125 
Q 47.953125 72.359375 53.515625 70.515625 
z
" id="DejaVuSans-53"/>
     <path d="M 18.3125 70.21875 
L 18.3125 54.6875 
L 36.8125 54.6875 
L 36.8125 47.703125 
L 18.3125 47.703125 
L 18.3125 18.015625 
Q 18.3125 11.328125 20.140625 9.421875 
Q 21.96875 7.515625 27.59375 7.515625 
L 36.8125 7.515625 
L 36.8125 0 
L 27.59375 0 
Q 17.1875 0 13.234375 3.875 
Q 9.28125 7.765625 9.28125 18.015625 
L 9.28125 47.703125 
L 2.6875 47.703125 
L 2.6875 54.6875 
L 9.28125 54.6875 
L 9.28125 70.21875 
z
" id="DejaVuSans-74"/>
     <path d="M 41.109375 46.296875 
Q 39.59375 47.171875 37.8125 47.578125 
Q 36.03125 48 33.890625 48 
Q 26.265625 48 22.1875 43.046875 
Q 18.109375 38.09375 18.109375 28.8125 
L 18.109375 0 
L 9.078125 0 
L 9.078125 54.6875 
L 18.109375 54.6875 
L 18.109375 46.1875 
Q 20.953125 51.171875 25.484375 53.578125 
Q 30.03125 56 36.53125 56 
Q 37.453125 56 38.578125 55.875 
Q 39.703125 55.765625 41.0625 55.515625 
z
" id="DejaVuSans-72"/>
     <path d="M 8.5 21.578125 
L 8.5 54.6875 
L 17.484375 54.6875 
L 17.484375 21.921875 
Q 17.484375 14.15625 20.5 10.265625 
Q 23.53125 6.390625 29.59375 6.390625 
Q 36.859375 6.390625 41.078125 11.03125 
Q 45.3125 15.671875 45.3125 23.6875 
L 45.3125 54.6875 
L 54.296875 54.6875 
L 54.296875 0 
L 45.3125 0 
L 45.3125 8.40625 
Q 42.046875 3.421875 37.71875 1 
Q 33.40625 -1.421875 27.6875 -1.421875 
Q 18.265625 -1.421875 13.375 4.4375 
Q 8.5 10.296875 8.5 21.578125 
z
M 31.109375 56 
z
" id="DejaVuSans-75"/>
     <path d="M 48.78125 52.59375 
L 48.78125 44.1875 
Q 44.96875 46.296875 41.140625 47.34375 
Q 37.3125 48.390625 33.40625 48.390625 
Q 24.65625 48.390625 19.8125 42.84375 
Q 14.984375 37.3125 14.984375 27.296875 
Q 14.984375 17.28125 19.8125 11.734375 
Q 24.65625 6.203125 33.40625 6.203125 
Q 37.3125 6.203125 41.140625 7.25 
Q 44.96875 8.296875 48.78125 10.40625 
L 48.78125 2.09375 
Q 45.015625 0.34375 40.984375 -0.53125 
Q 36.96875 -1.421875 32.421875 -1.421875 
Q 20.0625 -1.421875 12.78125 6.34375 
Q 5.515625 14.109375 5.515625 27.296875 
Q 5.515625 40.671875 12.859375 48.328125 
Q 20.21875 56 33.015625 56 
Q 37.15625 56 41.109375 55.140625 
Q 45.0625 54.296875 48.78125 52.59375 
z
" id="DejaVuSans-63"/>
     <path d="M 56.203125 29.59375 
L 56.203125 25.203125 
L 14.890625 25.203125 
Q 15.484375 15.921875 20.484375 11.0625 
Q 25.484375 6.203125 34.421875 6.203125 
Q 39.59375 6.203125 44.453125 7.46875 
Q 49.3125 8.734375 54.109375 11.28125 
L 54.109375 2.78125 
Q 49.265625 0.734375 44.1875 -0.34375 
Q 39.109375 -1.421875 33.890625 -1.421875 
Q 20.796875 -1.421875 13.15625 6.1875 
Q 5.515625 13.8125 5.515625 26.8125 
Q 5.515625 40.234375 12.765625 48.109375 
Q 20.015625 56 32.328125 56 
Q 43.359375 56 49.78125 48.890625 
Q 56.203125 41.796875 56.203125 29.59375 
z
M 47.21875 32.234375 
Q 47.125 39.59375 43.09375 43.984375 
Q 39.0625 48.390625 32.421875 48.390625 
Q 24.90625 48.390625 20.390625 44.140625 
Q 15.875 39.890625 15.1875 32.171875 
z
" id="DejaVuSans-65"/>
     <path id="DejaVuSans-20"/>
     <path d="M 51.125 44 
L 36.921875 44 
L 32.8125 27.6875 
L 47.125 27.6875 
z
M 43.796875 71.78125 
L 38.71875 51.515625 
L 52.984375 51.515625 
L 58.109375 71.78125 
L 65.921875 71.78125 
L 60.890625 51.515625 
L 76.125 51.515625 
L 76.125 44 
L 58.984375 44 
L 54.984375 27.6875 
L 70.515625 27.6875 
L 70.515625 20.21875 
L 53.078125 20.21875 
L 48 0 
L 40.1875 0 
L 45.21875 20.21875 
L 30.90625 20.21875 
L 25.875 0 
L 18.015625 0 
L 23.09375 20.21875 
L 7.71875 20.21875 
L 7.71875 27.6875 
L 24.90625 27.6875 
L 29 44 
L 13.28125 44 
L 13.28125 51.515625 
L 30.90625 51.515625 
L 35.890625 71.78125 
z
" id="DejaVuSans-23"/>
     <path d="M 10.796875 72.90625 
L 49.515625 72.90625 
L 49.515625 64.59375 
L 19.828125 64.59375 
L 19.828125 46.734375 
Q 21.96875 47.46875 24.109375 47.828125 
Q 26.265625 48.1875 28.421875 48.1875 
Q 40.625 48.1875 47.75 41.5 
Q 54.890625 34.8125 54.890625 23.390625 
Q 54.890625 11.625 47.5625 5.09375 
Q 40.234375 -1.421875 26.90625 -1.421875 
Q 22.3125 -1.421875 17.546875 -0.640625 
Q 12.796875 0.140625 7.71875 1.703125 
L 7.71875 11.625 
Q 12.109375 9.234375 16.796875 8.0625 
Q 21.484375 6.890625 26.703125 6.890625 
Q 35.15625 6.890625 40.078125 11.328125 
Q 45.015625 15.765625 45.015625 23.390625 
Q 45.015625 31 40.078125 35.4375 
Q 35.15625 39.890625 26.703125 39.890625 
Q 22.75 39.890625 18.8125 39.015625 
Q 14.890625 38.140625 10.796875 36.28125 
z
" id="DejaVuSans-35"/>
     <path d="M 19.1875 8.296875 
L 53.609375 8.296875 
L 53.609375 0 
L 7.328125 0 
L 7.328125 8.296875 
Q 12.9375 14.109375 22.625 23.890625 
Q 32.328125 33.6875 34.8125 36.53125 
Q 39.546875 41.84375 41.421875 45.53125 
Q 43.3125 49.21875 43.3125 52.78125 
Q 43.3125 58.59375 39.234375 62.25 
Q 35.15625 65.921875 28.609375 65.921875 
Q 23.96875 65.921875 18.8125 64.3125 
Q 13.671875 62.703125 7.8125 59.421875 
L 7.8125 69.390625 
Q 13.765625 71.78125 18.9375 73 
Q 24.125 74.21875 28.421875 74.21875 
Q 39.75 74.21875 46.484375 68.546875 
Q 53.21875 62.890625 53.21875 53.421875 
Q 53.21875 48.921875 51.53125 44.890625 
Q 49.859375 40.875 45.40625 35.40625 
Q 44.1875 33.984375 37.640625 27.21875 
Q 31.109375 20.453125 19.1875 8.296875 
z
" id="DejaVuSans-32"/>
     <path d="M 31.78125 66.40625 
Q 24.171875 66.40625 20.328125 58.90625 
Q 16.5 51.421875 16.5 36.375 
Q 16.5 21.390625 20.328125 13.890625 
Q 24.171875 6.390625 31.78125 6.390625 
Q 39.453125 6.390625 43.28125 13.890625 
Q 47.125 21.390625 47.125 36.375 
Q 47.125 51.421875 43.28125 58.90625 
Q 39.453125 66.40625 31.78125 66.40625 
z
M 31.78125 74.21875 
Q 44.046875 74.21875 50.515625 64.515625 
Q 56.984375 54.828125 56.984375 36.375 
Q 56.984375 17.96875 50.515625 8.265625 
Q 44.046875 -1.421875 31.78125 -1.421875 
Q 19.53125 -1.421875 13.0625 8.265625 
Q 6.59375 17.96875 6.59375 36.375 
Q 6.59375 54.828125 13.0625 64.515625 
Q 19.53125 74.21875 31.78125 74.21875 
z
" id="DejaVuSans-30"/>
     <path d="M 11.71875 12.40625 
L 22.015625 12.40625 
L 22.015625 4 
L 14.015625 -11.625 
L 7.71875 -11.625 
L 11.71875 4 
z
" id="DejaVuSans-2c"/>
     <path d="M 16.890625 72.90625 
L 62.984375 72.90625 
L 61.375 64.59375 
L 25.09375 64.59375 
L 20.90625 43.015625 
L 55.71875 43.015625 
L 54.109375 34.71875 
L 19.28125 34.71875 
L 14.203125 8.296875 
L 51.3125 8.296875 
L 49.703125 0 
L 2.6875 0 
z
" id="DejaVuSans-Oblique-45"/>
     <path d="M 16.890625 72.90625 
L 30.171875 72.90625 
L 50.296875 10.40625 
L 62.5 72.90625 
L 72.125 72.90625 
L 57.90625 0 
L 44.578125 0 
L 24.515625 62.890625 
L 12.3125 0 
L 2.6875 0 
z
" id="DejaVuSans-Oblique-4e"/>
     <path d="M 10.59375 45.40625 
L 73.1875 45.40625 
L 73.1875 37.203125 
L 10.59375 37.203125 
z
M 10.59375 25.484375 
L 73.1875 25.484375 
L 73.1875 17.1875 
L 10.59375 17.1875 
z
" id="DejaVuSans-3d"/>
     <path d="M 4.890625 31.390625 
L 31.203125 31.390625 
L 31.203125 23.390625 
L 4.890625 23.390625 
z
" id="DejaVuSans-2d"/>
     <path d="M 12.40625 8.296875 
L 28.515625 8.296875 
L 28.515625 63.921875 
L 10.984375 60.40625 
L 10.984375 69.390625 
L 28.421875 72.90625 
L 38.28125 72.90625 
L 38.28125 8.296875 
L 54.390625 8.296875 
L 54.390625 0 
L 12.40625 0 
z
" id="DejaVuSans-31"/>
     <path d="M 31.78125 34.625 
Q 24.75 34.625 20.71875 30.859375 
Q 16.703125 27.09375 16.703125 20.515625 
Q 16.703125 13.921875 20.71875 10.15625 
Q 24.75 6.390625 31.78125 6.390625 
Q 38.8125 6.390625 42.859375 10.171875 
Q 46.921875 13.96875 46.921875 20.515625 
Q 46.921875 27.09375 42.890625 30.859375 
Q 38.875 34.625 31.78125 34.625 
z
M 21.921875 38.8125 
Q 15.578125 40.375 12.03125 44.71875 
Q 8.5 49.078125 8.5 55.328125 
Q 8.5 64.0625 14.71875 69.140625 
Q 20.953125 74.21875 31.78125 74.21875 
Q 42.671875 74.21875 48.875 69.140625 
Q 55.078125 64.0625 55.078125 55.328125 
Q 55.078125 49.078125 51.53125 44.71875 
Q 48 40.375 41.703125 38.8125 
Q 48.828125 37.15625 52.796875 32.3125 
Q 56.78125 27.484375 56.78125 20.515625 
Q 56.78125 9.90625 50.3125 4.234375 
Q 43.84375 -1.421875 31.78125 -1.421875 
Q 19.734375 -1.421875 13.25 4.234375 
Q 6.78125 9.90625 6.78125 20.515625 
Q 6.78125 27.484375 10.78125 32.3125 
Q 14.796875 37.15625 21.921875 38.8125 
z
M 18.3125 54.390625 
Q 18.3125 48.734375 21.84375 45.5625 
Q 25.390625 42.390625 31.78125 42.390625 
Q 38.140625 42.390625 41.71875 45.5625 
Q 45.3125 48.734375 45.3125 54.390625 
Q 45.3125 60.0625 41.71875 63.234375 
Q 38.140625 66.40625 31.78125 66.40625 
Q 25.390625 66.40625 21.84375 63.234375 
Q 18.3125 60.0625 18.3125 54.390625 
z
" id="DejaVuSans-38"/>
     <path d="M 10.6875 12.40625 
L 21 12.40625 
L 21 0 
L 10.6875 0 
z
" id="DejaVuSans-2e"/>
     <path d="M 28.609375 0 
L 0.78125 72.90625 
L 11.078125 72.90625 
L 34.1875 11.53125 
L 57.328125 72.90625 
L 67.578125 72.90625 
L 39.796875 0 
z
" id="DejaVuSans-56"/>
     <path d="M 34.1875 63.1875 
L 14.15625 8.203125 
L 54.25 8.203125 
z
M 0.78125 0 
L 28.609375 72.90625 
L 39.796875 72.90625 
L 67.578125 0 
z
" id="DejaVuSans-394"/>
     <path d="M 9.8125 72.90625 
L 55.90625 72.90625 
L 55.90625 64.59375 
L 19.671875 64.59375 
L 19.671875 43.015625 
L 54.390625 43.015625 
L 54.390625 34.71875 
L 19.671875 34.71875 
L 19.671875 8.296875 
L 56.78125 8.296875 
L 56.78125 0 
L 9.8125 0 
z
" id="DejaVuSans-45"/>
    </defs>
    <g transform="translate(63.228 35.472)scale(0.12 -0.12)">
     <use transform="translate(0 0.78125)" xlink:href="#DejaVuSans-53"/>
     <use transform="translate(63.476562 0.78125)" xlink:href="#DejaVuSans-74"/>
     <use transform="translate(102.685547 0.78125)" xlink:href="#DejaVuSans-72"/>
     <use transform="translate(143.798828 0.78125)" xlink:href="#DejaVuSans-75"/>
     <use transform="translate(207.177734 0.78125)" xlink:href="#DejaVuSans-63"/>
     <use transform="translate(262.158203 0.78125)" xlink:href="#DejaVuSans-74"/>
     <use transform="translate(301.367188 0.78125)" xlink:href="#DejaVuSans-75"/>
     <use transform="translate(364.746094 0.78125)" xlink:href="#DejaVuSans-72"/>
     <use transform="translate(405.859375 0.78125)" xlink:href="#DejaVuSans-65"/>
     <use transform="translate(467.382812 0.78125)" xlink:href="#DejaVuSans-20"/>
     <use transform="translate(499.169922 0.78125)" xlink:href="#DejaVuSans-23"/>
     <use transform="translate(582.958984 0.78125)" xlink:href="#DejaVuSans-35"/>
     <use transform="translate(646.582031 0.78125)" xlink:href="#DejaVuSans-32"/>
     <use transform="translate(710.205078 0.78125)" xlink:href="#DejaVuSans-30"/>
     <use transform="translate(773.828125 0.78125)" xlink:href="#DejaVuSans-35"/>
     <use transform="translate(837.451172 0.78125)" xlink:href="#DejaVuSans-2c"/>
     <use transform="translate(869.238281 0.78125)" xlink:href="#DejaVuSans-20"/>
     <use transform="translate(901.025391 0.78125)" xlink:href="#DejaVuSans-Oblique-45"/>
     <use transform="translate(964.208984 -15.625)scale(0.7)" xlink:href="#DejaVuSans-Oblique-4e"/>
     <use transform="translate(1019.306641 0.78125)" xlink:href="#DejaVuSans-3d"/>
     <use transform="translate(1103.095703 0.78125)" xlink:href="#DejaVuSans-2d"/>
     <use transform="translate(1139.179688 0.78125)" xlink:href="#DejaVuSans-31"/>
     <use transform="translate(1202.802734 0.78125)" xlink:href="#DejaVuSans-38"/>
     <use transform="translate(1266.425781 0.78125)" xlink:href="#DejaVuSans-31"/>
     <use transform="translate(1330.048828 0.78125)" xlink:href="#DejaVuSans-2e"/>
     <use transform="translate(1361.804688 0.78125)" xlink:href="#DejaVuSans-38"/>
     <use transform="translate(1425.427734 0.78125)" xlink:href="#DejaVuSans-35"/>
     <use transform="translate(1489.050781 0.78125)" xlink:href="#DejaVuSans-65"/>
     <use transform="translate(1550.574219 0.78125)" xlink:href="#DejaVuSans-56"/>
     <use transform="translate(1618.982422 0.78125)" xlink:href="#DejaVuSans-2c"/>
     <use transform="translate(1650.769531 0.78125)" xlink:href="#DejaVuSans-20"/>
     <use transform="translate(1682.556641 0.78125)" xlink:href="#DejaVuSans-394"/>
     <use transform="translate(1750.964844 0.78125)" xlink:href="#DejaVuSans-45"/>
     <use transform="translate(1814.148438 0.78125)" xlink:href="#DejaVuSans-3d"/>
     <use transform="translate(1897.9375 0.78125)" xlink:href="#DejaVuSans-2d"/>
     <use transform="translate(1934.021484 0.78125)" xlink:href="#DejaVuSans-30"/>
     <use transform="translate(1997.644531 0.78125)" xlink:href="#DejaVuSans-2e"/>
     <use transform="translate(2029.431641 0.78125)" xlink:href="#DejaVuSans-30"/>
     <use transform="translate(2093.054688 0.78125)" xlink:href="#DejaVuSans-31"/>
     <use transform="translate(2156.677734 0.78125)" xlink:href="#DejaVuSans-65"/>
     <use transform="translate(2218.201172 0.78125)" xlink:href="#DejaVuSans-56"/>
    </g>
   </g>
  </g>
  <g id="axes_2">
   <g id="patch_2">
    <path clip-path="url(#pc51bdcbfbf)" d="M 361.152 307.584 
L 361.152 306.5445 
L 361.152 42.5115 
L 361.152 41.472 
L 374.4576 41.472 
L 374.4576 42.5115 
L 374.4576 306.5445 
L 374.4576 307.584 
z
" style="fill:#ffffff;stroke:#ffffff;stroke-linejoin:miter;stroke-width:0.01;"/>
   </g>
   <image height="265.68" id="imagefac4f017b1" transform="scale(1 -1)translate(0 -265.68)" width="12.96" x="361.44" xlink:href="data:image/png;base64,
iVBORw0KGgoAAAANSUhEUgAAABIAAAFxCAYAAAB+2fgXAAAABHNCSVQICAgIfAhkiAAAAeVJREFUeJztncmNw0AQA2ckheYQNv9QLIfQ8ygsCgQ7AEI8+jAs2Puz/94F1LP2ReCsZ18bAWIeZ5XaGRBE7VnbptG+KI101FYyNSiQG2oRITXKNaX9uclOdi2XWjftVE32CZCO2ou5Bj1TcCBr/1zB9ge7Fq0Rg2NM9pvbtG+ua1QgsRYhDy0ISEiNc40BEibbSI0Coj5CBGtkpFbXJiAjNZlrwhuSOv2M1DjXbEdEciBt1JSDDQKKpmZr2rr2j0DBGpXaWEJq3bQzEPIS26r9J+Wzv9Tm8o3aajRXqc3VUXsApKNWjeZq0x4ABVNbm7lrszVigDqP5vIl2+eaT2yfRkL7g+dRcNPqjohkjaCvRVBq0H2U3LQrOJCx9kdTg4B8oxZzzTdqdYHEngjUCAPyUctN9sVRq2sTECW2UKNLd2jVtRmo1A6AhMmWaSRcR8nUdIHUuVb75zJS218EyEitro1At69pIdeSk30Lkw0FktNImGyZRhy1O5galmxd03LUsHWk06jUZiCq+5Wb1kZNN4+wJxJuWt8RAW5am2sYNZ9rYCBzZ3buPKJ2P5Yj4Toy3keyIyJbIxs1rml1byCA84gpch5RQNB7Q0qNMGq2Hy4BXdNR41yz/cEEJfZzUz96r9PoB0okjeQ8y9TkAAAAAElFTkSuQmCC" y="-41.76"/>
   <g id="matplotlib.axis_1"/>
   <g id="matplotlib.axis_2">
    <g id="ytick_1">
     <g id="line2d_1">
      <defs>
       <path d="M 0 0 
L 3.5 0 
" id="m0ccd66885b" style="stroke:#000000;stroke-width:0.8;"/>
      </defs>
      <g>
       <use style="stroke:#000000;stroke-width:0.8;" x="374.4576" xlink:href="#m0ccd66885b" y="286.242464"/>
      </g>
     </g>
     <g id="text_2">
      <!-- −9.0 -->
      <defs>
       <path d="M 10.59375 35.5 
L 73.1875 35.5 
L 73.1875 27.203125 
L 10.59375 27.203125 
z
" id="DejaVuSans-2212"/>
       <path d="M 10.984375 1.515625 
L 10.984375 10.5 
Q 14.703125 8.734375 18.5 7.8125 
Q 22.3125 6.890625 25.984375 6.890625 
Q 35.75 6.890625 40.890625 13.453125 
Q 46.046875 20.015625 46.78125 33.40625 
Q 43.953125 29.203125 39.59375 26.953125 
Q 35.25 24.703125 29.984375 24.703125 
Q 19.046875 24.703125 12.671875 31.3125 
Q 6.296875 37.9375 6.296875 49.421875 
Q 6.296875 60.640625 12.9375 67.421875 
Q 19.578125 74.21875 30.609375 74.21875 
Q 43.265625 74.21875 49.921875 64.515625 
Q 56.59375 54.828125 56.59375 36.375 
Q 56.59375 19.140625 48.40625 8.859375 
Q 40.234375 -1.421875 26.421875 -1.421875 
Q 22.703125 -1.421875 18.890625 -0.6875 
Q 15.09375 0.046875 10.984375 1.515625 
z
M 30.609375 32.421875 
Q 37.25 32.421875 41.125 36.953125 
Q 45.015625 41.5 45.015625 49.421875 
Q 45.015625 57.28125 41.125 61.84375 
Q 37.25 66.40625 30.609375 66.40625 
Q 23.96875 66.40625 20.09375 61.84375 
Q 16.21875 57.28125 16.21875 49.421875 
Q 16.21875 41.5 20.09375 36.953125 
Q 23.96875 32.421875 30.609375 32.421875 
z
" id="DejaVuSans-39"/>
      </defs>
      <g transform="translate(381.4576 290.041683)scale(0.1 -0.1)">
       <use xlink:href="#DejaVuSans-2212"/>
       <use x="83.789062" xlink:href="#DejaVuSans-39"/>
       <use x="147.412109" xlink:href="#DejaVuSans-2e"/>
       <use x="179.199219" xlink:href="#DejaVuSans-30"/>
      </g>
     </g>
    </g>
    <g id="ytick_2">
     <g id="line2d_2">
      <g>
       <use style="stroke:#000000;stroke-width:0.8;" x="374.4576" xlink:href="#m0ccd66885b" y="242.309843"/>
      </g>
     </g>
     <g id="text_3">
      <!-- −8.5 -->
      <g transform="translate(381.4576 246.109062)scale(0.1 -0.1)">
       <use xlink:href="#DejaVuSans-2212"/>
       <use x="83.789062" xlink:href="#DejaVuSans-38"/>
       <use x="147.412109" xlink:href="#DejaVuSans-2e"/>
       <use x="179.199219" xlink:href="#DejaVuSans-35"/>
      </g>
     </g>
    </g>
    <g id="ytick_3">
     <g id="line2d_3">
      <g>
       <use style="stroke:#000000;stroke-width:0.8;" x="374.4576" xlink:href="#m0ccd66885b" y="198.377222"/>
      </g>
     </g>
     <g id="text_4">
      <!-- −8.0 -->
      <g transform="translate(381.4576 202.176441)scale(0.1 -0.1)">
       <use xlink:href="#DejaVuSans-2212"/>
       <use x="83.789062" xlink:href="#DejaVuSans-38"/>
       <use x="147.412109" xlink:href="#DejaVuSans-2e"/>
       <use x="179.199219" xlink:href="#DejaVuSans-30"/>
      </g>
     </g>
    </g>
    <g id="ytick_4">
     <g id="line2d_4">
      <g>
       <use style="stroke:#000000;stroke-width:0.8;" x="374.4576" xlink:href="#m0ccd66885b" y="154.444601"/>
      </g>
     </g>
     <g id="text_5">
      <!-- −7.5 -->
      <defs>
       <path d="M 8.203125 72.90625 
L 55.078125 72.90625 
L 55.078125 68.703125 
L 28.609375 0 
L 18.3125 0 
L 43.21875 64.59375 
L 8.203125 64.59375 
z
" id="DejaVuSans-37"/>
      </defs>
      <g transform="translate(381.4576 158.24382)scale(0.1 -0.1)">
       <use xlink:href="#DejaVuSans-2212"/>
       <use x="83.789062" xlink:href="#DejaVuSans-37"/>
       <use x="147.412109" xlink:href="#DejaVuSans-2e"/>
       <use x="179.199219" xlink:href="#DejaVuSans-35"/>
      </g>
     </g>
    </g>
    <g id="ytick_5">
     <g id="line2d_5">
      <g>
       <use style="stroke:#000000;stroke-width:0.8;" x="374.4576" xlink:href="#m0ccd66885b" y="110.51198"/>
      </g>
     </g>
     <g id="text_6">
      <!-- −7.0 -->
      <g transform="translate(381.4576 114.311199)scale(0.1 -0.1)">
       <use xlink:href="#DejaVuSans-2212"/>
       <use x="83.789062" xlink:href="#DejaVuSans-37"/>
       <use x="147.412109" xlink:href="#DejaVuSans-2e"/>
       <use x="179.199219" xlink:href="#DejaVuSans-30"/>
      </g>
     </g>
    </g>
    <g id="ytick_6">
     <g id="line2d_6">
      <g>
       <use style="stroke:#000000;stroke-width:0.8;" x="374.4576" xlink:href="#m0ccd66885b" y="66.579359"/>
      </g>
     </g>
     <g id="text_7">
      <!-- −6.5 -->
      <defs>
       <path d="M 33.015625 40.375 
Q 26.375 40.375 22.484375 35.828125 
Q 18.609375 31.296875 18.609375 23.390625 
Q 18.609375 15.53125 22.484375 10.953125 
Q 26.375 6.390625 33.015625 6.390625 
Q 39.65625 6.390625 43.53125 10.953125 
Q 47.40625 15.53125 47.40625 23.390625 
Q 47.40625 31.296875 43.53125 35.828125 
Q 39.65625 40.375 33.015625 40.375 
z
M 52.59375 71.296875 
L 52.59375 62.3125 
Q 48.875 64.0625 45.09375 64.984375 
Q 41.3125 65.921875 37.59375 65.921875 
Q 27.828125 65.921875 22.671875 59.328125 
Q 17.53125 52.734375 16.796875 39.40625 
Q 19.671875 43.65625 24.015625 45.921875 
Q 28.375 48.1875 33.59375 48.1875 
Q 44.578125 48.1875 50.953125 41.515625 
Q 57.328125 34.859375 57.328125 23.390625 
Q 57.328125 12.15625 50.6875 5.359375 
Q 44.046875 -1.421875 33.015625 -1.421875 
Q 20.359375 -1.421875 13.671875 8.265625 
Q 6.984375 17.96875 6.984375 36.375 
Q 6.984375 53.65625 15.1875 63.9375 
Q 23.390625 74.21875 37.203125 74.21875 
Q 40.921875 74.21875 44.703125 73.484375 
Q 48.484375 72.75 52.59375 71.296875 
z
" id="DejaVuSans-36"/>
      </defs>
      <g transform="translate(381.4576 70.378578)scale(0.1 -0.1)">
       <use xlink:href="#DejaVuSans-2212"/>
       <use x="83.789062" xlink:href="#DejaVuSans-36"/>
       <use x="147.412109" xlink:href="#DejaVuSans-2e"/>
       <use x="179.199219" xlink:href="#DejaVuSans-35"/>
      </g>
     </g>
    </g>
    <g id="text_8">
     <!-- Energy [eV] -->
     <defs>
      <path d="M 54.890625 33.015625 
L 54.890625 0 
L 45.90625 0 
L 45.90625 32.71875 
Q 45.90625 40.484375 42.875 44.328125 
Q 39.84375 48.1875 33.796875 48.1875 
Q 26.515625 48.1875 22.3125 43.546875 
Q 18.109375 38.921875 18.109375 30.90625 
L 18.109375 0 
L 9.078125 0 
L 9.078125 54.6875 
L 18.109375 54.6875 
L 18.109375 46.1875 
Q 21.34375 51.125 25.703125 53.5625 
Q 30.078125 56 35.796875 56 
Q 45.21875 56 50.046875 50.171875 
Q 54.890625 44.34375 54.890625 33.015625 
z
" id="DejaVuSans-6e"/>
      <path d="M 45.40625 27.984375 
Q 45.40625 37.75 41.375 43.109375 
Q 37.359375 48.484375 30.078125 48.484375 
Q 22.859375 48.484375 18.828125 43.109375 
Q 14.796875 37.75 14.796875 27.984375 
Q 14.796875 18.265625 18.828125 12.890625 
Q 22.859375 7.515625 30.078125 7.515625 
Q 37.359375 7.515625 41.375 12.890625 
Q 45.40625 18.265625 45.40625 27.984375 
z
M 54.390625 6.78125 
Q 54.390625 -7.171875 48.1875 -13.984375 
Q 42 -20.796875 29.203125 -20.796875 
Q 24.46875 -20.796875 20.265625 -20.09375 
Q 16.0625 -19.390625 12.109375 -17.921875 
L 12.109375 -9.1875 
Q 16.0625 -11.328125 19.921875 -12.34375 
Q 23.78125 -13.375 27.78125 -13.375 
Q 36.625 -13.375 41.015625 -8.765625 
Q 45.40625 -4.15625 45.40625 5.171875 
L 45.40625 9.625 
Q 42.625 4.78125 38.28125 2.390625 
Q 33.9375 0 27.875 0 
Q 17.828125 0 11.671875 7.65625 
Q 5.515625 15.328125 5.515625 27.984375 
Q 5.515625 40.671875 11.671875 48.328125 
Q 17.828125 56 27.875 56 
Q 33.9375 56 38.28125 53.609375 
Q 42.625 51.21875 45.40625 46.390625 
L 45.40625 54.6875 
L 54.390625 54.6875 
z
" id="DejaVuSans-67"/>
      <path d="M 32.171875 -5.078125 
Q 28.375 -14.84375 24.75 -17.8125 
Q 21.140625 -20.796875 15.09375 -20.796875 
L 7.90625 -20.796875 
L 7.90625 -13.28125 
L 13.1875 -13.28125 
Q 16.890625 -13.28125 18.9375 -11.515625 
Q 21 -9.765625 23.484375 -3.21875 
L 25.09375 0.875 
L 2.984375 54.6875 
L 12.5 54.6875 
L 29.59375 11.921875 
L 46.6875 54.6875 
L 56.203125 54.6875 
z
" id="DejaVuSans-79"/>
      <path d="M 8.59375 75.984375 
L 29.296875 75.984375 
L 29.296875 69 
L 17.578125 69 
L 17.578125 -6.203125 
L 29.296875 -6.203125 
L 29.296875 -13.1875 
L 8.59375 -13.1875 
z
" id="DejaVuSans-5b"/>
      <path d="M 30.421875 75.984375 
L 30.421875 -13.1875 
L 9.71875 -13.1875 
L 9.71875 -6.203125 
L 21.390625 -6.203125 
L 21.390625 69 
L 9.71875 69 
L 9.71875 75.984375 
z
" id="DejaVuSans-5d"/>
     </defs>
     <g transform="translate(417.33885 204.108469)rotate(-90)scale(0.1 -0.1)">
      <use xlink:href="#DejaVuSans-45"/>
      <use x="63.183594" xlink:href="#DejaVuSans-6e"/>
      <use x="126.5625" xlink:href="#DejaVuSans-65"/>
      <use x="188.085938" xlink:href="#DejaVuSans-72"/>
      <use x="229.183594" xlink:href="#DejaVuSans-67"/>
      <use x="292.660156" xlink:href="#DejaVuSans-79"/>
      <use x="351.839844" xlink:href="#DejaVuSans-20"/>
      <use x="383.626953" xlink:href="#DejaVuSans-5b"/>
      <use x="422.640625" xlink:href="#DejaVuSans-65"/>
      <use x="484.164062" xlink:href="#DejaVuSans-56"/>
      <use x="552.572266" xlink:href="#DejaVuSans-5d"/>
     </g>
    </g>
   </g>
   <g id="patch_3">
    <path d="M 361.152 307.584 
L 361.152 306.5445 
L 361.152 42.5115 
L 361.152 41.472 
L 374.4576 41.472 
L 374.4576 42.5115 
L 374.4576 306.5445 
L 374.4576 307.584 
z
" style="fill:none;stroke:#000000;stroke-linejoin:miter;stroke-width:0.8;"/>
   </g>
  </g>
 </g>
 <defs>
  <clipPath id="p4c605168ad">
   <rect height="266.112" width="285.696" x="57.6" y="41.472"/>
  </clipPath>
  <clipPath id="pc51bdcbfbf">
   <rect height="266.112" width="13.3056" x="361.152" y="41.472"/>
  </clipPath>
 </defs>
</svg>
