<?xml version="1.0" encoding="utf-8" standalone="no"?>
<!DOCTYPE svg PUBLIC "-//W3C//DTD SVG 1.1//EN"
  "http://www.w3.org/Graphics/SVG/1.1/DTD/svg11.dtd">
<!-- Created with matplotlib (http://matplotlib.org/) -->
<svg height="345.6pt" version="1.1" viewBox="0 0 460.8 345.6" width="460.8pt" xmlns="http://www.w3.org/2000/svg" xmlns:xlink="http://www.w3.org/1999/xlink">
 <defs>
  <style type="text/css">
*{stroke-linecap:butt;stroke-linejoin:round;}
  </style>
 </defs>
 <g id="figure_1">
  <g id="patch_1">
   <path d="M 0 345.6 
L 460.8 345.6 
L 460.8 0 
L 0 0 
z
" style="fill:#ffffff;"/>
  </g>
  <g id="axes_1">
   <g id="CircleCollection_1">
    <path clip-path="url(#pef396eb3e6)" d="M 329.785607 117.742968 
C 331.481534 117.742968 333.108228 117.069169 334.30743 115.869968 
C 335.506631 114.670767 336.18043 113.044073 336.18043 111.348146 
C 336.18043 109.652219 335.506631 108.025525 334.30743 106.826324 
C 333.108228 105.627123 331.481534 104.953324 329.785607 104.953324 
C 328.089681 104.953324 326.462987 105.627123 325.263785 106.826324 
C 324.064584 108.025525 323.390785 109.652219 323.390785 111.348146 
C 323.390785 113.044073 324.064584 114.670767 325.263785 115.869968 
C 326.462987 117.069169 328.089681 117.742968 329.785607 117.742968 
z
" style="fill:#228c8d;"/>
    <path clip-path="url(#pef396eb3e6)" d="M 230.399635 110.067032 
C 232.243257 110.067032 234.011618 109.334553 235.315255 108.030915 
C 236.618893 106.727277 237.351372 104.958917 237.351372 103.115295 
C 237.351372 101.271672 236.618893 99.503312 235.315255 98.199674 
C 234.011618 96.896036 232.243257 96.163557 230.399635 96.163557 
C 228.556013 96.163557 226.787652 96.896036 225.484014 98.199674 
C 224.180377 99.503312 223.447898 101.271672 223.447898 103.115295 
C 223.447898 104.958917 224.180377 106.727277 225.484014 108.030915 
C 226.787652 109.334553 228.556013 110.067032 230.399635 110.067032 
z
" style="fill:#1f958b;"/>
    <path clip-path="url(#pef396eb3e6)" d="M 164.137945 213.689114 
C 165.996815 213.689114 167.779802 212.950577 169.094221 211.636157 
C 170.408641 210.321737 171.147178 208.538751 171.147178 206.679881 
C 171.147178 204.82101 170.408641 203.038024 169.094221 201.723604 
C 167.779802 200.409184 165.996815 199.670647 164.137945 199.670647 
C 162.279075 199.670647 160.496088 200.409184 159.181669 201.723604 
C 157.867249 203.038024 157.128712 204.82101 157.128712 206.679881 
C 157.128712 208.538751 157.867249 210.321737 159.181669 211.636157 
C 160.496088 212.950577 162.279075 213.689114 164.137945 213.689114 
z
" style="fill:#34618d;"/>
    <path clip-path="url(#pef396eb3e6)" d="M 220.519626 73.776699 
C 222.312448 73.776699 224.032081 73.064404 225.299797 71.796687 
C 226.567514 70.528971 227.279809 68.809338 227.279809 67.016516 
C 227.279809 65.223695 226.567514 63.504061 225.299797 62.236345 
C 224.032081 60.968629 222.312448 60.256333 220.519626 60.256333 
C 218.726805 60.256333 217.007171 60.968629 215.739455 62.236345 
C 214.471739 63.504061 213.759443 65.223695 213.759443 67.016516 
C 213.759443 68.809338 214.471739 70.528971 215.739455 71.796687 
C 217.007171 73.064404 218.726805 73.776699 220.519626 73.776699 
z
" style="fill:#440154;"/>
    <path clip-path="url(#pef396eb3e6)" d="M 164.972019 64.071283 
C 166.777237 64.071283 168.508761 63.354062 169.785243 62.07758 
C 171.061725 60.801098 171.778946 59.069573 171.778946 57.264355 
C 171.778946 55.459136 171.061725 53.727612 169.785243 52.45113 
C 168.508761 51.174648 166.777237 50.457427 164.972019 50.457427 
C 163.1668 50.457427 161.435276 51.174648 160.158794 52.45113 
C 158.882312 53.727612 158.165091 55.459136 158.165091 57.264355 
C 158.165091 59.069573 158.882312 60.801098 160.158794 62.07758 
C 161.435276 63.354062 163.1668 64.071283 164.972019 64.071283 
z
" style="fill:#42be71;"/>
    <path clip-path="url(#pef396eb3e6)" d="M 112.427239 194.473311 
C 114.316432 194.473311 116.128502 193.722727 117.464362 192.386866 
C 118.800223 191.051005 119.550807 189.238935 119.550807 187.349743 
C 119.550807 185.460551 118.800223 183.64848 117.464362 182.31262 
C 116.128502 180.976759 114.316432 180.226175 112.427239 180.226175 
C 110.538047 180.226175 108.725977 180.976759 107.390116 182.31262 
C 106.054255 183.64848 105.303671 185.460551 105.303671 187.349743 
C 105.303671 189.238935 106.054255 191.051005 107.390116 192.386866 
C 108.725977 193.722727 110.538047 194.473311 112.427239 194.473311 
z
" style="fill:#481467;"/>
    <path clip-path="url(#pef396eb3e6)" d="M 124.220389 82.266146 
C 126.055572 82.266146 127.815838 81.53702 129.113509 80.23935 
C 130.411179 78.941679 131.140305 77.181413 131.140305 75.34623 
C 131.140305 73.511047 130.411179 71.750781 129.113509 70.45311 
C 127.815838 69.15544 126.055572 68.426314 124.220389 68.426314 
C 122.385206 68.426314 120.62494 69.15544 119.327269 70.45311 
C 118.029599 71.750781 117.300473 73.511047 117.300473 75.34623 
C 117.300473 77.181413 118.029599 78.941679 119.327269 80.23935 
C 120.62494 81.53702 122.385206 82.266146 124.220389 82.266146 
z
" style="fill:#23898e;"/>
    <path clip-path="url(#pef396eb3e6)" d="M 256.599958 211.261916 
C 258.38384 211.261916 260.094899 210.553172 261.356295 209.291777 
C 262.61769 208.030382 263.326434 206.319323 263.326434 204.535441 
C 263.326434 202.751558 262.61769 201.040499 261.356295 199.779104 
C 260.094899 198.517709 258.38384 197.808965 256.599958 197.808965 
C 254.816076 197.808965 253.105017 198.517709 251.843622 199.779104 
C 250.582227 201.040499 249.873483 202.751558 249.873483 204.535441 
C 249.873483 206.319323 250.582227 208.030382 251.843622 209.291777 
C 253.105017 210.553172 254.816076 211.261916 256.599958 211.261916 
z
" style="fill:#481a6c;"/>
    <path clip-path="url(#pef396eb3e6)" d="M 162.470865 258.304727 
C 164.322958 258.304727 166.099444 257.568883 167.409071 256.259256 
C 168.718698 254.949628 169.454543 253.173143 169.454543 251.32105 
C 169.454543 249.468957 168.718698 247.692472 167.409071 246.382844 
C 166.099444 245.073217 164.322958 244.337373 162.470865 244.337373 
C 160.618773 244.337373 158.842287 245.073217 157.53266 246.382844 
C 156.223032 247.692472 155.487188 249.468957 155.487188 251.32105 
C 155.487188 253.173143 156.223032 254.949628 157.53266 256.259256 
C 158.842287 257.568883 160.618773 258.304727 162.470865 258.304727 
z
" style="fill:#46075a;"/>
    <path clip-path="url(#pef396eb3e6)" d="M 261.96959 60.655393 
C 263.708084 60.655393 265.375608 59.964682 266.604909 58.735381 
C 267.83421 57.50608 268.524921 55.838556 268.524921 54.100062 
C 268.524921 52.361568 267.83421 50.694044 266.604909 49.464743 
C 265.375608 48.235442 263.708084 47.544731 261.96959 47.544731 
C 260.231096 47.544731 258.563572 48.235442 257.334271 49.464743 
C 256.10497 50.694044 255.414259 52.361568 255.414259 54.100062 
C 255.414259 55.838556 256.10497 57.50608 257.334271 58.735381 
C 258.563572 59.964682 260.231096 60.655393 261.96959 60.655393 
z
" style="fill:#50c46a;"/>
    <path clip-path="url(#pef396eb3e6)" d="M 207.200338 274.232706 
C 209.010009 274.232706 210.745804 273.513716 212.025434 272.234086 
C 213.305065 270.954455 214.024055 269.21866 214.024055 267.408989 
C 214.024055 265.599318 213.305065 263.863523 212.025434 262.583893 
C 210.745804 261.304262 209.010009 260.585272 207.200338 260.585272 
C 205.390667 260.585272 203.654872 261.304262 202.375241 262.583893 
C 201.09561 263.863523 200.376621 265.599318 200.376621 267.408989 
C 200.376621 269.21866 201.09561 270.954455 202.375241 272.234086 
C 203.654872 273.513716 205.390667 274.232706 207.200338 274.232706 
z
" style="fill:#3bbb75;"/>
    <path clip-path="url(#pef396eb3e6)" d="M 80.761308 302.163192 
C 82.687966 302.163192 84.535973 301.397722 85.898326 300.035369 
C 87.26068 298.673016 88.026149 296.825009 88.026149 294.898351 
C 88.026149 292.971693 87.26068 291.123686 85.898326 289.761333 
C 84.535973 288.398979 82.687966 287.63351 80.761308 287.63351 
C 78.83465 287.63351 76.986643 288.398979 75.62429 289.761333 
C 74.261936 291.123686 73.496467 292.971693 73.496467 294.898351 
C 73.496467 296.825009 74.261936 298.673016 75.62429 300.035369 
C 76.986643 301.397722 78.83465 302.163192 80.761308 302.163192 
z
" style="fill:#f4e61e;"/>
    <path clip-path="url(#pef396eb3e6)" d="M 71.18243 259.617055 
C 73.111414 259.617055 74.961651 258.850661 76.325649 257.486664 
C 77.689646 256.122666 78.456039 254.272429 78.456039 252.343446 
C 78.456039 250.414462 77.689646 248.564225 76.325649 247.200228 
C 74.961651 245.83623 73.111414 245.069837 71.18243 245.069837 
C 69.253447 245.069837 67.40321 245.83623 66.039212 247.200228 
C 64.675215 248.564225 63.908822 250.414462 63.908822 252.343446 
C 63.908822 254.272429 64.675215 256.122666 66.039212 257.486664 
C 67.40321 258.850661 69.253447 259.617055 71.18243 259.617055 
z
" style="fill:#277e8e;"/>
    <path clip-path="url(#pef396eb3e6)" d="M 300.347169 86.678976 
C 302.066085 86.678976 303.71483 85.996043 304.930287 84.780586 
C 306.145744 83.565129 306.828677 81.916384 306.828677 80.197468 
C 306.828677 78.478552 306.145744 76.829807 304.930287 75.61435 
C 303.71483 74.398893 302.066085 73.71596 300.347169 73.71596 
C 298.628253 73.71596 296.979508 74.398893 295.764051 75.61435 
C 294.548593 76.829807 293.865661 78.478552 293.865661 80.197468 
C 293.865661 81.916384 294.548593 83.565129 295.764051 84.780586 
C 296.979508 85.996043 298.628253 86.678976 300.347169 86.678976 
z
" style="fill:#20a486;"/>
    <path clip-path="url(#pef396eb3e6)" d="M 316.326953 155.017776 
C 318.050241 155.017776 319.703181 154.333106 320.92173 153.114557 
C 322.140279 151.896008 322.824949 150.243069 322.824949 148.51978 
C 322.824949 146.796492 322.140279 145.143553 320.92173 143.925004 
C 319.703181 142.706455 318.050241 142.021785 316.326953 142.021785 
C 314.603664 142.021785 312.950725 142.706455 311.732176 143.925004 
C 310.513627 145.143553 309.828957 146.796492 309.828957 148.51978 
C 309.828957 150.243069 310.513627 151.896008 311.732176 153.114557 
C 312.950725 154.333106 314.603664 155.017776 316.326953 155.017776 
z
" style="fill:#23888e;"/>
    <path clip-path="url(#pef396eb3e6)" d="M 119.254503 279.882306 
C 121.142042 279.882306 122.952526 279.132379 124.287218 277.797688 
C 125.621909 276.462996 126.371836 274.652512 126.371836 272.764973 
C 126.371836 270.877434 125.621909 269.06695 124.287218 267.732258 
C 122.952526 266.397567 121.142042 265.64764 119.254503 265.64764 
C 117.366964 265.64764 115.55648 266.397567 114.221788 267.732258 
C 112.887097 269.06695 112.137169 270.877434 112.137169 272.764973 
C 112.137169 274.652512 112.887097 276.462996 114.221788 277.797688 
C 115.55648 279.132379 117.366964 279.882306 119.254503 279.882306 
z
" style="fill:#1f9f88;"/>
    <path clip-path="url(#pef396eb3e6)" d="M 102.929993 153.345556 
C 104.810904 153.345556 106.61503 152.598262 107.945035 151.268257 
C 109.27504 149.938253 110.022334 148.134126 110.022334 146.253215 
C 110.022334 144.372304 109.27504 142.568178 107.945035 141.238173 
C 106.61503 139.908168 104.810904 139.160875 102.929993 139.160875 
C 101.049082 139.160875 99.244956 139.908168 97.914951 141.238173 
C 96.584946 142.568178 95.837652 144.372304 95.837652 146.253215 
C 95.837652 148.134126 96.584946 149.938253 97.914951 151.268257 
C 99.244956 152.598262 101.049082 153.345556 102.929993 153.345556 
z
" style="fill:#21a585;"/>
    <path clip-path="url(#pef396eb3e6)" d="M 223.467359 151.034026 
C 225.323789 151.034026 227.104435 150.296458 228.41713 148.983764 
C 229.729824 147.671069 230.467392 145.890424 230.467392 144.033993 
C 230.467392 142.177563 229.729824 140.396917 228.41713 139.084222 
C 227.104435 137.771528 225.323789 137.03396 223.467359 137.03396 
C 221.610929 137.03396 219.830283 137.771528 218.517588 139.084222 
C 217.204894 140.396917 216.467326 142.177563 216.467326 144.033993 
C 216.467326 145.890424 217.204894 147.671069 218.517588 148.983764 
C 219.830283 150.296458 221.610929 151.034026 223.467359 151.034026 
z
" style="fill:#21918c;"/>
    <path clip-path="url(#pef396eb3e6)" d="M 253.320513 128.072335 
C 255.234817 128.072335 257.070974 127.311774 258.424592 125.958156 
C 259.778209 124.604539 260.53877 122.768382 260.53877 120.854077 
C 260.53877 118.939773 259.778209 117.103616 258.424592 115.749999 
C 257.070974 114.396381 255.234817 113.63582 253.320513 113.63582 
C 251.406209 113.63582 249.570052 114.396381 248.216434 115.749999 
C 246.862817 117.103616 246.102256 118.939773 246.102256 120.854077 
C 246.102256 122.768382 246.862817 124.604539 248.216434 125.958156 
C 249.570052 127.311774 251.406209 128.072335 253.320513 128.072335 
z
" style="fill:#fde725;"/>
    <path clip-path="url(#pef396eb3e6)" d="M 211.173506 192.021081 
C 213.005496 192.021081 214.7627 191.293223 216.058113 189.99781 
C 217.353526 188.702397 218.081383 186.945194 218.081383 185.113203 
C 218.081383 183.281213 217.353526 181.524009 216.058113 180.228596 
C 214.7627 178.933183 213.005496 178.205326 211.173506 178.205326 
C 209.341515 178.205326 207.584312 178.933183 206.288899 180.228596 
C 204.993486 181.524009 204.265628 183.281213 204.265628 185.113203 
C 204.265628 186.945194 204.993486 188.702397 206.288899 189.99781 
C 207.584312 191.293223 209.341515 192.021081 211.173506 192.021081 
z
" style="fill:#404688;"/>
    <path clip-path="url(#pef396eb3e6)" d="M 298.423837 189.350931 
C 300.169739 189.350931 301.844368 188.657276 303.078908 187.422737 
C 304.313447 186.188198 305.007101 184.513568 305.007101 182.767666 
C 305.007101 181.021764 304.313447 179.347135 303.078908 178.112595 
C 301.844368 176.878056 300.169739 176.184402 298.423837 176.184402 
C 296.677935 176.184402 295.003305 176.878056 293.768766 178.112595 
C 292.534227 179.347135 291.840573 181.021764 291.840573 182.767666 
C 291.840573 184.513568 292.534227 186.188198 293.768766 187.422737 
C 295.003305 188.657276 296.677935 189.350931 298.423837 189.350931 
z
" style="fill:#25ac82;"/>
    <path clip-path="url(#pef396eb3e6)" d="M 245.917655 252.782976 
C 247.701213 252.782976 249.411961 252.07436 250.673127 250.813194 
C 251.934294 249.552028 252.642909 247.84128 252.642909 246.057721 
C 252.642909 244.274163 251.934294 242.563415 250.673127 241.302249 
C 249.411961 240.041083 247.701213 239.332467 245.917655 239.332467 
C 244.134096 239.332467 242.423348 240.041083 241.162182 241.302249 
C 239.901016 242.563415 239.1924 244.274163 239.1924 246.057721 
C 239.1924 247.84128 239.901016 249.552028 241.162182 250.813194 
C 242.423348 252.07436 244.134096 252.782976 245.917655 252.782976 
z
" style="fill:#48c16e;"/>
    <path clip-path="url(#pef396eb3e6)" d="M 101.86565 116.834755 
C 103.727196 116.834755 105.512748 116.095155 106.82906 114.778844 
C 108.145371 113.462532 108.884971 111.67698 108.884971 109.815435 
C 108.884971 107.953889 108.145371 106.168337 106.82906 104.852025 
C 105.512748 103.535714 103.727196 102.796114 101.86565 102.796114 
C 100.004105 102.796114 98.218553 103.535714 96.902241 104.852025 
C 95.585929 106.168337 94.84633 107.953889 94.84633 109.815435 
C 94.84633 111.67698 95.585929 113.462532 96.902241 114.778844 
C 98.218553 116.095155 100.004105 116.834755 101.86565 116.834755 
z
" style="fill:#287c8e;"/>
    <path clip-path="url(#pef396eb3e6)" d="M 73.324968 220.967214 
C 75.24471 220.967214 77.086084 220.204492 78.443547 218.847029 
C 79.80101 217.489566 80.563732 215.648192 80.563732 213.72845 
C 80.563732 211.808707 79.80101 209.967334 78.443547 208.609871 
C 77.086084 207.252408 75.24471 206.489686 73.324968 206.489686 
C 71.405225 206.489686 69.563852 207.252408 68.206389 208.609871 
C 66.848926 209.967334 66.086204 211.808707 66.086204 213.72845 
C 66.086204 215.648192 66.848926 217.489566 68.206389 218.847029 
C 69.563852 220.204492 71.405225 220.967214 73.324968 220.967214 
z
" style="fill:#69cd5b;"/>
   </g>
   <g id="text_1">
    <!-- Structure #5471, $E_N$=-181.48eV, ΔE=0.25eV -->
    <defs>
     <path d="M 53.515625 70.515625 
L 53.515625 60.890625 
Q 47.90625 63.578125 42.921875 64.890625 
Q 37.9375 66.21875 33.296875 66.21875 
Q 25.25 66.21875 20.875 63.09375 
Q 16.5 59.96875 16.5 54.203125 
Q 16.5 49.359375 19.40625 46.890625 
Q 22.3125 44.4375 30.421875 42.921875 
L 36.375 41.703125 
Q 47.40625 39.59375 52.65625 34.296875 
Q 57.90625 29 57.90625 20.125 
Q 57.90625 9.515625 50.796875 4.046875 
Q 43.703125 -1.421875 29.984375 -1.421875 
Q 24.8125 -1.421875 18.96875 -0.25 
Q 13.140625 0.921875 6.890625 3.21875 
L 6.890625 13.375 
Q 12.890625 10.015625 18.65625 8.296875 
Q 24.421875 6.59375 29.984375 6.59375 
Q 38.421875 6.59375 43.015625 9.90625 
Q 47.609375 13.234375 47.609375 19.390625 
Q 47.609375 24.75 44.3125 27.78125 
Q 41.015625 30.8125 33.5 32.328125 
L 27.484375 33.5 
Q 16.453125 35.6875 11.515625 40.375 
Q 6.59375 45.0625 6.59375 53.421875 
Q 6.59375 63.09375 13.40625 68.65625 
Q 20.21875 74.21875 32.171875 74.21875 
Q 37.3125 74.21875 42.625 73.28125 
Q 47.953125 72.359375 53.515625 70.515625 
z
" id="DejaVuSans-53"/>
     <path d="M 18.3125 70.21875 
L 18.3125 54.6875 
L 36.8125 54.6875 
L 36.8125 47.703125 
L 18.3125 47.703125 
L 18.3125 18.015625 
Q 18.3125 11.328125 20.140625 9.421875 
Q 21.96875 7.515625 27.59375 7.515625 
L 36.8125 7.515625 
L 36.8125 0 
L 27.59375 0 
Q 17.1875 0 13.234375 3.875 
Q 9.28125 7.765625 9.28125 18.015625 
L 9.28125 47.703125 
L 2.6875 47.703125 
L 2.6875 54.6875 
L 9.28125 54.6875 
L 9.28125 70.21875 
z
" id="DejaVuSans-74"/>
     <path d="M 41.109375 46.296875 
Q 39.59375 47.171875 37.8125 47.578125 
Q 36.03125 48 33.890625 48 
Q 26.265625 48 22.1875 43.046875 
Q 18.109375 38.09375 18.109375 28.8125 
L 18.109375 0 
L 9.078125 0 
L 9.078125 54.6875 
L 18.109375 54.6875 
L 18.109375 46.1875 
Q 20.953125 51.171875 25.484375 53.578125 
Q 30.03125 56 36.53125 56 
Q 37.453125 56 38.578125 55.875 
Q 39.703125 55.765625 41.0625 55.515625 
z
" id="DejaVuSans-72"/>
     <path d="M 8.5 21.578125 
L 8.5 54.6875 
L 17.484375 54.6875 
L 17.484375 21.921875 
Q 17.484375 14.15625 20.5 10.265625 
Q 23.53125 6.390625 29.59375 6.390625 
Q 36.859375 6.390625 41.078125 11.03125 
Q 45.3125 15.671875 45.3125 23.6875 
L 45.3125 54.6875 
L 54.296875 54.6875 
L 54.296875 0 
L 45.3125 0 
L 45.3125 8.40625 
Q 42.046875 3.421875 37.71875 1 
Q 33.40625 -1.421875 27.6875 -1.421875 
Q 18.265625 -1.421875 13.375 4.4375 
Q 8.5 10.296875 8.5 21.578125 
z
M 31.109375 56 
z
" id="DejaVuSans-75"/>
     <path d="M 48.78125 52.59375 
L 48.78125 44.1875 
Q 44.96875 46.296875 41.140625 47.34375 
Q 37.3125 48.390625 33.40625 48.390625 
Q 24.65625 48.390625 19.8125 42.84375 
Q 14.984375 37.3125 14.984375 27.296875 
Q 14.984375 17.28125 19.8125 11.734375 
Q 24.65625 6.203125 33.40625 6.203125 
Q 37.3125 6.203125 41.140625 7.25 
Q 44.96875 8.296875 48.78125 10.40625 
L 48.78125 2.09375 
Q 45.015625 0.34375 40.984375 -0.53125 
Q 36.96875 -1.421875 32.421875 -1.421875 
Q 20.0625 -1.421875 12.78125 6.34375 
Q 5.515625 14.109375 5.515625 27.296875 
Q 5.515625 40.671875 12.859375 48.328125 
Q 20.21875 56 33.015625 56 
Q 37.15625 56 41.109375 55.140625 
Q 45.0625 54.296875 48.78125 52.59375 
z
" id="DejaVuSans-63"/>
     <path d="M 56.203125 29.59375 
L 56.203125 25.203125 
L 14.890625 25.203125 
Q 15.484375 15.921875 20.484375 11.0625 
Q 25.484375 6.203125 34.421875 6.203125 
Q 39.59375 6.203125 44.453125 7.46875 
Q 49.3125 8.734375 54.109375 11.28125 
L 54.109375 2.78125 
Q 49.265625 0.734375 44.1875 -0.34375 
Q 39.109375 -1.421875 33.890625 -1.421875 
Q 20.796875 -1.421875 13.15625 6.1875 
Q 5.515625 13.8125 5.515625 26.8125 
Q 5.515625 40.234375 12.765625 48.109375 
Q 20.015625 56 32.328125 56 
Q 43.359375 56 49.78125 48.890625 
Q 56.203125 41.796875 56.203125 29.59375 
z
M 47.21875 32.234375 
Q 47.125 39.59375 43.09375 43.984375 
Q 39.0625 48.390625 32.421875 48.390625 
Q 24.90625 48.390625 20.390625 44.140625 
Q 15.875 39.890625 15.1875 32.171875 
z
" id="DejaVuSans-65"/>
     <path id="DejaVuSans-20"/>
     <path d="M 51.125 44 
L 36.921875 44 
L 32.8125 27.6875 
L 47.125 27.6875 
z
M 43.796875 71.78125 
L 38.71875 51.515625 
L 52.984375 51.515625 
L 58.109375 71.78125 
L 65.921875 71.78125 
L 60.890625 51.515625 
L 76.125 51.515625 
L 76.125 44 
L 58.984375 44 
L 54.984375 27.6875 
L 70.515625 27.6875 
L 70.515625 20.21875 
L 53.078125 20.21875 
L 48 0 
L 40.1875 0 
L 45.21875 20.21875 
L 30.90625 20.21875 
L 25.875 0 
L 18.015625 0 
L 23.09375 20.21875 
L 7.71875 20.21875 
L 7.71875 27.6875 
L 24.90625 27.6875 
L 29 44 
L 13.28125 44 
L 13.28125 51.515625 
L 30.90625 51.515625 
L 35.890625 71.78125 
z
" id="DejaVuSans-23"/>
     <path d="M 10.796875 72.90625 
L 49.515625 72.90625 
L 49.515625 64.59375 
L 19.828125 64.59375 
L 19.828125 46.734375 
Q 21.96875 47.46875 24.109375 47.828125 
Q 26.265625 48.1875 28.421875 48.1875 
Q 40.625 48.1875 47.75 41.5 
Q 54.890625 34.8125 54.890625 23.390625 
Q 54.890625 11.625 47.5625 5.09375 
Q 40.234375 -1.421875 26.90625 -1.421875 
Q 22.3125 -1.421875 17.546875 -0.640625 
Q 12.796875 0.140625 7.71875 1.703125 
L 7.71875 11.625 
Q 12.109375 9.234375 16.796875 8.0625 
Q 21.484375 6.890625 26.703125 6.890625 
Q 35.15625 6.890625 40.078125 11.328125 
Q 45.015625 15.765625 45.015625 23.390625 
Q 45.015625 31 40.078125 35.4375 
Q 35.15625 39.890625 26.703125 39.890625 
Q 22.75 39.890625 18.8125 39.015625 
Q 14.890625 38.140625 10.796875 36.28125 
z
" id="DejaVuSans-35"/>
     <path d="M 37.796875 64.3125 
L 12.890625 25.390625 
L 37.796875 25.390625 
z
M 35.203125 72.90625 
L 47.609375 72.90625 
L 47.609375 25.390625 
L 58.015625 25.390625 
L 58.015625 17.1875 
L 47.609375 17.1875 
L 47.609375 0 
L 37.796875 0 
L 37.796875 17.1875 
L 4.890625 17.1875 
L 4.890625 26.703125 
z
" id="DejaVuSans-34"/>
     <path d="M 8.203125 72.90625 
L 55.078125 72.90625 
L 55.078125 68.703125 
L 28.609375 0 
L 18.3125 0 
L 43.21875 64.59375 
L 8.203125 64.59375 
z
" id="DejaVuSans-37"/>
     <path d="M 12.40625 8.296875 
L 28.515625 8.296875 
L 28.515625 63.921875 
L 10.984375 60.40625 
L 10.984375 69.390625 
L 28.421875 72.90625 
L 38.28125 72.90625 
L 38.28125 8.296875 
L 54.390625 8.296875 
L 54.390625 0 
L 12.40625 0 
z
" id="DejaVuSans-31"/>
     <path d="M 11.71875 12.40625 
L 22.015625 12.40625 
L 22.015625 4 
L 14.015625 -11.625 
L 7.71875 -11.625 
L 11.71875 4 
z
" id="DejaVuSans-2c"/>
     <path d="M 16.890625 72.90625 
L 62.984375 72.90625 
L 61.375 64.59375 
L 25.09375 64.59375 
L 20.90625 43.015625 
L 55.71875 43.015625 
L 54.109375 34.71875 
L 19.28125 34.71875 
L 14.203125 8.296875 
L 51.3125 8.296875 
L 49.703125 0 
L 2.6875 0 
z
" id="DejaVuSans-Oblique-45"/>
     <path d="M 16.890625 72.90625 
L 30.171875 72.90625 
L 50.296875 10.40625 
L 62.5 72.90625 
L 72.125 72.90625 
L 57.90625 0 
L 44.578125 0 
L 24.515625 62.890625 
L 12.3125 0 
L 2.6875 0 
z
" id="DejaVuSans-Oblique-4e"/>
     <path d="M 10.59375 45.40625 
L 73.1875 45.40625 
L 73.1875 37.203125 
L 10.59375 37.203125 
z
M 10.59375 25.484375 
L 73.1875 25.484375 
L 73.1875 17.1875 
L 10.59375 17.1875 
z
" id="DejaVuSans-3d"/>
     <path d="M 4.890625 31.390625 
L 31.203125 31.390625 
L 31.203125 23.390625 
L 4.890625 23.390625 
z
" id="DejaVuSans-2d"/>
     <path d="M 31.78125 34.625 
Q 24.75 34.625 20.71875 30.859375 
Q 16.703125 27.09375 16.703125 20.515625 
Q 16.703125 13.921875 20.71875 10.15625 
Q 24.75 6.390625 31.78125 6.390625 
Q 38.8125 6.390625 42.859375 10.171875 
Q 46.921875 13.96875 46.921875 20.515625 
Q 46.921875 27.09375 42.890625 30.859375 
Q 38.875 34.625 31.78125 34.625 
z
M 21.921875 38.8125 
Q 15.578125 40.375 12.03125 44.71875 
Q 8.5 49.078125 8.5 55.328125 
Q 8.5 64.0625 14.71875 69.140625 
Q 20.953125 74.21875 31.78125 74.21875 
Q 42.671875 74.21875 48.875 69.140625 
Q 55.078125 64.0625 55.078125 55.328125 
Q 55.078125 49.078125 51.53125 44.71875 
Q 48 40.375 41.703125 38.8125 
Q 48.828125 37.15625 52.796875 32.3125 
Q 56.78125 27.484375 56.78125 20.515625 
Q 56.78125 9.90625 50.3125 4.234375 
Q 43.84375 -1.421875 31.78125 -1.421875 
Q 19.734375 -1.421875 13.25 4.234375 
Q 6.78125 9.90625 6.78125 20.515625 
Q 6.78125 27.484375 10.78125 32.3125 
Q 14.796875 37.15625 21.921875 38.8125 
z
M 18.3125 54.390625 
Q 18.3125 48.734375 21.84375 45.5625 
Q 25.390625 42.390625 31.78125 42.390625 
Q 38.140625 42.390625 41.71875 45.5625 
Q 45.3125 48.734375 45.3125 54.390625 
Q 45.3125 60.0625 41.71875 63.234375 
Q 38.140625 66.40625 31.78125 66.40625 
Q 25.390625 66.40625 21.84375 63.234375 
Q 18.3125 60.0625 18.3125 54.390625 
z
" id="DejaVuSans-38"/>
     <path d="M 10.6875 12.40625 
L 21 12.40625 
L 21 0 
L 10.6875 0 
z
" id="DejaVuSans-2e"/>
     <path d="M 28.609375 0 
L 0.78125 72.90625 
L 11.078125 72.90625 
L 34.1875 11.53125 
L 57.328125 72.90625 
L 67.578125 72.90625 
L 39.796875 0 
z
" id="DejaVuSans-56"/>
     <path d="M 34.1875 63.1875 
L 14.15625 8.203125 
L 54.25 8.203125 
z
M 0.78125 0 
L 28.609375 72.90625 
L 39.796875 72.90625 
L 67.578125 0 
z
" id="DejaVuSans-394"/>
     <path d="M 9.8125 72.90625 
L 55.90625 72.90625 
L 55.90625 64.59375 
L 19.671875 64.59375 
L 19.671875 43.015625 
L 54.390625 43.015625 
L 54.390625 34.71875 
L 19.671875 34.71875 
L 19.671875 8.296875 
L 56.78125 8.296875 
L 56.78125 0 
L 9.8125 0 
z
" id="DejaVuSans-45"/>
     <path d="M 31.78125 66.40625 
Q 24.171875 66.40625 20.328125 58.90625 
Q 16.5 51.421875 16.5 36.375 
Q 16.5 21.390625 20.328125 13.890625 
Q 24.171875 6.390625 31.78125 6.390625 
Q 39.453125 6.390625 43.28125 13.890625 
Q 47.125 21.390625 47.125 36.375 
Q 47.125 51.421875 43.28125 58.90625 
Q 39.453125 66.40625 31.78125 66.40625 
z
M 31.78125 74.21875 
Q 44.046875 74.21875 50.515625 64.515625 
Q 56.984375 54.828125 56.984375 36.375 
Q 56.984375 17.96875 50.515625 8.265625 
Q 44.046875 -1.421875 31.78125 -1.421875 
Q 19.53125 -1.421875 13.0625 8.265625 
Q 6.59375 17.96875 6.59375 36.375 
Q 6.59375 54.828125 13.0625 64.515625 
Q 19.53125 74.21875 31.78125 74.21875 
z
" id="DejaVuSans-30"/>
     <path d="M 19.1875 8.296875 
L 53.609375 8.296875 
L 53.609375 0 
L 7.328125 0 
L 7.328125 8.296875 
Q 12.9375 14.109375 22.625 23.890625 
Q 32.328125 33.6875 34.8125 36.53125 
Q 39.546875 41.84375 41.421875 45.53125 
Q 43.3125 49.21875 43.3125 52.78125 
Q 43.3125 58.59375 39.234375 62.25 
Q 35.15625 65.921875 28.609375 65.921875 
Q 23.96875 65.921875 18.8125 64.3125 
Q 13.671875 62.703125 7.8125 59.421875 
L 7.8125 69.390625 
Q 13.765625 71.78125 18.9375 73 
Q 24.125 74.21875 28.421875 74.21875 
Q 39.75 74.21875 46.484375 68.546875 
Q 53.21875 62.890625 53.21875 53.421875 
Q 53.21875 48.921875 51.53125 44.890625 
Q 49.859375 40.875 45.40625 35.40625 
Q 44.1875 33.984375 37.640625 27.21875 
Q 31.109375 20.453125 19.1875 8.296875 
z
" id="DejaVuSans-32"/>
    </defs>
    <g transform="translate(65.388 35.472)scale(0.12 -0.12)">
     <use transform="translate(0 0.78125)" xlink:href="#DejaVuSans-53"/>
     <use transform="translate(63.476562 0.78125)" xlink:href="#DejaVuSans-74"/>
     <use transform="translate(102.685547 0.78125)" xlink:href="#DejaVuSans-72"/>
     <use transform="translate(143.798828 0.78125)" xlink:href="#DejaVuSans-75"/>
     <use transform="translate(207.177734 0.78125)" xlink:href="#DejaVuSans-63"/>
     <use transform="translate(262.158203 0.78125)" xlink:href="#DejaVuSans-74"/>
     <use transform="translate(301.367188 0.78125)" xlink:href="#DejaVuSans-75"/>
     <use transform="translate(364.746094 0.78125)" xlink:href="#DejaVuSans-72"/>
     <use transform="translate(405.859375 0.78125)" xlink:href="#DejaVuSans-65"/>
     <use transform="translate(467.382812 0.78125)" xlink:href="#DejaVuSans-20"/>
     <use transform="translate(499.169922 0.78125)" xlink:href="#DejaVuSans-23"/>
     <use transform="translate(582.958984 0.78125)" xlink:href="#DejaVuSans-35"/>
     <use transform="translate(646.582031 0.78125)" xlink:href="#DejaVuSans-34"/>
     <use transform="translate(710.205078 0.78125)" xlink:href="#DejaVuSans-37"/>
     <use transform="translate(773.828125 0.78125)" xlink:href="#DejaVuSans-31"/>
     <use transform="translate(837.451172 0.78125)" xlink:href="#DejaVuSans-2c"/>
     <use transform="translate(869.238281 0.78125)" xlink:href="#DejaVuSans-20"/>
     <use transform="translate(901.025391 0.78125)" xlink:href="#DejaVuSans-Oblique-45"/>
     <use transform="translate(964.208984 -15.625)scale(0.7)" xlink:href="#DejaVuSans-Oblique-4e"/>
     <use transform="translate(1019.306641 0.78125)" xlink:href="#DejaVuSans-3d"/>
     <use transform="translate(1103.095703 0.78125)" xlink:href="#DejaVuSans-2d"/>
     <use transform="translate(1139.179688 0.78125)" xlink:href="#DejaVuSans-31"/>
     <use transform="translate(1202.802734 0.78125)" xlink:href="#DejaVuSans-38"/>
     <use transform="translate(1266.425781 0.78125)" xlink:href="#DejaVuSans-31"/>
     <use transform="translate(1330.048828 0.78125)" xlink:href="#DejaVuSans-2e"/>
     <use transform="translate(1361.835938 0.78125)" xlink:href="#DejaVuSans-34"/>
     <use transform="translate(1425.458984 0.78125)" xlink:href="#DejaVuSans-38"/>
     <use transform="translate(1489.082031 0.78125)" xlink:href="#DejaVuSans-65"/>
     <use transform="translate(1550.605469 0.78125)" xlink:href="#DejaVuSans-56"/>
     <use transform="translate(1619.013672 0.78125)" xlink:href="#DejaVuSans-2c"/>
     <use transform="translate(1650.800781 0.78125)" xlink:href="#DejaVuSans-20"/>
     <use transform="translate(1682.587891 0.78125)" xlink:href="#DejaVuSans-394"/>
     <use transform="translate(1750.996094 0.78125)" xlink:href="#DejaVuSans-45"/>
     <use transform="translate(1814.179688 0.78125)" xlink:href="#DejaVuSans-3d"/>
     <use transform="translate(1897.96875 0.78125)" xlink:href="#DejaVuSans-30"/>
     <use transform="translate(1961.591797 0.78125)" xlink:href="#DejaVuSans-2e"/>
     <use transform="translate(1993.300781 0.78125)" xlink:href="#DejaVuSans-32"/>
     <use transform="translate(2056.923828 0.78125)" xlink:href="#DejaVuSans-35"/>
     <use transform="translate(2120.546875 0.78125)" xlink:href="#DejaVuSans-65"/>
     <use transform="translate(2182.070312 0.78125)" xlink:href="#DejaVuSans-56"/>
    </g>
   </g>
  </g>
  <g id="axes_2">
   <g id="patch_2">
    <path clip-path="url(#p3b67cbec3d)" d="M 361.152 307.584 
L 361.152 306.5445 
L 361.152 42.5115 
L 361.152 41.472 
L 374.4576 41.472 
L 374.4576 42.5115 
L 374.4576 306.5445 
L 374.4576 307.584 
z
" style="fill:#ffffff;stroke:#ffffff;stroke-linejoin:miter;stroke-width:0.01;"/>
   </g>
   <image height="265.68" id="image2a47f56ac5" transform="scale(1 -1)translate(0 -265.68)" width="12.96" x="361.44" xlink:href="data:image/png;base64,
iVBORw0KGgoAAAANSUhEUgAAABIAAAFxCAYAAAB+2fgXAAAABHNCSVQICAgIfAhkiAAAAeVJREFUeJztncmNw0AQA2ckheYQNv9QLIfQ8ygsCgQ7AEI8+jAs2Puz/94F1LP2ReCsZ18bAWIeZ5XaGRBE7VnbptG+KI101FYyNSiQG2oRITXKNaX9uclOdi2XWjftVE32CZCO2ou5Bj1TcCBr/1zB9ge7Fq0Rg2NM9pvbtG+ua1QgsRYhDy0ISEiNc40BEibbSI0Coj5CBGtkpFbXJiAjNZlrwhuSOv2M1DjXbEdEciBt1JSDDQKKpmZr2rr2j0DBGpXaWEJq3bQzEPIS26r9J+Wzv9Tm8o3aajRXqc3VUXsApKNWjeZq0x4ABVNbm7lrszVigDqP5vIl2+eaT2yfRkL7g+dRcNPqjohkjaCvRVBq0H2U3LQrOJCx9kdTg4B8oxZzzTdqdYHEngjUCAPyUctN9sVRq2sTECW2UKNLd2jVtRmo1A6AhMmWaSRcR8nUdIHUuVb75zJS218EyEitro1At69pIdeSk30Lkw0FktNImGyZRhy1O5galmxd03LUsHWk06jUZiCq+5Wb1kZNN4+wJxJuWt8RAW5am2sYNZ9rYCBzZ3buPKJ2P5Yj4Toy3keyIyJbIxs1rml1byCA84gpch5RQNB7Q0qNMGq2Hy4BXdNR41yz/cEEJfZzUz96r9PoB0okjeQ8y9TkAAAAAElFTkSuQmCC" y="-41.76"/>
   <g id="matplotlib.axis_1"/>
   <g id="matplotlib.axis_2">
    <g id="ytick_1">
     <g id="line2d_1">
      <defs>
       <path d="M 0 0 
L 3.5 0 
" id="mf997144c64" style="stroke:#000000;stroke-width:0.8;"/>
      </defs>
      <g>
       <use style="stroke:#000000;stroke-width:0.8;" x="374.4576" xlink:href="#mf997144c64" y="263.050753"/>
      </g>
     </g>
     <g id="text_2">
      <!-- −8.5 -->
      <defs>
       <path d="M 10.59375 35.5 
L 73.1875 35.5 
L 73.1875 27.203125 
L 10.59375 27.203125 
z
" id="DejaVuSans-2212"/>
      </defs>
      <g transform="translate(381.4576 266.849972)scale(0.1 -0.1)">
       <use xlink:href="#DejaVuSans-2212"/>
       <use x="83.789062" xlink:href="#DejaVuSans-38"/>
       <use x="147.412109" xlink:href="#DejaVuSans-2e"/>
       <use x="179.199219" xlink:href="#DejaVuSans-35"/>
      </g>
     </g>
    </g>
    <g id="ytick_2">
     <g id="line2d_2">
      <g>
       <use style="stroke:#000000;stroke-width:0.8;" x="374.4576" xlink:href="#mf997144c64" y="216.71935"/>
      </g>
     </g>
     <g id="text_3">
      <!-- −8.0 -->
      <g transform="translate(381.4576 220.518569)scale(0.1 -0.1)">
       <use xlink:href="#DejaVuSans-2212"/>
       <use x="83.789062" xlink:href="#DejaVuSans-38"/>
       <use x="147.412109" xlink:href="#DejaVuSans-2e"/>
       <use x="179.199219" xlink:href="#DejaVuSans-30"/>
      </g>
     </g>
    </g>
    <g id="ytick_3">
     <g id="line2d_3">
      <g>
       <use style="stroke:#000000;stroke-width:0.8;" x="374.4576" xlink:href="#mf997144c64" y="170.387947"/>
      </g>
     </g>
     <g id="text_4">
      <!-- −7.5 -->
      <g transform="translate(381.4576 174.187166)scale(0.1 -0.1)">
       <use xlink:href="#DejaVuSans-2212"/>
       <use x="83.789062" xlink:href="#DejaVuSans-37"/>
       <use x="147.412109" xlink:href="#DejaVuSans-2e"/>
       <use x="179.199219" xlink:href="#DejaVuSans-35"/>
      </g>
     </g>
    </g>
    <g id="ytick_4">
     <g id="line2d_4">
      <g>
       <use style="stroke:#000000;stroke-width:0.8;" x="374.4576" xlink:href="#mf997144c64" y="124.056545"/>
      </g>
     </g>
     <g id="text_5">
      <!-- −7.0 -->
      <g transform="translate(381.4576 127.855763)scale(0.1 -0.1)">
       <use xlink:href="#DejaVuSans-2212"/>
       <use x="83.789062" xlink:href="#DejaVuSans-37"/>
       <use x="147.412109" xlink:href="#DejaVuSans-2e"/>
       <use x="179.199219" xlink:href="#DejaVuSans-30"/>
      </g>
     </g>
    </g>
    <g id="ytick_5">
     <g id="line2d_5">
      <g>
       <use style="stroke:#000000;stroke-width:0.8;" x="374.4576" xlink:href="#mf997144c64" y="77.725142"/>
      </g>
     </g>
     <g id="text_6">
      <!-- −6.5 -->
      <defs>
       <path d="M 33.015625 40.375 
Q 26.375 40.375 22.484375 35.828125 
Q 18.609375 31.296875 18.609375 23.390625 
Q 18.609375 15.53125 22.484375 10.953125 
Q 26.375 6.390625 33.015625 6.390625 
Q 39.65625 6.390625 43.53125 10.953125 
Q 47.40625 15.53125 47.40625 23.390625 
Q 47.40625 31.296875 43.53125 35.828125 
Q 39.65625 40.375 33.015625 40.375 
z
M 52.59375 71.296875 
L 52.59375 62.3125 
Q 48.875 64.0625 45.09375 64.984375 
Q 41.3125 65.921875 37.59375 65.921875 
Q 27.828125 65.921875 22.671875 59.328125 
Q 17.53125 52.734375 16.796875 39.40625 
Q 19.671875 43.65625 24.015625 45.921875 
Q 28.375 48.1875 33.59375 48.1875 
Q 44.578125 48.1875 50.953125 41.515625 
Q 57.328125 34.859375 57.328125 23.390625 
Q 57.328125 12.15625 50.6875 5.359375 
Q 44.046875 -1.421875 33.015625 -1.421875 
Q 20.359375 -1.421875 13.671875 8.265625 
Q 6.984375 17.96875 6.984375 36.375 
Q 6.984375 53.65625 15.1875 63.9375 
Q 23.390625 74.21875 37.203125 74.21875 
Q 40.921875 74.21875 44.703125 73.484375 
Q 48.484375 72.75 52.59375 71.296875 
z
" id="DejaVuSans-36"/>
      </defs>
      <g transform="translate(381.4576 81.524361)scale(0.1 -0.1)">
       <use xlink:href="#DejaVuSans-2212"/>
       <use x="83.789062" xlink:href="#DejaVuSans-36"/>
       <use x="147.412109" xlink:href="#DejaVuSans-2e"/>
       <use x="179.199219" xlink:href="#DejaVuSans-35"/>
      </g>
     </g>
    </g>
    <g id="text_7">
     <!-- Energy [eV] -->
     <defs>
      <path d="M 54.890625 33.015625 
L 54.890625 0 
L 45.90625 0 
L 45.90625 32.71875 
Q 45.90625 40.484375 42.875 44.328125 
Q 39.84375 48.1875 33.796875 48.1875 
Q 26.515625 48.1875 22.3125 43.546875 
Q 18.109375 38.921875 18.109375 30.90625 
L 18.109375 0 
L 9.078125 0 
L 9.078125 54.6875 
L 18.109375 54.6875 
L 18.109375 46.1875 
Q 21.34375 51.125 25.703125 53.5625 
Q 30.078125 56 35.796875 56 
Q 45.21875 56 50.046875 50.171875 
Q 54.890625 44.34375 54.890625 33.015625 
z
" id="DejaVuSans-6e"/>
      <path d="M 45.40625 27.984375 
Q 45.40625 37.75 41.375 43.109375 
Q 37.359375 48.484375 30.078125 48.484375 
Q 22.859375 48.484375 18.828125 43.109375 
Q 14.796875 37.75 14.796875 27.984375 
Q 14.796875 18.265625 18.828125 12.890625 
Q 22.859375 7.515625 30.078125 7.515625 
Q 37.359375 7.515625 41.375 12.890625 
Q 45.40625 18.265625 45.40625 27.984375 
z
M 54.390625 6.78125 
Q 54.390625 -7.171875 48.1875 -13.984375 
Q 42 -20.796875 29.203125 -20.796875 
Q 24.46875 -20.796875 20.265625 -20.09375 
Q 16.0625 -19.390625 12.109375 -17.921875 
L 12.109375 -9.1875 
Q 16.0625 -11.328125 19.921875 -12.34375 
Q 23.78125 -13.375 27.78125 -13.375 
Q 36.625 -13.375 41.015625 -8.765625 
Q 45.40625 -4.15625 45.40625 5.171875 
L 45.40625 9.625 
Q 42.625 4.78125 38.28125 2.390625 
Q 33.9375 0 27.875 0 
Q 17.828125 0 11.671875 7.65625 
Q 5.515625 15.328125 5.515625 27.984375 
Q 5.515625 40.671875 11.671875 48.328125 
Q 17.828125 56 27.875 56 
Q 33.9375 56 38.28125 53.609375 
Q 42.625 51.21875 45.40625 46.390625 
L 45.40625 54.6875 
L 54.390625 54.6875 
z
" id="DejaVuSans-67"/>
      <path d="M 32.171875 -5.078125 
Q 28.375 -14.84375 24.75 -17.8125 
Q 21.140625 -20.796875 15.09375 -20.796875 
L 7.90625 -20.796875 
L 7.90625 -13.28125 
L 13.1875 -13.28125 
Q 16.890625 -13.28125 18.9375 -11.515625 
Q 21 -9.765625 23.484375 -3.21875 
L 25.09375 0.875 
L 2.984375 54.6875 
L 12.5 54.6875 
L 29.59375 11.921875 
L 46.6875 54.6875 
L 56.203125 54.6875 
z
" id="DejaVuSans-79"/>
      <path d="M 8.59375 75.984375 
L 29.296875 75.984375 
L 29.296875 69 
L 17.578125 69 
L 17.578125 -6.203125 
L 29.296875 -6.203125 
L 29.296875 -13.1875 
L 8.59375 -13.1875 
z
" id="DejaVuSans-5b"/>
      <path d="M 30.421875 75.984375 
L 30.421875 -13.1875 
L 9.71875 -13.1875 
L 9.71875 -6.203125 
L 21.390625 -6.203125 
L 21.390625 69 
L 9.71875 69 
L 9.71875 75.984375 
z
" id="DejaVuSans-5d"/>
     </defs>
     <g transform="translate(417.33885 204.108469)rotate(-90)scale(0.1 -0.1)">
      <use xlink:href="#DejaVuSans-45"/>
      <use x="63.183594" xlink:href="#DejaVuSans-6e"/>
      <use x="126.5625" xlink:href="#DejaVuSans-65"/>
      <use x="188.085938" xlink:href="#DejaVuSans-72"/>
      <use x="229.183594" xlink:href="#DejaVuSans-67"/>
      <use x="292.660156" xlink:href="#DejaVuSans-79"/>
      <use x="351.839844" xlink:href="#DejaVuSans-20"/>
      <use x="383.626953" xlink:href="#DejaVuSans-5b"/>
      <use x="422.640625" xlink:href="#DejaVuSans-65"/>
      <use x="484.164062" xlink:href="#DejaVuSans-56"/>
      <use x="552.572266" xlink:href="#DejaVuSans-5d"/>
     </g>
    </g>
   </g>
   <g id="patch_3">
    <path d="M 361.152 307.584 
L 361.152 306.5445 
L 361.152 42.5115 
L 361.152 41.472 
L 374.4576 41.472 
L 374.4576 42.5115 
L 374.4576 306.5445 
L 374.4576 307.584 
z
" style="fill:none;stroke:#000000;stroke-linejoin:miter;stroke-width:0.8;"/>
   </g>
  </g>
 </g>
 <defs>
  <clipPath id="pef396eb3e6">
   <rect height="266.112" width="285.696" x="57.6" y="41.472"/>
  </clipPath>
  <clipPath id="p3b67cbec3d">
   <rect height="266.112" width="13.3056" x="361.152" y="41.472"/>
  </clipPath>
 </defs>
</svg>
