<?xml version="1.0" encoding="utf-8" standalone="no"?>
<!DOCTYPE svg PUBLIC "-//W3C//DTD SVG 1.1//EN"
  "http://www.w3.org/Graphics/SVG/1.1/DTD/svg11.dtd">
<!-- Created with matplotlib (http://matplotlib.org/) -->
<svg height="345.6pt" version="1.1" viewBox="0 0 460.8 345.6" width="460.8pt" xmlns="http://www.w3.org/2000/svg" xmlns:xlink="http://www.w3.org/1999/xlink">
 <defs>
  <style type="text/css">
*{stroke-linecap:butt;stroke-linejoin:round;}
  </style>
 </defs>
 <g id="figure_1">
  <g id="patch_1">
   <path d="M 0 345.6 
L 460.8 345.6 
L 460.8 0 
L 0 0 
z
" style="fill:#ffffff;"/>
  </g>
  <g id="axes_1">
   <g id="CircleCollection_1">
    <path clip-path="url(#p2c713759a9)" d="M 239.249047 301.650742 
C 241.004384 301.650742 242.688064 300.953339 243.929275 299.712128 
C 245.170486 298.470917 245.867888 296.787237 245.867888 295.0319 
C 245.867888 293.276563 245.170486 291.592883 243.929275 290.351672 
C 242.688064 289.110461 241.004384 288.413059 239.249047 288.413059 
C 237.49371 288.413059 235.81003 289.110461 234.568819 290.351672 
C 233.327608 291.592883 232.630205 293.276563 232.630205 295.0319 
C 232.630205 296.787237 233.327608 298.470917 234.568819 299.712128 
C 235.81003 300.953339 237.49371 301.650742 239.249047 301.650742 
z
" style="fill:#4cc26c;"/>
    <path clip-path="url(#p2c713759a9)" d="M 256.023274 60.717174 
C 257.797029 60.717174 259.498374 60.012454 260.752609 58.75822 
C 262.006843 57.503986 262.711563 55.80264 262.711563 54.028885 
C 262.711563 52.255131 262.006843 50.553785 260.752609 49.299551 
C 259.498374 48.045317 257.797029 47.340597 256.023274 47.340597 
C 254.249519 47.340597 252.548174 48.045317 251.29394 49.299551 
C 250.039705 50.553785 249.334985 52.255131 249.334985 54.028885 
C 249.334985 55.80264 250.039705 57.503986 251.29394 58.75822 
C 252.548174 60.012454 254.249519 60.717174 256.023274 60.717174 
z
" style="fill:#f8e621;"/>
    <path clip-path="url(#p2c713759a9)" d="M 147.444673 246.588688 
C 149.214179 246.588688 150.911449 245.885656 152.162679 244.634426 
C 153.413908 243.383197 154.116941 241.685927 154.116941 239.916421 
C 154.116941 238.146915 153.413908 236.449645 152.162679 235.198415 
C 150.911449 233.947186 149.214179 233.244153 147.444673 233.244153 
C 145.675167 233.244153 143.977897 233.947186 142.726668 235.198415 
C 141.475438 236.449645 140.772406 238.146915 140.772406 239.916421 
C 140.772406 241.685927 141.475438 243.383197 142.726668 244.634426 
C 143.977897 245.885656 145.675167 246.588688 147.444673 246.588688 
z
" style="fill:#218f8d;"/>
    <path clip-path="url(#p2c713759a9)" d="M 96.94368 160.640689 
C 98.724595 160.640689 100.432807 159.933125 101.692104 158.673828 
C 102.9514 157.414531 103.658965 155.706319 103.658965 153.925405 
C 103.658965 152.14449 102.9514 150.436278 101.692104 149.176981 
C 100.432807 147.917685 98.724595 147.21012 96.94368 147.21012 
C 95.162766 147.21012 93.454553 147.917685 92.195257 149.176981 
C 90.93596 150.436278 90.228395 152.14449 90.228395 153.925405 
C 90.228395 155.706319 90.93596 157.414531 92.195257 158.673828 
C 93.454553 159.933125 95.162766 160.640689 96.94368 160.640689 
z
" style="fill:#297b8e;"/>
    <path clip-path="url(#p2c713759a9)" d="M 298.505521 239.67482 
C 300.279044 239.67482 301.980167 238.970192 303.234238 237.716122 
C 304.488308 236.462051 305.192936 234.760928 305.192936 232.987405 
C 305.192936 231.213881 304.488308 229.512758 303.234238 228.258688 
C 301.980167 227.004618 300.279044 226.299989 298.505521 226.299989 
C 296.731998 226.299989 295.030874 227.004618 293.776804 228.258688 
C 292.522734 229.512758 291.818105 231.213881 291.818105 232.987405 
C 291.818105 234.760928 292.522734 236.462051 293.776804 237.716122 
C 295.030874 238.970192 296.731998 239.67482 298.505521 239.67482 
z
" style="fill:#482979;"/>
    <path clip-path="url(#p2c713759a9)" d="M 309.560679 145.308663 
C 311.319176 145.308663 313.005886 144.610005 314.249331 143.366559 
C 315.492776 142.123114 316.191435 140.436404 316.191435 138.677907 
C 316.191435 136.91941 315.492776 135.2327 314.249331 133.989255 
C 313.005886 132.74581 311.319176 132.047152 309.560679 132.047152 
C 307.802182 132.047152 306.115472 132.74581 304.872027 133.989255 
C 303.628582 135.2327 302.929924 136.91941 302.929924 138.677907 
C 302.929924 140.436404 303.628582 142.123114 304.872027 143.366559 
C 306.115472 144.610005 307.802182 145.308663 309.560679 145.308663 
z
" style="fill:#1f958b;"/>
    <path clip-path="url(#p2c713759a9)" d="M 317.064625 176.601336 
C 318.821766 176.601336 320.507175 175.903216 321.749661 174.66073 
C 322.992147 173.418244 323.690266 171.732835 323.690266 169.975695 
C 323.690266 168.218554 322.992147 166.533145 321.749661 165.290659 
C 320.507175 164.048173 318.821766 163.350054 317.064625 163.350054 
C 315.307485 163.350054 313.622076 164.048173 312.37959 165.290659 
C 311.137104 166.533145 310.438985 168.218554 310.438985 169.975695 
C 310.438985 171.732835 311.137104 173.418244 312.37959 174.66073 
C 313.622076 175.903216 315.307485 176.601336 317.064625 176.601336 
z
" style="fill:#21918c;"/>
    <path clip-path="url(#p2c713759a9)" d="M 204.214073 207.950801 
C 205.997368 207.950801 207.707864 207.24229 208.968844 205.98131 
C 210.229824 204.72033 210.938335 203.009834 210.938335 201.226539 
C 210.938335 199.443244 210.229824 197.732748 208.968844 196.471768 
C 207.707864 195.210788 205.997368 194.502277 204.214073 194.502277 
C 202.430778 194.502277 200.720282 195.210788 199.459301 196.471768 
C 198.198321 197.732748 197.489811 199.443244 197.489811 201.226539 
C 197.489811 203.009834 198.198321 204.72033 199.459301 205.98131 
C 200.720282 207.24229 202.430778 207.950801 204.214073 207.950801 
z
" style="fill:#414287;"/>
    <path clip-path="url(#p2c713759a9)" d="M 71.014056 135.476913 
C 72.796789 135.476913 74.506746 134.768626 75.767328 133.508044 
C 77.02791 132.247461 77.736198 130.537505 77.736198 128.754772 
C 77.736198 126.972039 77.02791 125.262082 75.767328 124.0015 
C 74.506746 122.740918 72.796789 122.03263 71.014056 122.03263 
C 69.231323 122.03263 67.521367 122.740918 66.260784 124.0015 
C 65.000202 125.262082 64.291915 126.972039 64.291915 128.754772 
C 64.291915 130.537505 65.000202 132.247461 66.260784 133.508044 
C 67.521367 134.768626 69.231323 135.476913 71.014056 135.476913 
z
" style="fill:#fde725;"/>
    <path clip-path="url(#p2c713759a9)" d="M 245.986992 191.050478 
C 247.767984 191.050478 249.476271 190.342882 250.735623 189.08353 
C 251.994974 187.824179 252.70257 186.115892 252.70257 184.3349 
C 252.70257 182.553908 251.994974 180.84562 250.735623 179.586269 
C 249.476271 178.326917 247.767984 177.619322 245.986992 177.619322 
C 244.206 177.619322 242.497713 178.326917 241.238361 179.586269 
C 239.97901 180.84562 239.271414 182.553908 239.271414 184.3349 
C 239.271414 186.115892 239.97901 187.824179 241.238361 189.08353 
C 242.497713 190.342882 244.206 191.050478 245.986992 191.050478 
z
" style="fill:#424186;"/>
    <path clip-path="url(#p2c713759a9)" d="M 262.306361 93.123683 
C 264.07977 93.123683 265.780784 92.4191 267.034773 91.165111 
C 268.288763 89.911121 268.993346 88.210107 268.993346 86.436698 
C 268.993346 84.663288 268.288763 82.962275 267.034773 81.708285 
C 265.780784 80.454295 264.07977 79.749712 262.306361 79.749712 
C 260.532951 79.749712 258.831937 80.454295 257.577948 81.708285 
C 256.323958 82.962275 255.619375 84.663288 255.619375 86.436698 
C 255.619375 88.210107 256.323958 89.911121 257.577948 91.165111 
C 258.831937 92.4191 260.532951 93.123683 262.306361 93.123683 
z
" style="fill:#287d8e;"/>
    <path clip-path="url(#p2c713759a9)" d="M 223.739814 268.749375 
C 225.529509 268.749375 227.246144 268.038322 228.511649 266.772816 
C 229.777155 265.50731 230.488209 263.790676 230.488209 262.00098 
C 230.488209 260.211285 229.777155 258.49465 228.511649 257.229145 
C 227.246144 255.963639 225.529509 255.252585 223.739814 255.252585 
C 221.950118 255.252585 220.233484 255.963639 218.967978 257.229145 
C 217.702472 258.49465 216.991419 260.211285 216.991419 262.00098 
C 216.991419 263.790676 217.702472 265.50731 218.967978 266.772816 
C 220.233484 268.038322 221.950118 268.749375 223.739814 268.749375 
z
" style="fill:#3f4889;"/>
    <path clip-path="url(#p2c713759a9)" d="M 238.051157 154.134766 
C 239.833443 154.134766 241.542971 153.426657 242.803237 152.16639 
C 244.063504 150.906124 244.771613 149.196595 244.771613 147.414309 
C 244.771613 145.632023 244.063504 143.922495 242.803237 142.662229 
C 241.542971 141.401962 239.833443 140.693852 238.051157 140.693852 
C 236.268871 140.693852 234.559342 141.401962 233.299076 142.662229 
C 232.038809 143.922495 231.3307 145.632023 231.3307 147.414309 
C 231.3307 149.196595 232.038809 150.906124 233.299076 152.16639 
C 234.559342 153.426657 236.268871 154.134766 238.051157 154.134766 
z
" style="fill:#472d7b;"/>
    <path clip-path="url(#p2c713759a9)" d="M 192.125076 243.536944 
C 193.905913 243.536944 195.614051 242.829409 196.873293 241.570167 
C 198.132535 240.310925 198.840069 238.602787 198.840069 236.82195 
C 198.840069 235.041113 198.132535 233.332974 196.873293 232.073732 
C 195.614051 230.814491 193.905913 230.106956 192.125076 230.106956 
C 190.344239 230.106956 188.6361 230.814491 187.376858 232.073732 
C 186.117616 233.332974 185.410082 235.041113 185.410082 236.82195 
C 185.410082 238.602787 186.117616 240.310925 187.376858 241.570167 
C 188.6361 242.829409 190.344239 243.536944 192.125076 243.536944 
z
" style="fill:#440154;"/>
    <path clip-path="url(#p2c713759a9)" d="M 267.126545 263.971197 
C 268.932093 263.971197 270.663935 263.253844 271.940651 261.977129 
C 273.217366 260.700413 273.934718 258.968572 273.934718 257.163023 
C 273.934718 255.357474 273.217366 253.625633 271.940651 252.348917 
C 270.663935 251.072201 268.932093 250.354849 267.126545 250.354849 
C 265.320996 250.354849 263.589155 251.072201 262.312439 252.348917 
C 261.035723 253.625633 260.318371 255.357474 260.318371 257.163023 
C 260.318371 258.968572 261.035723 260.700413 262.312439 261.977129 
C 263.589155 263.253844 265.320996 263.971197 267.126545 263.971197 
z
" style="fill:#2e6f8e;"/>
    <path clip-path="url(#p2c713759a9)" d="M 193.948449 149.841975 
C 195.74023 149.841975 197.458866 149.130092 198.725847 147.863111 
C 199.992828 146.596131 200.70471 144.877495 200.70471 143.085713 
C 200.70471 141.293932 199.992828 139.575296 198.725847 138.308315 
C 197.458866 137.041335 195.74023 136.329452 193.948449 136.329452 
C 192.156667 136.329452 190.438031 137.041335 189.171051 138.308315 
C 187.90407 139.575296 187.192188 141.293932 187.192188 143.085713 
C 187.192188 144.877495 187.90407 146.596131 189.171051 147.863111 
C 190.438031 149.130092 192.156667 149.841975 193.948449 149.841975 
z
" style="fill:#65cb5e;"/>
    <path clip-path="url(#p2c713759a9)" d="M 329.891899 262.20433 
C 331.633153 262.20433 333.303324 261.512522 334.534577 260.28127 
C 335.765829 259.050017 336.457636 257.379846 336.457636 255.638593 
C 336.457636 253.897339 335.765829 252.227168 334.534577 250.995915 
C 333.303324 249.764663 331.633153 249.072855 329.891899 249.072855 
C 328.150645 249.072855 326.480474 249.764663 325.249222 250.995915 
C 324.017969 252.227168 323.326162 253.897339 323.326162 255.638593 
C 323.326162 257.379846 324.017969 259.050017 325.249222 260.28127 
C 326.480474 261.512522 328.150645 262.20433 329.891899 262.20433 
z
" style="fill:#2cb17e;"/>
    <path clip-path="url(#p2c713759a9)" d="M 288.325122 204.204538 
C 290.09603 204.204538 291.794645 203.500948 293.046867 202.248727 
C 294.299088 200.996505 295.002678 199.29789 295.002678 197.526981 
C 295.002678 195.756073 294.299088 194.057457 293.046867 192.805236 
C 291.794645 191.553014 290.09603 190.849425 288.325122 190.849425 
C 286.554213 190.849425 284.855598 191.553014 283.603376 192.805236 
C 282.351155 194.057457 281.647565 195.756073 281.647565 197.526981 
C 281.647565 199.29789 282.351155 200.996505 283.603376 202.248727 
C 284.855598 203.500948 286.554213 204.204538 288.325122 204.204538 
z
" style="fill:#46085c;"/>
    <path clip-path="url(#p2c713759a9)" d="M 120.982346 222.82322 
C 122.754139 222.82322 124.453603 222.119279 125.70645 220.866432 
C 126.959297 219.613585 127.663238 217.914122 127.663238 216.142329 
C 127.663238 214.370535 126.959297 212.671072 125.70645 211.418225 
C 124.453603 210.165378 122.754139 209.461437 120.982346 209.461437 
C 119.210553 209.461437 117.511089 210.165378 116.258242 211.418225 
C 115.005395 212.671072 114.301454 214.370535 114.301454 216.142329 
C 114.301454 217.914122 115.005395 219.613585 116.258242 220.866432 
C 117.511089 222.119279 119.210553 222.82322 120.982346 222.82322 
z
" style="fill:#1f948c;"/>
    <path clip-path="url(#p2c713759a9)" d="M 126.511542 186.714371 
C 128.290912 186.714371 129.997644 186.00742 131.25585 184.749215 
C 132.514055 183.49101 133.221006 181.784278 133.221006 180.004907 
C 133.221006 178.225536 132.514055 176.518804 131.25585 175.260599 
C 129.997644 174.002394 128.290912 173.295442 126.511542 173.295442 
C 124.732171 173.295442 123.025439 174.002394 121.767234 175.260599 
C 120.509029 176.518804 119.802077 178.225536 119.802077 180.004907 
C 119.802077 181.784278 120.509029 183.49101 121.767234 184.749215 
C 123.025439 186.00742 124.732171 186.714371 126.511542 186.714371 
z
" style="fill:#440256;"/>
    <path clip-path="url(#p2c713759a9)" d="M 270.262284 127.823587 
C 272.033712 127.823587 273.732826 127.119791 274.985415 125.867201 
C 276.238005 124.614612 276.941801 122.915498 276.941801 121.14407 
C 276.941801 119.372641 276.238005 117.673527 274.985415 116.420938 
C 273.732826 115.168349 272.033712 114.464553 270.262284 114.464553 
C 268.490855 114.464553 266.791741 115.168349 265.539152 116.420938 
C 264.286563 117.673527 263.582767 119.372641 263.582767 121.14407 
C 263.582767 122.915498 264.286563 124.614612 265.539152 125.867201 
C 266.791741 127.119791 268.490855 127.823587 270.262284 127.823587 
z
" style="fill:#440154;"/>
    <path clip-path="url(#p2c713759a9)" d="M 322.273981 294.869772 
C 324.022976 294.869772 325.700572 294.174889 326.937298 292.938163 
C 328.174024 291.701437 328.868907 290.023841 328.868907 288.274846 
C 328.868907 286.525852 328.174024 284.848256 326.937298 283.61153 
C 325.700572 282.374804 324.022976 281.679921 322.273981 281.679921 
C 320.524987 281.679921 318.847391 282.374804 317.610665 283.61153 
C 316.373939 284.848256 315.679056 286.525852 315.679056 288.274846 
C 315.679056 290.023841 316.373939 291.701437 317.610665 292.938163 
C 318.847391 294.174889 320.524987 294.869772 322.273981 294.869772 
z
" style="fill:#24aa83;"/>
    <path clip-path="url(#p2c713759a9)" d="M 172.03685 181.039589 
C 173.821161 181.039589 175.532632 180.330675 176.794331 179.068976 
C 178.056029 177.807277 178.764944 176.095807 178.764944 174.311495 
C 178.764944 172.527184 178.056029 170.815713 176.794331 169.554014 
C 175.532632 168.292315 173.821161 167.583401 172.03685 167.583401 
C 170.252538 167.583401 168.541067 168.292315 167.279369 169.554014 
C 166.01767 170.815713 165.308755 172.527184 165.308755 174.311495 
C 165.308755 176.095807 166.01767 177.807277 167.279369 179.068976 
C 168.541067 180.330675 170.252538 181.039589 172.03685 181.039589 
z
" style="fill:#472c7a;"/>
    <path clip-path="url(#p2c713759a9)" d="M 281.458758 300.101838 
C 283.241786 300.101838 284.952026 299.393434 286.212817 298.132642 
C 287.473608 296.871851 288.182013 295.161611 288.182013 293.378583 
C 288.182013 291.595555 287.473608 289.885315 286.212817 288.624524 
C 284.952026 287.363733 283.241786 286.655328 281.458758 286.655328 
C 279.67573 286.655328 277.96549 287.363733 276.704699 288.624524 
C 275.443907 289.885315 274.735503 291.595555 274.735503 293.378583 
C 274.735503 295.161611 275.443907 296.871851 276.704699 298.132642 
C 277.96549 299.393434 279.67573 300.101838 281.458758 300.101838 
z
" style="fill:#306a8e;"/>
   </g>
   <g id="text_1">
    <!-- Structure #5078, $E_N$=-177.42eV, ΔE=0.11eV -->
    <defs>
     <path d="M 53.515625 70.515625 
L 53.515625 60.890625 
Q 47.90625 63.578125 42.921875 64.890625 
Q 37.9375 66.21875 33.296875 66.21875 
Q 25.25 66.21875 20.875 63.09375 
Q 16.5 59.96875 16.5 54.203125 
Q 16.5 49.359375 19.40625 46.890625 
Q 22.3125 44.4375 30.421875 42.921875 
L 36.375 41.703125 
Q 47.40625 39.59375 52.65625 34.296875 
Q 57.90625 29 57.90625 20.125 
Q 57.90625 9.515625 50.796875 4.046875 
Q 43.703125 -1.421875 29.984375 -1.421875 
Q 24.8125 -1.421875 18.96875 -0.25 
Q 13.140625 0.921875 6.890625 3.21875 
L 6.890625 13.375 
Q 12.890625 10.015625 18.65625 8.296875 
Q 24.421875 6.59375 29.984375 6.59375 
Q 38.421875 6.59375 43.015625 9.90625 
Q 47.609375 13.234375 47.609375 19.390625 
Q 47.609375 24.75 44.3125 27.78125 
Q 41.015625 30.8125 33.5 32.328125 
L 27.484375 33.5 
Q 16.453125 35.6875 11.515625 40.375 
Q 6.59375 45.0625 6.59375 53.421875 
Q 6.59375 63.09375 13.40625 68.65625 
Q 20.21875 74.21875 32.171875 74.21875 
Q 37.3125 74.21875 42.625 73.28125 
Q 47.953125 72.359375 53.515625 70.515625 
z
" id="DejaVuSans-53"/>
     <path d="M 18.3125 70.21875 
L 18.3125 54.6875 
L 36.8125 54.6875 
L 36.8125 47.703125 
L 18.3125 47.703125 
L 18.3125 18.015625 
Q 18.3125 11.328125 20.140625 9.421875 
Q 21.96875 7.515625 27.59375 7.515625 
L 36.8125 7.515625 
L 36.8125 0 
L 27.59375 0 
Q 17.1875 0 13.234375 3.875 
Q 9.28125 7.765625 9.28125 18.015625 
L 9.28125 47.703125 
L 2.6875 47.703125 
L 2.6875 54.6875 
L 9.28125 54.6875 
L 9.28125 70.21875 
z
" id="DejaVuSans-74"/>
     <path d="M 41.109375 46.296875 
Q 39.59375 47.171875 37.8125 47.578125 
Q 36.03125 48 33.890625 48 
Q 26.265625 48 22.1875 43.046875 
Q 18.109375 38.09375 18.109375 28.8125 
L 18.109375 0 
L 9.078125 0 
L 9.078125 54.6875 
L 18.109375 54.6875 
L 18.109375 46.1875 
Q 20.953125 51.171875 25.484375 53.578125 
Q 30.03125 56 36.53125 56 
Q 37.453125 56 38.578125 55.875 
Q 39.703125 55.765625 41.0625 55.515625 
z
" id="DejaVuSans-72"/>
     <path d="M 8.5 21.578125 
L 8.5 54.6875 
L 17.484375 54.6875 
L 17.484375 21.921875 
Q 17.484375 14.15625 20.5 10.265625 
Q 23.53125 6.390625 29.59375 6.390625 
Q 36.859375 6.390625 41.078125 11.03125 
Q 45.3125 15.671875 45.3125 23.6875 
L 45.3125 54.6875 
L 54.296875 54.6875 
L 54.296875 0 
L 45.3125 0 
L 45.3125 8.40625 
Q 42.046875 3.421875 37.71875 1 
Q 33.40625 -1.421875 27.6875 -1.421875 
Q 18.265625 -1.421875 13.375 4.4375 
Q 8.5 10.296875 8.5 21.578125 
z
M 31.109375 56 
z
" id="DejaVuSans-75"/>
     <path d="M 48.78125 52.59375 
L 48.78125 44.1875 
Q 44.96875 46.296875 41.140625 47.34375 
Q 37.3125 48.390625 33.40625 48.390625 
Q 24.65625 48.390625 19.8125 42.84375 
Q 14.984375 37.3125 14.984375 27.296875 
Q 14.984375 17.28125 19.8125 11.734375 
Q 24.65625 6.203125 33.40625 6.203125 
Q 37.3125 6.203125 41.140625 7.25 
Q 44.96875 8.296875 48.78125 10.40625 
L 48.78125 2.09375 
Q 45.015625 0.34375 40.984375 -0.53125 
Q 36.96875 -1.421875 32.421875 -1.421875 
Q 20.0625 -1.421875 12.78125 6.34375 
Q 5.515625 14.109375 5.515625 27.296875 
Q 5.515625 40.671875 12.859375 48.328125 
Q 20.21875 56 33.015625 56 
Q 37.15625 56 41.109375 55.140625 
Q 45.0625 54.296875 48.78125 52.59375 
z
" id="DejaVuSans-63"/>
     <path d="M 56.203125 29.59375 
L 56.203125 25.203125 
L 14.890625 25.203125 
Q 15.484375 15.921875 20.484375 11.0625 
Q 25.484375 6.203125 34.421875 6.203125 
Q 39.59375 6.203125 44.453125 7.46875 
Q 49.3125 8.734375 54.109375 11.28125 
L 54.109375 2.78125 
Q 49.265625 0.734375 44.1875 -0.34375 
Q 39.109375 -1.421875 33.890625 -1.421875 
Q 20.796875 -1.421875 13.15625 6.1875 
Q 5.515625 13.8125 5.515625 26.8125 
Q 5.515625 40.234375 12.765625 48.109375 
Q 20.015625 56 32.328125 56 
Q 43.359375 56 49.78125 48.890625 
Q 56.203125 41.796875 56.203125 29.59375 
z
M 47.21875 32.234375 
Q 47.125 39.59375 43.09375 43.984375 
Q 39.0625 48.390625 32.421875 48.390625 
Q 24.90625 48.390625 20.390625 44.140625 
Q 15.875 39.890625 15.1875 32.171875 
z
" id="DejaVuSans-65"/>
     <path id="DejaVuSans-20"/>
     <path d="M 51.125 44 
L 36.921875 44 
L 32.8125 27.6875 
L 47.125 27.6875 
z
M 43.796875 71.78125 
L 38.71875 51.515625 
L 52.984375 51.515625 
L 58.109375 71.78125 
L 65.921875 71.78125 
L 60.890625 51.515625 
L 76.125 51.515625 
L 76.125 44 
L 58.984375 44 
L 54.984375 27.6875 
L 70.515625 27.6875 
L 70.515625 20.21875 
L 53.078125 20.21875 
L 48 0 
L 40.1875 0 
L 45.21875 20.21875 
L 30.90625 20.21875 
L 25.875 0 
L 18.015625 0 
L 23.09375 20.21875 
L 7.71875 20.21875 
L 7.71875 27.6875 
L 24.90625 27.6875 
L 29 44 
L 13.28125 44 
L 13.28125 51.515625 
L 30.90625 51.515625 
L 35.890625 71.78125 
z
" id="DejaVuSans-23"/>
     <path d="M 10.796875 72.90625 
L 49.515625 72.90625 
L 49.515625 64.59375 
L 19.828125 64.59375 
L 19.828125 46.734375 
Q 21.96875 47.46875 24.109375 47.828125 
Q 26.265625 48.1875 28.421875 48.1875 
Q 40.625 48.1875 47.75 41.5 
Q 54.890625 34.8125 54.890625 23.390625 
Q 54.890625 11.625 47.5625 5.09375 
Q 40.234375 -1.421875 26.90625 -1.421875 
Q 22.3125 -1.421875 17.546875 -0.640625 
Q 12.796875 0.140625 7.71875 1.703125 
L 7.71875 11.625 
Q 12.109375 9.234375 16.796875 8.0625 
Q 21.484375 6.890625 26.703125 6.890625 
Q 35.15625 6.890625 40.078125 11.328125 
Q 45.015625 15.765625 45.015625 23.390625 
Q 45.015625 31 40.078125 35.4375 
Q 35.15625 39.890625 26.703125 39.890625 
Q 22.75 39.890625 18.8125 39.015625 
Q 14.890625 38.140625 10.796875 36.28125 
z
" id="DejaVuSans-35"/>
     <path d="M 31.78125 66.40625 
Q 24.171875 66.40625 20.328125 58.90625 
Q 16.5 51.421875 16.5 36.375 
Q 16.5 21.390625 20.328125 13.890625 
Q 24.171875 6.390625 31.78125 6.390625 
Q 39.453125 6.390625 43.28125 13.890625 
Q 47.125 21.390625 47.125 36.375 
Q 47.125 51.421875 43.28125 58.90625 
Q 39.453125 66.40625 31.78125 66.40625 
z
M 31.78125 74.21875 
Q 44.046875 74.21875 50.515625 64.515625 
Q 56.984375 54.828125 56.984375 36.375 
Q 56.984375 17.96875 50.515625 8.265625 
Q 44.046875 -1.421875 31.78125 -1.421875 
Q 19.53125 -1.421875 13.0625 8.265625 
Q 6.59375 17.96875 6.59375 36.375 
Q 6.59375 54.828125 13.0625 64.515625 
Q 19.53125 74.21875 31.78125 74.21875 
z
" id="DejaVuSans-30"/>
     <path d="M 8.203125 72.90625 
L 55.078125 72.90625 
L 55.078125 68.703125 
L 28.609375 0 
L 18.3125 0 
L 43.21875 64.59375 
L 8.203125 64.59375 
z
" id="DejaVuSans-37"/>
     <path d="M 31.78125 34.625 
Q 24.75 34.625 20.71875 30.859375 
Q 16.703125 27.09375 16.703125 20.515625 
Q 16.703125 13.921875 20.71875 10.15625 
Q 24.75 6.390625 31.78125 6.390625 
Q 38.8125 6.390625 42.859375 10.171875 
Q 46.921875 13.96875 46.921875 20.515625 
Q 46.921875 27.09375 42.890625 30.859375 
Q 38.875 34.625 31.78125 34.625 
z
M 21.921875 38.8125 
Q 15.578125 40.375 12.03125 44.71875 
Q 8.5 49.078125 8.5 55.328125 
Q 8.5 64.0625 14.71875 69.140625 
Q 20.953125 74.21875 31.78125 74.21875 
Q 42.671875 74.21875 48.875 69.140625 
Q 55.078125 64.0625 55.078125 55.328125 
Q 55.078125 49.078125 51.53125 44.71875 
Q 48 40.375 41.703125 38.8125 
Q 48.828125 37.15625 52.796875 32.3125 
Q 56.78125 27.484375 56.78125 20.515625 
Q 56.78125 9.90625 50.3125 4.234375 
Q 43.84375 -1.421875 31.78125 -1.421875 
Q 19.734375 -1.421875 13.25 4.234375 
Q 6.78125 9.90625 6.78125 20.515625 
Q 6.78125 27.484375 10.78125 32.3125 
Q 14.796875 37.15625 21.921875 38.8125 
z
M 18.3125 54.390625 
Q 18.3125 48.734375 21.84375 45.5625 
Q 25.390625 42.390625 31.78125 42.390625 
Q 38.140625 42.390625 41.71875 45.5625 
Q 45.3125 48.734375 45.3125 54.390625 
Q 45.3125 60.0625 41.71875 63.234375 
Q 38.140625 66.40625 31.78125 66.40625 
Q 25.390625 66.40625 21.84375 63.234375 
Q 18.3125 60.0625 18.3125 54.390625 
z
" id="DejaVuSans-38"/>
     <path d="M 11.71875 12.40625 
L 22.015625 12.40625 
L 22.015625 4 
L 14.015625 -11.625 
L 7.71875 -11.625 
L 11.71875 4 
z
" id="DejaVuSans-2c"/>
     <path d="M 16.890625 72.90625 
L 62.984375 72.90625 
L 61.375 64.59375 
L 25.09375 64.59375 
L 20.90625 43.015625 
L 55.71875 43.015625 
L 54.109375 34.71875 
L 19.28125 34.71875 
L 14.203125 8.296875 
L 51.3125 8.296875 
L 49.703125 0 
L 2.6875 0 
z
" id="DejaVuSans-Oblique-45"/>
     <path d="M 16.890625 72.90625 
L 30.171875 72.90625 
L 50.296875 10.40625 
L 62.5 72.90625 
L 72.125 72.90625 
L 57.90625 0 
L 44.578125 0 
L 24.515625 62.890625 
L 12.3125 0 
L 2.6875 0 
z
" id="DejaVuSans-Oblique-4e"/>
     <path d="M 10.59375 45.40625 
L 73.1875 45.40625 
L 73.1875 37.203125 
L 10.59375 37.203125 
z
M 10.59375 25.484375 
L 73.1875 25.484375 
L 73.1875 17.1875 
L 10.59375 17.1875 
z
" id="DejaVuSans-3d"/>
     <path d="M 4.890625 31.390625 
L 31.203125 31.390625 
L 31.203125 23.390625 
L 4.890625 23.390625 
z
" id="DejaVuSans-2d"/>
     <path d="M 12.40625 8.296875 
L 28.515625 8.296875 
L 28.515625 63.921875 
L 10.984375 60.40625 
L 10.984375 69.390625 
L 28.421875 72.90625 
L 38.28125 72.90625 
L 38.28125 8.296875 
L 54.390625 8.296875 
L 54.390625 0 
L 12.40625 0 
z
" id="DejaVuSans-31"/>
     <path d="M 10.6875 12.40625 
L 21 12.40625 
L 21 0 
L 10.6875 0 
z
" id="DejaVuSans-2e"/>
     <path d="M 37.796875 64.3125 
L 12.890625 25.390625 
L 37.796875 25.390625 
z
M 35.203125 72.90625 
L 47.609375 72.90625 
L 47.609375 25.390625 
L 58.015625 25.390625 
L 58.015625 17.1875 
L 47.609375 17.1875 
L 47.609375 0 
L 37.796875 0 
L 37.796875 17.1875 
L 4.890625 17.1875 
L 4.890625 26.703125 
z
" id="DejaVuSans-34"/>
     <path d="M 19.1875 8.296875 
L 53.609375 8.296875 
L 53.609375 0 
L 7.328125 0 
L 7.328125 8.296875 
Q 12.9375 14.109375 22.625 23.890625 
Q 32.328125 33.6875 34.8125 36.53125 
Q 39.546875 41.84375 41.421875 45.53125 
Q 43.3125 49.21875 43.3125 52.78125 
Q 43.3125 58.59375 39.234375 62.25 
Q 35.15625 65.921875 28.609375 65.921875 
Q 23.96875 65.921875 18.8125 64.3125 
Q 13.671875 62.703125 7.8125 59.421875 
L 7.8125 69.390625 
Q 13.765625 71.78125 18.9375 73 
Q 24.125 74.21875 28.421875 74.21875 
Q 39.75 74.21875 46.484375 68.546875 
Q 53.21875 62.890625 53.21875 53.421875 
Q 53.21875 48.921875 51.53125 44.890625 
Q 49.859375 40.875 45.40625 35.40625 
Q 44.1875 33.984375 37.640625 27.21875 
Q 31.109375 20.453125 19.1875 8.296875 
z
" id="DejaVuSans-32"/>
     <path d="M 28.609375 0 
L 0.78125 72.90625 
L 11.078125 72.90625 
L 34.1875 11.53125 
L 57.328125 72.90625 
L 67.578125 72.90625 
L 39.796875 0 
z
" id="DejaVuSans-56"/>
     <path d="M 34.1875 63.1875 
L 14.15625 8.203125 
L 54.25 8.203125 
z
M 0.78125 0 
L 28.609375 72.90625 
L 39.796875 72.90625 
L 67.578125 0 
z
" id="DejaVuSans-394"/>
     <path d="M 9.8125 72.90625 
L 55.90625 72.90625 
L 55.90625 64.59375 
L 19.671875 64.59375 
L 19.671875 43.015625 
L 54.390625 43.015625 
L 54.390625 34.71875 
L 19.671875 34.71875 
L 19.671875 8.296875 
L 56.78125 8.296875 
L 56.78125 0 
L 9.8125 0 
z
" id="DejaVuSans-45"/>
    </defs>
    <g transform="translate(65.388 35.472)scale(0.12 -0.12)">
     <use transform="translate(0 0.78125)" xlink:href="#DejaVuSans-53"/>
     <use transform="translate(63.476562 0.78125)" xlink:href="#DejaVuSans-74"/>
     <use transform="translate(102.685547 0.78125)" xlink:href="#DejaVuSans-72"/>
     <use transform="translate(143.798828 0.78125)" xlink:href="#DejaVuSans-75"/>
     <use transform="translate(207.177734 0.78125)" xlink:href="#DejaVuSans-63"/>
     <use transform="translate(262.158203 0.78125)" xlink:href="#DejaVuSans-74"/>
     <use transform="translate(301.367188 0.78125)" xlink:href="#DejaVuSans-75"/>
     <use transform="translate(364.746094 0.78125)" xlink:href="#DejaVuSans-72"/>
     <use transform="translate(405.859375 0.78125)" xlink:href="#DejaVuSans-65"/>
     <use transform="translate(467.382812 0.78125)" xlink:href="#DejaVuSans-20"/>
     <use transform="translate(499.169922 0.78125)" xlink:href="#DejaVuSans-23"/>
     <use transform="translate(582.958984 0.78125)" xlink:href="#DejaVuSans-35"/>
     <use transform="translate(646.582031 0.78125)" xlink:href="#DejaVuSans-30"/>
     <use transform="translate(710.205078 0.78125)" xlink:href="#DejaVuSans-37"/>
     <use transform="translate(773.828125 0.78125)" xlink:href="#DejaVuSans-38"/>
     <use transform="translate(837.451172 0.78125)" xlink:href="#DejaVuSans-2c"/>
     <use transform="translate(869.238281 0.78125)" xlink:href="#DejaVuSans-20"/>
     <use transform="translate(901.025391 0.78125)" xlink:href="#DejaVuSans-Oblique-45"/>
     <use transform="translate(964.208984 -15.625)scale(0.7)" xlink:href="#DejaVuSans-Oblique-4e"/>
     <use transform="translate(1019.306641 0.78125)" xlink:href="#DejaVuSans-3d"/>
     <use transform="translate(1103.095703 0.78125)" xlink:href="#DejaVuSans-2d"/>
     <use transform="translate(1139.179688 0.78125)" xlink:href="#DejaVuSans-31"/>
     <use transform="translate(1202.802734 0.78125)" xlink:href="#DejaVuSans-37"/>
     <use transform="translate(1266.410156 0.78125)" xlink:href="#DejaVuSans-37"/>
     <use transform="translate(1330.033203 0.78125)" xlink:href="#DejaVuSans-2e"/>
     <use transform="translate(1361.820312 0.78125)" xlink:href="#DejaVuSans-34"/>
     <use transform="translate(1425.443359 0.78125)" xlink:href="#DejaVuSans-32"/>
     <use transform="translate(1489.066406 0.78125)" xlink:href="#DejaVuSans-65"/>
     <use transform="translate(1550.589844 0.78125)" xlink:href="#DejaVuSans-56"/>
     <use transform="translate(1618.998047 0.78125)" xlink:href="#DejaVuSans-2c"/>
     <use transform="translate(1650.785156 0.78125)" xlink:href="#DejaVuSans-20"/>
     <use transform="translate(1682.572266 0.78125)" xlink:href="#DejaVuSans-394"/>
     <use transform="translate(1750.980469 0.78125)" xlink:href="#DejaVuSans-45"/>
     <use transform="translate(1814.164062 0.78125)" xlink:href="#DejaVuSans-3d"/>
     <use transform="translate(1897.953125 0.78125)" xlink:href="#DejaVuSans-30"/>
     <use transform="translate(1961.576172 0.78125)" xlink:href="#DejaVuSans-2e"/>
     <use transform="translate(1993.363281 0.78125)" xlink:href="#DejaVuSans-31"/>
     <use transform="translate(2056.986328 0.78125)" xlink:href="#DejaVuSans-31"/>
     <use transform="translate(2120.609375 0.78125)" xlink:href="#DejaVuSans-65"/>
     <use transform="translate(2182.132812 0.78125)" xlink:href="#DejaVuSans-56"/>
    </g>
   </g>
  </g>
  <g id="axes_2">
   <g id="patch_2">
    <path clip-path="url(#p341d934725)" d="M 361.152 307.584 
L 361.152 306.5445 
L 361.152 42.5115 
L 361.152 41.472 
L 374.4576 41.472 
L 374.4576 42.5115 
L 374.4576 306.5445 
L 374.4576 307.584 
z
" style="fill:#ffffff;stroke:#ffffff;stroke-linejoin:miter;stroke-width:0.01;"/>
   </g>
   <image height="265.68" id="imagef9c194bc8f" transform="scale(1 -1)translate(0 -265.68)" width="12.96" x="361.44" xlink:href="data:image/png;base64,
iVBORw0KGgoAAAANSUhEUgAAABIAAAFxCAYAAAB+2fgXAAAABHNCSVQICAgIfAhkiAAAAeVJREFUeJztncmNw0AQA2ckheYQNv9QLIfQ8ygsCgQ7AEI8+jAs2Puz/94F1LP2ReCsZ18bAWIeZ5XaGRBE7VnbptG+KI101FYyNSiQG2oRITXKNaX9uclOdi2XWjftVE32CZCO2ou5Bj1TcCBr/1zB9ge7Fq0Rg2NM9pvbtG+ua1QgsRYhDy0ISEiNc40BEibbSI0Coj5CBGtkpFbXJiAjNZlrwhuSOv2M1DjXbEdEciBt1JSDDQKKpmZr2rr2j0DBGpXaWEJq3bQzEPIS26r9J+Wzv9Tm8o3aajRXqc3VUXsApKNWjeZq0x4ABVNbm7lrszVigDqP5vIl2+eaT2yfRkL7g+dRcNPqjohkjaCvRVBq0H2U3LQrOJCx9kdTg4B8oxZzzTdqdYHEngjUCAPyUctN9sVRq2sTECW2UKNLd2jVtRmo1A6AhMmWaSRcR8nUdIHUuVb75zJS218EyEitro1At69pIdeSk30Lkw0FktNImGyZRhy1O5galmxd03LUsHWk06jUZiCq+5Wb1kZNN4+wJxJuWt8RAW5am2sYNZ9rYCBzZ3buPKJ2P5Yj4Toy3keyIyJbIxs1rml1byCA84gpch5RQNB7Q0qNMGq2Hy4BXdNR41yz/cEEJfZzUz96r9PoB0okjeQ8y9TkAAAAAElFTkSuQmCC" y="-41.76"/>
   <g id="matplotlib.axis_1"/>
   <g id="matplotlib.axis_2">
    <g id="ytick_1">
     <g id="line2d_1">
      <defs>
       <path d="M 0 0 
L 3.5 0 
" id="m7f0dfb0233" style="stroke:#000000;stroke-width:0.8;"/>
      </defs>
      <g>
       <use style="stroke:#000000;stroke-width:0.8;" x="374.4576" xlink:href="#m7f0dfb0233" y="276.476028"/>
      </g>
     </g>
     <g id="text_2">
      <!-- −8.5 -->
      <defs>
       <path d="M 10.59375 35.5 
L 73.1875 35.5 
L 73.1875 27.203125 
L 10.59375 27.203125 
z
" id="DejaVuSans-2212"/>
      </defs>
      <g transform="translate(381.4576 280.275247)scale(0.1 -0.1)">
       <use xlink:href="#DejaVuSans-2212"/>
       <use x="83.789062" xlink:href="#DejaVuSans-38"/>
       <use x="147.412109" xlink:href="#DejaVuSans-2e"/>
       <use x="179.199219" xlink:href="#DejaVuSans-35"/>
      </g>
     </g>
    </g>
    <g id="ytick_2">
     <g id="line2d_2">
      <g>
       <use style="stroke:#000000;stroke-width:0.8;" x="374.4576" xlink:href="#m7f0dfb0233" y="244.015364"/>
      </g>
     </g>
     <g id="text_3">
      <!-- −8.0 -->
      <g transform="translate(381.4576 247.814582)scale(0.1 -0.1)">
       <use xlink:href="#DejaVuSans-2212"/>
       <use x="83.789062" xlink:href="#DejaVuSans-38"/>
       <use x="147.412109" xlink:href="#DejaVuSans-2e"/>
       <use x="179.199219" xlink:href="#DejaVuSans-30"/>
      </g>
     </g>
    </g>
    <g id="ytick_3">
     <g id="line2d_3">
      <g>
       <use style="stroke:#000000;stroke-width:0.8;" x="374.4576" xlink:href="#m7f0dfb0233" y="211.554699"/>
      </g>
     </g>
     <g id="text_4">
      <!-- −7.5 -->
      <g transform="translate(381.4576 215.353918)scale(0.1 -0.1)">
       <use xlink:href="#DejaVuSans-2212"/>
       <use x="83.789062" xlink:href="#DejaVuSans-37"/>
       <use x="147.412109" xlink:href="#DejaVuSans-2e"/>
       <use x="179.199219" xlink:href="#DejaVuSans-35"/>
      </g>
     </g>
    </g>
    <g id="ytick_4">
     <g id="line2d_4">
      <g>
       <use style="stroke:#000000;stroke-width:0.8;" x="374.4576" xlink:href="#m7f0dfb0233" y="179.094035"/>
      </g>
     </g>
     <g id="text_5">
      <!-- −7.0 -->
      <g transform="translate(381.4576 182.893253)scale(0.1 -0.1)">
       <use xlink:href="#DejaVuSans-2212"/>
       <use x="83.789062" xlink:href="#DejaVuSans-37"/>
       <use x="147.412109" xlink:href="#DejaVuSans-2e"/>
       <use x="179.199219" xlink:href="#DejaVuSans-30"/>
      </g>
     </g>
    </g>
    <g id="ytick_5">
     <g id="line2d_5">
      <g>
       <use style="stroke:#000000;stroke-width:0.8;" x="374.4576" xlink:href="#m7f0dfb0233" y="146.63337"/>
      </g>
     </g>
     <g id="text_6">
      <!-- −6.5 -->
      <defs>
       <path d="M 33.015625 40.375 
Q 26.375 40.375 22.484375 35.828125 
Q 18.609375 31.296875 18.609375 23.390625 
Q 18.609375 15.53125 22.484375 10.953125 
Q 26.375 6.390625 33.015625 6.390625 
Q 39.65625 6.390625 43.53125 10.953125 
Q 47.40625 15.53125 47.40625 23.390625 
Q 47.40625 31.296875 43.53125 35.828125 
Q 39.65625 40.375 33.015625 40.375 
z
M 52.59375 71.296875 
L 52.59375 62.3125 
Q 48.875 64.0625 45.09375 64.984375 
Q 41.3125 65.921875 37.59375 65.921875 
Q 27.828125 65.921875 22.671875 59.328125 
Q 17.53125 52.734375 16.796875 39.40625 
Q 19.671875 43.65625 24.015625 45.921875 
Q 28.375 48.1875 33.59375 48.1875 
Q 44.578125 48.1875 50.953125 41.515625 
Q 57.328125 34.859375 57.328125 23.390625 
Q 57.328125 12.15625 50.6875 5.359375 
Q 44.046875 -1.421875 33.015625 -1.421875 
Q 20.359375 -1.421875 13.671875 8.265625 
Q 6.984375 17.96875 6.984375 36.375 
Q 6.984375 53.65625 15.1875 63.9375 
Q 23.390625 74.21875 37.203125 74.21875 
Q 40.921875 74.21875 44.703125 73.484375 
Q 48.484375 72.75 52.59375 71.296875 
z
" id="DejaVuSans-36"/>
      </defs>
      <g transform="translate(381.4576 150.432589)scale(0.1 -0.1)">
       <use xlink:href="#DejaVuSans-2212"/>
       <use x="83.789062" xlink:href="#DejaVuSans-36"/>
       <use x="147.412109" xlink:href="#DejaVuSans-2e"/>
       <use x="179.199219" xlink:href="#DejaVuSans-35"/>
      </g>
     </g>
    </g>
    <g id="ytick_6">
     <g id="line2d_6">
      <g>
       <use style="stroke:#000000;stroke-width:0.8;" x="374.4576" xlink:href="#m7f0dfb0233" y="114.172706"/>
      </g>
     </g>
     <g id="text_7">
      <!-- −6.0 -->
      <g transform="translate(381.4576 117.971924)scale(0.1 -0.1)">
       <use xlink:href="#DejaVuSans-2212"/>
       <use x="83.789062" xlink:href="#DejaVuSans-36"/>
       <use x="147.412109" xlink:href="#DejaVuSans-2e"/>
       <use x="179.199219" xlink:href="#DejaVuSans-30"/>
      </g>
     </g>
    </g>
    <g id="ytick_7">
     <g id="line2d_7">
      <g>
       <use style="stroke:#000000;stroke-width:0.8;" x="374.4576" xlink:href="#m7f0dfb0233" y="81.712041"/>
      </g>
     </g>
     <g id="text_8">
      <!-- −5.5 -->
      <g transform="translate(381.4576 85.51126)scale(0.1 -0.1)">
       <use xlink:href="#DejaVuSans-2212"/>
       <use x="83.789062" xlink:href="#DejaVuSans-35"/>
       <use x="147.412109" xlink:href="#DejaVuSans-2e"/>
       <use x="179.199219" xlink:href="#DejaVuSans-35"/>
      </g>
     </g>
    </g>
    <g id="ytick_8">
     <g id="line2d_8">
      <g>
       <use style="stroke:#000000;stroke-width:0.8;" x="374.4576" xlink:href="#m7f0dfb0233" y="49.251377"/>
      </g>
     </g>
     <g id="text_9">
      <!-- −5.0 -->
      <g transform="translate(381.4576 53.050595)scale(0.1 -0.1)">
       <use xlink:href="#DejaVuSans-2212"/>
       <use x="83.789062" xlink:href="#DejaVuSans-35"/>
       <use x="147.412109" xlink:href="#DejaVuSans-2e"/>
       <use x="179.199219" xlink:href="#DejaVuSans-30"/>
      </g>
     </g>
    </g>
    <g id="text_10">
     <!-- Energy [eV] -->
     <defs>
      <path d="M 54.890625 33.015625 
L 54.890625 0 
L 45.90625 0 
L 45.90625 32.71875 
Q 45.90625 40.484375 42.875 44.328125 
Q 39.84375 48.1875 33.796875 48.1875 
Q 26.515625 48.1875 22.3125 43.546875 
Q 18.109375 38.921875 18.109375 30.90625 
L 18.109375 0 
L 9.078125 0 
L 9.078125 54.6875 
L 18.109375 54.6875 
L 18.109375 46.1875 
Q 21.34375 51.125 25.703125 53.5625 
Q 30.078125 56 35.796875 56 
Q 45.21875 56 50.046875 50.171875 
Q 54.890625 44.34375 54.890625 33.015625 
z
" id="DejaVuSans-6e"/>
      <path d="M 45.40625 27.984375 
Q 45.40625 37.75 41.375 43.109375 
Q 37.359375 48.484375 30.078125 48.484375 
Q 22.859375 48.484375 18.828125 43.109375 
Q 14.796875 37.75 14.796875 27.984375 
Q 14.796875 18.265625 18.828125 12.890625 
Q 22.859375 7.515625 30.078125 7.515625 
Q 37.359375 7.515625 41.375 12.890625 
Q 45.40625 18.265625 45.40625 27.984375 
z
M 54.390625 6.78125 
Q 54.390625 -7.171875 48.1875 -13.984375 
Q 42 -20.796875 29.203125 -20.796875 
Q 24.46875 -20.796875 20.265625 -20.09375 
Q 16.0625 -19.390625 12.109375 -17.921875 
L 12.109375 -9.1875 
Q 16.0625 -11.328125 19.921875 -12.34375 
Q 23.78125 -13.375 27.78125 -13.375 
Q 36.625 -13.375 41.015625 -8.765625 
Q 45.40625 -4.15625 45.40625 5.171875 
L 45.40625 9.625 
Q 42.625 4.78125 38.28125 2.390625 
Q 33.9375 0 27.875 0 
Q 17.828125 0 11.671875 7.65625 
Q 5.515625 15.328125 5.515625 27.984375 
Q 5.515625 40.671875 11.671875 48.328125 
Q 17.828125 56 27.875 56 
Q 33.9375 56 38.28125 53.609375 
Q 42.625 51.21875 45.40625 46.390625 
L 45.40625 54.6875 
L 54.390625 54.6875 
z
" id="DejaVuSans-67"/>
      <path d="M 32.171875 -5.078125 
Q 28.375 -14.84375 24.75 -17.8125 
Q 21.140625 -20.796875 15.09375 -20.796875 
L 7.90625 -20.796875 
L 7.90625 -13.28125 
L 13.1875 -13.28125 
Q 16.890625 -13.28125 18.9375 -11.515625 
Q 21 -9.765625 23.484375 -3.21875 
L 25.09375 0.875 
L 2.984375 54.6875 
L 12.5 54.6875 
L 29.59375 11.921875 
L 46.6875 54.6875 
L 56.203125 54.6875 
z
" id="DejaVuSans-79"/>
      <path d="M 8.59375 75.984375 
L 29.296875 75.984375 
L 29.296875 69 
L 17.578125 69 
L 17.578125 -6.203125 
L 29.296875 -6.203125 
L 29.296875 -13.1875 
L 8.59375 -13.1875 
z
" id="DejaVuSans-5b"/>
      <path d="M 30.421875 75.984375 
L 30.421875 -13.1875 
L 9.71875 -13.1875 
L 9.71875 -6.203125 
L 21.390625 -6.203125 
L 21.390625 69 
L 9.71875 69 
L 9.71875 75.984375 
z
" id="DejaVuSans-5d"/>
     </defs>
     <g transform="translate(417.33885 204.108469)rotate(-90)scale(0.1 -0.1)">
      <use xlink:href="#DejaVuSans-45"/>
      <use x="63.183594" xlink:href="#DejaVuSans-6e"/>
      <use x="126.5625" xlink:href="#DejaVuSans-65"/>
      <use x="188.085938" xlink:href="#DejaVuSans-72"/>
      <use x="229.183594" xlink:href="#DejaVuSans-67"/>
      <use x="292.660156" xlink:href="#DejaVuSans-79"/>
      <use x="351.839844" xlink:href="#DejaVuSans-20"/>
      <use x="383.626953" xlink:href="#DejaVuSans-5b"/>
      <use x="422.640625" xlink:href="#DejaVuSans-65"/>
      <use x="484.164062" xlink:href="#DejaVuSans-56"/>
      <use x="552.572266" xlink:href="#DejaVuSans-5d"/>
     </g>
    </g>
   </g>
   <g id="patch_3">
    <path d="M 361.152 307.584 
L 361.152 306.5445 
L 361.152 42.5115 
L 361.152 41.472 
L 374.4576 41.472 
L 374.4576 42.5115 
L 374.4576 306.5445 
L 374.4576 307.584 
z
" style="fill:none;stroke:#000000;stroke-linejoin:miter;stroke-width:0.8;"/>
   </g>
  </g>
 </g>
 <defs>
  <clipPath id="p2c713759a9">
   <rect height="266.112" width="285.696" x="57.6" y="41.472"/>
  </clipPath>
  <clipPath id="p341d934725">
   <rect height="266.112" width="13.3056" x="361.152" y="41.472"/>
  </clipPath>
 </defs>
</svg>
