<?xml version="1.0" encoding="utf-8" standalone="no"?>
<!DOCTYPE svg PUBLIC "-//W3C//DTD SVG 1.1//EN"
  "http://www.w3.org/Graphics/SVG/1.1/DTD/svg11.dtd">
<!-- Created with matplotlib (http://matplotlib.org/) -->
<svg height="345.6pt" version="1.1" viewBox="0 0 460.8 345.6" width="460.8pt" xmlns="http://www.w3.org/2000/svg" xmlns:xlink="http://www.w3.org/1999/xlink">
 <defs>
  <style type="text/css">
*{stroke-linecap:butt;stroke-linejoin:round;}
  </style>
 </defs>
 <g id="figure_1">
  <g id="patch_1">
   <path d="M 0 345.6 
L 460.8 345.6 
L 460.8 0 
L 0 0 
z
" style="fill:#ffffff;"/>
  </g>
  <g id="axes_1">
   <g id="CircleCollection_1">
    <path clip-path="url(#p0d04d33ce6)" d="M 242.351777 199.351702 
C 244.190881 199.351702 245.954907 198.621018 247.255349 197.320576 
C 248.555792 196.020133 249.286475 194.256107 249.286475 192.417004 
C 249.286475 190.577901 248.555792 188.813874 247.255349 187.513432 
C 245.954907 186.212989 244.190881 185.482306 242.351777 185.482306 
C 240.512674 185.482306 238.748648 186.212989 237.448205 187.513432 
C 236.147763 188.813874 235.417079 190.577901 235.417079 192.417004 
C 235.417079 194.256107 236.147763 196.020133 237.448205 197.320576 
C 238.748648 198.621018 240.512674 199.351702 242.351777 199.351702 
z
" style="fill:#3f4889;"/>
    <path clip-path="url(#p0d04d33ce6)" d="M 286.574689 127.996614 
C 288.368936 127.996614 290.089936 127.283753 291.35866 126.015029 
C 292.627383 124.746305 293.340245 123.025305 293.340245 121.231059 
C 293.340245 119.436813 292.627383 117.715812 291.35866 116.447089 
C 290.089936 115.178365 288.368936 114.465503 286.574689 114.465503 
C 284.780443 114.465503 283.059443 115.178365 281.790719 116.447089 
C 280.521995 117.715812 279.809134 119.436813 279.809134 121.231059 
C 279.809134 123.025305 280.521995 124.746305 281.790719 126.015029 
C 283.059443 127.283753 284.780443 127.996614 286.574689 127.996614 
z
" style="fill:#297b8e;"/>
    <path clip-path="url(#p0d04d33ce6)" d="M 101.743961 116.790181 
C 103.445431 116.790181 105.077442 116.114179 106.280563 114.911058 
C 107.483684 113.707937 108.159686 112.075926 108.159686 110.374456 
C 108.159686 108.672986 107.483684 107.040974 106.280563 105.837853 
C 105.077442 104.634732 103.445431 103.958731 101.743961 103.958731 
C 100.042491 103.958731 98.410479 104.634732 97.207358 105.837853 
C 96.004237 107.040974 95.328236 108.672986 95.328236 110.374456 
C 95.328236 112.075926 96.004237 113.707937 97.207358 114.911058 
C 98.410479 116.114179 100.042491 116.790181 101.743961 116.790181 
z
" style="fill:#40bd72;"/>
    <path clip-path="url(#p0d04d33ce6)" d="M 216.488093 157.402151 
C 218.352261 157.402151 220.140327 156.661509 221.458493 155.343344 
C 222.776658 154.025179 223.5173 152.237112 223.5173 150.372945 
C 223.5173 148.508777 222.776658 146.72071 221.458493 145.402545 
C 220.140327 144.08438 218.352261 143.343738 216.488093 143.343738 
C 214.623926 143.343738 212.835859 144.08438 211.517694 145.402545 
C 210.199529 146.72071 209.458887 148.508777 209.458887 150.372945 
C 209.458887 152.237112 210.199529 154.025179 211.517694 155.343344 
C 212.835859 156.661509 214.623926 157.402151 216.488093 157.402151 
z
" style="fill:#2c738e;"/>
    <path clip-path="url(#p0d04d33ce6)" d="M 241.653417 113.964987 
C 243.484746 113.964987 245.241314 113.237393 246.536259 111.942448 
C 247.831204 110.647503 248.558799 108.890934 248.558799 107.059606 
C 248.558799 105.228277 247.831204 103.471708 246.536259 102.176764 
C 245.241314 100.881819 243.484746 100.154224 241.653417 100.154224 
C 239.822088 100.154224 238.06552 100.881819 236.770575 102.176764 
C 235.47563 103.471708 234.748035 105.228277 234.748035 107.059606 
C 234.748035 108.890934 235.47563 110.647503 236.770575 111.942448 
C 238.06552 113.237393 239.822088 113.964987 241.653417 113.964987 
z
" style="fill:#2e6f8e;"/>
    <path clip-path="url(#p0d04d33ce6)" d="M 168.961152 301.483782 
C 170.719856 301.483782 172.406765 300.785042 173.650356 299.541451 
C 174.893948 298.297859 175.592688 296.61095 175.592688 294.852246 
C 175.592688 293.093543 174.893948 291.406634 173.650356 290.163042 
C 172.406765 288.919451 170.719856 288.220711 168.961152 288.220711 
C 167.202449 288.220711 165.51554 288.919451 164.271948 290.163042 
C 163.028357 291.406634 162.329616 293.093543 162.329616 294.852246 
C 162.329616 296.61095 163.028357 298.297859 164.271948 299.541451 
C 165.51554 300.785042 167.202449 301.483782 168.961152 301.483782 
z
" style="fill:#ece51b;"/>
    <path clip-path="url(#p0d04d33ce6)" d="M 192.922057 96.435644 
C 194.724134 96.435644 196.452646 95.719671 197.726907 94.44541 
C 199.001168 93.171148 199.717141 91.442637 199.717141 89.640559 
C 199.717141 87.838482 199.001168 86.10997 197.726907 84.835709 
C 196.452646 83.561448 194.724134 82.845475 192.922057 82.845475 
C 191.119979 82.845475 189.391468 83.561448 188.117206 84.835709 
C 186.842945 86.10997 186.126972 87.838482 186.126972 89.640559 
C 186.126972 91.442637 186.842945 93.171148 188.117206 94.44541 
C 189.391468 95.719671 191.119979 96.435644 192.922057 96.435644 
z
" style="fill:#297b8e;"/>
    <path clip-path="url(#p0d04d33ce6)" d="M 317.652441 190.335294 
C 319.379259 190.335294 321.035584 189.649222 322.256629 188.428177 
C 323.477673 187.207133 324.163745 185.550808 324.163745 183.82399 
C 324.163745 182.097172 323.477673 180.440847 322.256629 179.219802 
C 321.035584 177.998758 319.379259 177.312686 317.652441 177.312686 
C 315.925623 177.312686 314.269298 177.998758 313.048254 179.219802 
C 311.827209 180.440847 311.141137 182.097172 311.141137 183.82399 
C 311.141137 185.550808 311.827209 187.207133 313.048254 188.428177 
C 314.269298 189.649222 315.925623 190.335294 317.652441 190.335294 
z
" style="fill:#d8e219;"/>
    <path clip-path="url(#p0d04d33ce6)" d="M 87.6461 247.712916 
C 89.360607 247.712916 91.005123 247.031735 92.217462 245.819396 
C 93.429802 244.607056 94.110983 242.96254 94.110983 241.248033 
C 94.110983 239.533526 93.429802 237.88901 92.217462 236.67667 
C 91.005123 235.464331 89.360607 234.78315 87.6461 234.78315 
C 85.931592 234.78315 84.287076 235.464331 83.074737 236.67667 
C 81.862397 237.88901 81.181216 239.533526 81.181216 241.248033 
C 81.181216 242.96254 81.862397 244.607056 83.074737 245.819396 
C 84.287076 247.031735 85.931592 247.712916 87.6461 247.712916 
z
" style="fill:#4ac16d;"/>
    <path clip-path="url(#p0d04d33ce6)" d="M 305.259084 113.721433 
C 306.964865 113.721433 308.60101 113.043719 309.807179 111.837551 
C 311.013347 110.631382 311.691061 108.995236 311.691061 107.289456 
C 311.691061 105.583676 311.013347 103.947531 309.807179 102.741362 
C 308.60101 101.535193 306.964865 100.857479 305.259084 100.857479 
C 303.553304 100.857479 301.917159 101.535193 300.71099 102.741362 
C 299.504821 103.947531 298.827108 105.583676 298.827108 107.289456 
C 298.827108 108.995236 299.504821 110.631382 300.71099 111.837551 
C 301.917159 113.043719 303.553304 113.721433 305.259084 113.721433 
z
" style="fill:#424086;"/>
    <path clip-path="url(#p0d04d33ce6)" d="M 208.422504 237.333768 
C 210.242687 237.333768 211.988566 236.610602 213.275629 235.323538 
C 214.562693 234.036474 215.28586 232.290596 215.28586 230.470413 
C 215.28586 228.650229 214.562693 226.904351 213.275629 225.617287 
C 211.988566 224.330223 210.242687 223.607057 208.422504 223.607057 
C 206.602321 223.607057 204.856443 224.330223 203.569379 225.617287 
C 202.282315 226.904351 201.559148 228.650229 201.559148 230.470413 
C 201.559148 232.290596 202.282315 234.036474 203.569379 235.323538 
C 204.856443 236.610602 206.602321 237.333768 208.422504 237.333768 
z
" style="fill:#3e4c8a;"/>
    <path clip-path="url(#p0d04d33ce6)" d="M 135.807925 176.246546 
C 137.602471 176.246546 139.323758 175.533565 140.592693 174.26463 
C 141.861628 172.995695 142.574609 171.274408 142.574609 169.479862 
C 142.574609 167.685317 141.861628 165.96403 140.592693 164.695094 
C 139.323758 163.426159 137.602471 162.713179 135.807925 162.713179 
C 134.01338 162.713179 132.292093 163.426159 131.023157 164.695094 
C 129.754222 165.96403 129.041242 167.685317 129.041242 169.479862 
C 129.041242 171.274408 129.754222 172.995695 131.023157 174.26463 
C 132.292093 175.533565 134.01338 176.246546 135.807925 176.246546 
z
" style="fill:#472f7d;"/>
    <path clip-path="url(#p0d04d33ce6)" d="M 274.669344 76.699657 
C 276.341835 76.699657 277.946051 76.035169 279.128681 74.852539 
C 280.311311 73.669909 280.975799 72.065693 280.975799 70.393202 
C 280.975799 68.720711 280.311311 67.116495 279.128681 65.933865 
C 277.946051 64.751235 276.341835 64.086747 274.669344 64.086747 
C 272.996853 64.086747 271.392637 64.751235 270.210007 65.933865 
C 269.027377 67.116495 268.362889 68.720711 268.362889 70.393202 
C 268.362889 72.065693 269.027377 73.669909 270.210007 74.852539 
C 271.392637 76.035169 272.996853 76.699657 274.669344 76.699657 
z
" style="fill:#3aba76;"/>
    <path clip-path="url(#p0d04d33ce6)" d="M 154.636934 223.87451 
C 156.438031 223.87451 158.165603 223.158927 159.43917 221.885359 
C 160.712738 220.611791 161.428322 218.88422 161.428322 217.083123 
C 161.428322 215.282026 160.712738 213.554455 159.43917 212.280887 
C 158.165603 211.007319 156.438031 210.291736 154.636934 210.291736 
C 152.835838 210.291736 151.108266 211.007319 149.834699 212.280887 
C 148.561131 213.554455 147.845547 215.282026 147.845547 217.083123 
C 147.845547 218.88422 148.561131 220.611791 149.834699 221.885359 
C 151.108266 223.158927 152.835838 223.87451 154.636934 223.87451 
z
" style="fill:#2a788e;"/>
    <path clip-path="url(#p0d04d33ce6)" d="M 95.229145 164.140311 
C 96.961927 164.140311 98.623973 163.451869 99.849235 162.226607 
C 101.074497 161.001344 101.762939 159.339299 101.762939 157.606516 
C 101.762939 155.873734 101.074497 154.211688 99.849235 152.986426 
C 98.623973 151.761164 96.961927 151.072722 95.229145 151.072722 
C 93.496362 151.072722 91.834317 151.761164 90.609054 152.986426 
C 89.383792 154.211688 88.69535 155.873734 88.69535 157.606516 
C 88.69535 159.339299 89.383792 161.001344 90.609054 162.226607 
C 91.834317 163.451869 93.496362 164.140311 95.229145 164.140311 
z
" style="fill:#470e61;"/>
    <path clip-path="url(#p0d04d33ce6)" d="M 71.079132 205.360809 
C 72.783719 205.360809 74.41872 204.68357 75.624045 203.478245 
C 76.82937 202.27292 77.506609 200.637919 77.506609 198.933333 
C 77.506609 197.228746 76.82937 195.593745 75.624045 194.38842 
C 74.41872 193.183095 72.783719 192.505856 71.079132 192.505856 
C 69.374546 192.505856 67.739545 193.183095 66.53422 194.38842 
C 65.328895 195.593745 64.651656 197.228746 64.651656 198.933333 
C 64.651656 200.637919 65.328895 202.27292 66.53422 203.478245 
C 67.739545 204.68357 69.374546 205.360809 71.079132 205.360809 
z
" style="fill:#69cd5b;"/>
    <path clip-path="url(#p0d04d33ce6)" d="M 133.62718 84.063935 
C 135.31963 84.063935 136.94299 83.391517 138.139733 82.194775 
C 139.336476 80.998032 140.008893 79.374672 140.008893 77.682222 
C 140.008893 75.989772 139.336476 74.366413 138.139733 73.16967 
C 136.94299 71.972927 135.31963 71.300509 133.62718 71.300509 
C 131.93473 71.300509 130.311371 71.972927 129.114628 73.16967 
C 127.917885 74.366413 127.245467 75.989772 127.245467 77.682222 
C 127.245467 79.374672 127.917885 80.998032 129.114628 82.194775 
C 130.311371 83.391517 131.93473 84.063935 133.62718 84.063935 
z
" style="fill:#48c16e;"/>
    <path clip-path="url(#p0d04d33ce6)" d="M 210.810394 284.265972 
C 212.596587 284.265972 214.309863 283.55631 215.572892 282.293281 
C 216.835921 281.030251 217.545583 279.316976 217.545583 277.530783 
C 217.545583 275.74459 216.835921 274.031314 215.572892 272.768285 
C 214.309863 271.505255 212.596587 270.795593 210.810394 270.795593 
C 209.024201 270.795593 207.310925 271.505255 206.047896 272.768285 
C 204.784867 274.031314 204.075205 275.74459 204.075205 277.530783 
C 204.075205 279.316976 204.784867 281.030251 206.047896 282.293281 
C 207.310925 283.55631 209.024201 284.265972 210.810394 284.265972 
z
" style="fill:#e2e418;"/>
    <path clip-path="url(#p0d04d33ce6)" d="M 168.868395 142.133996 
C 170.700579 142.133996 172.457969 141.406061 173.75352 140.110511 
C 175.04907 138.81496 175.777005 137.05757 175.777005 135.225385 
C 175.777005 133.393201 175.04907 131.635811 173.75352 130.34026 
C 172.457969 129.04471 170.700579 128.316775 168.868395 128.316775 
C 167.03621 128.316775 165.27882 129.04471 163.983269 130.34026 
C 162.687719 131.635811 161.959784 133.393201 161.959784 135.225385 
C 161.959784 137.05757 162.687719 138.81496 163.983269 140.110511 
C 165.27882 141.406061 167.03621 142.133996 168.868395 142.133996 
z
" style="fill:#2a778e;"/>
    <path clip-path="url(#p0d04d33ce6)" d="M 329.825539 155.281093 
C 331.500141 155.281093 333.10638 154.615767 334.290503 153.431645 
C 335.474625 152.247522 336.139951 150.641283 336.139951 148.966681 
C 336.139951 147.292079 335.474625 145.68584 334.290503 144.501717 
C 333.10638 143.317595 331.500141 142.652269 329.825539 142.652269 
C 328.150937 142.652269 326.544698 143.317595 325.360576 144.501717 
C 324.176453 145.68584 323.511127 147.292079 323.511127 148.966681 
C 323.511127 150.641283 324.176453 152.247522 325.360576 153.431645 
C 326.544698 154.615767 328.150937 155.281093 329.825539 155.281093 
z
" style="fill:#fde725;"/>
    <path clip-path="url(#p0d04d33ce6)" d="M 290.24653 181.429461 
C 292.048529 181.429461 293.776965 180.71352 295.05117 179.439314 
C 296.325375 178.165109 297.041317 176.436673 297.041317 174.634675 
C 297.041317 172.832676 296.325375 171.10424 295.05117 169.830035 
C 293.776965 168.55583 292.048529 167.839888 290.24653 167.839888 
C 288.444532 167.839888 286.716096 168.55583 285.441891 169.830035 
C 284.167685 171.10424 283.451744 172.832676 283.451744 174.634675 
C 283.451744 176.436673 284.167685 178.165109 285.441891 179.439314 
C 286.716096 180.71352 288.444532 181.429461 290.24653 181.429461 
z
" style="fill:#287d8e;"/>
    <path clip-path="url(#p0d04d33ce6)" d="M 130.915014 264.807795 
C 132.670416 264.807795 134.354158 264.110366 135.595415 262.86911 
C 136.836672 261.627853 137.5341 259.944111 137.5341 258.188709 
C 137.5341 256.433306 136.836672 254.749564 135.595415 253.508308 
C 134.354158 252.267051 132.670416 251.569622 130.915014 251.569622 
C 129.159612 251.569622 127.47587 252.267051 126.234613 253.508308 
C 124.993356 254.749564 124.295927 256.433306 124.295927 258.188709 
C 124.295927 259.944111 124.993356 261.627853 126.234613 262.86911 
C 127.47587 264.110366 129.159612 264.807795 130.915014 264.807795 
z
" style="fill:#433e85;"/>
    <path clip-path="url(#p0d04d33ce6)" d="M 183.579208 72.684536 
C 185.302141 72.684536 186.954738 72.000007 188.173036 70.78171 
C 189.391333 69.563413 190.075862 67.910815 190.075862 66.187882 
C 190.075862 64.464949 189.391333 62.812351 188.173036 61.594054 
C 186.954738 60.375757 185.302141 59.691228 183.579208 59.691228 
C 181.856275 59.691228 180.203677 60.375757 178.98538 61.594054 
C 177.767082 62.812351 177.082554 64.464949 177.082554 66.187882 
C 177.082554 67.910815 177.767082 69.563413 178.98538 70.78171 
C 180.203677 72.000007 181.856275 72.684536 183.579208 72.684536 
z
" style="fill:#440154;"/>
    <path clip-path="url(#p0d04d33ce6)" d="M 229.939927 60.509739 
C 231.619847 60.509739 233.231187 59.8423 234.41907 58.654417 
C 235.606953 57.466535 236.274392 55.855194 236.274392 54.175274 
C 236.274392 52.495354 235.606953 50.884013 234.41907 49.69613 
C 233.231187 48.508248 231.619847 47.840809 229.939927 47.840809 
C 228.260007 47.840809 226.648666 48.508248 225.460783 49.69613 
C 224.272901 50.884013 223.605461 52.495354 223.605461 54.175274 
C 223.605461 55.855194 224.272901 57.466535 225.460783 58.654417 
C 226.648666 59.8423 228.260007 60.509739 229.939927 60.509739 
z
" style="fill:#5ec962;"/>
   </g>
   <g id="text_1">
    <!-- Structure #47, $E_N$=-183.20eV, ΔE=0.07eV -->
    <defs>
     <path d="M 53.515625 70.515625 
L 53.515625 60.890625 
Q 47.90625 63.578125 42.921875 64.890625 
Q 37.9375 66.21875 33.296875 66.21875 
Q 25.25 66.21875 20.875 63.09375 
Q 16.5 59.96875 16.5 54.203125 
Q 16.5 49.359375 19.40625 46.890625 
Q 22.3125 44.4375 30.421875 42.921875 
L 36.375 41.703125 
Q 47.40625 39.59375 52.65625 34.296875 
Q 57.90625 29 57.90625 20.125 
Q 57.90625 9.515625 50.796875 4.046875 
Q 43.703125 -1.421875 29.984375 -1.421875 
Q 24.8125 -1.421875 18.96875 -0.25 
Q 13.140625 0.921875 6.890625 3.21875 
L 6.890625 13.375 
Q 12.890625 10.015625 18.65625 8.296875 
Q 24.421875 6.59375 29.984375 6.59375 
Q 38.421875 6.59375 43.015625 9.90625 
Q 47.609375 13.234375 47.609375 19.390625 
Q 47.609375 24.75 44.3125 27.78125 
Q 41.015625 30.8125 33.5 32.328125 
L 27.484375 33.5 
Q 16.453125 35.6875 11.515625 40.375 
Q 6.59375 45.0625 6.59375 53.421875 
Q 6.59375 63.09375 13.40625 68.65625 
Q 20.21875 74.21875 32.171875 74.21875 
Q 37.3125 74.21875 42.625 73.28125 
Q 47.953125 72.359375 53.515625 70.515625 
z
" id="DejaVuSans-53"/>
     <path d="M 18.3125 70.21875 
L 18.3125 54.6875 
L 36.8125 54.6875 
L 36.8125 47.703125 
L 18.3125 47.703125 
L 18.3125 18.015625 
Q 18.3125 11.328125 20.140625 9.421875 
Q 21.96875 7.515625 27.59375 7.515625 
L 36.8125 7.515625 
L 36.8125 0 
L 27.59375 0 
Q 17.1875 0 13.234375 3.875 
Q 9.28125 7.765625 9.28125 18.015625 
L 9.28125 47.703125 
L 2.6875 47.703125 
L 2.6875 54.6875 
L 9.28125 54.6875 
L 9.28125 70.21875 
z
" id="DejaVuSans-74"/>
     <path d="M 41.109375 46.296875 
Q 39.59375 47.171875 37.8125 47.578125 
Q 36.03125 48 33.890625 48 
Q 26.265625 48 22.1875 43.046875 
Q 18.109375 38.09375 18.109375 28.8125 
L 18.109375 0 
L 9.078125 0 
L 9.078125 54.6875 
L 18.109375 54.6875 
L 18.109375 46.1875 
Q 20.953125 51.171875 25.484375 53.578125 
Q 30.03125 56 36.53125 56 
Q 37.453125 56 38.578125 55.875 
Q 39.703125 55.765625 41.0625 55.515625 
z
" id="DejaVuSans-72"/>
     <path d="M 8.5 21.578125 
L 8.5 54.6875 
L 17.484375 54.6875 
L 17.484375 21.921875 
Q 17.484375 14.15625 20.5 10.265625 
Q 23.53125 6.390625 29.59375 6.390625 
Q 36.859375 6.390625 41.078125 11.03125 
Q 45.3125 15.671875 45.3125 23.6875 
L 45.3125 54.6875 
L 54.296875 54.6875 
L 54.296875 0 
L 45.3125 0 
L 45.3125 8.40625 
Q 42.046875 3.421875 37.71875 1 
Q 33.40625 -1.421875 27.6875 -1.421875 
Q 18.265625 -1.421875 13.375 4.4375 
Q 8.5 10.296875 8.5 21.578125 
z
M 31.109375 56 
z
" id="DejaVuSans-75"/>
     <path d="M 48.78125 52.59375 
L 48.78125 44.1875 
Q 44.96875 46.296875 41.140625 47.34375 
Q 37.3125 48.390625 33.40625 48.390625 
Q 24.65625 48.390625 19.8125 42.84375 
Q 14.984375 37.3125 14.984375 27.296875 
Q 14.984375 17.28125 19.8125 11.734375 
Q 24.65625 6.203125 33.40625 6.203125 
Q 37.3125 6.203125 41.140625 7.25 
Q 44.96875 8.296875 48.78125 10.40625 
L 48.78125 2.09375 
Q 45.015625 0.34375 40.984375 -0.53125 
Q 36.96875 -1.421875 32.421875 -1.421875 
Q 20.0625 -1.421875 12.78125 6.34375 
Q 5.515625 14.109375 5.515625 27.296875 
Q 5.515625 40.671875 12.859375 48.328125 
Q 20.21875 56 33.015625 56 
Q 37.15625 56 41.109375 55.140625 
Q 45.0625 54.296875 48.78125 52.59375 
z
" id="DejaVuSans-63"/>
     <path d="M 56.203125 29.59375 
L 56.203125 25.203125 
L 14.890625 25.203125 
Q 15.484375 15.921875 20.484375 11.0625 
Q 25.484375 6.203125 34.421875 6.203125 
Q 39.59375 6.203125 44.453125 7.46875 
Q 49.3125 8.734375 54.109375 11.28125 
L 54.109375 2.78125 
Q 49.265625 0.734375 44.1875 -0.34375 
Q 39.109375 -1.421875 33.890625 -1.421875 
Q 20.796875 -1.421875 13.15625 6.1875 
Q 5.515625 13.8125 5.515625 26.8125 
Q 5.515625 40.234375 12.765625 48.109375 
Q 20.015625 56 32.328125 56 
Q 43.359375 56 49.78125 48.890625 
Q 56.203125 41.796875 56.203125 29.59375 
z
M 47.21875 32.234375 
Q 47.125 39.59375 43.09375 43.984375 
Q 39.0625 48.390625 32.421875 48.390625 
Q 24.90625 48.390625 20.390625 44.140625 
Q 15.875 39.890625 15.1875 32.171875 
z
" id="DejaVuSans-65"/>
     <path id="DejaVuSans-20"/>
     <path d="M 51.125 44 
L 36.921875 44 
L 32.8125 27.6875 
L 47.125 27.6875 
z
M 43.796875 71.78125 
L 38.71875 51.515625 
L 52.984375 51.515625 
L 58.109375 71.78125 
L 65.921875 71.78125 
L 60.890625 51.515625 
L 76.125 51.515625 
L 76.125 44 
L 58.984375 44 
L 54.984375 27.6875 
L 70.515625 27.6875 
L 70.515625 20.21875 
L 53.078125 20.21875 
L 48 0 
L 40.1875 0 
L 45.21875 20.21875 
L 30.90625 20.21875 
L 25.875 0 
L 18.015625 0 
L 23.09375 20.21875 
L 7.71875 20.21875 
L 7.71875 27.6875 
L 24.90625 27.6875 
L 29 44 
L 13.28125 44 
L 13.28125 51.515625 
L 30.90625 51.515625 
L 35.890625 71.78125 
z
" id="DejaVuSans-23"/>
     <path d="M 37.796875 64.3125 
L 12.890625 25.390625 
L 37.796875 25.390625 
z
M 35.203125 72.90625 
L 47.609375 72.90625 
L 47.609375 25.390625 
L 58.015625 25.390625 
L 58.015625 17.1875 
L 47.609375 17.1875 
L 47.609375 0 
L 37.796875 0 
L 37.796875 17.1875 
L 4.890625 17.1875 
L 4.890625 26.703125 
z
" id="DejaVuSans-34"/>
     <path d="M 8.203125 72.90625 
L 55.078125 72.90625 
L 55.078125 68.703125 
L 28.609375 0 
L 18.3125 0 
L 43.21875 64.59375 
L 8.203125 64.59375 
z
" id="DejaVuSans-37"/>
     <path d="M 11.71875 12.40625 
L 22.015625 12.40625 
L 22.015625 4 
L 14.015625 -11.625 
L 7.71875 -11.625 
L 11.71875 4 
z
" id="DejaVuSans-2c"/>
     <path d="M 16.890625 72.90625 
L 62.984375 72.90625 
L 61.375 64.59375 
L 25.09375 64.59375 
L 20.90625 43.015625 
L 55.71875 43.015625 
L 54.109375 34.71875 
L 19.28125 34.71875 
L 14.203125 8.296875 
L 51.3125 8.296875 
L 49.703125 0 
L 2.6875 0 
z
" id="DejaVuSans-Oblique-45"/>
     <path d="M 16.890625 72.90625 
L 30.171875 72.90625 
L 50.296875 10.40625 
L 62.5 72.90625 
L 72.125 72.90625 
L 57.90625 0 
L 44.578125 0 
L 24.515625 62.890625 
L 12.3125 0 
L 2.6875 0 
z
" id="DejaVuSans-Oblique-4e"/>
     <path d="M 10.59375 45.40625 
L 73.1875 45.40625 
L 73.1875 37.203125 
L 10.59375 37.203125 
z
M 10.59375 25.484375 
L 73.1875 25.484375 
L 73.1875 17.1875 
L 10.59375 17.1875 
z
" id="DejaVuSans-3d"/>
     <path d="M 4.890625 31.390625 
L 31.203125 31.390625 
L 31.203125 23.390625 
L 4.890625 23.390625 
z
" id="DejaVuSans-2d"/>
     <path d="M 12.40625 8.296875 
L 28.515625 8.296875 
L 28.515625 63.921875 
L 10.984375 60.40625 
L 10.984375 69.390625 
L 28.421875 72.90625 
L 38.28125 72.90625 
L 38.28125 8.296875 
L 54.390625 8.296875 
L 54.390625 0 
L 12.40625 0 
z
" id="DejaVuSans-31"/>
     <path d="M 31.78125 34.625 
Q 24.75 34.625 20.71875 30.859375 
Q 16.703125 27.09375 16.703125 20.515625 
Q 16.703125 13.921875 20.71875 10.15625 
Q 24.75 6.390625 31.78125 6.390625 
Q 38.8125 6.390625 42.859375 10.171875 
Q 46.921875 13.96875 46.921875 20.515625 
Q 46.921875 27.09375 42.890625 30.859375 
Q 38.875 34.625 31.78125 34.625 
z
M 21.921875 38.8125 
Q 15.578125 40.375 12.03125 44.71875 
Q 8.5 49.078125 8.5 55.328125 
Q 8.5 64.0625 14.71875 69.140625 
Q 20.953125 74.21875 31.78125 74.21875 
Q 42.671875 74.21875 48.875 69.140625 
Q 55.078125 64.0625 55.078125 55.328125 
Q 55.078125 49.078125 51.53125 44.71875 
Q 48 40.375 41.703125 38.8125 
Q 48.828125 37.15625 52.796875 32.3125 
Q 56.78125 27.484375 56.78125 20.515625 
Q 56.78125 9.90625 50.3125 4.234375 
Q 43.84375 -1.421875 31.78125 -1.421875 
Q 19.734375 -1.421875 13.25 4.234375 
Q 6.78125 9.90625 6.78125 20.515625 
Q 6.78125 27.484375 10.78125 32.3125 
Q 14.796875 37.15625 21.921875 38.8125 
z
M 18.3125 54.390625 
Q 18.3125 48.734375 21.84375 45.5625 
Q 25.390625 42.390625 31.78125 42.390625 
Q 38.140625 42.390625 41.71875 45.5625 
Q 45.3125 48.734375 45.3125 54.390625 
Q 45.3125 60.0625 41.71875 63.234375 
Q 38.140625 66.40625 31.78125 66.40625 
Q 25.390625 66.40625 21.84375 63.234375 
Q 18.3125 60.0625 18.3125 54.390625 
z
" id="DejaVuSans-38"/>
     <path d="M 40.578125 39.3125 
Q 47.65625 37.796875 51.625 33 
Q 55.609375 28.21875 55.609375 21.1875 
Q 55.609375 10.40625 48.1875 4.484375 
Q 40.765625 -1.421875 27.09375 -1.421875 
Q 22.515625 -1.421875 17.65625 -0.515625 
Q 12.796875 0.390625 7.625 2.203125 
L 7.625 11.71875 
Q 11.71875 9.328125 16.59375 8.109375 
Q 21.484375 6.890625 26.8125 6.890625 
Q 36.078125 6.890625 40.9375 10.546875 
Q 45.796875 14.203125 45.796875 21.1875 
Q 45.796875 27.640625 41.28125 31.265625 
Q 36.765625 34.90625 28.71875 34.90625 
L 20.21875 34.90625 
L 20.21875 43.015625 
L 29.109375 43.015625 
Q 36.375 43.015625 40.234375 45.921875 
Q 44.09375 48.828125 44.09375 54.296875 
Q 44.09375 59.90625 40.109375 62.90625 
Q 36.140625 65.921875 28.71875 65.921875 
Q 24.65625 65.921875 20.015625 65.03125 
Q 15.375 64.15625 9.8125 62.3125 
L 9.8125 71.09375 
Q 15.4375 72.65625 20.34375 73.4375 
Q 25.25 74.21875 29.59375 74.21875 
Q 40.828125 74.21875 47.359375 69.109375 
Q 53.90625 64.015625 53.90625 55.328125 
Q 53.90625 49.265625 50.4375 45.09375 
Q 46.96875 40.921875 40.578125 39.3125 
z
" id="DejaVuSans-33"/>
     <path d="M 10.6875 12.40625 
L 21 12.40625 
L 21 0 
L 10.6875 0 
z
" id="DejaVuSans-2e"/>
     <path d="M 19.1875 8.296875 
L 53.609375 8.296875 
L 53.609375 0 
L 7.328125 0 
L 7.328125 8.296875 
Q 12.9375 14.109375 22.625 23.890625 
Q 32.328125 33.6875 34.8125 36.53125 
Q 39.546875 41.84375 41.421875 45.53125 
Q 43.3125 49.21875 43.3125 52.78125 
Q 43.3125 58.59375 39.234375 62.25 
Q 35.15625 65.921875 28.609375 65.921875 
Q 23.96875 65.921875 18.8125 64.3125 
Q 13.671875 62.703125 7.8125 59.421875 
L 7.8125 69.390625 
Q 13.765625 71.78125 18.9375 73 
Q 24.125 74.21875 28.421875 74.21875 
Q 39.75 74.21875 46.484375 68.546875 
Q 53.21875 62.890625 53.21875 53.421875 
Q 53.21875 48.921875 51.53125 44.890625 
Q 49.859375 40.875 45.40625 35.40625 
Q 44.1875 33.984375 37.640625 27.21875 
Q 31.109375 20.453125 19.1875 8.296875 
z
" id="DejaVuSans-32"/>
     <path d="M 31.78125 66.40625 
Q 24.171875 66.40625 20.328125 58.90625 
Q 16.5 51.421875 16.5 36.375 
Q 16.5 21.390625 20.328125 13.890625 
Q 24.171875 6.390625 31.78125 6.390625 
Q 39.453125 6.390625 43.28125 13.890625 
Q 47.125 21.390625 47.125 36.375 
Q 47.125 51.421875 43.28125 58.90625 
Q 39.453125 66.40625 31.78125 66.40625 
z
M 31.78125 74.21875 
Q 44.046875 74.21875 50.515625 64.515625 
Q 56.984375 54.828125 56.984375 36.375 
Q 56.984375 17.96875 50.515625 8.265625 
Q 44.046875 -1.421875 31.78125 -1.421875 
Q 19.53125 -1.421875 13.0625 8.265625 
Q 6.59375 17.96875 6.59375 36.375 
Q 6.59375 54.828125 13.0625 64.515625 
Q 19.53125 74.21875 31.78125 74.21875 
z
" id="DejaVuSans-30"/>
     <path d="M 28.609375 0 
L 0.78125 72.90625 
L 11.078125 72.90625 
L 34.1875 11.53125 
L 57.328125 72.90625 
L 67.578125 72.90625 
L 39.796875 0 
z
" id="DejaVuSans-56"/>
     <path d="M 34.1875 63.1875 
L 14.15625 8.203125 
L 54.25 8.203125 
z
M 0.78125 0 
L 28.609375 72.90625 
L 39.796875 72.90625 
L 67.578125 0 
z
" id="DejaVuSans-394"/>
     <path d="M 9.8125 72.90625 
L 55.90625 72.90625 
L 55.90625 64.59375 
L 19.671875 64.59375 
L 19.671875 43.015625 
L 54.390625 43.015625 
L 54.390625 34.71875 
L 19.671875 34.71875 
L 19.671875 8.296875 
L 56.78125 8.296875 
L 56.78125 0 
L 9.8125 0 
z
" id="DejaVuSans-45"/>
    </defs>
    <g transform="translate(73.008 35.472)scale(0.12 -0.12)">
     <use transform="translate(0 0.78125)" xlink:href="#DejaVuSans-53"/>
     <use transform="translate(63.476562 0.78125)" xlink:href="#DejaVuSans-74"/>
     <use transform="translate(102.685547 0.78125)" xlink:href="#DejaVuSans-72"/>
     <use transform="translate(143.798828 0.78125)" xlink:href="#DejaVuSans-75"/>
     <use transform="translate(207.177734 0.78125)" xlink:href="#DejaVuSans-63"/>
     <use transform="translate(262.158203 0.78125)" xlink:href="#DejaVuSans-74"/>
     <use transform="translate(301.367188 0.78125)" xlink:href="#DejaVuSans-75"/>
     <use transform="translate(364.746094 0.78125)" xlink:href="#DejaVuSans-72"/>
     <use transform="translate(405.859375 0.78125)" xlink:href="#DejaVuSans-65"/>
     <use transform="translate(467.382812 0.78125)" xlink:href="#DejaVuSans-20"/>
     <use transform="translate(499.169922 0.78125)" xlink:href="#DejaVuSans-23"/>
     <use transform="translate(582.958984 0.78125)" xlink:href="#DejaVuSans-34"/>
     <use transform="translate(646.582031 0.78125)" xlink:href="#DejaVuSans-37"/>
     <use transform="translate(710.205078 0.78125)" xlink:href="#DejaVuSans-2c"/>
     <use transform="translate(741.992188 0.78125)" xlink:href="#DejaVuSans-20"/>
     <use transform="translate(773.779297 0.78125)" xlink:href="#DejaVuSans-Oblique-45"/>
     <use transform="translate(836.962891 -15.625)scale(0.7)" xlink:href="#DejaVuSans-Oblique-4e"/>
     <use transform="translate(892.060547 0.78125)" xlink:href="#DejaVuSans-3d"/>
     <use transform="translate(975.849609 0.78125)" xlink:href="#DejaVuSans-2d"/>
     <use transform="translate(1011.933594 0.78125)" xlink:href="#DejaVuSans-31"/>
     <use transform="translate(1075.556641 0.78125)" xlink:href="#DejaVuSans-38"/>
     <use transform="translate(1139.179688 0.78125)" xlink:href="#DejaVuSans-33"/>
     <use transform="translate(1202.802734 0.78125)" xlink:href="#DejaVuSans-2e"/>
     <use transform="translate(1234.511719 0.78125)" xlink:href="#DejaVuSans-32"/>
     <use transform="translate(1298.134766 0.78125)" xlink:href="#DejaVuSans-30"/>
     <use transform="translate(1361.757812 0.78125)" xlink:href="#DejaVuSans-65"/>
     <use transform="translate(1423.28125 0.78125)" xlink:href="#DejaVuSans-56"/>
     <use transform="translate(1491.689453 0.78125)" xlink:href="#DejaVuSans-2c"/>
     <use transform="translate(1523.476562 0.78125)" xlink:href="#DejaVuSans-20"/>
     <use transform="translate(1555.263672 0.78125)" xlink:href="#DejaVuSans-394"/>
     <use transform="translate(1623.671875 0.78125)" xlink:href="#DejaVuSans-45"/>
     <use transform="translate(1686.855469 0.78125)" xlink:href="#DejaVuSans-3d"/>
     <use transform="translate(1770.644531 0.78125)" xlink:href="#DejaVuSans-30"/>
     <use transform="translate(1834.267578 0.78125)" xlink:href="#DejaVuSans-2e"/>
     <use transform="translate(1866.054688 0.78125)" xlink:href="#DejaVuSans-30"/>
     <use transform="translate(1929.677734 0.78125)" xlink:href="#DejaVuSans-37"/>
     <use transform="translate(1993.300781 0.78125)" xlink:href="#DejaVuSans-65"/>
     <use transform="translate(2054.824219 0.78125)" xlink:href="#DejaVuSans-56"/>
    </g>
   </g>
  </g>
  <g id="axes_2">
   <g id="patch_2">
    <path clip-path="url(#peaa7910a4b)" d="M 361.152 307.584 
L 361.152 306.5445 
L 361.152 42.5115 
L 361.152 41.472 
L 374.4576 41.472 
L 374.4576 42.5115 
L 374.4576 306.5445 
L 374.4576 307.584 
z
" style="fill:#ffffff;stroke:#ffffff;stroke-linejoin:miter;stroke-width:0.01;"/>
   </g>
   <image height="265.68" id="image6d6da78e9f" transform="scale(1 -1)translate(0 -265.68)" width="12.96" x="361.44" xlink:href="data:image/png;base64,
iVBORw0KGgoAAAANSUhEUgAAABIAAAFxCAYAAAB+2fgXAAAABHNCSVQICAgIfAhkiAAAAeVJREFUeJztncmNw0AQA2ckheYQNv9QLIfQ8ygsCgQ7AEI8+jAs2Puz/94F1LP2ReCsZ18bAWIeZ5XaGRBE7VnbptG+KI101FYyNSiQG2oRITXKNaX9uclOdi2XWjftVE32CZCO2ou5Bj1TcCBr/1zB9ge7Fq0Rg2NM9pvbtG+ua1QgsRYhDy0ISEiNc40BEibbSI0Coj5CBGtkpFbXJiAjNZlrwhuSOv2M1DjXbEdEciBt1JSDDQKKpmZr2rr2j0DBGpXaWEJq3bQzEPIS26r9J+Wzv9Tm8o3aajRXqc3VUXsApKNWjeZq0x4ABVNbm7lrszVigDqP5vIl2+eaT2yfRkL7g+dRcNPqjohkjaCvRVBq0H2U3LQrOJCx9kdTg4B8oxZzzTdqdYHEngjUCAPyUctN9sVRq2sTECW2UKNLd2jVtRmo1A6AhMmWaSRcR8nUdIHUuVb75zJS218EyEitro1At69pIdeSk30Lkw0FktNImGyZRhy1O5galmxd03LUsHWk06jUZiCq+5Wb1kZNN4+wJxJuWt8RAW5am2sYNZ9rYCBzZ3buPKJ2P5Yj4Toy3keyIyJbIxs1rml1byCA84gpch5RQNB7Q0qNMGq2Hy4BXdNR41yz/cEEJfZzUz96r9PoB0okjeQ8y9TkAAAAAElFTkSuQmCC" y="-41.76"/>
   <g id="matplotlib.axis_1"/>
   <g id="matplotlib.axis_2">
    <g id="ytick_1">
     <g id="line2d_1">
      <defs>
       <path d="M 0 0 
L 3.5 0 
" id="ma3d3727372" style="stroke:#000000;stroke-width:0.8;"/>
      </defs>
      <g>
       <use style="stroke:#000000;stroke-width:0.8;" x="374.4576" xlink:href="#ma3d3727372" y="267.934101"/>
      </g>
     </g>
     <g id="text_2">
      <!-- −8.5 -->
      <defs>
       <path d="M 10.59375 35.5 
L 73.1875 35.5 
L 73.1875 27.203125 
L 10.59375 27.203125 
z
" id="DejaVuSans-2212"/>
       <path d="M 10.796875 72.90625 
L 49.515625 72.90625 
L 49.515625 64.59375 
L 19.828125 64.59375 
L 19.828125 46.734375 
Q 21.96875 47.46875 24.109375 47.828125 
Q 26.265625 48.1875 28.421875 48.1875 
Q 40.625 48.1875 47.75 41.5 
Q 54.890625 34.8125 54.890625 23.390625 
Q 54.890625 11.625 47.5625 5.09375 
Q 40.234375 -1.421875 26.90625 -1.421875 
Q 22.3125 -1.421875 17.546875 -0.640625 
Q 12.796875 0.140625 7.71875 1.703125 
L 7.71875 11.625 
Q 12.109375 9.234375 16.796875 8.0625 
Q 21.484375 6.890625 26.703125 6.890625 
Q 35.15625 6.890625 40.078125 11.328125 
Q 45.015625 15.765625 45.015625 23.390625 
Q 45.015625 31 40.078125 35.4375 
Q 35.15625 39.890625 26.703125 39.890625 
Q 22.75 39.890625 18.8125 39.015625 
Q 14.890625 38.140625 10.796875 36.28125 
z
" id="DejaVuSans-35"/>
      </defs>
      <g transform="translate(381.4576 271.73332)scale(0.1 -0.1)">
       <use xlink:href="#DejaVuSans-2212"/>
       <use x="83.789062" xlink:href="#DejaVuSans-38"/>
       <use x="147.412109" xlink:href="#DejaVuSans-2e"/>
       <use x="179.199219" xlink:href="#DejaVuSans-35"/>
      </g>
     </g>
    </g>
    <g id="ytick_2">
     <g id="line2d_2">
      <g>
       <use style="stroke:#000000;stroke-width:0.8;" x="374.4576" xlink:href="#ma3d3727372" y="214.344991"/>
      </g>
     </g>
     <g id="text_3">
      <!-- −8.0 -->
      <g transform="translate(381.4576 218.14421)scale(0.1 -0.1)">
       <use xlink:href="#DejaVuSans-2212"/>
       <use x="83.789062" xlink:href="#DejaVuSans-38"/>
       <use x="147.412109" xlink:href="#DejaVuSans-2e"/>
       <use x="179.199219" xlink:href="#DejaVuSans-30"/>
      </g>
     </g>
    </g>
    <g id="ytick_3">
     <g id="line2d_3">
      <g>
       <use style="stroke:#000000;stroke-width:0.8;" x="374.4576" xlink:href="#ma3d3727372" y="160.755881"/>
      </g>
     </g>
     <g id="text_4">
      <!-- −7.5 -->
      <g transform="translate(381.4576 164.5551)scale(0.1 -0.1)">
       <use xlink:href="#DejaVuSans-2212"/>
       <use x="83.789062" xlink:href="#DejaVuSans-37"/>
       <use x="147.412109" xlink:href="#DejaVuSans-2e"/>
       <use x="179.199219" xlink:href="#DejaVuSans-35"/>
      </g>
     </g>
    </g>
    <g id="ytick_4">
     <g id="line2d_4">
      <g>
       <use style="stroke:#000000;stroke-width:0.8;" x="374.4576" xlink:href="#ma3d3727372" y="107.166771"/>
      </g>
     </g>
     <g id="text_5">
      <!-- −7.0 -->
      <g transform="translate(381.4576 110.96599)scale(0.1 -0.1)">
       <use xlink:href="#DejaVuSans-2212"/>
       <use x="83.789062" xlink:href="#DejaVuSans-37"/>
       <use x="147.412109" xlink:href="#DejaVuSans-2e"/>
       <use x="179.199219" xlink:href="#DejaVuSans-30"/>
      </g>
     </g>
    </g>
    <g id="ytick_5">
     <g id="line2d_5">
      <g>
       <use style="stroke:#000000;stroke-width:0.8;" x="374.4576" xlink:href="#ma3d3727372" y="53.577661"/>
      </g>
     </g>
     <g id="text_6">
      <!-- −6.5 -->
      <defs>
       <path d="M 33.015625 40.375 
Q 26.375 40.375 22.484375 35.828125 
Q 18.609375 31.296875 18.609375 23.390625 
Q 18.609375 15.53125 22.484375 10.953125 
Q 26.375 6.390625 33.015625 6.390625 
Q 39.65625 6.390625 43.53125 10.953125 
Q 47.40625 15.53125 47.40625 23.390625 
Q 47.40625 31.296875 43.53125 35.828125 
Q 39.65625 40.375 33.015625 40.375 
z
M 52.59375 71.296875 
L 52.59375 62.3125 
Q 48.875 64.0625 45.09375 64.984375 
Q 41.3125 65.921875 37.59375 65.921875 
Q 27.828125 65.921875 22.671875 59.328125 
Q 17.53125 52.734375 16.796875 39.40625 
Q 19.671875 43.65625 24.015625 45.921875 
Q 28.375 48.1875 33.59375 48.1875 
Q 44.578125 48.1875 50.953125 41.515625 
Q 57.328125 34.859375 57.328125 23.390625 
Q 57.328125 12.15625 50.6875 5.359375 
Q 44.046875 -1.421875 33.015625 -1.421875 
Q 20.359375 -1.421875 13.671875 8.265625 
Q 6.984375 17.96875 6.984375 36.375 
Q 6.984375 53.65625 15.1875 63.9375 
Q 23.390625 74.21875 37.203125 74.21875 
Q 40.921875 74.21875 44.703125 73.484375 
Q 48.484375 72.75 52.59375 71.296875 
z
" id="DejaVuSans-36"/>
      </defs>
      <g transform="translate(381.4576 57.37688)scale(0.1 -0.1)">
       <use xlink:href="#DejaVuSans-2212"/>
       <use x="83.789062" xlink:href="#DejaVuSans-36"/>
       <use x="147.412109" xlink:href="#DejaVuSans-2e"/>
       <use x="179.199219" xlink:href="#DejaVuSans-35"/>
      </g>
     </g>
    </g>
    <g id="text_7">
     <!-- Energy [eV] -->
     <defs>
      <path d="M 54.890625 33.015625 
L 54.890625 0 
L 45.90625 0 
L 45.90625 32.71875 
Q 45.90625 40.484375 42.875 44.328125 
Q 39.84375 48.1875 33.796875 48.1875 
Q 26.515625 48.1875 22.3125 43.546875 
Q 18.109375 38.921875 18.109375 30.90625 
L 18.109375 0 
L 9.078125 0 
L 9.078125 54.6875 
L 18.109375 54.6875 
L 18.109375 46.1875 
Q 21.34375 51.125 25.703125 53.5625 
Q 30.078125 56 35.796875 56 
Q 45.21875 56 50.046875 50.171875 
Q 54.890625 44.34375 54.890625 33.015625 
z
" id="DejaVuSans-6e"/>
      <path d="M 45.40625 27.984375 
Q 45.40625 37.75 41.375 43.109375 
Q 37.359375 48.484375 30.078125 48.484375 
Q 22.859375 48.484375 18.828125 43.109375 
Q 14.796875 37.75 14.796875 27.984375 
Q 14.796875 18.265625 18.828125 12.890625 
Q 22.859375 7.515625 30.078125 7.515625 
Q 37.359375 7.515625 41.375 12.890625 
Q 45.40625 18.265625 45.40625 27.984375 
z
M 54.390625 6.78125 
Q 54.390625 -7.171875 48.1875 -13.984375 
Q 42 -20.796875 29.203125 -20.796875 
Q 24.46875 -20.796875 20.265625 -20.09375 
Q 16.0625 -19.390625 12.109375 -17.921875 
L 12.109375 -9.1875 
Q 16.0625 -11.328125 19.921875 -12.34375 
Q 23.78125 -13.375 27.78125 -13.375 
Q 36.625 -13.375 41.015625 -8.765625 
Q 45.40625 -4.15625 45.40625 5.171875 
L 45.40625 9.625 
Q 42.625 4.78125 38.28125 2.390625 
Q 33.9375 0 27.875 0 
Q 17.828125 0 11.671875 7.65625 
Q 5.515625 15.328125 5.515625 27.984375 
Q 5.515625 40.671875 11.671875 48.328125 
Q 17.828125 56 27.875 56 
Q 33.9375 56 38.28125 53.609375 
Q 42.625 51.21875 45.40625 46.390625 
L 45.40625 54.6875 
L 54.390625 54.6875 
z
" id="DejaVuSans-67"/>
      <path d="M 32.171875 -5.078125 
Q 28.375 -14.84375 24.75 -17.8125 
Q 21.140625 -20.796875 15.09375 -20.796875 
L 7.90625 -20.796875 
L 7.90625 -13.28125 
L 13.1875 -13.28125 
Q 16.890625 -13.28125 18.9375 -11.515625 
Q 21 -9.765625 23.484375 -3.21875 
L 25.09375 0.875 
L 2.984375 54.6875 
L 12.5 54.6875 
L 29.59375 11.921875 
L 46.6875 54.6875 
L 56.203125 54.6875 
z
" id="DejaVuSans-79"/>
      <path d="M 8.59375 75.984375 
L 29.296875 75.984375 
L 29.296875 69 
L 17.578125 69 
L 17.578125 -6.203125 
L 29.296875 -6.203125 
L 29.296875 -13.1875 
L 8.59375 -13.1875 
z
" id="DejaVuSans-5b"/>
      <path d="M 30.421875 75.984375 
L 30.421875 -13.1875 
L 9.71875 -13.1875 
L 9.71875 -6.203125 
L 21.390625 -6.203125 
L 21.390625 69 
L 9.71875 69 
L 9.71875 75.984375 
z
" id="DejaVuSans-5d"/>
     </defs>
     <g transform="translate(417.33885 204.108469)rotate(-90)scale(0.1 -0.1)">
      <use xlink:href="#DejaVuSans-45"/>
      <use x="63.183594" xlink:href="#DejaVuSans-6e"/>
      <use x="126.5625" xlink:href="#DejaVuSans-65"/>
      <use x="188.085938" xlink:href="#DejaVuSans-72"/>
      <use x="229.183594" xlink:href="#DejaVuSans-67"/>
      <use x="292.660156" xlink:href="#DejaVuSans-79"/>
      <use x="351.839844" xlink:href="#DejaVuSans-20"/>
      <use x="383.626953" xlink:href="#DejaVuSans-5b"/>
      <use x="422.640625" xlink:href="#DejaVuSans-65"/>
      <use x="484.164062" xlink:href="#DejaVuSans-56"/>
      <use x="552.572266" xlink:href="#DejaVuSans-5d"/>
     </g>
    </g>
   </g>
   <g id="patch_3">
    <path d="M 361.152 307.584 
L 361.152 306.5445 
L 361.152 42.5115 
L 361.152 41.472 
L 374.4576 41.472 
L 374.4576 42.5115 
L 374.4576 306.5445 
L 374.4576 307.584 
z
" style="fill:none;stroke:#000000;stroke-linejoin:miter;stroke-width:0.8;"/>
   </g>
  </g>
 </g>
 <defs>
  <clipPath id="p0d04d33ce6">
   <rect height="266.112" width="285.696" x="57.6" y="41.472"/>
  </clipPath>
  <clipPath id="peaa7910a4b">
   <rect height="266.112" width="13.3056" x="361.152" y="41.472"/>
  </clipPath>
 </defs>
</svg>
