<?xml version="1.0" encoding="utf-8" standalone="no"?>
<!DOCTYPE svg PUBLIC "-//W3C//DTD SVG 1.1//EN"
  "http://www.w3.org/Graphics/SVG/1.1/DTD/svg11.dtd">
<!-- Created with matplotlib (http://matplotlib.org/) -->
<svg height="345.6pt" version="1.1" viewBox="0 0 460.8 345.6" width="460.8pt" xmlns="http://www.w3.org/2000/svg" xmlns:xlink="http://www.w3.org/1999/xlink">
 <defs>
  <style type="text/css">
*{stroke-linecap:butt;stroke-linejoin:round;}
  </style>
 </defs>
 <g id="figure_1">
  <g id="patch_1">
   <path d="M 0 345.6 
L 460.8 345.6 
L 460.8 0 
L 0 0 
z
" style="fill:#ffffff;"/>
  </g>
  <g id="axes_1">
   <g id="CircleCollection_1">
    <path clip-path="url(#pbe4d8cf6eb)" d="M 325.165653 209.795372 
C 327.007621 209.795372 328.774394 209.06355 330.076862 207.761083 
C 331.379329 206.458615 332.111151 204.691842 332.111151 202.849875 
C 332.111151 201.007907 331.379329 199.241134 330.076862 197.938666 
C 328.774394 196.636199 327.007621 195.904377 325.165653 195.904377 
C 323.323686 195.904377 321.556913 196.636199 320.254445 197.938666 
C 318.951978 199.241134 318.220156 201.007907 318.220156 202.849875 
C 318.220156 204.691842 318.951978 206.458615 320.254445 207.761083 
C 321.556913 209.06355 323.323686 209.795372 325.165653 209.795372 
z
" style="fill:#2f6c8e;"/>
    <path clip-path="url(#pbe4d8cf6eb)" d="M 86.605971 197.593558 
C 88.363172 197.593558 90.048639 196.895415 91.291168 195.652886 
C 92.533697 194.410357 93.23184 192.72489 93.23184 190.967689 
C 93.23184 189.210488 92.533697 187.525021 91.291168 186.282492 
C 90.048639 185.039963 88.363172 184.34182 86.605971 184.34182 
C 84.84877 184.34182 83.163303 185.039963 81.920774 186.282492 
C 80.678245 187.525021 79.980102 189.210488 79.980102 190.967689 
C 79.980102 192.72489 80.678245 194.410357 81.920774 195.652886 
C 83.163303 196.895415 84.84877 197.593558 86.605971 197.593558 
z
" style="fill:#31668e;"/>
    <path clip-path="url(#pbe4d8cf6eb)" d="M 131.654823 152.336429 
C 133.44461 152.336429 135.161333 151.625339 136.426903 150.359769 
C 137.692473 149.094198 138.403563 147.377476 138.403563 145.587689 
C 138.403563 143.797902 137.692473 142.081179 136.426903 140.815609 
C 135.161333 139.550038 133.44461 138.838948 131.654823 138.838948 
C 129.865036 138.838948 128.148313 139.550038 126.882743 140.815609 
C 125.617172 142.081179 124.906082 143.797902 124.906082 145.587689 
C 124.906082 147.377476 125.617172 149.094198 126.882743 150.359769 
C 128.148313 151.625339 129.865036 152.336429 131.654823 152.336429 
z
" style="fill:#2f6b8e;"/>
    <path clip-path="url(#pbe4d8cf6eb)" d="M 203.687748 60.917143 
C 205.530863 60.917143 207.298737 60.184866 208.602017 58.881587 
C 209.905296 57.578307 210.637573 55.810433 210.637573 53.967318 
C 210.637573 52.124203 209.905296 50.356329 208.602017 49.05305 
C 207.298737 47.74977 205.530863 47.017493 203.687748 47.017493 
C 201.844633 47.017493 200.076759 47.74977 198.77348 49.05305 
C 197.4702 50.356329 196.737923 52.124203 196.737923 53.967318 
C 196.737923 55.810433 197.4702 57.578307 198.77348 58.881587 
C 200.076759 60.184866 201.844633 60.917143 203.687748 60.917143 
z
" style="fill:#2d718e;"/>
    <path clip-path="url(#pbe4d8cf6eb)" d="M 276.747156 80.480158 
C 278.606865 80.480158 280.390654 79.741289 281.705667 78.426276 
C 283.020679 77.111264 283.759549 75.327474 283.759549 73.467766 
C 283.759549 71.608057 283.020679 69.824267 281.705667 68.509255 
C 280.390654 67.194243 278.606865 66.455373 276.747156 66.455373 
C 274.887448 66.455373 273.103658 67.194243 271.788646 68.509255 
C 270.473633 69.824267 269.734763 71.608057 269.734763 73.467766 
C 269.734763 75.327474 270.473633 77.111264 271.788646 78.426276 
C 273.103658 79.741289 274.887448 80.480158 276.747156 80.480158 
z
" style="fill:#31688e;"/>
    <path clip-path="url(#pbe4d8cf6eb)" d="M 174.627291 143.331596 
C 176.435243 143.331596 178.169389 142.613289 179.447805 141.334874 
C 180.72622 140.056459 181.444527 138.322312 181.444527 136.51436 
C 181.444527 134.706408 180.72622 132.972261 179.447805 131.693846 
C 178.169389 130.415431 176.435243 129.697124 174.627291 129.697124 
C 172.819338 129.697124 171.085192 130.415431 169.806777 131.693846 
C 168.528361 132.972261 167.810054 134.706408 167.810054 136.51436 
C 167.810054 138.322312 168.528361 140.056459 169.806777 141.334874 
C 171.085192 142.613289 172.819338 143.331596 174.627291 143.331596 
z
" style="fill:#31678e;"/>
    <path clip-path="url(#pbe4d8cf6eb)" d="M 167.201824 73.8756 
C 169.030119 73.8756 170.783777 73.149211 172.076576 71.856412 
C 173.369375 70.563612 174.095764 68.809954 174.095764 66.98166 
C 174.095764 65.153365 173.369375 63.399707 172.076576 62.106908 
C 170.783777 60.814108 169.030119 60.087719 167.201824 60.087719 
C 165.37353 60.087719 163.619872 60.814108 162.327072 62.106908 
C 161.034273 63.399707 160.307884 65.153365 160.307884 66.98166 
C 160.307884 68.809954 161.034273 70.563612 162.327072 71.856412 
C 163.619872 73.149211 165.37353 73.8756 167.201824 73.8756 
z
" style="fill:#2e6e8e;"/>
    <path clip-path="url(#pbe4d8cf6eb)" d="M 216.582264 146.036868 
C 218.403495 146.036868 220.15038 145.313285 221.438185 144.025479 
C 222.72599 142.737674 223.449573 140.99079 223.449573 139.169558 
C 223.449573 137.348326 222.72599 135.601442 221.438185 134.313637 
C 220.15038 133.025831 218.403495 132.302248 216.582264 132.302248 
C 214.761032 132.302248 213.014148 133.025831 211.726342 134.313637 
C 210.438537 135.601442 209.714954 137.348326 209.714954 139.169558 
C 209.714954 140.99079 210.438537 142.737674 211.726342 144.025479 
C 213.014148 145.313285 214.761032 146.036868 216.582264 146.036868 
z
" style="fill:#32658e;"/>
    <path clip-path="url(#pbe4d8cf6eb)" d="M 209.475434 280.809665 
C 211.264614 280.809665 212.980755 280.098816 214.245896 278.833674 
C 215.511038 277.568533 216.221886 275.852392 216.221886 274.063212 
C 216.221886 272.274032 215.511038 270.557891 214.245896 269.29275 
C 212.980755 268.027608 211.264614 267.316759 209.475434 267.316759 
C 207.686254 267.316759 205.970113 268.027608 204.704971 269.29275 
C 203.43983 270.557891 202.728981 272.274032 202.728981 274.063212 
C 202.728981 275.852392 203.43983 277.568533 204.704971 278.833674 
C 205.970113 280.098816 207.686254 280.809665 209.475434 280.809665 
z
" style="fill:#32658e;"/>
    <path clip-path="url(#pbe4d8cf6eb)" d="M 305.347044 233.388113 
C 307.178105 233.388113 308.934418 232.660625 310.229173 231.365869 
C 311.523929 230.071113 312.251417 228.314801 312.251417 226.48374 
C 312.251417 224.652679 311.523929 222.896366 310.229173 221.601611 
C 308.934418 220.306855 307.178105 219.579366 305.347044 219.579366 
C 303.515983 219.579366 301.759671 220.306855 300.464915 221.601611 
C 299.170159 222.896366 298.442671 224.652679 298.442671 226.48374 
C 298.442671 228.314801 299.170159 230.071113 300.464915 231.365869 
C 301.759671 232.660625 303.515983 233.388113 305.347044 233.388113 
z
" style="fill:#32658e;"/>
    <path clip-path="url(#pbe4d8cf6eb)" d="M 254.49134 141.457876 
C 256.32614 141.457876 258.086038 140.728903 259.383437 139.431503 
C 260.680837 138.134104 261.40981 136.374205 261.40981 134.539406 
C 261.40981 132.704606 260.680837 130.944707 259.383437 129.647308 
C 258.086038 128.349908 256.32614 127.620935 254.49134 127.620935 
C 252.65654 127.620935 250.896641 128.349908 249.599242 129.647308 
C 248.301843 130.944707 247.572869 132.704606 247.572869 134.539406 
C 247.572869 136.374205 248.301843 138.134104 249.599242 139.431503 
C 250.896641 140.728903 252.65654 141.457876 254.49134 141.457876 
z
" style="fill:#23898e;"/>
    <path clip-path="url(#pbe4d8cf6eb)" d="M 326.027057 155.188719 
C 327.881823 155.188719 329.660872 154.451812 330.97239 153.140295 
C 332.283907 151.828777 333.020813 150.049728 333.020813 148.194963 
C 333.020813 146.340197 332.283907 144.561148 330.97239 143.24963 
C 329.660872 141.938113 327.881823 141.201206 326.027057 141.201206 
C 324.172292 141.201206 322.393242 141.938113 321.081725 143.24963 
C 319.770208 144.561148 319.033301 146.340197 319.033301 148.194963 
C 319.033301 150.049728 319.770208 151.828777 321.081725 153.140295 
C 322.393242 154.451812 324.172292 155.188719 326.027057 155.188719 
z
" style="fill:#21918c;"/>
    <path clip-path="url(#pbe4d8cf6eb)" d="M 244.829283 268.501688 
C 246.632526 268.501688 248.362156 267.785252 249.637241 266.510166 
C 250.912327 265.235081 251.628763 263.505451 251.628763 261.702208 
C 251.628763 259.898964 250.912327 258.169334 249.637241 256.894249 
C 248.362156 255.619163 246.632526 254.902727 244.829283 254.902727 
C 243.026039 254.902727 241.296409 255.619163 240.021324 256.894249 
C 238.746238 258.169334 238.029802 259.898964 238.029802 261.702208 
C 238.029802 263.505451 238.746238 265.235081 240.021324 266.510166 
C 241.296409 267.785252 243.026039 268.501688 244.829283 268.501688 
z
" style="fill:#34618d;"/>
    <path clip-path="url(#pbe4d8cf6eb)" d="M 141.473002 93.704902 
C 143.286765 93.704902 145.026486 92.984287 146.309011 91.701762 
C 147.591535 90.419238 148.312151 88.679517 148.312151 86.865753 
C 148.312151 85.05199 147.591535 83.312269 146.309011 82.029745 
C 145.026486 80.74722 143.286765 80.026604 141.473002 80.026604 
C 139.659238 80.026604 137.919518 80.74722 136.636993 82.029745 
C 135.354469 83.312269 134.633853 85.05199 134.633853 86.865753 
C 134.633853 88.679517 135.354469 90.419238 136.636993 91.701762 
C 137.919518 92.984287 139.659238 93.704902 141.473002 93.704902 
z
" style="fill:#287d8e;"/>
    <path clip-path="url(#pbe4d8cf6eb)" d="M 277.381143 252.800781 
C 279.198374 252.800781 280.941421 252.078787 282.226398 250.793811 
C 283.511374 249.508834 284.233368 247.765787 284.233368 245.948556 
C 284.233368 244.131324 283.511374 242.388277 282.226398 241.1033 
C 280.941421 239.818324 279.198374 239.09633 277.381143 239.09633 
C 275.563911 239.09633 273.820864 239.818324 272.535887 241.1033 
C 271.250911 242.388277 270.528917 244.131324 270.528917 245.948556 
C 270.528917 247.765787 271.250911 249.508834 272.535887 250.793811 
C 273.820864 252.078787 275.563911 252.800781 277.381143 252.800781 
z
" style="fill:#31668e;"/>
    <path clip-path="url(#pbe4d8cf6eb)" d="M 329.871527 182.221597 
C 331.721243 182.221597 333.495449 181.486697 334.803395 180.178751 
C 336.111342 178.870804 336.846242 177.096599 336.846242 175.246883 
C 336.846242 173.397167 336.111342 171.622961 334.803395 170.315015 
C 333.495449 169.007068 331.721243 168.272168 329.871527 168.272168 
C 328.021811 168.272168 326.247606 169.007068 324.939659 170.315015 
C 323.631713 171.622961 322.896813 173.397167 322.896813 175.246883 
C 322.896813 177.096599 323.631713 178.870804 324.939659 180.178751 
C 326.247606 181.486697 328.021811 182.221597 329.871527 182.221597 
z
" style="fill:#33638d;"/>
    <path clip-path="url(#pbe4d8cf6eb)" d="M 242.650918 63.947311 
C 244.504977 63.947311 246.283349 63.210686 247.594367 61.899668 
C 248.905384 60.58865 249.64201 58.810279 249.64201 56.95622 
C 249.64201 55.102161 248.905384 53.323789 247.594367 52.012772 
C 246.283349 50.701754 244.504977 49.965128 242.650918 49.965128 
C 240.796859 49.965128 239.018488 50.701754 237.70747 52.012772 
C 236.396452 53.323789 235.659827 55.102161 235.659827 56.95622 
C 235.659827 58.810279 236.396452 60.58865 237.70747 61.899668 
C 239.018488 63.210686 240.796859 63.947311 242.650918 63.947311 
z
" style="fill:#2c738e;"/>
    <path clip-path="url(#pbe4d8cf6eb)" d="M 107.407513 174.554803 
C 109.181781 174.554803 110.883618 173.849879 112.138215 172.595283 
C 113.392811 171.340686 114.097736 169.638849 114.097736 167.864581 
C 114.097736 166.090313 113.392811 164.388476 112.138215 163.133879 
C 110.883618 161.879282 109.181781 161.174358 107.407513 161.174358 
C 105.633245 161.174358 103.931408 161.879282 102.676811 163.133879 
C 101.422215 164.388476 100.71729 166.090313 100.71729 167.864581 
C 100.71729 169.638849 101.422215 171.340686 102.676811 172.595283 
C 103.931408 173.849879 105.633245 174.554803 107.407513 174.554803 
z
" style="fill:#2e6e8e;"/>
    <path clip-path="url(#pbe4d8cf6eb)" d="M 134.3094 301.76425 
C 136.075347 301.76425 137.769204 301.062631 139.017917 299.813918 
C 140.266631 298.565205 140.968249 296.871348 140.968249 295.105401 
C 140.968249 293.339453 140.266631 291.645597 139.017917 290.396883 
C 137.769204 289.14817 136.075347 288.446551 134.3094 288.446551 
C 132.543452 288.446551 130.849596 289.14817 129.600883 290.396883 
C 128.352169 291.645597 127.650551 293.339453 127.650551 295.105401 
C 127.650551 296.871348 128.352169 298.565205 129.600883 299.813918 
C 130.849596 301.062631 132.543452 301.76425 134.3094 301.76425 
z
" style="fill:#efe51c;"/>
    <path clip-path="url(#pbe4d8cf6eb)" d="M 70.99808 222.847513 
C 72.736409 222.847513 74.403776 222.156867 75.63296 220.927682 
C 76.862145 219.698497 77.552791 218.031131 77.552791 216.292801 
C 77.552791 214.554472 76.862145 212.887105 75.63296 211.657921 
C 74.403776 210.428736 72.736409 209.73809 70.99808 209.73809 
C 69.25975 209.73809 67.592384 210.428736 66.363199 211.657921 
C 65.134014 212.887105 64.443368 214.554472 64.443368 216.292801 
C 64.443368 218.031131 65.134014 219.698497 66.363199 220.927682 
C 67.592384 222.156867 69.25975 222.847513 70.99808 222.847513 
z
" style="fill:#fde725;"/>
    <path clip-path="url(#pbe4d8cf6eb)" d="M 296.430255 133.560199 
C 298.281069 133.560199 300.056328 132.824863 301.365052 131.51614 
C 302.673775 130.207416 303.409111 128.432157 303.409111 126.581343 
C 303.409111 124.730528 302.673775 122.955269 301.365052 121.646546 
C 300.056328 120.337822 298.281069 119.602486 296.430255 119.602486 
C 294.57944 119.602486 292.804181 120.337822 291.495458 121.646546 
C 290.186734 122.955269 289.451398 124.730528 289.451398 126.581343 
C 289.451398 128.432157 290.186734 130.207416 291.495458 131.51614 
C 292.804181 132.824863 294.57944 133.560199 296.430255 133.560199 
z
" style="fill:#440154;"/>
    <path clip-path="url(#pbe4d8cf6eb)" d="M 172.611073 292.161022 
C 174.387248 292.161022 176.090915 291.455341 177.34686 290.199395 
C 178.602806 288.94345 179.308487 287.239783 179.308487 285.463608 
C 179.308487 283.687433 178.602806 281.983766 177.34686 280.727821 
C 176.090915 279.471875 174.387248 278.766194 172.611073 278.766194 
C 170.834898 278.766194 169.131231 279.471875 167.875286 280.727821 
C 166.619341 281.983766 165.913659 283.687433 165.913659 285.463608 
C 165.913659 287.239783 166.619341 288.94345 167.875286 290.199395 
C 169.131231 291.455341 170.834898 292.161022 172.611073 292.161022 
z
" style="fill:#2e6e8e;"/>
    <path clip-path="url(#pbe4d8cf6eb)" d="M 297.330858 103.350564 
C 299.19062 103.350564 300.974461 102.611673 302.289511 101.296622 
C 303.604561 99.981572 304.343453 98.197731 304.343453 96.337969 
C 304.343453 94.478207 303.604561 92.694366 302.289511 91.379316 
C 300.974461 90.064266 299.19062 89.325375 297.330858 89.325375 
C 295.471096 89.325375 293.687255 90.064266 292.372205 91.379316 
C 291.057155 92.694366 290.318263 94.478207 290.318263 96.337969 
C 290.318263 98.197731 291.057155 99.981572 292.372205 101.296622 
C 293.687255 102.611673 295.471096 103.350564 297.330858 103.350564 
z
" style="fill:#20938c;"/>
    <path clip-path="url(#pbe4d8cf6eb)" d="M 143.047884 122.907805 
C 144.852133 122.907805 146.582727 122.19097 147.858523 120.915173 
C 149.13432 119.639376 149.851156 117.908782 149.851156 116.104533 
C 149.851156 114.300284 149.13432 112.56969 147.858523 111.293894 
C 146.582727 110.018097 144.852133 109.301261 143.047884 109.301261 
C 141.243635 109.301261 139.513041 110.018097 138.237244 111.293894 
C 136.961447 112.56969 136.244612 114.300284 136.244612 116.104533 
C 136.244612 117.908782 136.961447 119.639376 138.237244 120.915173 
C 139.513041 122.19097 141.243635 122.907805 143.047884 122.907805 
z
" style="fill:#30698e;"/>
   </g>
   <g id="text_1">
    <!-- Structure #9152, $E_N$=-178.46eV, ΔE=0.33eV -->
    <defs>
     <path d="M 53.515625 70.515625 
L 53.515625 60.890625 
Q 47.90625 63.578125 42.921875 64.890625 
Q 37.9375 66.21875 33.296875 66.21875 
Q 25.25 66.21875 20.875 63.09375 
Q 16.5 59.96875 16.5 54.203125 
Q 16.5 49.359375 19.40625 46.890625 
Q 22.3125 44.4375 30.421875 42.921875 
L 36.375 41.703125 
Q 47.40625 39.59375 52.65625 34.296875 
Q 57.90625 29 57.90625 20.125 
Q 57.90625 9.515625 50.796875 4.046875 
Q 43.703125 -1.421875 29.984375 -1.421875 
Q 24.8125 -1.421875 18.96875 -0.25 
Q 13.140625 0.921875 6.890625 3.21875 
L 6.890625 13.375 
Q 12.890625 10.015625 18.65625 8.296875 
Q 24.421875 6.59375 29.984375 6.59375 
Q 38.421875 6.59375 43.015625 9.90625 
Q 47.609375 13.234375 47.609375 19.390625 
Q 47.609375 24.75 44.3125 27.78125 
Q 41.015625 30.8125 33.5 32.328125 
L 27.484375 33.5 
Q 16.453125 35.6875 11.515625 40.375 
Q 6.59375 45.0625 6.59375 53.421875 
Q 6.59375 63.09375 13.40625 68.65625 
Q 20.21875 74.21875 32.171875 74.21875 
Q 37.3125 74.21875 42.625 73.28125 
Q 47.953125 72.359375 53.515625 70.515625 
z
" id="DejaVuSans-53"/>
     <path d="M 18.3125 70.21875 
L 18.3125 54.6875 
L 36.8125 54.6875 
L 36.8125 47.703125 
L 18.3125 47.703125 
L 18.3125 18.015625 
Q 18.3125 11.328125 20.140625 9.421875 
Q 21.96875 7.515625 27.59375 7.515625 
L 36.8125 7.515625 
L 36.8125 0 
L 27.59375 0 
Q 17.1875 0 13.234375 3.875 
Q 9.28125 7.765625 9.28125 18.015625 
L 9.28125 47.703125 
L 2.6875 47.703125 
L 2.6875 54.6875 
L 9.28125 54.6875 
L 9.28125 70.21875 
z
" id="DejaVuSans-74"/>
     <path d="M 41.109375 46.296875 
Q 39.59375 47.171875 37.8125 47.578125 
Q 36.03125 48 33.890625 48 
Q 26.265625 48 22.1875 43.046875 
Q 18.109375 38.09375 18.109375 28.8125 
L 18.109375 0 
L 9.078125 0 
L 9.078125 54.6875 
L 18.109375 54.6875 
L 18.109375 46.1875 
Q 20.953125 51.171875 25.484375 53.578125 
Q 30.03125 56 36.53125 56 
Q 37.453125 56 38.578125 55.875 
Q 39.703125 55.765625 41.0625 55.515625 
z
" id="DejaVuSans-72"/>
     <path d="M 8.5 21.578125 
L 8.5 54.6875 
L 17.484375 54.6875 
L 17.484375 21.921875 
Q 17.484375 14.15625 20.5 10.265625 
Q 23.53125 6.390625 29.59375 6.390625 
Q 36.859375 6.390625 41.078125 11.03125 
Q 45.3125 15.671875 45.3125 23.6875 
L 45.3125 54.6875 
L 54.296875 54.6875 
L 54.296875 0 
L 45.3125 0 
L 45.3125 8.40625 
Q 42.046875 3.421875 37.71875 1 
Q 33.40625 -1.421875 27.6875 -1.421875 
Q 18.265625 -1.421875 13.375 4.4375 
Q 8.5 10.296875 8.5 21.578125 
z
M 31.109375 56 
z
" id="DejaVuSans-75"/>
     <path d="M 48.78125 52.59375 
L 48.78125 44.1875 
Q 44.96875 46.296875 41.140625 47.34375 
Q 37.3125 48.390625 33.40625 48.390625 
Q 24.65625 48.390625 19.8125 42.84375 
Q 14.984375 37.3125 14.984375 27.296875 
Q 14.984375 17.28125 19.8125 11.734375 
Q 24.65625 6.203125 33.40625 6.203125 
Q 37.3125 6.203125 41.140625 7.25 
Q 44.96875 8.296875 48.78125 10.40625 
L 48.78125 2.09375 
Q 45.015625 0.34375 40.984375 -0.53125 
Q 36.96875 -1.421875 32.421875 -1.421875 
Q 20.0625 -1.421875 12.78125 6.34375 
Q 5.515625 14.109375 5.515625 27.296875 
Q 5.515625 40.671875 12.859375 48.328125 
Q 20.21875 56 33.015625 56 
Q 37.15625 56 41.109375 55.140625 
Q 45.0625 54.296875 48.78125 52.59375 
z
" id="DejaVuSans-63"/>
     <path d="M 56.203125 29.59375 
L 56.203125 25.203125 
L 14.890625 25.203125 
Q 15.484375 15.921875 20.484375 11.0625 
Q 25.484375 6.203125 34.421875 6.203125 
Q 39.59375 6.203125 44.453125 7.46875 
Q 49.3125 8.734375 54.109375 11.28125 
L 54.109375 2.78125 
Q 49.265625 0.734375 44.1875 -0.34375 
Q 39.109375 -1.421875 33.890625 -1.421875 
Q 20.796875 -1.421875 13.15625 6.1875 
Q 5.515625 13.8125 5.515625 26.8125 
Q 5.515625 40.234375 12.765625 48.109375 
Q 20.015625 56 32.328125 56 
Q 43.359375 56 49.78125 48.890625 
Q 56.203125 41.796875 56.203125 29.59375 
z
M 47.21875 32.234375 
Q 47.125 39.59375 43.09375 43.984375 
Q 39.0625 48.390625 32.421875 48.390625 
Q 24.90625 48.390625 20.390625 44.140625 
Q 15.875 39.890625 15.1875 32.171875 
z
" id="DejaVuSans-65"/>
     <path id="DejaVuSans-20"/>
     <path d="M 51.125 44 
L 36.921875 44 
L 32.8125 27.6875 
L 47.125 27.6875 
z
M 43.796875 71.78125 
L 38.71875 51.515625 
L 52.984375 51.515625 
L 58.109375 71.78125 
L 65.921875 71.78125 
L 60.890625 51.515625 
L 76.125 51.515625 
L 76.125 44 
L 58.984375 44 
L 54.984375 27.6875 
L 70.515625 27.6875 
L 70.515625 20.21875 
L 53.078125 20.21875 
L 48 0 
L 40.1875 0 
L 45.21875 20.21875 
L 30.90625 20.21875 
L 25.875 0 
L 18.015625 0 
L 23.09375 20.21875 
L 7.71875 20.21875 
L 7.71875 27.6875 
L 24.90625 27.6875 
L 29 44 
L 13.28125 44 
L 13.28125 51.515625 
L 30.90625 51.515625 
L 35.890625 71.78125 
z
" id="DejaVuSans-23"/>
     <path d="M 10.984375 1.515625 
L 10.984375 10.5 
Q 14.703125 8.734375 18.5 7.8125 
Q 22.3125 6.890625 25.984375 6.890625 
Q 35.75 6.890625 40.890625 13.453125 
Q 46.046875 20.015625 46.78125 33.40625 
Q 43.953125 29.203125 39.59375 26.953125 
Q 35.25 24.703125 29.984375 24.703125 
Q 19.046875 24.703125 12.671875 31.3125 
Q 6.296875 37.9375 6.296875 49.421875 
Q 6.296875 60.640625 12.9375 67.421875 
Q 19.578125 74.21875 30.609375 74.21875 
Q 43.265625 74.21875 49.921875 64.515625 
Q 56.59375 54.828125 56.59375 36.375 
Q 56.59375 19.140625 48.40625 8.859375 
Q 40.234375 -1.421875 26.421875 -1.421875 
Q 22.703125 -1.421875 18.890625 -0.6875 
Q 15.09375 0.046875 10.984375 1.515625 
z
M 30.609375 32.421875 
Q 37.25 32.421875 41.125 36.953125 
Q 45.015625 41.5 45.015625 49.421875 
Q 45.015625 57.28125 41.125 61.84375 
Q 37.25 66.40625 30.609375 66.40625 
Q 23.96875 66.40625 20.09375 61.84375 
Q 16.21875 57.28125 16.21875 49.421875 
Q 16.21875 41.5 20.09375 36.953125 
Q 23.96875 32.421875 30.609375 32.421875 
z
" id="DejaVuSans-39"/>
     <path d="M 12.40625 8.296875 
L 28.515625 8.296875 
L 28.515625 63.921875 
L 10.984375 60.40625 
L 10.984375 69.390625 
L 28.421875 72.90625 
L 38.28125 72.90625 
L 38.28125 8.296875 
L 54.390625 8.296875 
L 54.390625 0 
L 12.40625 0 
z
" id="DejaVuSans-31"/>
     <path d="M 10.796875 72.90625 
L 49.515625 72.90625 
L 49.515625 64.59375 
L 19.828125 64.59375 
L 19.828125 46.734375 
Q 21.96875 47.46875 24.109375 47.828125 
Q 26.265625 48.1875 28.421875 48.1875 
Q 40.625 48.1875 47.75 41.5 
Q 54.890625 34.8125 54.890625 23.390625 
Q 54.890625 11.625 47.5625 5.09375 
Q 40.234375 -1.421875 26.90625 -1.421875 
Q 22.3125 -1.421875 17.546875 -0.640625 
Q 12.796875 0.140625 7.71875 1.703125 
L 7.71875 11.625 
Q 12.109375 9.234375 16.796875 8.0625 
Q 21.484375 6.890625 26.703125 6.890625 
Q 35.15625 6.890625 40.078125 11.328125 
Q 45.015625 15.765625 45.015625 23.390625 
Q 45.015625 31 40.078125 35.4375 
Q 35.15625 39.890625 26.703125 39.890625 
Q 22.75 39.890625 18.8125 39.015625 
Q 14.890625 38.140625 10.796875 36.28125 
z
" id="DejaVuSans-35"/>
     <path d="M 19.1875 8.296875 
L 53.609375 8.296875 
L 53.609375 0 
L 7.328125 0 
L 7.328125 8.296875 
Q 12.9375 14.109375 22.625 23.890625 
Q 32.328125 33.6875 34.8125 36.53125 
Q 39.546875 41.84375 41.421875 45.53125 
Q 43.3125 49.21875 43.3125 52.78125 
Q 43.3125 58.59375 39.234375 62.25 
Q 35.15625 65.921875 28.609375 65.921875 
Q 23.96875 65.921875 18.8125 64.3125 
Q 13.671875 62.703125 7.8125 59.421875 
L 7.8125 69.390625 
Q 13.765625 71.78125 18.9375 73 
Q 24.125 74.21875 28.421875 74.21875 
Q 39.75 74.21875 46.484375 68.546875 
Q 53.21875 62.890625 53.21875 53.421875 
Q 53.21875 48.921875 51.53125 44.890625 
Q 49.859375 40.875 45.40625 35.40625 
Q 44.1875 33.984375 37.640625 27.21875 
Q 31.109375 20.453125 19.1875 8.296875 
z
" id="DejaVuSans-32"/>
     <path d="M 11.71875 12.40625 
L 22.015625 12.40625 
L 22.015625 4 
L 14.015625 -11.625 
L 7.71875 -11.625 
L 11.71875 4 
z
" id="DejaVuSans-2c"/>
     <path d="M 16.890625 72.90625 
L 62.984375 72.90625 
L 61.375 64.59375 
L 25.09375 64.59375 
L 20.90625 43.015625 
L 55.71875 43.015625 
L 54.109375 34.71875 
L 19.28125 34.71875 
L 14.203125 8.296875 
L 51.3125 8.296875 
L 49.703125 0 
L 2.6875 0 
z
" id="DejaVuSans-Oblique-45"/>
     <path d="M 16.890625 72.90625 
L 30.171875 72.90625 
L 50.296875 10.40625 
L 62.5 72.90625 
L 72.125 72.90625 
L 57.90625 0 
L 44.578125 0 
L 24.515625 62.890625 
L 12.3125 0 
L 2.6875 0 
z
" id="DejaVuSans-Oblique-4e"/>
     <path d="M 10.59375 45.40625 
L 73.1875 45.40625 
L 73.1875 37.203125 
L 10.59375 37.203125 
z
M 10.59375 25.484375 
L 73.1875 25.484375 
L 73.1875 17.1875 
L 10.59375 17.1875 
z
" id="DejaVuSans-3d"/>
     <path d="M 4.890625 31.390625 
L 31.203125 31.390625 
L 31.203125 23.390625 
L 4.890625 23.390625 
z
" id="DejaVuSans-2d"/>
     <path d="M 8.203125 72.90625 
L 55.078125 72.90625 
L 55.078125 68.703125 
L 28.609375 0 
L 18.3125 0 
L 43.21875 64.59375 
L 8.203125 64.59375 
z
" id="DejaVuSans-37"/>
     <path d="M 31.78125 34.625 
Q 24.75 34.625 20.71875 30.859375 
Q 16.703125 27.09375 16.703125 20.515625 
Q 16.703125 13.921875 20.71875 10.15625 
Q 24.75 6.390625 31.78125 6.390625 
Q 38.8125 6.390625 42.859375 10.171875 
Q 46.921875 13.96875 46.921875 20.515625 
Q 46.921875 27.09375 42.890625 30.859375 
Q 38.875 34.625 31.78125 34.625 
z
M 21.921875 38.8125 
Q 15.578125 40.375 12.03125 44.71875 
Q 8.5 49.078125 8.5 55.328125 
Q 8.5 64.0625 14.71875 69.140625 
Q 20.953125 74.21875 31.78125 74.21875 
Q 42.671875 74.21875 48.875 69.140625 
Q 55.078125 64.0625 55.078125 55.328125 
Q 55.078125 49.078125 51.53125 44.71875 
Q 48 40.375 41.703125 38.8125 
Q 48.828125 37.15625 52.796875 32.3125 
Q 56.78125 27.484375 56.78125 20.515625 
Q 56.78125 9.90625 50.3125 4.234375 
Q 43.84375 -1.421875 31.78125 -1.421875 
Q 19.734375 -1.421875 13.25 4.234375 
Q 6.78125 9.90625 6.78125 20.515625 
Q 6.78125 27.484375 10.78125 32.3125 
Q 14.796875 37.15625 21.921875 38.8125 
z
M 18.3125 54.390625 
Q 18.3125 48.734375 21.84375 45.5625 
Q 25.390625 42.390625 31.78125 42.390625 
Q 38.140625 42.390625 41.71875 45.5625 
Q 45.3125 48.734375 45.3125 54.390625 
Q 45.3125 60.0625 41.71875 63.234375 
Q 38.140625 66.40625 31.78125 66.40625 
Q 25.390625 66.40625 21.84375 63.234375 
Q 18.3125 60.0625 18.3125 54.390625 
z
" id="DejaVuSans-38"/>
     <path d="M 10.6875 12.40625 
L 21 12.40625 
L 21 0 
L 10.6875 0 
z
" id="DejaVuSans-2e"/>
     <path d="M 37.796875 64.3125 
L 12.890625 25.390625 
L 37.796875 25.390625 
z
M 35.203125 72.90625 
L 47.609375 72.90625 
L 47.609375 25.390625 
L 58.015625 25.390625 
L 58.015625 17.1875 
L 47.609375 17.1875 
L 47.609375 0 
L 37.796875 0 
L 37.796875 17.1875 
L 4.890625 17.1875 
L 4.890625 26.703125 
z
" id="DejaVuSans-34"/>
     <path d="M 33.015625 40.375 
Q 26.375 40.375 22.484375 35.828125 
Q 18.609375 31.296875 18.609375 23.390625 
Q 18.609375 15.53125 22.484375 10.953125 
Q 26.375 6.390625 33.015625 6.390625 
Q 39.65625 6.390625 43.53125 10.953125 
Q 47.40625 15.53125 47.40625 23.390625 
Q 47.40625 31.296875 43.53125 35.828125 
Q 39.65625 40.375 33.015625 40.375 
z
M 52.59375 71.296875 
L 52.59375 62.3125 
Q 48.875 64.0625 45.09375 64.984375 
Q 41.3125 65.921875 37.59375 65.921875 
Q 27.828125 65.921875 22.671875 59.328125 
Q 17.53125 52.734375 16.796875 39.40625 
Q 19.671875 43.65625 24.015625 45.921875 
Q 28.375 48.1875 33.59375 48.1875 
Q 44.578125 48.1875 50.953125 41.515625 
Q 57.328125 34.859375 57.328125 23.390625 
Q 57.328125 12.15625 50.6875 5.359375 
Q 44.046875 -1.421875 33.015625 -1.421875 
Q 20.359375 -1.421875 13.671875 8.265625 
Q 6.984375 17.96875 6.984375 36.375 
Q 6.984375 53.65625 15.1875 63.9375 
Q 23.390625 74.21875 37.203125 74.21875 
Q 40.921875 74.21875 44.703125 73.484375 
Q 48.484375 72.75 52.59375 71.296875 
z
" id="DejaVuSans-36"/>
     <path d="M 28.609375 0 
L 0.78125 72.90625 
L 11.078125 72.90625 
L 34.1875 11.53125 
L 57.328125 72.90625 
L 67.578125 72.90625 
L 39.796875 0 
z
" id="DejaVuSans-56"/>
     <path d="M 34.1875 63.1875 
L 14.15625 8.203125 
L 54.25 8.203125 
z
M 0.78125 0 
L 28.609375 72.90625 
L 39.796875 72.90625 
L 67.578125 0 
z
" id="DejaVuSans-394"/>
     <path d="M 9.8125 72.90625 
L 55.90625 72.90625 
L 55.90625 64.59375 
L 19.671875 64.59375 
L 19.671875 43.015625 
L 54.390625 43.015625 
L 54.390625 34.71875 
L 19.671875 34.71875 
L 19.671875 8.296875 
L 56.78125 8.296875 
L 56.78125 0 
L 9.8125 0 
z
" id="DejaVuSans-45"/>
     <path d="M 31.78125 66.40625 
Q 24.171875 66.40625 20.328125 58.90625 
Q 16.5 51.421875 16.5 36.375 
Q 16.5 21.390625 20.328125 13.890625 
Q 24.171875 6.390625 31.78125 6.390625 
Q 39.453125 6.390625 43.28125 13.890625 
Q 47.125 21.390625 47.125 36.375 
Q 47.125 51.421875 43.28125 58.90625 
Q 39.453125 66.40625 31.78125 66.40625 
z
M 31.78125 74.21875 
Q 44.046875 74.21875 50.515625 64.515625 
Q 56.984375 54.828125 56.984375 36.375 
Q 56.984375 17.96875 50.515625 8.265625 
Q 44.046875 -1.421875 31.78125 -1.421875 
Q 19.53125 -1.421875 13.0625 8.265625 
Q 6.59375 17.96875 6.59375 36.375 
Q 6.59375 54.828125 13.0625 64.515625 
Q 19.53125 74.21875 31.78125 74.21875 
z
" id="DejaVuSans-30"/>
     <path d="M 40.578125 39.3125 
Q 47.65625 37.796875 51.625 33 
Q 55.609375 28.21875 55.609375 21.1875 
Q 55.609375 10.40625 48.1875 4.484375 
Q 40.765625 -1.421875 27.09375 -1.421875 
Q 22.515625 -1.421875 17.65625 -0.515625 
Q 12.796875 0.390625 7.625 2.203125 
L 7.625 11.71875 
Q 11.71875 9.328125 16.59375 8.109375 
Q 21.484375 6.890625 26.8125 6.890625 
Q 36.078125 6.890625 40.9375 10.546875 
Q 45.796875 14.203125 45.796875 21.1875 
Q 45.796875 27.640625 41.28125 31.265625 
Q 36.765625 34.90625 28.71875 34.90625 
L 20.21875 34.90625 
L 20.21875 43.015625 
L 29.109375 43.015625 
Q 36.375 43.015625 40.234375 45.921875 
Q 44.09375 48.828125 44.09375 54.296875 
Q 44.09375 59.90625 40.109375 62.90625 
Q 36.140625 65.921875 28.71875 65.921875 
Q 24.65625 65.921875 20.015625 65.03125 
Q 15.375 64.15625 9.8125 62.3125 
L 9.8125 71.09375 
Q 15.4375 72.65625 20.34375 73.4375 
Q 25.25 74.21875 29.59375 74.21875 
Q 40.828125 74.21875 47.359375 69.109375 
Q 53.90625 64.015625 53.90625 55.328125 
Q 53.90625 49.265625 50.4375 45.09375 
Q 46.96875 40.921875 40.578125 39.3125 
z
" id="DejaVuSans-33"/>
    </defs>
    <g transform="translate(65.388 35.472)scale(0.12 -0.12)">
     <use transform="translate(0 0.78125)" xlink:href="#DejaVuSans-53"/>
     <use transform="translate(63.476562 0.78125)" xlink:href="#DejaVuSans-74"/>
     <use transform="translate(102.685547 0.78125)" xlink:href="#DejaVuSans-72"/>
     <use transform="translate(143.798828 0.78125)" xlink:href="#DejaVuSans-75"/>
     <use transform="translate(207.177734 0.78125)" xlink:href="#DejaVuSans-63"/>
     <use transform="translate(262.158203 0.78125)" xlink:href="#DejaVuSans-74"/>
     <use transform="translate(301.367188 0.78125)" xlink:href="#DejaVuSans-75"/>
     <use transform="translate(364.746094 0.78125)" xlink:href="#DejaVuSans-72"/>
     <use transform="translate(405.859375 0.78125)" xlink:href="#DejaVuSans-65"/>
     <use transform="translate(467.382812 0.78125)" xlink:href="#DejaVuSans-20"/>
     <use transform="translate(499.169922 0.78125)" xlink:href="#DejaVuSans-23"/>
     <use transform="translate(582.958984 0.78125)" xlink:href="#DejaVuSans-39"/>
     <use transform="translate(646.582031 0.78125)" xlink:href="#DejaVuSans-31"/>
     <use transform="translate(710.205078 0.78125)" xlink:href="#DejaVuSans-35"/>
     <use transform="translate(773.828125 0.78125)" xlink:href="#DejaVuSans-32"/>
     <use transform="translate(837.451172 0.78125)" xlink:href="#DejaVuSans-2c"/>
     <use transform="translate(869.238281 0.78125)" xlink:href="#DejaVuSans-20"/>
     <use transform="translate(901.025391 0.78125)" xlink:href="#DejaVuSans-Oblique-45"/>
     <use transform="translate(964.208984 -15.625)scale(0.7)" xlink:href="#DejaVuSans-Oblique-4e"/>
     <use transform="translate(1019.306641 0.78125)" xlink:href="#DejaVuSans-3d"/>
     <use transform="translate(1103.095703 0.78125)" xlink:href="#DejaVuSans-2d"/>
     <use transform="translate(1139.179688 0.78125)" xlink:href="#DejaVuSans-31"/>
     <use transform="translate(1202.802734 0.78125)" xlink:href="#DejaVuSans-37"/>
     <use transform="translate(1266.425781 0.78125)" xlink:href="#DejaVuSans-38"/>
     <use transform="translate(1330.048828 0.78125)" xlink:href="#DejaVuSans-2e"/>
     <use transform="translate(1361.835938 0.78125)" xlink:href="#DejaVuSans-34"/>
     <use transform="translate(1425.458984 0.78125)" xlink:href="#DejaVuSans-36"/>
     <use transform="translate(1489.082031 0.78125)" xlink:href="#DejaVuSans-65"/>
     <use transform="translate(1550.605469 0.78125)" xlink:href="#DejaVuSans-56"/>
     <use transform="translate(1619.013672 0.78125)" xlink:href="#DejaVuSans-2c"/>
     <use transform="translate(1650.800781 0.78125)" xlink:href="#DejaVuSans-20"/>
     <use transform="translate(1682.587891 0.78125)" xlink:href="#DejaVuSans-394"/>
     <use transform="translate(1750.996094 0.78125)" xlink:href="#DejaVuSans-45"/>
     <use transform="translate(1814.179688 0.78125)" xlink:href="#DejaVuSans-3d"/>
     <use transform="translate(1897.96875 0.78125)" xlink:href="#DejaVuSans-30"/>
     <use transform="translate(1961.591797 0.78125)" xlink:href="#DejaVuSans-2e"/>
     <use transform="translate(1993.378906 0.78125)" xlink:href="#DejaVuSans-33"/>
     <use transform="translate(2057.001953 0.78125)" xlink:href="#DejaVuSans-33"/>
     <use transform="translate(2120.625 0.78125)" xlink:href="#DejaVuSans-65"/>
     <use transform="translate(2182.148438 0.78125)" xlink:href="#DejaVuSans-56"/>
    </g>
   </g>
  </g>
  <g id="axes_2">
   <g id="patch_2">
    <path clip-path="url(#pe6c3ebd821)" d="M 361.152 307.584 
L 361.152 306.5445 
L 361.152 42.5115 
L 361.152 41.472 
L 374.4576 41.472 
L 374.4576 42.5115 
L 374.4576 306.5445 
L 374.4576 307.584 
z
" style="fill:#ffffff;stroke:#ffffff;stroke-linejoin:miter;stroke-width:0.01;"/>
   </g>
   <image height="265.68" id="image6ac8d3f0ad" transform="scale(1 -1)translate(0 -265.68)" width="12.96" x="361.44" xlink:href="data:image/png;base64,
iVBORw0KGgoAAAANSUhEUgAAABIAAAFxCAYAAAB+2fgXAAAABHNCSVQICAgIfAhkiAAAAeVJREFUeJztncmNw0AQA2ckheYQNv9QLIfQ8ygsCgQ7AEI8+jAs2Puz/94F1LP2ReCsZ18bAWIeZ5XaGRBE7VnbptG+KI101FYyNSiQG2oRITXKNaX9uclOdi2XWjftVE32CZCO2ou5Bj1TcCBr/1zB9ge7Fq0Rg2NM9pvbtG+ua1QgsRYhDy0ISEiNc40BEibbSI0Coj5CBGtkpFbXJiAjNZlrwhuSOv2M1DjXbEdEciBt1JSDDQKKpmZr2rr2j0DBGpXaWEJq3bQzEPIS26r9J+Wzv9Tm8o3aajRXqc3VUXsApKNWjeZq0x4ABVNbm7lrszVigDqP5vIl2+eaT2yfRkL7g+dRcNPqjohkjaCvRVBq0H2U3LQrOJCx9kdTg4B8oxZzzTdqdYHEngjUCAPyUctN9sVRq2sTECW2UKNLd2jVtRmo1A6AhMmWaSRcR8nUdIHUuVb75zJS218EyEitro1At69pIdeSk30Lkw0FktNImGyZRhy1O5galmxd03LUsHWk06jUZiCq+5Wb1kZNN4+wJxJuWt8RAW5am2sYNZ9rYCBzZ3buPKJ2P5Yj4Toy3keyIyJbIxs1rml1byCA84gpch5RQNB7Q0qNMGq2Hy4BXdNR41yz/cEEJfZzUz96r9PoB0okjeQ8y9TkAAAAAElFTkSuQmCC" y="-41.76"/>
   <g id="matplotlib.axis_1"/>
   <g id="matplotlib.axis_2">
    <g id="ytick_1">
     <g id="line2d_1">
      <defs>
       <path d="M 0 0 
L 3.5 0 
" id="m0cf0124399" style="stroke:#000000;stroke-width:0.8;"/>
      </defs>
      <g>
       <use style="stroke:#000000;stroke-width:0.8;" x="374.4576" xlink:href="#m0cf0124399" y="298.034637"/>
      </g>
     </g>
     <g id="text_2">
      <!-- −9.0 -->
      <defs>
       <path d="M 10.59375 35.5 
L 73.1875 35.5 
L 73.1875 27.203125 
L 10.59375 27.203125 
z
" id="DejaVuSans-2212"/>
      </defs>
      <g transform="translate(381.4576 301.833855)scale(0.1 -0.1)">
       <use xlink:href="#DejaVuSans-2212"/>
       <use x="83.789062" xlink:href="#DejaVuSans-39"/>
       <use x="147.412109" xlink:href="#DejaVuSans-2e"/>
       <use x="179.199219" xlink:href="#DejaVuSans-30"/>
      </g>
     </g>
    </g>
    <g id="ytick_2">
     <g id="line2d_2">
      <g>
       <use style="stroke:#000000;stroke-width:0.8;" x="374.4576" xlink:href="#m0cf0124399" y="266.937832"/>
      </g>
     </g>
     <g id="text_3">
      <!-- −8.5 -->
      <g transform="translate(381.4576 270.737051)scale(0.1 -0.1)">
       <use xlink:href="#DejaVuSans-2212"/>
       <use x="83.789062" xlink:href="#DejaVuSans-38"/>
       <use x="147.412109" xlink:href="#DejaVuSans-2e"/>
       <use x="179.199219" xlink:href="#DejaVuSans-35"/>
      </g>
     </g>
    </g>
    <g id="ytick_3">
     <g id="line2d_3">
      <g>
       <use style="stroke:#000000;stroke-width:0.8;" x="374.4576" xlink:href="#m0cf0124399" y="235.841027"/>
      </g>
     </g>
     <g id="text_4">
      <!-- −8.0 -->
      <g transform="translate(381.4576 239.640246)scale(0.1 -0.1)">
       <use xlink:href="#DejaVuSans-2212"/>
       <use x="83.789062" xlink:href="#DejaVuSans-38"/>
       <use x="147.412109" xlink:href="#DejaVuSans-2e"/>
       <use x="179.199219" xlink:href="#DejaVuSans-30"/>
      </g>
     </g>
    </g>
    <g id="ytick_4">
     <g id="line2d_4">
      <g>
       <use style="stroke:#000000;stroke-width:0.8;" x="374.4576" xlink:href="#m0cf0124399" y="204.744222"/>
      </g>
     </g>
     <g id="text_5">
      <!-- −7.5 -->
      <g transform="translate(381.4576 208.543441)scale(0.1 -0.1)">
       <use xlink:href="#DejaVuSans-2212"/>
       <use x="83.789062" xlink:href="#DejaVuSans-37"/>
       <use x="147.412109" xlink:href="#DejaVuSans-2e"/>
       <use x="179.199219" xlink:href="#DejaVuSans-35"/>
      </g>
     </g>
    </g>
    <g id="ytick_5">
     <g id="line2d_5">
      <g>
       <use style="stroke:#000000;stroke-width:0.8;" x="374.4576" xlink:href="#m0cf0124399" y="173.647418"/>
      </g>
     </g>
     <g id="text_6">
      <!-- −7.0 -->
      <g transform="translate(381.4576 177.446636)scale(0.1 -0.1)">
       <use xlink:href="#DejaVuSans-2212"/>
       <use x="83.789062" xlink:href="#DejaVuSans-37"/>
       <use x="147.412109" xlink:href="#DejaVuSans-2e"/>
       <use x="179.199219" xlink:href="#DejaVuSans-30"/>
      </g>
     </g>
    </g>
    <g id="ytick_6">
     <g id="line2d_6">
      <g>
       <use style="stroke:#000000;stroke-width:0.8;" x="374.4576" xlink:href="#m0cf0124399" y="142.550613"/>
      </g>
     </g>
     <g id="text_7">
      <!-- −6.5 -->
      <g transform="translate(381.4576 146.349832)scale(0.1 -0.1)">
       <use xlink:href="#DejaVuSans-2212"/>
       <use x="83.789062" xlink:href="#DejaVuSans-36"/>
       <use x="147.412109" xlink:href="#DejaVuSans-2e"/>
       <use x="179.199219" xlink:href="#DejaVuSans-35"/>
      </g>
     </g>
    </g>
    <g id="ytick_7">
     <g id="line2d_7">
      <g>
       <use style="stroke:#000000;stroke-width:0.8;" x="374.4576" xlink:href="#m0cf0124399" y="111.453808"/>
      </g>
     </g>
     <g id="text_8">
      <!-- −6.0 -->
      <g transform="translate(381.4576 115.253027)scale(0.1 -0.1)">
       <use xlink:href="#DejaVuSans-2212"/>
       <use x="83.789062" xlink:href="#DejaVuSans-36"/>
       <use x="147.412109" xlink:href="#DejaVuSans-2e"/>
       <use x="179.199219" xlink:href="#DejaVuSans-30"/>
      </g>
     </g>
    </g>
    <g id="ytick_8">
     <g id="line2d_8">
      <g>
       <use style="stroke:#000000;stroke-width:0.8;" x="374.4576" xlink:href="#m0cf0124399" y="80.357004"/>
      </g>
     </g>
     <g id="text_9">
      <!-- −5.5 -->
      <g transform="translate(381.4576 84.156222)scale(0.1 -0.1)">
       <use xlink:href="#DejaVuSans-2212"/>
       <use x="83.789062" xlink:href="#DejaVuSans-35"/>
       <use x="147.412109" xlink:href="#DejaVuSans-2e"/>
       <use x="179.199219" xlink:href="#DejaVuSans-35"/>
      </g>
     </g>
    </g>
    <g id="ytick_9">
     <g id="line2d_9">
      <g>
       <use style="stroke:#000000;stroke-width:0.8;" x="374.4576" xlink:href="#m0cf0124399" y="49.260199"/>
      </g>
     </g>
     <g id="text_10">
      <!-- −5.0 -->
      <g transform="translate(381.4576 53.059418)scale(0.1 -0.1)">
       <use xlink:href="#DejaVuSans-2212"/>
       <use x="83.789062" xlink:href="#DejaVuSans-35"/>
       <use x="147.412109" xlink:href="#DejaVuSans-2e"/>
       <use x="179.199219" xlink:href="#DejaVuSans-30"/>
      </g>
     </g>
    </g>
    <g id="text_11">
     <!-- Energy [eV] -->
     <defs>
      <path d="M 54.890625 33.015625 
L 54.890625 0 
L 45.90625 0 
L 45.90625 32.71875 
Q 45.90625 40.484375 42.875 44.328125 
Q 39.84375 48.1875 33.796875 48.1875 
Q 26.515625 48.1875 22.3125 43.546875 
Q 18.109375 38.921875 18.109375 30.90625 
L 18.109375 0 
L 9.078125 0 
L 9.078125 54.6875 
L 18.109375 54.6875 
L 18.109375 46.1875 
Q 21.34375 51.125 25.703125 53.5625 
Q 30.078125 56 35.796875 56 
Q 45.21875 56 50.046875 50.171875 
Q 54.890625 44.34375 54.890625 33.015625 
z
" id="DejaVuSans-6e"/>
      <path d="M 45.40625 27.984375 
Q 45.40625 37.75 41.375 43.109375 
Q 37.359375 48.484375 30.078125 48.484375 
Q 22.859375 48.484375 18.828125 43.109375 
Q 14.796875 37.75 14.796875 27.984375 
Q 14.796875 18.265625 18.828125 12.890625 
Q 22.859375 7.515625 30.078125 7.515625 
Q 37.359375 7.515625 41.375 12.890625 
Q 45.40625 18.265625 45.40625 27.984375 
z
M 54.390625 6.78125 
Q 54.390625 -7.171875 48.1875 -13.984375 
Q 42 -20.796875 29.203125 -20.796875 
Q 24.46875 -20.796875 20.265625 -20.09375 
Q 16.0625 -19.390625 12.109375 -17.921875 
L 12.109375 -9.1875 
Q 16.0625 -11.328125 19.921875 -12.34375 
Q 23.78125 -13.375 27.78125 -13.375 
Q 36.625 -13.375 41.015625 -8.765625 
Q 45.40625 -4.15625 45.40625 5.171875 
L 45.40625 9.625 
Q 42.625 4.78125 38.28125 2.390625 
Q 33.9375 0 27.875 0 
Q 17.828125 0 11.671875 7.65625 
Q 5.515625 15.328125 5.515625 27.984375 
Q 5.515625 40.671875 11.671875 48.328125 
Q 17.828125 56 27.875 56 
Q 33.9375 56 38.28125 53.609375 
Q 42.625 51.21875 45.40625 46.390625 
L 45.40625 54.6875 
L 54.390625 54.6875 
z
" id="DejaVuSans-67"/>
      <path d="M 32.171875 -5.078125 
Q 28.375 -14.84375 24.75 -17.8125 
Q 21.140625 -20.796875 15.09375 -20.796875 
L 7.90625 -20.796875 
L 7.90625 -13.28125 
L 13.1875 -13.28125 
Q 16.890625 -13.28125 18.9375 -11.515625 
Q 21 -9.765625 23.484375 -3.21875 
L 25.09375 0.875 
L 2.984375 54.6875 
L 12.5 54.6875 
L 29.59375 11.921875 
L 46.6875 54.6875 
L 56.203125 54.6875 
z
" id="DejaVuSans-79"/>
      <path d="M 8.59375 75.984375 
L 29.296875 75.984375 
L 29.296875 69 
L 17.578125 69 
L 17.578125 -6.203125 
L 29.296875 -6.203125 
L 29.296875 -13.1875 
L 8.59375 -13.1875 
z
" id="DejaVuSans-5b"/>
      <path d="M 30.421875 75.984375 
L 30.421875 -13.1875 
L 9.71875 -13.1875 
L 9.71875 -6.203125 
L 21.390625 -6.203125 
L 21.390625 69 
L 9.71875 69 
L 9.71875 75.984375 
z
" id="DejaVuSans-5d"/>
     </defs>
     <g transform="translate(417.33885 204.108469)rotate(-90)scale(0.1 -0.1)">
      <use xlink:href="#DejaVuSans-45"/>
      <use x="63.183594" xlink:href="#DejaVuSans-6e"/>
      <use x="126.5625" xlink:href="#DejaVuSans-65"/>
      <use x="188.085938" xlink:href="#DejaVuSans-72"/>
      <use x="229.183594" xlink:href="#DejaVuSans-67"/>
      <use x="292.660156" xlink:href="#DejaVuSans-79"/>
      <use x="351.839844" xlink:href="#DejaVuSans-20"/>
      <use x="383.626953" xlink:href="#DejaVuSans-5b"/>
      <use x="422.640625" xlink:href="#DejaVuSans-65"/>
      <use x="484.164062" xlink:href="#DejaVuSans-56"/>
      <use x="552.572266" xlink:href="#DejaVuSans-5d"/>
     </g>
    </g>
   </g>
   <g id="patch_3">
    <path d="M 361.152 307.584 
L 361.152 306.5445 
L 361.152 42.5115 
L 361.152 41.472 
L 374.4576 41.472 
L 374.4576 42.5115 
L 374.4576 306.5445 
L 374.4576 307.584 
z
" style="fill:none;stroke:#000000;stroke-linejoin:miter;stroke-width:0.8;"/>
   </g>
  </g>
 </g>
 <defs>
  <clipPath id="pbe4d8cf6eb">
   <rect height="266.112" width="285.696" x="57.6" y="41.472"/>
  </clipPath>
  <clipPath id="pe6c3ebd821">
   <rect height="266.112" width="13.3056" x="361.152" y="41.472"/>
  </clipPath>
 </defs>
</svg>
