<?xml version="1.0" encoding="utf-8" standalone="no"?>
<!DOCTYPE svg PUBLIC "-//W3C//DTD SVG 1.1//EN"
  "http://www.w3.org/Graphics/SVG/1.1/DTD/svg11.dtd">
<!-- Created with matplotlib (http://matplotlib.org/) -->
<svg height="345.6pt" version="1.1" viewBox="0 0 460.8 345.6" width="460.8pt" xmlns="http://www.w3.org/2000/svg" xmlns:xlink="http://www.w3.org/1999/xlink">
 <defs>
  <style type="text/css">
*{stroke-linecap:butt;stroke-linejoin:round;}
  </style>
 </defs>
 <g id="figure_1">
  <g id="patch_1">
   <path d="M 0 345.6 
L 460.8 345.6 
L 460.8 0 
L 0 0 
z
" style="fill:#ffffff;"/>
  </g>
  <g id="axes_1">
   <g id="CircleCollection_1">
    <path clip-path="url(#p750147a4d8)" d="M 100.167611 124.300371 
C 102.024252 124.300371 103.805101 123.562719 105.117944 122.249875 
C 106.430788 120.937031 107.16844 119.156183 107.16844 117.299542 
C 107.16844 115.4429 106.430788 113.662052 105.117944 112.349208 
C 103.805101 111.036364 102.024252 110.298712 100.167611 110.298712 
C 98.310969 110.298712 96.530121 111.036364 95.217277 112.349208 
C 93.904433 113.662052 93.166781 115.4429 93.166781 117.299542 
C 93.166781 119.156183 93.904433 120.937031 95.217277 122.249875 
C 96.530121 123.562719 98.310969 124.300371 100.167611 124.300371 
z
" style="fill:#1f9f88;"/>
    <path clip-path="url(#p750147a4d8)" d="M 72.433257 159.891094 
C 74.061546 159.891094 75.623362 159.244168 76.774736 158.092795 
C 77.92611 156.941421 78.573035 155.379604 78.573035 153.751316 
C 78.573035 152.123028 77.92611 150.561211 76.774736 149.409837 
C 75.623362 148.258464 74.061546 147.611538 72.433257 147.611538 
C 70.804969 147.611538 69.243152 148.258464 68.091779 149.409837 
C 66.940405 150.561211 66.293479 152.123028 66.293479 153.751316 
C 66.293479 155.379604 66.940405 156.941421 68.091779 158.092795 
C 69.243152 159.244168 70.804969 159.891094 72.433257 159.891094 
z
" style="fill:#1fa287;"/>
    <path clip-path="url(#p750147a4d8)" d="M 242.698931 301.578359 
C 244.489747 301.578359 246.207457 300.866861 247.473755 299.600563 
C 248.740053 298.334265 249.451551 296.616555 249.451551 294.82574 
C 249.451551 293.034924 248.740053 291.317214 247.473755 290.050917 
C 246.207457 288.784619 244.489747 288.07312 242.698931 288.07312 
C 240.908116 288.07312 239.190406 288.784619 237.924108 290.050917 
C 236.65781 291.317214 235.946312 293.034924 235.946312 294.82574 
C 235.946312 296.616555 236.65781 298.334265 237.924108 299.600563 
C 239.190406 300.866861 240.908116 301.578359 242.698931 301.578359 
z
" style="fill:#fde725;"/>
    <path clip-path="url(#p750147a4d8)" d="M 87.374119 234.325448 
C 89.119975 234.325448 90.794561 233.631812 92.029068 232.397305 
C 93.263574 231.162799 93.957211 229.488213 93.957211 227.742357 
C 93.957211 225.9965 93.263574 224.321915 92.029068 223.087408 
C 90.794561 221.852901 89.119975 221.159265 87.374119 221.159265 
C 85.628262 221.159265 83.953677 221.852901 82.71917 223.087408 
C 81.484663 224.321915 80.791027 225.9965 80.791027 227.742357 
C 80.791027 229.488213 81.484663 231.162799 82.71917 232.397305 
C 83.953677 233.631812 85.628262 234.325448 87.374119 234.325448 
z
" style="fill:#25858e;"/>
    <path clip-path="url(#p750147a4d8)" d="M 159.498244 68.79714 
C 161.153516 68.79714 162.741215 68.139493 163.911669 66.969039 
C 165.082123 65.798585 165.739769 64.210886 165.739769 62.555614 
C 165.739769 60.900343 165.082123 59.312644 163.911669 58.14219 
C 162.741215 56.971736 161.153516 56.314089 159.498244 56.314089 
C 157.842972 56.314089 156.255273 56.971736 155.084819 58.14219 
C 153.914365 59.312644 153.256719 60.900343 153.256719 62.555614 
C 153.256719 64.210886 153.914365 65.798585 155.084819 66.969039 
C 156.255273 68.139493 157.842972 68.79714 159.498244 68.79714 
z
" style="fill:#75d054;"/>
    <path clip-path="url(#p750147a4d8)" d="M 117.434314 272.51957 
C 119.176105 272.51957 120.846792 271.827549 122.078425 270.595916 
C 123.310057 269.364284 124.002078 267.693597 124.002078 265.951805 
C 124.002078 264.210014 123.310057 262.539327 122.078425 261.307695 
C 120.846792 260.076062 119.176105 259.384041 117.434314 259.384041 
C 115.692522 259.384041 114.021835 260.076062 112.790203 261.307695 
C 111.55857 262.539327 110.866549 264.210014 110.866549 265.951805 
C 110.866549 267.693597 111.55857 269.364284 112.790203 270.595916 
C 114.021835 271.827549 115.692522 272.51957 117.434314 272.51957 
z
" style="fill:#1e9c89;"/>
    <path clip-path="url(#p750147a4d8)" d="M 313.49892 245.680335 
C 315.265643 245.680335 316.960243 244.978408 318.209505 243.729147 
C 319.458766 242.479885 320.160693 240.785285 320.160693 239.018562 
C 320.160693 237.251839 319.458766 235.557238 318.209505 234.307977 
C 316.960243 233.058715 315.265643 232.356788 313.49892 232.356788 
C 311.732197 232.356788 310.037596 233.058715 308.788335 234.307977 
C 307.539073 235.557238 306.837146 237.251839 306.837146 239.018562 
C 306.837146 240.785285 307.539073 242.479885 308.788335 243.729147 
C 310.037596 244.978408 311.732197 245.680335 313.49892 245.680335 
z
" style="fill:#1fa287;"/>
    <path clip-path="url(#p750147a4d8)" d="M 71.59619 193.03655 
C 73.295379 193.03655 74.925202 192.361455 76.12671 191.159947 
C 77.328218 189.95844 78.003313 188.328616 78.003313 186.629427 
C 78.003313 184.930239 77.328218 183.300415 76.12671 182.098907 
C 74.925202 180.8974 73.295379 180.222305 71.59619 180.222305 
C 69.897001 180.222305 68.267178 180.8974 67.06567 182.098907 
C 65.864162 183.300415 65.189067 184.930239 65.189067 186.629427 
C 65.189067 188.328616 65.864162 189.95844 67.06567 191.159947 
C 68.267178 192.361455 69.897001 193.03655 71.59619 193.03655 
z
" style="fill:#20938c;"/>
    <path clip-path="url(#p750147a4d8)" d="M 306.451934 115.685158 
C 308.192358 115.685158 309.861732 114.993681 311.092398 113.763015 
C 312.323063 112.53235 313.01454 110.862975 313.01454 109.122552 
C 313.01454 107.382128 312.323063 105.712754 311.092398 104.482088 
C 309.861732 103.251423 308.192358 102.559945 306.451934 102.559945 
C 304.71151 102.559945 303.042136 103.251423 301.811471 104.482088 
C 300.580805 105.712754 299.889328 107.382128 299.889328 109.122552 
C 299.889328 110.862975 300.580805 112.53235 301.811471 113.763015 
C 303.042136 114.993681 304.71151 115.685158 306.451934 115.685158 
z
" style="fill:#1f9a8a;"/>
    <path clip-path="url(#p750147a4d8)" d="M 72.568063 159.78121 
C 74.423167 159.78121 76.20254 159.04417 77.514297 157.732413 
C 78.826054 156.420656 79.563094 154.641283 79.563094 152.786179 
C 79.563094 150.931075 78.826054 149.151702 77.514297 147.839945 
C 76.20254 146.528188 74.423167 145.791148 72.568063 145.791148 
C 70.712959 145.791148 68.933585 146.528188 67.621829 147.839945 
C 66.310072 149.151702 65.573032 150.931075 65.573032 152.786179 
C 65.573032 154.641283 66.310072 156.420656 67.621829 157.732413 
C 68.933585 159.04417 70.712959 159.78121 72.568063 159.78121 
z
" style="fill:#24aa83;"/>
    <path clip-path="url(#p750147a4d8)" d="M 274.46797 81.436342 
C 276.202473 81.436342 277.866169 80.747217 279.092648 79.520738 
C 280.319126 78.294259 281.008252 76.630563 281.008252 74.89606 
C 281.008252 73.161557 280.319126 71.497862 279.092648 70.271383 
C 277.866169 69.044904 276.202473 68.355779 274.46797 68.355779 
C 272.733467 68.355779 271.069771 69.044904 269.843293 70.271383 
C 268.616814 71.497862 267.927688 73.161557 267.927688 74.89606 
C 267.927688 76.630563 268.616814 78.294259 269.843293 79.520738 
C 271.069771 80.747217 272.733467 81.436342 274.46797 81.436342 
z
" style="fill:#23888e;"/>
    <path clip-path="url(#p750147a4d8)" d="M 125.700057 85.224 
C 127.31254 85.224 128.859198 84.583353 129.999396 83.443156 
C 131.139593 82.302958 131.78024 80.7563 131.78024 79.143817 
C 131.78024 77.531334 131.139593 75.984676 129.999396 74.844478 
C 128.859198 73.70428 127.31254 73.063634 125.700057 73.063634 
C 124.087574 73.063634 122.540916 73.70428 121.400718 74.844478 
C 120.26052 75.984676 119.619874 77.531334 119.619874 79.143817 
C 119.619874 80.7563 120.26052 82.302958 121.400718 83.443156 
C 122.540916 84.583353 124.087574 85.224 125.700057 85.224 
z
" style="fill:#218e8d;"/>
    <path clip-path="url(#p750147a4d8)" d="M 98.313683 124.020937 
C 99.926188 124.020937 101.472867 123.380282 102.613081 122.240068 
C 103.753294 121.099855 104.393949 119.553176 104.393949 117.940671 
C 104.393949 116.328165 103.753294 114.781487 102.613081 113.641273 
C 101.472867 112.50106 99.926188 111.860405 98.313683 111.860405 
C 96.701178 111.860405 95.154499 112.50106 94.014285 113.641273 
C 92.874072 114.781487 92.233417 116.328165 92.233417 117.940671 
C 92.233417 119.553176 92.874072 121.099855 94.014285 122.240068 
C 95.154499 123.380282 96.701178 124.020937 98.313683 124.020937 
z
" style="fill:#1fa088;"/>
    <path clip-path="url(#p750147a4d8)" d="M 234.435938 67.655053 
C 236.164649 67.655053 237.82279 66.968228 239.045173 65.745845 
C 240.267557 64.523462 240.954381 62.865321 240.954381 61.13661 
C 240.954381 59.407899 240.267557 57.749758 239.045173 56.527375 
C 237.82279 55.304992 236.164649 54.618167 234.435938 54.618167 
C 232.707227 54.618167 231.049087 55.304992 229.826703 56.527375 
C 228.60432 57.749758 227.917496 59.407899 227.917496 61.13661 
C 227.917496 62.865321 228.60432 64.523462 229.826703 65.745845 
C 231.049087 66.968228 232.707227 67.655053 234.435938 67.655053 
z
" style="fill:#44bf70;"/>
    <path clip-path="url(#p750147a4d8)" d="M 202.175443 295.608994 
C 203.905649 295.608994 205.565224 294.921576 206.788664 293.698135 
C 208.012105 292.474695 208.699523 290.81512 208.699523 289.084914 
C 208.699523 287.354707 208.012105 285.695133 206.788664 284.471692 
C 205.565224 283.248252 203.905649 282.560833 202.175443 282.560833 
C 200.445236 282.560833 198.785662 283.248252 197.562221 284.471692 
C 196.338781 285.695133 195.651362 287.354707 195.651362 289.084914 
C 195.651362 290.81512 196.338781 292.474695 197.562221 293.698135 
C 198.785662 294.921576 200.445236 295.608994 202.175443 295.608994 
z
" style="fill:#24868e;"/>
    <path clip-path="url(#p750147a4d8)" d="M 276.541744 275.147153 
C 278.297774 275.147153 279.982118 274.449475 281.223819 273.207774 
C 282.46552 271.966074 283.163198 270.28173 283.163198 268.5257 
C 283.163198 266.76967 282.46552 265.085326 281.223819 263.843625 
C 279.982118 262.601924 278.297774 261.904246 276.541744 261.904246 
C 274.785714 261.904246 273.10137 262.601924 271.85967 263.843625 
C 270.617969 265.085326 269.920291 266.76967 269.920291 268.5257 
C 269.920291 270.28173 270.617969 271.966074 271.85967 273.207774 
C 273.10137 274.449475 274.785714 275.147153 276.541744 275.147153 
z
" style="fill:#25858e;"/>
    <path clip-path="url(#p750147a4d8)" d="M 329.864332 153.492697 
C 331.616699 153.492697 333.297529 152.796475 334.536639 151.557365 
C 335.775749 150.318254 336.471972 148.637424 336.471972 146.885058 
C 336.471972 145.132691 335.775749 143.451861 334.536639 142.212751 
C 333.297529 140.973641 331.616699 140.277418 329.864332 140.277418 
C 328.111966 140.277418 326.431136 140.973641 325.192025 142.212751 
C 323.952915 143.451861 323.256693 145.132691 323.256693 146.885058 
C 323.256693 148.637424 323.952915 150.318254 325.192025 151.557365 
C 326.431136 152.796475 328.111966 153.492697 329.864332 153.492697 
z
" style="fill:#1f998a;"/>
    <path clip-path="url(#p750147a4d8)" d="M 187.698936 60.727123 
C 189.427982 60.727123 191.086444 60.040166 192.309064 58.817545 
C 193.531684 57.594925 194.218642 55.936464 194.218642 54.207417 
C 194.218642 52.478371 193.531684 50.81991 192.309064 49.597289 
C 191.086444 48.374669 189.427982 47.687712 187.698936 47.687712 
C 185.96989 47.687712 184.311428 48.374669 183.088808 49.597289 
C 181.866187 50.81991 181.17923 52.478371 181.17923 54.207417 
C 181.17923 55.936464 181.866187 57.594925 183.088808 58.817545 
C 184.311428 60.040166 185.96989 60.727123 187.698936 60.727123 
z
" style="fill:#440154;"/>
    <path clip-path="url(#p750147a4d8)" d="M 238.554183 275.477587 
C 240.243643 275.477587 241.864135 274.806357 243.058764 273.611728 
C 244.253393 272.417099 244.924622 270.796608 244.924622 269.107148 
C 244.924622 267.417687 244.253393 265.797196 243.058764 264.602567 
C 241.864135 263.407938 240.243643 262.736708 238.554183 262.736708 
C 236.864723 262.736708 235.244231 263.407938 234.049602 264.602567 
C 232.854974 265.797196 232.183744 267.417687 232.183744 269.107148 
C 232.183744 270.796608 232.854974 272.417099 234.049602 273.611728 
C 235.244231 274.806357 236.864723 275.477587 238.554183 275.477587 
z
" style="fill:#f6e620;"/>
    <path clip-path="url(#p750147a4d8)" d="M 129.475108 87.910223 
C 131.320234 87.910223 133.090036 87.177147 134.394736 85.872446 
C 135.699437 84.567746 136.432513 82.797944 136.432513 80.952818 
C 136.432513 79.107693 135.699437 77.337891 134.394736 76.03319 
C 133.090036 74.728489 131.320234 73.995413 129.475108 73.995413 
C 127.629983 73.995413 125.860181 74.728489 124.55548 76.03319 
C 123.250779 77.337891 122.517703 79.107693 122.517703 80.952818 
C 122.517703 82.797944 123.250779 84.567746 124.55548 85.872446 
C 125.860181 87.177147 127.629983 87.910223 129.475108 87.910223 
z
" style="fill:#238a8d;"/>
    <path clip-path="url(#p750147a4d8)" d="M 161.097516 71.027384 
C 162.899047 71.027384 164.627035 70.311628 165.900909 69.037754 
C 167.174784 67.763879 167.89054 66.035892 167.89054 64.234361 
C 167.89054 62.43283 167.174784 60.704843 165.900909 59.430968 
C 164.627035 58.157093 162.899047 57.441337 161.097516 57.441337 
C 159.295985 57.441337 157.567998 58.157093 156.294123 59.430968 
C 155.020249 60.704843 154.304493 62.43283 154.304493 64.234361 
C 154.304493 66.035892 155.020249 67.763879 156.294123 69.037754 
C 157.567998 70.311628 159.295985 71.027384 161.097516 71.027384 
z
" style="fill:#6ccd5a;"/>
    <path clip-path="url(#p750147a4d8)" d="M 326.233933 202.343471 
C 327.990398 202.343471 329.675159 201.64562 330.917167 200.403612 
C 332.159175 199.161604 332.857025 197.476843 332.857025 195.720379 
C 332.857025 193.963914 332.159175 192.279153 330.917167 191.037145 
C 329.675159 189.795137 327.990398 189.097286 326.233933 189.097286 
C 324.477469 189.097286 322.792708 189.795137 321.5507 191.037145 
C 320.308692 192.279153 319.610841 193.963914 319.610841 195.720379 
C 319.610841 197.476843 320.308692 199.161604 321.5507 200.403612 
C 322.792708 201.64562 324.477469 202.343471 326.233933 202.343471 
z
" style="fill:#1f988b;"/>
    <path clip-path="url(#p750147a4d8)" d="M 157.350564 286.602686 
C 159.086837 286.602686 160.752231 285.912858 161.979962 284.685127 
C 163.207693 283.457396 163.897521 281.792002 163.897521 280.055729 
C 163.897521 278.319455 163.207693 276.654061 161.979962 275.426331 
C 160.752231 274.1986 159.086837 273.508771 157.350564 273.508771 
C 155.61429 273.508771 153.948897 274.1986 152.721166 275.426331 
C 151.493435 276.654061 150.803606 278.319455 150.803606 280.055729 
C 150.803606 281.792002 151.493435 283.457396 152.721166 284.685127 
C 153.948897 285.912858 155.61429 286.602686 157.350564 286.602686 
z
" style="fill:#1f968b;"/>
    <path clip-path="url(#p750147a4d8)" d="M 71.041483 193.657334 
C 72.832458 193.657334 74.55032 192.945772 75.816731 191.679362 
C 77.083142 190.412951 77.794704 188.695089 77.794704 186.904114 
C 77.794704 185.113138 77.083142 183.395276 75.816731 182.128865 
C 74.55032 180.862455 72.832458 180.150893 71.041483 180.150893 
C 69.250508 180.150893 67.532645 180.862455 66.266235 182.128865 
C 64.999824 183.395276 64.288262 185.113138 64.288262 186.904114 
C 64.288262 188.695089 64.999824 190.412951 66.266235 191.679362 
C 67.532645 192.945772 69.250508 193.657334 71.041483 193.657334 
z
" style="fill:#1e9b8a;"/>
   </g>
   <g id="text_1">
    <!-- Structure #9362, $E_N$=-180.15eV, ΔE=-0.26eV -->
    <defs>
     <path d="M 53.515625 70.515625 
L 53.515625 60.890625 
Q 47.90625 63.578125 42.921875 64.890625 
Q 37.9375 66.21875 33.296875 66.21875 
Q 25.25 66.21875 20.875 63.09375 
Q 16.5 59.96875 16.5 54.203125 
Q 16.5 49.359375 19.40625 46.890625 
Q 22.3125 44.4375 30.421875 42.921875 
L 36.375 41.703125 
Q 47.40625 39.59375 52.65625 34.296875 
Q 57.90625 29 57.90625 20.125 
Q 57.90625 9.515625 50.796875 4.046875 
Q 43.703125 -1.421875 29.984375 -1.421875 
Q 24.8125 -1.421875 18.96875 -0.25 
Q 13.140625 0.921875 6.890625 3.21875 
L 6.890625 13.375 
Q 12.890625 10.015625 18.65625 8.296875 
Q 24.421875 6.59375 29.984375 6.59375 
Q 38.421875 6.59375 43.015625 9.90625 
Q 47.609375 13.234375 47.609375 19.390625 
Q 47.609375 24.75 44.3125 27.78125 
Q 41.015625 30.8125 33.5 32.328125 
L 27.484375 33.5 
Q 16.453125 35.6875 11.515625 40.375 
Q 6.59375 45.0625 6.59375 53.421875 
Q 6.59375 63.09375 13.40625 68.65625 
Q 20.21875 74.21875 32.171875 74.21875 
Q 37.3125 74.21875 42.625 73.28125 
Q 47.953125 72.359375 53.515625 70.515625 
z
" id="DejaVuSans-53"/>
     <path d="M 18.3125 70.21875 
L 18.3125 54.6875 
L 36.8125 54.6875 
L 36.8125 47.703125 
L 18.3125 47.703125 
L 18.3125 18.015625 
Q 18.3125 11.328125 20.140625 9.421875 
Q 21.96875 7.515625 27.59375 7.515625 
L 36.8125 7.515625 
L 36.8125 0 
L 27.59375 0 
Q 17.1875 0 13.234375 3.875 
Q 9.28125 7.765625 9.28125 18.015625 
L 9.28125 47.703125 
L 2.6875 47.703125 
L 2.6875 54.6875 
L 9.28125 54.6875 
L 9.28125 70.21875 
z
" id="DejaVuSans-74"/>
     <path d="M 41.109375 46.296875 
Q 39.59375 47.171875 37.8125 47.578125 
Q 36.03125 48 33.890625 48 
Q 26.265625 48 22.1875 43.046875 
Q 18.109375 38.09375 18.109375 28.8125 
L 18.109375 0 
L 9.078125 0 
L 9.078125 54.6875 
L 18.109375 54.6875 
L 18.109375 46.1875 
Q 20.953125 51.171875 25.484375 53.578125 
Q 30.03125 56 36.53125 56 
Q 37.453125 56 38.578125 55.875 
Q 39.703125 55.765625 41.0625 55.515625 
z
" id="DejaVuSans-72"/>
     <path d="M 8.5 21.578125 
L 8.5 54.6875 
L 17.484375 54.6875 
L 17.484375 21.921875 
Q 17.484375 14.15625 20.5 10.265625 
Q 23.53125 6.390625 29.59375 6.390625 
Q 36.859375 6.390625 41.078125 11.03125 
Q 45.3125 15.671875 45.3125 23.6875 
L 45.3125 54.6875 
L 54.296875 54.6875 
L 54.296875 0 
L 45.3125 0 
L 45.3125 8.40625 
Q 42.046875 3.421875 37.71875 1 
Q 33.40625 -1.421875 27.6875 -1.421875 
Q 18.265625 -1.421875 13.375 4.4375 
Q 8.5 10.296875 8.5 21.578125 
z
M 31.109375 56 
z
" id="DejaVuSans-75"/>
     <path d="M 48.78125 52.59375 
L 48.78125 44.1875 
Q 44.96875 46.296875 41.140625 47.34375 
Q 37.3125 48.390625 33.40625 48.390625 
Q 24.65625 48.390625 19.8125 42.84375 
Q 14.984375 37.3125 14.984375 27.296875 
Q 14.984375 17.28125 19.8125 11.734375 
Q 24.65625 6.203125 33.40625 6.203125 
Q 37.3125 6.203125 41.140625 7.25 
Q 44.96875 8.296875 48.78125 10.40625 
L 48.78125 2.09375 
Q 45.015625 0.34375 40.984375 -0.53125 
Q 36.96875 -1.421875 32.421875 -1.421875 
Q 20.0625 -1.421875 12.78125 6.34375 
Q 5.515625 14.109375 5.515625 27.296875 
Q 5.515625 40.671875 12.859375 48.328125 
Q 20.21875 56 33.015625 56 
Q 37.15625 56 41.109375 55.140625 
Q 45.0625 54.296875 48.78125 52.59375 
z
" id="DejaVuSans-63"/>
     <path d="M 56.203125 29.59375 
L 56.203125 25.203125 
L 14.890625 25.203125 
Q 15.484375 15.921875 20.484375 11.0625 
Q 25.484375 6.203125 34.421875 6.203125 
Q 39.59375 6.203125 44.453125 7.46875 
Q 49.3125 8.734375 54.109375 11.28125 
L 54.109375 2.78125 
Q 49.265625 0.734375 44.1875 -0.34375 
Q 39.109375 -1.421875 33.890625 -1.421875 
Q 20.796875 -1.421875 13.15625 6.1875 
Q 5.515625 13.8125 5.515625 26.8125 
Q 5.515625 40.234375 12.765625 48.109375 
Q 20.015625 56 32.328125 56 
Q 43.359375 56 49.78125 48.890625 
Q 56.203125 41.796875 56.203125 29.59375 
z
M 47.21875 32.234375 
Q 47.125 39.59375 43.09375 43.984375 
Q 39.0625 48.390625 32.421875 48.390625 
Q 24.90625 48.390625 20.390625 44.140625 
Q 15.875 39.890625 15.1875 32.171875 
z
" id="DejaVuSans-65"/>
     <path id="DejaVuSans-20"/>
     <path d="M 51.125 44 
L 36.921875 44 
L 32.8125 27.6875 
L 47.125 27.6875 
z
M 43.796875 71.78125 
L 38.71875 51.515625 
L 52.984375 51.515625 
L 58.109375 71.78125 
L 65.921875 71.78125 
L 60.890625 51.515625 
L 76.125 51.515625 
L 76.125 44 
L 58.984375 44 
L 54.984375 27.6875 
L 70.515625 27.6875 
L 70.515625 20.21875 
L 53.078125 20.21875 
L 48 0 
L 40.1875 0 
L 45.21875 20.21875 
L 30.90625 20.21875 
L 25.875 0 
L 18.015625 0 
L 23.09375 20.21875 
L 7.71875 20.21875 
L 7.71875 27.6875 
L 24.90625 27.6875 
L 29 44 
L 13.28125 44 
L 13.28125 51.515625 
L 30.90625 51.515625 
L 35.890625 71.78125 
z
" id="DejaVuSans-23"/>
     <path d="M 10.984375 1.515625 
L 10.984375 10.5 
Q 14.703125 8.734375 18.5 7.8125 
Q 22.3125 6.890625 25.984375 6.890625 
Q 35.75 6.890625 40.890625 13.453125 
Q 46.046875 20.015625 46.78125 33.40625 
Q 43.953125 29.203125 39.59375 26.953125 
Q 35.25 24.703125 29.984375 24.703125 
Q 19.046875 24.703125 12.671875 31.3125 
Q 6.296875 37.9375 6.296875 49.421875 
Q 6.296875 60.640625 12.9375 67.421875 
Q 19.578125 74.21875 30.609375 74.21875 
Q 43.265625 74.21875 49.921875 64.515625 
Q 56.59375 54.828125 56.59375 36.375 
Q 56.59375 19.140625 48.40625 8.859375 
Q 40.234375 -1.421875 26.421875 -1.421875 
Q 22.703125 -1.421875 18.890625 -0.6875 
Q 15.09375 0.046875 10.984375 1.515625 
z
M 30.609375 32.421875 
Q 37.25 32.421875 41.125 36.953125 
Q 45.015625 41.5 45.015625 49.421875 
Q 45.015625 57.28125 41.125 61.84375 
Q 37.25 66.40625 30.609375 66.40625 
Q 23.96875 66.40625 20.09375 61.84375 
Q 16.21875 57.28125 16.21875 49.421875 
Q 16.21875 41.5 20.09375 36.953125 
Q 23.96875 32.421875 30.609375 32.421875 
z
" id="DejaVuSans-39"/>
     <path d="M 40.578125 39.3125 
Q 47.65625 37.796875 51.625 33 
Q 55.609375 28.21875 55.609375 21.1875 
Q 55.609375 10.40625 48.1875 4.484375 
Q 40.765625 -1.421875 27.09375 -1.421875 
Q 22.515625 -1.421875 17.65625 -0.515625 
Q 12.796875 0.390625 7.625 2.203125 
L 7.625 11.71875 
Q 11.71875 9.328125 16.59375 8.109375 
Q 21.484375 6.890625 26.8125 6.890625 
Q 36.078125 6.890625 40.9375 10.546875 
Q 45.796875 14.203125 45.796875 21.1875 
Q 45.796875 27.640625 41.28125 31.265625 
Q 36.765625 34.90625 28.71875 34.90625 
L 20.21875 34.90625 
L 20.21875 43.015625 
L 29.109375 43.015625 
Q 36.375 43.015625 40.234375 45.921875 
Q 44.09375 48.828125 44.09375 54.296875 
Q 44.09375 59.90625 40.109375 62.90625 
Q 36.140625 65.921875 28.71875 65.921875 
Q 24.65625 65.921875 20.015625 65.03125 
Q 15.375 64.15625 9.8125 62.3125 
L 9.8125 71.09375 
Q 15.4375 72.65625 20.34375 73.4375 
Q 25.25 74.21875 29.59375 74.21875 
Q 40.828125 74.21875 47.359375 69.109375 
Q 53.90625 64.015625 53.90625 55.328125 
Q 53.90625 49.265625 50.4375 45.09375 
Q 46.96875 40.921875 40.578125 39.3125 
z
" id="DejaVuSans-33"/>
     <path d="M 33.015625 40.375 
Q 26.375 40.375 22.484375 35.828125 
Q 18.609375 31.296875 18.609375 23.390625 
Q 18.609375 15.53125 22.484375 10.953125 
Q 26.375 6.390625 33.015625 6.390625 
Q 39.65625 6.390625 43.53125 10.953125 
Q 47.40625 15.53125 47.40625 23.390625 
Q 47.40625 31.296875 43.53125 35.828125 
Q 39.65625 40.375 33.015625 40.375 
z
M 52.59375 71.296875 
L 52.59375 62.3125 
Q 48.875 64.0625 45.09375 64.984375 
Q 41.3125 65.921875 37.59375 65.921875 
Q 27.828125 65.921875 22.671875 59.328125 
Q 17.53125 52.734375 16.796875 39.40625 
Q 19.671875 43.65625 24.015625 45.921875 
Q 28.375 48.1875 33.59375 48.1875 
Q 44.578125 48.1875 50.953125 41.515625 
Q 57.328125 34.859375 57.328125 23.390625 
Q 57.328125 12.15625 50.6875 5.359375 
Q 44.046875 -1.421875 33.015625 -1.421875 
Q 20.359375 -1.421875 13.671875 8.265625 
Q 6.984375 17.96875 6.984375 36.375 
Q 6.984375 53.65625 15.1875 63.9375 
Q 23.390625 74.21875 37.203125 74.21875 
Q 40.921875 74.21875 44.703125 73.484375 
Q 48.484375 72.75 52.59375 71.296875 
z
" id="DejaVuSans-36"/>
     <path d="M 19.1875 8.296875 
L 53.609375 8.296875 
L 53.609375 0 
L 7.328125 0 
L 7.328125 8.296875 
Q 12.9375 14.109375 22.625 23.890625 
Q 32.328125 33.6875 34.8125 36.53125 
Q 39.546875 41.84375 41.421875 45.53125 
Q 43.3125 49.21875 43.3125 52.78125 
Q 43.3125 58.59375 39.234375 62.25 
Q 35.15625 65.921875 28.609375 65.921875 
Q 23.96875 65.921875 18.8125 64.3125 
Q 13.671875 62.703125 7.8125 59.421875 
L 7.8125 69.390625 
Q 13.765625 71.78125 18.9375 73 
Q 24.125 74.21875 28.421875 74.21875 
Q 39.75 74.21875 46.484375 68.546875 
Q 53.21875 62.890625 53.21875 53.421875 
Q 53.21875 48.921875 51.53125 44.890625 
Q 49.859375 40.875 45.40625 35.40625 
Q 44.1875 33.984375 37.640625 27.21875 
Q 31.109375 20.453125 19.1875 8.296875 
z
" id="DejaVuSans-32"/>
     <path d="M 11.71875 12.40625 
L 22.015625 12.40625 
L 22.015625 4 
L 14.015625 -11.625 
L 7.71875 -11.625 
L 11.71875 4 
z
" id="DejaVuSans-2c"/>
     <path d="M 16.890625 72.90625 
L 62.984375 72.90625 
L 61.375 64.59375 
L 25.09375 64.59375 
L 20.90625 43.015625 
L 55.71875 43.015625 
L 54.109375 34.71875 
L 19.28125 34.71875 
L 14.203125 8.296875 
L 51.3125 8.296875 
L 49.703125 0 
L 2.6875 0 
z
" id="DejaVuSans-Oblique-45"/>
     <path d="M 16.890625 72.90625 
L 30.171875 72.90625 
L 50.296875 10.40625 
L 62.5 72.90625 
L 72.125 72.90625 
L 57.90625 0 
L 44.578125 0 
L 24.515625 62.890625 
L 12.3125 0 
L 2.6875 0 
z
" id="DejaVuSans-Oblique-4e"/>
     <path d="M 10.59375 45.40625 
L 73.1875 45.40625 
L 73.1875 37.203125 
L 10.59375 37.203125 
z
M 10.59375 25.484375 
L 73.1875 25.484375 
L 73.1875 17.1875 
L 10.59375 17.1875 
z
" id="DejaVuSans-3d"/>
     <path d="M 4.890625 31.390625 
L 31.203125 31.390625 
L 31.203125 23.390625 
L 4.890625 23.390625 
z
" id="DejaVuSans-2d"/>
     <path d="M 12.40625 8.296875 
L 28.515625 8.296875 
L 28.515625 63.921875 
L 10.984375 60.40625 
L 10.984375 69.390625 
L 28.421875 72.90625 
L 38.28125 72.90625 
L 38.28125 8.296875 
L 54.390625 8.296875 
L 54.390625 0 
L 12.40625 0 
z
" id="DejaVuSans-31"/>
     <path d="M 31.78125 34.625 
Q 24.75 34.625 20.71875 30.859375 
Q 16.703125 27.09375 16.703125 20.515625 
Q 16.703125 13.921875 20.71875 10.15625 
Q 24.75 6.390625 31.78125 6.390625 
Q 38.8125 6.390625 42.859375 10.171875 
Q 46.921875 13.96875 46.921875 20.515625 
Q 46.921875 27.09375 42.890625 30.859375 
Q 38.875 34.625 31.78125 34.625 
z
M 21.921875 38.8125 
Q 15.578125 40.375 12.03125 44.71875 
Q 8.5 49.078125 8.5 55.328125 
Q 8.5 64.0625 14.71875 69.140625 
Q 20.953125 74.21875 31.78125 74.21875 
Q 42.671875 74.21875 48.875 69.140625 
Q 55.078125 64.0625 55.078125 55.328125 
Q 55.078125 49.078125 51.53125 44.71875 
Q 48 40.375 41.703125 38.8125 
Q 48.828125 37.15625 52.796875 32.3125 
Q 56.78125 27.484375 56.78125 20.515625 
Q 56.78125 9.90625 50.3125 4.234375 
Q 43.84375 -1.421875 31.78125 -1.421875 
Q 19.734375 -1.421875 13.25 4.234375 
Q 6.78125 9.90625 6.78125 20.515625 
Q 6.78125 27.484375 10.78125 32.3125 
Q 14.796875 37.15625 21.921875 38.8125 
z
M 18.3125 54.390625 
Q 18.3125 48.734375 21.84375 45.5625 
Q 25.390625 42.390625 31.78125 42.390625 
Q 38.140625 42.390625 41.71875 45.5625 
Q 45.3125 48.734375 45.3125 54.390625 
Q 45.3125 60.0625 41.71875 63.234375 
Q 38.140625 66.40625 31.78125 66.40625 
Q 25.390625 66.40625 21.84375 63.234375 
Q 18.3125 60.0625 18.3125 54.390625 
z
" id="DejaVuSans-38"/>
     <path d="M 31.78125 66.40625 
Q 24.171875 66.40625 20.328125 58.90625 
Q 16.5 51.421875 16.5 36.375 
Q 16.5 21.390625 20.328125 13.890625 
Q 24.171875 6.390625 31.78125 6.390625 
Q 39.453125 6.390625 43.28125 13.890625 
Q 47.125 21.390625 47.125 36.375 
Q 47.125 51.421875 43.28125 58.90625 
Q 39.453125 66.40625 31.78125 66.40625 
z
M 31.78125 74.21875 
Q 44.046875 74.21875 50.515625 64.515625 
Q 56.984375 54.828125 56.984375 36.375 
Q 56.984375 17.96875 50.515625 8.265625 
Q 44.046875 -1.421875 31.78125 -1.421875 
Q 19.53125 -1.421875 13.0625 8.265625 
Q 6.59375 17.96875 6.59375 36.375 
Q 6.59375 54.828125 13.0625 64.515625 
Q 19.53125 74.21875 31.78125 74.21875 
z
" id="DejaVuSans-30"/>
     <path d="M 10.6875 12.40625 
L 21 12.40625 
L 21 0 
L 10.6875 0 
z
" id="DejaVuSans-2e"/>
     <path d="M 10.796875 72.90625 
L 49.515625 72.90625 
L 49.515625 64.59375 
L 19.828125 64.59375 
L 19.828125 46.734375 
Q 21.96875 47.46875 24.109375 47.828125 
Q 26.265625 48.1875 28.421875 48.1875 
Q 40.625 48.1875 47.75 41.5 
Q 54.890625 34.8125 54.890625 23.390625 
Q 54.890625 11.625 47.5625 5.09375 
Q 40.234375 -1.421875 26.90625 -1.421875 
Q 22.3125 -1.421875 17.546875 -0.640625 
Q 12.796875 0.140625 7.71875 1.703125 
L 7.71875 11.625 
Q 12.109375 9.234375 16.796875 8.0625 
Q 21.484375 6.890625 26.703125 6.890625 
Q 35.15625 6.890625 40.078125 11.328125 
Q 45.015625 15.765625 45.015625 23.390625 
Q 45.015625 31 40.078125 35.4375 
Q 35.15625 39.890625 26.703125 39.890625 
Q 22.75 39.890625 18.8125 39.015625 
Q 14.890625 38.140625 10.796875 36.28125 
z
" id="DejaVuSans-35"/>
     <path d="M 28.609375 0 
L 0.78125 72.90625 
L 11.078125 72.90625 
L 34.1875 11.53125 
L 57.328125 72.90625 
L 67.578125 72.90625 
L 39.796875 0 
z
" id="DejaVuSans-56"/>
     <path d="M 34.1875 63.1875 
L 14.15625 8.203125 
L 54.25 8.203125 
z
M 0.78125 0 
L 28.609375 72.90625 
L 39.796875 72.90625 
L 67.578125 0 
z
" id="DejaVuSans-394"/>
     <path d="M 9.8125 72.90625 
L 55.90625 72.90625 
L 55.90625 64.59375 
L 19.671875 64.59375 
L 19.671875 43.015625 
L 54.390625 43.015625 
L 54.390625 34.71875 
L 19.671875 34.71875 
L 19.671875 8.296875 
L 56.78125 8.296875 
L 56.78125 0 
L 9.8125 0 
z
" id="DejaVuSans-45"/>
    </defs>
    <g transform="translate(63.228 35.472)scale(0.12 -0.12)">
     <use transform="translate(0 0.78125)" xlink:href="#DejaVuSans-53"/>
     <use transform="translate(63.476562 0.78125)" xlink:href="#DejaVuSans-74"/>
     <use transform="translate(102.685547 0.78125)" xlink:href="#DejaVuSans-72"/>
     <use transform="translate(143.798828 0.78125)" xlink:href="#DejaVuSans-75"/>
     <use transform="translate(207.177734 0.78125)" xlink:href="#DejaVuSans-63"/>
     <use transform="translate(262.158203 0.78125)" xlink:href="#DejaVuSans-74"/>
     <use transform="translate(301.367188 0.78125)" xlink:href="#DejaVuSans-75"/>
     <use transform="translate(364.746094 0.78125)" xlink:href="#DejaVuSans-72"/>
     <use transform="translate(405.859375 0.78125)" xlink:href="#DejaVuSans-65"/>
     <use transform="translate(467.382812 0.78125)" xlink:href="#DejaVuSans-20"/>
     <use transform="translate(499.169922 0.78125)" xlink:href="#DejaVuSans-23"/>
     <use transform="translate(582.958984 0.78125)" xlink:href="#DejaVuSans-39"/>
     <use transform="translate(646.582031 0.78125)" xlink:href="#DejaVuSans-33"/>
     <use transform="translate(710.205078 0.78125)" xlink:href="#DejaVuSans-36"/>
     <use transform="translate(773.828125 0.78125)" xlink:href="#DejaVuSans-32"/>
     <use transform="translate(837.451172 0.78125)" xlink:href="#DejaVuSans-2c"/>
     <use transform="translate(869.238281 0.78125)" xlink:href="#DejaVuSans-20"/>
     <use transform="translate(901.025391 0.78125)" xlink:href="#DejaVuSans-Oblique-45"/>
     <use transform="translate(964.208984 -15.625)scale(0.7)" xlink:href="#DejaVuSans-Oblique-4e"/>
     <use transform="translate(1019.306641 0.78125)" xlink:href="#DejaVuSans-3d"/>
     <use transform="translate(1103.095703 0.78125)" xlink:href="#DejaVuSans-2d"/>
     <use transform="translate(1139.179688 0.78125)" xlink:href="#DejaVuSans-31"/>
     <use transform="translate(1202.802734 0.78125)" xlink:href="#DejaVuSans-38"/>
     <use transform="translate(1266.425781 0.78125)" xlink:href="#DejaVuSans-30"/>
     <use transform="translate(1330.048828 0.78125)" xlink:href="#DejaVuSans-2e"/>
     <use transform="translate(1361.835938 0.78125)" xlink:href="#DejaVuSans-31"/>
     <use transform="translate(1425.458984 0.78125)" xlink:href="#DejaVuSans-35"/>
     <use transform="translate(1489.082031 0.78125)" xlink:href="#DejaVuSans-65"/>
     <use transform="translate(1550.605469 0.78125)" xlink:href="#DejaVuSans-56"/>
     <use transform="translate(1619.013672 0.78125)" xlink:href="#DejaVuSans-2c"/>
     <use transform="translate(1650.800781 0.78125)" xlink:href="#DejaVuSans-20"/>
     <use transform="translate(1682.587891 0.78125)" xlink:href="#DejaVuSans-394"/>
     <use transform="translate(1750.996094 0.78125)" xlink:href="#DejaVuSans-45"/>
     <use transform="translate(1814.179688 0.78125)" xlink:href="#DejaVuSans-3d"/>
     <use transform="translate(1897.96875 0.78125)" xlink:href="#DejaVuSans-2d"/>
     <use transform="translate(1934.052734 0.78125)" xlink:href="#DejaVuSans-30"/>
     <use transform="translate(1997.675781 0.78125)" xlink:href="#DejaVuSans-2e"/>
     <use transform="translate(2029.384766 0.78125)" xlink:href="#DejaVuSans-32"/>
     <use transform="translate(2093.007812 0.78125)" xlink:href="#DejaVuSans-36"/>
     <use transform="translate(2156.630859 0.78125)" xlink:href="#DejaVuSans-65"/>
     <use transform="translate(2218.154297 0.78125)" xlink:href="#DejaVuSans-56"/>
    </g>
   </g>
  </g>
  <g id="axes_2">
   <g id="patch_2">
    <path clip-path="url(#p13d7a3c167)" d="M 361.152 307.584 
L 361.152 306.5445 
L 361.152 42.5115 
L 361.152 41.472 
L 374.4576 41.472 
L 374.4576 42.5115 
L 374.4576 306.5445 
L 374.4576 307.584 
z
" style="fill:#ffffff;stroke:#ffffff;stroke-linejoin:miter;stroke-width:0.01;"/>
   </g>
   <image height="265.68" id="image15bd93ff22" transform="scale(1 -1)translate(0 -265.68)" width="12.96" x="361.44" xlink:href="data:image/png;base64,
iVBORw0KGgoAAAANSUhEUgAAABIAAAFxCAYAAAB+2fgXAAAABHNCSVQICAgIfAhkiAAAAeVJREFUeJztncmNw0AQA2ckheYQNv9QLIfQ8ygsCgQ7AEI8+jAs2Puz/94F1LP2ReCsZ18bAWIeZ5XaGRBE7VnbptG+KI101FYyNSiQG2oRITXKNaX9uclOdi2XWjftVE32CZCO2ou5Bj1TcCBr/1zB9ge7Fq0Rg2NM9pvbtG+ua1QgsRYhDy0ISEiNc40BEibbSI0Coj5CBGtkpFbXJiAjNZlrwhuSOv2M1DjXbEdEciBt1JSDDQKKpmZr2rr2j0DBGpXaWEJq3bQzEPIS26r9J+Wzv9Tm8o3aajRXqc3VUXsApKNWjeZq0x4ABVNbm7lrszVigDqP5vIl2+eaT2yfRkL7g+dRcNPqjohkjaCvRVBq0H2U3LQrOJCx9kdTg4B8oxZzzTdqdYHEngjUCAPyUctN9sVRq2sTECW2UKNLd2jVtRmo1A6AhMmWaSRcR8nUdIHUuVb75zJS218EyEitro1At69pIdeSk30Lkw0FktNImGyZRhy1O5galmxd03LUsHWk06jUZiCq+5Wb1kZNN4+wJxJuWt8RAW5am2sYNZ9rYCBzZ3buPKJ2P5Yj4Toy3keyIyJbIxs1rml1byCA84gpch5RQNB7Q0qNMGq2Hy4BXdNR41yz/cEEJfZzUz96r9PoB0okjeQ8y9TkAAAAAElFTkSuQmCC" y="-41.76"/>
   <g id="matplotlib.axis_1"/>
   <g id="matplotlib.axis_2">
    <g id="ytick_1">
     <g id="line2d_1">
      <defs>
       <path d="M 0 0 
L 3.5 0 
" id="mcb3a915497" style="stroke:#000000;stroke-width:0.8;"/>
      </defs>
      <g>
       <use style="stroke:#000000;stroke-width:0.8;" x="374.4576" xlink:href="#mcb3a915497" y="292.6728"/>
      </g>
     </g>
     <g id="text_2">
      <!-- −9.0 -->
      <defs>
       <path d="M 10.59375 35.5 
L 73.1875 35.5 
L 73.1875 27.203125 
L 10.59375 27.203125 
z
" id="DejaVuSans-2212"/>
      </defs>
      <g transform="translate(381.4576 296.472019)scale(0.1 -0.1)">
       <use xlink:href="#DejaVuSans-2212"/>
       <use x="83.789062" xlink:href="#DejaVuSans-39"/>
       <use x="147.412109" xlink:href="#DejaVuSans-2e"/>
       <use x="179.199219" xlink:href="#DejaVuSans-30"/>
      </g>
     </g>
    </g>
    <g id="ytick_2">
     <g id="line2d_2">
      <g>
       <use style="stroke:#000000;stroke-width:0.8;" x="374.4576" xlink:href="#mcb3a915497" y="246.855751"/>
      </g>
     </g>
     <g id="text_3">
      <!-- −8.5 -->
      <g transform="translate(381.4576 250.65497)scale(0.1 -0.1)">
       <use xlink:href="#DejaVuSans-2212"/>
       <use x="83.789062" xlink:href="#DejaVuSans-38"/>
       <use x="147.412109" xlink:href="#DejaVuSans-2e"/>
       <use x="179.199219" xlink:href="#DejaVuSans-35"/>
      </g>
     </g>
    </g>
    <g id="ytick_3">
     <g id="line2d_3">
      <g>
       <use style="stroke:#000000;stroke-width:0.8;" x="374.4576" xlink:href="#mcb3a915497" y="201.038703"/>
      </g>
     </g>
     <g id="text_4">
      <!-- −8.0 -->
      <g transform="translate(381.4576 204.837921)scale(0.1 -0.1)">
       <use xlink:href="#DejaVuSans-2212"/>
       <use x="83.789062" xlink:href="#DejaVuSans-38"/>
       <use x="147.412109" xlink:href="#DejaVuSans-2e"/>
       <use x="179.199219" xlink:href="#DejaVuSans-30"/>
      </g>
     </g>
    </g>
    <g id="ytick_4">
     <g id="line2d_4">
      <g>
       <use style="stroke:#000000;stroke-width:0.8;" x="374.4576" xlink:href="#mcb3a915497" y="155.221654"/>
      </g>
     </g>
     <g id="text_5">
      <!-- −7.5 -->
      <defs>
       <path d="M 8.203125 72.90625 
L 55.078125 72.90625 
L 55.078125 68.703125 
L 28.609375 0 
L 18.3125 0 
L 43.21875 64.59375 
L 8.203125 64.59375 
z
" id="DejaVuSans-37"/>
      </defs>
      <g transform="translate(381.4576 159.020872)scale(0.1 -0.1)">
       <use xlink:href="#DejaVuSans-2212"/>
       <use x="83.789062" xlink:href="#DejaVuSans-37"/>
       <use x="147.412109" xlink:href="#DejaVuSans-2e"/>
       <use x="179.199219" xlink:href="#DejaVuSans-35"/>
      </g>
     </g>
    </g>
    <g id="ytick_5">
     <g id="line2d_5">
      <g>
       <use style="stroke:#000000;stroke-width:0.8;" x="374.4576" xlink:href="#mcb3a915497" y="109.404605"/>
      </g>
     </g>
     <g id="text_6">
      <!-- −7.0 -->
      <g transform="translate(381.4576 113.203824)scale(0.1 -0.1)">
       <use xlink:href="#DejaVuSans-2212"/>
       <use x="83.789062" xlink:href="#DejaVuSans-37"/>
       <use x="147.412109" xlink:href="#DejaVuSans-2e"/>
       <use x="179.199219" xlink:href="#DejaVuSans-30"/>
      </g>
     </g>
    </g>
    <g id="ytick_6">
     <g id="line2d_6">
      <g>
       <use style="stroke:#000000;stroke-width:0.8;" x="374.4576" xlink:href="#mcb3a915497" y="63.587556"/>
      </g>
     </g>
     <g id="text_7">
      <!-- −6.5 -->
      <g transform="translate(381.4576 67.386775)scale(0.1 -0.1)">
       <use xlink:href="#DejaVuSans-2212"/>
       <use x="83.789062" xlink:href="#DejaVuSans-36"/>
       <use x="147.412109" xlink:href="#DejaVuSans-2e"/>
       <use x="179.199219" xlink:href="#DejaVuSans-35"/>
      </g>
     </g>
    </g>
    <g id="text_8">
     <!-- Energy [eV] -->
     <defs>
      <path d="M 54.890625 33.015625 
L 54.890625 0 
L 45.90625 0 
L 45.90625 32.71875 
Q 45.90625 40.484375 42.875 44.328125 
Q 39.84375 48.1875 33.796875 48.1875 
Q 26.515625 48.1875 22.3125 43.546875 
Q 18.109375 38.921875 18.109375 30.90625 
L 18.109375 0 
L 9.078125 0 
L 9.078125 54.6875 
L 18.109375 54.6875 
L 18.109375 46.1875 
Q 21.34375 51.125 25.703125 53.5625 
Q 30.078125 56 35.796875 56 
Q 45.21875 56 50.046875 50.171875 
Q 54.890625 44.34375 54.890625 33.015625 
z
" id="DejaVuSans-6e"/>
      <path d="M 45.40625 27.984375 
Q 45.40625 37.75 41.375 43.109375 
Q 37.359375 48.484375 30.078125 48.484375 
Q 22.859375 48.484375 18.828125 43.109375 
Q 14.796875 37.75 14.796875 27.984375 
Q 14.796875 18.265625 18.828125 12.890625 
Q 22.859375 7.515625 30.078125 7.515625 
Q 37.359375 7.515625 41.375 12.890625 
Q 45.40625 18.265625 45.40625 27.984375 
z
M 54.390625 6.78125 
Q 54.390625 -7.171875 48.1875 -13.984375 
Q 42 -20.796875 29.203125 -20.796875 
Q 24.46875 -20.796875 20.265625 -20.09375 
Q 16.0625 -19.390625 12.109375 -17.921875 
L 12.109375 -9.1875 
Q 16.0625 -11.328125 19.921875 -12.34375 
Q 23.78125 -13.375 27.78125 -13.375 
Q 36.625 -13.375 41.015625 -8.765625 
Q 45.40625 -4.15625 45.40625 5.171875 
L 45.40625 9.625 
Q 42.625 4.78125 38.28125 2.390625 
Q 33.9375 0 27.875 0 
Q 17.828125 0 11.671875 7.65625 
Q 5.515625 15.328125 5.515625 27.984375 
Q 5.515625 40.671875 11.671875 48.328125 
Q 17.828125 56 27.875 56 
Q 33.9375 56 38.28125 53.609375 
Q 42.625 51.21875 45.40625 46.390625 
L 45.40625 54.6875 
L 54.390625 54.6875 
z
" id="DejaVuSans-67"/>
      <path d="M 32.171875 -5.078125 
Q 28.375 -14.84375 24.75 -17.8125 
Q 21.140625 -20.796875 15.09375 -20.796875 
L 7.90625 -20.796875 
L 7.90625 -13.28125 
L 13.1875 -13.28125 
Q 16.890625 -13.28125 18.9375 -11.515625 
Q 21 -9.765625 23.484375 -3.21875 
L 25.09375 0.875 
L 2.984375 54.6875 
L 12.5 54.6875 
L 29.59375 11.921875 
L 46.6875 54.6875 
L 56.203125 54.6875 
z
" id="DejaVuSans-79"/>
      <path d="M 8.59375 75.984375 
L 29.296875 75.984375 
L 29.296875 69 
L 17.578125 69 
L 17.578125 -6.203125 
L 29.296875 -6.203125 
L 29.296875 -13.1875 
L 8.59375 -13.1875 
z
" id="DejaVuSans-5b"/>
      <path d="M 30.421875 75.984375 
L 30.421875 -13.1875 
L 9.71875 -13.1875 
L 9.71875 -6.203125 
L 21.390625 -6.203125 
L 21.390625 69 
L 9.71875 69 
L 9.71875 75.984375 
z
" id="DejaVuSans-5d"/>
     </defs>
     <g transform="translate(417.33885 204.108469)rotate(-90)scale(0.1 -0.1)">
      <use xlink:href="#DejaVuSans-45"/>
      <use x="63.183594" xlink:href="#DejaVuSans-6e"/>
      <use x="126.5625" xlink:href="#DejaVuSans-65"/>
      <use x="188.085938" xlink:href="#DejaVuSans-72"/>
      <use x="229.183594" xlink:href="#DejaVuSans-67"/>
      <use x="292.660156" xlink:href="#DejaVuSans-79"/>
      <use x="351.839844" xlink:href="#DejaVuSans-20"/>
      <use x="383.626953" xlink:href="#DejaVuSans-5b"/>
      <use x="422.640625" xlink:href="#DejaVuSans-65"/>
      <use x="484.164062" xlink:href="#DejaVuSans-56"/>
      <use x="552.572266" xlink:href="#DejaVuSans-5d"/>
     </g>
    </g>
   </g>
   <g id="patch_3">
    <path d="M 361.152 307.584 
L 361.152 306.5445 
L 361.152 42.5115 
L 361.152 41.472 
L 374.4576 41.472 
L 374.4576 42.5115 
L 374.4576 306.5445 
L 374.4576 307.584 
z
" style="fill:none;stroke:#000000;stroke-linejoin:miter;stroke-width:0.8;"/>
   </g>
  </g>
 </g>
 <defs>
  <clipPath id="p750147a4d8">
   <rect height="266.112" width="285.696" x="57.6" y="41.472"/>
  </clipPath>
  <clipPath id="p13d7a3c167">
   <rect height="266.112" width="13.3056" x="361.152" y="41.472"/>
  </clipPath>
 </defs>
</svg>
