<?xml version="1.0" encoding="utf-8" standalone="no"?>
<!DOCTYPE svg PUBLIC "-//W3C//DTD SVG 1.1//EN"
  "http://www.w3.org/Graphics/SVG/1.1/DTD/svg11.dtd">
<!-- Created with matplotlib (http://matplotlib.org/) -->
<svg height="345.6pt" version="1.1" viewBox="0 0 460.8 345.6" width="460.8pt" xmlns="http://www.w3.org/2000/svg" xmlns:xlink="http://www.w3.org/1999/xlink">
 <defs>
  <style type="text/css">
*{stroke-linecap:butt;stroke-linejoin:round;}
  </style>
 </defs>
 <g id="figure_1">
  <g id="patch_1">
   <path d="M 0 345.6 
L 460.8 345.6 
L 460.8 0 
L 0 0 
z
" style="fill:#ffffff;"/>
  </g>
  <g id="axes_1">
   <g id="CircleCollection_1">
    <path clip-path="url(#p6df9eaeac9)" d="M 76.989248 246.80379 
C 78.722933 246.80379 80.385844 246.11499 81.611744 244.889089 
C 82.837645 243.663189 83.526445 242.000278 83.526445 240.266593 
C 83.526445 238.532908 82.837645 236.869997 81.611744 235.644096 
C 80.385844 234.418196 78.722933 233.729396 76.989248 233.729396 
C 75.255563 233.729396 73.592652 234.418196 72.366751 235.644096 
C 71.140851 236.869997 70.452051 238.532908 70.452051 240.266593 
C 70.452051 242.000278 71.140851 243.663189 72.366751 244.889089 
C 73.592652 246.11499 75.255563 246.80379 76.989248 246.80379 
z
" style="fill:#2e6f8e;"/>
    <path clip-path="url(#p6df9eaeac9)" d="M 107.414771 269.764404 
C 109.170615 269.764404 110.85478 269.066799 112.096349 267.82523 
C 113.337919 266.583661 114.035523 264.899496 114.035523 263.143652 
C 114.035523 261.387808 113.337919 259.703642 112.096349 258.462073 
C 110.85478 257.220504 109.170615 256.5229 107.414771 256.5229 
C 105.658927 256.5229 103.974762 257.220504 102.733192 258.462073 
C 101.491623 259.703642 100.794019 261.387808 100.794019 263.143652 
C 100.794019 264.899496 101.491623 266.583661 102.733192 267.82523 
C 103.974762 269.066799 105.658927 269.764404 107.414771 269.764404 
z
" style="fill:#1f968b;"/>
    <path clip-path="url(#p6df9eaeac9)" d="M 238.538491 60.947525 
C 240.368319 60.947525 242.123448 60.220526 243.417332 58.926643 
C 244.711216 57.632759 245.438214 55.87763 245.438214 54.047802 
C 245.438214 52.217974 244.711216 50.462845 243.417332 49.168961 
C 242.123448 47.875077 240.368319 47.148079 238.538491 47.148079 
C 236.708663 47.148079 234.953534 47.875077 233.659651 49.168961 
C 232.365767 50.462845 231.638769 52.217974 231.638769 54.047802 
C 231.638769 55.87763 232.365767 57.632759 233.659651 58.926643 
C 234.953534 60.220526 236.708663 60.947525 238.538491 60.947525 
z
" style="fill:#fde725;"/>
    <path clip-path="url(#p6df9eaeac9)" d="M 71.061148 212.495888 
C 72.793466 212.495888 74.455067 211.807631 75.680001 210.582697 
C 76.904935 209.357763 77.593192 207.696163 77.593192 205.963844 
C 77.593192 204.231526 76.904935 202.569926 75.680001 201.344992 
C 74.455067 200.120058 72.793466 199.4318 71.061148 199.4318 
C 69.32883 199.4318 67.66723 200.120058 66.442296 201.344992 
C 65.217362 202.569926 64.529104 204.231526 64.529104 205.963844 
C 64.529104 207.696163 65.217362 209.357763 66.442296 210.582697 
C 67.66723 211.807631 69.32883 212.495888 71.061148 212.495888 
z
" style="fill:#2d718e;"/>
    <path clip-path="url(#p6df9eaeac9)" d="M 226.836517 185.842341 
C 228.597689 185.842341 230.286965 185.14262 231.532302 183.897283 
C 232.777638 182.651947 233.477359 180.962671 233.477359 179.201499 
C 233.477359 177.440327 232.777638 175.751051 231.532302 174.505715 
C 230.286965 173.260378 228.597689 172.560657 226.836517 172.560657 
C 225.075346 172.560657 223.38607 173.260378 222.140733 174.505715 
C 220.895397 175.751051 220.195676 177.440327 220.195676 179.201499 
C 220.195676 180.962671 220.895397 182.651947 222.140733 183.897283 
C 223.38607 185.14262 225.075346 185.842341 226.836517 185.842341 
z
" style="fill:#32648e;"/>
    <path clip-path="url(#p6df9eaeac9)" d="M 310.023985 274.057724 
C 311.847906 274.057724 313.597369 273.333073 314.887076 272.043366 
C 316.176782 270.753659 316.901434 269.004196 316.901434 267.180275 
C 316.901434 265.356354 316.176782 263.606891 314.887076 262.317184 
C 313.597369 261.027478 311.847906 260.302826 310.023985 260.302826 
C 308.200064 260.302826 306.450601 261.027478 305.160894 262.317184 
C 303.871187 263.606891 303.146536 265.356354 303.146536 267.180275 
C 303.146536 269.004196 303.871187 270.753659 305.160894 272.043366 
C 306.450601 273.333073 308.200064 274.057724 310.023985 274.057724 
z
" style="fill:#2e6e8e;"/>
    <path clip-path="url(#p6df9eaeac9)" d="M 89.660233 183.2457 
C 91.409441 183.2457 93.087242 182.550732 94.324118 181.313856 
C 95.560995 180.076979 96.255963 178.399179 96.255963 176.649971 
C 96.255963 174.900763 95.560995 173.222963 94.324118 171.986086 
C 93.087242 170.749209 91.409441 170.054242 89.660233 170.054242 
C 87.911026 170.054242 86.233225 170.749209 84.996349 171.986086 
C 83.759472 173.222963 83.064504 174.900763 83.064504 176.649971 
C 83.064504 178.399179 83.759472 180.076979 84.996349 181.313856 
C 86.233225 182.550732 87.911026 183.2457 89.660233 183.2457 
z
" style="fill:#1fa187;"/>
    <path clip-path="url(#p6df9eaeac9)" d="M 232.550413 301.867362 
C 234.368681 301.867362 236.112722 301.144956 237.398431 299.859247 
C 238.68414 298.573538 239.406546 296.829497 239.406546 295.011229 
C 239.406546 293.192962 238.68414 291.448921 237.398431 290.163212 
C 236.112722 288.877502 234.368681 288.155097 232.550413 288.155097 
C 230.732146 288.155097 228.988105 288.877502 227.702396 290.163212 
C 226.416686 291.448921 225.694281 293.192962 225.694281 295.011229 
C 225.694281 296.829497 226.416686 298.573538 227.702396 299.859247 
C 228.988105 301.144956 230.732146 301.867362 232.550413 301.867362 
z
" style="fill:#31688e;"/>
    <path clip-path="url(#p6df9eaeac9)" d="M 298.118439 147.813563 
C 299.935993 147.813563 301.67935 147.091441 302.964554 145.806236 
C 304.249759 144.521032 304.971881 142.777675 304.971881 140.960121 
C 304.971881 139.142567 304.249759 137.399211 302.964554 136.114006 
C 301.67935 134.828801 299.935993 134.10668 298.118439 134.10668 
C 296.300885 134.10668 294.557529 134.828801 293.272324 136.114006 
C 291.987119 137.399211 291.264997 139.142567 291.264997 140.960121 
C 291.264997 142.777675 291.987119 144.521032 293.272324 145.806236 
C 294.557529 147.091441 296.300885 147.813563 298.118439 147.813563 
z
" style="fill:#228b8d;"/>
    <path clip-path="url(#p6df9eaeac9)" d="M 309.754021 212.05307 
C 311.556002 212.05307 313.28442 211.337135 314.558613 210.062943 
C 315.832805 208.78875 316.54874 207.060331 316.54874 205.258351 
C 316.54874 203.456371 315.832805 201.727952 314.558613 200.453759 
C 313.28442 199.179567 311.556002 198.463633 309.754021 198.463633 
C 307.952041 198.463633 306.223622 199.179567 304.94943 200.453759 
C 303.675237 201.727952 302.959303 203.456371 302.959303 205.258351 
C 302.959303 207.060331 303.675237 208.78875 304.94943 210.062943 
C 306.223622 211.337135 307.952041 212.05307 309.754021 212.05307 
z
" style="fill:#440154;"/>
    <path clip-path="url(#p6df9eaeac9)" d="M 167.689471 234.197553 
C 169.498712 234.197553 171.234094 233.478734 172.51342 232.199408 
C 173.792747 230.920082 174.511565 229.1847 174.511565 227.375459 
C 174.511565 225.566219 173.792747 223.830836 172.51342 222.55151 
C 171.234094 221.272184 169.498712 220.553365 167.689471 220.553365 
C 165.880231 220.553365 164.144848 221.272184 162.865522 222.55151 
C 161.586196 223.830836 160.867377 225.566219 160.867377 227.375459 
C 160.867377 229.1847 161.586196 230.920082 162.865522 232.199408 
C 164.144848 233.478734 165.880231 234.197553 167.689471 234.197553 
z
" style="fill:#472a7a;"/>
    <path clip-path="url(#p6df9eaeac9)" d="M 279.710071 300.012018 
C 281.538998 300.012018 283.293263 299.285378 284.58651 297.992131 
C 285.879757 296.698884 286.606397 294.944619 286.606397 293.115692 
C 286.606397 291.286765 285.879757 289.5325 284.58651 288.239253 
C 283.293263 286.946006 281.538998 286.219366 279.710071 286.219366 
C 277.881144 286.219366 276.126879 286.946006 274.833632 288.239253 
C 273.540385 289.5325 272.813745 291.286765 272.813745 293.115692 
C 272.813745 294.944619 273.540385 296.698884 274.833632 297.992131 
C 276.126879 299.285378 277.881144 300.012018 279.710071 300.012018 
z
" style="fill:#2e6d8e;"/>
    <path clip-path="url(#p6df9eaeac9)" d="M 254.6098 128.101365 
C 256.422482 128.101365 258.161166 127.381179 259.442926 126.099419 
C 260.724686 124.817659 261.444873 123.078975 261.444873 121.266292 
C 261.444873 119.45361 260.724686 117.714926 259.442926 116.433166 
C 258.161166 115.151406 256.422482 114.431219 254.6098 114.431219 
C 252.797117 114.431219 251.058434 115.151406 249.776673 116.433166 
C 248.494913 117.714926 247.774727 119.45361 247.774727 121.266292 
C 247.774727 123.078975 248.494913 124.817659 249.776673 126.099419 
C 251.058434 127.381179 252.797117 128.101365 254.6098 128.101365 
z
" style="fill:#470d60;"/>
    <path clip-path="url(#p6df9eaeac9)" d="M 261.058842 211.76077 
C 262.827299 211.76077 264.523563 211.058155 265.774051 209.807667 
C 267.024539 208.557179 267.727154 206.860915 267.727154 205.092458 
C 267.727154 203.324001 267.024539 201.627738 265.774051 200.37725 
C 264.523563 199.126762 262.827299 198.424146 261.058842 198.424146 
C 259.290385 198.424146 257.594122 199.126762 256.343634 200.37725 
C 255.093146 201.627738 254.39053 203.324001 254.39053 205.092458 
C 254.39053 206.860915 255.093146 208.557179 256.343634 209.807667 
C 257.594122 211.058155 259.290385 211.76077 261.058842 211.76077 
z
" style="fill:#2d708e;"/>
    <path clip-path="url(#p6df9eaeac9)" d="M 247.65935 93.728873 
C 249.486084 93.728873 251.238246 93.003104 252.529943 91.711408 
C 253.821639 90.419712 254.547408 88.667549 254.547408 86.840815 
C 254.547408 85.01408 253.821639 83.261918 252.529943 81.970222 
C 251.238246 80.678526 249.486084 79.952756 247.65935 79.952756 
C 245.832615 79.952756 244.080453 80.678526 242.788757 81.970222 
C 241.497061 83.261918 240.771291 85.01408 240.771291 86.840815 
C 240.771291 88.667549 241.497061 90.419712 242.788757 91.711408 
C 244.080453 93.003104 245.832615 93.728873 247.65935 93.728873 
z
" style="fill:#25838e;"/>
    <path clip-path="url(#p6df9eaeac9)" d="M 319.024473 176.469931 
C 320.843091 176.469931 322.587468 175.747386 323.873425 174.461429 
C 325.159382 173.175472 325.881927 171.431095 325.881927 169.612477 
C 325.881927 167.793859 325.159382 166.049483 323.873425 164.763525 
C 322.587468 163.477568 320.843091 162.755024 319.024473 162.755024 
C 317.205855 162.755024 315.461478 163.477568 314.175521 164.763525 
C 312.889564 166.049483 312.16702 167.793859 312.16702 169.612477 
C 312.16702 171.431095 312.889564 173.175472 314.175521 174.461429 
C 315.461478 175.747386 317.205855 176.469931 319.024473 176.469931 
z
" style="fill:#24878e;"/>
    <path clip-path="url(#p6df9eaeac9)" d="M 130.324139 176.341118 
C 132.126972 176.341118 133.856209 175.624845 135.131005 174.350049 
C 136.4058 173.075253 137.122074 171.346016 137.122074 169.543183 
C 137.122074 167.740349 136.4058 166.011113 135.131005 164.736317 
C 133.856209 163.461521 132.126972 162.745248 130.324139 162.745248 
C 128.521305 162.745248 126.792068 163.461521 125.517273 164.736317 
C 124.242477 166.011113 123.526203 167.740349 123.526203 169.543183 
C 123.526203 171.346016 124.242477 173.075253 125.517273 174.350049 
C 126.792068 175.624845 128.521305 176.341118 130.324139 176.341118 
z
" style="fill:#450457;"/>
    <path clip-path="url(#p6df9eaeac9)" d="M 209.972433 220.163497 
C 211.74107 220.163497 213.437507 219.46081 214.688123 218.210194 
C 215.938738 216.959579 216.641425 215.263142 216.641425 213.494504 
C 216.641425 211.725867 215.938738 210.02943 214.688123 208.778815 
C 213.437507 207.528199 211.74107 206.825512 209.972433 206.825512 
C 208.203795 206.825512 206.507358 207.528199 205.256743 208.778815 
C 204.006127 210.02943 203.30344 211.725867 203.30344 213.494504 
C 203.30344 215.263142 204.006127 216.959579 205.256743 218.210194 
C 206.507358 219.46081 208.203795 220.163497 209.972433 220.163497 
z
" style="fill:#2a788e;"/>
    <path clip-path="url(#p6df9eaeac9)" d="M 186.846908 297.212163 
C 188.655115 297.212163 190.389506 296.493755 191.668101 295.215159 
C 192.946697 293.936564 193.665105 292.202173 193.665105 290.393966 
C 193.665105 288.585759 192.946697 286.851368 191.668101 285.572773 
C 190.389506 284.294178 188.655115 283.575769 186.846908 283.575769 
C 185.038701 283.575769 183.30431 284.294178 182.025715 285.572773 
C 180.747119 286.851368 180.028711 288.585759 180.028711 290.393966 
C 180.028711 292.202173 180.747119 293.936564 182.025715 295.215159 
C 183.30431 296.493755 185.038701 297.212163 186.846908 297.212163 
z
" style="fill:#23888e;"/>
    <path clip-path="url(#p6df9eaeac9)" d="M 165.155399 151.158213 
C 166.961072 151.158213 168.693032 150.440812 169.969835 149.164009 
C 171.246639 147.887205 171.96404 146.155245 171.96404 144.349573 
C 171.96404 142.5439 171.246639 140.81194 169.969835 139.535137 
C 168.693032 138.258333 166.961072 137.540932 165.155399 137.540932 
C 163.349727 137.540932 161.617767 138.258333 160.340963 139.535137 
C 159.06416 140.81194 158.346759 142.5439 158.346759 144.349573 
C 158.346759 146.155245 159.06416 147.887205 160.340963 149.164009 
C 161.617767 150.440812 163.349727 151.158213 165.155399 151.158213 
z
" style="fill:#38b977;"/>
    <path clip-path="url(#p6df9eaeac9)" d="M 329.809737 243.804465 
C 331.633656 243.804465 333.383118 243.079814 334.672823 241.790109 
C 335.962529 240.500403 336.68718 238.750941 336.68718 236.927022 
C 336.68718 235.103103 335.962529 233.353641 334.672823 232.063935 
C 333.383118 230.77423 331.633656 230.049579 329.809737 230.049579 
C 327.985817 230.049579 326.236356 230.77423 324.94665 232.063935 
C 323.656944 233.353641 322.932294 235.103103 322.932294 236.927022 
C 322.932294 238.750941 323.656944 240.500403 324.94665 241.790109 
C 326.236356 243.079814 327.985817 243.804465 329.809737 243.804465 
z
" style="fill:#1f958b;"/>
    <path clip-path="url(#p6df9eaeac9)" d="M 153.104344 271.723604 
C 154.899864 271.723604 156.622085 271.010236 157.891709 269.740612 
C 159.161333 268.470988 159.8747 266.748767 159.8747 264.953248 
C 159.8747 263.157728 159.161333 261.435507 157.891709 260.165883 
C 156.622085 258.896259 154.899864 258.182891 153.104344 258.182891 
C 151.308825 258.182891 149.586603 258.896259 148.31698 260.165883 
C 147.047356 261.435507 146.333988 263.157728 146.333988 264.953248 
C 146.333988 266.748767 147.047356 268.470988 148.31698 269.740612 
C 149.586603 271.010236 151.308825 271.723604 153.104344 271.723604 
z
" style="fill:#48186a;"/>
    <path clip-path="url(#p6df9eaeac9)" d="M 140.033954 208.970464 
C 141.880187 208.970464 143.651051 208.236948 144.956535 206.931464 
C 146.262019 205.62598 146.995535 203.855116 146.995535 202.008883 
C 146.995535 200.16265 146.262019 198.391786 144.956535 197.086302 
C 143.651051 195.780818 141.880187 195.047302 140.033954 195.047302 
C 138.187722 195.047302 136.416857 195.780818 135.111373 197.086302 
C 133.80589 198.391786 133.072374 200.16265 133.072374 202.008883 
C 133.072374 203.855116 133.80589 205.62598 135.111373 206.931464 
C 136.416857 208.236948 138.187722 208.970464 140.033954 208.970464 
z
" style="fill:#7cd250;"/>
    <path clip-path="url(#p6df9eaeac9)" d="M 213.947686 151.987975 
C 215.737707 151.987975 217.454654 151.276793 218.720389 150.011057 
C 219.986125 148.745321 220.697308 147.028374 220.697308 145.238354 
C 220.697308 143.448333 219.986125 141.731386 218.720389 140.46565 
C 217.454654 139.199915 215.737707 138.488732 213.947686 138.488732 
C 212.157666 138.488732 210.440719 139.199915 209.174983 140.46565 
C 207.909247 141.731386 207.198064 143.448333 207.198064 145.238354 
C 207.198064 147.028374 207.909247 148.745321 209.174983 150.011057 
C 210.440719 151.276793 212.157666 151.987975 213.947686 151.987975 
z
" style="fill:#482374;"/>
   </g>
   <g id="text_1">
    <!-- Structure #1098, $E_N$=-178.86eV, ΔE=-0.05eV -->
    <defs>
     <path d="M 53.515625 70.515625 
L 53.515625 60.890625 
Q 47.90625 63.578125 42.921875 64.890625 
Q 37.9375 66.21875 33.296875 66.21875 
Q 25.25 66.21875 20.875 63.09375 
Q 16.5 59.96875 16.5 54.203125 
Q 16.5 49.359375 19.40625 46.890625 
Q 22.3125 44.4375 30.421875 42.921875 
L 36.375 41.703125 
Q 47.40625 39.59375 52.65625 34.296875 
Q 57.90625 29 57.90625 20.125 
Q 57.90625 9.515625 50.796875 4.046875 
Q 43.703125 -1.421875 29.984375 -1.421875 
Q 24.8125 -1.421875 18.96875 -0.25 
Q 13.140625 0.921875 6.890625 3.21875 
L 6.890625 13.375 
Q 12.890625 10.015625 18.65625 8.296875 
Q 24.421875 6.59375 29.984375 6.59375 
Q 38.421875 6.59375 43.015625 9.90625 
Q 47.609375 13.234375 47.609375 19.390625 
Q 47.609375 24.75 44.3125 27.78125 
Q 41.015625 30.8125 33.5 32.328125 
L 27.484375 33.5 
Q 16.453125 35.6875 11.515625 40.375 
Q 6.59375 45.0625 6.59375 53.421875 
Q 6.59375 63.09375 13.40625 68.65625 
Q 20.21875 74.21875 32.171875 74.21875 
Q 37.3125 74.21875 42.625 73.28125 
Q 47.953125 72.359375 53.515625 70.515625 
z
" id="DejaVuSans-53"/>
     <path d="M 18.3125 70.21875 
L 18.3125 54.6875 
L 36.8125 54.6875 
L 36.8125 47.703125 
L 18.3125 47.703125 
L 18.3125 18.015625 
Q 18.3125 11.328125 20.140625 9.421875 
Q 21.96875 7.515625 27.59375 7.515625 
L 36.8125 7.515625 
L 36.8125 0 
L 27.59375 0 
Q 17.1875 0 13.234375 3.875 
Q 9.28125 7.765625 9.28125 18.015625 
L 9.28125 47.703125 
L 2.6875 47.703125 
L 2.6875 54.6875 
L 9.28125 54.6875 
L 9.28125 70.21875 
z
" id="DejaVuSans-74"/>
     <path d="M 41.109375 46.296875 
Q 39.59375 47.171875 37.8125 47.578125 
Q 36.03125 48 33.890625 48 
Q 26.265625 48 22.1875 43.046875 
Q 18.109375 38.09375 18.109375 28.8125 
L 18.109375 0 
L 9.078125 0 
L 9.078125 54.6875 
L 18.109375 54.6875 
L 18.109375 46.1875 
Q 20.953125 51.171875 25.484375 53.578125 
Q 30.03125 56 36.53125 56 
Q 37.453125 56 38.578125 55.875 
Q 39.703125 55.765625 41.0625 55.515625 
z
" id="DejaVuSans-72"/>
     <path d="M 8.5 21.578125 
L 8.5 54.6875 
L 17.484375 54.6875 
L 17.484375 21.921875 
Q 17.484375 14.15625 20.5 10.265625 
Q 23.53125 6.390625 29.59375 6.390625 
Q 36.859375 6.390625 41.078125 11.03125 
Q 45.3125 15.671875 45.3125 23.6875 
L 45.3125 54.6875 
L 54.296875 54.6875 
L 54.296875 0 
L 45.3125 0 
L 45.3125 8.40625 
Q 42.046875 3.421875 37.71875 1 
Q 33.40625 -1.421875 27.6875 -1.421875 
Q 18.265625 -1.421875 13.375 4.4375 
Q 8.5 10.296875 8.5 21.578125 
z
M 31.109375 56 
z
" id="DejaVuSans-75"/>
     <path d="M 48.78125 52.59375 
L 48.78125 44.1875 
Q 44.96875 46.296875 41.140625 47.34375 
Q 37.3125 48.390625 33.40625 48.390625 
Q 24.65625 48.390625 19.8125 42.84375 
Q 14.984375 37.3125 14.984375 27.296875 
Q 14.984375 17.28125 19.8125 11.734375 
Q 24.65625 6.203125 33.40625 6.203125 
Q 37.3125 6.203125 41.140625 7.25 
Q 44.96875 8.296875 48.78125 10.40625 
L 48.78125 2.09375 
Q 45.015625 0.34375 40.984375 -0.53125 
Q 36.96875 -1.421875 32.421875 -1.421875 
Q 20.0625 -1.421875 12.78125 6.34375 
Q 5.515625 14.109375 5.515625 27.296875 
Q 5.515625 40.671875 12.859375 48.328125 
Q 20.21875 56 33.015625 56 
Q 37.15625 56 41.109375 55.140625 
Q 45.0625 54.296875 48.78125 52.59375 
z
" id="DejaVuSans-63"/>
     <path d="M 56.203125 29.59375 
L 56.203125 25.203125 
L 14.890625 25.203125 
Q 15.484375 15.921875 20.484375 11.0625 
Q 25.484375 6.203125 34.421875 6.203125 
Q 39.59375 6.203125 44.453125 7.46875 
Q 49.3125 8.734375 54.109375 11.28125 
L 54.109375 2.78125 
Q 49.265625 0.734375 44.1875 -0.34375 
Q 39.109375 -1.421875 33.890625 -1.421875 
Q 20.796875 -1.421875 13.15625 6.1875 
Q 5.515625 13.8125 5.515625 26.8125 
Q 5.515625 40.234375 12.765625 48.109375 
Q 20.015625 56 32.328125 56 
Q 43.359375 56 49.78125 48.890625 
Q 56.203125 41.796875 56.203125 29.59375 
z
M 47.21875 32.234375 
Q 47.125 39.59375 43.09375 43.984375 
Q 39.0625 48.390625 32.421875 48.390625 
Q 24.90625 48.390625 20.390625 44.140625 
Q 15.875 39.890625 15.1875 32.171875 
z
" id="DejaVuSans-65"/>
     <path id="DejaVuSans-20"/>
     <path d="M 51.125 44 
L 36.921875 44 
L 32.8125 27.6875 
L 47.125 27.6875 
z
M 43.796875 71.78125 
L 38.71875 51.515625 
L 52.984375 51.515625 
L 58.109375 71.78125 
L 65.921875 71.78125 
L 60.890625 51.515625 
L 76.125 51.515625 
L 76.125 44 
L 58.984375 44 
L 54.984375 27.6875 
L 70.515625 27.6875 
L 70.515625 20.21875 
L 53.078125 20.21875 
L 48 0 
L 40.1875 0 
L 45.21875 20.21875 
L 30.90625 20.21875 
L 25.875 0 
L 18.015625 0 
L 23.09375 20.21875 
L 7.71875 20.21875 
L 7.71875 27.6875 
L 24.90625 27.6875 
L 29 44 
L 13.28125 44 
L 13.28125 51.515625 
L 30.90625 51.515625 
L 35.890625 71.78125 
z
" id="DejaVuSans-23"/>
     <path d="M 12.40625 8.296875 
L 28.515625 8.296875 
L 28.515625 63.921875 
L 10.984375 60.40625 
L 10.984375 69.390625 
L 28.421875 72.90625 
L 38.28125 72.90625 
L 38.28125 8.296875 
L 54.390625 8.296875 
L 54.390625 0 
L 12.40625 0 
z
" id="DejaVuSans-31"/>
     <path d="M 31.78125 66.40625 
Q 24.171875 66.40625 20.328125 58.90625 
Q 16.5 51.421875 16.5 36.375 
Q 16.5 21.390625 20.328125 13.890625 
Q 24.171875 6.390625 31.78125 6.390625 
Q 39.453125 6.390625 43.28125 13.890625 
Q 47.125 21.390625 47.125 36.375 
Q 47.125 51.421875 43.28125 58.90625 
Q 39.453125 66.40625 31.78125 66.40625 
z
M 31.78125 74.21875 
Q 44.046875 74.21875 50.515625 64.515625 
Q 56.984375 54.828125 56.984375 36.375 
Q 56.984375 17.96875 50.515625 8.265625 
Q 44.046875 -1.421875 31.78125 -1.421875 
Q 19.53125 -1.421875 13.0625 8.265625 
Q 6.59375 17.96875 6.59375 36.375 
Q 6.59375 54.828125 13.0625 64.515625 
Q 19.53125 74.21875 31.78125 74.21875 
z
" id="DejaVuSans-30"/>
     <path d="M 10.984375 1.515625 
L 10.984375 10.5 
Q 14.703125 8.734375 18.5 7.8125 
Q 22.3125 6.890625 25.984375 6.890625 
Q 35.75 6.890625 40.890625 13.453125 
Q 46.046875 20.015625 46.78125 33.40625 
Q 43.953125 29.203125 39.59375 26.953125 
Q 35.25 24.703125 29.984375 24.703125 
Q 19.046875 24.703125 12.671875 31.3125 
Q 6.296875 37.9375 6.296875 49.421875 
Q 6.296875 60.640625 12.9375 67.421875 
Q 19.578125 74.21875 30.609375 74.21875 
Q 43.265625 74.21875 49.921875 64.515625 
Q 56.59375 54.828125 56.59375 36.375 
Q 56.59375 19.140625 48.40625 8.859375 
Q 40.234375 -1.421875 26.421875 -1.421875 
Q 22.703125 -1.421875 18.890625 -0.6875 
Q 15.09375 0.046875 10.984375 1.515625 
z
M 30.609375 32.421875 
Q 37.25 32.421875 41.125 36.953125 
Q 45.015625 41.5 45.015625 49.421875 
Q 45.015625 57.28125 41.125 61.84375 
Q 37.25 66.40625 30.609375 66.40625 
Q 23.96875 66.40625 20.09375 61.84375 
Q 16.21875 57.28125 16.21875 49.421875 
Q 16.21875 41.5 20.09375 36.953125 
Q 23.96875 32.421875 30.609375 32.421875 
z
" id="DejaVuSans-39"/>
     <path d="M 31.78125 34.625 
Q 24.75 34.625 20.71875 30.859375 
Q 16.703125 27.09375 16.703125 20.515625 
Q 16.703125 13.921875 20.71875 10.15625 
Q 24.75 6.390625 31.78125 6.390625 
Q 38.8125 6.390625 42.859375 10.171875 
Q 46.921875 13.96875 46.921875 20.515625 
Q 46.921875 27.09375 42.890625 30.859375 
Q 38.875 34.625 31.78125 34.625 
z
M 21.921875 38.8125 
Q 15.578125 40.375 12.03125 44.71875 
Q 8.5 49.078125 8.5 55.328125 
Q 8.5 64.0625 14.71875 69.140625 
Q 20.953125 74.21875 31.78125 74.21875 
Q 42.671875 74.21875 48.875 69.140625 
Q 55.078125 64.0625 55.078125 55.328125 
Q 55.078125 49.078125 51.53125 44.71875 
Q 48 40.375 41.703125 38.8125 
Q 48.828125 37.15625 52.796875 32.3125 
Q 56.78125 27.484375 56.78125 20.515625 
Q 56.78125 9.90625 50.3125 4.234375 
Q 43.84375 -1.421875 31.78125 -1.421875 
Q 19.734375 -1.421875 13.25 4.234375 
Q 6.78125 9.90625 6.78125 20.515625 
Q 6.78125 27.484375 10.78125 32.3125 
Q 14.796875 37.15625 21.921875 38.8125 
z
M 18.3125 54.390625 
Q 18.3125 48.734375 21.84375 45.5625 
Q 25.390625 42.390625 31.78125 42.390625 
Q 38.140625 42.390625 41.71875 45.5625 
Q 45.3125 48.734375 45.3125 54.390625 
Q 45.3125 60.0625 41.71875 63.234375 
Q 38.140625 66.40625 31.78125 66.40625 
Q 25.390625 66.40625 21.84375 63.234375 
Q 18.3125 60.0625 18.3125 54.390625 
z
" id="DejaVuSans-38"/>
     <path d="M 11.71875 12.40625 
L 22.015625 12.40625 
L 22.015625 4 
L 14.015625 -11.625 
L 7.71875 -11.625 
L 11.71875 4 
z
" id="DejaVuSans-2c"/>
     <path d="M 16.890625 72.90625 
L 62.984375 72.90625 
L 61.375 64.59375 
L 25.09375 64.59375 
L 20.90625 43.015625 
L 55.71875 43.015625 
L 54.109375 34.71875 
L 19.28125 34.71875 
L 14.203125 8.296875 
L 51.3125 8.296875 
L 49.703125 0 
L 2.6875 0 
z
" id="DejaVuSans-Oblique-45"/>
     <path d="M 16.890625 72.90625 
L 30.171875 72.90625 
L 50.296875 10.40625 
L 62.5 72.90625 
L 72.125 72.90625 
L 57.90625 0 
L 44.578125 0 
L 24.515625 62.890625 
L 12.3125 0 
L 2.6875 0 
z
" id="DejaVuSans-Oblique-4e"/>
     <path d="M 10.59375 45.40625 
L 73.1875 45.40625 
L 73.1875 37.203125 
L 10.59375 37.203125 
z
M 10.59375 25.484375 
L 73.1875 25.484375 
L 73.1875 17.1875 
L 10.59375 17.1875 
z
" id="DejaVuSans-3d"/>
     <path d="M 4.890625 31.390625 
L 31.203125 31.390625 
L 31.203125 23.390625 
L 4.890625 23.390625 
z
" id="DejaVuSans-2d"/>
     <path d="M 8.203125 72.90625 
L 55.078125 72.90625 
L 55.078125 68.703125 
L 28.609375 0 
L 18.3125 0 
L 43.21875 64.59375 
L 8.203125 64.59375 
z
" id="DejaVuSans-37"/>
     <path d="M 10.6875 12.40625 
L 21 12.40625 
L 21 0 
L 10.6875 0 
z
" id="DejaVuSans-2e"/>
     <path d="M 33.015625 40.375 
Q 26.375 40.375 22.484375 35.828125 
Q 18.609375 31.296875 18.609375 23.390625 
Q 18.609375 15.53125 22.484375 10.953125 
Q 26.375 6.390625 33.015625 6.390625 
Q 39.65625 6.390625 43.53125 10.953125 
Q 47.40625 15.53125 47.40625 23.390625 
Q 47.40625 31.296875 43.53125 35.828125 
Q 39.65625 40.375 33.015625 40.375 
z
M 52.59375 71.296875 
L 52.59375 62.3125 
Q 48.875 64.0625 45.09375 64.984375 
Q 41.3125 65.921875 37.59375 65.921875 
Q 27.828125 65.921875 22.671875 59.328125 
Q 17.53125 52.734375 16.796875 39.40625 
Q 19.671875 43.65625 24.015625 45.921875 
Q 28.375 48.1875 33.59375 48.1875 
Q 44.578125 48.1875 50.953125 41.515625 
Q 57.328125 34.859375 57.328125 23.390625 
Q 57.328125 12.15625 50.6875 5.359375 
Q 44.046875 -1.421875 33.015625 -1.421875 
Q 20.359375 -1.421875 13.671875 8.265625 
Q 6.984375 17.96875 6.984375 36.375 
Q 6.984375 53.65625 15.1875 63.9375 
Q 23.390625 74.21875 37.203125 74.21875 
Q 40.921875 74.21875 44.703125 73.484375 
Q 48.484375 72.75 52.59375 71.296875 
z
" id="DejaVuSans-36"/>
     <path d="M 28.609375 0 
L 0.78125 72.90625 
L 11.078125 72.90625 
L 34.1875 11.53125 
L 57.328125 72.90625 
L 67.578125 72.90625 
L 39.796875 0 
z
" id="DejaVuSans-56"/>
     <path d="M 34.1875 63.1875 
L 14.15625 8.203125 
L 54.25 8.203125 
z
M 0.78125 0 
L 28.609375 72.90625 
L 39.796875 72.90625 
L 67.578125 0 
z
" id="DejaVuSans-394"/>
     <path d="M 9.8125 72.90625 
L 55.90625 72.90625 
L 55.90625 64.59375 
L 19.671875 64.59375 
L 19.671875 43.015625 
L 54.390625 43.015625 
L 54.390625 34.71875 
L 19.671875 34.71875 
L 19.671875 8.296875 
L 56.78125 8.296875 
L 56.78125 0 
L 9.8125 0 
z
" id="DejaVuSans-45"/>
     <path d="M 10.796875 72.90625 
L 49.515625 72.90625 
L 49.515625 64.59375 
L 19.828125 64.59375 
L 19.828125 46.734375 
Q 21.96875 47.46875 24.109375 47.828125 
Q 26.265625 48.1875 28.421875 48.1875 
Q 40.625 48.1875 47.75 41.5 
Q 54.890625 34.8125 54.890625 23.390625 
Q 54.890625 11.625 47.5625 5.09375 
Q 40.234375 -1.421875 26.90625 -1.421875 
Q 22.3125 -1.421875 17.546875 -0.640625 
Q 12.796875 0.140625 7.71875 1.703125 
L 7.71875 11.625 
Q 12.109375 9.234375 16.796875 8.0625 
Q 21.484375 6.890625 26.703125 6.890625 
Q 35.15625 6.890625 40.078125 11.328125 
Q 45.015625 15.765625 45.015625 23.390625 
Q 45.015625 31 40.078125 35.4375 
Q 35.15625 39.890625 26.703125 39.890625 
Q 22.75 39.890625 18.8125 39.015625 
Q 14.890625 38.140625 10.796875 36.28125 
z
" id="DejaVuSans-35"/>
    </defs>
    <g transform="translate(63.228 35.472)scale(0.12 -0.12)">
     <use transform="translate(0 0.78125)" xlink:href="#DejaVuSans-53"/>
     <use transform="translate(63.476562 0.78125)" xlink:href="#DejaVuSans-74"/>
     <use transform="translate(102.685547 0.78125)" xlink:href="#DejaVuSans-72"/>
     <use transform="translate(143.798828 0.78125)" xlink:href="#DejaVuSans-75"/>
     <use transform="translate(207.177734 0.78125)" xlink:href="#DejaVuSans-63"/>
     <use transform="translate(262.158203 0.78125)" xlink:href="#DejaVuSans-74"/>
     <use transform="translate(301.367188 0.78125)" xlink:href="#DejaVuSans-75"/>
     <use transform="translate(364.746094 0.78125)" xlink:href="#DejaVuSans-72"/>
     <use transform="translate(405.859375 0.78125)" xlink:href="#DejaVuSans-65"/>
     <use transform="translate(467.382812 0.78125)" xlink:href="#DejaVuSans-20"/>
     <use transform="translate(499.169922 0.78125)" xlink:href="#DejaVuSans-23"/>
     <use transform="translate(582.958984 0.78125)" xlink:href="#DejaVuSans-31"/>
     <use transform="translate(646.582031 0.78125)" xlink:href="#DejaVuSans-30"/>
     <use transform="translate(710.205078 0.78125)" xlink:href="#DejaVuSans-39"/>
     <use transform="translate(773.828125 0.78125)" xlink:href="#DejaVuSans-38"/>
     <use transform="translate(837.451172 0.78125)" xlink:href="#DejaVuSans-2c"/>
     <use transform="translate(869.238281 0.78125)" xlink:href="#DejaVuSans-20"/>
     <use transform="translate(901.025391 0.78125)" xlink:href="#DejaVuSans-Oblique-45"/>
     <use transform="translate(964.208984 -15.625)scale(0.7)" xlink:href="#DejaVuSans-Oblique-4e"/>
     <use transform="translate(1019.306641 0.78125)" xlink:href="#DejaVuSans-3d"/>
     <use transform="translate(1103.095703 0.78125)" xlink:href="#DejaVuSans-2d"/>
     <use transform="translate(1139.179688 0.78125)" xlink:href="#DejaVuSans-31"/>
     <use transform="translate(1202.802734 0.78125)" xlink:href="#DejaVuSans-37"/>
     <use transform="translate(1266.425781 0.78125)" xlink:href="#DejaVuSans-38"/>
     <use transform="translate(1330.048828 0.78125)" xlink:href="#DejaVuSans-2e"/>
     <use transform="translate(1361.804688 0.78125)" xlink:href="#DejaVuSans-38"/>
     <use transform="translate(1425.427734 0.78125)" xlink:href="#DejaVuSans-36"/>
     <use transform="translate(1489.050781 0.78125)" xlink:href="#DejaVuSans-65"/>
     <use transform="translate(1550.574219 0.78125)" xlink:href="#DejaVuSans-56"/>
     <use transform="translate(1618.982422 0.78125)" xlink:href="#DejaVuSans-2c"/>
     <use transform="translate(1650.769531 0.78125)" xlink:href="#DejaVuSans-20"/>
     <use transform="translate(1682.556641 0.78125)" xlink:href="#DejaVuSans-394"/>
     <use transform="translate(1750.964844 0.78125)" xlink:href="#DejaVuSans-45"/>
     <use transform="translate(1814.148438 0.78125)" xlink:href="#DejaVuSans-3d"/>
     <use transform="translate(1897.9375 0.78125)" xlink:href="#DejaVuSans-2d"/>
     <use transform="translate(1934.021484 0.78125)" xlink:href="#DejaVuSans-30"/>
     <use transform="translate(1997.644531 0.78125)" xlink:href="#DejaVuSans-2e"/>
     <use transform="translate(2029.431641 0.78125)" xlink:href="#DejaVuSans-30"/>
     <use transform="translate(2093.054688 0.78125)" xlink:href="#DejaVuSans-35"/>
     <use transform="translate(2156.677734 0.78125)" xlink:href="#DejaVuSans-65"/>
     <use transform="translate(2218.201172 0.78125)" xlink:href="#DejaVuSans-56"/>
    </g>
   </g>
  </g>
  <g id="axes_2">
   <g id="patch_2">
    <path clip-path="url(#pea0d6a5686)" d="M 361.152 307.584 
L 361.152 306.5445 
L 361.152 42.5115 
L 361.152 41.472 
L 374.4576 41.472 
L 374.4576 42.5115 
L 374.4576 306.5445 
L 374.4576 307.584 
z
" style="fill:#ffffff;stroke:#ffffff;stroke-linejoin:miter;stroke-width:0.01;"/>
   </g>
   <image height="265.68" id="image8060f6f833" transform="scale(1 -1)translate(0 -265.68)" width="12.96" x="361.44" xlink:href="data:image/png;base64,
iVBORw0KGgoAAAANSUhEUgAAABIAAAFxCAYAAAB+2fgXAAAABHNCSVQICAgIfAhkiAAAAeVJREFUeJztncmNw0AQA2ckheYQNv9QLIfQ8ygsCgQ7AEI8+jAs2Puz/94F1LP2ReCsZ18bAWIeZ5XaGRBE7VnbptG+KI101FYyNSiQG2oRITXKNaX9uclOdi2XWjftVE32CZCO2ou5Bj1TcCBr/1zB9ge7Fq0Rg2NM9pvbtG+ua1QgsRYhDy0ISEiNc40BEibbSI0Coj5CBGtkpFbXJiAjNZlrwhuSOv2M1DjXbEdEciBt1JSDDQKKpmZr2rr2j0DBGpXaWEJq3bQzEPIS26r9J+Wzv9Tm8o3aajRXqc3VUXsApKNWjeZq0x4ABVNbm7lrszVigDqP5vIl2+eaT2yfRkL7g+dRcNPqjohkjaCvRVBq0H2U3LQrOJCx9kdTg4B8oxZzzTdqdYHEngjUCAPyUctN9sVRq2sTECW2UKNLd2jVtRmo1A6AhMmWaSRcR8nUdIHUuVb75zJS218EyEitro1At69pIdeSk30Lkw0FktNImGyZRhy1O5galmxd03LUsHWk06jUZiCq+5Wb1kZNN4+wJxJuWt8RAW5am2sYNZ9rYCBzZ3buPKJ2P5Yj4Toy3keyIyJbIxs1rml1byCA84gpch5RQNB7Q0qNMGq2Hy4BXdNR41yz/cEEJfZzUz96r9PoB0okjeQ8y9TkAAAAAElFTkSuQmCC" y="-41.76"/>
   <g id="matplotlib.axis_1"/>
   <g id="matplotlib.axis_2">
    <g id="ytick_1">
     <g id="line2d_1">
      <defs>
       <path d="M 0 0 
L 3.5 0 
" id="m4b59b982df" style="stroke:#000000;stroke-width:0.8;"/>
      </defs>
      <g>
       <use style="stroke:#000000;stroke-width:0.8;" x="374.4576" xlink:href="#m4b59b982df" y="279.957337"/>
      </g>
     </g>
     <g id="text_2">
      <!-- −8.5 -->
      <defs>
       <path d="M 10.59375 35.5 
L 73.1875 35.5 
L 73.1875 27.203125 
L 10.59375 27.203125 
z
" id="DejaVuSans-2212"/>
      </defs>
      <g transform="translate(381.4576 283.756556)scale(0.1 -0.1)">
       <use xlink:href="#DejaVuSans-2212"/>
       <use x="83.789062" xlink:href="#DejaVuSans-38"/>
       <use x="147.412109" xlink:href="#DejaVuSans-2e"/>
       <use x="179.199219" xlink:href="#DejaVuSans-35"/>
      </g>
     </g>
    </g>
    <g id="ytick_2">
     <g id="line2d_2">
      <g>
       <use style="stroke:#000000;stroke-width:0.8;" x="374.4576" xlink:href="#m4b59b982df" y="244.775243"/>
      </g>
     </g>
     <g id="text_3">
      <!-- −8.0 -->
      <g transform="translate(381.4576 248.574462)scale(0.1 -0.1)">
       <use xlink:href="#DejaVuSans-2212"/>
       <use x="83.789062" xlink:href="#DejaVuSans-38"/>
       <use x="147.412109" xlink:href="#DejaVuSans-2e"/>
       <use x="179.199219" xlink:href="#DejaVuSans-30"/>
      </g>
     </g>
    </g>
    <g id="ytick_3">
     <g id="line2d_3">
      <g>
       <use style="stroke:#000000;stroke-width:0.8;" x="374.4576" xlink:href="#m4b59b982df" y="209.593148"/>
      </g>
     </g>
     <g id="text_4">
      <!-- −7.5 -->
      <g transform="translate(381.4576 213.392367)scale(0.1 -0.1)">
       <use xlink:href="#DejaVuSans-2212"/>
       <use x="83.789062" xlink:href="#DejaVuSans-37"/>
       <use x="147.412109" xlink:href="#DejaVuSans-2e"/>
       <use x="179.199219" xlink:href="#DejaVuSans-35"/>
      </g>
     </g>
    </g>
    <g id="ytick_4">
     <g id="line2d_4">
      <g>
       <use style="stroke:#000000;stroke-width:0.8;" x="374.4576" xlink:href="#m4b59b982df" y="174.411054"/>
      </g>
     </g>
     <g id="text_5">
      <!-- −7.0 -->
      <g transform="translate(381.4576 178.210272)scale(0.1 -0.1)">
       <use xlink:href="#DejaVuSans-2212"/>
       <use x="83.789062" xlink:href="#DejaVuSans-37"/>
       <use x="147.412109" xlink:href="#DejaVuSans-2e"/>
       <use x="179.199219" xlink:href="#DejaVuSans-30"/>
      </g>
     </g>
    </g>
    <g id="ytick_5">
     <g id="line2d_5">
      <g>
       <use style="stroke:#000000;stroke-width:0.8;" x="374.4576" xlink:href="#m4b59b982df" y="139.228959"/>
      </g>
     </g>
     <g id="text_6">
      <!-- −6.5 -->
      <g transform="translate(381.4576 143.028178)scale(0.1 -0.1)">
       <use xlink:href="#DejaVuSans-2212"/>
       <use x="83.789062" xlink:href="#DejaVuSans-36"/>
       <use x="147.412109" xlink:href="#DejaVuSans-2e"/>
       <use x="179.199219" xlink:href="#DejaVuSans-35"/>
      </g>
     </g>
    </g>
    <g id="ytick_6">
     <g id="line2d_6">
      <g>
       <use style="stroke:#000000;stroke-width:0.8;" x="374.4576" xlink:href="#m4b59b982df" y="104.046864"/>
      </g>
     </g>
     <g id="text_7">
      <!-- −6.0 -->
      <g transform="translate(381.4576 107.846083)scale(0.1 -0.1)">
       <use xlink:href="#DejaVuSans-2212"/>
       <use x="83.789062" xlink:href="#DejaVuSans-36"/>
       <use x="147.412109" xlink:href="#DejaVuSans-2e"/>
       <use x="179.199219" xlink:href="#DejaVuSans-30"/>
      </g>
     </g>
    </g>
    <g id="ytick_7">
     <g id="line2d_7">
      <g>
       <use style="stroke:#000000;stroke-width:0.8;" x="374.4576" xlink:href="#m4b59b982df" y="68.86477"/>
      </g>
     </g>
     <g id="text_8">
      <!-- −5.5 -->
      <g transform="translate(381.4576 72.663988)scale(0.1 -0.1)">
       <use xlink:href="#DejaVuSans-2212"/>
       <use x="83.789062" xlink:href="#DejaVuSans-35"/>
       <use x="147.412109" xlink:href="#DejaVuSans-2e"/>
       <use x="179.199219" xlink:href="#DejaVuSans-35"/>
      </g>
     </g>
    </g>
    <g id="text_9">
     <!-- Energy [eV] -->
     <defs>
      <path d="M 54.890625 33.015625 
L 54.890625 0 
L 45.90625 0 
L 45.90625 32.71875 
Q 45.90625 40.484375 42.875 44.328125 
Q 39.84375 48.1875 33.796875 48.1875 
Q 26.515625 48.1875 22.3125 43.546875 
Q 18.109375 38.921875 18.109375 30.90625 
L 18.109375 0 
L 9.078125 0 
L 9.078125 54.6875 
L 18.109375 54.6875 
L 18.109375 46.1875 
Q 21.34375 51.125 25.703125 53.5625 
Q 30.078125 56 35.796875 56 
Q 45.21875 56 50.046875 50.171875 
Q 54.890625 44.34375 54.890625 33.015625 
z
" id="DejaVuSans-6e"/>
      <path d="M 45.40625 27.984375 
Q 45.40625 37.75 41.375 43.109375 
Q 37.359375 48.484375 30.078125 48.484375 
Q 22.859375 48.484375 18.828125 43.109375 
Q 14.796875 37.75 14.796875 27.984375 
Q 14.796875 18.265625 18.828125 12.890625 
Q 22.859375 7.515625 30.078125 7.515625 
Q 37.359375 7.515625 41.375 12.890625 
Q 45.40625 18.265625 45.40625 27.984375 
z
M 54.390625 6.78125 
Q 54.390625 -7.171875 48.1875 -13.984375 
Q 42 -20.796875 29.203125 -20.796875 
Q 24.46875 -20.796875 20.265625 -20.09375 
Q 16.0625 -19.390625 12.109375 -17.921875 
L 12.109375 -9.1875 
Q 16.0625 -11.328125 19.921875 -12.34375 
Q 23.78125 -13.375 27.78125 -13.375 
Q 36.625 -13.375 41.015625 -8.765625 
Q 45.40625 -4.15625 45.40625 5.171875 
L 45.40625 9.625 
Q 42.625 4.78125 38.28125 2.390625 
Q 33.9375 0 27.875 0 
Q 17.828125 0 11.671875 7.65625 
Q 5.515625 15.328125 5.515625 27.984375 
Q 5.515625 40.671875 11.671875 48.328125 
Q 17.828125 56 27.875 56 
Q 33.9375 56 38.28125 53.609375 
Q 42.625 51.21875 45.40625 46.390625 
L 45.40625 54.6875 
L 54.390625 54.6875 
z
" id="DejaVuSans-67"/>
      <path d="M 32.171875 -5.078125 
Q 28.375 -14.84375 24.75 -17.8125 
Q 21.140625 -20.796875 15.09375 -20.796875 
L 7.90625 -20.796875 
L 7.90625 -13.28125 
L 13.1875 -13.28125 
Q 16.890625 -13.28125 18.9375 -11.515625 
Q 21 -9.765625 23.484375 -3.21875 
L 25.09375 0.875 
L 2.984375 54.6875 
L 12.5 54.6875 
L 29.59375 11.921875 
L 46.6875 54.6875 
L 56.203125 54.6875 
z
" id="DejaVuSans-79"/>
      <path d="M 8.59375 75.984375 
L 29.296875 75.984375 
L 29.296875 69 
L 17.578125 69 
L 17.578125 -6.203125 
L 29.296875 -6.203125 
L 29.296875 -13.1875 
L 8.59375 -13.1875 
z
" id="DejaVuSans-5b"/>
      <path d="M 30.421875 75.984375 
L 30.421875 -13.1875 
L 9.71875 -13.1875 
L 9.71875 -6.203125 
L 21.390625 -6.203125 
L 21.390625 69 
L 9.71875 69 
L 9.71875 75.984375 
z
" id="DejaVuSans-5d"/>
     </defs>
     <g transform="translate(417.33885 204.108469)rotate(-90)scale(0.1 -0.1)">
      <use xlink:href="#DejaVuSans-45"/>
      <use x="63.183594" xlink:href="#DejaVuSans-6e"/>
      <use x="126.5625" xlink:href="#DejaVuSans-65"/>
      <use x="188.085938" xlink:href="#DejaVuSans-72"/>
      <use x="229.183594" xlink:href="#DejaVuSans-67"/>
      <use x="292.660156" xlink:href="#DejaVuSans-79"/>
      <use x="351.839844" xlink:href="#DejaVuSans-20"/>
      <use x="383.626953" xlink:href="#DejaVuSans-5b"/>
      <use x="422.640625" xlink:href="#DejaVuSans-65"/>
      <use x="484.164062" xlink:href="#DejaVuSans-56"/>
      <use x="552.572266" xlink:href="#DejaVuSans-5d"/>
     </g>
    </g>
   </g>
   <g id="patch_3">
    <path d="M 361.152 307.584 
L 361.152 306.5445 
L 361.152 42.5115 
L 361.152 41.472 
L 374.4576 41.472 
L 374.4576 42.5115 
L 374.4576 306.5445 
L 374.4576 307.584 
z
" style="fill:none;stroke:#000000;stroke-linejoin:miter;stroke-width:0.8;"/>
   </g>
  </g>
 </g>
 <defs>
  <clipPath id="p6df9eaeac9">
   <rect height="266.112" width="285.696" x="57.6" y="41.472"/>
  </clipPath>
  <clipPath id="pea0d6a5686">
   <rect height="266.112" width="13.3056" x="361.152" y="41.472"/>
  </clipPath>
 </defs>
</svg>
