<?xml version="1.0" encoding="utf-8" standalone="no"?>
<!DOCTYPE svg PUBLIC "-//W3C//DTD SVG 1.1//EN"
  "http://www.w3.org/Graphics/SVG/1.1/DTD/svg11.dtd">
<!-- Created with matplotlib (http://matplotlib.org/) -->
<svg height="345.6pt" version="1.1" viewBox="0 0 460.8 345.6" width="460.8pt" xmlns="http://www.w3.org/2000/svg" xmlns:xlink="http://www.w3.org/1999/xlink">
 <defs>
  <style type="text/css">
*{stroke-linecap:butt;stroke-linejoin:round;}
  </style>
 </defs>
 <g id="figure_1">
  <g id="patch_1">
   <path d="M 0 345.6 
L 460.8 345.6 
L 460.8 0 
L 0 0 
z
" style="fill:#ffffff;"/>
  </g>
  <g id="axes_1">
   <g id="CircleCollection_1">
    <path clip-path="url(#p16cc261963)" d="M 321.194214 179.373017 
C 322.895864 179.373017 324.528047 178.696944 325.731295 177.493696 
C 326.934543 176.290449 327.610616 174.658265 327.610616 172.956615 
C 327.610616 171.254966 326.934543 169.622782 325.731295 168.419534 
C 324.528047 167.216286 322.895864 166.540214 321.194214 166.540214 
C 319.492564 166.540214 317.860381 167.216286 316.657133 168.419534 
C 315.453885 169.622782 314.777812 171.254966 314.777812 172.956615 
C 314.777812 174.658265 315.453885 176.290449 316.657133 177.493696 
C 317.860381 178.696944 319.492564 179.373017 321.194214 179.373017 
z
" style="fill:#1f9a8a;"/>
    <path clip-path="url(#p16cc261963)" d="M 215.101833 189.936993 
C 216.776788 189.936993 218.383366 189.271527 219.567738 188.087155 
C 220.75211 186.902783 221.417577 185.296204 221.417577 183.621249 
C 221.417577 181.946294 220.75211 180.339716 219.567738 179.155344 
C 218.383366 177.970972 216.776788 177.305505 215.101833 177.305505 
C 213.426878 177.305505 211.820299 177.970972 210.635927 179.155344 
C 209.451555 180.339716 208.786089 181.946294 208.786089 183.621249 
C 208.786089 185.296204 209.451555 186.902783 210.635927 188.087155 
C 211.820299 189.271527 213.426878 189.936993 215.101833 189.936993 
z
" style="fill:#481d6f;"/>
    <path clip-path="url(#p16cc261963)" d="M 287.523682 151.340481 
C 289.245058 151.340481 290.896163 150.656571 292.11336 149.439374 
C 293.330557 148.222177 294.014467 146.571072 294.014467 144.849696 
C 294.014467 143.128319 293.330557 141.477214 292.11336 140.260017 
C 290.896163 139.04282 289.245058 138.35891 287.523682 138.35891 
C 285.802305 138.35891 284.1512 139.04282 282.934003 140.260017 
C 281.716806 141.477214 281.032896 143.128319 281.032896 144.849696 
C 281.032896 146.571072 281.716806 148.222177 282.934003 149.439374 
C 284.1512 150.656571 285.802305 151.340481 287.523682 151.340481 
z
" style="fill:#1f998a;"/>
    <path clip-path="url(#p16cc261963)" d="M 251.596767 221.662206 
C 253.244135 221.662206 254.824253 221.0077 255.989118 219.842835 
C 257.153983 218.67797 257.808489 217.097852 257.808489 215.450484 
C 257.808489 213.803116 257.153983 212.222998 255.989118 211.058133 
C 254.824253 209.893268 253.244135 209.238762 251.596767 209.238762 
C 249.949399 209.238762 248.369281 209.893268 247.204416 211.058133 
C 246.039551 212.222998 245.385045 213.803116 245.385045 215.450484 
C 245.385045 217.097852 246.039551 218.67797 247.204416 219.842835 
C 248.369281 221.0077 249.949399 221.662206 251.596767 221.662206 
z
" style="fill:#481a6c;"/>
    <path clip-path="url(#p16cc261963)" d="M 159.874712 197.807408 
C 161.571818 197.807408 163.199643 197.133141 164.399678 195.933106 
C 165.599713 194.733071 166.27398 193.105246 166.27398 191.40814 
C 166.27398 189.711034 165.599713 188.083209 164.399678 186.883174 
C 163.199643 185.683139 161.571818 185.008872 159.874712 185.008872 
C 158.177606 185.008872 156.549781 185.683139 155.349746 186.883174 
C 154.149711 188.083209 153.475444 189.711034 153.475444 191.40814 
C 153.475444 193.105246 154.149711 194.733071 155.349746 195.933106 
C 156.549781 197.133141 158.177606 197.807408 159.874712 197.807408 
z
" style="fill:#46075a;"/>
    <path clip-path="url(#p16cc261963)" d="M 93.75528 166.293251 
C 95.558293 166.293251 97.287701 165.576907 98.562624 164.301984 
C 99.837546 163.027062 100.553891 161.297653 100.553891 159.49464 
C 100.553891 157.691628 99.837546 155.962219 98.562624 154.687297 
C 97.287701 153.412374 95.558293 152.69603 93.75528 152.69603 
C 91.952267 152.69603 90.222859 153.412374 88.947936 154.687297 
C 87.673014 155.962219 86.956669 157.691628 86.956669 159.49464 
C 86.956669 161.297653 87.673014 163.027062 88.947936 164.301984 
C 90.222859 165.576907 91.952267 166.293251 93.75528 166.293251 
z
" style="fill:#440154;"/>
    <path clip-path="url(#p16cc261963)" d="M 249.773046 301.199947 
C 251.428351 301.199947 253.016082 300.542287 254.186559 299.37181 
C 255.357036 298.201332 256.014696 296.613601 256.014696 294.958297 
C 256.014696 293.302992 255.357036 291.715261 254.186559 290.544783 
C 253.016082 289.374306 251.428351 288.716646 249.773046 288.716646 
C 248.117741 288.716646 246.53001 289.374306 245.359533 290.544783 
C 244.189056 291.715261 243.531396 293.302992 243.531396 294.958297 
C 243.531396 296.613601 244.189056 298.201332 245.359533 299.37181 
C 246.53001 300.542287 248.117741 301.199947 249.773046 301.199947 
z
" style="fill:#21908d;"/>
    <path clip-path="url(#p16cc261963)" d="M 143.180535 164.888185 
C 144.933712 164.888185 146.615319 164.191641 147.855003 162.951958 
C 149.094686 161.712274 149.791231 160.030667 149.791231 158.27749 
C 149.791231 156.524313 149.094686 154.842706 147.855003 153.603022 
C 146.615319 152.363339 144.933712 151.666794 143.180535 151.666794 
C 141.427358 151.666794 139.745751 152.363339 138.506067 153.603022 
C 137.266384 154.842706 136.56984 156.524313 136.56984 158.27749 
C 136.56984 160.030667 137.266384 161.712274 138.506067 162.951958 
C 139.745751 164.191641 141.427358 164.888185 143.180535 164.888185 
z
" style="fill:#472e7c;"/>
    <path clip-path="url(#p16cc261963)" d="M 230.099271 261.245345 
C 231.726919 261.245345 233.288122 260.598673 234.439044 259.447752 
C 235.589965 258.296831 236.236636 256.735628 236.236636 255.107979 
C 236.236636 253.480331 235.589965 251.919127 234.439044 250.768206 
C 233.288122 249.617285 231.726919 248.970613 230.099271 248.970613 
C 228.471622 248.970613 226.910419 249.617285 225.759498 250.768206 
C 224.608576 251.919127 223.961905 253.480331 223.961905 255.107979 
C 223.961905 256.735628 224.608576 258.296831 225.759498 259.447752 
C 226.910419 260.598673 228.471622 261.245345 230.099271 261.245345 
z
" style="fill:#2e6e8e;"/>
    <path clip-path="url(#p16cc261963)" d="M 231.777756 151.73616 
C 233.49744 151.73616 235.146921 151.052922 236.362921 149.836922 
C 237.578921 148.620922 238.262158 146.971441 238.262158 145.251758 
C 238.262158 143.532074 237.578921 141.882593 236.362921 140.666593 
C 235.146921 139.450593 233.49744 138.767356 231.777756 138.767356 
C 230.058073 138.767356 228.408592 139.450593 227.192592 140.666593 
C 225.976592 141.882593 225.293355 143.532074 225.293355 145.251758 
C 225.293355 146.971441 225.976592 148.620922 227.192592 149.836922 
C 228.408592 151.052922 230.058073 151.73616 231.777756 151.73616 
z
" style="fill:#482071;"/>
    <path clip-path="url(#p16cc261963)" d="M 142.942615 279.59721 
C 144.639185 279.59721 146.266497 278.923156 147.466153 277.723499 
C 148.665809 276.523843 149.339864 274.896532 149.339864 273.199961 
C 149.339864 271.503391 148.665809 269.87608 147.466153 268.676423 
C 146.266497 267.476767 144.639185 266.802712 142.942615 266.802712 
C 141.246044 266.802712 139.618733 267.476767 138.419077 268.676423 
C 137.21942 269.87608 136.545366 271.503391 136.545366 273.199961 
C 136.545366 274.896532 137.21942 276.523843 138.419077 277.723499 
C 139.618733 278.923156 141.246044 279.59721 142.942615 279.59721 
z
" style="fill:#414487;"/>
    <path clip-path="url(#p16cc261963)" d="M 85.962339 239.692387 
C 87.720729 239.692387 89.407337 238.993771 90.650707 237.750401 
C 91.894077 236.507032 92.592693 234.820424 92.592693 233.062033 
C 92.592693 231.303643 91.894077 229.617035 90.650707 228.373665 
C 89.407337 227.130295 87.720729 226.431679 85.962339 226.431679 
C 84.203949 226.431679 82.517341 227.130295 81.273971 228.373665 
C 80.030601 229.617035 79.331985 231.303643 79.331985 233.062033 
C 79.331985 234.820424 80.030601 236.507032 81.273971 237.750401 
C 82.517341 238.993771 84.203949 239.692387 85.962339 239.692387 
z
" style="fill:#3e4c8a;"/>
    <path clip-path="url(#p16cc261963)" d="M 173.40302 98.120971 
C 175.21203 98.120971 176.947191 97.402244 178.226354 96.123081 
C 179.505517 94.843918 180.224244 93.108757 180.224244 91.299747 
C 180.224244 89.490737 179.505517 87.755576 178.226354 86.476413 
C 176.947191 85.19725 175.21203 84.478522 173.40302 84.478522 
C 171.59401 84.478522 169.858849 85.19725 168.579686 86.476413 
C 167.300523 87.755576 166.581796 89.490737 166.581796 91.299747 
C 166.581796 93.108757 167.300523 94.843918 168.579686 96.123081 
C 169.858849 97.402244 171.59401 98.120971 173.40302 98.120971 
z
" style="fill:#27808e;"/>
    <path clip-path="url(#p16cc261963)" d="M 329.801569 262.151866 
C 331.487576 262.151866 333.104756 261.482008 334.296943 260.289821 
C 335.48913 259.097633 336.158988 257.480454 336.158988 255.794446 
C 336.158988 254.108439 335.48913 252.491259 334.296943 251.299072 
C 333.104756 250.106884 331.487576 249.437026 329.801569 249.437026 
C 328.115561 249.437026 326.498381 250.106884 325.306194 251.299072 
C 324.114007 252.491259 323.444149 254.108439 323.444149 255.794446 
C 323.444149 257.480454 324.114007 259.097633 325.306194 260.289821 
C 326.498381 261.482008 328.115561 262.151866 329.801569 262.151866 
z
" style="fill:#22a884;"/>
    <path clip-path="url(#p16cc261963)" d="M 185.930034 134.512498 
C 187.693961 134.512498 189.385878 133.811683 190.633162 132.564399 
C 191.880446 131.317115 192.581262 129.625197 192.581262 127.861271 
C 192.581262 126.097345 191.880446 124.405427 190.633162 123.158143 
C 189.385878 121.910859 187.693961 121.210044 185.930034 121.210044 
C 184.166108 121.210044 182.474191 121.910859 181.226906 123.158143 
C 179.979622 124.405427 179.278807 126.097345 179.278807 127.861271 
C 179.278807 129.625197 179.979622 131.317115 181.226906 132.564399 
C 182.474191 133.811683 184.166108 134.512498 185.930034 134.512498 
z
" style="fill:#471063;"/>
    <path clip-path="url(#p16cc261963)" d="M 116.86667 94.92652 
C 118.71376 94.92652 120.485446 94.192664 121.791535 92.886575 
C 123.097625 91.580485 123.831481 89.808799 123.831481 87.961709 
C 123.831481 86.11462 123.097625 84.342934 121.791535 83.036844 
C 120.485446 81.730755 118.71376 80.996898 116.86667 80.996898 
C 115.019581 80.996898 113.247894 81.730755 111.941805 83.036844 
C 110.635715 84.342934 109.901859 86.11462 109.901859 87.961709 
C 109.901859 89.808799 110.635715 91.580485 111.941805 92.886575 
C 113.247894 94.192664 115.019581 94.92652 116.86667 94.92652 
z
" style="fill:#30698e;"/>
    <path clip-path="url(#p16cc261963)" d="M 302.677858 296.027597 
C 304.359228 296.027597 305.971961 295.359582 307.160869 294.170673 
C 308.349778 292.981765 309.017793 291.369032 309.017793 289.687662 
C 309.017793 288.006291 308.349778 286.393559 307.160869 285.20465 
C 305.971961 284.015742 304.359228 283.347726 302.677858 283.347726 
C 300.996487 283.347726 299.383755 284.015742 298.194847 285.20465 
C 297.005938 286.393559 296.337923 288.006291 296.337923 289.687662 
C 296.337923 291.369032 297.005938 292.981765 298.194847 294.170673 
C 299.383755 295.359582 300.996487 296.027597 302.677858 296.027597 
z
" style="fill:#1f998a;"/>
    <path clip-path="url(#p16cc261963)" d="M 154.498162 61.094293 
C 156.338017 61.094293 158.102764 60.363311 159.403738 59.062337 
C 160.704713 57.761363 161.435695 55.996616 161.435695 54.15676 
C 161.435695 52.316905 160.704713 50.552158 159.403738 49.251184 
C 158.102764 47.950209 156.338017 47.219227 154.498162 47.219227 
C 152.658307 47.219227 150.893559 47.950209 149.592585 49.251184 
C 148.291611 50.552158 147.560629 52.316905 147.560629 54.15676 
C 147.560629 55.996616 148.291611 57.761363 149.592585 59.062337 
C 150.893559 60.363311 152.658307 61.094293 154.498162 61.094293 
z
" style="fill:#6ece58;"/>
    <path clip-path="url(#p16cc261963)" d="M 106.713022 283.870885 
C 108.482443 283.870885 110.179631 283.167886 111.4308 281.916717 
C 112.68197 280.665548 113.384968 278.968359 113.384968 277.198939 
C 113.384968 275.429518 112.68197 273.73233 111.4308 272.481161 
C 110.179631 271.229991 108.482443 270.526993 106.713022 270.526993 
C 104.943602 270.526993 103.246413 271.229991 101.995244 272.481161 
C 100.744075 273.73233 100.041076 275.429518 100.041076 277.198939 
C 100.041076 278.968359 100.744075 280.665548 101.995244 281.916717 
C 103.246413 283.167886 104.943602 283.870885 106.713022 283.870885 
z
" style="fill:#fde725;"/>
    <path clip-path="url(#p16cc261963)" d="M 128.386668 234.534409 
C 130.079381 234.534409 131.702993 233.861887 132.899921 232.664958 
C 134.09685 231.468029 134.769372 229.844418 134.769372 228.151705 
C 134.769372 226.458992 134.09685 224.835381 132.899921 223.638452 
C 131.702993 222.441524 130.079381 221.769002 128.386668 221.769002 
C 126.693956 221.769002 125.070344 222.441524 123.873415 223.638452 
C 122.676487 224.835381 122.003965 226.458992 122.003965 228.151705 
C 122.003965 229.844418 122.676487 231.468029 123.873415 232.664958 
C 125.070344 233.861887 126.693956 234.534409 128.386668 234.534409 
z
" style="fill:#38588c;"/>
    <path clip-path="url(#p16cc261963)" d="M 71.131123 206.960318 
C 72.938848 206.960318 74.672777 206.242101 75.951032 204.963846 
C 77.229287 203.685591 77.947503 201.951663 77.947503 200.143937 
C 77.947503 198.336212 77.229287 196.602284 75.951032 195.324029 
C 74.672777 194.045774 72.938848 193.327557 71.131123 193.327557 
C 69.323398 193.327557 67.589469 194.045774 66.311215 195.324029 
C 65.03296 196.602284 64.314743 198.336212 64.314743 200.143937 
C 64.314743 201.951663 65.03296 203.685591 66.311215 204.963846 
C 67.589469 206.242101 69.323398 206.960318 71.131123 206.960318 
z
" style="fill:#70cf57;"/>
    <path clip-path="url(#p16cc261963)" d="M 86.584311 128.042578 
C 88.430279 128.042578 90.20089 127.309167 91.506187 126.00387 
C 92.811484 124.698573 93.544895 122.927962 93.544895 121.081994 
C 93.544895 119.236025 92.811484 117.465414 91.506187 116.160117 
C 90.20089 114.854821 88.430279 114.121409 86.584311 114.121409 
C 84.738342 114.121409 82.967731 114.854821 81.662434 116.160117 
C 80.357138 117.465414 79.623726 119.236025 79.623726 121.081994 
C 79.623726 122.927962 80.357138 124.698573 81.662434 126.00387 
C 82.967731 127.309167 84.738342 128.042578 86.584311 128.042578 
z
" style="fill:#24aa83;"/>
    <path clip-path="url(#p16cc261963)" d="M 193.212696 290.50744 
C 194.876595 290.50744 196.472569 289.846366 197.649123 288.669812 
C 198.825678 287.493258 199.486752 285.897284 199.486752 284.233385 
C 199.486752 282.569486 198.825678 280.973512 197.649123 279.796958 
C 196.472569 278.620404 194.876595 277.95933 193.212696 277.95933 
C 191.548797 277.95933 189.952823 278.620404 188.776269 279.796958 
C 187.599715 280.973512 186.938641 282.569486 186.938641 284.233385 
C 186.938641 285.897284 187.599715 287.493258 188.776269 288.669812 
C 189.952823 289.846366 191.548797 290.50744 193.212696 290.50744 
z
" style="fill:#2b748e;"/>
    <path clip-path="url(#p16cc261963)" d="M 309.040757 220.750247 
C 310.715959 220.750247 312.322774 220.084682 313.50732 218.900135 
C 314.691867 217.715589 315.357432 216.108774 315.357432 214.433572 
C 315.357432 212.75837 314.691867 211.151555 313.50732 209.967008 
C 312.322774 208.782462 310.715959 208.116897 309.040757 208.116897 
C 307.365555 208.116897 305.75874 208.782462 304.574193 209.967008 
C 303.389647 211.151555 302.724082 212.75837 302.724082 214.433572 
C 302.724082 216.108774 303.389647 217.715589 304.574193 218.900135 
C 305.75874 220.084682 307.365555 220.750247 309.040757 220.750247 
z
" style="fill:#481668;"/>
   </g>
   <g id="text_1">
    <!-- Structure #678, $E_N$=-182.53eV, ΔE=-0.18eV -->
    <defs>
     <path d="M 53.515625 70.515625 
L 53.515625 60.890625 
Q 47.90625 63.578125 42.921875 64.890625 
Q 37.9375 66.21875 33.296875 66.21875 
Q 25.25 66.21875 20.875 63.09375 
Q 16.5 59.96875 16.5 54.203125 
Q 16.5 49.359375 19.40625 46.890625 
Q 22.3125 44.4375 30.421875 42.921875 
L 36.375 41.703125 
Q 47.40625 39.59375 52.65625 34.296875 
Q 57.90625 29 57.90625 20.125 
Q 57.90625 9.515625 50.796875 4.046875 
Q 43.703125 -1.421875 29.984375 -1.421875 
Q 24.8125 -1.421875 18.96875 -0.25 
Q 13.140625 0.921875 6.890625 3.21875 
L 6.890625 13.375 
Q 12.890625 10.015625 18.65625 8.296875 
Q 24.421875 6.59375 29.984375 6.59375 
Q 38.421875 6.59375 43.015625 9.90625 
Q 47.609375 13.234375 47.609375 19.390625 
Q 47.609375 24.75 44.3125 27.78125 
Q 41.015625 30.8125 33.5 32.328125 
L 27.484375 33.5 
Q 16.453125 35.6875 11.515625 40.375 
Q 6.59375 45.0625 6.59375 53.421875 
Q 6.59375 63.09375 13.40625 68.65625 
Q 20.21875 74.21875 32.171875 74.21875 
Q 37.3125 74.21875 42.625 73.28125 
Q 47.953125 72.359375 53.515625 70.515625 
z
" id="DejaVuSans-53"/>
     <path d="M 18.3125 70.21875 
L 18.3125 54.6875 
L 36.8125 54.6875 
L 36.8125 47.703125 
L 18.3125 47.703125 
L 18.3125 18.015625 
Q 18.3125 11.328125 20.140625 9.421875 
Q 21.96875 7.515625 27.59375 7.515625 
L 36.8125 7.515625 
L 36.8125 0 
L 27.59375 0 
Q 17.1875 0 13.234375 3.875 
Q 9.28125 7.765625 9.28125 18.015625 
L 9.28125 47.703125 
L 2.6875 47.703125 
L 2.6875 54.6875 
L 9.28125 54.6875 
L 9.28125 70.21875 
z
" id="DejaVuSans-74"/>
     <path d="M 41.109375 46.296875 
Q 39.59375 47.171875 37.8125 47.578125 
Q 36.03125 48 33.890625 48 
Q 26.265625 48 22.1875 43.046875 
Q 18.109375 38.09375 18.109375 28.8125 
L 18.109375 0 
L 9.078125 0 
L 9.078125 54.6875 
L 18.109375 54.6875 
L 18.109375 46.1875 
Q 20.953125 51.171875 25.484375 53.578125 
Q 30.03125 56 36.53125 56 
Q 37.453125 56 38.578125 55.875 
Q 39.703125 55.765625 41.0625 55.515625 
z
" id="DejaVuSans-72"/>
     <path d="M 8.5 21.578125 
L 8.5 54.6875 
L 17.484375 54.6875 
L 17.484375 21.921875 
Q 17.484375 14.15625 20.5 10.265625 
Q 23.53125 6.390625 29.59375 6.390625 
Q 36.859375 6.390625 41.078125 11.03125 
Q 45.3125 15.671875 45.3125 23.6875 
L 45.3125 54.6875 
L 54.296875 54.6875 
L 54.296875 0 
L 45.3125 0 
L 45.3125 8.40625 
Q 42.046875 3.421875 37.71875 1 
Q 33.40625 -1.421875 27.6875 -1.421875 
Q 18.265625 -1.421875 13.375 4.4375 
Q 8.5 10.296875 8.5 21.578125 
z
M 31.109375 56 
z
" id="DejaVuSans-75"/>
     <path d="M 48.78125 52.59375 
L 48.78125 44.1875 
Q 44.96875 46.296875 41.140625 47.34375 
Q 37.3125 48.390625 33.40625 48.390625 
Q 24.65625 48.390625 19.8125 42.84375 
Q 14.984375 37.3125 14.984375 27.296875 
Q 14.984375 17.28125 19.8125 11.734375 
Q 24.65625 6.203125 33.40625 6.203125 
Q 37.3125 6.203125 41.140625 7.25 
Q 44.96875 8.296875 48.78125 10.40625 
L 48.78125 2.09375 
Q 45.015625 0.34375 40.984375 -0.53125 
Q 36.96875 -1.421875 32.421875 -1.421875 
Q 20.0625 -1.421875 12.78125 6.34375 
Q 5.515625 14.109375 5.515625 27.296875 
Q 5.515625 40.671875 12.859375 48.328125 
Q 20.21875 56 33.015625 56 
Q 37.15625 56 41.109375 55.140625 
Q 45.0625 54.296875 48.78125 52.59375 
z
" id="DejaVuSans-63"/>
     <path d="M 56.203125 29.59375 
L 56.203125 25.203125 
L 14.890625 25.203125 
Q 15.484375 15.921875 20.484375 11.0625 
Q 25.484375 6.203125 34.421875 6.203125 
Q 39.59375 6.203125 44.453125 7.46875 
Q 49.3125 8.734375 54.109375 11.28125 
L 54.109375 2.78125 
Q 49.265625 0.734375 44.1875 -0.34375 
Q 39.109375 -1.421875 33.890625 -1.421875 
Q 20.796875 -1.421875 13.15625 6.1875 
Q 5.515625 13.8125 5.515625 26.8125 
Q 5.515625 40.234375 12.765625 48.109375 
Q 20.015625 56 32.328125 56 
Q 43.359375 56 49.78125 48.890625 
Q 56.203125 41.796875 56.203125 29.59375 
z
M 47.21875 32.234375 
Q 47.125 39.59375 43.09375 43.984375 
Q 39.0625 48.390625 32.421875 48.390625 
Q 24.90625 48.390625 20.390625 44.140625 
Q 15.875 39.890625 15.1875 32.171875 
z
" id="DejaVuSans-65"/>
     <path id="DejaVuSans-20"/>
     <path d="M 51.125 44 
L 36.921875 44 
L 32.8125 27.6875 
L 47.125 27.6875 
z
M 43.796875 71.78125 
L 38.71875 51.515625 
L 52.984375 51.515625 
L 58.109375 71.78125 
L 65.921875 71.78125 
L 60.890625 51.515625 
L 76.125 51.515625 
L 76.125 44 
L 58.984375 44 
L 54.984375 27.6875 
L 70.515625 27.6875 
L 70.515625 20.21875 
L 53.078125 20.21875 
L 48 0 
L 40.1875 0 
L 45.21875 20.21875 
L 30.90625 20.21875 
L 25.875 0 
L 18.015625 0 
L 23.09375 20.21875 
L 7.71875 20.21875 
L 7.71875 27.6875 
L 24.90625 27.6875 
L 29 44 
L 13.28125 44 
L 13.28125 51.515625 
L 30.90625 51.515625 
L 35.890625 71.78125 
z
" id="DejaVuSans-23"/>
     <path d="M 33.015625 40.375 
Q 26.375 40.375 22.484375 35.828125 
Q 18.609375 31.296875 18.609375 23.390625 
Q 18.609375 15.53125 22.484375 10.953125 
Q 26.375 6.390625 33.015625 6.390625 
Q 39.65625 6.390625 43.53125 10.953125 
Q 47.40625 15.53125 47.40625 23.390625 
Q 47.40625 31.296875 43.53125 35.828125 
Q 39.65625 40.375 33.015625 40.375 
z
M 52.59375 71.296875 
L 52.59375 62.3125 
Q 48.875 64.0625 45.09375 64.984375 
Q 41.3125 65.921875 37.59375 65.921875 
Q 27.828125 65.921875 22.671875 59.328125 
Q 17.53125 52.734375 16.796875 39.40625 
Q 19.671875 43.65625 24.015625 45.921875 
Q 28.375 48.1875 33.59375 48.1875 
Q 44.578125 48.1875 50.953125 41.515625 
Q 57.328125 34.859375 57.328125 23.390625 
Q 57.328125 12.15625 50.6875 5.359375 
Q 44.046875 -1.421875 33.015625 -1.421875 
Q 20.359375 -1.421875 13.671875 8.265625 
Q 6.984375 17.96875 6.984375 36.375 
Q 6.984375 53.65625 15.1875 63.9375 
Q 23.390625 74.21875 37.203125 74.21875 
Q 40.921875 74.21875 44.703125 73.484375 
Q 48.484375 72.75 52.59375 71.296875 
z
" id="DejaVuSans-36"/>
     <path d="M 8.203125 72.90625 
L 55.078125 72.90625 
L 55.078125 68.703125 
L 28.609375 0 
L 18.3125 0 
L 43.21875 64.59375 
L 8.203125 64.59375 
z
" id="DejaVuSans-37"/>
     <path d="M 31.78125 34.625 
Q 24.75 34.625 20.71875 30.859375 
Q 16.703125 27.09375 16.703125 20.515625 
Q 16.703125 13.921875 20.71875 10.15625 
Q 24.75 6.390625 31.78125 6.390625 
Q 38.8125 6.390625 42.859375 10.171875 
Q 46.921875 13.96875 46.921875 20.515625 
Q 46.921875 27.09375 42.890625 30.859375 
Q 38.875 34.625 31.78125 34.625 
z
M 21.921875 38.8125 
Q 15.578125 40.375 12.03125 44.71875 
Q 8.5 49.078125 8.5 55.328125 
Q 8.5 64.0625 14.71875 69.140625 
Q 20.953125 74.21875 31.78125 74.21875 
Q 42.671875 74.21875 48.875 69.140625 
Q 55.078125 64.0625 55.078125 55.328125 
Q 55.078125 49.078125 51.53125 44.71875 
Q 48 40.375 41.703125 38.8125 
Q 48.828125 37.15625 52.796875 32.3125 
Q 56.78125 27.484375 56.78125 20.515625 
Q 56.78125 9.90625 50.3125 4.234375 
Q 43.84375 -1.421875 31.78125 -1.421875 
Q 19.734375 -1.421875 13.25 4.234375 
Q 6.78125 9.90625 6.78125 20.515625 
Q 6.78125 27.484375 10.78125 32.3125 
Q 14.796875 37.15625 21.921875 38.8125 
z
M 18.3125 54.390625 
Q 18.3125 48.734375 21.84375 45.5625 
Q 25.390625 42.390625 31.78125 42.390625 
Q 38.140625 42.390625 41.71875 45.5625 
Q 45.3125 48.734375 45.3125 54.390625 
Q 45.3125 60.0625 41.71875 63.234375 
Q 38.140625 66.40625 31.78125 66.40625 
Q 25.390625 66.40625 21.84375 63.234375 
Q 18.3125 60.0625 18.3125 54.390625 
z
" id="DejaVuSans-38"/>
     <path d="M 11.71875 12.40625 
L 22.015625 12.40625 
L 22.015625 4 
L 14.015625 -11.625 
L 7.71875 -11.625 
L 11.71875 4 
z
" id="DejaVuSans-2c"/>
     <path d="M 16.890625 72.90625 
L 62.984375 72.90625 
L 61.375 64.59375 
L 25.09375 64.59375 
L 20.90625 43.015625 
L 55.71875 43.015625 
L 54.109375 34.71875 
L 19.28125 34.71875 
L 14.203125 8.296875 
L 51.3125 8.296875 
L 49.703125 0 
L 2.6875 0 
z
" id="DejaVuSans-Oblique-45"/>
     <path d="M 16.890625 72.90625 
L 30.171875 72.90625 
L 50.296875 10.40625 
L 62.5 72.90625 
L 72.125 72.90625 
L 57.90625 0 
L 44.578125 0 
L 24.515625 62.890625 
L 12.3125 0 
L 2.6875 0 
z
" id="DejaVuSans-Oblique-4e"/>
     <path d="M 10.59375 45.40625 
L 73.1875 45.40625 
L 73.1875 37.203125 
L 10.59375 37.203125 
z
M 10.59375 25.484375 
L 73.1875 25.484375 
L 73.1875 17.1875 
L 10.59375 17.1875 
z
" id="DejaVuSans-3d"/>
     <path d="M 4.890625 31.390625 
L 31.203125 31.390625 
L 31.203125 23.390625 
L 4.890625 23.390625 
z
" id="DejaVuSans-2d"/>
     <path d="M 12.40625 8.296875 
L 28.515625 8.296875 
L 28.515625 63.921875 
L 10.984375 60.40625 
L 10.984375 69.390625 
L 28.421875 72.90625 
L 38.28125 72.90625 
L 38.28125 8.296875 
L 54.390625 8.296875 
L 54.390625 0 
L 12.40625 0 
z
" id="DejaVuSans-31"/>
     <path d="M 19.1875 8.296875 
L 53.609375 8.296875 
L 53.609375 0 
L 7.328125 0 
L 7.328125 8.296875 
Q 12.9375 14.109375 22.625 23.890625 
Q 32.328125 33.6875 34.8125 36.53125 
Q 39.546875 41.84375 41.421875 45.53125 
Q 43.3125 49.21875 43.3125 52.78125 
Q 43.3125 58.59375 39.234375 62.25 
Q 35.15625 65.921875 28.609375 65.921875 
Q 23.96875 65.921875 18.8125 64.3125 
Q 13.671875 62.703125 7.8125 59.421875 
L 7.8125 69.390625 
Q 13.765625 71.78125 18.9375 73 
Q 24.125 74.21875 28.421875 74.21875 
Q 39.75 74.21875 46.484375 68.546875 
Q 53.21875 62.890625 53.21875 53.421875 
Q 53.21875 48.921875 51.53125 44.890625 
Q 49.859375 40.875 45.40625 35.40625 
Q 44.1875 33.984375 37.640625 27.21875 
Q 31.109375 20.453125 19.1875 8.296875 
z
" id="DejaVuSans-32"/>
     <path d="M 10.6875 12.40625 
L 21 12.40625 
L 21 0 
L 10.6875 0 
z
" id="DejaVuSans-2e"/>
     <path d="M 10.796875 72.90625 
L 49.515625 72.90625 
L 49.515625 64.59375 
L 19.828125 64.59375 
L 19.828125 46.734375 
Q 21.96875 47.46875 24.109375 47.828125 
Q 26.265625 48.1875 28.421875 48.1875 
Q 40.625 48.1875 47.75 41.5 
Q 54.890625 34.8125 54.890625 23.390625 
Q 54.890625 11.625 47.5625 5.09375 
Q 40.234375 -1.421875 26.90625 -1.421875 
Q 22.3125 -1.421875 17.546875 -0.640625 
Q 12.796875 0.140625 7.71875 1.703125 
L 7.71875 11.625 
Q 12.109375 9.234375 16.796875 8.0625 
Q 21.484375 6.890625 26.703125 6.890625 
Q 35.15625 6.890625 40.078125 11.328125 
Q 45.015625 15.765625 45.015625 23.390625 
Q 45.015625 31 40.078125 35.4375 
Q 35.15625 39.890625 26.703125 39.890625 
Q 22.75 39.890625 18.8125 39.015625 
Q 14.890625 38.140625 10.796875 36.28125 
z
" id="DejaVuSans-35"/>
     <path d="M 40.578125 39.3125 
Q 47.65625 37.796875 51.625 33 
Q 55.609375 28.21875 55.609375 21.1875 
Q 55.609375 10.40625 48.1875 4.484375 
Q 40.765625 -1.421875 27.09375 -1.421875 
Q 22.515625 -1.421875 17.65625 -0.515625 
Q 12.796875 0.390625 7.625 2.203125 
L 7.625 11.71875 
Q 11.71875 9.328125 16.59375 8.109375 
Q 21.484375 6.890625 26.8125 6.890625 
Q 36.078125 6.890625 40.9375 10.546875 
Q 45.796875 14.203125 45.796875 21.1875 
Q 45.796875 27.640625 41.28125 31.265625 
Q 36.765625 34.90625 28.71875 34.90625 
L 20.21875 34.90625 
L 20.21875 43.015625 
L 29.109375 43.015625 
Q 36.375 43.015625 40.234375 45.921875 
Q 44.09375 48.828125 44.09375 54.296875 
Q 44.09375 59.90625 40.109375 62.90625 
Q 36.140625 65.921875 28.71875 65.921875 
Q 24.65625 65.921875 20.015625 65.03125 
Q 15.375 64.15625 9.8125 62.3125 
L 9.8125 71.09375 
Q 15.4375 72.65625 20.34375 73.4375 
Q 25.25 74.21875 29.59375 74.21875 
Q 40.828125 74.21875 47.359375 69.109375 
Q 53.90625 64.015625 53.90625 55.328125 
Q 53.90625 49.265625 50.4375 45.09375 
Q 46.96875 40.921875 40.578125 39.3125 
z
" id="DejaVuSans-33"/>
     <path d="M 28.609375 0 
L 0.78125 72.90625 
L 11.078125 72.90625 
L 34.1875 11.53125 
L 57.328125 72.90625 
L 67.578125 72.90625 
L 39.796875 0 
z
" id="DejaVuSans-56"/>
     <path d="M 34.1875 63.1875 
L 14.15625 8.203125 
L 54.25 8.203125 
z
M 0.78125 0 
L 28.609375 72.90625 
L 39.796875 72.90625 
L 67.578125 0 
z
" id="DejaVuSans-394"/>
     <path d="M 9.8125 72.90625 
L 55.90625 72.90625 
L 55.90625 64.59375 
L 19.671875 64.59375 
L 19.671875 43.015625 
L 54.390625 43.015625 
L 54.390625 34.71875 
L 19.671875 34.71875 
L 19.671875 8.296875 
L 56.78125 8.296875 
L 56.78125 0 
L 9.8125 0 
z
" id="DejaVuSans-45"/>
     <path d="M 31.78125 66.40625 
Q 24.171875 66.40625 20.328125 58.90625 
Q 16.5 51.421875 16.5 36.375 
Q 16.5 21.390625 20.328125 13.890625 
Q 24.171875 6.390625 31.78125 6.390625 
Q 39.453125 6.390625 43.28125 13.890625 
Q 47.125 21.390625 47.125 36.375 
Q 47.125 51.421875 43.28125 58.90625 
Q 39.453125 66.40625 31.78125 66.40625 
z
M 31.78125 74.21875 
Q 44.046875 74.21875 50.515625 64.515625 
Q 56.984375 54.828125 56.984375 36.375 
Q 56.984375 17.96875 50.515625 8.265625 
Q 44.046875 -1.421875 31.78125 -1.421875 
Q 19.53125 -1.421875 13.0625 8.265625 
Q 6.59375 17.96875 6.59375 36.375 
Q 6.59375 54.828125 13.0625 64.515625 
Q 19.53125 74.21875 31.78125 74.21875 
z
" id="DejaVuSans-30"/>
    </defs>
    <g transform="translate(67.008 35.472)scale(0.12 -0.12)">
     <use transform="translate(0 0.78125)" xlink:href="#DejaVuSans-53"/>
     <use transform="translate(63.476562 0.78125)" xlink:href="#DejaVuSans-74"/>
     <use transform="translate(102.685547 0.78125)" xlink:href="#DejaVuSans-72"/>
     <use transform="translate(143.798828 0.78125)" xlink:href="#DejaVuSans-75"/>
     <use transform="translate(207.177734 0.78125)" xlink:href="#DejaVuSans-63"/>
     <use transform="translate(262.158203 0.78125)" xlink:href="#DejaVuSans-74"/>
     <use transform="translate(301.367188 0.78125)" xlink:href="#DejaVuSans-75"/>
     <use transform="translate(364.746094 0.78125)" xlink:href="#DejaVuSans-72"/>
     <use transform="translate(405.859375 0.78125)" xlink:href="#DejaVuSans-65"/>
     <use transform="translate(467.382812 0.78125)" xlink:href="#DejaVuSans-20"/>
     <use transform="translate(499.169922 0.78125)" xlink:href="#DejaVuSans-23"/>
     <use transform="translate(582.958984 0.78125)" xlink:href="#DejaVuSans-36"/>
     <use transform="translate(646.582031 0.78125)" xlink:href="#DejaVuSans-37"/>
     <use transform="translate(710.205078 0.78125)" xlink:href="#DejaVuSans-38"/>
     <use transform="translate(773.828125 0.78125)" xlink:href="#DejaVuSans-2c"/>
     <use transform="translate(805.615234 0.78125)" xlink:href="#DejaVuSans-20"/>
     <use transform="translate(837.402344 0.78125)" xlink:href="#DejaVuSans-Oblique-45"/>
     <use transform="translate(900.585938 -15.625)scale(0.7)" xlink:href="#DejaVuSans-Oblique-4e"/>
     <use transform="translate(955.683594 0.78125)" xlink:href="#DejaVuSans-3d"/>
     <use transform="translate(1039.472656 0.78125)" xlink:href="#DejaVuSans-2d"/>
     <use transform="translate(1075.556641 0.78125)" xlink:href="#DejaVuSans-31"/>
     <use transform="translate(1139.179688 0.78125)" xlink:href="#DejaVuSans-38"/>
     <use transform="translate(1202.802734 0.78125)" xlink:href="#DejaVuSans-32"/>
     <use transform="translate(1266.425781 0.78125)" xlink:href="#DejaVuSans-2e"/>
     <use transform="translate(1298.212891 0.78125)" xlink:href="#DejaVuSans-35"/>
     <use transform="translate(1361.835938 0.78125)" xlink:href="#DejaVuSans-33"/>
     <use transform="translate(1425.458984 0.78125)" xlink:href="#DejaVuSans-65"/>
     <use transform="translate(1486.982422 0.78125)" xlink:href="#DejaVuSans-56"/>
     <use transform="translate(1555.390625 0.78125)" xlink:href="#DejaVuSans-2c"/>
     <use transform="translate(1587.177734 0.78125)" xlink:href="#DejaVuSans-20"/>
     <use transform="translate(1618.964844 0.78125)" xlink:href="#DejaVuSans-394"/>
     <use transform="translate(1687.373047 0.78125)" xlink:href="#DejaVuSans-45"/>
     <use transform="translate(1750.556641 0.78125)" xlink:href="#DejaVuSans-3d"/>
     <use transform="translate(1834.345703 0.78125)" xlink:href="#DejaVuSans-2d"/>
     <use transform="translate(1870.429688 0.78125)" xlink:href="#DejaVuSans-30"/>
     <use transform="translate(1934.052734 0.78125)" xlink:href="#DejaVuSans-2e"/>
     <use transform="translate(1965.839844 0.78125)" xlink:href="#DejaVuSans-31"/>
     <use transform="translate(2029.462891 0.78125)" xlink:href="#DejaVuSans-38"/>
     <use transform="translate(2093.085938 0.78125)" xlink:href="#DejaVuSans-65"/>
     <use transform="translate(2154.609375 0.78125)" xlink:href="#DejaVuSans-56"/>
    </g>
   </g>
  </g>
  <g id="axes_2">
   <g id="patch_2">
    <path clip-path="url(#p1aaa892aa8)" d="M 361.152 307.584 
L 361.152 306.5445 
L 361.152 42.5115 
L 361.152 41.472 
L 374.4576 41.472 
L 374.4576 42.5115 
L 374.4576 306.5445 
L 374.4576 307.584 
z
" style="fill:#ffffff;stroke:#ffffff;stroke-linejoin:miter;stroke-width:0.01;"/>
   </g>
   <image height="265.68" id="image3becf8f128" transform="scale(1 -1)translate(0 -265.68)" width="12.96" x="361.44" xlink:href="data:image/png;base64,
iVBORw0KGgoAAAANSUhEUgAAABIAAAFxCAYAAAB+2fgXAAAABHNCSVQICAgIfAhkiAAAAeVJREFUeJztncmNw0AQA2ckheYQNv9QLIfQ8ygsCgQ7AEI8+jAs2Puz/94F1LP2ReCsZ18bAWIeZ5XaGRBE7VnbptG+KI101FYyNSiQG2oRITXKNaX9uclOdi2XWjftVE32CZCO2ou5Bj1TcCBr/1zB9ge7Fq0Rg2NM9pvbtG+ua1QgsRYhDy0ISEiNc40BEibbSI0Coj5CBGtkpFbXJiAjNZlrwhuSOv2M1DjXbEdEciBt1JSDDQKKpmZr2rr2j0DBGpXaWEJq3bQzEPIS26r9J+Wzv9Tm8o3aajRXqc3VUXsApKNWjeZq0x4ABVNbm7lrszVigDqP5vIl2+eaT2yfRkL7g+dRcNPqjohkjaCvRVBq0H2U3LQrOJCx9kdTg4B8oxZzzTdqdYHEngjUCAPyUctN9sVRq2sTECW2UKNLd2jVtRmo1A6AhMmWaSRcR8nUdIHUuVb75zJS218EyEitro1At69pIdeSk30Lkw0FktNImGyZRhy1O5galmxd03LUsHWk06jUZiCq+5Wb1kZNN4+wJxJuWt8RAW5am2sYNZ9rYCBzZ3buPKJ2P5Yj4Toy3keyIyJbIxs1rml1byCA84gpch5RQNB7Q0qNMGq2Hy4BXdNR41yz/cEEJfZzUz96r9PoB0okjeQ8y9TkAAAAAElFTkSuQmCC" y="-41.76"/>
   <g id="matplotlib.axis_1"/>
   <g id="matplotlib.axis_2">
    <g id="ytick_1">
     <g id="line2d_1">
      <defs>
       <path d="M 0 0 
L 3.5 0 
" id="m8dbfe19028" style="stroke:#000000;stroke-width:0.8;"/>
      </defs>
      <g>
       <use style="stroke:#000000;stroke-width:0.8;" x="374.4576" xlink:href="#m8dbfe19028" y="287.190501"/>
      </g>
     </g>
     <g id="text_2">
      <!-- −8.5 -->
      <defs>
       <path d="M 10.59375 35.5 
L 73.1875 35.5 
L 73.1875 27.203125 
L 10.59375 27.203125 
z
" id="DejaVuSans-2212"/>
      </defs>
      <g transform="translate(381.4576 290.98972)scale(0.1 -0.1)">
       <use xlink:href="#DejaVuSans-2212"/>
       <use x="83.789062" xlink:href="#DejaVuSans-38"/>
       <use x="147.412109" xlink:href="#DejaVuSans-2e"/>
       <use x="179.199219" xlink:href="#DejaVuSans-35"/>
      </g>
     </g>
    </g>
    <g id="ytick_2">
     <g id="line2d_2">
      <g>
       <use style="stroke:#000000;stroke-width:0.8;" x="374.4576" xlink:href="#m8dbfe19028" y="245.435543"/>
      </g>
     </g>
     <g id="text_3">
      <!-- −8.0 -->
      <g transform="translate(381.4576 249.234761)scale(0.1 -0.1)">
       <use xlink:href="#DejaVuSans-2212"/>
       <use x="83.789062" xlink:href="#DejaVuSans-38"/>
       <use x="147.412109" xlink:href="#DejaVuSans-2e"/>
       <use x="179.199219" xlink:href="#DejaVuSans-30"/>
      </g>
     </g>
    </g>
    <g id="ytick_3">
     <g id="line2d_3">
      <g>
       <use style="stroke:#000000;stroke-width:0.8;" x="374.4576" xlink:href="#m8dbfe19028" y="203.680585"/>
      </g>
     </g>
     <g id="text_4">
      <!-- −7.5 -->
      <g transform="translate(381.4576 207.479803)scale(0.1 -0.1)">
       <use xlink:href="#DejaVuSans-2212"/>
       <use x="83.789062" xlink:href="#DejaVuSans-37"/>
       <use x="147.412109" xlink:href="#DejaVuSans-2e"/>
       <use x="179.199219" xlink:href="#DejaVuSans-35"/>
      </g>
     </g>
    </g>
    <g id="ytick_4">
     <g id="line2d_4">
      <g>
       <use style="stroke:#000000;stroke-width:0.8;" x="374.4576" xlink:href="#m8dbfe19028" y="161.925626"/>
      </g>
     </g>
     <g id="text_5">
      <!-- −7.0 -->
      <g transform="translate(381.4576 165.724845)scale(0.1 -0.1)">
       <use xlink:href="#DejaVuSans-2212"/>
       <use x="83.789062" xlink:href="#DejaVuSans-37"/>
       <use x="147.412109" xlink:href="#DejaVuSans-2e"/>
       <use x="179.199219" xlink:href="#DejaVuSans-30"/>
      </g>
     </g>
    </g>
    <g id="ytick_5">
     <g id="line2d_5">
      <g>
       <use style="stroke:#000000;stroke-width:0.8;" x="374.4576" xlink:href="#m8dbfe19028" y="120.170668"/>
      </g>
     </g>
     <g id="text_6">
      <!-- −6.5 -->
      <g transform="translate(381.4576 123.969887)scale(0.1 -0.1)">
       <use xlink:href="#DejaVuSans-2212"/>
       <use x="83.789062" xlink:href="#DejaVuSans-36"/>
       <use x="147.412109" xlink:href="#DejaVuSans-2e"/>
       <use x="179.199219" xlink:href="#DejaVuSans-35"/>
      </g>
     </g>
    </g>
    <g id="ytick_6">
     <g id="line2d_6">
      <g>
       <use style="stroke:#000000;stroke-width:0.8;" x="374.4576" xlink:href="#m8dbfe19028" y="78.41571"/>
      </g>
     </g>
     <g id="text_7">
      <!-- −6.0 -->
      <g transform="translate(381.4576 82.214929)scale(0.1 -0.1)">
       <use xlink:href="#DejaVuSans-2212"/>
       <use x="83.789062" xlink:href="#DejaVuSans-36"/>
       <use x="147.412109" xlink:href="#DejaVuSans-2e"/>
       <use x="179.199219" xlink:href="#DejaVuSans-30"/>
      </g>
     </g>
    </g>
    <g id="text_8">
     <!-- Energy [eV] -->
     <defs>
      <path d="M 54.890625 33.015625 
L 54.890625 0 
L 45.90625 0 
L 45.90625 32.71875 
Q 45.90625 40.484375 42.875 44.328125 
Q 39.84375 48.1875 33.796875 48.1875 
Q 26.515625 48.1875 22.3125 43.546875 
Q 18.109375 38.921875 18.109375 30.90625 
L 18.109375 0 
L 9.078125 0 
L 9.078125 54.6875 
L 18.109375 54.6875 
L 18.109375 46.1875 
Q 21.34375 51.125 25.703125 53.5625 
Q 30.078125 56 35.796875 56 
Q 45.21875 56 50.046875 50.171875 
Q 54.890625 44.34375 54.890625 33.015625 
z
" id="DejaVuSans-6e"/>
      <path d="M 45.40625 27.984375 
Q 45.40625 37.75 41.375 43.109375 
Q 37.359375 48.484375 30.078125 48.484375 
Q 22.859375 48.484375 18.828125 43.109375 
Q 14.796875 37.75 14.796875 27.984375 
Q 14.796875 18.265625 18.828125 12.890625 
Q 22.859375 7.515625 30.078125 7.515625 
Q 37.359375 7.515625 41.375 12.890625 
Q 45.40625 18.265625 45.40625 27.984375 
z
M 54.390625 6.78125 
Q 54.390625 -7.171875 48.1875 -13.984375 
Q 42 -20.796875 29.203125 -20.796875 
Q 24.46875 -20.796875 20.265625 -20.09375 
Q 16.0625 -19.390625 12.109375 -17.921875 
L 12.109375 -9.1875 
Q 16.0625 -11.328125 19.921875 -12.34375 
Q 23.78125 -13.375 27.78125 -13.375 
Q 36.625 -13.375 41.015625 -8.765625 
Q 45.40625 -4.15625 45.40625 5.171875 
L 45.40625 9.625 
Q 42.625 4.78125 38.28125 2.390625 
Q 33.9375 0 27.875 0 
Q 17.828125 0 11.671875 7.65625 
Q 5.515625 15.328125 5.515625 27.984375 
Q 5.515625 40.671875 11.671875 48.328125 
Q 17.828125 56 27.875 56 
Q 33.9375 56 38.28125 53.609375 
Q 42.625 51.21875 45.40625 46.390625 
L 45.40625 54.6875 
L 54.390625 54.6875 
z
" id="DejaVuSans-67"/>
      <path d="M 32.171875 -5.078125 
Q 28.375 -14.84375 24.75 -17.8125 
Q 21.140625 -20.796875 15.09375 -20.796875 
L 7.90625 -20.796875 
L 7.90625 -13.28125 
L 13.1875 -13.28125 
Q 16.890625 -13.28125 18.9375 -11.515625 
Q 21 -9.765625 23.484375 -3.21875 
L 25.09375 0.875 
L 2.984375 54.6875 
L 12.5 54.6875 
L 29.59375 11.921875 
L 46.6875 54.6875 
L 56.203125 54.6875 
z
" id="DejaVuSans-79"/>
      <path d="M 8.59375 75.984375 
L 29.296875 75.984375 
L 29.296875 69 
L 17.578125 69 
L 17.578125 -6.203125 
L 29.296875 -6.203125 
L 29.296875 -13.1875 
L 8.59375 -13.1875 
z
" id="DejaVuSans-5b"/>
      <path d="M 30.421875 75.984375 
L 30.421875 -13.1875 
L 9.71875 -13.1875 
L 9.71875 -6.203125 
L 21.390625 -6.203125 
L 21.390625 69 
L 9.71875 69 
L 9.71875 75.984375 
z
" id="DejaVuSans-5d"/>
     </defs>
     <g transform="translate(417.33885 204.108469)rotate(-90)scale(0.1 -0.1)">
      <use xlink:href="#DejaVuSans-45"/>
      <use x="63.183594" xlink:href="#DejaVuSans-6e"/>
      <use x="126.5625" xlink:href="#DejaVuSans-65"/>
      <use x="188.085938" xlink:href="#DejaVuSans-72"/>
      <use x="229.183594" xlink:href="#DejaVuSans-67"/>
      <use x="292.660156" xlink:href="#DejaVuSans-79"/>
      <use x="351.839844" xlink:href="#DejaVuSans-20"/>
      <use x="383.626953" xlink:href="#DejaVuSans-5b"/>
      <use x="422.640625" xlink:href="#DejaVuSans-65"/>
      <use x="484.164062" xlink:href="#DejaVuSans-56"/>
      <use x="552.572266" xlink:href="#DejaVuSans-5d"/>
     </g>
    </g>
   </g>
   <g id="patch_3">
    <path d="M 361.152 307.584 
L 361.152 306.5445 
L 361.152 42.5115 
L 361.152 41.472 
L 374.4576 41.472 
L 374.4576 42.5115 
L 374.4576 306.5445 
L 374.4576 307.584 
z
" style="fill:none;stroke:#000000;stroke-linejoin:miter;stroke-width:0.8;"/>
   </g>
  </g>
 </g>
 <defs>
  <clipPath id="p16cc261963">
   <rect height="266.112" width="285.696" x="57.6" y="41.472"/>
  </clipPath>
  <clipPath id="p1aaa892aa8">
   <rect height="266.112" width="13.3056" x="361.152" y="41.472"/>
  </clipPath>
 </defs>
</svg>
