<?xml version="1.0" encoding="utf-8" standalone="no"?>
<!DOCTYPE svg PUBLIC "-//W3C//DTD SVG 1.1//EN"
  "http://www.w3.org/Graphics/SVG/1.1/DTD/svg11.dtd">
<!-- Created with matplotlib (http://matplotlib.org/) -->
<svg height="345.6pt" version="1.1" viewBox="0 0 460.8 345.6" width="460.8pt" xmlns="http://www.w3.org/2000/svg" xmlns:xlink="http://www.w3.org/1999/xlink">
 <defs>
  <style type="text/css">
*{stroke-linecap:butt;stroke-linejoin:round;}
  </style>
 </defs>
 <g id="figure_1">
  <g id="patch_1">
   <path d="M 0 345.6 
L 460.8 345.6 
L 460.8 0 
L 0 0 
z
" style="fill:#ffffff;"/>
  </g>
  <g id="axes_1">
   <g id="CircleCollection_1">
    <path clip-path="url(#p1f60242c5a)" d="M 123.928494 166.829322 
C 125.660592 166.829322 127.32198 166.141153 128.546757 164.916375 
C 129.771535 163.691597 130.459705 162.030209 130.459705 160.298112 
C 130.459705 158.566015 129.771535 156.904626 128.546757 155.679849 
C 127.32198 154.455071 125.660592 153.766902 123.928494 153.766902 
C 122.196397 153.766902 120.535009 154.455071 119.310231 155.679849 
C 118.085453 156.904626 117.397284 158.566015 117.397284 160.298112 
C 117.397284 162.030209 118.085453 163.691597 119.310231 164.916375 
C 120.535009 166.141153 122.196397 166.829322 123.928494 166.829322 
z
" style="fill:#440154;"/>
    <path clip-path="url(#p1f60242c5a)" d="M 308.63505 125.401962 
C 310.485571 125.401962 312.260548 124.666742 313.569064 123.358226 
C 314.87758 122.049711 315.612799 120.274733 315.612799 118.424213 
C 315.612799 116.573692 314.87758 114.798714 313.569064 113.490199 
C 312.260548 112.181683 310.485571 111.446463 308.63505 111.446463 
C 306.784529 111.446463 305.009552 112.181683 303.701036 113.490199 
C 302.39252 114.798714 301.6573 116.573692 301.6573 118.424213 
C 301.6573 120.274733 302.39252 122.049711 303.701036 123.358226 
C 305.009552 124.666742 306.784529 125.401962 308.63505 125.401962 
z
" style="fill:#31678e;"/>
    <path clip-path="url(#p1f60242c5a)" d="M 235.486654 66.885945 
C 237.240833 66.885945 238.923402 66.189002 240.163795 64.948609 
C 241.404187 63.708217 242.10113 62.025648 242.10113 60.271468 
C 242.10113 58.517289 241.404187 56.83472 240.163795 55.594327 
C 238.923402 54.353935 237.240833 53.656992 235.486654 53.656992 
C 233.732474 53.656992 232.049905 54.353935 230.809513 55.594327 
C 229.56912 56.83472 228.872177 58.517289 228.872177 60.271468 
C 228.872177 62.025648 229.56912 63.708217 230.809513 64.948609 
C 232.049905 66.189002 233.732474 66.885945 235.486654 66.885945 
z
" style="fill:#24878e;"/>
    <path clip-path="url(#p1f60242c5a)" d="M 158.568036 259.139736 
C 160.25061 259.139736 161.864496 258.471242 163.054255 257.281483 
C 164.244015 256.091724 164.912508 254.477838 164.912508 252.795264 
C 164.912508 251.11269 164.244015 249.498804 163.054255 248.309045 
C 161.864496 247.119286 160.25061 246.450792 158.568036 246.450792 
C 156.885463 246.450792 155.271576 247.119286 154.081817 248.309045 
C 152.892058 249.498804 152.223564 251.11269 152.223564 252.795264 
C 152.223564 254.477838 152.892058 256.091724 154.081817 257.281483 
C 155.271576 258.471242 156.885463 259.139736 158.568036 259.139736 
z
" style="fill:#481467;"/>
    <path clip-path="url(#p1f60242c5a)" d="M 100.031382 301.53148 
C 101.851794 301.53148 103.597891 300.808222 104.885117 299.520997 
C 106.172342 298.233771 106.8956 296.487674 106.8956 294.667262 
C 106.8956 292.84685 106.172342 291.100753 104.885117 289.813527 
C 103.597891 288.526302 101.851794 287.803045 100.031382 287.803045 
C 98.21097 287.803045 96.464873 288.526302 95.177647 289.813527 
C 93.890422 291.100753 93.167164 292.84685 93.167164 294.667262 
C 93.167164 296.487674 93.890422 298.233771 95.177647 299.520997 
C 96.464873 300.808222 98.21097 301.53148 100.031382 301.53148 
z
" style="fill:#3aba76;"/>
    <path clip-path="url(#p1f60242c5a)" d="M 322.399016 178.203781 
C 324.230556 178.203781 325.987329 177.476102 327.282423 176.181007 
C 328.577518 174.885912 329.305197 173.12914 329.305197 171.297599 
C 329.305197 169.466059 328.577518 167.709286 327.282423 166.414192 
C 325.987329 165.119097 324.230556 164.391418 322.399016 164.391418 
C 320.567475 164.391418 318.810703 165.119097 317.515608 166.414192 
C 316.220513 167.709286 315.492834 169.466059 315.492834 171.297599 
C 315.492834 173.12914 316.220513 174.885912 317.515608 176.181007 
C 318.810703 177.476102 320.567475 178.203781 322.399016 178.203781 
z
" style="fill:#2f6b8e;"/>
    <path clip-path="url(#p1f60242c5a)" d="M 87.940208 163.250753 
C 89.843684 163.250753 91.669455 162.494494 93.015416 161.148533 
C 94.361376 159.802572 95.117635 157.976802 95.117635 156.073326 
C 95.117635 154.16985 94.361376 152.344079 93.015416 150.998118 
C 91.669455 149.652158 89.843684 148.895899 87.940208 148.895899 
C 86.036733 148.895899 84.210962 149.652158 82.865001 150.998118 
C 81.51904 152.344079 80.762781 154.16985 80.762781 156.073326 
C 80.762781 157.976802 81.51904 159.802572 82.865001 161.148533 
C 84.210962 162.494494 86.036733 163.250753 87.940208 163.250753 
z
" style="fill:#287d8e;"/>
    <path clip-path="url(#p1f60242c5a)" d="M 329.72399 234.338963 
C 331.529942 234.338963 333.26217 233.621451 334.539171 232.34445 
C 335.816172 231.067449 336.533684 229.335221 336.533684 227.529269 
C 336.533684 225.723317 335.816172 223.991089 334.539171 222.714088 
C 333.26217 221.437087 331.529942 220.719575 329.72399 220.719575 
C 327.918038 220.719575 326.18581 221.437087 324.908809 222.714088 
C 323.631808 223.991089 322.914296 225.723317 322.914296 227.529269 
C 322.914296 229.335221 323.631808 231.067449 324.908809 232.34445 
C 326.18581 233.621451 327.918038 234.338963 329.72399 234.338963 
z
" style="fill:#375b8d;"/>
    <path clip-path="url(#p1f60242c5a)" d="M 120.412367 118.365076 
C 122.307751 118.365076 124.12576 117.612032 125.465999 116.271793 
C 126.806238 114.931554 127.559282 113.113545 127.559282 111.218161 
C 127.559282 109.322777 126.806238 107.504768 125.465999 106.164529 
C 124.12576 104.82429 122.307751 104.071246 120.412367 104.071246 
C 118.516983 104.071246 116.698974 104.82429 115.358735 106.164529 
C 114.018496 107.504768 113.265452 109.322777 113.265452 111.218161 
C 113.265452 113.113545 114.018496 114.931554 115.358735 116.271793 
C 116.698974 117.612032 118.516983 118.365076 120.412367 118.365076 
z
" style="fill:#277f8e;"/>
    <path clip-path="url(#p1f60242c5a)" d="M 161.260002 194.523926 
C 162.925862 194.523926 164.523718 193.862073 165.701659 192.684131 
C 166.879601 191.50619 167.541454 189.908335 167.541454 188.242474 
C 167.541454 186.576613 166.879601 184.978758 165.701659 183.800816 
C 164.523718 182.622875 162.925862 181.961021 161.260002 181.961021 
C 159.594141 181.961021 157.996285 182.622875 156.818344 183.800816 
C 155.640403 184.978758 154.978549 186.576613 154.978549 188.242474 
C 154.978549 189.908335 155.640403 191.50619 156.818344 192.684131 
C 157.996285 193.862073 159.594141 194.523926 161.260002 194.523926 
z
" style="fill:#39568c;"/>
    <path clip-path="url(#p1f60242c5a)" d="M 268.564278 83.731748 
C 270.39269 83.731748 272.146462 83.005312 273.439345 81.712429 
C 274.732228 80.419546 275.458664 78.665774 275.458664 76.837362 
C 275.458664 75.008949 274.732228 73.255177 273.439345 71.962294 
C 272.146462 70.669411 270.39269 69.942975 268.564278 69.942975 
C 266.735865 69.942975 264.982093 70.669411 263.68921 71.962294 
C 262.396327 73.255177 261.669891 75.008949 261.669891 76.837362 
C 261.669891 78.665774 262.396327 80.419546 263.68921 81.712429 
C 264.982093 83.005312 266.735865 83.731748 268.564278 83.731748 
z
" style="fill:#34618d;"/>
    <path clip-path="url(#p1f60242c5a)" d="M 198.129898 102.091393 
C 199.830252 102.091393 201.461192 101.415835 202.663524 100.213504 
C 203.865855 99.011172 204.541413 97.380232 204.541413 95.679878 
C 204.541413 93.979525 203.865855 92.348584 202.663524 91.146253 
C 201.461192 89.943921 199.830252 89.268364 198.129898 89.268364 
C 196.429545 89.268364 194.798604 89.943921 193.596273 91.146253 
C 192.393941 92.348584 191.718384 93.979525 191.718384 95.679878 
C 191.718384 97.380232 192.393941 99.011172 193.596273 100.213504 
C 194.798604 101.415835 196.429545 102.091393 198.129898 102.091393 
z
" style="fill:#443a83;"/>
    <path clip-path="url(#p1f60242c5a)" d="M 233.812091 170.48636 
C 235.501116 170.48636 237.12119 169.815303 238.315511 168.620982 
C 239.509832 167.426661 240.180889 165.806587 240.180889 164.117562 
C 240.180889 162.428537 239.509832 160.808462 238.315511 159.614141 
C 237.12119 158.41982 235.501116 157.748764 233.812091 157.748764 
C 232.123066 157.748764 230.502991 158.41982 229.30867 159.614141 
C 228.114349 160.808462 227.443293 162.428537 227.443293 164.117562 
C 227.443293 165.806587 228.114349 167.426661 229.30867 168.620982 
C 230.502991 169.815303 232.123066 170.48636 233.812091 170.48636 
z
" style="fill:#fde725;"/>
    <path clip-path="url(#p1f60242c5a)" d="M 71.195882 278.683061 
C 73.075423 278.683061 74.878237 277.936311 76.207274 276.607275 
C 77.53631 275.278238 78.28306 273.475424 78.28306 271.595883 
C 78.28306 269.716341 77.53631 267.913528 76.207274 266.584491 
C 74.878237 265.255454 73.075423 264.508704 71.195882 264.508704 
C 69.31634 264.508704 67.513527 265.255454 66.18449 266.584491 
C 64.855453 267.913528 64.108703 269.716341 64.108703 271.595883 
C 64.108703 273.475424 64.855453 275.278238 66.18449 276.607275 
C 67.513527 277.936311 69.31634 278.683061 71.195882 278.683061 
z
" style="fill:#48c16e;"/>
    <path clip-path="url(#p1f60242c5a)" d="M 155.479675 89.833557 
C 157.320256 89.833557 159.0857 89.102286 160.387187 87.800799 
C 161.688675 86.499311 162.419946 84.733868 162.419946 82.893286 
C 162.419946 81.052705 161.688675 79.287261 160.387187 77.985774 
C 159.0857 76.684286 157.320256 75.953016 155.479675 75.953016 
C 153.639094 75.953016 151.87365 76.684286 150.572162 77.985774 
C 149.270675 79.287261 148.539404 81.052705 148.539404 82.893286 
C 148.539404 84.733868 149.270675 86.499311 150.572162 87.800799 
C 151.87365 89.102286 153.639094 89.833557 155.479675 89.833557 
z
" style="fill:#48186a;"/>
    <path clip-path="url(#p1f60242c5a)" d="M 199.902917 147.125751 
C 201.524995 147.125751 203.080855 146.481292 204.227838 145.33431 
C 205.37482 144.187328 206.019278 142.631467 206.019278 141.009389 
C 206.019278 139.387311 205.37482 137.831451 204.227838 136.684469 
C 203.080855 135.537487 201.524995 134.893028 199.902917 134.893028 
C 198.280839 134.893028 196.724979 135.537487 195.577997 136.684469 
C 194.431014 137.831451 193.786556 139.387311 193.786556 141.009389 
C 193.786556 142.631467 194.431014 144.187328 195.577997 145.33431 
C 196.724979 146.481292 198.280839 147.125751 199.902917 147.125751 
z
" style="fill:#20928c;"/>
    <path clip-path="url(#p1f60242c5a)" d="M 210.486879 289.113779 
C 212.176013 289.113779 213.796191 288.442679 214.990589 287.248281 
C 216.184987 286.053884 216.856086 284.433705 216.856086 282.744572 
C 216.856086 281.055439 216.184987 279.43526 214.990589 278.240863 
C 213.796191 277.046465 212.176013 276.375365 210.486879 276.375365 
C 208.797746 276.375365 207.177568 277.046465 205.98317 278.240863 
C 204.788772 279.43526 204.117672 281.055439 204.117672 282.744572 
C 204.117672 284.433705 204.788772 286.053884 205.98317 287.248281 
C 207.177568 288.442679 208.797746 289.113779 210.486879 289.113779 
z
" style="fill:#228d8d;"/>
    <path clip-path="url(#p1f60242c5a)" d="M 261.372095 299.987441 
C 263.086501 299.987441 264.730921 299.3063 265.943189 298.094031 
C 267.155458 296.881763 267.836598 295.237344 267.836598 293.522937 
C 267.836598 291.808531 267.155458 290.164111 265.943189 288.951843 
C 264.730921 287.739575 263.086501 287.058434 261.372095 287.058434 
C 259.657689 287.058434 258.013269 287.739575 256.801001 288.951843 
C 255.588733 290.164111 254.907592 291.808531 254.907592 293.522937 
C 254.907592 295.237344 255.588733 296.881763 256.801001 298.094031 
C 258.013269 299.3063 259.657689 299.987441 261.372095 299.987441 
z
" style="fill:#39558c;"/>
    <path clip-path="url(#p1f60242c5a)" d="M 148.464511 112.127819 
C 150.219845 112.127819 151.903522 111.430417 153.144731 110.189209 
C 154.38594 108.948 155.083341 107.264323 155.083341 105.508989 
C 155.083341 103.753655 154.38594 102.069978 153.144731 100.828769 
C 151.903522 99.58756 150.219845 98.890159 148.464511 98.890159 
C 146.709177 98.890159 145.0255 99.58756 143.784291 100.828769 
C 142.543082 102.069978 141.845681 103.753655 141.845681 105.508989 
C 141.845681 107.264323 142.543082 108.948 143.784291 110.189209 
C 145.0255 111.430417 146.709177 112.127819 148.464511 112.127819 
z
" style="fill:#481c6e;"/>
    <path clip-path="url(#p1f60242c5a)" d="M 299.612787 270.766316 
C 301.37618 270.766316 303.067586 270.065713 304.314493 268.818806 
C 305.5614 267.571898 306.262004 265.880492 306.262004 264.117099 
C 306.262004 262.353706 305.5614 260.6623 304.314493 259.415393 
C 303.067586 258.168486 301.37618 257.467882 299.612787 257.467882 
C 297.849394 257.467882 296.157988 258.168486 294.91108 259.415393 
C 293.664173 260.6623 292.96357 262.353706 292.96357 264.117099 
C 292.96357 265.880492 293.664173 267.571898 294.91108 268.818806 
C 296.157988 270.065713 297.849394 270.766316 299.612787 270.766316 
z
" style="fill:#2c738e;"/>
    <path clip-path="url(#p1f60242c5a)" d="M 111.88324 268.430029 
C 113.628839 268.430029 115.303178 267.736495 116.537503 266.50217 
C 117.771827 265.267845 118.465361 263.593507 118.465361 261.847908 
C 118.465361 260.102309 117.771827 258.42797 116.537503 257.193646 
C 115.303178 255.959321 113.628839 255.265787 111.88324 255.265787 
C 110.137641 255.265787 108.463303 255.959321 107.228978 257.193646 
C 105.994653 258.42797 105.301119 260.102309 105.301119 261.847908 
C 105.301119 263.593507 105.994653 265.267845 107.228978 266.50217 
C 108.463303 267.736495 110.137641 268.430029 111.88324 268.430029 
z
" style="fill:#453781;"/>
    <path clip-path="url(#p1f60242c5a)" d="M 76.378703 216.005672 
C 78.243537 216.005672 80.032243 215.264765 81.35088 213.946128 
C 82.669517 212.627491 83.410424 210.838785 83.410424 208.97395 
C 83.410424 207.109116 82.669517 205.320409 81.35088 204.001772 
C 80.032243 202.683135 78.243537 201.942229 76.378703 201.942229 
C 74.513868 201.942229 72.725162 202.683135 71.406525 204.001772 
C 70.087888 205.320409 69.346981 207.109116 69.346981 208.97395 
C 69.346981 210.838785 70.087888 212.627491 71.406525 213.946128 
C 72.725162 215.264765 74.513868 216.005672 76.378703 216.005672 
z
" style="fill:#481467;"/>
    <path clip-path="url(#p1f60242c5a)" d="M 92.177239 210.990556 
C 93.951408 210.990556 95.653151 210.285671 96.907678 209.031144 
C 98.162205 207.776617 98.86709 206.074874 98.86709 204.300705 
C 98.86709 202.526536 98.162205 200.824794 96.907678 199.570267 
C 95.653151 198.31574 93.951408 197.610855 92.177239 197.610855 
C 90.40307 197.610855 88.701327 198.31574 87.4468 199.570267 
C 86.192273 200.824794 85.487389 202.526536 85.487389 204.300705 
C 85.487389 206.074874 86.192273 207.776617 87.4468 209.031144 
C 88.701327 210.285671 90.40307 210.990556 92.177239 210.990556 
z
" style="fill:#443983;"/>
    <path clip-path="url(#p1f60242c5a)" d="M 212.046805 61.323017 
C 213.883813 61.323017 215.645829 60.593166 216.94479 59.294205 
C 218.243751 57.995244 218.973602 56.233228 218.973602 54.39622 
C 218.973602 52.559212 218.243751 50.797196 216.94479 49.498235 
C 215.645829 48.199275 213.883813 47.469424 212.046805 47.469424 
C 210.209797 47.469424 208.447781 48.199275 207.14882 49.498235 
C 205.849859 50.797196 205.120008 52.559212 205.120008 54.39622 
C 205.120008 56.233228 205.849859 57.995244 207.14882 59.294205 
C 208.447781 60.593166 210.209797 61.323017 212.046805 61.323017 
z
" style="fill:#26828e;"/>
   </g>
   <g id="text_1">
    <!-- Structure #602, $E_N$=-179.78eV, ΔE=-0.75eV -->
    <defs>
     <path d="M 53.515625 70.515625 
L 53.515625 60.890625 
Q 47.90625 63.578125 42.921875 64.890625 
Q 37.9375 66.21875 33.296875 66.21875 
Q 25.25 66.21875 20.875 63.09375 
Q 16.5 59.96875 16.5 54.203125 
Q 16.5 49.359375 19.40625 46.890625 
Q 22.3125 44.4375 30.421875 42.921875 
L 36.375 41.703125 
Q 47.40625 39.59375 52.65625 34.296875 
Q 57.90625 29 57.90625 20.125 
Q 57.90625 9.515625 50.796875 4.046875 
Q 43.703125 -1.421875 29.984375 -1.421875 
Q 24.8125 -1.421875 18.96875 -0.25 
Q 13.140625 0.921875 6.890625 3.21875 
L 6.890625 13.375 
Q 12.890625 10.015625 18.65625 8.296875 
Q 24.421875 6.59375 29.984375 6.59375 
Q 38.421875 6.59375 43.015625 9.90625 
Q 47.609375 13.234375 47.609375 19.390625 
Q 47.609375 24.75 44.3125 27.78125 
Q 41.015625 30.8125 33.5 32.328125 
L 27.484375 33.5 
Q 16.453125 35.6875 11.515625 40.375 
Q 6.59375 45.0625 6.59375 53.421875 
Q 6.59375 63.09375 13.40625 68.65625 
Q 20.21875 74.21875 32.171875 74.21875 
Q 37.3125 74.21875 42.625 73.28125 
Q 47.953125 72.359375 53.515625 70.515625 
z
" id="DejaVuSans-53"/>
     <path d="M 18.3125 70.21875 
L 18.3125 54.6875 
L 36.8125 54.6875 
L 36.8125 47.703125 
L 18.3125 47.703125 
L 18.3125 18.015625 
Q 18.3125 11.328125 20.140625 9.421875 
Q 21.96875 7.515625 27.59375 7.515625 
L 36.8125 7.515625 
L 36.8125 0 
L 27.59375 0 
Q 17.1875 0 13.234375 3.875 
Q 9.28125 7.765625 9.28125 18.015625 
L 9.28125 47.703125 
L 2.6875 47.703125 
L 2.6875 54.6875 
L 9.28125 54.6875 
L 9.28125 70.21875 
z
" id="DejaVuSans-74"/>
     <path d="M 41.109375 46.296875 
Q 39.59375 47.171875 37.8125 47.578125 
Q 36.03125 48 33.890625 48 
Q 26.265625 48 22.1875 43.046875 
Q 18.109375 38.09375 18.109375 28.8125 
L 18.109375 0 
L 9.078125 0 
L 9.078125 54.6875 
L 18.109375 54.6875 
L 18.109375 46.1875 
Q 20.953125 51.171875 25.484375 53.578125 
Q 30.03125 56 36.53125 56 
Q 37.453125 56 38.578125 55.875 
Q 39.703125 55.765625 41.0625 55.515625 
z
" id="DejaVuSans-72"/>
     <path d="M 8.5 21.578125 
L 8.5 54.6875 
L 17.484375 54.6875 
L 17.484375 21.921875 
Q 17.484375 14.15625 20.5 10.265625 
Q 23.53125 6.390625 29.59375 6.390625 
Q 36.859375 6.390625 41.078125 11.03125 
Q 45.3125 15.671875 45.3125 23.6875 
L 45.3125 54.6875 
L 54.296875 54.6875 
L 54.296875 0 
L 45.3125 0 
L 45.3125 8.40625 
Q 42.046875 3.421875 37.71875 1 
Q 33.40625 -1.421875 27.6875 -1.421875 
Q 18.265625 -1.421875 13.375 4.4375 
Q 8.5 10.296875 8.5 21.578125 
z
M 31.109375 56 
z
" id="DejaVuSans-75"/>
     <path d="M 48.78125 52.59375 
L 48.78125 44.1875 
Q 44.96875 46.296875 41.140625 47.34375 
Q 37.3125 48.390625 33.40625 48.390625 
Q 24.65625 48.390625 19.8125 42.84375 
Q 14.984375 37.3125 14.984375 27.296875 
Q 14.984375 17.28125 19.8125 11.734375 
Q 24.65625 6.203125 33.40625 6.203125 
Q 37.3125 6.203125 41.140625 7.25 
Q 44.96875 8.296875 48.78125 10.40625 
L 48.78125 2.09375 
Q 45.015625 0.34375 40.984375 -0.53125 
Q 36.96875 -1.421875 32.421875 -1.421875 
Q 20.0625 -1.421875 12.78125 6.34375 
Q 5.515625 14.109375 5.515625 27.296875 
Q 5.515625 40.671875 12.859375 48.328125 
Q 20.21875 56 33.015625 56 
Q 37.15625 56 41.109375 55.140625 
Q 45.0625 54.296875 48.78125 52.59375 
z
" id="DejaVuSans-63"/>
     <path d="M 56.203125 29.59375 
L 56.203125 25.203125 
L 14.890625 25.203125 
Q 15.484375 15.921875 20.484375 11.0625 
Q 25.484375 6.203125 34.421875 6.203125 
Q 39.59375 6.203125 44.453125 7.46875 
Q 49.3125 8.734375 54.109375 11.28125 
L 54.109375 2.78125 
Q 49.265625 0.734375 44.1875 -0.34375 
Q 39.109375 -1.421875 33.890625 -1.421875 
Q 20.796875 -1.421875 13.15625 6.1875 
Q 5.515625 13.8125 5.515625 26.8125 
Q 5.515625 40.234375 12.765625 48.109375 
Q 20.015625 56 32.328125 56 
Q 43.359375 56 49.78125 48.890625 
Q 56.203125 41.796875 56.203125 29.59375 
z
M 47.21875 32.234375 
Q 47.125 39.59375 43.09375 43.984375 
Q 39.0625 48.390625 32.421875 48.390625 
Q 24.90625 48.390625 20.390625 44.140625 
Q 15.875 39.890625 15.1875 32.171875 
z
" id="DejaVuSans-65"/>
     <path id="DejaVuSans-20"/>
     <path d="M 51.125 44 
L 36.921875 44 
L 32.8125 27.6875 
L 47.125 27.6875 
z
M 43.796875 71.78125 
L 38.71875 51.515625 
L 52.984375 51.515625 
L 58.109375 71.78125 
L 65.921875 71.78125 
L 60.890625 51.515625 
L 76.125 51.515625 
L 76.125 44 
L 58.984375 44 
L 54.984375 27.6875 
L 70.515625 27.6875 
L 70.515625 20.21875 
L 53.078125 20.21875 
L 48 0 
L 40.1875 0 
L 45.21875 20.21875 
L 30.90625 20.21875 
L 25.875 0 
L 18.015625 0 
L 23.09375 20.21875 
L 7.71875 20.21875 
L 7.71875 27.6875 
L 24.90625 27.6875 
L 29 44 
L 13.28125 44 
L 13.28125 51.515625 
L 30.90625 51.515625 
L 35.890625 71.78125 
z
" id="DejaVuSans-23"/>
     <path d="M 33.015625 40.375 
Q 26.375 40.375 22.484375 35.828125 
Q 18.609375 31.296875 18.609375 23.390625 
Q 18.609375 15.53125 22.484375 10.953125 
Q 26.375 6.390625 33.015625 6.390625 
Q 39.65625 6.390625 43.53125 10.953125 
Q 47.40625 15.53125 47.40625 23.390625 
Q 47.40625 31.296875 43.53125 35.828125 
Q 39.65625 40.375 33.015625 40.375 
z
M 52.59375 71.296875 
L 52.59375 62.3125 
Q 48.875 64.0625 45.09375 64.984375 
Q 41.3125 65.921875 37.59375 65.921875 
Q 27.828125 65.921875 22.671875 59.328125 
Q 17.53125 52.734375 16.796875 39.40625 
Q 19.671875 43.65625 24.015625 45.921875 
Q 28.375 48.1875 33.59375 48.1875 
Q 44.578125 48.1875 50.953125 41.515625 
Q 57.328125 34.859375 57.328125 23.390625 
Q 57.328125 12.15625 50.6875 5.359375 
Q 44.046875 -1.421875 33.015625 -1.421875 
Q 20.359375 -1.421875 13.671875 8.265625 
Q 6.984375 17.96875 6.984375 36.375 
Q 6.984375 53.65625 15.1875 63.9375 
Q 23.390625 74.21875 37.203125 74.21875 
Q 40.921875 74.21875 44.703125 73.484375 
Q 48.484375 72.75 52.59375 71.296875 
z
" id="DejaVuSans-36"/>
     <path d="M 31.78125 66.40625 
Q 24.171875 66.40625 20.328125 58.90625 
Q 16.5 51.421875 16.5 36.375 
Q 16.5 21.390625 20.328125 13.890625 
Q 24.171875 6.390625 31.78125 6.390625 
Q 39.453125 6.390625 43.28125 13.890625 
Q 47.125 21.390625 47.125 36.375 
Q 47.125 51.421875 43.28125 58.90625 
Q 39.453125 66.40625 31.78125 66.40625 
z
M 31.78125 74.21875 
Q 44.046875 74.21875 50.515625 64.515625 
Q 56.984375 54.828125 56.984375 36.375 
Q 56.984375 17.96875 50.515625 8.265625 
Q 44.046875 -1.421875 31.78125 -1.421875 
Q 19.53125 -1.421875 13.0625 8.265625 
Q 6.59375 17.96875 6.59375 36.375 
Q 6.59375 54.828125 13.0625 64.515625 
Q 19.53125 74.21875 31.78125 74.21875 
z
" id="DejaVuSans-30"/>
     <path d="M 19.1875 8.296875 
L 53.609375 8.296875 
L 53.609375 0 
L 7.328125 0 
L 7.328125 8.296875 
Q 12.9375 14.109375 22.625 23.890625 
Q 32.328125 33.6875 34.8125 36.53125 
Q 39.546875 41.84375 41.421875 45.53125 
Q 43.3125 49.21875 43.3125 52.78125 
Q 43.3125 58.59375 39.234375 62.25 
Q 35.15625 65.921875 28.609375 65.921875 
Q 23.96875 65.921875 18.8125 64.3125 
Q 13.671875 62.703125 7.8125 59.421875 
L 7.8125 69.390625 
Q 13.765625 71.78125 18.9375 73 
Q 24.125 74.21875 28.421875 74.21875 
Q 39.75 74.21875 46.484375 68.546875 
Q 53.21875 62.890625 53.21875 53.421875 
Q 53.21875 48.921875 51.53125 44.890625 
Q 49.859375 40.875 45.40625 35.40625 
Q 44.1875 33.984375 37.640625 27.21875 
Q 31.109375 20.453125 19.1875 8.296875 
z
" id="DejaVuSans-32"/>
     <path d="M 11.71875 12.40625 
L 22.015625 12.40625 
L 22.015625 4 
L 14.015625 -11.625 
L 7.71875 -11.625 
L 11.71875 4 
z
" id="DejaVuSans-2c"/>
     <path d="M 16.890625 72.90625 
L 62.984375 72.90625 
L 61.375 64.59375 
L 25.09375 64.59375 
L 20.90625 43.015625 
L 55.71875 43.015625 
L 54.109375 34.71875 
L 19.28125 34.71875 
L 14.203125 8.296875 
L 51.3125 8.296875 
L 49.703125 0 
L 2.6875 0 
z
" id="DejaVuSans-Oblique-45"/>
     <path d="M 16.890625 72.90625 
L 30.171875 72.90625 
L 50.296875 10.40625 
L 62.5 72.90625 
L 72.125 72.90625 
L 57.90625 0 
L 44.578125 0 
L 24.515625 62.890625 
L 12.3125 0 
L 2.6875 0 
z
" id="DejaVuSans-Oblique-4e"/>
     <path d="M 10.59375 45.40625 
L 73.1875 45.40625 
L 73.1875 37.203125 
L 10.59375 37.203125 
z
M 10.59375 25.484375 
L 73.1875 25.484375 
L 73.1875 17.1875 
L 10.59375 17.1875 
z
" id="DejaVuSans-3d"/>
     <path d="M 4.890625 31.390625 
L 31.203125 31.390625 
L 31.203125 23.390625 
L 4.890625 23.390625 
z
" id="DejaVuSans-2d"/>
     <path d="M 12.40625 8.296875 
L 28.515625 8.296875 
L 28.515625 63.921875 
L 10.984375 60.40625 
L 10.984375 69.390625 
L 28.421875 72.90625 
L 38.28125 72.90625 
L 38.28125 8.296875 
L 54.390625 8.296875 
L 54.390625 0 
L 12.40625 0 
z
" id="DejaVuSans-31"/>
     <path d="M 8.203125 72.90625 
L 55.078125 72.90625 
L 55.078125 68.703125 
L 28.609375 0 
L 18.3125 0 
L 43.21875 64.59375 
L 8.203125 64.59375 
z
" id="DejaVuSans-37"/>
     <path d="M 10.984375 1.515625 
L 10.984375 10.5 
Q 14.703125 8.734375 18.5 7.8125 
Q 22.3125 6.890625 25.984375 6.890625 
Q 35.75 6.890625 40.890625 13.453125 
Q 46.046875 20.015625 46.78125 33.40625 
Q 43.953125 29.203125 39.59375 26.953125 
Q 35.25 24.703125 29.984375 24.703125 
Q 19.046875 24.703125 12.671875 31.3125 
Q 6.296875 37.9375 6.296875 49.421875 
Q 6.296875 60.640625 12.9375 67.421875 
Q 19.578125 74.21875 30.609375 74.21875 
Q 43.265625 74.21875 49.921875 64.515625 
Q 56.59375 54.828125 56.59375 36.375 
Q 56.59375 19.140625 48.40625 8.859375 
Q 40.234375 -1.421875 26.421875 -1.421875 
Q 22.703125 -1.421875 18.890625 -0.6875 
Q 15.09375 0.046875 10.984375 1.515625 
z
M 30.609375 32.421875 
Q 37.25 32.421875 41.125 36.953125 
Q 45.015625 41.5 45.015625 49.421875 
Q 45.015625 57.28125 41.125 61.84375 
Q 37.25 66.40625 30.609375 66.40625 
Q 23.96875 66.40625 20.09375 61.84375 
Q 16.21875 57.28125 16.21875 49.421875 
Q 16.21875 41.5 20.09375 36.953125 
Q 23.96875 32.421875 30.609375 32.421875 
z
" id="DejaVuSans-39"/>
     <path d="M 10.6875 12.40625 
L 21 12.40625 
L 21 0 
L 10.6875 0 
z
" id="DejaVuSans-2e"/>
     <path d="M 31.78125 34.625 
Q 24.75 34.625 20.71875 30.859375 
Q 16.703125 27.09375 16.703125 20.515625 
Q 16.703125 13.921875 20.71875 10.15625 
Q 24.75 6.390625 31.78125 6.390625 
Q 38.8125 6.390625 42.859375 10.171875 
Q 46.921875 13.96875 46.921875 20.515625 
Q 46.921875 27.09375 42.890625 30.859375 
Q 38.875 34.625 31.78125 34.625 
z
M 21.921875 38.8125 
Q 15.578125 40.375 12.03125 44.71875 
Q 8.5 49.078125 8.5 55.328125 
Q 8.5 64.0625 14.71875 69.140625 
Q 20.953125 74.21875 31.78125 74.21875 
Q 42.671875 74.21875 48.875 69.140625 
Q 55.078125 64.0625 55.078125 55.328125 
Q 55.078125 49.078125 51.53125 44.71875 
Q 48 40.375 41.703125 38.8125 
Q 48.828125 37.15625 52.796875 32.3125 
Q 56.78125 27.484375 56.78125 20.515625 
Q 56.78125 9.90625 50.3125 4.234375 
Q 43.84375 -1.421875 31.78125 -1.421875 
Q 19.734375 -1.421875 13.25 4.234375 
Q 6.78125 9.90625 6.78125 20.515625 
Q 6.78125 27.484375 10.78125 32.3125 
Q 14.796875 37.15625 21.921875 38.8125 
z
M 18.3125 54.390625 
Q 18.3125 48.734375 21.84375 45.5625 
Q 25.390625 42.390625 31.78125 42.390625 
Q 38.140625 42.390625 41.71875 45.5625 
Q 45.3125 48.734375 45.3125 54.390625 
Q 45.3125 60.0625 41.71875 63.234375 
Q 38.140625 66.40625 31.78125 66.40625 
Q 25.390625 66.40625 21.84375 63.234375 
Q 18.3125 60.0625 18.3125 54.390625 
z
" id="DejaVuSans-38"/>
     <path d="M 28.609375 0 
L 0.78125 72.90625 
L 11.078125 72.90625 
L 34.1875 11.53125 
L 57.328125 72.90625 
L 67.578125 72.90625 
L 39.796875 0 
z
" id="DejaVuSans-56"/>
     <path d="M 34.1875 63.1875 
L 14.15625 8.203125 
L 54.25 8.203125 
z
M 0.78125 0 
L 28.609375 72.90625 
L 39.796875 72.90625 
L 67.578125 0 
z
" id="DejaVuSans-394"/>
     <path d="M 9.8125 72.90625 
L 55.90625 72.90625 
L 55.90625 64.59375 
L 19.671875 64.59375 
L 19.671875 43.015625 
L 54.390625 43.015625 
L 54.390625 34.71875 
L 19.671875 34.71875 
L 19.671875 8.296875 
L 56.78125 8.296875 
L 56.78125 0 
L 9.8125 0 
z
" id="DejaVuSans-45"/>
     <path d="M 10.796875 72.90625 
L 49.515625 72.90625 
L 49.515625 64.59375 
L 19.828125 64.59375 
L 19.828125 46.734375 
Q 21.96875 47.46875 24.109375 47.828125 
Q 26.265625 48.1875 28.421875 48.1875 
Q 40.625 48.1875 47.75 41.5 
Q 54.890625 34.8125 54.890625 23.390625 
Q 54.890625 11.625 47.5625 5.09375 
Q 40.234375 -1.421875 26.90625 -1.421875 
Q 22.3125 -1.421875 17.546875 -0.640625 
Q 12.796875 0.140625 7.71875 1.703125 
L 7.71875 11.625 
Q 12.109375 9.234375 16.796875 8.0625 
Q 21.484375 6.890625 26.703125 6.890625 
Q 35.15625 6.890625 40.078125 11.328125 
Q 45.015625 15.765625 45.015625 23.390625 
Q 45.015625 31 40.078125 35.4375 
Q 35.15625 39.890625 26.703125 39.890625 
Q 22.75 39.890625 18.8125 39.015625 
Q 14.890625 38.140625 10.796875 36.28125 
z
" id="DejaVuSans-35"/>
    </defs>
    <g transform="translate(67.068 35.472)scale(0.12 -0.12)">
     <use transform="translate(0 0.78125)" xlink:href="#DejaVuSans-53"/>
     <use transform="translate(63.476562 0.78125)" xlink:href="#DejaVuSans-74"/>
     <use transform="translate(102.685547 0.78125)" xlink:href="#DejaVuSans-72"/>
     <use transform="translate(143.798828 0.78125)" xlink:href="#DejaVuSans-75"/>
     <use transform="translate(207.177734 0.78125)" xlink:href="#DejaVuSans-63"/>
     <use transform="translate(262.158203 0.78125)" xlink:href="#DejaVuSans-74"/>
     <use transform="translate(301.367188 0.78125)" xlink:href="#DejaVuSans-75"/>
     <use transform="translate(364.746094 0.78125)" xlink:href="#DejaVuSans-72"/>
     <use transform="translate(405.859375 0.78125)" xlink:href="#DejaVuSans-65"/>
     <use transform="translate(467.382812 0.78125)" xlink:href="#DejaVuSans-20"/>
     <use transform="translate(499.169922 0.78125)" xlink:href="#DejaVuSans-23"/>
     <use transform="translate(582.958984 0.78125)" xlink:href="#DejaVuSans-36"/>
     <use transform="translate(646.582031 0.78125)" xlink:href="#DejaVuSans-30"/>
     <use transform="translate(710.205078 0.78125)" xlink:href="#DejaVuSans-32"/>
     <use transform="translate(773.828125 0.78125)" xlink:href="#DejaVuSans-2c"/>
     <use transform="translate(805.615234 0.78125)" xlink:href="#DejaVuSans-20"/>
     <use transform="translate(837.402344 0.78125)" xlink:href="#DejaVuSans-Oblique-45"/>
     <use transform="translate(900.585938 -15.625)scale(0.7)" xlink:href="#DejaVuSans-Oblique-4e"/>
     <use transform="translate(955.683594 0.78125)" xlink:href="#DejaVuSans-3d"/>
     <use transform="translate(1039.472656 0.78125)" xlink:href="#DejaVuSans-2d"/>
     <use transform="translate(1075.556641 0.78125)" xlink:href="#DejaVuSans-31"/>
     <use transform="translate(1139.179688 0.78125)" xlink:href="#DejaVuSans-37"/>
     <use transform="translate(1202.802734 0.78125)" xlink:href="#DejaVuSans-39"/>
     <use transform="translate(1266.425781 0.78125)" xlink:href="#DejaVuSans-2e"/>
     <use transform="translate(1298.103516 0.78125)" xlink:href="#DejaVuSans-37"/>
     <use transform="translate(1361.726562 0.78125)" xlink:href="#DejaVuSans-38"/>
     <use transform="translate(1425.349609 0.78125)" xlink:href="#DejaVuSans-65"/>
     <use transform="translate(1486.873047 0.78125)" xlink:href="#DejaVuSans-56"/>
     <use transform="translate(1555.28125 0.78125)" xlink:href="#DejaVuSans-2c"/>
     <use transform="translate(1587.068359 0.78125)" xlink:href="#DejaVuSans-20"/>
     <use transform="translate(1618.855469 0.78125)" xlink:href="#DejaVuSans-394"/>
     <use transform="translate(1687.263672 0.78125)" xlink:href="#DejaVuSans-45"/>
     <use transform="translate(1750.447266 0.78125)" xlink:href="#DejaVuSans-3d"/>
     <use transform="translate(1834.236328 0.78125)" xlink:href="#DejaVuSans-2d"/>
     <use transform="translate(1870.320312 0.78125)" xlink:href="#DejaVuSans-30"/>
     <use transform="translate(1933.943359 0.78125)" xlink:href="#DejaVuSans-2e"/>
     <use transform="translate(1965.621094 0.78125)" xlink:href="#DejaVuSans-37"/>
     <use transform="translate(2029.244141 0.78125)" xlink:href="#DejaVuSans-35"/>
     <use transform="translate(2092.867188 0.78125)" xlink:href="#DejaVuSans-65"/>
     <use transform="translate(2154.390625 0.78125)" xlink:href="#DejaVuSans-56"/>
    </g>
   </g>
  </g>
  <g id="axes_2">
   <g id="patch_2">
    <path clip-path="url(#paa5a3eabfd)" d="M 361.152 307.584 
L 361.152 306.5445 
L 361.152 42.5115 
L 361.152 41.472 
L 374.4576 41.472 
L 374.4576 42.5115 
L 374.4576 306.5445 
L 374.4576 307.584 
z
" style="fill:#ffffff;stroke:#ffffff;stroke-linejoin:miter;stroke-width:0.01;"/>
   </g>
   <image height="265.68" id="imageb464d94ff6" transform="scale(1 -1)translate(0 -265.68)" width="12.96" x="361.44" xlink:href="data:image/png;base64,
iVBORw0KGgoAAAANSUhEUgAAABIAAAFxCAYAAAB+2fgXAAAABHNCSVQICAgIfAhkiAAAAeVJREFUeJztncmNw0AQA2ckheYQNv9QLIfQ8ygsCgQ7AEI8+jAs2Puz/94F1LP2ReCsZ18bAWIeZ5XaGRBE7VnbptG+KI101FYyNSiQG2oRITXKNaX9uclOdi2XWjftVE32CZCO2ou5Bj1TcCBr/1zB9ge7Fq0Rg2NM9pvbtG+ua1QgsRYhDy0ISEiNc40BEibbSI0Coj5CBGtkpFbXJiAjNZlrwhuSOv2M1DjXbEdEciBt1JSDDQKKpmZr2rr2j0DBGpXaWEJq3bQzEPIS26r9J+Wzv9Tm8o3aajRXqc3VUXsApKNWjeZq0x4ABVNbm7lrszVigDqP5vIl2+eaT2yfRkL7g+dRcNPqjohkjaCvRVBq0H2U3LQrOJCx9kdTg4B8oxZzzTdqdYHEngjUCAPyUctN9sVRq2sTECW2UKNLd2jVtRmo1A6AhMmWaSRcR8nUdIHUuVb75zJS218EyEitro1At69pIdeSk30Lkw0FktNImGyZRhy1O5galmxd03LUsHWk06jUZiCq+5Wb1kZNN4+wJxJuWt8RAW5am2sYNZ9rYCBzZ3buPKJ2P5Yj4Toy3keyIyJbIxs1rml1byCA84gpch5RQNB7Q0qNMGq2Hy4BXdNR41yz/cEEJfZzUz96r9PoB0okjeQ8y9TkAAAAAElFTkSuQmCC" y="-41.76"/>
   <g id="matplotlib.axis_1"/>
   <g id="matplotlib.axis_2">
    <g id="ytick_1">
     <g id="line2d_1">
      <defs>
       <path d="M 0 0 
L 3.5 0 
" id="mae4704cab6" style="stroke:#000000;stroke-width:0.8;"/>
      </defs>
      <g>
       <use style="stroke:#000000;stroke-width:0.8;" x="374.4576" xlink:href="#mae4704cab6" y="301.063516"/>
      </g>
     </g>
     <g id="text_2">
      <!-- −8.5 -->
      <defs>
       <path d="M 10.59375 35.5 
L 73.1875 35.5 
L 73.1875 27.203125 
L 10.59375 27.203125 
z
" id="DejaVuSans-2212"/>
      </defs>
      <g transform="translate(381.4576 304.862735)scale(0.1 -0.1)">
       <use xlink:href="#DejaVuSans-2212"/>
       <use x="83.789062" xlink:href="#DejaVuSans-38"/>
       <use x="147.412109" xlink:href="#DejaVuSans-2e"/>
       <use x="179.199219" xlink:href="#DejaVuSans-35"/>
      </g>
     </g>
    </g>
    <g id="ytick_2">
     <g id="line2d_2">
      <g>
       <use style="stroke:#000000;stroke-width:0.8;" x="374.4576" xlink:href="#mae4704cab6" y="260.008979"/>
      </g>
     </g>
     <g id="text_3">
      <!-- −8.0 -->
      <g transform="translate(381.4576 263.808198)scale(0.1 -0.1)">
       <use xlink:href="#DejaVuSans-2212"/>
       <use x="83.789062" xlink:href="#DejaVuSans-38"/>
       <use x="147.412109" xlink:href="#DejaVuSans-2e"/>
       <use x="179.199219" xlink:href="#DejaVuSans-30"/>
      </g>
     </g>
    </g>
    <g id="ytick_3">
     <g id="line2d_3">
      <g>
       <use style="stroke:#000000;stroke-width:0.8;" x="374.4576" xlink:href="#mae4704cab6" y="218.954442"/>
      </g>
     </g>
     <g id="text_4">
      <!-- −7.5 -->
      <g transform="translate(381.4576 222.753661)scale(0.1 -0.1)">
       <use xlink:href="#DejaVuSans-2212"/>
       <use x="83.789062" xlink:href="#DejaVuSans-37"/>
       <use x="147.412109" xlink:href="#DejaVuSans-2e"/>
       <use x="179.199219" xlink:href="#DejaVuSans-35"/>
      </g>
     </g>
    </g>
    <g id="ytick_4">
     <g id="line2d_4">
      <g>
       <use style="stroke:#000000;stroke-width:0.8;" x="374.4576" xlink:href="#mae4704cab6" y="177.899905"/>
      </g>
     </g>
     <g id="text_5">
      <!-- −7.0 -->
      <g transform="translate(381.4576 181.699124)scale(0.1 -0.1)">
       <use xlink:href="#DejaVuSans-2212"/>
       <use x="83.789062" xlink:href="#DejaVuSans-37"/>
       <use x="147.412109" xlink:href="#DejaVuSans-2e"/>
       <use x="179.199219" xlink:href="#DejaVuSans-30"/>
      </g>
     </g>
    </g>
    <g id="ytick_5">
     <g id="line2d_5">
      <g>
       <use style="stroke:#000000;stroke-width:0.8;" x="374.4576" xlink:href="#mae4704cab6" y="136.845368"/>
      </g>
     </g>
     <g id="text_6">
      <!-- −6.5 -->
      <g transform="translate(381.4576 140.644587)scale(0.1 -0.1)">
       <use xlink:href="#DejaVuSans-2212"/>
       <use x="83.789062" xlink:href="#DejaVuSans-36"/>
       <use x="147.412109" xlink:href="#DejaVuSans-2e"/>
       <use x="179.199219" xlink:href="#DejaVuSans-35"/>
      </g>
     </g>
    </g>
    <g id="ytick_6">
     <g id="line2d_6">
      <g>
       <use style="stroke:#000000;stroke-width:0.8;" x="374.4576" xlink:href="#mae4704cab6" y="95.790831"/>
      </g>
     </g>
     <g id="text_7">
      <!-- −6.0 -->
      <g transform="translate(381.4576 99.59005)scale(0.1 -0.1)">
       <use xlink:href="#DejaVuSans-2212"/>
       <use x="83.789062" xlink:href="#DejaVuSans-36"/>
       <use x="147.412109" xlink:href="#DejaVuSans-2e"/>
       <use x="179.199219" xlink:href="#DejaVuSans-30"/>
      </g>
     </g>
    </g>
    <g id="ytick_7">
     <g id="line2d_7">
      <g>
       <use style="stroke:#000000;stroke-width:0.8;" x="374.4576" xlink:href="#mae4704cab6" y="54.736294"/>
      </g>
     </g>
     <g id="text_8">
      <!-- −5.5 -->
      <g transform="translate(381.4576 58.535513)scale(0.1 -0.1)">
       <use xlink:href="#DejaVuSans-2212"/>
       <use x="83.789062" xlink:href="#DejaVuSans-35"/>
       <use x="147.412109" xlink:href="#DejaVuSans-2e"/>
       <use x="179.199219" xlink:href="#DejaVuSans-35"/>
      </g>
     </g>
    </g>
    <g id="text_9">
     <!-- Energy [eV] -->
     <defs>
      <path d="M 54.890625 33.015625 
L 54.890625 0 
L 45.90625 0 
L 45.90625 32.71875 
Q 45.90625 40.484375 42.875 44.328125 
Q 39.84375 48.1875 33.796875 48.1875 
Q 26.515625 48.1875 22.3125 43.546875 
Q 18.109375 38.921875 18.109375 30.90625 
L 18.109375 0 
L 9.078125 0 
L 9.078125 54.6875 
L 18.109375 54.6875 
L 18.109375 46.1875 
Q 21.34375 51.125 25.703125 53.5625 
Q 30.078125 56 35.796875 56 
Q 45.21875 56 50.046875 50.171875 
Q 54.890625 44.34375 54.890625 33.015625 
z
" id="DejaVuSans-6e"/>
      <path d="M 45.40625 27.984375 
Q 45.40625 37.75 41.375 43.109375 
Q 37.359375 48.484375 30.078125 48.484375 
Q 22.859375 48.484375 18.828125 43.109375 
Q 14.796875 37.75 14.796875 27.984375 
Q 14.796875 18.265625 18.828125 12.890625 
Q 22.859375 7.515625 30.078125 7.515625 
Q 37.359375 7.515625 41.375 12.890625 
Q 45.40625 18.265625 45.40625 27.984375 
z
M 54.390625 6.78125 
Q 54.390625 -7.171875 48.1875 -13.984375 
Q 42 -20.796875 29.203125 -20.796875 
Q 24.46875 -20.796875 20.265625 -20.09375 
Q 16.0625 -19.390625 12.109375 -17.921875 
L 12.109375 -9.1875 
Q 16.0625 -11.328125 19.921875 -12.34375 
Q 23.78125 -13.375 27.78125 -13.375 
Q 36.625 -13.375 41.015625 -8.765625 
Q 45.40625 -4.15625 45.40625 5.171875 
L 45.40625 9.625 
Q 42.625 4.78125 38.28125 2.390625 
Q 33.9375 0 27.875 0 
Q 17.828125 0 11.671875 7.65625 
Q 5.515625 15.328125 5.515625 27.984375 
Q 5.515625 40.671875 11.671875 48.328125 
Q 17.828125 56 27.875 56 
Q 33.9375 56 38.28125 53.609375 
Q 42.625 51.21875 45.40625 46.390625 
L 45.40625 54.6875 
L 54.390625 54.6875 
z
" id="DejaVuSans-67"/>
      <path d="M 32.171875 -5.078125 
Q 28.375 -14.84375 24.75 -17.8125 
Q 21.140625 -20.796875 15.09375 -20.796875 
L 7.90625 -20.796875 
L 7.90625 -13.28125 
L 13.1875 -13.28125 
Q 16.890625 -13.28125 18.9375 -11.515625 
Q 21 -9.765625 23.484375 -3.21875 
L 25.09375 0.875 
L 2.984375 54.6875 
L 12.5 54.6875 
L 29.59375 11.921875 
L 46.6875 54.6875 
L 56.203125 54.6875 
z
" id="DejaVuSans-79"/>
      <path d="M 8.59375 75.984375 
L 29.296875 75.984375 
L 29.296875 69 
L 17.578125 69 
L 17.578125 -6.203125 
L 29.296875 -6.203125 
L 29.296875 -13.1875 
L 8.59375 -13.1875 
z
" id="DejaVuSans-5b"/>
      <path d="M 30.421875 75.984375 
L 30.421875 -13.1875 
L 9.71875 -13.1875 
L 9.71875 -6.203125 
L 21.390625 -6.203125 
L 21.390625 69 
L 9.71875 69 
L 9.71875 75.984375 
z
" id="DejaVuSans-5d"/>
     </defs>
     <g transform="translate(417.33885 204.108469)rotate(-90)scale(0.1 -0.1)">
      <use xlink:href="#DejaVuSans-45"/>
      <use x="63.183594" xlink:href="#DejaVuSans-6e"/>
      <use x="126.5625" xlink:href="#DejaVuSans-65"/>
      <use x="188.085938" xlink:href="#DejaVuSans-72"/>
      <use x="229.183594" xlink:href="#DejaVuSans-67"/>
      <use x="292.660156" xlink:href="#DejaVuSans-79"/>
      <use x="351.839844" xlink:href="#DejaVuSans-20"/>
      <use x="383.626953" xlink:href="#DejaVuSans-5b"/>
      <use x="422.640625" xlink:href="#DejaVuSans-65"/>
      <use x="484.164062" xlink:href="#DejaVuSans-56"/>
      <use x="552.572266" xlink:href="#DejaVuSans-5d"/>
     </g>
    </g>
   </g>
   <g id="patch_3">
    <path d="M 361.152 307.584 
L 361.152 306.5445 
L 361.152 42.5115 
L 361.152 41.472 
L 374.4576 41.472 
L 374.4576 42.5115 
L 374.4576 306.5445 
L 374.4576 307.584 
z
" style="fill:none;stroke:#000000;stroke-linejoin:miter;stroke-width:0.8;"/>
   </g>
  </g>
 </g>
 <defs>
  <clipPath id="p1f60242c5a">
   <rect height="266.112" width="285.696" x="57.6" y="41.472"/>
  </clipPath>
  <clipPath id="paa5a3eabfd">
   <rect height="266.112" width="13.3056" x="361.152" y="41.472"/>
  </clipPath>
 </defs>
</svg>
