<?xml version="1.0" encoding="utf-8" standalone="no"?>
<!DOCTYPE svg PUBLIC "-//W3C//DTD SVG 1.1//EN"
  "http://www.w3.org/Graphics/SVG/1.1/DTD/svg11.dtd">
<!-- Created with matplotlib (http://matplotlib.org/) -->
<svg height="345.6pt" version="1.1" viewBox="0 0 460.8 345.6" width="460.8pt" xmlns="http://www.w3.org/2000/svg" xmlns:xlink="http://www.w3.org/1999/xlink">
 <defs>
  <style type="text/css">
*{stroke-linecap:butt;stroke-linejoin:round;}
  </style>
 </defs>
 <g id="figure_1">
  <g id="patch_1">
   <path d="M 0 345.6 
L 460.8 345.6 
L 460.8 0 
L 0 0 
z
" style="fill:#ffffff;"/>
  </g>
  <g id="axes_1">
   <g id="CircleCollection_1">
    <path clip-path="url(#pd54fb74af7)" d="M 98.780696 136.33075 
C 100.574014 136.33075 102.294123 135.618257 103.562191 134.35019 
C 104.830258 133.082123 105.54275 131.362013 105.54275 129.568696 
C 105.54275 127.775378 104.830258 126.055269 103.562191 124.787202 
C 102.294123 123.519134 100.574014 122.806642 98.780696 122.806642 
C 96.987379 122.806642 95.267269 123.519134 93.999202 124.787202 
C 92.731135 126.055269 92.018642 127.775378 92.018642 129.568696 
C 92.018642 131.362013 92.731135 133.082123 93.999202 134.35019 
C 95.267269 135.618257 96.987379 136.33075 98.780696 136.33075 
z
" style="fill:#26828e;"/>
    <path clip-path="url(#pd54fb74af7)" d="M 71.165658 61.2882 
C 73.038247 61.2882 74.834392 60.544213 76.158512 59.220093 
C 77.482632 57.895972 78.226619 56.099828 78.226619 54.227239 
C 78.226619 52.35465 77.482632 50.558506 76.158512 49.234385 
C 74.834392 47.910265 73.038247 47.166278 71.165658 47.166278 
C 69.293069 47.166278 67.496925 47.910265 66.172805 49.234385 
C 64.848684 50.558506 64.104697 52.35465 64.104697 54.227239 
C 64.104697 56.099828 64.848684 57.895972 66.172805 59.220093 
C 67.496925 60.544213 69.293069 61.2882 71.165658 61.2882 
z
" style="fill:#fde725;"/>
    <path clip-path="url(#pd54fb74af7)" d="M 315.553181 181.804256 
C 317.366533 181.804256 319.105859 181.083804 320.388093 179.80157 
C 321.670326 178.519337 322.390779 176.780011 322.390779 174.966659 
C 322.390779 173.153307 321.670326 171.413981 320.388093 170.131747 
C 319.105859 168.849514 317.366533 168.129061 315.553181 168.129061 
C 313.739829 168.129061 312.000503 168.849514 310.71827 170.131747 
C 309.436036 171.413981 308.715584 173.153307 308.715584 174.966659 
C 308.715584 176.780011 309.436036 178.519337 310.71827 179.80157 
C 312.000503 181.083804 313.739829 181.804256 315.553181 181.804256 
z
" style="fill:#38588c;"/>
    <path clip-path="url(#pd54fb74af7)" d="M 168.160911 300.324014 
C 170.023653 300.324014 171.810353 299.583939 173.127511 298.266781 
C 174.444669 296.949624 175.184744 295.162924 175.184744 293.300182 
C 175.184744 291.437439 174.444669 289.65074 173.127511 288.333582 
C 171.810353 287.016424 170.023653 286.276349 168.160911 286.276349 
C 166.298169 286.276349 164.511469 287.016424 163.194312 288.333582 
C 161.877154 289.65074 161.137079 291.437439 161.137079 293.300182 
C 161.137079 295.162924 161.877154 296.949624 163.194312 298.266781 
C 164.511469 299.583939 166.298169 300.324014 168.160911 300.324014 
z
" style="fill:#31668e;"/>
    <path clip-path="url(#pd54fb74af7)" d="M 315.29418 262.115032 
C 317.161698 262.115032 318.952978 261.37306 320.273512 260.052526 
C 321.594046 258.731992 322.336018 256.940712 322.336018 255.073194 
C 322.336018 253.205677 321.594046 251.414397 320.273512 250.093863 
C 318.952978 248.773329 317.161698 248.031356 315.29418 248.031356 
C 313.426663 248.031356 311.635383 248.773329 310.314849 250.093863 
C 308.994315 251.414397 308.252342 253.205677 308.252342 255.073194 
C 308.252342 256.940712 308.994315 258.731992 310.314849 260.052526 
C 311.635383 261.37306 313.426663 262.115032 315.29418 262.115032 
z
" style="fill:#1f998a;"/>
    <path clip-path="url(#pd54fb74af7)" d="M 128.682906 266.178367 
C 130.309982 266.178367 131.870635 265.531924 133.021151 264.381407 
C 134.171667 263.230891 134.818111 261.670238 134.818111 260.043162 
C 134.818111 258.416087 134.171667 256.855433 133.021151 255.704917 
C 131.870635 254.554401 130.309982 253.907957 128.682906 253.907957 
C 127.055831 253.907957 125.495177 254.554401 124.344661 255.704917 
C 123.194145 256.855433 122.547701 258.416087 122.547701 260.043162 
C 122.547701 261.670238 123.194145 263.230891 124.344661 264.381407 
C 125.495177 265.531924 127.055831 266.178367 128.682906 266.178367 
z
" style="fill:#2cb17e;"/>
    <path clip-path="url(#pd54fb74af7)" d="M 268.427001 285.894596 
C 270.261222 285.894596 272.020566 285.165852 273.317557 283.868861 
C 274.614548 282.57187 275.343292 280.812527 275.343292 278.978305 
C 275.343292 277.144083 274.614548 275.384739 273.317557 274.087748 
C 272.020566 272.790757 270.261222 272.062013 268.427001 272.062013 
C 266.592779 272.062013 264.833435 272.790757 263.536444 274.087748 
C 262.239453 275.384739 261.510709 277.144083 261.510709 278.978305 
C 261.510709 280.812527 262.239453 282.57187 263.536444 283.868861 
C 264.833435 285.165852 266.592779 285.894596 268.427001 285.894596 
z
" style="fill:#440154;"/>
    <path clip-path="url(#pd54fb74af7)" d="M 259.535587 273.929517 
C 261.285737 273.929517 262.964441 273.234175 264.201984 271.996632 
C 265.439527 270.759089 266.134869 269.080385 266.134869 267.330236 
C 266.134869 265.580086 265.439527 263.901382 264.201984 262.663839 
C 262.964441 261.426296 261.285737 260.730954 259.535587 260.730954 
C 257.785437 260.730954 256.106733 261.426296 254.86919 262.663839 
C 253.631647 263.901382 252.936305 265.580086 252.936305 267.330236 
C 252.936305 269.080385 253.631647 270.759089 254.86919 271.996632 
C 256.106733 273.234175 257.785437 273.929517 259.535587 273.929517 
z
" style="fill:#31b57b;"/>
    <path clip-path="url(#pd54fb74af7)" d="M 221.024968 301.888657 
C 222.897246 301.888657 224.693091 301.144793 226.016991 299.820893 
C 227.340891 298.496993 228.084755 296.701148 228.084755 294.828871 
C 228.084755 292.956593 227.340891 291.160748 226.016991 289.836848 
C 224.693091 288.512948 222.897246 287.769084 221.024968 287.769084 
C 219.152691 287.769084 217.356846 288.512948 216.032946 289.836848 
C 214.709046 291.160748 213.965182 292.956593 213.965182 294.828871 
C 213.965182 296.701148 214.709046 298.496993 216.032946 299.820893 
C 217.356846 301.144793 219.152691 301.888657 221.024968 301.888657 
z
" style="fill:#1f998a;"/>
    <path clip-path="url(#pd54fb74af7)" d="M 91.959439 265.283289 
C 93.755293 265.283289 95.477835 264.569789 96.747695 263.299928 
C 98.017556 262.030068 98.731056 260.307526 98.731056 258.511673 
C 98.731056 256.715819 98.017556 254.993277 96.747695 253.723417 
C 95.477835 252.453556 93.755293 251.740056 91.959439 251.740056 
C 90.163586 251.740056 88.441044 252.453556 87.171183 253.723417 
C 85.901323 254.993277 85.187823 256.715819 85.187823 258.511673 
C 85.187823 260.307526 85.901323 262.030068 87.171183 263.299928 
C 88.441044 264.569789 90.163586 265.283289 91.959439 265.283289 
z
" style="fill:#33638d;"/>
    <path clip-path="url(#pd54fb74af7)" d="M 209.75931 167.534735 
C 211.435657 167.534735 213.043571 166.868715 214.228928 165.683359 
C 215.414285 164.498002 216.080305 162.890088 216.080305 161.21374 
C 216.080305 159.537393 215.414285 157.929479 214.228928 156.744122 
C 213.043571 155.558765 211.435657 154.892745 209.75931 154.892745 
C 208.082962 154.892745 206.475048 155.558765 205.289691 156.744122 
C 204.104335 157.929479 203.438315 159.537393 203.438315 161.21374 
C 203.438315 162.890088 204.104335 164.498002 205.289691 165.683359 
C 206.475048 166.868715 208.082962 167.534735 209.75931 167.534735 
z
" style="fill:#39558c;"/>
    <path clip-path="url(#pd54fb74af7)" d="M 329.733651 220.323771 
C 331.595545 220.323771 333.381432 219.584033 334.69799 218.267475 
C 336.014548 216.950917 336.754287 215.16503 336.754287 213.303136 
C 336.754287 211.441242 336.014548 209.655355 334.69799 208.338797 
C 333.381432 207.022239 331.595545 206.282501 329.733651 206.282501 
C 327.871757 206.282501 326.08587 207.022239 324.769312 208.338797 
C 323.452754 209.655355 322.713016 211.441242 322.713016 213.303136 
C 322.713016 215.16503 323.452754 216.950917 324.769312 218.267475 
C 326.08587 219.584033 327.871757 220.323771 329.733651 220.323771 
z
" style="fill:#25838e;"/>
    <path clip-path="url(#pd54fb74af7)" d="M 160.055666 225.798172 
C 161.688346 225.798172 163.254376 225.149502 164.408855 223.995022 
C 165.563334 222.840543 166.212005 221.274514 166.212005 219.641833 
C 166.212005 218.009153 165.563334 216.443124 164.408855 215.288644 
C 163.254376 214.134165 161.688346 213.485494 160.055666 213.485494 
C 158.422986 213.485494 156.856956 214.134165 155.702477 215.288644 
C 154.547998 216.443124 153.899327 218.009153 153.899327 219.641833 
C 153.899327 221.274514 154.547998 222.840543 155.702477 223.995022 
C 156.856956 225.149502 158.422986 225.798172 160.055666 225.798172 
z
" style="fill:#38598c;"/>
    <path clip-path="url(#pd54fb74af7)" d="M 291.086286 191.54096 
C 292.81697 191.54096 294.477002 190.853352 295.70078 189.629574 
C 296.924558 188.405796 297.612166 186.745763 297.612166 185.01508 
C 297.612166 183.284396 296.924558 181.624364 295.70078 180.400586 
C 294.477002 179.176808 292.81697 178.4892 291.086286 178.4892 
C 289.355602 178.4892 287.69557 179.176808 286.471792 180.400586 
C 285.248014 181.624364 284.560406 183.284396 284.560406 185.01508 
C 284.560406 186.745763 285.248014 188.405796 286.471792 189.629574 
C 287.69557 190.853352 289.355602 191.54096 291.086286 191.54096 
z
" style="fill:#2b748e;"/>
    <path clip-path="url(#pd54fb74af7)" d="M 83.899188 220.636043 
C 85.659585 220.636043 87.348117 219.936631 88.592905 218.691842 
C 89.837693 217.447054 90.537106 215.758522 90.537106 213.998126 
C 90.537106 212.237729 89.837693 210.549197 88.592905 209.304409 
C 87.348117 208.059621 85.659585 207.360208 83.899188 207.360208 
C 82.138792 207.360208 80.45026 208.059621 79.205472 209.304409 
C 77.960683 210.549197 77.26127 212.237729 77.26127 213.998126 
C 77.26127 215.758522 77.960683 217.447054 79.205472 218.691842 
C 80.45026 219.936631 82.138792 220.636043 83.899188 220.636043 
z
" style="fill:#287d8e;"/>
    <path clip-path="url(#pd54fb74af7)" d="M 84.861349 99.3588 
C 86.694178 99.3588 88.452187 98.630609 89.748193 97.334603 
C 91.044199 96.038597 91.77239 94.280589 91.77239 92.447759 
C 91.77239 90.61493 91.044199 88.856922 89.748193 87.560916 
C 88.452187 86.264909 86.694178 85.536719 84.861349 85.536719 
C 83.028519 85.536719 81.270511 86.264909 79.974505 87.560916 
C 78.678499 88.856922 77.950308 90.61493 77.950308 92.447759 
C 77.950308 94.280589 78.678499 96.038597 79.974505 97.334603 
C 81.270511 98.630609 83.028519 99.3588 84.861349 99.3588 
z
" style="fill:#375a8c;"/>
    <path clip-path="url(#pd54fb74af7)" d="M 256.005873 150.955212 
C 257.726608 150.955212 259.377097 150.271557 260.59384 149.054814 
C 261.810584 147.83807 262.494239 146.187581 262.494239 144.466846 
C 262.494239 142.746111 261.810584 141.095621 260.59384 139.878878 
C 259.377097 138.662135 257.726608 137.97848 256.005873 137.97848 
C 254.285138 137.97848 252.634648 138.662135 251.417905 139.878878 
C 250.201162 141.095621 249.517507 142.746111 249.517507 144.466846 
C 249.517507 146.187581 250.201162 147.83807 251.417905 149.054814 
C 252.634648 150.271557 254.285138 150.955212 256.005873 150.955212 
z
" style="fill:#30698e;"/>
    <path clip-path="url(#pd54fb74af7)" d="M 152.816559 180.671178 
C 154.499601 180.671178 156.113936 180.002498 157.304026 178.812408 
C 158.494116 177.622318 159.162795 176.007983 159.162795 174.324941 
C 159.162795 172.6419 158.494116 171.027565 157.304026 169.837475 
C 156.113936 168.647385 154.499601 167.978705 152.816559 167.978705 
C 151.133518 167.978705 149.519182 168.647385 148.329092 169.837475 
C 147.139002 171.027565 146.470323 172.6419 146.470323 174.324941 
C 146.470323 176.007983 147.139002 177.622318 148.329092 178.812408 
C 149.519182 180.002498 151.133518 180.671178 152.816559 180.671178 
z
" style="fill:#31678e;"/>
    <path clip-path="url(#pd54fb74af7)" d="M 270.671998 149.866124 
C 272.484275 149.866124 274.222569 149.146099 275.504043 147.864625 
C 276.785516 146.583152 277.505541 144.844858 277.505541 143.032581 
C 277.505541 141.220304 276.785516 139.482009 275.504043 138.200536 
C 274.222569 136.919063 272.484275 136.199038 270.671998 136.199038 
C 268.859721 136.199038 267.121427 136.919063 265.839953 138.200536 
C 264.55848 139.482009 263.838455 141.220304 263.838455 143.032581 
C 263.838455 144.844858 264.55848 146.583152 265.839953 147.864625 
C 267.121427 149.146099 268.859721 149.866124 270.671998 149.866124 
z
" style="fill:#4ac16d;"/>
    <path clip-path="url(#pd54fb74af7)" d="M 110.317003 175.179843 
C 112.06583 175.179843 113.743264 174.485027 114.979872 173.248419 
C 116.216479 172.011812 116.911295 170.334377 116.911295 168.585551 
C 116.911295 166.836724 116.216479 165.159289 114.979872 163.922682 
C 113.743264 162.686075 112.06583 161.991259 110.317003 161.991259 
C 108.568176 161.991259 106.890742 162.686075 105.654134 163.922682 
C 104.417527 165.159289 103.722711 166.836724 103.722711 168.585551 
C 103.722711 170.334377 104.417527 172.011812 105.654134 173.248419 
C 106.890742 174.485027 108.568176 175.179843 110.317003 175.179843 
z
" style="fill:#481769;"/>
    <path clip-path="url(#pd54fb74af7)" d="M 261.419799 234.944692 
C 263.119538 234.944692 264.74989 234.269379 265.951787 233.067481 
C 267.153684 231.865584 267.828998 230.235233 267.828998 228.535493 
C 267.828998 226.835754 267.153684 225.205402 265.951787 224.003505 
C 264.74989 222.801608 263.119538 222.126294 261.419799 222.126294 
C 259.720059 222.126294 258.089708 222.801608 256.887811 224.003505 
C 255.685913 225.205402 255.0106 226.835754 255.0106 228.535493 
C 255.0106 230.235233 255.685913 231.865584 256.887811 233.067481 
C 258.089708 234.269379 259.720059 234.944692 261.419799 234.944692 
z
" style="fill:#46337f;"/>
    <path clip-path="url(#pd54fb74af7)" d="M 116.431705 289.077323 
C 118.291615 289.077323 120.075599 288.338373 121.390754 287.023218 
C 122.705909 285.708063 123.444859 283.92408 123.444859 282.06417 
C 123.444859 280.20426 122.705909 278.420276 121.390754 277.105121 
C 120.075599 275.789966 118.291615 275.051016 116.431705 275.051016 
C 114.571795 275.051016 112.787812 275.789966 111.472657 277.105121 
C 110.157502 278.420276 109.418552 280.20426 109.418552 282.06417 
C 109.418552 283.92408 110.157502 285.708063 111.472657 287.023218 
C 112.787812 288.338373 114.571795 289.077323 116.431705 289.077323 
z
" style="fill:#26828e;"/>
    <path clip-path="url(#pd54fb74af7)" d="M 96.136055 258.262983 
C 97.840369 258.262983 99.475108 257.585852 100.68024 256.38072 
C 101.885371 255.175588 102.562502 253.540849 102.562502 251.836536 
C 102.562502 250.132222 101.885371 248.497483 100.68024 247.292351 
C 99.475108 246.087219 97.840369 245.410088 96.136055 245.410088 
C 94.431741 245.410088 92.797002 246.087219 91.591871 247.292351 
C 90.386739 248.497483 89.709608 250.132222 89.709608 251.836536 
C 89.709608 253.540849 90.386739 255.175588 91.591871 256.38072 
C 92.797002 257.585852 94.431741 258.262983 96.136055 258.262983 
z
" style="fill:#2f6b8e;"/>
    <path clip-path="url(#pd54fb74af7)" d="M 218.255914 215.564973 
C 219.900481 215.564973 221.477913 214.91158 222.640798 213.748695 
C 223.803682 212.58581 224.457076 211.008379 224.457076 209.363811 
C 224.457076 207.719244 223.803682 206.141812 222.640798 204.978927 
C 221.477913 203.816043 219.900481 203.162649 218.255914 203.162649 
C 216.611346 203.162649 215.033915 203.816043 213.87103 204.978927 
C 212.708145 206.141812 212.054752 207.719244 212.054752 209.363811 
C 212.054752 211.008379 212.708145 212.58581 213.87103 213.748695 
C 215.033915 214.91158 216.611346 215.564973 218.255914 215.564973 
z
" style="fill:#32658e;"/>
   </g>
   <g id="text_1">
    <!-- Structure #5961, $E_N$=-176.93eV, ΔE=0.44eV -->
    <defs>
     <path d="M 53.515625 70.515625 
L 53.515625 60.890625 
Q 47.90625 63.578125 42.921875 64.890625 
Q 37.9375 66.21875 33.296875 66.21875 
Q 25.25 66.21875 20.875 63.09375 
Q 16.5 59.96875 16.5 54.203125 
Q 16.5 49.359375 19.40625 46.890625 
Q 22.3125 44.4375 30.421875 42.921875 
L 36.375 41.703125 
Q 47.40625 39.59375 52.65625 34.296875 
Q 57.90625 29 57.90625 20.125 
Q 57.90625 9.515625 50.796875 4.046875 
Q 43.703125 -1.421875 29.984375 -1.421875 
Q 24.8125 -1.421875 18.96875 -0.25 
Q 13.140625 0.921875 6.890625 3.21875 
L 6.890625 13.375 
Q 12.890625 10.015625 18.65625 8.296875 
Q 24.421875 6.59375 29.984375 6.59375 
Q 38.421875 6.59375 43.015625 9.90625 
Q 47.609375 13.234375 47.609375 19.390625 
Q 47.609375 24.75 44.3125 27.78125 
Q 41.015625 30.8125 33.5 32.328125 
L 27.484375 33.5 
Q 16.453125 35.6875 11.515625 40.375 
Q 6.59375 45.0625 6.59375 53.421875 
Q 6.59375 63.09375 13.40625 68.65625 
Q 20.21875 74.21875 32.171875 74.21875 
Q 37.3125 74.21875 42.625 73.28125 
Q 47.953125 72.359375 53.515625 70.515625 
z
" id="DejaVuSans-53"/>
     <path d="M 18.3125 70.21875 
L 18.3125 54.6875 
L 36.8125 54.6875 
L 36.8125 47.703125 
L 18.3125 47.703125 
L 18.3125 18.015625 
Q 18.3125 11.328125 20.140625 9.421875 
Q 21.96875 7.515625 27.59375 7.515625 
L 36.8125 7.515625 
L 36.8125 0 
L 27.59375 0 
Q 17.1875 0 13.234375 3.875 
Q 9.28125 7.765625 9.28125 18.015625 
L 9.28125 47.703125 
L 2.6875 47.703125 
L 2.6875 54.6875 
L 9.28125 54.6875 
L 9.28125 70.21875 
z
" id="DejaVuSans-74"/>
     <path d="M 41.109375 46.296875 
Q 39.59375 47.171875 37.8125 47.578125 
Q 36.03125 48 33.890625 48 
Q 26.265625 48 22.1875 43.046875 
Q 18.109375 38.09375 18.109375 28.8125 
L 18.109375 0 
L 9.078125 0 
L 9.078125 54.6875 
L 18.109375 54.6875 
L 18.109375 46.1875 
Q 20.953125 51.171875 25.484375 53.578125 
Q 30.03125 56 36.53125 56 
Q 37.453125 56 38.578125 55.875 
Q 39.703125 55.765625 41.0625 55.515625 
z
" id="DejaVuSans-72"/>
     <path d="M 8.5 21.578125 
L 8.5 54.6875 
L 17.484375 54.6875 
L 17.484375 21.921875 
Q 17.484375 14.15625 20.5 10.265625 
Q 23.53125 6.390625 29.59375 6.390625 
Q 36.859375 6.390625 41.078125 11.03125 
Q 45.3125 15.671875 45.3125 23.6875 
L 45.3125 54.6875 
L 54.296875 54.6875 
L 54.296875 0 
L 45.3125 0 
L 45.3125 8.40625 
Q 42.046875 3.421875 37.71875 1 
Q 33.40625 -1.421875 27.6875 -1.421875 
Q 18.265625 -1.421875 13.375 4.4375 
Q 8.5 10.296875 8.5 21.578125 
z
M 31.109375 56 
z
" id="DejaVuSans-75"/>
     <path d="M 48.78125 52.59375 
L 48.78125 44.1875 
Q 44.96875 46.296875 41.140625 47.34375 
Q 37.3125 48.390625 33.40625 48.390625 
Q 24.65625 48.390625 19.8125 42.84375 
Q 14.984375 37.3125 14.984375 27.296875 
Q 14.984375 17.28125 19.8125 11.734375 
Q 24.65625 6.203125 33.40625 6.203125 
Q 37.3125 6.203125 41.140625 7.25 
Q 44.96875 8.296875 48.78125 10.40625 
L 48.78125 2.09375 
Q 45.015625 0.34375 40.984375 -0.53125 
Q 36.96875 -1.421875 32.421875 -1.421875 
Q 20.0625 -1.421875 12.78125 6.34375 
Q 5.515625 14.109375 5.515625 27.296875 
Q 5.515625 40.671875 12.859375 48.328125 
Q 20.21875 56 33.015625 56 
Q 37.15625 56 41.109375 55.140625 
Q 45.0625 54.296875 48.78125 52.59375 
z
" id="DejaVuSans-63"/>
     <path d="M 56.203125 29.59375 
L 56.203125 25.203125 
L 14.890625 25.203125 
Q 15.484375 15.921875 20.484375 11.0625 
Q 25.484375 6.203125 34.421875 6.203125 
Q 39.59375 6.203125 44.453125 7.46875 
Q 49.3125 8.734375 54.109375 11.28125 
L 54.109375 2.78125 
Q 49.265625 0.734375 44.1875 -0.34375 
Q 39.109375 -1.421875 33.890625 -1.421875 
Q 20.796875 -1.421875 13.15625 6.1875 
Q 5.515625 13.8125 5.515625 26.8125 
Q 5.515625 40.234375 12.765625 48.109375 
Q 20.015625 56 32.328125 56 
Q 43.359375 56 49.78125 48.890625 
Q 56.203125 41.796875 56.203125 29.59375 
z
M 47.21875 32.234375 
Q 47.125 39.59375 43.09375 43.984375 
Q 39.0625 48.390625 32.421875 48.390625 
Q 24.90625 48.390625 20.390625 44.140625 
Q 15.875 39.890625 15.1875 32.171875 
z
" id="DejaVuSans-65"/>
     <path id="DejaVuSans-20"/>
     <path d="M 51.125 44 
L 36.921875 44 
L 32.8125 27.6875 
L 47.125 27.6875 
z
M 43.796875 71.78125 
L 38.71875 51.515625 
L 52.984375 51.515625 
L 58.109375 71.78125 
L 65.921875 71.78125 
L 60.890625 51.515625 
L 76.125 51.515625 
L 76.125 44 
L 58.984375 44 
L 54.984375 27.6875 
L 70.515625 27.6875 
L 70.515625 20.21875 
L 53.078125 20.21875 
L 48 0 
L 40.1875 0 
L 45.21875 20.21875 
L 30.90625 20.21875 
L 25.875 0 
L 18.015625 0 
L 23.09375 20.21875 
L 7.71875 20.21875 
L 7.71875 27.6875 
L 24.90625 27.6875 
L 29 44 
L 13.28125 44 
L 13.28125 51.515625 
L 30.90625 51.515625 
L 35.890625 71.78125 
z
" id="DejaVuSans-23"/>
     <path d="M 10.796875 72.90625 
L 49.515625 72.90625 
L 49.515625 64.59375 
L 19.828125 64.59375 
L 19.828125 46.734375 
Q 21.96875 47.46875 24.109375 47.828125 
Q 26.265625 48.1875 28.421875 48.1875 
Q 40.625 48.1875 47.75 41.5 
Q 54.890625 34.8125 54.890625 23.390625 
Q 54.890625 11.625 47.5625 5.09375 
Q 40.234375 -1.421875 26.90625 -1.421875 
Q 22.3125 -1.421875 17.546875 -0.640625 
Q 12.796875 0.140625 7.71875 1.703125 
L 7.71875 11.625 
Q 12.109375 9.234375 16.796875 8.0625 
Q 21.484375 6.890625 26.703125 6.890625 
Q 35.15625 6.890625 40.078125 11.328125 
Q 45.015625 15.765625 45.015625 23.390625 
Q 45.015625 31 40.078125 35.4375 
Q 35.15625 39.890625 26.703125 39.890625 
Q 22.75 39.890625 18.8125 39.015625 
Q 14.890625 38.140625 10.796875 36.28125 
z
" id="DejaVuSans-35"/>
     <path d="M 10.984375 1.515625 
L 10.984375 10.5 
Q 14.703125 8.734375 18.5 7.8125 
Q 22.3125 6.890625 25.984375 6.890625 
Q 35.75 6.890625 40.890625 13.453125 
Q 46.046875 20.015625 46.78125 33.40625 
Q 43.953125 29.203125 39.59375 26.953125 
Q 35.25 24.703125 29.984375 24.703125 
Q 19.046875 24.703125 12.671875 31.3125 
Q 6.296875 37.9375 6.296875 49.421875 
Q 6.296875 60.640625 12.9375 67.421875 
Q 19.578125 74.21875 30.609375 74.21875 
Q 43.265625 74.21875 49.921875 64.515625 
Q 56.59375 54.828125 56.59375 36.375 
Q 56.59375 19.140625 48.40625 8.859375 
Q 40.234375 -1.421875 26.421875 -1.421875 
Q 22.703125 -1.421875 18.890625 -0.6875 
Q 15.09375 0.046875 10.984375 1.515625 
z
M 30.609375 32.421875 
Q 37.25 32.421875 41.125 36.953125 
Q 45.015625 41.5 45.015625 49.421875 
Q 45.015625 57.28125 41.125 61.84375 
Q 37.25 66.40625 30.609375 66.40625 
Q 23.96875 66.40625 20.09375 61.84375 
Q 16.21875 57.28125 16.21875 49.421875 
Q 16.21875 41.5 20.09375 36.953125 
Q 23.96875 32.421875 30.609375 32.421875 
z
" id="DejaVuSans-39"/>
     <path d="M 33.015625 40.375 
Q 26.375 40.375 22.484375 35.828125 
Q 18.609375 31.296875 18.609375 23.390625 
Q 18.609375 15.53125 22.484375 10.953125 
Q 26.375 6.390625 33.015625 6.390625 
Q 39.65625 6.390625 43.53125 10.953125 
Q 47.40625 15.53125 47.40625 23.390625 
Q 47.40625 31.296875 43.53125 35.828125 
Q 39.65625 40.375 33.015625 40.375 
z
M 52.59375 71.296875 
L 52.59375 62.3125 
Q 48.875 64.0625 45.09375 64.984375 
Q 41.3125 65.921875 37.59375 65.921875 
Q 27.828125 65.921875 22.671875 59.328125 
Q 17.53125 52.734375 16.796875 39.40625 
Q 19.671875 43.65625 24.015625 45.921875 
Q 28.375 48.1875 33.59375 48.1875 
Q 44.578125 48.1875 50.953125 41.515625 
Q 57.328125 34.859375 57.328125 23.390625 
Q 57.328125 12.15625 50.6875 5.359375 
Q 44.046875 -1.421875 33.015625 -1.421875 
Q 20.359375 -1.421875 13.671875 8.265625 
Q 6.984375 17.96875 6.984375 36.375 
Q 6.984375 53.65625 15.1875 63.9375 
Q 23.390625 74.21875 37.203125 74.21875 
Q 40.921875 74.21875 44.703125 73.484375 
Q 48.484375 72.75 52.59375 71.296875 
z
" id="DejaVuSans-36"/>
     <path d="M 12.40625 8.296875 
L 28.515625 8.296875 
L 28.515625 63.921875 
L 10.984375 60.40625 
L 10.984375 69.390625 
L 28.421875 72.90625 
L 38.28125 72.90625 
L 38.28125 8.296875 
L 54.390625 8.296875 
L 54.390625 0 
L 12.40625 0 
z
" id="DejaVuSans-31"/>
     <path d="M 11.71875 12.40625 
L 22.015625 12.40625 
L 22.015625 4 
L 14.015625 -11.625 
L 7.71875 -11.625 
L 11.71875 4 
z
" id="DejaVuSans-2c"/>
     <path d="M 16.890625 72.90625 
L 62.984375 72.90625 
L 61.375 64.59375 
L 25.09375 64.59375 
L 20.90625 43.015625 
L 55.71875 43.015625 
L 54.109375 34.71875 
L 19.28125 34.71875 
L 14.203125 8.296875 
L 51.3125 8.296875 
L 49.703125 0 
L 2.6875 0 
z
" id="DejaVuSans-Oblique-45"/>
     <path d="M 16.890625 72.90625 
L 30.171875 72.90625 
L 50.296875 10.40625 
L 62.5 72.90625 
L 72.125 72.90625 
L 57.90625 0 
L 44.578125 0 
L 24.515625 62.890625 
L 12.3125 0 
L 2.6875 0 
z
" id="DejaVuSans-Oblique-4e"/>
     <path d="M 10.59375 45.40625 
L 73.1875 45.40625 
L 73.1875 37.203125 
L 10.59375 37.203125 
z
M 10.59375 25.484375 
L 73.1875 25.484375 
L 73.1875 17.1875 
L 10.59375 17.1875 
z
" id="DejaVuSans-3d"/>
     <path d="M 4.890625 31.390625 
L 31.203125 31.390625 
L 31.203125 23.390625 
L 4.890625 23.390625 
z
" id="DejaVuSans-2d"/>
     <path d="M 8.203125 72.90625 
L 55.078125 72.90625 
L 55.078125 68.703125 
L 28.609375 0 
L 18.3125 0 
L 43.21875 64.59375 
L 8.203125 64.59375 
z
" id="DejaVuSans-37"/>
     <path d="M 10.6875 12.40625 
L 21 12.40625 
L 21 0 
L 10.6875 0 
z
" id="DejaVuSans-2e"/>
     <path d="M 40.578125 39.3125 
Q 47.65625 37.796875 51.625 33 
Q 55.609375 28.21875 55.609375 21.1875 
Q 55.609375 10.40625 48.1875 4.484375 
Q 40.765625 -1.421875 27.09375 -1.421875 
Q 22.515625 -1.421875 17.65625 -0.515625 
Q 12.796875 0.390625 7.625 2.203125 
L 7.625 11.71875 
Q 11.71875 9.328125 16.59375 8.109375 
Q 21.484375 6.890625 26.8125 6.890625 
Q 36.078125 6.890625 40.9375 10.546875 
Q 45.796875 14.203125 45.796875 21.1875 
Q 45.796875 27.640625 41.28125 31.265625 
Q 36.765625 34.90625 28.71875 34.90625 
L 20.21875 34.90625 
L 20.21875 43.015625 
L 29.109375 43.015625 
Q 36.375 43.015625 40.234375 45.921875 
Q 44.09375 48.828125 44.09375 54.296875 
Q 44.09375 59.90625 40.109375 62.90625 
Q 36.140625 65.921875 28.71875 65.921875 
Q 24.65625 65.921875 20.015625 65.03125 
Q 15.375 64.15625 9.8125 62.3125 
L 9.8125 71.09375 
Q 15.4375 72.65625 20.34375 73.4375 
Q 25.25 74.21875 29.59375 74.21875 
Q 40.828125 74.21875 47.359375 69.109375 
Q 53.90625 64.015625 53.90625 55.328125 
Q 53.90625 49.265625 50.4375 45.09375 
Q 46.96875 40.921875 40.578125 39.3125 
z
" id="DejaVuSans-33"/>
     <path d="M 28.609375 0 
L 0.78125 72.90625 
L 11.078125 72.90625 
L 34.1875 11.53125 
L 57.328125 72.90625 
L 67.578125 72.90625 
L 39.796875 0 
z
" id="DejaVuSans-56"/>
     <path d="M 34.1875 63.1875 
L 14.15625 8.203125 
L 54.25 8.203125 
z
M 0.78125 0 
L 28.609375 72.90625 
L 39.796875 72.90625 
L 67.578125 0 
z
" id="DejaVuSans-394"/>
     <path d="M 9.8125 72.90625 
L 55.90625 72.90625 
L 55.90625 64.59375 
L 19.671875 64.59375 
L 19.671875 43.015625 
L 54.390625 43.015625 
L 54.390625 34.71875 
L 19.671875 34.71875 
L 19.671875 8.296875 
L 56.78125 8.296875 
L 56.78125 0 
L 9.8125 0 
z
" id="DejaVuSans-45"/>
     <path d="M 31.78125 66.40625 
Q 24.171875 66.40625 20.328125 58.90625 
Q 16.5 51.421875 16.5 36.375 
Q 16.5 21.390625 20.328125 13.890625 
Q 24.171875 6.390625 31.78125 6.390625 
Q 39.453125 6.390625 43.28125 13.890625 
Q 47.125 21.390625 47.125 36.375 
Q 47.125 51.421875 43.28125 58.90625 
Q 39.453125 66.40625 31.78125 66.40625 
z
M 31.78125 74.21875 
Q 44.046875 74.21875 50.515625 64.515625 
Q 56.984375 54.828125 56.984375 36.375 
Q 56.984375 17.96875 50.515625 8.265625 
Q 44.046875 -1.421875 31.78125 -1.421875 
Q 19.53125 -1.421875 13.0625 8.265625 
Q 6.59375 17.96875 6.59375 36.375 
Q 6.59375 54.828125 13.0625 64.515625 
Q 19.53125 74.21875 31.78125 74.21875 
z
" id="DejaVuSans-30"/>
     <path d="M 37.796875 64.3125 
L 12.890625 25.390625 
L 37.796875 25.390625 
z
M 35.203125 72.90625 
L 47.609375 72.90625 
L 47.609375 25.390625 
L 58.015625 25.390625 
L 58.015625 17.1875 
L 47.609375 17.1875 
L 47.609375 0 
L 37.796875 0 
L 37.796875 17.1875 
L 4.890625 17.1875 
L 4.890625 26.703125 
z
" id="DejaVuSans-34"/>
    </defs>
    <g transform="translate(65.388 35.472)scale(0.12 -0.12)">
     <use transform="translate(0 0.78125)" xlink:href="#DejaVuSans-53"/>
     <use transform="translate(63.476562 0.78125)" xlink:href="#DejaVuSans-74"/>
     <use transform="translate(102.685547 0.78125)" xlink:href="#DejaVuSans-72"/>
     <use transform="translate(143.798828 0.78125)" xlink:href="#DejaVuSans-75"/>
     <use transform="translate(207.177734 0.78125)" xlink:href="#DejaVuSans-63"/>
     <use transform="translate(262.158203 0.78125)" xlink:href="#DejaVuSans-74"/>
     <use transform="translate(301.367188 0.78125)" xlink:href="#DejaVuSans-75"/>
     <use transform="translate(364.746094 0.78125)" xlink:href="#DejaVuSans-72"/>
     <use transform="translate(405.859375 0.78125)" xlink:href="#DejaVuSans-65"/>
     <use transform="translate(467.382812 0.78125)" xlink:href="#DejaVuSans-20"/>
     <use transform="translate(499.169922 0.78125)" xlink:href="#DejaVuSans-23"/>
     <use transform="translate(582.958984 0.78125)" xlink:href="#DejaVuSans-35"/>
     <use transform="translate(646.503906 0.78125)" xlink:href="#DejaVuSans-39"/>
     <use transform="translate(710.126953 0.78125)" xlink:href="#DejaVuSans-36"/>
     <use transform="translate(773.75 0.78125)" xlink:href="#DejaVuSans-31"/>
     <use transform="translate(837.373047 0.78125)" xlink:href="#DejaVuSans-2c"/>
     <use transform="translate(869.160156 0.78125)" xlink:href="#DejaVuSans-20"/>
     <use transform="translate(900.947266 0.78125)" xlink:href="#DejaVuSans-Oblique-45"/>
     <use transform="translate(964.130859 -15.625)scale(0.7)" xlink:href="#DejaVuSans-Oblique-4e"/>
     <use transform="translate(1019.228516 0.78125)" xlink:href="#DejaVuSans-3d"/>
     <use transform="translate(1103.017578 0.78125)" xlink:href="#DejaVuSans-2d"/>
     <use transform="translate(1139.101562 0.78125)" xlink:href="#DejaVuSans-31"/>
     <use transform="translate(1202.724609 0.78125)" xlink:href="#DejaVuSans-37"/>
     <use transform="translate(1266.347656 0.78125)" xlink:href="#DejaVuSans-36"/>
     <use transform="translate(1329.970703 0.78125)" xlink:href="#DejaVuSans-2e"/>
     <use transform="translate(1361.757812 0.78125)" xlink:href="#DejaVuSans-39"/>
     <use transform="translate(1425.380859 0.78125)" xlink:href="#DejaVuSans-33"/>
     <use transform="translate(1489.003906 0.78125)" xlink:href="#DejaVuSans-65"/>
     <use transform="translate(1550.527344 0.78125)" xlink:href="#DejaVuSans-56"/>
     <use transform="translate(1618.935547 0.78125)" xlink:href="#DejaVuSans-2c"/>
     <use transform="translate(1650.722656 0.78125)" xlink:href="#DejaVuSans-20"/>
     <use transform="translate(1682.509766 0.78125)" xlink:href="#DejaVuSans-394"/>
     <use transform="translate(1750.917969 0.78125)" xlink:href="#DejaVuSans-45"/>
     <use transform="translate(1814.101562 0.78125)" xlink:href="#DejaVuSans-3d"/>
     <use transform="translate(1897.890625 0.78125)" xlink:href="#DejaVuSans-30"/>
     <use transform="translate(1961.513672 0.78125)" xlink:href="#DejaVuSans-2e"/>
     <use transform="translate(1993.300781 0.78125)" xlink:href="#DejaVuSans-34"/>
     <use transform="translate(2056.923828 0.78125)" xlink:href="#DejaVuSans-34"/>
     <use transform="translate(2120.546875 0.78125)" xlink:href="#DejaVuSans-65"/>
     <use transform="translate(2182.070312 0.78125)" xlink:href="#DejaVuSans-56"/>
    </g>
   </g>
  </g>
  <g id="axes_2">
   <g id="patch_2">
    <path clip-path="url(#p4d67c79604)" d="M 361.152 307.584 
L 361.152 306.5445 
L 361.152 42.5115 
L 361.152 41.472 
L 374.4576 41.472 
L 374.4576 42.5115 
L 374.4576 306.5445 
L 374.4576 307.584 
z
" style="fill:#ffffff;stroke:#ffffff;stroke-linejoin:miter;stroke-width:0.01;"/>
   </g>
   <image height="265.68" id="imageda77f5a795" transform="scale(1 -1)translate(0 -265.68)" width="12.96" x="361.44" xlink:href="data:image/png;base64,
iVBORw0KGgoAAAANSUhEUgAAABIAAAFxCAYAAAB+2fgXAAAABHNCSVQICAgIfAhkiAAAAeVJREFUeJztncmNw0AQA2ckheYQNv9QLIfQ8ygsCgQ7AEI8+jAs2Puz/94F1LP2ReCsZ18bAWIeZ5XaGRBE7VnbptG+KI101FYyNSiQG2oRITXKNaX9uclOdi2XWjftVE32CZCO2ou5Bj1TcCBr/1zB9ge7Fq0Rg2NM9pvbtG+ua1QgsRYhDy0ISEiNc40BEibbSI0Coj5CBGtkpFbXJiAjNZlrwhuSOv2M1DjXbEdEciBt1JSDDQKKpmZr2rr2j0DBGpXaWEJq3bQzEPIS26r9J+Wzv9Tm8o3aajRXqc3VUXsApKNWjeZq0x4ABVNbm7lrszVigDqP5vIl2+eaT2yfRkL7g+dRcNPqjohkjaCvRVBq0H2U3LQrOJCx9kdTg4B8oxZzzTdqdYHEngjUCAPyUctN9sVRq2sTECW2UKNLd2jVtRmo1A6AhMmWaSRcR8nUdIHUuVb75zJS218EyEitro1At69pIdeSk30Lkw0FktNImGyZRhy1O5galmxd03LUsHWk06jUZiCq+5Wb1kZNN4+wJxJuWt8RAW5am2sYNZ9rYCBzZ3buPKJ2P5Yj4Toy3keyIyJbIxs1rml1byCA84gpch5RQNB7Q0qNMGq2Hy4BXdNR41yz/cEEJfZzUz96r9PoB0okjeQ8y9TkAAAAAElFTkSuQmCC" y="-41.76"/>
   <g id="matplotlib.axis_1"/>
   <g id="matplotlib.axis_2">
    <g id="ytick_1">
     <g id="line2d_1">
      <defs>
       <path d="M 0 0 
L 3.5 0 
" id="m589a4b17e0" style="stroke:#000000;stroke-width:0.8;"/>
      </defs>
      <g>
       <use style="stroke:#000000;stroke-width:0.8;" x="374.4576" xlink:href="#m589a4b17e0" y="304.041265"/>
      </g>
     </g>
     <g id="text_2">
      <!-- −9.0 -->
      <defs>
       <path d="M 10.59375 35.5 
L 73.1875 35.5 
L 73.1875 27.203125 
L 10.59375 27.203125 
z
" id="DejaVuSans-2212"/>
      </defs>
      <g transform="translate(381.4576 307.840483)scale(0.1 -0.1)">
       <use xlink:href="#DejaVuSans-2212"/>
       <use x="83.789062" xlink:href="#DejaVuSans-39"/>
       <use x="147.412109" xlink:href="#DejaVuSans-2e"/>
       <use x="179.199219" xlink:href="#DejaVuSans-30"/>
      </g>
     </g>
    </g>
    <g id="ytick_2">
     <g id="line2d_2">
      <g>
       <use style="stroke:#000000;stroke-width:0.8;" x="374.4576" xlink:href="#m589a4b17e0" y="272.833669"/>
      </g>
     </g>
     <g id="text_3">
      <!-- −8.5 -->
      <defs>
       <path d="M 31.78125 34.625 
Q 24.75 34.625 20.71875 30.859375 
Q 16.703125 27.09375 16.703125 20.515625 
Q 16.703125 13.921875 20.71875 10.15625 
Q 24.75 6.390625 31.78125 6.390625 
Q 38.8125 6.390625 42.859375 10.171875 
Q 46.921875 13.96875 46.921875 20.515625 
Q 46.921875 27.09375 42.890625 30.859375 
Q 38.875 34.625 31.78125 34.625 
z
M 21.921875 38.8125 
Q 15.578125 40.375 12.03125 44.71875 
Q 8.5 49.078125 8.5 55.328125 
Q 8.5 64.0625 14.71875 69.140625 
Q 20.953125 74.21875 31.78125 74.21875 
Q 42.671875 74.21875 48.875 69.140625 
Q 55.078125 64.0625 55.078125 55.328125 
Q 55.078125 49.078125 51.53125 44.71875 
Q 48 40.375 41.703125 38.8125 
Q 48.828125 37.15625 52.796875 32.3125 
Q 56.78125 27.484375 56.78125 20.515625 
Q 56.78125 9.90625 50.3125 4.234375 
Q 43.84375 -1.421875 31.78125 -1.421875 
Q 19.734375 -1.421875 13.25 4.234375 
Q 6.78125 9.90625 6.78125 20.515625 
Q 6.78125 27.484375 10.78125 32.3125 
Q 14.796875 37.15625 21.921875 38.8125 
z
M 18.3125 54.390625 
Q 18.3125 48.734375 21.84375 45.5625 
Q 25.390625 42.390625 31.78125 42.390625 
Q 38.140625 42.390625 41.71875 45.5625 
Q 45.3125 48.734375 45.3125 54.390625 
Q 45.3125 60.0625 41.71875 63.234375 
Q 38.140625 66.40625 31.78125 66.40625 
Q 25.390625 66.40625 21.84375 63.234375 
Q 18.3125 60.0625 18.3125 54.390625 
z
" id="DejaVuSans-38"/>
      </defs>
      <g transform="translate(381.4576 276.632888)scale(0.1 -0.1)">
       <use xlink:href="#DejaVuSans-2212"/>
       <use x="83.789062" xlink:href="#DejaVuSans-38"/>
       <use x="147.412109" xlink:href="#DejaVuSans-2e"/>
       <use x="179.199219" xlink:href="#DejaVuSans-35"/>
      </g>
     </g>
    </g>
    <g id="ytick_3">
     <g id="line2d_3">
      <g>
       <use style="stroke:#000000;stroke-width:0.8;" x="374.4576" xlink:href="#m589a4b17e0" y="241.626074"/>
      </g>
     </g>
     <g id="text_4">
      <!-- −8.0 -->
      <g transform="translate(381.4576 245.425293)scale(0.1 -0.1)">
       <use xlink:href="#DejaVuSans-2212"/>
       <use x="83.789062" xlink:href="#DejaVuSans-38"/>
       <use x="147.412109" xlink:href="#DejaVuSans-2e"/>
       <use x="179.199219" xlink:href="#DejaVuSans-30"/>
      </g>
     </g>
    </g>
    <g id="ytick_4">
     <g id="line2d_4">
      <g>
       <use style="stroke:#000000;stroke-width:0.8;" x="374.4576" xlink:href="#m589a4b17e0" y="210.418479"/>
      </g>
     </g>
     <g id="text_5">
      <!-- −7.5 -->
      <g transform="translate(381.4576 214.217697)scale(0.1 -0.1)">
       <use xlink:href="#DejaVuSans-2212"/>
       <use x="83.789062" xlink:href="#DejaVuSans-37"/>
       <use x="147.412109" xlink:href="#DejaVuSans-2e"/>
       <use x="179.199219" xlink:href="#DejaVuSans-35"/>
      </g>
     </g>
    </g>
    <g id="ytick_5">
     <g id="line2d_5">
      <g>
       <use style="stroke:#000000;stroke-width:0.8;" x="374.4576" xlink:href="#m589a4b17e0" y="179.210883"/>
      </g>
     </g>
     <g id="text_6">
      <!-- −7.0 -->
      <g transform="translate(381.4576 183.010102)scale(0.1 -0.1)">
       <use xlink:href="#DejaVuSans-2212"/>
       <use x="83.789062" xlink:href="#DejaVuSans-37"/>
       <use x="147.412109" xlink:href="#DejaVuSans-2e"/>
       <use x="179.199219" xlink:href="#DejaVuSans-30"/>
      </g>
     </g>
    </g>
    <g id="ytick_6">
     <g id="line2d_6">
      <g>
       <use style="stroke:#000000;stroke-width:0.8;" x="374.4576" xlink:href="#m589a4b17e0" y="148.003288"/>
      </g>
     </g>
     <g id="text_7">
      <!-- −6.5 -->
      <g transform="translate(381.4576 151.802507)scale(0.1 -0.1)">
       <use xlink:href="#DejaVuSans-2212"/>
       <use x="83.789062" xlink:href="#DejaVuSans-36"/>
       <use x="147.412109" xlink:href="#DejaVuSans-2e"/>
       <use x="179.199219" xlink:href="#DejaVuSans-35"/>
      </g>
     </g>
    </g>
    <g id="ytick_7">
     <g id="line2d_7">
      <g>
       <use style="stroke:#000000;stroke-width:0.8;" x="374.4576" xlink:href="#m589a4b17e0" y="116.795693"/>
      </g>
     </g>
     <g id="text_8">
      <!-- −6.0 -->
      <g transform="translate(381.4576 120.594911)scale(0.1 -0.1)">
       <use xlink:href="#DejaVuSans-2212"/>
       <use x="83.789062" xlink:href="#DejaVuSans-36"/>
       <use x="147.412109" xlink:href="#DejaVuSans-2e"/>
       <use x="179.199219" xlink:href="#DejaVuSans-30"/>
      </g>
     </g>
    </g>
    <g id="ytick_8">
     <g id="line2d_8">
      <g>
       <use style="stroke:#000000;stroke-width:0.8;" x="374.4576" xlink:href="#m589a4b17e0" y="85.588097"/>
      </g>
     </g>
     <g id="text_9">
      <!-- −5.5 -->
      <g transform="translate(381.4576 89.387316)scale(0.1 -0.1)">
       <use xlink:href="#DejaVuSans-2212"/>
       <use x="83.789062" xlink:href="#DejaVuSans-35"/>
       <use x="147.412109" xlink:href="#DejaVuSans-2e"/>
       <use x="179.199219" xlink:href="#DejaVuSans-35"/>
      </g>
     </g>
    </g>
    <g id="ytick_9">
     <g id="line2d_9">
      <g>
       <use style="stroke:#000000;stroke-width:0.8;" x="374.4576" xlink:href="#m589a4b17e0" y="54.380502"/>
      </g>
     </g>
     <g id="text_10">
      <!-- −5.0 -->
      <g transform="translate(381.4576 58.179721)scale(0.1 -0.1)">
       <use xlink:href="#DejaVuSans-2212"/>
       <use x="83.789062" xlink:href="#DejaVuSans-35"/>
       <use x="147.412109" xlink:href="#DejaVuSans-2e"/>
       <use x="179.199219" xlink:href="#DejaVuSans-30"/>
      </g>
     </g>
    </g>
    <g id="text_11">
     <!-- Energy [eV] -->
     <defs>
      <path d="M 54.890625 33.015625 
L 54.890625 0 
L 45.90625 0 
L 45.90625 32.71875 
Q 45.90625 40.484375 42.875 44.328125 
Q 39.84375 48.1875 33.796875 48.1875 
Q 26.515625 48.1875 22.3125 43.546875 
Q 18.109375 38.921875 18.109375 30.90625 
L 18.109375 0 
L 9.078125 0 
L 9.078125 54.6875 
L 18.109375 54.6875 
L 18.109375 46.1875 
Q 21.34375 51.125 25.703125 53.5625 
Q 30.078125 56 35.796875 56 
Q 45.21875 56 50.046875 50.171875 
Q 54.890625 44.34375 54.890625 33.015625 
z
" id="DejaVuSans-6e"/>
      <path d="M 45.40625 27.984375 
Q 45.40625 37.75 41.375 43.109375 
Q 37.359375 48.484375 30.078125 48.484375 
Q 22.859375 48.484375 18.828125 43.109375 
Q 14.796875 37.75 14.796875 27.984375 
Q 14.796875 18.265625 18.828125 12.890625 
Q 22.859375 7.515625 30.078125 7.515625 
Q 37.359375 7.515625 41.375 12.890625 
Q 45.40625 18.265625 45.40625 27.984375 
z
M 54.390625 6.78125 
Q 54.390625 -7.171875 48.1875 -13.984375 
Q 42 -20.796875 29.203125 -20.796875 
Q 24.46875 -20.796875 20.265625 -20.09375 
Q 16.0625 -19.390625 12.109375 -17.921875 
L 12.109375 -9.1875 
Q 16.0625 -11.328125 19.921875 -12.34375 
Q 23.78125 -13.375 27.78125 -13.375 
Q 36.625 -13.375 41.015625 -8.765625 
Q 45.40625 -4.15625 45.40625 5.171875 
L 45.40625 9.625 
Q 42.625 4.78125 38.28125 2.390625 
Q 33.9375 0 27.875 0 
Q 17.828125 0 11.671875 7.65625 
Q 5.515625 15.328125 5.515625 27.984375 
Q 5.515625 40.671875 11.671875 48.328125 
Q 17.828125 56 27.875 56 
Q 33.9375 56 38.28125 53.609375 
Q 42.625 51.21875 45.40625 46.390625 
L 45.40625 54.6875 
L 54.390625 54.6875 
z
" id="DejaVuSans-67"/>
      <path d="M 32.171875 -5.078125 
Q 28.375 -14.84375 24.75 -17.8125 
Q 21.140625 -20.796875 15.09375 -20.796875 
L 7.90625 -20.796875 
L 7.90625 -13.28125 
L 13.1875 -13.28125 
Q 16.890625 -13.28125 18.9375 -11.515625 
Q 21 -9.765625 23.484375 -3.21875 
L 25.09375 0.875 
L 2.984375 54.6875 
L 12.5 54.6875 
L 29.59375 11.921875 
L 46.6875 54.6875 
L 56.203125 54.6875 
z
" id="DejaVuSans-79"/>
      <path d="M 8.59375 75.984375 
L 29.296875 75.984375 
L 29.296875 69 
L 17.578125 69 
L 17.578125 -6.203125 
L 29.296875 -6.203125 
L 29.296875 -13.1875 
L 8.59375 -13.1875 
z
" id="DejaVuSans-5b"/>
      <path d="M 30.421875 75.984375 
L 30.421875 -13.1875 
L 9.71875 -13.1875 
L 9.71875 -6.203125 
L 21.390625 -6.203125 
L 21.390625 69 
L 9.71875 69 
L 9.71875 75.984375 
z
" id="DejaVuSans-5d"/>
     </defs>
     <g transform="translate(417.33885 204.108469)rotate(-90)scale(0.1 -0.1)">
      <use xlink:href="#DejaVuSans-45"/>
      <use x="63.183594" xlink:href="#DejaVuSans-6e"/>
      <use x="126.5625" xlink:href="#DejaVuSans-65"/>
      <use x="188.085938" xlink:href="#DejaVuSans-72"/>
      <use x="229.183594" xlink:href="#DejaVuSans-67"/>
      <use x="292.660156" xlink:href="#DejaVuSans-79"/>
      <use x="351.839844" xlink:href="#DejaVuSans-20"/>
      <use x="383.626953" xlink:href="#DejaVuSans-5b"/>
      <use x="422.640625" xlink:href="#DejaVuSans-65"/>
      <use x="484.164062" xlink:href="#DejaVuSans-56"/>
      <use x="552.572266" xlink:href="#DejaVuSans-5d"/>
     </g>
    </g>
   </g>
   <g id="patch_3">
    <path d="M 361.152 307.584 
L 361.152 306.5445 
L 361.152 42.5115 
L 361.152 41.472 
L 374.4576 41.472 
L 374.4576 42.5115 
L 374.4576 306.5445 
L 374.4576 307.584 
z
" style="fill:none;stroke:#000000;stroke-linejoin:miter;stroke-width:0.8;"/>
   </g>
  </g>
 </g>
 <defs>
  <clipPath id="pd54fb74af7">
   <rect height="266.112" width="285.696" x="57.6" y="41.472"/>
  </clipPath>
  <clipPath id="p4d67c79604">
   <rect height="266.112" width="13.3056" x="361.152" y="41.472"/>
  </clipPath>
 </defs>
</svg>
