<?xml version="1.0" encoding="utf-8" standalone="no"?>
<!DOCTYPE svg PUBLIC "-//W3C//DTD SVG 1.1//EN"
  "http://www.w3.org/Graphics/SVG/1.1/DTD/svg11.dtd">
<!-- Created with matplotlib (http://matplotlib.org/) -->
<svg height="345.6pt" version="1.1" viewBox="0 0 460.8 345.6" width="460.8pt" xmlns="http://www.w3.org/2000/svg" xmlns:xlink="http://www.w3.org/1999/xlink">
 <defs>
  <style type="text/css">
*{stroke-linecap:butt;stroke-linejoin:round;}
  </style>
 </defs>
 <g id="figure_1">
  <g id="patch_1">
   <path d="M 0 345.6 
L 460.8 345.6 
L 460.8 0 
L 0 0 
z
" style="fill:#ffffff;"/>
  </g>
  <g id="axes_1">
   <g id="CircleCollection_1">
    <path clip-path="url(#p5986d9e0ff)" d="M 71.109122 96.22198 
C 72.770436 96.22198 74.36393 95.561934 75.538656 94.387208 
C 76.713382 93.212482 77.373428 91.618988 77.373428 89.957674 
C 77.373428 88.296361 76.713382 86.702867 75.538656 85.528141 
C 74.36393 84.353415 72.770436 83.693368 71.109122 83.693368 
C 69.447809 83.693368 67.854315 84.353415 66.679589 85.528141 
C 65.504863 86.702867 64.844816 88.296361 64.844816 89.957674 
C 64.844816 91.618988 65.504863 93.212482 66.679589 94.387208 
C 67.854315 95.561934 69.447809 96.22198 71.109122 96.22198 
z
" style="fill:#5ec962;"/>
    <path clip-path="url(#p5986d9e0ff)" d="M 115.429384 272.388655 
C 116.998047 272.388655 118.502673 271.765418 119.611885 270.656206 
C 120.721098 269.546993 121.344334 268.042367 121.344334 266.473704 
C 121.344334 264.90504 120.721098 263.400414 119.611885 262.291202 
C 118.502673 261.181989 116.998047 260.558753 115.429384 260.558753 
C 113.86072 260.558753 112.356094 261.181989 111.246882 262.291202 
C 110.137669 263.400414 109.514433 264.90504 109.514433 266.473704 
C 109.514433 268.042367 110.137669 269.546993 111.246882 270.656206 
C 112.356094 271.765418 113.86072 272.388655 115.429384 272.388655 
z
" style="fill:#2f6b8e;"/>
    <path clip-path="url(#p5986d9e0ff)" d="M 213.630691 299.972412 
C 215.494686 299.972412 217.282588 299.231839 218.600632 297.913795 
C 219.918675 296.595752 220.659248 294.80785 220.659248 292.943855 
C 220.659248 291.07986 219.918675 289.291959 218.600632 287.973915 
C 217.282588 286.655871 215.494686 285.915298 213.630691 285.915298 
C 211.766696 285.915298 209.978795 286.655871 208.660751 287.973915 
C 207.342708 289.291959 206.602135 291.07986 206.602135 292.943855 
C 206.602135 294.80785 207.342708 296.595752 208.660751 297.913795 
C 209.978795 299.231839 211.766696 299.972412 213.630691 299.972412 
z
" style="fill:#56c667;"/>
    <path clip-path="url(#p5986d9e0ff)" d="M 243.894822 197.142431 
C 245.789114 197.142431 247.606076 196.38982 248.945543 195.050354 
C 250.28501 193.710887 251.03762 191.893925 251.03762 189.999633 
C 251.03762 188.105341 250.28501 186.288379 248.945543 184.948912 
C 247.606076 183.609445 245.789114 182.856835 243.894822 182.856835 
C 242.00053 182.856835 240.183568 183.609445 238.844101 184.948912 
C 237.504635 186.288379 236.752024 188.105341 236.752024 189.999633 
C 236.752024 191.893925 237.504635 193.710887 238.844101 195.050354 
C 240.183568 196.38982 242.00053 197.142431 243.894822 197.142431 
z
" style="fill:#20a386;"/>
    <path clip-path="url(#p5986d9e0ff)" d="M 123.548333 112.706114 
C 125.233701 112.706114 126.850267 112.03651 128.042001 110.844776 
C 129.233736 109.653041 129.903339 108.036475 129.903339 106.351108 
C 129.903339 104.665741 129.233736 103.049175 128.042001 101.85744 
C 126.850267 100.665705 125.233701 99.996102 123.548333 99.996102 
C 121.862966 99.996102 120.2464 100.665705 119.054665 101.85744 
C 117.862931 103.049175 117.193327 104.665741 117.193327 106.351108 
C 117.193327 108.036475 117.862931 109.653041 119.054665 110.844776 
C 120.2464 112.03651 121.862966 112.706114 123.548333 112.706114 
z
" style="fill:#2d708e;"/>
    <path clip-path="url(#p5986d9e0ff)" d="M 181.977665 294.255268 
C 183.766366 294.255268 185.482046 293.54461 186.746849 292.279808 
C 188.011651 291.015006 188.722309 289.299325 188.722309 287.510624 
C 188.722309 285.721924 188.011651 284.006243 186.746849 282.741441 
C 185.482046 281.476639 183.766366 280.76598 181.977665 280.76598 
C 180.188965 280.76598 178.473284 281.476639 177.208482 282.741441 
C 175.943679 284.006243 175.233021 285.721924 175.233021 287.510624 
C 175.233021 289.299325 175.943679 291.015006 177.208482 292.279808 
C 178.473284 293.54461 180.188965 294.255268 181.977665 294.255268 
z
" style="fill:#365d8d;"/>
    <path clip-path="url(#p5986d9e0ff)" d="M 260.415493 160.013507 
C 262.317483 160.013507 264.141829 159.257838 265.486739 157.912928 
C 266.831649 156.568017 267.587318 154.743672 267.587318 152.841682 
C 267.587318 150.939691 266.831649 149.115346 265.486739 147.770435 
C 264.141829 146.425525 262.317483 145.669856 260.415493 145.669856 
C 258.513503 145.669856 256.689157 146.425525 255.344247 147.770435 
C 253.999337 149.115346 253.243668 150.939691 253.243668 152.841682 
C 253.243668 154.743672 253.999337 156.568017 255.344247 157.912928 
C 256.689157 159.257838 258.513503 160.013507 260.415493 160.013507 
z
" style="fill:#20928c;"/>
    <path clip-path="url(#p5986d9e0ff)" d="M 155.894325 301.409447 
C 157.607477 301.409447 159.250692 300.728805 160.462073 299.517424 
C 161.673454 298.306044 162.354096 296.662828 162.354096 294.949677 
C 162.354096 293.236526 161.673454 291.593311 160.462073 290.38193 
C 159.250692 289.170549 157.607477 288.489907 155.894325 288.489907 
C 154.181174 288.489907 152.537959 289.170549 151.326578 290.38193 
C 150.115197 291.593311 149.434555 293.236526 149.434555 294.949677 
C 149.434555 296.662828 150.115197 298.306044 151.326578 299.517424 
C 152.537959 300.728805 154.181174 301.409447 155.894325 301.409447 
z
" style="fill:#2b758e;"/>
    <path clip-path="url(#p5986d9e0ff)" d="M 235.37117 60.923773 
C 237.171882 60.923773 238.899084 60.208342 240.17238 58.935047 
C 241.445675 57.661751 242.161106 55.934549 242.161106 54.133837 
C 242.161106 52.333125 241.445675 50.605923 240.17238 49.332627 
C 238.899084 48.059332 237.171882 47.343901 235.37117 47.343901 
C 233.570458 47.343901 231.843256 48.059332 230.56996 49.332627 
C 229.296665 50.605923 228.581234 52.333125 228.581234 54.133837 
C 228.581234 55.934549 229.296665 57.661751 230.56996 58.935047 
C 231.843256 60.208342 233.570458 60.923773 235.37117 60.923773 
z
" style="fill:#1f958b;"/>
    <path clip-path="url(#p5986d9e0ff)" d="M 207.084803 215.941885 
C 208.923942 215.941885 210.688003 215.211187 211.988471 213.910719 
C 213.288938 212.610251 214.019636 210.846191 214.019636 209.007052 
C 214.019636 207.167912 213.288938 205.403852 211.988471 204.103384 
C 210.688003 202.802916 208.923942 202.072218 207.084803 202.072218 
C 205.245663 202.072218 203.481603 202.802916 202.181135 204.103384 
C 200.880667 205.403852 200.149969 207.167912 200.149969 209.007052 
C 200.149969 210.846191 200.880667 212.610251 202.181135 213.910719 
C 203.481603 215.211187 205.245663 215.941885 207.084803 215.941885 
z
" style="fill:#440154;"/>
    <path clip-path="url(#p5986d9e0ff)" d="M 197.643445 70.709591 
C 199.393019 70.709591 201.071171 70.014477 202.308308 68.777341 
C 203.545444 67.540205 204.240557 65.862053 204.240557 64.112479 
C 204.240557 62.362904 203.545444 60.684752 202.308308 59.447616 
C 201.071171 58.21048 199.393019 57.515367 197.643445 57.515367 
C 195.89387 57.515367 194.215718 58.21048 192.978582 59.447616 
C 191.741446 60.684752 191.046333 62.362904 191.046333 64.112479 
C 191.046333 65.862053 191.741446 67.540205 192.978582 68.777341 
C 194.215718 70.014477 195.89387 70.709591 197.643445 70.709591 
z
" style="fill:#1f968b;"/>
    <path clip-path="url(#p5986d9e0ff)" d="M 91.841786 163.220391 
C 93.393165 163.220391 94.881212 162.604021 95.978203 161.50703 
C 97.075194 160.41004 97.691563 158.921992 97.691563 157.370613 
C 97.691563 155.819234 97.075194 154.331186 95.978203 153.234195 
C 94.881212 152.137205 93.393165 151.520835 91.841786 151.520835 
C 90.290407 151.520835 88.802359 152.137205 87.705368 153.234195 
C 86.608378 154.331186 85.992008 155.819234 85.992008 157.370613 
C 85.992008 158.921992 86.608378 160.41004 87.705368 161.50703 
C 88.802359 162.604021 90.290407 163.220391 91.841786 163.220391 
z
" style="fill:#2f6c8e;"/>
    <path clip-path="url(#p5986d9e0ff)" d="M 92.613613 131.25138 
C 94.227094 131.25138 95.774707 130.610338 96.91561 129.469435 
C 98.056513 128.328532 98.697556 126.780918 98.697556 125.167437 
C 98.697556 123.553957 98.056513 122.006343 96.91561 120.86544 
C 95.774707 119.724537 94.227094 119.083494 92.613613 119.083494 
C 91.000133 119.083494 89.452519 119.724537 88.311616 120.86544 
C 87.170713 122.006343 86.52967 123.553957 86.52967 125.167437 
C 86.52967 126.780918 87.170713 128.328532 88.311616 129.469435 
C 89.452519 130.610338 91.000133 131.25138 92.613613 131.25138 
z
" style="fill:#355e8d;"/>
    <path clip-path="url(#p5986d9e0ff)" d="M 329.68719 62.114302 
C 331.665199 62.114302 333.56246 61.32843 334.961124 59.929767 
C 336.359788 58.531103 337.145659 56.633842 337.145659 54.655832 
C 337.145659 52.677823 336.359788 50.780562 334.961124 49.381898 
C 333.56246 47.983234 331.665199 47.197363 329.68719 47.197363 
C 327.70918 47.197363 325.811919 47.983234 324.413255 49.381898 
C 323.014591 50.780562 322.22872 52.677823 322.22872 54.655832 
C 322.22872 56.633842 323.014591 58.531103 324.413255 59.929767 
C 325.811919 61.32843 327.70918 62.114302 329.68719 62.114302 
z
" style="fill:#fde725;"/>
    <path clip-path="url(#p5986d9e0ff)" d="M 185.998233 183.682326 
C 187.786888 183.682326 189.502525 182.971686 190.767295 181.706916 
C 192.032065 180.442146 192.742705 178.726509 192.742705 176.937854 
C 192.742705 175.149199 192.032065 173.433562 190.767295 172.168792 
C 189.502525 170.904022 187.786888 170.193382 185.998233 170.193382 
C 184.209578 170.193382 182.493941 170.904022 181.229171 172.168792 
C 179.964401 173.433562 179.253761 175.149199 179.253761 176.937854 
C 179.253761 178.726509 179.964401 180.442146 181.229171 181.706916 
C 182.493941 182.971686 184.209578 183.682326 185.998233 183.682326 
z
" style="fill:#65cb5e;"/>
    <path clip-path="url(#p5986d9e0ff)" d="M 199.365582 141.294979 
C 201.156977 141.294979 202.875241 140.583251 204.141948 139.316544 
C 205.408656 138.049836 206.120384 136.331572 206.120384 134.540177 
C 206.120384 132.748783 205.408656 131.030518 204.141948 129.763811 
C 202.875241 128.497104 201.156977 127.785376 199.365582 127.785376 
C 197.574188 127.785376 195.855923 128.497104 194.589216 129.763811 
C 193.322509 131.030518 192.610781 132.748783 192.610781 134.540177 
C 192.610781 136.331572 193.322509 138.049836 194.589216 139.316544 
C 195.855923 140.583251 197.574188 141.294979 199.365582 141.294979 
z
" style="fill:#453882;"/>
    <path clip-path="url(#p5986d9e0ff)" d="M 101.85429 241.303471 
C 103.370666 241.303471 104.82514 240.701008 105.897381 239.628768 
C 106.969621 238.556528 107.572084 237.102054 107.572084 235.585677 
C 107.572084 234.0693 106.969621 232.614826 105.897381 231.542586 
C 104.82514 230.470346 103.370666 229.867883 101.85429 229.867883 
C 100.337913 229.867883 98.883439 230.470346 97.811199 231.542586 
C 96.738958 232.614826 96.136495 234.0693 96.136495 235.585677 
C 96.136495 237.102054 96.738958 238.556528 97.811199 239.628768 
C 98.883439 240.701008 100.337913 241.303471 101.85429 241.303471 
z
" style="fill:#2f6c8e;"/>
    <path clip-path="url(#p5986d9e0ff)" d="M 241.996229 127.479258 
C 243.849328 127.479258 245.626779 126.743014 246.937118 125.432675 
C 248.247457 124.122336 248.983701 122.344885 248.983701 120.491786 
C 248.983701 118.638687 248.247457 116.861236 246.937118 115.550897 
C 245.626779 114.240558 243.849328 113.504314 241.996229 113.504314 
C 240.14313 113.504314 238.365679 114.240558 237.05534 115.550897 
C 235.745001 116.861236 235.008757 118.638687 235.008757 120.491786 
C 235.008757 122.344885 235.745001 124.122336 237.05534 125.432675 
C 238.365679 126.743014 240.14313 127.479258 241.996229 127.479258 
z
" style="fill:#453781;"/>
    <path clip-path="url(#p5986d9e0ff)" d="M 135.257075 297.211486 
C 136.892276 297.211486 138.460723 296.561814 139.616985 295.405552 
C 140.773247 294.24929 141.422919 292.680843 141.422919 291.045642 
C 141.422919 289.410441 140.773247 287.841993 139.616985 286.685731 
C 138.460723 285.529469 136.892276 284.879797 135.257075 284.879797 
C 133.621874 284.879797 132.053426 285.529469 130.897164 286.685731 
C 129.740903 287.841993 129.09123 289.410441 129.09123 291.045642 
C 129.09123 292.680843 129.740903 294.24929 130.897164 295.405552 
C 132.053426 296.561814 133.621874 297.211486 135.257075 297.211486 
z
" style="fill:#32648e;"/>
    <path clip-path="url(#p5986d9e0ff)" d="M 200.196827 259.978548 
C 202.031944 259.978548 203.792146 259.249449 205.08977 257.951825 
C 206.387394 256.654201 207.116494 254.893999 207.116494 253.058882 
C 207.116494 251.223765 206.387394 249.463562 205.08977 248.165939 
C 203.792146 246.868315 202.031944 246.139215 200.196827 246.139215 
C 198.36171 246.139215 196.601508 246.868315 195.303884 248.165939 
C 194.00626 249.463562 193.27716 251.223765 193.27716 253.058882 
C 193.27716 254.893999 194.00626 256.654201 195.303884 257.951825 
C 196.601508 259.249449 198.36171 259.978548 200.196827 259.978548 
z
" style="fill:#2e6e8e;"/>
    <path clip-path="url(#p5986d9e0ff)" d="M 300.144223 74.184816 
C 302.064401 74.184816 303.906192 73.421921 305.263963 72.06415 
C 306.621734 70.706379 307.384629 68.864588 307.384629 66.94441 
C 307.384629 65.024231 306.621734 63.18244 305.263963 61.824669 
C 303.906192 60.466898 302.064401 59.704003 300.144223 59.704003 
C 298.224045 59.704003 296.382253 60.466898 295.024483 61.824669 
C 293.666712 63.18244 292.903817 65.024231 292.903817 66.94441 
C 292.903817 68.864588 293.666712 70.706379 295.024483 72.06415 
C 296.382253 73.421921 298.224045 74.184816 300.144223 74.184816 
z
" style="fill:#228c8d;"/>
    <path clip-path="url(#p5986d9e0ff)" d="M 95.233361 200.575185 
C 96.759909 200.575185 98.224138 199.968682 99.303571 198.889249 
C 100.383003 197.809817 100.989507 196.345587 100.989507 194.81904 
C 100.989507 193.292492 100.383003 191.828262 99.303571 190.74883 
C 98.224138 189.669398 96.759909 189.062894 95.233361 189.062894 
C 93.706813 189.062894 92.242583 189.669398 91.163151 190.74883 
C 90.083719 191.828262 89.477215 193.292492 89.477215 194.81904 
C 89.477215 196.345587 90.083719 197.809817 91.163151 198.889249 
C 92.242583 199.968682 93.706813 200.575185 95.233361 200.575185 
z
" style="fill:#33638d;"/>
    <path clip-path="url(#p5986d9e0ff)" d="M 262.297928 84.651029 
C 264.159497 84.651029 265.945071 83.91142 267.261399 82.595092 
C 268.577727 81.278764 269.317336 79.49319 269.317336 77.631621 
C 269.317336 75.770053 268.577727 73.984478 267.261399 72.668151 
C 265.945071 71.351823 264.159497 70.612214 262.297928 70.612214 
C 260.436359 70.612214 258.650785 71.351823 257.334457 72.668151 
C 256.018129 73.984478 255.27852 75.770053 255.27852 77.631621 
C 255.27852 79.49319 256.018129 81.278764 257.334457 82.595092 
C 258.650785 83.91142 260.436359 84.651029 262.297928 84.651029 
z
" style="fill:#440256;"/>
    <path clip-path="url(#p5986d9e0ff)" d="M 172.688086 109.442136 
C 174.425798 109.442136 176.092571 108.751736 177.321318 107.522989 
C 178.550065 106.294241 179.240465 104.627468 179.240465 102.889757 
C 179.240465 101.152046 178.550065 99.485273 177.321318 98.256525 
C 176.092571 97.027778 174.425798 96.337378 172.688086 96.337378 
C 170.950375 96.337378 169.283602 97.027778 168.054854 98.256525 
C 166.826107 99.485273 166.135707 101.152046 166.135707 102.889757 
C 166.135707 104.627468 166.826107 106.294241 168.054854 107.522989 
C 169.283602 108.751736 170.950375 109.442136 172.688086 109.442136 
z
" style="fill:#471164;"/>
   </g>
   <g id="text_1">
    <!-- Structure #2609, $E_N$=-178.14eV, ΔE=-0.02eV -->
    <defs>
     <path d="M 53.515625 70.515625 
L 53.515625 60.890625 
Q 47.90625 63.578125 42.921875 64.890625 
Q 37.9375 66.21875 33.296875 66.21875 
Q 25.25 66.21875 20.875 63.09375 
Q 16.5 59.96875 16.5 54.203125 
Q 16.5 49.359375 19.40625 46.890625 
Q 22.3125 44.4375 30.421875 42.921875 
L 36.375 41.703125 
Q 47.40625 39.59375 52.65625 34.296875 
Q 57.90625 29 57.90625 20.125 
Q 57.90625 9.515625 50.796875 4.046875 
Q 43.703125 -1.421875 29.984375 -1.421875 
Q 24.8125 -1.421875 18.96875 -0.25 
Q 13.140625 0.921875 6.890625 3.21875 
L 6.890625 13.375 
Q 12.890625 10.015625 18.65625 8.296875 
Q 24.421875 6.59375 29.984375 6.59375 
Q 38.421875 6.59375 43.015625 9.90625 
Q 47.609375 13.234375 47.609375 19.390625 
Q 47.609375 24.75 44.3125 27.78125 
Q 41.015625 30.8125 33.5 32.328125 
L 27.484375 33.5 
Q 16.453125 35.6875 11.515625 40.375 
Q 6.59375 45.0625 6.59375 53.421875 
Q 6.59375 63.09375 13.40625 68.65625 
Q 20.21875 74.21875 32.171875 74.21875 
Q 37.3125 74.21875 42.625 73.28125 
Q 47.953125 72.359375 53.515625 70.515625 
z
" id="DejaVuSans-53"/>
     <path d="M 18.3125 70.21875 
L 18.3125 54.6875 
L 36.8125 54.6875 
L 36.8125 47.703125 
L 18.3125 47.703125 
L 18.3125 18.015625 
Q 18.3125 11.328125 20.140625 9.421875 
Q 21.96875 7.515625 27.59375 7.515625 
L 36.8125 7.515625 
L 36.8125 0 
L 27.59375 0 
Q 17.1875 0 13.234375 3.875 
Q 9.28125 7.765625 9.28125 18.015625 
L 9.28125 47.703125 
L 2.6875 47.703125 
L 2.6875 54.6875 
L 9.28125 54.6875 
L 9.28125 70.21875 
z
" id="DejaVuSans-74"/>
     <path d="M 41.109375 46.296875 
Q 39.59375 47.171875 37.8125 47.578125 
Q 36.03125 48 33.890625 48 
Q 26.265625 48 22.1875 43.046875 
Q 18.109375 38.09375 18.109375 28.8125 
L 18.109375 0 
L 9.078125 0 
L 9.078125 54.6875 
L 18.109375 54.6875 
L 18.109375 46.1875 
Q 20.953125 51.171875 25.484375 53.578125 
Q 30.03125 56 36.53125 56 
Q 37.453125 56 38.578125 55.875 
Q 39.703125 55.765625 41.0625 55.515625 
z
" id="DejaVuSans-72"/>
     <path d="M 8.5 21.578125 
L 8.5 54.6875 
L 17.484375 54.6875 
L 17.484375 21.921875 
Q 17.484375 14.15625 20.5 10.265625 
Q 23.53125 6.390625 29.59375 6.390625 
Q 36.859375 6.390625 41.078125 11.03125 
Q 45.3125 15.671875 45.3125 23.6875 
L 45.3125 54.6875 
L 54.296875 54.6875 
L 54.296875 0 
L 45.3125 0 
L 45.3125 8.40625 
Q 42.046875 3.421875 37.71875 1 
Q 33.40625 -1.421875 27.6875 -1.421875 
Q 18.265625 -1.421875 13.375 4.4375 
Q 8.5 10.296875 8.5 21.578125 
z
M 31.109375 56 
z
" id="DejaVuSans-75"/>
     <path d="M 48.78125 52.59375 
L 48.78125 44.1875 
Q 44.96875 46.296875 41.140625 47.34375 
Q 37.3125 48.390625 33.40625 48.390625 
Q 24.65625 48.390625 19.8125 42.84375 
Q 14.984375 37.3125 14.984375 27.296875 
Q 14.984375 17.28125 19.8125 11.734375 
Q 24.65625 6.203125 33.40625 6.203125 
Q 37.3125 6.203125 41.140625 7.25 
Q 44.96875 8.296875 48.78125 10.40625 
L 48.78125 2.09375 
Q 45.015625 0.34375 40.984375 -0.53125 
Q 36.96875 -1.421875 32.421875 -1.421875 
Q 20.0625 -1.421875 12.78125 6.34375 
Q 5.515625 14.109375 5.515625 27.296875 
Q 5.515625 40.671875 12.859375 48.328125 
Q 20.21875 56 33.015625 56 
Q 37.15625 56 41.109375 55.140625 
Q 45.0625 54.296875 48.78125 52.59375 
z
" id="DejaVuSans-63"/>
     <path d="M 56.203125 29.59375 
L 56.203125 25.203125 
L 14.890625 25.203125 
Q 15.484375 15.921875 20.484375 11.0625 
Q 25.484375 6.203125 34.421875 6.203125 
Q 39.59375 6.203125 44.453125 7.46875 
Q 49.3125 8.734375 54.109375 11.28125 
L 54.109375 2.78125 
Q 49.265625 0.734375 44.1875 -0.34375 
Q 39.109375 -1.421875 33.890625 -1.421875 
Q 20.796875 -1.421875 13.15625 6.1875 
Q 5.515625 13.8125 5.515625 26.8125 
Q 5.515625 40.234375 12.765625 48.109375 
Q 20.015625 56 32.328125 56 
Q 43.359375 56 49.78125 48.890625 
Q 56.203125 41.796875 56.203125 29.59375 
z
M 47.21875 32.234375 
Q 47.125 39.59375 43.09375 43.984375 
Q 39.0625 48.390625 32.421875 48.390625 
Q 24.90625 48.390625 20.390625 44.140625 
Q 15.875 39.890625 15.1875 32.171875 
z
" id="DejaVuSans-65"/>
     <path id="DejaVuSans-20"/>
     <path d="M 51.125 44 
L 36.921875 44 
L 32.8125 27.6875 
L 47.125 27.6875 
z
M 43.796875 71.78125 
L 38.71875 51.515625 
L 52.984375 51.515625 
L 58.109375 71.78125 
L 65.921875 71.78125 
L 60.890625 51.515625 
L 76.125 51.515625 
L 76.125 44 
L 58.984375 44 
L 54.984375 27.6875 
L 70.515625 27.6875 
L 70.515625 20.21875 
L 53.078125 20.21875 
L 48 0 
L 40.1875 0 
L 45.21875 20.21875 
L 30.90625 20.21875 
L 25.875 0 
L 18.015625 0 
L 23.09375 20.21875 
L 7.71875 20.21875 
L 7.71875 27.6875 
L 24.90625 27.6875 
L 29 44 
L 13.28125 44 
L 13.28125 51.515625 
L 30.90625 51.515625 
L 35.890625 71.78125 
z
" id="DejaVuSans-23"/>
     <path d="M 19.1875 8.296875 
L 53.609375 8.296875 
L 53.609375 0 
L 7.328125 0 
L 7.328125 8.296875 
Q 12.9375 14.109375 22.625 23.890625 
Q 32.328125 33.6875 34.8125 36.53125 
Q 39.546875 41.84375 41.421875 45.53125 
Q 43.3125 49.21875 43.3125 52.78125 
Q 43.3125 58.59375 39.234375 62.25 
Q 35.15625 65.921875 28.609375 65.921875 
Q 23.96875 65.921875 18.8125 64.3125 
Q 13.671875 62.703125 7.8125 59.421875 
L 7.8125 69.390625 
Q 13.765625 71.78125 18.9375 73 
Q 24.125 74.21875 28.421875 74.21875 
Q 39.75 74.21875 46.484375 68.546875 
Q 53.21875 62.890625 53.21875 53.421875 
Q 53.21875 48.921875 51.53125 44.890625 
Q 49.859375 40.875 45.40625 35.40625 
Q 44.1875 33.984375 37.640625 27.21875 
Q 31.109375 20.453125 19.1875 8.296875 
z
" id="DejaVuSans-32"/>
     <path d="M 33.015625 40.375 
Q 26.375 40.375 22.484375 35.828125 
Q 18.609375 31.296875 18.609375 23.390625 
Q 18.609375 15.53125 22.484375 10.953125 
Q 26.375 6.390625 33.015625 6.390625 
Q 39.65625 6.390625 43.53125 10.953125 
Q 47.40625 15.53125 47.40625 23.390625 
Q 47.40625 31.296875 43.53125 35.828125 
Q 39.65625 40.375 33.015625 40.375 
z
M 52.59375 71.296875 
L 52.59375 62.3125 
Q 48.875 64.0625 45.09375 64.984375 
Q 41.3125 65.921875 37.59375 65.921875 
Q 27.828125 65.921875 22.671875 59.328125 
Q 17.53125 52.734375 16.796875 39.40625 
Q 19.671875 43.65625 24.015625 45.921875 
Q 28.375 48.1875 33.59375 48.1875 
Q 44.578125 48.1875 50.953125 41.515625 
Q 57.328125 34.859375 57.328125 23.390625 
Q 57.328125 12.15625 50.6875 5.359375 
Q 44.046875 -1.421875 33.015625 -1.421875 
Q 20.359375 -1.421875 13.671875 8.265625 
Q 6.984375 17.96875 6.984375 36.375 
Q 6.984375 53.65625 15.1875 63.9375 
Q 23.390625 74.21875 37.203125 74.21875 
Q 40.921875 74.21875 44.703125 73.484375 
Q 48.484375 72.75 52.59375 71.296875 
z
" id="DejaVuSans-36"/>
     <path d="M 31.78125 66.40625 
Q 24.171875 66.40625 20.328125 58.90625 
Q 16.5 51.421875 16.5 36.375 
Q 16.5 21.390625 20.328125 13.890625 
Q 24.171875 6.390625 31.78125 6.390625 
Q 39.453125 6.390625 43.28125 13.890625 
Q 47.125 21.390625 47.125 36.375 
Q 47.125 51.421875 43.28125 58.90625 
Q 39.453125 66.40625 31.78125 66.40625 
z
M 31.78125 74.21875 
Q 44.046875 74.21875 50.515625 64.515625 
Q 56.984375 54.828125 56.984375 36.375 
Q 56.984375 17.96875 50.515625 8.265625 
Q 44.046875 -1.421875 31.78125 -1.421875 
Q 19.53125 -1.421875 13.0625 8.265625 
Q 6.59375 17.96875 6.59375 36.375 
Q 6.59375 54.828125 13.0625 64.515625 
Q 19.53125 74.21875 31.78125 74.21875 
z
" id="DejaVuSans-30"/>
     <path d="M 10.984375 1.515625 
L 10.984375 10.5 
Q 14.703125 8.734375 18.5 7.8125 
Q 22.3125 6.890625 25.984375 6.890625 
Q 35.75 6.890625 40.890625 13.453125 
Q 46.046875 20.015625 46.78125 33.40625 
Q 43.953125 29.203125 39.59375 26.953125 
Q 35.25 24.703125 29.984375 24.703125 
Q 19.046875 24.703125 12.671875 31.3125 
Q 6.296875 37.9375 6.296875 49.421875 
Q 6.296875 60.640625 12.9375 67.421875 
Q 19.578125 74.21875 30.609375 74.21875 
Q 43.265625 74.21875 49.921875 64.515625 
Q 56.59375 54.828125 56.59375 36.375 
Q 56.59375 19.140625 48.40625 8.859375 
Q 40.234375 -1.421875 26.421875 -1.421875 
Q 22.703125 -1.421875 18.890625 -0.6875 
Q 15.09375 0.046875 10.984375 1.515625 
z
M 30.609375 32.421875 
Q 37.25 32.421875 41.125 36.953125 
Q 45.015625 41.5 45.015625 49.421875 
Q 45.015625 57.28125 41.125 61.84375 
Q 37.25 66.40625 30.609375 66.40625 
Q 23.96875 66.40625 20.09375 61.84375 
Q 16.21875 57.28125 16.21875 49.421875 
Q 16.21875 41.5 20.09375 36.953125 
Q 23.96875 32.421875 30.609375 32.421875 
z
" id="DejaVuSans-39"/>
     <path d="M 11.71875 12.40625 
L 22.015625 12.40625 
L 22.015625 4 
L 14.015625 -11.625 
L 7.71875 -11.625 
L 11.71875 4 
z
" id="DejaVuSans-2c"/>
     <path d="M 16.890625 72.90625 
L 62.984375 72.90625 
L 61.375 64.59375 
L 25.09375 64.59375 
L 20.90625 43.015625 
L 55.71875 43.015625 
L 54.109375 34.71875 
L 19.28125 34.71875 
L 14.203125 8.296875 
L 51.3125 8.296875 
L 49.703125 0 
L 2.6875 0 
z
" id="DejaVuSans-Oblique-45"/>
     <path d="M 16.890625 72.90625 
L 30.171875 72.90625 
L 50.296875 10.40625 
L 62.5 72.90625 
L 72.125 72.90625 
L 57.90625 0 
L 44.578125 0 
L 24.515625 62.890625 
L 12.3125 0 
L 2.6875 0 
z
" id="DejaVuSans-Oblique-4e"/>
     <path d="M 10.59375 45.40625 
L 73.1875 45.40625 
L 73.1875 37.203125 
L 10.59375 37.203125 
z
M 10.59375 25.484375 
L 73.1875 25.484375 
L 73.1875 17.1875 
L 10.59375 17.1875 
z
" id="DejaVuSans-3d"/>
     <path d="M 4.890625 31.390625 
L 31.203125 31.390625 
L 31.203125 23.390625 
L 4.890625 23.390625 
z
" id="DejaVuSans-2d"/>
     <path d="M 12.40625 8.296875 
L 28.515625 8.296875 
L 28.515625 63.921875 
L 10.984375 60.40625 
L 10.984375 69.390625 
L 28.421875 72.90625 
L 38.28125 72.90625 
L 38.28125 8.296875 
L 54.390625 8.296875 
L 54.390625 0 
L 12.40625 0 
z
" id="DejaVuSans-31"/>
     <path d="M 8.203125 72.90625 
L 55.078125 72.90625 
L 55.078125 68.703125 
L 28.609375 0 
L 18.3125 0 
L 43.21875 64.59375 
L 8.203125 64.59375 
z
" id="DejaVuSans-37"/>
     <path d="M 31.78125 34.625 
Q 24.75 34.625 20.71875 30.859375 
Q 16.703125 27.09375 16.703125 20.515625 
Q 16.703125 13.921875 20.71875 10.15625 
Q 24.75 6.390625 31.78125 6.390625 
Q 38.8125 6.390625 42.859375 10.171875 
Q 46.921875 13.96875 46.921875 20.515625 
Q 46.921875 27.09375 42.890625 30.859375 
Q 38.875 34.625 31.78125 34.625 
z
M 21.921875 38.8125 
Q 15.578125 40.375 12.03125 44.71875 
Q 8.5 49.078125 8.5 55.328125 
Q 8.5 64.0625 14.71875 69.140625 
Q 20.953125 74.21875 31.78125 74.21875 
Q 42.671875 74.21875 48.875 69.140625 
Q 55.078125 64.0625 55.078125 55.328125 
Q 55.078125 49.078125 51.53125 44.71875 
Q 48 40.375 41.703125 38.8125 
Q 48.828125 37.15625 52.796875 32.3125 
Q 56.78125 27.484375 56.78125 20.515625 
Q 56.78125 9.90625 50.3125 4.234375 
Q 43.84375 -1.421875 31.78125 -1.421875 
Q 19.734375 -1.421875 13.25 4.234375 
Q 6.78125 9.90625 6.78125 20.515625 
Q 6.78125 27.484375 10.78125 32.3125 
Q 14.796875 37.15625 21.921875 38.8125 
z
M 18.3125 54.390625 
Q 18.3125 48.734375 21.84375 45.5625 
Q 25.390625 42.390625 31.78125 42.390625 
Q 38.140625 42.390625 41.71875 45.5625 
Q 45.3125 48.734375 45.3125 54.390625 
Q 45.3125 60.0625 41.71875 63.234375 
Q 38.140625 66.40625 31.78125 66.40625 
Q 25.390625 66.40625 21.84375 63.234375 
Q 18.3125 60.0625 18.3125 54.390625 
z
" id="DejaVuSans-38"/>
     <path d="M 10.6875 12.40625 
L 21 12.40625 
L 21 0 
L 10.6875 0 
z
" id="DejaVuSans-2e"/>
     <path d="M 37.796875 64.3125 
L 12.890625 25.390625 
L 37.796875 25.390625 
z
M 35.203125 72.90625 
L 47.609375 72.90625 
L 47.609375 25.390625 
L 58.015625 25.390625 
L 58.015625 17.1875 
L 47.609375 17.1875 
L 47.609375 0 
L 37.796875 0 
L 37.796875 17.1875 
L 4.890625 17.1875 
L 4.890625 26.703125 
z
" id="DejaVuSans-34"/>
     <path d="M 28.609375 0 
L 0.78125 72.90625 
L 11.078125 72.90625 
L 34.1875 11.53125 
L 57.328125 72.90625 
L 67.578125 72.90625 
L 39.796875 0 
z
" id="DejaVuSans-56"/>
     <path d="M 34.1875 63.1875 
L 14.15625 8.203125 
L 54.25 8.203125 
z
M 0.78125 0 
L 28.609375 72.90625 
L 39.796875 72.90625 
L 67.578125 0 
z
" id="DejaVuSans-394"/>
     <path d="M 9.8125 72.90625 
L 55.90625 72.90625 
L 55.90625 64.59375 
L 19.671875 64.59375 
L 19.671875 43.015625 
L 54.390625 43.015625 
L 54.390625 34.71875 
L 19.671875 34.71875 
L 19.671875 8.296875 
L 56.78125 8.296875 
L 56.78125 0 
L 9.8125 0 
z
" id="DejaVuSans-45"/>
    </defs>
    <g transform="translate(63.228 35.472)scale(0.12 -0.12)">
     <use transform="translate(0 0.78125)" xlink:href="#DejaVuSans-53"/>
     <use transform="translate(63.476562 0.78125)" xlink:href="#DejaVuSans-74"/>
     <use transform="translate(102.685547 0.78125)" xlink:href="#DejaVuSans-72"/>
     <use transform="translate(143.798828 0.78125)" xlink:href="#DejaVuSans-75"/>
     <use transform="translate(207.177734 0.78125)" xlink:href="#DejaVuSans-63"/>
     <use transform="translate(262.158203 0.78125)" xlink:href="#DejaVuSans-74"/>
     <use transform="translate(301.367188 0.78125)" xlink:href="#DejaVuSans-75"/>
     <use transform="translate(364.746094 0.78125)" xlink:href="#DejaVuSans-72"/>
     <use transform="translate(405.859375 0.78125)" xlink:href="#DejaVuSans-65"/>
     <use transform="translate(467.382812 0.78125)" xlink:href="#DejaVuSans-20"/>
     <use transform="translate(499.169922 0.78125)" xlink:href="#DejaVuSans-23"/>
     <use transform="translate(582.958984 0.78125)" xlink:href="#DejaVuSans-32"/>
     <use transform="translate(646.582031 0.78125)" xlink:href="#DejaVuSans-36"/>
     <use transform="translate(710.205078 0.78125)" xlink:href="#DejaVuSans-30"/>
     <use transform="translate(773.828125 0.78125)" xlink:href="#DejaVuSans-39"/>
     <use transform="translate(837.451172 0.78125)" xlink:href="#DejaVuSans-2c"/>
     <use transform="translate(869.238281 0.78125)" xlink:href="#DejaVuSans-20"/>
     <use transform="translate(901.025391 0.78125)" xlink:href="#DejaVuSans-Oblique-45"/>
     <use transform="translate(964.208984 -15.625)scale(0.7)" xlink:href="#DejaVuSans-Oblique-4e"/>
     <use transform="translate(1019.306641 0.78125)" xlink:href="#DejaVuSans-3d"/>
     <use transform="translate(1103.095703 0.78125)" xlink:href="#DejaVuSans-2d"/>
     <use transform="translate(1139.179688 0.78125)" xlink:href="#DejaVuSans-31"/>
     <use transform="translate(1202.802734 0.78125)" xlink:href="#DejaVuSans-37"/>
     <use transform="translate(1266.425781 0.78125)" xlink:href="#DejaVuSans-38"/>
     <use transform="translate(1330.048828 0.78125)" xlink:href="#DejaVuSans-2e"/>
     <use transform="translate(1361.835938 0.78125)" xlink:href="#DejaVuSans-31"/>
     <use transform="translate(1425.458984 0.78125)" xlink:href="#DejaVuSans-34"/>
     <use transform="translate(1489.082031 0.78125)" xlink:href="#DejaVuSans-65"/>
     <use transform="translate(1550.605469 0.78125)" xlink:href="#DejaVuSans-56"/>
     <use transform="translate(1619.013672 0.78125)" xlink:href="#DejaVuSans-2c"/>
     <use transform="translate(1650.800781 0.78125)" xlink:href="#DejaVuSans-20"/>
     <use transform="translate(1682.587891 0.78125)" xlink:href="#DejaVuSans-394"/>
     <use transform="translate(1750.996094 0.78125)" xlink:href="#DejaVuSans-45"/>
     <use transform="translate(1814.179688 0.78125)" xlink:href="#DejaVuSans-3d"/>
     <use transform="translate(1897.96875 0.78125)" xlink:href="#DejaVuSans-2d"/>
     <use transform="translate(1934.052734 0.78125)" xlink:href="#DejaVuSans-30"/>
     <use transform="translate(1997.675781 0.78125)" xlink:href="#DejaVuSans-2e"/>
     <use transform="translate(2029.462891 0.78125)" xlink:href="#DejaVuSans-30"/>
     <use transform="translate(2093.085938 0.78125)" xlink:href="#DejaVuSans-32"/>
     <use transform="translate(2156.708984 0.78125)" xlink:href="#DejaVuSans-65"/>
     <use transform="translate(2218.232422 0.78125)" xlink:href="#DejaVuSans-56"/>
    </g>
   </g>
  </g>
  <g id="axes_2">
   <g id="patch_2">
    <path clip-path="url(#pc698216490)" d="M 361.152 307.584 
L 361.152 306.5445 
L 361.152 42.5115 
L 361.152 41.472 
L 374.4576 41.472 
L 374.4576 42.5115 
L 374.4576 306.5445 
L 374.4576 307.584 
z
" style="fill:#ffffff;stroke:#ffffff;stroke-linejoin:miter;stroke-width:0.01;"/>
   </g>
   <image height="265.68" id="image694341ac55" transform="scale(1 -1)translate(0 -265.68)" width="12.96" x="361.44" xlink:href="data:image/png;base64,
iVBORw0KGgoAAAANSUhEUgAAABIAAAFxCAYAAAB+2fgXAAAABHNCSVQICAgIfAhkiAAAAeVJREFUeJztncmNw0AQA2ckheYQNv9QLIfQ8ygsCgQ7AEI8+jAs2Puz/94F1LP2ReCsZ18bAWIeZ5XaGRBE7VnbptG+KI101FYyNSiQG2oRITXKNaX9uclOdi2XWjftVE32CZCO2ou5Bj1TcCBr/1zB9ge7Fq0Rg2NM9pvbtG+ua1QgsRYhDy0ISEiNc40BEibbSI0Coj5CBGtkpFbXJiAjNZlrwhuSOv2M1DjXbEdEciBt1JSDDQKKpmZr2rr2j0DBGpXaWEJq3bQzEPIS26r9J+Wzv9Tm8o3aajRXqc3VUXsApKNWjeZq0x4ABVNbm7lrszVigDqP5vIl2+eaT2yfRkL7g+dRcNPqjohkjaCvRVBq0H2U3LQrOJCx9kdTg4B8oxZzzTdqdYHEngjUCAPyUctN9sVRq2sTECW2UKNLd2jVtRmo1A6AhMmWaSRcR8nUdIHUuVb75zJS218EyEitro1At69pIdeSk30Lkw0FktNImGyZRhy1O5galmxd03LUsHWk06jUZiCq+5Wb1kZNN4+wJxJuWt8RAW5am2sYNZ9rYCBzZ3buPKJ2P5Yj4Toy3keyIyJbIxs1rml1byCA84gpch5RQNB7Q0qNMGq2Hy4BXdNR41yz/cEEJfZzUz96r9PoB0okjeQ8y9TkAAAAAElFTkSuQmCC" y="-41.76"/>
   <g id="matplotlib.axis_1"/>
   <g id="matplotlib.axis_2">
    <g id="ytick_1">
     <g id="line2d_1">
      <defs>
       <path d="M 0 0 
L 3.5 0 
" id="mf5c2473e63" style="stroke:#000000;stroke-width:0.8;"/>
      </defs>
      <g>
       <use style="stroke:#000000;stroke-width:0.8;" x="374.4576" xlink:href="#mf5c2473e63" y="274.338524"/>
      </g>
     </g>
     <g id="text_2">
      <!-- −8.5 -->
      <defs>
       <path d="M 10.59375 35.5 
L 73.1875 35.5 
L 73.1875 27.203125 
L 10.59375 27.203125 
z
" id="DejaVuSans-2212"/>
       <path d="M 10.796875 72.90625 
L 49.515625 72.90625 
L 49.515625 64.59375 
L 19.828125 64.59375 
L 19.828125 46.734375 
Q 21.96875 47.46875 24.109375 47.828125 
Q 26.265625 48.1875 28.421875 48.1875 
Q 40.625 48.1875 47.75 41.5 
Q 54.890625 34.8125 54.890625 23.390625 
Q 54.890625 11.625 47.5625 5.09375 
Q 40.234375 -1.421875 26.90625 -1.421875 
Q 22.3125 -1.421875 17.546875 -0.640625 
Q 12.796875 0.140625 7.71875 1.703125 
L 7.71875 11.625 
Q 12.109375 9.234375 16.796875 8.0625 
Q 21.484375 6.890625 26.703125 6.890625 
Q 35.15625 6.890625 40.078125 11.328125 
Q 45.015625 15.765625 45.015625 23.390625 
Q 45.015625 31 40.078125 35.4375 
Q 35.15625 39.890625 26.703125 39.890625 
Q 22.75 39.890625 18.8125 39.015625 
Q 14.890625 38.140625 10.796875 36.28125 
z
" id="DejaVuSans-35"/>
      </defs>
      <g transform="translate(381.4576 278.137743)scale(0.1 -0.1)">
       <use xlink:href="#DejaVuSans-2212"/>
       <use x="83.789062" xlink:href="#DejaVuSans-38"/>
       <use x="147.412109" xlink:href="#DejaVuSans-2e"/>
       <use x="179.199219" xlink:href="#DejaVuSans-35"/>
      </g>
     </g>
    </g>
    <g id="ytick_2">
     <g id="line2d_2">
      <g>
       <use style="stroke:#000000;stroke-width:0.8;" x="374.4576" xlink:href="#mf5c2473e63" y="240.223929"/>
      </g>
     </g>
     <g id="text_3">
      <!-- −8.0 -->
      <g transform="translate(381.4576 244.023148)scale(0.1 -0.1)">
       <use xlink:href="#DejaVuSans-2212"/>
       <use x="83.789062" xlink:href="#DejaVuSans-38"/>
       <use x="147.412109" xlink:href="#DejaVuSans-2e"/>
       <use x="179.199219" xlink:href="#DejaVuSans-30"/>
      </g>
     </g>
    </g>
    <g id="ytick_3">
     <g id="line2d_3">
      <g>
       <use style="stroke:#000000;stroke-width:0.8;" x="374.4576" xlink:href="#mf5c2473e63" y="206.109335"/>
      </g>
     </g>
     <g id="text_4">
      <!-- −7.5 -->
      <g transform="translate(381.4576 209.908553)scale(0.1 -0.1)">
       <use xlink:href="#DejaVuSans-2212"/>
       <use x="83.789062" xlink:href="#DejaVuSans-37"/>
       <use x="147.412109" xlink:href="#DejaVuSans-2e"/>
       <use x="179.199219" xlink:href="#DejaVuSans-35"/>
      </g>
     </g>
    </g>
    <g id="ytick_4">
     <g id="line2d_4">
      <g>
       <use style="stroke:#000000;stroke-width:0.8;" x="374.4576" xlink:href="#mf5c2473e63" y="171.99474"/>
      </g>
     </g>
     <g id="text_5">
      <!-- −7.0 -->
      <g transform="translate(381.4576 175.793959)scale(0.1 -0.1)">
       <use xlink:href="#DejaVuSans-2212"/>
       <use x="83.789062" xlink:href="#DejaVuSans-37"/>
       <use x="147.412109" xlink:href="#DejaVuSans-2e"/>
       <use x="179.199219" xlink:href="#DejaVuSans-30"/>
      </g>
     </g>
    </g>
    <g id="ytick_5">
     <g id="line2d_5">
      <g>
       <use style="stroke:#000000;stroke-width:0.8;" x="374.4576" xlink:href="#mf5c2473e63" y="137.880145"/>
      </g>
     </g>
     <g id="text_6">
      <!-- −6.5 -->
      <g transform="translate(381.4576 141.679364)scale(0.1 -0.1)">
       <use xlink:href="#DejaVuSans-2212"/>
       <use x="83.789062" xlink:href="#DejaVuSans-36"/>
       <use x="147.412109" xlink:href="#DejaVuSans-2e"/>
       <use x="179.199219" xlink:href="#DejaVuSans-35"/>
      </g>
     </g>
    </g>
    <g id="ytick_6">
     <g id="line2d_6">
      <g>
       <use style="stroke:#000000;stroke-width:0.8;" x="374.4576" xlink:href="#mf5c2473e63" y="103.76555"/>
      </g>
     </g>
     <g id="text_7">
      <!-- −6.0 -->
      <g transform="translate(381.4576 107.564769)scale(0.1 -0.1)">
       <use xlink:href="#DejaVuSans-2212"/>
       <use x="83.789062" xlink:href="#DejaVuSans-36"/>
       <use x="147.412109" xlink:href="#DejaVuSans-2e"/>
       <use x="179.199219" xlink:href="#DejaVuSans-30"/>
      </g>
     </g>
    </g>
    <g id="ytick_7">
     <g id="line2d_7">
      <g>
       <use style="stroke:#000000;stroke-width:0.8;" x="374.4576" xlink:href="#mf5c2473e63" y="69.650955"/>
      </g>
     </g>
     <g id="text_8">
      <!-- −5.5 -->
      <g transform="translate(381.4576 73.450174)scale(0.1 -0.1)">
       <use xlink:href="#DejaVuSans-2212"/>
       <use x="83.789062" xlink:href="#DejaVuSans-35"/>
       <use x="147.412109" xlink:href="#DejaVuSans-2e"/>
       <use x="179.199219" xlink:href="#DejaVuSans-35"/>
      </g>
     </g>
    </g>
    <g id="text_9">
     <!-- Energy [eV] -->
     <defs>
      <path d="M 54.890625 33.015625 
L 54.890625 0 
L 45.90625 0 
L 45.90625 32.71875 
Q 45.90625 40.484375 42.875 44.328125 
Q 39.84375 48.1875 33.796875 48.1875 
Q 26.515625 48.1875 22.3125 43.546875 
Q 18.109375 38.921875 18.109375 30.90625 
L 18.109375 0 
L 9.078125 0 
L 9.078125 54.6875 
L 18.109375 54.6875 
L 18.109375 46.1875 
Q 21.34375 51.125 25.703125 53.5625 
Q 30.078125 56 35.796875 56 
Q 45.21875 56 50.046875 50.171875 
Q 54.890625 44.34375 54.890625 33.015625 
z
" id="DejaVuSans-6e"/>
      <path d="M 45.40625 27.984375 
Q 45.40625 37.75 41.375 43.109375 
Q 37.359375 48.484375 30.078125 48.484375 
Q 22.859375 48.484375 18.828125 43.109375 
Q 14.796875 37.75 14.796875 27.984375 
Q 14.796875 18.265625 18.828125 12.890625 
Q 22.859375 7.515625 30.078125 7.515625 
Q 37.359375 7.515625 41.375 12.890625 
Q 45.40625 18.265625 45.40625 27.984375 
z
M 54.390625 6.78125 
Q 54.390625 -7.171875 48.1875 -13.984375 
Q 42 -20.796875 29.203125 -20.796875 
Q 24.46875 -20.796875 20.265625 -20.09375 
Q 16.0625 -19.390625 12.109375 -17.921875 
L 12.109375 -9.1875 
Q 16.0625 -11.328125 19.921875 -12.34375 
Q 23.78125 -13.375 27.78125 -13.375 
Q 36.625 -13.375 41.015625 -8.765625 
Q 45.40625 -4.15625 45.40625 5.171875 
L 45.40625 9.625 
Q 42.625 4.78125 38.28125 2.390625 
Q 33.9375 0 27.875 0 
Q 17.828125 0 11.671875 7.65625 
Q 5.515625 15.328125 5.515625 27.984375 
Q 5.515625 40.671875 11.671875 48.328125 
Q 17.828125 56 27.875 56 
Q 33.9375 56 38.28125 53.609375 
Q 42.625 51.21875 45.40625 46.390625 
L 45.40625 54.6875 
L 54.390625 54.6875 
z
" id="DejaVuSans-67"/>
      <path d="M 32.171875 -5.078125 
Q 28.375 -14.84375 24.75 -17.8125 
Q 21.140625 -20.796875 15.09375 -20.796875 
L 7.90625 -20.796875 
L 7.90625 -13.28125 
L 13.1875 -13.28125 
Q 16.890625 -13.28125 18.9375 -11.515625 
Q 21 -9.765625 23.484375 -3.21875 
L 25.09375 0.875 
L 2.984375 54.6875 
L 12.5 54.6875 
L 29.59375 11.921875 
L 46.6875 54.6875 
L 56.203125 54.6875 
z
" id="DejaVuSans-79"/>
      <path d="M 8.59375 75.984375 
L 29.296875 75.984375 
L 29.296875 69 
L 17.578125 69 
L 17.578125 -6.203125 
L 29.296875 -6.203125 
L 29.296875 -13.1875 
L 8.59375 -13.1875 
z
" id="DejaVuSans-5b"/>
      <path d="M 30.421875 75.984375 
L 30.421875 -13.1875 
L 9.71875 -13.1875 
L 9.71875 -6.203125 
L 21.390625 -6.203125 
L 21.390625 69 
L 9.71875 69 
L 9.71875 75.984375 
z
" id="DejaVuSans-5d"/>
     </defs>
     <g transform="translate(417.33885 204.108469)rotate(-90)scale(0.1 -0.1)">
      <use xlink:href="#DejaVuSans-45"/>
      <use x="63.183594" xlink:href="#DejaVuSans-6e"/>
      <use x="126.5625" xlink:href="#DejaVuSans-65"/>
      <use x="188.085938" xlink:href="#DejaVuSans-72"/>
      <use x="229.183594" xlink:href="#DejaVuSans-67"/>
      <use x="292.660156" xlink:href="#DejaVuSans-79"/>
      <use x="351.839844" xlink:href="#DejaVuSans-20"/>
      <use x="383.626953" xlink:href="#DejaVuSans-5b"/>
      <use x="422.640625" xlink:href="#DejaVuSans-65"/>
      <use x="484.164062" xlink:href="#DejaVuSans-56"/>
      <use x="552.572266" xlink:href="#DejaVuSans-5d"/>
     </g>
    </g>
   </g>
   <g id="patch_3">
    <path d="M 361.152 307.584 
L 361.152 306.5445 
L 361.152 42.5115 
L 361.152 41.472 
L 374.4576 41.472 
L 374.4576 42.5115 
L 374.4576 306.5445 
L 374.4576 307.584 
z
" style="fill:none;stroke:#000000;stroke-linejoin:miter;stroke-width:0.8;"/>
   </g>
  </g>
 </g>
 <defs>
  <clipPath id="p5986d9e0ff">
   <rect height="266.112" width="285.696" x="57.6" y="41.472"/>
  </clipPath>
  <clipPath id="pc698216490">
   <rect height="266.112" width="13.3056" x="361.152" y="41.472"/>
  </clipPath>
 </defs>
</svg>
