<?xml version="1.0" encoding="utf-8" standalone="no"?>
<!DOCTYPE svg PUBLIC "-//W3C//DTD SVG 1.1//EN"
  "http://www.w3.org/Graphics/SVG/1.1/DTD/svg11.dtd">
<!-- Created with matplotlib (http://matplotlib.org/) -->
<svg height="345.6pt" version="1.1" viewBox="0 0 460.8 345.6" width="460.8pt" xmlns="http://www.w3.org/2000/svg" xmlns:xlink="http://www.w3.org/1999/xlink">
 <defs>
  <style type="text/css">
*{stroke-linecap:butt;stroke-linejoin:round;}
  </style>
 </defs>
 <g id="figure_1">
  <g id="patch_1">
   <path d="M 0 345.6 
L 460.8 345.6 
L 460.8 0 
L 0 0 
z
" style="fill:#ffffff;"/>
  </g>
  <g id="axes_1">
   <g id="CircleCollection_1">
    <path clip-path="url(#pbd862a9d85)" d="M 310.92197 201.856162 
C 312.691155 201.856162 314.388117 201.153258 315.63912 199.902255 
C 316.890123 198.651252 317.593028 196.95429 317.593028 195.185105 
C 317.593028 193.415919 316.890123 191.718957 315.63912 190.467954 
C 314.388117 189.216952 312.691155 188.514047 310.92197 188.514047 
C 309.152785 188.514047 307.455823 189.216952 306.20482 190.467954 
C 304.953817 191.718957 304.250912 193.415919 304.250912 195.185105 
C 304.250912 196.95429 304.953817 198.651252 306.20482 199.902255 
C 307.455823 201.153258 309.152785 201.856162 310.92197 201.856162 
z
" style="fill:#440154;"/>
    <path clip-path="url(#pbd862a9d85)" d="M 189.648459 83.502588 
C 191.392581 83.502588 193.065502 82.809641 194.298782 81.576361 
C 195.532062 80.343081 196.225009 78.67016 196.225009 76.926038 
C 196.225009 75.181917 195.532062 73.508995 194.298782 72.275715 
C 193.065502 71.042435 191.392581 70.349488 189.648459 70.349488 
C 187.904338 70.349488 186.231416 71.042435 184.998136 72.275715 
C 183.764856 73.508995 183.071909 75.181917 183.071909 76.926038 
C 183.071909 78.67016 183.764856 80.343081 184.998136 81.576361 
C 186.231416 82.809641 187.904338 83.502588 189.648459 83.502588 
z
" style="fill:#31688e;"/>
    <path clip-path="url(#pbd862a9d85)" d="M 316.50989 176.499249 
C 318.271055 176.499249 319.960324 175.799531 321.205656 174.554199 
C 322.450988 173.308867 323.150706 171.619598 323.150706 169.858433 
C 323.150706 168.097267 322.450988 166.407998 321.205656 165.162666 
C 319.960324 163.917335 318.271055 163.217616 316.50989 163.217616 
C 314.748724 163.217616 313.059455 163.917335 311.814123 165.162666 
C 310.568791 166.407998 309.869073 168.097267 309.869073 169.858433 
C 309.869073 171.619598 310.568791 173.308867 311.814123 174.554199 
C 313.059455 175.799531 314.748724 176.499249 316.50989 176.499249 
z
" style="fill:#20928c;"/>
    <path clip-path="url(#pbd862a9d85)" d="M 328.533048 246.402368 
C 330.28324 246.402368 331.961984 245.707009 333.199557 244.469437 
C 334.43713 243.231864 335.132488 241.55312 335.132488 239.802928 
C 335.132488 238.052736 334.43713 236.373991 333.199557 235.136419 
C 331.961984 233.898846 330.28324 233.203487 328.533048 233.203487 
C 326.782856 233.203487 325.104112 233.898846 323.866539 235.136419 
C 322.628966 236.373991 321.933608 238.052736 321.933608 239.802928 
C 321.933608 241.55312 322.628966 243.231864 323.866539 244.469437 
C 325.104112 245.707009 326.782856 246.402368 328.533048 246.402368 
z
" style="fill:#2d708e;"/>
    <path clip-path="url(#pbd862a9d85)" d="M 206.382732 268.920071 
C 208.169605 268.920071 209.883532 268.210139 211.147042 266.94663 
C 212.410551 265.68312 213.120483 263.969193 213.120483 262.18232 
C 213.120483 260.395448 212.410551 258.68152 211.147042 257.418011 
C 209.883532 256.154501 208.169605 255.444569 206.382732 255.444569 
C 204.595859 255.444569 202.881932 256.154501 201.618422 257.418011 
C 200.354913 258.68152 199.644981 260.395448 199.644981 262.18232 
C 199.644981 263.969193 200.354913 265.68312 201.618422 266.94663 
C 202.881932 268.210139 204.595859 268.920071 206.382732 268.920071 
z
" style="fill:#287d8e;"/>
    <path clip-path="url(#pbd862a9d85)" d="M 270.40928 116.314751 
C 272.156096 116.314751 273.831603 115.620734 275.066788 114.385548 
C 276.301974 113.150362 276.995992 111.474856 276.995992 109.728039 
C 276.995992 107.981223 276.301974 106.305716 275.066788 105.070531 
C 273.831603 103.835345 272.156096 103.141327 270.40928 103.141327 
C 268.662463 103.141327 266.986957 103.835345 265.751771 105.070531 
C 264.516585 106.305716 263.822568 107.981223 263.822568 109.728039 
C 263.822568 111.474856 264.516585 113.150362 265.751771 114.385548 
C 266.986957 115.620734 268.662463 116.314751 270.40928 116.314751 
z
" style="fill:#31678e;"/>
    <path clip-path="url(#pbd862a9d85)" d="M 307.630247 153.898989 
C 309.387527 153.898989 311.073071 153.200814 312.315656 151.958229 
C 313.558241 150.715644 314.256416 149.030101 314.256416 147.27282 
C 314.256416 145.51554 313.558241 143.829996 312.315656 142.587411 
C 311.073071 141.344826 309.387527 140.646651 307.630247 140.646651 
C 305.872966 140.646651 304.187423 141.344826 302.944838 142.587411 
C 301.702253 143.829996 301.004078 145.51554 301.004078 147.27282 
C 301.004078 149.030101 301.702253 150.715644 302.944838 151.958229 
C 304.187423 153.200814 305.872966 153.898989 307.630247 153.898989 
z
" style="fill:#32658e;"/>
    <path clip-path="url(#pbd862a9d85)" d="M 322.348392 270.866593 
C 324.092609 270.866593 325.765622 270.173608 326.998969 268.940261 
C 328.232316 267.706913 328.925301 266.0339 328.925301 264.289684 
C 328.925301 262.545467 328.232316 260.872454 326.998969 259.639107 
C 325.765622 258.405759 324.092609 257.712775 322.348392 257.712775 
C 320.604175 257.712775 318.931162 258.405759 317.697815 259.639107 
C 316.464468 260.872454 315.771483 262.545467 315.771483 264.289684 
C 315.771483 266.0339 316.464468 267.706913 317.697815 268.940261 
C 318.931162 270.173608 320.604175 270.866593 322.348392 270.866593 
z
" style="fill:#2c738e;"/>
    <path clip-path="url(#pbd862a9d85)" d="M 245.062776 102.858936 
C 246.807396 102.858936 248.480795 102.165791 249.714428 100.932158 
C 250.94806 99.698526 251.641205 98.025126 251.641205 96.280506 
C 251.641205 94.535887 250.94806 92.862487 249.714428 91.628855 
C 248.480795 90.395222 246.807396 89.702077 245.062776 89.702077 
C 243.318156 89.702077 241.644757 90.395222 240.411124 91.628855 
C 239.177492 92.862487 238.484347 94.535887 238.484347 96.280506 
C 238.484347 98.025126 239.177492 99.698526 240.411124 100.932158 
C 241.644757 102.165791 243.318156 102.858936 245.062776 102.858936 
z
" style="fill:#30698e;"/>
    <path clip-path="url(#pbd862a9d85)" d="M 301.92452 288.012632 
C 303.669558 288.012632 305.343358 287.319321 306.577286 286.085393 
C 307.811214 284.851465 308.504525 283.177665 308.504525 281.432627 
C 308.504525 279.68759 307.811214 278.01379 306.577286 276.779862 
C 305.343358 275.545934 303.669558 274.852623 301.92452 274.852623 
C 300.179482 274.852623 298.505682 275.545934 297.271754 276.779862 
C 296.037826 278.01379 295.344516 279.68759 295.344516 281.432627 
C 295.344516 283.177665 296.037826 284.851465 297.271754 286.085393 
C 298.505682 287.319321 300.179482 288.012632 301.92452 288.012632 
z
" style="fill:#2a768e;"/>
    <path clip-path="url(#pbd862a9d85)" d="M 70.896526 60.471255 
C 72.639881 60.471255 74.312068 59.778613 75.544806 58.545874 
C 76.777544 57.313136 77.470187 55.640949 77.470187 53.897594 
C 77.470187 52.154239 76.777544 50.482052 75.544806 49.249314 
C 74.312068 48.016575 72.639881 47.323933 70.896526 47.323933 
C 69.15317 47.323933 67.480984 48.016575 66.248245 49.249314 
C 65.015507 50.482052 64.322865 52.154239 64.322865 53.897594 
C 64.322865 55.640949 65.015507 57.313136 66.248245 58.545874 
C 67.480984 59.778613 69.15317 60.471255 70.896526 60.471255 
z
" style="fill:#fde725;"/>
    <path clip-path="url(#pbd862a9d85)" d="M 246.129302 299.925 
C 247.889256 299.925 249.577365 299.225763 250.821841 297.981287 
C 252.066317 296.736811 252.765554 295.048703 252.765554 293.288748 
C 252.765554 291.528793 252.066317 289.840685 250.821841 288.596209 
C 249.577365 287.351733 247.889256 286.652496 246.129302 286.652496 
C 244.369347 286.652496 242.681239 287.351733 241.436763 288.596209 
C 240.192287 289.840685 239.49305 291.528793 239.49305 293.288748 
C 239.49305 295.048703 240.192287 296.736811 241.436763 297.981287 
C 242.681239 299.225763 244.369347 299.925 246.129302 299.925 
z
" style="fill:#297b8e;"/>
    <path clip-path="url(#pbd862a9d85)" d="M 278.521449 206.148749 
C 280.307807 206.148749 282.021241 205.439022 283.284387 204.175876 
C 284.547533 202.91273 285.257261 201.199295 285.257261 199.412937 
C 285.257261 197.626579 284.547533 195.913145 283.284387 194.649999 
C 282.021241 193.386853 280.307807 192.677125 278.521449 192.677125 
C 276.73509 192.677125 275.021656 193.386853 273.75851 194.649999 
C 272.495364 195.913145 271.785636 197.626579 271.785636 199.412937 
C 271.785636 201.199295 272.495364 202.91273 273.75851 204.175876 
C 275.021656 205.439022 276.73509 206.148749 278.521449 206.148749 
z
" style="fill:#1f968b;"/>
    <path clip-path="url(#pbd862a9d85)" d="M 329.997082 223.082432 
C 331.753876 223.082432 333.438952 222.38445 334.681192 221.14221 
C 335.923433 219.899969 336.621414 218.214893 336.621414 216.4581 
C 336.621414 214.701307 335.923433 213.016231 334.681192 211.77399 
C 333.438952 210.53175 331.753876 209.833768 329.997082 209.833768 
C 328.240289 209.833768 326.555213 210.53175 325.312972 211.77399 
C 324.070732 213.016231 323.372751 214.701307 323.372751 216.4581 
C 323.372751 218.214893 324.070732 219.899969 325.312972 221.14221 
C 326.555213 222.38445 328.240289 223.082432 329.997082 223.082432 
z
" style="fill:#20928c;"/>
    <path clip-path="url(#pbd862a9d85)" d="M 275.632371 301.755076 
C 277.382151 301.755076 279.060499 301.059882 280.29778 299.822601 
C 281.535061 298.58532 282.230256 296.906971 282.230256 295.157192 
C 282.230256 293.407412 281.535061 291.729064 280.29778 290.491783 
C 279.060499 289.254502 277.382151 288.559307 275.632371 288.559307 
C 273.882592 288.559307 272.204243 289.254502 270.966962 290.491783 
C 269.729681 291.729064 269.034487 293.407412 269.034487 295.157192 
C 269.034487 296.906971 269.729681 298.58532 270.966962 299.822601 
C 272.204243 301.059882 273.882592 301.755076 275.632371 301.755076 
z
" style="fill:#2c738e;"/>
    <path clip-path="url(#pbd862a9d85)" d="M 160.560433 76.392349 
C 162.303932 76.392349 163.976256 75.69965 165.209096 74.46681 
C 166.441936 73.23397 167.134636 71.561645 167.134636 69.818146 
C 167.134636 68.074647 166.441936 66.402323 165.209096 65.169483 
C 163.976256 63.936643 162.303932 63.243943 160.560433 63.243943 
C 158.816934 63.243943 157.144609 63.936643 155.911769 65.169483 
C 154.678929 66.402323 153.986229 68.074647 153.986229 69.818146 
C 153.986229 71.561645 154.678929 73.23397 155.911769 74.46681 
C 157.144609 75.69965 158.816934 76.392349 160.560433 76.392349 
z
" style="fill:#32658e;"/>
    <path clip-path="url(#pbd862a9d85)" d="M 101.106253 65.348474 
C 102.849071 65.348474 104.520743 64.656044 105.753101 63.423686 
C 106.98546 62.191327 107.677889 60.519655 107.677889 58.776837 
C 107.677889 57.034019 106.98546 55.362347 105.753101 54.129988 
C 104.520743 52.89763 102.849071 52.205201 101.106253 52.205201 
C 99.363434 52.205201 97.691763 52.89763 96.459404 54.129988 
C 95.227045 55.362347 94.534616 57.034019 94.534616 58.776837 
C 94.534616 60.519655 95.227045 62.191327 96.459404 63.423686 
C 97.691763 64.656044 99.363434 65.348474 101.106253 65.348474 
z
" style="fill:#2d718e;"/>
    <path clip-path="url(#pbd862a9d85)" d="M 224.37436 225.84486 
C 226.17432 225.84486 227.9008 225.129729 229.173563 223.856965 
C 230.446327 222.584202 231.161458 220.857722 231.161458 219.057762 
C 231.161458 217.257803 230.446327 215.531323 229.173563 214.258559 
C 227.9008 212.985796 226.17432 212.270664 224.37436 212.270664 
C 222.574401 212.270664 220.847921 212.985796 219.575157 214.258559 
C 218.302394 215.531323 217.587262 217.257803 217.587262 219.057762 
C 217.587262 220.857722 218.302394 222.584202 219.575157 223.856965 
C 220.847921 225.129729 222.574401 225.84486 224.37436 225.84486 
z
" style="fill:#2a768e;"/>
    <path clip-path="url(#pbd862a9d85)" d="M 205.914429 244.309492 
C 207.713534 244.309492 209.439195 243.5947 210.711355 242.322541 
C 211.983514 241.050381 212.698307 239.32472 212.698307 237.525615 
C 212.698307 235.72651 211.983514 234.000849 210.711355 232.728689 
C 209.439195 231.45653 207.713534 230.741737 205.914429 230.741737 
C 204.115324 230.741737 202.389663 231.45653 201.117503 232.728689 
C 199.845344 234.000849 199.130552 235.72651 199.130552 237.525615 
C 199.130552 239.32472 199.845344 241.050381 201.117503 242.322541 
C 202.389663 243.5947 204.115324 244.309492 205.914429 244.309492 
z
" style="fill:#2c728e;"/>
    <path clip-path="url(#pbd862a9d85)" d="M 250.102227 211.444027 
C 251.898595 211.444027 253.621631 210.730323 254.891855 209.460098 
C 256.162079 208.189874 256.875784 206.466838 256.875784 204.67047 
C 256.875784 202.874102 256.162079 201.151066 254.891855 199.880842 
C 253.621631 198.610617 251.898595 197.896913 250.102227 197.896913 
C 248.305858 197.896913 246.582823 198.610617 245.312598 199.880842 
C 244.042374 201.151066 243.328669 202.874102 243.328669 204.67047 
C 243.328669 206.466838 244.042374 208.189874 245.312598 209.460098 
C 246.582823 210.730323 248.305858 211.444027 250.102227 211.444027 
z
" style="fill:#32658e;"/>
    <path clip-path="url(#pbd862a9d85)" d="M 218.075365 91.954783 
C 219.819905 91.954783 221.493228 91.26167 222.726804 90.028094 
C 223.96038 88.794518 224.653493 87.121195 224.653493 85.376655 
C 224.653493 83.632115 223.96038 81.958792 222.726804 80.725216 
C 221.493228 79.49164 219.819905 78.798527 218.075365 78.798527 
C 216.330825 78.798527 214.657502 79.49164 213.423926 80.725216 
C 212.19035 81.958792 211.497237 83.632115 211.497237 85.376655 
C 211.497237 87.121195 212.19035 88.794518 213.423926 90.028094 
C 214.657502 91.26167 216.330825 91.954783 218.075365 91.954783 
z
" style="fill:#31668e;"/>
    <path clip-path="url(#pbd862a9d85)" d="M 291.967861 132.992854 
C 293.71833 132.992854 295.397339 132.297385 296.635107 131.059617 
C 297.872875 129.821849 298.568344 128.14284 298.568344 126.392371 
C 298.568344 124.641903 297.872875 122.962894 296.635107 121.725125 
C 295.397339 120.487357 293.71833 119.791889 291.967861 119.791889 
C 290.217393 119.791889 288.538384 120.487357 287.300616 121.725125 
C 286.062847 122.962894 285.367379 124.641903 285.367379 126.392371 
C 285.367379 128.14284 286.062847 129.821849 287.300616 131.059617 
C 288.538384 132.297385 290.217393 132.992854 291.967861 132.992854 
z
" style="fill:#2e6d8e;"/>
    <path clip-path="url(#pbd862a9d85)" d="M 131.170683 70.726869 
C 132.913365 70.726869 134.584905 70.034495 135.817167 68.802233 
C 137.049429 67.569971 137.741804 65.89843 137.741804 64.155749 
C 137.741804 62.413067 137.049429 60.741527 135.817167 59.509265 
C 134.584905 58.277003 132.913365 57.584628 131.170683 57.584628 
C 129.428002 57.584628 127.756461 58.277003 126.524199 59.509265 
C 125.291937 60.741527 124.599563 62.413067 124.599563 64.155749 
C 124.599563 65.89843 125.291937 67.569971 126.524199 68.802233 
C 127.756461 70.034495 129.428002 70.726869 131.170683 70.726869 
z
" style="fill:#31688e;"/>
    <path clip-path="url(#pbd862a9d85)" d="M 217.469937 290.575173 
C 219.245344 290.575173 220.948274 289.869796 222.203676 288.614393 
C 223.459079 287.358991 224.164455 285.656061 224.164455 283.880654 
C 224.164455 282.105247 223.459079 280.402317 222.203676 279.146914 
C 220.948274 277.891512 219.245344 277.186135 217.469937 277.186135 
C 215.69453 277.186135 213.9916 277.891512 212.736197 279.146914 
C 211.480795 280.402317 210.775418 282.105247 210.775418 283.880654 
C 210.775418 285.656061 211.480795 287.358991 212.736197 288.614393 
C 213.9916 289.869796 215.69453 290.575173 217.469937 290.575173 
z
" style="fill:#2b758e;"/>
   </g>
   <g id="text_1">
    <!-- Structure #10268, $E_N$=-181.40eV, ΔE=0.31eV -->
    <defs>
     <path d="M 53.515625 70.515625 
L 53.515625 60.890625 
Q 47.90625 63.578125 42.921875 64.890625 
Q 37.9375 66.21875 33.296875 66.21875 
Q 25.25 66.21875 20.875 63.09375 
Q 16.5 59.96875 16.5 54.203125 
Q 16.5 49.359375 19.40625 46.890625 
Q 22.3125 44.4375 30.421875 42.921875 
L 36.375 41.703125 
Q 47.40625 39.59375 52.65625 34.296875 
Q 57.90625 29 57.90625 20.125 
Q 57.90625 9.515625 50.796875 4.046875 
Q 43.703125 -1.421875 29.984375 -1.421875 
Q 24.8125 -1.421875 18.96875 -0.25 
Q 13.140625 0.921875 6.890625 3.21875 
L 6.890625 13.375 
Q 12.890625 10.015625 18.65625 8.296875 
Q 24.421875 6.59375 29.984375 6.59375 
Q 38.421875 6.59375 43.015625 9.90625 
Q 47.609375 13.234375 47.609375 19.390625 
Q 47.609375 24.75 44.3125 27.78125 
Q 41.015625 30.8125 33.5 32.328125 
L 27.484375 33.5 
Q 16.453125 35.6875 11.515625 40.375 
Q 6.59375 45.0625 6.59375 53.421875 
Q 6.59375 63.09375 13.40625 68.65625 
Q 20.21875 74.21875 32.171875 74.21875 
Q 37.3125 74.21875 42.625 73.28125 
Q 47.953125 72.359375 53.515625 70.515625 
z
" id="DejaVuSans-53"/>
     <path d="M 18.3125 70.21875 
L 18.3125 54.6875 
L 36.8125 54.6875 
L 36.8125 47.703125 
L 18.3125 47.703125 
L 18.3125 18.015625 
Q 18.3125 11.328125 20.140625 9.421875 
Q 21.96875 7.515625 27.59375 7.515625 
L 36.8125 7.515625 
L 36.8125 0 
L 27.59375 0 
Q 17.1875 0 13.234375 3.875 
Q 9.28125 7.765625 9.28125 18.015625 
L 9.28125 47.703125 
L 2.6875 47.703125 
L 2.6875 54.6875 
L 9.28125 54.6875 
L 9.28125 70.21875 
z
" id="DejaVuSans-74"/>
     <path d="M 41.109375 46.296875 
Q 39.59375 47.171875 37.8125 47.578125 
Q 36.03125 48 33.890625 48 
Q 26.265625 48 22.1875 43.046875 
Q 18.109375 38.09375 18.109375 28.8125 
L 18.109375 0 
L 9.078125 0 
L 9.078125 54.6875 
L 18.109375 54.6875 
L 18.109375 46.1875 
Q 20.953125 51.171875 25.484375 53.578125 
Q 30.03125 56 36.53125 56 
Q 37.453125 56 38.578125 55.875 
Q 39.703125 55.765625 41.0625 55.515625 
z
" id="DejaVuSans-72"/>
     <path d="M 8.5 21.578125 
L 8.5 54.6875 
L 17.484375 54.6875 
L 17.484375 21.921875 
Q 17.484375 14.15625 20.5 10.265625 
Q 23.53125 6.390625 29.59375 6.390625 
Q 36.859375 6.390625 41.078125 11.03125 
Q 45.3125 15.671875 45.3125 23.6875 
L 45.3125 54.6875 
L 54.296875 54.6875 
L 54.296875 0 
L 45.3125 0 
L 45.3125 8.40625 
Q 42.046875 3.421875 37.71875 1 
Q 33.40625 -1.421875 27.6875 -1.421875 
Q 18.265625 -1.421875 13.375 4.4375 
Q 8.5 10.296875 8.5 21.578125 
z
M 31.109375 56 
z
" id="DejaVuSans-75"/>
     <path d="M 48.78125 52.59375 
L 48.78125 44.1875 
Q 44.96875 46.296875 41.140625 47.34375 
Q 37.3125 48.390625 33.40625 48.390625 
Q 24.65625 48.390625 19.8125 42.84375 
Q 14.984375 37.3125 14.984375 27.296875 
Q 14.984375 17.28125 19.8125 11.734375 
Q 24.65625 6.203125 33.40625 6.203125 
Q 37.3125 6.203125 41.140625 7.25 
Q 44.96875 8.296875 48.78125 10.40625 
L 48.78125 2.09375 
Q 45.015625 0.34375 40.984375 -0.53125 
Q 36.96875 -1.421875 32.421875 -1.421875 
Q 20.0625 -1.421875 12.78125 6.34375 
Q 5.515625 14.109375 5.515625 27.296875 
Q 5.515625 40.671875 12.859375 48.328125 
Q 20.21875 56 33.015625 56 
Q 37.15625 56 41.109375 55.140625 
Q 45.0625 54.296875 48.78125 52.59375 
z
" id="DejaVuSans-63"/>
     <path d="M 56.203125 29.59375 
L 56.203125 25.203125 
L 14.890625 25.203125 
Q 15.484375 15.921875 20.484375 11.0625 
Q 25.484375 6.203125 34.421875 6.203125 
Q 39.59375 6.203125 44.453125 7.46875 
Q 49.3125 8.734375 54.109375 11.28125 
L 54.109375 2.78125 
Q 49.265625 0.734375 44.1875 -0.34375 
Q 39.109375 -1.421875 33.890625 -1.421875 
Q 20.796875 -1.421875 13.15625 6.1875 
Q 5.515625 13.8125 5.515625 26.8125 
Q 5.515625 40.234375 12.765625 48.109375 
Q 20.015625 56 32.328125 56 
Q 43.359375 56 49.78125 48.890625 
Q 56.203125 41.796875 56.203125 29.59375 
z
M 47.21875 32.234375 
Q 47.125 39.59375 43.09375 43.984375 
Q 39.0625 48.390625 32.421875 48.390625 
Q 24.90625 48.390625 20.390625 44.140625 
Q 15.875 39.890625 15.1875 32.171875 
z
" id="DejaVuSans-65"/>
     <path id="DejaVuSans-20"/>
     <path d="M 51.125 44 
L 36.921875 44 
L 32.8125 27.6875 
L 47.125 27.6875 
z
M 43.796875 71.78125 
L 38.71875 51.515625 
L 52.984375 51.515625 
L 58.109375 71.78125 
L 65.921875 71.78125 
L 60.890625 51.515625 
L 76.125 51.515625 
L 76.125 44 
L 58.984375 44 
L 54.984375 27.6875 
L 70.515625 27.6875 
L 70.515625 20.21875 
L 53.078125 20.21875 
L 48 0 
L 40.1875 0 
L 45.21875 20.21875 
L 30.90625 20.21875 
L 25.875 0 
L 18.015625 0 
L 23.09375 20.21875 
L 7.71875 20.21875 
L 7.71875 27.6875 
L 24.90625 27.6875 
L 29 44 
L 13.28125 44 
L 13.28125 51.515625 
L 30.90625 51.515625 
L 35.890625 71.78125 
z
" id="DejaVuSans-23"/>
     <path d="M 12.40625 8.296875 
L 28.515625 8.296875 
L 28.515625 63.921875 
L 10.984375 60.40625 
L 10.984375 69.390625 
L 28.421875 72.90625 
L 38.28125 72.90625 
L 38.28125 8.296875 
L 54.390625 8.296875 
L 54.390625 0 
L 12.40625 0 
z
" id="DejaVuSans-31"/>
     <path d="M 31.78125 66.40625 
Q 24.171875 66.40625 20.328125 58.90625 
Q 16.5 51.421875 16.5 36.375 
Q 16.5 21.390625 20.328125 13.890625 
Q 24.171875 6.390625 31.78125 6.390625 
Q 39.453125 6.390625 43.28125 13.890625 
Q 47.125 21.390625 47.125 36.375 
Q 47.125 51.421875 43.28125 58.90625 
Q 39.453125 66.40625 31.78125 66.40625 
z
M 31.78125 74.21875 
Q 44.046875 74.21875 50.515625 64.515625 
Q 56.984375 54.828125 56.984375 36.375 
Q 56.984375 17.96875 50.515625 8.265625 
Q 44.046875 -1.421875 31.78125 -1.421875 
Q 19.53125 -1.421875 13.0625 8.265625 
Q 6.59375 17.96875 6.59375 36.375 
Q 6.59375 54.828125 13.0625 64.515625 
Q 19.53125 74.21875 31.78125 74.21875 
z
" id="DejaVuSans-30"/>
     <path d="M 19.1875 8.296875 
L 53.609375 8.296875 
L 53.609375 0 
L 7.328125 0 
L 7.328125 8.296875 
Q 12.9375 14.109375 22.625 23.890625 
Q 32.328125 33.6875 34.8125 36.53125 
Q 39.546875 41.84375 41.421875 45.53125 
Q 43.3125 49.21875 43.3125 52.78125 
Q 43.3125 58.59375 39.234375 62.25 
Q 35.15625 65.921875 28.609375 65.921875 
Q 23.96875 65.921875 18.8125 64.3125 
Q 13.671875 62.703125 7.8125 59.421875 
L 7.8125 69.390625 
Q 13.765625 71.78125 18.9375 73 
Q 24.125 74.21875 28.421875 74.21875 
Q 39.75 74.21875 46.484375 68.546875 
Q 53.21875 62.890625 53.21875 53.421875 
Q 53.21875 48.921875 51.53125 44.890625 
Q 49.859375 40.875 45.40625 35.40625 
Q 44.1875 33.984375 37.640625 27.21875 
Q 31.109375 20.453125 19.1875 8.296875 
z
" id="DejaVuSans-32"/>
     <path d="M 33.015625 40.375 
Q 26.375 40.375 22.484375 35.828125 
Q 18.609375 31.296875 18.609375 23.390625 
Q 18.609375 15.53125 22.484375 10.953125 
Q 26.375 6.390625 33.015625 6.390625 
Q 39.65625 6.390625 43.53125 10.953125 
Q 47.40625 15.53125 47.40625 23.390625 
Q 47.40625 31.296875 43.53125 35.828125 
Q 39.65625 40.375 33.015625 40.375 
z
M 52.59375 71.296875 
L 52.59375 62.3125 
Q 48.875 64.0625 45.09375 64.984375 
Q 41.3125 65.921875 37.59375 65.921875 
Q 27.828125 65.921875 22.671875 59.328125 
Q 17.53125 52.734375 16.796875 39.40625 
Q 19.671875 43.65625 24.015625 45.921875 
Q 28.375 48.1875 33.59375 48.1875 
Q 44.578125 48.1875 50.953125 41.515625 
Q 57.328125 34.859375 57.328125 23.390625 
Q 57.328125 12.15625 50.6875 5.359375 
Q 44.046875 -1.421875 33.015625 -1.421875 
Q 20.359375 -1.421875 13.671875 8.265625 
Q 6.984375 17.96875 6.984375 36.375 
Q 6.984375 53.65625 15.1875 63.9375 
Q 23.390625 74.21875 37.203125 74.21875 
Q 40.921875 74.21875 44.703125 73.484375 
Q 48.484375 72.75 52.59375 71.296875 
z
" id="DejaVuSans-36"/>
     <path d="M 31.78125 34.625 
Q 24.75 34.625 20.71875 30.859375 
Q 16.703125 27.09375 16.703125 20.515625 
Q 16.703125 13.921875 20.71875 10.15625 
Q 24.75 6.390625 31.78125 6.390625 
Q 38.8125 6.390625 42.859375 10.171875 
Q 46.921875 13.96875 46.921875 20.515625 
Q 46.921875 27.09375 42.890625 30.859375 
Q 38.875 34.625 31.78125 34.625 
z
M 21.921875 38.8125 
Q 15.578125 40.375 12.03125 44.71875 
Q 8.5 49.078125 8.5 55.328125 
Q 8.5 64.0625 14.71875 69.140625 
Q 20.953125 74.21875 31.78125 74.21875 
Q 42.671875 74.21875 48.875 69.140625 
Q 55.078125 64.0625 55.078125 55.328125 
Q 55.078125 49.078125 51.53125 44.71875 
Q 48 40.375 41.703125 38.8125 
Q 48.828125 37.15625 52.796875 32.3125 
Q 56.78125 27.484375 56.78125 20.515625 
Q 56.78125 9.90625 50.3125 4.234375 
Q 43.84375 -1.421875 31.78125 -1.421875 
Q 19.734375 -1.421875 13.25 4.234375 
Q 6.78125 9.90625 6.78125 20.515625 
Q 6.78125 27.484375 10.78125 32.3125 
Q 14.796875 37.15625 21.921875 38.8125 
z
M 18.3125 54.390625 
Q 18.3125 48.734375 21.84375 45.5625 
Q 25.390625 42.390625 31.78125 42.390625 
Q 38.140625 42.390625 41.71875 45.5625 
Q 45.3125 48.734375 45.3125 54.390625 
Q 45.3125 60.0625 41.71875 63.234375 
Q 38.140625 66.40625 31.78125 66.40625 
Q 25.390625 66.40625 21.84375 63.234375 
Q 18.3125 60.0625 18.3125 54.390625 
z
" id="DejaVuSans-38"/>
     <path d="M 11.71875 12.40625 
L 22.015625 12.40625 
L 22.015625 4 
L 14.015625 -11.625 
L 7.71875 -11.625 
L 11.71875 4 
z
" id="DejaVuSans-2c"/>
     <path d="M 16.890625 72.90625 
L 62.984375 72.90625 
L 61.375 64.59375 
L 25.09375 64.59375 
L 20.90625 43.015625 
L 55.71875 43.015625 
L 54.109375 34.71875 
L 19.28125 34.71875 
L 14.203125 8.296875 
L 51.3125 8.296875 
L 49.703125 0 
L 2.6875 0 
z
" id="DejaVuSans-Oblique-45"/>
     <path d="M 16.890625 72.90625 
L 30.171875 72.90625 
L 50.296875 10.40625 
L 62.5 72.90625 
L 72.125 72.90625 
L 57.90625 0 
L 44.578125 0 
L 24.515625 62.890625 
L 12.3125 0 
L 2.6875 0 
z
" id="DejaVuSans-Oblique-4e"/>
     <path d="M 10.59375 45.40625 
L 73.1875 45.40625 
L 73.1875 37.203125 
L 10.59375 37.203125 
z
M 10.59375 25.484375 
L 73.1875 25.484375 
L 73.1875 17.1875 
L 10.59375 17.1875 
z
" id="DejaVuSans-3d"/>
     <path d="M 4.890625 31.390625 
L 31.203125 31.390625 
L 31.203125 23.390625 
L 4.890625 23.390625 
z
" id="DejaVuSans-2d"/>
     <path d="M 10.6875 12.40625 
L 21 12.40625 
L 21 0 
L 10.6875 0 
z
" id="DejaVuSans-2e"/>
     <path d="M 37.796875 64.3125 
L 12.890625 25.390625 
L 37.796875 25.390625 
z
M 35.203125 72.90625 
L 47.609375 72.90625 
L 47.609375 25.390625 
L 58.015625 25.390625 
L 58.015625 17.1875 
L 47.609375 17.1875 
L 47.609375 0 
L 37.796875 0 
L 37.796875 17.1875 
L 4.890625 17.1875 
L 4.890625 26.703125 
z
" id="DejaVuSans-34"/>
     <path d="M 28.609375 0 
L 0.78125 72.90625 
L 11.078125 72.90625 
L 34.1875 11.53125 
L 57.328125 72.90625 
L 67.578125 72.90625 
L 39.796875 0 
z
" id="DejaVuSans-56"/>
     <path d="M 34.1875 63.1875 
L 14.15625 8.203125 
L 54.25 8.203125 
z
M 0.78125 0 
L 28.609375 72.90625 
L 39.796875 72.90625 
L 67.578125 0 
z
" id="DejaVuSans-394"/>
     <path d="M 9.8125 72.90625 
L 55.90625 72.90625 
L 55.90625 64.59375 
L 19.671875 64.59375 
L 19.671875 43.015625 
L 54.390625 43.015625 
L 54.390625 34.71875 
L 19.671875 34.71875 
L 19.671875 8.296875 
L 56.78125 8.296875 
L 56.78125 0 
L 9.8125 0 
z
" id="DejaVuSans-45"/>
     <path d="M 40.578125 39.3125 
Q 47.65625 37.796875 51.625 33 
Q 55.609375 28.21875 55.609375 21.1875 
Q 55.609375 10.40625 48.1875 4.484375 
Q 40.765625 -1.421875 27.09375 -1.421875 
Q 22.515625 -1.421875 17.65625 -0.515625 
Q 12.796875 0.390625 7.625 2.203125 
L 7.625 11.71875 
Q 11.71875 9.328125 16.59375 8.109375 
Q 21.484375 6.890625 26.8125 6.890625 
Q 36.078125 6.890625 40.9375 10.546875 
Q 45.796875 14.203125 45.796875 21.1875 
Q 45.796875 27.640625 41.28125 31.265625 
Q 36.765625 34.90625 28.71875 34.90625 
L 20.21875 34.90625 
L 20.21875 43.015625 
L 29.109375 43.015625 
Q 36.375 43.015625 40.234375 45.921875 
Q 44.09375 48.828125 44.09375 54.296875 
Q 44.09375 59.90625 40.109375 62.90625 
Q 36.140625 65.921875 28.71875 65.921875 
Q 24.65625 65.921875 20.015625 65.03125 
Q 15.375 64.15625 9.8125 62.3125 
L 9.8125 71.09375 
Q 15.4375 72.65625 20.34375 73.4375 
Q 25.25 74.21875 29.59375 74.21875 
Q 40.828125 74.21875 47.359375 69.109375 
Q 53.90625 64.015625 53.90625 55.328125 
Q 53.90625 49.265625 50.4375 45.09375 
Q 46.96875 40.921875 40.578125 39.3125 
z
" id="DejaVuSans-33"/>
    </defs>
    <g transform="translate(61.548 35.472)scale(0.12 -0.12)">
     <use transform="translate(0 0.78125)" xlink:href="#DejaVuSans-53"/>
     <use transform="translate(63.476562 0.78125)" xlink:href="#DejaVuSans-74"/>
     <use transform="translate(102.685547 0.78125)" xlink:href="#DejaVuSans-72"/>
     <use transform="translate(143.798828 0.78125)" xlink:href="#DejaVuSans-75"/>
     <use transform="translate(207.177734 0.78125)" xlink:href="#DejaVuSans-63"/>
     <use transform="translate(262.158203 0.78125)" xlink:href="#DejaVuSans-74"/>
     <use transform="translate(301.367188 0.78125)" xlink:href="#DejaVuSans-75"/>
     <use transform="translate(364.746094 0.78125)" xlink:href="#DejaVuSans-72"/>
     <use transform="translate(405.859375 0.78125)" xlink:href="#DejaVuSans-65"/>
     <use transform="translate(467.382812 0.78125)" xlink:href="#DejaVuSans-20"/>
     <use transform="translate(499.169922 0.78125)" xlink:href="#DejaVuSans-23"/>
     <use transform="translate(582.958984 0.78125)" xlink:href="#DejaVuSans-31"/>
     <use transform="translate(646.582031 0.78125)" xlink:href="#DejaVuSans-30"/>
     <use transform="translate(710.205078 0.78125)" xlink:href="#DejaVuSans-32"/>
     <use transform="translate(773.828125 0.78125)" xlink:href="#DejaVuSans-36"/>
     <use transform="translate(837.451172 0.78125)" xlink:href="#DejaVuSans-38"/>
     <use transform="translate(901.074219 0.78125)" xlink:href="#DejaVuSans-2c"/>
     <use transform="translate(932.861328 0.78125)" xlink:href="#DejaVuSans-20"/>
     <use transform="translate(964.648438 0.78125)" xlink:href="#DejaVuSans-Oblique-45"/>
     <use transform="translate(1027.832031 -15.625)scale(0.7)" xlink:href="#DejaVuSans-Oblique-4e"/>
     <use transform="translate(1082.929688 0.78125)" xlink:href="#DejaVuSans-3d"/>
     <use transform="translate(1166.71875 0.78125)" xlink:href="#DejaVuSans-2d"/>
     <use transform="translate(1202.802734 0.78125)" xlink:href="#DejaVuSans-31"/>
     <use transform="translate(1266.425781 0.78125)" xlink:href="#DejaVuSans-38"/>
     <use transform="translate(1330.048828 0.78125)" xlink:href="#DejaVuSans-31"/>
     <use transform="translate(1393.671875 0.78125)" xlink:href="#DejaVuSans-2e"/>
     <use transform="translate(1425.458984 0.78125)" xlink:href="#DejaVuSans-34"/>
     <use transform="translate(1489.082031 0.78125)" xlink:href="#DejaVuSans-30"/>
     <use transform="translate(1552.705078 0.78125)" xlink:href="#DejaVuSans-65"/>
     <use transform="translate(1614.228516 0.78125)" xlink:href="#DejaVuSans-56"/>
     <use transform="translate(1682.636719 0.78125)" xlink:href="#DejaVuSans-2c"/>
     <use transform="translate(1714.423828 0.78125)" xlink:href="#DejaVuSans-20"/>
     <use transform="translate(1746.210938 0.78125)" xlink:href="#DejaVuSans-394"/>
     <use transform="translate(1814.619141 0.78125)" xlink:href="#DejaVuSans-45"/>
     <use transform="translate(1877.802734 0.78125)" xlink:href="#DejaVuSans-3d"/>
     <use transform="translate(1961.591797 0.78125)" xlink:href="#DejaVuSans-30"/>
     <use transform="translate(2025.214844 0.78125)" xlink:href="#DejaVuSans-2e"/>
     <use transform="translate(2057.001953 0.78125)" xlink:href="#DejaVuSans-33"/>
     <use transform="translate(2120.625 0.78125)" xlink:href="#DejaVuSans-31"/>
     <use transform="translate(2184.248047 0.78125)" xlink:href="#DejaVuSans-65"/>
     <use transform="translate(2245.771484 0.78125)" xlink:href="#DejaVuSans-56"/>
    </g>
   </g>
  </g>
  <g id="axes_2">
   <g id="patch_2">
    <path clip-path="url(#pf7405c5eb3)" d="M 361.152 307.584 
L 361.152 306.5445 
L 361.152 42.5115 
L 361.152 41.472 
L 374.4576 41.472 
L 374.4576 42.5115 
L 374.4576 306.5445 
L 374.4576 307.584 
z
" style="fill:#ffffff;stroke:#ffffff;stroke-linejoin:miter;stroke-width:0.01;"/>
   </g>
   <image height="265.68" id="image00e63eb731" transform="scale(1 -1)translate(0 -265.68)" width="12.96" x="361.44" xlink:href="data:image/png;base64,
iVBORw0KGgoAAAANSUhEUgAAABIAAAFxCAYAAAB+2fgXAAAABHNCSVQICAgIfAhkiAAAAeVJREFUeJztncmNw0AQA2ckheYQNv9QLIfQ8ygsCgQ7AEI8+jAs2Puz/94F1LP2ReCsZ18bAWIeZ5XaGRBE7VnbptG+KI101FYyNSiQG2oRITXKNaX9uclOdi2XWjftVE32CZCO2ou5Bj1TcCBr/1zB9ge7Fq0Rg2NM9pvbtG+ua1QgsRYhDy0ISEiNc40BEibbSI0Coj5CBGtkpFbXJiAjNZlrwhuSOv2M1DjXbEdEciBt1JSDDQKKpmZr2rr2j0DBGpXaWEJq3bQzEPIS26r9J+Wzv9Tm8o3aajRXqc3VUXsApKNWjeZq0x4ABVNbm7lrszVigDqP5vIl2+eaT2yfRkL7g+dRcNPqjohkjaCvRVBq0H2U3LQrOJCx9kdTg4B8oxZzzTdqdYHEngjUCAPyUctN9sVRq2sTECW2UKNLd2jVtRmo1A6AhMmWaSRcR8nUdIHUuVb75zJS218EyEitro1At69pIdeSk30Lkw0FktNImGyZRhy1O5galmxd03LUsHWk06jUZiCq+5Wb1kZNN4+wJxJuWt8RAW5am2sYNZ9rYCBzZ3buPKJ2P5Yj4Toy3keyIyJbIxs1rml1byCA84gpch5RQNB7Q0qNMGq2Hy4BXdNR41yz/cEEJfZzUz96r9PoB0okjeQ8y9TkAAAAAElFTkSuQmCC" y="-41.76"/>
   <g id="matplotlib.axis_1"/>
   <g id="matplotlib.axis_2">
    <g id="ytick_1">
     <g id="line2d_1">
      <defs>
       <path d="M 0 0 
L 3.5 0 
" id="m355e60c597" style="stroke:#000000;stroke-width:0.8;"/>
      </defs>
      <g>
       <use style="stroke:#000000;stroke-width:0.8;" x="374.4576" xlink:href="#m355e60c597" y="294.955095"/>
      </g>
     </g>
     <g id="text_2">
      <!-- −9.0 -->
      <defs>
       <path d="M 10.59375 35.5 
L 73.1875 35.5 
L 73.1875 27.203125 
L 10.59375 27.203125 
z
" id="DejaVuSans-2212"/>
       <path d="M 10.984375 1.515625 
L 10.984375 10.5 
Q 14.703125 8.734375 18.5 7.8125 
Q 22.3125 6.890625 25.984375 6.890625 
Q 35.75 6.890625 40.890625 13.453125 
Q 46.046875 20.015625 46.78125 33.40625 
Q 43.953125 29.203125 39.59375 26.953125 
Q 35.25 24.703125 29.984375 24.703125 
Q 19.046875 24.703125 12.671875 31.3125 
Q 6.296875 37.9375 6.296875 49.421875 
Q 6.296875 60.640625 12.9375 67.421875 
Q 19.578125 74.21875 30.609375 74.21875 
Q 43.265625 74.21875 49.921875 64.515625 
Q 56.59375 54.828125 56.59375 36.375 
Q 56.59375 19.140625 48.40625 8.859375 
Q 40.234375 -1.421875 26.421875 -1.421875 
Q 22.703125 -1.421875 18.890625 -0.6875 
Q 15.09375 0.046875 10.984375 1.515625 
z
M 30.609375 32.421875 
Q 37.25 32.421875 41.125 36.953125 
Q 45.015625 41.5 45.015625 49.421875 
Q 45.015625 57.28125 41.125 61.84375 
Q 37.25 66.40625 30.609375 66.40625 
Q 23.96875 66.40625 20.09375 61.84375 
Q 16.21875 57.28125 16.21875 49.421875 
Q 16.21875 41.5 20.09375 36.953125 
Q 23.96875 32.421875 30.609375 32.421875 
z
" id="DejaVuSans-39"/>
      </defs>
      <g transform="translate(381.4576 298.754314)scale(0.1 -0.1)">
       <use xlink:href="#DejaVuSans-2212"/>
       <use x="83.789062" xlink:href="#DejaVuSans-39"/>
       <use x="147.412109" xlink:href="#DejaVuSans-2e"/>
       <use x="179.199219" xlink:href="#DejaVuSans-30"/>
      </g>
     </g>
    </g>
    <g id="ytick_2">
     <g id="line2d_2">
      <g>
       <use style="stroke:#000000;stroke-width:0.8;" x="374.4576" xlink:href="#m355e60c597" y="263.16955"/>
      </g>
     </g>
     <g id="text_3">
      <!-- −8.5 -->
      <defs>
       <path d="M 10.796875 72.90625 
L 49.515625 72.90625 
L 49.515625 64.59375 
L 19.828125 64.59375 
L 19.828125 46.734375 
Q 21.96875 47.46875 24.109375 47.828125 
Q 26.265625 48.1875 28.421875 48.1875 
Q 40.625 48.1875 47.75 41.5 
Q 54.890625 34.8125 54.890625 23.390625 
Q 54.890625 11.625 47.5625 5.09375 
Q 40.234375 -1.421875 26.90625 -1.421875 
Q 22.3125 -1.421875 17.546875 -0.640625 
Q 12.796875 0.140625 7.71875 1.703125 
L 7.71875 11.625 
Q 12.109375 9.234375 16.796875 8.0625 
Q 21.484375 6.890625 26.703125 6.890625 
Q 35.15625 6.890625 40.078125 11.328125 
Q 45.015625 15.765625 45.015625 23.390625 
Q 45.015625 31 40.078125 35.4375 
Q 35.15625 39.890625 26.703125 39.890625 
Q 22.75 39.890625 18.8125 39.015625 
Q 14.890625 38.140625 10.796875 36.28125 
z
" id="DejaVuSans-35"/>
      </defs>
      <g transform="translate(381.4576 266.968769)scale(0.1 -0.1)">
       <use xlink:href="#DejaVuSans-2212"/>
       <use x="83.789062" xlink:href="#DejaVuSans-38"/>
       <use x="147.412109" xlink:href="#DejaVuSans-2e"/>
       <use x="179.199219" xlink:href="#DejaVuSans-35"/>
      </g>
     </g>
    </g>
    <g id="ytick_3">
     <g id="line2d_3">
      <g>
       <use style="stroke:#000000;stroke-width:0.8;" x="374.4576" xlink:href="#m355e60c597" y="231.384005"/>
      </g>
     </g>
     <g id="text_4">
      <!-- −8.0 -->
      <g transform="translate(381.4576 235.183224)scale(0.1 -0.1)">
       <use xlink:href="#DejaVuSans-2212"/>
       <use x="83.789062" xlink:href="#DejaVuSans-38"/>
       <use x="147.412109" xlink:href="#DejaVuSans-2e"/>
       <use x="179.199219" xlink:href="#DejaVuSans-30"/>
      </g>
     </g>
    </g>
    <g id="ytick_4">
     <g id="line2d_4">
      <g>
       <use style="stroke:#000000;stroke-width:0.8;" x="374.4576" xlink:href="#m355e60c597" y="199.59846"/>
      </g>
     </g>
     <g id="text_5">
      <!-- −7.5 -->
      <defs>
       <path d="M 8.203125 72.90625 
L 55.078125 72.90625 
L 55.078125 68.703125 
L 28.609375 0 
L 18.3125 0 
L 43.21875 64.59375 
L 8.203125 64.59375 
z
" id="DejaVuSans-37"/>
      </defs>
      <g transform="translate(381.4576 203.397679)scale(0.1 -0.1)">
       <use xlink:href="#DejaVuSans-2212"/>
       <use x="83.789062" xlink:href="#DejaVuSans-37"/>
       <use x="147.412109" xlink:href="#DejaVuSans-2e"/>
       <use x="179.199219" xlink:href="#DejaVuSans-35"/>
      </g>
     </g>
    </g>
    <g id="ytick_5">
     <g id="line2d_5">
      <g>
       <use style="stroke:#000000;stroke-width:0.8;" x="374.4576" xlink:href="#m355e60c597" y="167.812915"/>
      </g>
     </g>
     <g id="text_6">
      <!-- −7.0 -->
      <g transform="translate(381.4576 171.612134)scale(0.1 -0.1)">
       <use xlink:href="#DejaVuSans-2212"/>
       <use x="83.789062" xlink:href="#DejaVuSans-37"/>
       <use x="147.412109" xlink:href="#DejaVuSans-2e"/>
       <use x="179.199219" xlink:href="#DejaVuSans-30"/>
      </g>
     </g>
    </g>
    <g id="ytick_6">
     <g id="line2d_6">
      <g>
       <use style="stroke:#000000;stroke-width:0.8;" x="374.4576" xlink:href="#m355e60c597" y="136.02737"/>
      </g>
     </g>
     <g id="text_7">
      <!-- −6.5 -->
      <g transform="translate(381.4576 139.826589)scale(0.1 -0.1)">
       <use xlink:href="#DejaVuSans-2212"/>
       <use x="83.789062" xlink:href="#DejaVuSans-36"/>
       <use x="147.412109" xlink:href="#DejaVuSans-2e"/>
       <use x="179.199219" xlink:href="#DejaVuSans-35"/>
      </g>
     </g>
    </g>
    <g id="ytick_7">
     <g id="line2d_7">
      <g>
       <use style="stroke:#000000;stroke-width:0.8;" x="374.4576" xlink:href="#m355e60c597" y="104.241825"/>
      </g>
     </g>
     <g id="text_8">
      <!-- −6.0 -->
      <g transform="translate(381.4576 108.041044)scale(0.1 -0.1)">
       <use xlink:href="#DejaVuSans-2212"/>
       <use x="83.789062" xlink:href="#DejaVuSans-36"/>
       <use x="147.412109" xlink:href="#DejaVuSans-2e"/>
       <use x="179.199219" xlink:href="#DejaVuSans-30"/>
      </g>
     </g>
    </g>
    <g id="ytick_8">
     <g id="line2d_8">
      <g>
       <use style="stroke:#000000;stroke-width:0.8;" x="374.4576" xlink:href="#m355e60c597" y="72.45628"/>
      </g>
     </g>
     <g id="text_9">
      <!-- −5.5 -->
      <g transform="translate(381.4576 76.255499)scale(0.1 -0.1)">
       <use xlink:href="#DejaVuSans-2212"/>
       <use x="83.789062" xlink:href="#DejaVuSans-35"/>
       <use x="147.412109" xlink:href="#DejaVuSans-2e"/>
       <use x="179.199219" xlink:href="#DejaVuSans-35"/>
      </g>
     </g>
    </g>
    <g id="text_10">
     <!-- Energy [eV] -->
     <defs>
      <path d="M 54.890625 33.015625 
L 54.890625 0 
L 45.90625 0 
L 45.90625 32.71875 
Q 45.90625 40.484375 42.875 44.328125 
Q 39.84375 48.1875 33.796875 48.1875 
Q 26.515625 48.1875 22.3125 43.546875 
Q 18.109375 38.921875 18.109375 30.90625 
L 18.109375 0 
L 9.078125 0 
L 9.078125 54.6875 
L 18.109375 54.6875 
L 18.109375 46.1875 
Q 21.34375 51.125 25.703125 53.5625 
Q 30.078125 56 35.796875 56 
Q 45.21875 56 50.046875 50.171875 
Q 54.890625 44.34375 54.890625 33.015625 
z
" id="DejaVuSans-6e"/>
      <path d="M 45.40625 27.984375 
Q 45.40625 37.75 41.375 43.109375 
Q 37.359375 48.484375 30.078125 48.484375 
Q 22.859375 48.484375 18.828125 43.109375 
Q 14.796875 37.75 14.796875 27.984375 
Q 14.796875 18.265625 18.828125 12.890625 
Q 22.859375 7.515625 30.078125 7.515625 
Q 37.359375 7.515625 41.375 12.890625 
Q 45.40625 18.265625 45.40625 27.984375 
z
M 54.390625 6.78125 
Q 54.390625 -7.171875 48.1875 -13.984375 
Q 42 -20.796875 29.203125 -20.796875 
Q 24.46875 -20.796875 20.265625 -20.09375 
Q 16.0625 -19.390625 12.109375 -17.921875 
L 12.109375 -9.1875 
Q 16.0625 -11.328125 19.921875 -12.34375 
Q 23.78125 -13.375 27.78125 -13.375 
Q 36.625 -13.375 41.015625 -8.765625 
Q 45.40625 -4.15625 45.40625 5.171875 
L 45.40625 9.625 
Q 42.625 4.78125 38.28125 2.390625 
Q 33.9375 0 27.875 0 
Q 17.828125 0 11.671875 7.65625 
Q 5.515625 15.328125 5.515625 27.984375 
Q 5.515625 40.671875 11.671875 48.328125 
Q 17.828125 56 27.875 56 
Q 33.9375 56 38.28125 53.609375 
Q 42.625 51.21875 45.40625 46.390625 
L 45.40625 54.6875 
L 54.390625 54.6875 
z
" id="DejaVuSans-67"/>
      <path d="M 32.171875 -5.078125 
Q 28.375 -14.84375 24.75 -17.8125 
Q 21.140625 -20.796875 15.09375 -20.796875 
L 7.90625 -20.796875 
L 7.90625 -13.28125 
L 13.1875 -13.28125 
Q 16.890625 -13.28125 18.9375 -11.515625 
Q 21 -9.765625 23.484375 -3.21875 
L 25.09375 0.875 
L 2.984375 54.6875 
L 12.5 54.6875 
L 29.59375 11.921875 
L 46.6875 54.6875 
L 56.203125 54.6875 
z
" id="DejaVuSans-79"/>
      <path d="M 8.59375 75.984375 
L 29.296875 75.984375 
L 29.296875 69 
L 17.578125 69 
L 17.578125 -6.203125 
L 29.296875 -6.203125 
L 29.296875 -13.1875 
L 8.59375 -13.1875 
z
" id="DejaVuSans-5b"/>
      <path d="M 30.421875 75.984375 
L 30.421875 -13.1875 
L 9.71875 -13.1875 
L 9.71875 -6.203125 
L 21.390625 -6.203125 
L 21.390625 69 
L 9.71875 69 
L 9.71875 75.984375 
z
" id="DejaVuSans-5d"/>
     </defs>
     <g transform="translate(417.33885 204.108469)rotate(-90)scale(0.1 -0.1)">
      <use xlink:href="#DejaVuSans-45"/>
      <use x="63.183594" xlink:href="#DejaVuSans-6e"/>
      <use x="126.5625" xlink:href="#DejaVuSans-65"/>
      <use x="188.085938" xlink:href="#DejaVuSans-72"/>
      <use x="229.183594" xlink:href="#DejaVuSans-67"/>
      <use x="292.660156" xlink:href="#DejaVuSans-79"/>
      <use x="351.839844" xlink:href="#DejaVuSans-20"/>
      <use x="383.626953" xlink:href="#DejaVuSans-5b"/>
      <use x="422.640625" xlink:href="#DejaVuSans-65"/>
      <use x="484.164062" xlink:href="#DejaVuSans-56"/>
      <use x="552.572266" xlink:href="#DejaVuSans-5d"/>
     </g>
    </g>
   </g>
   <g id="patch_3">
    <path d="M 361.152 307.584 
L 361.152 306.5445 
L 361.152 42.5115 
L 361.152 41.472 
L 374.4576 41.472 
L 374.4576 42.5115 
L 374.4576 306.5445 
L 374.4576 307.584 
z
" style="fill:none;stroke:#000000;stroke-linejoin:miter;stroke-width:0.8;"/>
   </g>
  </g>
 </g>
 <defs>
  <clipPath id="pbd862a9d85">
   <rect height="266.112" width="285.696" x="57.6" y="41.472"/>
  </clipPath>
  <clipPath id="pf7405c5eb3">
   <rect height="266.112" width="13.3056" x="361.152" y="41.472"/>
  </clipPath>
 </defs>
</svg>
