<?xml version="1.0" encoding="utf-8" standalone="no"?>
<!DOCTYPE svg PUBLIC "-//W3C//DTD SVG 1.1//EN"
  "http://www.w3.org/Graphics/SVG/1.1/DTD/svg11.dtd">
<!-- Created with matplotlib (http://matplotlib.org/) -->
<svg height="345.6pt" version="1.1" viewBox="0 0 460.8 345.6" width="460.8pt" xmlns="http://www.w3.org/2000/svg" xmlns:xlink="http://www.w3.org/1999/xlink">
 <defs>
  <style type="text/css">
*{stroke-linecap:butt;stroke-linejoin:round;}
  </style>
 </defs>
 <g id="figure_1">
  <g id="patch_1">
   <path d="M 0 345.6 
L 460.8 345.6 
L 460.8 0 
L 0 0 
z
" style="fill:#ffffff;"/>
  </g>
  <g id="axes_1">
   <g id="CircleCollection_1">
    <path clip-path="url(#pc59b02f645)" d="M 329.998925 210.786049 
C 331.755878 210.786049 333.441108 210.088004 334.683461 208.84565 
C 335.925815 207.603297 336.62386 205.918067 336.62386 204.161114 
C 336.62386 202.40416 335.925815 200.718931 334.683461 199.476577 
C 333.441108 198.234224 331.755878 197.536179 329.998925 197.536179 
C 328.241972 197.536179 326.556742 198.234224 325.314388 199.476577 
C 324.072035 200.718931 323.37399 202.40416 323.37399 204.161114 
C 323.37399 205.918067 324.072035 207.603297 325.314388 208.84565 
C 326.556742 210.088004 328.241972 210.786049 329.998925 210.786049 
z
" style="fill:#287c8e;"/>
    <path clip-path="url(#pc59b02f645)" d="M 243.265534 224.857699 
C 245.009354 224.857699 246.681986 224.164872 247.915054 222.931805 
C 249.148121 221.698738 249.840948 220.026105 249.840948 218.282285 
C 249.840948 216.538465 249.148121 214.865833 247.915054 213.632766 
C 246.681986 212.399699 245.009354 211.706872 243.265534 211.706872 
C 241.521714 211.706872 239.849081 212.399699 238.616014 213.632766 
C 237.382947 214.865833 236.69012 216.538465 236.69012 218.282285 
C 236.69012 220.026105 237.382947 221.698738 238.616014 222.931805 
C 239.849081 224.164872 241.521714 224.857699 243.265534 224.857699 
z
" style="fill:#471365;"/>
    <path clip-path="url(#pc59b02f645)" d="M 113.883615 104.839633 
C 115.587753 104.839633 117.222324 104.162572 118.427331 102.957564 
C 119.632339 101.752556 120.3094 100.117986 120.3094 98.413848 
C 120.3094 96.70971 119.632339 95.07514 118.427331 93.870132 
C 117.222324 92.665125 115.587753 91.988063 113.883615 91.988063 
C 112.179477 91.988063 110.544907 92.665125 109.339899 93.870132 
C 108.134892 95.07514 107.457831 96.70971 107.457831 98.413848 
C 107.457831 100.117986 108.134892 101.752556 109.339899 102.957564 
C 110.544907 104.162572 112.179477 104.839633 113.883615 104.839633 
z
" style="fill:#375a8c;"/>
    <path clip-path="url(#pc59b02f645)" d="M 91.223071 83.894037 
C 92.916759 83.894037 94.541307 83.221127 95.738926 82.023508 
C 96.936545 80.82589 97.609454 79.201342 97.609454 77.507653 
C 97.609454 75.813964 96.936545 74.189417 95.738926 72.991798 
C 94.541307 71.794179 92.916759 71.12127 91.223071 71.12127 
C 89.529382 71.12127 87.904834 71.794179 86.707215 72.991798 
C 85.509597 74.189417 84.836687 75.813964 84.836687 77.507653 
C 84.836687 79.201342 85.509597 80.82589 86.707215 82.023508 
C 87.904834 83.221127 89.529382 83.894037 91.223071 83.894037 
z
" style="fill:#365c8d;"/>
    <path clip-path="url(#pc59b02f645)" d="M 137.397924 124.601556 
C 139.110989 124.601556 140.754122 123.920948 141.965441 122.709629 
C 143.176761 121.498309 143.857369 119.855176 143.857369 118.142111 
C 143.857369 116.429047 143.176761 114.785914 141.965441 113.574594 
C 140.754122 112.363274 139.110989 111.682667 137.397924 111.682667 
C 135.684859 111.682667 134.041727 112.363274 132.830407 113.574594 
C 131.619087 114.785914 130.938479 116.429047 130.938479 118.142111 
C 130.938479 119.855176 131.619087 121.498309 132.830407 122.709629 
C 134.041727 123.920948 135.684859 124.601556 137.397924 124.601556 
z
" style="fill:#3c508b;"/>
    <path clip-path="url(#pc59b02f645)" d="M 219.621497 135.936733 
C 221.338029 135.936733 222.984486 135.254748 224.198257 134.040977 
C 225.412028 132.827206 226.094014 131.180748 226.094014 129.464216 
C 226.094014 127.747685 225.412028 126.101227 224.198257 124.887456 
C 222.984486 123.673685 221.338029 122.9917 219.621497 122.9917 
C 217.904966 122.9917 216.258508 123.673685 215.044737 124.887456 
C 213.830966 126.101227 213.148981 127.747685 213.148981 129.464216 
C 213.148981 131.180748 213.830966 132.827206 215.044737 134.040977 
C 216.258508 135.254748 217.904966 135.936733 219.621497 135.936733 
z
" style="fill:#89d548;"/>
    <path clip-path="url(#pc59b02f645)" d="M 325.021063 179.835491 
C 326.7706 179.835491 328.448716 179.140392 329.685825 177.903283 
C 330.922935 176.666174 331.618033 174.988058 331.618033 173.238521 
C 331.618033 171.488984 330.922935 169.810868 329.685825 168.573759 
C 328.448716 167.33665 326.7706 166.641551 325.021063 166.641551 
C 323.271527 166.641551 321.593411 167.33665 320.356301 168.573759 
C 319.119192 169.810868 318.424094 171.488984 318.424094 173.238521 
C 318.424094 174.988058 319.119192 176.666174 320.356301 177.903283 
C 321.593411 179.140392 323.271527 179.835491 325.021063 179.835491 
z
" style="fill:#25848e;"/>
    <path clip-path="url(#pc59b02f645)" d="M 276.733366 151.434372 
C 278.468624 151.434372 280.133044 150.744946 281.360056 149.517934 
C 282.587069 148.290921 283.276494 146.626502 283.276494 144.891244 
C 283.276494 143.155986 282.587069 141.491566 281.360056 140.264554 
C 280.133044 139.037541 278.468624 138.348116 276.733366 138.348116 
C 274.998108 138.348116 273.333688 139.037541 272.106676 140.264554 
C 270.879663 141.491566 270.190238 143.155986 270.190238 144.891244 
C 270.190238 146.626502 270.879663 148.290921 272.106676 149.517934 
C 273.333688 150.744946 274.998108 151.434372 276.733366 151.434372 
z
" style="fill:#23898e;"/>
    <path clip-path="url(#pc59b02f645)" d="M 214.802355 245.395774 
C 216.542824 245.395774 218.212242 244.704278 219.442939 243.473581 
C 220.673637 242.242883 221.365132 240.573465 221.365132 238.832997 
C 221.365132 237.092528 220.673637 235.42311 219.442939 234.192413 
C 218.212242 232.961715 216.542824 232.27022 214.802355 232.27022 
C 213.061887 232.27022 211.392469 232.961715 210.161771 234.192413 
C 208.931074 235.42311 208.239578 237.092528 208.239578 238.832997 
C 208.239578 240.573465 208.931074 242.242883 210.161771 243.473581 
C 211.392469 244.704278 213.061887 245.395774 214.802355 245.395774 
z
" style="fill:#472e7c;"/>
    <path clip-path="url(#pc59b02f645)" d="M 156.804402 235.242379 
C 158.533438 235.242379 160.191889 234.555425 161.414502 233.332813 
C 162.637115 232.1102 163.324068 230.451748 163.324068 228.722712 
C 163.324068 226.993677 162.637115 225.335225 161.414502 224.112612 
C 160.191889 222.889999 158.533438 222.203046 156.804402 222.203046 
C 155.075366 222.203046 153.416915 222.889999 152.194302 224.112612 
C 150.971689 225.335225 150.284736 226.993677 150.284736 228.722712 
C 150.284736 230.451748 150.971689 232.1102 152.194302 233.332813 
C 153.416915 234.555425 155.075366 235.242379 156.804402 235.242379 
z
" style="fill:#228b8d;"/>
    <path clip-path="url(#pc59b02f645)" d="M 199.850984 190.071643 
C 201.583777 190.071643 203.245832 189.383198 204.471101 188.157928 
C 205.69637 186.932659 206.384816 185.270604 206.384816 183.537812 
C 206.384816 181.80502 205.69637 180.142965 204.471101 178.917695 
C 203.245832 177.692426 201.583777 177.00398 199.850984 177.00398 
C 198.118192 177.00398 196.456137 177.692426 195.230868 178.917695 
C 194.005599 180.142965 193.317153 181.80502 193.317153 183.537812 
C 193.317153 185.270604 194.005599 186.932659 195.230868 188.157928 
C 196.456137 189.383198 198.118192 190.071643 199.850984 190.071643 
z
" style="fill:#46307e;"/>
    <path clip-path="url(#pc59b02f645)" d="M 190.717832 156.051171 
C 192.441001 156.051171 194.093825 155.366548 195.31229 154.148084 
C 196.530754 152.929619 197.215376 151.276795 197.215376 149.553626 
C 197.215376 147.830457 196.530754 146.177633 195.31229 144.959168 
C 194.093825 143.740704 192.441001 143.056081 190.717832 143.056081 
C 188.994663 143.056081 187.341838 143.740704 186.123374 144.959168 
C 184.90491 146.177633 184.220287 147.830457 184.220287 149.553626 
C 184.220287 151.276795 184.90491 152.929619 186.123374 154.148084 
C 187.341838 155.366548 188.994663 156.051171 190.717832 156.051171 
z
" style="fill:#46085c;"/>
    <path clip-path="url(#pc59b02f645)" d="M 162.152827 141.952678 
C 163.871373 141.952678 165.519763 141.269892 166.734958 140.054697 
C 167.950154 138.839501 168.632939 137.191111 168.632939 135.472566 
C 168.632939 133.75402 167.950154 132.10563 166.734958 130.890434 
C 165.519763 129.675239 163.871373 128.992454 162.152827 128.992454 
C 160.434282 128.992454 158.785892 129.675239 157.570696 130.890434 
C 156.355501 132.10563 155.672715 133.75402 155.672715 135.472566 
C 155.672715 137.191111 156.355501 138.839501 157.570696 140.054697 
C 158.785892 141.269892 160.434282 141.952678 162.152827 141.952678 
z
" style="fill:#2c718e;"/>
    <path clip-path="url(#pc59b02f645)" d="M 186.735756 222.976864 
C 188.468937 222.976864 190.131364 222.288264 191.356908 221.06272 
C 192.582453 219.837176 193.271053 218.174748 193.271053 216.441567 
C 193.271053 214.708386 192.582453 213.045958 191.356908 211.820414 
C 190.131364 210.59487 188.468937 209.90627 186.735756 209.90627 
C 185.002575 209.90627 183.340147 210.59487 182.114603 211.820414 
C 180.889059 213.045958 180.200459 214.708386 180.200459 216.441567 
C 180.200459 218.174748 180.889059 219.837176 182.114603 221.06272 
C 183.340147 222.288264 185.002575 222.976864 186.735756 222.976864 
z
" style="fill:#482576;"/>
    <path clip-path="url(#pc59b02f645)" d="M 182.358242 291.164522 
C 184.096956 291.164522 185.76469 290.473723 186.994146 289.244267 
C 188.223603 288.014811 188.914401 286.347076 188.914401 284.608363 
C 188.914401 282.869649 188.223603 281.201915 186.994146 279.972459 
C 185.76469 278.743002 184.096956 278.052204 182.358242 278.052204 
C 180.619529 278.052204 178.951794 278.743002 177.722338 279.972459 
C 176.492882 281.201915 175.802084 282.869649 175.802084 284.608363 
C 175.802084 286.347076 176.492882 288.014811 177.722338 289.244267 
C 178.951794 290.473723 180.619529 291.164522 182.358242 291.164522 
z
" style="fill:#365c8d;"/>
    <path clip-path="url(#pc59b02f645)" d="M 210.901869 278.733471 
C 212.644966 278.733471 214.316905 278.040931 215.549461 276.808376 
C 216.782017 275.57582 217.474556 273.903881 217.474556 272.160784 
C 217.474556 270.417687 216.782017 268.745748 215.549461 267.513192 
C 214.316905 266.280636 212.644966 265.588096 210.901869 265.588096 
C 209.158772 265.588096 207.486833 266.280636 206.254277 267.513192 
C 205.021721 268.745748 204.329181 270.417687 204.329181 272.160784 
C 204.329181 273.903881 205.021721 275.57582 206.254277 276.808376 
C 207.486833 278.040931 209.158772 278.733471 210.901869 278.733471 
z
" style="fill:#25838e;"/>
    <path clip-path="url(#pc59b02f645)" d="M 274.168826 234.555596 
C 275.918943 234.555596 277.597615 233.860268 278.835134 232.622748 
C 280.072653 231.385229 280.767982 229.706557 280.767982 227.956441 
C 280.767982 226.206324 280.072653 224.527653 278.835134 223.290133 
C 277.597615 222.052614 275.918943 221.357286 274.168826 221.357286 
C 272.41871 221.357286 270.740038 222.052614 269.502519 223.290133 
C 268.265 224.527653 267.569671 226.206324 267.569671 227.956441 
C 267.569671 229.706557 268.265 231.385229 269.502519 232.622748 
C 270.740038 233.860268 272.41871 234.555596 274.168826 234.555596 
z
" style="fill:#2a768e;"/>
    <path clip-path="url(#pc59b02f645)" d="M 306.119535 153.946547 
C 307.863423 153.946547 309.53612 153.253693 310.769234 152.020579 
C 312.002349 150.787464 312.695203 149.114767 312.695203 147.370879 
C 312.695203 145.626992 312.002349 143.954295 310.769234 142.72118 
C 309.53612 141.488066 307.863423 140.795212 306.119535 140.795212 
C 304.375648 140.795212 302.70295 141.488066 301.469836 142.72118 
C 300.236721 143.954295 299.543867 145.626992 299.543867 147.370879 
C 299.543867 149.114767 300.236721 150.787464 301.469836 152.020579 
C 302.70295 153.253693 304.375648 153.946547 306.119535 153.946547 
z
" style="fill:#365c8d;"/>
    <path clip-path="url(#pc59b02f645)" d="M 244.872839 157.782431 
C 246.603841 157.782431 248.264178 157.094697 249.488181 155.870694 
C 250.712184 154.646691 251.399919 152.986353 251.399919 151.255352 
C 251.399919 149.52435 250.712184 147.864012 249.488181 146.640009 
C 248.264178 145.416006 246.603841 144.728272 244.872839 144.728272 
C 243.141837 144.728272 241.481499 145.416006 240.257496 146.640009 
C 239.033493 147.864012 238.345759 149.52435 238.345759 151.255352 
C 238.345759 152.986353 239.033493 154.646691 240.257496 155.870694 
C 241.481499 157.094697 243.141837 157.782431 244.872839 157.782431 
z
" style="fill:#440154;"/>
    <path clip-path="url(#pc59b02f645)" d="M 303.05784 228.581203 
C 304.81145 228.581203 306.493472 227.884486 307.73346 226.644497 
C 308.973449 225.404508 309.670166 223.722486 309.670166 221.968877 
C 309.670166 220.215268 308.973449 218.533246 307.73346 217.293257 
C 306.493472 216.053268 304.81145 215.356552 303.05784 215.356552 
C 301.304231 215.356552 299.622209 216.053268 298.38222 217.293257 
C 297.142231 218.533246 296.445515 220.215268 296.445515 221.968877 
C 296.445515 223.722486 297.142231 225.404508 298.38222 226.644497 
C 299.622209 227.884486 301.304231 228.581203 303.05784 228.581203 
z
" style="fill:#2d708e;"/>
    <path clip-path="url(#pc59b02f645)" d="M 232.700072 191.461797 
C 234.438802 191.461797 236.106553 190.770992 237.336021 189.541524 
C 238.565489 188.312056 239.256294 186.644305 239.256294 184.905574 
C 239.256294 183.166844 238.565489 181.499093 237.336021 180.269625 
C 236.106553 179.040157 234.438802 178.349352 232.700072 178.349352 
C 230.961341 178.349352 229.293591 179.040157 228.064122 180.269625 
C 226.834654 181.499093 226.143849 183.166844 226.143849 184.905574 
C 226.143849 186.644305 226.834654 188.312056 228.064122 189.541524 
C 229.293591 190.770992 230.961341 191.461797 232.700072 191.461797 
z
" style="fill:#463480;"/>
    <path clip-path="url(#pc59b02f645)" d="M 152.965484 267.556319 
C 154.696633 267.556319 156.357112 266.868527 157.581219 265.644419 
C 158.805327 264.420312 159.493119 262.759833 159.493119 261.028684 
C 159.493119 259.297535 158.805327 257.637057 157.581219 256.412949 
C 156.357112 255.188842 154.696633 254.501049 152.965484 254.501049 
C 151.234335 254.501049 149.573857 255.188842 148.349749 256.412949 
C 147.125642 257.637057 146.437849 259.297535 146.437849 261.028684 
C 146.437849 262.759833 147.125642 264.420312 148.349749 265.644419 
C 149.573857 266.868527 151.234335 267.556319 152.965484 267.556319 
z
" style="fill:#34608d;"/>
    <path clip-path="url(#pc59b02f645)" d="M 70.883283 60.316121 
C 72.562294 60.316121 74.172763 59.649043 75.360003 58.461803 
C 76.547243 57.274563 77.214321 55.664094 77.214321 53.985084 
C 77.214321 52.306073 76.547243 50.695604 75.360003 49.508364 
C 74.172763 48.321124 72.562294 47.654046 70.883283 47.654046 
C 69.204272 47.654046 67.593803 48.321124 66.406563 49.508364 
C 65.219323 50.695604 64.552245 52.306073 64.552245 53.985084 
C 64.552245 55.664094 65.219323 57.274563 66.406563 58.461803 
C 67.593803 59.649043 69.204272 60.316121 70.883283 60.316121 
z
" style="fill:#fde725;"/>
    <path clip-path="url(#pc59b02f645)" d="M 151.293389 301.595173 
C 153.027256 301.595173 154.690341 300.9063 155.91637 299.680271 
C 157.142399 298.454242 157.831272 296.791156 157.831272 295.05729 
C 157.831272 293.323423 157.142399 291.660337 155.91637 290.434308 
C 154.690341 289.208279 153.027256 288.519407 151.293389 288.519407 
C 149.559522 288.519407 147.896436 289.208279 146.670407 290.434308 
C 145.444378 291.660337 144.755506 293.323423 144.755506 295.05729 
C 144.755506 296.791156 145.444378 298.454242 146.670407 299.680271 
C 147.896436 300.9063 149.559522 301.595173 151.293389 301.595173 
z
" style="fill:#28ae80;"/>
   </g>
   <g id="text_1">
    <!-- Structure #5056, $E_N$=-180.61eV, ΔE=-0.02eV -->
    <defs>
     <path d="M 53.515625 70.515625 
L 53.515625 60.890625 
Q 47.90625 63.578125 42.921875 64.890625 
Q 37.9375 66.21875 33.296875 66.21875 
Q 25.25 66.21875 20.875 63.09375 
Q 16.5 59.96875 16.5 54.203125 
Q 16.5 49.359375 19.40625 46.890625 
Q 22.3125 44.4375 30.421875 42.921875 
L 36.375 41.703125 
Q 47.40625 39.59375 52.65625 34.296875 
Q 57.90625 29 57.90625 20.125 
Q 57.90625 9.515625 50.796875 4.046875 
Q 43.703125 -1.421875 29.984375 -1.421875 
Q 24.8125 -1.421875 18.96875 -0.25 
Q 13.140625 0.921875 6.890625 3.21875 
L 6.890625 13.375 
Q 12.890625 10.015625 18.65625 8.296875 
Q 24.421875 6.59375 29.984375 6.59375 
Q 38.421875 6.59375 43.015625 9.90625 
Q 47.609375 13.234375 47.609375 19.390625 
Q 47.609375 24.75 44.3125 27.78125 
Q 41.015625 30.8125 33.5 32.328125 
L 27.484375 33.5 
Q 16.453125 35.6875 11.515625 40.375 
Q 6.59375 45.0625 6.59375 53.421875 
Q 6.59375 63.09375 13.40625 68.65625 
Q 20.21875 74.21875 32.171875 74.21875 
Q 37.3125 74.21875 42.625 73.28125 
Q 47.953125 72.359375 53.515625 70.515625 
z
" id="DejaVuSans-53"/>
     <path d="M 18.3125 70.21875 
L 18.3125 54.6875 
L 36.8125 54.6875 
L 36.8125 47.703125 
L 18.3125 47.703125 
L 18.3125 18.015625 
Q 18.3125 11.328125 20.140625 9.421875 
Q 21.96875 7.515625 27.59375 7.515625 
L 36.8125 7.515625 
L 36.8125 0 
L 27.59375 0 
Q 17.1875 0 13.234375 3.875 
Q 9.28125 7.765625 9.28125 18.015625 
L 9.28125 47.703125 
L 2.6875 47.703125 
L 2.6875 54.6875 
L 9.28125 54.6875 
L 9.28125 70.21875 
z
" id="DejaVuSans-74"/>
     <path d="M 41.109375 46.296875 
Q 39.59375 47.171875 37.8125 47.578125 
Q 36.03125 48 33.890625 48 
Q 26.265625 48 22.1875 43.046875 
Q 18.109375 38.09375 18.109375 28.8125 
L 18.109375 0 
L 9.078125 0 
L 9.078125 54.6875 
L 18.109375 54.6875 
L 18.109375 46.1875 
Q 20.953125 51.171875 25.484375 53.578125 
Q 30.03125 56 36.53125 56 
Q 37.453125 56 38.578125 55.875 
Q 39.703125 55.765625 41.0625 55.515625 
z
" id="DejaVuSans-72"/>
     <path d="M 8.5 21.578125 
L 8.5 54.6875 
L 17.484375 54.6875 
L 17.484375 21.921875 
Q 17.484375 14.15625 20.5 10.265625 
Q 23.53125 6.390625 29.59375 6.390625 
Q 36.859375 6.390625 41.078125 11.03125 
Q 45.3125 15.671875 45.3125 23.6875 
L 45.3125 54.6875 
L 54.296875 54.6875 
L 54.296875 0 
L 45.3125 0 
L 45.3125 8.40625 
Q 42.046875 3.421875 37.71875 1 
Q 33.40625 -1.421875 27.6875 -1.421875 
Q 18.265625 -1.421875 13.375 4.4375 
Q 8.5 10.296875 8.5 21.578125 
z
M 31.109375 56 
z
" id="DejaVuSans-75"/>
     <path d="M 48.78125 52.59375 
L 48.78125 44.1875 
Q 44.96875 46.296875 41.140625 47.34375 
Q 37.3125 48.390625 33.40625 48.390625 
Q 24.65625 48.390625 19.8125 42.84375 
Q 14.984375 37.3125 14.984375 27.296875 
Q 14.984375 17.28125 19.8125 11.734375 
Q 24.65625 6.203125 33.40625 6.203125 
Q 37.3125 6.203125 41.140625 7.25 
Q 44.96875 8.296875 48.78125 10.40625 
L 48.78125 2.09375 
Q 45.015625 0.34375 40.984375 -0.53125 
Q 36.96875 -1.421875 32.421875 -1.421875 
Q 20.0625 -1.421875 12.78125 6.34375 
Q 5.515625 14.109375 5.515625 27.296875 
Q 5.515625 40.671875 12.859375 48.328125 
Q 20.21875 56 33.015625 56 
Q 37.15625 56 41.109375 55.140625 
Q 45.0625 54.296875 48.78125 52.59375 
z
" id="DejaVuSans-63"/>
     <path d="M 56.203125 29.59375 
L 56.203125 25.203125 
L 14.890625 25.203125 
Q 15.484375 15.921875 20.484375 11.0625 
Q 25.484375 6.203125 34.421875 6.203125 
Q 39.59375 6.203125 44.453125 7.46875 
Q 49.3125 8.734375 54.109375 11.28125 
L 54.109375 2.78125 
Q 49.265625 0.734375 44.1875 -0.34375 
Q 39.109375 -1.421875 33.890625 -1.421875 
Q 20.796875 -1.421875 13.15625 6.1875 
Q 5.515625 13.8125 5.515625 26.8125 
Q 5.515625 40.234375 12.765625 48.109375 
Q 20.015625 56 32.328125 56 
Q 43.359375 56 49.78125 48.890625 
Q 56.203125 41.796875 56.203125 29.59375 
z
M 47.21875 32.234375 
Q 47.125 39.59375 43.09375 43.984375 
Q 39.0625 48.390625 32.421875 48.390625 
Q 24.90625 48.390625 20.390625 44.140625 
Q 15.875 39.890625 15.1875 32.171875 
z
" id="DejaVuSans-65"/>
     <path id="DejaVuSans-20"/>
     <path d="M 51.125 44 
L 36.921875 44 
L 32.8125 27.6875 
L 47.125 27.6875 
z
M 43.796875 71.78125 
L 38.71875 51.515625 
L 52.984375 51.515625 
L 58.109375 71.78125 
L 65.921875 71.78125 
L 60.890625 51.515625 
L 76.125 51.515625 
L 76.125 44 
L 58.984375 44 
L 54.984375 27.6875 
L 70.515625 27.6875 
L 70.515625 20.21875 
L 53.078125 20.21875 
L 48 0 
L 40.1875 0 
L 45.21875 20.21875 
L 30.90625 20.21875 
L 25.875 0 
L 18.015625 0 
L 23.09375 20.21875 
L 7.71875 20.21875 
L 7.71875 27.6875 
L 24.90625 27.6875 
L 29 44 
L 13.28125 44 
L 13.28125 51.515625 
L 30.90625 51.515625 
L 35.890625 71.78125 
z
" id="DejaVuSans-23"/>
     <path d="M 10.796875 72.90625 
L 49.515625 72.90625 
L 49.515625 64.59375 
L 19.828125 64.59375 
L 19.828125 46.734375 
Q 21.96875 47.46875 24.109375 47.828125 
Q 26.265625 48.1875 28.421875 48.1875 
Q 40.625 48.1875 47.75 41.5 
Q 54.890625 34.8125 54.890625 23.390625 
Q 54.890625 11.625 47.5625 5.09375 
Q 40.234375 -1.421875 26.90625 -1.421875 
Q 22.3125 -1.421875 17.546875 -0.640625 
Q 12.796875 0.140625 7.71875 1.703125 
L 7.71875 11.625 
Q 12.109375 9.234375 16.796875 8.0625 
Q 21.484375 6.890625 26.703125 6.890625 
Q 35.15625 6.890625 40.078125 11.328125 
Q 45.015625 15.765625 45.015625 23.390625 
Q 45.015625 31 40.078125 35.4375 
Q 35.15625 39.890625 26.703125 39.890625 
Q 22.75 39.890625 18.8125 39.015625 
Q 14.890625 38.140625 10.796875 36.28125 
z
" id="DejaVuSans-35"/>
     <path d="M 31.78125 66.40625 
Q 24.171875 66.40625 20.328125 58.90625 
Q 16.5 51.421875 16.5 36.375 
Q 16.5 21.390625 20.328125 13.890625 
Q 24.171875 6.390625 31.78125 6.390625 
Q 39.453125 6.390625 43.28125 13.890625 
Q 47.125 21.390625 47.125 36.375 
Q 47.125 51.421875 43.28125 58.90625 
Q 39.453125 66.40625 31.78125 66.40625 
z
M 31.78125 74.21875 
Q 44.046875 74.21875 50.515625 64.515625 
Q 56.984375 54.828125 56.984375 36.375 
Q 56.984375 17.96875 50.515625 8.265625 
Q 44.046875 -1.421875 31.78125 -1.421875 
Q 19.53125 -1.421875 13.0625 8.265625 
Q 6.59375 17.96875 6.59375 36.375 
Q 6.59375 54.828125 13.0625 64.515625 
Q 19.53125 74.21875 31.78125 74.21875 
z
" id="DejaVuSans-30"/>
     <path d="M 33.015625 40.375 
Q 26.375 40.375 22.484375 35.828125 
Q 18.609375 31.296875 18.609375 23.390625 
Q 18.609375 15.53125 22.484375 10.953125 
Q 26.375 6.390625 33.015625 6.390625 
Q 39.65625 6.390625 43.53125 10.953125 
Q 47.40625 15.53125 47.40625 23.390625 
Q 47.40625 31.296875 43.53125 35.828125 
Q 39.65625 40.375 33.015625 40.375 
z
M 52.59375 71.296875 
L 52.59375 62.3125 
Q 48.875 64.0625 45.09375 64.984375 
Q 41.3125 65.921875 37.59375 65.921875 
Q 27.828125 65.921875 22.671875 59.328125 
Q 17.53125 52.734375 16.796875 39.40625 
Q 19.671875 43.65625 24.015625 45.921875 
Q 28.375 48.1875 33.59375 48.1875 
Q 44.578125 48.1875 50.953125 41.515625 
Q 57.328125 34.859375 57.328125 23.390625 
Q 57.328125 12.15625 50.6875 5.359375 
Q 44.046875 -1.421875 33.015625 -1.421875 
Q 20.359375 -1.421875 13.671875 8.265625 
Q 6.984375 17.96875 6.984375 36.375 
Q 6.984375 53.65625 15.1875 63.9375 
Q 23.390625 74.21875 37.203125 74.21875 
Q 40.921875 74.21875 44.703125 73.484375 
Q 48.484375 72.75 52.59375 71.296875 
z
" id="DejaVuSans-36"/>
     <path d="M 11.71875 12.40625 
L 22.015625 12.40625 
L 22.015625 4 
L 14.015625 -11.625 
L 7.71875 -11.625 
L 11.71875 4 
z
" id="DejaVuSans-2c"/>
     <path d="M 16.890625 72.90625 
L 62.984375 72.90625 
L 61.375 64.59375 
L 25.09375 64.59375 
L 20.90625 43.015625 
L 55.71875 43.015625 
L 54.109375 34.71875 
L 19.28125 34.71875 
L 14.203125 8.296875 
L 51.3125 8.296875 
L 49.703125 0 
L 2.6875 0 
z
" id="DejaVuSans-Oblique-45"/>
     <path d="M 16.890625 72.90625 
L 30.171875 72.90625 
L 50.296875 10.40625 
L 62.5 72.90625 
L 72.125 72.90625 
L 57.90625 0 
L 44.578125 0 
L 24.515625 62.890625 
L 12.3125 0 
L 2.6875 0 
z
" id="DejaVuSans-Oblique-4e"/>
     <path d="M 10.59375 45.40625 
L 73.1875 45.40625 
L 73.1875 37.203125 
L 10.59375 37.203125 
z
M 10.59375 25.484375 
L 73.1875 25.484375 
L 73.1875 17.1875 
L 10.59375 17.1875 
z
" id="DejaVuSans-3d"/>
     <path d="M 4.890625 31.390625 
L 31.203125 31.390625 
L 31.203125 23.390625 
L 4.890625 23.390625 
z
" id="DejaVuSans-2d"/>
     <path d="M 12.40625 8.296875 
L 28.515625 8.296875 
L 28.515625 63.921875 
L 10.984375 60.40625 
L 10.984375 69.390625 
L 28.421875 72.90625 
L 38.28125 72.90625 
L 38.28125 8.296875 
L 54.390625 8.296875 
L 54.390625 0 
L 12.40625 0 
z
" id="DejaVuSans-31"/>
     <path d="M 31.78125 34.625 
Q 24.75 34.625 20.71875 30.859375 
Q 16.703125 27.09375 16.703125 20.515625 
Q 16.703125 13.921875 20.71875 10.15625 
Q 24.75 6.390625 31.78125 6.390625 
Q 38.8125 6.390625 42.859375 10.171875 
Q 46.921875 13.96875 46.921875 20.515625 
Q 46.921875 27.09375 42.890625 30.859375 
Q 38.875 34.625 31.78125 34.625 
z
M 21.921875 38.8125 
Q 15.578125 40.375 12.03125 44.71875 
Q 8.5 49.078125 8.5 55.328125 
Q 8.5 64.0625 14.71875 69.140625 
Q 20.953125 74.21875 31.78125 74.21875 
Q 42.671875 74.21875 48.875 69.140625 
Q 55.078125 64.0625 55.078125 55.328125 
Q 55.078125 49.078125 51.53125 44.71875 
Q 48 40.375 41.703125 38.8125 
Q 48.828125 37.15625 52.796875 32.3125 
Q 56.78125 27.484375 56.78125 20.515625 
Q 56.78125 9.90625 50.3125 4.234375 
Q 43.84375 -1.421875 31.78125 -1.421875 
Q 19.734375 -1.421875 13.25 4.234375 
Q 6.78125 9.90625 6.78125 20.515625 
Q 6.78125 27.484375 10.78125 32.3125 
Q 14.796875 37.15625 21.921875 38.8125 
z
M 18.3125 54.390625 
Q 18.3125 48.734375 21.84375 45.5625 
Q 25.390625 42.390625 31.78125 42.390625 
Q 38.140625 42.390625 41.71875 45.5625 
Q 45.3125 48.734375 45.3125 54.390625 
Q 45.3125 60.0625 41.71875 63.234375 
Q 38.140625 66.40625 31.78125 66.40625 
Q 25.390625 66.40625 21.84375 63.234375 
Q 18.3125 60.0625 18.3125 54.390625 
z
" id="DejaVuSans-38"/>
     <path d="M 10.6875 12.40625 
L 21 12.40625 
L 21 0 
L 10.6875 0 
z
" id="DejaVuSans-2e"/>
     <path d="M 28.609375 0 
L 0.78125 72.90625 
L 11.078125 72.90625 
L 34.1875 11.53125 
L 57.328125 72.90625 
L 67.578125 72.90625 
L 39.796875 0 
z
" id="DejaVuSans-56"/>
     <path d="M 34.1875 63.1875 
L 14.15625 8.203125 
L 54.25 8.203125 
z
M 0.78125 0 
L 28.609375 72.90625 
L 39.796875 72.90625 
L 67.578125 0 
z
" id="DejaVuSans-394"/>
     <path d="M 9.8125 72.90625 
L 55.90625 72.90625 
L 55.90625 64.59375 
L 19.671875 64.59375 
L 19.671875 43.015625 
L 54.390625 43.015625 
L 54.390625 34.71875 
L 19.671875 34.71875 
L 19.671875 8.296875 
L 56.78125 8.296875 
L 56.78125 0 
L 9.8125 0 
z
" id="DejaVuSans-45"/>
     <path d="M 19.1875 8.296875 
L 53.609375 8.296875 
L 53.609375 0 
L 7.328125 0 
L 7.328125 8.296875 
Q 12.9375 14.109375 22.625 23.890625 
Q 32.328125 33.6875 34.8125 36.53125 
Q 39.546875 41.84375 41.421875 45.53125 
Q 43.3125 49.21875 43.3125 52.78125 
Q 43.3125 58.59375 39.234375 62.25 
Q 35.15625 65.921875 28.609375 65.921875 
Q 23.96875 65.921875 18.8125 64.3125 
Q 13.671875 62.703125 7.8125 59.421875 
L 7.8125 69.390625 
Q 13.765625 71.78125 18.9375 73 
Q 24.125 74.21875 28.421875 74.21875 
Q 39.75 74.21875 46.484375 68.546875 
Q 53.21875 62.890625 53.21875 53.421875 
Q 53.21875 48.921875 51.53125 44.890625 
Q 49.859375 40.875 45.40625 35.40625 
Q 44.1875 33.984375 37.640625 27.21875 
Q 31.109375 20.453125 19.1875 8.296875 
z
" id="DejaVuSans-32"/>
    </defs>
    <g transform="translate(63.228 35.472)scale(0.12 -0.12)">
     <use transform="translate(0 0.78125)" xlink:href="#DejaVuSans-53"/>
     <use transform="translate(63.476562 0.78125)" xlink:href="#DejaVuSans-74"/>
     <use transform="translate(102.685547 0.78125)" xlink:href="#DejaVuSans-72"/>
     <use transform="translate(143.798828 0.78125)" xlink:href="#DejaVuSans-75"/>
     <use transform="translate(207.177734 0.78125)" xlink:href="#DejaVuSans-63"/>
     <use transform="translate(262.158203 0.78125)" xlink:href="#DejaVuSans-74"/>
     <use transform="translate(301.367188 0.78125)" xlink:href="#DejaVuSans-75"/>
     <use transform="translate(364.746094 0.78125)" xlink:href="#DejaVuSans-72"/>
     <use transform="translate(405.859375 0.78125)" xlink:href="#DejaVuSans-65"/>
     <use transform="translate(467.382812 0.78125)" xlink:href="#DejaVuSans-20"/>
     <use transform="translate(499.169922 0.78125)" xlink:href="#DejaVuSans-23"/>
     <use transform="translate(582.958984 0.78125)" xlink:href="#DejaVuSans-35"/>
     <use transform="translate(646.582031 0.78125)" xlink:href="#DejaVuSans-30"/>
     <use transform="translate(710.205078 0.78125)" xlink:href="#DejaVuSans-35"/>
     <use transform="translate(773.828125 0.78125)" xlink:href="#DejaVuSans-36"/>
     <use transform="translate(837.451172 0.78125)" xlink:href="#DejaVuSans-2c"/>
     <use transform="translate(869.238281 0.78125)" xlink:href="#DejaVuSans-20"/>
     <use transform="translate(901.025391 0.78125)" xlink:href="#DejaVuSans-Oblique-45"/>
     <use transform="translate(964.208984 -15.625)scale(0.7)" xlink:href="#DejaVuSans-Oblique-4e"/>
     <use transform="translate(1019.306641 0.78125)" xlink:href="#DejaVuSans-3d"/>
     <use transform="translate(1103.095703 0.78125)" xlink:href="#DejaVuSans-2d"/>
     <use transform="translate(1139.179688 0.78125)" xlink:href="#DejaVuSans-31"/>
     <use transform="translate(1202.802734 0.78125)" xlink:href="#DejaVuSans-38"/>
     <use transform="translate(1266.425781 0.78125)" xlink:href="#DejaVuSans-30"/>
     <use transform="translate(1330.048828 0.78125)" xlink:href="#DejaVuSans-2e"/>
     <use transform="translate(1361.835938 0.78125)" xlink:href="#DejaVuSans-36"/>
     <use transform="translate(1425.458984 0.78125)" xlink:href="#DejaVuSans-31"/>
     <use transform="translate(1489.082031 0.78125)" xlink:href="#DejaVuSans-65"/>
     <use transform="translate(1550.605469 0.78125)" xlink:href="#DejaVuSans-56"/>
     <use transform="translate(1619.013672 0.78125)" xlink:href="#DejaVuSans-2c"/>
     <use transform="translate(1650.800781 0.78125)" xlink:href="#DejaVuSans-20"/>
     <use transform="translate(1682.587891 0.78125)" xlink:href="#DejaVuSans-394"/>
     <use transform="translate(1750.996094 0.78125)" xlink:href="#DejaVuSans-45"/>
     <use transform="translate(1814.179688 0.78125)" xlink:href="#DejaVuSans-3d"/>
     <use transform="translate(1897.96875 0.78125)" xlink:href="#DejaVuSans-2d"/>
     <use transform="translate(1934.052734 0.78125)" xlink:href="#DejaVuSans-30"/>
     <use transform="translate(1997.675781 0.78125)" xlink:href="#DejaVuSans-2e"/>
     <use transform="translate(2029.462891 0.78125)" xlink:href="#DejaVuSans-30"/>
     <use transform="translate(2093.085938 0.78125)" xlink:href="#DejaVuSans-32"/>
     <use transform="translate(2156.708984 0.78125)" xlink:href="#DejaVuSans-65"/>
     <use transform="translate(2218.232422 0.78125)" xlink:href="#DejaVuSans-56"/>
    </g>
   </g>
  </g>
  <g id="axes_2">
   <g id="patch_2">
    <path clip-path="url(#pc403d76c96)" d="M 361.152 307.584 
L 361.152 306.5445 
L 361.152 42.5115 
L 361.152 41.472 
L 374.4576 41.472 
L 374.4576 42.5115 
L 374.4576 306.5445 
L 374.4576 307.584 
z
" style="fill:#ffffff;stroke:#ffffff;stroke-linejoin:miter;stroke-width:0.01;"/>
   </g>
   <image height="265.68" id="imaged1bc79835d" transform="scale(1 -1)translate(0 -265.68)" width="12.96" x="361.44" xlink:href="data:image/png;base64,
iVBORw0KGgoAAAANSUhEUgAAABIAAAFxCAYAAAB+2fgXAAAABHNCSVQICAgIfAhkiAAAAeVJREFUeJztncmNw0AQA2ckheYQNv9QLIfQ8ygsCgQ7AEI8+jAs2Puz/94F1LP2ReCsZ18bAWIeZ5XaGRBE7VnbptG+KI101FYyNSiQG2oRITXKNaX9uclOdi2XWjftVE32CZCO2ou5Bj1TcCBr/1zB9ge7Fq0Rg2NM9pvbtG+ua1QgsRYhDy0ISEiNc40BEibbSI0Coj5CBGtkpFbXJiAjNZlrwhuSOv2M1DjXbEdEciBt1JSDDQKKpmZr2rr2j0DBGpXaWEJq3bQzEPIS26r9J+Wzv9Tm8o3aajRXqc3VUXsApKNWjeZq0x4ABVNbm7lrszVigDqP5vIl2+eaT2yfRkL7g+dRcNPqjohkjaCvRVBq0H2U3LQrOJCx9kdTg4B8oxZzzTdqdYHEngjUCAPyUctN9sVRq2sTECW2UKNLd2jVtRmo1A6AhMmWaSRcR8nUdIHUuVb75zJS218EyEitro1At69pIdeSk30Lkw0FktNImGyZRhy1O5galmxd03LUsHWk06jUZiCq+5Wb1kZNN4+wJxJuWt8RAW5am2sYNZ9rYCBzZ3buPKJ2P5Yj4Toy3keyIyJbIxs1rml1byCA84gpch5RQNB7Q0qNMGq2Hy4BXdNR41yz/cEEJfZzUz96r9PoB0okjeQ8y9TkAAAAAElFTkSuQmCC" y="-41.76"/>
   <g id="matplotlib.axis_1"/>
   <g id="matplotlib.axis_2">
    <g id="ytick_1">
     <g id="line2d_1">
      <defs>
       <path d="M 0 0 
L 3.5 0 
" id="mbee6892a00" style="stroke:#000000;stroke-width:0.8;"/>
      </defs>
      <g>
       <use style="stroke:#000000;stroke-width:0.8;" x="374.4576" xlink:href="#mbee6892a00" y="284.255465"/>
      </g>
     </g>
     <g id="text_2">
      <!-- −8.5 -->
      <defs>
       <path d="M 10.59375 35.5 
L 73.1875 35.5 
L 73.1875 27.203125 
L 10.59375 27.203125 
z
" id="DejaVuSans-2212"/>
      </defs>
      <g transform="translate(381.4576 288.054684)scale(0.1 -0.1)">
       <use xlink:href="#DejaVuSans-2212"/>
       <use x="83.789062" xlink:href="#DejaVuSans-38"/>
       <use x="147.412109" xlink:href="#DejaVuSans-2e"/>
       <use x="179.199219" xlink:href="#DejaVuSans-35"/>
      </g>
     </g>
    </g>
    <g id="ytick_2">
     <g id="line2d_2">
      <g>
       <use style="stroke:#000000;stroke-width:0.8;" x="374.4576" xlink:href="#mbee6892a00" y="250.024377"/>
      </g>
     </g>
     <g id="text_3">
      <!-- −8.0 -->
      <g transform="translate(381.4576 253.823595)scale(0.1 -0.1)">
       <use xlink:href="#DejaVuSans-2212"/>
       <use x="83.789062" xlink:href="#DejaVuSans-38"/>
       <use x="147.412109" xlink:href="#DejaVuSans-2e"/>
       <use x="179.199219" xlink:href="#DejaVuSans-30"/>
      </g>
     </g>
    </g>
    <g id="ytick_3">
     <g id="line2d_3">
      <g>
       <use style="stroke:#000000;stroke-width:0.8;" x="374.4576" xlink:href="#mbee6892a00" y="215.793288"/>
      </g>
     </g>
     <g id="text_4">
      <!-- −7.5 -->
      <defs>
       <path d="M 8.203125 72.90625 
L 55.078125 72.90625 
L 55.078125 68.703125 
L 28.609375 0 
L 18.3125 0 
L 43.21875 64.59375 
L 8.203125 64.59375 
z
" id="DejaVuSans-37"/>
      </defs>
      <g transform="translate(381.4576 219.592507)scale(0.1 -0.1)">
       <use xlink:href="#DejaVuSans-2212"/>
       <use x="83.789062" xlink:href="#DejaVuSans-37"/>
       <use x="147.412109" xlink:href="#DejaVuSans-2e"/>
       <use x="179.199219" xlink:href="#DejaVuSans-35"/>
      </g>
     </g>
    </g>
    <g id="ytick_4">
     <g id="line2d_4">
      <g>
       <use style="stroke:#000000;stroke-width:0.8;" x="374.4576" xlink:href="#mbee6892a00" y="181.562199"/>
      </g>
     </g>
     <g id="text_5">
      <!-- −7.0 -->
      <g transform="translate(381.4576 185.361418)scale(0.1 -0.1)">
       <use xlink:href="#DejaVuSans-2212"/>
       <use x="83.789062" xlink:href="#DejaVuSans-37"/>
       <use x="147.412109" xlink:href="#DejaVuSans-2e"/>
       <use x="179.199219" xlink:href="#DejaVuSans-30"/>
      </g>
     </g>
    </g>
    <g id="ytick_5">
     <g id="line2d_5">
      <g>
       <use style="stroke:#000000;stroke-width:0.8;" x="374.4576" xlink:href="#mbee6892a00" y="147.33111"/>
      </g>
     </g>
     <g id="text_6">
      <!-- −6.5 -->
      <g transform="translate(381.4576 151.130329)scale(0.1 -0.1)">
       <use xlink:href="#DejaVuSans-2212"/>
       <use x="83.789062" xlink:href="#DejaVuSans-36"/>
       <use x="147.412109" xlink:href="#DejaVuSans-2e"/>
       <use x="179.199219" xlink:href="#DejaVuSans-35"/>
      </g>
     </g>
    </g>
    <g id="ytick_6">
     <g id="line2d_6">
      <g>
       <use style="stroke:#000000;stroke-width:0.8;" x="374.4576" xlink:href="#mbee6892a00" y="113.100022"/>
      </g>
     </g>
     <g id="text_7">
      <!-- −6.0 -->
      <g transform="translate(381.4576 116.89924)scale(0.1 -0.1)">
       <use xlink:href="#DejaVuSans-2212"/>
       <use x="83.789062" xlink:href="#DejaVuSans-36"/>
       <use x="147.412109" xlink:href="#DejaVuSans-2e"/>
       <use x="179.199219" xlink:href="#DejaVuSans-30"/>
      </g>
     </g>
    </g>
    <g id="ytick_7">
     <g id="line2d_7">
      <g>
       <use style="stroke:#000000;stroke-width:0.8;" x="374.4576" xlink:href="#mbee6892a00" y="78.868933"/>
      </g>
     </g>
     <g id="text_8">
      <!-- −5.5 -->
      <g transform="translate(381.4576 82.668152)scale(0.1 -0.1)">
       <use xlink:href="#DejaVuSans-2212"/>
       <use x="83.789062" xlink:href="#DejaVuSans-35"/>
       <use x="147.412109" xlink:href="#DejaVuSans-2e"/>
       <use x="179.199219" xlink:href="#DejaVuSans-35"/>
      </g>
     </g>
    </g>
    <g id="ytick_8">
     <g id="line2d_8">
      <g>
       <use style="stroke:#000000;stroke-width:0.8;" x="374.4576" xlink:href="#mbee6892a00" y="44.637844"/>
      </g>
     </g>
     <g id="text_9">
      <!-- −5.0 -->
      <g transform="translate(381.4576 48.437063)scale(0.1 -0.1)">
       <use xlink:href="#DejaVuSans-2212"/>
       <use x="83.789062" xlink:href="#DejaVuSans-35"/>
       <use x="147.412109" xlink:href="#DejaVuSans-2e"/>
       <use x="179.199219" xlink:href="#DejaVuSans-30"/>
      </g>
     </g>
    </g>
    <g id="text_10">
     <!-- Energy [eV] -->
     <defs>
      <path d="M 54.890625 33.015625 
L 54.890625 0 
L 45.90625 0 
L 45.90625 32.71875 
Q 45.90625 40.484375 42.875 44.328125 
Q 39.84375 48.1875 33.796875 48.1875 
Q 26.515625 48.1875 22.3125 43.546875 
Q 18.109375 38.921875 18.109375 30.90625 
L 18.109375 0 
L 9.078125 0 
L 9.078125 54.6875 
L 18.109375 54.6875 
L 18.109375 46.1875 
Q 21.34375 51.125 25.703125 53.5625 
Q 30.078125 56 35.796875 56 
Q 45.21875 56 50.046875 50.171875 
Q 54.890625 44.34375 54.890625 33.015625 
z
" id="DejaVuSans-6e"/>
      <path d="M 45.40625 27.984375 
Q 45.40625 37.75 41.375 43.109375 
Q 37.359375 48.484375 30.078125 48.484375 
Q 22.859375 48.484375 18.828125 43.109375 
Q 14.796875 37.75 14.796875 27.984375 
Q 14.796875 18.265625 18.828125 12.890625 
Q 22.859375 7.515625 30.078125 7.515625 
Q 37.359375 7.515625 41.375 12.890625 
Q 45.40625 18.265625 45.40625 27.984375 
z
M 54.390625 6.78125 
Q 54.390625 -7.171875 48.1875 -13.984375 
Q 42 -20.796875 29.203125 -20.796875 
Q 24.46875 -20.796875 20.265625 -20.09375 
Q 16.0625 -19.390625 12.109375 -17.921875 
L 12.109375 -9.1875 
Q 16.0625 -11.328125 19.921875 -12.34375 
Q 23.78125 -13.375 27.78125 -13.375 
Q 36.625 -13.375 41.015625 -8.765625 
Q 45.40625 -4.15625 45.40625 5.171875 
L 45.40625 9.625 
Q 42.625 4.78125 38.28125 2.390625 
Q 33.9375 0 27.875 0 
Q 17.828125 0 11.671875 7.65625 
Q 5.515625 15.328125 5.515625 27.984375 
Q 5.515625 40.671875 11.671875 48.328125 
Q 17.828125 56 27.875 56 
Q 33.9375 56 38.28125 53.609375 
Q 42.625 51.21875 45.40625 46.390625 
L 45.40625 54.6875 
L 54.390625 54.6875 
z
" id="DejaVuSans-67"/>
      <path d="M 32.171875 -5.078125 
Q 28.375 -14.84375 24.75 -17.8125 
Q 21.140625 -20.796875 15.09375 -20.796875 
L 7.90625 -20.796875 
L 7.90625 -13.28125 
L 13.1875 -13.28125 
Q 16.890625 -13.28125 18.9375 -11.515625 
Q 21 -9.765625 23.484375 -3.21875 
L 25.09375 0.875 
L 2.984375 54.6875 
L 12.5 54.6875 
L 29.59375 11.921875 
L 46.6875 54.6875 
L 56.203125 54.6875 
z
" id="DejaVuSans-79"/>
      <path d="M 8.59375 75.984375 
L 29.296875 75.984375 
L 29.296875 69 
L 17.578125 69 
L 17.578125 -6.203125 
L 29.296875 -6.203125 
L 29.296875 -13.1875 
L 8.59375 -13.1875 
z
" id="DejaVuSans-5b"/>
      <path d="M 30.421875 75.984375 
L 30.421875 -13.1875 
L 9.71875 -13.1875 
L 9.71875 -6.203125 
L 21.390625 -6.203125 
L 21.390625 69 
L 9.71875 69 
L 9.71875 75.984375 
z
" id="DejaVuSans-5d"/>
     </defs>
     <g transform="translate(417.33885 204.108469)rotate(-90)scale(0.1 -0.1)">
      <use xlink:href="#DejaVuSans-45"/>
      <use x="63.183594" xlink:href="#DejaVuSans-6e"/>
      <use x="126.5625" xlink:href="#DejaVuSans-65"/>
      <use x="188.085938" xlink:href="#DejaVuSans-72"/>
      <use x="229.183594" xlink:href="#DejaVuSans-67"/>
      <use x="292.660156" xlink:href="#DejaVuSans-79"/>
      <use x="351.839844" xlink:href="#DejaVuSans-20"/>
      <use x="383.626953" xlink:href="#DejaVuSans-5b"/>
      <use x="422.640625" xlink:href="#DejaVuSans-65"/>
      <use x="484.164062" xlink:href="#DejaVuSans-56"/>
      <use x="552.572266" xlink:href="#DejaVuSans-5d"/>
     </g>
    </g>
   </g>
   <g id="patch_3">
    <path d="M 361.152 307.584 
L 361.152 306.5445 
L 361.152 42.5115 
L 361.152 41.472 
L 374.4576 41.472 
L 374.4576 42.5115 
L 374.4576 306.5445 
L 374.4576 307.584 
z
" style="fill:none;stroke:#000000;stroke-linejoin:miter;stroke-width:0.8;"/>
   </g>
  </g>
 </g>
 <defs>
  <clipPath id="pc59b02f645">
   <rect height="266.112" width="285.696" x="57.6" y="41.472"/>
  </clipPath>
  <clipPath id="pc403d76c96">
   <rect height="266.112" width="13.3056" x="361.152" y="41.472"/>
  </clipPath>
 </defs>
</svg>
