<?xml version="1.0" encoding="utf-8" standalone="no"?>
<!DOCTYPE svg PUBLIC "-//W3C//DTD SVG 1.1//EN"
  "http://www.w3.org/Graphics/SVG/1.1/DTD/svg11.dtd">
<!-- Created with matplotlib (http://matplotlib.org/) -->
<svg height="345.6pt" version="1.1" viewBox="0 0 460.8 345.6" width="460.8pt" xmlns="http://www.w3.org/2000/svg" xmlns:xlink="http://www.w3.org/1999/xlink">
 <defs>
  <style type="text/css">
*{stroke-linecap:butt;stroke-linejoin:round;}
  </style>
 </defs>
 <g id="figure_1">
  <g id="patch_1">
   <path d="M 0 345.6 
L 460.8 345.6 
L 460.8 0 
L 0 0 
z
" style="fill:#ffffff;"/>
  </g>
  <g id="axes_1">
   <g id="CircleCollection_1">
    <path clip-path="url(#pd7a774947d)" d="M 232.491284 146.154578 
C 234.278801 146.154578 235.993346 145.44439 237.257311 144.180425 
C 238.521276 142.91646 239.231464 141.201915 239.231464 139.414398 
C 239.231464 137.626882 238.521276 135.912336 237.257311 134.648371 
C 235.993346 133.384406 234.278801 132.674218 232.491284 132.674218 
C 230.703767 132.674218 228.989222 133.384406 227.725257 134.648371 
C 226.461292 135.912336 225.751104 137.626882 225.751104 139.414398 
C 225.751104 141.201915 226.461292 142.91646 227.725257 144.180425 
C 228.989222 145.44439 230.703767 146.154578 232.491284 146.154578 
z
" style="fill:#306a8e;"/>
    <path clip-path="url(#pd7a774947d)" d="M 221.966368 178.540452 
C 223.741499 178.540452 225.444164 177.835185 226.699371 176.579978 
C 227.954578 175.324771 228.659845 173.622106 228.659845 171.846975 
C 228.659845 170.071845 227.954578 168.36918 226.699371 167.113973 
C 225.444164 165.858766 223.741499 165.153499 221.966368 165.153499 
C 220.191237 165.153499 218.488573 165.858766 217.233366 167.113973 
C 215.978159 168.36918 215.272892 170.071845 215.272892 171.846975 
C 215.272892 173.622106 215.978159 175.324771 217.233366 176.579978 
C 218.488573 177.835185 220.191237 178.540452 221.966368 178.540452 
z
" style="fill:#29798e;"/>
    <path clip-path="url(#pd7a774947d)" d="M 222.149471 289.577243 
C 223.886858 289.577243 225.553321 288.886972 226.781839 287.658453 
C 228.010358 286.429935 228.700629 284.763472 228.700629 283.026085 
C 228.700629 281.288697 228.010358 279.622235 226.781839 278.393716 
C 225.553321 277.165197 223.886858 276.474926 222.149471 276.474926 
C 220.412083 276.474926 218.745621 277.165197 217.517102 278.393716 
C 216.288583 279.622235 215.598312 281.288697 215.598312 283.026085 
C 215.598312 284.763472 216.288583 286.429935 217.517102 287.658453 
C 218.745621 288.886972 220.412083 289.577243 222.149471 289.577243 
z
" style="fill:#297a8e;"/>
    <path clip-path="url(#pd7a774947d)" d="M 289.157108 295.780428 
C 290.922005 295.780428 292.614855 295.079227 293.862826 293.831255 
C 295.110797 292.583284 295.811998 290.890435 295.811998 289.125537 
C 295.811998 287.360639 295.110797 285.66779 293.862826 284.419819 
C 292.614855 283.171848 290.922005 282.470646 289.157108 282.470646 
C 287.39221 282.470646 285.69936 283.171848 284.451389 284.419819 
C 283.203418 285.66779 282.502217 287.360639 282.502217 289.125537 
C 282.502217 290.890435 283.203418 292.583284 284.451389 293.831255 
C 285.69936 295.079227 287.39221 295.780428 289.157108 295.780428 
z
" style="fill:#277e8e;"/>
    <path clip-path="url(#pd7a774947d)" d="M 190.438735 198.976105 
C 192.196483 198.976105 193.882475 198.277745 195.125391 197.034829 
C 196.368307 195.791913 197.066667 194.105921 197.066667 192.348173 
C 197.066667 190.590425 196.368307 188.904433 195.125391 187.661518 
C 193.882475 186.418602 192.196483 185.720241 190.438735 185.720241 
C 188.680987 185.720241 186.994995 186.418602 185.75208 187.661518 
C 184.509164 188.904433 183.810803 190.590425 183.810803 192.348173 
C 183.810803 194.105921 184.509164 195.791913 185.75208 197.034829 
C 186.994995 198.277745 188.680987 198.976105 190.438735 198.976105 
z
" style="fill:#440154;"/>
    <path clip-path="url(#pd7a774947d)" d="M 156.852877 183.703477 
C 158.612274 183.703477 160.299848 183.004461 161.54393 181.760379 
C 162.788012 180.516297 163.487028 178.828723 163.487028 177.069326 
C 163.487028 175.309928 162.788012 173.622354 161.54393 172.378272 
C 160.299848 171.134191 158.612274 170.435175 156.852877 170.435175 
C 155.093479 170.435175 153.405905 171.134191 152.161823 172.378272 
C 150.917742 173.622354 150.218726 175.309928 150.218726 177.069326 
C 150.218726 178.828723 150.917742 180.516297 152.161823 181.760379 
C 153.405905 183.004461 155.093479 183.703477 156.852877 183.703477 
z
" style="fill:#228b8d;"/>
    <path clip-path="url(#pd7a774947d)" d="M 321.676258 151.149458 
C 323.448367 151.149458 325.148133 150.445392 326.401204 149.192321 
C 327.654274 147.939251 328.35834 146.239485 328.35834 144.467376 
C 328.35834 142.695267 327.654274 140.995501 326.401204 139.74243 
C 325.148133 138.48936 323.448367 137.785294 321.676258 137.785294 
C 319.904149 137.785294 318.204383 138.48936 316.951313 139.74243 
C 315.698242 140.995501 314.994176 142.695267 314.994176 144.467376 
C 314.994176 146.239485 315.698242 147.939251 316.951313 149.192321 
C 318.204383 150.445392 319.904149 151.149458 321.676258 151.149458 
z
" style="fill:#20938c;"/>
    <path clip-path="url(#pd7a774947d)" d="M 129.130217 165.457316 
C 130.896876 165.457316 132.591415 164.755415 133.840631 163.506199 
C 135.089848 162.256982 135.791749 160.562443 135.791749 158.795784 
C 135.791749 157.029125 135.089848 155.334586 133.840631 154.08537 
C 132.591415 152.836153 130.896876 152.134252 129.130217 152.134252 
C 127.363558 152.134252 125.669019 152.836153 124.419802 154.08537 
C 123.170586 155.334586 122.468685 157.029125 122.468685 158.795784 
C 122.468685 160.562443 123.170586 162.256982 124.419802 163.506199 
C 125.669019 164.755415 127.363558 165.457316 129.130217 165.457316 
z
" style="fill:#32658e;"/>
    <path clip-path="url(#pd7a774947d)" d="M 226.187305 113.374129 
C 227.980127 113.374129 229.69976 112.661834 230.967476 111.394118 
C 232.235192 110.126402 232.947487 108.406769 232.947487 106.613948 
C 232.947487 104.821126 232.235192 103.101493 230.967476 101.833777 
C 229.69976 100.566061 227.980127 99.853766 226.187305 99.853766 
C 224.394484 99.853766 222.674851 100.566061 221.407135 101.833777 
C 220.139419 103.101493 219.427123 104.821126 219.427123 106.613948 
C 219.427123 108.406769 220.139419 110.126402 221.407135 111.394118 
C 222.674851 112.661834 224.394484 113.374129 226.187305 113.374129 
z
" style="fill:#2a778e;"/>
    <path clip-path="url(#pd7a774947d)" d="M 309.884741 271.910807 
C 311.662618 271.910807 313.367917 271.204449 314.625065 269.9473 
C 315.882214 268.690152 316.588572 266.984853 316.588572 265.206976 
C 316.588572 263.429099 315.882214 261.7238 314.625065 260.466652 
C 313.367917 259.209503 311.662618 258.503145 309.884741 258.503145 
C 308.106864 258.503145 306.401565 259.209503 305.144417 260.466652 
C 303.887268 261.7238 303.18091 263.429099 303.18091 265.206976 
C 303.18091 266.984853 303.887268 268.690152 305.144417 269.9473 
C 306.401565 271.204449 308.106864 271.910807 309.884741 271.910807 
z
" style="fill:#29798e;"/>
    <path clip-path="url(#pd7a774947d)" d="M 310.851724 210.129163 
C 312.63689 210.129163 314.34918 209.419909 315.611483 208.157606 
C 316.873786 206.895303 317.58304 205.183013 317.58304 203.397847 
C 317.58304 201.612681 316.873786 199.90039 315.611483 198.638088 
C 314.34918 197.375785 312.63689 196.666531 310.851724 196.666531 
C 309.066558 196.666531 307.354268 197.375785 306.091965 198.638088 
C 304.829662 199.90039 304.120408 201.612681 304.120408 203.397847 
C 304.120408 205.183013 304.829662 206.895303 306.091965 208.157606 
C 307.354268 209.419909 309.066558 210.129163 310.851724 210.129163 
z
" style="fill:#218f8d;"/>
    <path clip-path="url(#pd7a774947d)" d="M 316.430436 239.938348 
C 318.216407 239.938348 319.929469 239.228774 321.192341 237.965902 
C 322.455213 236.70303 323.164787 234.989968 323.164787 233.203997 
C 323.164787 231.418026 322.455213 229.704964 321.192341 228.442092 
C 319.929469 227.17922 318.216407 226.469646 316.430436 226.469646 
C 314.644465 226.469646 312.931403 227.17922 311.668531 228.442092 
C 310.405659 229.704964 309.696085 231.418026 309.696085 233.203997 
C 309.696085 234.989968 310.405659 236.70303 311.668531 237.965902 
C 312.931403 239.228774 314.644465 239.938348 316.430436 239.938348 
z
" style="fill:#31688e;"/>
    <path clip-path="url(#pd7a774947d)" d="M 298.351029 177.651371 
C 300.131806 177.651371 301.839886 176.943861 303.099085 175.684662 
C 304.358284 174.425463 305.065794 172.717382 305.065794 170.936606 
C 305.065794 169.155829 304.358284 167.447749 303.099085 166.188549 
C 301.839886 164.92935 300.131806 164.22184 298.351029 164.22184 
C 296.570252 164.22184 294.862172 164.92935 293.602973 166.188549 
C 292.343774 167.447749 291.636264 169.155829 291.636264 170.936606 
C 291.636264 172.717382 292.343774 174.425463 293.602973 175.684662 
C 294.862172 176.943861 296.570252 177.651371 298.351029 177.651371 
z
" style="fill:#440154;"/>
    <path clip-path="url(#pd7a774947d)" d="M 70.959236 130.325059 
C 72.757797 130.325059 74.482935 129.610483 75.75471 128.338709 
C 77.026485 127.066934 77.741061 125.341795 77.741061 123.543234 
C 77.741061 121.744673 77.026485 120.019534 75.75471 118.74776 
C 74.482935 117.475985 72.757797 116.761409 70.959236 116.761409 
C 69.160674 116.761409 67.435536 117.475985 66.163761 118.74776 
C 64.891986 120.019534 64.17741 121.744673 64.17741 123.543234 
C 64.17741 125.341795 64.891986 127.066934 66.163761 128.338709 
C 67.435536 129.610483 69.160674 130.325059 70.959236 130.325059 
z
" style="fill:#fde725;"/>
    <path clip-path="url(#pd7a774947d)" d="M 99.316794 147.542255 
C 101.093131 147.542255 102.796952 146.836509 104.053011 145.58045 
C 105.309071 144.32439 106.014817 142.620569 106.014817 140.844233 
C 106.014817 139.067896 105.309071 137.364075 104.053011 136.108016 
C 102.796952 134.851956 101.093131 134.14621 99.316794 134.14621 
C 97.540458 134.14621 95.836637 134.851956 94.580578 136.108016 
C 93.324518 137.364075 92.618772 139.067896 92.618772 140.844233 
C 92.618772 142.620569 93.324518 144.32439 94.580578 145.58045 
C 95.836637 146.836509 97.540458 147.542255 99.316794 147.542255 
z
" style="fill:#297a8e;"/>
    <path clip-path="url(#pd7a774947d)" d="M 299.500136 71.749168 
C 301.266965 71.749168 302.961666 71.0472 304.211003 69.797863 
C 305.460339 68.548527 306.162308 66.853825 306.162308 65.086996 
C 306.162308 63.320168 305.460339 61.625466 304.211003 60.37613 
C 302.961666 59.126793 301.266965 58.424825 299.500136 58.424825 
C 297.733307 58.424825 296.038606 59.126793 294.789269 60.37613 
C 293.539933 61.625466 292.837964 63.320168 292.837964 65.086996 
C 292.837964 66.853825 293.539933 68.548527 294.789269 69.797863 
C 296.038606 71.0472 297.733307 71.749168 299.500136 71.749168 
z
" style="fill:#1f948c;"/>
    <path clip-path="url(#pd7a774947d)" d="M 194.688989 232.346388 
C 196.432523 232.346388 198.104881 231.653675 199.337745 230.420811 
C 200.57061 229.187946 201.263323 227.515588 201.263323 225.772054 
C 201.263323 224.028521 200.57061 222.356163 199.337745 221.123298 
C 198.104881 219.890434 196.432523 219.19772 194.688989 219.19772 
C 192.945455 219.19772 191.273097 219.890434 190.040233 221.123298 
C 188.807368 222.356163 188.114655 224.028521 188.114655 225.772054 
C 188.114655 227.515588 188.807368 229.187946 190.040233 230.420811 
C 191.273097 231.653675 192.945455 232.346388 194.688989 232.346388 
z
" style="fill:#23898e;"/>
    <path clip-path="url(#pd7a774947d)" d="M 253.527696 301.64802 
C 255.275547 301.64802 256.952046 300.953591 258.187963 299.717674 
C 259.42388 298.481757 260.118309 296.805258 260.118309 295.057408 
C 260.118309 293.309557 259.42388 291.633058 258.187963 290.397141 
C 256.952046 289.161224 255.275547 288.466796 253.527696 288.466796 
C 251.779846 288.466796 250.103347 289.161224 248.86743 290.397141 
C 247.631513 291.633058 246.937084 293.309557 246.937084 295.057408 
C 246.937084 296.805258 247.631513 298.481757 248.86743 299.717674 
C 250.103347 300.953591 251.779846 301.64802 253.527696 301.64802 
z
" style="fill:#277f8e;"/>
    <path clip-path="url(#pd7a774947d)" d="M 327.186131 120.855814 
C 328.950942 120.855814 330.643709 120.154647 331.891619 118.906738 
C 333.139528 117.658828 333.840695 115.966061 333.840695 114.20125 
C 333.840695 112.436439 333.139528 110.743673 331.891619 109.495763 
C 330.643709 108.247853 328.950942 107.546686 327.186131 107.546686 
C 325.42132 107.546686 323.728554 108.247853 322.480644 109.495763 
C 321.232734 110.743673 320.531567 112.436439 320.531567 114.20125 
C 320.531567 115.966061 321.232734 117.658828 322.480644 118.906738 
C 323.728554 120.154647 325.42132 120.855814 327.186131 120.855814 
z
" style="fill:#2c718e;"/>
    <path clip-path="url(#pd7a774947d)" d="M 266.029075 60.712473 
C 267.807612 60.712473 269.513544 60.005853 270.77116 58.748237 
C 272.028775 57.490622 272.735396 55.784689 272.735396 54.006152 
C 272.735396 52.227615 272.028775 50.521683 270.77116 49.264067 
C 269.513544 48.006451 267.807612 47.299831 266.029075 47.299831 
C 264.250537 47.299831 262.544605 48.006451 261.286989 49.264067 
C 260.029374 50.521683 259.322753 52.227615 259.322753 54.006152 
C 259.322753 55.784689 260.029374 57.490622 261.286989 58.748237 
C 262.544605 60.005853 264.250537 60.712473 266.029075 60.712473 
z
" style="fill:#27808e;"/>
    <path clip-path="url(#pd7a774947d)" d="M 243.664081 86.790555 
C 245.450639 86.790555 247.164263 86.080749 248.42755 84.817462 
C 249.690837 83.554175 250.400643 81.840551 250.400643 80.053994 
C 250.400643 78.267436 249.690837 76.553812 248.42755 75.290525 
C 247.164263 74.027238 245.450639 73.317432 243.664081 73.317432 
C 241.877524 73.317432 240.1639 74.027238 238.900613 75.290525 
C 237.637326 76.553812 236.92752 78.267436 236.92752 80.053994 
C 236.92752 81.840551 237.637326 83.554175 238.900613 84.817462 
C 240.1639 86.080749 241.877524 86.790555 243.664081 86.790555 
z
" style="fill:#26818e;"/>
    <path clip-path="url(#pd7a774947d)" d="M 203.082611 261.535513 
C 204.819499 261.535513 206.485483 260.84544 207.713649 259.617274 
C 208.941814 258.389109 209.631887 256.723125 209.631887 254.986237 
C 209.631887 253.249348 208.941814 251.583365 207.713649 250.355199 
C 206.485483 249.127034 204.819499 248.436961 203.082611 248.436961 
C 201.345723 248.436961 199.679739 249.127034 198.451574 250.355199 
C 197.223408 251.583365 196.533335 253.249348 196.533335 254.986237 
C 196.533335 256.723125 197.223408 258.389109 198.451574 259.617274 
C 199.679739 260.84544 201.345723 261.535513 203.082611 261.535513 
z
" style="fill:#306a8e;"/>
    <path clip-path="url(#pd7a774947d)" d="M 329.944688 88.473831 
C 331.705047 88.473831 333.393544 87.774433 334.638306 86.529671 
C 335.883067 85.284909 336.582465 83.596413 336.582465 81.836053 
C 336.582465 80.075694 335.883067 78.387198 334.638306 77.142436 
C 333.393544 75.897674 331.705047 75.198276 329.944688 75.198276 
C 328.184329 75.198276 326.495833 75.897674 325.251071 77.142436 
C 324.006309 78.387198 323.306911 80.075694 323.306911 81.836053 
C 323.306911 83.596413 324.006309 85.284909 325.251071 86.529671 
C 326.495833 87.774433 328.184329 88.473831 329.944688 88.473831 
z
" style="fill:#2c718e;"/>
    <path clip-path="url(#pd7a774947d)" d="M 259.64926 171.395289 
C 261.432068 171.395289 263.142096 170.686972 264.402731 169.426337 
C 265.663367 168.165702 266.371684 166.455673 266.371684 164.672866 
C 266.371684 162.890058 265.663367 161.18003 264.402731 159.919395 
C 263.142096 158.658759 261.432068 157.950442 259.64926 157.950442 
C 257.866453 157.950442 256.156424 158.658759 254.895789 159.919395 
C 253.635154 161.18003 252.926837 162.890058 252.926837 164.672866 
C 252.926837 166.455673 253.635154 168.165702 254.895789 169.426337 
C 256.156424 170.686972 257.866453 171.395289 259.64926 171.395289 
z
" style="fill:#277f8e;"/>
   </g>
   <g id="text_1">
    <!-- Structure #7766, $E_N$=-180.82eV, ΔE=0.34eV -->
    <defs>
     <path d="M 53.515625 70.515625 
L 53.515625 60.890625 
Q 47.90625 63.578125 42.921875 64.890625 
Q 37.9375 66.21875 33.296875 66.21875 
Q 25.25 66.21875 20.875 63.09375 
Q 16.5 59.96875 16.5 54.203125 
Q 16.5 49.359375 19.40625 46.890625 
Q 22.3125 44.4375 30.421875 42.921875 
L 36.375 41.703125 
Q 47.40625 39.59375 52.65625 34.296875 
Q 57.90625 29 57.90625 20.125 
Q 57.90625 9.515625 50.796875 4.046875 
Q 43.703125 -1.421875 29.984375 -1.421875 
Q 24.8125 -1.421875 18.96875 -0.25 
Q 13.140625 0.921875 6.890625 3.21875 
L 6.890625 13.375 
Q 12.890625 10.015625 18.65625 8.296875 
Q 24.421875 6.59375 29.984375 6.59375 
Q 38.421875 6.59375 43.015625 9.90625 
Q 47.609375 13.234375 47.609375 19.390625 
Q 47.609375 24.75 44.3125 27.78125 
Q 41.015625 30.8125 33.5 32.328125 
L 27.484375 33.5 
Q 16.453125 35.6875 11.515625 40.375 
Q 6.59375 45.0625 6.59375 53.421875 
Q 6.59375 63.09375 13.40625 68.65625 
Q 20.21875 74.21875 32.171875 74.21875 
Q 37.3125 74.21875 42.625 73.28125 
Q 47.953125 72.359375 53.515625 70.515625 
z
" id="DejaVuSans-53"/>
     <path d="M 18.3125 70.21875 
L 18.3125 54.6875 
L 36.8125 54.6875 
L 36.8125 47.703125 
L 18.3125 47.703125 
L 18.3125 18.015625 
Q 18.3125 11.328125 20.140625 9.421875 
Q 21.96875 7.515625 27.59375 7.515625 
L 36.8125 7.515625 
L 36.8125 0 
L 27.59375 0 
Q 17.1875 0 13.234375 3.875 
Q 9.28125 7.765625 9.28125 18.015625 
L 9.28125 47.703125 
L 2.6875 47.703125 
L 2.6875 54.6875 
L 9.28125 54.6875 
L 9.28125 70.21875 
z
" id="DejaVuSans-74"/>
     <path d="M 41.109375 46.296875 
Q 39.59375 47.171875 37.8125 47.578125 
Q 36.03125 48 33.890625 48 
Q 26.265625 48 22.1875 43.046875 
Q 18.109375 38.09375 18.109375 28.8125 
L 18.109375 0 
L 9.078125 0 
L 9.078125 54.6875 
L 18.109375 54.6875 
L 18.109375 46.1875 
Q 20.953125 51.171875 25.484375 53.578125 
Q 30.03125 56 36.53125 56 
Q 37.453125 56 38.578125 55.875 
Q 39.703125 55.765625 41.0625 55.515625 
z
" id="DejaVuSans-72"/>
     <path d="M 8.5 21.578125 
L 8.5 54.6875 
L 17.484375 54.6875 
L 17.484375 21.921875 
Q 17.484375 14.15625 20.5 10.265625 
Q 23.53125 6.390625 29.59375 6.390625 
Q 36.859375 6.390625 41.078125 11.03125 
Q 45.3125 15.671875 45.3125 23.6875 
L 45.3125 54.6875 
L 54.296875 54.6875 
L 54.296875 0 
L 45.3125 0 
L 45.3125 8.40625 
Q 42.046875 3.421875 37.71875 1 
Q 33.40625 -1.421875 27.6875 -1.421875 
Q 18.265625 -1.421875 13.375 4.4375 
Q 8.5 10.296875 8.5 21.578125 
z
M 31.109375 56 
z
" id="DejaVuSans-75"/>
     <path d="M 48.78125 52.59375 
L 48.78125 44.1875 
Q 44.96875 46.296875 41.140625 47.34375 
Q 37.3125 48.390625 33.40625 48.390625 
Q 24.65625 48.390625 19.8125 42.84375 
Q 14.984375 37.3125 14.984375 27.296875 
Q 14.984375 17.28125 19.8125 11.734375 
Q 24.65625 6.203125 33.40625 6.203125 
Q 37.3125 6.203125 41.140625 7.25 
Q 44.96875 8.296875 48.78125 10.40625 
L 48.78125 2.09375 
Q 45.015625 0.34375 40.984375 -0.53125 
Q 36.96875 -1.421875 32.421875 -1.421875 
Q 20.0625 -1.421875 12.78125 6.34375 
Q 5.515625 14.109375 5.515625 27.296875 
Q 5.515625 40.671875 12.859375 48.328125 
Q 20.21875 56 33.015625 56 
Q 37.15625 56 41.109375 55.140625 
Q 45.0625 54.296875 48.78125 52.59375 
z
" id="DejaVuSans-63"/>
     <path d="M 56.203125 29.59375 
L 56.203125 25.203125 
L 14.890625 25.203125 
Q 15.484375 15.921875 20.484375 11.0625 
Q 25.484375 6.203125 34.421875 6.203125 
Q 39.59375 6.203125 44.453125 7.46875 
Q 49.3125 8.734375 54.109375 11.28125 
L 54.109375 2.78125 
Q 49.265625 0.734375 44.1875 -0.34375 
Q 39.109375 -1.421875 33.890625 -1.421875 
Q 20.796875 -1.421875 13.15625 6.1875 
Q 5.515625 13.8125 5.515625 26.8125 
Q 5.515625 40.234375 12.765625 48.109375 
Q 20.015625 56 32.328125 56 
Q 43.359375 56 49.78125 48.890625 
Q 56.203125 41.796875 56.203125 29.59375 
z
M 47.21875 32.234375 
Q 47.125 39.59375 43.09375 43.984375 
Q 39.0625 48.390625 32.421875 48.390625 
Q 24.90625 48.390625 20.390625 44.140625 
Q 15.875 39.890625 15.1875 32.171875 
z
" id="DejaVuSans-65"/>
     <path id="DejaVuSans-20"/>
     <path d="M 51.125 44 
L 36.921875 44 
L 32.8125 27.6875 
L 47.125 27.6875 
z
M 43.796875 71.78125 
L 38.71875 51.515625 
L 52.984375 51.515625 
L 58.109375 71.78125 
L 65.921875 71.78125 
L 60.890625 51.515625 
L 76.125 51.515625 
L 76.125 44 
L 58.984375 44 
L 54.984375 27.6875 
L 70.515625 27.6875 
L 70.515625 20.21875 
L 53.078125 20.21875 
L 48 0 
L 40.1875 0 
L 45.21875 20.21875 
L 30.90625 20.21875 
L 25.875 0 
L 18.015625 0 
L 23.09375 20.21875 
L 7.71875 20.21875 
L 7.71875 27.6875 
L 24.90625 27.6875 
L 29 44 
L 13.28125 44 
L 13.28125 51.515625 
L 30.90625 51.515625 
L 35.890625 71.78125 
z
" id="DejaVuSans-23"/>
     <path d="M 8.203125 72.90625 
L 55.078125 72.90625 
L 55.078125 68.703125 
L 28.609375 0 
L 18.3125 0 
L 43.21875 64.59375 
L 8.203125 64.59375 
z
" id="DejaVuSans-37"/>
     <path d="M 33.015625 40.375 
Q 26.375 40.375 22.484375 35.828125 
Q 18.609375 31.296875 18.609375 23.390625 
Q 18.609375 15.53125 22.484375 10.953125 
Q 26.375 6.390625 33.015625 6.390625 
Q 39.65625 6.390625 43.53125 10.953125 
Q 47.40625 15.53125 47.40625 23.390625 
Q 47.40625 31.296875 43.53125 35.828125 
Q 39.65625 40.375 33.015625 40.375 
z
M 52.59375 71.296875 
L 52.59375 62.3125 
Q 48.875 64.0625 45.09375 64.984375 
Q 41.3125 65.921875 37.59375 65.921875 
Q 27.828125 65.921875 22.671875 59.328125 
Q 17.53125 52.734375 16.796875 39.40625 
Q 19.671875 43.65625 24.015625 45.921875 
Q 28.375 48.1875 33.59375 48.1875 
Q 44.578125 48.1875 50.953125 41.515625 
Q 57.328125 34.859375 57.328125 23.390625 
Q 57.328125 12.15625 50.6875 5.359375 
Q 44.046875 -1.421875 33.015625 -1.421875 
Q 20.359375 -1.421875 13.671875 8.265625 
Q 6.984375 17.96875 6.984375 36.375 
Q 6.984375 53.65625 15.1875 63.9375 
Q 23.390625 74.21875 37.203125 74.21875 
Q 40.921875 74.21875 44.703125 73.484375 
Q 48.484375 72.75 52.59375 71.296875 
z
" id="DejaVuSans-36"/>
     <path d="M 11.71875 12.40625 
L 22.015625 12.40625 
L 22.015625 4 
L 14.015625 -11.625 
L 7.71875 -11.625 
L 11.71875 4 
z
" id="DejaVuSans-2c"/>
     <path d="M 16.890625 72.90625 
L 62.984375 72.90625 
L 61.375 64.59375 
L 25.09375 64.59375 
L 20.90625 43.015625 
L 55.71875 43.015625 
L 54.109375 34.71875 
L 19.28125 34.71875 
L 14.203125 8.296875 
L 51.3125 8.296875 
L 49.703125 0 
L 2.6875 0 
z
" id="DejaVuSans-Oblique-45"/>
     <path d="M 16.890625 72.90625 
L 30.171875 72.90625 
L 50.296875 10.40625 
L 62.5 72.90625 
L 72.125 72.90625 
L 57.90625 0 
L 44.578125 0 
L 24.515625 62.890625 
L 12.3125 0 
L 2.6875 0 
z
" id="DejaVuSans-Oblique-4e"/>
     <path d="M 10.59375 45.40625 
L 73.1875 45.40625 
L 73.1875 37.203125 
L 10.59375 37.203125 
z
M 10.59375 25.484375 
L 73.1875 25.484375 
L 73.1875 17.1875 
L 10.59375 17.1875 
z
" id="DejaVuSans-3d"/>
     <path d="M 4.890625 31.390625 
L 31.203125 31.390625 
L 31.203125 23.390625 
L 4.890625 23.390625 
z
" id="DejaVuSans-2d"/>
     <path d="M 12.40625 8.296875 
L 28.515625 8.296875 
L 28.515625 63.921875 
L 10.984375 60.40625 
L 10.984375 69.390625 
L 28.421875 72.90625 
L 38.28125 72.90625 
L 38.28125 8.296875 
L 54.390625 8.296875 
L 54.390625 0 
L 12.40625 0 
z
" id="DejaVuSans-31"/>
     <path d="M 31.78125 34.625 
Q 24.75 34.625 20.71875 30.859375 
Q 16.703125 27.09375 16.703125 20.515625 
Q 16.703125 13.921875 20.71875 10.15625 
Q 24.75 6.390625 31.78125 6.390625 
Q 38.8125 6.390625 42.859375 10.171875 
Q 46.921875 13.96875 46.921875 20.515625 
Q 46.921875 27.09375 42.890625 30.859375 
Q 38.875 34.625 31.78125 34.625 
z
M 21.921875 38.8125 
Q 15.578125 40.375 12.03125 44.71875 
Q 8.5 49.078125 8.5 55.328125 
Q 8.5 64.0625 14.71875 69.140625 
Q 20.953125 74.21875 31.78125 74.21875 
Q 42.671875 74.21875 48.875 69.140625 
Q 55.078125 64.0625 55.078125 55.328125 
Q 55.078125 49.078125 51.53125 44.71875 
Q 48 40.375 41.703125 38.8125 
Q 48.828125 37.15625 52.796875 32.3125 
Q 56.78125 27.484375 56.78125 20.515625 
Q 56.78125 9.90625 50.3125 4.234375 
Q 43.84375 -1.421875 31.78125 -1.421875 
Q 19.734375 -1.421875 13.25 4.234375 
Q 6.78125 9.90625 6.78125 20.515625 
Q 6.78125 27.484375 10.78125 32.3125 
Q 14.796875 37.15625 21.921875 38.8125 
z
M 18.3125 54.390625 
Q 18.3125 48.734375 21.84375 45.5625 
Q 25.390625 42.390625 31.78125 42.390625 
Q 38.140625 42.390625 41.71875 45.5625 
Q 45.3125 48.734375 45.3125 54.390625 
Q 45.3125 60.0625 41.71875 63.234375 
Q 38.140625 66.40625 31.78125 66.40625 
Q 25.390625 66.40625 21.84375 63.234375 
Q 18.3125 60.0625 18.3125 54.390625 
z
" id="DejaVuSans-38"/>
     <path d="M 31.78125 66.40625 
Q 24.171875 66.40625 20.328125 58.90625 
Q 16.5 51.421875 16.5 36.375 
Q 16.5 21.390625 20.328125 13.890625 
Q 24.171875 6.390625 31.78125 6.390625 
Q 39.453125 6.390625 43.28125 13.890625 
Q 47.125 21.390625 47.125 36.375 
Q 47.125 51.421875 43.28125 58.90625 
Q 39.453125 66.40625 31.78125 66.40625 
z
M 31.78125 74.21875 
Q 44.046875 74.21875 50.515625 64.515625 
Q 56.984375 54.828125 56.984375 36.375 
Q 56.984375 17.96875 50.515625 8.265625 
Q 44.046875 -1.421875 31.78125 -1.421875 
Q 19.53125 -1.421875 13.0625 8.265625 
Q 6.59375 17.96875 6.59375 36.375 
Q 6.59375 54.828125 13.0625 64.515625 
Q 19.53125 74.21875 31.78125 74.21875 
z
" id="DejaVuSans-30"/>
     <path d="M 10.6875 12.40625 
L 21 12.40625 
L 21 0 
L 10.6875 0 
z
" id="DejaVuSans-2e"/>
     <path d="M 19.1875 8.296875 
L 53.609375 8.296875 
L 53.609375 0 
L 7.328125 0 
L 7.328125 8.296875 
Q 12.9375 14.109375 22.625 23.890625 
Q 32.328125 33.6875 34.8125 36.53125 
Q 39.546875 41.84375 41.421875 45.53125 
Q 43.3125 49.21875 43.3125 52.78125 
Q 43.3125 58.59375 39.234375 62.25 
Q 35.15625 65.921875 28.609375 65.921875 
Q 23.96875 65.921875 18.8125 64.3125 
Q 13.671875 62.703125 7.8125 59.421875 
L 7.8125 69.390625 
Q 13.765625 71.78125 18.9375 73 
Q 24.125 74.21875 28.421875 74.21875 
Q 39.75 74.21875 46.484375 68.546875 
Q 53.21875 62.890625 53.21875 53.421875 
Q 53.21875 48.921875 51.53125 44.890625 
Q 49.859375 40.875 45.40625 35.40625 
Q 44.1875 33.984375 37.640625 27.21875 
Q 31.109375 20.453125 19.1875 8.296875 
z
" id="DejaVuSans-32"/>
     <path d="M 28.609375 0 
L 0.78125 72.90625 
L 11.078125 72.90625 
L 34.1875 11.53125 
L 57.328125 72.90625 
L 67.578125 72.90625 
L 39.796875 0 
z
" id="DejaVuSans-56"/>
     <path d="M 34.1875 63.1875 
L 14.15625 8.203125 
L 54.25 8.203125 
z
M 0.78125 0 
L 28.609375 72.90625 
L 39.796875 72.90625 
L 67.578125 0 
z
" id="DejaVuSans-394"/>
     <path d="M 9.8125 72.90625 
L 55.90625 72.90625 
L 55.90625 64.59375 
L 19.671875 64.59375 
L 19.671875 43.015625 
L 54.390625 43.015625 
L 54.390625 34.71875 
L 19.671875 34.71875 
L 19.671875 8.296875 
L 56.78125 8.296875 
L 56.78125 0 
L 9.8125 0 
z
" id="DejaVuSans-45"/>
     <path d="M 40.578125 39.3125 
Q 47.65625 37.796875 51.625 33 
Q 55.609375 28.21875 55.609375 21.1875 
Q 55.609375 10.40625 48.1875 4.484375 
Q 40.765625 -1.421875 27.09375 -1.421875 
Q 22.515625 -1.421875 17.65625 -0.515625 
Q 12.796875 0.390625 7.625 2.203125 
L 7.625 11.71875 
Q 11.71875 9.328125 16.59375 8.109375 
Q 21.484375 6.890625 26.8125 6.890625 
Q 36.078125 6.890625 40.9375 10.546875 
Q 45.796875 14.203125 45.796875 21.1875 
Q 45.796875 27.640625 41.28125 31.265625 
Q 36.765625 34.90625 28.71875 34.90625 
L 20.21875 34.90625 
L 20.21875 43.015625 
L 29.109375 43.015625 
Q 36.375 43.015625 40.234375 45.921875 
Q 44.09375 48.828125 44.09375 54.296875 
Q 44.09375 59.90625 40.109375 62.90625 
Q 36.140625 65.921875 28.71875 65.921875 
Q 24.65625 65.921875 20.015625 65.03125 
Q 15.375 64.15625 9.8125 62.3125 
L 9.8125 71.09375 
Q 15.4375 72.65625 20.34375 73.4375 
Q 25.25 74.21875 29.59375 74.21875 
Q 40.828125 74.21875 47.359375 69.109375 
Q 53.90625 64.015625 53.90625 55.328125 
Q 53.90625 49.265625 50.4375 45.09375 
Q 46.96875 40.921875 40.578125 39.3125 
z
" id="DejaVuSans-33"/>
     <path d="M 37.796875 64.3125 
L 12.890625 25.390625 
L 37.796875 25.390625 
z
M 35.203125 72.90625 
L 47.609375 72.90625 
L 47.609375 25.390625 
L 58.015625 25.390625 
L 58.015625 17.1875 
L 47.609375 17.1875 
L 47.609375 0 
L 37.796875 0 
L 37.796875 17.1875 
L 4.890625 17.1875 
L 4.890625 26.703125 
z
" id="DejaVuSans-34"/>
    </defs>
    <g transform="translate(65.388 35.472)scale(0.12 -0.12)">
     <use transform="translate(0 0.78125)" xlink:href="#DejaVuSans-53"/>
     <use transform="translate(63.476562 0.78125)" xlink:href="#DejaVuSans-74"/>
     <use transform="translate(102.685547 0.78125)" xlink:href="#DejaVuSans-72"/>
     <use transform="translate(143.798828 0.78125)" xlink:href="#DejaVuSans-75"/>
     <use transform="translate(207.177734 0.78125)" xlink:href="#DejaVuSans-63"/>
     <use transform="translate(262.158203 0.78125)" xlink:href="#DejaVuSans-74"/>
     <use transform="translate(301.367188 0.78125)" xlink:href="#DejaVuSans-75"/>
     <use transform="translate(364.746094 0.78125)" xlink:href="#DejaVuSans-72"/>
     <use transform="translate(405.859375 0.78125)" xlink:href="#DejaVuSans-65"/>
     <use transform="translate(467.382812 0.78125)" xlink:href="#DejaVuSans-20"/>
     <use transform="translate(499.169922 0.78125)" xlink:href="#DejaVuSans-23"/>
     <use transform="translate(582.958984 0.78125)" xlink:href="#DejaVuSans-37"/>
     <use transform="translate(646.566406 0.78125)" xlink:href="#DejaVuSans-37"/>
     <use transform="translate(710.189453 0.78125)" xlink:href="#DejaVuSans-36"/>
     <use transform="translate(773.8125 0.78125)" xlink:href="#DejaVuSans-36"/>
     <use transform="translate(837.435547 0.78125)" xlink:href="#DejaVuSans-2c"/>
     <use transform="translate(869.222656 0.78125)" xlink:href="#DejaVuSans-20"/>
     <use transform="translate(901.009766 0.78125)" xlink:href="#DejaVuSans-Oblique-45"/>
     <use transform="translate(964.193359 -15.625)scale(0.7)" xlink:href="#DejaVuSans-Oblique-4e"/>
     <use transform="translate(1019.291016 0.78125)" xlink:href="#DejaVuSans-3d"/>
     <use transform="translate(1103.080078 0.78125)" xlink:href="#DejaVuSans-2d"/>
     <use transform="translate(1139.164062 0.78125)" xlink:href="#DejaVuSans-31"/>
     <use transform="translate(1202.787109 0.78125)" xlink:href="#DejaVuSans-38"/>
     <use transform="translate(1266.410156 0.78125)" xlink:href="#DejaVuSans-30"/>
     <use transform="translate(1330.033203 0.78125)" xlink:href="#DejaVuSans-2e"/>
     <use transform="translate(1361.789062 0.78125)" xlink:href="#DejaVuSans-38"/>
     <use transform="translate(1425.412109 0.78125)" xlink:href="#DejaVuSans-32"/>
     <use transform="translate(1489.035156 0.78125)" xlink:href="#DejaVuSans-65"/>
     <use transform="translate(1550.558594 0.78125)" xlink:href="#DejaVuSans-56"/>
     <use transform="translate(1618.966797 0.78125)" xlink:href="#DejaVuSans-2c"/>
     <use transform="translate(1650.753906 0.78125)" xlink:href="#DejaVuSans-20"/>
     <use transform="translate(1682.541016 0.78125)" xlink:href="#DejaVuSans-394"/>
     <use transform="translate(1750.949219 0.78125)" xlink:href="#DejaVuSans-45"/>
     <use transform="translate(1814.132812 0.78125)" xlink:href="#DejaVuSans-3d"/>
     <use transform="translate(1897.921875 0.78125)" xlink:href="#DejaVuSans-30"/>
     <use transform="translate(1961.544922 0.78125)" xlink:href="#DejaVuSans-2e"/>
     <use transform="translate(1993.332031 0.78125)" xlink:href="#DejaVuSans-33"/>
     <use transform="translate(2056.955078 0.78125)" xlink:href="#DejaVuSans-34"/>
     <use transform="translate(2120.578125 0.78125)" xlink:href="#DejaVuSans-65"/>
     <use transform="translate(2182.101562 0.78125)" xlink:href="#DejaVuSans-56"/>
    </g>
   </g>
  </g>
  <g id="axes_2">
   <g id="patch_2">
    <path clip-path="url(#pe3628f9a69)" d="M 361.152 307.584 
L 361.152 306.5445 
L 361.152 42.5115 
L 361.152 41.472 
L 374.4576 41.472 
L 374.4576 42.5115 
L 374.4576 306.5445 
L 374.4576 307.584 
z
" style="fill:#ffffff;stroke:#ffffff;stroke-linejoin:miter;stroke-width:0.01;"/>
   </g>
   <image height="265.68" id="imagea33119aa93" transform="scale(1 -1)translate(0 -265.68)" width="12.96" x="361.44" xlink:href="data:image/png;base64,
iVBORw0KGgoAAAANSUhEUgAAABIAAAFxCAYAAAB+2fgXAAAABHNCSVQICAgIfAhkiAAAAeVJREFUeJztncmNw0AQA2ckheYQNv9QLIfQ8ygsCgQ7AEI8+jAs2Puz/94F1LP2ReCsZ18bAWIeZ5XaGRBE7VnbptG+KI101FYyNSiQG2oRITXKNaX9uclOdi2XWjftVE32CZCO2ou5Bj1TcCBr/1zB9ge7Fq0Rg2NM9pvbtG+ua1QgsRYhDy0ISEiNc40BEibbSI0Coj5CBGtkpFbXJiAjNZlrwhuSOv2M1DjXbEdEciBt1JSDDQKKpmZr2rr2j0DBGpXaWEJq3bQzEPIS26r9J+Wzv9Tm8o3aajRXqc3VUXsApKNWjeZq0x4ABVNbm7lrszVigDqP5vIl2+eaT2yfRkL7g+dRcNPqjohkjaCvRVBq0H2U3LQrOJCx9kdTg4B8oxZzzTdqdYHEngjUCAPyUctN9sVRq2sTECW2UKNLd2jVtRmo1A6AhMmWaSRcR8nUdIHUuVb75zJS218EyEitro1At69pIdeSk30Lkw0FktNImGyZRhy1O5galmxd03LUsHWk06jUZiCq+5Wb1kZNN4+wJxJuWt8RAW5am2sYNZ9rYCBzZ3buPKJ2P5Yj4Toy3keyIyJbIxs1rml1byCA84gpch5RQNB7Q0qNMGq2Hy4BXdNR41yz/cEEJfZzUz96r9PoB0okjeQ8y9TkAAAAAElFTkSuQmCC" y="-41.76"/>
   <g id="matplotlib.axis_1"/>
   <g id="matplotlib.axis_2">
    <g id="ytick_1">
     <g id="line2d_1">
      <defs>
       <path d="M 0 0 
L 3.5 0 
" id="mda08beded1" style="stroke:#000000;stroke-width:0.8;"/>
      </defs>
      <g>
       <use style="stroke:#000000;stroke-width:0.8;" x="374.4576" xlink:href="#mda08beded1" y="293.232373"/>
      </g>
     </g>
     <g id="text_2">
      <!-- −9.0 -->
      <defs>
       <path d="M 10.59375 35.5 
L 73.1875 35.5 
L 73.1875 27.203125 
L 10.59375 27.203125 
z
" id="DejaVuSans-2212"/>
       <path d="M 10.984375 1.515625 
L 10.984375 10.5 
Q 14.703125 8.734375 18.5 7.8125 
Q 22.3125 6.890625 25.984375 6.890625 
Q 35.75 6.890625 40.890625 13.453125 
Q 46.046875 20.015625 46.78125 33.40625 
Q 43.953125 29.203125 39.59375 26.953125 
Q 35.25 24.703125 29.984375 24.703125 
Q 19.046875 24.703125 12.671875 31.3125 
Q 6.296875 37.9375 6.296875 49.421875 
Q 6.296875 60.640625 12.9375 67.421875 
Q 19.578125 74.21875 30.609375 74.21875 
Q 43.265625 74.21875 49.921875 64.515625 
Q 56.59375 54.828125 56.59375 36.375 
Q 56.59375 19.140625 48.40625 8.859375 
Q 40.234375 -1.421875 26.421875 -1.421875 
Q 22.703125 -1.421875 18.890625 -0.6875 
Q 15.09375 0.046875 10.984375 1.515625 
z
M 30.609375 32.421875 
Q 37.25 32.421875 41.125 36.953125 
Q 45.015625 41.5 45.015625 49.421875 
Q 45.015625 57.28125 41.125 61.84375 
Q 37.25 66.40625 30.609375 66.40625 
Q 23.96875 66.40625 20.09375 61.84375 
Q 16.21875 57.28125 16.21875 49.421875 
Q 16.21875 41.5 20.09375 36.953125 
Q 23.96875 32.421875 30.609375 32.421875 
z
" id="DejaVuSans-39"/>
      </defs>
      <g transform="translate(381.4576 297.031592)scale(0.1 -0.1)">
       <use xlink:href="#DejaVuSans-2212"/>
       <use x="83.789062" xlink:href="#DejaVuSans-39"/>
       <use x="147.412109" xlink:href="#DejaVuSans-2e"/>
       <use x="179.199219" xlink:href="#DejaVuSans-30"/>
      </g>
     </g>
    </g>
    <g id="ytick_2">
     <g id="line2d_2">
      <g>
       <use style="stroke:#000000;stroke-width:0.8;" x="374.4576" xlink:href="#mda08beded1" y="261.320311"/>
      </g>
     </g>
     <g id="text_3">
      <!-- −8.5 -->
      <defs>
       <path d="M 10.796875 72.90625 
L 49.515625 72.90625 
L 49.515625 64.59375 
L 19.828125 64.59375 
L 19.828125 46.734375 
Q 21.96875 47.46875 24.109375 47.828125 
Q 26.265625 48.1875 28.421875 48.1875 
Q 40.625 48.1875 47.75 41.5 
Q 54.890625 34.8125 54.890625 23.390625 
Q 54.890625 11.625 47.5625 5.09375 
Q 40.234375 -1.421875 26.90625 -1.421875 
Q 22.3125 -1.421875 17.546875 -0.640625 
Q 12.796875 0.140625 7.71875 1.703125 
L 7.71875 11.625 
Q 12.109375 9.234375 16.796875 8.0625 
Q 21.484375 6.890625 26.703125 6.890625 
Q 35.15625 6.890625 40.078125 11.328125 
Q 45.015625 15.765625 45.015625 23.390625 
Q 45.015625 31 40.078125 35.4375 
Q 35.15625 39.890625 26.703125 39.890625 
Q 22.75 39.890625 18.8125 39.015625 
Q 14.890625 38.140625 10.796875 36.28125 
z
" id="DejaVuSans-35"/>
      </defs>
      <g transform="translate(381.4576 265.11953)scale(0.1 -0.1)">
       <use xlink:href="#DejaVuSans-2212"/>
       <use x="83.789062" xlink:href="#DejaVuSans-38"/>
       <use x="147.412109" xlink:href="#DejaVuSans-2e"/>
       <use x="179.199219" xlink:href="#DejaVuSans-35"/>
      </g>
     </g>
    </g>
    <g id="ytick_3">
     <g id="line2d_3">
      <g>
       <use style="stroke:#000000;stroke-width:0.8;" x="374.4576" xlink:href="#mda08beded1" y="229.408249"/>
      </g>
     </g>
     <g id="text_4">
      <!-- −8.0 -->
      <g transform="translate(381.4576 233.207468)scale(0.1 -0.1)">
       <use xlink:href="#DejaVuSans-2212"/>
       <use x="83.789062" xlink:href="#DejaVuSans-38"/>
       <use x="147.412109" xlink:href="#DejaVuSans-2e"/>
       <use x="179.199219" xlink:href="#DejaVuSans-30"/>
      </g>
     </g>
    </g>
    <g id="ytick_4">
     <g id="line2d_4">
      <g>
       <use style="stroke:#000000;stroke-width:0.8;" x="374.4576" xlink:href="#mda08beded1" y="197.496187"/>
      </g>
     </g>
     <g id="text_5">
      <!-- −7.5 -->
      <g transform="translate(381.4576 201.295406)scale(0.1 -0.1)">
       <use xlink:href="#DejaVuSans-2212"/>
       <use x="83.789062" xlink:href="#DejaVuSans-37"/>
       <use x="147.412109" xlink:href="#DejaVuSans-2e"/>
       <use x="179.199219" xlink:href="#DejaVuSans-35"/>
      </g>
     </g>
    </g>
    <g id="ytick_5">
     <g id="line2d_5">
      <g>
       <use style="stroke:#000000;stroke-width:0.8;" x="374.4576" xlink:href="#mda08beded1" y="165.584125"/>
      </g>
     </g>
     <g id="text_6">
      <!-- −7.0 -->
      <g transform="translate(381.4576 169.383344)scale(0.1 -0.1)">
       <use xlink:href="#DejaVuSans-2212"/>
       <use x="83.789062" xlink:href="#DejaVuSans-37"/>
       <use x="147.412109" xlink:href="#DejaVuSans-2e"/>
       <use x="179.199219" xlink:href="#DejaVuSans-30"/>
      </g>
     </g>
    </g>
    <g id="ytick_6">
     <g id="line2d_6">
      <g>
       <use style="stroke:#000000;stroke-width:0.8;" x="374.4576" xlink:href="#mda08beded1" y="133.672063"/>
      </g>
     </g>
     <g id="text_7">
      <!-- −6.5 -->
      <g transform="translate(381.4576 137.471282)scale(0.1 -0.1)">
       <use xlink:href="#DejaVuSans-2212"/>
       <use x="83.789062" xlink:href="#DejaVuSans-36"/>
       <use x="147.412109" xlink:href="#DejaVuSans-2e"/>
       <use x="179.199219" xlink:href="#DejaVuSans-35"/>
      </g>
     </g>
    </g>
    <g id="ytick_7">
     <g id="line2d_7">
      <g>
       <use style="stroke:#000000;stroke-width:0.8;" x="374.4576" xlink:href="#mda08beded1" y="101.760001"/>
      </g>
     </g>
     <g id="text_8">
      <!-- −6.0 -->
      <g transform="translate(381.4576 105.559219)scale(0.1 -0.1)">
       <use xlink:href="#DejaVuSans-2212"/>
       <use x="83.789062" xlink:href="#DejaVuSans-36"/>
       <use x="147.412109" xlink:href="#DejaVuSans-2e"/>
       <use x="179.199219" xlink:href="#DejaVuSans-30"/>
      </g>
     </g>
    </g>
    <g id="ytick_8">
     <g id="line2d_8">
      <g>
       <use style="stroke:#000000;stroke-width:0.8;" x="374.4576" xlink:href="#mda08beded1" y="69.847938"/>
      </g>
     </g>
     <g id="text_9">
      <!-- −5.5 -->
      <g transform="translate(381.4576 73.647157)scale(0.1 -0.1)">
       <use xlink:href="#DejaVuSans-2212"/>
       <use x="83.789062" xlink:href="#DejaVuSans-35"/>
       <use x="147.412109" xlink:href="#DejaVuSans-2e"/>
       <use x="179.199219" xlink:href="#DejaVuSans-35"/>
      </g>
     </g>
    </g>
    <g id="text_10">
     <!-- Energy [eV] -->
     <defs>
      <path d="M 54.890625 33.015625 
L 54.890625 0 
L 45.90625 0 
L 45.90625 32.71875 
Q 45.90625 40.484375 42.875 44.328125 
Q 39.84375 48.1875 33.796875 48.1875 
Q 26.515625 48.1875 22.3125 43.546875 
Q 18.109375 38.921875 18.109375 30.90625 
L 18.109375 0 
L 9.078125 0 
L 9.078125 54.6875 
L 18.109375 54.6875 
L 18.109375 46.1875 
Q 21.34375 51.125 25.703125 53.5625 
Q 30.078125 56 35.796875 56 
Q 45.21875 56 50.046875 50.171875 
Q 54.890625 44.34375 54.890625 33.015625 
z
" id="DejaVuSans-6e"/>
      <path d="M 45.40625 27.984375 
Q 45.40625 37.75 41.375 43.109375 
Q 37.359375 48.484375 30.078125 48.484375 
Q 22.859375 48.484375 18.828125 43.109375 
Q 14.796875 37.75 14.796875 27.984375 
Q 14.796875 18.265625 18.828125 12.890625 
Q 22.859375 7.515625 30.078125 7.515625 
Q 37.359375 7.515625 41.375 12.890625 
Q 45.40625 18.265625 45.40625 27.984375 
z
M 54.390625 6.78125 
Q 54.390625 -7.171875 48.1875 -13.984375 
Q 42 -20.796875 29.203125 -20.796875 
Q 24.46875 -20.796875 20.265625 -20.09375 
Q 16.0625 -19.390625 12.109375 -17.921875 
L 12.109375 -9.1875 
Q 16.0625 -11.328125 19.921875 -12.34375 
Q 23.78125 -13.375 27.78125 -13.375 
Q 36.625 -13.375 41.015625 -8.765625 
Q 45.40625 -4.15625 45.40625 5.171875 
L 45.40625 9.625 
Q 42.625 4.78125 38.28125 2.390625 
Q 33.9375 0 27.875 0 
Q 17.828125 0 11.671875 7.65625 
Q 5.515625 15.328125 5.515625 27.984375 
Q 5.515625 40.671875 11.671875 48.328125 
Q 17.828125 56 27.875 56 
Q 33.9375 56 38.28125 53.609375 
Q 42.625 51.21875 45.40625 46.390625 
L 45.40625 54.6875 
L 54.390625 54.6875 
z
" id="DejaVuSans-67"/>
      <path d="M 32.171875 -5.078125 
Q 28.375 -14.84375 24.75 -17.8125 
Q 21.140625 -20.796875 15.09375 -20.796875 
L 7.90625 -20.796875 
L 7.90625 -13.28125 
L 13.1875 -13.28125 
Q 16.890625 -13.28125 18.9375 -11.515625 
Q 21 -9.765625 23.484375 -3.21875 
L 25.09375 0.875 
L 2.984375 54.6875 
L 12.5 54.6875 
L 29.59375 11.921875 
L 46.6875 54.6875 
L 56.203125 54.6875 
z
" id="DejaVuSans-79"/>
      <path d="M 8.59375 75.984375 
L 29.296875 75.984375 
L 29.296875 69 
L 17.578125 69 
L 17.578125 -6.203125 
L 29.296875 -6.203125 
L 29.296875 -13.1875 
L 8.59375 -13.1875 
z
" id="DejaVuSans-5b"/>
      <path d="M 30.421875 75.984375 
L 30.421875 -13.1875 
L 9.71875 -13.1875 
L 9.71875 -6.203125 
L 21.390625 -6.203125 
L 21.390625 69 
L 9.71875 69 
L 9.71875 75.984375 
z
" id="DejaVuSans-5d"/>
     </defs>
     <g transform="translate(417.33885 204.108469)rotate(-90)scale(0.1 -0.1)">
      <use xlink:href="#DejaVuSans-45"/>
      <use x="63.183594" xlink:href="#DejaVuSans-6e"/>
      <use x="126.5625" xlink:href="#DejaVuSans-65"/>
      <use x="188.085938" xlink:href="#DejaVuSans-72"/>
      <use x="229.183594" xlink:href="#DejaVuSans-67"/>
      <use x="292.660156" xlink:href="#DejaVuSans-79"/>
      <use x="351.839844" xlink:href="#DejaVuSans-20"/>
      <use x="383.626953" xlink:href="#DejaVuSans-5b"/>
      <use x="422.640625" xlink:href="#DejaVuSans-65"/>
      <use x="484.164062" xlink:href="#DejaVuSans-56"/>
      <use x="552.572266" xlink:href="#DejaVuSans-5d"/>
     </g>
    </g>
   </g>
   <g id="patch_3">
    <path d="M 361.152 307.584 
L 361.152 306.5445 
L 361.152 42.5115 
L 361.152 41.472 
L 374.4576 41.472 
L 374.4576 42.5115 
L 374.4576 306.5445 
L 374.4576 307.584 
z
" style="fill:none;stroke:#000000;stroke-linejoin:miter;stroke-width:0.8;"/>
   </g>
  </g>
 </g>
 <defs>
  <clipPath id="pd7a774947d">
   <rect height="266.112" width="285.696" x="57.6" y="41.472"/>
  </clipPath>
  <clipPath id="pe3628f9a69">
   <rect height="266.112" width="13.3056" x="361.152" y="41.472"/>
  </clipPath>
 </defs>
</svg>
