<?xml version="1.0" encoding="utf-8" standalone="no"?>
<!DOCTYPE svg PUBLIC "-//W3C//DTD SVG 1.1//EN"
  "http://www.w3.org/Graphics/SVG/1.1/DTD/svg11.dtd">
<!-- Created with matplotlib (http://matplotlib.org/) -->
<svg height="345.6pt" version="1.1" viewBox="0 0 460.8 345.6" width="460.8pt" xmlns="http://www.w3.org/2000/svg" xmlns:xlink="http://www.w3.org/1999/xlink">
 <defs>
  <style type="text/css">
*{stroke-linecap:butt;stroke-linejoin:round;}
  </style>
 </defs>
 <g id="figure_1">
  <g id="patch_1">
   <path d="M 0 345.6 
L 460.8 345.6 
L 460.8 0 
L 0 0 
z
" style="fill:#ffffff;"/>
  </g>
  <g id="axes_1">
   <g id="CircleCollection_1">
    <path clip-path="url(#p658b23a970)" d="M 211.025773 61.557998 
C 212.880867 61.557998 214.660232 60.820961 215.971982 59.509211 
C 217.283732 58.197461 218.020769 56.418097 218.020769 54.563002 
C 218.020769 52.707907 217.283732 50.928543 215.971982 49.616793 
C 214.660232 48.305043 212.880867 47.568006 211.025773 47.568006 
C 209.170678 47.568006 207.391314 48.305043 206.079564 49.616793 
C 204.767814 50.928543 204.030777 52.707907 204.030777 54.563002 
C 204.030777 56.418097 204.767814 58.197461 206.079564 59.509211 
C 207.391314 60.820961 209.170678 61.557998 211.025773 61.557998 
z
" style="fill:#23898e;"/>
    <path clip-path="url(#p658b23a970)" d="M 111.590049 190.22894 
C 113.230613 190.22894 114.804204 189.577138 115.964258 188.417084 
C 117.124311 187.25703 117.776114 185.683439 117.776114 184.042875 
C 117.776114 182.402311 117.124311 180.82872 115.964258 179.668666 
C 114.804204 178.508612 113.230613 177.856809 111.590049 177.856809 
C 109.949485 177.856809 108.375894 178.508612 107.21584 179.668666 
C 106.055786 180.82872 105.403983 182.402311 105.403983 184.042875 
C 105.403983 185.683439 106.055786 187.25703 107.21584 188.417084 
C 108.375894 189.577138 109.949485 190.22894 111.590049 190.22894 
z
" style="fill:#2e6d8e;"/>
    <path clip-path="url(#p658b23a970)" d="M 209.927576 138.93925 
C 211.737686 138.93925 213.473902 138.220085 214.753843 136.940144 
C 216.033784 135.660203 216.752949 133.923987 216.752949 132.113877 
C 216.752949 130.303767 216.033784 128.567551 214.753843 127.28761 
C 213.473902 126.007669 211.737686 125.288505 209.927576 125.288505 
C 208.117466 125.288505 206.38125 126.007669 205.101309 127.28761 
C 203.821368 128.567551 203.102204 130.303767 203.102204 132.113877 
C 203.102204 133.923987 203.821368 135.660203 205.101309 136.940144 
C 206.38125 138.220085 208.117466 138.93925 209.927576 138.93925 
z
" style="fill:#65cb5e;"/>
    <path clip-path="url(#p658b23a970)" d="M 173.341813 287.302133 
C 175.01039 287.302133 176.610851 286.6392 177.790714 285.459338 
C 178.970576 284.279476 179.633508 282.679015 179.633508 281.010438 
C 179.633508 279.341861 178.970576 277.7414 177.790714 276.561537 
C 176.610851 275.381675 175.01039 274.718743 173.341813 274.718743 
C 171.673236 274.718743 170.072775 275.381675 168.892913 276.561537 
C 167.713051 277.7414 167.050118 279.341861 167.050118 281.010438 
C 167.050118 282.679015 167.713051 284.279476 168.892913 285.459338 
C 170.072775 286.6392 171.673236 287.302133 173.341813 287.302133 
z
" style="fill:#481c6e;"/>
    <path clip-path="url(#p658b23a970)" d="M 244.07174 88.670527 
C 245.804974 88.670527 247.467452 87.981906 248.693034 86.756325 
C 249.918615 85.530743 250.607236 83.868265 250.607236 82.135031 
C 250.607236 80.401797 249.918615 78.739318 248.693034 77.513737 
C 247.467452 76.288156 245.804974 75.599534 244.07174 75.599534 
C 242.338506 75.599534 240.676028 76.288156 239.450446 77.513737 
C 238.224865 78.739318 237.536243 80.401797 237.536243 82.135031 
C 237.536243 83.868265 238.224865 85.530743 239.450446 86.756325 
C 240.676028 87.981906 242.338506 88.670527 244.07174 88.670527 
z
" style="fill:#2a778e;"/>
    <path clip-path="url(#p658b23a970)" d="M 197.146609 159.67637 
C 198.769508 159.67637 200.326156 159.031585 201.47372 157.884022 
C 202.621283 156.736459 203.266067 155.179811 203.266067 153.556912 
C 203.266067 151.934012 202.621283 150.377365 201.47372 149.229801 
C 200.326156 148.082238 198.769508 147.437454 197.146609 147.437454 
C 195.52371 147.437454 193.967062 148.082238 192.819499 149.229801 
C 191.671936 150.377365 191.027151 151.934012 191.027151 153.556912 
C 191.027151 155.179811 191.671936 156.736459 192.819499 157.884022 
C 193.967062 159.031585 195.52371 159.67637 197.146609 159.67637 
z
" style="fill:#31678e;"/>
    <path clip-path="url(#p658b23a970)" d="M 188.434261 63.565233 
C 190.20034 63.565233 191.894323 62.863563 193.143129 61.614756 
C 194.391935 60.36595 195.093606 58.671967 195.093606 56.905888 
C 195.093606 55.139809 194.391935 53.445827 193.143129 52.197021 
C 191.894323 50.948214 190.20034 50.246544 188.434261 50.246544 
C 186.668182 50.246544 184.9742 50.948214 183.725393 52.197021 
C 182.476587 53.445827 181.774916 55.139809 181.774916 56.905888 
C 181.774916 58.671967 182.476587 60.36595 183.725393 61.614756 
C 184.9742 62.863563 186.668182 63.565233 188.434261 63.565233 
z
" style="fill:#2a788e;"/>
    <path clip-path="url(#p658b23a970)" d="M 128.097403 287.501498 
C 129.830089 287.501498 131.492042 286.813095 132.717236 285.587901 
C 133.942429 284.362708 134.630833 282.700755 134.630833 280.968069 
C 134.630833 279.235383 133.942429 277.573431 132.717236 276.348237 
C 131.492042 275.123043 129.830089 274.43464 128.097403 274.43464 
C 126.364718 274.43464 124.702765 275.123043 123.477571 276.348237 
C 122.252377 277.573431 121.563974 279.235383 121.563974 280.968069 
C 121.563974 282.700755 122.252377 284.362708 123.477571 285.587901 
C 124.702765 286.813095 126.364718 287.501498 128.097403 287.501498 
z
" style="fill:#fde725;"/>
    <path clip-path="url(#p658b23a970)" d="M 117.622071 103.570803 
C 119.537975 103.570803 121.375667 102.809606 122.730416 101.454857 
C 124.085165 100.100108 124.846362 98.262416 124.846362 96.346511 
C 124.846362 94.430607 124.085165 92.592915 122.730416 91.238166 
C 121.375667 89.883417 119.537975 89.12222 117.622071 89.12222 
C 115.706166 89.12222 113.868474 89.883417 112.513725 91.238166 
C 111.158976 92.592915 110.397779 94.430607 110.397779 96.346511 
C 110.397779 98.262416 111.158976 100.100108 112.513725 101.454857 
C 113.868474 102.809606 115.706166 103.570803 117.622071 103.570803 
z
" style="fill:#1f958b;"/>
    <path clip-path="url(#p658b23a970)" d="M 86.281672 102.412662 
C 88.053441 102.412662 89.752881 101.70873 91.005711 100.455901 
C 92.258541 99.203071 92.962472 97.503631 92.962472 95.731862 
C 92.962472 93.960093 92.258541 92.260653 91.005711 91.007823 
C 89.752881 89.754993 88.053441 89.051062 86.281672 89.051062 
C 84.509904 89.051062 82.810463 89.754993 81.557634 91.007823 
C 80.304804 92.260653 79.600873 93.960093 79.600873 95.731862 
C 79.600873 97.503631 80.304804 99.203071 81.557634 100.455901 
C 82.810463 101.70873 84.509904 102.412662 86.281672 102.412662 
z
" style="fill:#26818e;"/>
    <path clip-path="url(#p658b23a970)" d="M 267.852607 94.063902 
C 269.673396 94.063902 271.419855 93.340495 272.707347 92.053003 
C 273.99484 90.765511 274.718247 89.019051 274.718247 87.198262 
C 274.718247 85.377473 273.99484 83.631013 272.707347 82.343521 
C 271.419855 81.056029 269.673396 80.332621 267.852607 80.332621 
C 266.031817 80.332621 264.285358 81.056029 262.997866 82.343521 
C 261.710373 83.631013 260.986966 85.377473 260.986966 87.198262 
C 260.986966 89.019051 261.710373 90.765511 262.997866 92.053003 
C 264.285358 93.340495 266.031817 94.063902 267.852607 94.063902 
z
" style="fill:#2a778e;"/>
    <path clip-path="url(#p658b23a970)" d="M 233.573347 300.90563 
C 235.248385 300.90563 236.855043 300.24013 238.039473 299.0557 
C 239.223904 297.871269 239.889403 296.264611 239.889403 294.589574 
C 239.889403 292.914536 239.223904 291.307878 238.039473 290.123448 
C 236.855043 288.939018 235.248385 288.273518 233.573347 288.273518 
C 231.89831 288.273518 230.291652 288.939018 229.107221 290.123448 
C 227.922791 291.307878 227.257291 292.914536 227.257291 294.589574 
C 227.257291 296.264611 227.922791 297.871269 229.107221 299.0557 
C 230.291652 300.24013 231.89831 300.90563 233.573347 300.90563 
z
" style="fill:#20a486;"/>
    <path clip-path="url(#p658b23a970)" d="M 132.529526 75.864838 
C 134.248952 75.864838 135.898187 75.181703 137.114005 73.965885 
C 138.329824 72.750066 139.012959 71.100831 139.012959 69.381405 
C 139.012959 67.661978 138.329824 66.012743 137.114005 64.796925 
C 135.898187 63.581107 134.248952 62.897971 132.529526 62.897971 
C 130.810099 62.897971 129.160864 63.581107 127.945046 64.796925 
C 126.729228 66.012743 126.046092 67.661978 126.046092 69.381405 
C 126.046092 71.100831 126.729228 72.750066 127.945046 73.965885 
C 129.160864 75.181703 130.810099 75.864838 132.529526 75.864838 
z
" style="fill:#433d84;"/>
    <path clip-path="url(#p658b23a970)" d="M 71.173762 174.856688 
C 72.956362 174.856688 74.66619 174.148453 75.926679 172.887965 
C 77.187167 171.627477 77.895401 169.917648 77.895401 168.135049 
C 77.895401 166.35245 77.187167 164.642621 75.926679 163.382133 
C 74.66619 162.121644 72.956362 161.41341 71.173762 161.41341 
C 69.391163 161.41341 67.681334 162.121644 66.420846 163.382133 
C 65.160358 164.642621 64.452123 166.35245 64.452123 168.135049 
C 64.452123 169.917648 65.160358 171.627477 66.420846 172.887965 
C 67.681334 174.148453 69.391163 174.856688 71.173762 174.856688 
z
" style="fill:#1f958b;"/>
    <path clip-path="url(#p658b23a970)" d="M 92.122586 226.550105 
C 93.843582 226.550105 95.494322 225.866346 96.71125 224.649418 
C 97.928177 223.432491 98.611936 221.781751 98.611936 220.060755 
C 98.611936 218.339759 97.928177 216.689019 96.71125 215.472092 
C 95.494322 214.255164 93.843582 213.571405 92.122586 213.571405 
C 90.401591 213.571405 88.750851 214.255164 87.533923 215.472092 
C 86.316995 216.689019 85.633236 218.339759 85.633236 220.060755 
C 85.633236 221.781751 86.316995 223.432491 87.533923 224.649418 
C 88.750851 225.866346 90.401591 226.550105 92.122586 226.550105 
z
" style="fill:#453581;"/>
    <path clip-path="url(#p658b23a970)" d="M 169.695306 82.521388 
C 171.61075 82.521388 173.448 81.760374 174.802424 80.405951 
C 176.156847 79.051528 176.917861 77.214278 176.917861 75.298834 
C 176.917861 73.38339 176.156847 71.54614 174.802424 70.191717 
C 173.448 68.837293 171.61075 68.076279 169.695306 68.076279 
C 167.779862 68.076279 165.942612 68.837293 164.588189 70.191717 
C 163.233766 71.54614 162.472752 73.38339 162.472752 75.298834 
C 162.472752 77.214278 163.233766 79.051528 164.588189 80.405951 
C 165.942612 81.760374 167.779862 82.521388 169.695306 82.521388 
z
" style="fill:#29af7f;"/>
    <path clip-path="url(#p658b23a970)" d="M 282.244004 270.681553 
C 283.911641 270.681553 285.511201 270.018994 286.690399 268.839796 
C 287.869596 267.660598 288.532156 266.061039 288.532156 264.393401 
C 288.532156 262.725764 287.869596 261.126204 286.690399 259.947006 
C 285.511201 258.767809 283.911641 258.105249 282.244004 258.105249 
C 280.576366 258.105249 278.976807 258.767809 277.797609 259.947006 
C 276.618411 261.126204 275.955852 262.725764 275.955852 264.393401 
C 275.955852 266.061039 276.618411 267.660598 277.797609 268.839796 
C 278.976807 270.018994 280.576366 270.681553 282.244004 270.681553 
z
" style="fill:#1fa187;"/>
    <path clip-path="url(#p658b23a970)" d="M 329.728718 177.026009 
C 331.491657 177.026009 333.182628 176.325586 334.429214 175.079001 
C 335.6758 173.832415 336.376223 172.141444 336.376223 170.378505 
C 336.376223 168.615566 335.6758 166.924596 334.429214 165.67801 
C 333.182628 164.431424 331.491657 163.731001 329.728718 163.731001 
C 327.96578 163.731001 326.274809 164.431424 325.028223 165.67801 
C 323.781637 166.924596 323.081214 168.615566 323.081214 170.378505 
C 323.081214 172.141444 323.781637 173.832415 325.028223 175.079001 
C 326.274809 176.325586 327.96578 177.026009 329.728718 177.026009 
z
" style="fill:#28ae80;"/>
    <path clip-path="url(#p658b23a970)" d="M 318.554765 138.9162 
C 320.38018 138.9162 322.131077 138.190955 323.421841 136.900191 
C 324.712605 135.609428 325.43785 133.858531 325.43785 132.033115 
C 325.43785 130.2077 324.712605 128.456803 323.421841 127.166039 
C 322.131077 125.875276 320.38018 125.15003 318.554765 125.15003 
C 316.729349 125.15003 314.978452 125.875276 313.687689 127.166039 
C 312.396925 128.456803 311.67168 130.2077 311.67168 132.033115 
C 311.67168 133.858531 312.396925 135.609428 313.687689 136.900191 
C 314.978452 138.190955 316.729349 138.9162 318.554765 138.9162 
z
" style="fill:#2db27d;"/>
    <path clip-path="url(#p658b23a970)" d="M 252.16881 145.290981 
C 253.835807 145.290981 255.434754 144.628676 256.613499 143.44993 
C 257.792245 142.271185 258.45455 140.672239 258.45455 139.005241 
C 258.45455 137.338243 257.792245 135.739297 256.613499 134.560551 
C 255.434754 133.381806 253.835807 132.719501 252.16881 132.719501 
C 250.501812 132.719501 248.902866 133.381806 247.72412 134.560551 
C 246.545375 135.739297 245.883069 137.338243 245.883069 139.005241 
C 245.883069 140.672239 246.545375 142.271185 247.72412 143.44993 
C 248.902866 144.628676 250.501812 145.290981 252.16881 145.290981 
z
" style="fill:#3d4d8a;"/>
    <path clip-path="url(#p658b23a970)" d="M 142.675172 123.485417 
C 144.323954 123.485417 145.905429 122.830349 147.071294 121.664484 
C 148.237159 120.498619 148.892227 118.917144 148.892227 117.268362 
C 148.892227 115.61958 148.237159 114.038105 147.071294 112.87224 
C 145.905429 111.706375 144.323954 111.051307 142.675172 111.051307 
C 141.026389 111.051307 139.444915 111.706375 138.27905 112.87224 
C 137.113185 114.038105 136.458116 115.61958 136.458116 117.268362 
C 136.458116 118.917144 137.113185 120.498619 138.27905 121.664484 
C 139.444915 122.830349 141.026389 123.485417 142.675172 123.485417 
z
" style="fill:#3a538b;"/>
    <path clip-path="url(#p658b23a970)" d="M 83.354163 130.469737 
C 85.207207 130.469737 86.984605 129.733515 88.294905 128.423214 
C 89.605205 127.112914 90.341427 125.335517 90.341427 123.482473 
C 90.341427 121.629429 89.605205 119.852031 88.294905 118.541731 
C 86.984605 117.231431 85.207207 116.495209 83.354163 116.495209 
C 81.501119 116.495209 79.723721 117.231431 78.413421 118.541731 
C 77.103121 119.852031 76.366899 121.629429 76.366899 123.482473 
C 76.366899 125.335517 77.103121 127.112914 78.413421 128.423214 
C 79.723721 129.733515 81.501119 130.469737 83.354163 130.469737 
z
" style="fill:#25848e;"/>
    <path clip-path="url(#p658b23a970)" d="M 164.89895 225.434677 
C 166.50839 225.434677 168.052128 224.79524 169.190173 223.657194 
C 170.328219 222.519148 170.967656 220.975411 170.967656 219.365971 
C 170.967656 217.756532 170.328219 216.212794 169.190173 215.074749 
C 168.052128 213.936703 166.50839 213.297266 164.89895 213.297266 
C 163.289511 213.297266 161.745773 213.936703 160.607728 215.074749 
C 159.469682 216.212794 158.830245 217.756532 158.830245 219.365971 
C 158.830245 220.975411 159.469682 222.519148 160.607728 223.657194 
C 161.745773 224.79524 163.289511 225.434677 164.89895 225.434677 
z
" style="fill:#2c718e;"/>
    <path clip-path="url(#p658b23a970)" d="M 294.674294 199.959347 
C 296.366069 199.959347 297.988782 199.287197 299.185048 198.090931 
C 300.381314 196.894665 301.053463 195.271953 301.053463 193.580177 
C 301.053463 191.888402 300.381314 190.265689 299.185048 189.069423 
C 297.988782 187.873157 296.366069 187.201008 294.674294 187.201008 
C 292.982518 187.201008 291.359806 187.873157 290.16354 189.069423 
C 288.967274 190.265689 288.295124 191.888402 288.295124 193.580177 
C 288.295124 195.271953 288.967274 196.894665 290.16354 198.090931 
C 291.359806 199.287197 292.982518 199.959347 294.674294 199.959347 
z
" style="fill:#440154;"/>
   </g>
   <g id="text_1">
    <!-- Structure #3724, $E_N$=-179.38eV, ΔE=-0.07eV -->
    <defs>
     <path d="M 53.515625 70.515625 
L 53.515625 60.890625 
Q 47.90625 63.578125 42.921875 64.890625 
Q 37.9375 66.21875 33.296875 66.21875 
Q 25.25 66.21875 20.875 63.09375 
Q 16.5 59.96875 16.5 54.203125 
Q 16.5 49.359375 19.40625 46.890625 
Q 22.3125 44.4375 30.421875 42.921875 
L 36.375 41.703125 
Q 47.40625 39.59375 52.65625 34.296875 
Q 57.90625 29 57.90625 20.125 
Q 57.90625 9.515625 50.796875 4.046875 
Q 43.703125 -1.421875 29.984375 -1.421875 
Q 24.8125 -1.421875 18.96875 -0.25 
Q 13.140625 0.921875 6.890625 3.21875 
L 6.890625 13.375 
Q 12.890625 10.015625 18.65625 8.296875 
Q 24.421875 6.59375 29.984375 6.59375 
Q 38.421875 6.59375 43.015625 9.90625 
Q 47.609375 13.234375 47.609375 19.390625 
Q 47.609375 24.75 44.3125 27.78125 
Q 41.015625 30.8125 33.5 32.328125 
L 27.484375 33.5 
Q 16.453125 35.6875 11.515625 40.375 
Q 6.59375 45.0625 6.59375 53.421875 
Q 6.59375 63.09375 13.40625 68.65625 
Q 20.21875 74.21875 32.171875 74.21875 
Q 37.3125 74.21875 42.625 73.28125 
Q 47.953125 72.359375 53.515625 70.515625 
z
" id="DejaVuSans-53"/>
     <path d="M 18.3125 70.21875 
L 18.3125 54.6875 
L 36.8125 54.6875 
L 36.8125 47.703125 
L 18.3125 47.703125 
L 18.3125 18.015625 
Q 18.3125 11.328125 20.140625 9.421875 
Q 21.96875 7.515625 27.59375 7.515625 
L 36.8125 7.515625 
L 36.8125 0 
L 27.59375 0 
Q 17.1875 0 13.234375 3.875 
Q 9.28125 7.765625 9.28125 18.015625 
L 9.28125 47.703125 
L 2.6875 47.703125 
L 2.6875 54.6875 
L 9.28125 54.6875 
L 9.28125 70.21875 
z
" id="DejaVuSans-74"/>
     <path d="M 41.109375 46.296875 
Q 39.59375 47.171875 37.8125 47.578125 
Q 36.03125 48 33.890625 48 
Q 26.265625 48 22.1875 43.046875 
Q 18.109375 38.09375 18.109375 28.8125 
L 18.109375 0 
L 9.078125 0 
L 9.078125 54.6875 
L 18.109375 54.6875 
L 18.109375 46.1875 
Q 20.953125 51.171875 25.484375 53.578125 
Q 30.03125 56 36.53125 56 
Q 37.453125 56 38.578125 55.875 
Q 39.703125 55.765625 41.0625 55.515625 
z
" id="DejaVuSans-72"/>
     <path d="M 8.5 21.578125 
L 8.5 54.6875 
L 17.484375 54.6875 
L 17.484375 21.921875 
Q 17.484375 14.15625 20.5 10.265625 
Q 23.53125 6.390625 29.59375 6.390625 
Q 36.859375 6.390625 41.078125 11.03125 
Q 45.3125 15.671875 45.3125 23.6875 
L 45.3125 54.6875 
L 54.296875 54.6875 
L 54.296875 0 
L 45.3125 0 
L 45.3125 8.40625 
Q 42.046875 3.421875 37.71875 1 
Q 33.40625 -1.421875 27.6875 -1.421875 
Q 18.265625 -1.421875 13.375 4.4375 
Q 8.5 10.296875 8.5 21.578125 
z
M 31.109375 56 
z
" id="DejaVuSans-75"/>
     <path d="M 48.78125 52.59375 
L 48.78125 44.1875 
Q 44.96875 46.296875 41.140625 47.34375 
Q 37.3125 48.390625 33.40625 48.390625 
Q 24.65625 48.390625 19.8125 42.84375 
Q 14.984375 37.3125 14.984375 27.296875 
Q 14.984375 17.28125 19.8125 11.734375 
Q 24.65625 6.203125 33.40625 6.203125 
Q 37.3125 6.203125 41.140625 7.25 
Q 44.96875 8.296875 48.78125 10.40625 
L 48.78125 2.09375 
Q 45.015625 0.34375 40.984375 -0.53125 
Q 36.96875 -1.421875 32.421875 -1.421875 
Q 20.0625 -1.421875 12.78125 6.34375 
Q 5.515625 14.109375 5.515625 27.296875 
Q 5.515625 40.671875 12.859375 48.328125 
Q 20.21875 56 33.015625 56 
Q 37.15625 56 41.109375 55.140625 
Q 45.0625 54.296875 48.78125 52.59375 
z
" id="DejaVuSans-63"/>
     <path d="M 56.203125 29.59375 
L 56.203125 25.203125 
L 14.890625 25.203125 
Q 15.484375 15.921875 20.484375 11.0625 
Q 25.484375 6.203125 34.421875 6.203125 
Q 39.59375 6.203125 44.453125 7.46875 
Q 49.3125 8.734375 54.109375 11.28125 
L 54.109375 2.78125 
Q 49.265625 0.734375 44.1875 -0.34375 
Q 39.109375 -1.421875 33.890625 -1.421875 
Q 20.796875 -1.421875 13.15625 6.1875 
Q 5.515625 13.8125 5.515625 26.8125 
Q 5.515625 40.234375 12.765625 48.109375 
Q 20.015625 56 32.328125 56 
Q 43.359375 56 49.78125 48.890625 
Q 56.203125 41.796875 56.203125 29.59375 
z
M 47.21875 32.234375 
Q 47.125 39.59375 43.09375 43.984375 
Q 39.0625 48.390625 32.421875 48.390625 
Q 24.90625 48.390625 20.390625 44.140625 
Q 15.875 39.890625 15.1875 32.171875 
z
" id="DejaVuSans-65"/>
     <path id="DejaVuSans-20"/>
     <path d="M 51.125 44 
L 36.921875 44 
L 32.8125 27.6875 
L 47.125 27.6875 
z
M 43.796875 71.78125 
L 38.71875 51.515625 
L 52.984375 51.515625 
L 58.109375 71.78125 
L 65.921875 71.78125 
L 60.890625 51.515625 
L 76.125 51.515625 
L 76.125 44 
L 58.984375 44 
L 54.984375 27.6875 
L 70.515625 27.6875 
L 70.515625 20.21875 
L 53.078125 20.21875 
L 48 0 
L 40.1875 0 
L 45.21875 20.21875 
L 30.90625 20.21875 
L 25.875 0 
L 18.015625 0 
L 23.09375 20.21875 
L 7.71875 20.21875 
L 7.71875 27.6875 
L 24.90625 27.6875 
L 29 44 
L 13.28125 44 
L 13.28125 51.515625 
L 30.90625 51.515625 
L 35.890625 71.78125 
z
" id="DejaVuSans-23"/>
     <path d="M 40.578125 39.3125 
Q 47.65625 37.796875 51.625 33 
Q 55.609375 28.21875 55.609375 21.1875 
Q 55.609375 10.40625 48.1875 4.484375 
Q 40.765625 -1.421875 27.09375 -1.421875 
Q 22.515625 -1.421875 17.65625 -0.515625 
Q 12.796875 0.390625 7.625 2.203125 
L 7.625 11.71875 
Q 11.71875 9.328125 16.59375 8.109375 
Q 21.484375 6.890625 26.8125 6.890625 
Q 36.078125 6.890625 40.9375 10.546875 
Q 45.796875 14.203125 45.796875 21.1875 
Q 45.796875 27.640625 41.28125 31.265625 
Q 36.765625 34.90625 28.71875 34.90625 
L 20.21875 34.90625 
L 20.21875 43.015625 
L 29.109375 43.015625 
Q 36.375 43.015625 40.234375 45.921875 
Q 44.09375 48.828125 44.09375 54.296875 
Q 44.09375 59.90625 40.109375 62.90625 
Q 36.140625 65.921875 28.71875 65.921875 
Q 24.65625 65.921875 20.015625 65.03125 
Q 15.375 64.15625 9.8125 62.3125 
L 9.8125 71.09375 
Q 15.4375 72.65625 20.34375 73.4375 
Q 25.25 74.21875 29.59375 74.21875 
Q 40.828125 74.21875 47.359375 69.109375 
Q 53.90625 64.015625 53.90625 55.328125 
Q 53.90625 49.265625 50.4375 45.09375 
Q 46.96875 40.921875 40.578125 39.3125 
z
" id="DejaVuSans-33"/>
     <path d="M 8.203125 72.90625 
L 55.078125 72.90625 
L 55.078125 68.703125 
L 28.609375 0 
L 18.3125 0 
L 43.21875 64.59375 
L 8.203125 64.59375 
z
" id="DejaVuSans-37"/>
     <path d="M 19.1875 8.296875 
L 53.609375 8.296875 
L 53.609375 0 
L 7.328125 0 
L 7.328125 8.296875 
Q 12.9375 14.109375 22.625 23.890625 
Q 32.328125 33.6875 34.8125 36.53125 
Q 39.546875 41.84375 41.421875 45.53125 
Q 43.3125 49.21875 43.3125 52.78125 
Q 43.3125 58.59375 39.234375 62.25 
Q 35.15625 65.921875 28.609375 65.921875 
Q 23.96875 65.921875 18.8125 64.3125 
Q 13.671875 62.703125 7.8125 59.421875 
L 7.8125 69.390625 
Q 13.765625 71.78125 18.9375 73 
Q 24.125 74.21875 28.421875 74.21875 
Q 39.75 74.21875 46.484375 68.546875 
Q 53.21875 62.890625 53.21875 53.421875 
Q 53.21875 48.921875 51.53125 44.890625 
Q 49.859375 40.875 45.40625 35.40625 
Q 44.1875 33.984375 37.640625 27.21875 
Q 31.109375 20.453125 19.1875 8.296875 
z
" id="DejaVuSans-32"/>
     <path d="M 37.796875 64.3125 
L 12.890625 25.390625 
L 37.796875 25.390625 
z
M 35.203125 72.90625 
L 47.609375 72.90625 
L 47.609375 25.390625 
L 58.015625 25.390625 
L 58.015625 17.1875 
L 47.609375 17.1875 
L 47.609375 0 
L 37.796875 0 
L 37.796875 17.1875 
L 4.890625 17.1875 
L 4.890625 26.703125 
z
" id="DejaVuSans-34"/>
     <path d="M 11.71875 12.40625 
L 22.015625 12.40625 
L 22.015625 4 
L 14.015625 -11.625 
L 7.71875 -11.625 
L 11.71875 4 
z
" id="DejaVuSans-2c"/>
     <path d="M 16.890625 72.90625 
L 62.984375 72.90625 
L 61.375 64.59375 
L 25.09375 64.59375 
L 20.90625 43.015625 
L 55.71875 43.015625 
L 54.109375 34.71875 
L 19.28125 34.71875 
L 14.203125 8.296875 
L 51.3125 8.296875 
L 49.703125 0 
L 2.6875 0 
z
" id="DejaVuSans-Oblique-45"/>
     <path d="M 16.890625 72.90625 
L 30.171875 72.90625 
L 50.296875 10.40625 
L 62.5 72.90625 
L 72.125 72.90625 
L 57.90625 0 
L 44.578125 0 
L 24.515625 62.890625 
L 12.3125 0 
L 2.6875 0 
z
" id="DejaVuSans-Oblique-4e"/>
     <path d="M 10.59375 45.40625 
L 73.1875 45.40625 
L 73.1875 37.203125 
L 10.59375 37.203125 
z
M 10.59375 25.484375 
L 73.1875 25.484375 
L 73.1875 17.1875 
L 10.59375 17.1875 
z
" id="DejaVuSans-3d"/>
     <path d="M 4.890625 31.390625 
L 31.203125 31.390625 
L 31.203125 23.390625 
L 4.890625 23.390625 
z
" id="DejaVuSans-2d"/>
     <path d="M 12.40625 8.296875 
L 28.515625 8.296875 
L 28.515625 63.921875 
L 10.984375 60.40625 
L 10.984375 69.390625 
L 28.421875 72.90625 
L 38.28125 72.90625 
L 38.28125 8.296875 
L 54.390625 8.296875 
L 54.390625 0 
L 12.40625 0 
z
" id="DejaVuSans-31"/>
     <path d="M 10.984375 1.515625 
L 10.984375 10.5 
Q 14.703125 8.734375 18.5 7.8125 
Q 22.3125 6.890625 25.984375 6.890625 
Q 35.75 6.890625 40.890625 13.453125 
Q 46.046875 20.015625 46.78125 33.40625 
Q 43.953125 29.203125 39.59375 26.953125 
Q 35.25 24.703125 29.984375 24.703125 
Q 19.046875 24.703125 12.671875 31.3125 
Q 6.296875 37.9375 6.296875 49.421875 
Q 6.296875 60.640625 12.9375 67.421875 
Q 19.578125 74.21875 30.609375 74.21875 
Q 43.265625 74.21875 49.921875 64.515625 
Q 56.59375 54.828125 56.59375 36.375 
Q 56.59375 19.140625 48.40625 8.859375 
Q 40.234375 -1.421875 26.421875 -1.421875 
Q 22.703125 -1.421875 18.890625 -0.6875 
Q 15.09375 0.046875 10.984375 1.515625 
z
M 30.609375 32.421875 
Q 37.25 32.421875 41.125 36.953125 
Q 45.015625 41.5 45.015625 49.421875 
Q 45.015625 57.28125 41.125 61.84375 
Q 37.25 66.40625 30.609375 66.40625 
Q 23.96875 66.40625 20.09375 61.84375 
Q 16.21875 57.28125 16.21875 49.421875 
Q 16.21875 41.5 20.09375 36.953125 
Q 23.96875 32.421875 30.609375 32.421875 
z
" id="DejaVuSans-39"/>
     <path d="M 10.6875 12.40625 
L 21 12.40625 
L 21 0 
L 10.6875 0 
z
" id="DejaVuSans-2e"/>
     <path d="M 31.78125 34.625 
Q 24.75 34.625 20.71875 30.859375 
Q 16.703125 27.09375 16.703125 20.515625 
Q 16.703125 13.921875 20.71875 10.15625 
Q 24.75 6.390625 31.78125 6.390625 
Q 38.8125 6.390625 42.859375 10.171875 
Q 46.921875 13.96875 46.921875 20.515625 
Q 46.921875 27.09375 42.890625 30.859375 
Q 38.875 34.625 31.78125 34.625 
z
M 21.921875 38.8125 
Q 15.578125 40.375 12.03125 44.71875 
Q 8.5 49.078125 8.5 55.328125 
Q 8.5 64.0625 14.71875 69.140625 
Q 20.953125 74.21875 31.78125 74.21875 
Q 42.671875 74.21875 48.875 69.140625 
Q 55.078125 64.0625 55.078125 55.328125 
Q 55.078125 49.078125 51.53125 44.71875 
Q 48 40.375 41.703125 38.8125 
Q 48.828125 37.15625 52.796875 32.3125 
Q 56.78125 27.484375 56.78125 20.515625 
Q 56.78125 9.90625 50.3125 4.234375 
Q 43.84375 -1.421875 31.78125 -1.421875 
Q 19.734375 -1.421875 13.25 4.234375 
Q 6.78125 9.90625 6.78125 20.515625 
Q 6.78125 27.484375 10.78125 32.3125 
Q 14.796875 37.15625 21.921875 38.8125 
z
M 18.3125 54.390625 
Q 18.3125 48.734375 21.84375 45.5625 
Q 25.390625 42.390625 31.78125 42.390625 
Q 38.140625 42.390625 41.71875 45.5625 
Q 45.3125 48.734375 45.3125 54.390625 
Q 45.3125 60.0625 41.71875 63.234375 
Q 38.140625 66.40625 31.78125 66.40625 
Q 25.390625 66.40625 21.84375 63.234375 
Q 18.3125 60.0625 18.3125 54.390625 
z
" id="DejaVuSans-38"/>
     <path d="M 28.609375 0 
L 0.78125 72.90625 
L 11.078125 72.90625 
L 34.1875 11.53125 
L 57.328125 72.90625 
L 67.578125 72.90625 
L 39.796875 0 
z
" id="DejaVuSans-56"/>
     <path d="M 34.1875 63.1875 
L 14.15625 8.203125 
L 54.25 8.203125 
z
M 0.78125 0 
L 28.609375 72.90625 
L 39.796875 72.90625 
L 67.578125 0 
z
" id="DejaVuSans-394"/>
     <path d="M 9.8125 72.90625 
L 55.90625 72.90625 
L 55.90625 64.59375 
L 19.671875 64.59375 
L 19.671875 43.015625 
L 54.390625 43.015625 
L 54.390625 34.71875 
L 19.671875 34.71875 
L 19.671875 8.296875 
L 56.78125 8.296875 
L 56.78125 0 
L 9.8125 0 
z
" id="DejaVuSans-45"/>
     <path d="M 31.78125 66.40625 
Q 24.171875 66.40625 20.328125 58.90625 
Q 16.5 51.421875 16.5 36.375 
Q 16.5 21.390625 20.328125 13.890625 
Q 24.171875 6.390625 31.78125 6.390625 
Q 39.453125 6.390625 43.28125 13.890625 
Q 47.125 21.390625 47.125 36.375 
Q 47.125 51.421875 43.28125 58.90625 
Q 39.453125 66.40625 31.78125 66.40625 
z
M 31.78125 74.21875 
Q 44.046875 74.21875 50.515625 64.515625 
Q 56.984375 54.828125 56.984375 36.375 
Q 56.984375 17.96875 50.515625 8.265625 
Q 44.046875 -1.421875 31.78125 -1.421875 
Q 19.53125 -1.421875 13.0625 8.265625 
Q 6.59375 17.96875 6.59375 36.375 
Q 6.59375 54.828125 13.0625 64.515625 
Q 19.53125 74.21875 31.78125 74.21875 
z
" id="DejaVuSans-30"/>
    </defs>
    <g transform="translate(63.228 35.472)scale(0.12 -0.12)">
     <use transform="translate(0 0.78125)" xlink:href="#DejaVuSans-53"/>
     <use transform="translate(63.476562 0.78125)" xlink:href="#DejaVuSans-74"/>
     <use transform="translate(102.685547 0.78125)" xlink:href="#DejaVuSans-72"/>
     <use transform="translate(143.798828 0.78125)" xlink:href="#DejaVuSans-75"/>
     <use transform="translate(207.177734 0.78125)" xlink:href="#DejaVuSans-63"/>
     <use transform="translate(262.158203 0.78125)" xlink:href="#DejaVuSans-74"/>
     <use transform="translate(301.367188 0.78125)" xlink:href="#DejaVuSans-75"/>
     <use transform="translate(364.746094 0.78125)" xlink:href="#DejaVuSans-72"/>
     <use transform="translate(405.859375 0.78125)" xlink:href="#DejaVuSans-65"/>
     <use transform="translate(467.382812 0.78125)" xlink:href="#DejaVuSans-20"/>
     <use transform="translate(499.169922 0.78125)" xlink:href="#DejaVuSans-23"/>
     <use transform="translate(582.958984 0.78125)" xlink:href="#DejaVuSans-33"/>
     <use transform="translate(646.582031 0.78125)" xlink:href="#DejaVuSans-37"/>
     <use transform="translate(710.205078 0.78125)" xlink:href="#DejaVuSans-32"/>
     <use transform="translate(773.828125 0.78125)" xlink:href="#DejaVuSans-34"/>
     <use transform="translate(837.451172 0.78125)" xlink:href="#DejaVuSans-2c"/>
     <use transform="translate(869.238281 0.78125)" xlink:href="#DejaVuSans-20"/>
     <use transform="translate(901.025391 0.78125)" xlink:href="#DejaVuSans-Oblique-45"/>
     <use transform="translate(964.208984 -15.625)scale(0.7)" xlink:href="#DejaVuSans-Oblique-4e"/>
     <use transform="translate(1019.306641 0.78125)" xlink:href="#DejaVuSans-3d"/>
     <use transform="translate(1103.095703 0.78125)" xlink:href="#DejaVuSans-2d"/>
     <use transform="translate(1139.179688 0.78125)" xlink:href="#DejaVuSans-31"/>
     <use transform="translate(1202.802734 0.78125)" xlink:href="#DejaVuSans-37"/>
     <use transform="translate(1266.425781 0.78125)" xlink:href="#DejaVuSans-39"/>
     <use transform="translate(1330.048828 0.78125)" xlink:href="#DejaVuSans-2e"/>
     <use transform="translate(1361.835938 0.78125)" xlink:href="#DejaVuSans-33"/>
     <use transform="translate(1425.458984 0.78125)" xlink:href="#DejaVuSans-38"/>
     <use transform="translate(1489.082031 0.78125)" xlink:href="#DejaVuSans-65"/>
     <use transform="translate(1550.605469 0.78125)" xlink:href="#DejaVuSans-56"/>
     <use transform="translate(1619.013672 0.78125)" xlink:href="#DejaVuSans-2c"/>
     <use transform="translate(1650.800781 0.78125)" xlink:href="#DejaVuSans-20"/>
     <use transform="translate(1682.587891 0.78125)" xlink:href="#DejaVuSans-394"/>
     <use transform="translate(1750.996094 0.78125)" xlink:href="#DejaVuSans-45"/>
     <use transform="translate(1814.179688 0.78125)" xlink:href="#DejaVuSans-3d"/>
     <use transform="translate(1897.96875 0.78125)" xlink:href="#DejaVuSans-2d"/>
     <use transform="translate(1934.052734 0.78125)" xlink:href="#DejaVuSans-30"/>
     <use transform="translate(1997.675781 0.78125)" xlink:href="#DejaVuSans-2e"/>
     <use transform="translate(2029.462891 0.78125)" xlink:href="#DejaVuSans-30"/>
     <use transform="translate(2093.085938 0.78125)" xlink:href="#DejaVuSans-37"/>
     <use transform="translate(2156.708984 0.78125)" xlink:href="#DejaVuSans-65"/>
     <use transform="translate(2218.232422 0.78125)" xlink:href="#DejaVuSans-56"/>
    </g>
   </g>
  </g>
  <g id="axes_2">
   <g id="patch_2">
    <path clip-path="url(#p3656ae8b54)" d="M 361.152 307.584 
L 361.152 306.5445 
L 361.152 42.5115 
L 361.152 41.472 
L 374.4576 41.472 
L 374.4576 42.5115 
L 374.4576 306.5445 
L 374.4576 307.584 
z
" style="fill:#ffffff;stroke:#ffffff;stroke-linejoin:miter;stroke-width:0.01;"/>
   </g>
   <image height="265.68" id="imageaf213f6fc2" transform="scale(1 -1)translate(0 -265.68)" width="12.96" x="361.44" xlink:href="data:image/png;base64,
iVBORw0KGgoAAAANSUhEUgAAABIAAAFxCAYAAAB+2fgXAAAABHNCSVQICAgIfAhkiAAAAeVJREFUeJztncmNw0AQA2ckheYQNv9QLIfQ8ygsCgQ7AEI8+jAs2Puz/94F1LP2ReCsZ18bAWIeZ5XaGRBE7VnbptG+KI101FYyNSiQG2oRITXKNaX9uclOdi2XWjftVE32CZCO2ou5Bj1TcCBr/1zB9ge7Fq0Rg2NM9pvbtG+ua1QgsRYhDy0ISEiNc40BEibbSI0Coj5CBGtkpFbXJiAjNZlrwhuSOv2M1DjXbEdEciBt1JSDDQKKpmZr2rr2j0DBGpXaWEJq3bQzEPIS26r9J+Wzv9Tm8o3aajRXqc3VUXsApKNWjeZq0x4ABVNbm7lrszVigDqP5vIl2+eaT2yfRkL7g+dRcNPqjohkjaCvRVBq0H2U3LQrOJCx9kdTg4B8oxZzzTdqdYHEngjUCAPyUctN9sVRq2sTECW2UKNLd2jVtRmo1A6AhMmWaSRcR8nUdIHUuVb75zJS218EyEitro1At69pIdeSk30Lkw0FktNImGyZRhy1O5galmxd03LUsHWk06jUZiCq+5Wb1kZNN4+wJxJuWt8RAW5am2sYNZ9rYCBzZ3buPKJ2P5Yj4Toy3keyIyJbIxs1rml1byCA84gpch5RQNB7Q0qNMGq2Hy4BXdNR41yz/cEEJfZzUz96r9PoB0okjeQ8y9TkAAAAAElFTkSuQmCC" y="-41.76"/>
   <g id="matplotlib.axis_1"/>
   <g id="matplotlib.axis_2">
    <g id="ytick_1">
     <g id="line2d_1">
      <defs>
       <path d="M 0 0 
L 3.5 0 
" id="m85de541e69" style="stroke:#000000;stroke-width:0.8;"/>
      </defs>
      <g>
       <use style="stroke:#000000;stroke-width:0.8;" x="374.4576" xlink:href="#m85de541e69" y="282.50412"/>
      </g>
     </g>
     <g id="text_2">
      <!-- −8.5 -->
      <defs>
       <path d="M 10.59375 35.5 
L 73.1875 35.5 
L 73.1875 27.203125 
L 10.59375 27.203125 
z
" id="DejaVuSans-2212"/>
       <path d="M 10.796875 72.90625 
L 49.515625 72.90625 
L 49.515625 64.59375 
L 19.828125 64.59375 
L 19.828125 46.734375 
Q 21.96875 47.46875 24.109375 47.828125 
Q 26.265625 48.1875 28.421875 48.1875 
Q 40.625 48.1875 47.75 41.5 
Q 54.890625 34.8125 54.890625 23.390625 
Q 54.890625 11.625 47.5625 5.09375 
Q 40.234375 -1.421875 26.90625 -1.421875 
Q 22.3125 -1.421875 17.546875 -0.640625 
Q 12.796875 0.140625 7.71875 1.703125 
L 7.71875 11.625 
Q 12.109375 9.234375 16.796875 8.0625 
Q 21.484375 6.890625 26.703125 6.890625 
Q 35.15625 6.890625 40.078125 11.328125 
Q 45.015625 15.765625 45.015625 23.390625 
Q 45.015625 31 40.078125 35.4375 
Q 35.15625 39.890625 26.703125 39.890625 
Q 22.75 39.890625 18.8125 39.015625 
Q 14.890625 38.140625 10.796875 36.28125 
z
" id="DejaVuSans-35"/>
      </defs>
      <g transform="translate(381.4576 286.303339)scale(0.1 -0.1)">
       <use xlink:href="#DejaVuSans-2212"/>
       <use x="83.789062" xlink:href="#DejaVuSans-38"/>
       <use x="147.412109" xlink:href="#DejaVuSans-2e"/>
       <use x="179.199219" xlink:href="#DejaVuSans-35"/>
      </g>
     </g>
    </g>
    <g id="ytick_2">
     <g id="line2d_2">
      <g>
       <use style="stroke:#000000;stroke-width:0.8;" x="374.4576" xlink:href="#m85de541e69" y="238.688896"/>
      </g>
     </g>
     <g id="text_3">
      <!-- −8.0 -->
      <g transform="translate(381.4576 242.488115)scale(0.1 -0.1)">
       <use xlink:href="#DejaVuSans-2212"/>
       <use x="83.789062" xlink:href="#DejaVuSans-38"/>
       <use x="147.412109" xlink:href="#DejaVuSans-2e"/>
       <use x="179.199219" xlink:href="#DejaVuSans-30"/>
      </g>
     </g>
    </g>
    <g id="ytick_3">
     <g id="line2d_3">
      <g>
       <use style="stroke:#000000;stroke-width:0.8;" x="374.4576" xlink:href="#m85de541e69" y="194.873672"/>
      </g>
     </g>
     <g id="text_4">
      <!-- −7.5 -->
      <g transform="translate(381.4576 198.672891)scale(0.1 -0.1)">
       <use xlink:href="#DejaVuSans-2212"/>
       <use x="83.789062" xlink:href="#DejaVuSans-37"/>
       <use x="147.412109" xlink:href="#DejaVuSans-2e"/>
       <use x="179.199219" xlink:href="#DejaVuSans-35"/>
      </g>
     </g>
    </g>
    <g id="ytick_4">
     <g id="line2d_4">
      <g>
       <use style="stroke:#000000;stroke-width:0.8;" x="374.4576" xlink:href="#m85de541e69" y="151.058448"/>
      </g>
     </g>
     <g id="text_5">
      <!-- −7.0 -->
      <g transform="translate(381.4576 154.857666)scale(0.1 -0.1)">
       <use xlink:href="#DejaVuSans-2212"/>
       <use x="83.789062" xlink:href="#DejaVuSans-37"/>
       <use x="147.412109" xlink:href="#DejaVuSans-2e"/>
       <use x="179.199219" xlink:href="#DejaVuSans-30"/>
      </g>
     </g>
    </g>
    <g id="ytick_5">
     <g id="line2d_5">
      <g>
       <use style="stroke:#000000;stroke-width:0.8;" x="374.4576" xlink:href="#m85de541e69" y="107.243224"/>
      </g>
     </g>
     <g id="text_6">
      <!-- −6.5 -->
      <defs>
       <path d="M 33.015625 40.375 
Q 26.375 40.375 22.484375 35.828125 
Q 18.609375 31.296875 18.609375 23.390625 
Q 18.609375 15.53125 22.484375 10.953125 
Q 26.375 6.390625 33.015625 6.390625 
Q 39.65625 6.390625 43.53125 10.953125 
Q 47.40625 15.53125 47.40625 23.390625 
Q 47.40625 31.296875 43.53125 35.828125 
Q 39.65625 40.375 33.015625 40.375 
z
M 52.59375 71.296875 
L 52.59375 62.3125 
Q 48.875 64.0625 45.09375 64.984375 
Q 41.3125 65.921875 37.59375 65.921875 
Q 27.828125 65.921875 22.671875 59.328125 
Q 17.53125 52.734375 16.796875 39.40625 
Q 19.671875 43.65625 24.015625 45.921875 
Q 28.375 48.1875 33.59375 48.1875 
Q 44.578125 48.1875 50.953125 41.515625 
Q 57.328125 34.859375 57.328125 23.390625 
Q 57.328125 12.15625 50.6875 5.359375 
Q 44.046875 -1.421875 33.015625 -1.421875 
Q 20.359375 -1.421875 13.671875 8.265625 
Q 6.984375 17.96875 6.984375 36.375 
Q 6.984375 53.65625 15.1875 63.9375 
Q 23.390625 74.21875 37.203125 74.21875 
Q 40.921875 74.21875 44.703125 73.484375 
Q 48.484375 72.75 52.59375 71.296875 
z
" id="DejaVuSans-36"/>
      </defs>
      <g transform="translate(381.4576 111.042442)scale(0.1 -0.1)">
       <use xlink:href="#DejaVuSans-2212"/>
       <use x="83.789062" xlink:href="#DejaVuSans-36"/>
       <use x="147.412109" xlink:href="#DejaVuSans-2e"/>
       <use x="179.199219" xlink:href="#DejaVuSans-35"/>
      </g>
     </g>
    </g>
    <g id="ytick_6">
     <g id="line2d_6">
      <g>
       <use style="stroke:#000000;stroke-width:0.8;" x="374.4576" xlink:href="#m85de541e69" y="63.428"/>
      </g>
     </g>
     <g id="text_7">
      <!-- −6.0 -->
      <g transform="translate(381.4576 67.227218)scale(0.1 -0.1)">
       <use xlink:href="#DejaVuSans-2212"/>
       <use x="83.789062" xlink:href="#DejaVuSans-36"/>
       <use x="147.412109" xlink:href="#DejaVuSans-2e"/>
       <use x="179.199219" xlink:href="#DejaVuSans-30"/>
      </g>
     </g>
    </g>
    <g id="text_8">
     <!-- Energy [eV] -->
     <defs>
      <path d="M 54.890625 33.015625 
L 54.890625 0 
L 45.90625 0 
L 45.90625 32.71875 
Q 45.90625 40.484375 42.875 44.328125 
Q 39.84375 48.1875 33.796875 48.1875 
Q 26.515625 48.1875 22.3125 43.546875 
Q 18.109375 38.921875 18.109375 30.90625 
L 18.109375 0 
L 9.078125 0 
L 9.078125 54.6875 
L 18.109375 54.6875 
L 18.109375 46.1875 
Q 21.34375 51.125 25.703125 53.5625 
Q 30.078125 56 35.796875 56 
Q 45.21875 56 50.046875 50.171875 
Q 54.890625 44.34375 54.890625 33.015625 
z
" id="DejaVuSans-6e"/>
      <path d="M 45.40625 27.984375 
Q 45.40625 37.75 41.375 43.109375 
Q 37.359375 48.484375 30.078125 48.484375 
Q 22.859375 48.484375 18.828125 43.109375 
Q 14.796875 37.75 14.796875 27.984375 
Q 14.796875 18.265625 18.828125 12.890625 
Q 22.859375 7.515625 30.078125 7.515625 
Q 37.359375 7.515625 41.375 12.890625 
Q 45.40625 18.265625 45.40625 27.984375 
z
M 54.390625 6.78125 
Q 54.390625 -7.171875 48.1875 -13.984375 
Q 42 -20.796875 29.203125 -20.796875 
Q 24.46875 -20.796875 20.265625 -20.09375 
Q 16.0625 -19.390625 12.109375 -17.921875 
L 12.109375 -9.1875 
Q 16.0625 -11.328125 19.921875 -12.34375 
Q 23.78125 -13.375 27.78125 -13.375 
Q 36.625 -13.375 41.015625 -8.765625 
Q 45.40625 -4.15625 45.40625 5.171875 
L 45.40625 9.625 
Q 42.625 4.78125 38.28125 2.390625 
Q 33.9375 0 27.875 0 
Q 17.828125 0 11.671875 7.65625 
Q 5.515625 15.328125 5.515625 27.984375 
Q 5.515625 40.671875 11.671875 48.328125 
Q 17.828125 56 27.875 56 
Q 33.9375 56 38.28125 53.609375 
Q 42.625 51.21875 45.40625 46.390625 
L 45.40625 54.6875 
L 54.390625 54.6875 
z
" id="DejaVuSans-67"/>
      <path d="M 32.171875 -5.078125 
Q 28.375 -14.84375 24.75 -17.8125 
Q 21.140625 -20.796875 15.09375 -20.796875 
L 7.90625 -20.796875 
L 7.90625 -13.28125 
L 13.1875 -13.28125 
Q 16.890625 -13.28125 18.9375 -11.515625 
Q 21 -9.765625 23.484375 -3.21875 
L 25.09375 0.875 
L 2.984375 54.6875 
L 12.5 54.6875 
L 29.59375 11.921875 
L 46.6875 54.6875 
L 56.203125 54.6875 
z
" id="DejaVuSans-79"/>
      <path d="M 8.59375 75.984375 
L 29.296875 75.984375 
L 29.296875 69 
L 17.578125 69 
L 17.578125 -6.203125 
L 29.296875 -6.203125 
L 29.296875 -13.1875 
L 8.59375 -13.1875 
z
" id="DejaVuSans-5b"/>
      <path d="M 30.421875 75.984375 
L 30.421875 -13.1875 
L 9.71875 -13.1875 
L 9.71875 -6.203125 
L 21.390625 -6.203125 
L 21.390625 69 
L 9.71875 69 
L 9.71875 75.984375 
z
" id="DejaVuSans-5d"/>
     </defs>
     <g transform="translate(417.33885 204.108469)rotate(-90)scale(0.1 -0.1)">
      <use xlink:href="#DejaVuSans-45"/>
      <use x="63.183594" xlink:href="#DejaVuSans-6e"/>
      <use x="126.5625" xlink:href="#DejaVuSans-65"/>
      <use x="188.085938" xlink:href="#DejaVuSans-72"/>
      <use x="229.183594" xlink:href="#DejaVuSans-67"/>
      <use x="292.660156" xlink:href="#DejaVuSans-79"/>
      <use x="351.839844" xlink:href="#DejaVuSans-20"/>
      <use x="383.626953" xlink:href="#DejaVuSans-5b"/>
      <use x="422.640625" xlink:href="#DejaVuSans-65"/>
      <use x="484.164062" xlink:href="#DejaVuSans-56"/>
      <use x="552.572266" xlink:href="#DejaVuSans-5d"/>
     </g>
    </g>
   </g>
   <g id="patch_3">
    <path d="M 361.152 307.584 
L 361.152 306.5445 
L 361.152 42.5115 
L 361.152 41.472 
L 374.4576 41.472 
L 374.4576 42.5115 
L 374.4576 306.5445 
L 374.4576 307.584 
z
" style="fill:none;stroke:#000000;stroke-linejoin:miter;stroke-width:0.8;"/>
   </g>
  </g>
 </g>
 <defs>
  <clipPath id="p658b23a970">
   <rect height="266.112" width="285.696" x="57.6" y="41.472"/>
  </clipPath>
  <clipPath id="p3656ae8b54">
   <rect height="266.112" width="13.3056" x="361.152" y="41.472"/>
  </clipPath>
 </defs>
</svg>
