<?xml version="1.0" encoding="utf-8" standalone="no"?>
<!DOCTYPE svg PUBLIC "-//W3C//DTD SVG 1.1//EN"
  "http://www.w3.org/Graphics/SVG/1.1/DTD/svg11.dtd">
<!-- Created with matplotlib (http://matplotlib.org/) -->
<svg height="345.6pt" version="1.1" viewBox="0 0 460.8 345.6" width="460.8pt" xmlns="http://www.w3.org/2000/svg" xmlns:xlink="http://www.w3.org/1999/xlink">
 <defs>
  <style type="text/css">
*{stroke-linecap:butt;stroke-linejoin:round;}
  </style>
 </defs>
 <g id="figure_1">
  <g id="patch_1">
   <path d="M 0 345.6 
L 460.8 345.6 
L 460.8 0 
L 0 0 
z
" style="fill:#ffffff;"/>
  </g>
  <g id="axes_1">
   <g id="CircleCollection_1">
    <path clip-path="url(#pe788b4a9a1)" d="M 156.237393 224.402605 
C 158.046416 224.402605 159.781589 223.683872 161.060762 222.4047 
C 162.339934 221.125527 163.058667 219.390354 163.058667 217.581331 
C 163.058667 215.772308 162.339934 214.037134 161.060762 212.757962 
C 159.781589 211.478789 158.046416 210.760057 156.237393 210.760057 
C 154.42837 210.760057 152.693196 211.478789 151.414024 212.757962 
C 150.134851 214.037134 149.416119 215.772308 149.416119 217.581331 
C 149.416119 219.390354 150.134851 221.125527 151.414024 222.4047 
C 152.693196 223.683872 154.42837 224.402605 156.237393 224.402605 
z
" style="fill:#443983;"/>
    <path clip-path="url(#pe788b4a9a1)" d="M 315.460534 119.169837 
C 317.147078 119.169837 318.764772 118.499766 319.957338 117.307199 
C 321.149905 116.114633 321.819976 114.496939 321.819976 112.810395 
C 321.819976 111.123852 321.149905 109.506157 319.957338 108.313591 
C 318.764772 107.121024 317.147078 106.450954 315.460534 106.450954 
C 313.773991 106.450954 312.156296 107.121024 310.96373 108.313591 
C 309.771163 109.506157 309.101093 111.123852 309.101093 112.810395 
C 309.101093 114.496939 309.771163 116.114633 310.96373 117.307199 
C 312.156296 118.499766 313.773991 119.169837 315.460534 119.169837 
z
" style="fill:#2e6e8e;"/>
    <path clip-path="url(#pe788b4a9a1)" d="M 208.351422 287.046144 
C 210.137463 287.046144 211.850592 286.336543 213.113513 285.073622 
C 214.376434 283.810701 215.086036 282.097571 215.086036 280.311531 
C 215.086036 278.525491 214.376434 276.812361 213.113513 275.54944 
C 211.850592 274.286519 210.137463 273.576918 208.351422 273.576918 
C 206.565382 273.576918 204.852253 274.286519 203.589332 275.54944 
C 202.32641 276.812361 201.616809 278.525491 201.616809 280.311531 
C 201.616809 282.097571 202.32641 283.810701 203.589332 285.073622 
C 204.852253 286.336543 206.565382 287.046144 208.351422 287.046144 
z
" style="fill:#481769;"/>
    <path clip-path="url(#pe788b4a9a1)" d="M 71.133019 208.950296 
C 72.939354 208.950296 74.671948 208.232632 75.949219 206.955361 
C 77.226491 205.67809 77.944155 203.945495 77.944155 202.139161 
C 77.944155 200.332827 77.226491 198.600232 75.949219 197.322961 
C 74.671948 196.045689 72.939354 195.328025 71.133019 195.328025 
C 69.326685 195.328025 67.59409 196.045689 66.316819 197.322961 
C 65.039548 198.600232 64.321884 200.332827 64.321884 202.139161 
C 64.321884 203.945495 65.039548 205.67809 66.316819 206.955361 
C 67.59409 208.232632 69.326685 208.950296 71.133019 208.950296 
z
" style="fill:#bddf26;"/>
    <path clip-path="url(#pe788b4a9a1)" d="M 206.13362 243.505152 
C 207.925771 243.505152 209.644762 242.793122 210.912004 241.52588 
C 212.179247 240.258637 212.891276 238.539646 212.891276 236.747495 
C 212.891276 234.955344 212.179247 233.236353 210.912004 231.96911 
C 209.644762 230.701868 207.925771 229.989838 206.13362 229.989838 
C 204.341468 229.989838 202.622477 230.701868 201.355235 231.96911 
C 200.087992 233.236353 199.375963 234.955344 199.375963 236.747495 
C 199.375963 238.539646 200.087992 240.258637 201.355235 241.52588 
C 202.622477 242.793122 204.341468 243.505152 206.13362 243.505152 
z
" style="fill:#471164;"/>
    <path clip-path="url(#pe788b4a9a1)" d="M 326.255621 157.935688 
C 327.949209 157.935688 329.57366 157.262818 330.771208 156.065271 
C 331.968755 154.867723 332.641625 153.243272 332.641625 151.549684 
C 332.641625 149.856095 331.968755 148.231644 330.771208 147.034096 
C 329.57366 145.836549 327.949209 145.163679 326.255621 145.163679 
C 324.562033 145.163679 322.937581 145.836549 321.740034 147.034096 
C 320.542486 148.231644 319.869616 149.856095 319.869616 151.549684 
C 319.869616 153.243272 320.542486 154.867723 321.740034 156.065271 
C 322.937581 157.262818 324.562033 157.935688 326.255621 157.935688 
z
" style="fill:#30698e;"/>
    <path clip-path="url(#pe788b4a9a1)" d="M 104.551713 238.707804 
C 106.308308 238.707804 107.993194 238.009902 109.235294 236.767801 
C 110.477395 235.525701 111.175297 233.840815 111.175297 232.08422 
C 111.175297 230.327625 110.477395 228.642739 109.235294 227.400638 
C 107.993194 226.158538 106.308308 225.460635 104.551713 225.460635 
C 102.795118 225.460635 101.110232 226.158538 99.868131 227.400638 
C 98.626031 228.642739 97.928128 230.327625 97.928128 232.08422 
C 97.928128 233.840815 98.626031 235.525701 99.868131 236.767801 
C 101.110232 238.009902 102.795118 238.707804 104.551713 238.707804 
z
" style="fill:#1f9a8a;"/>
    <path clip-path="url(#pe788b4a9a1)" d="M 296.382236 269.565406 
C 298.119814 269.565406 299.786459 268.875059 301.015112 267.646406 
C 302.243765 266.417753 302.934112 264.751108 302.934112 263.013531 
C 302.934112 261.275953 302.243765 259.609308 301.015112 258.380655 
C 299.786459 257.152002 298.119814 256.461655 296.382236 256.461655 
C 294.644658 256.461655 292.978013 257.152002 291.74936 258.380655 
C 290.520707 259.609308 289.83036 261.275953 289.83036 263.013531 
C 289.83036 264.751108 290.520707 266.417753 291.74936 267.646406 
C 292.978013 268.875059 294.644658 269.565406 296.382236 269.565406 
z
" style="fill:#2db27d;"/>
    <path clip-path="url(#pe788b4a9a1)" d="M 114.594296 276.759373 
C 116.404317 276.759373 118.140448 276.040244 119.420326 274.760366 
C 120.700204 273.480488 121.419333 271.744357 121.419333 269.934335 
C 121.419333 268.124314 120.700204 266.388183 119.420326 265.108305 
C 118.140448 263.828427 116.404317 263.109297 114.594296 263.109297 
C 112.784274 263.109297 111.048143 263.828427 109.768265 265.108305 
C 108.488387 266.388183 107.769258 268.124314 107.769258 269.934335 
C 107.769258 271.744357 108.488387 273.480488 109.768265 274.760366 
C 111.048143 276.040244 112.784274 276.759373 114.594296 276.759373 
z
" style="fill:#1f9f88;"/>
    <path clip-path="url(#pe788b4a9a1)" d="M 197.800565 60.611564 
C 199.527481 60.611564 201.183899 59.925453 202.405013 58.70434 
C 203.626126 57.483226 204.312237 55.826808 204.312237 54.099892 
C 204.312237 52.372977 203.626126 50.716559 202.405013 49.495445 
C 201.183899 48.274331 199.527481 47.58822 197.800565 47.58822 
C 196.07365 47.58822 194.417231 48.274331 193.196118 49.495445 
C 191.975004 50.716559 191.288893 52.372977 191.288893 54.099892 
C 191.288893 55.826808 191.975004 57.483226 193.196118 58.70434 
C 194.417231 59.925453 196.07365 60.611564 197.800565 60.611564 
z
" style="fill:#2a778e;"/>
    <path clip-path="url(#pe788b4a9a1)" d="M 247.823343 60.709575 
C 249.525974 60.709575 251.159098 60.033112 252.36304 58.829171 
C 253.566982 57.625229 254.243444 55.992104 254.243444 54.289474 
C 254.243444 52.586843 253.566982 50.953719 252.36304 49.749777 
C 251.159098 48.545835 249.525974 47.869373 247.823343 47.869373 
C 246.120712 47.869373 244.487588 48.545835 243.283646 49.749777 
C 242.079704 50.953719 241.403242 52.586843 241.403242 54.289474 
C 241.403242 55.992104 242.079704 57.625229 243.283646 58.829171 
C 244.487588 60.033112 246.120712 60.709575 247.823343 60.709575 
z
" style="fill:#2d718e;"/>
    <path clip-path="url(#pe788b4a9a1)" d="M 160.20972 180.824316 
C 162.003393 180.824316 163.723843 180.111682 164.992161 178.843363 
C 166.26048 177.575045 166.973114 175.854595 166.973114 174.060922 
C 166.973114 172.267248 166.26048 170.546798 164.992161 169.27848 
C 163.723843 168.010161 162.003393 167.297527 160.20972 167.297527 
C 158.416046 167.297527 156.695596 168.010161 155.427278 169.27848 
C 154.158959 170.546798 153.446325 172.267248 153.446325 174.060922 
C 153.446325 175.854595 154.158959 177.575045 155.427278 178.843363 
C 156.695596 180.111682 158.416046 180.824316 160.20972 180.824316 
z
" style="fill:#3f4788;"/>
    <path clip-path="url(#pe788b4a9a1)" d="M 103.043183 169.854077 
C 104.840786 169.854077 106.565006 169.139882 107.836103 167.868785 
C 109.107201 166.597687 109.821396 164.873467 109.821396 163.075864 
C 109.821396 161.278261 109.107201 159.554042 107.836103 158.282944 
C 106.565006 157.011847 104.840786 156.297652 103.043183 156.297652 
C 101.24558 156.297652 99.52136 157.011847 98.250263 158.282944 
C 96.979166 159.554042 96.26497 161.278261 96.26497 163.075864 
C 96.26497 164.873467 96.979166 166.597687 98.250263 167.868785 
C 99.52136 169.139882 101.24558 169.854077 103.043183 169.854077 
z
" style="fill:#424086;"/>
    <path clip-path="url(#pe788b4a9a1)" d="M 213.039141 174.558806 
C 214.811819 174.558806 216.512131 173.854514 217.765604 172.601042 
C 219.019076 171.347569 219.723368 169.647257 219.723368 167.874579 
C 219.723368 166.101902 219.019076 164.40159 217.765604 163.148117 
C 216.512131 161.894645 214.811819 161.190352 213.039141 161.190352 
C 211.266464 161.190352 209.566151 161.894645 208.312679 163.148117 
C 207.059206 164.40159 206.354914 166.101902 206.354914 167.874579 
C 206.354914 169.647257 207.059206 171.347569 208.312679 172.601042 
C 209.566151 173.854514 211.266464 174.558806 213.039141 174.558806 
z
" style="fill:#fde725;"/>
    <path clip-path="url(#pe788b4a9a1)" d="M 89.199043 129.597384 
C 90.987778 129.597384 92.703492 128.886712 93.968319 127.621886 
C 95.233146 126.357059 95.943818 124.641345 95.943818 122.85261 
C 95.943818 121.063875 95.233146 119.348161 93.968319 118.083334 
C 92.703492 116.818507 90.987778 116.107835 89.199043 116.107835 
C 87.410308 116.107835 85.694594 116.818507 84.429767 118.083334 
C 83.164941 119.348161 82.454269 121.063875 82.454269 122.85261 
C 82.454269 124.641345 83.164941 126.357059 84.429767 127.621886 
C 85.694594 128.886712 87.410308 129.597384 89.199043 129.597384 
z
" style="fill:#1f998a;"/>
    <path clip-path="url(#pe788b4a9a1)" d="M 329.794133 196.539499 
C 331.497564 196.539499 333.131456 195.862719 334.335964 194.658211 
C 335.540471 193.453704 336.217252 191.819812 336.217252 190.116381 
C 336.217252 188.41295 335.540471 186.779058 334.335964 185.57455 
C 333.131456 184.370042 331.497564 183.693262 329.794133 183.693262 
C 328.090702 183.693262 326.45681 184.370042 325.252302 185.57455 
C 324.047795 186.779058 323.371014 188.41295 323.371014 190.116381 
C 323.371014 191.819812 324.047795 193.453704 325.252302 194.658211 
C 326.45681 195.862719 328.090702 196.539499 329.794133 196.539499 
z
" style="fill:#1fa088;"/>
    <path clip-path="url(#pe788b4a9a1)" d="M 285.889374 87.242495 
C 287.580986 87.242495 289.203542 86.57041 290.399692 85.37426 
C 291.595843 84.178109 292.267927 82.555553 292.267927 80.863941 
C 292.267927 79.172329 291.595843 77.549773 290.399692 76.353623 
C 289.203542 75.157473 287.580986 74.485388 285.889374 74.485388 
C 284.197762 74.485388 282.575206 75.157473 281.379056 76.353623 
C 280.182905 77.549773 279.510821 79.172329 279.510821 80.863941 
C 279.510821 82.555553 280.182905 84.178109 281.379056 85.37426 
C 282.575206 86.57041 284.197762 87.242495 285.889374 87.242495 
z
" style="fill:#2c728e;"/>
    <path clip-path="url(#pe788b4a9a1)" d="M 107.283053 238.042743 
C 109.141739 238.042743 110.924549 237.304279 112.238839 235.98999 
C 113.553128 234.6757 114.291592 232.89289 114.291592 231.034204 
C 114.291592 229.175518 113.553128 227.392708 112.238839 226.078418 
C 110.924549 224.764129 109.141739 224.025665 107.283053 224.025665 
C 105.424367 224.025665 103.641557 224.764129 102.327267 226.078418 
C 101.012978 227.392708 100.274514 229.175518 100.274514 231.034204 
C 100.274514 232.89289 101.012978 234.6757 102.327267 235.98999 
C 103.641557 237.304279 105.424367 238.042743 107.283053 238.042743 
z
" style="fill:#1f958b;"/>
    <path clip-path="url(#pe788b4a9a1)" d="M 261.912103 295.605264 
C 263.671032 295.605264 265.358157 294.906434 266.601908 293.662683 
C 267.845658 292.418932 268.544488 290.731808 268.544488 288.972879 
C 268.544488 287.21395 267.845658 285.526825 266.601908 284.283074 
C 265.358157 283.039323 263.671032 282.340494 261.912103 282.340494 
C 260.153174 282.340494 258.46605 283.039323 257.222299 284.283074 
C 255.978548 285.526825 255.279718 287.21395 255.279718 288.972879 
C 255.279718 290.731808 255.978548 292.418932 257.222299 293.662683 
C 258.46605 294.906434 260.153174 295.605264 261.912103 295.605264 
z
" style="fill:#22a785;"/>
    <path clip-path="url(#pe788b4a9a1)" d="M 114.690494 96.793484 
C 116.461803 96.793484 118.160803 96.089735 119.413307 94.83723 
C 120.665812 93.584726 121.369561 91.885726 121.369561 90.114417 
C 121.369561 88.343108 120.665812 86.644108 119.413307 85.391604 
C 118.160803 84.139099 116.461803 83.43535 114.690494 83.43535 
C 112.919185 83.43535 111.220186 84.139099 109.967681 85.391604 
C 108.715176 86.644108 108.011427 88.343108 108.011427 90.114417 
C 108.011427 91.885726 108.715176 93.584726 109.967681 94.83723 
C 111.220186 96.089735 112.919185 96.793484 114.690494 96.793484 
z
" style="fill:#2e6e8e;"/>
    <path clip-path="url(#pe788b4a9a1)" d="M 156.894678 301.732616 
C 158.698076 301.732616 160.427855 301.016118 161.70305 299.740923 
C 162.978245 298.465728 163.694743 296.735949 163.694743 294.932551 
C 163.694743 293.129152 162.978245 291.399374 161.70305 290.124179 
C 160.427855 288.848983 158.698076 288.132486 156.894678 288.132486 
C 155.09128 288.132486 153.361501 288.848983 152.086306 290.124179 
C 150.811111 291.399374 150.094613 293.129152 150.094613 294.932551 
C 150.094613 296.735949 150.811111 298.465728 152.086306 299.740923 
C 153.361501 301.016118 155.09128 301.732616 156.894678 301.732616 
z
" style="fill:#7ad151;"/>
    <path clip-path="url(#pe788b4a9a1)" d="M 149.298808 68.584188 
C 151.049085 68.584188 152.727912 67.888796 153.965545 66.651163 
C 155.203178 65.41353 155.89857 63.734703 155.89857 61.984426 
C 155.89857 60.234148 155.203178 58.555322 153.965545 57.317689 
C 152.727912 56.080056 151.049085 55.384663 149.298808 55.384663 
C 147.54853 55.384663 145.869704 56.080056 144.632071 57.317689 
C 143.394437 58.555322 142.699045 60.234148 142.699045 61.984426 
C 142.699045 63.734703 143.394437 65.41353 144.632071 66.651163 
C 145.869704 67.888796 147.54853 68.584188 149.298808 68.584188 
z
" style="fill:#2d708e;"/>
    <path clip-path="url(#pe788b4a9a1)" d="M 242.386289 212.684223 
C 244.154162 212.684223 245.849865 211.98184 247.09994 210.731765 
C 248.350015 209.48169 249.052398 207.785987 249.052398 206.018114 
C 249.052398 204.250242 248.350015 202.554538 247.09994 201.304464 
C 245.849865 200.054389 244.154162 199.352006 242.386289 199.352006 
C 240.618416 199.352006 238.922713 200.054389 237.672638 201.304464 
C 236.422563 202.554538 235.72018 204.250242 235.72018 206.018114 
C 235.72018 207.785987 236.422563 209.48169 237.672638 210.731765 
C 238.922713 211.98184 240.618416 212.684223 242.386289 212.684223 
z
" style="fill:#423f85;"/>
    <path clip-path="url(#pe788b4a9a1)" d="M 295.101111 226.033594 
C 296.835484 226.033594 298.499056 225.34452 299.725444 224.118133 
C 300.951831 222.891745 301.640905 221.228174 301.640905 219.4938 
C 301.640905 217.759426 300.951831 216.095854 299.725444 214.869467 
C 298.499056 213.643079 296.835484 212.954005 295.101111 212.954005 
C 293.366737 212.954005 291.703165 213.643079 290.476777 214.869467 
C 289.25039 216.095854 288.561316 217.759426 288.561316 219.4938 
C 288.561316 221.228174 289.25039 222.891745 290.476777 224.118133 
C 291.703165 225.34452 293.366737 226.033594 295.101111 226.033594 
z
" style="fill:#440154;"/>
   </g>
   <g id="text_1">
    <!-- Structure #3580, $E_N$=-180.13eV, ΔE=0.12eV -->
    <defs>
     <path d="M 53.515625 70.515625 
L 53.515625 60.890625 
Q 47.90625 63.578125 42.921875 64.890625 
Q 37.9375 66.21875 33.296875 66.21875 
Q 25.25 66.21875 20.875 63.09375 
Q 16.5 59.96875 16.5 54.203125 
Q 16.5 49.359375 19.40625 46.890625 
Q 22.3125 44.4375 30.421875 42.921875 
L 36.375 41.703125 
Q 47.40625 39.59375 52.65625 34.296875 
Q 57.90625 29 57.90625 20.125 
Q 57.90625 9.515625 50.796875 4.046875 
Q 43.703125 -1.421875 29.984375 -1.421875 
Q 24.8125 -1.421875 18.96875 -0.25 
Q 13.140625 0.921875 6.890625 3.21875 
L 6.890625 13.375 
Q 12.890625 10.015625 18.65625 8.296875 
Q 24.421875 6.59375 29.984375 6.59375 
Q 38.421875 6.59375 43.015625 9.90625 
Q 47.609375 13.234375 47.609375 19.390625 
Q 47.609375 24.75 44.3125 27.78125 
Q 41.015625 30.8125 33.5 32.328125 
L 27.484375 33.5 
Q 16.453125 35.6875 11.515625 40.375 
Q 6.59375 45.0625 6.59375 53.421875 
Q 6.59375 63.09375 13.40625 68.65625 
Q 20.21875 74.21875 32.171875 74.21875 
Q 37.3125 74.21875 42.625 73.28125 
Q 47.953125 72.359375 53.515625 70.515625 
z
" id="DejaVuSans-53"/>
     <path d="M 18.3125 70.21875 
L 18.3125 54.6875 
L 36.8125 54.6875 
L 36.8125 47.703125 
L 18.3125 47.703125 
L 18.3125 18.015625 
Q 18.3125 11.328125 20.140625 9.421875 
Q 21.96875 7.515625 27.59375 7.515625 
L 36.8125 7.515625 
L 36.8125 0 
L 27.59375 0 
Q 17.1875 0 13.234375 3.875 
Q 9.28125 7.765625 9.28125 18.015625 
L 9.28125 47.703125 
L 2.6875 47.703125 
L 2.6875 54.6875 
L 9.28125 54.6875 
L 9.28125 70.21875 
z
" id="DejaVuSans-74"/>
     <path d="M 41.109375 46.296875 
Q 39.59375 47.171875 37.8125 47.578125 
Q 36.03125 48 33.890625 48 
Q 26.265625 48 22.1875 43.046875 
Q 18.109375 38.09375 18.109375 28.8125 
L 18.109375 0 
L 9.078125 0 
L 9.078125 54.6875 
L 18.109375 54.6875 
L 18.109375 46.1875 
Q 20.953125 51.171875 25.484375 53.578125 
Q 30.03125 56 36.53125 56 
Q 37.453125 56 38.578125 55.875 
Q 39.703125 55.765625 41.0625 55.515625 
z
" id="DejaVuSans-72"/>
     <path d="M 8.5 21.578125 
L 8.5 54.6875 
L 17.484375 54.6875 
L 17.484375 21.921875 
Q 17.484375 14.15625 20.5 10.265625 
Q 23.53125 6.390625 29.59375 6.390625 
Q 36.859375 6.390625 41.078125 11.03125 
Q 45.3125 15.671875 45.3125 23.6875 
L 45.3125 54.6875 
L 54.296875 54.6875 
L 54.296875 0 
L 45.3125 0 
L 45.3125 8.40625 
Q 42.046875 3.421875 37.71875 1 
Q 33.40625 -1.421875 27.6875 -1.421875 
Q 18.265625 -1.421875 13.375 4.4375 
Q 8.5 10.296875 8.5 21.578125 
z
M 31.109375 56 
z
" id="DejaVuSans-75"/>
     <path d="M 48.78125 52.59375 
L 48.78125 44.1875 
Q 44.96875 46.296875 41.140625 47.34375 
Q 37.3125 48.390625 33.40625 48.390625 
Q 24.65625 48.390625 19.8125 42.84375 
Q 14.984375 37.3125 14.984375 27.296875 
Q 14.984375 17.28125 19.8125 11.734375 
Q 24.65625 6.203125 33.40625 6.203125 
Q 37.3125 6.203125 41.140625 7.25 
Q 44.96875 8.296875 48.78125 10.40625 
L 48.78125 2.09375 
Q 45.015625 0.34375 40.984375 -0.53125 
Q 36.96875 -1.421875 32.421875 -1.421875 
Q 20.0625 -1.421875 12.78125 6.34375 
Q 5.515625 14.109375 5.515625 27.296875 
Q 5.515625 40.671875 12.859375 48.328125 
Q 20.21875 56 33.015625 56 
Q 37.15625 56 41.109375 55.140625 
Q 45.0625 54.296875 48.78125 52.59375 
z
" id="DejaVuSans-63"/>
     <path d="M 56.203125 29.59375 
L 56.203125 25.203125 
L 14.890625 25.203125 
Q 15.484375 15.921875 20.484375 11.0625 
Q 25.484375 6.203125 34.421875 6.203125 
Q 39.59375 6.203125 44.453125 7.46875 
Q 49.3125 8.734375 54.109375 11.28125 
L 54.109375 2.78125 
Q 49.265625 0.734375 44.1875 -0.34375 
Q 39.109375 -1.421875 33.890625 -1.421875 
Q 20.796875 -1.421875 13.15625 6.1875 
Q 5.515625 13.8125 5.515625 26.8125 
Q 5.515625 40.234375 12.765625 48.109375 
Q 20.015625 56 32.328125 56 
Q 43.359375 56 49.78125 48.890625 
Q 56.203125 41.796875 56.203125 29.59375 
z
M 47.21875 32.234375 
Q 47.125 39.59375 43.09375 43.984375 
Q 39.0625 48.390625 32.421875 48.390625 
Q 24.90625 48.390625 20.390625 44.140625 
Q 15.875 39.890625 15.1875 32.171875 
z
" id="DejaVuSans-65"/>
     <path id="DejaVuSans-20"/>
     <path d="M 51.125 44 
L 36.921875 44 
L 32.8125 27.6875 
L 47.125 27.6875 
z
M 43.796875 71.78125 
L 38.71875 51.515625 
L 52.984375 51.515625 
L 58.109375 71.78125 
L 65.921875 71.78125 
L 60.890625 51.515625 
L 76.125 51.515625 
L 76.125 44 
L 58.984375 44 
L 54.984375 27.6875 
L 70.515625 27.6875 
L 70.515625 20.21875 
L 53.078125 20.21875 
L 48 0 
L 40.1875 0 
L 45.21875 20.21875 
L 30.90625 20.21875 
L 25.875 0 
L 18.015625 0 
L 23.09375 20.21875 
L 7.71875 20.21875 
L 7.71875 27.6875 
L 24.90625 27.6875 
L 29 44 
L 13.28125 44 
L 13.28125 51.515625 
L 30.90625 51.515625 
L 35.890625 71.78125 
z
" id="DejaVuSans-23"/>
     <path d="M 40.578125 39.3125 
Q 47.65625 37.796875 51.625 33 
Q 55.609375 28.21875 55.609375 21.1875 
Q 55.609375 10.40625 48.1875 4.484375 
Q 40.765625 -1.421875 27.09375 -1.421875 
Q 22.515625 -1.421875 17.65625 -0.515625 
Q 12.796875 0.390625 7.625 2.203125 
L 7.625 11.71875 
Q 11.71875 9.328125 16.59375 8.109375 
Q 21.484375 6.890625 26.8125 6.890625 
Q 36.078125 6.890625 40.9375 10.546875 
Q 45.796875 14.203125 45.796875 21.1875 
Q 45.796875 27.640625 41.28125 31.265625 
Q 36.765625 34.90625 28.71875 34.90625 
L 20.21875 34.90625 
L 20.21875 43.015625 
L 29.109375 43.015625 
Q 36.375 43.015625 40.234375 45.921875 
Q 44.09375 48.828125 44.09375 54.296875 
Q 44.09375 59.90625 40.109375 62.90625 
Q 36.140625 65.921875 28.71875 65.921875 
Q 24.65625 65.921875 20.015625 65.03125 
Q 15.375 64.15625 9.8125 62.3125 
L 9.8125 71.09375 
Q 15.4375 72.65625 20.34375 73.4375 
Q 25.25 74.21875 29.59375 74.21875 
Q 40.828125 74.21875 47.359375 69.109375 
Q 53.90625 64.015625 53.90625 55.328125 
Q 53.90625 49.265625 50.4375 45.09375 
Q 46.96875 40.921875 40.578125 39.3125 
z
" id="DejaVuSans-33"/>
     <path d="M 10.796875 72.90625 
L 49.515625 72.90625 
L 49.515625 64.59375 
L 19.828125 64.59375 
L 19.828125 46.734375 
Q 21.96875 47.46875 24.109375 47.828125 
Q 26.265625 48.1875 28.421875 48.1875 
Q 40.625 48.1875 47.75 41.5 
Q 54.890625 34.8125 54.890625 23.390625 
Q 54.890625 11.625 47.5625 5.09375 
Q 40.234375 -1.421875 26.90625 -1.421875 
Q 22.3125 -1.421875 17.546875 -0.640625 
Q 12.796875 0.140625 7.71875 1.703125 
L 7.71875 11.625 
Q 12.109375 9.234375 16.796875 8.0625 
Q 21.484375 6.890625 26.703125 6.890625 
Q 35.15625 6.890625 40.078125 11.328125 
Q 45.015625 15.765625 45.015625 23.390625 
Q 45.015625 31 40.078125 35.4375 
Q 35.15625 39.890625 26.703125 39.890625 
Q 22.75 39.890625 18.8125 39.015625 
Q 14.890625 38.140625 10.796875 36.28125 
z
" id="DejaVuSans-35"/>
     <path d="M 31.78125 34.625 
Q 24.75 34.625 20.71875 30.859375 
Q 16.703125 27.09375 16.703125 20.515625 
Q 16.703125 13.921875 20.71875 10.15625 
Q 24.75 6.390625 31.78125 6.390625 
Q 38.8125 6.390625 42.859375 10.171875 
Q 46.921875 13.96875 46.921875 20.515625 
Q 46.921875 27.09375 42.890625 30.859375 
Q 38.875 34.625 31.78125 34.625 
z
M 21.921875 38.8125 
Q 15.578125 40.375 12.03125 44.71875 
Q 8.5 49.078125 8.5 55.328125 
Q 8.5 64.0625 14.71875 69.140625 
Q 20.953125 74.21875 31.78125 74.21875 
Q 42.671875 74.21875 48.875 69.140625 
Q 55.078125 64.0625 55.078125 55.328125 
Q 55.078125 49.078125 51.53125 44.71875 
Q 48 40.375 41.703125 38.8125 
Q 48.828125 37.15625 52.796875 32.3125 
Q 56.78125 27.484375 56.78125 20.515625 
Q 56.78125 9.90625 50.3125 4.234375 
Q 43.84375 -1.421875 31.78125 -1.421875 
Q 19.734375 -1.421875 13.25 4.234375 
Q 6.78125 9.90625 6.78125 20.515625 
Q 6.78125 27.484375 10.78125 32.3125 
Q 14.796875 37.15625 21.921875 38.8125 
z
M 18.3125 54.390625 
Q 18.3125 48.734375 21.84375 45.5625 
Q 25.390625 42.390625 31.78125 42.390625 
Q 38.140625 42.390625 41.71875 45.5625 
Q 45.3125 48.734375 45.3125 54.390625 
Q 45.3125 60.0625 41.71875 63.234375 
Q 38.140625 66.40625 31.78125 66.40625 
Q 25.390625 66.40625 21.84375 63.234375 
Q 18.3125 60.0625 18.3125 54.390625 
z
" id="DejaVuSans-38"/>
     <path d="M 31.78125 66.40625 
Q 24.171875 66.40625 20.328125 58.90625 
Q 16.5 51.421875 16.5 36.375 
Q 16.5 21.390625 20.328125 13.890625 
Q 24.171875 6.390625 31.78125 6.390625 
Q 39.453125 6.390625 43.28125 13.890625 
Q 47.125 21.390625 47.125 36.375 
Q 47.125 51.421875 43.28125 58.90625 
Q 39.453125 66.40625 31.78125 66.40625 
z
M 31.78125 74.21875 
Q 44.046875 74.21875 50.515625 64.515625 
Q 56.984375 54.828125 56.984375 36.375 
Q 56.984375 17.96875 50.515625 8.265625 
Q 44.046875 -1.421875 31.78125 -1.421875 
Q 19.53125 -1.421875 13.0625 8.265625 
Q 6.59375 17.96875 6.59375 36.375 
Q 6.59375 54.828125 13.0625 64.515625 
Q 19.53125 74.21875 31.78125 74.21875 
z
" id="DejaVuSans-30"/>
     <path d="M 11.71875 12.40625 
L 22.015625 12.40625 
L 22.015625 4 
L 14.015625 -11.625 
L 7.71875 -11.625 
L 11.71875 4 
z
" id="DejaVuSans-2c"/>
     <path d="M 16.890625 72.90625 
L 62.984375 72.90625 
L 61.375 64.59375 
L 25.09375 64.59375 
L 20.90625 43.015625 
L 55.71875 43.015625 
L 54.109375 34.71875 
L 19.28125 34.71875 
L 14.203125 8.296875 
L 51.3125 8.296875 
L 49.703125 0 
L 2.6875 0 
z
" id="DejaVuSans-Oblique-45"/>
     <path d="M 16.890625 72.90625 
L 30.171875 72.90625 
L 50.296875 10.40625 
L 62.5 72.90625 
L 72.125 72.90625 
L 57.90625 0 
L 44.578125 0 
L 24.515625 62.890625 
L 12.3125 0 
L 2.6875 0 
z
" id="DejaVuSans-Oblique-4e"/>
     <path d="M 10.59375 45.40625 
L 73.1875 45.40625 
L 73.1875 37.203125 
L 10.59375 37.203125 
z
M 10.59375 25.484375 
L 73.1875 25.484375 
L 73.1875 17.1875 
L 10.59375 17.1875 
z
" id="DejaVuSans-3d"/>
     <path d="M 4.890625 31.390625 
L 31.203125 31.390625 
L 31.203125 23.390625 
L 4.890625 23.390625 
z
" id="DejaVuSans-2d"/>
     <path d="M 12.40625 8.296875 
L 28.515625 8.296875 
L 28.515625 63.921875 
L 10.984375 60.40625 
L 10.984375 69.390625 
L 28.421875 72.90625 
L 38.28125 72.90625 
L 38.28125 8.296875 
L 54.390625 8.296875 
L 54.390625 0 
L 12.40625 0 
z
" id="DejaVuSans-31"/>
     <path d="M 10.6875 12.40625 
L 21 12.40625 
L 21 0 
L 10.6875 0 
z
" id="DejaVuSans-2e"/>
     <path d="M 28.609375 0 
L 0.78125 72.90625 
L 11.078125 72.90625 
L 34.1875 11.53125 
L 57.328125 72.90625 
L 67.578125 72.90625 
L 39.796875 0 
z
" id="DejaVuSans-56"/>
     <path d="M 34.1875 63.1875 
L 14.15625 8.203125 
L 54.25 8.203125 
z
M 0.78125 0 
L 28.609375 72.90625 
L 39.796875 72.90625 
L 67.578125 0 
z
" id="DejaVuSans-394"/>
     <path d="M 9.8125 72.90625 
L 55.90625 72.90625 
L 55.90625 64.59375 
L 19.671875 64.59375 
L 19.671875 43.015625 
L 54.390625 43.015625 
L 54.390625 34.71875 
L 19.671875 34.71875 
L 19.671875 8.296875 
L 56.78125 8.296875 
L 56.78125 0 
L 9.8125 0 
z
" id="DejaVuSans-45"/>
     <path d="M 19.1875 8.296875 
L 53.609375 8.296875 
L 53.609375 0 
L 7.328125 0 
L 7.328125 8.296875 
Q 12.9375 14.109375 22.625 23.890625 
Q 32.328125 33.6875 34.8125 36.53125 
Q 39.546875 41.84375 41.421875 45.53125 
Q 43.3125 49.21875 43.3125 52.78125 
Q 43.3125 58.59375 39.234375 62.25 
Q 35.15625 65.921875 28.609375 65.921875 
Q 23.96875 65.921875 18.8125 64.3125 
Q 13.671875 62.703125 7.8125 59.421875 
L 7.8125 69.390625 
Q 13.765625 71.78125 18.9375 73 
Q 24.125 74.21875 28.421875 74.21875 
Q 39.75 74.21875 46.484375 68.546875 
Q 53.21875 62.890625 53.21875 53.421875 
Q 53.21875 48.921875 51.53125 44.890625 
Q 49.859375 40.875 45.40625 35.40625 
Q 44.1875 33.984375 37.640625 27.21875 
Q 31.109375 20.453125 19.1875 8.296875 
z
" id="DejaVuSans-32"/>
    </defs>
    <g transform="translate(65.388 35.472)scale(0.12 -0.12)">
     <use transform="translate(0 0.78125)" xlink:href="#DejaVuSans-53"/>
     <use transform="translate(63.476562 0.78125)" xlink:href="#DejaVuSans-74"/>
     <use transform="translate(102.685547 0.78125)" xlink:href="#DejaVuSans-72"/>
     <use transform="translate(143.798828 0.78125)" xlink:href="#DejaVuSans-75"/>
     <use transform="translate(207.177734 0.78125)" xlink:href="#DejaVuSans-63"/>
     <use transform="translate(262.158203 0.78125)" xlink:href="#DejaVuSans-74"/>
     <use transform="translate(301.367188 0.78125)" xlink:href="#DejaVuSans-75"/>
     <use transform="translate(364.746094 0.78125)" xlink:href="#DejaVuSans-72"/>
     <use transform="translate(405.859375 0.78125)" xlink:href="#DejaVuSans-65"/>
     <use transform="translate(467.382812 0.78125)" xlink:href="#DejaVuSans-20"/>
     <use transform="translate(499.169922 0.78125)" xlink:href="#DejaVuSans-23"/>
     <use transform="translate(582.958984 0.78125)" xlink:href="#DejaVuSans-33"/>
     <use transform="translate(646.582031 0.78125)" xlink:href="#DejaVuSans-35"/>
     <use transform="translate(710.205078 0.78125)" xlink:href="#DejaVuSans-38"/>
     <use transform="translate(773.828125 0.78125)" xlink:href="#DejaVuSans-30"/>
     <use transform="translate(837.451172 0.78125)" xlink:href="#DejaVuSans-2c"/>
     <use transform="translate(869.238281 0.78125)" xlink:href="#DejaVuSans-20"/>
     <use transform="translate(901.025391 0.78125)" xlink:href="#DejaVuSans-Oblique-45"/>
     <use transform="translate(964.208984 -15.625)scale(0.7)" xlink:href="#DejaVuSans-Oblique-4e"/>
     <use transform="translate(1019.306641 0.78125)" xlink:href="#DejaVuSans-3d"/>
     <use transform="translate(1103.095703 0.78125)" xlink:href="#DejaVuSans-2d"/>
     <use transform="translate(1139.179688 0.78125)" xlink:href="#DejaVuSans-31"/>
     <use transform="translate(1202.802734 0.78125)" xlink:href="#DejaVuSans-38"/>
     <use transform="translate(1266.425781 0.78125)" xlink:href="#DejaVuSans-30"/>
     <use transform="translate(1330.048828 0.78125)" xlink:href="#DejaVuSans-2e"/>
     <use transform="translate(1361.835938 0.78125)" xlink:href="#DejaVuSans-31"/>
     <use transform="translate(1425.458984 0.78125)" xlink:href="#DejaVuSans-33"/>
     <use transform="translate(1489.082031 0.78125)" xlink:href="#DejaVuSans-65"/>
     <use transform="translate(1550.605469 0.78125)" xlink:href="#DejaVuSans-56"/>
     <use transform="translate(1619.013672 0.78125)" xlink:href="#DejaVuSans-2c"/>
     <use transform="translate(1650.800781 0.78125)" xlink:href="#DejaVuSans-20"/>
     <use transform="translate(1682.587891 0.78125)" xlink:href="#DejaVuSans-394"/>
     <use transform="translate(1750.996094 0.78125)" xlink:href="#DejaVuSans-45"/>
     <use transform="translate(1814.179688 0.78125)" xlink:href="#DejaVuSans-3d"/>
     <use transform="translate(1897.96875 0.78125)" xlink:href="#DejaVuSans-30"/>
     <use transform="translate(1961.591797 0.78125)" xlink:href="#DejaVuSans-2e"/>
     <use transform="translate(1993.378906 0.78125)" xlink:href="#DejaVuSans-31"/>
     <use transform="translate(2057.001953 0.78125)" xlink:href="#DejaVuSans-32"/>
     <use transform="translate(2120.625 0.78125)" xlink:href="#DejaVuSans-65"/>
     <use transform="translate(2182.148438 0.78125)" xlink:href="#DejaVuSans-56"/>
    </g>
   </g>
  </g>
  <g id="axes_2">
   <g id="patch_2">
    <path clip-path="url(#pa3b785bdd8)" d="M 361.152 307.584 
L 361.152 306.5445 
L 361.152 42.5115 
L 361.152 41.472 
L 374.4576 41.472 
L 374.4576 42.5115 
L 374.4576 306.5445 
L 374.4576 307.584 
z
" style="fill:#ffffff;stroke:#ffffff;stroke-linejoin:miter;stroke-width:0.01;"/>
   </g>
   <image height="265.68" id="image1c06c672f9" transform="scale(1 -1)translate(0 -265.68)" width="12.96" x="361.44" xlink:href="data:image/png;base64,
iVBORw0KGgoAAAANSUhEUgAAABIAAAFxCAYAAAB+2fgXAAAABHNCSVQICAgIfAhkiAAAAeVJREFUeJztncmNw0AQA2ckheYQNv9QLIfQ8ygsCgQ7AEI8+jAs2Puz/94F1LP2ReCsZ18bAWIeZ5XaGRBE7VnbptG+KI101FYyNSiQG2oRITXKNaX9uclOdi2XWjftVE32CZCO2ou5Bj1TcCBr/1zB9ge7Fq0Rg2NM9pvbtG+ua1QgsRYhDy0ISEiNc40BEibbSI0Coj5CBGtkpFbXJiAjNZlrwhuSOv2M1DjXbEdEciBt1JSDDQKKpmZr2rr2j0DBGpXaWEJq3bQzEPIS26r9J+Wzv9Tm8o3aajRXqc3VUXsApKNWjeZq0x4ABVNbm7lrszVigDqP5vIl2+eaT2yfRkL7g+dRcNPqjohkjaCvRVBq0H2U3LQrOJCx9kdTg4B8oxZzzTdqdYHEngjUCAPyUctN9sVRq2sTECW2UKNLd2jVtRmo1A6AhMmWaSRcR8nUdIHUuVb75zJS218EyEitro1At69pIdeSk30Lkw0FktNImGyZRhy1O5galmxd03LUsHWk06jUZiCq+5Wb1kZNN4+wJxJuWt8RAW5am2sYNZ9rYCBzZ3buPKJ2P5Yj4Toy3keyIyJbIxs1rml1byCA84gpch5RQNB7Q0qNMGq2Hy4BXdNR41yz/cEEJfZzUz96r9PoB0okjeQ8y9TkAAAAAElFTkSuQmCC" y="-41.76"/>
   <g id="matplotlib.axis_1"/>
   <g id="matplotlib.axis_2">
    <g id="ytick_1">
     <g id="line2d_1">
      <defs>
       <path d="M 0 0 
L 3.5 0 
" id="mfbdcd87e1b" style="stroke:#000000;stroke-width:0.8;"/>
      </defs>
      <g>
       <use style="stroke:#000000;stroke-width:0.8;" x="374.4576" xlink:href="#mfbdcd87e1b" y="284.024989"/>
      </g>
     </g>
     <g id="text_2">
      <!-- −8.5 -->
      <defs>
       <path d="M 10.59375 35.5 
L 73.1875 35.5 
L 73.1875 27.203125 
L 10.59375 27.203125 
z
" id="DejaVuSans-2212"/>
      </defs>
      <g transform="translate(381.4576 287.824208)scale(0.1 -0.1)">
       <use xlink:href="#DejaVuSans-2212"/>
       <use x="83.789062" xlink:href="#DejaVuSans-38"/>
       <use x="147.412109" xlink:href="#DejaVuSans-2e"/>
       <use x="179.199219" xlink:href="#DejaVuSans-35"/>
      </g>
     </g>
    </g>
    <g id="ytick_2">
     <g id="line2d_2">
      <g>
       <use style="stroke:#000000;stroke-width:0.8;" x="374.4576" xlink:href="#mfbdcd87e1b" y="239.684188"/>
      </g>
     </g>
     <g id="text_3">
      <!-- −8.0 -->
      <g transform="translate(381.4576 243.483407)scale(0.1 -0.1)">
       <use xlink:href="#DejaVuSans-2212"/>
       <use x="83.789062" xlink:href="#DejaVuSans-38"/>
       <use x="147.412109" xlink:href="#DejaVuSans-2e"/>
       <use x="179.199219" xlink:href="#DejaVuSans-30"/>
      </g>
     </g>
    </g>
    <g id="ytick_3">
     <g id="line2d_3">
      <g>
       <use style="stroke:#000000;stroke-width:0.8;" x="374.4576" xlink:href="#mfbdcd87e1b" y="195.343387"/>
      </g>
     </g>
     <g id="text_4">
      <!-- −7.5 -->
      <defs>
       <path d="M 8.203125 72.90625 
L 55.078125 72.90625 
L 55.078125 68.703125 
L 28.609375 0 
L 18.3125 0 
L 43.21875 64.59375 
L 8.203125 64.59375 
z
" id="DejaVuSans-37"/>
      </defs>
      <g transform="translate(381.4576 199.142606)scale(0.1 -0.1)">
       <use xlink:href="#DejaVuSans-2212"/>
       <use x="83.789062" xlink:href="#DejaVuSans-37"/>
       <use x="147.412109" xlink:href="#DejaVuSans-2e"/>
       <use x="179.199219" xlink:href="#DejaVuSans-35"/>
      </g>
     </g>
    </g>
    <g id="ytick_4">
     <g id="line2d_4">
      <g>
       <use style="stroke:#000000;stroke-width:0.8;" x="374.4576" xlink:href="#mfbdcd87e1b" y="151.002586"/>
      </g>
     </g>
     <g id="text_5">
      <!-- −7.0 -->
      <g transform="translate(381.4576 154.801805)scale(0.1 -0.1)">
       <use xlink:href="#DejaVuSans-2212"/>
       <use x="83.789062" xlink:href="#DejaVuSans-37"/>
       <use x="147.412109" xlink:href="#DejaVuSans-2e"/>
       <use x="179.199219" xlink:href="#DejaVuSans-30"/>
      </g>
     </g>
    </g>
    <g id="ytick_5">
     <g id="line2d_5">
      <g>
       <use style="stroke:#000000;stroke-width:0.8;" x="374.4576" xlink:href="#mfbdcd87e1b" y="106.661785"/>
      </g>
     </g>
     <g id="text_6">
      <!-- −6.5 -->
      <defs>
       <path d="M 33.015625 40.375 
Q 26.375 40.375 22.484375 35.828125 
Q 18.609375 31.296875 18.609375 23.390625 
Q 18.609375 15.53125 22.484375 10.953125 
Q 26.375 6.390625 33.015625 6.390625 
Q 39.65625 6.390625 43.53125 10.953125 
Q 47.40625 15.53125 47.40625 23.390625 
Q 47.40625 31.296875 43.53125 35.828125 
Q 39.65625 40.375 33.015625 40.375 
z
M 52.59375 71.296875 
L 52.59375 62.3125 
Q 48.875 64.0625 45.09375 64.984375 
Q 41.3125 65.921875 37.59375 65.921875 
Q 27.828125 65.921875 22.671875 59.328125 
Q 17.53125 52.734375 16.796875 39.40625 
Q 19.671875 43.65625 24.015625 45.921875 
Q 28.375 48.1875 33.59375 48.1875 
Q 44.578125 48.1875 50.953125 41.515625 
Q 57.328125 34.859375 57.328125 23.390625 
Q 57.328125 12.15625 50.6875 5.359375 
Q 44.046875 -1.421875 33.015625 -1.421875 
Q 20.359375 -1.421875 13.671875 8.265625 
Q 6.984375 17.96875 6.984375 36.375 
Q 6.984375 53.65625 15.1875 63.9375 
Q 23.390625 74.21875 37.203125 74.21875 
Q 40.921875 74.21875 44.703125 73.484375 
Q 48.484375 72.75 52.59375 71.296875 
z
" id="DejaVuSans-36"/>
      </defs>
      <g transform="translate(381.4576 110.461004)scale(0.1 -0.1)">
       <use xlink:href="#DejaVuSans-2212"/>
       <use x="83.789062" xlink:href="#DejaVuSans-36"/>
       <use x="147.412109" xlink:href="#DejaVuSans-2e"/>
       <use x="179.199219" xlink:href="#DejaVuSans-35"/>
      </g>
     </g>
    </g>
    <g id="ytick_6">
     <g id="line2d_6">
      <g>
       <use style="stroke:#000000;stroke-width:0.8;" x="374.4576" xlink:href="#mfbdcd87e1b" y="62.320984"/>
      </g>
     </g>
     <g id="text_7">
      <!-- −6.0 -->
      <g transform="translate(381.4576 66.120203)scale(0.1 -0.1)">
       <use xlink:href="#DejaVuSans-2212"/>
       <use x="83.789062" xlink:href="#DejaVuSans-36"/>
       <use x="147.412109" xlink:href="#DejaVuSans-2e"/>
       <use x="179.199219" xlink:href="#DejaVuSans-30"/>
      </g>
     </g>
    </g>
    <g id="text_8">
     <!-- Energy [eV] -->
     <defs>
      <path d="M 54.890625 33.015625 
L 54.890625 0 
L 45.90625 0 
L 45.90625 32.71875 
Q 45.90625 40.484375 42.875 44.328125 
Q 39.84375 48.1875 33.796875 48.1875 
Q 26.515625 48.1875 22.3125 43.546875 
Q 18.109375 38.921875 18.109375 30.90625 
L 18.109375 0 
L 9.078125 0 
L 9.078125 54.6875 
L 18.109375 54.6875 
L 18.109375 46.1875 
Q 21.34375 51.125 25.703125 53.5625 
Q 30.078125 56 35.796875 56 
Q 45.21875 56 50.046875 50.171875 
Q 54.890625 44.34375 54.890625 33.015625 
z
" id="DejaVuSans-6e"/>
      <path d="M 45.40625 27.984375 
Q 45.40625 37.75 41.375 43.109375 
Q 37.359375 48.484375 30.078125 48.484375 
Q 22.859375 48.484375 18.828125 43.109375 
Q 14.796875 37.75 14.796875 27.984375 
Q 14.796875 18.265625 18.828125 12.890625 
Q 22.859375 7.515625 30.078125 7.515625 
Q 37.359375 7.515625 41.375 12.890625 
Q 45.40625 18.265625 45.40625 27.984375 
z
M 54.390625 6.78125 
Q 54.390625 -7.171875 48.1875 -13.984375 
Q 42 -20.796875 29.203125 -20.796875 
Q 24.46875 -20.796875 20.265625 -20.09375 
Q 16.0625 -19.390625 12.109375 -17.921875 
L 12.109375 -9.1875 
Q 16.0625 -11.328125 19.921875 -12.34375 
Q 23.78125 -13.375 27.78125 -13.375 
Q 36.625 -13.375 41.015625 -8.765625 
Q 45.40625 -4.15625 45.40625 5.171875 
L 45.40625 9.625 
Q 42.625 4.78125 38.28125 2.390625 
Q 33.9375 0 27.875 0 
Q 17.828125 0 11.671875 7.65625 
Q 5.515625 15.328125 5.515625 27.984375 
Q 5.515625 40.671875 11.671875 48.328125 
Q 17.828125 56 27.875 56 
Q 33.9375 56 38.28125 53.609375 
Q 42.625 51.21875 45.40625 46.390625 
L 45.40625 54.6875 
L 54.390625 54.6875 
z
" id="DejaVuSans-67"/>
      <path d="M 32.171875 -5.078125 
Q 28.375 -14.84375 24.75 -17.8125 
Q 21.140625 -20.796875 15.09375 -20.796875 
L 7.90625 -20.796875 
L 7.90625 -13.28125 
L 13.1875 -13.28125 
Q 16.890625 -13.28125 18.9375 -11.515625 
Q 21 -9.765625 23.484375 -3.21875 
L 25.09375 0.875 
L 2.984375 54.6875 
L 12.5 54.6875 
L 29.59375 11.921875 
L 46.6875 54.6875 
L 56.203125 54.6875 
z
" id="DejaVuSans-79"/>
      <path d="M 8.59375 75.984375 
L 29.296875 75.984375 
L 29.296875 69 
L 17.578125 69 
L 17.578125 -6.203125 
L 29.296875 -6.203125 
L 29.296875 -13.1875 
L 8.59375 -13.1875 
z
" id="DejaVuSans-5b"/>
      <path d="M 30.421875 75.984375 
L 30.421875 -13.1875 
L 9.71875 -13.1875 
L 9.71875 -6.203125 
L 21.390625 -6.203125 
L 21.390625 69 
L 9.71875 69 
L 9.71875 75.984375 
z
" id="DejaVuSans-5d"/>
     </defs>
     <g transform="translate(417.33885 204.108469)rotate(-90)scale(0.1 -0.1)">
      <use xlink:href="#DejaVuSans-45"/>
      <use x="63.183594" xlink:href="#DejaVuSans-6e"/>
      <use x="126.5625" xlink:href="#DejaVuSans-65"/>
      <use x="188.085938" xlink:href="#DejaVuSans-72"/>
      <use x="229.183594" xlink:href="#DejaVuSans-67"/>
      <use x="292.660156" xlink:href="#DejaVuSans-79"/>
      <use x="351.839844" xlink:href="#DejaVuSans-20"/>
      <use x="383.626953" xlink:href="#DejaVuSans-5b"/>
      <use x="422.640625" xlink:href="#DejaVuSans-65"/>
      <use x="484.164062" xlink:href="#DejaVuSans-56"/>
      <use x="552.572266" xlink:href="#DejaVuSans-5d"/>
     </g>
    </g>
   </g>
   <g id="patch_3">
    <path d="M 361.152 307.584 
L 361.152 306.5445 
L 361.152 42.5115 
L 361.152 41.472 
L 374.4576 41.472 
L 374.4576 42.5115 
L 374.4576 306.5445 
L 374.4576 307.584 
z
" style="fill:none;stroke:#000000;stroke-linejoin:miter;stroke-width:0.8;"/>
   </g>
  </g>
 </g>
 <defs>
  <clipPath id="pe788b4a9a1">
   <rect height="266.112" width="285.696" x="57.6" y="41.472"/>
  </clipPath>
  <clipPath id="pa3b785bdd8">
   <rect height="266.112" width="13.3056" x="361.152" y="41.472"/>
  </clipPath>
 </defs>
</svg>
