<?xml version="1.0" encoding="utf-8" standalone="no"?>
<!DOCTYPE svg PUBLIC "-//W3C//DTD SVG 1.1//EN"
  "http://www.w3.org/Graphics/SVG/1.1/DTD/svg11.dtd">
<!-- Created with matplotlib (http://matplotlib.org/) -->
<svg height="345.6pt" version="1.1" viewBox="0 0 460.8 345.6" width="460.8pt" xmlns="http://www.w3.org/2000/svg" xmlns:xlink="http://www.w3.org/1999/xlink">
 <defs>
  <style type="text/css">
*{stroke-linecap:butt;stroke-linejoin:round;}
  </style>
 </defs>
 <g id="figure_1">
  <g id="patch_1">
   <path d="M 0 345.6 
L 460.8 345.6 
L 460.8 0 
L 0 0 
z
" style="fill:#ffffff;"/>
  </g>
  <g id="axes_1">
   <g id="CircleCollection_1">
    <path clip-path="url(#pf356412289)" d="M 130.682997 280.342244 
C 132.515872 280.342244 134.273924 279.614035 135.569962 278.317996 
C 136.866001 277.021958 137.59421 275.263906 137.59421 273.431031 
C 137.59421 271.598156 136.866001 269.840104 135.569962 268.544065 
C 134.273924 267.248027 132.515872 266.519818 130.682997 266.519818 
C 128.850121 266.519818 127.092069 267.248027 125.796031 268.544065 
C 124.499993 269.840104 123.771784 271.598156 123.771784 273.431031 
C 123.771784 275.263906 124.499993 277.021958 125.796031 278.317996 
C 127.092069 279.614035 128.850121 280.342244 130.682997 280.342244 
z
" style="fill:#443983;"/>
    <path clip-path="url(#pf356412289)" d="M 241.121865 174.999214 
C 242.896237 174.999214 244.598174 174.294249 245.852845 173.039578 
C 247.107515 171.784908 247.812481 170.08297 247.812481 168.308598 
C 247.812481 166.534226 247.107515 164.832289 245.852845 163.577618 
C 244.598174 162.322948 242.896237 161.617982 241.121865 161.617982 
C 239.347493 161.617982 237.645556 162.322948 236.390885 163.577618 
C 235.136215 164.832289 234.431249 166.534226 234.431249 168.308598 
C 234.431249 170.08297 235.136215 171.784908 236.390885 173.039578 
C 237.645556 174.294249 239.347493 174.999214 241.121865 174.999214 
z
" style="fill:#440154;"/>
    <path clip-path="url(#pf356412289)" d="M 211.073353 237.924699 
C 212.904742 237.924699 214.661369 237.19708 215.956357 235.902092 
C 217.251345 234.607104 217.978964 232.850477 217.978964 231.019088 
C 217.978964 229.187699 217.251345 227.431072 215.956357 226.136084 
C 214.661369 224.841096 212.904742 224.113477 211.073353 224.113477 
C 209.241963 224.113477 207.485336 224.841096 206.190348 226.136084 
C 204.89536 227.431072 204.167742 229.187699 204.167742 231.019088 
C 204.167742 232.850477 204.89536 234.607104 206.190348 235.902092 
C 207.485336 237.19708 209.241963 237.924699 211.073353 237.924699 
z
" style="fill:#3c4f8a;"/>
    <path clip-path="url(#pf356412289)" d="M 330.006365 194.383956 
C 331.756361 194.383956 333.434916 193.688675 334.67235 192.451242 
C 335.909784 191.213808 336.605064 189.535253 336.605064 187.785257 
C 336.605064 186.035262 335.909784 184.356706 334.67235 183.119273 
C 333.434916 181.881839 331.756361 181.186559 330.006365 181.186559 
C 328.25637 181.186559 326.577814 181.881839 325.340381 183.119273 
C 324.102947 184.356706 323.407667 186.035262 323.407667 187.785257 
C 323.407667 189.535253 324.102947 191.213808 325.340381 192.451242 
C 326.577814 193.688675 328.25637 194.383956 330.006365 194.383956 
z
" style="fill:#fde725;"/>
    <path clip-path="url(#pf356412289)" d="M 205.633028 274.411 
C 207.491765 274.411 209.274623 273.672516 210.588948 272.358191 
C 211.903273 271.043866 212.641757 269.261008 212.641757 267.402271 
C 212.641757 265.543535 211.903273 263.760677 210.588948 262.446351 
C 209.274623 261.132026 207.491765 260.393542 205.633028 260.393542 
C 203.774292 260.393542 201.991434 261.132026 200.677108 262.446351 
C 199.362783 263.760677 198.624299 265.543535 198.624299 267.402271 
C 198.624299 269.261008 199.362783 271.043866 200.677108 272.358191 
C 201.991434 273.672516 203.774292 274.411 205.633028 274.411 
z
" style="fill:#d0e11c;"/>
    <path clip-path="url(#pf356412289)" d="M 198.392437 125.427497 
C 200.2088 125.427497 201.951014 124.705848 203.235376 123.421485 
C 204.519739 122.137123 205.241388 120.394909 205.241388 118.578545 
C 205.241388 116.762182 204.519739 115.019968 203.235376 113.735605 
C 201.951014 112.451243 200.2088 111.729594 198.392437 111.729594 
C 196.576073 111.729594 194.833859 112.451243 193.549497 113.735605 
C 192.265134 115.019968 191.543485 116.762182 191.543485 118.578545 
C 191.543485 120.394909 192.265134 122.137123 193.549497 123.421485 
C 194.833859 124.705848 196.576073 125.427497 198.392437 125.427497 
z
" style="fill:#1e9c89;"/>
    <path clip-path="url(#pf356412289)" d="M 271.238851 181.700496 
C 273.006372 181.700496 274.701739 180.998253 275.951565 179.748426 
C 277.201392 178.4986 277.903635 176.803233 277.903635 175.035712 
C 277.903635 173.26819 277.201392 171.572824 275.951565 170.322998 
C 274.701739 169.073171 273.006372 168.370927 271.238851 168.370927 
C 269.471329 168.370927 267.775963 169.073171 266.526136 170.322998 
C 265.27631 171.572824 264.574066 173.26819 264.574066 175.035712 
C 264.574066 176.803233 265.27631 178.4986 266.526136 179.748426 
C 267.775963 180.998253 269.471329 181.700496 271.238851 181.700496 
z
" style="fill:#3b528b;"/>
    <path clip-path="url(#pf356412289)" d="M 192.007485 166.860622 
C 193.783203 166.860622 195.486431 166.155122 196.742053 164.8995 
C 197.997675 163.643877 198.703175 161.940649 198.703175 160.164932 
C 198.703175 158.389214 197.997675 156.685986 196.742053 155.430364 
C 195.486431 154.174741 193.783203 153.469241 192.007485 153.469241 
C 190.231767 153.469241 188.528539 154.174741 187.272917 155.430364 
C 186.017295 156.685986 185.311795 158.389214 185.311795 160.164932 
C 185.311795 161.940649 186.017295 163.643877 187.272917 164.8995 
C 188.528539 166.155122 190.231767 166.860622 192.007485 166.860622 
z
" style="fill:#424186;"/>
    <path clip-path="url(#pf356412289)" d="M 172.271545 166.967139 
C 173.968488 166.967139 175.596158 166.292936 176.796078 165.093016 
C 177.995999 163.893095 178.670201 162.265426 178.670201 160.568482 
C 178.670201 158.871539 177.995999 157.243869 176.796078 156.043949 
C 175.596158 154.844028 173.968488 154.169826 172.271545 154.169826 
C 170.574601 154.169826 168.946932 154.844028 167.747011 156.043949 
C 166.547091 157.243869 165.872888 158.871539 165.872888 160.568482 
C 165.872888 162.265426 166.547091 163.893095 167.747011 165.093016 
C 168.946932 166.292936 170.574601 166.967139 172.271545 166.967139 
z
" style="fill:#46085c;"/>
    <path clip-path="url(#pf356412289)" d="M 206.385326 110.886752 
C 208.074141 110.886752 209.694014 110.215779 210.888186 109.021606 
C 212.082359 107.827434 212.753332 106.207561 212.753332 104.518746 
C 212.753332 102.829931 212.082359 101.210058 210.888186 100.015886 
C 209.694014 98.821713 208.074141 98.15074 206.385326 98.15074 
C 204.696511 98.15074 203.076639 98.821713 201.882466 100.015886 
C 200.688294 101.210058 200.01732 102.829931 200.01732 104.518746 
C 200.01732 106.207561 200.688294 107.827434 201.882466 109.021606 
C 203.076639 110.215779 204.696511 110.886752 206.385326 110.886752 
z
" style="fill:#2b748e;"/>
    <path clip-path="url(#pf356412289)" d="M 156.807615 95.191202 
C 158.511772 95.191202 160.14636 94.514134 161.351381 93.309113 
C 162.556402 92.104092 163.233471 90.469503 163.233471 88.765346 
C 163.233471 87.06119 162.556402 85.426601 161.351381 84.22158 
C 160.14636 83.016559 158.511772 82.33949 156.807615 82.33949 
C 155.103458 82.33949 153.468869 83.016559 152.263848 84.22158 
C 151.058827 85.426601 150.381759 87.06119 150.381759 88.765346 
C 150.381759 90.469503 151.058827 92.104092 152.263848 93.309113 
C 153.468869 94.514134 155.103458 95.191202 156.807615 95.191202 
z
" style="fill:#463480;"/>
    <path clip-path="url(#pf356412289)" d="M 132.811663 258.083662 
C 134.577568 258.083662 136.271384 257.38206 137.520068 256.133376 
C 138.768752 254.884693 139.470353 253.190876 139.470353 251.424971 
C 139.470353 249.659066 138.768752 247.965249 137.520068 246.716566 
C 136.271384 245.467882 134.577568 244.76628 132.811663 244.76628 
C 131.045757 244.76628 129.351941 245.467882 128.103257 246.716566 
C 126.854574 247.965249 126.152972 249.659066 126.152972 251.424971 
C 126.152972 253.190876 126.854574 254.884693 128.103257 256.133376 
C 129.351941 257.38206 131.045757 258.083662 132.811663 258.083662 
z
" style="fill:#423f85;"/>
    <path clip-path="url(#pf356412289)" d="M 99.539208 72.536209 
C 101.256599 72.536209 102.903882 71.853883 104.11826 70.639504 
C 105.332639 69.425125 106.014966 67.777843 106.014966 66.060452 
C 106.014966 64.343061 105.332639 62.695779 104.11826 61.4814 
C 102.903882 60.267021 101.256599 59.584694 99.539208 59.584694 
C 97.821817 59.584694 96.174535 60.267021 94.960156 61.4814 
C 93.745777 62.695779 93.063451 64.343061 93.063451 66.060452 
C 93.063451 67.777843 93.745777 69.425125 94.960156 70.639504 
C 96.174535 71.853883 97.821817 72.536209 99.539208 72.536209 
z
" style="fill:#453882;"/>
    <path clip-path="url(#pf356412289)" d="M 176.734902 125.912627 
C 178.387954 125.912627 179.973523 125.255862 181.142407 124.086978 
C 182.311291 122.918094 182.968055 121.332525 182.968055 119.679474 
C 182.968055 118.026422 182.311291 116.440853 181.142407 115.271969 
C 179.973523 114.103085 178.387954 113.446321 176.734902 113.446321 
C 175.081851 113.446321 173.496282 114.103085 172.327398 115.271969 
C 171.158514 116.440853 170.50175 118.026422 170.50175 119.679474 
C 170.50175 121.332525 171.158514 122.918094 172.327398 124.086978 
C 173.496282 125.255862 175.081851 125.912627 176.734902 125.912627 
z
" style="fill:#32648e;"/>
    <path clip-path="url(#pf356412289)" d="M 300.167541 188.321371 
C 301.925024 188.321371 303.610761 187.623115 304.853489 186.380388 
C 306.096217 185.13766 306.794472 183.451922 306.794472 181.69444 
C 306.794472 179.936957 306.096217 178.25122 304.853489 177.008492 
C 303.610761 175.765764 301.925024 175.067509 300.167541 175.067509 
C 298.410059 175.067509 296.724321 175.765764 295.481593 177.008492 
C 294.238865 178.25122 293.54061 179.936957 293.54061 181.69444 
C 293.54061 183.451922 294.238865 185.13766 295.481593 186.380388 
C 296.724321 187.623115 298.410059 188.321371 300.167541 188.321371 
z
" style="fill:#46337f;"/>
    <path clip-path="url(#pf356412289)" d="M 127.507002 302.065321 
C 129.406603 302.065321 131.228657 301.310601 132.571877 299.967381 
C 133.915098 298.62416 134.669817 296.802106 134.669817 294.902505 
C 134.669817 293.002904 133.915098 291.18085 132.571877 289.83763 
C 131.228657 288.494409 129.406603 287.73969 127.507002 287.73969 
C 125.607401 287.73969 123.785347 288.494409 122.442126 289.83763 
C 121.098906 291.18085 120.344186 293.002904 120.344186 294.902505 
C 120.344186 296.802106 121.098906 298.62416 122.442126 299.967381 
C 123.785347 301.310601 125.607401 302.065321 127.507002 302.065321 
z
" style="fill:#f6e620;"/>
    <path clip-path="url(#pf356412289)" d="M 127.900183 84.11837 
C 129.611733 84.11837 131.253412 83.438364 132.463661 82.228116 
C 133.67391 81.017867 134.353916 79.376187 134.353916 77.664637 
C 134.353916 75.953087 133.67391 74.311407 132.463661 73.101158 
C 131.253412 71.89091 129.611733 71.210904 127.900183 71.210904 
C 126.188632 71.210904 124.546953 71.89091 123.336704 73.101158 
C 122.126455 74.311407 121.446449 75.953087 121.446449 77.664637 
C 121.446449 79.376187 122.126455 81.017867 123.336704 82.228116 
C 124.546953 83.438364 126.188632 84.11837 127.900183 84.11837 
z
" style="fill:#414487;"/>
    <path clip-path="url(#pf356412289)" d="M 221.543432 139.101173 
C 223.296609 139.101173 224.978217 138.404629 226.2179 137.164945 
C 227.457584 135.925262 228.154128 134.243654 228.154128 132.490477 
C 228.154128 130.7373 227.457584 129.055693 226.2179 127.816009 
C 224.978217 126.576326 223.296609 125.879781 221.543432 125.879781 
C 219.790255 125.879781 218.108648 126.576326 216.868964 127.816009 
C 215.629281 129.055693 214.932736 130.7373 214.932736 132.490477 
C 214.932736 134.243654 215.629281 135.925262 216.868964 137.164945 
C 218.108648 138.404629 219.790255 139.101173 221.543432 139.101173 
z
" style="fill:#433e85;"/>
    <path clip-path="url(#pf356412289)" d="M 185.495925 94.928606 
C 187.249088 94.928606 188.930682 94.232067 190.170355 92.992394 
C 191.410028 91.752721 192.106567 90.071127 192.106567 88.317964 
C 192.106567 86.564801 191.410028 84.883208 190.170355 83.643534 
C 188.930682 82.403861 187.249088 81.707322 185.495925 81.707322 
C 183.742762 81.707322 182.061169 82.403861 180.821496 83.643534 
C 179.581822 84.883208 178.885283 86.564801 178.885283 88.317964 
C 178.885283 90.071127 179.581822 91.752721 180.821496 92.992394 
C 182.061169 94.232067 183.742762 94.928606 185.495925 94.928606 
z
" style="fill:#32658e;"/>
    <path clip-path="url(#pf356412289)" d="M 135.739254 232.917294 
C 137.438617 232.917294 139.068608 232.242129 140.27024 231.040498 
C 141.471871 229.838866 142.147036 228.208875 142.147036 226.509512 
C 142.147036 224.810148 141.471871 223.180158 140.27024 221.978526 
C 139.068608 220.776895 137.438617 220.10173 135.739254 220.10173 
C 134.03989 220.10173 132.4099 220.776895 131.208268 221.978526 
C 130.006637 223.180158 129.331472 224.810148 129.331472 226.509512 
C 129.331472 228.208875 130.006637 229.838866 131.208268 231.040498 
C 132.4099 232.242129 134.03989 232.917294 135.739254 232.917294 
z
" style="fill:#404688;"/>
    <path clip-path="url(#pf356412289)" d="M 70.88533 60.60482 
C 72.610499 60.60482 74.265243 59.919403 75.485122 58.699524 
C 76.705001 57.479645 77.390418 55.824901 77.390418 54.099732 
C 77.390418 52.374562 76.705001 50.719819 75.485122 49.49994 
C 74.265243 48.28006 72.610499 47.594643 70.88533 47.594643 
C 69.16016 47.594643 67.505417 48.28006 66.285538 49.49994 
C 65.065658 50.719819 64.380241 52.374562 64.380241 54.099732 
C 64.380241 55.824901 65.065658 57.479645 66.285538 58.699524 
C 67.505417 59.919403 69.16016 60.60482 70.88533 60.60482 
z
" style="fill:#ece51b;"/>
    <path clip-path="url(#pf356412289)" d="M 129.462548 213.525852 
C 131.075685 213.525852 132.62297 212.884945 133.763631 211.744285 
C 134.904291 210.603625 135.545197 209.05634 135.545197 207.443202 
C 135.545197 205.830065 134.904291 204.28278 133.763631 203.14212 
C 132.62297 202.001459 131.075685 201.360553 129.462548 201.360553 
C 127.84941 201.360553 126.302126 202.001459 125.161465 203.14212 
C 124.020805 204.28278 123.379899 205.830065 123.379899 207.443202 
C 123.379899 209.05634 124.020805 210.603625 125.161465 211.744285 
C 126.302126 212.884945 127.84941 213.525852 129.462548 213.525852 
z
" style="fill:#24aa83;"/>
    <path clip-path="url(#pf356412289)" d="M 151.351089 195.305286 
C 153.022556 195.305286 154.625788 194.641205 155.807694 193.4593 
C 156.989599 192.277395 157.65368 190.674162 157.65368 189.002695 
C 157.65368 187.331229 156.989599 185.727996 155.807694 184.546091 
C 154.625788 183.364185 153.022556 182.700105 151.351089 182.700105 
C 149.679623 182.700105 148.07639 183.364185 146.894485 184.546091 
C 145.712579 185.727996 145.048499 187.331229 145.048499 189.002695 
C 145.048499 190.674162 145.712579 192.277395 146.894485 193.4593 
C 148.07639 194.641205 149.679623 195.305286 151.351089 195.305286 
z
" style="fill:#414287;"/>
    <path clip-path="url(#pf356412289)" d="M 214.723023 199.837814 
C 216.525086 199.837814 218.253584 199.121846 219.527835 197.847595 
C 220.802086 196.573344 221.518053 194.844846 221.518053 193.042783 
C 221.518053 191.24072 220.802086 189.512222 219.527835 188.237971 
C 218.253584 186.96372 216.525086 186.247753 214.723023 186.247753 
C 212.92096 186.247753 211.192462 186.96372 209.918211 188.237971 
C 208.64396 189.512222 207.927993 191.24072 207.927993 193.042783 
C 207.927993 194.844846 208.64396 196.573344 209.918211 197.847595 
C 211.192462 199.121846 212.92096 199.837814 214.723023 199.837814 
z
" style="fill:#481769;"/>
   </g>
   <g id="text_1">
    <!-- Structure #8961, $E_N$=-171.08eV, ΔE=0.22eV -->
    <defs>
     <path d="M 53.515625 70.515625 
L 53.515625 60.890625 
Q 47.90625 63.578125 42.921875 64.890625 
Q 37.9375 66.21875 33.296875 66.21875 
Q 25.25 66.21875 20.875 63.09375 
Q 16.5 59.96875 16.5 54.203125 
Q 16.5 49.359375 19.40625 46.890625 
Q 22.3125 44.4375 30.421875 42.921875 
L 36.375 41.703125 
Q 47.40625 39.59375 52.65625 34.296875 
Q 57.90625 29 57.90625 20.125 
Q 57.90625 9.515625 50.796875 4.046875 
Q 43.703125 -1.421875 29.984375 -1.421875 
Q 24.8125 -1.421875 18.96875 -0.25 
Q 13.140625 0.921875 6.890625 3.21875 
L 6.890625 13.375 
Q 12.890625 10.015625 18.65625 8.296875 
Q 24.421875 6.59375 29.984375 6.59375 
Q 38.421875 6.59375 43.015625 9.90625 
Q 47.609375 13.234375 47.609375 19.390625 
Q 47.609375 24.75 44.3125 27.78125 
Q 41.015625 30.8125 33.5 32.328125 
L 27.484375 33.5 
Q 16.453125 35.6875 11.515625 40.375 
Q 6.59375 45.0625 6.59375 53.421875 
Q 6.59375 63.09375 13.40625 68.65625 
Q 20.21875 74.21875 32.171875 74.21875 
Q 37.3125 74.21875 42.625 73.28125 
Q 47.953125 72.359375 53.515625 70.515625 
z
" id="DejaVuSans-53"/>
     <path d="M 18.3125 70.21875 
L 18.3125 54.6875 
L 36.8125 54.6875 
L 36.8125 47.703125 
L 18.3125 47.703125 
L 18.3125 18.015625 
Q 18.3125 11.328125 20.140625 9.421875 
Q 21.96875 7.515625 27.59375 7.515625 
L 36.8125 7.515625 
L 36.8125 0 
L 27.59375 0 
Q 17.1875 0 13.234375 3.875 
Q 9.28125 7.765625 9.28125 18.015625 
L 9.28125 47.703125 
L 2.6875 47.703125 
L 2.6875 54.6875 
L 9.28125 54.6875 
L 9.28125 70.21875 
z
" id="DejaVuSans-74"/>
     <path d="M 41.109375 46.296875 
Q 39.59375 47.171875 37.8125 47.578125 
Q 36.03125 48 33.890625 48 
Q 26.265625 48 22.1875 43.046875 
Q 18.109375 38.09375 18.109375 28.8125 
L 18.109375 0 
L 9.078125 0 
L 9.078125 54.6875 
L 18.109375 54.6875 
L 18.109375 46.1875 
Q 20.953125 51.171875 25.484375 53.578125 
Q 30.03125 56 36.53125 56 
Q 37.453125 56 38.578125 55.875 
Q 39.703125 55.765625 41.0625 55.515625 
z
" id="DejaVuSans-72"/>
     <path d="M 8.5 21.578125 
L 8.5 54.6875 
L 17.484375 54.6875 
L 17.484375 21.921875 
Q 17.484375 14.15625 20.5 10.265625 
Q 23.53125 6.390625 29.59375 6.390625 
Q 36.859375 6.390625 41.078125 11.03125 
Q 45.3125 15.671875 45.3125 23.6875 
L 45.3125 54.6875 
L 54.296875 54.6875 
L 54.296875 0 
L 45.3125 0 
L 45.3125 8.40625 
Q 42.046875 3.421875 37.71875 1 
Q 33.40625 -1.421875 27.6875 -1.421875 
Q 18.265625 -1.421875 13.375 4.4375 
Q 8.5 10.296875 8.5 21.578125 
z
M 31.109375 56 
z
" id="DejaVuSans-75"/>
     <path d="M 48.78125 52.59375 
L 48.78125 44.1875 
Q 44.96875 46.296875 41.140625 47.34375 
Q 37.3125 48.390625 33.40625 48.390625 
Q 24.65625 48.390625 19.8125 42.84375 
Q 14.984375 37.3125 14.984375 27.296875 
Q 14.984375 17.28125 19.8125 11.734375 
Q 24.65625 6.203125 33.40625 6.203125 
Q 37.3125 6.203125 41.140625 7.25 
Q 44.96875 8.296875 48.78125 10.40625 
L 48.78125 2.09375 
Q 45.015625 0.34375 40.984375 -0.53125 
Q 36.96875 -1.421875 32.421875 -1.421875 
Q 20.0625 -1.421875 12.78125 6.34375 
Q 5.515625 14.109375 5.515625 27.296875 
Q 5.515625 40.671875 12.859375 48.328125 
Q 20.21875 56 33.015625 56 
Q 37.15625 56 41.109375 55.140625 
Q 45.0625 54.296875 48.78125 52.59375 
z
" id="DejaVuSans-63"/>
     <path d="M 56.203125 29.59375 
L 56.203125 25.203125 
L 14.890625 25.203125 
Q 15.484375 15.921875 20.484375 11.0625 
Q 25.484375 6.203125 34.421875 6.203125 
Q 39.59375 6.203125 44.453125 7.46875 
Q 49.3125 8.734375 54.109375 11.28125 
L 54.109375 2.78125 
Q 49.265625 0.734375 44.1875 -0.34375 
Q 39.109375 -1.421875 33.890625 -1.421875 
Q 20.796875 -1.421875 13.15625 6.1875 
Q 5.515625 13.8125 5.515625 26.8125 
Q 5.515625 40.234375 12.765625 48.109375 
Q 20.015625 56 32.328125 56 
Q 43.359375 56 49.78125 48.890625 
Q 56.203125 41.796875 56.203125 29.59375 
z
M 47.21875 32.234375 
Q 47.125 39.59375 43.09375 43.984375 
Q 39.0625 48.390625 32.421875 48.390625 
Q 24.90625 48.390625 20.390625 44.140625 
Q 15.875 39.890625 15.1875 32.171875 
z
" id="DejaVuSans-65"/>
     <path id="DejaVuSans-20"/>
     <path d="M 51.125 44 
L 36.921875 44 
L 32.8125 27.6875 
L 47.125 27.6875 
z
M 43.796875 71.78125 
L 38.71875 51.515625 
L 52.984375 51.515625 
L 58.109375 71.78125 
L 65.921875 71.78125 
L 60.890625 51.515625 
L 76.125 51.515625 
L 76.125 44 
L 58.984375 44 
L 54.984375 27.6875 
L 70.515625 27.6875 
L 70.515625 20.21875 
L 53.078125 20.21875 
L 48 0 
L 40.1875 0 
L 45.21875 20.21875 
L 30.90625 20.21875 
L 25.875 0 
L 18.015625 0 
L 23.09375 20.21875 
L 7.71875 20.21875 
L 7.71875 27.6875 
L 24.90625 27.6875 
L 29 44 
L 13.28125 44 
L 13.28125 51.515625 
L 30.90625 51.515625 
L 35.890625 71.78125 
z
" id="DejaVuSans-23"/>
     <path d="M 31.78125 34.625 
Q 24.75 34.625 20.71875 30.859375 
Q 16.703125 27.09375 16.703125 20.515625 
Q 16.703125 13.921875 20.71875 10.15625 
Q 24.75 6.390625 31.78125 6.390625 
Q 38.8125 6.390625 42.859375 10.171875 
Q 46.921875 13.96875 46.921875 20.515625 
Q 46.921875 27.09375 42.890625 30.859375 
Q 38.875 34.625 31.78125 34.625 
z
M 21.921875 38.8125 
Q 15.578125 40.375 12.03125 44.71875 
Q 8.5 49.078125 8.5 55.328125 
Q 8.5 64.0625 14.71875 69.140625 
Q 20.953125 74.21875 31.78125 74.21875 
Q 42.671875 74.21875 48.875 69.140625 
Q 55.078125 64.0625 55.078125 55.328125 
Q 55.078125 49.078125 51.53125 44.71875 
Q 48 40.375 41.703125 38.8125 
Q 48.828125 37.15625 52.796875 32.3125 
Q 56.78125 27.484375 56.78125 20.515625 
Q 56.78125 9.90625 50.3125 4.234375 
Q 43.84375 -1.421875 31.78125 -1.421875 
Q 19.734375 -1.421875 13.25 4.234375 
Q 6.78125 9.90625 6.78125 20.515625 
Q 6.78125 27.484375 10.78125 32.3125 
Q 14.796875 37.15625 21.921875 38.8125 
z
M 18.3125 54.390625 
Q 18.3125 48.734375 21.84375 45.5625 
Q 25.390625 42.390625 31.78125 42.390625 
Q 38.140625 42.390625 41.71875 45.5625 
Q 45.3125 48.734375 45.3125 54.390625 
Q 45.3125 60.0625 41.71875 63.234375 
Q 38.140625 66.40625 31.78125 66.40625 
Q 25.390625 66.40625 21.84375 63.234375 
Q 18.3125 60.0625 18.3125 54.390625 
z
" id="DejaVuSans-38"/>
     <path d="M 10.984375 1.515625 
L 10.984375 10.5 
Q 14.703125 8.734375 18.5 7.8125 
Q 22.3125 6.890625 25.984375 6.890625 
Q 35.75 6.890625 40.890625 13.453125 
Q 46.046875 20.015625 46.78125 33.40625 
Q 43.953125 29.203125 39.59375 26.953125 
Q 35.25 24.703125 29.984375 24.703125 
Q 19.046875 24.703125 12.671875 31.3125 
Q 6.296875 37.9375 6.296875 49.421875 
Q 6.296875 60.640625 12.9375 67.421875 
Q 19.578125 74.21875 30.609375 74.21875 
Q 43.265625 74.21875 49.921875 64.515625 
Q 56.59375 54.828125 56.59375 36.375 
Q 56.59375 19.140625 48.40625 8.859375 
Q 40.234375 -1.421875 26.421875 -1.421875 
Q 22.703125 -1.421875 18.890625 -0.6875 
Q 15.09375 0.046875 10.984375 1.515625 
z
M 30.609375 32.421875 
Q 37.25 32.421875 41.125 36.953125 
Q 45.015625 41.5 45.015625 49.421875 
Q 45.015625 57.28125 41.125 61.84375 
Q 37.25 66.40625 30.609375 66.40625 
Q 23.96875 66.40625 20.09375 61.84375 
Q 16.21875 57.28125 16.21875 49.421875 
Q 16.21875 41.5 20.09375 36.953125 
Q 23.96875 32.421875 30.609375 32.421875 
z
" id="DejaVuSans-39"/>
     <path d="M 33.015625 40.375 
Q 26.375 40.375 22.484375 35.828125 
Q 18.609375 31.296875 18.609375 23.390625 
Q 18.609375 15.53125 22.484375 10.953125 
Q 26.375 6.390625 33.015625 6.390625 
Q 39.65625 6.390625 43.53125 10.953125 
Q 47.40625 15.53125 47.40625 23.390625 
Q 47.40625 31.296875 43.53125 35.828125 
Q 39.65625 40.375 33.015625 40.375 
z
M 52.59375 71.296875 
L 52.59375 62.3125 
Q 48.875 64.0625 45.09375 64.984375 
Q 41.3125 65.921875 37.59375 65.921875 
Q 27.828125 65.921875 22.671875 59.328125 
Q 17.53125 52.734375 16.796875 39.40625 
Q 19.671875 43.65625 24.015625 45.921875 
Q 28.375 48.1875 33.59375 48.1875 
Q 44.578125 48.1875 50.953125 41.515625 
Q 57.328125 34.859375 57.328125 23.390625 
Q 57.328125 12.15625 50.6875 5.359375 
Q 44.046875 -1.421875 33.015625 -1.421875 
Q 20.359375 -1.421875 13.671875 8.265625 
Q 6.984375 17.96875 6.984375 36.375 
Q 6.984375 53.65625 15.1875 63.9375 
Q 23.390625 74.21875 37.203125 74.21875 
Q 40.921875 74.21875 44.703125 73.484375 
Q 48.484375 72.75 52.59375 71.296875 
z
" id="DejaVuSans-36"/>
     <path d="M 12.40625 8.296875 
L 28.515625 8.296875 
L 28.515625 63.921875 
L 10.984375 60.40625 
L 10.984375 69.390625 
L 28.421875 72.90625 
L 38.28125 72.90625 
L 38.28125 8.296875 
L 54.390625 8.296875 
L 54.390625 0 
L 12.40625 0 
z
" id="DejaVuSans-31"/>
     <path d="M 11.71875 12.40625 
L 22.015625 12.40625 
L 22.015625 4 
L 14.015625 -11.625 
L 7.71875 -11.625 
L 11.71875 4 
z
" id="DejaVuSans-2c"/>
     <path d="M 16.890625 72.90625 
L 62.984375 72.90625 
L 61.375 64.59375 
L 25.09375 64.59375 
L 20.90625 43.015625 
L 55.71875 43.015625 
L 54.109375 34.71875 
L 19.28125 34.71875 
L 14.203125 8.296875 
L 51.3125 8.296875 
L 49.703125 0 
L 2.6875 0 
z
" id="DejaVuSans-Oblique-45"/>
     <path d="M 16.890625 72.90625 
L 30.171875 72.90625 
L 50.296875 10.40625 
L 62.5 72.90625 
L 72.125 72.90625 
L 57.90625 0 
L 44.578125 0 
L 24.515625 62.890625 
L 12.3125 0 
L 2.6875 0 
z
" id="DejaVuSans-Oblique-4e"/>
     <path d="M 10.59375 45.40625 
L 73.1875 45.40625 
L 73.1875 37.203125 
L 10.59375 37.203125 
z
M 10.59375 25.484375 
L 73.1875 25.484375 
L 73.1875 17.1875 
L 10.59375 17.1875 
z
" id="DejaVuSans-3d"/>
     <path d="M 4.890625 31.390625 
L 31.203125 31.390625 
L 31.203125 23.390625 
L 4.890625 23.390625 
z
" id="DejaVuSans-2d"/>
     <path d="M 8.203125 72.90625 
L 55.078125 72.90625 
L 55.078125 68.703125 
L 28.609375 0 
L 18.3125 0 
L 43.21875 64.59375 
L 8.203125 64.59375 
z
" id="DejaVuSans-37"/>
     <path d="M 10.6875 12.40625 
L 21 12.40625 
L 21 0 
L 10.6875 0 
z
" id="DejaVuSans-2e"/>
     <path d="M 31.78125 66.40625 
Q 24.171875 66.40625 20.328125 58.90625 
Q 16.5 51.421875 16.5 36.375 
Q 16.5 21.390625 20.328125 13.890625 
Q 24.171875 6.390625 31.78125 6.390625 
Q 39.453125 6.390625 43.28125 13.890625 
Q 47.125 21.390625 47.125 36.375 
Q 47.125 51.421875 43.28125 58.90625 
Q 39.453125 66.40625 31.78125 66.40625 
z
M 31.78125 74.21875 
Q 44.046875 74.21875 50.515625 64.515625 
Q 56.984375 54.828125 56.984375 36.375 
Q 56.984375 17.96875 50.515625 8.265625 
Q 44.046875 -1.421875 31.78125 -1.421875 
Q 19.53125 -1.421875 13.0625 8.265625 
Q 6.59375 17.96875 6.59375 36.375 
Q 6.59375 54.828125 13.0625 64.515625 
Q 19.53125 74.21875 31.78125 74.21875 
z
" id="DejaVuSans-30"/>
     <path d="M 28.609375 0 
L 0.78125 72.90625 
L 11.078125 72.90625 
L 34.1875 11.53125 
L 57.328125 72.90625 
L 67.578125 72.90625 
L 39.796875 0 
z
" id="DejaVuSans-56"/>
     <path d="M 34.1875 63.1875 
L 14.15625 8.203125 
L 54.25 8.203125 
z
M 0.78125 0 
L 28.609375 72.90625 
L 39.796875 72.90625 
L 67.578125 0 
z
" id="DejaVuSans-394"/>
     <path d="M 9.8125 72.90625 
L 55.90625 72.90625 
L 55.90625 64.59375 
L 19.671875 64.59375 
L 19.671875 43.015625 
L 54.390625 43.015625 
L 54.390625 34.71875 
L 19.671875 34.71875 
L 19.671875 8.296875 
L 56.78125 8.296875 
L 56.78125 0 
L 9.8125 0 
z
" id="DejaVuSans-45"/>
     <path d="M 19.1875 8.296875 
L 53.609375 8.296875 
L 53.609375 0 
L 7.328125 0 
L 7.328125 8.296875 
Q 12.9375 14.109375 22.625 23.890625 
Q 32.328125 33.6875 34.8125 36.53125 
Q 39.546875 41.84375 41.421875 45.53125 
Q 43.3125 49.21875 43.3125 52.78125 
Q 43.3125 58.59375 39.234375 62.25 
Q 35.15625 65.921875 28.609375 65.921875 
Q 23.96875 65.921875 18.8125 64.3125 
Q 13.671875 62.703125 7.8125 59.421875 
L 7.8125 69.390625 
Q 13.765625 71.78125 18.9375 73 
Q 24.125 74.21875 28.421875 74.21875 
Q 39.75 74.21875 46.484375 68.546875 
Q 53.21875 62.890625 53.21875 53.421875 
Q 53.21875 48.921875 51.53125 44.890625 
Q 49.859375 40.875 45.40625 35.40625 
Q 44.1875 33.984375 37.640625 27.21875 
Q 31.109375 20.453125 19.1875 8.296875 
z
" id="DejaVuSans-32"/>
    </defs>
    <g transform="translate(65.388 35.472)scale(0.12 -0.12)">
     <use transform="translate(0 0.78125)" xlink:href="#DejaVuSans-53"/>
     <use transform="translate(63.476562 0.78125)" xlink:href="#DejaVuSans-74"/>
     <use transform="translate(102.685547 0.78125)" xlink:href="#DejaVuSans-72"/>
     <use transform="translate(143.798828 0.78125)" xlink:href="#DejaVuSans-75"/>
     <use transform="translate(207.177734 0.78125)" xlink:href="#DejaVuSans-63"/>
     <use transform="translate(262.158203 0.78125)" xlink:href="#DejaVuSans-74"/>
     <use transform="translate(301.367188 0.78125)" xlink:href="#DejaVuSans-75"/>
     <use transform="translate(364.746094 0.78125)" xlink:href="#DejaVuSans-72"/>
     <use transform="translate(405.859375 0.78125)" xlink:href="#DejaVuSans-65"/>
     <use transform="translate(467.382812 0.78125)" xlink:href="#DejaVuSans-20"/>
     <use transform="translate(499.169922 0.78125)" xlink:href="#DejaVuSans-23"/>
     <use transform="translate(582.958984 0.78125)" xlink:href="#DejaVuSans-38"/>
     <use transform="translate(646.582031 0.78125)" xlink:href="#DejaVuSans-39"/>
     <use transform="translate(710.205078 0.78125)" xlink:href="#DejaVuSans-36"/>
     <use transform="translate(773.828125 0.78125)" xlink:href="#DejaVuSans-31"/>
     <use transform="translate(837.451172 0.78125)" xlink:href="#DejaVuSans-2c"/>
     <use transform="translate(869.238281 0.78125)" xlink:href="#DejaVuSans-20"/>
     <use transform="translate(901.025391 0.78125)" xlink:href="#DejaVuSans-Oblique-45"/>
     <use transform="translate(964.208984 -15.625)scale(0.7)" xlink:href="#DejaVuSans-Oblique-4e"/>
     <use transform="translate(1019.306641 0.78125)" xlink:href="#DejaVuSans-3d"/>
     <use transform="translate(1103.095703 0.78125)" xlink:href="#DejaVuSans-2d"/>
     <use transform="translate(1139.179688 0.78125)" xlink:href="#DejaVuSans-31"/>
     <use transform="translate(1202.802734 0.78125)" xlink:href="#DejaVuSans-37"/>
     <use transform="translate(1266.425781 0.78125)" xlink:href="#DejaVuSans-31"/>
     <use transform="translate(1330.048828 0.78125)" xlink:href="#DejaVuSans-2e"/>
     <use transform="translate(1361.835938 0.78125)" xlink:href="#DejaVuSans-30"/>
     <use transform="translate(1425.458984 0.78125)" xlink:href="#DejaVuSans-38"/>
     <use transform="translate(1489.082031 0.78125)" xlink:href="#DejaVuSans-65"/>
     <use transform="translate(1550.605469 0.78125)" xlink:href="#DejaVuSans-56"/>
     <use transform="translate(1619.013672 0.78125)" xlink:href="#DejaVuSans-2c"/>
     <use transform="translate(1650.800781 0.78125)" xlink:href="#DejaVuSans-20"/>
     <use transform="translate(1682.587891 0.78125)" xlink:href="#DejaVuSans-394"/>
     <use transform="translate(1750.996094 0.78125)" xlink:href="#DejaVuSans-45"/>
     <use transform="translate(1814.179688 0.78125)" xlink:href="#DejaVuSans-3d"/>
     <use transform="translate(1897.96875 0.78125)" xlink:href="#DejaVuSans-30"/>
     <use transform="translate(1961.591797 0.78125)" xlink:href="#DejaVuSans-2e"/>
     <use transform="translate(1993.300781 0.78125)" xlink:href="#DejaVuSans-32"/>
     <use transform="translate(2056.923828 0.78125)" xlink:href="#DejaVuSans-32"/>
     <use transform="translate(2120.546875 0.78125)" xlink:href="#DejaVuSans-65"/>
     <use transform="translate(2182.070312 0.78125)" xlink:href="#DejaVuSans-56"/>
    </g>
   </g>
  </g>
  <g id="axes_2">
   <g id="patch_2">
    <path clip-path="url(#p43cb9457bd)" d="M 361.152 307.584 
L 361.152 306.5445 
L 361.152 42.5115 
L 361.152 41.472 
L 374.4576 41.472 
L 374.4576 42.5115 
L 374.4576 306.5445 
L 374.4576 307.584 
z
" style="fill:#ffffff;stroke:#ffffff;stroke-linejoin:miter;stroke-width:0.01;"/>
   </g>
   <image height="265.68" id="imageadf4d08489" transform="scale(1 -1)translate(0 -265.68)" width="12.96" x="361.44" xlink:href="data:image/png;base64,
iVBORw0KGgoAAAANSUhEUgAAABIAAAFxCAYAAAB+2fgXAAAABHNCSVQICAgIfAhkiAAAAeVJREFUeJztncmNw0AQA2ckheYQNv9QLIfQ8ygsCgQ7AEI8+jAs2Puz/94F1LP2ReCsZ18bAWIeZ5XaGRBE7VnbptG+KI101FYyNSiQG2oRITXKNaX9uclOdi2XWjftVE32CZCO2ou5Bj1TcCBr/1zB9ge7Fq0Rg2NM9pvbtG+ua1QgsRYhDy0ISEiNc40BEibbSI0Coj5CBGtkpFbXJiAjNZlrwhuSOv2M1DjXbEdEciBt1JSDDQKKpmZr2rr2j0DBGpXaWEJq3bQzEPIS26r9J+Wzv9Tm8o3aajRXqc3VUXsApKNWjeZq0x4ABVNbm7lrszVigDqP5vIl2+eaT2yfRkL7g+dRcNPqjohkjaCvRVBq0H2U3LQrOJCx9kdTg4B8oxZzzTdqdYHEngjUCAPyUctN9sVRq2sTECW2UKNLd2jVtRmo1A6AhMmWaSRcR8nUdIHUuVb75zJS218EyEitro1At69pIdeSk30Lkw0FktNImGyZRhy1O5galmxd03LUsHWk06jUZiCq+5Wb1kZNN4+wJxJuWt8RAW5am2sYNZ9rYCBzZ3buPKJ2P5Yj4Toy3keyIyJbIxs1rml1byCA84gpch5RQNB7Q0qNMGq2Hy4BXdNR41yz/cEEJfZzUz96r9PoB0okjeQ8y9TkAAAAAElFTkSuQmCC" y="-41.76"/>
   <g id="matplotlib.axis_1"/>
   <g id="matplotlib.axis_2">
    <g id="ytick_1">
     <g id="line2d_1">
      <defs>
       <path d="M 0 0 
L 3.5 0 
" id="m772379a183" style="stroke:#000000;stroke-width:0.8;"/>
      </defs>
      <g>
       <use style="stroke:#000000;stroke-width:0.8;" x="374.4576" xlink:href="#m772379a183" y="279.701394"/>
      </g>
     </g>
     <g id="text_2">
      <!-- −8.0 -->
      <defs>
       <path d="M 10.59375 35.5 
L 73.1875 35.5 
L 73.1875 27.203125 
L 10.59375 27.203125 
z
" id="DejaVuSans-2212"/>
      </defs>
      <g transform="translate(381.4576 283.500613)scale(0.1 -0.1)">
       <use xlink:href="#DejaVuSans-2212"/>
       <use x="83.789062" xlink:href="#DejaVuSans-38"/>
       <use x="147.412109" xlink:href="#DejaVuSans-2e"/>
       <use x="179.199219" xlink:href="#DejaVuSans-30"/>
      </g>
     </g>
    </g>
    <g id="ytick_2">
     <g id="line2d_2">
      <g>
       <use style="stroke:#000000;stroke-width:0.8;" x="374.4576" xlink:href="#m772379a183" y="242.084916"/>
      </g>
     </g>
     <g id="text_3">
      <!-- −7.5 -->
      <defs>
       <path d="M 10.796875 72.90625 
L 49.515625 72.90625 
L 49.515625 64.59375 
L 19.828125 64.59375 
L 19.828125 46.734375 
Q 21.96875 47.46875 24.109375 47.828125 
Q 26.265625 48.1875 28.421875 48.1875 
Q 40.625 48.1875 47.75 41.5 
Q 54.890625 34.8125 54.890625 23.390625 
Q 54.890625 11.625 47.5625 5.09375 
Q 40.234375 -1.421875 26.90625 -1.421875 
Q 22.3125 -1.421875 17.546875 -0.640625 
Q 12.796875 0.140625 7.71875 1.703125 
L 7.71875 11.625 
Q 12.109375 9.234375 16.796875 8.0625 
Q 21.484375 6.890625 26.703125 6.890625 
Q 35.15625 6.890625 40.078125 11.328125 
Q 45.015625 15.765625 45.015625 23.390625 
Q 45.015625 31 40.078125 35.4375 
Q 35.15625 39.890625 26.703125 39.890625 
Q 22.75 39.890625 18.8125 39.015625 
Q 14.890625 38.140625 10.796875 36.28125 
z
" id="DejaVuSans-35"/>
      </defs>
      <g transform="translate(381.4576 245.884135)scale(0.1 -0.1)">
       <use xlink:href="#DejaVuSans-2212"/>
       <use x="83.789062" xlink:href="#DejaVuSans-37"/>
       <use x="147.412109" xlink:href="#DejaVuSans-2e"/>
       <use x="179.199219" xlink:href="#DejaVuSans-35"/>
      </g>
     </g>
    </g>
    <g id="ytick_3">
     <g id="line2d_3">
      <g>
       <use style="stroke:#000000;stroke-width:0.8;" x="374.4576" xlink:href="#m772379a183" y="204.468439"/>
      </g>
     </g>
     <g id="text_4">
      <!-- −7.0 -->
      <g transform="translate(381.4576 208.267657)scale(0.1 -0.1)">
       <use xlink:href="#DejaVuSans-2212"/>
       <use x="83.789062" xlink:href="#DejaVuSans-37"/>
       <use x="147.412109" xlink:href="#DejaVuSans-2e"/>
       <use x="179.199219" xlink:href="#DejaVuSans-30"/>
      </g>
     </g>
    </g>
    <g id="ytick_4">
     <g id="line2d_4">
      <g>
       <use style="stroke:#000000;stroke-width:0.8;" x="374.4576" xlink:href="#m772379a183" y="166.851961"/>
      </g>
     </g>
     <g id="text_5">
      <!-- −6.5 -->
      <g transform="translate(381.4576 170.651179)scale(0.1 -0.1)">
       <use xlink:href="#DejaVuSans-2212"/>
       <use x="83.789062" xlink:href="#DejaVuSans-36"/>
       <use x="147.412109" xlink:href="#DejaVuSans-2e"/>
       <use x="179.199219" xlink:href="#DejaVuSans-35"/>
      </g>
     </g>
    </g>
    <g id="ytick_5">
     <g id="line2d_5">
      <g>
       <use style="stroke:#000000;stroke-width:0.8;" x="374.4576" xlink:href="#m772379a183" y="129.235483"/>
      </g>
     </g>
     <g id="text_6">
      <!-- −6.0 -->
      <g transform="translate(381.4576 133.034702)scale(0.1 -0.1)">
       <use xlink:href="#DejaVuSans-2212"/>
       <use x="83.789062" xlink:href="#DejaVuSans-36"/>
       <use x="147.412109" xlink:href="#DejaVuSans-2e"/>
       <use x="179.199219" xlink:href="#DejaVuSans-30"/>
      </g>
     </g>
    </g>
    <g id="ytick_6">
     <g id="line2d_6">
      <g>
       <use style="stroke:#000000;stroke-width:0.8;" x="374.4576" xlink:href="#m772379a183" y="91.619005"/>
      </g>
     </g>
     <g id="text_7">
      <!-- −5.5 -->
      <g transform="translate(381.4576 95.418224)scale(0.1 -0.1)">
       <use xlink:href="#DejaVuSans-2212"/>
       <use x="83.789062" xlink:href="#DejaVuSans-35"/>
       <use x="147.412109" xlink:href="#DejaVuSans-2e"/>
       <use x="179.199219" xlink:href="#DejaVuSans-35"/>
      </g>
     </g>
    </g>
    <g id="ytick_7">
     <g id="line2d_7">
      <g>
       <use style="stroke:#000000;stroke-width:0.8;" x="374.4576" xlink:href="#m772379a183" y="54.002527"/>
      </g>
     </g>
     <g id="text_8">
      <!-- −5.0 -->
      <g transform="translate(381.4576 57.801746)scale(0.1 -0.1)">
       <use xlink:href="#DejaVuSans-2212"/>
       <use x="83.789062" xlink:href="#DejaVuSans-35"/>
       <use x="147.412109" xlink:href="#DejaVuSans-2e"/>
       <use x="179.199219" xlink:href="#DejaVuSans-30"/>
      </g>
     </g>
    </g>
    <g id="text_9">
     <!-- Energy [eV] -->
     <defs>
      <path d="M 54.890625 33.015625 
L 54.890625 0 
L 45.90625 0 
L 45.90625 32.71875 
Q 45.90625 40.484375 42.875 44.328125 
Q 39.84375 48.1875 33.796875 48.1875 
Q 26.515625 48.1875 22.3125 43.546875 
Q 18.109375 38.921875 18.109375 30.90625 
L 18.109375 0 
L 9.078125 0 
L 9.078125 54.6875 
L 18.109375 54.6875 
L 18.109375 46.1875 
Q 21.34375 51.125 25.703125 53.5625 
Q 30.078125 56 35.796875 56 
Q 45.21875 56 50.046875 50.171875 
Q 54.890625 44.34375 54.890625 33.015625 
z
" id="DejaVuSans-6e"/>
      <path d="M 45.40625 27.984375 
Q 45.40625 37.75 41.375 43.109375 
Q 37.359375 48.484375 30.078125 48.484375 
Q 22.859375 48.484375 18.828125 43.109375 
Q 14.796875 37.75 14.796875 27.984375 
Q 14.796875 18.265625 18.828125 12.890625 
Q 22.859375 7.515625 30.078125 7.515625 
Q 37.359375 7.515625 41.375 12.890625 
Q 45.40625 18.265625 45.40625 27.984375 
z
M 54.390625 6.78125 
Q 54.390625 -7.171875 48.1875 -13.984375 
Q 42 -20.796875 29.203125 -20.796875 
Q 24.46875 -20.796875 20.265625 -20.09375 
Q 16.0625 -19.390625 12.109375 -17.921875 
L 12.109375 -9.1875 
Q 16.0625 -11.328125 19.921875 -12.34375 
Q 23.78125 -13.375 27.78125 -13.375 
Q 36.625 -13.375 41.015625 -8.765625 
Q 45.40625 -4.15625 45.40625 5.171875 
L 45.40625 9.625 
Q 42.625 4.78125 38.28125 2.390625 
Q 33.9375 0 27.875 0 
Q 17.828125 0 11.671875 7.65625 
Q 5.515625 15.328125 5.515625 27.984375 
Q 5.515625 40.671875 11.671875 48.328125 
Q 17.828125 56 27.875 56 
Q 33.9375 56 38.28125 53.609375 
Q 42.625 51.21875 45.40625 46.390625 
L 45.40625 54.6875 
L 54.390625 54.6875 
z
" id="DejaVuSans-67"/>
      <path d="M 32.171875 -5.078125 
Q 28.375 -14.84375 24.75 -17.8125 
Q 21.140625 -20.796875 15.09375 -20.796875 
L 7.90625 -20.796875 
L 7.90625 -13.28125 
L 13.1875 -13.28125 
Q 16.890625 -13.28125 18.9375 -11.515625 
Q 21 -9.765625 23.484375 -3.21875 
L 25.09375 0.875 
L 2.984375 54.6875 
L 12.5 54.6875 
L 29.59375 11.921875 
L 46.6875 54.6875 
L 56.203125 54.6875 
z
" id="DejaVuSans-79"/>
      <path d="M 8.59375 75.984375 
L 29.296875 75.984375 
L 29.296875 69 
L 17.578125 69 
L 17.578125 -6.203125 
L 29.296875 -6.203125 
L 29.296875 -13.1875 
L 8.59375 -13.1875 
z
" id="DejaVuSans-5b"/>
      <path d="M 30.421875 75.984375 
L 30.421875 -13.1875 
L 9.71875 -13.1875 
L 9.71875 -6.203125 
L 21.390625 -6.203125 
L 21.390625 69 
L 9.71875 69 
L 9.71875 75.984375 
z
" id="DejaVuSans-5d"/>
     </defs>
     <g transform="translate(417.33885 204.108469)rotate(-90)scale(0.1 -0.1)">
      <use xlink:href="#DejaVuSans-45"/>
      <use x="63.183594" xlink:href="#DejaVuSans-6e"/>
      <use x="126.5625" xlink:href="#DejaVuSans-65"/>
      <use x="188.085938" xlink:href="#DejaVuSans-72"/>
      <use x="229.183594" xlink:href="#DejaVuSans-67"/>
      <use x="292.660156" xlink:href="#DejaVuSans-79"/>
      <use x="351.839844" xlink:href="#DejaVuSans-20"/>
      <use x="383.626953" xlink:href="#DejaVuSans-5b"/>
      <use x="422.640625" xlink:href="#DejaVuSans-65"/>
      <use x="484.164062" xlink:href="#DejaVuSans-56"/>
      <use x="552.572266" xlink:href="#DejaVuSans-5d"/>
     </g>
    </g>
   </g>
   <g id="patch_3">
    <path d="M 361.152 307.584 
L 361.152 306.5445 
L 361.152 42.5115 
L 361.152 41.472 
L 374.4576 41.472 
L 374.4576 42.5115 
L 374.4576 306.5445 
L 374.4576 307.584 
z
" style="fill:none;stroke:#000000;stroke-linejoin:miter;stroke-width:0.8;"/>
   </g>
  </g>
 </g>
 <defs>
  <clipPath id="pf356412289">
   <rect height="266.112" width="285.696" x="57.6" y="41.472"/>
  </clipPath>
  <clipPath id="p43cb9457bd">
   <rect height="266.112" width="13.3056" x="361.152" y="41.472"/>
  </clipPath>
 </defs>
</svg>
