<?xml version="1.0" encoding="utf-8" standalone="no"?>
<!DOCTYPE svg PUBLIC "-//W3C//DTD SVG 1.1//EN"
  "http://www.w3.org/Graphics/SVG/1.1/DTD/svg11.dtd">
<!-- Created with matplotlib (http://matplotlib.org/) -->
<svg height="345.6pt" version="1.1" viewBox="0 0 460.8 345.6" width="460.8pt" xmlns="http://www.w3.org/2000/svg" xmlns:xlink="http://www.w3.org/1999/xlink">
 <defs>
  <style type="text/css">
*{stroke-linecap:butt;stroke-linejoin:round;}
  </style>
 </defs>
 <g id="figure_1">
  <g id="patch_1">
   <path d="M 0 345.6 
L 460.8 345.6 
L 460.8 0 
L 0 0 
z
" style="fill:#ffffff;"/>
  </g>
  <g id="axes_1">
   <g id="CircleCollection_1">
    <path clip-path="url(#p60f0b220fb)" d="M 115.88459 164.801346 
C 117.597898 164.801346 119.241264 164.120641 120.452755 162.90915 
C 121.664247 161.697658 122.344952 160.054292 122.344952 158.340984 
C 122.344952 156.627676 121.664247 154.98431 120.452755 153.772818 
C 119.241264 152.561326 117.597898 151.880622 115.88459 151.880622 
C 114.171282 151.880622 112.527916 152.561326 111.316424 153.772818 
C 110.104932 154.98431 109.424228 156.627676 109.424228 158.340984 
C 109.424228 160.054292 110.104932 161.697658 111.316424 162.90915 
C 112.527916 164.120641 114.171282 164.801346 115.88459 164.801346 
z
" style="fill:#228b8d;"/>
    <path clip-path="url(#p60f0b220fb)" d="M 71.080391 208.619664 
C 72.822084 208.619664 74.492677 207.927682 75.72424 206.696119 
C 76.955803 205.464556 77.647785 203.793963 77.647785 202.05227 
C 77.647785 200.310577 76.955803 198.639984 75.72424 197.408421 
C 74.492677 196.176858 72.822084 195.484876 71.080391 195.484876 
C 69.338698 195.484876 67.668105 196.176858 66.436542 197.408421 
C 65.204979 198.639984 64.512997 200.310577 64.512997 202.05227 
C 64.512997 203.793963 65.204979 205.464556 66.436542 206.696119 
C 67.668105 207.927682 69.338698 208.619664 71.080391 208.619664 
z
" style="fill:#32648e;"/>
    <path clip-path="url(#p60f0b220fb)" d="M 268.08733 279.269381 
C 269.903434 279.269381 271.645399 278.547835 272.929578 277.263656 
C 274.213757 275.979477 274.935302 274.237512 274.935302 272.421409 
C 274.935302 270.605306 274.213757 268.863341 272.929578 267.579162 
C 271.645399 266.294983 269.903434 265.573437 268.08733 265.573437 
C 266.271227 265.573437 264.529262 266.294983 263.245083 267.579162 
C 261.960904 268.863341 261.239359 270.605306 261.239359 272.421409 
C 261.239359 274.237512 261.960904 275.979477 263.245083 277.263656 
C 264.529262 278.547835 266.271227 279.269381 268.08733 279.269381 
z
" style="fill:#2fb47c;"/>
    <path clip-path="url(#p60f0b220fb)" d="M 110.883277 260.818421 
C 112.66519 260.818421 114.374362 260.110459 115.634365 258.850456 
C 116.894369 257.590452 117.60233 255.881281 117.60233 254.099367 
C 117.60233 252.317453 116.894369 250.608282 115.634365 249.348279 
C 114.374362 248.088275 112.66519 247.380313 110.883277 247.380313 
C 109.101363 247.380313 107.392191 248.088275 106.132188 249.348279 
C 104.872184 250.608282 104.164223 252.317453 104.164223 254.099367 
C 104.164223 255.881281 104.872184 257.590452 106.132188 258.850456 
C 107.392191 260.110459 109.101363 260.818421 110.883277 260.818421 
z
" style="fill:#218f8d;"/>
    <path clip-path="url(#p60f0b220fb)" d="M 167.986674 160.385328 
C 169.673087 160.385328 171.290657 159.715309 172.483131 158.522835 
C 173.675606 157.33036 174.345625 155.712791 174.345625 154.026377 
C 174.345625 152.339964 173.675606 150.722395 172.483131 149.52992 
C 171.290657 148.337446 169.673087 147.667427 167.986674 147.667427 
C 166.30026 147.667427 164.682691 148.337446 163.490217 149.52992 
C 162.297742 150.722395 161.627723 152.339964 161.627723 154.026377 
C 161.627723 155.712791 162.297742 157.33036 163.490217 158.522835 
C 164.682691 159.715309 166.30026 160.385328 167.986674 160.385328 
z
" style="fill:#2d708e;"/>
    <path clip-path="url(#p60f0b220fb)" d="M 253.398829 164.027238 
C 255.141337 164.027238 256.812711 163.334932 258.044851 162.102792 
C 259.27699 160.870653 259.969296 159.199279 259.969296 157.456771 
C 259.969296 155.714263 259.27699 154.042889 258.044851 152.810749 
C 256.812711 151.57861 255.141337 150.886304 253.398829 150.886304 
C 251.656321 150.886304 249.984947 151.57861 248.752807 152.810749 
C 247.520668 154.042889 246.828362 155.714263 246.828362 157.456771 
C 246.828362 159.199279 247.520668 160.870653 248.752807 162.102792 
C 249.984947 163.334932 251.656321 164.027238 253.398829 164.027238 
z
" style="fill:#21908d;"/>
    <path clip-path="url(#p60f0b220fb)" d="M 137.461471 198.839529 
C 139.300005 198.839529 141.063486 198.109072 142.363526 196.809032 
C 143.663567 195.508991 144.394024 193.745511 144.394024 191.906976 
C 144.394024 190.068441 143.663567 188.304961 142.363526 187.00492 
C 141.063486 185.70488 139.300005 184.974422 137.461471 184.974422 
C 135.622936 184.974422 133.859455 185.70488 132.559415 187.00492 
C 131.259375 188.304961 130.528917 190.068441 130.528917 191.906976 
C 130.528917 193.745511 131.259375 195.508991 132.559415 196.809032 
C 133.859455 198.109072 135.622936 198.839529 137.461471 198.839529 
z
" style="fill:#50c46a;"/>
    <path clip-path="url(#p60f0b220fb)" d="M 329.80566 206.57527 
C 331.582416 206.57527 333.286641 205.869357 334.542998 204.613001 
C 335.799355 203.356644 336.505267 201.652419 336.505267 199.875662 
C 336.505267 198.098906 335.799355 196.394681 334.542998 195.138324 
C 333.286641 193.881968 331.582416 193.176055 329.80566 193.176055 
C 328.028903 193.176055 326.324678 193.881968 325.068322 195.138324 
C 323.811965 196.394681 323.106052 198.098906 323.106052 199.875662 
C 323.106052 201.652419 323.811965 203.356644 325.068322 204.613001 
C 326.324678 205.869357 328.028903 206.57527 329.80566 206.57527 
z
" style="fill:#44bf70;"/>
    <path clip-path="url(#p60f0b220fb)" d="M 170.653328 210.851489 
C 172.434897 210.851489 174.143737 210.143664 175.403496 208.883905 
C 176.663255 207.624146 177.37108 205.915306 177.37108 204.133738 
C 177.37108 202.352169 176.663255 200.643329 175.403496 199.38357 
C 174.143737 198.123811 172.434897 197.415986 170.653328 197.415986 
C 168.87176 197.415986 167.16292 198.123811 165.90316 199.38357 
C 164.643401 200.643329 163.935577 202.352169 163.935577 204.133738 
C 163.935577 205.915306 164.643401 207.624146 165.90316 208.883905 
C 167.16292 210.143664 168.87176 210.851489 170.653328 210.851489 
z
" style="fill:#365d8d;"/>
    <path clip-path="url(#p60f0b220fb)" d="M 285.988036 221.757438 
C 287.776683 221.757438 289.492312 221.046801 290.757077 219.782037 
C 292.021841 218.517273 292.732478 216.801643 292.732478 215.012996 
C 292.732478 213.224349 292.021841 211.50872 290.757077 210.243955 
C 289.492312 208.979191 287.776683 208.268554 285.988036 208.268554 
C 284.199389 208.268554 282.483759 208.979191 281.218995 210.243955 
C 279.95423 211.50872 279.243593 213.224349 279.243593 215.012996 
C 279.243593 216.801643 279.95423 218.517273 281.218995 219.782037 
C 282.483759 221.046801 284.199389 221.757438 285.988036 221.757438 
z
" style="fill:#277e8e;"/>
    <path clip-path="url(#p60f0b220fb)" d="M 161.951505 270.353876 
C 163.747713 270.353876 165.470594 269.640235 166.740705 268.370125 
C 168.010815 267.100014 168.724456 265.377133 168.724456 263.580925 
C 168.724456 261.784718 168.010815 260.061836 166.740705 258.791726 
C 165.470594 257.521615 163.747713 256.807974 161.951505 256.807974 
C 160.155298 256.807974 158.432416 257.521615 157.162306 258.791726 
C 155.892195 260.061836 155.178554 261.784718 155.178554 263.580925 
C 155.178554 265.377133 155.892195 267.100014 157.162306 268.370125 
C 158.432416 269.640235 160.155298 270.353876 161.951505 270.353876 
z
" style="fill:#482475;"/>
    <path clip-path="url(#p60f0b220fb)" d="M 211.021959 115.869686 
C 212.790348 115.869686 214.486547 115.167098 215.736987 113.916658 
C 216.987428 112.666217 217.690016 110.970019 217.690016 109.201629 
C 217.690016 107.43324 216.987428 105.737041 215.736987 104.486601 
C 214.486547 103.236161 212.790348 102.533572 211.021959 102.533572 
C 209.253569 102.533572 207.557371 103.236161 206.30693 104.486601 
C 205.05649 105.737041 204.353902 107.43324 204.353902 109.201629 
C 204.353902 110.970019 205.05649 112.666217 206.30693 113.916658 
C 207.557371 115.167098 209.253569 115.869686 211.021959 115.869686 
z
" style="fill:#218f8d;"/>
    <path clip-path="url(#p60f0b220fb)" d="M 249.507393 247.286039 
C 251.307582 247.286039 253.034282 246.570817 254.307208 245.297891 
C 255.580133 244.024965 256.295356 242.298265 256.295356 240.498077 
C 256.295356 238.697888 255.580133 236.971188 254.307208 235.698262 
C 253.034282 234.425336 251.307582 233.710114 249.507393 233.710114 
C 247.707204 233.710114 245.980504 234.425336 244.707579 235.698262 
C 243.434653 236.971188 242.71943 238.697888 242.71943 240.498077 
C 242.71943 242.298265 243.434653 244.024965 244.707579 245.297891 
C 245.980504 246.570817 247.707204 247.286039 249.507393 247.286039 
z
" style="fill:#481769;"/>
    <path clip-path="url(#p60f0b220fb)" d="M 157.969516 194.956801 
C 159.660355 194.956801 161.282168 194.285024 162.477772 193.08942 
C 163.673375 191.893817 164.345152 190.272004 164.345152 188.581165 
C 164.345152 186.890327 163.673375 185.268513 162.477772 184.07291 
C 161.282168 182.877307 159.660355 182.205529 157.969516 182.205529 
C 156.278678 182.205529 154.656864 182.877307 153.461261 184.07291 
C 152.265658 185.268513 151.593881 186.890327 151.593881 188.581165 
C 151.593881 190.272004 152.265658 191.893817 153.461261 193.08942 
C 154.656864 194.285024 156.278678 194.956801 157.969516 194.956801 
z
" style="fill:#228c8d;"/>
    <path clip-path="url(#p60f0b220fb)" d="M 216.696058 88.662418 
C 218.502903 88.662418 220.235987 87.944551 221.513619 86.666919 
C 222.791251 85.389287 223.509118 83.656202 223.509118 81.849358 
C 223.509118 80.042513 222.791251 78.309429 221.513619 77.031797 
C 220.235987 75.754165 218.502903 75.036298 216.696058 75.036298 
C 214.889214 75.036298 213.156129 75.754165 211.878497 77.031797 
C 210.600865 78.309429 209.882998 80.042513 209.882998 81.849358 
C 209.882998 83.656202 210.600865 85.389287 211.878497 86.666919 
C 213.156129 87.944551 214.889214 88.662418 216.696058 88.662418 
z
" style="fill:#355f8d;"/>
    <path clip-path="url(#p60f0b220fb)" d="M 230.869856 299.789327 
C 232.687655 299.789327 234.431246 299.067107 235.716624 297.781729 
C 237.002002 296.496351 237.724222 294.75276 237.724222 292.93496 
C 237.724222 291.117161 237.002002 289.37357 235.716624 288.088192 
C 234.431246 286.802813 232.687655 286.080594 230.869856 286.080594 
C 229.052056 286.080594 227.308465 286.802813 226.023087 288.088192 
C 224.737709 289.37357 224.015489 291.117161 224.015489 292.93496 
C 224.015489 294.75276 224.737709 296.496351 226.023087 297.781729 
C 227.308465 299.067107 229.052056 299.789327 230.869856 299.789327 
z
" style="fill:#297b8e;"/>
    <path clip-path="url(#p60f0b220fb)" d="M 76.320225 241.646684 
C 78.083095 241.646684 79.774 240.946288 81.020537 239.699751 
C 82.267075 238.453213 82.96747 236.762309 82.96747 234.999439 
C 82.96747 233.236569 82.267075 231.545664 81.020537 230.299127 
C 79.774 229.05259 78.083095 228.352194 76.320225 228.352194 
C 74.557355 228.352194 72.866451 229.05259 71.619913 230.299127 
C 70.373376 231.545664 69.67298 233.236569 69.67298 234.999439 
C 69.67298 236.762309 70.373376 238.453213 71.619913 239.699751 
C 72.866451 240.946288 74.557355 241.646684 76.320225 241.646684 
z
" style="fill:#287c8e;"/>
    <path clip-path="url(#p60f0b220fb)" d="M 196.290259 242.570833 
C 198.082281 242.570833 199.801148 241.858855 201.068299 240.591704 
C 202.33545 239.324553 203.047428 237.605686 203.047428 235.813664 
C 203.047428 234.021641 202.33545 232.302775 201.068299 231.035624 
C 199.801148 229.768472 198.082281 229.056495 196.290259 229.056495 
C 194.498237 229.056495 192.77937 229.768472 191.512219 231.035624 
C 190.245068 232.302775 189.53309 234.021641 189.53309 235.813664 
C 189.53309 237.605686 190.245068 239.324553 191.512219 240.591704 
C 192.77937 241.858855 194.498237 242.570833 196.290259 242.570833 
z
" style="fill:#3e4c8a;"/>
    <path clip-path="url(#p60f0b220fb)" d="M 285.99044 185.557557 
C 287.751988 185.557557 289.441625 184.857686 290.687228 183.612083 
C 291.932831 182.36648 292.632701 180.676843 292.632701 178.915295 
C 292.632701 177.153746 291.932831 175.464109 290.687228 174.218506 
C 289.441625 172.972903 287.751988 172.273033 285.99044 172.273033 
C 284.228891 172.273033 282.539254 172.972903 281.293651 174.218506 
C 280.048048 175.464109 279.348178 177.153746 279.348178 178.915295 
C 279.348178 180.676843 280.048048 182.36648 281.293651 183.612083 
C 282.539254 184.857686 284.228891 185.557557 285.99044 185.557557 
z
" style="fill:#32648e;"/>
    <path clip-path="url(#p60f0b220fb)" d="M 96.155463 184.926487 
C 97.948971 184.926487 99.669263 184.213919 100.937464 182.945717 
C 102.205666 181.677516 102.918234 179.957224 102.918234 178.163716 
C 102.918234 176.370208 102.205666 174.649916 100.937464 173.381714 
C 99.669263 172.113512 97.948971 171.400944 96.155463 171.400944 
C 94.361955 171.400944 92.641663 172.113512 91.373461 173.381714 
C 90.105259 174.649916 89.392691 176.370208 89.392691 178.163716 
C 89.392691 179.957224 90.105259 181.677516 91.373461 182.945717 
C 92.641663 184.213919 94.361955 184.926487 96.155463 184.926487 
z
" style="fill:#287d8e;"/>
    <path clip-path="url(#p60f0b220fb)" d="M 210.207872 145.351617 
C 211.93557 145.351617 213.592738 144.665195 214.814406 143.443528 
C 216.036073 142.221861 216.722494 140.564692 216.722494 138.836994 
C 216.722494 137.109296 216.036073 135.452127 214.814406 134.23046 
C 213.592738 133.008793 211.93557 132.322371 210.207872 132.322371 
C 208.480174 132.322371 206.823005 133.008793 205.601338 134.23046 
C 204.379671 135.452127 203.693249 137.109296 203.693249 138.836994 
C 203.693249 140.564692 204.379671 142.221861 205.601338 143.443528 
C 206.823005 144.665195 208.480174 145.351617 210.207872 145.351617 
z
" style="fill:#440154;"/>
    <path clip-path="url(#p60f0b220fb)" d="M 220.514675 60.99234 
C 222.362535 60.99234 224.13496 60.258178 225.441593 58.951544 
C 226.748227 57.64491 227.48239 55.872485 227.48239 54.024626 
C 227.48239 52.176767 226.748227 50.404342 225.441593 49.097708 
C 224.13496 47.791074 222.362535 47.056912 220.514675 47.056912 
C 218.666816 47.056912 216.894391 47.791074 215.587758 49.097708 
C 214.281124 50.404342 213.546961 52.176767 213.546961 54.024626 
C 213.546961 55.872485 214.281124 57.64491 215.587758 58.951544 
C 216.894391 60.258178 218.666816 60.99234 220.514675 60.99234 
z
" style="fill:#fde725;"/>
    <path clip-path="url(#p60f0b220fb)" d="M 100.91628 194.086356 
C 102.582766 194.086356 104.181221 193.424254 105.359604 192.24587 
C 106.537988 191.067487 107.200089 189.469032 107.200089 187.802547 
C 107.200089 186.136061 106.537988 184.537606 105.359604 183.359223 
C 104.181221 182.180839 102.582766 181.518738 100.91628 181.518738 
C 99.249795 181.518738 97.65134 182.180839 96.472956 183.359223 
C 95.294573 184.537606 94.632471 186.136061 94.632471 187.802547 
C 94.632471 189.469032 95.294573 191.067487 96.472956 192.24587 
C 97.65134 193.424254 99.249795 194.086356 100.91628 194.086356 
z
" style="fill:#21a685;"/>
    <path clip-path="url(#p60f0b220fb)" d="M 182.269226 301.866581 
C 184.079479 301.866581 185.815833 301.147359 187.095876 299.867317 
C 188.375918 298.587274 189.095139 296.85092 189.095139 295.040667 
C 189.095139 293.230413 188.375918 291.494059 187.095876 290.214017 
C 185.815833 288.933974 184.079479 288.214753 182.269226 288.214753 
C 180.458972 288.214753 178.722618 288.933974 177.442575 290.214017 
C 176.162533 291.494059 175.443312 293.230413 175.443312 295.040667 
C 175.443312 296.85092 176.162533 298.587274 177.442575 299.867317 
C 178.722618 301.147359 180.458972 301.866581 182.269226 301.866581 
z
" style="fill:#26ad81;"/>
   </g>
   <g id="text_1">
    <!-- Structure #6348, $E_N$=-175.30eV, ΔE=-0.18eV -->
    <defs>
     <path d="M 53.515625 70.515625 
L 53.515625 60.890625 
Q 47.90625 63.578125 42.921875 64.890625 
Q 37.9375 66.21875 33.296875 66.21875 
Q 25.25 66.21875 20.875 63.09375 
Q 16.5 59.96875 16.5 54.203125 
Q 16.5 49.359375 19.40625 46.890625 
Q 22.3125 44.4375 30.421875 42.921875 
L 36.375 41.703125 
Q 47.40625 39.59375 52.65625 34.296875 
Q 57.90625 29 57.90625 20.125 
Q 57.90625 9.515625 50.796875 4.046875 
Q 43.703125 -1.421875 29.984375 -1.421875 
Q 24.8125 -1.421875 18.96875 -0.25 
Q 13.140625 0.921875 6.890625 3.21875 
L 6.890625 13.375 
Q 12.890625 10.015625 18.65625 8.296875 
Q 24.421875 6.59375 29.984375 6.59375 
Q 38.421875 6.59375 43.015625 9.90625 
Q 47.609375 13.234375 47.609375 19.390625 
Q 47.609375 24.75 44.3125 27.78125 
Q 41.015625 30.8125 33.5 32.328125 
L 27.484375 33.5 
Q 16.453125 35.6875 11.515625 40.375 
Q 6.59375 45.0625 6.59375 53.421875 
Q 6.59375 63.09375 13.40625 68.65625 
Q 20.21875 74.21875 32.171875 74.21875 
Q 37.3125 74.21875 42.625 73.28125 
Q 47.953125 72.359375 53.515625 70.515625 
z
" id="DejaVuSans-53"/>
     <path d="M 18.3125 70.21875 
L 18.3125 54.6875 
L 36.8125 54.6875 
L 36.8125 47.703125 
L 18.3125 47.703125 
L 18.3125 18.015625 
Q 18.3125 11.328125 20.140625 9.421875 
Q 21.96875 7.515625 27.59375 7.515625 
L 36.8125 7.515625 
L 36.8125 0 
L 27.59375 0 
Q 17.1875 0 13.234375 3.875 
Q 9.28125 7.765625 9.28125 18.015625 
L 9.28125 47.703125 
L 2.6875 47.703125 
L 2.6875 54.6875 
L 9.28125 54.6875 
L 9.28125 70.21875 
z
" id="DejaVuSans-74"/>
     <path d="M 41.109375 46.296875 
Q 39.59375 47.171875 37.8125 47.578125 
Q 36.03125 48 33.890625 48 
Q 26.265625 48 22.1875 43.046875 
Q 18.109375 38.09375 18.109375 28.8125 
L 18.109375 0 
L 9.078125 0 
L 9.078125 54.6875 
L 18.109375 54.6875 
L 18.109375 46.1875 
Q 20.953125 51.171875 25.484375 53.578125 
Q 30.03125 56 36.53125 56 
Q 37.453125 56 38.578125 55.875 
Q 39.703125 55.765625 41.0625 55.515625 
z
" id="DejaVuSans-72"/>
     <path d="M 8.5 21.578125 
L 8.5 54.6875 
L 17.484375 54.6875 
L 17.484375 21.921875 
Q 17.484375 14.15625 20.5 10.265625 
Q 23.53125 6.390625 29.59375 6.390625 
Q 36.859375 6.390625 41.078125 11.03125 
Q 45.3125 15.671875 45.3125 23.6875 
L 45.3125 54.6875 
L 54.296875 54.6875 
L 54.296875 0 
L 45.3125 0 
L 45.3125 8.40625 
Q 42.046875 3.421875 37.71875 1 
Q 33.40625 -1.421875 27.6875 -1.421875 
Q 18.265625 -1.421875 13.375 4.4375 
Q 8.5 10.296875 8.5 21.578125 
z
M 31.109375 56 
z
" id="DejaVuSans-75"/>
     <path d="M 48.78125 52.59375 
L 48.78125 44.1875 
Q 44.96875 46.296875 41.140625 47.34375 
Q 37.3125 48.390625 33.40625 48.390625 
Q 24.65625 48.390625 19.8125 42.84375 
Q 14.984375 37.3125 14.984375 27.296875 
Q 14.984375 17.28125 19.8125 11.734375 
Q 24.65625 6.203125 33.40625 6.203125 
Q 37.3125 6.203125 41.140625 7.25 
Q 44.96875 8.296875 48.78125 10.40625 
L 48.78125 2.09375 
Q 45.015625 0.34375 40.984375 -0.53125 
Q 36.96875 -1.421875 32.421875 -1.421875 
Q 20.0625 -1.421875 12.78125 6.34375 
Q 5.515625 14.109375 5.515625 27.296875 
Q 5.515625 40.671875 12.859375 48.328125 
Q 20.21875 56 33.015625 56 
Q 37.15625 56 41.109375 55.140625 
Q 45.0625 54.296875 48.78125 52.59375 
z
" id="DejaVuSans-63"/>
     <path d="M 56.203125 29.59375 
L 56.203125 25.203125 
L 14.890625 25.203125 
Q 15.484375 15.921875 20.484375 11.0625 
Q 25.484375 6.203125 34.421875 6.203125 
Q 39.59375 6.203125 44.453125 7.46875 
Q 49.3125 8.734375 54.109375 11.28125 
L 54.109375 2.78125 
Q 49.265625 0.734375 44.1875 -0.34375 
Q 39.109375 -1.421875 33.890625 -1.421875 
Q 20.796875 -1.421875 13.15625 6.1875 
Q 5.515625 13.8125 5.515625 26.8125 
Q 5.515625 40.234375 12.765625 48.109375 
Q 20.015625 56 32.328125 56 
Q 43.359375 56 49.78125 48.890625 
Q 56.203125 41.796875 56.203125 29.59375 
z
M 47.21875 32.234375 
Q 47.125 39.59375 43.09375 43.984375 
Q 39.0625 48.390625 32.421875 48.390625 
Q 24.90625 48.390625 20.390625 44.140625 
Q 15.875 39.890625 15.1875 32.171875 
z
" id="DejaVuSans-65"/>
     <path id="DejaVuSans-20"/>
     <path d="M 51.125 44 
L 36.921875 44 
L 32.8125 27.6875 
L 47.125 27.6875 
z
M 43.796875 71.78125 
L 38.71875 51.515625 
L 52.984375 51.515625 
L 58.109375 71.78125 
L 65.921875 71.78125 
L 60.890625 51.515625 
L 76.125 51.515625 
L 76.125 44 
L 58.984375 44 
L 54.984375 27.6875 
L 70.515625 27.6875 
L 70.515625 20.21875 
L 53.078125 20.21875 
L 48 0 
L 40.1875 0 
L 45.21875 20.21875 
L 30.90625 20.21875 
L 25.875 0 
L 18.015625 0 
L 23.09375 20.21875 
L 7.71875 20.21875 
L 7.71875 27.6875 
L 24.90625 27.6875 
L 29 44 
L 13.28125 44 
L 13.28125 51.515625 
L 30.90625 51.515625 
L 35.890625 71.78125 
z
" id="DejaVuSans-23"/>
     <path d="M 33.015625 40.375 
Q 26.375 40.375 22.484375 35.828125 
Q 18.609375 31.296875 18.609375 23.390625 
Q 18.609375 15.53125 22.484375 10.953125 
Q 26.375 6.390625 33.015625 6.390625 
Q 39.65625 6.390625 43.53125 10.953125 
Q 47.40625 15.53125 47.40625 23.390625 
Q 47.40625 31.296875 43.53125 35.828125 
Q 39.65625 40.375 33.015625 40.375 
z
M 52.59375 71.296875 
L 52.59375 62.3125 
Q 48.875 64.0625 45.09375 64.984375 
Q 41.3125 65.921875 37.59375 65.921875 
Q 27.828125 65.921875 22.671875 59.328125 
Q 17.53125 52.734375 16.796875 39.40625 
Q 19.671875 43.65625 24.015625 45.921875 
Q 28.375 48.1875 33.59375 48.1875 
Q 44.578125 48.1875 50.953125 41.515625 
Q 57.328125 34.859375 57.328125 23.390625 
Q 57.328125 12.15625 50.6875 5.359375 
Q 44.046875 -1.421875 33.015625 -1.421875 
Q 20.359375 -1.421875 13.671875 8.265625 
Q 6.984375 17.96875 6.984375 36.375 
Q 6.984375 53.65625 15.1875 63.9375 
Q 23.390625 74.21875 37.203125 74.21875 
Q 40.921875 74.21875 44.703125 73.484375 
Q 48.484375 72.75 52.59375 71.296875 
z
" id="DejaVuSans-36"/>
     <path d="M 40.578125 39.3125 
Q 47.65625 37.796875 51.625 33 
Q 55.609375 28.21875 55.609375 21.1875 
Q 55.609375 10.40625 48.1875 4.484375 
Q 40.765625 -1.421875 27.09375 -1.421875 
Q 22.515625 -1.421875 17.65625 -0.515625 
Q 12.796875 0.390625 7.625 2.203125 
L 7.625 11.71875 
Q 11.71875 9.328125 16.59375 8.109375 
Q 21.484375 6.890625 26.8125 6.890625 
Q 36.078125 6.890625 40.9375 10.546875 
Q 45.796875 14.203125 45.796875 21.1875 
Q 45.796875 27.640625 41.28125 31.265625 
Q 36.765625 34.90625 28.71875 34.90625 
L 20.21875 34.90625 
L 20.21875 43.015625 
L 29.109375 43.015625 
Q 36.375 43.015625 40.234375 45.921875 
Q 44.09375 48.828125 44.09375 54.296875 
Q 44.09375 59.90625 40.109375 62.90625 
Q 36.140625 65.921875 28.71875 65.921875 
Q 24.65625 65.921875 20.015625 65.03125 
Q 15.375 64.15625 9.8125 62.3125 
L 9.8125 71.09375 
Q 15.4375 72.65625 20.34375 73.4375 
Q 25.25 74.21875 29.59375 74.21875 
Q 40.828125 74.21875 47.359375 69.109375 
Q 53.90625 64.015625 53.90625 55.328125 
Q 53.90625 49.265625 50.4375 45.09375 
Q 46.96875 40.921875 40.578125 39.3125 
z
" id="DejaVuSans-33"/>
     <path d="M 37.796875 64.3125 
L 12.890625 25.390625 
L 37.796875 25.390625 
z
M 35.203125 72.90625 
L 47.609375 72.90625 
L 47.609375 25.390625 
L 58.015625 25.390625 
L 58.015625 17.1875 
L 47.609375 17.1875 
L 47.609375 0 
L 37.796875 0 
L 37.796875 17.1875 
L 4.890625 17.1875 
L 4.890625 26.703125 
z
" id="DejaVuSans-34"/>
     <path d="M 31.78125 34.625 
Q 24.75 34.625 20.71875 30.859375 
Q 16.703125 27.09375 16.703125 20.515625 
Q 16.703125 13.921875 20.71875 10.15625 
Q 24.75 6.390625 31.78125 6.390625 
Q 38.8125 6.390625 42.859375 10.171875 
Q 46.921875 13.96875 46.921875 20.515625 
Q 46.921875 27.09375 42.890625 30.859375 
Q 38.875 34.625 31.78125 34.625 
z
M 21.921875 38.8125 
Q 15.578125 40.375 12.03125 44.71875 
Q 8.5 49.078125 8.5 55.328125 
Q 8.5 64.0625 14.71875 69.140625 
Q 20.953125 74.21875 31.78125 74.21875 
Q 42.671875 74.21875 48.875 69.140625 
Q 55.078125 64.0625 55.078125 55.328125 
Q 55.078125 49.078125 51.53125 44.71875 
Q 48 40.375 41.703125 38.8125 
Q 48.828125 37.15625 52.796875 32.3125 
Q 56.78125 27.484375 56.78125 20.515625 
Q 56.78125 9.90625 50.3125 4.234375 
Q 43.84375 -1.421875 31.78125 -1.421875 
Q 19.734375 -1.421875 13.25 4.234375 
Q 6.78125 9.90625 6.78125 20.515625 
Q 6.78125 27.484375 10.78125 32.3125 
Q 14.796875 37.15625 21.921875 38.8125 
z
M 18.3125 54.390625 
Q 18.3125 48.734375 21.84375 45.5625 
Q 25.390625 42.390625 31.78125 42.390625 
Q 38.140625 42.390625 41.71875 45.5625 
Q 45.3125 48.734375 45.3125 54.390625 
Q 45.3125 60.0625 41.71875 63.234375 
Q 38.140625 66.40625 31.78125 66.40625 
Q 25.390625 66.40625 21.84375 63.234375 
Q 18.3125 60.0625 18.3125 54.390625 
z
" id="DejaVuSans-38"/>
     <path d="M 11.71875 12.40625 
L 22.015625 12.40625 
L 22.015625 4 
L 14.015625 -11.625 
L 7.71875 -11.625 
L 11.71875 4 
z
" id="DejaVuSans-2c"/>
     <path d="M 16.890625 72.90625 
L 62.984375 72.90625 
L 61.375 64.59375 
L 25.09375 64.59375 
L 20.90625 43.015625 
L 55.71875 43.015625 
L 54.109375 34.71875 
L 19.28125 34.71875 
L 14.203125 8.296875 
L 51.3125 8.296875 
L 49.703125 0 
L 2.6875 0 
z
" id="DejaVuSans-Oblique-45"/>
     <path d="M 16.890625 72.90625 
L 30.171875 72.90625 
L 50.296875 10.40625 
L 62.5 72.90625 
L 72.125 72.90625 
L 57.90625 0 
L 44.578125 0 
L 24.515625 62.890625 
L 12.3125 0 
L 2.6875 0 
z
" id="DejaVuSans-Oblique-4e"/>
     <path d="M 10.59375 45.40625 
L 73.1875 45.40625 
L 73.1875 37.203125 
L 10.59375 37.203125 
z
M 10.59375 25.484375 
L 73.1875 25.484375 
L 73.1875 17.1875 
L 10.59375 17.1875 
z
" id="DejaVuSans-3d"/>
     <path d="M 4.890625 31.390625 
L 31.203125 31.390625 
L 31.203125 23.390625 
L 4.890625 23.390625 
z
" id="DejaVuSans-2d"/>
     <path d="M 12.40625 8.296875 
L 28.515625 8.296875 
L 28.515625 63.921875 
L 10.984375 60.40625 
L 10.984375 69.390625 
L 28.421875 72.90625 
L 38.28125 72.90625 
L 38.28125 8.296875 
L 54.390625 8.296875 
L 54.390625 0 
L 12.40625 0 
z
" id="DejaVuSans-31"/>
     <path d="M 8.203125 72.90625 
L 55.078125 72.90625 
L 55.078125 68.703125 
L 28.609375 0 
L 18.3125 0 
L 43.21875 64.59375 
L 8.203125 64.59375 
z
" id="DejaVuSans-37"/>
     <path d="M 10.796875 72.90625 
L 49.515625 72.90625 
L 49.515625 64.59375 
L 19.828125 64.59375 
L 19.828125 46.734375 
Q 21.96875 47.46875 24.109375 47.828125 
Q 26.265625 48.1875 28.421875 48.1875 
Q 40.625 48.1875 47.75 41.5 
Q 54.890625 34.8125 54.890625 23.390625 
Q 54.890625 11.625 47.5625 5.09375 
Q 40.234375 -1.421875 26.90625 -1.421875 
Q 22.3125 -1.421875 17.546875 -0.640625 
Q 12.796875 0.140625 7.71875 1.703125 
L 7.71875 11.625 
Q 12.109375 9.234375 16.796875 8.0625 
Q 21.484375 6.890625 26.703125 6.890625 
Q 35.15625 6.890625 40.078125 11.328125 
Q 45.015625 15.765625 45.015625 23.390625 
Q 45.015625 31 40.078125 35.4375 
Q 35.15625 39.890625 26.703125 39.890625 
Q 22.75 39.890625 18.8125 39.015625 
Q 14.890625 38.140625 10.796875 36.28125 
z
" id="DejaVuSans-35"/>
     <path d="M 10.6875 12.40625 
L 21 12.40625 
L 21 0 
L 10.6875 0 
z
" id="DejaVuSans-2e"/>
     <path d="M 31.78125 66.40625 
Q 24.171875 66.40625 20.328125 58.90625 
Q 16.5 51.421875 16.5 36.375 
Q 16.5 21.390625 20.328125 13.890625 
Q 24.171875 6.390625 31.78125 6.390625 
Q 39.453125 6.390625 43.28125 13.890625 
Q 47.125 21.390625 47.125 36.375 
Q 47.125 51.421875 43.28125 58.90625 
Q 39.453125 66.40625 31.78125 66.40625 
z
M 31.78125 74.21875 
Q 44.046875 74.21875 50.515625 64.515625 
Q 56.984375 54.828125 56.984375 36.375 
Q 56.984375 17.96875 50.515625 8.265625 
Q 44.046875 -1.421875 31.78125 -1.421875 
Q 19.53125 -1.421875 13.0625 8.265625 
Q 6.59375 17.96875 6.59375 36.375 
Q 6.59375 54.828125 13.0625 64.515625 
Q 19.53125 74.21875 31.78125 74.21875 
z
" id="DejaVuSans-30"/>
     <path d="M 28.609375 0 
L 0.78125 72.90625 
L 11.078125 72.90625 
L 34.1875 11.53125 
L 57.328125 72.90625 
L 67.578125 72.90625 
L 39.796875 0 
z
" id="DejaVuSans-56"/>
     <path d="M 34.1875 63.1875 
L 14.15625 8.203125 
L 54.25 8.203125 
z
M 0.78125 0 
L 28.609375 72.90625 
L 39.796875 72.90625 
L 67.578125 0 
z
" id="DejaVuSans-394"/>
     <path d="M 9.8125 72.90625 
L 55.90625 72.90625 
L 55.90625 64.59375 
L 19.671875 64.59375 
L 19.671875 43.015625 
L 54.390625 43.015625 
L 54.390625 34.71875 
L 19.671875 34.71875 
L 19.671875 8.296875 
L 56.78125 8.296875 
L 56.78125 0 
L 9.8125 0 
z
" id="DejaVuSans-45"/>
    </defs>
    <g transform="translate(63.228 35.472)scale(0.12 -0.12)">
     <use transform="translate(0 0.78125)" xlink:href="#DejaVuSans-53"/>
     <use transform="translate(63.476562 0.78125)" xlink:href="#DejaVuSans-74"/>
     <use transform="translate(102.685547 0.78125)" xlink:href="#DejaVuSans-72"/>
     <use transform="translate(143.798828 0.78125)" xlink:href="#DejaVuSans-75"/>
     <use transform="translate(207.177734 0.78125)" xlink:href="#DejaVuSans-63"/>
     <use transform="translate(262.158203 0.78125)" xlink:href="#DejaVuSans-74"/>
     <use transform="translate(301.367188 0.78125)" xlink:href="#DejaVuSans-75"/>
     <use transform="translate(364.746094 0.78125)" xlink:href="#DejaVuSans-72"/>
     <use transform="translate(405.859375 0.78125)" xlink:href="#DejaVuSans-65"/>
     <use transform="translate(467.382812 0.78125)" xlink:href="#DejaVuSans-20"/>
     <use transform="translate(499.169922 0.78125)" xlink:href="#DejaVuSans-23"/>
     <use transform="translate(582.958984 0.78125)" xlink:href="#DejaVuSans-36"/>
     <use transform="translate(646.582031 0.78125)" xlink:href="#DejaVuSans-33"/>
     <use transform="translate(710.205078 0.78125)" xlink:href="#DejaVuSans-34"/>
     <use transform="translate(773.828125 0.78125)" xlink:href="#DejaVuSans-38"/>
     <use transform="translate(837.451172 0.78125)" xlink:href="#DejaVuSans-2c"/>
     <use transform="translate(869.238281 0.78125)" xlink:href="#DejaVuSans-20"/>
     <use transform="translate(901.025391 0.78125)" xlink:href="#DejaVuSans-Oblique-45"/>
     <use transform="translate(964.208984 -15.625)scale(0.7)" xlink:href="#DejaVuSans-Oblique-4e"/>
     <use transform="translate(1019.306641 0.78125)" xlink:href="#DejaVuSans-3d"/>
     <use transform="translate(1103.095703 0.78125)" xlink:href="#DejaVuSans-2d"/>
     <use transform="translate(1139.179688 0.78125)" xlink:href="#DejaVuSans-31"/>
     <use transform="translate(1202.802734 0.78125)" xlink:href="#DejaVuSans-37"/>
     <use transform="translate(1266.425781 0.78125)" xlink:href="#DejaVuSans-35"/>
     <use transform="translate(1330.048828 0.78125)" xlink:href="#DejaVuSans-2e"/>
     <use transform="translate(1361.835938 0.78125)" xlink:href="#DejaVuSans-33"/>
     <use transform="translate(1425.458984 0.78125)" xlink:href="#DejaVuSans-30"/>
     <use transform="translate(1489.082031 0.78125)" xlink:href="#DejaVuSans-65"/>
     <use transform="translate(1550.605469 0.78125)" xlink:href="#DejaVuSans-56"/>
     <use transform="translate(1619.013672 0.78125)" xlink:href="#DejaVuSans-2c"/>
     <use transform="translate(1650.800781 0.78125)" xlink:href="#DejaVuSans-20"/>
     <use transform="translate(1682.587891 0.78125)" xlink:href="#DejaVuSans-394"/>
     <use transform="translate(1750.996094 0.78125)" xlink:href="#DejaVuSans-45"/>
     <use transform="translate(1814.179688 0.78125)" xlink:href="#DejaVuSans-3d"/>
     <use transform="translate(1897.96875 0.78125)" xlink:href="#DejaVuSans-2d"/>
     <use transform="translate(1934.052734 0.78125)" xlink:href="#DejaVuSans-30"/>
     <use transform="translate(1997.675781 0.78125)" xlink:href="#DejaVuSans-2e"/>
     <use transform="translate(2029.462891 0.78125)" xlink:href="#DejaVuSans-31"/>
     <use transform="translate(2093.085938 0.78125)" xlink:href="#DejaVuSans-38"/>
     <use transform="translate(2156.708984 0.78125)" xlink:href="#DejaVuSans-65"/>
     <use transform="translate(2218.232422 0.78125)" xlink:href="#DejaVuSans-56"/>
    </g>
   </g>
  </g>
  <g id="axes_2">
   <g id="patch_2">
    <path clip-path="url(#p5729cbd47a)" d="M 361.152 307.584 
L 361.152 306.5445 
L 361.152 42.5115 
L 361.152 41.472 
L 374.4576 41.472 
L 374.4576 42.5115 
L 374.4576 306.5445 
L 374.4576 307.584 
z
" style="fill:#ffffff;stroke:#ffffff;stroke-linejoin:miter;stroke-width:0.01;"/>
   </g>
   <image height="265.68" id="image6034d0cff8" transform="scale(1 -1)translate(0 -265.68)" width="12.96" x="361.44" xlink:href="data:image/png;base64,
iVBORw0KGgoAAAANSUhEUgAAABIAAAFxCAYAAAB+2fgXAAAABHNCSVQICAgIfAhkiAAAAeVJREFUeJztncmNw0AQA2ckheYQNv9QLIfQ8ygsCgQ7AEI8+jAs2Puz/94F1LP2ReCsZ18bAWIeZ5XaGRBE7VnbptG+KI101FYyNSiQG2oRITXKNaX9uclOdi2XWjftVE32CZCO2ou5Bj1TcCBr/1zB9ge7Fq0Rg2NM9pvbtG+ua1QgsRYhDy0ISEiNc40BEibbSI0Coj5CBGtkpFbXJiAjNZlrwhuSOv2M1DjXbEdEciBt1JSDDQKKpmZr2rr2j0DBGpXaWEJq3bQzEPIS26r9J+Wzv9Tm8o3aajRXqc3VUXsApKNWjeZq0x4ABVNbm7lrszVigDqP5vIl2+eaT2yfRkL7g+dRcNPqjohkjaCvRVBq0H2U3LQrOJCx9kdTg4B8oxZzzTdqdYHEngjUCAPyUctN9sVRq2sTECW2UKNLd2jVtRmo1A6AhMmWaSRcR8nUdIHUuVb75zJS218EyEitro1At69pIdeSk30Lkw0FktNImGyZRhy1O5galmxd03LUsHWk06jUZiCq+5Wb1kZNN4+wJxJuWt8RAW5am2sYNZ9rYCBzZ3buPKJ2P5Yj4Toy3keyIyJbIxs1rml1byCA84gpch5RQNB7Q0qNMGq2Hy4BXdNR41yz/cEEJfZzUz96r9PoB0okjeQ8y9TkAAAAAElFTkSuQmCC" y="-41.76"/>
   <g id="matplotlib.axis_1"/>
   <g id="matplotlib.axis_2">
    <g id="ytick_1">
     <g id="line2d_1">
      <defs>
       <path d="M 0 0 
L 3.5 0 
" id="m75be3ea3a6" style="stroke:#000000;stroke-width:0.8;"/>
      </defs>
      <g>
       <use style="stroke:#000000;stroke-width:0.8;" x="374.4576" xlink:href="#m75be3ea3a6" y="292.898408"/>
      </g>
     </g>
     <g id="text_2">
      <!-- −9.0 -->
      <defs>
       <path d="M 10.59375 35.5 
L 73.1875 35.5 
L 73.1875 27.203125 
L 10.59375 27.203125 
z
" id="DejaVuSans-2212"/>
       <path d="M 10.984375 1.515625 
L 10.984375 10.5 
Q 14.703125 8.734375 18.5 7.8125 
Q 22.3125 6.890625 25.984375 6.890625 
Q 35.75 6.890625 40.890625 13.453125 
Q 46.046875 20.015625 46.78125 33.40625 
Q 43.953125 29.203125 39.59375 26.953125 
Q 35.25 24.703125 29.984375 24.703125 
Q 19.046875 24.703125 12.671875 31.3125 
Q 6.296875 37.9375 6.296875 49.421875 
Q 6.296875 60.640625 12.9375 67.421875 
Q 19.578125 74.21875 30.609375 74.21875 
Q 43.265625 74.21875 49.921875 64.515625 
Q 56.59375 54.828125 56.59375 36.375 
Q 56.59375 19.140625 48.40625 8.859375 
Q 40.234375 -1.421875 26.421875 -1.421875 
Q 22.703125 -1.421875 18.890625 -0.6875 
Q 15.09375 0.046875 10.984375 1.515625 
z
M 30.609375 32.421875 
Q 37.25 32.421875 41.125 36.953125 
Q 45.015625 41.5 45.015625 49.421875 
Q 45.015625 57.28125 41.125 61.84375 
Q 37.25 66.40625 30.609375 66.40625 
Q 23.96875 66.40625 20.09375 61.84375 
Q 16.21875 57.28125 16.21875 49.421875 
Q 16.21875 41.5 20.09375 36.953125 
Q 23.96875 32.421875 30.609375 32.421875 
z
" id="DejaVuSans-39"/>
      </defs>
      <g transform="translate(381.4576 296.697627)scale(0.1 -0.1)">
       <use xlink:href="#DejaVuSans-2212"/>
       <use x="83.789062" xlink:href="#DejaVuSans-39"/>
       <use x="147.412109" xlink:href="#DejaVuSans-2e"/>
       <use x="179.199219" xlink:href="#DejaVuSans-30"/>
      </g>
     </g>
    </g>
    <g id="ytick_2">
     <g id="line2d_2">
      <g>
       <use style="stroke:#000000;stroke-width:0.8;" x="374.4576" xlink:href="#m75be3ea3a6" y="263.294704"/>
      </g>
     </g>
     <g id="text_3">
      <!-- −8.5 -->
      <g transform="translate(381.4576 267.093923)scale(0.1 -0.1)">
       <use xlink:href="#DejaVuSans-2212"/>
       <use x="83.789062" xlink:href="#DejaVuSans-38"/>
       <use x="147.412109" xlink:href="#DejaVuSans-2e"/>
       <use x="179.199219" xlink:href="#DejaVuSans-35"/>
      </g>
     </g>
    </g>
    <g id="ytick_3">
     <g id="line2d_3">
      <g>
       <use style="stroke:#000000;stroke-width:0.8;" x="374.4576" xlink:href="#m75be3ea3a6" y="233.690999"/>
      </g>
     </g>
     <g id="text_4">
      <!-- −8.0 -->
      <g transform="translate(381.4576 237.490218)scale(0.1 -0.1)">
       <use xlink:href="#DejaVuSans-2212"/>
       <use x="83.789062" xlink:href="#DejaVuSans-38"/>
       <use x="147.412109" xlink:href="#DejaVuSans-2e"/>
       <use x="179.199219" xlink:href="#DejaVuSans-30"/>
      </g>
     </g>
    </g>
    <g id="ytick_4">
     <g id="line2d_4">
      <g>
       <use style="stroke:#000000;stroke-width:0.8;" x="374.4576" xlink:href="#m75be3ea3a6" y="204.087295"/>
      </g>
     </g>
     <g id="text_5">
      <!-- −7.5 -->
      <g transform="translate(381.4576 207.886514)scale(0.1 -0.1)">
       <use xlink:href="#DejaVuSans-2212"/>
       <use x="83.789062" xlink:href="#DejaVuSans-37"/>
       <use x="147.412109" xlink:href="#DejaVuSans-2e"/>
       <use x="179.199219" xlink:href="#DejaVuSans-35"/>
      </g>
     </g>
    </g>
    <g id="ytick_5">
     <g id="line2d_5">
      <g>
       <use style="stroke:#000000;stroke-width:0.8;" x="374.4576" xlink:href="#m75be3ea3a6" y="174.483591"/>
      </g>
     </g>
     <g id="text_6">
      <!-- −7.0 -->
      <g transform="translate(381.4576 178.282809)scale(0.1 -0.1)">
       <use xlink:href="#DejaVuSans-2212"/>
       <use x="83.789062" xlink:href="#DejaVuSans-37"/>
       <use x="147.412109" xlink:href="#DejaVuSans-2e"/>
       <use x="179.199219" xlink:href="#DejaVuSans-30"/>
      </g>
     </g>
    </g>
    <g id="ytick_6">
     <g id="line2d_6">
      <g>
       <use style="stroke:#000000;stroke-width:0.8;" x="374.4576" xlink:href="#m75be3ea3a6" y="144.879886"/>
      </g>
     </g>
     <g id="text_7">
      <!-- −6.5 -->
      <g transform="translate(381.4576 148.679105)scale(0.1 -0.1)">
       <use xlink:href="#DejaVuSans-2212"/>
       <use x="83.789062" xlink:href="#DejaVuSans-36"/>
       <use x="147.412109" xlink:href="#DejaVuSans-2e"/>
       <use x="179.199219" xlink:href="#DejaVuSans-35"/>
      </g>
     </g>
    </g>
    <g id="ytick_7">
     <g id="line2d_7">
      <g>
       <use style="stroke:#000000;stroke-width:0.8;" x="374.4576" xlink:href="#m75be3ea3a6" y="115.276182"/>
      </g>
     </g>
     <g id="text_8">
      <!-- −6.0 -->
      <g transform="translate(381.4576 119.0754)scale(0.1 -0.1)">
       <use xlink:href="#DejaVuSans-2212"/>
       <use x="83.789062" xlink:href="#DejaVuSans-36"/>
       <use x="147.412109" xlink:href="#DejaVuSans-2e"/>
       <use x="179.199219" xlink:href="#DejaVuSans-30"/>
      </g>
     </g>
    </g>
    <g id="ytick_8">
     <g id="line2d_8">
      <g>
       <use style="stroke:#000000;stroke-width:0.8;" x="374.4576" xlink:href="#m75be3ea3a6" y="85.672477"/>
      </g>
     </g>
     <g id="text_9">
      <!-- −5.5 -->
      <g transform="translate(381.4576 89.471696)scale(0.1 -0.1)">
       <use xlink:href="#DejaVuSans-2212"/>
       <use x="83.789062" xlink:href="#DejaVuSans-35"/>
       <use x="147.412109" xlink:href="#DejaVuSans-2e"/>
       <use x="179.199219" xlink:href="#DejaVuSans-35"/>
      </g>
     </g>
    </g>
    <g id="ytick_9">
     <g id="line2d_9">
      <g>
       <use style="stroke:#000000;stroke-width:0.8;" x="374.4576" xlink:href="#m75be3ea3a6" y="56.068773"/>
      </g>
     </g>
     <g id="text_10">
      <!-- −5.0 -->
      <g transform="translate(381.4576 59.867992)scale(0.1 -0.1)">
       <use xlink:href="#DejaVuSans-2212"/>
       <use x="83.789062" xlink:href="#DejaVuSans-35"/>
       <use x="147.412109" xlink:href="#DejaVuSans-2e"/>
       <use x="179.199219" xlink:href="#DejaVuSans-30"/>
      </g>
     </g>
    </g>
    <g id="text_11">
     <!-- Energy [eV] -->
     <defs>
      <path d="M 54.890625 33.015625 
L 54.890625 0 
L 45.90625 0 
L 45.90625 32.71875 
Q 45.90625 40.484375 42.875 44.328125 
Q 39.84375 48.1875 33.796875 48.1875 
Q 26.515625 48.1875 22.3125 43.546875 
Q 18.109375 38.921875 18.109375 30.90625 
L 18.109375 0 
L 9.078125 0 
L 9.078125 54.6875 
L 18.109375 54.6875 
L 18.109375 46.1875 
Q 21.34375 51.125 25.703125 53.5625 
Q 30.078125 56 35.796875 56 
Q 45.21875 56 50.046875 50.171875 
Q 54.890625 44.34375 54.890625 33.015625 
z
" id="DejaVuSans-6e"/>
      <path d="M 45.40625 27.984375 
Q 45.40625 37.75 41.375 43.109375 
Q 37.359375 48.484375 30.078125 48.484375 
Q 22.859375 48.484375 18.828125 43.109375 
Q 14.796875 37.75 14.796875 27.984375 
Q 14.796875 18.265625 18.828125 12.890625 
Q 22.859375 7.515625 30.078125 7.515625 
Q 37.359375 7.515625 41.375 12.890625 
Q 45.40625 18.265625 45.40625 27.984375 
z
M 54.390625 6.78125 
Q 54.390625 -7.171875 48.1875 -13.984375 
Q 42 -20.796875 29.203125 -20.796875 
Q 24.46875 -20.796875 20.265625 -20.09375 
Q 16.0625 -19.390625 12.109375 -17.921875 
L 12.109375 -9.1875 
Q 16.0625 -11.328125 19.921875 -12.34375 
Q 23.78125 -13.375 27.78125 -13.375 
Q 36.625 -13.375 41.015625 -8.765625 
Q 45.40625 -4.15625 45.40625 5.171875 
L 45.40625 9.625 
Q 42.625 4.78125 38.28125 2.390625 
Q 33.9375 0 27.875 0 
Q 17.828125 0 11.671875 7.65625 
Q 5.515625 15.328125 5.515625 27.984375 
Q 5.515625 40.671875 11.671875 48.328125 
Q 17.828125 56 27.875 56 
Q 33.9375 56 38.28125 53.609375 
Q 42.625 51.21875 45.40625 46.390625 
L 45.40625 54.6875 
L 54.390625 54.6875 
z
" id="DejaVuSans-67"/>
      <path d="M 32.171875 -5.078125 
Q 28.375 -14.84375 24.75 -17.8125 
Q 21.140625 -20.796875 15.09375 -20.796875 
L 7.90625 -20.796875 
L 7.90625 -13.28125 
L 13.1875 -13.28125 
Q 16.890625 -13.28125 18.9375 -11.515625 
Q 21 -9.765625 23.484375 -3.21875 
L 25.09375 0.875 
L 2.984375 54.6875 
L 12.5 54.6875 
L 29.59375 11.921875 
L 46.6875 54.6875 
L 56.203125 54.6875 
z
" id="DejaVuSans-79"/>
      <path d="M 8.59375 75.984375 
L 29.296875 75.984375 
L 29.296875 69 
L 17.578125 69 
L 17.578125 -6.203125 
L 29.296875 -6.203125 
L 29.296875 -13.1875 
L 8.59375 -13.1875 
z
" id="DejaVuSans-5b"/>
      <path d="M 30.421875 75.984375 
L 30.421875 -13.1875 
L 9.71875 -13.1875 
L 9.71875 -6.203125 
L 21.390625 -6.203125 
L 21.390625 69 
L 9.71875 69 
L 9.71875 75.984375 
z
" id="DejaVuSans-5d"/>
     </defs>
     <g transform="translate(417.33885 204.108469)rotate(-90)scale(0.1 -0.1)">
      <use xlink:href="#DejaVuSans-45"/>
      <use x="63.183594" xlink:href="#DejaVuSans-6e"/>
      <use x="126.5625" xlink:href="#DejaVuSans-65"/>
      <use x="188.085938" xlink:href="#DejaVuSans-72"/>
      <use x="229.183594" xlink:href="#DejaVuSans-67"/>
      <use x="292.660156" xlink:href="#DejaVuSans-79"/>
      <use x="351.839844" xlink:href="#DejaVuSans-20"/>
      <use x="383.626953" xlink:href="#DejaVuSans-5b"/>
      <use x="422.640625" xlink:href="#DejaVuSans-65"/>
      <use x="484.164062" xlink:href="#DejaVuSans-56"/>
      <use x="552.572266" xlink:href="#DejaVuSans-5d"/>
     </g>
    </g>
   </g>
   <g id="patch_3">
    <path d="M 361.152 307.584 
L 361.152 306.5445 
L 361.152 42.5115 
L 361.152 41.472 
L 374.4576 41.472 
L 374.4576 42.5115 
L 374.4576 306.5445 
L 374.4576 307.584 
z
" style="fill:none;stroke:#000000;stroke-linejoin:miter;stroke-width:0.8;"/>
   </g>
  </g>
 </g>
 <defs>
  <clipPath id="p60f0b220fb">
   <rect height="266.112" width="285.696" x="57.6" y="41.472"/>
  </clipPath>
  <clipPath id="p5729cbd47a">
   <rect height="266.112" width="13.3056" x="361.152" y="41.472"/>
  </clipPath>
 </defs>
</svg>
