<?xml version="1.0" encoding="utf-8" standalone="no"?>
<!DOCTYPE svg PUBLIC "-//W3C//DTD SVG 1.1//EN"
  "http://www.w3.org/Graphics/SVG/1.1/DTD/svg11.dtd">
<!-- Created with matplotlib (http://matplotlib.org/) -->
<svg height="345.6pt" version="1.1" viewBox="0 0 460.8 345.6" width="460.8pt" xmlns="http://www.w3.org/2000/svg" xmlns:xlink="http://www.w3.org/1999/xlink">
 <defs>
  <style type="text/css">
*{stroke-linecap:butt;stroke-linejoin:round;}
  </style>
 </defs>
 <g id="figure_1">
  <g id="patch_1">
   <path d="M 0 345.6 
L 460.8 345.6 
L 460.8 0 
L 0 0 
z
" style="fill:#ffffff;"/>
  </g>
  <g id="axes_1">
   <g id="CircleCollection_1">
    <path clip-path="url(#p6b7947419c)" d="M 248.410284 188.485834 
C 250.16607 188.485834 251.850181 187.788252 253.09171 186.546724 
C 254.333238 185.305195 255.03082 183.621084 255.03082 181.865298 
C 255.03082 180.109511 254.333238 178.4254 253.09171 177.183872 
C 251.850181 175.942343 250.16607 175.244762 248.410284 175.244762 
C 246.654497 175.244762 244.970387 175.942343 243.728858 177.183872 
C 242.487329 178.4254 241.789748 180.109511 241.789748 181.865298 
C 241.789748 183.621084 242.487329 185.305195 243.728858 186.546724 
C 244.970387 187.788252 246.654497 188.485834 248.410284 188.485834 
z
" style="fill:#355e8d;"/>
    <path clip-path="url(#p6b7947419c)" d="M 268.227087 82.004567 
C 269.966764 82.004567 271.635423 81.313386 272.865561 80.083249 
C 274.095698 78.853111 274.78688 77.184452 274.78688 75.444775 
C 274.78688 73.705097 274.095698 72.036438 272.865561 70.8063 
C 271.635423 69.576163 269.966764 68.884982 268.227087 68.884982 
C 266.487409 68.884982 264.81875 69.576163 263.588613 70.8063 
C 262.358475 72.036438 261.667294 73.705097 261.667294 75.444775 
C 261.667294 77.184452 262.358475 78.853111 263.588613 80.083249 
C 264.81875 81.313386 266.487409 82.004567 268.227087 82.004567 
z
" style="fill:#9dd93b;"/>
    <path clip-path="url(#p6b7947419c)" d="M 307.692653 234.169125 
C 309.444673 234.169125 311.125171 233.47304 312.364036 232.234175 
C 313.602901 230.995309 314.298986 229.314812 314.298986 227.562792 
C 314.298986 225.810772 313.602901 224.130275 312.364036 222.89141 
C 311.125171 221.652545 309.444673 220.95646 307.692653 220.95646 
C 305.940633 220.95646 304.260136 221.652545 303.021271 222.89141 
C 301.782406 224.130275 301.086321 225.810772 301.086321 227.562792 
C 301.086321 229.314812 301.782406 230.995309 303.021271 232.234175 
C 304.260136 233.47304 305.940633 234.169125 307.692653 234.169125 
z
" style="fill:#c0df25;"/>
    <path clip-path="url(#p6b7947419c)" d="M 191.788579 63.641137 
C 193.536272 63.641137 195.21262 62.946771 196.448425 61.710965 
C 197.684231 60.47516 198.378596 58.798813 198.378596 57.05112 
C 198.378596 55.303427 197.684231 53.627079 196.448425 52.391274 
C 195.21262 51.155468 193.536272 50.461103 191.788579 50.461103 
C 190.040886 50.461103 188.364539 51.155468 187.128734 52.391274 
C 185.892928 53.627079 185.198562 55.303427 185.198562 57.05112 
C 185.198562 58.798813 185.892928 60.47516 187.128734 61.710965 
C 188.364539 62.946771 190.040886 63.641137 191.788579 63.641137 
z
" style="fill:#9bd93c;"/>
    <path clip-path="url(#p6b7947419c)" d="M 197.719113 285.21051 
C 199.490865 285.21051 201.190289 284.506585 202.443107 283.253767 
C 203.695925 282.000949 204.39985 280.301525 204.39985 278.529773 
C 204.39985 276.758021 203.695925 275.058596 202.443107 273.805778 
C 201.190289 272.55296 199.490865 271.849036 197.719113 271.849036 
C 195.94736 271.849036 194.247936 272.55296 192.995118 273.805778 
C 191.7423 275.058596 191.038376 276.758021 191.038376 278.529773 
C 191.038376 280.301525 191.7423 282.000949 192.995118 283.253767 
C 194.247936 284.506585 195.94736 285.21051 197.719113 285.21051 
z
" style="fill:#2b758e;"/>
    <path clip-path="url(#p6b7947419c)" d="M 116.163323 269.571967 
C 117.937772 269.571967 119.639783 268.866971 120.894508 267.612246 
C 122.149233 266.357521 122.854229 264.65551 122.854229 262.881061 
C 122.854229 261.106612 122.149233 259.404601 120.894508 258.149876 
C 119.639783 256.895151 117.937772 256.190154 116.163323 256.190154 
C 114.388874 256.190154 112.686862 256.895151 111.432137 258.149876 
C 110.177412 259.404601 109.472416 261.106612 109.472416 262.881061 
C 109.472416 264.65551 110.177412 266.357521 111.432137 267.612246 
C 112.686862 268.866971 114.388874 269.571967 116.163323 269.571967 
z
" style="fill:#2a768e;"/>
    <path clip-path="url(#p6b7947419c)" d="M 233.219712 60.639279 
C 234.961386 60.639279 236.63196 59.947304 237.86351 58.715755 
C 239.095059 57.484206 239.787033 55.813632 239.787033 54.071958 
C 239.787033 52.330284 239.095059 50.65971 237.86351 49.42816 
C 236.63196 48.196611 234.961386 47.504636 233.219712 47.504636 
C 231.478038 47.504636 229.807464 48.196611 228.575915 49.42816 
C 227.344365 50.65971 226.652391 52.330284 226.652391 54.071958 
C 226.652391 55.813632 227.344365 57.484206 228.575915 58.715755 
C 229.807464 59.947304 231.478038 60.639279 233.219712 60.639279 
z
" style="fill:#1e9d89;"/>
    <path clip-path="url(#p6b7947419c)" d="M 329.884974 203.092817 
C 331.629654 203.092817 333.303111 202.399648 334.536786 201.165974 
C 335.770461 199.932299 336.463629 198.258841 336.463629 196.514162 
C 336.463629 194.769482 335.770461 193.096025 334.536786 191.86235 
C 333.303111 190.628675 331.629654 189.935506 329.884974 189.935506 
C 328.140294 189.935506 326.466837 190.628675 325.233162 191.86235 
C 323.999487 193.096025 323.306318 194.769482 323.306318 196.514162 
C 323.306318 198.258841 323.999487 199.932299 325.233162 201.165974 
C 326.466837 202.399648 328.140294 203.092817 329.884974 203.092817 
z
" style="fill:#1f998a;"/>
    <path clip-path="url(#p6b7947419c)" d="M 240.701694 301.663399 
C 242.47555 301.663399 244.176992 300.958639 245.431297 299.704333 
C 246.685603 298.450028 247.390363 296.748586 247.390363 294.97473 
C 247.390363 293.200875 246.685603 291.499433 245.431297 290.245128 
C 244.176992 288.990822 242.47555 288.286062 240.701694 288.286062 
C 238.927839 288.286062 237.226397 288.990822 235.972092 290.245128 
C 234.717786 291.499433 234.013026 293.200875 234.013026 294.97473 
C 234.013026 296.748586 234.717786 298.450028 235.972092 299.704333 
C 237.226397 300.958639 238.927839 301.663399 240.701694 301.663399 
z
" style="fill:#fde725;"/>
    <path clip-path="url(#p6b7947419c)" d="M 178.278748 102.702503 
C 180.033434 102.702503 181.716488 102.005359 182.957239 100.764608 
C 184.197989 99.523858 184.895133 97.840803 184.895133 96.086118 
C 184.895133 94.331432 184.197989 92.648377 182.957239 91.407627 
C 181.716488 90.166877 180.033434 89.469733 178.278748 89.469733 
C 176.524062 89.469733 174.841007 90.166877 173.600257 91.407627 
C 172.359507 92.648377 171.662363 94.331432 171.662363 96.086118 
C 171.662363 97.840803 172.359507 99.523858 173.600257 100.764608 
C 174.841007 102.005359 176.524062 102.702503 178.278748 102.702503 
z
" style="fill:#450559;"/>
    <path clip-path="url(#p6b7947419c)" d="M 156.238659 281.255752 
C 158.011489 281.255752 159.711946 280.551399 160.965525 279.29782 
C 162.219105 278.04424 162.923457 276.343783 162.923457 274.570954 
C 162.923457 272.798125 162.219105 271.097667 160.965525 269.844088 
C 159.711946 268.590508 158.011489 267.886156 156.238659 267.886156 
C 154.46583 267.886156 152.765373 268.590508 151.511793 269.844088 
C 150.258214 271.097667 149.553861 272.798125 149.553861 274.570954 
C 149.553861 276.343783 150.258214 278.04424 151.511793 279.29782 
C 152.765373 280.551399 154.46583 281.255752 156.238659 281.255752 
z
" style="fill:#287d8e;"/>
    <path clip-path="url(#p6b7947419c)" d="M 82.493956 176.903889 
C 84.259898 176.903889 85.953749 176.202272 87.202459 174.953563 
C 88.451168 173.704853 89.152784 172.011002 89.152784 170.24506 
C 89.152784 168.479119 88.451168 166.785267 87.202459 165.536558 
C 85.953749 164.287848 84.259898 163.586232 82.493956 163.586232 
C 80.728014 163.586232 79.034163 164.287848 77.785454 165.536558 
C 76.536744 166.785267 75.835128 168.479119 75.835128 170.24506 
C 75.835128 172.011002 76.536744 173.704853 77.785454 174.953563 
C 79.034163 176.202272 80.728014 176.903889 82.493956 176.903889 
z
" style="fill:#42be71;"/>
    <path clip-path="url(#p6b7947419c)" d="M 213.756789 129.352522 
C 215.511137 129.352522 217.193868 128.655512 218.43438 127.415001 
C 219.674891 126.174489 220.371901 124.491758 220.371901 122.73741 
C 220.371901 120.983062 219.674891 119.300331 218.43438 118.05982 
C 217.193868 116.819309 215.511137 116.122299 213.756789 116.122299 
C 212.002441 116.122299 210.319711 116.819309 209.079199 118.05982 
C 207.838688 119.300331 207.141678 120.983062 207.141678 122.73741 
C 207.141678 124.491758 207.838688 126.174489 209.079199 127.415001 
C 210.319711 128.655512 212.002441 129.352522 213.756789 129.352522 
z
" style="fill:#46307e;"/>
    <path clip-path="url(#p6b7947419c)" d="M 122.588388 157.268309 
C 124.352419 157.268309 126.044438 156.567452 127.291796 155.320094 
C 128.539155 154.072735 129.240012 152.380717 129.240012 150.616685 
C 129.240012 148.852654 128.539155 147.160636 127.291796 145.913277 
C 126.044438 144.665919 124.352419 143.965062 122.588388 143.965062 
C 120.824357 143.965062 119.132338 144.665919 117.88498 145.913277 
C 116.637622 147.160636 115.936765 148.852654 115.936765 150.616685 
C 115.936765 152.380717 116.637622 154.072735 117.88498 155.320094 
C 119.132338 156.567452 120.824357 157.268309 122.588388 157.268309 
z
" style="fill:#440154;"/>
    <path clip-path="url(#p6b7947419c)" d="M 71.017684 211.192284 
C 72.789705 211.192284 74.489388 210.488253 75.742396 209.235244 
C 76.995404 207.982236 77.699436 206.282554 77.699436 204.510532 
C 77.699436 202.738511 76.995404 201.038828 75.742396 199.78582 
C 74.489388 198.532812 72.789705 197.82878 71.017684 197.82878 
C 69.245663 197.82878 67.54598 198.532812 66.292972 199.78582 
C 65.039963 201.038828 64.335932 202.738511 64.335932 204.510532 
C 64.335932 206.282554 65.039963 207.982236 66.292972 209.235244 
C 67.54598 210.488253 69.245663 211.192284 71.017684 211.192284 
z
" style="fill:#287d8e;"/>
    <path clip-path="url(#p6b7947419c)" d="M 262.383383 227.669325 
C 264.141293 227.669325 265.82744 226.9709 267.07047 225.72787 
C 268.3135 224.48484 269.011925 222.798693 269.011925 221.040783 
C 269.011925 219.282873 268.3135 217.596726 267.07047 216.353696 
C 265.82744 215.110666 264.141293 214.412241 262.383383 214.412241 
C 260.625473 214.412241 258.939326 215.110666 257.696296 216.353696 
C 256.453266 217.596726 255.754841 219.282873 255.754841 221.040783 
C 255.754841 222.798693 256.453266 224.48484 257.696296 225.72787 
C 258.939326 226.9709 260.625473 227.669325 262.383383 227.669325 
z
" style="fill:#471164;"/>
    <path clip-path="url(#p6b7947419c)" d="M 324.66791 166.063186 
C 326.41053 166.063186 328.082011 165.370836 329.314229 164.138618 
C 330.546447 162.9064 331.238797 161.234919 331.238797 159.4923 
C 331.238797 157.74968 330.546447 156.078199 329.314229 154.845981 
C 328.082011 153.613763 326.41053 152.921413 324.66791 152.921413 
C 322.925291 152.921413 321.25381 153.613763 320.021592 154.845981 
C 318.789374 156.078199 318.097024 157.74968 318.097024 159.4923 
C 318.097024 161.234919 318.789374 162.9064 320.021592 164.138618 
C 321.25381 165.370836 322.925291 166.063186 324.66791 166.063186 
z
" style="fill:#9dd93b;"/>
    <path clip-path="url(#p6b7947419c)" d="M 258.571833 120.737939 
C 260.318361 120.737939 261.99359 120.044036 263.228572 118.809055 
C 264.463553 117.574074 265.157456 115.898844 265.157456 114.152317 
C 265.157456 112.405789 264.463553 110.73056 263.228572 109.495579 
C 261.99359 108.260597 260.318361 107.566694 258.571833 107.566694 
C 256.825306 107.566694 255.150077 108.260597 253.915095 109.495579 
C 252.680114 110.73056 251.986211 112.405789 251.986211 114.152317 
C 251.986211 115.898844 252.680114 117.574074 253.915095 118.809055 
C 255.150077 120.044036 256.825306 120.737939 258.571833 120.737939 
z
" style="fill:#482374;"/>
    <path clip-path="url(#p6b7947419c)" d="M 83.732021 247.485339 
C 85.503419 247.485339 87.202504 246.781555 88.455072 245.528988 
C 89.707639 244.27642 90.411423 242.577335 90.411423 240.805937 
C 90.411423 239.034538 89.707639 237.335453 88.455072 236.082886 
C 87.202504 234.830318 85.503419 234.126534 83.732021 234.126534 
C 81.960622 234.126534 80.261538 234.830318 79.00897 236.082886 
C 77.756402 237.335453 77.052618 239.034538 77.052618 240.805937 
C 77.052618 242.577335 77.756402 244.27642 79.00897 245.528988 
C 80.261538 246.781555 81.960622 247.485339 83.732021 247.485339 
z
" style="fill:#20938c;"/>
    <path clip-path="url(#p6b7947419c)" d="M 162.501619 176.302772 
C 164.265927 176.302772 165.958211 175.601805 167.205765 174.354251 
C 168.453319 173.106697 169.154286 171.414413 169.154286 169.650105 
C 169.154286 167.885797 168.453319 166.193512 167.205765 164.945958 
C 165.958211 163.698404 164.265927 162.997437 162.501619 162.997437 
C 160.737311 162.997437 159.045027 163.698404 157.797472 164.945958 
C 156.549918 166.193512 155.848951 167.885797 155.848951 169.650105 
C 155.848951 171.414413 156.549918 173.106697 157.797472 174.354251 
C 159.045027 175.601805 160.737311 176.302772 162.501619 176.302772 
z
" style="fill:#9bd93c;"/>
    <path clip-path="url(#p6b7947419c)" d="M 138.535599 121.110895 
C 140.295128 121.110895 141.982827 120.411827 143.227002 119.167652 
C 144.471177 117.923477 145.170245 116.235778 145.170245 114.476249 
C 145.170245 112.71672 144.471177 111.02902 143.227002 109.784846 
C 141.982827 108.540671 140.295128 107.841603 138.535599 107.841603 
C 136.77607 107.841603 135.08837 108.540671 133.844196 109.784846 
C 132.600021 111.02902 131.900953 112.71672 131.900953 114.476249 
C 131.900953 116.235778 132.600021 117.923477 133.844196 119.167652 
C 135.08837 120.411827 136.77607 121.110895 138.535599 121.110895 
z
" style="fill:#b5de2b;"/>
    <path clip-path="url(#p6b7947419c)" d="M 280.324223 157.79758 
C 282.071915 157.79758 283.748261 157.103215 284.984066 155.86741 
C 286.219871 154.631605 286.914236 152.955259 286.914236 151.207567 
C 286.914236 149.459875 286.219871 147.783529 284.984066 146.547724 
C 283.748261 145.311919 282.071915 144.617554 280.324223 144.617554 
C 278.576531 144.617554 276.900185 145.311919 275.66438 146.547724 
C 274.428575 147.783529 273.73421 149.459875 273.73421 151.207567 
C 273.73421 152.955259 274.428575 154.631605 275.66438 155.86741 
C 276.900185 157.103215 278.576531 157.79758 280.324223 157.79758 
z
" style="fill:#472e7c;"/>
    <path clip-path="url(#p6b7947419c)" d="M 239.466413 263.228999 
C 241.232777 263.228999 242.927033 262.527215 244.176041 261.278207 
C 245.425049 260.029199 246.126833 258.334943 246.126833 256.568579 
C 246.126833 254.802216 245.425049 253.10796 244.176041 251.858952 
C 242.927033 250.609944 241.232777 249.90816 239.466413 249.90816 
C 237.70005 249.90816 236.005794 250.609944 234.756786 251.858952 
C 233.507778 253.10796 232.805994 254.802216 232.805994 256.568579 
C 232.805994 258.334943 233.507778 260.029199 234.756786 261.278207 
C 236.005794 262.527215 237.70005 263.228999 239.466413 263.228999 
z
" style="fill:#1f948c;"/>
    <path clip-path="url(#p6b7947419c)" d="M 205.741336 169.474609 
C 207.500943 169.474609 209.188717 168.77551 210.432947 167.53128 
C 211.677177 166.28705 212.376276 164.599276 212.376276 162.839669 
C 212.376276 161.080062 211.677177 159.392288 210.432947 158.148058 
C 209.188717 156.903828 207.500943 156.204729 205.741336 156.204729 
C 203.981729 156.204729 202.293955 156.903828 201.049725 158.148058 
C 199.805495 159.392288 199.106396 161.080062 199.106396 162.839669 
C 199.106396 164.599276 199.805495 166.28705 201.049725 167.53128 
C 202.293955 168.77551 203.981729 169.474609 205.741336 169.474609 
z
" style="fill:#472e7c;"/>
   </g>
   <g id="text_1">
    <!-- Structure #1762, $E_N$=-180.75eV, ΔE=-0.01eV -->
    <defs>
     <path d="M 53.515625 70.515625 
L 53.515625 60.890625 
Q 47.90625 63.578125 42.921875 64.890625 
Q 37.9375 66.21875 33.296875 66.21875 
Q 25.25 66.21875 20.875 63.09375 
Q 16.5 59.96875 16.5 54.203125 
Q 16.5 49.359375 19.40625 46.890625 
Q 22.3125 44.4375 30.421875 42.921875 
L 36.375 41.703125 
Q 47.40625 39.59375 52.65625 34.296875 
Q 57.90625 29 57.90625 20.125 
Q 57.90625 9.515625 50.796875 4.046875 
Q 43.703125 -1.421875 29.984375 -1.421875 
Q 24.8125 -1.421875 18.96875 -0.25 
Q 13.140625 0.921875 6.890625 3.21875 
L 6.890625 13.375 
Q 12.890625 10.015625 18.65625 8.296875 
Q 24.421875 6.59375 29.984375 6.59375 
Q 38.421875 6.59375 43.015625 9.90625 
Q 47.609375 13.234375 47.609375 19.390625 
Q 47.609375 24.75 44.3125 27.78125 
Q 41.015625 30.8125 33.5 32.328125 
L 27.484375 33.5 
Q 16.453125 35.6875 11.515625 40.375 
Q 6.59375 45.0625 6.59375 53.421875 
Q 6.59375 63.09375 13.40625 68.65625 
Q 20.21875 74.21875 32.171875 74.21875 
Q 37.3125 74.21875 42.625 73.28125 
Q 47.953125 72.359375 53.515625 70.515625 
z
" id="DejaVuSans-53"/>
     <path d="M 18.3125 70.21875 
L 18.3125 54.6875 
L 36.8125 54.6875 
L 36.8125 47.703125 
L 18.3125 47.703125 
L 18.3125 18.015625 
Q 18.3125 11.328125 20.140625 9.421875 
Q 21.96875 7.515625 27.59375 7.515625 
L 36.8125 7.515625 
L 36.8125 0 
L 27.59375 0 
Q 17.1875 0 13.234375 3.875 
Q 9.28125 7.765625 9.28125 18.015625 
L 9.28125 47.703125 
L 2.6875 47.703125 
L 2.6875 54.6875 
L 9.28125 54.6875 
L 9.28125 70.21875 
z
" id="DejaVuSans-74"/>
     <path d="M 41.109375 46.296875 
Q 39.59375 47.171875 37.8125 47.578125 
Q 36.03125 48 33.890625 48 
Q 26.265625 48 22.1875 43.046875 
Q 18.109375 38.09375 18.109375 28.8125 
L 18.109375 0 
L 9.078125 0 
L 9.078125 54.6875 
L 18.109375 54.6875 
L 18.109375 46.1875 
Q 20.953125 51.171875 25.484375 53.578125 
Q 30.03125 56 36.53125 56 
Q 37.453125 56 38.578125 55.875 
Q 39.703125 55.765625 41.0625 55.515625 
z
" id="DejaVuSans-72"/>
     <path d="M 8.5 21.578125 
L 8.5 54.6875 
L 17.484375 54.6875 
L 17.484375 21.921875 
Q 17.484375 14.15625 20.5 10.265625 
Q 23.53125 6.390625 29.59375 6.390625 
Q 36.859375 6.390625 41.078125 11.03125 
Q 45.3125 15.671875 45.3125 23.6875 
L 45.3125 54.6875 
L 54.296875 54.6875 
L 54.296875 0 
L 45.3125 0 
L 45.3125 8.40625 
Q 42.046875 3.421875 37.71875 1 
Q 33.40625 -1.421875 27.6875 -1.421875 
Q 18.265625 -1.421875 13.375 4.4375 
Q 8.5 10.296875 8.5 21.578125 
z
M 31.109375 56 
z
" id="DejaVuSans-75"/>
     <path d="M 48.78125 52.59375 
L 48.78125 44.1875 
Q 44.96875 46.296875 41.140625 47.34375 
Q 37.3125 48.390625 33.40625 48.390625 
Q 24.65625 48.390625 19.8125 42.84375 
Q 14.984375 37.3125 14.984375 27.296875 
Q 14.984375 17.28125 19.8125 11.734375 
Q 24.65625 6.203125 33.40625 6.203125 
Q 37.3125 6.203125 41.140625 7.25 
Q 44.96875 8.296875 48.78125 10.40625 
L 48.78125 2.09375 
Q 45.015625 0.34375 40.984375 -0.53125 
Q 36.96875 -1.421875 32.421875 -1.421875 
Q 20.0625 -1.421875 12.78125 6.34375 
Q 5.515625 14.109375 5.515625 27.296875 
Q 5.515625 40.671875 12.859375 48.328125 
Q 20.21875 56 33.015625 56 
Q 37.15625 56 41.109375 55.140625 
Q 45.0625 54.296875 48.78125 52.59375 
z
" id="DejaVuSans-63"/>
     <path d="M 56.203125 29.59375 
L 56.203125 25.203125 
L 14.890625 25.203125 
Q 15.484375 15.921875 20.484375 11.0625 
Q 25.484375 6.203125 34.421875 6.203125 
Q 39.59375 6.203125 44.453125 7.46875 
Q 49.3125 8.734375 54.109375 11.28125 
L 54.109375 2.78125 
Q 49.265625 0.734375 44.1875 -0.34375 
Q 39.109375 -1.421875 33.890625 -1.421875 
Q 20.796875 -1.421875 13.15625 6.1875 
Q 5.515625 13.8125 5.515625 26.8125 
Q 5.515625 40.234375 12.765625 48.109375 
Q 20.015625 56 32.328125 56 
Q 43.359375 56 49.78125 48.890625 
Q 56.203125 41.796875 56.203125 29.59375 
z
M 47.21875 32.234375 
Q 47.125 39.59375 43.09375 43.984375 
Q 39.0625 48.390625 32.421875 48.390625 
Q 24.90625 48.390625 20.390625 44.140625 
Q 15.875 39.890625 15.1875 32.171875 
z
" id="DejaVuSans-65"/>
     <path id="DejaVuSans-20"/>
     <path d="M 51.125 44 
L 36.921875 44 
L 32.8125 27.6875 
L 47.125 27.6875 
z
M 43.796875 71.78125 
L 38.71875 51.515625 
L 52.984375 51.515625 
L 58.109375 71.78125 
L 65.921875 71.78125 
L 60.890625 51.515625 
L 76.125 51.515625 
L 76.125 44 
L 58.984375 44 
L 54.984375 27.6875 
L 70.515625 27.6875 
L 70.515625 20.21875 
L 53.078125 20.21875 
L 48 0 
L 40.1875 0 
L 45.21875 20.21875 
L 30.90625 20.21875 
L 25.875 0 
L 18.015625 0 
L 23.09375 20.21875 
L 7.71875 20.21875 
L 7.71875 27.6875 
L 24.90625 27.6875 
L 29 44 
L 13.28125 44 
L 13.28125 51.515625 
L 30.90625 51.515625 
L 35.890625 71.78125 
z
" id="DejaVuSans-23"/>
     <path d="M 12.40625 8.296875 
L 28.515625 8.296875 
L 28.515625 63.921875 
L 10.984375 60.40625 
L 10.984375 69.390625 
L 28.421875 72.90625 
L 38.28125 72.90625 
L 38.28125 8.296875 
L 54.390625 8.296875 
L 54.390625 0 
L 12.40625 0 
z
" id="DejaVuSans-31"/>
     <path d="M 8.203125 72.90625 
L 55.078125 72.90625 
L 55.078125 68.703125 
L 28.609375 0 
L 18.3125 0 
L 43.21875 64.59375 
L 8.203125 64.59375 
z
" id="DejaVuSans-37"/>
     <path d="M 33.015625 40.375 
Q 26.375 40.375 22.484375 35.828125 
Q 18.609375 31.296875 18.609375 23.390625 
Q 18.609375 15.53125 22.484375 10.953125 
Q 26.375 6.390625 33.015625 6.390625 
Q 39.65625 6.390625 43.53125 10.953125 
Q 47.40625 15.53125 47.40625 23.390625 
Q 47.40625 31.296875 43.53125 35.828125 
Q 39.65625 40.375 33.015625 40.375 
z
M 52.59375 71.296875 
L 52.59375 62.3125 
Q 48.875 64.0625 45.09375 64.984375 
Q 41.3125 65.921875 37.59375 65.921875 
Q 27.828125 65.921875 22.671875 59.328125 
Q 17.53125 52.734375 16.796875 39.40625 
Q 19.671875 43.65625 24.015625 45.921875 
Q 28.375 48.1875 33.59375 48.1875 
Q 44.578125 48.1875 50.953125 41.515625 
Q 57.328125 34.859375 57.328125 23.390625 
Q 57.328125 12.15625 50.6875 5.359375 
Q 44.046875 -1.421875 33.015625 -1.421875 
Q 20.359375 -1.421875 13.671875 8.265625 
Q 6.984375 17.96875 6.984375 36.375 
Q 6.984375 53.65625 15.1875 63.9375 
Q 23.390625 74.21875 37.203125 74.21875 
Q 40.921875 74.21875 44.703125 73.484375 
Q 48.484375 72.75 52.59375 71.296875 
z
" id="DejaVuSans-36"/>
     <path d="M 19.1875 8.296875 
L 53.609375 8.296875 
L 53.609375 0 
L 7.328125 0 
L 7.328125 8.296875 
Q 12.9375 14.109375 22.625 23.890625 
Q 32.328125 33.6875 34.8125 36.53125 
Q 39.546875 41.84375 41.421875 45.53125 
Q 43.3125 49.21875 43.3125 52.78125 
Q 43.3125 58.59375 39.234375 62.25 
Q 35.15625 65.921875 28.609375 65.921875 
Q 23.96875 65.921875 18.8125 64.3125 
Q 13.671875 62.703125 7.8125 59.421875 
L 7.8125 69.390625 
Q 13.765625 71.78125 18.9375 73 
Q 24.125 74.21875 28.421875 74.21875 
Q 39.75 74.21875 46.484375 68.546875 
Q 53.21875 62.890625 53.21875 53.421875 
Q 53.21875 48.921875 51.53125 44.890625 
Q 49.859375 40.875 45.40625 35.40625 
Q 44.1875 33.984375 37.640625 27.21875 
Q 31.109375 20.453125 19.1875 8.296875 
z
" id="DejaVuSans-32"/>
     <path d="M 11.71875 12.40625 
L 22.015625 12.40625 
L 22.015625 4 
L 14.015625 -11.625 
L 7.71875 -11.625 
L 11.71875 4 
z
" id="DejaVuSans-2c"/>
     <path d="M 16.890625 72.90625 
L 62.984375 72.90625 
L 61.375 64.59375 
L 25.09375 64.59375 
L 20.90625 43.015625 
L 55.71875 43.015625 
L 54.109375 34.71875 
L 19.28125 34.71875 
L 14.203125 8.296875 
L 51.3125 8.296875 
L 49.703125 0 
L 2.6875 0 
z
" id="DejaVuSans-Oblique-45"/>
     <path d="M 16.890625 72.90625 
L 30.171875 72.90625 
L 50.296875 10.40625 
L 62.5 72.90625 
L 72.125 72.90625 
L 57.90625 0 
L 44.578125 0 
L 24.515625 62.890625 
L 12.3125 0 
L 2.6875 0 
z
" id="DejaVuSans-Oblique-4e"/>
     <path d="M 10.59375 45.40625 
L 73.1875 45.40625 
L 73.1875 37.203125 
L 10.59375 37.203125 
z
M 10.59375 25.484375 
L 73.1875 25.484375 
L 73.1875 17.1875 
L 10.59375 17.1875 
z
" id="DejaVuSans-3d"/>
     <path d="M 4.890625 31.390625 
L 31.203125 31.390625 
L 31.203125 23.390625 
L 4.890625 23.390625 
z
" id="DejaVuSans-2d"/>
     <path d="M 31.78125 34.625 
Q 24.75 34.625 20.71875 30.859375 
Q 16.703125 27.09375 16.703125 20.515625 
Q 16.703125 13.921875 20.71875 10.15625 
Q 24.75 6.390625 31.78125 6.390625 
Q 38.8125 6.390625 42.859375 10.171875 
Q 46.921875 13.96875 46.921875 20.515625 
Q 46.921875 27.09375 42.890625 30.859375 
Q 38.875 34.625 31.78125 34.625 
z
M 21.921875 38.8125 
Q 15.578125 40.375 12.03125 44.71875 
Q 8.5 49.078125 8.5 55.328125 
Q 8.5 64.0625 14.71875 69.140625 
Q 20.953125 74.21875 31.78125 74.21875 
Q 42.671875 74.21875 48.875 69.140625 
Q 55.078125 64.0625 55.078125 55.328125 
Q 55.078125 49.078125 51.53125 44.71875 
Q 48 40.375 41.703125 38.8125 
Q 48.828125 37.15625 52.796875 32.3125 
Q 56.78125 27.484375 56.78125 20.515625 
Q 56.78125 9.90625 50.3125 4.234375 
Q 43.84375 -1.421875 31.78125 -1.421875 
Q 19.734375 -1.421875 13.25 4.234375 
Q 6.78125 9.90625 6.78125 20.515625 
Q 6.78125 27.484375 10.78125 32.3125 
Q 14.796875 37.15625 21.921875 38.8125 
z
M 18.3125 54.390625 
Q 18.3125 48.734375 21.84375 45.5625 
Q 25.390625 42.390625 31.78125 42.390625 
Q 38.140625 42.390625 41.71875 45.5625 
Q 45.3125 48.734375 45.3125 54.390625 
Q 45.3125 60.0625 41.71875 63.234375 
Q 38.140625 66.40625 31.78125 66.40625 
Q 25.390625 66.40625 21.84375 63.234375 
Q 18.3125 60.0625 18.3125 54.390625 
z
" id="DejaVuSans-38"/>
     <path d="M 31.78125 66.40625 
Q 24.171875 66.40625 20.328125 58.90625 
Q 16.5 51.421875 16.5 36.375 
Q 16.5 21.390625 20.328125 13.890625 
Q 24.171875 6.390625 31.78125 6.390625 
Q 39.453125 6.390625 43.28125 13.890625 
Q 47.125 21.390625 47.125 36.375 
Q 47.125 51.421875 43.28125 58.90625 
Q 39.453125 66.40625 31.78125 66.40625 
z
M 31.78125 74.21875 
Q 44.046875 74.21875 50.515625 64.515625 
Q 56.984375 54.828125 56.984375 36.375 
Q 56.984375 17.96875 50.515625 8.265625 
Q 44.046875 -1.421875 31.78125 -1.421875 
Q 19.53125 -1.421875 13.0625 8.265625 
Q 6.59375 17.96875 6.59375 36.375 
Q 6.59375 54.828125 13.0625 64.515625 
Q 19.53125 74.21875 31.78125 74.21875 
z
" id="DejaVuSans-30"/>
     <path d="M 10.6875 12.40625 
L 21 12.40625 
L 21 0 
L 10.6875 0 
z
" id="DejaVuSans-2e"/>
     <path d="M 10.796875 72.90625 
L 49.515625 72.90625 
L 49.515625 64.59375 
L 19.828125 64.59375 
L 19.828125 46.734375 
Q 21.96875 47.46875 24.109375 47.828125 
Q 26.265625 48.1875 28.421875 48.1875 
Q 40.625 48.1875 47.75 41.5 
Q 54.890625 34.8125 54.890625 23.390625 
Q 54.890625 11.625 47.5625 5.09375 
Q 40.234375 -1.421875 26.90625 -1.421875 
Q 22.3125 -1.421875 17.546875 -0.640625 
Q 12.796875 0.140625 7.71875 1.703125 
L 7.71875 11.625 
Q 12.109375 9.234375 16.796875 8.0625 
Q 21.484375 6.890625 26.703125 6.890625 
Q 35.15625 6.890625 40.078125 11.328125 
Q 45.015625 15.765625 45.015625 23.390625 
Q 45.015625 31 40.078125 35.4375 
Q 35.15625 39.890625 26.703125 39.890625 
Q 22.75 39.890625 18.8125 39.015625 
Q 14.890625 38.140625 10.796875 36.28125 
z
" id="DejaVuSans-35"/>
     <path d="M 28.609375 0 
L 0.78125 72.90625 
L 11.078125 72.90625 
L 34.1875 11.53125 
L 57.328125 72.90625 
L 67.578125 72.90625 
L 39.796875 0 
z
" id="DejaVuSans-56"/>
     <path d="M 34.1875 63.1875 
L 14.15625 8.203125 
L 54.25 8.203125 
z
M 0.78125 0 
L 28.609375 72.90625 
L 39.796875 72.90625 
L 67.578125 0 
z
" id="DejaVuSans-394"/>
     <path d="M 9.8125 72.90625 
L 55.90625 72.90625 
L 55.90625 64.59375 
L 19.671875 64.59375 
L 19.671875 43.015625 
L 54.390625 43.015625 
L 54.390625 34.71875 
L 19.671875 34.71875 
L 19.671875 8.296875 
L 56.78125 8.296875 
L 56.78125 0 
L 9.8125 0 
z
" id="DejaVuSans-45"/>
    </defs>
    <g transform="translate(63.228 35.472)scale(0.12 -0.12)">
     <use transform="translate(0 0.78125)" xlink:href="#DejaVuSans-53"/>
     <use transform="translate(63.476562 0.78125)" xlink:href="#DejaVuSans-74"/>
     <use transform="translate(102.685547 0.78125)" xlink:href="#DejaVuSans-72"/>
     <use transform="translate(143.798828 0.78125)" xlink:href="#DejaVuSans-75"/>
     <use transform="translate(207.177734 0.78125)" xlink:href="#DejaVuSans-63"/>
     <use transform="translate(262.158203 0.78125)" xlink:href="#DejaVuSans-74"/>
     <use transform="translate(301.367188 0.78125)" xlink:href="#DejaVuSans-75"/>
     <use transform="translate(364.746094 0.78125)" xlink:href="#DejaVuSans-72"/>
     <use transform="translate(405.859375 0.78125)" xlink:href="#DejaVuSans-65"/>
     <use transform="translate(467.382812 0.78125)" xlink:href="#DejaVuSans-20"/>
     <use transform="translate(499.169922 0.78125)" xlink:href="#DejaVuSans-23"/>
     <use transform="translate(582.958984 0.78125)" xlink:href="#DejaVuSans-31"/>
     <use transform="translate(646.582031 0.78125)" xlink:href="#DejaVuSans-37"/>
     <use transform="translate(710.205078 0.78125)" xlink:href="#DejaVuSans-36"/>
     <use transform="translate(773.828125 0.78125)" xlink:href="#DejaVuSans-32"/>
     <use transform="translate(837.451172 0.78125)" xlink:href="#DejaVuSans-2c"/>
     <use transform="translate(869.238281 0.78125)" xlink:href="#DejaVuSans-20"/>
     <use transform="translate(901.025391 0.78125)" xlink:href="#DejaVuSans-Oblique-45"/>
     <use transform="translate(964.208984 -15.625)scale(0.7)" xlink:href="#DejaVuSans-Oblique-4e"/>
     <use transform="translate(1019.306641 0.78125)" xlink:href="#DejaVuSans-3d"/>
     <use transform="translate(1103.095703 0.78125)" xlink:href="#DejaVuSans-2d"/>
     <use transform="translate(1139.179688 0.78125)" xlink:href="#DejaVuSans-31"/>
     <use transform="translate(1202.802734 0.78125)" xlink:href="#DejaVuSans-38"/>
     <use transform="translate(1266.425781 0.78125)" xlink:href="#DejaVuSans-30"/>
     <use transform="translate(1330.048828 0.78125)" xlink:href="#DejaVuSans-2e"/>
     <use transform="translate(1361.726562 0.78125)" xlink:href="#DejaVuSans-37"/>
     <use transform="translate(1425.349609 0.78125)" xlink:href="#DejaVuSans-35"/>
     <use transform="translate(1488.972656 0.78125)" xlink:href="#DejaVuSans-65"/>
     <use transform="translate(1550.496094 0.78125)" xlink:href="#DejaVuSans-56"/>
     <use transform="translate(1618.904297 0.78125)" xlink:href="#DejaVuSans-2c"/>
     <use transform="translate(1650.691406 0.78125)" xlink:href="#DejaVuSans-20"/>
     <use transform="translate(1682.478516 0.78125)" xlink:href="#DejaVuSans-394"/>
     <use transform="translate(1750.886719 0.78125)" xlink:href="#DejaVuSans-45"/>
     <use transform="translate(1814.070312 0.78125)" xlink:href="#DejaVuSans-3d"/>
     <use transform="translate(1897.859375 0.78125)" xlink:href="#DejaVuSans-2d"/>
     <use transform="translate(1933.943359 0.78125)" xlink:href="#DejaVuSans-30"/>
     <use transform="translate(1997.566406 0.78125)" xlink:href="#DejaVuSans-2e"/>
     <use transform="translate(2029.353516 0.78125)" xlink:href="#DejaVuSans-30"/>
     <use transform="translate(2092.976562 0.78125)" xlink:href="#DejaVuSans-31"/>
     <use transform="translate(2156.599609 0.78125)" xlink:href="#DejaVuSans-65"/>
     <use transform="translate(2218.123047 0.78125)" xlink:href="#DejaVuSans-56"/>
    </g>
   </g>
  </g>
  <g id="axes_2">
   <g id="patch_2">
    <path clip-path="url(#p2ec9581826)" d="M 361.152 307.584 
L 361.152 306.5445 
L 361.152 42.5115 
L 361.152 41.472 
L 374.4576 41.472 
L 374.4576 42.5115 
L 374.4576 306.5445 
L 374.4576 307.584 
z
" style="fill:#ffffff;stroke:#ffffff;stroke-linejoin:miter;stroke-width:0.01;"/>
   </g>
   <image height="265.68" id="image125437fcea" transform="scale(1 -1)translate(0 -265.68)" width="12.96" x="361.44" xlink:href="data:image/png;base64,
iVBORw0KGgoAAAANSUhEUgAAABIAAAFxCAYAAAB+2fgXAAAABHNCSVQICAgIfAhkiAAAAeVJREFUeJztncmNw0AQA2ckheYQNv9QLIfQ8ygsCgQ7AEI8+jAs2Puz/94F1LP2ReCsZ18bAWIeZ5XaGRBE7VnbptG+KI101FYyNSiQG2oRITXKNaX9uclOdi2XWjftVE32CZCO2ou5Bj1TcCBr/1zB9ge7Fq0Rg2NM9pvbtG+ua1QgsRYhDy0ISEiNc40BEibbSI0Coj5CBGtkpFbXJiAjNZlrwhuSOv2M1DjXbEdEciBt1JSDDQKKpmZr2rr2j0DBGpXaWEJq3bQzEPIS26r9J+Wzv9Tm8o3aajRXqc3VUXsApKNWjeZq0x4ABVNbm7lrszVigDqP5vIl2+eaT2yfRkL7g+dRcNPqjohkjaCvRVBq0H2U3LQrOJCx9kdTg4B8oxZzzTdqdYHEngjUCAPyUctN9sVRq2sTECW2UKNLd2jVtRmo1A6AhMmWaSRcR8nUdIHUuVb75zJS218EyEitro1At69pIdeSk30Lkw0FktNImGyZRhy1O5galmxd03LUsHWk06jUZiCq+5Wb1kZNN4+wJxJuWt8RAW5am2sYNZ9rYCBzZ3buPKJ2P5Yj4Toy3keyIyJbIxs1rml1byCA84gpch5RQNB7Q0qNMGq2Hy4BXdNR41yz/cEEJfZzUz96r9PoB0okjeQ8y9TkAAAAAElFTkSuQmCC" y="-41.76"/>
   <g id="matplotlib.axis_1"/>
   <g id="matplotlib.axis_2">
    <g id="ytick_1">
     <g id="line2d_1">
      <defs>
       <path d="M 0 0 
L 3.5 0 
" id="mc23f460f03" style="stroke:#000000;stroke-width:0.8;"/>
      </defs>
      <g>
       <use style="stroke:#000000;stroke-width:0.8;" x="374.4576" xlink:href="#mc23f460f03" y="270.424925"/>
      </g>
     </g>
     <g id="text_2">
      <!-- −8.5 -->
      <defs>
       <path d="M 10.59375 35.5 
L 73.1875 35.5 
L 73.1875 27.203125 
L 10.59375 27.203125 
z
" id="DejaVuSans-2212"/>
      </defs>
      <g transform="translate(381.4576 274.224144)scale(0.1 -0.1)">
       <use xlink:href="#DejaVuSans-2212"/>
       <use x="83.789062" xlink:href="#DejaVuSans-38"/>
       <use x="147.412109" xlink:href="#DejaVuSans-2e"/>
       <use x="179.199219" xlink:href="#DejaVuSans-35"/>
      </g>
     </g>
    </g>
    <g id="ytick_2">
     <g id="line2d_2">
      <g>
       <use style="stroke:#000000;stroke-width:0.8;" x="374.4576" xlink:href="#mc23f460f03" y="223.855124"/>
      </g>
     </g>
     <g id="text_3">
      <!-- −8.0 -->
      <g transform="translate(381.4576 227.654343)scale(0.1 -0.1)">
       <use xlink:href="#DejaVuSans-2212"/>
       <use x="83.789062" xlink:href="#DejaVuSans-38"/>
       <use x="147.412109" xlink:href="#DejaVuSans-2e"/>
       <use x="179.199219" xlink:href="#DejaVuSans-30"/>
      </g>
     </g>
    </g>
    <g id="ytick_3">
     <g id="line2d_3">
      <g>
       <use style="stroke:#000000;stroke-width:0.8;" x="374.4576" xlink:href="#mc23f460f03" y="177.285323"/>
      </g>
     </g>
     <g id="text_4">
      <!-- −7.5 -->
      <g transform="translate(381.4576 181.084542)scale(0.1 -0.1)">
       <use xlink:href="#DejaVuSans-2212"/>
       <use x="83.789062" xlink:href="#DejaVuSans-37"/>
       <use x="147.412109" xlink:href="#DejaVuSans-2e"/>
       <use x="179.199219" xlink:href="#DejaVuSans-35"/>
      </g>
     </g>
    </g>
    <g id="ytick_4">
     <g id="line2d_4">
      <g>
       <use style="stroke:#000000;stroke-width:0.8;" x="374.4576" xlink:href="#mc23f460f03" y="130.715522"/>
      </g>
     </g>
     <g id="text_5">
      <!-- −7.0 -->
      <g transform="translate(381.4576 134.514741)scale(0.1 -0.1)">
       <use xlink:href="#DejaVuSans-2212"/>
       <use x="83.789062" xlink:href="#DejaVuSans-37"/>
       <use x="147.412109" xlink:href="#DejaVuSans-2e"/>
       <use x="179.199219" xlink:href="#DejaVuSans-30"/>
      </g>
     </g>
    </g>
    <g id="ytick_5">
     <g id="line2d_5">
      <g>
       <use style="stroke:#000000;stroke-width:0.8;" x="374.4576" xlink:href="#mc23f460f03" y="84.145721"/>
      </g>
     </g>
     <g id="text_6">
      <!-- −6.5 -->
      <g transform="translate(381.4576 87.94494)scale(0.1 -0.1)">
       <use xlink:href="#DejaVuSans-2212"/>
       <use x="83.789062" xlink:href="#DejaVuSans-36"/>
       <use x="147.412109" xlink:href="#DejaVuSans-2e"/>
       <use x="179.199219" xlink:href="#DejaVuSans-35"/>
      </g>
     </g>
    </g>
    <g id="text_7">
     <!-- Energy [eV] -->
     <defs>
      <path d="M 54.890625 33.015625 
L 54.890625 0 
L 45.90625 0 
L 45.90625 32.71875 
Q 45.90625 40.484375 42.875 44.328125 
Q 39.84375 48.1875 33.796875 48.1875 
Q 26.515625 48.1875 22.3125 43.546875 
Q 18.109375 38.921875 18.109375 30.90625 
L 18.109375 0 
L 9.078125 0 
L 9.078125 54.6875 
L 18.109375 54.6875 
L 18.109375 46.1875 
Q 21.34375 51.125 25.703125 53.5625 
Q 30.078125 56 35.796875 56 
Q 45.21875 56 50.046875 50.171875 
Q 54.890625 44.34375 54.890625 33.015625 
z
" id="DejaVuSans-6e"/>
      <path d="M 45.40625 27.984375 
Q 45.40625 37.75 41.375 43.109375 
Q 37.359375 48.484375 30.078125 48.484375 
Q 22.859375 48.484375 18.828125 43.109375 
Q 14.796875 37.75 14.796875 27.984375 
Q 14.796875 18.265625 18.828125 12.890625 
Q 22.859375 7.515625 30.078125 7.515625 
Q 37.359375 7.515625 41.375 12.890625 
Q 45.40625 18.265625 45.40625 27.984375 
z
M 54.390625 6.78125 
Q 54.390625 -7.171875 48.1875 -13.984375 
Q 42 -20.796875 29.203125 -20.796875 
Q 24.46875 -20.796875 20.265625 -20.09375 
Q 16.0625 -19.390625 12.109375 -17.921875 
L 12.109375 -9.1875 
Q 16.0625 -11.328125 19.921875 -12.34375 
Q 23.78125 -13.375 27.78125 -13.375 
Q 36.625 -13.375 41.015625 -8.765625 
Q 45.40625 -4.15625 45.40625 5.171875 
L 45.40625 9.625 
Q 42.625 4.78125 38.28125 2.390625 
Q 33.9375 0 27.875 0 
Q 17.828125 0 11.671875 7.65625 
Q 5.515625 15.328125 5.515625 27.984375 
Q 5.515625 40.671875 11.671875 48.328125 
Q 17.828125 56 27.875 56 
Q 33.9375 56 38.28125 53.609375 
Q 42.625 51.21875 45.40625 46.390625 
L 45.40625 54.6875 
L 54.390625 54.6875 
z
" id="DejaVuSans-67"/>
      <path d="M 32.171875 -5.078125 
Q 28.375 -14.84375 24.75 -17.8125 
Q 21.140625 -20.796875 15.09375 -20.796875 
L 7.90625 -20.796875 
L 7.90625 -13.28125 
L 13.1875 -13.28125 
Q 16.890625 -13.28125 18.9375 -11.515625 
Q 21 -9.765625 23.484375 -3.21875 
L 25.09375 0.875 
L 2.984375 54.6875 
L 12.5 54.6875 
L 29.59375 11.921875 
L 46.6875 54.6875 
L 56.203125 54.6875 
z
" id="DejaVuSans-79"/>
      <path d="M 8.59375 75.984375 
L 29.296875 75.984375 
L 29.296875 69 
L 17.578125 69 
L 17.578125 -6.203125 
L 29.296875 -6.203125 
L 29.296875 -13.1875 
L 8.59375 -13.1875 
z
" id="DejaVuSans-5b"/>
      <path d="M 30.421875 75.984375 
L 30.421875 -13.1875 
L 9.71875 -13.1875 
L 9.71875 -6.203125 
L 21.390625 -6.203125 
L 21.390625 69 
L 9.71875 69 
L 9.71875 75.984375 
z
" id="DejaVuSans-5d"/>
     </defs>
     <g transform="translate(417.33885 204.108469)rotate(-90)scale(0.1 -0.1)">
      <use xlink:href="#DejaVuSans-45"/>
      <use x="63.183594" xlink:href="#DejaVuSans-6e"/>
      <use x="126.5625" xlink:href="#DejaVuSans-65"/>
      <use x="188.085938" xlink:href="#DejaVuSans-72"/>
      <use x="229.183594" xlink:href="#DejaVuSans-67"/>
      <use x="292.660156" xlink:href="#DejaVuSans-79"/>
      <use x="351.839844" xlink:href="#DejaVuSans-20"/>
      <use x="383.626953" xlink:href="#DejaVuSans-5b"/>
      <use x="422.640625" xlink:href="#DejaVuSans-65"/>
      <use x="484.164062" xlink:href="#DejaVuSans-56"/>
      <use x="552.572266" xlink:href="#DejaVuSans-5d"/>
     </g>
    </g>
   </g>
   <g id="patch_3">
    <path d="M 361.152 307.584 
L 361.152 306.5445 
L 361.152 42.5115 
L 361.152 41.472 
L 374.4576 41.472 
L 374.4576 42.5115 
L 374.4576 306.5445 
L 374.4576 307.584 
z
" style="fill:none;stroke:#000000;stroke-linejoin:miter;stroke-width:0.8;"/>
   </g>
  </g>
 </g>
 <defs>
  <clipPath id="p6b7947419c">
   <rect height="266.112" width="285.696" x="57.6" y="41.472"/>
  </clipPath>
  <clipPath id="p2ec9581826">
   <rect height="266.112" width="13.3056" x="361.152" y="41.472"/>
  </clipPath>
 </defs>
</svg>
