<?xml version="1.0" encoding="utf-8" standalone="no"?>
<!DOCTYPE svg PUBLIC "-//W3C//DTD SVG 1.1//EN"
  "http://www.w3.org/Graphics/SVG/1.1/DTD/svg11.dtd">
<!-- Created with matplotlib (http://matplotlib.org/) -->
<svg height="345.6pt" version="1.1" viewBox="0 0 460.8 345.6" width="460.8pt" xmlns="http://www.w3.org/2000/svg" xmlns:xlink="http://www.w3.org/1999/xlink">
 <defs>
  <style type="text/css">
*{stroke-linecap:butt;stroke-linejoin:round;}
  </style>
 </defs>
 <g id="figure_1">
  <g id="patch_1">
   <path d="M 0 345.6 
L 460.8 345.6 
L 460.8 0 
L 0 0 
z
" style="fill:#ffffff;"/>
  </g>
  <g id="axes_1">
   <g id="CircleCollection_1">
    <path clip-path="url(#p7c8372e140)" d="M 91.205507 255.117724 
C 92.921742 255.117724 94.567915 254.435857 95.781476 253.222296 
C 96.995037 252.008735 97.676904 250.362562 97.676904 248.646327 
C 97.676904 246.930093 96.995037 245.28392 95.781476 244.070359 
C 94.567915 242.856797 92.921742 242.17493 91.205507 242.17493 
C 89.489273 242.17493 87.8431 242.856797 86.629539 244.070359 
C 85.415978 245.28392 84.73411 246.930093 84.73411 248.646327 
C 84.73411 250.362562 85.415978 252.008735 86.629539 253.222296 
C 87.8431 254.435857 89.489273 255.117724 91.205507 255.117724 
z
" style="fill:#31688e;"/>
    <path clip-path="url(#p7c8372e140)" d="M 157.870551 114.618553 
C 159.718848 114.618553 161.491693 113.884217 162.798637 112.577273 
C 164.105581 111.270329 164.839917 109.497484 164.839917 107.649187 
C 164.839917 105.800889 164.105581 104.028044 162.798637 102.7211 
C 161.491693 101.414156 159.718848 100.67982 157.870551 100.67982 
C 156.022253 100.67982 154.249408 101.414156 152.942464 102.7211 
C 151.635521 104.028044 150.901184 105.800889 150.901184 107.649187 
C 150.901184 109.497484 151.635521 111.270329 152.942464 112.577273 
C 154.249408 113.884217 156.022253 114.618553 157.870551 114.618553 
z
" style="fill:#472c7a;"/>
    <path clip-path="url(#p7c8372e140)" d="M 231.596403 94.108511 
C 233.521683 94.108511 235.368368 93.343589 236.729747 91.982211 
C 238.091126 90.620832 238.856047 88.774147 238.856047 86.848867 
C 238.856047 84.923587 238.091126 83.076902 236.729747 81.715523 
C 235.368368 80.354144 233.521683 79.589222 231.596403 79.589222 
C 229.671123 79.589222 227.824438 80.354144 226.463059 81.715523 
C 225.10168 83.076902 224.336759 84.923587 224.336759 86.848867 
C 224.336759 88.774147 225.10168 90.620832 226.463059 91.982211 
C 227.824438 93.343589 229.671123 94.108511 231.596403 94.108511 
z
" style="fill:#fde725;"/>
    <path clip-path="url(#p7c8372e140)" d="M 160.188281 297.622391 
C 161.902482 297.622391 163.546704 296.941331 164.758827 295.729208 
C 165.97095 294.517085 166.65201 292.872863 166.65201 291.158662 
C 166.65201 289.444461 165.97095 287.800239 164.758827 286.588116 
C 163.546704 285.375993 161.902482 284.694934 160.188281 284.694934 
C 158.47408 284.694934 156.829858 285.375993 155.617735 286.588116 
C 154.405612 287.800239 153.724552 289.444461 153.724552 291.158662 
C 153.724552 292.872863 154.405612 294.517085 155.617735 295.729208 
C 156.829858 296.941331 158.47408 297.622391 160.188281 297.622391 
z
" style="fill:#30698e;"/>
    <path clip-path="url(#p7c8372e140)" d="M 194.860539 102.804826 
C 196.750296 102.804826 198.562909 102.054017 199.899169 100.717757 
C 201.235429 99.381497 201.986238 97.568885 201.986238 95.679127 
C 201.986238 93.78937 201.235429 91.976757 199.899169 90.640497 
C 198.562909 89.304237 196.750296 88.553428 194.860539 88.553428 
C 192.970782 88.553428 191.158169 89.304237 189.821909 90.640497 
C 188.485649 91.976757 187.73484 93.78937 187.73484 95.679127 
C 187.73484 97.568885 188.485649 99.381497 189.821909 100.717757 
C 191.158169 102.054017 192.970782 102.804826 194.860539 102.804826 
z
" style="fill:#26828e;"/>
    <path clip-path="url(#p7c8372e140)" d="M 329.873582 160.301153 
C 331.614206 160.301153 333.283772 159.609596 334.514579 158.37879 
C 335.745385 157.147983 336.436942 155.478416 336.436942 153.737793 
C 336.436942 151.997169 335.745385 150.327603 334.514579 149.096796 
C 333.283772 147.86599 331.614206 147.174433 329.873582 147.174433 
C 328.132958 147.174433 326.463392 147.86599 325.232585 149.096796 
C 324.001779 150.327603 323.310222 151.997169 323.310222 153.737793 
C 323.310222 155.478416 324.001779 157.147983 325.232585 158.37879 
C 326.463392 159.609596 328.132958 160.301153 329.873582 160.301153 
z
" style="fill:#2f6b8e;"/>
    <path clip-path="url(#p7c8372e140)" d="M 144.793739 91.54979 
C 146.557372 91.54979 148.249008 90.849091 149.496085 89.602014 
C 150.743162 88.354937 151.443861 86.663301 151.443861 84.899668 
C 151.443861 83.136035 150.743162 81.444398 149.496085 80.197322 
C 148.249008 78.950245 146.557372 78.249546 144.793739 78.249546 
C 143.030106 78.249546 141.338469 78.950245 140.091393 80.197322 
C 138.844316 81.444398 138.143617 83.136035 138.143617 84.899668 
C 138.143617 86.663301 138.844316 88.354937 140.091393 89.602014 
C 141.338469 90.849091 143.030106 91.54979 144.793739 91.54979 
z
" style="fill:#472d7b;"/>
    <path clip-path="url(#p7c8372e140)" d="M 130.931905 149.850848 
C 132.794788 149.850848 134.581623 149.110716 135.898881 147.793459 
C 137.216138 146.476201 137.956269 144.689366 137.956269 142.826483 
C 137.956269 140.9636 137.216138 139.176765 135.898881 137.859507 
C 134.581623 136.54225 132.794788 135.802119 130.931905 135.802119 
C 129.069022 135.802119 127.282186 136.54225 125.964929 137.859507 
C 124.647672 139.176765 123.90754 140.9636 123.90754 142.826483 
C 123.90754 144.689366 124.647672 146.476201 125.964929 147.793459 
C 127.282186 149.110716 129.069022 149.850848 130.931905 149.850848 
z
" style="fill:#25838e;"/>
    <path clip-path="url(#p7c8372e140)" d="M 203.318093 301.407118 
C 205.033424 301.407118 206.678731 300.72561 207.891653 299.512688 
C 209.104575 298.299766 209.786084 296.654459 209.786084 294.939128 
C 209.786084 293.223797 209.104575 291.57849 207.891653 290.365568 
C 206.678731 289.152646 205.033424 288.471138 203.318093 288.471138 
C 201.602762 288.471138 199.957456 289.152646 198.744533 290.365568 
C 197.531611 291.57849 196.850103 293.223797 196.850103 294.939128 
C 196.850103 296.654459 197.531611 298.299766 198.744533 299.512688 
C 199.957456 300.72561 201.602762 301.407118 203.318093 301.407118 
z
" style="fill:#31688e;"/>
    <path clip-path="url(#p7c8372e140)" d="M 103.481846 173.560845 
C 105.311087 173.560845 107.065654 172.83408 108.359122 171.540611 
C 109.652591 170.247142 110.379356 168.492576 110.379356 166.663335 
C 110.379356 164.834094 109.652591 163.079527 108.359122 161.786059 
C 107.065654 160.49259 105.311087 159.765825 103.481846 159.765825 
C 101.652605 159.765825 99.898039 160.49259 98.60457 161.786059 
C 97.311101 163.079527 96.584336 164.834094 96.584336 166.663335 
C 96.584336 168.492576 97.311101 170.247142 98.60457 171.540611 
C 99.898039 172.83408 101.652605 173.560845 103.481846 173.560845 
z
" style="fill:#1f968b;"/>
    <path clip-path="url(#p7c8372e140)" d="M 79.865288 180.241271 
C 81.618209 180.241271 83.299571 179.544828 84.539073 178.305326 
C 85.778575 177.065824 86.475018 175.384462 86.475018 173.631542 
C 86.475018 171.878621 85.778575 170.197259 84.539073 168.957757 
C 83.299571 167.718255 81.618209 167.021812 79.865288 167.021812 
C 78.112368 167.021812 76.431006 167.718255 75.191504 168.957757 
C 73.952002 170.197259 73.255559 171.878621 73.255559 173.631542 
C 73.255559 175.384462 73.952002 177.065824 75.191504 178.305326 
C 76.431006 179.544828 78.112368 180.241271 79.865288 180.241271 
z
" style="fill:#440154;"/>
    <path clip-path="url(#p7c8372e140)" d="M 328.699012 201.214212 
C 330.435081 201.214212 332.100279 200.524464 333.327865 199.296878 
C 334.555451 198.069292 335.245199 196.404094 335.245199 194.668025 
C 335.245199 192.931956 334.555451 191.266758 333.327865 190.039172 
C 332.100279 188.811586 330.435081 188.121838 328.699012 188.121838 
C 326.962943 188.121838 325.297745 188.811586 324.070159 190.039172 
C 322.842573 191.266758 322.152825 192.931956 322.152825 194.668025 
C 322.152825 196.404094 322.842573 198.069292 324.070159 199.296878 
C 325.297745 200.524464 326.962943 201.214212 328.699012 201.214212 
z
" style="fill:#30698e;"/>
    <path clip-path="url(#p7c8372e140)" d="M 82.620216 139.250308 
C 84.336547 139.250308 85.982812 138.568403 87.196441 137.354774 
C 88.41007 136.141145 89.091976 134.494879 89.091976 132.778549 
C 89.091976 131.062218 88.41007 129.415953 87.196441 128.202324 
C 85.982812 126.988694 84.336547 126.306789 82.620216 126.306789 
C 80.903885 126.306789 79.25762 126.988694 78.043991 128.202324 
C 76.830362 129.415953 76.148456 131.062218 76.148456 132.778549 
C 76.148456 134.494879 76.830362 136.141145 78.043991 137.354774 
C 79.25762 138.568403 80.903885 139.250308 82.620216 139.250308 
z
" style="fill:#1f958b;"/>
    <path clip-path="url(#p7c8372e140)" d="M 295.377919 88.740462 
C 297.112648 88.740462 298.776561 88.051247 300.0032 86.824608 
C 301.229839 85.597969 301.919054 83.934056 301.919054 82.199327 
C 301.919054 80.464598 301.229839 78.800685 300.0032 77.574046 
C 298.776561 76.347407 297.112648 75.658192 295.377919 75.658192 
C 293.64319 75.658192 291.979277 76.347407 290.752638 77.574046 
C 289.525999 78.800685 288.836784 80.464598 288.836784 82.199327 
C 288.836784 83.934056 289.525999 85.597969 290.752638 86.824608 
C 291.979277 88.051247 293.64319 88.740462 295.377919 88.740462 
z
" style="fill:#2e6d8e;"/>
    <path clip-path="url(#p7c8372e140)" d="M 119.581751 286.367736 
C 121.286175 286.367736 122.92102 285.690561 124.12623 284.485351 
C 125.331439 283.280142 126.008614 281.645297 126.008614 279.940873 
C 126.008614 278.236449 125.331439 276.601605 124.12623 275.396395 
C 122.92102 274.191185 121.286175 273.51401 119.581751 273.51401 
C 117.877327 273.51401 116.242483 274.191185 115.037273 275.396395 
C 113.832063 276.601605 113.154889 278.236449 113.154889 279.940873 
C 113.154889 281.645297 113.832063 283.280142 115.037273 284.485351 
C 116.242483 285.690561 117.877327 286.367736 119.581751 286.367736 
z
" style="fill:#2e6e8e;"/>
    <path clip-path="url(#p7c8372e140)" d="M 262.349302 63.663928 
C 264.072939 63.663928 265.726212 62.97912 266.945007 61.760324 
C 268.163802 60.541529 268.848611 58.888256 268.848611 57.164619 
C 268.848611 55.440982 268.163802 53.787709 266.945007 52.568914 
C 265.726212 51.350118 264.072939 50.66531 262.349302 50.66531 
C 260.625665 50.66531 258.972392 51.350118 257.753597 52.568914 
C 256.534801 53.787709 255.849993 55.440982 255.849993 57.164619 
C 255.849993 58.888256 256.534801 60.541529 257.753597 61.760324 
C 258.972392 62.97912 260.625665 63.663928 262.349302 63.663928 
z
" style="fill:#2e6f8e;"/>
    <path clip-path="url(#p7c8372e140)" d="M 280.956454 268.370759 
C 282.685828 268.370759 284.344605 267.683672 285.567457 266.460819 
C 286.790309 265.237967 287.477397 263.579191 287.477397 261.849816 
C 287.477397 260.120442 286.790309 258.461666 285.567457 257.238813 
C 284.344605 256.015961 282.685828 255.328873 280.956454 255.328873 
C 279.22708 255.328873 277.568304 256.015961 276.345451 257.238813 
C 275.122599 258.461666 274.435511 260.120442 274.435511 261.849816 
C 274.435511 263.579191 275.122599 265.237967 276.345451 266.460819 
C 277.568304 267.683672 279.22708 268.370759 280.956454 268.370759 
z
" style="fill:#31668e;"/>
    <path clip-path="url(#p7c8372e140)" d="M 176.834652 64.621169 
C 178.564634 64.621169 180.223994 63.93384 181.447277 62.710557 
C 182.670559 61.487275 183.357889 59.827915 183.357889 58.097932 
C 183.357889 56.36795 182.670559 54.70859 181.447277 53.485307 
C 180.223994 52.262025 178.564634 51.574695 176.834652 51.574695 
C 175.104669 51.574695 173.445309 52.262025 172.222026 53.485307 
C 170.998744 54.70859 170.311415 56.36795 170.311415 58.097932 
C 170.311415 59.827915 170.998744 61.487275 172.222026 62.710557 
C 173.445309 63.93384 175.104669 64.621169 176.834652 64.621169 
z
" style="fill:#218f8d;"/>
    <path clip-path="url(#p7c8372e140)" d="M 71.016632 219.842719 
C 72.734169 219.842719 74.381591 219.160334 75.596072 217.945852 
C 76.810554 216.73137 77.492939 215.083948 77.492939 213.366412 
C 77.492939 211.648875 76.810554 210.001453 75.596072 208.786971 
C 74.381591 207.572489 72.734169 206.890105 71.016632 206.890105 
C 69.299095 206.890105 67.651673 207.572489 66.437191 208.786971 
C 65.22271 210.001453 64.540325 211.648875 64.540325 213.366412 
C 64.540325 215.083948 65.22271 216.73137 66.437191 217.945852 
C 67.651673 219.160334 69.299095 219.842719 71.016632 219.842719 
z
" style="fill:#20928c;"/>
    <path clip-path="url(#p7c8372e140)" d="M 218.874825 60.658794 
C 220.60823 60.658794 222.270872 59.970105 223.496574 58.744403 
C 224.722275 57.518701 225.410964 55.856059 225.410964 54.122655 
C 225.410964 52.389251 224.722275 50.726609 223.496574 49.500907 
C 222.270872 48.275205 220.60823 47.586516 218.874825 47.586516 
C 217.141421 47.586516 215.478779 48.275205 214.253077 49.500907 
C 213.027375 50.726609 212.338686 52.389251 212.338686 54.122655 
C 212.338686 55.856059 213.027375 57.518701 214.253077 58.744403 
C 215.478779 59.970105 217.141421 60.658794 218.874825 60.658794 
z
" style="fill:#2f6b8e;"/>
    <path clip-path="url(#p7c8372e140)" d="M 307.597046 236.807066 
C 309.335649 236.807066 311.003278 236.116312 312.232656 234.886934 
C 313.462034 233.657555 314.152789 231.989927 314.152789 230.251323 
C 314.152789 228.51272 313.462034 226.845091 312.232656 225.615713 
C 311.003278 224.386335 309.335649 223.69558 307.597046 223.69558 
C 305.858442 223.69558 304.190814 224.386335 302.961435 225.615713 
C 301.732057 226.845091 301.041303 228.51272 301.041303 230.251323 
C 301.041303 231.989927 301.732057 233.657555 302.961435 234.886934 
C 304.190814 236.116312 305.858442 236.807066 307.597046 236.807066 
z
" style="fill:#31678e;"/>
    <path clip-path="url(#p7c8372e140)" d="M 323.38215 120.230855 
C 325.114114 120.230855 326.775374 119.542739 328.000057 118.318056 
C 329.224741 117.093372 329.912857 115.432112 329.912857 113.700148 
C 329.912857 111.968185 329.224741 110.306924 328.000057 109.082241 
C 326.775374 107.857558 325.114114 107.169441 323.38215 107.169441 
C 321.650186 107.169441 319.988926 107.857558 318.764243 109.082241 
C 317.53956 110.306924 316.851443 111.968185 316.851443 113.700148 
C 316.851443 115.432112 317.53956 117.093372 318.764243 118.318056 
C 319.988926 119.542739 321.650186 120.230855 323.38215 120.230855 
z
" style="fill:#2f6b8e;"/>
    <path clip-path="url(#p7c8372e140)" d="M 107.314405 107.140214 
C 109.036994 107.140214 110.689261 106.455822 111.907315 105.237768 
C 113.125369 104.019714 113.809761 102.367447 113.809761 100.644858 
C 113.809761 98.92227 113.125369 97.270002 111.907315 96.051948 
C 110.689261 94.833894 109.036994 94.149503 107.314405 94.149503 
C 105.591817 94.149503 103.939549 94.833894 102.721495 96.051948 
C 101.503441 97.270002 100.81905 98.92227 100.81905 100.644858 
C 100.81905 102.367447 101.503441 104.019714 102.721495 105.237768 
C 103.939549 106.455822 105.591817 107.140214 107.314405 107.140214 
z
" style="fill:#228b8d;"/>
    <path clip-path="url(#p7c8372e140)" d="M 243.075835 287.855602 
C 244.80342 287.855602 246.460481 287.169225 247.682068 285.947637 
C 248.903655 284.72605 249.590032 283.06899 249.590032 281.341404 
C 249.590032 279.613819 248.903655 277.956759 247.682068 276.735171 
C 246.460481 275.513584 244.80342 274.827207 243.075835 274.827207 
C 241.34825 274.827207 239.691189 275.513584 238.469602 276.735171 
C 237.248015 277.956759 236.561638 279.613819 236.561638 281.341404 
C 236.561638 283.06899 237.248015 284.72605 238.469602 285.947637 
C 239.691189 287.169225 241.34825 287.855602 243.075835 287.855602 
z
" style="fill:#31668e;"/>
   </g>
   <g id="text_1">
    <!-- Structure #5526, $E_N$=-180.30eV, ΔE=-0.47eV -->
    <defs>
     <path d="M 53.515625 70.515625 
L 53.515625 60.890625 
Q 47.90625 63.578125 42.921875 64.890625 
Q 37.9375 66.21875 33.296875 66.21875 
Q 25.25 66.21875 20.875 63.09375 
Q 16.5 59.96875 16.5 54.203125 
Q 16.5 49.359375 19.40625 46.890625 
Q 22.3125 44.4375 30.421875 42.921875 
L 36.375 41.703125 
Q 47.40625 39.59375 52.65625 34.296875 
Q 57.90625 29 57.90625 20.125 
Q 57.90625 9.515625 50.796875 4.046875 
Q 43.703125 -1.421875 29.984375 -1.421875 
Q 24.8125 -1.421875 18.96875 -0.25 
Q 13.140625 0.921875 6.890625 3.21875 
L 6.890625 13.375 
Q 12.890625 10.015625 18.65625 8.296875 
Q 24.421875 6.59375 29.984375 6.59375 
Q 38.421875 6.59375 43.015625 9.90625 
Q 47.609375 13.234375 47.609375 19.390625 
Q 47.609375 24.75 44.3125 27.78125 
Q 41.015625 30.8125 33.5 32.328125 
L 27.484375 33.5 
Q 16.453125 35.6875 11.515625 40.375 
Q 6.59375 45.0625 6.59375 53.421875 
Q 6.59375 63.09375 13.40625 68.65625 
Q 20.21875 74.21875 32.171875 74.21875 
Q 37.3125 74.21875 42.625 73.28125 
Q 47.953125 72.359375 53.515625 70.515625 
z
" id="DejaVuSans-53"/>
     <path d="M 18.3125 70.21875 
L 18.3125 54.6875 
L 36.8125 54.6875 
L 36.8125 47.703125 
L 18.3125 47.703125 
L 18.3125 18.015625 
Q 18.3125 11.328125 20.140625 9.421875 
Q 21.96875 7.515625 27.59375 7.515625 
L 36.8125 7.515625 
L 36.8125 0 
L 27.59375 0 
Q 17.1875 0 13.234375 3.875 
Q 9.28125 7.765625 9.28125 18.015625 
L 9.28125 47.703125 
L 2.6875 47.703125 
L 2.6875 54.6875 
L 9.28125 54.6875 
L 9.28125 70.21875 
z
" id="DejaVuSans-74"/>
     <path d="M 41.109375 46.296875 
Q 39.59375 47.171875 37.8125 47.578125 
Q 36.03125 48 33.890625 48 
Q 26.265625 48 22.1875 43.046875 
Q 18.109375 38.09375 18.109375 28.8125 
L 18.109375 0 
L 9.078125 0 
L 9.078125 54.6875 
L 18.109375 54.6875 
L 18.109375 46.1875 
Q 20.953125 51.171875 25.484375 53.578125 
Q 30.03125 56 36.53125 56 
Q 37.453125 56 38.578125 55.875 
Q 39.703125 55.765625 41.0625 55.515625 
z
" id="DejaVuSans-72"/>
     <path d="M 8.5 21.578125 
L 8.5 54.6875 
L 17.484375 54.6875 
L 17.484375 21.921875 
Q 17.484375 14.15625 20.5 10.265625 
Q 23.53125 6.390625 29.59375 6.390625 
Q 36.859375 6.390625 41.078125 11.03125 
Q 45.3125 15.671875 45.3125 23.6875 
L 45.3125 54.6875 
L 54.296875 54.6875 
L 54.296875 0 
L 45.3125 0 
L 45.3125 8.40625 
Q 42.046875 3.421875 37.71875 1 
Q 33.40625 -1.421875 27.6875 -1.421875 
Q 18.265625 -1.421875 13.375 4.4375 
Q 8.5 10.296875 8.5 21.578125 
z
M 31.109375 56 
z
" id="DejaVuSans-75"/>
     <path d="M 48.78125 52.59375 
L 48.78125 44.1875 
Q 44.96875 46.296875 41.140625 47.34375 
Q 37.3125 48.390625 33.40625 48.390625 
Q 24.65625 48.390625 19.8125 42.84375 
Q 14.984375 37.3125 14.984375 27.296875 
Q 14.984375 17.28125 19.8125 11.734375 
Q 24.65625 6.203125 33.40625 6.203125 
Q 37.3125 6.203125 41.140625 7.25 
Q 44.96875 8.296875 48.78125 10.40625 
L 48.78125 2.09375 
Q 45.015625 0.34375 40.984375 -0.53125 
Q 36.96875 -1.421875 32.421875 -1.421875 
Q 20.0625 -1.421875 12.78125 6.34375 
Q 5.515625 14.109375 5.515625 27.296875 
Q 5.515625 40.671875 12.859375 48.328125 
Q 20.21875 56 33.015625 56 
Q 37.15625 56 41.109375 55.140625 
Q 45.0625 54.296875 48.78125 52.59375 
z
" id="DejaVuSans-63"/>
     <path d="M 56.203125 29.59375 
L 56.203125 25.203125 
L 14.890625 25.203125 
Q 15.484375 15.921875 20.484375 11.0625 
Q 25.484375 6.203125 34.421875 6.203125 
Q 39.59375 6.203125 44.453125 7.46875 
Q 49.3125 8.734375 54.109375 11.28125 
L 54.109375 2.78125 
Q 49.265625 0.734375 44.1875 -0.34375 
Q 39.109375 -1.421875 33.890625 -1.421875 
Q 20.796875 -1.421875 13.15625 6.1875 
Q 5.515625 13.8125 5.515625 26.8125 
Q 5.515625 40.234375 12.765625 48.109375 
Q 20.015625 56 32.328125 56 
Q 43.359375 56 49.78125 48.890625 
Q 56.203125 41.796875 56.203125 29.59375 
z
M 47.21875 32.234375 
Q 47.125 39.59375 43.09375 43.984375 
Q 39.0625 48.390625 32.421875 48.390625 
Q 24.90625 48.390625 20.390625 44.140625 
Q 15.875 39.890625 15.1875 32.171875 
z
" id="DejaVuSans-65"/>
     <path id="DejaVuSans-20"/>
     <path d="M 51.125 44 
L 36.921875 44 
L 32.8125 27.6875 
L 47.125 27.6875 
z
M 43.796875 71.78125 
L 38.71875 51.515625 
L 52.984375 51.515625 
L 58.109375 71.78125 
L 65.921875 71.78125 
L 60.890625 51.515625 
L 76.125 51.515625 
L 76.125 44 
L 58.984375 44 
L 54.984375 27.6875 
L 70.515625 27.6875 
L 70.515625 20.21875 
L 53.078125 20.21875 
L 48 0 
L 40.1875 0 
L 45.21875 20.21875 
L 30.90625 20.21875 
L 25.875 0 
L 18.015625 0 
L 23.09375 20.21875 
L 7.71875 20.21875 
L 7.71875 27.6875 
L 24.90625 27.6875 
L 29 44 
L 13.28125 44 
L 13.28125 51.515625 
L 30.90625 51.515625 
L 35.890625 71.78125 
z
" id="DejaVuSans-23"/>
     <path d="M 10.796875 72.90625 
L 49.515625 72.90625 
L 49.515625 64.59375 
L 19.828125 64.59375 
L 19.828125 46.734375 
Q 21.96875 47.46875 24.109375 47.828125 
Q 26.265625 48.1875 28.421875 48.1875 
Q 40.625 48.1875 47.75 41.5 
Q 54.890625 34.8125 54.890625 23.390625 
Q 54.890625 11.625 47.5625 5.09375 
Q 40.234375 -1.421875 26.90625 -1.421875 
Q 22.3125 -1.421875 17.546875 -0.640625 
Q 12.796875 0.140625 7.71875 1.703125 
L 7.71875 11.625 
Q 12.109375 9.234375 16.796875 8.0625 
Q 21.484375 6.890625 26.703125 6.890625 
Q 35.15625 6.890625 40.078125 11.328125 
Q 45.015625 15.765625 45.015625 23.390625 
Q 45.015625 31 40.078125 35.4375 
Q 35.15625 39.890625 26.703125 39.890625 
Q 22.75 39.890625 18.8125 39.015625 
Q 14.890625 38.140625 10.796875 36.28125 
z
" id="DejaVuSans-35"/>
     <path d="M 19.1875 8.296875 
L 53.609375 8.296875 
L 53.609375 0 
L 7.328125 0 
L 7.328125 8.296875 
Q 12.9375 14.109375 22.625 23.890625 
Q 32.328125 33.6875 34.8125 36.53125 
Q 39.546875 41.84375 41.421875 45.53125 
Q 43.3125 49.21875 43.3125 52.78125 
Q 43.3125 58.59375 39.234375 62.25 
Q 35.15625 65.921875 28.609375 65.921875 
Q 23.96875 65.921875 18.8125 64.3125 
Q 13.671875 62.703125 7.8125 59.421875 
L 7.8125 69.390625 
Q 13.765625 71.78125 18.9375 73 
Q 24.125 74.21875 28.421875 74.21875 
Q 39.75 74.21875 46.484375 68.546875 
Q 53.21875 62.890625 53.21875 53.421875 
Q 53.21875 48.921875 51.53125 44.890625 
Q 49.859375 40.875 45.40625 35.40625 
Q 44.1875 33.984375 37.640625 27.21875 
Q 31.109375 20.453125 19.1875 8.296875 
z
" id="DejaVuSans-32"/>
     <path d="M 33.015625 40.375 
Q 26.375 40.375 22.484375 35.828125 
Q 18.609375 31.296875 18.609375 23.390625 
Q 18.609375 15.53125 22.484375 10.953125 
Q 26.375 6.390625 33.015625 6.390625 
Q 39.65625 6.390625 43.53125 10.953125 
Q 47.40625 15.53125 47.40625 23.390625 
Q 47.40625 31.296875 43.53125 35.828125 
Q 39.65625 40.375 33.015625 40.375 
z
M 52.59375 71.296875 
L 52.59375 62.3125 
Q 48.875 64.0625 45.09375 64.984375 
Q 41.3125 65.921875 37.59375 65.921875 
Q 27.828125 65.921875 22.671875 59.328125 
Q 17.53125 52.734375 16.796875 39.40625 
Q 19.671875 43.65625 24.015625 45.921875 
Q 28.375 48.1875 33.59375 48.1875 
Q 44.578125 48.1875 50.953125 41.515625 
Q 57.328125 34.859375 57.328125 23.390625 
Q 57.328125 12.15625 50.6875 5.359375 
Q 44.046875 -1.421875 33.015625 -1.421875 
Q 20.359375 -1.421875 13.671875 8.265625 
Q 6.984375 17.96875 6.984375 36.375 
Q 6.984375 53.65625 15.1875 63.9375 
Q 23.390625 74.21875 37.203125 74.21875 
Q 40.921875 74.21875 44.703125 73.484375 
Q 48.484375 72.75 52.59375 71.296875 
z
" id="DejaVuSans-36"/>
     <path d="M 11.71875 12.40625 
L 22.015625 12.40625 
L 22.015625 4 
L 14.015625 -11.625 
L 7.71875 -11.625 
L 11.71875 4 
z
" id="DejaVuSans-2c"/>
     <path d="M 16.890625 72.90625 
L 62.984375 72.90625 
L 61.375 64.59375 
L 25.09375 64.59375 
L 20.90625 43.015625 
L 55.71875 43.015625 
L 54.109375 34.71875 
L 19.28125 34.71875 
L 14.203125 8.296875 
L 51.3125 8.296875 
L 49.703125 0 
L 2.6875 0 
z
" id="DejaVuSans-Oblique-45"/>
     <path d="M 16.890625 72.90625 
L 30.171875 72.90625 
L 50.296875 10.40625 
L 62.5 72.90625 
L 72.125 72.90625 
L 57.90625 0 
L 44.578125 0 
L 24.515625 62.890625 
L 12.3125 0 
L 2.6875 0 
z
" id="DejaVuSans-Oblique-4e"/>
     <path d="M 10.59375 45.40625 
L 73.1875 45.40625 
L 73.1875 37.203125 
L 10.59375 37.203125 
z
M 10.59375 25.484375 
L 73.1875 25.484375 
L 73.1875 17.1875 
L 10.59375 17.1875 
z
" id="DejaVuSans-3d"/>
     <path d="M 4.890625 31.390625 
L 31.203125 31.390625 
L 31.203125 23.390625 
L 4.890625 23.390625 
z
" id="DejaVuSans-2d"/>
     <path d="M 12.40625 8.296875 
L 28.515625 8.296875 
L 28.515625 63.921875 
L 10.984375 60.40625 
L 10.984375 69.390625 
L 28.421875 72.90625 
L 38.28125 72.90625 
L 38.28125 8.296875 
L 54.390625 8.296875 
L 54.390625 0 
L 12.40625 0 
z
" id="DejaVuSans-31"/>
     <path d="M 31.78125 34.625 
Q 24.75 34.625 20.71875 30.859375 
Q 16.703125 27.09375 16.703125 20.515625 
Q 16.703125 13.921875 20.71875 10.15625 
Q 24.75 6.390625 31.78125 6.390625 
Q 38.8125 6.390625 42.859375 10.171875 
Q 46.921875 13.96875 46.921875 20.515625 
Q 46.921875 27.09375 42.890625 30.859375 
Q 38.875 34.625 31.78125 34.625 
z
M 21.921875 38.8125 
Q 15.578125 40.375 12.03125 44.71875 
Q 8.5 49.078125 8.5 55.328125 
Q 8.5 64.0625 14.71875 69.140625 
Q 20.953125 74.21875 31.78125 74.21875 
Q 42.671875 74.21875 48.875 69.140625 
Q 55.078125 64.0625 55.078125 55.328125 
Q 55.078125 49.078125 51.53125 44.71875 
Q 48 40.375 41.703125 38.8125 
Q 48.828125 37.15625 52.796875 32.3125 
Q 56.78125 27.484375 56.78125 20.515625 
Q 56.78125 9.90625 50.3125 4.234375 
Q 43.84375 -1.421875 31.78125 -1.421875 
Q 19.734375 -1.421875 13.25 4.234375 
Q 6.78125 9.90625 6.78125 20.515625 
Q 6.78125 27.484375 10.78125 32.3125 
Q 14.796875 37.15625 21.921875 38.8125 
z
M 18.3125 54.390625 
Q 18.3125 48.734375 21.84375 45.5625 
Q 25.390625 42.390625 31.78125 42.390625 
Q 38.140625 42.390625 41.71875 45.5625 
Q 45.3125 48.734375 45.3125 54.390625 
Q 45.3125 60.0625 41.71875 63.234375 
Q 38.140625 66.40625 31.78125 66.40625 
Q 25.390625 66.40625 21.84375 63.234375 
Q 18.3125 60.0625 18.3125 54.390625 
z
" id="DejaVuSans-38"/>
     <path d="M 31.78125 66.40625 
Q 24.171875 66.40625 20.328125 58.90625 
Q 16.5 51.421875 16.5 36.375 
Q 16.5 21.390625 20.328125 13.890625 
Q 24.171875 6.390625 31.78125 6.390625 
Q 39.453125 6.390625 43.28125 13.890625 
Q 47.125 21.390625 47.125 36.375 
Q 47.125 51.421875 43.28125 58.90625 
Q 39.453125 66.40625 31.78125 66.40625 
z
M 31.78125 74.21875 
Q 44.046875 74.21875 50.515625 64.515625 
Q 56.984375 54.828125 56.984375 36.375 
Q 56.984375 17.96875 50.515625 8.265625 
Q 44.046875 -1.421875 31.78125 -1.421875 
Q 19.53125 -1.421875 13.0625 8.265625 
Q 6.59375 17.96875 6.59375 36.375 
Q 6.59375 54.828125 13.0625 64.515625 
Q 19.53125 74.21875 31.78125 74.21875 
z
" id="DejaVuSans-30"/>
     <path d="M 10.6875 12.40625 
L 21 12.40625 
L 21 0 
L 10.6875 0 
z
" id="DejaVuSans-2e"/>
     <path d="M 40.578125 39.3125 
Q 47.65625 37.796875 51.625 33 
Q 55.609375 28.21875 55.609375 21.1875 
Q 55.609375 10.40625 48.1875 4.484375 
Q 40.765625 -1.421875 27.09375 -1.421875 
Q 22.515625 -1.421875 17.65625 -0.515625 
Q 12.796875 0.390625 7.625 2.203125 
L 7.625 11.71875 
Q 11.71875 9.328125 16.59375 8.109375 
Q 21.484375 6.890625 26.8125 6.890625 
Q 36.078125 6.890625 40.9375 10.546875 
Q 45.796875 14.203125 45.796875 21.1875 
Q 45.796875 27.640625 41.28125 31.265625 
Q 36.765625 34.90625 28.71875 34.90625 
L 20.21875 34.90625 
L 20.21875 43.015625 
L 29.109375 43.015625 
Q 36.375 43.015625 40.234375 45.921875 
Q 44.09375 48.828125 44.09375 54.296875 
Q 44.09375 59.90625 40.109375 62.90625 
Q 36.140625 65.921875 28.71875 65.921875 
Q 24.65625 65.921875 20.015625 65.03125 
Q 15.375 64.15625 9.8125 62.3125 
L 9.8125 71.09375 
Q 15.4375 72.65625 20.34375 73.4375 
Q 25.25 74.21875 29.59375 74.21875 
Q 40.828125 74.21875 47.359375 69.109375 
Q 53.90625 64.015625 53.90625 55.328125 
Q 53.90625 49.265625 50.4375 45.09375 
Q 46.96875 40.921875 40.578125 39.3125 
z
" id="DejaVuSans-33"/>
     <path d="M 28.609375 0 
L 0.78125 72.90625 
L 11.078125 72.90625 
L 34.1875 11.53125 
L 57.328125 72.90625 
L 67.578125 72.90625 
L 39.796875 0 
z
" id="DejaVuSans-56"/>
     <path d="M 34.1875 63.1875 
L 14.15625 8.203125 
L 54.25 8.203125 
z
M 0.78125 0 
L 28.609375 72.90625 
L 39.796875 72.90625 
L 67.578125 0 
z
" id="DejaVuSans-394"/>
     <path d="M 9.8125 72.90625 
L 55.90625 72.90625 
L 55.90625 64.59375 
L 19.671875 64.59375 
L 19.671875 43.015625 
L 54.390625 43.015625 
L 54.390625 34.71875 
L 19.671875 34.71875 
L 19.671875 8.296875 
L 56.78125 8.296875 
L 56.78125 0 
L 9.8125 0 
z
" id="DejaVuSans-45"/>
     <path d="M 37.796875 64.3125 
L 12.890625 25.390625 
L 37.796875 25.390625 
z
M 35.203125 72.90625 
L 47.609375 72.90625 
L 47.609375 25.390625 
L 58.015625 25.390625 
L 58.015625 17.1875 
L 47.609375 17.1875 
L 47.609375 0 
L 37.796875 0 
L 37.796875 17.1875 
L 4.890625 17.1875 
L 4.890625 26.703125 
z
" id="DejaVuSans-34"/>
     <path d="M 8.203125 72.90625 
L 55.078125 72.90625 
L 55.078125 68.703125 
L 28.609375 0 
L 18.3125 0 
L 43.21875 64.59375 
L 8.203125 64.59375 
z
" id="DejaVuSans-37"/>
    </defs>
    <g transform="translate(63.228 35.472)scale(0.12 -0.12)">
     <use transform="translate(0 0.78125)" xlink:href="#DejaVuSans-53"/>
     <use transform="translate(63.476562 0.78125)" xlink:href="#DejaVuSans-74"/>
     <use transform="translate(102.685547 0.78125)" xlink:href="#DejaVuSans-72"/>
     <use transform="translate(143.798828 0.78125)" xlink:href="#DejaVuSans-75"/>
     <use transform="translate(207.177734 0.78125)" xlink:href="#DejaVuSans-63"/>
     <use transform="translate(262.158203 0.78125)" xlink:href="#DejaVuSans-74"/>
     <use transform="translate(301.367188 0.78125)" xlink:href="#DejaVuSans-75"/>
     <use transform="translate(364.746094 0.78125)" xlink:href="#DejaVuSans-72"/>
     <use transform="translate(405.859375 0.78125)" xlink:href="#DejaVuSans-65"/>
     <use transform="translate(467.382812 0.78125)" xlink:href="#DejaVuSans-20"/>
     <use transform="translate(499.169922 0.78125)" xlink:href="#DejaVuSans-23"/>
     <use transform="translate(582.958984 0.78125)" xlink:href="#DejaVuSans-35"/>
     <use transform="translate(646.582031 0.78125)" xlink:href="#DejaVuSans-35"/>
     <use transform="translate(710.205078 0.78125)" xlink:href="#DejaVuSans-32"/>
     <use transform="translate(773.828125 0.78125)" xlink:href="#DejaVuSans-36"/>
     <use transform="translate(837.451172 0.78125)" xlink:href="#DejaVuSans-2c"/>
     <use transform="translate(869.238281 0.78125)" xlink:href="#DejaVuSans-20"/>
     <use transform="translate(901.025391 0.78125)" xlink:href="#DejaVuSans-Oblique-45"/>
     <use transform="translate(964.208984 -15.625)scale(0.7)" xlink:href="#DejaVuSans-Oblique-4e"/>
     <use transform="translate(1019.306641 0.78125)" xlink:href="#DejaVuSans-3d"/>
     <use transform="translate(1103.095703 0.78125)" xlink:href="#DejaVuSans-2d"/>
     <use transform="translate(1139.179688 0.78125)" xlink:href="#DejaVuSans-31"/>
     <use transform="translate(1202.802734 0.78125)" xlink:href="#DejaVuSans-38"/>
     <use transform="translate(1266.425781 0.78125)" xlink:href="#DejaVuSans-30"/>
     <use transform="translate(1330.048828 0.78125)" xlink:href="#DejaVuSans-2e"/>
     <use transform="translate(1361.835938 0.78125)" xlink:href="#DejaVuSans-33"/>
     <use transform="translate(1425.458984 0.78125)" xlink:href="#DejaVuSans-30"/>
     <use transform="translate(1489.082031 0.78125)" xlink:href="#DejaVuSans-65"/>
     <use transform="translate(1550.605469 0.78125)" xlink:href="#DejaVuSans-56"/>
     <use transform="translate(1619.013672 0.78125)" xlink:href="#DejaVuSans-2c"/>
     <use transform="translate(1650.800781 0.78125)" xlink:href="#DejaVuSans-20"/>
     <use transform="translate(1682.587891 0.78125)" xlink:href="#DejaVuSans-394"/>
     <use transform="translate(1750.996094 0.78125)" xlink:href="#DejaVuSans-45"/>
     <use transform="translate(1814.179688 0.78125)" xlink:href="#DejaVuSans-3d"/>
     <use transform="translate(1897.96875 0.78125)" xlink:href="#DejaVuSans-2d"/>
     <use transform="translate(1934.052734 0.78125)" xlink:href="#DejaVuSans-30"/>
     <use transform="translate(1997.675781 0.78125)" xlink:href="#DejaVuSans-2e"/>
     <use transform="translate(2029.462891 0.78125)" xlink:href="#DejaVuSans-34"/>
     <use transform="translate(2093.085938 0.78125)" xlink:href="#DejaVuSans-37"/>
     <use transform="translate(2156.708984 0.78125)" xlink:href="#DejaVuSans-65"/>
     <use transform="translate(2218.232422 0.78125)" xlink:href="#DejaVuSans-56"/>
    </g>
   </g>
  </g>
  <g id="axes_2">
   <g id="patch_2">
    <path clip-path="url(#pb37d6bf515)" d="M 361.152 307.584 
L 361.152 306.5445 
L 361.152 42.5115 
L 361.152 41.472 
L 374.4576 41.472 
L 374.4576 42.5115 
L 374.4576 306.5445 
L 374.4576 307.584 
z
" style="fill:#ffffff;stroke:#ffffff;stroke-linejoin:miter;stroke-width:0.01;"/>
   </g>
   <image height="265.68" id="imagea63750128f" transform="scale(1 -1)translate(0 -265.68)" width="12.96" x="361.44" xlink:href="data:image/png;base64,
iVBORw0KGgoAAAANSUhEUgAAABIAAAFxCAYAAAB+2fgXAAAABHNCSVQICAgIfAhkiAAAAeVJREFUeJztncmNw0AQA2ckheYQNv9QLIfQ8ygsCgQ7AEI8+jAs2Puz/94F1LP2ReCsZ18bAWIeZ5XaGRBE7VnbptG+KI101FYyNSiQG2oRITXKNaX9uclOdi2XWjftVE32CZCO2ou5Bj1TcCBr/1zB9ge7Fq0Rg2NM9pvbtG+ua1QgsRYhDy0ISEiNc40BEibbSI0Coj5CBGtkpFbXJiAjNZlrwhuSOv2M1DjXbEdEciBt1JSDDQKKpmZr2rr2j0DBGpXaWEJq3bQzEPIS26r9J+Wzv9Tm8o3aajRXqc3VUXsApKNWjeZq0x4ABVNbm7lrszVigDqP5vIl2+eaT2yfRkL7g+dRcNPqjohkjaCvRVBq0H2U3LQrOJCx9kdTg4B8oxZzzTdqdYHEngjUCAPyUctN9sVRq2sTECW2UKNLd2jVtRmo1A6AhMmWaSRcR8nUdIHUuVb75zJS218EyEitro1At69pIdeSk30Lkw0FktNImGyZRhy1O5galmxd03LUsHWk06jUZiCq+5Wb1kZNN4+wJxJuWt8RAW5am2sYNZ9rYCBzZ3buPKJ2P5Yj4Toy3keyIyJbIxs1rml1byCA84gpch5RQNB7Q0qNMGq2Hy4BXdNR41yz/cEEJfZzUz96r9PoB0okjeQ8y9TkAAAAAElFTkSuQmCC" y="-41.76"/>
   <g id="matplotlib.axis_1"/>
   <g id="matplotlib.axis_2">
    <g id="ytick_1">
     <g id="line2d_1">
      <defs>
       <path d="M 0 0 
L 3.5 0 
" id="md698af9506" style="stroke:#000000;stroke-width:0.8;"/>
      </defs>
      <g>
       <use style="stroke:#000000;stroke-width:0.8;" x="374.4576" xlink:href="#md698af9506" y="274.335947"/>
      </g>
     </g>
     <g id="text_2">
      <!-- −8.5 -->
      <defs>
       <path d="M 10.59375 35.5 
L 73.1875 35.5 
L 73.1875 27.203125 
L 10.59375 27.203125 
z
" id="DejaVuSans-2212"/>
      </defs>
      <g transform="translate(381.4576 278.135165)scale(0.1 -0.1)">
       <use xlink:href="#DejaVuSans-2212"/>
       <use x="83.789062" xlink:href="#DejaVuSans-38"/>
       <use x="147.412109" xlink:href="#DejaVuSans-2e"/>
       <use x="179.199219" xlink:href="#DejaVuSans-35"/>
      </g>
     </g>
    </g>
    <g id="ytick_2">
     <g id="line2d_2">
      <g>
       <use style="stroke:#000000;stroke-width:0.8;" x="374.4576" xlink:href="#md698af9506" y="240.044947"/>
      </g>
     </g>
     <g id="text_3">
      <!-- −8.0 -->
      <g transform="translate(381.4576 243.844165)scale(0.1 -0.1)">
       <use xlink:href="#DejaVuSans-2212"/>
       <use x="83.789062" xlink:href="#DejaVuSans-38"/>
       <use x="147.412109" xlink:href="#DejaVuSans-2e"/>
       <use x="179.199219" xlink:href="#DejaVuSans-30"/>
      </g>
     </g>
    </g>
    <g id="ytick_3">
     <g id="line2d_3">
      <g>
       <use style="stroke:#000000;stroke-width:0.8;" x="374.4576" xlink:href="#md698af9506" y="205.753947"/>
      </g>
     </g>
     <g id="text_4">
      <!-- −7.5 -->
      <g transform="translate(381.4576 209.553166)scale(0.1 -0.1)">
       <use xlink:href="#DejaVuSans-2212"/>
       <use x="83.789062" xlink:href="#DejaVuSans-37"/>
       <use x="147.412109" xlink:href="#DejaVuSans-2e"/>
       <use x="179.199219" xlink:href="#DejaVuSans-35"/>
      </g>
     </g>
    </g>
    <g id="ytick_4">
     <g id="line2d_4">
      <g>
       <use style="stroke:#000000;stroke-width:0.8;" x="374.4576" xlink:href="#md698af9506" y="171.462947"/>
      </g>
     </g>
     <g id="text_5">
      <!-- −7.0 -->
      <g transform="translate(381.4576 175.262166)scale(0.1 -0.1)">
       <use xlink:href="#DejaVuSans-2212"/>
       <use x="83.789062" xlink:href="#DejaVuSans-37"/>
       <use x="147.412109" xlink:href="#DejaVuSans-2e"/>
       <use x="179.199219" xlink:href="#DejaVuSans-30"/>
      </g>
     </g>
    </g>
    <g id="ytick_5">
     <g id="line2d_5">
      <g>
       <use style="stroke:#000000;stroke-width:0.8;" x="374.4576" xlink:href="#md698af9506" y="137.171947"/>
      </g>
     </g>
     <g id="text_6">
      <!-- −6.5 -->
      <g transform="translate(381.4576 140.971166)scale(0.1 -0.1)">
       <use xlink:href="#DejaVuSans-2212"/>
       <use x="83.789062" xlink:href="#DejaVuSans-36"/>
       <use x="147.412109" xlink:href="#DejaVuSans-2e"/>
       <use x="179.199219" xlink:href="#DejaVuSans-35"/>
      </g>
     </g>
    </g>
    <g id="ytick_6">
     <g id="line2d_6">
      <g>
       <use style="stroke:#000000;stroke-width:0.8;" x="374.4576" xlink:href="#md698af9506" y="102.880947"/>
      </g>
     </g>
     <g id="text_7">
      <!-- −6.0 -->
      <g transform="translate(381.4576 106.680166)scale(0.1 -0.1)">
       <use xlink:href="#DejaVuSans-2212"/>
       <use x="83.789062" xlink:href="#DejaVuSans-36"/>
       <use x="147.412109" xlink:href="#DejaVuSans-2e"/>
       <use x="179.199219" xlink:href="#DejaVuSans-30"/>
      </g>
     </g>
    </g>
    <g id="ytick_7">
     <g id="line2d_7">
      <g>
       <use style="stroke:#000000;stroke-width:0.8;" x="374.4576" xlink:href="#md698af9506" y="68.589947"/>
      </g>
     </g>
     <g id="text_8">
      <!-- −5.5 -->
      <g transform="translate(381.4576 72.389166)scale(0.1 -0.1)">
       <use xlink:href="#DejaVuSans-2212"/>
       <use x="83.789062" xlink:href="#DejaVuSans-35"/>
       <use x="147.412109" xlink:href="#DejaVuSans-2e"/>
       <use x="179.199219" xlink:href="#DejaVuSans-35"/>
      </g>
     </g>
    </g>
    <g id="text_9">
     <!-- Energy [eV] -->
     <defs>
      <path d="M 54.890625 33.015625 
L 54.890625 0 
L 45.90625 0 
L 45.90625 32.71875 
Q 45.90625 40.484375 42.875 44.328125 
Q 39.84375 48.1875 33.796875 48.1875 
Q 26.515625 48.1875 22.3125 43.546875 
Q 18.109375 38.921875 18.109375 30.90625 
L 18.109375 0 
L 9.078125 0 
L 9.078125 54.6875 
L 18.109375 54.6875 
L 18.109375 46.1875 
Q 21.34375 51.125 25.703125 53.5625 
Q 30.078125 56 35.796875 56 
Q 45.21875 56 50.046875 50.171875 
Q 54.890625 44.34375 54.890625 33.015625 
z
" id="DejaVuSans-6e"/>
      <path d="M 45.40625 27.984375 
Q 45.40625 37.75 41.375 43.109375 
Q 37.359375 48.484375 30.078125 48.484375 
Q 22.859375 48.484375 18.828125 43.109375 
Q 14.796875 37.75 14.796875 27.984375 
Q 14.796875 18.265625 18.828125 12.890625 
Q 22.859375 7.515625 30.078125 7.515625 
Q 37.359375 7.515625 41.375 12.890625 
Q 45.40625 18.265625 45.40625 27.984375 
z
M 54.390625 6.78125 
Q 54.390625 -7.171875 48.1875 -13.984375 
Q 42 -20.796875 29.203125 -20.796875 
Q 24.46875 -20.796875 20.265625 -20.09375 
Q 16.0625 -19.390625 12.109375 -17.921875 
L 12.109375 -9.1875 
Q 16.0625 -11.328125 19.921875 -12.34375 
Q 23.78125 -13.375 27.78125 -13.375 
Q 36.625 -13.375 41.015625 -8.765625 
Q 45.40625 -4.15625 45.40625 5.171875 
L 45.40625 9.625 
Q 42.625 4.78125 38.28125 2.390625 
Q 33.9375 0 27.875 0 
Q 17.828125 0 11.671875 7.65625 
Q 5.515625 15.328125 5.515625 27.984375 
Q 5.515625 40.671875 11.671875 48.328125 
Q 17.828125 56 27.875 56 
Q 33.9375 56 38.28125 53.609375 
Q 42.625 51.21875 45.40625 46.390625 
L 45.40625 54.6875 
L 54.390625 54.6875 
z
" id="DejaVuSans-67"/>
      <path d="M 32.171875 -5.078125 
Q 28.375 -14.84375 24.75 -17.8125 
Q 21.140625 -20.796875 15.09375 -20.796875 
L 7.90625 -20.796875 
L 7.90625 -13.28125 
L 13.1875 -13.28125 
Q 16.890625 -13.28125 18.9375 -11.515625 
Q 21 -9.765625 23.484375 -3.21875 
L 25.09375 0.875 
L 2.984375 54.6875 
L 12.5 54.6875 
L 29.59375 11.921875 
L 46.6875 54.6875 
L 56.203125 54.6875 
z
" id="DejaVuSans-79"/>
      <path d="M 8.59375 75.984375 
L 29.296875 75.984375 
L 29.296875 69 
L 17.578125 69 
L 17.578125 -6.203125 
L 29.296875 -6.203125 
L 29.296875 -13.1875 
L 8.59375 -13.1875 
z
" id="DejaVuSans-5b"/>
      <path d="M 30.421875 75.984375 
L 30.421875 -13.1875 
L 9.71875 -13.1875 
L 9.71875 -6.203125 
L 21.390625 -6.203125 
L 21.390625 69 
L 9.71875 69 
L 9.71875 75.984375 
z
" id="DejaVuSans-5d"/>
     </defs>
     <g transform="translate(417.33885 204.108469)rotate(-90)scale(0.1 -0.1)">
      <use xlink:href="#DejaVuSans-45"/>
      <use x="63.183594" xlink:href="#DejaVuSans-6e"/>
      <use x="126.5625" xlink:href="#DejaVuSans-65"/>
      <use x="188.085938" xlink:href="#DejaVuSans-72"/>
      <use x="229.183594" xlink:href="#DejaVuSans-67"/>
      <use x="292.660156" xlink:href="#DejaVuSans-79"/>
      <use x="351.839844" xlink:href="#DejaVuSans-20"/>
      <use x="383.626953" xlink:href="#DejaVuSans-5b"/>
      <use x="422.640625" xlink:href="#DejaVuSans-65"/>
      <use x="484.164062" xlink:href="#DejaVuSans-56"/>
      <use x="552.572266" xlink:href="#DejaVuSans-5d"/>
     </g>
    </g>
   </g>
   <g id="patch_3">
    <path d="M 361.152 307.584 
L 361.152 306.5445 
L 361.152 42.5115 
L 361.152 41.472 
L 374.4576 41.472 
L 374.4576 42.5115 
L 374.4576 306.5445 
L 374.4576 307.584 
z
" style="fill:none;stroke:#000000;stroke-linejoin:miter;stroke-width:0.8;"/>
   </g>
  </g>
 </g>
 <defs>
  <clipPath id="p7c8372e140">
   <rect height="266.112" width="285.696" x="57.6" y="41.472"/>
  </clipPath>
  <clipPath id="pb37d6bf515">
   <rect height="266.112" width="13.3056" x="361.152" y="41.472"/>
  </clipPath>
 </defs>
</svg>
