<?xml version="1.0" encoding="utf-8" standalone="no"?>
<!DOCTYPE svg PUBLIC "-//W3C//DTD SVG 1.1//EN"
  "http://www.w3.org/Graphics/SVG/1.1/DTD/svg11.dtd">
<!-- Created with matplotlib (http://matplotlib.org/) -->
<svg height="345.6pt" version="1.1" viewBox="0 0 460.8 345.6" width="460.8pt" xmlns="http://www.w3.org/2000/svg" xmlns:xlink="http://www.w3.org/1999/xlink">
 <defs>
  <style type="text/css">
*{stroke-linecap:butt;stroke-linejoin:round;}
  </style>
 </defs>
 <g id="figure_1">
  <g id="patch_1">
   <path d="M 0 345.6 
L 460.8 345.6 
L 460.8 0 
L 0 0 
z
" style="fill:#ffffff;"/>
  </g>
  <g id="axes_1">
   <g id="CircleCollection_1">
    <path clip-path="url(#pfc8e96184e)" d="M 249.312513 60.997211 
C 251.153659 60.997211 252.919645 60.265716 254.221531 58.963829 
C 255.523418 57.661942 256.254913 55.895957 256.254913 54.054811 
C 256.254913 52.213665 255.523418 50.44768 254.221531 49.145793 
C 252.919645 47.843906 251.153659 47.112411 249.312513 47.112411 
C 247.471367 47.112411 245.705382 47.843906 244.403495 49.145793 
C 243.101609 50.44768 242.370113 52.213665 242.370113 54.054811 
C 242.370113 55.895957 243.101609 57.661942 244.403495 58.963829 
C 245.705382 60.265716 247.471367 60.997211 249.312513 60.997211 
z
" style="fill:#22a884;"/>
    <path clip-path="url(#pfc8e96184e)" d="M 73.789474 268.067403 
C 75.655508 268.067403 77.445366 267.32602 78.764851 266.006535 
C 80.084337 264.687049 80.82572 262.897192 80.82572 261.031158 
C 80.82572 259.165123 80.084337 257.375266 78.764851 256.05578 
C 77.445366 254.736295 75.655508 253.994912 73.789474 253.994912 
C 71.92344 253.994912 70.133582 254.736295 68.814097 256.05578 
C 67.494612 257.375266 66.753228 259.165123 66.753228 261.031158 
C 66.753228 262.897192 67.494612 264.687049 68.814097 266.006535 
C 70.133582 267.32602 71.92344 268.067403 73.789474 268.067403 
z
" style="fill:#69cd5b;"/>
    <path clip-path="url(#pfc8e96184e)" d="M 71.060932 237.273315 
C 72.953215 237.273315 74.76825 236.521503 76.106296 235.183457 
C 77.444343 233.845411 78.196155 232.030376 78.196155 230.138093 
C 78.196155 228.24581 77.444343 226.430775 76.106296 225.092729 
C 74.76825 223.754682 72.953215 223.00287 71.060932 223.00287 
C 69.168649 223.00287 67.353614 223.754682 66.015568 225.092729 
C 64.677522 226.430775 63.92571 228.24581 63.92571 230.138093 
C 63.92571 232.030376 64.677522 233.845411 66.015568 235.183457 
C 67.353614 236.521503 69.168649 237.273315 71.060932 237.273315 
z
" style="fill:#34b679;"/>
    <path clip-path="url(#pfc8e96184e)" d="M 215.357723 75.003868 
C 217.230191 75.003868 219.026219 74.259929 220.350254 72.935894 
C 221.674289 71.611859 222.418228 69.81583 222.418228 67.943362 
C 222.418228 66.070895 221.674289 64.274866 220.350254 62.950831 
C 219.026219 61.626796 217.230191 60.882857 215.357723 60.882857 
C 213.485255 60.882857 211.689226 61.626796 210.365191 62.950831 
C 209.041156 64.274866 208.297217 66.070895 208.297217 67.943362 
C 208.297217 69.81583 209.041156 71.611859 210.365191 72.935894 
C 211.689226 74.259929 213.485255 75.003868 215.357723 75.003868 
z
" style="fill:#24aa83;"/>
    <path clip-path="url(#pfc8e96184e)" d="M 187.782489 182.390627 
C 189.602215 182.390627 191.347655 181.667642 192.634395 180.380902 
C 193.921136 179.094161 194.644121 177.348721 194.644121 175.528995 
C 194.644121 173.709269 193.921136 171.963829 192.634395 170.677089 
C 191.347655 169.390348 189.602215 168.667363 187.782489 168.667363 
C 185.962763 168.667363 184.217323 169.390348 182.930582 170.677089 
C 181.643842 171.963829 180.920857 173.709269 180.920857 175.528995 
C 180.920857 177.348721 181.643842 179.094161 182.930582 180.380902 
C 184.217323 181.667642 185.962763 182.390627 187.782489 182.390627 
z
" style="fill:#54c568;"/>
    <path clip-path="url(#pfc8e96184e)" d="M 310.511697 169.341709 
C 312.201921 169.341709 313.823145 168.670176 315.018314 167.475007 
C 316.213483 166.279839 316.885016 164.658615 316.885016 162.968391 
C 316.885016 161.278167 316.213483 159.656943 315.018314 158.461774 
C 313.823145 157.266606 312.201921 156.595073 310.511697 156.595073 
C 308.821474 156.595073 307.20025 157.266606 306.005081 158.461774 
C 304.809912 159.656943 304.138379 161.278167 304.138379 162.968391 
C 304.138379 164.658615 304.809912 166.279839 306.005081 167.475007 
C 307.20025 168.670176 308.821474 169.341709 310.511697 169.341709 
z
" style="fill:#1e9b8a;"/>
    <path clip-path="url(#pfc8e96184e)" d="M 130.562717 301.709881 
C 132.337209 301.709881 134.039262 301.004868 135.294017 299.750112 
C 136.548772 298.495357 137.253785 296.793305 137.253785 295.018813 
C 137.253785 293.244321 136.548772 291.542268 135.294017 290.287513 
C 134.039262 289.032757 132.337209 288.327744 130.562717 288.327744 
C 128.788225 288.327744 127.086173 289.032757 125.831417 290.287513 
C 124.576662 291.542268 123.871649 293.244321 123.871649 295.018813 
C 123.871649 296.793305 124.576662 298.495357 125.831417 299.750112 
C 127.086173 301.004868 128.788225 301.709881 130.562717 301.709881 
z
" style="fill:#eae51a;"/>
    <path clip-path="url(#pfc8e96184e)" d="M 157.441138 164.855668 
C 159.311716 164.855668 161.105933 164.112479 162.428632 162.789781 
C 163.75133 161.467082 164.494519 159.672865 164.494519 157.802287 
C 164.494519 155.931708 163.75133 154.137492 162.428632 152.814793 
C 161.105933 151.492094 159.311716 150.748905 157.441138 150.748905 
C 155.570559 150.748905 153.776343 151.492094 152.453644 152.814793 
C 151.130945 154.137492 150.387756 155.931708 150.387756 157.802287 
C 150.387756 159.672865 151.130945 161.467082 152.453644 162.789781 
C 153.776343 164.112479 155.570559 164.855668 157.441138 164.855668 
z
" style="fill:#440154;"/>
    <path clip-path="url(#pfc8e96184e)" d="M 216.244697 195.871429 
C 218.018333 195.871429 219.719564 195.166756 220.973714 193.912607 
C 222.227864 192.658457 222.932537 190.957226 222.932537 189.18359 
C 222.932537 187.409954 222.227864 185.708723 220.973714 184.454574 
C 219.719564 183.200424 218.018333 182.495751 216.244697 182.495751 
C 214.471062 182.495751 212.769831 183.200424 211.515681 184.454574 
C 210.261531 185.708723 209.556858 187.409954 209.556858 189.18359 
C 209.556858 190.957226 210.261531 192.658457 211.515681 193.912607 
C 212.769831 195.166756 214.471062 195.871429 216.244697 195.871429 
z
" style="fill:#54c568;"/>
    <path clip-path="url(#pfc8e96184e)" d="M 329.879335 106.217244 
C 331.595177 106.217244 333.240974 105.535532 334.454258 104.322248 
C 335.667542 103.108964 336.349254 101.463167 336.349254 99.747325 
C 336.349254 98.031482 335.667542 96.385685 334.454258 95.172401 
C 333.240974 93.959117 331.595177 93.277405 329.879335 93.277405 
C 328.163492 93.277405 326.517695 93.959117 325.304411 95.172401 
C 324.091127 96.385685 323.409415 98.031482 323.409415 99.747325 
C 323.409415 101.463167 324.091127 103.108964 325.304411 104.322248 
C 326.517695 105.535532 328.163492 106.217244 329.879335 106.217244 
z
" style="fill:#22a884;"/>
    <path clip-path="url(#pfc8e96184e)" d="M 315.099369 77.319404 
C 316.852383 77.319404 318.533834 76.622924 319.773402 75.383356 
C 321.01297 74.143788 321.709449 72.462337 321.709449 70.709323 
C 321.709449 68.956309 321.01297 67.274858 319.773402 66.03529 
C 318.533834 64.795722 316.852383 64.099243 315.099369 64.099243 
C 313.346355 64.099243 311.664904 64.795722 310.425336 66.03529 
C 309.185768 67.274858 308.489288 68.956309 308.489288 70.709323 
C 308.489288 72.462337 309.185768 74.143788 310.425336 75.383356 
C 311.664904 76.622924 313.346355 77.319404 315.099369 77.319404 
z
" style="fill:#26ad81;"/>
    <path clip-path="url(#pfc8e96184e)" d="M 329.248474 137.822845 
C 330.941246 137.822845 332.564914 137.1503 333.761885 135.953329 
C 334.958855 134.756359 335.6314 133.132691 335.6314 131.439919 
C 335.6314 129.747147 334.958855 128.123479 333.761885 126.926508 
C 332.564914 125.729538 330.941246 125.056992 329.248474 125.056992 
C 327.555702 125.056992 325.932034 125.729538 324.735063 126.926508 
C 323.538093 128.123479 322.865547 129.747147 322.865547 131.439919 
C 322.865547 133.132691 323.538093 134.756359 324.735063 135.953329 
C 325.932034 137.1503 327.555702 137.822845 329.248474 137.822845 
z
" style="fill:#25ac82;"/>
    <path clip-path="url(#pfc8e96184e)" d="M 92.446461 207.360138 
C 94.354152 207.360138 96.183967 206.602204 97.532908 205.253263 
C 98.88185 203.904321 99.639784 202.074507 99.639784 200.166815 
C 99.639784 198.259124 98.88185 196.42931 97.532908 195.080368 
C 96.183967 193.731427 94.354152 192.973493 92.446461 192.973493 
C 90.538769 192.973493 88.708955 193.731427 87.360014 195.080368 
C 86.011072 196.42931 85.253138 198.259124 85.253138 200.166815 
C 85.253138 202.074507 86.011072 203.904321 87.360014 205.253263 
C 88.708955 206.602204 90.538769 207.360138 92.446461 207.360138 
z
" style="fill:#1f9f88;"/>
    <path clip-path="url(#pfc8e96184e)" d="M 246.799591 213.375197 
C 248.519804 213.375197 250.169793 212.691749 251.386167 211.475375 
C 252.602541 210.259001 253.285989 208.609012 253.285989 206.888799 
C 253.285989 205.168586 252.602541 203.518597 251.386167 202.302223 
C 250.169793 201.085849 248.519804 200.402401 246.799591 200.402401 
C 245.079378 200.402401 243.429389 201.085849 242.213015 202.302223 
C 240.996641 203.518597 240.313193 205.168586 240.313193 206.888799 
C 240.313193 208.609012 240.996641 210.259001 242.213015 211.475375 
C 243.429389 212.691749 245.079378 213.375197 246.799591 213.375197 
z
" style="fill:#460b5e;"/>
    <path clip-path="url(#pfc8e96184e)" d="M 167.50744 130.000889 
C 169.394661 130.000889 171.204841 129.251088 172.539307 127.916621 
C 173.873774 126.582154 174.623575 124.771975 174.623575 122.884754 
C 174.623575 120.997533 173.873774 119.187353 172.539307 117.852887 
C 171.204841 116.51842 169.394661 115.768619 167.50744 115.768619 
C 165.620219 115.768619 163.81004 116.51842 162.475573 117.852887 
C 161.141106 119.187353 160.391305 120.997533 160.391305 122.884754 
C 160.391305 124.771975 161.141106 126.582154 162.475573 127.916621 
C 163.81004 129.251088 165.620219 130.000889 167.50744 130.000889 
z
" style="fill:#69cd5b;"/>
    <path clip-path="url(#pfc8e96184e)" d="M 286.648192 61.241557 
C 288.445396 61.241557 290.169234 60.52752 291.440049 59.256705 
C 292.710865 57.985889 293.424902 56.262052 293.424902 54.464847 
C 293.424902 52.667643 292.710865 50.943805 291.440049 49.67299 
C 290.169234 48.402175 288.445396 47.688138 286.648192 47.688138 
C 284.850987 47.688138 283.12715 48.402175 281.856334 49.67299 
C 280.585519 50.943805 279.871482 52.667643 279.871482 54.464847 
C 279.871482 56.262052 280.585519 57.985889 281.856334 59.256705 
C 283.12715 60.52752 284.850987 61.241557 286.648192 61.241557 
z
" style="fill:#28ae80;"/>
    <path clip-path="url(#pfc8e96184e)" d="M 160.529072 280.937425 
C 162.247471 280.937425 163.89572 280.254698 165.110811 279.039606 
C 166.325902 277.824515 167.008629 276.176266 167.008629 274.457868 
C 167.008629 272.739469 166.325902 271.091221 165.110811 269.876129 
C 163.89572 268.661038 162.247471 267.978311 160.529072 267.978311 
C 158.810674 267.978311 157.162425 268.661038 155.947334 269.876129 
C 154.732243 271.091221 154.049516 272.739469 154.049516 274.457868 
C 154.049516 276.176266 154.732243 277.824515 155.947334 279.039606 
C 157.162425 280.254698 158.810674 280.937425 160.529072 280.937425 
z
" style="fill:#1fa287;"/>
    <path clip-path="url(#pfc8e96184e)" d="M 203.57606 270.542865 
C 205.280237 270.542865 206.914844 269.865789 208.119878 268.660754 
C 209.324913 267.45572 210.00199 265.821113 210.00199 264.116936 
C 210.00199 262.41276 209.324913 260.778153 208.119878 259.573118 
C 206.914844 258.368084 205.280237 257.691007 203.57606 257.691007 
C 201.871884 257.691007 200.237277 258.368084 199.032242 259.573118 
C 197.827208 260.778153 197.150131 262.41276 197.150131 264.116936 
C 197.150131 265.821113 197.827208 267.45572 199.032242 268.660754 
C 200.237277 269.865789 201.871884 270.542865 203.57606 270.542865 
z
" style="fill:#29af7f;"/>
    <path clip-path="url(#pfc8e96184e)" d="M 123.796019 261.652349 
C 125.536904 261.652349 127.206721 260.960688 128.437712 259.729697 
C 129.668703 258.498705 130.360364 256.828888 130.360364 255.088004 
C 130.360364 253.347119 129.668703 251.677302 128.437712 250.446311 
C 127.206721 249.21532 125.536904 248.523659 123.796019 248.523659 
C 122.055134 248.523659 120.385318 249.21532 119.154326 250.446311 
C 117.923335 251.677302 117.231674 253.347119 117.231674 255.088004 
C 117.231674 256.828888 117.923335 258.498705 119.154326 259.729697 
C 120.385318 260.960688 122.055134 261.652349 123.796019 261.652349 
z
" style="fill:#fde725;"/>
    <path clip-path="url(#pfc8e96184e)" d="M 119.3579 182.985126 
C 121.254209 182.985126 123.073106 182.231714 124.413999 180.890821 
C 125.754892 179.549928 126.508304 177.731031 126.508304 175.834722 
C 126.508304 173.938412 125.754892 172.119516 124.413999 170.778623 
C 123.073106 169.43773 121.254209 168.684318 119.3579 168.684318 
C 117.461591 168.684318 115.642694 169.43773 114.301801 170.778623 
C 112.960908 172.119516 112.207496 173.938412 112.207496 175.834722 
C 112.207496 177.731031 112.960908 179.549928 114.301801 180.890821 
C 115.642694 182.231714 117.461591 182.985126 119.3579 182.985126 
z
" style="fill:#77d153;"/>
    <path clip-path="url(#pfc8e96184e)" d="M 187.41006 101.376145 
C 189.296029 101.376145 191.105007 100.626842 192.438588 99.29326 
C 193.772169 97.959679 194.521473 96.150701 194.521473 94.264732 
C 194.521473 92.378764 193.772169 90.569785 192.438588 89.236204 
C 191.105007 87.902623 189.296029 87.15332 187.41006 87.15332 
C 185.524091 87.15332 183.715113 87.902623 182.381532 89.236204 
C 181.04795 90.569785 180.298647 92.378764 180.298647 94.264732 
C 180.298647 96.150701 181.04795 97.959679 182.381532 99.29326 
C 183.715113 100.626842 185.524091 101.376145 187.41006 101.376145 
z
" style="fill:#1f968b;"/>
    <path clip-path="url(#pfc8e96184e)" d="M 93.916182 282.519476 
C 95.714328 282.519476 97.439069 281.805064 98.710551 280.533583 
C 99.982033 279.262101 100.696444 277.53736 100.696444 275.739213 
C 100.696444 273.941067 99.982033 272.216326 98.710551 270.944844 
C 97.439069 269.673362 95.714328 268.958951 93.916182 268.958951 
C 92.118035 268.958951 90.393294 269.673362 89.121812 270.944844 
C 87.850331 272.216326 87.135919 273.941067 87.135919 275.739213 
C 87.135919 277.53736 87.850331 279.262101 89.121812 280.533583 
C 90.393294 281.805064 92.118035 282.519476 93.916182 282.519476 
z
" style="fill:#2eb37c;"/>
    <path clip-path="url(#pfc8e96184e)" d="M 285.215369 195.273058 
C 286.91056 195.273058 288.536549 194.599551 289.73523 193.40087 
C 290.933911 192.202189 291.607417 190.5762 291.607417 188.881009 
C 291.607417 187.185818 290.933911 185.559829 289.73523 184.361148 
C 288.536549 183.162467 286.91056 182.488961 285.215369 182.488961 
C 283.520178 182.488961 281.894189 183.162467 280.695508 184.361148 
C 279.496827 185.559829 278.823321 187.185818 278.823321 188.881009 
C 278.823321 190.5762 279.496827 192.202189 280.695508 193.40087 
C 281.894189 194.599551 283.520178 195.273058 285.215369 195.273058 
z
" style="fill:#6ccd5a;"/>
    <path clip-path="url(#pfc8e96184e)" d="M 231.298307 246.620725 
C 232.992615 246.620725 234.617757 245.947569 235.815813 244.749513 
C 237.01387 243.551456 237.687026 241.926314 237.687026 240.232006 
C 237.687026 238.537698 237.01387 236.912556 235.815813 235.714499 
C 234.617757 234.516443 232.992615 233.843287 231.298307 233.843287 
C 229.603999 233.843287 227.978857 234.516443 226.7808 235.714499 
C 225.582744 236.912556 224.909588 238.537698 224.909588 240.232006 
C 224.909588 241.926314 225.582744 243.551456 226.7808 244.749513 
C 227.978857 245.947569 229.603999 246.620725 231.298307 246.620725 
z
" style="fill:#7fd34e;"/>
   </g>
   <g id="text_1">
    <!-- Structure #2946, $E_N$=-181.08eV, ΔE=-0.20eV -->
    <defs>
     <path d="M 53.515625 70.515625 
L 53.515625 60.890625 
Q 47.90625 63.578125 42.921875 64.890625 
Q 37.9375 66.21875 33.296875 66.21875 
Q 25.25 66.21875 20.875 63.09375 
Q 16.5 59.96875 16.5 54.203125 
Q 16.5 49.359375 19.40625 46.890625 
Q 22.3125 44.4375 30.421875 42.921875 
L 36.375 41.703125 
Q 47.40625 39.59375 52.65625 34.296875 
Q 57.90625 29 57.90625 20.125 
Q 57.90625 9.515625 50.796875 4.046875 
Q 43.703125 -1.421875 29.984375 -1.421875 
Q 24.8125 -1.421875 18.96875 -0.25 
Q 13.140625 0.921875 6.890625 3.21875 
L 6.890625 13.375 
Q 12.890625 10.015625 18.65625 8.296875 
Q 24.421875 6.59375 29.984375 6.59375 
Q 38.421875 6.59375 43.015625 9.90625 
Q 47.609375 13.234375 47.609375 19.390625 
Q 47.609375 24.75 44.3125 27.78125 
Q 41.015625 30.8125 33.5 32.328125 
L 27.484375 33.5 
Q 16.453125 35.6875 11.515625 40.375 
Q 6.59375 45.0625 6.59375 53.421875 
Q 6.59375 63.09375 13.40625 68.65625 
Q 20.21875 74.21875 32.171875 74.21875 
Q 37.3125 74.21875 42.625 73.28125 
Q 47.953125 72.359375 53.515625 70.515625 
z
" id="DejaVuSans-53"/>
     <path d="M 18.3125 70.21875 
L 18.3125 54.6875 
L 36.8125 54.6875 
L 36.8125 47.703125 
L 18.3125 47.703125 
L 18.3125 18.015625 
Q 18.3125 11.328125 20.140625 9.421875 
Q 21.96875 7.515625 27.59375 7.515625 
L 36.8125 7.515625 
L 36.8125 0 
L 27.59375 0 
Q 17.1875 0 13.234375 3.875 
Q 9.28125 7.765625 9.28125 18.015625 
L 9.28125 47.703125 
L 2.6875 47.703125 
L 2.6875 54.6875 
L 9.28125 54.6875 
L 9.28125 70.21875 
z
" id="DejaVuSans-74"/>
     <path d="M 41.109375 46.296875 
Q 39.59375 47.171875 37.8125 47.578125 
Q 36.03125 48 33.890625 48 
Q 26.265625 48 22.1875 43.046875 
Q 18.109375 38.09375 18.109375 28.8125 
L 18.109375 0 
L 9.078125 0 
L 9.078125 54.6875 
L 18.109375 54.6875 
L 18.109375 46.1875 
Q 20.953125 51.171875 25.484375 53.578125 
Q 30.03125 56 36.53125 56 
Q 37.453125 56 38.578125 55.875 
Q 39.703125 55.765625 41.0625 55.515625 
z
" id="DejaVuSans-72"/>
     <path d="M 8.5 21.578125 
L 8.5 54.6875 
L 17.484375 54.6875 
L 17.484375 21.921875 
Q 17.484375 14.15625 20.5 10.265625 
Q 23.53125 6.390625 29.59375 6.390625 
Q 36.859375 6.390625 41.078125 11.03125 
Q 45.3125 15.671875 45.3125 23.6875 
L 45.3125 54.6875 
L 54.296875 54.6875 
L 54.296875 0 
L 45.3125 0 
L 45.3125 8.40625 
Q 42.046875 3.421875 37.71875 1 
Q 33.40625 -1.421875 27.6875 -1.421875 
Q 18.265625 -1.421875 13.375 4.4375 
Q 8.5 10.296875 8.5 21.578125 
z
M 31.109375 56 
z
" id="DejaVuSans-75"/>
     <path d="M 48.78125 52.59375 
L 48.78125 44.1875 
Q 44.96875 46.296875 41.140625 47.34375 
Q 37.3125 48.390625 33.40625 48.390625 
Q 24.65625 48.390625 19.8125 42.84375 
Q 14.984375 37.3125 14.984375 27.296875 
Q 14.984375 17.28125 19.8125 11.734375 
Q 24.65625 6.203125 33.40625 6.203125 
Q 37.3125 6.203125 41.140625 7.25 
Q 44.96875 8.296875 48.78125 10.40625 
L 48.78125 2.09375 
Q 45.015625 0.34375 40.984375 -0.53125 
Q 36.96875 -1.421875 32.421875 -1.421875 
Q 20.0625 -1.421875 12.78125 6.34375 
Q 5.515625 14.109375 5.515625 27.296875 
Q 5.515625 40.671875 12.859375 48.328125 
Q 20.21875 56 33.015625 56 
Q 37.15625 56 41.109375 55.140625 
Q 45.0625 54.296875 48.78125 52.59375 
z
" id="DejaVuSans-63"/>
     <path d="M 56.203125 29.59375 
L 56.203125 25.203125 
L 14.890625 25.203125 
Q 15.484375 15.921875 20.484375 11.0625 
Q 25.484375 6.203125 34.421875 6.203125 
Q 39.59375 6.203125 44.453125 7.46875 
Q 49.3125 8.734375 54.109375 11.28125 
L 54.109375 2.78125 
Q 49.265625 0.734375 44.1875 -0.34375 
Q 39.109375 -1.421875 33.890625 -1.421875 
Q 20.796875 -1.421875 13.15625 6.1875 
Q 5.515625 13.8125 5.515625 26.8125 
Q 5.515625 40.234375 12.765625 48.109375 
Q 20.015625 56 32.328125 56 
Q 43.359375 56 49.78125 48.890625 
Q 56.203125 41.796875 56.203125 29.59375 
z
M 47.21875 32.234375 
Q 47.125 39.59375 43.09375 43.984375 
Q 39.0625 48.390625 32.421875 48.390625 
Q 24.90625 48.390625 20.390625 44.140625 
Q 15.875 39.890625 15.1875 32.171875 
z
" id="DejaVuSans-65"/>
     <path id="DejaVuSans-20"/>
     <path d="M 51.125 44 
L 36.921875 44 
L 32.8125 27.6875 
L 47.125 27.6875 
z
M 43.796875 71.78125 
L 38.71875 51.515625 
L 52.984375 51.515625 
L 58.109375 71.78125 
L 65.921875 71.78125 
L 60.890625 51.515625 
L 76.125 51.515625 
L 76.125 44 
L 58.984375 44 
L 54.984375 27.6875 
L 70.515625 27.6875 
L 70.515625 20.21875 
L 53.078125 20.21875 
L 48 0 
L 40.1875 0 
L 45.21875 20.21875 
L 30.90625 20.21875 
L 25.875 0 
L 18.015625 0 
L 23.09375 20.21875 
L 7.71875 20.21875 
L 7.71875 27.6875 
L 24.90625 27.6875 
L 29 44 
L 13.28125 44 
L 13.28125 51.515625 
L 30.90625 51.515625 
L 35.890625 71.78125 
z
" id="DejaVuSans-23"/>
     <path d="M 19.1875 8.296875 
L 53.609375 8.296875 
L 53.609375 0 
L 7.328125 0 
L 7.328125 8.296875 
Q 12.9375 14.109375 22.625 23.890625 
Q 32.328125 33.6875 34.8125 36.53125 
Q 39.546875 41.84375 41.421875 45.53125 
Q 43.3125 49.21875 43.3125 52.78125 
Q 43.3125 58.59375 39.234375 62.25 
Q 35.15625 65.921875 28.609375 65.921875 
Q 23.96875 65.921875 18.8125 64.3125 
Q 13.671875 62.703125 7.8125 59.421875 
L 7.8125 69.390625 
Q 13.765625 71.78125 18.9375 73 
Q 24.125 74.21875 28.421875 74.21875 
Q 39.75 74.21875 46.484375 68.546875 
Q 53.21875 62.890625 53.21875 53.421875 
Q 53.21875 48.921875 51.53125 44.890625 
Q 49.859375 40.875 45.40625 35.40625 
Q 44.1875 33.984375 37.640625 27.21875 
Q 31.109375 20.453125 19.1875 8.296875 
z
" id="DejaVuSans-32"/>
     <path d="M 10.984375 1.515625 
L 10.984375 10.5 
Q 14.703125 8.734375 18.5 7.8125 
Q 22.3125 6.890625 25.984375 6.890625 
Q 35.75 6.890625 40.890625 13.453125 
Q 46.046875 20.015625 46.78125 33.40625 
Q 43.953125 29.203125 39.59375 26.953125 
Q 35.25 24.703125 29.984375 24.703125 
Q 19.046875 24.703125 12.671875 31.3125 
Q 6.296875 37.9375 6.296875 49.421875 
Q 6.296875 60.640625 12.9375 67.421875 
Q 19.578125 74.21875 30.609375 74.21875 
Q 43.265625 74.21875 49.921875 64.515625 
Q 56.59375 54.828125 56.59375 36.375 
Q 56.59375 19.140625 48.40625 8.859375 
Q 40.234375 -1.421875 26.421875 -1.421875 
Q 22.703125 -1.421875 18.890625 -0.6875 
Q 15.09375 0.046875 10.984375 1.515625 
z
M 30.609375 32.421875 
Q 37.25 32.421875 41.125 36.953125 
Q 45.015625 41.5 45.015625 49.421875 
Q 45.015625 57.28125 41.125 61.84375 
Q 37.25 66.40625 30.609375 66.40625 
Q 23.96875 66.40625 20.09375 61.84375 
Q 16.21875 57.28125 16.21875 49.421875 
Q 16.21875 41.5 20.09375 36.953125 
Q 23.96875 32.421875 30.609375 32.421875 
z
" id="DejaVuSans-39"/>
     <path d="M 37.796875 64.3125 
L 12.890625 25.390625 
L 37.796875 25.390625 
z
M 35.203125 72.90625 
L 47.609375 72.90625 
L 47.609375 25.390625 
L 58.015625 25.390625 
L 58.015625 17.1875 
L 47.609375 17.1875 
L 47.609375 0 
L 37.796875 0 
L 37.796875 17.1875 
L 4.890625 17.1875 
L 4.890625 26.703125 
z
" id="DejaVuSans-34"/>
     <path d="M 33.015625 40.375 
Q 26.375 40.375 22.484375 35.828125 
Q 18.609375 31.296875 18.609375 23.390625 
Q 18.609375 15.53125 22.484375 10.953125 
Q 26.375 6.390625 33.015625 6.390625 
Q 39.65625 6.390625 43.53125 10.953125 
Q 47.40625 15.53125 47.40625 23.390625 
Q 47.40625 31.296875 43.53125 35.828125 
Q 39.65625 40.375 33.015625 40.375 
z
M 52.59375 71.296875 
L 52.59375 62.3125 
Q 48.875 64.0625 45.09375 64.984375 
Q 41.3125 65.921875 37.59375 65.921875 
Q 27.828125 65.921875 22.671875 59.328125 
Q 17.53125 52.734375 16.796875 39.40625 
Q 19.671875 43.65625 24.015625 45.921875 
Q 28.375 48.1875 33.59375 48.1875 
Q 44.578125 48.1875 50.953125 41.515625 
Q 57.328125 34.859375 57.328125 23.390625 
Q 57.328125 12.15625 50.6875 5.359375 
Q 44.046875 -1.421875 33.015625 -1.421875 
Q 20.359375 -1.421875 13.671875 8.265625 
Q 6.984375 17.96875 6.984375 36.375 
Q 6.984375 53.65625 15.1875 63.9375 
Q 23.390625 74.21875 37.203125 74.21875 
Q 40.921875 74.21875 44.703125 73.484375 
Q 48.484375 72.75 52.59375 71.296875 
z
" id="DejaVuSans-36"/>
     <path d="M 11.71875 12.40625 
L 22.015625 12.40625 
L 22.015625 4 
L 14.015625 -11.625 
L 7.71875 -11.625 
L 11.71875 4 
z
" id="DejaVuSans-2c"/>
     <path d="M 16.890625 72.90625 
L 62.984375 72.90625 
L 61.375 64.59375 
L 25.09375 64.59375 
L 20.90625 43.015625 
L 55.71875 43.015625 
L 54.109375 34.71875 
L 19.28125 34.71875 
L 14.203125 8.296875 
L 51.3125 8.296875 
L 49.703125 0 
L 2.6875 0 
z
" id="DejaVuSans-Oblique-45"/>
     <path d="M 16.890625 72.90625 
L 30.171875 72.90625 
L 50.296875 10.40625 
L 62.5 72.90625 
L 72.125 72.90625 
L 57.90625 0 
L 44.578125 0 
L 24.515625 62.890625 
L 12.3125 0 
L 2.6875 0 
z
" id="DejaVuSans-Oblique-4e"/>
     <path d="M 10.59375 45.40625 
L 73.1875 45.40625 
L 73.1875 37.203125 
L 10.59375 37.203125 
z
M 10.59375 25.484375 
L 73.1875 25.484375 
L 73.1875 17.1875 
L 10.59375 17.1875 
z
" id="DejaVuSans-3d"/>
     <path d="M 4.890625 31.390625 
L 31.203125 31.390625 
L 31.203125 23.390625 
L 4.890625 23.390625 
z
" id="DejaVuSans-2d"/>
     <path d="M 12.40625 8.296875 
L 28.515625 8.296875 
L 28.515625 63.921875 
L 10.984375 60.40625 
L 10.984375 69.390625 
L 28.421875 72.90625 
L 38.28125 72.90625 
L 38.28125 8.296875 
L 54.390625 8.296875 
L 54.390625 0 
L 12.40625 0 
z
" id="DejaVuSans-31"/>
     <path d="M 31.78125 34.625 
Q 24.75 34.625 20.71875 30.859375 
Q 16.703125 27.09375 16.703125 20.515625 
Q 16.703125 13.921875 20.71875 10.15625 
Q 24.75 6.390625 31.78125 6.390625 
Q 38.8125 6.390625 42.859375 10.171875 
Q 46.921875 13.96875 46.921875 20.515625 
Q 46.921875 27.09375 42.890625 30.859375 
Q 38.875 34.625 31.78125 34.625 
z
M 21.921875 38.8125 
Q 15.578125 40.375 12.03125 44.71875 
Q 8.5 49.078125 8.5 55.328125 
Q 8.5 64.0625 14.71875 69.140625 
Q 20.953125 74.21875 31.78125 74.21875 
Q 42.671875 74.21875 48.875 69.140625 
Q 55.078125 64.0625 55.078125 55.328125 
Q 55.078125 49.078125 51.53125 44.71875 
Q 48 40.375 41.703125 38.8125 
Q 48.828125 37.15625 52.796875 32.3125 
Q 56.78125 27.484375 56.78125 20.515625 
Q 56.78125 9.90625 50.3125 4.234375 
Q 43.84375 -1.421875 31.78125 -1.421875 
Q 19.734375 -1.421875 13.25 4.234375 
Q 6.78125 9.90625 6.78125 20.515625 
Q 6.78125 27.484375 10.78125 32.3125 
Q 14.796875 37.15625 21.921875 38.8125 
z
M 18.3125 54.390625 
Q 18.3125 48.734375 21.84375 45.5625 
Q 25.390625 42.390625 31.78125 42.390625 
Q 38.140625 42.390625 41.71875 45.5625 
Q 45.3125 48.734375 45.3125 54.390625 
Q 45.3125 60.0625 41.71875 63.234375 
Q 38.140625 66.40625 31.78125 66.40625 
Q 25.390625 66.40625 21.84375 63.234375 
Q 18.3125 60.0625 18.3125 54.390625 
z
" id="DejaVuSans-38"/>
     <path d="M 10.6875 12.40625 
L 21 12.40625 
L 21 0 
L 10.6875 0 
z
" id="DejaVuSans-2e"/>
     <path d="M 31.78125 66.40625 
Q 24.171875 66.40625 20.328125 58.90625 
Q 16.5 51.421875 16.5 36.375 
Q 16.5 21.390625 20.328125 13.890625 
Q 24.171875 6.390625 31.78125 6.390625 
Q 39.453125 6.390625 43.28125 13.890625 
Q 47.125 21.390625 47.125 36.375 
Q 47.125 51.421875 43.28125 58.90625 
Q 39.453125 66.40625 31.78125 66.40625 
z
M 31.78125 74.21875 
Q 44.046875 74.21875 50.515625 64.515625 
Q 56.984375 54.828125 56.984375 36.375 
Q 56.984375 17.96875 50.515625 8.265625 
Q 44.046875 -1.421875 31.78125 -1.421875 
Q 19.53125 -1.421875 13.0625 8.265625 
Q 6.59375 17.96875 6.59375 36.375 
Q 6.59375 54.828125 13.0625 64.515625 
Q 19.53125 74.21875 31.78125 74.21875 
z
" id="DejaVuSans-30"/>
     <path d="M 28.609375 0 
L 0.78125 72.90625 
L 11.078125 72.90625 
L 34.1875 11.53125 
L 57.328125 72.90625 
L 67.578125 72.90625 
L 39.796875 0 
z
" id="DejaVuSans-56"/>
     <path d="M 34.1875 63.1875 
L 14.15625 8.203125 
L 54.25 8.203125 
z
M 0.78125 0 
L 28.609375 72.90625 
L 39.796875 72.90625 
L 67.578125 0 
z
" id="DejaVuSans-394"/>
     <path d="M 9.8125 72.90625 
L 55.90625 72.90625 
L 55.90625 64.59375 
L 19.671875 64.59375 
L 19.671875 43.015625 
L 54.390625 43.015625 
L 54.390625 34.71875 
L 19.671875 34.71875 
L 19.671875 8.296875 
L 56.78125 8.296875 
L 56.78125 0 
L 9.8125 0 
z
" id="DejaVuSans-45"/>
    </defs>
    <g transform="translate(63.228 35.472)scale(0.12 -0.12)">
     <use transform="translate(0 0.78125)" xlink:href="#DejaVuSans-53"/>
     <use transform="translate(63.476562 0.78125)" xlink:href="#DejaVuSans-74"/>
     <use transform="translate(102.685547 0.78125)" xlink:href="#DejaVuSans-72"/>
     <use transform="translate(143.798828 0.78125)" xlink:href="#DejaVuSans-75"/>
     <use transform="translate(207.177734 0.78125)" xlink:href="#DejaVuSans-63"/>
     <use transform="translate(262.158203 0.78125)" xlink:href="#DejaVuSans-74"/>
     <use transform="translate(301.367188 0.78125)" xlink:href="#DejaVuSans-75"/>
     <use transform="translate(364.746094 0.78125)" xlink:href="#DejaVuSans-72"/>
     <use transform="translate(405.859375 0.78125)" xlink:href="#DejaVuSans-65"/>
     <use transform="translate(467.382812 0.78125)" xlink:href="#DejaVuSans-20"/>
     <use transform="translate(499.169922 0.78125)" xlink:href="#DejaVuSans-23"/>
     <use transform="translate(582.958984 0.78125)" xlink:href="#DejaVuSans-32"/>
     <use transform="translate(646.566406 0.78125)" xlink:href="#DejaVuSans-39"/>
     <use transform="translate(710.189453 0.78125)" xlink:href="#DejaVuSans-34"/>
     <use transform="translate(773.8125 0.78125)" xlink:href="#DejaVuSans-36"/>
     <use transform="translate(837.435547 0.78125)" xlink:href="#DejaVuSans-2c"/>
     <use transform="translate(869.222656 0.78125)" xlink:href="#DejaVuSans-20"/>
     <use transform="translate(901.009766 0.78125)" xlink:href="#DejaVuSans-Oblique-45"/>
     <use transform="translate(964.193359 -15.625)scale(0.7)" xlink:href="#DejaVuSans-Oblique-4e"/>
     <use transform="translate(1019.291016 0.78125)" xlink:href="#DejaVuSans-3d"/>
     <use transform="translate(1103.080078 0.78125)" xlink:href="#DejaVuSans-2d"/>
     <use transform="translate(1139.164062 0.78125)" xlink:href="#DejaVuSans-31"/>
     <use transform="translate(1202.787109 0.78125)" xlink:href="#DejaVuSans-38"/>
     <use transform="translate(1266.410156 0.78125)" xlink:href="#DejaVuSans-31"/>
     <use transform="translate(1330.033203 0.78125)" xlink:href="#DejaVuSans-2e"/>
     <use transform="translate(1361.820312 0.78125)" xlink:href="#DejaVuSans-30"/>
     <use transform="translate(1425.443359 0.78125)" xlink:href="#DejaVuSans-38"/>
     <use transform="translate(1489.066406 0.78125)" xlink:href="#DejaVuSans-65"/>
     <use transform="translate(1550.589844 0.78125)" xlink:href="#DejaVuSans-56"/>
     <use transform="translate(1618.998047 0.78125)" xlink:href="#DejaVuSans-2c"/>
     <use transform="translate(1650.785156 0.78125)" xlink:href="#DejaVuSans-20"/>
     <use transform="translate(1682.572266 0.78125)" xlink:href="#DejaVuSans-394"/>
     <use transform="translate(1750.980469 0.78125)" xlink:href="#DejaVuSans-45"/>
     <use transform="translate(1814.164062 0.78125)" xlink:href="#DejaVuSans-3d"/>
     <use transform="translate(1897.953125 0.78125)" xlink:href="#DejaVuSans-2d"/>
     <use transform="translate(1934.037109 0.78125)" xlink:href="#DejaVuSans-30"/>
     <use transform="translate(1997.660156 0.78125)" xlink:href="#DejaVuSans-2e"/>
     <use transform="translate(2029.369141 0.78125)" xlink:href="#DejaVuSans-32"/>
     <use transform="translate(2092.992188 0.78125)" xlink:href="#DejaVuSans-30"/>
     <use transform="translate(2156.615234 0.78125)" xlink:href="#DejaVuSans-65"/>
     <use transform="translate(2218.138672 0.78125)" xlink:href="#DejaVuSans-56"/>
    </g>
   </g>
  </g>
  <g id="axes_2">
   <g id="patch_2">
    <path clip-path="url(#pc9d7a7c4cb)" d="M 361.152 307.584 
L 361.152 306.5445 
L 361.152 42.5115 
L 361.152 41.472 
L 374.4576 41.472 
L 374.4576 42.5115 
L 374.4576 306.5445 
L 374.4576 307.584 
z
" style="fill:#ffffff;stroke:#ffffff;stroke-linejoin:miter;stroke-width:0.01;"/>
   </g>
   <image height="265.68" id="imaged30138f6e6" transform="scale(1 -1)translate(0 -265.68)" width="12.96" x="361.44" xlink:href="data:image/png;base64,
iVBORw0KGgoAAAANSUhEUgAAABIAAAFxCAYAAAB+2fgXAAAABHNCSVQICAgIfAhkiAAAAeVJREFUeJztncmNw0AQA2ckheYQNv9QLIfQ8ygsCgQ7AEI8+jAs2Puz/94F1LP2ReCsZ18bAWIeZ5XaGRBE7VnbptG+KI101FYyNSiQG2oRITXKNaX9uclOdi2XWjftVE32CZCO2ou5Bj1TcCBr/1zB9ge7Fq0Rg2NM9pvbtG+ua1QgsRYhDy0ISEiNc40BEibbSI0Coj5CBGtkpFbXJiAjNZlrwhuSOv2M1DjXbEdEciBt1JSDDQKKpmZr2rr2j0DBGpXaWEJq3bQzEPIS26r9J+Wzv9Tm8o3aajRXqc3VUXsApKNWjeZq0x4ABVNbm7lrszVigDqP5vIl2+eaT2yfRkL7g+dRcNPqjohkjaCvRVBq0H2U3LQrOJCx9kdTg4B8oxZzzTdqdYHEngjUCAPyUctN9sVRq2sTECW2UKNLd2jVtRmo1A6AhMmWaSRcR8nUdIHUuVb75zJS218EyEitro1At69pIdeSk30Lkw0FktNImGyZRhy1O5galmxd03LUsHWk06jUZiCq+5Wb1kZNN4+wJxJuWt8RAW5am2sYNZ9rYCBzZ3buPKJ2P5Yj4Toy3keyIyJbIxs1rml1byCA84gpch5RQNB7Q0qNMGq2Hy4BXdNR41yz/cEEJfZzUz96r9PoB0okjeQ8y9TkAAAAAElFTkSuQmCC" y="-41.76"/>
   <g id="matplotlib.axis_1"/>
   <g id="matplotlib.axis_2">
    <g id="ytick_1">
     <g id="line2d_1">
      <defs>
       <path d="M 0 0 
L 3.5 0 
" id="m0ecf80f1a8" style="stroke:#000000;stroke-width:0.8;"/>
      </defs>
      <g>
       <use style="stroke:#000000;stroke-width:0.8;" x="374.4576" xlink:href="#m0ecf80f1a8" y="279.878417"/>
      </g>
     </g>
     <g id="text_2">
      <!-- −9.0 -->
      <defs>
       <path d="M 10.59375 35.5 
L 73.1875 35.5 
L 73.1875 27.203125 
L 10.59375 27.203125 
z
" id="DejaVuSans-2212"/>
      </defs>
      <g transform="translate(381.4576 283.677636)scale(0.1 -0.1)">
       <use xlink:href="#DejaVuSans-2212"/>
       <use x="83.789062" xlink:href="#DejaVuSans-39"/>
       <use x="147.412109" xlink:href="#DejaVuSans-2e"/>
       <use x="179.199219" xlink:href="#DejaVuSans-30"/>
      </g>
     </g>
    </g>
    <g id="ytick_2">
     <g id="line2d_2">
      <g>
       <use style="stroke:#000000;stroke-width:0.8;" x="374.4576" xlink:href="#m0ecf80f1a8" y="231.508256"/>
      </g>
     </g>
     <g id="text_3">
      <!-- −8.5 -->
      <defs>
       <path d="M 10.796875 72.90625 
L 49.515625 72.90625 
L 49.515625 64.59375 
L 19.828125 64.59375 
L 19.828125 46.734375 
Q 21.96875 47.46875 24.109375 47.828125 
Q 26.265625 48.1875 28.421875 48.1875 
Q 40.625 48.1875 47.75 41.5 
Q 54.890625 34.8125 54.890625 23.390625 
Q 54.890625 11.625 47.5625 5.09375 
Q 40.234375 -1.421875 26.90625 -1.421875 
Q 22.3125 -1.421875 17.546875 -0.640625 
Q 12.796875 0.140625 7.71875 1.703125 
L 7.71875 11.625 
Q 12.109375 9.234375 16.796875 8.0625 
Q 21.484375 6.890625 26.703125 6.890625 
Q 35.15625 6.890625 40.078125 11.328125 
Q 45.015625 15.765625 45.015625 23.390625 
Q 45.015625 31 40.078125 35.4375 
Q 35.15625 39.890625 26.703125 39.890625 
Q 22.75 39.890625 18.8125 39.015625 
Q 14.890625 38.140625 10.796875 36.28125 
z
" id="DejaVuSans-35"/>
      </defs>
      <g transform="translate(381.4576 235.307475)scale(0.1 -0.1)">
       <use xlink:href="#DejaVuSans-2212"/>
       <use x="83.789062" xlink:href="#DejaVuSans-38"/>
       <use x="147.412109" xlink:href="#DejaVuSans-2e"/>
       <use x="179.199219" xlink:href="#DejaVuSans-35"/>
      </g>
     </g>
    </g>
    <g id="ytick_3">
     <g id="line2d_3">
      <g>
       <use style="stroke:#000000;stroke-width:0.8;" x="374.4576" xlink:href="#m0ecf80f1a8" y="183.138095"/>
      </g>
     </g>
     <g id="text_4">
      <!-- −8.0 -->
      <g transform="translate(381.4576 186.937314)scale(0.1 -0.1)">
       <use xlink:href="#DejaVuSans-2212"/>
       <use x="83.789062" xlink:href="#DejaVuSans-38"/>
       <use x="147.412109" xlink:href="#DejaVuSans-2e"/>
       <use x="179.199219" xlink:href="#DejaVuSans-30"/>
      </g>
     </g>
    </g>
    <g id="ytick_4">
     <g id="line2d_4">
      <g>
       <use style="stroke:#000000;stroke-width:0.8;" x="374.4576" xlink:href="#m0ecf80f1a8" y="134.767934"/>
      </g>
     </g>
     <g id="text_5">
      <!-- −7.5 -->
      <defs>
       <path d="M 8.203125 72.90625 
L 55.078125 72.90625 
L 55.078125 68.703125 
L 28.609375 0 
L 18.3125 0 
L 43.21875 64.59375 
L 8.203125 64.59375 
z
" id="DejaVuSans-37"/>
      </defs>
      <g transform="translate(381.4576 138.567153)scale(0.1 -0.1)">
       <use xlink:href="#DejaVuSans-2212"/>
       <use x="83.789062" xlink:href="#DejaVuSans-37"/>
       <use x="147.412109" xlink:href="#DejaVuSans-2e"/>
       <use x="179.199219" xlink:href="#DejaVuSans-35"/>
      </g>
     </g>
    </g>
    <g id="ytick_5">
     <g id="line2d_5">
      <g>
       <use style="stroke:#000000;stroke-width:0.8;" x="374.4576" xlink:href="#m0ecf80f1a8" y="86.397773"/>
      </g>
     </g>
     <g id="text_6">
      <!-- −7.0 -->
      <g transform="translate(381.4576 90.196991)scale(0.1 -0.1)">
       <use xlink:href="#DejaVuSans-2212"/>
       <use x="83.789062" xlink:href="#DejaVuSans-37"/>
       <use x="147.412109" xlink:href="#DejaVuSans-2e"/>
       <use x="179.199219" xlink:href="#DejaVuSans-30"/>
      </g>
     </g>
    </g>
    <g id="text_7">
     <!-- Energy [eV] -->
     <defs>
      <path d="M 54.890625 33.015625 
L 54.890625 0 
L 45.90625 0 
L 45.90625 32.71875 
Q 45.90625 40.484375 42.875 44.328125 
Q 39.84375 48.1875 33.796875 48.1875 
Q 26.515625 48.1875 22.3125 43.546875 
Q 18.109375 38.921875 18.109375 30.90625 
L 18.109375 0 
L 9.078125 0 
L 9.078125 54.6875 
L 18.109375 54.6875 
L 18.109375 46.1875 
Q 21.34375 51.125 25.703125 53.5625 
Q 30.078125 56 35.796875 56 
Q 45.21875 56 50.046875 50.171875 
Q 54.890625 44.34375 54.890625 33.015625 
z
" id="DejaVuSans-6e"/>
      <path d="M 45.40625 27.984375 
Q 45.40625 37.75 41.375 43.109375 
Q 37.359375 48.484375 30.078125 48.484375 
Q 22.859375 48.484375 18.828125 43.109375 
Q 14.796875 37.75 14.796875 27.984375 
Q 14.796875 18.265625 18.828125 12.890625 
Q 22.859375 7.515625 30.078125 7.515625 
Q 37.359375 7.515625 41.375 12.890625 
Q 45.40625 18.265625 45.40625 27.984375 
z
M 54.390625 6.78125 
Q 54.390625 -7.171875 48.1875 -13.984375 
Q 42 -20.796875 29.203125 -20.796875 
Q 24.46875 -20.796875 20.265625 -20.09375 
Q 16.0625 -19.390625 12.109375 -17.921875 
L 12.109375 -9.1875 
Q 16.0625 -11.328125 19.921875 -12.34375 
Q 23.78125 -13.375 27.78125 -13.375 
Q 36.625 -13.375 41.015625 -8.765625 
Q 45.40625 -4.15625 45.40625 5.171875 
L 45.40625 9.625 
Q 42.625 4.78125 38.28125 2.390625 
Q 33.9375 0 27.875 0 
Q 17.828125 0 11.671875 7.65625 
Q 5.515625 15.328125 5.515625 27.984375 
Q 5.515625 40.671875 11.671875 48.328125 
Q 17.828125 56 27.875 56 
Q 33.9375 56 38.28125 53.609375 
Q 42.625 51.21875 45.40625 46.390625 
L 45.40625 54.6875 
L 54.390625 54.6875 
z
" id="DejaVuSans-67"/>
      <path d="M 32.171875 -5.078125 
Q 28.375 -14.84375 24.75 -17.8125 
Q 21.140625 -20.796875 15.09375 -20.796875 
L 7.90625 -20.796875 
L 7.90625 -13.28125 
L 13.1875 -13.28125 
Q 16.890625 -13.28125 18.9375 -11.515625 
Q 21 -9.765625 23.484375 -3.21875 
L 25.09375 0.875 
L 2.984375 54.6875 
L 12.5 54.6875 
L 29.59375 11.921875 
L 46.6875 54.6875 
L 56.203125 54.6875 
z
" id="DejaVuSans-79"/>
      <path d="M 8.59375 75.984375 
L 29.296875 75.984375 
L 29.296875 69 
L 17.578125 69 
L 17.578125 -6.203125 
L 29.296875 -6.203125 
L 29.296875 -13.1875 
L 8.59375 -13.1875 
z
" id="DejaVuSans-5b"/>
      <path d="M 30.421875 75.984375 
L 30.421875 -13.1875 
L 9.71875 -13.1875 
L 9.71875 -6.203125 
L 21.390625 -6.203125 
L 21.390625 69 
L 9.71875 69 
L 9.71875 75.984375 
z
" id="DejaVuSans-5d"/>
     </defs>
     <g transform="translate(417.33885 204.108469)rotate(-90)scale(0.1 -0.1)">
      <use xlink:href="#DejaVuSans-45"/>
      <use x="63.183594" xlink:href="#DejaVuSans-6e"/>
      <use x="126.5625" xlink:href="#DejaVuSans-65"/>
      <use x="188.085938" xlink:href="#DejaVuSans-72"/>
      <use x="229.183594" xlink:href="#DejaVuSans-67"/>
      <use x="292.660156" xlink:href="#DejaVuSans-79"/>
      <use x="351.839844" xlink:href="#DejaVuSans-20"/>
      <use x="383.626953" xlink:href="#DejaVuSans-5b"/>
      <use x="422.640625" xlink:href="#DejaVuSans-65"/>
      <use x="484.164062" xlink:href="#DejaVuSans-56"/>
      <use x="552.572266" xlink:href="#DejaVuSans-5d"/>
     </g>
    </g>
   </g>
   <g id="patch_3">
    <path d="M 361.152 307.584 
L 361.152 306.5445 
L 361.152 42.5115 
L 361.152 41.472 
L 374.4576 41.472 
L 374.4576 42.5115 
L 374.4576 306.5445 
L 374.4576 307.584 
z
" style="fill:none;stroke:#000000;stroke-linejoin:miter;stroke-width:0.8;"/>
   </g>
  </g>
 </g>
 <defs>
  <clipPath id="pfc8e96184e">
   <rect height="266.112" width="285.696" x="57.6" y="41.472"/>
  </clipPath>
  <clipPath id="pc9d7a7c4cb">
   <rect height="266.112" width="13.3056" x="361.152" y="41.472"/>
  </clipPath>
 </defs>
</svg>
