<?xml version="1.0" encoding="utf-8" standalone="no"?>
<!DOCTYPE svg PUBLIC "-//W3C//DTD SVG 1.1//EN"
  "http://www.w3.org/Graphics/SVG/1.1/DTD/svg11.dtd">
<!-- Created with matplotlib (http://matplotlib.org/) -->
<svg height="345.6pt" version="1.1" viewBox="0 0 460.8 345.6" width="460.8pt" xmlns="http://www.w3.org/2000/svg" xmlns:xlink="http://www.w3.org/1999/xlink">
 <defs>
  <style type="text/css">
*{stroke-linecap:butt;stroke-linejoin:round;}
  </style>
 </defs>
 <g id="figure_1">
  <g id="patch_1">
   <path d="M 0 345.6 
L 460.8 345.6 
L 460.8 0 
L 0 0 
z
" style="fill:#ffffff;"/>
  </g>
  <g id="axes_1">
   <g id="CircleCollection_1">
    <path clip-path="url(#pd8b078fbd4)" d="M 329.923905 196.964818 
C 331.709885 196.964818 333.422957 196.255241 334.685836 194.992362 
C 335.948715 193.729483 336.658292 192.016411 336.658292 190.23043 
C 336.658292 188.44445 335.948715 186.731378 334.685836 185.468499 
C 333.422957 184.20562 331.709885 183.496043 329.923905 183.496043 
C 328.137924 183.496043 326.424852 184.20562 325.161973 185.468499 
C 323.899094 186.731378 323.189517 188.44445 323.189517 190.23043 
C 323.189517 192.016411 323.899094 193.729483 325.161973 194.992362 
C 326.424852 196.255241 328.137924 196.964818 329.923905 196.964818 
z
" style="fill:#1f998a;"/>
    <path clip-path="url(#pd8b078fbd4)" d="M 112.85928 243.802315 
C 114.631684 243.802315 116.331733 243.098131 117.585012 241.844852 
C 118.838291 240.591574 119.542474 238.891524 119.542474 237.11912 
C 119.542474 235.346716 118.838291 233.646667 117.585012 232.393388 
C 116.331733 231.140109 114.631684 230.435925 112.85928 230.435925 
C 111.086876 230.435925 109.386826 231.140109 108.133547 232.393388 
C 106.880268 233.646667 106.176085 235.346716 106.176085 237.11912 
C 106.176085 238.891524 106.880268 240.591574 108.133547 241.844852 
C 109.386826 243.098131 111.086876 243.802315 112.85928 243.802315 
z
" style="fill:#306a8e;"/>
    <path clip-path="url(#pd8b078fbd4)" d="M 246.765413 193.801102 
C 248.53526 193.801102 250.232856 193.097935 251.484327 191.846465 
C 252.735797 190.594994 253.438964 188.897398 253.438964 187.127551 
C 253.438964 185.357705 252.735797 183.660109 251.484327 182.408638 
C 250.232856 181.157168 248.53526 180.454 246.765413 180.454 
C 244.995567 180.454 243.297971 181.157168 242.0465 182.408638 
C 240.79503 183.660109 240.091863 185.357705 240.091863 187.127551 
C 240.091863 188.897398 240.79503 190.594994 242.0465 191.846465 
C 243.297971 193.097935 244.995567 193.801102 246.765413 193.801102 
z
" style="fill:#471365;"/>
    <path clip-path="url(#pd8b078fbd4)" d="M 96.364537 88.575749 
C 98.122925 88.575749 99.809531 87.877134 101.052899 86.633766 
C 102.296267 85.390398 102.994882 83.703793 102.994882 81.945405 
C 102.994882 80.187017 102.296267 78.500411 101.052899 77.257043 
C 99.809531 76.013675 98.122925 75.315061 96.364537 75.315061 
C 94.60615 75.315061 92.919544 76.013675 91.676176 77.257043 
C 90.432808 78.500411 89.734193 80.187017 89.734193 81.945405 
C 89.734193 83.703793 90.432808 85.390398 91.676176 86.633766 
C 92.919544 87.877134 94.60615 88.575749 96.364537 88.575749 
z
" style="fill:#3dbc74;"/>
    <path clip-path="url(#pd8b078fbd4)" d="M 101.671235 68.962733 
C 103.507316 68.962733 105.268443 68.233251 106.566748 66.934946 
C 107.865053 65.636641 108.594535 63.875514 108.594535 62.039433 
C 108.594535 60.203353 107.865053 58.442226 106.566748 57.143921 
C 105.268443 55.845616 103.507316 55.116133 101.671235 55.116133 
C 99.835155 55.116133 98.074028 55.845616 96.775723 57.143921 
C 95.477418 58.442226 94.747936 60.203353 94.747936 62.039433 
C 94.747936 63.875514 95.477418 65.636641 96.775723 66.934946 
C 98.074028 68.233251 99.835155 68.962733 101.671235 68.962733 
z
" style="fill:#42be71;"/>
    <path clip-path="url(#pd8b078fbd4)" d="M 173.207753 200.333393 
C 174.962369 200.333393 176.645356 199.636277 177.886056 198.395576 
C 179.126756 197.154876 179.823872 195.471889 179.823872 193.717274 
C 179.823872 191.962658 179.126756 190.279671 177.886056 189.038971 
C 176.645356 187.798271 174.962369 187.101155 173.207753 187.101155 
C 171.453138 187.101155 169.770151 187.798271 168.529451 189.038971 
C 167.288751 190.279671 166.591635 191.962658 166.591635 193.717274 
C 166.591635 195.471889 167.288751 197.154876 168.529451 198.395576 
C 169.770151 199.636277 171.453138 200.333393 173.207753 200.333393 
z
" style="fill:#2e6f8e;"/>
    <path clip-path="url(#pd8b078fbd4)" d="M 303.466817 222.771546 
C 305.241828 222.771546 306.944378 222.066326 308.1995 220.811204 
C 309.454622 219.556082 310.159842 217.853531 310.159842 216.07852 
C 310.159842 214.303509 309.454622 212.600959 308.1995 211.345837 
C 306.944378 210.090714 305.241828 209.385495 303.466817 209.385495 
C 301.691805 209.385495 299.989255 210.090714 298.734133 211.345837 
C 297.479011 212.600959 296.773791 214.303509 296.773791 216.07852 
C 296.773791 217.853531 297.479011 219.556082 298.734133 220.811204 
C 299.989255 222.066326 301.691805 222.771546 303.466817 222.771546 
z
" style="fill:#277f8e;"/>
    <path clip-path="url(#pd8b078fbd4)" d="M 135.468843 214.513299 
C 137.231615 214.513299 138.922426 213.812942 140.168894 212.566474 
C 141.415362 211.320006 142.115719 209.629196 142.115719 207.866424 
C 142.115719 206.103652 141.415362 204.412841 140.168894 203.166373 
C 138.922426 201.919905 137.231615 201.219548 135.468843 201.219548 
C 133.706072 201.219548 132.015261 201.919905 130.768793 203.166373 
C 129.522325 204.412841 128.821968 206.103652 128.821968 207.866424 
C 128.821968 209.629196 129.522325 211.320006 130.768793 212.566474 
C 132.015261 213.812942 133.706072 214.513299 135.468843 214.513299 
z
" style="fill:#375b8d;"/>
    <path clip-path="url(#pd8b078fbd4)" d="M 225.08946 113.358678 
C 226.874235 113.358678 228.58615 112.649579 229.848177 111.387553 
C 231.110203 110.125526 231.819302 108.413611 231.819302 106.628836 
C 231.819302 104.844061 231.110203 103.132145 229.848177 101.870119 
C 228.58615 100.608092 226.874235 99.898994 225.08946 99.898994 
C 223.304685 99.898994 221.592769 100.608092 220.330743 101.870119 
C 219.068716 103.132145 218.359618 104.844061 218.359618 106.628836 
C 218.359618 108.413611 219.068716 110.125526 220.330743 111.387553 
C 221.592769 112.649579 223.304685 113.358678 225.08946 113.358678 
z
" style="fill:#440154;"/>
    <path clip-path="url(#pd8b078fbd4)" d="M 141.756546 175.944216 
C 143.513447 175.944216 145.198627 175.246191 146.440944 174.003874 
C 147.683262 172.761557 148.381286 171.076377 148.381286 169.319475 
C 148.381286 167.562573 147.683262 165.877393 146.440944 164.635076 
C 145.198627 163.392759 143.513447 162.694735 141.756546 162.694735 
C 139.999644 162.694735 138.314464 163.392759 137.072147 164.635076 
C 135.82983 165.877393 135.131805 167.562573 135.131805 169.319475 
C 135.131805 171.076377 135.82983 172.761557 137.072147 174.003874 
C 138.314464 175.246191 139.999644 175.944216 141.756546 175.944216 
z
" style="fill:#2d708e;"/>
    <path clip-path="url(#pd8b078fbd4)" d="M 179.205481 60.853128 
C 181.004892 60.853128 182.730846 60.138214 184.003222 58.865838 
C 185.275598 57.593462 185.990511 55.867508 185.990511 54.068097 
C 185.990511 52.268686 185.275598 50.542732 184.003222 49.270356 
C 182.730846 47.997981 181.004892 47.283067 179.205481 47.283067 
C 177.40607 47.283067 175.680116 47.997981 174.40774 49.270356 
C 173.135365 50.542732 172.420451 52.268686 172.420451 54.068097 
C 172.420451 55.867508 173.135365 57.593462 174.40774 58.865838 
C 175.680116 60.138214 177.40607 60.853128 179.205481 60.853128 
z
" style="fill:#2b748e;"/>
    <path clip-path="url(#pd8b078fbd4)" d="M 266.800592 227.868637 
C 268.570656 227.868637 270.26846 227.165383 271.520084 225.913759 
C 272.771708 224.662135 273.474962 222.964331 273.474962 221.194267 
C 273.474962 219.424204 272.771708 217.726399 271.520084 216.474775 
C 270.26846 215.223151 268.570656 214.519897 266.800592 214.519897 
C 265.030529 214.519897 263.332724 215.223151 262.0811 216.474775 
C 260.829476 217.726399 260.126222 219.424204 260.126222 221.194267 
C 260.126222 222.964331 260.829476 224.662135 262.0811 225.913759 
C 263.332724 227.165383 265.030529 227.868637 266.800592 227.868637 
z
" style="fill:#1fa188;"/>
    <path clip-path="url(#pd8b078fbd4)" d="M 132.227243 107.624107 
C 134.001922 107.624107 135.704153 106.919019 136.95904 105.664132 
C 138.213928 104.409244 138.919015 102.707013 138.919015 100.932334 
C 138.919015 99.157655 138.213928 97.455424 136.95904 96.200536 
C 135.704153 94.945649 134.001922 94.240562 132.227243 94.240562 
C 130.452564 94.240562 128.750332 94.945649 127.495445 96.200536 
C 126.240557 97.455424 125.53547 99.157655 125.53547 100.932334 
C 125.53547 102.707013 126.240557 104.409244 127.495445 105.664132 
C 128.750332 106.919019 130.452564 107.624107 132.227243 107.624107 
z
" style="fill:#3a538b;"/>
    <path clip-path="url(#pd8b078fbd4)" d="M 141.170106 72.43165 
C 142.97883 72.43165 144.713717 71.713036 145.992679 70.434075 
C 147.27164 69.155114 147.990254 67.420226 147.990254 65.611502 
C 147.990254 63.802777 147.27164 62.06789 145.992679 60.788929 
C 144.713717 59.509968 142.97883 58.791354 141.170106 58.791354 
C 139.361381 58.791354 137.626494 59.509968 136.347533 60.788929 
C 135.068571 62.06789 134.349958 63.802777 134.349958 65.611502 
C 134.349958 67.420226 135.068571 69.155114 136.347533 70.434075 
C 137.626494 71.713036 139.361381 72.43165 141.170106 72.43165 
z
" style="fill:#33628d;"/>
    <path clip-path="url(#pd8b078fbd4)" d="M 263.35785 125.2315 
C 265.141615 125.2315 266.852563 124.522802 268.113875 123.26149 
C 269.375188 122.000177 270.083886 120.28923 270.083886 118.505464 
C 270.083886 116.721698 269.375188 115.010751 268.113875 113.749438 
C 266.852563 112.488126 265.141615 111.779428 263.35785 111.779428 
C 261.574084 111.779428 259.863137 112.488126 258.601824 113.749438 
C 257.340512 115.010751 256.631814 116.721698 256.631814 118.505464 
C 256.631814 120.28923 257.340512 122.000177 258.601824 123.26149 
C 259.863137 124.522802 261.574084 125.2315 263.35785 125.2315 
z
" style="fill:#404688;"/>
    <path clip-path="url(#pd8b078fbd4)" d="M 92.411529 272.680931 
C 94.197776 272.680931 95.911103 271.971248 97.174169 270.708181 
C 98.437236 269.445114 99.14692 267.731787 99.14692 265.945541 
C 99.14692 264.159295 98.437236 262.445968 97.174169 261.182901 
C 95.911103 259.919834 94.197776 259.210151 92.411529 259.210151 
C 90.625283 259.210151 88.911956 259.919834 87.648889 261.182901 
C 86.385823 262.445968 85.676139 264.159295 85.676139 265.945541 
C 85.676139 267.731787 86.385823 269.445114 87.648889 270.708181 
C 88.911956 271.971248 90.625283 272.680931 92.411529 272.680931 
z
" style="fill:#39558c;"/>
    <path clip-path="url(#pd8b078fbd4)" d="M 301.313473 126.7718 
C 303.130945 126.7718 304.874223 126.049711 306.15937 124.764564 
C 307.444517 123.479417 308.166606 121.736139 308.166606 119.918667 
C 308.166606 118.101195 307.444517 116.357917 306.15937 115.07277 
C 304.874223 113.787624 303.130945 113.065534 301.313473 113.065534 
C 299.496001 113.065534 297.752723 113.787624 296.467576 115.07277 
C 295.182429 116.357917 294.46034 118.101195 294.46034 119.918667 
C 294.46034 121.736139 295.182429 123.479417 296.467576 124.764564 
C 297.752723 126.049711 299.496001 126.7718 301.313473 126.7718 
z
" style="fill:#4cc26c;"/>
    <path clip-path="url(#pd8b078fbd4)" d="M 70.975671 301.783821 
C 72.778199 301.783821 74.507144 301.067669 75.781724 299.793089 
C 77.056304 298.518509 77.772456 296.789565 77.772456 294.987036 
C 77.772456 293.184508 77.056304 291.455564 75.781724 290.180984 
C 74.507144 288.906404 72.778199 288.190251 70.975671 288.190251 
C 69.173143 288.190251 67.444198 288.906404 66.169618 290.180984 
C 64.895038 291.455564 64.178886 293.184508 64.178886 294.987036 
C 64.178886 296.789565 64.895038 298.518509 66.169618 299.793089 
C 67.444198 301.067669 69.173143 301.783821 70.975671 301.783821 
z
" style="fill:#fde725;"/>
    <path clip-path="url(#pd8b078fbd4)" d="M 207.722948 181.284479 
C 209.48791 181.284479 211.180822 180.583252 212.428839 179.335236 
C 213.676855 178.087219 214.378082 176.394307 214.378082 174.629345 
C 214.378082 172.864383 213.676855 171.171471 212.428839 169.923455 
C 211.180822 168.675438 209.48791 167.974211 207.722948 167.974211 
C 205.957986 167.974211 204.265074 168.675438 203.017058 169.923455 
C 201.769041 171.171471 201.067814 172.864383 201.067814 174.629345 
C 201.067814 176.394307 201.769041 178.087219 203.017058 179.335236 
C 204.265074 180.583252 205.957986 181.284479 207.722948 181.284479 
z
" style="fill:#482374;"/>
    <path clip-path="url(#pd8b078fbd4)" d="M 154.249507 139.825832 
C 156.019263 139.825832 157.716772 139.1227 158.968179 137.871294 
C 160.219585 136.619888 160.922716 134.922378 160.922716 133.152622 
C 160.922716 131.382867 160.219585 129.685357 158.968179 128.433951 
C 157.716772 127.182545 156.019263 126.479413 154.249507 126.479413 
C 152.479751 126.479413 150.782242 127.182545 149.530836 128.433951 
C 148.279429 129.685357 147.576298 131.382867 147.576298 133.152622 
C 147.576298 134.922378 148.279429 136.619888 149.530836 137.871294 
C 150.782242 139.1227 152.479751 139.825832 154.249507 139.825832 
z
" style="fill:#482071;"/>
    <path clip-path="url(#pd8b078fbd4)" d="M 271.761755 163.009519 
C 273.530984 163.009519 275.227989 162.306597 276.479023 161.055563 
C 277.730057 159.804529 278.432979 158.107524 278.432979 156.338295 
C 278.432979 154.569065 277.730057 152.872061 276.479023 151.621027 
C 275.227989 150.369993 273.530984 149.66707 271.761755 149.66707 
C 269.992525 149.66707 268.295521 150.369993 267.044487 151.621027 
C 265.793453 152.872061 265.09053 154.569065 265.09053 156.338295 
C 265.09053 158.107524 265.793453 159.804529 267.044487 161.055563 
C 268.295521 162.306597 269.992525 163.009519 271.761755 163.009519 
z
" style="fill:#423f85;"/>
    <path clip-path="url(#pd8b078fbd4)" d="M 197.219627 142.381847 
C 198.992498 142.381847 200.692996 141.677478 201.946606 140.423868 
C 203.200216 139.170259 203.904585 137.469761 203.904585 135.696889 
C 203.904585 133.924017 203.200216 132.223519 201.946606 130.96991 
C 200.692996 129.7163 198.992498 129.011931 197.219627 129.011931 
C 195.446755 129.011931 193.746257 129.7163 192.492647 130.96991 
C 191.239038 132.223519 190.534668 133.924017 190.534668 135.696889 
C 190.534668 137.469761 191.239038 139.170259 192.492647 140.423868 
C 193.746257 141.677478 195.446755 142.381847 197.219627 142.381847 
z
" style="fill:#39568c;"/>
    <path clip-path="url(#pd8b078fbd4)" d="M 210.151776 77.618448 
C 211.946931 77.618448 213.668804 76.905225 214.93817 75.635858 
C 216.207537 74.366492 216.92076 72.644619 216.92076 70.849464 
C 216.92076 69.054308 216.207537 67.332436 214.93817 66.063069 
C 213.668804 64.793702 211.946931 64.08048 210.151776 64.08048 
C 208.35662 64.08048 206.634748 64.793702 205.365381 66.063069 
C 204.096014 67.332436 203.382792 69.054308 203.382792 70.849464 
C 203.382792 72.644619 204.096014 74.366492 205.365381 75.635858 
C 206.634748 76.905225 208.35662 77.618448 210.151776 77.618448 
z
" style="fill:#25838e;"/>
    <path clip-path="url(#pd8b078fbd4)" d="M 312.507347 163.52867 
C 314.289299 163.52867 315.998506 162.820693 317.258536 161.560663 
C 318.518566 160.300633 319.226543 158.591425 319.226543 156.809474 
C 319.226543 155.027522 318.518566 153.318315 317.258536 152.058285 
C 315.998506 150.798255 314.289299 150.090278 312.507347 150.090278 
C 310.725395 150.090278 309.016188 150.798255 307.756158 152.058285 
C 306.496128 153.318315 305.788151 155.027522 305.788151 156.809474 
C 305.788151 158.591425 306.496128 160.300633 307.756158 161.560663 
C 309.016188 162.820693 310.725395 163.52867 312.507347 163.52867 
z
" style="fill:#355e8d;"/>
   </g>
   <g id="text_1">
    <!-- Structure #7337, $E_N$=-177.36eV, ΔE=-0.17eV -->
    <defs>
     <path d="M 53.515625 70.515625 
L 53.515625 60.890625 
Q 47.90625 63.578125 42.921875 64.890625 
Q 37.9375 66.21875 33.296875 66.21875 
Q 25.25 66.21875 20.875 63.09375 
Q 16.5 59.96875 16.5 54.203125 
Q 16.5 49.359375 19.40625 46.890625 
Q 22.3125 44.4375 30.421875 42.921875 
L 36.375 41.703125 
Q 47.40625 39.59375 52.65625 34.296875 
Q 57.90625 29 57.90625 20.125 
Q 57.90625 9.515625 50.796875 4.046875 
Q 43.703125 -1.421875 29.984375 -1.421875 
Q 24.8125 -1.421875 18.96875 -0.25 
Q 13.140625 0.921875 6.890625 3.21875 
L 6.890625 13.375 
Q 12.890625 10.015625 18.65625 8.296875 
Q 24.421875 6.59375 29.984375 6.59375 
Q 38.421875 6.59375 43.015625 9.90625 
Q 47.609375 13.234375 47.609375 19.390625 
Q 47.609375 24.75 44.3125 27.78125 
Q 41.015625 30.8125 33.5 32.328125 
L 27.484375 33.5 
Q 16.453125 35.6875 11.515625 40.375 
Q 6.59375 45.0625 6.59375 53.421875 
Q 6.59375 63.09375 13.40625 68.65625 
Q 20.21875 74.21875 32.171875 74.21875 
Q 37.3125 74.21875 42.625 73.28125 
Q 47.953125 72.359375 53.515625 70.515625 
z
" id="DejaVuSans-53"/>
     <path d="M 18.3125 70.21875 
L 18.3125 54.6875 
L 36.8125 54.6875 
L 36.8125 47.703125 
L 18.3125 47.703125 
L 18.3125 18.015625 
Q 18.3125 11.328125 20.140625 9.421875 
Q 21.96875 7.515625 27.59375 7.515625 
L 36.8125 7.515625 
L 36.8125 0 
L 27.59375 0 
Q 17.1875 0 13.234375 3.875 
Q 9.28125 7.765625 9.28125 18.015625 
L 9.28125 47.703125 
L 2.6875 47.703125 
L 2.6875 54.6875 
L 9.28125 54.6875 
L 9.28125 70.21875 
z
" id="DejaVuSans-74"/>
     <path d="M 41.109375 46.296875 
Q 39.59375 47.171875 37.8125 47.578125 
Q 36.03125 48 33.890625 48 
Q 26.265625 48 22.1875 43.046875 
Q 18.109375 38.09375 18.109375 28.8125 
L 18.109375 0 
L 9.078125 0 
L 9.078125 54.6875 
L 18.109375 54.6875 
L 18.109375 46.1875 
Q 20.953125 51.171875 25.484375 53.578125 
Q 30.03125 56 36.53125 56 
Q 37.453125 56 38.578125 55.875 
Q 39.703125 55.765625 41.0625 55.515625 
z
" id="DejaVuSans-72"/>
     <path d="M 8.5 21.578125 
L 8.5 54.6875 
L 17.484375 54.6875 
L 17.484375 21.921875 
Q 17.484375 14.15625 20.5 10.265625 
Q 23.53125 6.390625 29.59375 6.390625 
Q 36.859375 6.390625 41.078125 11.03125 
Q 45.3125 15.671875 45.3125 23.6875 
L 45.3125 54.6875 
L 54.296875 54.6875 
L 54.296875 0 
L 45.3125 0 
L 45.3125 8.40625 
Q 42.046875 3.421875 37.71875 1 
Q 33.40625 -1.421875 27.6875 -1.421875 
Q 18.265625 -1.421875 13.375 4.4375 
Q 8.5 10.296875 8.5 21.578125 
z
M 31.109375 56 
z
" id="DejaVuSans-75"/>
     <path d="M 48.78125 52.59375 
L 48.78125 44.1875 
Q 44.96875 46.296875 41.140625 47.34375 
Q 37.3125 48.390625 33.40625 48.390625 
Q 24.65625 48.390625 19.8125 42.84375 
Q 14.984375 37.3125 14.984375 27.296875 
Q 14.984375 17.28125 19.8125 11.734375 
Q 24.65625 6.203125 33.40625 6.203125 
Q 37.3125 6.203125 41.140625 7.25 
Q 44.96875 8.296875 48.78125 10.40625 
L 48.78125 2.09375 
Q 45.015625 0.34375 40.984375 -0.53125 
Q 36.96875 -1.421875 32.421875 -1.421875 
Q 20.0625 -1.421875 12.78125 6.34375 
Q 5.515625 14.109375 5.515625 27.296875 
Q 5.515625 40.671875 12.859375 48.328125 
Q 20.21875 56 33.015625 56 
Q 37.15625 56 41.109375 55.140625 
Q 45.0625 54.296875 48.78125 52.59375 
z
" id="DejaVuSans-63"/>
     <path d="M 56.203125 29.59375 
L 56.203125 25.203125 
L 14.890625 25.203125 
Q 15.484375 15.921875 20.484375 11.0625 
Q 25.484375 6.203125 34.421875 6.203125 
Q 39.59375 6.203125 44.453125 7.46875 
Q 49.3125 8.734375 54.109375 11.28125 
L 54.109375 2.78125 
Q 49.265625 0.734375 44.1875 -0.34375 
Q 39.109375 -1.421875 33.890625 -1.421875 
Q 20.796875 -1.421875 13.15625 6.1875 
Q 5.515625 13.8125 5.515625 26.8125 
Q 5.515625 40.234375 12.765625 48.109375 
Q 20.015625 56 32.328125 56 
Q 43.359375 56 49.78125 48.890625 
Q 56.203125 41.796875 56.203125 29.59375 
z
M 47.21875 32.234375 
Q 47.125 39.59375 43.09375 43.984375 
Q 39.0625 48.390625 32.421875 48.390625 
Q 24.90625 48.390625 20.390625 44.140625 
Q 15.875 39.890625 15.1875 32.171875 
z
" id="DejaVuSans-65"/>
     <path id="DejaVuSans-20"/>
     <path d="M 51.125 44 
L 36.921875 44 
L 32.8125 27.6875 
L 47.125 27.6875 
z
M 43.796875 71.78125 
L 38.71875 51.515625 
L 52.984375 51.515625 
L 58.109375 71.78125 
L 65.921875 71.78125 
L 60.890625 51.515625 
L 76.125 51.515625 
L 76.125 44 
L 58.984375 44 
L 54.984375 27.6875 
L 70.515625 27.6875 
L 70.515625 20.21875 
L 53.078125 20.21875 
L 48 0 
L 40.1875 0 
L 45.21875 20.21875 
L 30.90625 20.21875 
L 25.875 0 
L 18.015625 0 
L 23.09375 20.21875 
L 7.71875 20.21875 
L 7.71875 27.6875 
L 24.90625 27.6875 
L 29 44 
L 13.28125 44 
L 13.28125 51.515625 
L 30.90625 51.515625 
L 35.890625 71.78125 
z
" id="DejaVuSans-23"/>
     <path d="M 8.203125 72.90625 
L 55.078125 72.90625 
L 55.078125 68.703125 
L 28.609375 0 
L 18.3125 0 
L 43.21875 64.59375 
L 8.203125 64.59375 
z
" id="DejaVuSans-37"/>
     <path d="M 40.578125 39.3125 
Q 47.65625 37.796875 51.625 33 
Q 55.609375 28.21875 55.609375 21.1875 
Q 55.609375 10.40625 48.1875 4.484375 
Q 40.765625 -1.421875 27.09375 -1.421875 
Q 22.515625 -1.421875 17.65625 -0.515625 
Q 12.796875 0.390625 7.625 2.203125 
L 7.625 11.71875 
Q 11.71875 9.328125 16.59375 8.109375 
Q 21.484375 6.890625 26.8125 6.890625 
Q 36.078125 6.890625 40.9375 10.546875 
Q 45.796875 14.203125 45.796875 21.1875 
Q 45.796875 27.640625 41.28125 31.265625 
Q 36.765625 34.90625 28.71875 34.90625 
L 20.21875 34.90625 
L 20.21875 43.015625 
L 29.109375 43.015625 
Q 36.375 43.015625 40.234375 45.921875 
Q 44.09375 48.828125 44.09375 54.296875 
Q 44.09375 59.90625 40.109375 62.90625 
Q 36.140625 65.921875 28.71875 65.921875 
Q 24.65625 65.921875 20.015625 65.03125 
Q 15.375 64.15625 9.8125 62.3125 
L 9.8125 71.09375 
Q 15.4375 72.65625 20.34375 73.4375 
Q 25.25 74.21875 29.59375 74.21875 
Q 40.828125 74.21875 47.359375 69.109375 
Q 53.90625 64.015625 53.90625 55.328125 
Q 53.90625 49.265625 50.4375 45.09375 
Q 46.96875 40.921875 40.578125 39.3125 
z
" id="DejaVuSans-33"/>
     <path d="M 11.71875 12.40625 
L 22.015625 12.40625 
L 22.015625 4 
L 14.015625 -11.625 
L 7.71875 -11.625 
L 11.71875 4 
z
" id="DejaVuSans-2c"/>
     <path d="M 16.890625 72.90625 
L 62.984375 72.90625 
L 61.375 64.59375 
L 25.09375 64.59375 
L 20.90625 43.015625 
L 55.71875 43.015625 
L 54.109375 34.71875 
L 19.28125 34.71875 
L 14.203125 8.296875 
L 51.3125 8.296875 
L 49.703125 0 
L 2.6875 0 
z
" id="DejaVuSans-Oblique-45"/>
     <path d="M 16.890625 72.90625 
L 30.171875 72.90625 
L 50.296875 10.40625 
L 62.5 72.90625 
L 72.125 72.90625 
L 57.90625 0 
L 44.578125 0 
L 24.515625 62.890625 
L 12.3125 0 
L 2.6875 0 
z
" id="DejaVuSans-Oblique-4e"/>
     <path d="M 10.59375 45.40625 
L 73.1875 45.40625 
L 73.1875 37.203125 
L 10.59375 37.203125 
z
M 10.59375 25.484375 
L 73.1875 25.484375 
L 73.1875 17.1875 
L 10.59375 17.1875 
z
" id="DejaVuSans-3d"/>
     <path d="M 4.890625 31.390625 
L 31.203125 31.390625 
L 31.203125 23.390625 
L 4.890625 23.390625 
z
" id="DejaVuSans-2d"/>
     <path d="M 12.40625 8.296875 
L 28.515625 8.296875 
L 28.515625 63.921875 
L 10.984375 60.40625 
L 10.984375 69.390625 
L 28.421875 72.90625 
L 38.28125 72.90625 
L 38.28125 8.296875 
L 54.390625 8.296875 
L 54.390625 0 
L 12.40625 0 
z
" id="DejaVuSans-31"/>
     <path d="M 10.6875 12.40625 
L 21 12.40625 
L 21 0 
L 10.6875 0 
z
" id="DejaVuSans-2e"/>
     <path d="M 33.015625 40.375 
Q 26.375 40.375 22.484375 35.828125 
Q 18.609375 31.296875 18.609375 23.390625 
Q 18.609375 15.53125 22.484375 10.953125 
Q 26.375 6.390625 33.015625 6.390625 
Q 39.65625 6.390625 43.53125 10.953125 
Q 47.40625 15.53125 47.40625 23.390625 
Q 47.40625 31.296875 43.53125 35.828125 
Q 39.65625 40.375 33.015625 40.375 
z
M 52.59375 71.296875 
L 52.59375 62.3125 
Q 48.875 64.0625 45.09375 64.984375 
Q 41.3125 65.921875 37.59375 65.921875 
Q 27.828125 65.921875 22.671875 59.328125 
Q 17.53125 52.734375 16.796875 39.40625 
Q 19.671875 43.65625 24.015625 45.921875 
Q 28.375 48.1875 33.59375 48.1875 
Q 44.578125 48.1875 50.953125 41.515625 
Q 57.328125 34.859375 57.328125 23.390625 
Q 57.328125 12.15625 50.6875 5.359375 
Q 44.046875 -1.421875 33.015625 -1.421875 
Q 20.359375 -1.421875 13.671875 8.265625 
Q 6.984375 17.96875 6.984375 36.375 
Q 6.984375 53.65625 15.1875 63.9375 
Q 23.390625 74.21875 37.203125 74.21875 
Q 40.921875 74.21875 44.703125 73.484375 
Q 48.484375 72.75 52.59375 71.296875 
z
" id="DejaVuSans-36"/>
     <path d="M 28.609375 0 
L 0.78125 72.90625 
L 11.078125 72.90625 
L 34.1875 11.53125 
L 57.328125 72.90625 
L 67.578125 72.90625 
L 39.796875 0 
z
" id="DejaVuSans-56"/>
     <path d="M 34.1875 63.1875 
L 14.15625 8.203125 
L 54.25 8.203125 
z
M 0.78125 0 
L 28.609375 72.90625 
L 39.796875 72.90625 
L 67.578125 0 
z
" id="DejaVuSans-394"/>
     <path d="M 9.8125 72.90625 
L 55.90625 72.90625 
L 55.90625 64.59375 
L 19.671875 64.59375 
L 19.671875 43.015625 
L 54.390625 43.015625 
L 54.390625 34.71875 
L 19.671875 34.71875 
L 19.671875 8.296875 
L 56.78125 8.296875 
L 56.78125 0 
L 9.8125 0 
z
" id="DejaVuSans-45"/>
     <path d="M 31.78125 66.40625 
Q 24.171875 66.40625 20.328125 58.90625 
Q 16.5 51.421875 16.5 36.375 
Q 16.5 21.390625 20.328125 13.890625 
Q 24.171875 6.390625 31.78125 6.390625 
Q 39.453125 6.390625 43.28125 13.890625 
Q 47.125 21.390625 47.125 36.375 
Q 47.125 51.421875 43.28125 58.90625 
Q 39.453125 66.40625 31.78125 66.40625 
z
M 31.78125 74.21875 
Q 44.046875 74.21875 50.515625 64.515625 
Q 56.984375 54.828125 56.984375 36.375 
Q 56.984375 17.96875 50.515625 8.265625 
Q 44.046875 -1.421875 31.78125 -1.421875 
Q 19.53125 -1.421875 13.0625 8.265625 
Q 6.59375 17.96875 6.59375 36.375 
Q 6.59375 54.828125 13.0625 64.515625 
Q 19.53125 74.21875 31.78125 74.21875 
z
" id="DejaVuSans-30"/>
    </defs>
    <g transform="translate(63.228 35.472)scale(0.12 -0.12)">
     <use transform="translate(0 0.78125)" xlink:href="#DejaVuSans-53"/>
     <use transform="translate(63.476562 0.78125)" xlink:href="#DejaVuSans-74"/>
     <use transform="translate(102.685547 0.78125)" xlink:href="#DejaVuSans-72"/>
     <use transform="translate(143.798828 0.78125)" xlink:href="#DejaVuSans-75"/>
     <use transform="translate(207.177734 0.78125)" xlink:href="#DejaVuSans-63"/>
     <use transform="translate(262.158203 0.78125)" xlink:href="#DejaVuSans-74"/>
     <use transform="translate(301.367188 0.78125)" xlink:href="#DejaVuSans-75"/>
     <use transform="translate(364.746094 0.78125)" xlink:href="#DejaVuSans-72"/>
     <use transform="translate(405.859375 0.78125)" xlink:href="#DejaVuSans-65"/>
     <use transform="translate(467.382812 0.78125)" xlink:href="#DejaVuSans-20"/>
     <use transform="translate(499.169922 0.78125)" xlink:href="#DejaVuSans-23"/>
     <use transform="translate(582.958984 0.78125)" xlink:href="#DejaVuSans-37"/>
     <use transform="translate(646.582031 0.78125)" xlink:href="#DejaVuSans-33"/>
     <use transform="translate(710.205078 0.78125)" xlink:href="#DejaVuSans-33"/>
     <use transform="translate(773.828125 0.78125)" xlink:href="#DejaVuSans-37"/>
     <use transform="translate(837.451172 0.78125)" xlink:href="#DejaVuSans-2c"/>
     <use transform="translate(869.238281 0.78125)" xlink:href="#DejaVuSans-20"/>
     <use transform="translate(901.025391 0.78125)" xlink:href="#DejaVuSans-Oblique-45"/>
     <use transform="translate(964.208984 -15.625)scale(0.7)" xlink:href="#DejaVuSans-Oblique-4e"/>
     <use transform="translate(1019.306641 0.78125)" xlink:href="#DejaVuSans-3d"/>
     <use transform="translate(1103.095703 0.78125)" xlink:href="#DejaVuSans-2d"/>
     <use transform="translate(1139.179688 0.78125)" xlink:href="#DejaVuSans-31"/>
     <use transform="translate(1202.802734 0.78125)" xlink:href="#DejaVuSans-37"/>
     <use transform="translate(1266.410156 0.78125)" xlink:href="#DejaVuSans-37"/>
     <use transform="translate(1330.033203 0.78125)" xlink:href="#DejaVuSans-2e"/>
     <use transform="translate(1361.820312 0.78125)" xlink:href="#DejaVuSans-33"/>
     <use transform="translate(1425.443359 0.78125)" xlink:href="#DejaVuSans-36"/>
     <use transform="translate(1489.066406 0.78125)" xlink:href="#DejaVuSans-65"/>
     <use transform="translate(1550.589844 0.78125)" xlink:href="#DejaVuSans-56"/>
     <use transform="translate(1618.998047 0.78125)" xlink:href="#DejaVuSans-2c"/>
     <use transform="translate(1650.785156 0.78125)" xlink:href="#DejaVuSans-20"/>
     <use transform="translate(1682.572266 0.78125)" xlink:href="#DejaVuSans-394"/>
     <use transform="translate(1750.980469 0.78125)" xlink:href="#DejaVuSans-45"/>
     <use transform="translate(1814.164062 0.78125)" xlink:href="#DejaVuSans-3d"/>
     <use transform="translate(1897.953125 0.78125)" xlink:href="#DejaVuSans-2d"/>
     <use transform="translate(1934.037109 0.78125)" xlink:href="#DejaVuSans-30"/>
     <use transform="translate(1997.660156 0.78125)" xlink:href="#DejaVuSans-2e"/>
     <use transform="translate(2029.447266 0.78125)" xlink:href="#DejaVuSans-31"/>
     <use transform="translate(2093.070312 0.78125)" xlink:href="#DejaVuSans-37"/>
     <use transform="translate(2156.693359 0.78125)" xlink:href="#DejaVuSans-65"/>
     <use transform="translate(2218.216797 0.78125)" xlink:href="#DejaVuSans-56"/>
    </g>
   </g>
  </g>
  <g id="axes_2">
   <g id="patch_2">
    <path clip-path="url(#p9bae31f652)" d="M 361.152 307.584 
L 361.152 306.5445 
L 361.152 42.5115 
L 361.152 41.472 
L 374.4576 41.472 
L 374.4576 42.5115 
L 374.4576 306.5445 
L 374.4576 307.584 
z
" style="fill:#ffffff;stroke:#ffffff;stroke-linejoin:miter;stroke-width:0.01;"/>
   </g>
   <image height="265.68" id="image95947a1d55" transform="scale(1 -1)translate(0 -265.68)" width="12.96" x="361.44" xlink:href="data:image/png;base64,
iVBORw0KGgoAAAANSUhEUgAAABIAAAFxCAYAAAB+2fgXAAAABHNCSVQICAgIfAhkiAAAAeVJREFUeJztncmNw0AQA2ckheYQNv9QLIfQ8ygsCgQ7AEI8+jAs2Puz/94F1LP2ReCsZ18bAWIeZ5XaGRBE7VnbptG+KI101FYyNSiQG2oRITXKNaX9uclOdi2XWjftVE32CZCO2ou5Bj1TcCBr/1zB9ge7Fq0Rg2NM9pvbtG+ua1QgsRYhDy0ISEiNc40BEibbSI0Coj5CBGtkpFbXJiAjNZlrwhuSOv2M1DjXbEdEciBt1JSDDQKKpmZr2rr2j0DBGpXaWEJq3bQzEPIS26r9J+Wzv9Tm8o3aajRXqc3VUXsApKNWjeZq0x4ABVNbm7lrszVigDqP5vIl2+eaT2yfRkL7g+dRcNPqjohkjaCvRVBq0H2U3LQrOJCx9kdTg4B8oxZzzTdqdYHEngjUCAPyUctN9sVRq2sTECW2UKNLd2jVtRmo1A6AhMmWaSRcR8nUdIHUuVb75zJS218EyEitro1At69pIdeSk30Lkw0FktNImGyZRhy1O5galmxd03LUsHWk06jUZiCq+5Wb1kZNN4+wJxJuWt8RAW5am2sYNZ9rYCBzZ3buPKJ2P5Yj4Toy3keyIyJbIxs1rml1byCA84gpch5RQNB7Q0qNMGq2Hy4BXdNR41yz/cEEJfZzUz96r9PoB0okjeQ8y9TkAAAAAElFTkSuQmCC" y="-41.76"/>
   <g id="matplotlib.axis_1"/>
   <g id="matplotlib.axis_2">
    <g id="ytick_1">
     <g id="line2d_1">
      <defs>
       <path d="M 0 0 
L 3.5 0 
" id="m6ebe146034" style="stroke:#000000;stroke-width:0.8;"/>
      </defs>
      <g>
       <use style="stroke:#000000;stroke-width:0.8;" x="374.4576" xlink:href="#m6ebe146034" y="281.281977"/>
      </g>
     </g>
     <g id="text_2">
      <!-- −8.5 -->
      <defs>
       <path d="M 10.59375 35.5 
L 73.1875 35.5 
L 73.1875 27.203125 
L 10.59375 27.203125 
z
" id="DejaVuSans-2212"/>
       <path d="M 31.78125 34.625 
Q 24.75 34.625 20.71875 30.859375 
Q 16.703125 27.09375 16.703125 20.515625 
Q 16.703125 13.921875 20.71875 10.15625 
Q 24.75 6.390625 31.78125 6.390625 
Q 38.8125 6.390625 42.859375 10.171875 
Q 46.921875 13.96875 46.921875 20.515625 
Q 46.921875 27.09375 42.890625 30.859375 
Q 38.875 34.625 31.78125 34.625 
z
M 21.921875 38.8125 
Q 15.578125 40.375 12.03125 44.71875 
Q 8.5 49.078125 8.5 55.328125 
Q 8.5 64.0625 14.71875 69.140625 
Q 20.953125 74.21875 31.78125 74.21875 
Q 42.671875 74.21875 48.875 69.140625 
Q 55.078125 64.0625 55.078125 55.328125 
Q 55.078125 49.078125 51.53125 44.71875 
Q 48 40.375 41.703125 38.8125 
Q 48.828125 37.15625 52.796875 32.3125 
Q 56.78125 27.484375 56.78125 20.515625 
Q 56.78125 9.90625 50.3125 4.234375 
Q 43.84375 -1.421875 31.78125 -1.421875 
Q 19.734375 -1.421875 13.25 4.234375 
Q 6.78125 9.90625 6.78125 20.515625 
Q 6.78125 27.484375 10.78125 32.3125 
Q 14.796875 37.15625 21.921875 38.8125 
z
M 18.3125 54.390625 
Q 18.3125 48.734375 21.84375 45.5625 
Q 25.390625 42.390625 31.78125 42.390625 
Q 38.140625 42.390625 41.71875 45.5625 
Q 45.3125 48.734375 45.3125 54.390625 
Q 45.3125 60.0625 41.71875 63.234375 
Q 38.140625 66.40625 31.78125 66.40625 
Q 25.390625 66.40625 21.84375 63.234375 
Q 18.3125 60.0625 18.3125 54.390625 
z
" id="DejaVuSans-38"/>
       <path d="M 10.796875 72.90625 
L 49.515625 72.90625 
L 49.515625 64.59375 
L 19.828125 64.59375 
L 19.828125 46.734375 
Q 21.96875 47.46875 24.109375 47.828125 
Q 26.265625 48.1875 28.421875 48.1875 
Q 40.625 48.1875 47.75 41.5 
Q 54.890625 34.8125 54.890625 23.390625 
Q 54.890625 11.625 47.5625 5.09375 
Q 40.234375 -1.421875 26.90625 -1.421875 
Q 22.3125 -1.421875 17.546875 -0.640625 
Q 12.796875 0.140625 7.71875 1.703125 
L 7.71875 11.625 
Q 12.109375 9.234375 16.796875 8.0625 
Q 21.484375 6.890625 26.703125 6.890625 
Q 35.15625 6.890625 40.078125 11.328125 
Q 45.015625 15.765625 45.015625 23.390625 
Q 45.015625 31 40.078125 35.4375 
Q 35.15625 39.890625 26.703125 39.890625 
Q 22.75 39.890625 18.8125 39.015625 
Q 14.890625 38.140625 10.796875 36.28125 
z
" id="DejaVuSans-35"/>
      </defs>
      <g transform="translate(381.4576 285.081195)scale(0.1 -0.1)">
       <use xlink:href="#DejaVuSans-2212"/>
       <use x="83.789062" xlink:href="#DejaVuSans-38"/>
       <use x="147.412109" xlink:href="#DejaVuSans-2e"/>
       <use x="179.199219" xlink:href="#DejaVuSans-35"/>
      </g>
     </g>
    </g>
    <g id="ytick_2">
     <g id="line2d_2">
      <g>
       <use style="stroke:#000000;stroke-width:0.8;" x="374.4576" xlink:href="#m6ebe146034" y="249.009954"/>
      </g>
     </g>
     <g id="text_3">
      <!-- −8.0 -->
      <g transform="translate(381.4576 252.809173)scale(0.1 -0.1)">
       <use xlink:href="#DejaVuSans-2212"/>
       <use x="83.789062" xlink:href="#DejaVuSans-38"/>
       <use x="147.412109" xlink:href="#DejaVuSans-2e"/>
       <use x="179.199219" xlink:href="#DejaVuSans-30"/>
      </g>
     </g>
    </g>
    <g id="ytick_3">
     <g id="line2d_3">
      <g>
       <use style="stroke:#000000;stroke-width:0.8;" x="374.4576" xlink:href="#m6ebe146034" y="216.737931"/>
      </g>
     </g>
     <g id="text_4">
      <!-- −7.5 -->
      <g transform="translate(381.4576 220.53715)scale(0.1 -0.1)">
       <use xlink:href="#DejaVuSans-2212"/>
       <use x="83.789062" xlink:href="#DejaVuSans-37"/>
       <use x="147.412109" xlink:href="#DejaVuSans-2e"/>
       <use x="179.199219" xlink:href="#DejaVuSans-35"/>
      </g>
     </g>
    </g>
    <g id="ytick_4">
     <g id="line2d_4">
      <g>
       <use style="stroke:#000000;stroke-width:0.8;" x="374.4576" xlink:href="#m6ebe146034" y="184.465908"/>
      </g>
     </g>
     <g id="text_5">
      <!-- −7.0 -->
      <g transform="translate(381.4576 188.265127)scale(0.1 -0.1)">
       <use xlink:href="#DejaVuSans-2212"/>
       <use x="83.789062" xlink:href="#DejaVuSans-37"/>
       <use x="147.412109" xlink:href="#DejaVuSans-2e"/>
       <use x="179.199219" xlink:href="#DejaVuSans-30"/>
      </g>
     </g>
    </g>
    <g id="ytick_5">
     <g id="line2d_5">
      <g>
       <use style="stroke:#000000;stroke-width:0.8;" x="374.4576" xlink:href="#m6ebe146034" y="152.193886"/>
      </g>
     </g>
     <g id="text_6">
      <!-- −6.5 -->
      <g transform="translate(381.4576 155.993104)scale(0.1 -0.1)">
       <use xlink:href="#DejaVuSans-2212"/>
       <use x="83.789062" xlink:href="#DejaVuSans-36"/>
       <use x="147.412109" xlink:href="#DejaVuSans-2e"/>
       <use x="179.199219" xlink:href="#DejaVuSans-35"/>
      </g>
     </g>
    </g>
    <g id="ytick_6">
     <g id="line2d_6">
      <g>
       <use style="stroke:#000000;stroke-width:0.8;" x="374.4576" xlink:href="#m6ebe146034" y="119.921863"/>
      </g>
     </g>
     <g id="text_7">
      <!-- −6.0 -->
      <g transform="translate(381.4576 123.721082)scale(0.1 -0.1)">
       <use xlink:href="#DejaVuSans-2212"/>
       <use x="83.789062" xlink:href="#DejaVuSans-36"/>
       <use x="147.412109" xlink:href="#DejaVuSans-2e"/>
       <use x="179.199219" xlink:href="#DejaVuSans-30"/>
      </g>
     </g>
    </g>
    <g id="ytick_7">
     <g id="line2d_7">
      <g>
       <use style="stroke:#000000;stroke-width:0.8;" x="374.4576" xlink:href="#m6ebe146034" y="87.64984"/>
      </g>
     </g>
     <g id="text_8">
      <!-- −5.5 -->
      <g transform="translate(381.4576 91.449059)scale(0.1 -0.1)">
       <use xlink:href="#DejaVuSans-2212"/>
       <use x="83.789062" xlink:href="#DejaVuSans-35"/>
       <use x="147.412109" xlink:href="#DejaVuSans-2e"/>
       <use x="179.199219" xlink:href="#DejaVuSans-35"/>
      </g>
     </g>
    </g>
    <g id="ytick_8">
     <g id="line2d_8">
      <g>
       <use style="stroke:#000000;stroke-width:0.8;" x="374.4576" xlink:href="#m6ebe146034" y="55.377818"/>
      </g>
     </g>
     <g id="text_9">
      <!-- −5.0 -->
      <g transform="translate(381.4576 59.177036)scale(0.1 -0.1)">
       <use xlink:href="#DejaVuSans-2212"/>
       <use x="83.789062" xlink:href="#DejaVuSans-35"/>
       <use x="147.412109" xlink:href="#DejaVuSans-2e"/>
       <use x="179.199219" xlink:href="#DejaVuSans-30"/>
      </g>
     </g>
    </g>
    <g id="text_10">
     <!-- Energy [eV] -->
     <defs>
      <path d="M 54.890625 33.015625 
L 54.890625 0 
L 45.90625 0 
L 45.90625 32.71875 
Q 45.90625 40.484375 42.875 44.328125 
Q 39.84375 48.1875 33.796875 48.1875 
Q 26.515625 48.1875 22.3125 43.546875 
Q 18.109375 38.921875 18.109375 30.90625 
L 18.109375 0 
L 9.078125 0 
L 9.078125 54.6875 
L 18.109375 54.6875 
L 18.109375 46.1875 
Q 21.34375 51.125 25.703125 53.5625 
Q 30.078125 56 35.796875 56 
Q 45.21875 56 50.046875 50.171875 
Q 54.890625 44.34375 54.890625 33.015625 
z
" id="DejaVuSans-6e"/>
      <path d="M 45.40625 27.984375 
Q 45.40625 37.75 41.375 43.109375 
Q 37.359375 48.484375 30.078125 48.484375 
Q 22.859375 48.484375 18.828125 43.109375 
Q 14.796875 37.75 14.796875 27.984375 
Q 14.796875 18.265625 18.828125 12.890625 
Q 22.859375 7.515625 30.078125 7.515625 
Q 37.359375 7.515625 41.375 12.890625 
Q 45.40625 18.265625 45.40625 27.984375 
z
M 54.390625 6.78125 
Q 54.390625 -7.171875 48.1875 -13.984375 
Q 42 -20.796875 29.203125 -20.796875 
Q 24.46875 -20.796875 20.265625 -20.09375 
Q 16.0625 -19.390625 12.109375 -17.921875 
L 12.109375 -9.1875 
Q 16.0625 -11.328125 19.921875 -12.34375 
Q 23.78125 -13.375 27.78125 -13.375 
Q 36.625 -13.375 41.015625 -8.765625 
Q 45.40625 -4.15625 45.40625 5.171875 
L 45.40625 9.625 
Q 42.625 4.78125 38.28125 2.390625 
Q 33.9375 0 27.875 0 
Q 17.828125 0 11.671875 7.65625 
Q 5.515625 15.328125 5.515625 27.984375 
Q 5.515625 40.671875 11.671875 48.328125 
Q 17.828125 56 27.875 56 
Q 33.9375 56 38.28125 53.609375 
Q 42.625 51.21875 45.40625 46.390625 
L 45.40625 54.6875 
L 54.390625 54.6875 
z
" id="DejaVuSans-67"/>
      <path d="M 32.171875 -5.078125 
Q 28.375 -14.84375 24.75 -17.8125 
Q 21.140625 -20.796875 15.09375 -20.796875 
L 7.90625 -20.796875 
L 7.90625 -13.28125 
L 13.1875 -13.28125 
Q 16.890625 -13.28125 18.9375 -11.515625 
Q 21 -9.765625 23.484375 -3.21875 
L 25.09375 0.875 
L 2.984375 54.6875 
L 12.5 54.6875 
L 29.59375 11.921875 
L 46.6875 54.6875 
L 56.203125 54.6875 
z
" id="DejaVuSans-79"/>
      <path d="M 8.59375 75.984375 
L 29.296875 75.984375 
L 29.296875 69 
L 17.578125 69 
L 17.578125 -6.203125 
L 29.296875 -6.203125 
L 29.296875 -13.1875 
L 8.59375 -13.1875 
z
" id="DejaVuSans-5b"/>
      <path d="M 30.421875 75.984375 
L 30.421875 -13.1875 
L 9.71875 -13.1875 
L 9.71875 -6.203125 
L 21.390625 -6.203125 
L 21.390625 69 
L 9.71875 69 
L 9.71875 75.984375 
z
" id="DejaVuSans-5d"/>
     </defs>
     <g transform="translate(417.33885 204.108469)rotate(-90)scale(0.1 -0.1)">
      <use xlink:href="#DejaVuSans-45"/>
      <use x="63.183594" xlink:href="#DejaVuSans-6e"/>
      <use x="126.5625" xlink:href="#DejaVuSans-65"/>
      <use x="188.085938" xlink:href="#DejaVuSans-72"/>
      <use x="229.183594" xlink:href="#DejaVuSans-67"/>
      <use x="292.660156" xlink:href="#DejaVuSans-79"/>
      <use x="351.839844" xlink:href="#DejaVuSans-20"/>
      <use x="383.626953" xlink:href="#DejaVuSans-5b"/>
      <use x="422.640625" xlink:href="#DejaVuSans-65"/>
      <use x="484.164062" xlink:href="#DejaVuSans-56"/>
      <use x="552.572266" xlink:href="#DejaVuSans-5d"/>
     </g>
    </g>
   </g>
   <g id="patch_3">
    <path d="M 361.152 307.584 
L 361.152 306.5445 
L 361.152 42.5115 
L 361.152 41.472 
L 374.4576 41.472 
L 374.4576 42.5115 
L 374.4576 306.5445 
L 374.4576 307.584 
z
" style="fill:none;stroke:#000000;stroke-linejoin:miter;stroke-width:0.8;"/>
   </g>
  </g>
 </g>
 <defs>
  <clipPath id="pd8b078fbd4">
   <rect height="266.112" width="285.696" x="57.6" y="41.472"/>
  </clipPath>
  <clipPath id="p9bae31f652">
   <rect height="266.112" width="13.3056" x="361.152" y="41.472"/>
  </clipPath>
 </defs>
</svg>
