<?xml version="1.0" encoding="utf-8" standalone="no"?>
<!DOCTYPE svg PUBLIC "-//W3C//DTD SVG 1.1//EN"
  "http://www.w3.org/Graphics/SVG/1.1/DTD/svg11.dtd">
<!-- Created with matplotlib (http://matplotlib.org/) -->
<svg height="345.6pt" version="1.1" viewBox="0 0 460.8 345.6" width="460.8pt" xmlns="http://www.w3.org/2000/svg" xmlns:xlink="http://www.w3.org/1999/xlink">
 <defs>
  <style type="text/css">
*{stroke-linecap:butt;stroke-linejoin:round;}
  </style>
 </defs>
 <g id="figure_1">
  <g id="patch_1">
   <path d="M 0 345.6 
L 460.8 345.6 
L 460.8 0 
L 0 0 
z
" style="fill:#ffffff;"/>
  </g>
  <g id="axes_1">
   <g id="CircleCollection_1">
    <path clip-path="url(#pa5dac15e3b)" d="M 133.943024 123.505693 
C 135.712838 123.505693 137.410403 122.802539 138.66185 121.551092 
C 139.913297 120.299645 140.616451 118.60208 140.616451 116.832266 
C 140.616451 115.062453 139.913297 113.364888 138.66185 112.113441 
C 137.410403 110.861994 135.712838 110.158839 133.943024 110.158839 
C 132.173211 110.158839 130.475646 110.861994 129.224199 112.113441 
C 127.972752 113.364888 127.269597 115.062453 127.269597 116.832266 
C 127.269597 118.60208 127.972752 120.299645 129.224199 121.551092 
C 130.475646 122.802539 132.173211 123.505693 133.943024 123.505693 
z
" style="fill:#3c4f8a;"/>
    <path clip-path="url(#pa5dac15e3b)" d="M 218.888012 166.345291 
C 220.615324 166.345291 222.272121 165.659023 223.493515 164.437629 
C 224.714908 163.216235 225.401176 161.559438 225.401176 159.832127 
C 225.401176 158.104815 224.714908 156.448018 223.493515 155.226624 
C 222.272121 154.005231 220.615324 153.318962 218.888012 153.318962 
C 217.160701 153.318962 215.503903 154.005231 214.28251 155.226624 
C 213.061116 156.448018 212.374848 158.104815 212.374848 159.832127 
C 212.374848 161.559438 213.061116 163.216235 214.28251 164.437629 
C 215.503903 165.659023 217.160701 166.345291 218.888012 166.345291 
z
" style="fill:#481769;"/>
    <path clip-path="url(#pa5dac15e3b)" d="M 154.577615 61.067606 
C 156.432422 61.067606 158.211511 60.330683 159.523058 59.019136 
C 160.834605 57.707589 161.571527 55.9285 161.571527 54.073693 
C 161.571527 52.218886 160.834605 50.439797 159.523058 49.12825 
C 158.211511 47.816703 156.432422 47.07978 154.577615 47.07978 
C 152.722807 47.07978 150.943719 47.816703 149.632172 49.12825 
C 148.320625 50.439797 147.583702 52.218886 147.583702 54.073693 
C 147.583702 55.9285 148.320625 57.707589 149.632172 59.019136 
C 150.943719 60.330683 152.722807 61.067606 154.577615 61.067606 
z
" style="fill:#c5e021;"/>
    <path clip-path="url(#pa5dac15e3b)" d="M 266.455005 187.83874 
C 268.180027 187.83874 269.83463 187.153382 271.054405 185.933606 
C 272.274181 184.713831 272.959539 183.059229 272.959539 181.334206 
C 272.959539 179.609183 272.274181 177.954581 271.054405 176.734805 
C 269.83463 175.51503 268.180027 174.829671 266.455005 174.829671 
C 264.729982 174.829671 263.07538 175.51503 261.855604 176.734805 
C 260.635829 177.954581 259.95047 179.609183 259.95047 181.334206 
C 259.95047 183.059229 260.635829 184.713831 261.855604 185.933606 
C 263.07538 187.153382 264.729982 187.83874 266.455005 187.83874 
z
" style="fill:#472d7b;"/>
    <path clip-path="url(#pa5dac15e3b)" d="M 208.971324 241.116596 
C 210.704045 241.116596 212.366031 240.428179 213.59125 239.20296 
C 214.816468 237.977742 215.504885 236.315756 215.504885 234.583035 
C 215.504885 232.850314 214.816468 231.188328 213.59125 229.96311 
C 212.366031 228.737891 210.704045 228.049474 208.971324 228.049474 
C 207.238603 228.049474 205.576617 228.737891 204.351399 229.96311 
C 203.12618 231.188328 202.437763 232.850314 202.437763 234.583035 
C 202.437763 236.315756 203.12618 237.977742 204.351399 239.20296 
C 205.576617 240.428179 207.238603 241.116596 208.971324 241.116596 
z
" style="fill:#440154;"/>
    <path clip-path="url(#pa5dac15e3b)" d="M 138.06139 90.573753 
C 139.87878 90.573753 141.62198 89.851696 142.907069 88.566607 
C 144.192158 87.281518 144.914215 85.538318 144.914215 83.720927 
C 144.914215 81.903537 144.192158 80.160337 142.907069 78.875248 
C 141.62198 77.590159 139.87878 76.868102 138.06139 76.868102 
C 136.243999 76.868102 134.5008 77.590159 133.21571 78.875248 
C 131.930621 80.160337 131.208564 81.903537 131.208564 83.720927 
C 131.208564 85.538318 131.930621 87.281518 133.21571 88.566607 
C 134.5008 89.851696 136.243999 90.573753 138.06139 90.573753 
z
" style="fill:#33638d;"/>
    <path clip-path="url(#pa5dac15e3b)" d="M 243.267958 288.846648 
C 245.083272 288.846648 246.82448 288.125416 248.1081 286.841795 
C 249.391721 285.558175 250.112953 283.816967 250.112953 282.001654 
C 250.112953 280.18634 249.391721 278.445133 248.1081 277.161512 
C 246.82448 275.877891 245.083272 275.15666 243.267958 275.15666 
C 241.452645 275.15666 239.711437 275.877891 238.427817 277.161512 
C 237.144196 278.445133 236.422964 280.18634 236.422964 282.001654 
C 236.422964 283.816967 237.144196 285.558175 238.427817 286.841795 
C 239.711437 288.125416 241.452645 288.846648 243.267958 288.846648 
z
" style="fill:#277e8e;"/>
    <path clip-path="url(#pa5dac15e3b)" d="M 108.930878 301.873315 
C 110.756268 301.873315 112.50714 301.14808 113.797885 299.857335 
C 115.088631 298.566589 115.813866 296.815717 115.813866 294.990327 
C 115.813866 293.164938 115.088631 291.414065 113.797885 290.12332 
C 112.50714 288.832575 110.756268 288.107339 108.930878 288.107339 
C 107.105488 288.107339 105.354616 288.832575 104.063871 290.12332 
C 102.773125 291.414065 102.04789 293.164938 102.04789 294.990327 
C 102.04789 296.815717 102.773125 298.566589 104.063871 299.857335 
C 105.354616 301.14808 107.105488 301.873315 108.930878 301.873315 
z
" style="fill:#fde725;"/>
    <path clip-path="url(#pa5dac15e3b)" d="M 234.133489 133.799173 
C 235.907449 133.799173 237.608991 133.094371 238.86337 131.839992 
C 240.117749 130.585613 240.822551 128.884071 240.822551 127.110111 
C 240.822551 125.336151 240.117749 123.634609 238.86337 122.38023 
C 237.608991 121.125851 235.907449 120.421049 234.133489 120.421049 
C 232.359529 120.421049 230.657987 121.125851 229.403608 122.38023 
C 228.149229 123.634609 227.444427 125.336151 227.444427 127.110111 
C 227.444427 128.884071 228.149229 130.585613 229.403608 131.839992 
C 230.657987 133.094371 232.359529 133.799173 234.133489 133.799173 
z
" style="fill:#481668;"/>
    <path clip-path="url(#pa5dac15e3b)" d="M 164.634998 180.936206 
C 166.357262 180.936206 168.009218 180.251943 169.227043 179.034119 
C 170.444867 177.816295 171.12913 176.164339 171.12913 174.442075 
C 171.12913 172.719811 170.444867 171.067855 169.227043 169.850031 
C 168.009218 168.632206 166.357262 167.947944 164.634998 167.947944 
C 162.912735 167.947944 161.260779 168.632206 160.042954 169.850031 
C 158.82513 171.067855 158.140867 172.719811 158.140867 174.442075 
C 158.140867 176.164339 158.82513 177.816295 160.042954 179.034119 
C 161.260779 180.251943 162.912735 180.936206 164.634998 180.936206 
z
" style="fill:#471365;"/>
    <path clip-path="url(#pa5dac15e3b)" d="M 71.136288 214.812399 
C 72.905144 214.812399 74.601791 214.109625 75.852561 212.858855 
C 77.103332 211.608084 77.806106 209.911438 77.806106 208.142582 
C 77.806106 206.373725 77.103332 204.677079 75.852561 203.426308 
C 74.601791 202.175538 72.905144 201.472764 71.136288 201.472764 
C 69.367432 201.472764 67.670785 202.175538 66.420015 203.426308 
C 65.169245 204.677079 64.466471 206.373725 64.466471 208.142582 
C 64.466471 209.911438 65.169245 211.608084 66.420015 212.858855 
C 67.670785 214.109625 69.367432 214.812399 71.136288 214.812399 
z
" style="fill:#2a788e;"/>
    <path clip-path="url(#pa5dac15e3b)" d="M 329.741879 204.568678 
C 331.568076 204.568678 333.319721 203.843122 334.611037 202.551807 
C 335.902353 201.260491 336.627908 199.508845 336.627908 197.682649 
C 336.627908 195.856453 335.902353 194.104807 334.611037 192.813491 
C 333.319721 191.522176 331.568076 190.79662 329.741879 190.79662 
C 327.915683 190.79662 326.164037 191.522176 324.872722 192.813491 
C 323.581406 194.104807 322.855851 195.856453 322.855851 197.682649 
C 322.855851 199.508845 323.581406 201.260491 324.872722 202.551807 
C 326.164037 203.843122 327.915683 204.568678 329.741879 204.568678 
z
" style="fill:#4cc26c;"/>
    <path clip-path="url(#pa5dac15e3b)" d="M 287.980454 271.295826 
C 289.803562 271.295826 291.552247 270.571497 292.841379 269.282365 
C 294.130511 267.993233 294.85484 266.244548 294.85484 264.42144 
C 294.85484 262.598331 294.130511 260.849647 292.841379 259.560515 
C 291.552247 258.271382 289.803562 257.547054 287.980454 257.547054 
C 286.157345 257.547054 284.408661 258.271382 283.119529 259.560515 
C 281.830396 260.849647 281.106068 262.598331 281.106068 264.42144 
C 281.106068 266.244548 281.830396 267.993233 283.119529 269.282365 
C 284.408661 270.571497 286.157345 271.295826 287.980454 271.295826 
z
" style="fill:#26828e;"/>
    <path clip-path="url(#pa5dac15e3b)" d="M 186.974764 112.882594 
C 188.759455 112.882594 190.47129 112.173529 191.733257 110.911562 
C 192.995224 109.649595 193.704289 107.93776 193.704289 106.153069 
C 193.704289 104.368378 192.995224 102.656543 191.733257 101.394576 
C 190.47129 100.132609 188.759455 99.423544 186.974764 99.423544 
C 185.190073 99.423544 183.478238 100.132609 182.216271 101.394576 
C 180.954304 102.656543 180.245238 104.368378 180.245238 106.153069 
C 180.245238 107.93776 180.954304 109.649595 182.216271 110.911562 
C 183.478238 112.173529 185.190073 112.882594 186.974764 112.882594 
z
" style="fill:#2f6b8e;"/>
    <path clip-path="url(#pa5dac15e3b)" d="M 196.161214 273.446799 
C 197.940219 273.446799 199.646601 272.739992 200.904547 271.482046 
C 202.162494 270.224099 202.869301 268.517717 202.869301 266.738712 
C 202.869301 264.959706 202.162494 263.253325 200.904547 261.995378 
C 199.646601 260.737431 197.940219 260.030625 196.161214 260.030625 
C 194.382208 260.030625 192.675827 260.737431 191.41788 261.995378 
C 190.159933 263.253325 189.453126 264.959706 189.453126 266.738712 
C 189.453126 268.517717 190.159933 270.224099 191.41788 271.482046 
C 192.675827 272.739992 194.382208 273.446799 196.161214 273.446799 
z
" style="fill:#472d7b;"/>
    <path clip-path="url(#pa5dac15e3b)" d="M 114.336402 238.702066 
C 116.093209 238.702066 117.778298 238.004079 119.020548 236.761829 
C 120.262798 235.519579 120.960785 233.83449 120.960785 232.077683 
C 120.960785 230.320876 120.262798 228.635787 119.020548 227.393537 
C 117.778298 226.151287 116.093209 225.4533 114.336402 225.4533 
C 112.579596 225.4533 110.894506 226.151287 109.652256 227.393537 
C 108.410006 228.635787 107.71202 230.320876 107.71202 232.077683 
C 107.71202 233.83449 108.410006 235.519579 109.652256 236.761829 
C 110.894506 238.004079 112.579596 238.702066 114.336402 238.702066 
z
" style="fill:#482677;"/>
    <path clip-path="url(#pa5dac15e3b)" d="M 117.437834 158.926935 
C 119.186804 158.926935 120.864376 158.232062 122.101085 156.995354 
C 123.337793 155.758645 124.032666 154.081073 124.032666 152.332103 
C 124.032666 150.583133 123.337793 148.905561 122.101085 147.668853 
C 120.864376 146.432144 119.186804 145.737271 117.437834 145.737271 
C 115.688864 145.737271 114.011292 146.432144 112.774584 147.668853 
C 111.537875 148.905561 110.843002 150.583133 110.843002 152.332103 
C 110.843002 154.081073 111.537875 155.758645 112.774584 156.995354 
C 114.011292 158.232062 115.688864 158.926935 117.437834 158.926935 
z
" style="fill:#450559;"/>
    <path clip-path="url(#pa5dac15e3b)" d="M 286.186426 140.813826 
C 287.999797 140.813826 289.739142 140.093366 291.021389 138.811119 
C 292.303636 137.528871 293.024096 135.789527 293.024096 133.976155 
C 293.024096 132.162784 292.303636 130.423439 291.021389 129.141192 
C 289.739142 127.858945 287.999797 127.138485 286.186426 127.138485 
C 284.373054 127.138485 282.63371 127.858945 281.351462 129.141192 
C 280.069215 130.423439 279.348755 132.162784 279.348755 133.976155 
C 279.348755 135.789527 280.069215 137.528871 281.351462 138.811119 
C 282.63371 140.093366 284.373054 140.813826 286.186426 140.813826 
z
" style="fill:#4cc26c;"/>
    <path clip-path="url(#pa5dac15e3b)" d="M 71.137761 180.920929 
C 72.899235 180.920929 74.588801 180.221088 75.834351 178.975537 
C 77.079902 177.729987 77.779743 176.040421 77.779743 174.278946 
C 77.779743 172.517472 77.079902 170.827906 75.834351 169.582356 
C 74.588801 168.336805 72.899235 167.636964 71.137761 167.636964 
C 69.376286 167.636964 67.68672 168.336805 66.44117 169.582356 
C 65.195619 170.827906 64.495778 172.517472 64.495778 174.278946 
C 64.495778 176.040421 65.195619 177.729987 66.44117 178.975537 
C 67.68672 180.221088 69.376286 180.920929 71.137761 180.920929 
z
" style="fill:#27808e;"/>
    <path clip-path="url(#pa5dac15e3b)" d="M 261.019803 225.304169 
C 262.756377 225.304169 264.422059 224.614221 265.650002 223.386278 
C 266.877945 222.158334 267.567893 220.492652 267.567893 218.756079 
C 267.567893 217.019505 266.877945 215.353823 265.650002 214.12588 
C 264.422059 212.897937 262.756377 212.207989 261.019803 212.207989 
C 259.283229 212.207989 257.617547 212.897937 256.389604 214.12588 
C 255.161661 215.353823 254.471713 217.019505 254.471713 218.756079 
C 254.471713 220.492652 255.161661 222.158334 256.389604 223.386278 
C 257.617547 224.614221 259.283229 225.304169 261.019803 225.304169 
z
" style="fill:#460a5d;"/>
    <path clip-path="url(#pa5dac15e3b)" d="M 303.906976 236.817992 
C 305.703161 236.817992 307.42602 236.10436 308.696115 234.834265 
C 309.966209 233.564171 310.679841 231.841311 310.679841 230.045127 
C 310.679841 228.248942 309.966209 226.526082 308.696115 225.255988 
C 307.42602 223.985893 305.703161 223.272261 303.906976 223.272261 
C 302.110791 223.272261 300.387931 223.985893 299.117837 225.255988 
C 297.847742 226.526082 297.134111 228.248942 297.134111 230.045127 
C 297.134111 231.841311 297.847742 233.564171 299.117837 234.834265 
C 300.387931 236.10436 302.110791 236.817992 303.906976 236.817992 
z
" style="fill:#482173;"/>
    <path clip-path="url(#pa5dac15e3b)" d="M 160.929865 219.126862 
C 162.654247 219.126862 164.308235 218.441757 165.527558 217.222435 
C 166.746881 216.003112 167.431985 214.349124 167.431985 212.624741 
C 167.431985 210.900359 166.746881 209.24637 165.527558 208.027048 
C 164.308235 206.807725 162.654247 206.122621 160.929865 206.122621 
C 159.205482 206.122621 157.551494 206.807725 156.332171 208.027048 
C 155.112849 209.24637 154.427744 210.900359 154.427744 212.624741 
C 154.427744 214.349124 155.112849 216.003112 156.332171 217.222435 
C 157.551494 218.441757 159.205482 219.126862 160.929865 219.126862 
z
" style="fill:#470d60;"/>
    <path clip-path="url(#pa5dac15e3b)" d="M 134.578253 274.199302 
C 136.366589 274.199302 138.081921 273.488789 139.346466 272.224244 
C 140.611011 270.959699 141.321525 269.244367 141.321525 267.456031 
C 141.321525 265.667694 140.611011 263.952362 139.346466 262.687817 
C 138.081921 261.423272 136.366589 260.712759 134.578253 260.712759 
C 132.789916 260.712759 131.074585 261.423272 129.81004 262.687817 
C 128.545495 263.952362 127.834981 265.667694 127.834981 267.456031 
C 127.834981 269.244367 128.545495 270.959699 129.81004 272.224244 
C 131.074585 273.488789 132.789916 274.199302 134.578253 274.199302 
z
" style="fill:#481668;"/>
    <path clip-path="url(#pa5dac15e3b)" d="M 308.839677 173.63134 
C 310.625629 173.63134 312.338673 172.921773 313.601532 171.658914 
C 314.864391 170.396056 315.573957 168.683011 315.573957 166.897059 
C 315.573957 165.111107 314.864391 163.398062 313.601532 162.135203 
C 312.338673 160.872345 310.625629 160.162778 308.839677 160.162778 
C 307.053725 160.162778 305.34068 160.872345 304.077821 162.135203 
C 302.814962 163.398062 302.105396 165.111107 302.105396 166.897059 
C 302.105396 168.683011 302.814962 170.396056 304.077821 171.658914 
C 305.34068 172.921773 307.053725 173.63134 308.839677 173.63134 
z
" style="fill:#472d7b;"/>
   </g>
   <g id="text_1">
    <!-- Structure #2078, $E_N$=-181.53eV, ΔE=-0.13eV -->
    <defs>
     <path d="M 53.515625 70.515625 
L 53.515625 60.890625 
Q 47.90625 63.578125 42.921875 64.890625 
Q 37.9375 66.21875 33.296875 66.21875 
Q 25.25 66.21875 20.875 63.09375 
Q 16.5 59.96875 16.5 54.203125 
Q 16.5 49.359375 19.40625 46.890625 
Q 22.3125 44.4375 30.421875 42.921875 
L 36.375 41.703125 
Q 47.40625 39.59375 52.65625 34.296875 
Q 57.90625 29 57.90625 20.125 
Q 57.90625 9.515625 50.796875 4.046875 
Q 43.703125 -1.421875 29.984375 -1.421875 
Q 24.8125 -1.421875 18.96875 -0.25 
Q 13.140625 0.921875 6.890625 3.21875 
L 6.890625 13.375 
Q 12.890625 10.015625 18.65625 8.296875 
Q 24.421875 6.59375 29.984375 6.59375 
Q 38.421875 6.59375 43.015625 9.90625 
Q 47.609375 13.234375 47.609375 19.390625 
Q 47.609375 24.75 44.3125 27.78125 
Q 41.015625 30.8125 33.5 32.328125 
L 27.484375 33.5 
Q 16.453125 35.6875 11.515625 40.375 
Q 6.59375 45.0625 6.59375 53.421875 
Q 6.59375 63.09375 13.40625 68.65625 
Q 20.21875 74.21875 32.171875 74.21875 
Q 37.3125 74.21875 42.625 73.28125 
Q 47.953125 72.359375 53.515625 70.515625 
z
" id="DejaVuSans-53"/>
     <path d="M 18.3125 70.21875 
L 18.3125 54.6875 
L 36.8125 54.6875 
L 36.8125 47.703125 
L 18.3125 47.703125 
L 18.3125 18.015625 
Q 18.3125 11.328125 20.140625 9.421875 
Q 21.96875 7.515625 27.59375 7.515625 
L 36.8125 7.515625 
L 36.8125 0 
L 27.59375 0 
Q 17.1875 0 13.234375 3.875 
Q 9.28125 7.765625 9.28125 18.015625 
L 9.28125 47.703125 
L 2.6875 47.703125 
L 2.6875 54.6875 
L 9.28125 54.6875 
L 9.28125 70.21875 
z
" id="DejaVuSans-74"/>
     <path d="M 41.109375 46.296875 
Q 39.59375 47.171875 37.8125 47.578125 
Q 36.03125 48 33.890625 48 
Q 26.265625 48 22.1875 43.046875 
Q 18.109375 38.09375 18.109375 28.8125 
L 18.109375 0 
L 9.078125 0 
L 9.078125 54.6875 
L 18.109375 54.6875 
L 18.109375 46.1875 
Q 20.953125 51.171875 25.484375 53.578125 
Q 30.03125 56 36.53125 56 
Q 37.453125 56 38.578125 55.875 
Q 39.703125 55.765625 41.0625 55.515625 
z
" id="DejaVuSans-72"/>
     <path d="M 8.5 21.578125 
L 8.5 54.6875 
L 17.484375 54.6875 
L 17.484375 21.921875 
Q 17.484375 14.15625 20.5 10.265625 
Q 23.53125 6.390625 29.59375 6.390625 
Q 36.859375 6.390625 41.078125 11.03125 
Q 45.3125 15.671875 45.3125 23.6875 
L 45.3125 54.6875 
L 54.296875 54.6875 
L 54.296875 0 
L 45.3125 0 
L 45.3125 8.40625 
Q 42.046875 3.421875 37.71875 1 
Q 33.40625 -1.421875 27.6875 -1.421875 
Q 18.265625 -1.421875 13.375 4.4375 
Q 8.5 10.296875 8.5 21.578125 
z
M 31.109375 56 
z
" id="DejaVuSans-75"/>
     <path d="M 48.78125 52.59375 
L 48.78125 44.1875 
Q 44.96875 46.296875 41.140625 47.34375 
Q 37.3125 48.390625 33.40625 48.390625 
Q 24.65625 48.390625 19.8125 42.84375 
Q 14.984375 37.3125 14.984375 27.296875 
Q 14.984375 17.28125 19.8125 11.734375 
Q 24.65625 6.203125 33.40625 6.203125 
Q 37.3125 6.203125 41.140625 7.25 
Q 44.96875 8.296875 48.78125 10.40625 
L 48.78125 2.09375 
Q 45.015625 0.34375 40.984375 -0.53125 
Q 36.96875 -1.421875 32.421875 -1.421875 
Q 20.0625 -1.421875 12.78125 6.34375 
Q 5.515625 14.109375 5.515625 27.296875 
Q 5.515625 40.671875 12.859375 48.328125 
Q 20.21875 56 33.015625 56 
Q 37.15625 56 41.109375 55.140625 
Q 45.0625 54.296875 48.78125 52.59375 
z
" id="DejaVuSans-63"/>
     <path d="M 56.203125 29.59375 
L 56.203125 25.203125 
L 14.890625 25.203125 
Q 15.484375 15.921875 20.484375 11.0625 
Q 25.484375 6.203125 34.421875 6.203125 
Q 39.59375 6.203125 44.453125 7.46875 
Q 49.3125 8.734375 54.109375 11.28125 
L 54.109375 2.78125 
Q 49.265625 0.734375 44.1875 -0.34375 
Q 39.109375 -1.421875 33.890625 -1.421875 
Q 20.796875 -1.421875 13.15625 6.1875 
Q 5.515625 13.8125 5.515625 26.8125 
Q 5.515625 40.234375 12.765625 48.109375 
Q 20.015625 56 32.328125 56 
Q 43.359375 56 49.78125 48.890625 
Q 56.203125 41.796875 56.203125 29.59375 
z
M 47.21875 32.234375 
Q 47.125 39.59375 43.09375 43.984375 
Q 39.0625 48.390625 32.421875 48.390625 
Q 24.90625 48.390625 20.390625 44.140625 
Q 15.875 39.890625 15.1875 32.171875 
z
" id="DejaVuSans-65"/>
     <path id="DejaVuSans-20"/>
     <path d="M 51.125 44 
L 36.921875 44 
L 32.8125 27.6875 
L 47.125 27.6875 
z
M 43.796875 71.78125 
L 38.71875 51.515625 
L 52.984375 51.515625 
L 58.109375 71.78125 
L 65.921875 71.78125 
L 60.890625 51.515625 
L 76.125 51.515625 
L 76.125 44 
L 58.984375 44 
L 54.984375 27.6875 
L 70.515625 27.6875 
L 70.515625 20.21875 
L 53.078125 20.21875 
L 48 0 
L 40.1875 0 
L 45.21875 20.21875 
L 30.90625 20.21875 
L 25.875 0 
L 18.015625 0 
L 23.09375 20.21875 
L 7.71875 20.21875 
L 7.71875 27.6875 
L 24.90625 27.6875 
L 29 44 
L 13.28125 44 
L 13.28125 51.515625 
L 30.90625 51.515625 
L 35.890625 71.78125 
z
" id="DejaVuSans-23"/>
     <path d="M 19.1875 8.296875 
L 53.609375 8.296875 
L 53.609375 0 
L 7.328125 0 
L 7.328125 8.296875 
Q 12.9375 14.109375 22.625 23.890625 
Q 32.328125 33.6875 34.8125 36.53125 
Q 39.546875 41.84375 41.421875 45.53125 
Q 43.3125 49.21875 43.3125 52.78125 
Q 43.3125 58.59375 39.234375 62.25 
Q 35.15625 65.921875 28.609375 65.921875 
Q 23.96875 65.921875 18.8125 64.3125 
Q 13.671875 62.703125 7.8125 59.421875 
L 7.8125 69.390625 
Q 13.765625 71.78125 18.9375 73 
Q 24.125 74.21875 28.421875 74.21875 
Q 39.75 74.21875 46.484375 68.546875 
Q 53.21875 62.890625 53.21875 53.421875 
Q 53.21875 48.921875 51.53125 44.890625 
Q 49.859375 40.875 45.40625 35.40625 
Q 44.1875 33.984375 37.640625 27.21875 
Q 31.109375 20.453125 19.1875 8.296875 
z
" id="DejaVuSans-32"/>
     <path d="M 31.78125 66.40625 
Q 24.171875 66.40625 20.328125 58.90625 
Q 16.5 51.421875 16.5 36.375 
Q 16.5 21.390625 20.328125 13.890625 
Q 24.171875 6.390625 31.78125 6.390625 
Q 39.453125 6.390625 43.28125 13.890625 
Q 47.125 21.390625 47.125 36.375 
Q 47.125 51.421875 43.28125 58.90625 
Q 39.453125 66.40625 31.78125 66.40625 
z
M 31.78125 74.21875 
Q 44.046875 74.21875 50.515625 64.515625 
Q 56.984375 54.828125 56.984375 36.375 
Q 56.984375 17.96875 50.515625 8.265625 
Q 44.046875 -1.421875 31.78125 -1.421875 
Q 19.53125 -1.421875 13.0625 8.265625 
Q 6.59375 17.96875 6.59375 36.375 
Q 6.59375 54.828125 13.0625 64.515625 
Q 19.53125 74.21875 31.78125 74.21875 
z
" id="DejaVuSans-30"/>
     <path d="M 8.203125 72.90625 
L 55.078125 72.90625 
L 55.078125 68.703125 
L 28.609375 0 
L 18.3125 0 
L 43.21875 64.59375 
L 8.203125 64.59375 
z
" id="DejaVuSans-37"/>
     <path d="M 31.78125 34.625 
Q 24.75 34.625 20.71875 30.859375 
Q 16.703125 27.09375 16.703125 20.515625 
Q 16.703125 13.921875 20.71875 10.15625 
Q 24.75 6.390625 31.78125 6.390625 
Q 38.8125 6.390625 42.859375 10.171875 
Q 46.921875 13.96875 46.921875 20.515625 
Q 46.921875 27.09375 42.890625 30.859375 
Q 38.875 34.625 31.78125 34.625 
z
M 21.921875 38.8125 
Q 15.578125 40.375 12.03125 44.71875 
Q 8.5 49.078125 8.5 55.328125 
Q 8.5 64.0625 14.71875 69.140625 
Q 20.953125 74.21875 31.78125 74.21875 
Q 42.671875 74.21875 48.875 69.140625 
Q 55.078125 64.0625 55.078125 55.328125 
Q 55.078125 49.078125 51.53125 44.71875 
Q 48 40.375 41.703125 38.8125 
Q 48.828125 37.15625 52.796875 32.3125 
Q 56.78125 27.484375 56.78125 20.515625 
Q 56.78125 9.90625 50.3125 4.234375 
Q 43.84375 -1.421875 31.78125 -1.421875 
Q 19.734375 -1.421875 13.25 4.234375 
Q 6.78125 9.90625 6.78125 20.515625 
Q 6.78125 27.484375 10.78125 32.3125 
Q 14.796875 37.15625 21.921875 38.8125 
z
M 18.3125 54.390625 
Q 18.3125 48.734375 21.84375 45.5625 
Q 25.390625 42.390625 31.78125 42.390625 
Q 38.140625 42.390625 41.71875 45.5625 
Q 45.3125 48.734375 45.3125 54.390625 
Q 45.3125 60.0625 41.71875 63.234375 
Q 38.140625 66.40625 31.78125 66.40625 
Q 25.390625 66.40625 21.84375 63.234375 
Q 18.3125 60.0625 18.3125 54.390625 
z
" id="DejaVuSans-38"/>
     <path d="M 11.71875 12.40625 
L 22.015625 12.40625 
L 22.015625 4 
L 14.015625 -11.625 
L 7.71875 -11.625 
L 11.71875 4 
z
" id="DejaVuSans-2c"/>
     <path d="M 16.890625 72.90625 
L 62.984375 72.90625 
L 61.375 64.59375 
L 25.09375 64.59375 
L 20.90625 43.015625 
L 55.71875 43.015625 
L 54.109375 34.71875 
L 19.28125 34.71875 
L 14.203125 8.296875 
L 51.3125 8.296875 
L 49.703125 0 
L 2.6875 0 
z
" id="DejaVuSans-Oblique-45"/>
     <path d="M 16.890625 72.90625 
L 30.171875 72.90625 
L 50.296875 10.40625 
L 62.5 72.90625 
L 72.125 72.90625 
L 57.90625 0 
L 44.578125 0 
L 24.515625 62.890625 
L 12.3125 0 
L 2.6875 0 
z
" id="DejaVuSans-Oblique-4e"/>
     <path d="M 10.59375 45.40625 
L 73.1875 45.40625 
L 73.1875 37.203125 
L 10.59375 37.203125 
z
M 10.59375 25.484375 
L 73.1875 25.484375 
L 73.1875 17.1875 
L 10.59375 17.1875 
z
" id="DejaVuSans-3d"/>
     <path d="M 4.890625 31.390625 
L 31.203125 31.390625 
L 31.203125 23.390625 
L 4.890625 23.390625 
z
" id="DejaVuSans-2d"/>
     <path d="M 12.40625 8.296875 
L 28.515625 8.296875 
L 28.515625 63.921875 
L 10.984375 60.40625 
L 10.984375 69.390625 
L 28.421875 72.90625 
L 38.28125 72.90625 
L 38.28125 8.296875 
L 54.390625 8.296875 
L 54.390625 0 
L 12.40625 0 
z
" id="DejaVuSans-31"/>
     <path d="M 10.6875 12.40625 
L 21 12.40625 
L 21 0 
L 10.6875 0 
z
" id="DejaVuSans-2e"/>
     <path d="M 10.796875 72.90625 
L 49.515625 72.90625 
L 49.515625 64.59375 
L 19.828125 64.59375 
L 19.828125 46.734375 
Q 21.96875 47.46875 24.109375 47.828125 
Q 26.265625 48.1875 28.421875 48.1875 
Q 40.625 48.1875 47.75 41.5 
Q 54.890625 34.8125 54.890625 23.390625 
Q 54.890625 11.625 47.5625 5.09375 
Q 40.234375 -1.421875 26.90625 -1.421875 
Q 22.3125 -1.421875 17.546875 -0.640625 
Q 12.796875 0.140625 7.71875 1.703125 
L 7.71875 11.625 
Q 12.109375 9.234375 16.796875 8.0625 
Q 21.484375 6.890625 26.703125 6.890625 
Q 35.15625 6.890625 40.078125 11.328125 
Q 45.015625 15.765625 45.015625 23.390625 
Q 45.015625 31 40.078125 35.4375 
Q 35.15625 39.890625 26.703125 39.890625 
Q 22.75 39.890625 18.8125 39.015625 
Q 14.890625 38.140625 10.796875 36.28125 
z
" id="DejaVuSans-35"/>
     <path d="M 40.578125 39.3125 
Q 47.65625 37.796875 51.625 33 
Q 55.609375 28.21875 55.609375 21.1875 
Q 55.609375 10.40625 48.1875 4.484375 
Q 40.765625 -1.421875 27.09375 -1.421875 
Q 22.515625 -1.421875 17.65625 -0.515625 
Q 12.796875 0.390625 7.625 2.203125 
L 7.625 11.71875 
Q 11.71875 9.328125 16.59375 8.109375 
Q 21.484375 6.890625 26.8125 6.890625 
Q 36.078125 6.890625 40.9375 10.546875 
Q 45.796875 14.203125 45.796875 21.1875 
Q 45.796875 27.640625 41.28125 31.265625 
Q 36.765625 34.90625 28.71875 34.90625 
L 20.21875 34.90625 
L 20.21875 43.015625 
L 29.109375 43.015625 
Q 36.375 43.015625 40.234375 45.921875 
Q 44.09375 48.828125 44.09375 54.296875 
Q 44.09375 59.90625 40.109375 62.90625 
Q 36.140625 65.921875 28.71875 65.921875 
Q 24.65625 65.921875 20.015625 65.03125 
Q 15.375 64.15625 9.8125 62.3125 
L 9.8125 71.09375 
Q 15.4375 72.65625 20.34375 73.4375 
Q 25.25 74.21875 29.59375 74.21875 
Q 40.828125 74.21875 47.359375 69.109375 
Q 53.90625 64.015625 53.90625 55.328125 
Q 53.90625 49.265625 50.4375 45.09375 
Q 46.96875 40.921875 40.578125 39.3125 
z
" id="DejaVuSans-33"/>
     <path d="M 28.609375 0 
L 0.78125 72.90625 
L 11.078125 72.90625 
L 34.1875 11.53125 
L 57.328125 72.90625 
L 67.578125 72.90625 
L 39.796875 0 
z
" id="DejaVuSans-56"/>
     <path d="M 34.1875 63.1875 
L 14.15625 8.203125 
L 54.25 8.203125 
z
M 0.78125 0 
L 28.609375 72.90625 
L 39.796875 72.90625 
L 67.578125 0 
z
" id="DejaVuSans-394"/>
     <path d="M 9.8125 72.90625 
L 55.90625 72.90625 
L 55.90625 64.59375 
L 19.671875 64.59375 
L 19.671875 43.015625 
L 54.390625 43.015625 
L 54.390625 34.71875 
L 19.671875 34.71875 
L 19.671875 8.296875 
L 56.78125 8.296875 
L 56.78125 0 
L 9.8125 0 
z
" id="DejaVuSans-45"/>
    </defs>
    <g transform="translate(63.228 35.472)scale(0.12 -0.12)">
     <use transform="translate(0 0.78125)" xlink:href="#DejaVuSans-53"/>
     <use transform="translate(63.476562 0.78125)" xlink:href="#DejaVuSans-74"/>
     <use transform="translate(102.685547 0.78125)" xlink:href="#DejaVuSans-72"/>
     <use transform="translate(143.798828 0.78125)" xlink:href="#DejaVuSans-75"/>
     <use transform="translate(207.177734 0.78125)" xlink:href="#DejaVuSans-63"/>
     <use transform="translate(262.158203 0.78125)" xlink:href="#DejaVuSans-74"/>
     <use transform="translate(301.367188 0.78125)" xlink:href="#DejaVuSans-75"/>
     <use transform="translate(364.746094 0.78125)" xlink:href="#DejaVuSans-72"/>
     <use transform="translate(405.859375 0.78125)" xlink:href="#DejaVuSans-65"/>
     <use transform="translate(467.382812 0.78125)" xlink:href="#DejaVuSans-20"/>
     <use transform="translate(499.169922 0.78125)" xlink:href="#DejaVuSans-23"/>
     <use transform="translate(582.958984 0.78125)" xlink:href="#DejaVuSans-32"/>
     <use transform="translate(646.582031 0.78125)" xlink:href="#DejaVuSans-30"/>
     <use transform="translate(710.205078 0.78125)" xlink:href="#DejaVuSans-37"/>
     <use transform="translate(773.828125 0.78125)" xlink:href="#DejaVuSans-38"/>
     <use transform="translate(837.451172 0.78125)" xlink:href="#DejaVuSans-2c"/>
     <use transform="translate(869.238281 0.78125)" xlink:href="#DejaVuSans-20"/>
     <use transform="translate(901.025391 0.78125)" xlink:href="#DejaVuSans-Oblique-45"/>
     <use transform="translate(964.208984 -15.625)scale(0.7)" xlink:href="#DejaVuSans-Oblique-4e"/>
     <use transform="translate(1019.306641 0.78125)" xlink:href="#DejaVuSans-3d"/>
     <use transform="translate(1103.095703 0.78125)" xlink:href="#DejaVuSans-2d"/>
     <use transform="translate(1139.179688 0.78125)" xlink:href="#DejaVuSans-31"/>
     <use transform="translate(1202.802734 0.78125)" xlink:href="#DejaVuSans-38"/>
     <use transform="translate(1266.425781 0.78125)" xlink:href="#DejaVuSans-31"/>
     <use transform="translate(1330.048828 0.78125)" xlink:href="#DejaVuSans-2e"/>
     <use transform="translate(1361.835938 0.78125)" xlink:href="#DejaVuSans-35"/>
     <use transform="translate(1425.458984 0.78125)" xlink:href="#DejaVuSans-33"/>
     <use transform="translate(1489.082031 0.78125)" xlink:href="#DejaVuSans-65"/>
     <use transform="translate(1550.605469 0.78125)" xlink:href="#DejaVuSans-56"/>
     <use transform="translate(1619.013672 0.78125)" xlink:href="#DejaVuSans-2c"/>
     <use transform="translate(1650.800781 0.78125)" xlink:href="#DejaVuSans-20"/>
     <use transform="translate(1682.587891 0.78125)" xlink:href="#DejaVuSans-394"/>
     <use transform="translate(1750.996094 0.78125)" xlink:href="#DejaVuSans-45"/>
     <use transform="translate(1814.179688 0.78125)" xlink:href="#DejaVuSans-3d"/>
     <use transform="translate(1897.96875 0.78125)" xlink:href="#DejaVuSans-2d"/>
     <use transform="translate(1934.052734 0.78125)" xlink:href="#DejaVuSans-30"/>
     <use transform="translate(1997.675781 0.78125)" xlink:href="#DejaVuSans-2e"/>
     <use transform="translate(2029.462891 0.78125)" xlink:href="#DejaVuSans-31"/>
     <use transform="translate(2093.085938 0.78125)" xlink:href="#DejaVuSans-33"/>
     <use transform="translate(2156.708984 0.78125)" xlink:href="#DejaVuSans-65"/>
     <use transform="translate(2218.232422 0.78125)" xlink:href="#DejaVuSans-56"/>
    </g>
   </g>
  </g>
  <g id="axes_2">
   <g id="patch_2">
    <path clip-path="url(#pd79006d0d1)" d="M 361.152 307.584 
L 361.152 306.5445 
L 361.152 42.5115 
L 361.152 41.472 
L 374.4576 41.472 
L 374.4576 42.5115 
L 374.4576 306.5445 
L 374.4576 307.584 
z
" style="fill:#ffffff;stroke:#ffffff;stroke-linejoin:miter;stroke-width:0.01;"/>
   </g>
   <image height="265.68" id="image896d566d37" transform="scale(1 -1)translate(0 -265.68)" width="12.96" x="361.44" xlink:href="data:image/png;base64,
iVBORw0KGgoAAAANSUhEUgAAABIAAAFxCAYAAAB+2fgXAAAABHNCSVQICAgIfAhkiAAAAeVJREFUeJztncmNw0AQA2ckheYQNv9QLIfQ8ygsCgQ7AEI8+jAs2Puz/94F1LP2ReCsZ18bAWIeZ5XaGRBE7VnbptG+KI101FYyNSiQG2oRITXKNaX9uclOdi2XWjftVE32CZCO2ou5Bj1TcCBr/1zB9ge7Fq0Rg2NM9pvbtG+ua1QgsRYhDy0ISEiNc40BEibbSI0Coj5CBGtkpFbXJiAjNZlrwhuSOv2M1DjXbEdEciBt1JSDDQKKpmZr2rr2j0DBGpXaWEJq3bQzEPIS26r9J+Wzv9Tm8o3aajRXqc3VUXsApKNWjeZq0x4ABVNbm7lrszVigDqP5vIl2+eaT2yfRkL7g+dRcNPqjohkjaCvRVBq0H2U3LQrOJCx9kdTg4B8oxZzzTdqdYHEngjUCAPyUctN9sVRq2sTECW2UKNLd2jVtRmo1A6AhMmWaSRcR8nUdIHUuVb75zJS218EyEitro1At69pIdeSk30Lkw0FktNImGyZRhy1O5galmxd03LUsHWk06jUZiCq+5Wb1kZNN4+wJxJuWt8RAW5am2sYNZ9rYCBzZ3buPKJ2P5Yj4Toy3keyIyJbIxs1rml1byCA84gpch5RQNB7Q0qNMGq2Hy4BXdNR41yz/cEEJfZzUz96r9PoB0okjeQ8y9TkAAAAAElFTkSuQmCC" y="-41.76"/>
   <g id="matplotlib.axis_1"/>
   <g id="matplotlib.axis_2">
    <g id="ytick_1">
     <g id="line2d_1">
      <defs>
       <path d="M 0 0 
L 3.5 0 
" id="md5205ecd6c" style="stroke:#000000;stroke-width:0.8;"/>
      </defs>
      <g>
       <use style="stroke:#000000;stroke-width:0.8;" x="374.4576" xlink:href="#md5205ecd6c" y="291.108266"/>
      </g>
     </g>
     <g id="text_2">
      <!-- −8.5 -->
      <defs>
       <path d="M 10.59375 35.5 
L 73.1875 35.5 
L 73.1875 27.203125 
L 10.59375 27.203125 
z
" id="DejaVuSans-2212"/>
      </defs>
      <g transform="translate(381.4576 294.907485)scale(0.1 -0.1)">
       <use xlink:href="#DejaVuSans-2212"/>
       <use x="83.789062" xlink:href="#DejaVuSans-38"/>
       <use x="147.412109" xlink:href="#DejaVuSans-2e"/>
       <use x="179.199219" xlink:href="#DejaVuSans-35"/>
      </g>
     </g>
    </g>
    <g id="ytick_2">
     <g id="line2d_2">
      <g>
       <use style="stroke:#000000;stroke-width:0.8;" x="374.4576" xlink:href="#md5205ecd6c" y="259.557162"/>
      </g>
     </g>
     <g id="text_3">
      <!-- −8.0 -->
      <g transform="translate(381.4576 263.356381)scale(0.1 -0.1)">
       <use xlink:href="#DejaVuSans-2212"/>
       <use x="83.789062" xlink:href="#DejaVuSans-38"/>
       <use x="147.412109" xlink:href="#DejaVuSans-2e"/>
       <use x="179.199219" xlink:href="#DejaVuSans-30"/>
      </g>
     </g>
    </g>
    <g id="ytick_3">
     <g id="line2d_3">
      <g>
       <use style="stroke:#000000;stroke-width:0.8;" x="374.4576" xlink:href="#md5205ecd6c" y="228.006058"/>
      </g>
     </g>
     <g id="text_4">
      <!-- −7.5 -->
      <g transform="translate(381.4576 231.805277)scale(0.1 -0.1)">
       <use xlink:href="#DejaVuSans-2212"/>
       <use x="83.789062" xlink:href="#DejaVuSans-37"/>
       <use x="147.412109" xlink:href="#DejaVuSans-2e"/>
       <use x="179.199219" xlink:href="#DejaVuSans-35"/>
      </g>
     </g>
    </g>
    <g id="ytick_4">
     <g id="line2d_4">
      <g>
       <use style="stroke:#000000;stroke-width:0.8;" x="374.4576" xlink:href="#md5205ecd6c" y="196.454954"/>
      </g>
     </g>
     <g id="text_5">
      <!-- −7.0 -->
      <g transform="translate(381.4576 200.254173)scale(0.1 -0.1)">
       <use xlink:href="#DejaVuSans-2212"/>
       <use x="83.789062" xlink:href="#DejaVuSans-37"/>
       <use x="147.412109" xlink:href="#DejaVuSans-2e"/>
       <use x="179.199219" xlink:href="#DejaVuSans-30"/>
      </g>
     </g>
    </g>
    <g id="ytick_5">
     <g id="line2d_5">
      <g>
       <use style="stroke:#000000;stroke-width:0.8;" x="374.4576" xlink:href="#md5205ecd6c" y="164.903851"/>
      </g>
     </g>
     <g id="text_6">
      <!-- −6.5 -->
      <defs>
       <path d="M 33.015625 40.375 
Q 26.375 40.375 22.484375 35.828125 
Q 18.609375 31.296875 18.609375 23.390625 
Q 18.609375 15.53125 22.484375 10.953125 
Q 26.375 6.390625 33.015625 6.390625 
Q 39.65625 6.390625 43.53125 10.953125 
Q 47.40625 15.53125 47.40625 23.390625 
Q 47.40625 31.296875 43.53125 35.828125 
Q 39.65625 40.375 33.015625 40.375 
z
M 52.59375 71.296875 
L 52.59375 62.3125 
Q 48.875 64.0625 45.09375 64.984375 
Q 41.3125 65.921875 37.59375 65.921875 
Q 27.828125 65.921875 22.671875 59.328125 
Q 17.53125 52.734375 16.796875 39.40625 
Q 19.671875 43.65625 24.015625 45.921875 
Q 28.375 48.1875 33.59375 48.1875 
Q 44.578125 48.1875 50.953125 41.515625 
Q 57.328125 34.859375 57.328125 23.390625 
Q 57.328125 12.15625 50.6875 5.359375 
Q 44.046875 -1.421875 33.015625 -1.421875 
Q 20.359375 -1.421875 13.671875 8.265625 
Q 6.984375 17.96875 6.984375 36.375 
Q 6.984375 53.65625 15.1875 63.9375 
Q 23.390625 74.21875 37.203125 74.21875 
Q 40.921875 74.21875 44.703125 73.484375 
Q 48.484375 72.75 52.59375 71.296875 
z
" id="DejaVuSans-36"/>
      </defs>
      <g transform="translate(381.4576 168.703069)scale(0.1 -0.1)">
       <use xlink:href="#DejaVuSans-2212"/>
       <use x="83.789062" xlink:href="#DejaVuSans-36"/>
       <use x="147.412109" xlink:href="#DejaVuSans-2e"/>
       <use x="179.199219" xlink:href="#DejaVuSans-35"/>
      </g>
     </g>
    </g>
    <g id="ytick_6">
     <g id="line2d_6">
      <g>
       <use style="stroke:#000000;stroke-width:0.8;" x="374.4576" xlink:href="#md5205ecd6c" y="133.352747"/>
      </g>
     </g>
     <g id="text_7">
      <!-- −6.0 -->
      <g transform="translate(381.4576 137.151965)scale(0.1 -0.1)">
       <use xlink:href="#DejaVuSans-2212"/>
       <use x="83.789062" xlink:href="#DejaVuSans-36"/>
       <use x="147.412109" xlink:href="#DejaVuSans-2e"/>
       <use x="179.199219" xlink:href="#DejaVuSans-30"/>
      </g>
     </g>
    </g>
    <g id="ytick_7">
     <g id="line2d_7">
      <g>
       <use style="stroke:#000000;stroke-width:0.8;" x="374.4576" xlink:href="#md5205ecd6c" y="101.801643"/>
      </g>
     </g>
     <g id="text_8">
      <!-- −5.5 -->
      <g transform="translate(381.4576 105.600862)scale(0.1 -0.1)">
       <use xlink:href="#DejaVuSans-2212"/>
       <use x="83.789062" xlink:href="#DejaVuSans-35"/>
       <use x="147.412109" xlink:href="#DejaVuSans-2e"/>
       <use x="179.199219" xlink:href="#DejaVuSans-35"/>
      </g>
     </g>
    </g>
    <g id="ytick_8">
     <g id="line2d_8">
      <g>
       <use style="stroke:#000000;stroke-width:0.8;" x="374.4576" xlink:href="#md5205ecd6c" y="70.250539"/>
      </g>
     </g>
     <g id="text_9">
      <!-- −5.0 -->
      <g transform="translate(381.4576 74.049758)scale(0.1 -0.1)">
       <use xlink:href="#DejaVuSans-2212"/>
       <use x="83.789062" xlink:href="#DejaVuSans-35"/>
       <use x="147.412109" xlink:href="#DejaVuSans-2e"/>
       <use x="179.199219" xlink:href="#DejaVuSans-30"/>
      </g>
     </g>
    </g>
    <g id="text_10">
     <!-- Energy [eV] -->
     <defs>
      <path d="M 54.890625 33.015625 
L 54.890625 0 
L 45.90625 0 
L 45.90625 32.71875 
Q 45.90625 40.484375 42.875 44.328125 
Q 39.84375 48.1875 33.796875 48.1875 
Q 26.515625 48.1875 22.3125 43.546875 
Q 18.109375 38.921875 18.109375 30.90625 
L 18.109375 0 
L 9.078125 0 
L 9.078125 54.6875 
L 18.109375 54.6875 
L 18.109375 46.1875 
Q 21.34375 51.125 25.703125 53.5625 
Q 30.078125 56 35.796875 56 
Q 45.21875 56 50.046875 50.171875 
Q 54.890625 44.34375 54.890625 33.015625 
z
" id="DejaVuSans-6e"/>
      <path d="M 45.40625 27.984375 
Q 45.40625 37.75 41.375 43.109375 
Q 37.359375 48.484375 30.078125 48.484375 
Q 22.859375 48.484375 18.828125 43.109375 
Q 14.796875 37.75 14.796875 27.984375 
Q 14.796875 18.265625 18.828125 12.890625 
Q 22.859375 7.515625 30.078125 7.515625 
Q 37.359375 7.515625 41.375 12.890625 
Q 45.40625 18.265625 45.40625 27.984375 
z
M 54.390625 6.78125 
Q 54.390625 -7.171875 48.1875 -13.984375 
Q 42 -20.796875 29.203125 -20.796875 
Q 24.46875 -20.796875 20.265625 -20.09375 
Q 16.0625 -19.390625 12.109375 -17.921875 
L 12.109375 -9.1875 
Q 16.0625 -11.328125 19.921875 -12.34375 
Q 23.78125 -13.375 27.78125 -13.375 
Q 36.625 -13.375 41.015625 -8.765625 
Q 45.40625 -4.15625 45.40625 5.171875 
L 45.40625 9.625 
Q 42.625 4.78125 38.28125 2.390625 
Q 33.9375 0 27.875 0 
Q 17.828125 0 11.671875 7.65625 
Q 5.515625 15.328125 5.515625 27.984375 
Q 5.515625 40.671875 11.671875 48.328125 
Q 17.828125 56 27.875 56 
Q 33.9375 56 38.28125 53.609375 
Q 42.625 51.21875 45.40625 46.390625 
L 45.40625 54.6875 
L 54.390625 54.6875 
z
" id="DejaVuSans-67"/>
      <path d="M 32.171875 -5.078125 
Q 28.375 -14.84375 24.75 -17.8125 
Q 21.140625 -20.796875 15.09375 -20.796875 
L 7.90625 -20.796875 
L 7.90625 -13.28125 
L 13.1875 -13.28125 
Q 16.890625 -13.28125 18.9375 -11.515625 
Q 21 -9.765625 23.484375 -3.21875 
L 25.09375 0.875 
L 2.984375 54.6875 
L 12.5 54.6875 
L 29.59375 11.921875 
L 46.6875 54.6875 
L 56.203125 54.6875 
z
" id="DejaVuSans-79"/>
      <path d="M 8.59375 75.984375 
L 29.296875 75.984375 
L 29.296875 69 
L 17.578125 69 
L 17.578125 -6.203125 
L 29.296875 -6.203125 
L 29.296875 -13.1875 
L 8.59375 -13.1875 
z
" id="DejaVuSans-5b"/>
      <path d="M 30.421875 75.984375 
L 30.421875 -13.1875 
L 9.71875 -13.1875 
L 9.71875 -6.203125 
L 21.390625 -6.203125 
L 21.390625 69 
L 9.71875 69 
L 9.71875 75.984375 
z
" id="DejaVuSans-5d"/>
     </defs>
     <g transform="translate(417.33885 204.108469)rotate(-90)scale(0.1 -0.1)">
      <use xlink:href="#DejaVuSans-45"/>
      <use x="63.183594" xlink:href="#DejaVuSans-6e"/>
      <use x="126.5625" xlink:href="#DejaVuSans-65"/>
      <use x="188.085938" xlink:href="#DejaVuSans-72"/>
      <use x="229.183594" xlink:href="#DejaVuSans-67"/>
      <use x="292.660156" xlink:href="#DejaVuSans-79"/>
      <use x="351.839844" xlink:href="#DejaVuSans-20"/>
      <use x="383.626953" xlink:href="#DejaVuSans-5b"/>
      <use x="422.640625" xlink:href="#DejaVuSans-65"/>
      <use x="484.164062" xlink:href="#DejaVuSans-56"/>
      <use x="552.572266" xlink:href="#DejaVuSans-5d"/>
     </g>
    </g>
   </g>
   <g id="patch_3">
    <path d="M 361.152 307.584 
L 361.152 306.5445 
L 361.152 42.5115 
L 361.152 41.472 
L 374.4576 41.472 
L 374.4576 42.5115 
L 374.4576 306.5445 
L 374.4576 307.584 
z
" style="fill:none;stroke:#000000;stroke-linejoin:miter;stroke-width:0.8;"/>
   </g>
  </g>
 </g>
 <defs>
  <clipPath id="pa5dac15e3b">
   <rect height="266.112" width="285.696" x="57.6" y="41.472"/>
  </clipPath>
  <clipPath id="pd79006d0d1">
   <rect height="266.112" width="13.3056" x="361.152" y="41.472"/>
  </clipPath>
 </defs>
</svg>
