<?xml version="1.0" encoding="utf-8" standalone="no"?>
<!DOCTYPE svg PUBLIC "-//W3C//DTD SVG 1.1//EN"
  "http://www.w3.org/Graphics/SVG/1.1/DTD/svg11.dtd">
<!-- Created with matplotlib (http://matplotlib.org/) -->
<svg height="345.6pt" version="1.1" viewBox="0 0 460.8 345.6" width="460.8pt" xmlns="http://www.w3.org/2000/svg" xmlns:xlink="http://www.w3.org/1999/xlink">
 <defs>
  <style type="text/css">
*{stroke-linecap:butt;stroke-linejoin:round;}
  </style>
 </defs>
 <g id="figure_1">
  <g id="patch_1">
   <path d="M 0 345.6 
L 460.8 345.6 
L 460.8 0 
L 0 0 
z
" style="fill:#ffffff;"/>
  </g>
  <g id="axes_1">
   <g id="CircleCollection_1">
    <path clip-path="url(#p186cf63bed)" d="M 83.819372 196.154117 
C 85.565543 196.154117 87.240431 195.460355 88.47516 194.225626 
C 89.70989 192.990896 90.403651 191.316008 90.403651 189.569837 
C 90.403651 187.823666 89.70989 186.148778 88.47516 184.914048 
C 87.240431 183.679319 85.565543 182.985558 83.819372 182.985558 
C 82.0732 182.985558 80.398313 183.679319 79.163583 184.914048 
C 77.928853 186.148778 77.235092 187.823666 77.235092 189.569837 
C 77.235092 191.316008 77.928853 192.990896 79.163583 194.225626 
C 80.398313 195.460355 82.0732 196.154117 83.819372 196.154117 
z
" style="fill:#21908d;"/>
    <path clip-path="url(#p186cf63bed)" d="M 209.27981 204.280739 
C 211.059886 204.280739 212.767294 203.573507 214.025998 202.314804 
C 215.284701 201.0561 215.991933 199.348692 215.991933 197.568616 
C 215.991933 195.78854 215.284701 194.081132 214.025998 192.822428 
C 212.767294 191.563724 211.059886 190.856493 209.27981 190.856493 
C 207.499734 190.856493 205.792326 191.563724 204.533622 192.822428 
C 203.274918 194.081132 202.567687 195.78854 202.567687 197.568616 
C 202.567687 199.348692 203.274918 201.0561 204.533622 202.314804 
C 205.792326 203.573507 207.499734 204.280739 209.27981 204.280739 
z
" style="fill:#2d708e;"/>
    <path clip-path="url(#p186cf63bed)" d="M 112.679017 194.981563 
C 114.44091 194.981563 116.130877 194.281555 117.376723 193.035709 
C 118.622569 191.789863 119.322577 190.099895 119.322577 188.338003 
C 119.322577 186.57611 118.622569 184.886143 117.376723 183.640297 
C 116.130877 182.39445 114.44091 181.694443 112.679017 181.694443 
C 110.917124 181.694443 109.227157 182.39445 107.981311 183.640297 
C 106.735465 184.886143 106.035457 186.57611 106.035457 188.338003 
C 106.035457 190.099895 106.735465 191.789863 107.981311 193.035709 
C 109.227157 194.281555 110.917124 194.981563 112.679017 194.981563 
z
" style="fill:#39558c;"/>
    <path clip-path="url(#p186cf63bed)" d="M 98.152324 81.453542 
C 99.898413 81.453542 101.573223 80.759813 102.807894 79.525141 
C 104.042566 78.290469 104.736295 76.61566 104.736295 74.869571 
C 104.736295 73.123481 104.042566 71.448672 102.807894 70.214 
C 101.573223 68.979329 99.898413 68.2856 98.152324 68.2856 
C 96.406234 68.2856 94.731425 68.979329 93.496754 70.214 
C 92.262082 71.448672 91.568353 73.123481 91.568353 74.869571 
C 91.568353 76.61566 92.262082 78.290469 93.496754 79.525141 
C 94.731425 80.759813 96.406234 81.453542 98.152324 81.453542 
z
" style="fill:#22a884;"/>
    <path clip-path="url(#p186cf63bed)" d="M 136.416805 226.742301 
C 138.188531 226.742301 139.887929 226.038387 141.140729 224.785587 
C 142.393528 223.532788 143.097442 221.83339 143.097442 220.061664 
C 143.097442 218.289939 142.393528 216.59054 141.140729 215.337741 
C 139.887929 214.084942 138.188531 213.381028 136.416805 213.381028 
C 134.64508 213.381028 132.945681 214.084942 131.692882 215.337741 
C 130.440083 216.59054 129.736169 218.289939 129.736169 220.061664 
C 129.736169 221.83339 130.440083 223.532788 131.692882 224.785587 
C 132.945681 226.038387 134.64508 226.742301 136.416805 226.742301 
z
" style="fill:#3d4e8a;"/>
    <path clip-path="url(#p186cf63bed)" d="M 277.559675 114.244251 
C 279.341871 114.244251 281.051313 113.536177 282.311517 112.275973 
C 283.57172 111.01577 284.279794 109.306328 284.279794 107.524132 
C 284.279794 105.741935 283.57172 104.032493 282.311517 102.77229 
C 281.051313 101.512087 279.341871 100.804012 277.559675 100.804012 
C 275.777478 100.804012 274.068036 101.512087 272.807833 102.77229 
C 271.54763 104.032493 270.839556 105.741935 270.839556 107.524132 
C 270.839556 109.306328 271.54763 111.01577 272.807833 112.275973 
C 274.068036 113.536177 275.777478 114.244251 277.559675 114.244251 
z
" style="fill:#33638d;"/>
    <path clip-path="url(#p186cf63bed)" d="M 70.859466 154.323853 
C 72.595039 154.323853 74.259761 153.634303 75.486996 152.407068 
C 76.714232 151.179832 77.403782 149.51511 77.403782 147.779537 
C 77.403782 146.043964 76.714232 144.379242 75.486996 143.152007 
C 74.259761 141.924772 72.595039 141.235221 70.859466 141.235221 
C 69.123893 141.235221 67.459171 141.924772 66.231936 143.152007 
C 65.0047 144.379242 64.31515 146.043964 64.31515 147.779537 
C 64.31515 149.51511 65.0047 151.179832 66.231936 152.407068 
C 67.459171 153.634303 69.123893 154.323853 70.859466 154.323853 
z
" style="fill:#21918c;"/>
    <path clip-path="url(#p186cf63bed)" d="M 183.543088 175.331727 
C 185.324285 175.331727 187.032768 174.62405 188.292265 173.364554 
C 189.551761 172.105057 190.259438 170.396574 190.259438 168.615377 
C 190.259438 166.83418 189.551761 165.125697 188.292265 163.866201 
C 187.032768 162.606704 185.324285 161.899027 183.543088 161.899027 
C 181.761891 161.899027 180.053408 162.606704 178.793912 163.866201 
C 177.534415 165.125697 176.826738 166.83418 176.826738 168.615377 
C 176.826738 170.396574 177.534415 172.105057 178.793912 173.364554 
C 180.053408 174.62405 181.761891 175.331727 183.543088 175.331727 
z
" style="fill:#2d718e;"/>
    <path clip-path="url(#p186cf63bed)" d="M 223.456247 101.504252 
C 225.231742 101.504252 226.934756 100.798841 228.19022 99.543377 
C 229.445684 98.287913 230.151095 96.584899 230.151095 94.809404 
C 230.151095 93.03391 229.445684 91.330896 228.19022 90.075432 
C 226.934756 88.819968 225.231742 88.114557 223.456247 88.114557 
C 221.680753 88.114557 219.977739 88.819968 218.722275 90.075432 
C 217.466811 91.330896 216.7614 93.03391 216.7614 94.809404 
C 216.7614 96.584899 217.466811 98.287913 218.722275 99.543377 
C 219.977739 100.798841 221.680753 101.504252 223.456247 101.504252 
z
" style="fill:#440154;"/>
    <path clip-path="url(#p186cf63bed)" d="M 196.974522 290.970019 
C 198.745144 290.970019 200.443484 290.266544 201.695503 289.014525 
C 202.947522 287.762506 203.650998 286.064166 203.650998 284.293543 
C 203.650998 282.522921 202.947522 280.824581 201.695503 279.572562 
C 200.443484 278.320543 198.745144 277.617068 196.974522 277.617068 
C 195.2039 277.617068 193.505559 278.320543 192.253541 279.572562 
C 191.001522 280.824581 190.298046 282.522921 190.298046 284.293543 
C 190.298046 286.064166 191.001522 287.762506 192.253541 289.014525 
C 193.505559 290.266544 195.2039 290.970019 196.974522 290.970019 
z
" style="fill:#25858e;"/>
    <path clip-path="url(#p186cf63bed)" d="M 304.459017 126.266301 
C 306.24632 126.266301 307.96066 125.556198 309.224474 124.292384 
C 310.488288 123.02857 311.198391 121.31423 311.198391 119.526927 
C 311.198391 117.739624 310.488288 116.025283 309.224474 114.761469 
C 307.96066 113.497655 306.24632 112.787552 304.459017 112.787552 
C 302.671714 112.787552 300.957374 113.497655 299.69356 114.761469 
C 298.429745 116.025283 297.719642 117.739624 297.719642 119.526927 
C 297.719642 121.31423 298.429745 123.02857 299.69356 124.292384 
C 300.957374 125.556198 302.671714 126.266301 304.459017 126.266301 
z
" style="fill:#29798e;"/>
    <path clip-path="url(#p186cf63bed)" d="M 203.968119 61.660802 
C 205.737266 61.660802 207.434193 60.957912 208.685169 59.706935 
C 209.936146 58.455959 210.639035 56.759033 210.639035 54.989885 
C 210.639035 53.220737 209.936146 51.523811 208.685169 50.272834 
C 207.434193 49.021858 205.737266 48.318968 203.968119 48.318968 
C 202.198971 48.318968 200.502045 49.021858 199.251068 50.272834 
C 198.000092 51.523811 197.297202 53.220737 197.297202 54.989885 
C 197.297202 56.759033 198.000092 58.455959 199.251068 59.706935 
C 200.502045 60.957912 202.198971 61.660802 203.968119 61.660802 
z
" style="fill:#22a785;"/>
    <path clip-path="url(#p186cf63bed)" d="M 330.027396 142.342523 
C 331.821004 142.342523 333.541392 141.629915 334.809664 140.361642 
C 336.077936 139.09337 336.790544 137.372982 336.790544 135.579374 
C 336.790544 133.785766 336.077936 132.065378 334.809664 130.797106 
C 333.541392 129.528833 331.821004 128.816225 330.027396 128.816225 
C 328.233788 128.816225 326.5134 129.528833 325.245127 130.797106 
C 323.976855 132.065378 323.264247 133.785766 323.264247 135.579374 
C 323.264247 137.372982 323.976855 139.09337 325.245127 140.361642 
C 326.5134 141.629915 328.233788 142.342523 330.027396 142.342523 
z
" style="fill:#fde725;"/>
    <path clip-path="url(#p186cf63bed)" d="M 252.378049 100.701956 
C 254.15583 100.701956 255.861037 99.995636 257.118118 98.738555 
C 258.375199 97.481475 259.081518 95.776268 259.081518 93.998487 
C 259.081518 92.220706 258.375199 90.515499 257.118118 89.258418 
C 255.861037 88.001337 254.15583 87.295017 252.378049 87.295017 
C 250.600268 87.295017 248.895061 88.001337 247.63798 89.258418 
C 246.380899 90.515499 245.67458 92.220706 245.67458 93.998487 
C 245.67458 95.776268 246.380899 97.481475 247.63798 98.738555 
C 248.895061 99.995636 250.600268 100.701956 252.378049 100.701956 
z
" style="fill:#228b8d;"/>
    <path clip-path="url(#p186cf63bed)" d="M 126.852639 93.05853 
C 128.612381 93.05853 130.300285 92.359377 131.54461 91.115052 
C 132.788935 89.870727 133.488087 88.182823 133.488087 86.423082 
C 133.488087 84.66334 132.788935 82.975436 131.54461 81.731111 
C 130.300285 80.486786 128.612381 79.787634 126.852639 79.787634 
C 125.092898 79.787634 123.404994 80.486786 122.160669 81.731111 
C 120.916344 82.975436 120.217191 84.66334 120.217191 86.423082 
C 120.217191 88.182823 120.916344 89.870727 122.160669 91.115052 
C 123.404994 92.359377 125.092898 93.05853 126.852639 93.05853 
z
" style="fill:#46085c;"/>
    <path clip-path="url(#p186cf63bed)" d="M 176.860549 60.914297 
C 178.627123 60.914297 180.32158 60.212429 181.570737 58.963273 
C 182.819893 57.714116 183.52176 56.019659 183.52176 54.253085 
C 183.52176 52.486511 182.819893 50.792053 181.570737 49.542897 
C 180.32158 48.29374 178.627123 47.591873 176.860549 47.591873 
C 175.093974 47.591873 173.399517 48.29374 172.15036 49.542897 
C 170.901204 50.792053 170.199337 52.486511 170.199337 54.253085 
C 170.199337 56.019659 170.901204 57.714116 172.15036 58.963273 
C 173.399517 60.212429 175.093974 60.914297 176.860549 60.914297 
z
" style="fill:#33628d;"/>
    <path clip-path="url(#p186cf63bed)" d="M 169.583413 301.4748 
C 171.353142 301.4748 173.050625 300.771679 174.302013 299.520292 
C 175.5534 298.268904 176.256521 296.571421 176.256521 294.801692 
C 176.256521 293.031963 175.5534 291.334479 174.302013 290.083092 
C 173.050625 288.831705 171.353142 288.128584 169.583413 288.128584 
C 167.813684 288.128584 166.1162 288.831705 164.864813 290.083092 
C 163.613425 291.334479 162.910305 293.031963 162.910305 294.801692 
C 162.910305 296.571421 163.613425 298.268904 164.864813 299.520292 
C 166.1162 300.771679 167.813684 301.4748 169.583413 301.4748 
z
" style="fill:#287c8e;"/>
    <path clip-path="url(#p186cf63bed)" d="M 154.85021 179.56402 
C 156.628616 179.56402 158.334423 178.857452 159.591945 177.599929 
C 160.849468 176.342406 161.556036 174.6366 161.556036 172.858194 
C 161.556036 171.079788 160.849468 169.373981 159.591945 168.116459 
C 158.334423 166.858936 156.628616 166.152367 154.85021 166.152367 
C 153.071804 166.152367 151.365998 166.858936 150.108475 168.116459 
C 148.850952 169.373981 148.144384 171.079788 148.144384 172.858194 
C 148.144384 174.6366 148.850952 176.342406 150.108475 177.599929 
C 151.365998 178.857452 153.071804 179.56402 154.85021 179.56402 
z
" style="fill:#3d4e8a;"/>
    <path clip-path="url(#p186cf63bed)" d="M 75.033591 103.325191 
C 76.769412 103.325191 78.434372 102.635542 79.661782 101.408131 
C 80.889193 100.18072 81.578842 98.51576 81.578842 96.77994 
C 81.578842 95.044119 80.889193 93.379159 79.661782 92.151748 
C 78.434372 90.924338 76.769412 90.234689 75.033591 90.234689 
C 73.29777 90.234689 71.63281 90.924338 70.405399 92.151748 
C 69.177989 93.379159 68.48834 95.044119 68.48834 96.77994 
C 68.48834 98.51576 69.177989 100.18072 70.405399 101.408131 
C 71.63281 102.635542 73.29777 103.325191 75.033591 103.325191 
z
" style="fill:#287c8e;"/>
    <path clip-path="url(#p186cf63bed)" d="M 150.105831 61.918865 
C 151.867808 61.918865 153.557855 61.218825 154.803761 59.972919 
C 156.049666 58.727014 156.749707 57.036966 156.749707 55.27499 
C 156.749707 53.513014 156.049666 51.822966 154.803761 50.577061 
C 153.557855 49.331155 151.867808 48.631115 150.105831 48.631115 
C 148.343855 48.631115 146.653807 49.331155 145.407902 50.577061 
C 144.161997 51.822966 143.461956 53.513014 143.461956 55.27499 
C 143.461956 57.036966 144.161997 58.727014 145.407902 59.972919 
C 146.653807 61.218825 148.343855 61.918865 150.105831 61.918865 
z
" style="fill:#1e9b8a;"/>
    <path clip-path="url(#p186cf63bed)" d="M 215.301374 256.112983 
C 217.076848 256.112983 218.779843 255.40758 220.035293 254.15213 
C 221.290743 252.89668 221.996147 251.193685 221.996147 249.41821 
C 221.996147 247.642736 221.290743 245.939741 220.035293 244.684291 
C 218.779843 243.428841 217.076848 242.723438 215.301374 242.723438 
C 213.525899 242.723438 211.822905 243.428841 210.567454 244.684291 
C 209.312004 245.939741 208.606601 247.642736 208.606601 249.41821 
C 208.606601 251.193685 209.312004 252.89668 210.567454 254.15213 
C 211.822905 255.40758 213.525899 256.112983 215.301374 256.112983 
z
" style="fill:#24868e;"/>
    <path clip-path="url(#p186cf63bed)" d="M 147.397393 275.290832 
C 149.166263 275.290832 150.862922 274.588053 152.113702 273.337273 
C 153.364482 272.086493 154.067261 270.389834 154.067261 268.620964 
C 154.067261 266.852095 153.364482 265.155436 152.113702 263.904656 
C 150.862922 262.653876 149.166263 261.951097 147.397393 261.951097 
C 145.628524 261.951097 143.931864 262.653876 142.681085 263.904656 
C 141.430305 265.155436 140.727526 266.852095 140.727526 268.620964 
C 140.727526 270.389834 141.430305 272.086493 142.681085 273.337273 
C 143.931864 274.588053 145.628524 275.290832 147.397393 275.290832 
z
" style="fill:#228b8d;"/>
    <path clip-path="url(#p186cf63bed)" d="M 130.903228 147.659812 
C 132.671433 147.659812 134.367455 146.957297 135.617765 145.706987 
C 136.868076 144.456676 137.570591 142.760654 137.570591 140.992449 
C 137.570591 139.224243 136.868076 137.528221 135.617765 136.277911 
C 134.367455 135.027601 132.671433 134.325085 130.903228 134.325085 
C 129.135022 134.325085 127.439 135.027601 126.18869 136.277911 
C 124.93838 137.528221 124.235864 139.224243 124.235864 140.992449 
C 124.235864 142.760654 124.93838 144.456676 126.18869 145.706987 
C 127.439 146.957297 129.135022 147.659812 130.903228 147.659812 
z
" style="fill:#306a8e;"/>
    <path clip-path="url(#p186cf63bed)" d="M 210.018823 151.078688 
C 211.798921 151.078688 213.50635 150.371447 214.76507 149.112728 
C 216.023789 147.854009 216.731029 146.14658 216.731029 144.366482 
C 216.731029 142.586384 216.023789 140.878955 214.76507 139.620235 
C 213.50635 138.361516 211.798921 137.654276 210.018823 137.654276 
C 208.238725 137.654276 206.531296 138.361516 205.272577 139.620235 
C 204.013857 140.878955 203.306617 142.586384 203.306617 144.366482 
C 203.306617 146.14658 204.013857 147.854009 205.272577 149.112728 
C 206.531296 150.371447 208.238725 151.078688 210.018823 151.078688 
z
" style="fill:#2c738e;"/>
   </g>
   <g id="text_1">
    <!-- Structure #181, $E_N$=-179.88eV, ΔE=0.14eV -->
    <defs>
     <path d="M 53.515625 70.515625 
L 53.515625 60.890625 
Q 47.90625 63.578125 42.921875 64.890625 
Q 37.9375 66.21875 33.296875 66.21875 
Q 25.25 66.21875 20.875 63.09375 
Q 16.5 59.96875 16.5 54.203125 
Q 16.5 49.359375 19.40625 46.890625 
Q 22.3125 44.4375 30.421875 42.921875 
L 36.375 41.703125 
Q 47.40625 39.59375 52.65625 34.296875 
Q 57.90625 29 57.90625 20.125 
Q 57.90625 9.515625 50.796875 4.046875 
Q 43.703125 -1.421875 29.984375 -1.421875 
Q 24.8125 -1.421875 18.96875 -0.25 
Q 13.140625 0.921875 6.890625 3.21875 
L 6.890625 13.375 
Q 12.890625 10.015625 18.65625 8.296875 
Q 24.421875 6.59375 29.984375 6.59375 
Q 38.421875 6.59375 43.015625 9.90625 
Q 47.609375 13.234375 47.609375 19.390625 
Q 47.609375 24.75 44.3125 27.78125 
Q 41.015625 30.8125 33.5 32.328125 
L 27.484375 33.5 
Q 16.453125 35.6875 11.515625 40.375 
Q 6.59375 45.0625 6.59375 53.421875 
Q 6.59375 63.09375 13.40625 68.65625 
Q 20.21875 74.21875 32.171875 74.21875 
Q 37.3125 74.21875 42.625 73.28125 
Q 47.953125 72.359375 53.515625 70.515625 
z
" id="DejaVuSans-53"/>
     <path d="M 18.3125 70.21875 
L 18.3125 54.6875 
L 36.8125 54.6875 
L 36.8125 47.703125 
L 18.3125 47.703125 
L 18.3125 18.015625 
Q 18.3125 11.328125 20.140625 9.421875 
Q 21.96875 7.515625 27.59375 7.515625 
L 36.8125 7.515625 
L 36.8125 0 
L 27.59375 0 
Q 17.1875 0 13.234375 3.875 
Q 9.28125 7.765625 9.28125 18.015625 
L 9.28125 47.703125 
L 2.6875 47.703125 
L 2.6875 54.6875 
L 9.28125 54.6875 
L 9.28125 70.21875 
z
" id="DejaVuSans-74"/>
     <path d="M 41.109375 46.296875 
Q 39.59375 47.171875 37.8125 47.578125 
Q 36.03125 48 33.890625 48 
Q 26.265625 48 22.1875 43.046875 
Q 18.109375 38.09375 18.109375 28.8125 
L 18.109375 0 
L 9.078125 0 
L 9.078125 54.6875 
L 18.109375 54.6875 
L 18.109375 46.1875 
Q 20.953125 51.171875 25.484375 53.578125 
Q 30.03125 56 36.53125 56 
Q 37.453125 56 38.578125 55.875 
Q 39.703125 55.765625 41.0625 55.515625 
z
" id="DejaVuSans-72"/>
     <path d="M 8.5 21.578125 
L 8.5 54.6875 
L 17.484375 54.6875 
L 17.484375 21.921875 
Q 17.484375 14.15625 20.5 10.265625 
Q 23.53125 6.390625 29.59375 6.390625 
Q 36.859375 6.390625 41.078125 11.03125 
Q 45.3125 15.671875 45.3125 23.6875 
L 45.3125 54.6875 
L 54.296875 54.6875 
L 54.296875 0 
L 45.3125 0 
L 45.3125 8.40625 
Q 42.046875 3.421875 37.71875 1 
Q 33.40625 -1.421875 27.6875 -1.421875 
Q 18.265625 -1.421875 13.375 4.4375 
Q 8.5 10.296875 8.5 21.578125 
z
M 31.109375 56 
z
" id="DejaVuSans-75"/>
     <path d="M 48.78125 52.59375 
L 48.78125 44.1875 
Q 44.96875 46.296875 41.140625 47.34375 
Q 37.3125 48.390625 33.40625 48.390625 
Q 24.65625 48.390625 19.8125 42.84375 
Q 14.984375 37.3125 14.984375 27.296875 
Q 14.984375 17.28125 19.8125 11.734375 
Q 24.65625 6.203125 33.40625 6.203125 
Q 37.3125 6.203125 41.140625 7.25 
Q 44.96875 8.296875 48.78125 10.40625 
L 48.78125 2.09375 
Q 45.015625 0.34375 40.984375 -0.53125 
Q 36.96875 -1.421875 32.421875 -1.421875 
Q 20.0625 -1.421875 12.78125 6.34375 
Q 5.515625 14.109375 5.515625 27.296875 
Q 5.515625 40.671875 12.859375 48.328125 
Q 20.21875 56 33.015625 56 
Q 37.15625 56 41.109375 55.140625 
Q 45.0625 54.296875 48.78125 52.59375 
z
" id="DejaVuSans-63"/>
     <path d="M 56.203125 29.59375 
L 56.203125 25.203125 
L 14.890625 25.203125 
Q 15.484375 15.921875 20.484375 11.0625 
Q 25.484375 6.203125 34.421875 6.203125 
Q 39.59375 6.203125 44.453125 7.46875 
Q 49.3125 8.734375 54.109375 11.28125 
L 54.109375 2.78125 
Q 49.265625 0.734375 44.1875 -0.34375 
Q 39.109375 -1.421875 33.890625 -1.421875 
Q 20.796875 -1.421875 13.15625 6.1875 
Q 5.515625 13.8125 5.515625 26.8125 
Q 5.515625 40.234375 12.765625 48.109375 
Q 20.015625 56 32.328125 56 
Q 43.359375 56 49.78125 48.890625 
Q 56.203125 41.796875 56.203125 29.59375 
z
M 47.21875 32.234375 
Q 47.125 39.59375 43.09375 43.984375 
Q 39.0625 48.390625 32.421875 48.390625 
Q 24.90625 48.390625 20.390625 44.140625 
Q 15.875 39.890625 15.1875 32.171875 
z
" id="DejaVuSans-65"/>
     <path id="DejaVuSans-20"/>
     <path d="M 51.125 44 
L 36.921875 44 
L 32.8125 27.6875 
L 47.125 27.6875 
z
M 43.796875 71.78125 
L 38.71875 51.515625 
L 52.984375 51.515625 
L 58.109375 71.78125 
L 65.921875 71.78125 
L 60.890625 51.515625 
L 76.125 51.515625 
L 76.125 44 
L 58.984375 44 
L 54.984375 27.6875 
L 70.515625 27.6875 
L 70.515625 20.21875 
L 53.078125 20.21875 
L 48 0 
L 40.1875 0 
L 45.21875 20.21875 
L 30.90625 20.21875 
L 25.875 0 
L 18.015625 0 
L 23.09375 20.21875 
L 7.71875 20.21875 
L 7.71875 27.6875 
L 24.90625 27.6875 
L 29 44 
L 13.28125 44 
L 13.28125 51.515625 
L 30.90625 51.515625 
L 35.890625 71.78125 
z
" id="DejaVuSans-23"/>
     <path d="M 12.40625 8.296875 
L 28.515625 8.296875 
L 28.515625 63.921875 
L 10.984375 60.40625 
L 10.984375 69.390625 
L 28.421875 72.90625 
L 38.28125 72.90625 
L 38.28125 8.296875 
L 54.390625 8.296875 
L 54.390625 0 
L 12.40625 0 
z
" id="DejaVuSans-31"/>
     <path d="M 31.78125 34.625 
Q 24.75 34.625 20.71875 30.859375 
Q 16.703125 27.09375 16.703125 20.515625 
Q 16.703125 13.921875 20.71875 10.15625 
Q 24.75 6.390625 31.78125 6.390625 
Q 38.8125 6.390625 42.859375 10.171875 
Q 46.921875 13.96875 46.921875 20.515625 
Q 46.921875 27.09375 42.890625 30.859375 
Q 38.875 34.625 31.78125 34.625 
z
M 21.921875 38.8125 
Q 15.578125 40.375 12.03125 44.71875 
Q 8.5 49.078125 8.5 55.328125 
Q 8.5 64.0625 14.71875 69.140625 
Q 20.953125 74.21875 31.78125 74.21875 
Q 42.671875 74.21875 48.875 69.140625 
Q 55.078125 64.0625 55.078125 55.328125 
Q 55.078125 49.078125 51.53125 44.71875 
Q 48 40.375 41.703125 38.8125 
Q 48.828125 37.15625 52.796875 32.3125 
Q 56.78125 27.484375 56.78125 20.515625 
Q 56.78125 9.90625 50.3125 4.234375 
Q 43.84375 -1.421875 31.78125 -1.421875 
Q 19.734375 -1.421875 13.25 4.234375 
Q 6.78125 9.90625 6.78125 20.515625 
Q 6.78125 27.484375 10.78125 32.3125 
Q 14.796875 37.15625 21.921875 38.8125 
z
M 18.3125 54.390625 
Q 18.3125 48.734375 21.84375 45.5625 
Q 25.390625 42.390625 31.78125 42.390625 
Q 38.140625 42.390625 41.71875 45.5625 
Q 45.3125 48.734375 45.3125 54.390625 
Q 45.3125 60.0625 41.71875 63.234375 
Q 38.140625 66.40625 31.78125 66.40625 
Q 25.390625 66.40625 21.84375 63.234375 
Q 18.3125 60.0625 18.3125 54.390625 
z
" id="DejaVuSans-38"/>
     <path d="M 11.71875 12.40625 
L 22.015625 12.40625 
L 22.015625 4 
L 14.015625 -11.625 
L 7.71875 -11.625 
L 11.71875 4 
z
" id="DejaVuSans-2c"/>
     <path d="M 16.890625 72.90625 
L 62.984375 72.90625 
L 61.375 64.59375 
L 25.09375 64.59375 
L 20.90625 43.015625 
L 55.71875 43.015625 
L 54.109375 34.71875 
L 19.28125 34.71875 
L 14.203125 8.296875 
L 51.3125 8.296875 
L 49.703125 0 
L 2.6875 0 
z
" id="DejaVuSans-Oblique-45"/>
     <path d="M 16.890625 72.90625 
L 30.171875 72.90625 
L 50.296875 10.40625 
L 62.5 72.90625 
L 72.125 72.90625 
L 57.90625 0 
L 44.578125 0 
L 24.515625 62.890625 
L 12.3125 0 
L 2.6875 0 
z
" id="DejaVuSans-Oblique-4e"/>
     <path d="M 10.59375 45.40625 
L 73.1875 45.40625 
L 73.1875 37.203125 
L 10.59375 37.203125 
z
M 10.59375 25.484375 
L 73.1875 25.484375 
L 73.1875 17.1875 
L 10.59375 17.1875 
z
" id="DejaVuSans-3d"/>
     <path d="M 4.890625 31.390625 
L 31.203125 31.390625 
L 31.203125 23.390625 
L 4.890625 23.390625 
z
" id="DejaVuSans-2d"/>
     <path d="M 8.203125 72.90625 
L 55.078125 72.90625 
L 55.078125 68.703125 
L 28.609375 0 
L 18.3125 0 
L 43.21875 64.59375 
L 8.203125 64.59375 
z
" id="DejaVuSans-37"/>
     <path d="M 10.984375 1.515625 
L 10.984375 10.5 
Q 14.703125 8.734375 18.5 7.8125 
Q 22.3125 6.890625 25.984375 6.890625 
Q 35.75 6.890625 40.890625 13.453125 
Q 46.046875 20.015625 46.78125 33.40625 
Q 43.953125 29.203125 39.59375 26.953125 
Q 35.25 24.703125 29.984375 24.703125 
Q 19.046875 24.703125 12.671875 31.3125 
Q 6.296875 37.9375 6.296875 49.421875 
Q 6.296875 60.640625 12.9375 67.421875 
Q 19.578125 74.21875 30.609375 74.21875 
Q 43.265625 74.21875 49.921875 64.515625 
Q 56.59375 54.828125 56.59375 36.375 
Q 56.59375 19.140625 48.40625 8.859375 
Q 40.234375 -1.421875 26.421875 -1.421875 
Q 22.703125 -1.421875 18.890625 -0.6875 
Q 15.09375 0.046875 10.984375 1.515625 
z
M 30.609375 32.421875 
Q 37.25 32.421875 41.125 36.953125 
Q 45.015625 41.5 45.015625 49.421875 
Q 45.015625 57.28125 41.125 61.84375 
Q 37.25 66.40625 30.609375 66.40625 
Q 23.96875 66.40625 20.09375 61.84375 
Q 16.21875 57.28125 16.21875 49.421875 
Q 16.21875 41.5 20.09375 36.953125 
Q 23.96875 32.421875 30.609375 32.421875 
z
" id="DejaVuSans-39"/>
     <path d="M 10.6875 12.40625 
L 21 12.40625 
L 21 0 
L 10.6875 0 
z
" id="DejaVuSans-2e"/>
     <path d="M 28.609375 0 
L 0.78125 72.90625 
L 11.078125 72.90625 
L 34.1875 11.53125 
L 57.328125 72.90625 
L 67.578125 72.90625 
L 39.796875 0 
z
" id="DejaVuSans-56"/>
     <path d="M 34.1875 63.1875 
L 14.15625 8.203125 
L 54.25 8.203125 
z
M 0.78125 0 
L 28.609375 72.90625 
L 39.796875 72.90625 
L 67.578125 0 
z
" id="DejaVuSans-394"/>
     <path d="M 9.8125 72.90625 
L 55.90625 72.90625 
L 55.90625 64.59375 
L 19.671875 64.59375 
L 19.671875 43.015625 
L 54.390625 43.015625 
L 54.390625 34.71875 
L 19.671875 34.71875 
L 19.671875 8.296875 
L 56.78125 8.296875 
L 56.78125 0 
L 9.8125 0 
z
" id="DejaVuSans-45"/>
     <path d="M 31.78125 66.40625 
Q 24.171875 66.40625 20.328125 58.90625 
Q 16.5 51.421875 16.5 36.375 
Q 16.5 21.390625 20.328125 13.890625 
Q 24.171875 6.390625 31.78125 6.390625 
Q 39.453125 6.390625 43.28125 13.890625 
Q 47.125 21.390625 47.125 36.375 
Q 47.125 51.421875 43.28125 58.90625 
Q 39.453125 66.40625 31.78125 66.40625 
z
M 31.78125 74.21875 
Q 44.046875 74.21875 50.515625 64.515625 
Q 56.984375 54.828125 56.984375 36.375 
Q 56.984375 17.96875 50.515625 8.265625 
Q 44.046875 -1.421875 31.78125 -1.421875 
Q 19.53125 -1.421875 13.0625 8.265625 
Q 6.59375 17.96875 6.59375 36.375 
Q 6.59375 54.828125 13.0625 64.515625 
Q 19.53125 74.21875 31.78125 74.21875 
z
" id="DejaVuSans-30"/>
     <path d="M 37.796875 64.3125 
L 12.890625 25.390625 
L 37.796875 25.390625 
z
M 35.203125 72.90625 
L 47.609375 72.90625 
L 47.609375 25.390625 
L 58.015625 25.390625 
L 58.015625 17.1875 
L 47.609375 17.1875 
L 47.609375 0 
L 37.796875 0 
L 37.796875 17.1875 
L 4.890625 17.1875 
L 4.890625 26.703125 
z
" id="DejaVuSans-34"/>
    </defs>
    <g transform="translate(69.228 35.472)scale(0.12 -0.12)">
     <use transform="translate(0 0.78125)" xlink:href="#DejaVuSans-53"/>
     <use transform="translate(63.476562 0.78125)" xlink:href="#DejaVuSans-74"/>
     <use transform="translate(102.685547 0.78125)" xlink:href="#DejaVuSans-72"/>
     <use transform="translate(143.798828 0.78125)" xlink:href="#DejaVuSans-75"/>
     <use transform="translate(207.177734 0.78125)" xlink:href="#DejaVuSans-63"/>
     <use transform="translate(262.158203 0.78125)" xlink:href="#DejaVuSans-74"/>
     <use transform="translate(301.367188 0.78125)" xlink:href="#DejaVuSans-75"/>
     <use transform="translate(364.746094 0.78125)" xlink:href="#DejaVuSans-72"/>
     <use transform="translate(405.859375 0.78125)" xlink:href="#DejaVuSans-65"/>
     <use transform="translate(467.382812 0.78125)" xlink:href="#DejaVuSans-20"/>
     <use transform="translate(499.169922 0.78125)" xlink:href="#DejaVuSans-23"/>
     <use transform="translate(582.958984 0.78125)" xlink:href="#DejaVuSans-31"/>
     <use transform="translate(646.582031 0.78125)" xlink:href="#DejaVuSans-38"/>
     <use transform="translate(710.205078 0.78125)" xlink:href="#DejaVuSans-31"/>
     <use transform="translate(773.828125 0.78125)" xlink:href="#DejaVuSans-2c"/>
     <use transform="translate(805.615234 0.78125)" xlink:href="#DejaVuSans-20"/>
     <use transform="translate(837.402344 0.78125)" xlink:href="#DejaVuSans-Oblique-45"/>
     <use transform="translate(900.585938 -15.625)scale(0.7)" xlink:href="#DejaVuSans-Oblique-4e"/>
     <use transform="translate(955.683594 0.78125)" xlink:href="#DejaVuSans-3d"/>
     <use transform="translate(1039.472656 0.78125)" xlink:href="#DejaVuSans-2d"/>
     <use transform="translate(1075.556641 0.78125)" xlink:href="#DejaVuSans-31"/>
     <use transform="translate(1139.179688 0.78125)" xlink:href="#DejaVuSans-37"/>
     <use transform="translate(1202.802734 0.78125)" xlink:href="#DejaVuSans-39"/>
     <use transform="translate(1266.425781 0.78125)" xlink:href="#DejaVuSans-2e"/>
     <use transform="translate(1298.181641 0.78125)" xlink:href="#DejaVuSans-38"/>
     <use transform="translate(1361.804688 0.78125)" xlink:href="#DejaVuSans-38"/>
     <use transform="translate(1425.427734 0.78125)" xlink:href="#DejaVuSans-65"/>
     <use transform="translate(1486.951172 0.78125)" xlink:href="#DejaVuSans-56"/>
     <use transform="translate(1555.359375 0.78125)" xlink:href="#DejaVuSans-2c"/>
     <use transform="translate(1587.146484 0.78125)" xlink:href="#DejaVuSans-20"/>
     <use transform="translate(1618.933594 0.78125)" xlink:href="#DejaVuSans-394"/>
     <use transform="translate(1687.341797 0.78125)" xlink:href="#DejaVuSans-45"/>
     <use transform="translate(1750.525391 0.78125)" xlink:href="#DejaVuSans-3d"/>
     <use transform="translate(1834.314453 0.78125)" xlink:href="#DejaVuSans-30"/>
     <use transform="translate(1897.9375 0.78125)" xlink:href="#DejaVuSans-2e"/>
     <use transform="translate(1929.724609 0.78125)" xlink:href="#DejaVuSans-31"/>
     <use transform="translate(1993.347656 0.78125)" xlink:href="#DejaVuSans-34"/>
     <use transform="translate(2056.970703 0.78125)" xlink:href="#DejaVuSans-65"/>
     <use transform="translate(2118.494141 0.78125)" xlink:href="#DejaVuSans-56"/>
    </g>
   </g>
  </g>
  <g id="axes_2">
   <g id="patch_2">
    <path clip-path="url(#p7483d22b79)" d="M 361.152 307.584 
L 361.152 306.5445 
L 361.152 42.5115 
L 361.152 41.472 
L 374.4576 41.472 
L 374.4576 42.5115 
L 374.4576 306.5445 
L 374.4576 307.584 
z
" style="fill:#ffffff;stroke:#ffffff;stroke-linejoin:miter;stroke-width:0.01;"/>
   </g>
   <image height="265.68" id="imagedeca71cbae" transform="scale(1 -1)translate(0 -265.68)" width="12.96" x="361.44" xlink:href="data:image/png;base64,
iVBORw0KGgoAAAANSUhEUgAAABIAAAFxCAYAAAB+2fgXAAAABHNCSVQICAgIfAhkiAAAAeVJREFUeJztncmNw0AQA2ckheYQNv9QLIfQ8ygsCgQ7AEI8+jAs2Puz/94F1LP2ReCsZ18bAWIeZ5XaGRBE7VnbptG+KI101FYyNSiQG2oRITXKNaX9uclOdi2XWjftVE32CZCO2ou5Bj1TcCBr/1zB9ge7Fq0Rg2NM9pvbtG+ua1QgsRYhDy0ISEiNc40BEibbSI0Coj5CBGtkpFbXJiAjNZlrwhuSOv2M1DjXbEdEciBt1JSDDQKKpmZr2rr2j0DBGpXaWEJq3bQzEPIS26r9J+Wzv9Tm8o3aajRXqc3VUXsApKNWjeZq0x4ABVNbm7lrszVigDqP5vIl2+eaT2yfRkL7g+dRcNPqjohkjaCvRVBq0H2U3LQrOJCx9kdTg4B8oxZzzTdqdYHEngjUCAPyUctN9sVRq2sTECW2UKNLd2jVtRmo1A6AhMmWaSRcR8nUdIHUuVb75zJS218EyEitro1At69pIdeSk30Lkw0FktNImGyZRhy1O5galmxd03LUsHWk06jUZiCq+5Wb1kZNN4+wJxJuWt8RAW5am2sYNZ9rYCBzZ3buPKJ2P5Yj4Toy3keyIyJbIxs1rml1byCA84gpch5RQNB7Q0qNMGq2Hy4BXdNR41yz/cEEJfZzUz96r9PoB0okjeQ8y9TkAAAAAElFTkSuQmCC" y="-41.76"/>
   <g id="matplotlib.axis_1"/>
   <g id="matplotlib.axis_2">
    <g id="ytick_1">
     <g id="line2d_1">
      <defs>
       <path d="M 0 0 
L 3.5 0 
" id="m0db015ac3e" style="stroke:#000000;stroke-width:0.8;"/>
      </defs>
      <g>
       <use style="stroke:#000000;stroke-width:0.8;" x="374.4576" xlink:href="#m0db015ac3e" y="298.818983"/>
      </g>
     </g>
     <g id="text_2">
      <!-- −9.0 -->
      <defs>
       <path d="M 10.59375 35.5 
L 73.1875 35.5 
L 73.1875 27.203125 
L 10.59375 27.203125 
z
" id="DejaVuSans-2212"/>
      </defs>
      <g transform="translate(381.4576 302.618201)scale(0.1 -0.1)">
       <use xlink:href="#DejaVuSans-2212"/>
       <use x="83.789062" xlink:href="#DejaVuSans-39"/>
       <use x="147.412109" xlink:href="#DejaVuSans-2e"/>
       <use x="179.199219" xlink:href="#DejaVuSans-30"/>
      </g>
     </g>
    </g>
    <g id="ytick_2">
     <g id="line2d_2">
      <g>
       <use style="stroke:#000000;stroke-width:0.8;" x="374.4576" xlink:href="#m0db015ac3e" y="266.026599"/>
      </g>
     </g>
     <g id="text_3">
      <!-- −8.5 -->
      <defs>
       <path d="M 10.796875 72.90625 
L 49.515625 72.90625 
L 49.515625 64.59375 
L 19.828125 64.59375 
L 19.828125 46.734375 
Q 21.96875 47.46875 24.109375 47.828125 
Q 26.265625 48.1875 28.421875 48.1875 
Q 40.625 48.1875 47.75 41.5 
Q 54.890625 34.8125 54.890625 23.390625 
Q 54.890625 11.625 47.5625 5.09375 
Q 40.234375 -1.421875 26.90625 -1.421875 
Q 22.3125 -1.421875 17.546875 -0.640625 
Q 12.796875 0.140625 7.71875 1.703125 
L 7.71875 11.625 
Q 12.109375 9.234375 16.796875 8.0625 
Q 21.484375 6.890625 26.703125 6.890625 
Q 35.15625 6.890625 40.078125 11.328125 
Q 45.015625 15.765625 45.015625 23.390625 
Q 45.015625 31 40.078125 35.4375 
Q 35.15625 39.890625 26.703125 39.890625 
Q 22.75 39.890625 18.8125 39.015625 
Q 14.890625 38.140625 10.796875 36.28125 
z
" id="DejaVuSans-35"/>
      </defs>
      <g transform="translate(381.4576 269.825818)scale(0.1 -0.1)">
       <use xlink:href="#DejaVuSans-2212"/>
       <use x="83.789062" xlink:href="#DejaVuSans-38"/>
       <use x="147.412109" xlink:href="#DejaVuSans-2e"/>
       <use x="179.199219" xlink:href="#DejaVuSans-35"/>
      </g>
     </g>
    </g>
    <g id="ytick_3">
     <g id="line2d_3">
      <g>
       <use style="stroke:#000000;stroke-width:0.8;" x="374.4576" xlink:href="#m0db015ac3e" y="233.234215"/>
      </g>
     </g>
     <g id="text_4">
      <!-- −8.0 -->
      <g transform="translate(381.4576 237.033434)scale(0.1 -0.1)">
       <use xlink:href="#DejaVuSans-2212"/>
       <use x="83.789062" xlink:href="#DejaVuSans-38"/>
       <use x="147.412109" xlink:href="#DejaVuSans-2e"/>
       <use x="179.199219" xlink:href="#DejaVuSans-30"/>
      </g>
     </g>
    </g>
    <g id="ytick_4">
     <g id="line2d_4">
      <g>
       <use style="stroke:#000000;stroke-width:0.8;" x="374.4576" xlink:href="#m0db015ac3e" y="200.441831"/>
      </g>
     </g>
     <g id="text_5">
      <!-- −7.5 -->
      <g transform="translate(381.4576 204.24105)scale(0.1 -0.1)">
       <use xlink:href="#DejaVuSans-2212"/>
       <use x="83.789062" xlink:href="#DejaVuSans-37"/>
       <use x="147.412109" xlink:href="#DejaVuSans-2e"/>
       <use x="179.199219" xlink:href="#DejaVuSans-35"/>
      </g>
     </g>
    </g>
    <g id="ytick_5">
     <g id="line2d_5">
      <g>
       <use style="stroke:#000000;stroke-width:0.8;" x="374.4576" xlink:href="#m0db015ac3e" y="167.649448"/>
      </g>
     </g>
     <g id="text_6">
      <!-- −7.0 -->
      <g transform="translate(381.4576 171.448667)scale(0.1 -0.1)">
       <use xlink:href="#DejaVuSans-2212"/>
       <use x="83.789062" xlink:href="#DejaVuSans-37"/>
       <use x="147.412109" xlink:href="#DejaVuSans-2e"/>
       <use x="179.199219" xlink:href="#DejaVuSans-30"/>
      </g>
     </g>
    </g>
    <g id="ytick_6">
     <g id="line2d_6">
      <g>
       <use style="stroke:#000000;stroke-width:0.8;" x="374.4576" xlink:href="#m0db015ac3e" y="134.857064"/>
      </g>
     </g>
     <g id="text_7">
      <!-- −6.5 -->
      <defs>
       <path d="M 33.015625 40.375 
Q 26.375 40.375 22.484375 35.828125 
Q 18.609375 31.296875 18.609375 23.390625 
Q 18.609375 15.53125 22.484375 10.953125 
Q 26.375 6.390625 33.015625 6.390625 
Q 39.65625 6.390625 43.53125 10.953125 
Q 47.40625 15.53125 47.40625 23.390625 
Q 47.40625 31.296875 43.53125 35.828125 
Q 39.65625 40.375 33.015625 40.375 
z
M 52.59375 71.296875 
L 52.59375 62.3125 
Q 48.875 64.0625 45.09375 64.984375 
Q 41.3125 65.921875 37.59375 65.921875 
Q 27.828125 65.921875 22.671875 59.328125 
Q 17.53125 52.734375 16.796875 39.40625 
Q 19.671875 43.65625 24.015625 45.921875 
Q 28.375 48.1875 33.59375 48.1875 
Q 44.578125 48.1875 50.953125 41.515625 
Q 57.328125 34.859375 57.328125 23.390625 
Q 57.328125 12.15625 50.6875 5.359375 
Q 44.046875 -1.421875 33.015625 -1.421875 
Q 20.359375 -1.421875 13.671875 8.265625 
Q 6.984375 17.96875 6.984375 36.375 
Q 6.984375 53.65625 15.1875 63.9375 
Q 23.390625 74.21875 37.203125 74.21875 
Q 40.921875 74.21875 44.703125 73.484375 
Q 48.484375 72.75 52.59375 71.296875 
z
" id="DejaVuSans-36"/>
      </defs>
      <g transform="translate(381.4576 138.656283)scale(0.1 -0.1)">
       <use xlink:href="#DejaVuSans-2212"/>
       <use x="83.789062" xlink:href="#DejaVuSans-36"/>
       <use x="147.412109" xlink:href="#DejaVuSans-2e"/>
       <use x="179.199219" xlink:href="#DejaVuSans-35"/>
      </g>
     </g>
    </g>
    <g id="ytick_7">
     <g id="line2d_7">
      <g>
       <use style="stroke:#000000;stroke-width:0.8;" x="374.4576" xlink:href="#m0db015ac3e" y="102.06468"/>
      </g>
     </g>
     <g id="text_8">
      <!-- −6.0 -->
      <g transform="translate(381.4576 105.863899)scale(0.1 -0.1)">
       <use xlink:href="#DejaVuSans-2212"/>
       <use x="83.789062" xlink:href="#DejaVuSans-36"/>
       <use x="147.412109" xlink:href="#DejaVuSans-2e"/>
       <use x="179.199219" xlink:href="#DejaVuSans-30"/>
      </g>
     </g>
    </g>
    <g id="ytick_8">
     <g id="line2d_8">
      <g>
       <use style="stroke:#000000;stroke-width:0.8;" x="374.4576" xlink:href="#m0db015ac3e" y="69.272297"/>
      </g>
     </g>
     <g id="text_9">
      <!-- −5.5 -->
      <g transform="translate(381.4576 73.071515)scale(0.1 -0.1)">
       <use xlink:href="#DejaVuSans-2212"/>
       <use x="83.789062" xlink:href="#DejaVuSans-35"/>
       <use x="147.412109" xlink:href="#DejaVuSans-2e"/>
       <use x="179.199219" xlink:href="#DejaVuSans-35"/>
      </g>
     </g>
    </g>
    <g id="text_10">
     <!-- Energy [eV] -->
     <defs>
      <path d="M 54.890625 33.015625 
L 54.890625 0 
L 45.90625 0 
L 45.90625 32.71875 
Q 45.90625 40.484375 42.875 44.328125 
Q 39.84375 48.1875 33.796875 48.1875 
Q 26.515625 48.1875 22.3125 43.546875 
Q 18.109375 38.921875 18.109375 30.90625 
L 18.109375 0 
L 9.078125 0 
L 9.078125 54.6875 
L 18.109375 54.6875 
L 18.109375 46.1875 
Q 21.34375 51.125 25.703125 53.5625 
Q 30.078125 56 35.796875 56 
Q 45.21875 56 50.046875 50.171875 
Q 54.890625 44.34375 54.890625 33.015625 
z
" id="DejaVuSans-6e"/>
      <path d="M 45.40625 27.984375 
Q 45.40625 37.75 41.375 43.109375 
Q 37.359375 48.484375 30.078125 48.484375 
Q 22.859375 48.484375 18.828125 43.109375 
Q 14.796875 37.75 14.796875 27.984375 
Q 14.796875 18.265625 18.828125 12.890625 
Q 22.859375 7.515625 30.078125 7.515625 
Q 37.359375 7.515625 41.375 12.890625 
Q 45.40625 18.265625 45.40625 27.984375 
z
M 54.390625 6.78125 
Q 54.390625 -7.171875 48.1875 -13.984375 
Q 42 -20.796875 29.203125 -20.796875 
Q 24.46875 -20.796875 20.265625 -20.09375 
Q 16.0625 -19.390625 12.109375 -17.921875 
L 12.109375 -9.1875 
Q 16.0625 -11.328125 19.921875 -12.34375 
Q 23.78125 -13.375 27.78125 -13.375 
Q 36.625 -13.375 41.015625 -8.765625 
Q 45.40625 -4.15625 45.40625 5.171875 
L 45.40625 9.625 
Q 42.625 4.78125 38.28125 2.390625 
Q 33.9375 0 27.875 0 
Q 17.828125 0 11.671875 7.65625 
Q 5.515625 15.328125 5.515625 27.984375 
Q 5.515625 40.671875 11.671875 48.328125 
Q 17.828125 56 27.875 56 
Q 33.9375 56 38.28125 53.609375 
Q 42.625 51.21875 45.40625 46.390625 
L 45.40625 54.6875 
L 54.390625 54.6875 
z
" id="DejaVuSans-67"/>
      <path d="M 32.171875 -5.078125 
Q 28.375 -14.84375 24.75 -17.8125 
Q 21.140625 -20.796875 15.09375 -20.796875 
L 7.90625 -20.796875 
L 7.90625 -13.28125 
L 13.1875 -13.28125 
Q 16.890625 -13.28125 18.9375 -11.515625 
Q 21 -9.765625 23.484375 -3.21875 
L 25.09375 0.875 
L 2.984375 54.6875 
L 12.5 54.6875 
L 29.59375 11.921875 
L 46.6875 54.6875 
L 56.203125 54.6875 
z
" id="DejaVuSans-79"/>
      <path d="M 8.59375 75.984375 
L 29.296875 75.984375 
L 29.296875 69 
L 17.578125 69 
L 17.578125 -6.203125 
L 29.296875 -6.203125 
L 29.296875 -13.1875 
L 8.59375 -13.1875 
z
" id="DejaVuSans-5b"/>
      <path d="M 30.421875 75.984375 
L 30.421875 -13.1875 
L 9.71875 -13.1875 
L 9.71875 -6.203125 
L 21.390625 -6.203125 
L 21.390625 69 
L 9.71875 69 
L 9.71875 75.984375 
z
" id="DejaVuSans-5d"/>
     </defs>
     <g transform="translate(417.33885 204.108469)rotate(-90)scale(0.1 -0.1)">
      <use xlink:href="#DejaVuSans-45"/>
      <use x="63.183594" xlink:href="#DejaVuSans-6e"/>
      <use x="126.5625" xlink:href="#DejaVuSans-65"/>
      <use x="188.085938" xlink:href="#DejaVuSans-72"/>
      <use x="229.183594" xlink:href="#DejaVuSans-67"/>
      <use x="292.660156" xlink:href="#DejaVuSans-79"/>
      <use x="351.839844" xlink:href="#DejaVuSans-20"/>
      <use x="383.626953" xlink:href="#DejaVuSans-5b"/>
      <use x="422.640625" xlink:href="#DejaVuSans-65"/>
      <use x="484.164062" xlink:href="#DejaVuSans-56"/>
      <use x="552.572266" xlink:href="#DejaVuSans-5d"/>
     </g>
    </g>
   </g>
   <g id="patch_3">
    <path d="M 361.152 307.584 
L 361.152 306.5445 
L 361.152 42.5115 
L 361.152 41.472 
L 374.4576 41.472 
L 374.4576 42.5115 
L 374.4576 306.5445 
L 374.4576 307.584 
z
" style="fill:none;stroke:#000000;stroke-linejoin:miter;stroke-width:0.8;"/>
   </g>
  </g>
 </g>
 <defs>
  <clipPath id="p186cf63bed">
   <rect height="266.112" width="285.696" x="57.6" y="41.472"/>
  </clipPath>
  <clipPath id="p7483d22b79">
   <rect height="266.112" width="13.3056" x="361.152" y="41.472"/>
  </clipPath>
 </defs>
</svg>
