<?xml version="1.0" encoding="utf-8" standalone="no"?>
<!DOCTYPE svg PUBLIC "-//W3C//DTD SVG 1.1//EN"
  "http://www.w3.org/Graphics/SVG/1.1/DTD/svg11.dtd">
<!-- Created with matplotlib (http://matplotlib.org/) -->
<svg height="345.6pt" version="1.1" viewBox="0 0 460.8 345.6" width="460.8pt" xmlns="http://www.w3.org/2000/svg" xmlns:xlink="http://www.w3.org/1999/xlink">
 <defs>
  <style type="text/css">
*{stroke-linecap:butt;stroke-linejoin:round;}
  </style>
 </defs>
 <g id="figure_1">
  <g id="patch_1">
   <path d="M 0 345.6 
L 460.8 345.6 
L 460.8 0 
L 0 0 
z
" style="fill:#ffffff;"/>
  </g>
  <g id="axes_1">
   <g id="CircleCollection_1">
    <path clip-path="url(#pca6787f88d)" d="M 165.461337 282.013227 
C 167.297143 282.013227 169.058005 281.283854 170.356116 279.985743 
C 171.654226 278.687633 172.383599 276.92677 172.383599 275.090965 
C 172.383599 273.25516 171.654226 271.494297 170.356116 270.196186 
C 169.058005 268.898076 167.297143 268.168703 165.461337 268.168703 
C 163.625532 268.168703 161.864669 268.898076 160.566559 270.196186 
C 159.268448 271.494297 158.539075 273.25516 158.539075 275.090965 
C 158.539075 276.92677 159.268448 278.687633 160.566559 279.985743 
C 161.864669 281.283854 163.625532 282.013227 165.461337 282.013227 
z
" style="fill:#440154;"/>
    <path clip-path="url(#pca6787f88d)" d="M 123.273244 283.081587 
C 125.168515 283.081587 126.986415 282.328588 128.326573 280.988429 
C 129.666731 279.648271 130.41973 277.830371 130.41973 275.935101 
C 130.41973 274.039831 129.666731 272.221931 128.326573 270.881772 
C 126.986415 269.541614 125.168515 268.788615 123.273244 268.788615 
C 121.377974 268.788615 119.560074 269.541614 118.219916 270.881772 
C 116.879757 272.221931 116.126759 274.039831 116.126759 275.935101 
C 116.126759 277.830371 116.879757 279.648271 118.219916 280.988429 
C 119.560074 282.328588 121.377974 283.081587 123.273244 283.081587 
z
" style="fill:#25ac82;"/>
    <path clip-path="url(#pca6787f88d)" d="M 298.371075 143.259798 
C 300.001535 143.259798 301.565436 142.612009 302.718345 141.4591 
C 303.871255 140.30619 304.519044 138.74229 304.519044 137.111829 
C 304.519044 135.481369 303.871255 133.917468 302.718345 132.764559 
C 301.565436 131.611649 300.001535 130.963861 298.371075 130.963861 
C 296.740615 130.963861 295.176714 131.611649 294.023805 132.764559 
C 292.870895 133.917468 292.223106 135.481369 292.223106 137.111829 
C 292.223106 138.74229 292.870895 140.30619 294.023805 141.4591 
C 295.176714 142.612009 296.740615 143.259798 298.371075 143.259798 
z
" style="fill:#93d741;"/>
    <path clip-path="url(#pca6787f88d)" d="M 201.971014 157.314512 
C 203.626789 157.314512 205.21497 156.656666 206.38578 155.485856 
C 207.556589 154.315047 208.214435 152.726866 208.214435 151.071091 
C 208.214435 149.415317 207.556589 147.827135 206.38578 146.656326 
C 205.21497 145.485516 203.626789 144.82767 201.971014 144.82767 
C 200.31524 144.82767 198.727058 145.485516 197.556249 146.656326 
C 196.38544 147.827135 195.727593 149.415317 195.727593 151.071091 
C 195.727593 152.726866 196.38544 154.315047 197.556249 155.485856 
C 198.727058 156.656666 200.31524 157.314512 201.971014 157.314512 
z
" style="fill:#46085c;"/>
    <path clip-path="url(#pca6787f88d)" d="M 310.338609 197.380805 
C 311.975752 197.380805 313.546062 196.730361 314.703697 195.572727 
C 315.861332 194.415092 316.511775 192.844782 316.511775 191.207639 
C 316.511775 189.570496 315.861332 188.000186 314.703697 186.842551 
C 313.546062 185.684916 311.975752 185.034473 310.338609 185.034473 
C 308.701466 185.034473 307.131156 185.684916 305.973521 186.842551 
C 304.815887 188.000186 304.165443 189.570496 304.165443 191.207639 
C 304.165443 192.844782 304.815887 194.415092 305.973521 195.572727 
C 307.131156 196.730361 308.701466 197.380805 310.338609 197.380805 
z
" style="fill:#46327e;"/>
    <path clip-path="url(#pca6787f88d)" d="M 71.193094 192.99723 
C 73.084894 192.99723 74.899464 192.245611 76.237168 190.907907 
C 77.574872 189.570203 78.326492 187.755632 78.326492 185.863833 
C 78.326492 183.972033 77.574872 182.157463 76.237168 180.819759 
C 74.899464 179.482055 73.084894 178.730435 71.193094 178.730435 
C 69.301295 178.730435 67.486724 179.482055 66.14902 180.819759 
C 64.811316 182.157463 64.059697 183.972033 64.059697 185.863833 
C 64.059697 187.755632 64.811316 189.570203 66.14902 190.907907 
C 67.486724 192.245611 69.301295 192.99723 71.193094 192.99723 
z
" style="fill:#24aa83;"/>
    <path clip-path="url(#pca6787f88d)" d="M 293.96218 268.423144 
C 295.70001 268.423144 297.366897 267.732697 298.595728 266.503865 
C 299.82456 265.275034 300.515007 263.608147 300.515007 261.870316 
C 300.515007 260.132486 299.82456 258.465599 298.595728 257.236768 
C 297.366897 256.007936 295.70001 255.317489 293.96218 255.317489 
C 292.224349 255.317489 290.557462 256.007936 289.328631 257.236768 
C 288.099799 258.465599 287.409352 260.132486 287.409352 261.870316 
C 287.409352 263.608147 288.099799 265.275034 289.328631 266.503865 
C 290.557462 267.732697 292.224349 268.423144 293.96218 268.423144 
z
" style="fill:#48186a;"/>
    <path clip-path="url(#pca6787f88d)" d="M 180.846212 60.712819 
C 182.557912 60.712819 184.199736 60.032753 185.410091 58.822398 
C 186.620446 57.612044 187.300511 55.97022 187.300511 54.25852 
C 187.300511 52.54682 186.620446 50.904996 185.410091 49.694641 
C 184.199736 48.484286 182.557912 47.804221 180.846212 47.804221 
C 179.134512 47.804221 177.492688 48.484286 176.282334 49.694641 
C 175.071979 50.904996 174.391913 52.54682 174.391913 54.25852 
C 174.391913 55.97022 175.071979 57.612044 176.282334 58.822398 
C 177.492688 60.032753 179.134512 60.712819 180.846212 60.712819 
z
" style="fill:#20a486;"/>
    <path clip-path="url(#pca6787f88d)" d="M 137.189641 191.767944 
C 138.961823 191.767944 140.66166 191.063848 141.914782 189.810726 
C 143.167904 188.557604 143.872 186.857768 143.872 185.085586 
C 143.872 183.313403 143.167904 181.613567 141.914782 180.360445 
C 140.66166 179.107323 138.961823 178.403227 137.189641 178.403227 
C 135.417459 178.403227 133.717622 179.107323 132.4645 180.360445 
C 131.211378 181.613567 130.507283 183.313403 130.507283 185.085586 
C 130.507283 186.857768 131.211378 188.557604 132.4645 189.810726 
C 133.717622 191.063848 135.417459 191.767944 137.189641 191.767944 
z
" style="fill:#3e4989;"/>
    <path clip-path="url(#pca6787f88d)" d="M 271.100086 292.501507 
C 272.912238 292.501507 274.650413 291.781531 275.931798 290.500146 
C 277.213182 289.218761 277.933158 287.480587 277.933158 285.668435 
C 277.933158 283.856283 277.213182 282.118109 275.931798 280.836724 
C 274.650413 279.555339 272.912238 278.835363 271.100086 278.835363 
C 269.287935 278.835363 267.54976 279.555339 266.268375 280.836724 
C 264.98699 282.118109 264.267015 283.856283 264.267015 285.668435 
C 264.267015 287.480587 264.98699 289.218761 266.268375 290.500146 
C 267.54976 291.781531 269.287935 292.501507 271.100086 292.501507 
z
" style="fill:#1e9b8a;"/>
    <path clip-path="url(#pca6787f88d)" d="M 224.360047 66.572446 
C 226.023686 66.572446 227.619411 65.911476 228.795781 64.735105 
C 229.972152 63.558735 230.633122 61.96301 230.633122 60.299371 
C 230.633122 58.635732 229.972152 57.040007 228.795781 55.863637 
C 227.619411 54.687266 226.023686 54.026295 224.360047 54.026295 
C 222.696408 54.026295 221.100683 54.687266 219.924313 55.863637 
C 218.747942 57.040007 218.086971 58.635732 218.086971 60.299371 
C 218.086971 61.96301 218.747942 63.558735 219.924313 64.735105 
C 221.100683 65.911476 222.696408 66.572446 224.360047 66.572446 
z
" style="fill:#24aa83;"/>
    <path clip-path="url(#pca6787f88d)" d="M 99.235627 163.496505 
C 101.066984 163.496505 102.823579 162.768899 104.118544 161.473934 
C 105.413508 160.17897 106.141114 158.422374 106.141114 156.591018 
C 106.141114 154.759662 105.413508 153.003066 104.118544 151.708102 
C 102.823579 150.413137 101.066984 149.685531 99.235627 149.685531 
C 97.404271 149.685531 95.647676 150.413137 94.352711 151.708102 
C 93.057746 153.003066 92.330141 154.759662 92.330141 156.591018 
C 92.330141 158.422374 93.057746 160.17897 94.352711 161.473934 
C 95.647676 162.768899 97.404271 163.496505 99.235627 163.496505 
z
" style="fill:#482374;"/>
    <path clip-path="url(#pca6787f88d)" d="M 143.686199 97.263251 
C 145.440034 97.263251 147.122272 96.566445 148.36242 95.326296 
C 149.602569 94.086148 150.299374 92.40391 150.299374 90.650075 
C 150.299374 88.896241 149.602569 87.214002 148.36242 85.973854 
C 147.122272 84.733706 145.440034 84.0369 143.686199 84.0369 
C 141.932364 84.0369 140.250126 84.733706 139.009978 85.973854 
C 137.769829 87.214002 137.073024 88.896241 137.073024 90.650075 
C 137.073024 92.40391 137.769829 94.086148 139.009978 95.326296 
C 140.250126 96.566445 141.932364 97.263251 143.686199 97.263251 
z
" style="fill:#482576;"/>
    <path clip-path="url(#pca6787f88d)" d="M 209.686019 209.324953 
C 211.31103 209.324953 212.869704 208.679329 214.018761 207.530273 
C 215.167817 206.381216 215.813441 204.822542 215.813441 203.197531 
C 215.813441 201.57252 215.167817 200.013846 214.018761 198.86479 
C 212.869704 197.715733 211.31103 197.070109 209.686019 197.070109 
C 208.061008 197.070109 206.502334 197.715733 205.353278 198.86479 
C 204.204221 200.013846 203.558597 201.57252 203.558597 203.197531 
C 203.558597 204.822542 204.204221 206.381216 205.353278 207.530273 
C 206.502334 208.679329 208.061008 209.324953 209.686019 209.324953 
z
" style="fill:#3b528b;"/>
    <path clip-path="url(#pca6787f88d)" d="M 329.758822 225.09781 
C 331.476325 225.09781 333.123715 224.415439 334.338173 223.200981 
C 335.552631 221.986523 336.235002 220.339133 336.235002 218.62163 
C 336.235002 216.904127 335.552631 215.256737 334.338173 214.042279 
C 333.123715 212.827821 331.476325 212.14545 329.758822 212.14545 
C 328.041319 212.14545 326.393929 212.827821 325.179471 214.042279 
C 323.965013 215.256737 323.282642 216.904127 323.282642 218.62163 
C 323.282642 220.339133 323.965013 221.986523 325.179471 223.200981 
C 326.393929 224.415439 328.041319 225.09781 329.758822 225.09781 
z
" style="fill:#fde725;"/>
    <path clip-path="url(#pca6787f88d)" d="M 264.494836 229.847371 
C 266.090244 229.847371 267.620523 229.213509 268.748647 228.085385 
C 269.876771 226.957262 270.510633 225.426983 270.510633 223.831575 
C 270.510633 222.236167 269.876771 220.705888 268.748647 219.577765 
C 267.620523 218.449641 266.090244 217.815779 264.494836 217.815779 
C 262.899429 217.815779 261.36915 218.449641 260.241026 219.577765 
C 259.112902 220.705888 258.47904 222.236167 258.47904 223.831575 
C 258.47904 225.426983 259.112902 226.957262 260.241026 228.085385 
C 261.36915 229.213509 262.899429 229.847371 264.494836 229.847371 
z
" style="fill:#228c8d;"/>
    <path clip-path="url(#pca6787f88d)" d="M 192.069996 252.962149 
C 193.754458 252.962149 195.370156 252.292905 196.561251 251.10181 
C 197.752346 249.910715 198.42159 248.295017 198.42159 246.610555 
C 198.42159 244.926092 197.752346 243.310394 196.561251 242.119299 
C 195.370156 240.928205 193.754458 240.258961 192.069996 240.258961 
C 190.385533 240.258961 188.769835 240.928205 187.578741 242.119299 
C 186.387646 243.310394 185.718402 244.926092 185.718402 246.610555 
C 185.718402 248.295017 186.387646 249.910715 187.578741 251.10181 
C 188.769835 252.292905 190.385533 252.962149 192.069996 252.962149 
z
" style="fill:#33628d;"/>
    <path clip-path="url(#pca6787f88d)" d="M 221.980453 301.67829 
C 223.818817 301.67829 225.582133 300.947901 226.882052 299.647982 
C 228.181971 298.348062 228.912361 296.584746 228.912361 294.746383 
C 228.912361 292.90802 228.181971 291.144703 226.882052 289.844784 
C 225.582133 288.544865 223.818817 287.814475 221.980453 287.814475 
C 220.14209 287.814475 218.378774 288.544865 217.078854 289.844784 
C 215.778935 291.144703 215.048546 292.90802 215.048546 294.746383 
C 215.048546 296.584746 215.778935 298.348062 217.078854 299.647982 
C 218.378774 300.947901 220.14209 301.67829 221.980453 301.67829 
z
" style="fill:#1fa088;"/>
    <path clip-path="url(#pca6787f88d)" d="M 101.412742 106.548767 
C 103.225309 106.548767 104.963882 105.828626 106.245561 104.546948 
C 107.527239 103.265269 108.247379 101.526696 108.247379 99.714129 
C 108.247379 97.901562 107.527239 96.162989 106.245561 94.881311 
C 104.963882 93.599633 103.225309 92.879492 101.412742 92.879492 
C 99.600175 92.879492 97.861602 93.599633 96.579924 94.881311 
C 95.298246 96.162989 94.578105 97.901562 94.578105 99.714129 
C 94.578105 101.526696 95.298246 103.265269 96.579924 104.546948 
C 97.861602 105.828626 99.600175 106.548767 101.412742 106.548767 
z
" style="fill:#dfe318;"/>
    <path clip-path="url(#pca6787f88d)" d="M 248.09187 116.871896 
C 249.730132 116.871896 251.301516 116.221008 252.459943 115.062581 
C 253.618369 113.904155 254.269258 112.332771 254.269258 110.694508 
C 254.269258 109.056246 253.618369 107.484862 252.459943 106.326435 
C 251.301516 105.168009 249.730132 104.51712 248.09187 104.51712 
C 246.453607 104.51712 244.882223 105.168009 243.723797 106.326435 
C 242.56537 107.484862 241.914482 109.056246 241.914482 110.694508 
C 241.914482 112.332771 242.56537 113.904155 243.723797 115.062581 
C 244.882223 116.221008 246.453607 116.871896 248.09187 116.871896 
z
" style="fill:#482677;"/>
    <path clip-path="url(#pca6787f88d)" d="M 159.353867 245.1845 
C 161.116089 245.1845 162.806372 244.484362 164.05245 243.238283 
C 165.298529 241.992204 165.998667 240.301921 165.998667 238.539699 
C 165.998667 236.777478 165.298529 235.087195 164.05245 233.841116 
C 162.806372 232.595037 161.116089 231.894899 159.353867 231.894899 
C 157.591645 231.894899 155.901362 232.595037 154.655283 233.841116 
C 153.409204 235.087195 152.709066 236.777478 152.709066 238.539699 
C 152.709066 240.301921 153.409204 241.992204 154.655283 243.238283 
C 155.901362 244.484362 157.591645 245.1845 159.353867 245.1845 
z
" style="fill:#453581;"/>
    <path clip-path="url(#pca6787f88d)" d="M 160.991702 150.173816 
C 162.712234 150.173816 164.362529 149.490241 165.579129 148.273641 
C 166.795729 147.057041 167.479304 145.406746 167.479304 143.686214 
C 167.479304 141.965681 166.795729 140.315386 165.579129 139.098786 
C 164.362529 137.882186 162.712234 137.198612 160.991702 137.198612 
C 159.27117 137.198612 157.620875 137.882186 156.404275 139.098786 
C 155.187675 140.315386 154.5041 141.965681 154.5041 143.686214 
C 154.5041 145.406746 155.187675 147.057041 156.404275 148.273641 
C 157.620875 149.490241 159.27117 150.173816 160.991702 150.173816 
z
" style="fill:#470e61;"/>
    <path clip-path="url(#pca6787f88d)" d="M 250.87737 268.555652 
C 252.546984 268.555652 254.148441 267.892308 255.329036 266.711712 
C 256.509632 265.531116 257.172977 263.92966 257.172977 262.260045 
C 257.172977 260.590431 256.509632 258.988974 255.329036 257.808379 
C 254.148441 256.627783 252.546984 255.964438 250.87737 255.964438 
C 249.207755 255.964438 247.606299 256.627783 246.425703 257.808379 
C 245.245107 258.988974 244.581763 260.590431 244.581763 262.260045 
C 244.581763 263.92966 245.245107 265.531116 246.425703 266.711712 
C 247.606299 267.892308 249.207755 268.555652 250.87737 268.555652 
z
" style="fill:#2f6c8e;"/>
    <path clip-path="url(#pca6787f88d)" d="M 90.087888 241.704385 
C 91.986648 241.704385 93.807896 240.949999 95.150522 239.607373 
C 96.493149 238.264747 97.247534 236.443499 97.247534 234.544738 
C 97.247534 232.645978 96.493149 230.82473 95.150522 229.482104 
C 93.807896 228.139477 91.986648 227.385092 90.087888 227.385092 
C 88.189127 227.385092 86.36788 228.139477 85.025253 229.482104 
C 83.682627 230.82473 82.928241 232.645978 82.928241 234.544738 
C 82.928241 236.443499 83.682627 238.264747 85.025253 239.607373 
C 86.36788 240.949999 88.189127 241.704385 90.087888 241.704385 
z
" style="fill:#27808e;"/>
   </g>
   <g id="text_1">
    <!-- Structure #756, $E_N$=-182.51eV, ΔE=0.08eV -->
    <defs>
     <path d="M 53.515625 70.515625 
L 53.515625 60.890625 
Q 47.90625 63.578125 42.921875 64.890625 
Q 37.9375 66.21875 33.296875 66.21875 
Q 25.25 66.21875 20.875 63.09375 
Q 16.5 59.96875 16.5 54.203125 
Q 16.5 49.359375 19.40625 46.890625 
Q 22.3125 44.4375 30.421875 42.921875 
L 36.375 41.703125 
Q 47.40625 39.59375 52.65625 34.296875 
Q 57.90625 29 57.90625 20.125 
Q 57.90625 9.515625 50.796875 4.046875 
Q 43.703125 -1.421875 29.984375 -1.421875 
Q 24.8125 -1.421875 18.96875 -0.25 
Q 13.140625 0.921875 6.890625 3.21875 
L 6.890625 13.375 
Q 12.890625 10.015625 18.65625 8.296875 
Q 24.421875 6.59375 29.984375 6.59375 
Q 38.421875 6.59375 43.015625 9.90625 
Q 47.609375 13.234375 47.609375 19.390625 
Q 47.609375 24.75 44.3125 27.78125 
Q 41.015625 30.8125 33.5 32.328125 
L 27.484375 33.5 
Q 16.453125 35.6875 11.515625 40.375 
Q 6.59375 45.0625 6.59375 53.421875 
Q 6.59375 63.09375 13.40625 68.65625 
Q 20.21875 74.21875 32.171875 74.21875 
Q 37.3125 74.21875 42.625 73.28125 
Q 47.953125 72.359375 53.515625 70.515625 
z
" id="DejaVuSans-53"/>
     <path d="M 18.3125 70.21875 
L 18.3125 54.6875 
L 36.8125 54.6875 
L 36.8125 47.703125 
L 18.3125 47.703125 
L 18.3125 18.015625 
Q 18.3125 11.328125 20.140625 9.421875 
Q 21.96875 7.515625 27.59375 7.515625 
L 36.8125 7.515625 
L 36.8125 0 
L 27.59375 0 
Q 17.1875 0 13.234375 3.875 
Q 9.28125 7.765625 9.28125 18.015625 
L 9.28125 47.703125 
L 2.6875 47.703125 
L 2.6875 54.6875 
L 9.28125 54.6875 
L 9.28125 70.21875 
z
" id="DejaVuSans-74"/>
     <path d="M 41.109375 46.296875 
Q 39.59375 47.171875 37.8125 47.578125 
Q 36.03125 48 33.890625 48 
Q 26.265625 48 22.1875 43.046875 
Q 18.109375 38.09375 18.109375 28.8125 
L 18.109375 0 
L 9.078125 0 
L 9.078125 54.6875 
L 18.109375 54.6875 
L 18.109375 46.1875 
Q 20.953125 51.171875 25.484375 53.578125 
Q 30.03125 56 36.53125 56 
Q 37.453125 56 38.578125 55.875 
Q 39.703125 55.765625 41.0625 55.515625 
z
" id="DejaVuSans-72"/>
     <path d="M 8.5 21.578125 
L 8.5 54.6875 
L 17.484375 54.6875 
L 17.484375 21.921875 
Q 17.484375 14.15625 20.5 10.265625 
Q 23.53125 6.390625 29.59375 6.390625 
Q 36.859375 6.390625 41.078125 11.03125 
Q 45.3125 15.671875 45.3125 23.6875 
L 45.3125 54.6875 
L 54.296875 54.6875 
L 54.296875 0 
L 45.3125 0 
L 45.3125 8.40625 
Q 42.046875 3.421875 37.71875 1 
Q 33.40625 -1.421875 27.6875 -1.421875 
Q 18.265625 -1.421875 13.375 4.4375 
Q 8.5 10.296875 8.5 21.578125 
z
M 31.109375 56 
z
" id="DejaVuSans-75"/>
     <path d="M 48.78125 52.59375 
L 48.78125 44.1875 
Q 44.96875 46.296875 41.140625 47.34375 
Q 37.3125 48.390625 33.40625 48.390625 
Q 24.65625 48.390625 19.8125 42.84375 
Q 14.984375 37.3125 14.984375 27.296875 
Q 14.984375 17.28125 19.8125 11.734375 
Q 24.65625 6.203125 33.40625 6.203125 
Q 37.3125 6.203125 41.140625 7.25 
Q 44.96875 8.296875 48.78125 10.40625 
L 48.78125 2.09375 
Q 45.015625 0.34375 40.984375 -0.53125 
Q 36.96875 -1.421875 32.421875 -1.421875 
Q 20.0625 -1.421875 12.78125 6.34375 
Q 5.515625 14.109375 5.515625 27.296875 
Q 5.515625 40.671875 12.859375 48.328125 
Q 20.21875 56 33.015625 56 
Q 37.15625 56 41.109375 55.140625 
Q 45.0625 54.296875 48.78125 52.59375 
z
" id="DejaVuSans-63"/>
     <path d="M 56.203125 29.59375 
L 56.203125 25.203125 
L 14.890625 25.203125 
Q 15.484375 15.921875 20.484375 11.0625 
Q 25.484375 6.203125 34.421875 6.203125 
Q 39.59375 6.203125 44.453125 7.46875 
Q 49.3125 8.734375 54.109375 11.28125 
L 54.109375 2.78125 
Q 49.265625 0.734375 44.1875 -0.34375 
Q 39.109375 -1.421875 33.890625 -1.421875 
Q 20.796875 -1.421875 13.15625 6.1875 
Q 5.515625 13.8125 5.515625 26.8125 
Q 5.515625 40.234375 12.765625 48.109375 
Q 20.015625 56 32.328125 56 
Q 43.359375 56 49.78125 48.890625 
Q 56.203125 41.796875 56.203125 29.59375 
z
M 47.21875 32.234375 
Q 47.125 39.59375 43.09375 43.984375 
Q 39.0625 48.390625 32.421875 48.390625 
Q 24.90625 48.390625 20.390625 44.140625 
Q 15.875 39.890625 15.1875 32.171875 
z
" id="DejaVuSans-65"/>
     <path id="DejaVuSans-20"/>
     <path d="M 51.125 44 
L 36.921875 44 
L 32.8125 27.6875 
L 47.125 27.6875 
z
M 43.796875 71.78125 
L 38.71875 51.515625 
L 52.984375 51.515625 
L 58.109375 71.78125 
L 65.921875 71.78125 
L 60.890625 51.515625 
L 76.125 51.515625 
L 76.125 44 
L 58.984375 44 
L 54.984375 27.6875 
L 70.515625 27.6875 
L 70.515625 20.21875 
L 53.078125 20.21875 
L 48 0 
L 40.1875 0 
L 45.21875 20.21875 
L 30.90625 20.21875 
L 25.875 0 
L 18.015625 0 
L 23.09375 20.21875 
L 7.71875 20.21875 
L 7.71875 27.6875 
L 24.90625 27.6875 
L 29 44 
L 13.28125 44 
L 13.28125 51.515625 
L 30.90625 51.515625 
L 35.890625 71.78125 
z
" id="DejaVuSans-23"/>
     <path d="M 8.203125 72.90625 
L 55.078125 72.90625 
L 55.078125 68.703125 
L 28.609375 0 
L 18.3125 0 
L 43.21875 64.59375 
L 8.203125 64.59375 
z
" id="DejaVuSans-37"/>
     <path d="M 10.796875 72.90625 
L 49.515625 72.90625 
L 49.515625 64.59375 
L 19.828125 64.59375 
L 19.828125 46.734375 
Q 21.96875 47.46875 24.109375 47.828125 
Q 26.265625 48.1875 28.421875 48.1875 
Q 40.625 48.1875 47.75 41.5 
Q 54.890625 34.8125 54.890625 23.390625 
Q 54.890625 11.625 47.5625 5.09375 
Q 40.234375 -1.421875 26.90625 -1.421875 
Q 22.3125 -1.421875 17.546875 -0.640625 
Q 12.796875 0.140625 7.71875 1.703125 
L 7.71875 11.625 
Q 12.109375 9.234375 16.796875 8.0625 
Q 21.484375 6.890625 26.703125 6.890625 
Q 35.15625 6.890625 40.078125 11.328125 
Q 45.015625 15.765625 45.015625 23.390625 
Q 45.015625 31 40.078125 35.4375 
Q 35.15625 39.890625 26.703125 39.890625 
Q 22.75 39.890625 18.8125 39.015625 
Q 14.890625 38.140625 10.796875 36.28125 
z
" id="DejaVuSans-35"/>
     <path d="M 33.015625 40.375 
Q 26.375 40.375 22.484375 35.828125 
Q 18.609375 31.296875 18.609375 23.390625 
Q 18.609375 15.53125 22.484375 10.953125 
Q 26.375 6.390625 33.015625 6.390625 
Q 39.65625 6.390625 43.53125 10.953125 
Q 47.40625 15.53125 47.40625 23.390625 
Q 47.40625 31.296875 43.53125 35.828125 
Q 39.65625 40.375 33.015625 40.375 
z
M 52.59375 71.296875 
L 52.59375 62.3125 
Q 48.875 64.0625 45.09375 64.984375 
Q 41.3125 65.921875 37.59375 65.921875 
Q 27.828125 65.921875 22.671875 59.328125 
Q 17.53125 52.734375 16.796875 39.40625 
Q 19.671875 43.65625 24.015625 45.921875 
Q 28.375 48.1875 33.59375 48.1875 
Q 44.578125 48.1875 50.953125 41.515625 
Q 57.328125 34.859375 57.328125 23.390625 
Q 57.328125 12.15625 50.6875 5.359375 
Q 44.046875 -1.421875 33.015625 -1.421875 
Q 20.359375 -1.421875 13.671875 8.265625 
Q 6.984375 17.96875 6.984375 36.375 
Q 6.984375 53.65625 15.1875 63.9375 
Q 23.390625 74.21875 37.203125 74.21875 
Q 40.921875 74.21875 44.703125 73.484375 
Q 48.484375 72.75 52.59375 71.296875 
z
" id="DejaVuSans-36"/>
     <path d="M 11.71875 12.40625 
L 22.015625 12.40625 
L 22.015625 4 
L 14.015625 -11.625 
L 7.71875 -11.625 
L 11.71875 4 
z
" id="DejaVuSans-2c"/>
     <path d="M 16.890625 72.90625 
L 62.984375 72.90625 
L 61.375 64.59375 
L 25.09375 64.59375 
L 20.90625 43.015625 
L 55.71875 43.015625 
L 54.109375 34.71875 
L 19.28125 34.71875 
L 14.203125 8.296875 
L 51.3125 8.296875 
L 49.703125 0 
L 2.6875 0 
z
" id="DejaVuSans-Oblique-45"/>
     <path d="M 16.890625 72.90625 
L 30.171875 72.90625 
L 50.296875 10.40625 
L 62.5 72.90625 
L 72.125 72.90625 
L 57.90625 0 
L 44.578125 0 
L 24.515625 62.890625 
L 12.3125 0 
L 2.6875 0 
z
" id="DejaVuSans-Oblique-4e"/>
     <path d="M 10.59375 45.40625 
L 73.1875 45.40625 
L 73.1875 37.203125 
L 10.59375 37.203125 
z
M 10.59375 25.484375 
L 73.1875 25.484375 
L 73.1875 17.1875 
L 10.59375 17.1875 
z
" id="DejaVuSans-3d"/>
     <path d="M 4.890625 31.390625 
L 31.203125 31.390625 
L 31.203125 23.390625 
L 4.890625 23.390625 
z
" id="DejaVuSans-2d"/>
     <path d="M 12.40625 8.296875 
L 28.515625 8.296875 
L 28.515625 63.921875 
L 10.984375 60.40625 
L 10.984375 69.390625 
L 28.421875 72.90625 
L 38.28125 72.90625 
L 38.28125 8.296875 
L 54.390625 8.296875 
L 54.390625 0 
L 12.40625 0 
z
" id="DejaVuSans-31"/>
     <path d="M 31.78125 34.625 
Q 24.75 34.625 20.71875 30.859375 
Q 16.703125 27.09375 16.703125 20.515625 
Q 16.703125 13.921875 20.71875 10.15625 
Q 24.75 6.390625 31.78125 6.390625 
Q 38.8125 6.390625 42.859375 10.171875 
Q 46.921875 13.96875 46.921875 20.515625 
Q 46.921875 27.09375 42.890625 30.859375 
Q 38.875 34.625 31.78125 34.625 
z
M 21.921875 38.8125 
Q 15.578125 40.375 12.03125 44.71875 
Q 8.5 49.078125 8.5 55.328125 
Q 8.5 64.0625 14.71875 69.140625 
Q 20.953125 74.21875 31.78125 74.21875 
Q 42.671875 74.21875 48.875 69.140625 
Q 55.078125 64.0625 55.078125 55.328125 
Q 55.078125 49.078125 51.53125 44.71875 
Q 48 40.375 41.703125 38.8125 
Q 48.828125 37.15625 52.796875 32.3125 
Q 56.78125 27.484375 56.78125 20.515625 
Q 56.78125 9.90625 50.3125 4.234375 
Q 43.84375 -1.421875 31.78125 -1.421875 
Q 19.734375 -1.421875 13.25 4.234375 
Q 6.78125 9.90625 6.78125 20.515625 
Q 6.78125 27.484375 10.78125 32.3125 
Q 14.796875 37.15625 21.921875 38.8125 
z
M 18.3125 54.390625 
Q 18.3125 48.734375 21.84375 45.5625 
Q 25.390625 42.390625 31.78125 42.390625 
Q 38.140625 42.390625 41.71875 45.5625 
Q 45.3125 48.734375 45.3125 54.390625 
Q 45.3125 60.0625 41.71875 63.234375 
Q 38.140625 66.40625 31.78125 66.40625 
Q 25.390625 66.40625 21.84375 63.234375 
Q 18.3125 60.0625 18.3125 54.390625 
z
" id="DejaVuSans-38"/>
     <path d="M 19.1875 8.296875 
L 53.609375 8.296875 
L 53.609375 0 
L 7.328125 0 
L 7.328125 8.296875 
Q 12.9375 14.109375 22.625 23.890625 
Q 32.328125 33.6875 34.8125 36.53125 
Q 39.546875 41.84375 41.421875 45.53125 
Q 43.3125 49.21875 43.3125 52.78125 
Q 43.3125 58.59375 39.234375 62.25 
Q 35.15625 65.921875 28.609375 65.921875 
Q 23.96875 65.921875 18.8125 64.3125 
Q 13.671875 62.703125 7.8125 59.421875 
L 7.8125 69.390625 
Q 13.765625 71.78125 18.9375 73 
Q 24.125 74.21875 28.421875 74.21875 
Q 39.75 74.21875 46.484375 68.546875 
Q 53.21875 62.890625 53.21875 53.421875 
Q 53.21875 48.921875 51.53125 44.890625 
Q 49.859375 40.875 45.40625 35.40625 
Q 44.1875 33.984375 37.640625 27.21875 
Q 31.109375 20.453125 19.1875 8.296875 
z
" id="DejaVuSans-32"/>
     <path d="M 10.6875 12.40625 
L 21 12.40625 
L 21 0 
L 10.6875 0 
z
" id="DejaVuSans-2e"/>
     <path d="M 28.609375 0 
L 0.78125 72.90625 
L 11.078125 72.90625 
L 34.1875 11.53125 
L 57.328125 72.90625 
L 67.578125 72.90625 
L 39.796875 0 
z
" id="DejaVuSans-56"/>
     <path d="M 34.1875 63.1875 
L 14.15625 8.203125 
L 54.25 8.203125 
z
M 0.78125 0 
L 28.609375 72.90625 
L 39.796875 72.90625 
L 67.578125 0 
z
" id="DejaVuSans-394"/>
     <path d="M 9.8125 72.90625 
L 55.90625 72.90625 
L 55.90625 64.59375 
L 19.671875 64.59375 
L 19.671875 43.015625 
L 54.390625 43.015625 
L 54.390625 34.71875 
L 19.671875 34.71875 
L 19.671875 8.296875 
L 56.78125 8.296875 
L 56.78125 0 
L 9.8125 0 
z
" id="DejaVuSans-45"/>
     <path d="M 31.78125 66.40625 
Q 24.171875 66.40625 20.328125 58.90625 
Q 16.5 51.421875 16.5 36.375 
Q 16.5 21.390625 20.328125 13.890625 
Q 24.171875 6.390625 31.78125 6.390625 
Q 39.453125 6.390625 43.28125 13.890625 
Q 47.125 21.390625 47.125 36.375 
Q 47.125 51.421875 43.28125 58.90625 
Q 39.453125 66.40625 31.78125 66.40625 
z
M 31.78125 74.21875 
Q 44.046875 74.21875 50.515625 64.515625 
Q 56.984375 54.828125 56.984375 36.375 
Q 56.984375 17.96875 50.515625 8.265625 
Q 44.046875 -1.421875 31.78125 -1.421875 
Q 19.53125 -1.421875 13.0625 8.265625 
Q 6.59375 17.96875 6.59375 36.375 
Q 6.59375 54.828125 13.0625 64.515625 
Q 19.53125 74.21875 31.78125 74.21875 
z
" id="DejaVuSans-30"/>
    </defs>
    <g transform="translate(69.228 35.472)scale(0.12 -0.12)">
     <use transform="translate(0 0.78125)" xlink:href="#DejaVuSans-53"/>
     <use transform="translate(63.476562 0.78125)" xlink:href="#DejaVuSans-74"/>
     <use transform="translate(102.685547 0.78125)" xlink:href="#DejaVuSans-72"/>
     <use transform="translate(143.798828 0.78125)" xlink:href="#DejaVuSans-75"/>
     <use transform="translate(207.177734 0.78125)" xlink:href="#DejaVuSans-63"/>
     <use transform="translate(262.158203 0.78125)" xlink:href="#DejaVuSans-74"/>
     <use transform="translate(301.367188 0.78125)" xlink:href="#DejaVuSans-75"/>
     <use transform="translate(364.746094 0.78125)" xlink:href="#DejaVuSans-72"/>
     <use transform="translate(405.859375 0.78125)" xlink:href="#DejaVuSans-65"/>
     <use transform="translate(467.382812 0.78125)" xlink:href="#DejaVuSans-20"/>
     <use transform="translate(499.169922 0.78125)" xlink:href="#DejaVuSans-23"/>
     <use transform="translate(582.958984 0.78125)" xlink:href="#DejaVuSans-37"/>
     <use transform="translate(646.582031 0.78125)" xlink:href="#DejaVuSans-35"/>
     <use transform="translate(710.205078 0.78125)" xlink:href="#DejaVuSans-36"/>
     <use transform="translate(773.828125 0.78125)" xlink:href="#DejaVuSans-2c"/>
     <use transform="translate(805.615234 0.78125)" xlink:href="#DejaVuSans-20"/>
     <use transform="translate(837.402344 0.78125)" xlink:href="#DejaVuSans-Oblique-45"/>
     <use transform="translate(900.585938 -15.625)scale(0.7)" xlink:href="#DejaVuSans-Oblique-4e"/>
     <use transform="translate(955.683594 0.78125)" xlink:href="#DejaVuSans-3d"/>
     <use transform="translate(1039.472656 0.78125)" xlink:href="#DejaVuSans-2d"/>
     <use transform="translate(1075.556641 0.78125)" xlink:href="#DejaVuSans-31"/>
     <use transform="translate(1139.179688 0.78125)" xlink:href="#DejaVuSans-38"/>
     <use transform="translate(1202.802734 0.78125)" xlink:href="#DejaVuSans-32"/>
     <use transform="translate(1266.425781 0.78125)" xlink:href="#DejaVuSans-2e"/>
     <use transform="translate(1298.212891 0.78125)" xlink:href="#DejaVuSans-35"/>
     <use transform="translate(1361.835938 0.78125)" xlink:href="#DejaVuSans-31"/>
     <use transform="translate(1425.458984 0.78125)" xlink:href="#DejaVuSans-65"/>
     <use transform="translate(1486.982422 0.78125)" xlink:href="#DejaVuSans-56"/>
     <use transform="translate(1555.390625 0.78125)" xlink:href="#DejaVuSans-2c"/>
     <use transform="translate(1587.177734 0.78125)" xlink:href="#DejaVuSans-20"/>
     <use transform="translate(1618.964844 0.78125)" xlink:href="#DejaVuSans-394"/>
     <use transform="translate(1687.373047 0.78125)" xlink:href="#DejaVuSans-45"/>
     <use transform="translate(1750.556641 0.78125)" xlink:href="#DejaVuSans-3d"/>
     <use transform="translate(1834.345703 0.78125)" xlink:href="#DejaVuSans-30"/>
     <use transform="translate(1897.96875 0.78125)" xlink:href="#DejaVuSans-2e"/>
     <use transform="translate(1929.755859 0.78125)" xlink:href="#DejaVuSans-30"/>
     <use transform="translate(1993.378906 0.78125)" xlink:href="#DejaVuSans-38"/>
     <use transform="translate(2057.001953 0.78125)" xlink:href="#DejaVuSans-65"/>
     <use transform="translate(2118.525391 0.78125)" xlink:href="#DejaVuSans-56"/>
    </g>
   </g>
  </g>
  <g id="axes_2">
   <g id="patch_2">
    <path clip-path="url(#p47c1e8e14d)" d="M 361.152 307.584 
L 361.152 306.5445 
L 361.152 42.5115 
L 361.152 41.472 
L 374.4576 41.472 
L 374.4576 42.5115 
L 374.4576 306.5445 
L 374.4576 307.584 
z
" style="fill:#ffffff;stroke:#ffffff;stroke-linejoin:miter;stroke-width:0.01;"/>
   </g>
   <image height="265.68" id="image59c640f259" transform="scale(1 -1)translate(0 -265.68)" width="12.96" x="361.44" xlink:href="data:image/png;base64,
iVBORw0KGgoAAAANSUhEUgAAABIAAAFxCAYAAAB+2fgXAAAABHNCSVQICAgIfAhkiAAAAeVJREFUeJztncmNw0AQA2ckheYQNv9QLIfQ8ygsCgQ7AEI8+jAs2Puz/94F1LP2ReCsZ18bAWIeZ5XaGRBE7VnbptG+KI101FYyNSiQG2oRITXKNaX9uclOdi2XWjftVE32CZCO2ou5Bj1TcCBr/1zB9ge7Fq0Rg2NM9pvbtG+ua1QgsRYhDy0ISEiNc40BEibbSI0Coj5CBGtkpFbXJiAjNZlrwhuSOv2M1DjXbEdEciBt1JSDDQKKpmZr2rr2j0DBGpXaWEJq3bQzEPIS26r9J+Wzv9Tm8o3aajRXqc3VUXsApKNWjeZq0x4ABVNbm7lrszVigDqP5vIl2+eaT2yfRkL7g+dRcNPqjohkjaCvRVBq0H2U3LQrOJCx9kdTg4B8oxZzzTdqdYHEngjUCAPyUctN9sVRq2sTECW2UKNLd2jVtRmo1A6AhMmWaSRcR8nUdIHUuVb75zJS218EyEitro1At69pIdeSk30Lkw0FktNImGyZRhy1O5galmxd03LUsHWk06jUZiCq+5Wb1kZNN4+wJxJuWt8RAW5am2sYNZ9rYCBzZ3buPKJ2P5Yj4Toy3keyIyJbIxs1rml1byCA84gpch5RQNB7Q0qNMGq2Hy4BXdNR41yz/cEEJfZzUz96r9PoB0okjeQ8y9TkAAAAAElFTkSuQmCC" y="-41.76"/>
   <g id="matplotlib.axis_1"/>
   <g id="matplotlib.axis_2">
    <g id="ytick_1">
     <g id="line2d_1">
      <defs>
       <path d="M 0 0 
L 3.5 0 
" id="mfefb337ddf" style="stroke:#000000;stroke-width:0.8;"/>
      </defs>
      <g>
       <use style="stroke:#000000;stroke-width:0.8;" x="374.4576" xlink:href="#mfefb337ddf" y="284.87039"/>
      </g>
     </g>
     <g id="text_2">
      <!-- −8.5 -->
      <defs>
       <path d="M 10.59375 35.5 
L 73.1875 35.5 
L 73.1875 27.203125 
L 10.59375 27.203125 
z
" id="DejaVuSans-2212"/>
      </defs>
      <g transform="translate(381.4576 288.669609)scale(0.1 -0.1)">
       <use xlink:href="#DejaVuSans-2212"/>
       <use x="83.789062" xlink:href="#DejaVuSans-38"/>
       <use x="147.412109" xlink:href="#DejaVuSans-2e"/>
       <use x="179.199219" xlink:href="#DejaVuSans-35"/>
      </g>
     </g>
    </g>
    <g id="ytick_2">
     <g id="line2d_2">
      <g>
       <use style="stroke:#000000;stroke-width:0.8;" x="374.4576" xlink:href="#mfefb337ddf" y="241.303071"/>
      </g>
     </g>
     <g id="text_3">
      <!-- −8.0 -->
      <g transform="translate(381.4576 245.10229)scale(0.1 -0.1)">
       <use xlink:href="#DejaVuSans-2212"/>
       <use x="83.789062" xlink:href="#DejaVuSans-38"/>
       <use x="147.412109" xlink:href="#DejaVuSans-2e"/>
       <use x="179.199219" xlink:href="#DejaVuSans-30"/>
      </g>
     </g>
    </g>
    <g id="ytick_3">
     <g id="line2d_3">
      <g>
       <use style="stroke:#000000;stroke-width:0.8;" x="374.4576" xlink:href="#mfefb337ddf" y="197.735753"/>
      </g>
     </g>
     <g id="text_4">
      <!-- −7.5 -->
      <g transform="translate(381.4576 201.534971)scale(0.1 -0.1)">
       <use xlink:href="#DejaVuSans-2212"/>
       <use x="83.789062" xlink:href="#DejaVuSans-37"/>
       <use x="147.412109" xlink:href="#DejaVuSans-2e"/>
       <use x="179.199219" xlink:href="#DejaVuSans-35"/>
      </g>
     </g>
    </g>
    <g id="ytick_4">
     <g id="line2d_4">
      <g>
       <use style="stroke:#000000;stroke-width:0.8;" x="374.4576" xlink:href="#mfefb337ddf" y="154.168434"/>
      </g>
     </g>
     <g id="text_5">
      <!-- −7.0 -->
      <g transform="translate(381.4576 157.967652)scale(0.1 -0.1)">
       <use xlink:href="#DejaVuSans-2212"/>
       <use x="83.789062" xlink:href="#DejaVuSans-37"/>
       <use x="147.412109" xlink:href="#DejaVuSans-2e"/>
       <use x="179.199219" xlink:href="#DejaVuSans-30"/>
      </g>
     </g>
    </g>
    <g id="ytick_5">
     <g id="line2d_5">
      <g>
       <use style="stroke:#000000;stroke-width:0.8;" x="374.4576" xlink:href="#mfefb337ddf" y="110.601115"/>
      </g>
     </g>
     <g id="text_6">
      <!-- −6.5 -->
      <g transform="translate(381.4576 114.400334)scale(0.1 -0.1)">
       <use xlink:href="#DejaVuSans-2212"/>
       <use x="83.789062" xlink:href="#DejaVuSans-36"/>
       <use x="147.412109" xlink:href="#DejaVuSans-2e"/>
       <use x="179.199219" xlink:href="#DejaVuSans-35"/>
      </g>
     </g>
    </g>
    <g id="ytick_6">
     <g id="line2d_6">
      <g>
       <use style="stroke:#000000;stroke-width:0.8;" x="374.4576" xlink:href="#mfefb337ddf" y="67.033796"/>
      </g>
     </g>
     <g id="text_7">
      <!-- −6.0 -->
      <g transform="translate(381.4576 70.833015)scale(0.1 -0.1)">
       <use xlink:href="#DejaVuSans-2212"/>
       <use x="83.789062" xlink:href="#DejaVuSans-36"/>
       <use x="147.412109" xlink:href="#DejaVuSans-2e"/>
       <use x="179.199219" xlink:href="#DejaVuSans-30"/>
      </g>
     </g>
    </g>
    <g id="text_8">
     <!-- Energy [eV] -->
     <defs>
      <path d="M 54.890625 33.015625 
L 54.890625 0 
L 45.90625 0 
L 45.90625 32.71875 
Q 45.90625 40.484375 42.875 44.328125 
Q 39.84375 48.1875 33.796875 48.1875 
Q 26.515625 48.1875 22.3125 43.546875 
Q 18.109375 38.921875 18.109375 30.90625 
L 18.109375 0 
L 9.078125 0 
L 9.078125 54.6875 
L 18.109375 54.6875 
L 18.109375 46.1875 
Q 21.34375 51.125 25.703125 53.5625 
Q 30.078125 56 35.796875 56 
Q 45.21875 56 50.046875 50.171875 
Q 54.890625 44.34375 54.890625 33.015625 
z
" id="DejaVuSans-6e"/>
      <path d="M 45.40625 27.984375 
Q 45.40625 37.75 41.375 43.109375 
Q 37.359375 48.484375 30.078125 48.484375 
Q 22.859375 48.484375 18.828125 43.109375 
Q 14.796875 37.75 14.796875 27.984375 
Q 14.796875 18.265625 18.828125 12.890625 
Q 22.859375 7.515625 30.078125 7.515625 
Q 37.359375 7.515625 41.375 12.890625 
Q 45.40625 18.265625 45.40625 27.984375 
z
M 54.390625 6.78125 
Q 54.390625 -7.171875 48.1875 -13.984375 
Q 42 -20.796875 29.203125 -20.796875 
Q 24.46875 -20.796875 20.265625 -20.09375 
Q 16.0625 -19.390625 12.109375 -17.921875 
L 12.109375 -9.1875 
Q 16.0625 -11.328125 19.921875 -12.34375 
Q 23.78125 -13.375 27.78125 -13.375 
Q 36.625 -13.375 41.015625 -8.765625 
Q 45.40625 -4.15625 45.40625 5.171875 
L 45.40625 9.625 
Q 42.625 4.78125 38.28125 2.390625 
Q 33.9375 0 27.875 0 
Q 17.828125 0 11.671875 7.65625 
Q 5.515625 15.328125 5.515625 27.984375 
Q 5.515625 40.671875 11.671875 48.328125 
Q 17.828125 56 27.875 56 
Q 33.9375 56 38.28125 53.609375 
Q 42.625 51.21875 45.40625 46.390625 
L 45.40625 54.6875 
L 54.390625 54.6875 
z
" id="DejaVuSans-67"/>
      <path d="M 32.171875 -5.078125 
Q 28.375 -14.84375 24.75 -17.8125 
Q 21.140625 -20.796875 15.09375 -20.796875 
L 7.90625 -20.796875 
L 7.90625 -13.28125 
L 13.1875 -13.28125 
Q 16.890625 -13.28125 18.9375 -11.515625 
Q 21 -9.765625 23.484375 -3.21875 
L 25.09375 0.875 
L 2.984375 54.6875 
L 12.5 54.6875 
L 29.59375 11.921875 
L 46.6875 54.6875 
L 56.203125 54.6875 
z
" id="DejaVuSans-79"/>
      <path d="M 8.59375 75.984375 
L 29.296875 75.984375 
L 29.296875 69 
L 17.578125 69 
L 17.578125 -6.203125 
L 29.296875 -6.203125 
L 29.296875 -13.1875 
L 8.59375 -13.1875 
z
" id="DejaVuSans-5b"/>
      <path d="M 30.421875 75.984375 
L 30.421875 -13.1875 
L 9.71875 -13.1875 
L 9.71875 -6.203125 
L 21.390625 -6.203125 
L 21.390625 69 
L 9.71875 69 
L 9.71875 75.984375 
z
" id="DejaVuSans-5d"/>
     </defs>
     <g transform="translate(417.33885 204.108469)rotate(-90)scale(0.1 -0.1)">
      <use xlink:href="#DejaVuSans-45"/>
      <use x="63.183594" xlink:href="#DejaVuSans-6e"/>
      <use x="126.5625" xlink:href="#DejaVuSans-65"/>
      <use x="188.085938" xlink:href="#DejaVuSans-72"/>
      <use x="229.183594" xlink:href="#DejaVuSans-67"/>
      <use x="292.660156" xlink:href="#DejaVuSans-79"/>
      <use x="351.839844" xlink:href="#DejaVuSans-20"/>
      <use x="383.626953" xlink:href="#DejaVuSans-5b"/>
      <use x="422.640625" xlink:href="#DejaVuSans-65"/>
      <use x="484.164062" xlink:href="#DejaVuSans-56"/>
      <use x="552.572266" xlink:href="#DejaVuSans-5d"/>
     </g>
    </g>
   </g>
   <g id="patch_3">
    <path d="M 361.152 307.584 
L 361.152 306.5445 
L 361.152 42.5115 
L 361.152 41.472 
L 374.4576 41.472 
L 374.4576 42.5115 
L 374.4576 306.5445 
L 374.4576 307.584 
z
" style="fill:none;stroke:#000000;stroke-linejoin:miter;stroke-width:0.8;"/>
   </g>
  </g>
 </g>
 <defs>
  <clipPath id="pca6787f88d">
   <rect height="266.112" width="285.696" x="57.6" y="41.472"/>
  </clipPath>
  <clipPath id="p47c1e8e14d">
   <rect height="266.112" width="13.3056" x="361.152" y="41.472"/>
  </clipPath>
 </defs>
</svg>
