<?xml version="1.0" encoding="utf-8" standalone="no"?>
<!DOCTYPE svg PUBLIC "-//W3C//DTD SVG 1.1//EN"
  "http://www.w3.org/Graphics/SVG/1.1/DTD/svg11.dtd">
<!-- Created with matplotlib (http://matplotlib.org/) -->
<svg height="345.6pt" version="1.1" viewBox="0 0 460.8 345.6" width="460.8pt" xmlns="http://www.w3.org/2000/svg" xmlns:xlink="http://www.w3.org/1999/xlink">
 <defs>
  <style type="text/css">
*{stroke-linecap:butt;stroke-linejoin:round;}
  </style>
 </defs>
 <g id="figure_1">
  <g id="patch_1">
   <path d="M 0 345.6 
L 460.8 345.6 
L 460.8 0 
L 0 0 
z
" style="fill:#ffffff;"/>
  </g>
  <g id="axes_1">
   <g id="CircleCollection_1">
    <path clip-path="url(#p284faee014)" d="M 220.450155 88.771969 
C 222.350409 88.771969 224.173089 88.01699 225.516771 86.673308 
C 226.860453 85.329626 227.615432 83.506946 227.615432 81.606692 
C 227.615432 79.706438 226.860453 77.883758 225.516771 76.540076 
C 224.173089 75.196394 222.350409 74.441415 220.450155 74.441415 
C 218.549901 74.441415 216.727221 75.196394 215.383539 76.540076 
C 214.039857 77.883758 213.284878 79.706438 213.284878 81.606692 
C 213.284878 83.506946 214.039857 85.329626 215.383539 86.673308 
C 216.727221 88.01699 218.549901 88.771969 220.450155 88.771969 
z
" style="fill:#450559;"/>
    <path clip-path="url(#p284faee014)" d="M 151.360188 246.364683 
C 153.196004 246.364683 154.956878 245.635305 156.254996 244.337187 
C 157.553115 243.039069 158.282492 241.278195 158.282492 239.442378 
C 158.282492 237.606562 157.553115 235.845688 156.254996 234.54757 
C 154.956878 233.249451 153.196004 232.520073 151.360188 232.520073 
C 149.524371 232.520073 147.763497 233.249451 146.465379 234.54757 
C 145.16726 235.845688 144.437883 237.606562 144.437883 239.442378 
C 144.437883 241.278195 145.16726 243.039069 146.465379 244.337187 
C 147.763497 245.635305 149.524371 246.364683 151.360188 246.364683 
z
" style="fill:#481f70;"/>
    <path clip-path="url(#p284faee014)" d="M 198.275533 98.167821 
C 200.209141 98.167821 202.063814 97.39959 203.431082 96.032323 
C 204.798349 94.665055 205.56658 92.810382 205.56658 90.876774 
C 205.56658 88.943166 204.798349 87.088493 203.431082 85.721225 
C 202.063814 84.353958 200.209141 83.585727 198.275533 83.585727 
C 196.341925 83.585727 194.487252 84.353958 193.119985 85.721225 
C 191.752717 87.088493 190.984486 88.943166 190.984486 90.876774 
C 190.984486 92.810382 191.752717 94.665055 193.119985 96.032323 
C 194.487252 97.39959 196.341925 98.167821 198.275533 98.167821 
z
" style="fill:#460a5d;"/>
    <path clip-path="url(#p284faee014)" d="M 95.44338 280.203901 
C 97.028142 280.203901 98.548209 279.574269 99.668805 278.453673 
C 100.789401 277.333077 101.419034 275.81301 101.419034 274.228248 
C 101.419034 272.643486 100.789401 271.123418 99.668805 270.002822 
C 98.548209 268.882226 97.028142 268.252594 95.44338 268.252594 
C 93.858618 268.252594 92.33855 268.882226 91.217955 270.002822 
C 90.097359 271.123418 89.467726 272.643486 89.467726 274.228248 
C 89.467726 275.81301 90.097359 277.333077 91.217955 278.453673 
C 92.33855 279.574269 93.858618 280.203901 95.44338 280.203901 
z
" style="fill:#46075a;"/>
    <path clip-path="url(#p284faee014)" d="M 176.588622 108.980425 
C 178.548146 108.980425 180.427677 108.201898 181.81327 106.816305 
C 183.198863 105.430712 183.97739 103.551181 183.97739 101.591656 
C 183.97739 99.632132 183.198863 97.752601 181.81327 96.367008 
C 180.427677 94.981415 178.548146 94.202888 176.588622 94.202888 
C 174.629097 94.202888 172.749566 94.981415 171.363973 96.367008 
C 169.97838 97.752601 169.199853 99.632132 169.199853 101.591656 
C 169.199853 103.551181 169.97838 105.430712 171.363973 106.816305 
C 172.749566 108.201898 174.629097 108.980425 176.588622 108.980425 
z
" style="fill:#46075a;"/>
    <path clip-path="url(#p284faee014)" d="M 330.013674 59.989301 
C 331.657353 59.989301 333.233933 59.336261 334.39619 58.174004 
C 335.558447 57.011747 336.211488 55.435167 336.211488 53.791488 
C 336.211488 52.147809 335.558447 50.571229 334.39619 49.408972 
C 333.233933 48.246715 331.657353 47.593674 330.013674 47.593674 
C 328.369995 47.593674 326.793415 48.246715 325.631158 49.408972 
C 324.468901 50.571229 323.81586 52.147809 323.81586 53.791488 
C 323.81586 55.435167 324.468901 57.011747 325.631158 58.174004 
C 326.793415 59.336261 328.369995 59.989301 330.013674 59.989301 
z
" style="fill:#fde725;"/>
    <path clip-path="url(#p284faee014)" d="M 133.92258 216.794586 
C 135.839897 216.794586 137.678944 216.032828 139.034692 214.67708 
C 140.39044 213.321332 141.152198 211.482285 141.152198 209.564968 
C 141.152198 207.647651 140.39044 205.808604 139.034692 204.452856 
C 137.678944 203.097108 135.839897 202.33535 133.92258 202.33535 
C 132.005263 202.33535 130.166216 203.097108 128.810468 204.452856 
C 127.45472 205.808604 126.692962 207.647651 126.692962 209.564968 
C 126.692962 211.482285 127.45472 213.321332 128.810468 214.67708 
C 130.166216 216.032828 132.005263 216.794586 133.92258 216.794586 
z
" style="fill:#471063;"/>
    <path clip-path="url(#p284faee014)" d="M 70.847314 300.756002 
C 72.296667 300.756002 73.686853 300.180168 74.711701 299.155321 
C 75.736548 298.130474 76.312382 296.740287 76.312382 295.290934 
C 76.312382 293.841581 75.736548 292.451395 74.711701 291.426548 
C 73.686853 290.4017 72.296667 289.825866 70.847314 289.825866 
C 69.397961 289.825866 68.007775 290.4017 66.982927 291.426548 
C 65.95808 292.451395 65.382246 293.841581 65.382246 295.290934 
C 65.382246 296.740287 65.95808 298.130474 66.982927 299.155321 
C 68.007775 300.180168 69.397961 300.756002 70.847314 300.756002 
z
" style="fill:#f6e620;"/>
    <path clip-path="url(#p284faee014)" d="M 108.094266 270.610107 
C 109.741952 270.610107 111.322375 269.955475 112.487465 268.790385 
C 113.652555 267.625295 114.307187 266.044872 114.307187 264.397186 
C 114.307187 262.7495 113.652555 261.169078 112.487465 260.003988 
C 111.322375 258.838898 109.741952 258.184265 108.094266 258.184265 
C 106.44658 258.184265 104.866157 258.838898 103.701067 260.003988 
C 102.535978 261.169078 101.881345 262.7495 101.881345 264.397186 
C 101.881345 266.044872 102.535978 267.625295 103.701067 268.790385 
C 104.866157 269.955475 106.44658 270.610107 108.094266 270.610107 
z
" style="fill:#450457;"/>
    <path clip-path="url(#p284faee014)" d="M 265.482094 74.809775 
C 267.295312 74.809775 269.034509 74.089376 270.316648 72.807238 
C 271.598787 71.525099 272.319186 69.785902 272.319186 67.972684 
C 272.319186 66.159466 271.598787 64.420269 270.316648 63.13813 
C 269.034509 61.855992 267.295312 61.135593 265.482094 61.135593 
C 263.668877 61.135593 261.929679 61.855992 260.647541 63.13813 
C 259.365402 64.420269 258.645003 66.159466 258.645003 67.972684 
C 258.645003 69.785902 259.365402 71.525099 260.647541 72.807238 
C 261.929679 74.089376 263.668877 74.809775 265.482094 74.809775 
z
" style="fill:#440256;"/>
    <path clip-path="url(#p284faee014)" d="M 82.604163 290.210483 
C 84.121927 290.210483 85.577732 289.607469 86.650953 288.534248 
C 87.724174 287.461027 88.327188 286.005222 88.327188 284.487458 
C 88.327188 282.969695 87.724174 281.51389 86.650953 280.440669 
C 85.577732 279.367448 84.121927 278.764434 82.604163 278.764434 
C 81.0864 278.764434 79.630595 279.367448 78.557374 280.440669 
C 77.484153 281.51389 76.881139 282.969695 76.881139 284.487458 
C 76.881139 286.005222 77.484153 287.461027 78.557374 288.534248 
C 79.630595 289.607469 81.0864 290.210483 82.604163 290.210483 
z
" style="fill:#481c6e;"/>
    <path clip-path="url(#p284faee014)" d="M 135.94531 253.488798 
C 137.717375 253.488798 139.417099 252.784749 140.670139 251.53171 
C 141.923178 250.278671 142.627227 248.578946 142.627227 246.806881 
C 142.627227 245.034816 141.923178 243.335091 140.670139 242.082052 
C 139.417099 240.829013 137.717375 240.124964 135.94531 240.124964 
C 134.173245 240.124964 132.47352 240.829013 131.220481 242.082052 
C 129.967442 243.335091 129.263393 245.034816 129.263393 246.806881 
C 129.263393 248.578946 129.967442 250.278671 131.220481 251.53171 
C 132.47352 252.784749 134.173245 253.488798 135.94531 253.488798 
z
" style="fill:#460a5d;"/>
    <path clip-path="url(#p284faee014)" d="M 121.905007 261.622922 
C 123.616109 261.622922 125.257359 260.943094 126.46729 259.733162 
C 127.677222 258.52323 128.35705 256.88198 128.35705 255.170878 
C 128.35705 253.459777 127.677222 251.818527 126.46729 250.608595 
C 125.257359 249.398663 123.616109 248.718835 121.905007 248.718835 
C 120.193905 248.718835 118.552655 249.398663 117.342723 250.608595 
C 116.132791 251.818527 115.452963 253.459777 115.452963 255.170878 
C 115.452963 256.88198 116.132791 258.52323 117.342723 259.733162 
C 118.552655 260.943094 120.193905 261.622922 121.905007 261.622922 
z
" style="fill:#440154;"/>
    <path clip-path="url(#p284faee014)" d="M 138.631321 135.713151 
C 140.611707 135.713151 142.511248 134.926335 143.911593 133.525991 
C 145.311937 132.125647 146.098753 130.226105 146.098753 128.245719 
C 146.098753 126.265333 145.311937 124.365792 143.911593 122.965448 
C 142.511248 121.565103 140.611707 120.778287 138.631321 120.778287 
C 136.650935 120.778287 134.751394 121.565103 133.351049 122.965448 
C 131.950705 124.365792 131.163889 126.265333 131.163889 128.245719 
C 131.163889 130.226105 131.950705 132.125647 133.351049 133.525991 
C 134.751394 134.926335 136.650935 135.713151 138.631321 135.713151 
z
" style="fill:#460a5d;"/>
    <path clip-path="url(#p284faee014)" d="M 287.15569 69.540805 
C 288.916894 69.540805 290.6062 68.841071 291.851559 67.595712 
C 293.096918 66.350354 293.796651 64.661048 293.796651 62.899844 
C 293.796651 61.138641 293.096918 59.449335 291.851559 58.203976 
C 290.6062 56.958617 288.916894 56.258884 287.15569 56.258884 
C 285.394487 56.258884 283.705181 56.958617 282.459822 58.203976 
C 281.214463 59.449335 280.51473 61.138641 280.51473 62.899844 
C 280.51473 64.661048 281.214463 66.350354 282.459822 67.595712 
C 283.705181 68.841071 285.394487 69.540805 287.15569 69.540805 
z
" style="fill:#46075a;"/>
    <path clip-path="url(#p284faee014)" d="M 242.98267 81.356154 
C 244.841696 81.356154 246.624831 80.617555 247.939361 79.303025 
C 249.253891 77.988495 249.99249 76.20536 249.99249 74.346334 
C 249.99249 72.487308 249.253891 70.704172 247.939361 69.389642 
C 246.624831 68.075113 244.841696 67.336514 242.98267 67.336514 
C 241.123644 67.336514 239.340508 68.075113 238.025979 69.389642 
C 236.711449 70.704172 235.97285 72.487308 235.97285 74.346334 
C 235.97285 76.20536 236.711449 77.988495 238.025979 79.303025 
C 239.340508 80.617555 241.123644 81.356154 242.98267 81.356154 
z
" style="fill:#46085c;"/>
    <path clip-path="url(#p284faee014)" d="M 174.694507 244.104175 
C 176.59062 244.104175 178.40933 243.350841 179.750084 242.010086 
C 181.090839 240.669331 181.844173 238.850622 181.844173 236.954508 
C 181.844173 235.058394 181.090839 233.239685 179.750084 231.89893 
C 178.40933 230.558176 176.59062 229.804842 174.694507 229.804842 
C 172.798393 229.804842 170.979684 230.558176 169.638929 231.89893 
C 168.298174 233.239685 167.54484 235.058394 167.54484 236.954508 
C 167.54484 238.850622 168.298174 240.669331 169.638929 242.010086 
C 170.979684 243.350841 172.798393 244.104175 174.694507 244.104175 
z
" style="fill:#1fa287;"/>
    <path clip-path="url(#p284faee014)" d="M 150.08911 231.30155 
C 151.985466 231.30155 153.804408 230.548119 155.145334 229.207193 
C 156.48626 227.866267 157.239691 226.047325 157.239691 224.150969 
C 157.239691 222.254613 156.48626 220.435671 155.145334 219.094745 
C 153.804408 217.753819 151.985466 217.000388 150.08911 217.000388 
C 148.192754 217.000388 146.373812 217.753819 145.032886 219.094745 
C 143.69196 220.435671 142.938529 222.254613 142.938529 224.150969 
C 142.938529 226.047325 143.69196 227.866267 145.032886 229.207193 
C 146.373812 230.548119 148.192754 231.30155 150.08911 231.30155 
z
" style="fill:#481d6f;"/>
    <path clip-path="url(#p284faee014)" d="M 118.463612 168.023335 
C 120.430552 168.023335 122.317195 167.241861 123.708032 165.851025 
C 125.098868 164.460189 125.880341 162.573545 125.880341 160.606606 
C 125.880341 158.639666 125.098868 156.753023 123.708032 155.362186 
C 122.317195 153.97135 120.430552 153.189877 118.463612 153.189877 
C 116.496673 153.189877 114.610029 153.97135 113.219193 155.362186 
C 111.828357 156.753023 111.046883 158.639666 111.046883 160.606606 
C 111.046883 162.573545 111.828357 164.460189 113.219193 165.851025 
C 114.610029 167.241861 116.496673 168.023335 118.463612 168.023335 
z
" style="fill:#46085c;"/>
    <path clip-path="url(#p284faee014)" d="M 125.650584 151.300512 
C 127.628206 151.300512 129.525095 150.514794 130.923485 149.116405 
C 132.321874 147.718015 133.107592 145.821126 133.107592 143.843504 
C 133.107592 141.865883 132.321874 139.968994 130.923485 138.570604 
C 129.525095 137.172215 127.628206 136.386497 125.650584 136.386497 
C 123.672963 136.386497 121.776074 137.172215 120.377684 138.570604 
C 118.979295 139.968994 118.193577 141.865883 118.193577 143.843504 
C 118.193577 145.821126 118.979295 147.718015 120.377684 149.116405 
C 121.776074 150.514794 123.672963 151.300512 125.650584 151.300512 
z
" style="fill:#470d60;"/>
    <path clip-path="url(#p284faee014)" d="M 156.420587 121.554336 
C 158.395306 121.554336 160.289412 120.769772 161.68575 119.373435 
C 163.082087 117.977097 163.866652 116.082991 163.866652 114.108272 
C 163.866652 112.133552 163.082087 110.239446 161.68575 108.843109 
C 160.289412 107.446771 158.395306 106.662207 156.420587 106.662207 
C 154.445868 106.662207 152.551762 107.446771 151.155424 108.843109 
C 149.759087 110.239446 148.974522 112.133552 148.974522 114.108272 
C 148.974522 116.082991 149.759087 117.977097 151.155424 119.373435 
C 152.551762 120.769772 154.445868 121.554336 156.420587 121.554336 
z
" style="fill:#460b5e;"/>
    <path clip-path="url(#p284faee014)" d="M 123.053161 201.40067 
C 124.987567 201.40067 126.843005 200.632122 128.210837 199.26429 
C 129.578669 197.896458 130.347217 196.04102 130.347217 194.106613 
C 130.347217 192.172207 129.578669 190.316769 128.210837 188.948937 
C 126.843005 187.581105 124.987567 186.812557 123.053161 186.812557 
C 121.118754 186.812557 119.263316 187.581105 117.895484 188.948937 
C 116.527652 190.316769 115.759104 192.172207 115.759104 194.106613 
C 115.759104 196.04102 116.527652 197.896458 117.895484 199.26429 
C 119.263316 200.632122 121.118754 201.40067 123.053161 201.40067 
z
" style="fill:#440256;"/>
    <path clip-path="url(#p284faee014)" d="M 308.806391 64.348824 
C 310.511391 64.348824 312.146788 63.671421 313.352405 62.465803 
C 314.558022 61.260186 315.235426 59.624789 315.235426 57.919789 
C 315.235426 56.214789 314.558022 54.579391 313.352405 53.373774 
C 312.146788 52.168157 310.511391 51.490753 308.806391 51.490753 
C 307.10139 51.490753 305.465993 52.168157 304.260376 53.373774 
C 303.054759 54.579391 302.377355 56.214789 302.377355 57.919789 
C 302.377355 59.624789 303.054759 61.260186 304.260376 62.465803 
C 305.465993 63.671421 307.10139 64.348824 308.806391 64.348824 
z
" style="fill:#481b6d;"/>
    <path clip-path="url(#p284faee014)" d="M 117.157599 184.831387 
C 119.110723 184.831387 120.984116 184.055402 122.365184 182.674335 
C 123.746251 181.293267 124.522236 179.419874 124.522236 177.46675 
C 124.522236 175.513625 123.746251 173.640233 122.365184 172.259165 
C 120.984116 170.878097 119.110723 170.102113 117.157599 170.102113 
C 115.204474 170.102113 113.331081 170.878097 111.950014 172.259165 
C 110.568946 173.640233 109.792961 175.513625 109.792961 177.46675 
C 109.792961 179.419874 110.568946 181.293267 111.950014 182.674335 
C 113.331081 184.055402 115.204474 184.831387 117.157599 184.831387 
z
" style="fill:#470e61;"/>
   </g>
   <g id="text_1">
    <!-- Structure #5659, $E_N$=-179.41eV, ΔE=0.00eV -->
    <defs>
     <path d="M 53.515625 70.515625 
L 53.515625 60.890625 
Q 47.90625 63.578125 42.921875 64.890625 
Q 37.9375 66.21875 33.296875 66.21875 
Q 25.25 66.21875 20.875 63.09375 
Q 16.5 59.96875 16.5 54.203125 
Q 16.5 49.359375 19.40625 46.890625 
Q 22.3125 44.4375 30.421875 42.921875 
L 36.375 41.703125 
Q 47.40625 39.59375 52.65625 34.296875 
Q 57.90625 29 57.90625 20.125 
Q 57.90625 9.515625 50.796875 4.046875 
Q 43.703125 -1.421875 29.984375 -1.421875 
Q 24.8125 -1.421875 18.96875 -0.25 
Q 13.140625 0.921875 6.890625 3.21875 
L 6.890625 13.375 
Q 12.890625 10.015625 18.65625 8.296875 
Q 24.421875 6.59375 29.984375 6.59375 
Q 38.421875 6.59375 43.015625 9.90625 
Q 47.609375 13.234375 47.609375 19.390625 
Q 47.609375 24.75 44.3125 27.78125 
Q 41.015625 30.8125 33.5 32.328125 
L 27.484375 33.5 
Q 16.453125 35.6875 11.515625 40.375 
Q 6.59375 45.0625 6.59375 53.421875 
Q 6.59375 63.09375 13.40625 68.65625 
Q 20.21875 74.21875 32.171875 74.21875 
Q 37.3125 74.21875 42.625 73.28125 
Q 47.953125 72.359375 53.515625 70.515625 
z
" id="DejaVuSans-53"/>
     <path d="M 18.3125 70.21875 
L 18.3125 54.6875 
L 36.8125 54.6875 
L 36.8125 47.703125 
L 18.3125 47.703125 
L 18.3125 18.015625 
Q 18.3125 11.328125 20.140625 9.421875 
Q 21.96875 7.515625 27.59375 7.515625 
L 36.8125 7.515625 
L 36.8125 0 
L 27.59375 0 
Q 17.1875 0 13.234375 3.875 
Q 9.28125 7.765625 9.28125 18.015625 
L 9.28125 47.703125 
L 2.6875 47.703125 
L 2.6875 54.6875 
L 9.28125 54.6875 
L 9.28125 70.21875 
z
" id="DejaVuSans-74"/>
     <path d="M 41.109375 46.296875 
Q 39.59375 47.171875 37.8125 47.578125 
Q 36.03125 48 33.890625 48 
Q 26.265625 48 22.1875 43.046875 
Q 18.109375 38.09375 18.109375 28.8125 
L 18.109375 0 
L 9.078125 0 
L 9.078125 54.6875 
L 18.109375 54.6875 
L 18.109375 46.1875 
Q 20.953125 51.171875 25.484375 53.578125 
Q 30.03125 56 36.53125 56 
Q 37.453125 56 38.578125 55.875 
Q 39.703125 55.765625 41.0625 55.515625 
z
" id="DejaVuSans-72"/>
     <path d="M 8.5 21.578125 
L 8.5 54.6875 
L 17.484375 54.6875 
L 17.484375 21.921875 
Q 17.484375 14.15625 20.5 10.265625 
Q 23.53125 6.390625 29.59375 6.390625 
Q 36.859375 6.390625 41.078125 11.03125 
Q 45.3125 15.671875 45.3125 23.6875 
L 45.3125 54.6875 
L 54.296875 54.6875 
L 54.296875 0 
L 45.3125 0 
L 45.3125 8.40625 
Q 42.046875 3.421875 37.71875 1 
Q 33.40625 -1.421875 27.6875 -1.421875 
Q 18.265625 -1.421875 13.375 4.4375 
Q 8.5 10.296875 8.5 21.578125 
z
M 31.109375 56 
z
" id="DejaVuSans-75"/>
     <path d="M 48.78125 52.59375 
L 48.78125 44.1875 
Q 44.96875 46.296875 41.140625 47.34375 
Q 37.3125 48.390625 33.40625 48.390625 
Q 24.65625 48.390625 19.8125 42.84375 
Q 14.984375 37.3125 14.984375 27.296875 
Q 14.984375 17.28125 19.8125 11.734375 
Q 24.65625 6.203125 33.40625 6.203125 
Q 37.3125 6.203125 41.140625 7.25 
Q 44.96875 8.296875 48.78125 10.40625 
L 48.78125 2.09375 
Q 45.015625 0.34375 40.984375 -0.53125 
Q 36.96875 -1.421875 32.421875 -1.421875 
Q 20.0625 -1.421875 12.78125 6.34375 
Q 5.515625 14.109375 5.515625 27.296875 
Q 5.515625 40.671875 12.859375 48.328125 
Q 20.21875 56 33.015625 56 
Q 37.15625 56 41.109375 55.140625 
Q 45.0625 54.296875 48.78125 52.59375 
z
" id="DejaVuSans-63"/>
     <path d="M 56.203125 29.59375 
L 56.203125 25.203125 
L 14.890625 25.203125 
Q 15.484375 15.921875 20.484375 11.0625 
Q 25.484375 6.203125 34.421875 6.203125 
Q 39.59375 6.203125 44.453125 7.46875 
Q 49.3125 8.734375 54.109375 11.28125 
L 54.109375 2.78125 
Q 49.265625 0.734375 44.1875 -0.34375 
Q 39.109375 -1.421875 33.890625 -1.421875 
Q 20.796875 -1.421875 13.15625 6.1875 
Q 5.515625 13.8125 5.515625 26.8125 
Q 5.515625 40.234375 12.765625 48.109375 
Q 20.015625 56 32.328125 56 
Q 43.359375 56 49.78125 48.890625 
Q 56.203125 41.796875 56.203125 29.59375 
z
M 47.21875 32.234375 
Q 47.125 39.59375 43.09375 43.984375 
Q 39.0625 48.390625 32.421875 48.390625 
Q 24.90625 48.390625 20.390625 44.140625 
Q 15.875 39.890625 15.1875 32.171875 
z
" id="DejaVuSans-65"/>
     <path id="DejaVuSans-20"/>
     <path d="M 51.125 44 
L 36.921875 44 
L 32.8125 27.6875 
L 47.125 27.6875 
z
M 43.796875 71.78125 
L 38.71875 51.515625 
L 52.984375 51.515625 
L 58.109375 71.78125 
L 65.921875 71.78125 
L 60.890625 51.515625 
L 76.125 51.515625 
L 76.125 44 
L 58.984375 44 
L 54.984375 27.6875 
L 70.515625 27.6875 
L 70.515625 20.21875 
L 53.078125 20.21875 
L 48 0 
L 40.1875 0 
L 45.21875 20.21875 
L 30.90625 20.21875 
L 25.875 0 
L 18.015625 0 
L 23.09375 20.21875 
L 7.71875 20.21875 
L 7.71875 27.6875 
L 24.90625 27.6875 
L 29 44 
L 13.28125 44 
L 13.28125 51.515625 
L 30.90625 51.515625 
L 35.890625 71.78125 
z
" id="DejaVuSans-23"/>
     <path d="M 10.796875 72.90625 
L 49.515625 72.90625 
L 49.515625 64.59375 
L 19.828125 64.59375 
L 19.828125 46.734375 
Q 21.96875 47.46875 24.109375 47.828125 
Q 26.265625 48.1875 28.421875 48.1875 
Q 40.625 48.1875 47.75 41.5 
Q 54.890625 34.8125 54.890625 23.390625 
Q 54.890625 11.625 47.5625 5.09375 
Q 40.234375 -1.421875 26.90625 -1.421875 
Q 22.3125 -1.421875 17.546875 -0.640625 
Q 12.796875 0.140625 7.71875 1.703125 
L 7.71875 11.625 
Q 12.109375 9.234375 16.796875 8.0625 
Q 21.484375 6.890625 26.703125 6.890625 
Q 35.15625 6.890625 40.078125 11.328125 
Q 45.015625 15.765625 45.015625 23.390625 
Q 45.015625 31 40.078125 35.4375 
Q 35.15625 39.890625 26.703125 39.890625 
Q 22.75 39.890625 18.8125 39.015625 
Q 14.890625 38.140625 10.796875 36.28125 
z
" id="DejaVuSans-35"/>
     <path d="M 33.015625 40.375 
Q 26.375 40.375 22.484375 35.828125 
Q 18.609375 31.296875 18.609375 23.390625 
Q 18.609375 15.53125 22.484375 10.953125 
Q 26.375 6.390625 33.015625 6.390625 
Q 39.65625 6.390625 43.53125 10.953125 
Q 47.40625 15.53125 47.40625 23.390625 
Q 47.40625 31.296875 43.53125 35.828125 
Q 39.65625 40.375 33.015625 40.375 
z
M 52.59375 71.296875 
L 52.59375 62.3125 
Q 48.875 64.0625 45.09375 64.984375 
Q 41.3125 65.921875 37.59375 65.921875 
Q 27.828125 65.921875 22.671875 59.328125 
Q 17.53125 52.734375 16.796875 39.40625 
Q 19.671875 43.65625 24.015625 45.921875 
Q 28.375 48.1875 33.59375 48.1875 
Q 44.578125 48.1875 50.953125 41.515625 
Q 57.328125 34.859375 57.328125 23.390625 
Q 57.328125 12.15625 50.6875 5.359375 
Q 44.046875 -1.421875 33.015625 -1.421875 
Q 20.359375 -1.421875 13.671875 8.265625 
Q 6.984375 17.96875 6.984375 36.375 
Q 6.984375 53.65625 15.1875 63.9375 
Q 23.390625 74.21875 37.203125 74.21875 
Q 40.921875 74.21875 44.703125 73.484375 
Q 48.484375 72.75 52.59375 71.296875 
z
" id="DejaVuSans-36"/>
     <path d="M 10.984375 1.515625 
L 10.984375 10.5 
Q 14.703125 8.734375 18.5 7.8125 
Q 22.3125 6.890625 25.984375 6.890625 
Q 35.75 6.890625 40.890625 13.453125 
Q 46.046875 20.015625 46.78125 33.40625 
Q 43.953125 29.203125 39.59375 26.953125 
Q 35.25 24.703125 29.984375 24.703125 
Q 19.046875 24.703125 12.671875 31.3125 
Q 6.296875 37.9375 6.296875 49.421875 
Q 6.296875 60.640625 12.9375 67.421875 
Q 19.578125 74.21875 30.609375 74.21875 
Q 43.265625 74.21875 49.921875 64.515625 
Q 56.59375 54.828125 56.59375 36.375 
Q 56.59375 19.140625 48.40625 8.859375 
Q 40.234375 -1.421875 26.421875 -1.421875 
Q 22.703125 -1.421875 18.890625 -0.6875 
Q 15.09375 0.046875 10.984375 1.515625 
z
M 30.609375 32.421875 
Q 37.25 32.421875 41.125 36.953125 
Q 45.015625 41.5 45.015625 49.421875 
Q 45.015625 57.28125 41.125 61.84375 
Q 37.25 66.40625 30.609375 66.40625 
Q 23.96875 66.40625 20.09375 61.84375 
Q 16.21875 57.28125 16.21875 49.421875 
Q 16.21875 41.5 20.09375 36.953125 
Q 23.96875 32.421875 30.609375 32.421875 
z
" id="DejaVuSans-39"/>
     <path d="M 11.71875 12.40625 
L 22.015625 12.40625 
L 22.015625 4 
L 14.015625 -11.625 
L 7.71875 -11.625 
L 11.71875 4 
z
" id="DejaVuSans-2c"/>
     <path d="M 16.890625 72.90625 
L 62.984375 72.90625 
L 61.375 64.59375 
L 25.09375 64.59375 
L 20.90625 43.015625 
L 55.71875 43.015625 
L 54.109375 34.71875 
L 19.28125 34.71875 
L 14.203125 8.296875 
L 51.3125 8.296875 
L 49.703125 0 
L 2.6875 0 
z
" id="DejaVuSans-Oblique-45"/>
     <path d="M 16.890625 72.90625 
L 30.171875 72.90625 
L 50.296875 10.40625 
L 62.5 72.90625 
L 72.125 72.90625 
L 57.90625 0 
L 44.578125 0 
L 24.515625 62.890625 
L 12.3125 0 
L 2.6875 0 
z
" id="DejaVuSans-Oblique-4e"/>
     <path d="M 10.59375 45.40625 
L 73.1875 45.40625 
L 73.1875 37.203125 
L 10.59375 37.203125 
z
M 10.59375 25.484375 
L 73.1875 25.484375 
L 73.1875 17.1875 
L 10.59375 17.1875 
z
" id="DejaVuSans-3d"/>
     <path d="M 4.890625 31.390625 
L 31.203125 31.390625 
L 31.203125 23.390625 
L 4.890625 23.390625 
z
" id="DejaVuSans-2d"/>
     <path d="M 12.40625 8.296875 
L 28.515625 8.296875 
L 28.515625 63.921875 
L 10.984375 60.40625 
L 10.984375 69.390625 
L 28.421875 72.90625 
L 38.28125 72.90625 
L 38.28125 8.296875 
L 54.390625 8.296875 
L 54.390625 0 
L 12.40625 0 
z
" id="DejaVuSans-31"/>
     <path d="M 8.203125 72.90625 
L 55.078125 72.90625 
L 55.078125 68.703125 
L 28.609375 0 
L 18.3125 0 
L 43.21875 64.59375 
L 8.203125 64.59375 
z
" id="DejaVuSans-37"/>
     <path d="M 10.6875 12.40625 
L 21 12.40625 
L 21 0 
L 10.6875 0 
z
" id="DejaVuSans-2e"/>
     <path d="M 37.796875 64.3125 
L 12.890625 25.390625 
L 37.796875 25.390625 
z
M 35.203125 72.90625 
L 47.609375 72.90625 
L 47.609375 25.390625 
L 58.015625 25.390625 
L 58.015625 17.1875 
L 47.609375 17.1875 
L 47.609375 0 
L 37.796875 0 
L 37.796875 17.1875 
L 4.890625 17.1875 
L 4.890625 26.703125 
z
" id="DejaVuSans-34"/>
     <path d="M 28.609375 0 
L 0.78125 72.90625 
L 11.078125 72.90625 
L 34.1875 11.53125 
L 57.328125 72.90625 
L 67.578125 72.90625 
L 39.796875 0 
z
" id="DejaVuSans-56"/>
     <path d="M 34.1875 63.1875 
L 14.15625 8.203125 
L 54.25 8.203125 
z
M 0.78125 0 
L 28.609375 72.90625 
L 39.796875 72.90625 
L 67.578125 0 
z
" id="DejaVuSans-394"/>
     <path d="M 9.8125 72.90625 
L 55.90625 72.90625 
L 55.90625 64.59375 
L 19.671875 64.59375 
L 19.671875 43.015625 
L 54.390625 43.015625 
L 54.390625 34.71875 
L 19.671875 34.71875 
L 19.671875 8.296875 
L 56.78125 8.296875 
L 56.78125 0 
L 9.8125 0 
z
" id="DejaVuSans-45"/>
     <path d="M 31.78125 66.40625 
Q 24.171875 66.40625 20.328125 58.90625 
Q 16.5 51.421875 16.5 36.375 
Q 16.5 21.390625 20.328125 13.890625 
Q 24.171875 6.390625 31.78125 6.390625 
Q 39.453125 6.390625 43.28125 13.890625 
Q 47.125 21.390625 47.125 36.375 
Q 47.125 51.421875 43.28125 58.90625 
Q 39.453125 66.40625 31.78125 66.40625 
z
M 31.78125 74.21875 
Q 44.046875 74.21875 50.515625 64.515625 
Q 56.984375 54.828125 56.984375 36.375 
Q 56.984375 17.96875 50.515625 8.265625 
Q 44.046875 -1.421875 31.78125 -1.421875 
Q 19.53125 -1.421875 13.0625 8.265625 
Q 6.59375 17.96875 6.59375 36.375 
Q 6.59375 54.828125 13.0625 64.515625 
Q 19.53125 74.21875 31.78125 74.21875 
z
" id="DejaVuSans-30"/>
    </defs>
    <g transform="translate(65.388 35.472)scale(0.12 -0.12)">
     <use transform="translate(0 0.78125)" xlink:href="#DejaVuSans-53"/>
     <use transform="translate(63.476562 0.78125)" xlink:href="#DejaVuSans-74"/>
     <use transform="translate(102.685547 0.78125)" xlink:href="#DejaVuSans-72"/>
     <use transform="translate(143.798828 0.78125)" xlink:href="#DejaVuSans-75"/>
     <use transform="translate(207.177734 0.78125)" xlink:href="#DejaVuSans-63"/>
     <use transform="translate(262.158203 0.78125)" xlink:href="#DejaVuSans-74"/>
     <use transform="translate(301.367188 0.78125)" xlink:href="#DejaVuSans-75"/>
     <use transform="translate(364.746094 0.78125)" xlink:href="#DejaVuSans-72"/>
     <use transform="translate(405.859375 0.78125)" xlink:href="#DejaVuSans-65"/>
     <use transform="translate(467.382812 0.78125)" xlink:href="#DejaVuSans-20"/>
     <use transform="translate(499.169922 0.78125)" xlink:href="#DejaVuSans-23"/>
     <use transform="translate(582.958984 0.78125)" xlink:href="#DejaVuSans-35"/>
     <use transform="translate(646.582031 0.78125)" xlink:href="#DejaVuSans-36"/>
     <use transform="translate(710.205078 0.78125)" xlink:href="#DejaVuSans-35"/>
     <use transform="translate(773.75 0.78125)" xlink:href="#DejaVuSans-39"/>
     <use transform="translate(837.373047 0.78125)" xlink:href="#DejaVuSans-2c"/>
     <use transform="translate(869.160156 0.78125)" xlink:href="#DejaVuSans-20"/>
     <use transform="translate(900.947266 0.78125)" xlink:href="#DejaVuSans-Oblique-45"/>
     <use transform="translate(964.130859 -15.625)scale(0.7)" xlink:href="#DejaVuSans-Oblique-4e"/>
     <use transform="translate(1019.228516 0.78125)" xlink:href="#DejaVuSans-3d"/>
     <use transform="translate(1103.017578 0.78125)" xlink:href="#DejaVuSans-2d"/>
     <use transform="translate(1139.101562 0.78125)" xlink:href="#DejaVuSans-31"/>
     <use transform="translate(1202.724609 0.78125)" xlink:href="#DejaVuSans-37"/>
     <use transform="translate(1266.347656 0.78125)" xlink:href="#DejaVuSans-39"/>
     <use transform="translate(1329.970703 0.78125)" xlink:href="#DejaVuSans-2e"/>
     <use transform="translate(1361.757812 0.78125)" xlink:href="#DejaVuSans-34"/>
     <use transform="translate(1425.380859 0.78125)" xlink:href="#DejaVuSans-31"/>
     <use transform="translate(1489.003906 0.78125)" xlink:href="#DejaVuSans-65"/>
     <use transform="translate(1550.527344 0.78125)" xlink:href="#DejaVuSans-56"/>
     <use transform="translate(1618.935547 0.78125)" xlink:href="#DejaVuSans-2c"/>
     <use transform="translate(1650.722656 0.78125)" xlink:href="#DejaVuSans-20"/>
     <use transform="translate(1682.509766 0.78125)" xlink:href="#DejaVuSans-394"/>
     <use transform="translate(1750.917969 0.78125)" xlink:href="#DejaVuSans-45"/>
     <use transform="translate(1814.101562 0.78125)" xlink:href="#DejaVuSans-3d"/>
     <use transform="translate(1897.890625 0.78125)" xlink:href="#DejaVuSans-30"/>
     <use transform="translate(1961.513672 0.78125)" xlink:href="#DejaVuSans-2e"/>
     <use transform="translate(1993.300781 0.78125)" xlink:href="#DejaVuSans-30"/>
     <use transform="translate(2056.923828 0.78125)" xlink:href="#DejaVuSans-30"/>
     <use transform="translate(2120.546875 0.78125)" xlink:href="#DejaVuSans-65"/>
     <use transform="translate(2182.070312 0.78125)" xlink:href="#DejaVuSans-56"/>
    </g>
   </g>
  </g>
  <g id="axes_2">
   <g id="patch_2">
    <path clip-path="url(#pa5d5fba0d8)" d="M 361.152 307.584 
L 361.152 306.5445 
L 361.152 42.5115 
L 361.152 41.472 
L 374.4576 41.472 
L 374.4576 42.5115 
L 374.4576 306.5445 
L 374.4576 307.584 
z
" style="fill:#ffffff;stroke:#ffffff;stroke-linejoin:miter;stroke-width:0.01;"/>
   </g>
   <image height="265.68" id="image7e538aff0b" transform="scale(1 -1)translate(0 -265.68)" width="12.96" x="361.44" xlink:href="data:image/png;base64,
iVBORw0KGgoAAAANSUhEUgAAABIAAAFxCAYAAAB+2fgXAAAABHNCSVQICAgIfAhkiAAAAeVJREFUeJztncmNw0AQA2ckheYQNv9QLIfQ8ygsCgQ7AEI8+jAs2Puz/94F1LP2ReCsZ18bAWIeZ5XaGRBE7VnbptG+KI101FYyNSiQG2oRITXKNaX9uclOdi2XWjftVE32CZCO2ou5Bj1TcCBr/1zB9ge7Fq0Rg2NM9pvbtG+ua1QgsRYhDy0ISEiNc40BEibbSI0Coj5CBGtkpFbXJiAjNZlrwhuSOv2M1DjXbEdEciBt1JSDDQKKpmZr2rr2j0DBGpXaWEJq3bQzEPIS26r9J+Wzv9Tm8o3aajRXqc3VUXsApKNWjeZq0x4ABVNbm7lrszVigDqP5vIl2+eaT2yfRkL7g+dRcNPqjohkjaCvRVBq0H2U3LQrOJCx9kdTg4B8oxZzzTdqdYHEngjUCAPyUctN9sVRq2sTECW2UKNLd2jVtRmo1A6AhMmWaSRcR8nUdIHUuVb75zJS218EyEitro1At69pIdeSk30Lkw0FktNImGyZRhy1O5galmxd03LUsHWk06jUZiCq+5Wb1kZNN4+wJxJuWt8RAW5am2sYNZ9rYCBzZ3buPKJ2P5Yj4Toy3keyIyJbIxs1rml1byCA84gpch5RQNB7Q0qNMGq2Hy4BXdNR41yz/cEEJfZzUz96r9PoB0okjeQ8y9TkAAAAAElFTkSuQmCC" y="-41.76"/>
   <g id="matplotlib.axis_1"/>
   <g id="matplotlib.axis_2">
    <g id="ytick_1">
     <g id="line2d_1">
      <defs>
       <path d="M 0 0 
L 3.5 0 
" id="m9a4383c2bf" style="stroke:#000000;stroke-width:0.8;"/>
      </defs>
      <g>
       <use style="stroke:#000000;stroke-width:0.8;" x="374.4576" xlink:href="#m9a4383c2bf" y="274.166066"/>
      </g>
     </g>
     <g id="text_2">
      <!-- −7.5 -->
      <defs>
       <path d="M 10.59375 35.5 
L 73.1875 35.5 
L 73.1875 27.203125 
L 10.59375 27.203125 
z
" id="DejaVuSans-2212"/>
      </defs>
      <g transform="translate(381.4576 277.965285)scale(0.1 -0.1)">
       <use xlink:href="#DejaVuSans-2212"/>
       <use x="83.789062" xlink:href="#DejaVuSans-37"/>
       <use x="147.412109" xlink:href="#DejaVuSans-2e"/>
       <use x="179.199219" xlink:href="#DejaVuSans-35"/>
      </g>
     </g>
    </g>
    <g id="ytick_2">
     <g id="line2d_2">
      <g>
       <use style="stroke:#000000;stroke-width:0.8;" x="374.4576" xlink:href="#m9a4383c2bf" y="227.543993"/>
      </g>
     </g>
     <g id="text_3">
      <!-- −7.0 -->
      <g transform="translate(381.4576 231.343212)scale(0.1 -0.1)">
       <use xlink:href="#DejaVuSans-2212"/>
       <use x="83.789062" xlink:href="#DejaVuSans-37"/>
       <use x="147.412109" xlink:href="#DejaVuSans-2e"/>
       <use x="179.199219" xlink:href="#DejaVuSans-30"/>
      </g>
     </g>
    </g>
    <g id="ytick_3">
     <g id="line2d_3">
      <g>
       <use style="stroke:#000000;stroke-width:0.8;" x="374.4576" xlink:href="#m9a4383c2bf" y="180.92192"/>
      </g>
     </g>
     <g id="text_4">
      <!-- −6.5 -->
      <g transform="translate(381.4576 184.721138)scale(0.1 -0.1)">
       <use xlink:href="#DejaVuSans-2212"/>
       <use x="83.789062" xlink:href="#DejaVuSans-36"/>
       <use x="147.412109" xlink:href="#DejaVuSans-2e"/>
       <use x="179.199219" xlink:href="#DejaVuSans-35"/>
      </g>
     </g>
    </g>
    <g id="ytick_4">
     <g id="line2d_4">
      <g>
       <use style="stroke:#000000;stroke-width:0.8;" x="374.4576" xlink:href="#m9a4383c2bf" y="134.299846"/>
      </g>
     </g>
     <g id="text_5">
      <!-- −6.0 -->
      <g transform="translate(381.4576 138.099065)scale(0.1 -0.1)">
       <use xlink:href="#DejaVuSans-2212"/>
       <use x="83.789062" xlink:href="#DejaVuSans-36"/>
       <use x="147.412109" xlink:href="#DejaVuSans-2e"/>
       <use x="179.199219" xlink:href="#DejaVuSans-30"/>
      </g>
     </g>
    </g>
    <g id="ytick_5">
     <g id="line2d_5">
      <g>
       <use style="stroke:#000000;stroke-width:0.8;" x="374.4576" xlink:href="#m9a4383c2bf" y="87.677773"/>
      </g>
     </g>
     <g id="text_6">
      <!-- −5.5 -->
      <g transform="translate(381.4576 91.476992)scale(0.1 -0.1)">
       <use xlink:href="#DejaVuSans-2212"/>
       <use x="83.789062" xlink:href="#DejaVuSans-35"/>
       <use x="147.412109" xlink:href="#DejaVuSans-2e"/>
       <use x="179.199219" xlink:href="#DejaVuSans-35"/>
      </g>
     </g>
    </g>
    <g id="text_7">
     <!-- Energy [eV] -->
     <defs>
      <path d="M 54.890625 33.015625 
L 54.890625 0 
L 45.90625 0 
L 45.90625 32.71875 
Q 45.90625 40.484375 42.875 44.328125 
Q 39.84375 48.1875 33.796875 48.1875 
Q 26.515625 48.1875 22.3125 43.546875 
Q 18.109375 38.921875 18.109375 30.90625 
L 18.109375 0 
L 9.078125 0 
L 9.078125 54.6875 
L 18.109375 54.6875 
L 18.109375 46.1875 
Q 21.34375 51.125 25.703125 53.5625 
Q 30.078125 56 35.796875 56 
Q 45.21875 56 50.046875 50.171875 
Q 54.890625 44.34375 54.890625 33.015625 
z
" id="DejaVuSans-6e"/>
      <path d="M 45.40625 27.984375 
Q 45.40625 37.75 41.375 43.109375 
Q 37.359375 48.484375 30.078125 48.484375 
Q 22.859375 48.484375 18.828125 43.109375 
Q 14.796875 37.75 14.796875 27.984375 
Q 14.796875 18.265625 18.828125 12.890625 
Q 22.859375 7.515625 30.078125 7.515625 
Q 37.359375 7.515625 41.375 12.890625 
Q 45.40625 18.265625 45.40625 27.984375 
z
M 54.390625 6.78125 
Q 54.390625 -7.171875 48.1875 -13.984375 
Q 42 -20.796875 29.203125 -20.796875 
Q 24.46875 -20.796875 20.265625 -20.09375 
Q 16.0625 -19.390625 12.109375 -17.921875 
L 12.109375 -9.1875 
Q 16.0625 -11.328125 19.921875 -12.34375 
Q 23.78125 -13.375 27.78125 -13.375 
Q 36.625 -13.375 41.015625 -8.765625 
Q 45.40625 -4.15625 45.40625 5.171875 
L 45.40625 9.625 
Q 42.625 4.78125 38.28125 2.390625 
Q 33.9375 0 27.875 0 
Q 17.828125 0 11.671875 7.65625 
Q 5.515625 15.328125 5.515625 27.984375 
Q 5.515625 40.671875 11.671875 48.328125 
Q 17.828125 56 27.875 56 
Q 33.9375 56 38.28125 53.609375 
Q 42.625 51.21875 45.40625 46.390625 
L 45.40625 54.6875 
L 54.390625 54.6875 
z
" id="DejaVuSans-67"/>
      <path d="M 32.171875 -5.078125 
Q 28.375 -14.84375 24.75 -17.8125 
Q 21.140625 -20.796875 15.09375 -20.796875 
L 7.90625 -20.796875 
L 7.90625 -13.28125 
L 13.1875 -13.28125 
Q 16.890625 -13.28125 18.9375 -11.515625 
Q 21 -9.765625 23.484375 -3.21875 
L 25.09375 0.875 
L 2.984375 54.6875 
L 12.5 54.6875 
L 29.59375 11.921875 
L 46.6875 54.6875 
L 56.203125 54.6875 
z
" id="DejaVuSans-79"/>
      <path d="M 8.59375 75.984375 
L 29.296875 75.984375 
L 29.296875 69 
L 17.578125 69 
L 17.578125 -6.203125 
L 29.296875 -6.203125 
L 29.296875 -13.1875 
L 8.59375 -13.1875 
z
" id="DejaVuSans-5b"/>
      <path d="M 30.421875 75.984375 
L 30.421875 -13.1875 
L 9.71875 -13.1875 
L 9.71875 -6.203125 
L 21.390625 -6.203125 
L 21.390625 69 
L 9.71875 69 
L 9.71875 75.984375 
z
" id="DejaVuSans-5d"/>
     </defs>
     <g transform="translate(417.33885 204.108469)rotate(-90)scale(0.1 -0.1)">
      <use xlink:href="#DejaVuSans-45"/>
      <use x="63.183594" xlink:href="#DejaVuSans-6e"/>
      <use x="126.5625" xlink:href="#DejaVuSans-65"/>
      <use x="188.085938" xlink:href="#DejaVuSans-72"/>
      <use x="229.183594" xlink:href="#DejaVuSans-67"/>
      <use x="292.660156" xlink:href="#DejaVuSans-79"/>
      <use x="351.839844" xlink:href="#DejaVuSans-20"/>
      <use x="383.626953" xlink:href="#DejaVuSans-5b"/>
      <use x="422.640625" xlink:href="#DejaVuSans-65"/>
      <use x="484.164062" xlink:href="#DejaVuSans-56"/>
      <use x="552.572266" xlink:href="#DejaVuSans-5d"/>
     </g>
    </g>
   </g>
   <g id="patch_3">
    <path d="M 361.152 307.584 
L 361.152 306.5445 
L 361.152 42.5115 
L 361.152 41.472 
L 374.4576 41.472 
L 374.4576 42.5115 
L 374.4576 306.5445 
L 374.4576 307.584 
z
" style="fill:none;stroke:#000000;stroke-linejoin:miter;stroke-width:0.8;"/>
   </g>
  </g>
 </g>
 <defs>
  <clipPath id="p284faee014">
   <rect height="266.112" width="285.696" x="57.6" y="41.472"/>
  </clipPath>
  <clipPath id="pa5d5fba0d8">
   <rect height="266.112" width="13.3056" x="361.152" y="41.472"/>
  </clipPath>
 </defs>
</svg>
