<?xml version="1.0" encoding="utf-8" standalone="no"?>
<!DOCTYPE svg PUBLIC "-//W3C//DTD SVG 1.1//EN"
  "http://www.w3.org/Graphics/SVG/1.1/DTD/svg11.dtd">
<!-- Created with matplotlib (http://matplotlib.org/) -->
<svg height="345.6pt" version="1.1" viewBox="0 0 460.8 345.6" width="460.8pt" xmlns="http://www.w3.org/2000/svg" xmlns:xlink="http://www.w3.org/1999/xlink">
 <defs>
  <style type="text/css">
*{stroke-linecap:butt;stroke-linejoin:round;}
  </style>
 </defs>
 <g id="figure_1">
  <g id="patch_1">
   <path d="M 0 345.6 
L 460.8 345.6 
L 460.8 0 
L 0 0 
z
" style="fill:#ffffff;"/>
  </g>
  <g id="axes_1">
   <g id="CircleCollection_1">
    <path clip-path="url(#p1e459bd543)" d="M 163.106678 257.755027 
C 164.897047 257.755027 166.614328 257.043706 167.880311 255.777723 
C 169.146293 254.511741 169.857614 252.79446 169.857614 251.004091 
C 169.857614 249.213722 169.146293 247.49644 167.880311 246.230458 
C 166.614328 244.964476 164.897047 244.253155 163.106678 244.253155 
C 161.316309 244.253155 159.599028 244.964476 158.333045 246.230458 
C 157.067063 247.49644 156.355742 249.213722 156.355742 251.004091 
C 156.355742 252.79446 157.067063 254.511741 158.333045 255.777723 
C 159.599028 257.043706 161.316309 257.755027 163.106678 257.755027 
z
" style="fill:#440154;"/>
    <path clip-path="url(#p1e459bd543)" d="M 182.227187 212.622162 
C 184.066331 212.622162 185.830395 211.891462 187.130866 210.590991 
C 188.431337 209.29052 189.162037 207.526455 189.162037 205.687311 
C 189.162037 203.848168 188.431337 202.084103 187.130866 200.783632 
C 185.830395 199.483161 184.066331 198.752461 182.227187 198.752461 
C 180.388043 198.752461 178.623978 199.483161 177.323507 200.783632 
C 176.023036 202.084103 175.292337 203.848168 175.292337 205.687311 
C 175.292337 207.526455 176.023036 209.29052 177.323507 210.590991 
C 178.623978 211.891462 180.388043 212.622162 182.227187 212.622162 
z
" style="fill:#39558c;"/>
    <path clip-path="url(#p1e459bd543)" d="M 166.189477 159.331669 
C 168.044834 159.331669 169.82445 158.594528 171.136386 157.282592 
C 172.448321 155.970657 173.185462 154.191041 173.185462 152.335684 
C 173.185462 150.480327 172.448321 148.700711 171.136386 147.388775 
C 169.82445 146.07684 168.044834 145.339699 166.189477 145.339699 
C 164.33412 145.339699 162.554504 146.07684 161.242569 147.388775 
C 159.930633 148.700711 159.193492 150.480327 159.193492 152.335684 
C 159.193492 154.191041 159.930633 155.970657 161.242569 157.282592 
C 162.554504 158.594528 164.33412 159.331669 166.189477 159.331669 
z
" style="fill:#2c718e;"/>
    <path clip-path="url(#p1e459bd543)" d="M 107.900481 126.900448 
C 109.654428 126.900448 111.336775 126.203598 112.577003 124.963369 
C 113.817231 123.723141 114.514082 122.040795 114.514082 120.286847 
C 114.514082 118.532899 113.817231 116.850553 112.577003 115.610325 
C 111.336775 114.370096 109.654428 113.673246 107.900481 113.673246 
C 106.146533 113.673246 104.464186 114.370096 103.223958 115.610325 
C 101.98373 116.850553 101.286879 118.532899 101.286879 120.286847 
C 101.286879 122.040795 101.98373 123.723141 103.223958 124.963369 
C 104.464186 126.203598 106.146533 126.900448 107.900481 126.900448 
z
" style="fill:#38598c;"/>
    <path clip-path="url(#p1e459bd543)" d="M 239.432774 297.026647 
C 241.208539 297.026647 242.911812 296.321128 244.167467 295.065473 
C 245.423123 293.809817 246.128641 292.106544 246.128641 290.330779 
C 246.128641 288.555015 245.423123 286.851741 244.167467 285.596086 
C 242.911812 284.340431 241.208539 283.634912 239.432774 283.634912 
C 237.657009 283.634912 235.953736 284.340431 234.698081 285.596086 
C 233.442426 286.851741 232.736907 288.555015 232.736907 290.330779 
C 232.736907 292.106544 233.442426 293.809817 234.698081 295.065473 
C 235.953736 296.321128 237.657009 297.026647 239.432774 297.026647 
z
" style="fill:#31678e;"/>
    <path clip-path="url(#p1e459bd543)" d="M 232.546121 210.59583 
C 234.39563 210.59583 236.169636 209.861012 237.477436 208.553212 
C 238.785236 207.245413 239.520053 205.471406 239.520053 203.621898 
C 239.520053 201.77239 238.785236 199.998384 237.477436 198.690584 
C 236.169636 197.382784 234.39563 196.647966 232.546121 196.647966 
C 230.696613 196.647966 228.922607 197.382784 227.614807 198.690584 
C 226.307007 199.998384 225.57219 201.77239 225.57219 203.621898 
C 225.57219 205.471406 226.307007 207.245413 227.614807 208.553212 
C 228.922607 209.861012 230.696613 210.59583 232.546121 210.59583 
z
" style="fill:#482878;"/>
    <path clip-path="url(#p1e459bd543)" d="M 313.077487 93.341497 
C 314.807453 93.341497 316.466797 92.654174 317.690068 91.430903 
C 318.913339 90.207633 319.600661 88.548289 319.600661 86.818323 
C 319.600661 85.088357 318.913339 83.429013 317.690068 82.205742 
C 316.466797 80.982471 314.807453 80.295149 313.077487 80.295149 
C 311.347521 80.295149 309.688177 80.982471 308.464907 82.205742 
C 307.241636 83.429013 306.554313 85.088357 306.554313 86.818323 
C 306.554313 88.548289 307.241636 90.207633 308.464907 91.430903 
C 309.688177 92.654174 311.347521 93.341497 313.077487 93.341497 
z
" style="fill:#f1e51d;"/>
    <path clip-path="url(#p1e459bd543)" d="M 247.073026 154.250407 
C 248.931692 154.250407 250.714483 153.51195 252.028759 152.197675 
C 253.343034 150.883399 254.08149 149.100608 254.08149 147.241942 
C 254.08149 145.383275 253.343034 143.600485 252.028759 142.286209 
C 250.714483 140.971933 248.931692 140.233477 247.073026 140.233477 
C 245.214359 140.233477 243.431568 140.971933 242.117293 142.286209 
C 240.803017 143.600485 240.064561 145.383275 240.064561 147.241942 
C 240.064561 149.100608 240.803017 150.883399 242.117293 152.197675 
C 243.431568 153.51195 245.214359 154.250407 247.073026 154.250407 
z
" style="fill:#482979;"/>
    <path clip-path="url(#p1e459bd543)" d="M 221.692636 60.905671 
C 223.449021 60.905671 225.133705 60.207852 226.375656 58.9659 
C 227.617608 57.723949 228.315427 56.039264 228.315427 54.28288 
C 228.315427 52.526495 227.617608 50.841811 226.375656 49.599859 
C 225.133705 48.357908 223.449021 47.660089 221.692636 47.660089 
C 219.936251 47.660089 218.251567 48.357908 217.009616 49.599859 
C 215.767664 50.841811 215.069845 52.526495 215.069845 54.28288 
C 215.069845 56.039264 215.767664 57.723949 217.009616 58.9659 
C 218.251567 60.207852 219.936251 60.905671 221.692636 60.905671 
z
" style="fill:#95d840;"/>
    <path clip-path="url(#p1e459bd543)" d="M 194.100463 301.454502 
C 195.874267 301.454502 197.575658 300.749763 198.829927 299.495494 
C 200.084195 298.241226 200.788935 296.539834 200.788935 294.766031 
C 200.788935 292.992227 200.084195 291.290835 198.829927 290.036567 
C 197.575658 288.782298 195.874267 288.077559 194.100463 288.077559 
C 192.32666 288.077559 190.625268 288.782298 189.370999 290.036567 
C 188.116731 291.290835 187.411991 292.992227 187.411991 294.766031 
C 187.411991 296.539834 188.116731 298.241226 189.370999 299.495494 
C 190.625268 300.749763 192.32666 301.454502 194.100463 301.454502 
z
" style="fill:#a2da37;"/>
    <path clip-path="url(#p1e459bd543)" d="M 96.682408 206.948062 
C 98.405968 206.948062 100.059167 206.263285 101.277908 205.044544 
C 102.496648 203.825803 103.181426 202.172604 103.181426 200.449044 
C 103.181426 198.725484 102.496648 197.072285 101.277908 195.853544 
C 100.059167 194.634803 98.405968 193.950026 96.682408 193.950026 
C 94.958848 193.950026 93.305649 194.634803 92.086908 195.853544 
C 90.868167 197.072285 90.18339 198.725484 90.18339 200.449044 
C 90.18339 202.172604 90.868167 203.825803 92.086908 205.044544 
C 93.305649 206.263285 94.958848 206.948062 96.682408 206.948062 
z
" style="fill:#355e8d;"/>
    <path clip-path="url(#p1e459bd543)" d="M 122.60187 247.501909 
C 124.348503 247.501909 126.023833 246.807964 127.258889 245.572908 
C 128.493945 244.337852 129.18789 242.662522 129.18789 240.915889 
C 129.18789 239.169256 128.493945 237.493925 127.258889 236.258869 
C 126.023833 235.023813 124.348503 234.329868 122.60187 234.329868 
C 120.855237 234.329868 119.179906 235.023813 117.94485 236.258869 
C 116.709794 237.493925 116.015849 239.169256 116.015849 240.915889 
C 116.015849 242.662522 116.709794 244.337852 117.94485 245.572908 
C 119.179906 246.807964 120.855237 247.501909 122.60187 247.501909 
z
" style="fill:#4ac16d;"/>
    <path clip-path="url(#p1e459bd543)" d="M 190.164041 84.123617 
C 191.975956 84.123617 193.713903 83.403735 194.99512 82.122518 
C 196.276338 80.841301 196.996219 79.103353 196.996219 77.291438 
C 196.996219 75.479523 196.276338 73.741576 194.99512 72.460358 
C 193.713903 71.179141 191.975956 70.459259 190.164041 70.459259 
C 188.352126 70.459259 186.614178 71.179141 185.332961 72.460358 
C 184.051743 73.741576 183.331862 75.479523 183.331862 77.291438 
C 183.331862 79.103353 184.051743 80.841301 185.332961 82.122518 
C 186.614178 83.403735 188.352126 84.123617 190.164041 84.123617 
z
" style="fill:#34608d;"/>
    <path clip-path="url(#p1e459bd543)" d="M 258.765458 246.206382 
C 260.571346 246.206382 262.303514 245.488895 263.58047 244.211939 
C 264.857426 242.934983 265.574913 241.202815 265.574913 239.396927 
C 265.574913 237.591038 264.857426 235.85887 263.58047 234.581914 
C 262.303514 233.304958 260.571346 232.587471 258.765458 232.587471 
C 256.959569 232.587471 255.227401 233.304958 253.950445 234.581914 
C 252.673489 235.85887 251.956002 237.591038 251.956002 239.396927 
C 251.956002 241.202815 252.673489 242.934983 253.950445 244.211939 
C 255.227401 245.488895 256.959569 246.206382 258.765458 246.206382 
z
" style="fill:#2f6b8e;"/>
    <path clip-path="url(#p1e459bd543)" d="M 289.188641 301.255417 
C 290.949706 301.255417 292.63888 300.555739 293.884141 299.310477 
C 295.129402 298.065216 295.829081 296.376042 295.829081 294.614977 
C 295.829081 292.853912 295.129402 291.164738 293.884141 289.919477 
C 292.63888 288.674216 290.949706 287.974537 289.188641 287.974537 
C 287.427576 287.974537 285.738402 288.674216 284.493141 289.919477 
C 283.247879 291.164738 282.548201 292.853912 282.548201 294.614977 
C 282.548201 296.376042 283.247879 298.065216 284.493141 299.310477 
C 285.738402 300.555739 287.427576 301.255417 289.188641 301.255417 
z
" style="fill:#dae319;"/>
    <path clip-path="url(#p1e459bd543)" d="M 313.834779 151.570344 
C 315.58063 151.570344 317.25521 150.87671 318.489713 149.642207 
C 319.724216 148.407704 320.41785 146.733124 320.41785 144.987273 
C 320.41785 143.241422 319.724216 141.566842 318.489713 140.332339 
C 317.25521 139.097836 315.58063 138.404202 313.834779 138.404202 
C 312.088928 138.404202 310.414348 139.097836 309.179845 140.332339 
C 307.945342 141.566842 307.251708 143.241422 307.251708 144.987273 
C 307.251708 146.733124 307.945342 148.407704 309.179845 149.642207 
C 310.414348 150.87671 312.088928 151.570344 313.834779 151.570344 
z
" style="fill:#38598c;"/>
    <path clip-path="url(#p1e459bd543)" d="M 145.71424 114.898546 
C 147.521227 114.898546 149.254447 114.180622 150.532179 112.90289 
C 151.809912 111.625158 152.527835 109.891937 152.527835 108.084951 
C 152.527835 106.277964 151.809912 104.544744 150.532179 103.267012 
C 149.254447 101.989279 147.521227 101.271356 145.71424 101.271356 
C 143.907254 101.271356 142.174034 101.989279 140.896301 103.267012 
C 139.618569 104.544744 138.900645 106.277964 138.900645 108.084951 
C 138.900645 109.891937 139.618569 111.625158 140.896301 112.90289 
C 142.174034 114.180622 143.907254 114.898546 145.71424 114.898546 
z
" style="fill:#2c718e;"/>
    <path clip-path="url(#p1e459bd543)" d="M 264.688433 82.762475 
C 266.442174 82.762475 268.124323 82.065706 269.364405 80.825624 
C 270.604487 79.585542 271.301256 77.903393 271.301256 76.149652 
C 271.301256 74.395911 270.604487 72.713763 269.364405 71.473681 
C 268.124323 70.233599 266.442174 69.53683 264.688433 69.53683 
C 262.934692 69.53683 261.252544 70.233599 260.012462 71.473681 
C 258.77238 72.713763 258.075611 74.395911 258.075611 76.149652 
C 258.075611 77.903393 258.77238 79.585542 260.012462 80.825624 
C 261.252544 82.065706 262.934692 82.762475 264.688433 82.762475 
z
" style="fill:#33628d;"/>
    <path clip-path="url(#p1e459bd543)" d="M 71.046113 163.596373 
C 72.813965 163.596373 74.509647 162.893998 75.759707 161.643939 
C 77.009767 160.393879 77.712142 158.698196 77.712142 156.930344 
C 77.712142 155.162493 77.009767 153.46681 75.759707 152.21675 
C 74.509647 150.96669 72.813965 150.264315 71.046113 150.264315 
C 69.278261 150.264315 67.582578 150.96669 66.332519 152.21675 
C 65.082459 153.46681 64.380084 155.162493 64.380084 156.930344 
C 64.380084 158.698196 65.082459 160.393879 66.332519 161.643939 
C 67.582578 162.893998 69.278261 163.596373 71.046113 163.596373 
z
" style="fill:#f1e51d;"/>
    <path clip-path="url(#p1e459bd543)" d="M 329.856857 202.84363 
C 331.597917 202.84363 333.267902 202.1519 334.499017 200.920785 
C 335.730133 199.689669 336.421863 198.019685 336.421863 196.278625 
C 336.421863 194.537565 335.730133 192.86758 334.499017 191.636464 
C 333.267902 190.405349 331.597917 189.713619 329.856857 189.713619 
C 328.115797 189.713619 326.445812 190.405349 325.214697 191.636464 
C 323.983582 192.86758 323.291851 194.537565 323.291851 196.278625 
C 323.291851 198.019685 323.983582 199.689669 325.214697 200.920785 
C 326.445812 202.1519 328.115797 202.84363 329.856857 202.84363 
z
" style="fill:#6ece58;"/>
    <path clip-path="url(#p1e459bd543)" d="M 303.616396 246.401345 
C 305.379374 246.401345 307.070382 245.700907 308.316996 244.454293 
C 309.56361 243.207679 310.264048 241.516671 310.264048 239.753693 
C 310.264048 237.990715 309.56361 236.299707 308.316996 235.053093 
C 307.070382 233.80648 305.379374 233.106041 303.616396 233.106041 
C 301.853418 233.106041 300.16241 233.80648 298.915796 235.053093 
C 297.669182 236.299707 296.968744 237.990715 296.968744 239.753693 
C 296.968744 241.516671 297.669182 243.207679 298.915796 244.454293 
C 300.16241 245.700907 301.853418 246.401345 303.616396 246.401345 
z
" style="fill:#39558c;"/>
    <path clip-path="url(#p1e459bd543)" d="M 206.504924 125.318542 
C 208.373611 125.318542 210.166013 124.576105 211.487374 123.254744 
C 212.808736 121.933383 213.551173 120.140981 213.551173 118.272294 
C 213.551173 116.403607 212.808736 114.611205 211.487374 113.289843 
C 210.166013 111.968482 208.373611 111.226045 206.504924 111.226045 
C 204.636237 111.226045 202.843835 111.968482 201.522474 113.289843 
C 200.201113 114.611205 199.458675 116.403607 199.458675 118.272294 
C 199.458675 120.140981 200.201113 121.933383 201.522474 123.254744 
C 202.843835 124.576105 204.636237 125.318542 206.504924 125.318542 
z
" style="fill:#38598c;"/>
    <path clip-path="url(#p1e459bd543)" d="M 275.024872 133.417215 
C 276.820298 133.417215 278.54243 132.703884 279.811988 131.434326 
C 281.081545 130.164768 281.794876 128.442637 281.794876 126.647211 
C 281.794876 124.851785 281.081545 123.129653 279.811988 121.860095 
C 278.54243 120.590537 276.820298 119.877207 275.024872 119.877207 
C 273.229446 119.877207 271.507314 120.590537 270.237756 121.860095 
C 268.968198 123.129653 268.254868 124.851785 268.254868 126.647211 
C 268.254868 128.442637 268.968198 130.164768 270.237756 131.434326 
C 271.507314 132.703884 273.229446 133.417215 275.024872 133.417215 
z
" style="fill:#355f8d;"/>
    <path clip-path="url(#p1e459bd543)" d="M 114.580609 158.115453 
C 116.255205 158.115453 117.86144 157.450129 119.045558 156.266011 
C 120.229676 155.081892 120.895 153.475658 120.895 151.801062 
C 120.895 150.126466 120.229676 148.520231 119.045558 147.336113 
C 117.86144 146.151995 116.255205 145.48667 114.580609 145.48667 
C 112.906013 145.48667 111.299778 146.151995 110.11566 147.336113 
C 108.931542 148.520231 108.266218 150.126466 108.266218 151.801062 
C 108.266218 153.475658 108.931542 155.081892 110.11566 156.266011 
C 111.299778 157.450129 112.906013 158.115453 114.580609 158.115453 
z
" style="fill:#fde725;"/>
   </g>
   <g id="text_1">
    <!-- Structure #7777, $E_N$=-178.05eV, ΔE=0.70eV -->
    <defs>
     <path d="M 53.515625 70.515625 
L 53.515625 60.890625 
Q 47.90625 63.578125 42.921875 64.890625 
Q 37.9375 66.21875 33.296875 66.21875 
Q 25.25 66.21875 20.875 63.09375 
Q 16.5 59.96875 16.5 54.203125 
Q 16.5 49.359375 19.40625 46.890625 
Q 22.3125 44.4375 30.421875 42.921875 
L 36.375 41.703125 
Q 47.40625 39.59375 52.65625 34.296875 
Q 57.90625 29 57.90625 20.125 
Q 57.90625 9.515625 50.796875 4.046875 
Q 43.703125 -1.421875 29.984375 -1.421875 
Q 24.8125 -1.421875 18.96875 -0.25 
Q 13.140625 0.921875 6.890625 3.21875 
L 6.890625 13.375 
Q 12.890625 10.015625 18.65625 8.296875 
Q 24.421875 6.59375 29.984375 6.59375 
Q 38.421875 6.59375 43.015625 9.90625 
Q 47.609375 13.234375 47.609375 19.390625 
Q 47.609375 24.75 44.3125 27.78125 
Q 41.015625 30.8125 33.5 32.328125 
L 27.484375 33.5 
Q 16.453125 35.6875 11.515625 40.375 
Q 6.59375 45.0625 6.59375 53.421875 
Q 6.59375 63.09375 13.40625 68.65625 
Q 20.21875 74.21875 32.171875 74.21875 
Q 37.3125 74.21875 42.625 73.28125 
Q 47.953125 72.359375 53.515625 70.515625 
z
" id="DejaVuSans-53"/>
     <path d="M 18.3125 70.21875 
L 18.3125 54.6875 
L 36.8125 54.6875 
L 36.8125 47.703125 
L 18.3125 47.703125 
L 18.3125 18.015625 
Q 18.3125 11.328125 20.140625 9.421875 
Q 21.96875 7.515625 27.59375 7.515625 
L 36.8125 7.515625 
L 36.8125 0 
L 27.59375 0 
Q 17.1875 0 13.234375 3.875 
Q 9.28125 7.765625 9.28125 18.015625 
L 9.28125 47.703125 
L 2.6875 47.703125 
L 2.6875 54.6875 
L 9.28125 54.6875 
L 9.28125 70.21875 
z
" id="DejaVuSans-74"/>
     <path d="M 41.109375 46.296875 
Q 39.59375 47.171875 37.8125 47.578125 
Q 36.03125 48 33.890625 48 
Q 26.265625 48 22.1875 43.046875 
Q 18.109375 38.09375 18.109375 28.8125 
L 18.109375 0 
L 9.078125 0 
L 9.078125 54.6875 
L 18.109375 54.6875 
L 18.109375 46.1875 
Q 20.953125 51.171875 25.484375 53.578125 
Q 30.03125 56 36.53125 56 
Q 37.453125 56 38.578125 55.875 
Q 39.703125 55.765625 41.0625 55.515625 
z
" id="DejaVuSans-72"/>
     <path d="M 8.5 21.578125 
L 8.5 54.6875 
L 17.484375 54.6875 
L 17.484375 21.921875 
Q 17.484375 14.15625 20.5 10.265625 
Q 23.53125 6.390625 29.59375 6.390625 
Q 36.859375 6.390625 41.078125 11.03125 
Q 45.3125 15.671875 45.3125 23.6875 
L 45.3125 54.6875 
L 54.296875 54.6875 
L 54.296875 0 
L 45.3125 0 
L 45.3125 8.40625 
Q 42.046875 3.421875 37.71875 1 
Q 33.40625 -1.421875 27.6875 -1.421875 
Q 18.265625 -1.421875 13.375 4.4375 
Q 8.5 10.296875 8.5 21.578125 
z
M 31.109375 56 
z
" id="DejaVuSans-75"/>
     <path d="M 48.78125 52.59375 
L 48.78125 44.1875 
Q 44.96875 46.296875 41.140625 47.34375 
Q 37.3125 48.390625 33.40625 48.390625 
Q 24.65625 48.390625 19.8125 42.84375 
Q 14.984375 37.3125 14.984375 27.296875 
Q 14.984375 17.28125 19.8125 11.734375 
Q 24.65625 6.203125 33.40625 6.203125 
Q 37.3125 6.203125 41.140625 7.25 
Q 44.96875 8.296875 48.78125 10.40625 
L 48.78125 2.09375 
Q 45.015625 0.34375 40.984375 -0.53125 
Q 36.96875 -1.421875 32.421875 -1.421875 
Q 20.0625 -1.421875 12.78125 6.34375 
Q 5.515625 14.109375 5.515625 27.296875 
Q 5.515625 40.671875 12.859375 48.328125 
Q 20.21875 56 33.015625 56 
Q 37.15625 56 41.109375 55.140625 
Q 45.0625 54.296875 48.78125 52.59375 
z
" id="DejaVuSans-63"/>
     <path d="M 56.203125 29.59375 
L 56.203125 25.203125 
L 14.890625 25.203125 
Q 15.484375 15.921875 20.484375 11.0625 
Q 25.484375 6.203125 34.421875 6.203125 
Q 39.59375 6.203125 44.453125 7.46875 
Q 49.3125 8.734375 54.109375 11.28125 
L 54.109375 2.78125 
Q 49.265625 0.734375 44.1875 -0.34375 
Q 39.109375 -1.421875 33.890625 -1.421875 
Q 20.796875 -1.421875 13.15625 6.1875 
Q 5.515625 13.8125 5.515625 26.8125 
Q 5.515625 40.234375 12.765625 48.109375 
Q 20.015625 56 32.328125 56 
Q 43.359375 56 49.78125 48.890625 
Q 56.203125 41.796875 56.203125 29.59375 
z
M 47.21875 32.234375 
Q 47.125 39.59375 43.09375 43.984375 
Q 39.0625 48.390625 32.421875 48.390625 
Q 24.90625 48.390625 20.390625 44.140625 
Q 15.875 39.890625 15.1875 32.171875 
z
" id="DejaVuSans-65"/>
     <path id="DejaVuSans-20"/>
     <path d="M 51.125 44 
L 36.921875 44 
L 32.8125 27.6875 
L 47.125 27.6875 
z
M 43.796875 71.78125 
L 38.71875 51.515625 
L 52.984375 51.515625 
L 58.109375 71.78125 
L 65.921875 71.78125 
L 60.890625 51.515625 
L 76.125 51.515625 
L 76.125 44 
L 58.984375 44 
L 54.984375 27.6875 
L 70.515625 27.6875 
L 70.515625 20.21875 
L 53.078125 20.21875 
L 48 0 
L 40.1875 0 
L 45.21875 20.21875 
L 30.90625 20.21875 
L 25.875 0 
L 18.015625 0 
L 23.09375 20.21875 
L 7.71875 20.21875 
L 7.71875 27.6875 
L 24.90625 27.6875 
L 29 44 
L 13.28125 44 
L 13.28125 51.515625 
L 30.90625 51.515625 
L 35.890625 71.78125 
z
" id="DejaVuSans-23"/>
     <path d="M 8.203125 72.90625 
L 55.078125 72.90625 
L 55.078125 68.703125 
L 28.609375 0 
L 18.3125 0 
L 43.21875 64.59375 
L 8.203125 64.59375 
z
" id="DejaVuSans-37"/>
     <path d="M 11.71875 12.40625 
L 22.015625 12.40625 
L 22.015625 4 
L 14.015625 -11.625 
L 7.71875 -11.625 
L 11.71875 4 
z
" id="DejaVuSans-2c"/>
     <path d="M 16.890625 72.90625 
L 62.984375 72.90625 
L 61.375 64.59375 
L 25.09375 64.59375 
L 20.90625 43.015625 
L 55.71875 43.015625 
L 54.109375 34.71875 
L 19.28125 34.71875 
L 14.203125 8.296875 
L 51.3125 8.296875 
L 49.703125 0 
L 2.6875 0 
z
" id="DejaVuSans-Oblique-45"/>
     <path d="M 16.890625 72.90625 
L 30.171875 72.90625 
L 50.296875 10.40625 
L 62.5 72.90625 
L 72.125 72.90625 
L 57.90625 0 
L 44.578125 0 
L 24.515625 62.890625 
L 12.3125 0 
L 2.6875 0 
z
" id="DejaVuSans-Oblique-4e"/>
     <path d="M 10.59375 45.40625 
L 73.1875 45.40625 
L 73.1875 37.203125 
L 10.59375 37.203125 
z
M 10.59375 25.484375 
L 73.1875 25.484375 
L 73.1875 17.1875 
L 10.59375 17.1875 
z
" id="DejaVuSans-3d"/>
     <path d="M 4.890625 31.390625 
L 31.203125 31.390625 
L 31.203125 23.390625 
L 4.890625 23.390625 
z
" id="DejaVuSans-2d"/>
     <path d="M 12.40625 8.296875 
L 28.515625 8.296875 
L 28.515625 63.921875 
L 10.984375 60.40625 
L 10.984375 69.390625 
L 28.421875 72.90625 
L 38.28125 72.90625 
L 38.28125 8.296875 
L 54.390625 8.296875 
L 54.390625 0 
L 12.40625 0 
z
" id="DejaVuSans-31"/>
     <path d="M 31.78125 34.625 
Q 24.75 34.625 20.71875 30.859375 
Q 16.703125 27.09375 16.703125 20.515625 
Q 16.703125 13.921875 20.71875 10.15625 
Q 24.75 6.390625 31.78125 6.390625 
Q 38.8125 6.390625 42.859375 10.171875 
Q 46.921875 13.96875 46.921875 20.515625 
Q 46.921875 27.09375 42.890625 30.859375 
Q 38.875 34.625 31.78125 34.625 
z
M 21.921875 38.8125 
Q 15.578125 40.375 12.03125 44.71875 
Q 8.5 49.078125 8.5 55.328125 
Q 8.5 64.0625 14.71875 69.140625 
Q 20.953125 74.21875 31.78125 74.21875 
Q 42.671875 74.21875 48.875 69.140625 
Q 55.078125 64.0625 55.078125 55.328125 
Q 55.078125 49.078125 51.53125 44.71875 
Q 48 40.375 41.703125 38.8125 
Q 48.828125 37.15625 52.796875 32.3125 
Q 56.78125 27.484375 56.78125 20.515625 
Q 56.78125 9.90625 50.3125 4.234375 
Q 43.84375 -1.421875 31.78125 -1.421875 
Q 19.734375 -1.421875 13.25 4.234375 
Q 6.78125 9.90625 6.78125 20.515625 
Q 6.78125 27.484375 10.78125 32.3125 
Q 14.796875 37.15625 21.921875 38.8125 
z
M 18.3125 54.390625 
Q 18.3125 48.734375 21.84375 45.5625 
Q 25.390625 42.390625 31.78125 42.390625 
Q 38.140625 42.390625 41.71875 45.5625 
Q 45.3125 48.734375 45.3125 54.390625 
Q 45.3125 60.0625 41.71875 63.234375 
Q 38.140625 66.40625 31.78125 66.40625 
Q 25.390625 66.40625 21.84375 63.234375 
Q 18.3125 60.0625 18.3125 54.390625 
z
" id="DejaVuSans-38"/>
     <path d="M 10.6875 12.40625 
L 21 12.40625 
L 21 0 
L 10.6875 0 
z
" id="DejaVuSans-2e"/>
     <path d="M 31.78125 66.40625 
Q 24.171875 66.40625 20.328125 58.90625 
Q 16.5 51.421875 16.5 36.375 
Q 16.5 21.390625 20.328125 13.890625 
Q 24.171875 6.390625 31.78125 6.390625 
Q 39.453125 6.390625 43.28125 13.890625 
Q 47.125 21.390625 47.125 36.375 
Q 47.125 51.421875 43.28125 58.90625 
Q 39.453125 66.40625 31.78125 66.40625 
z
M 31.78125 74.21875 
Q 44.046875 74.21875 50.515625 64.515625 
Q 56.984375 54.828125 56.984375 36.375 
Q 56.984375 17.96875 50.515625 8.265625 
Q 44.046875 -1.421875 31.78125 -1.421875 
Q 19.53125 -1.421875 13.0625 8.265625 
Q 6.59375 17.96875 6.59375 36.375 
Q 6.59375 54.828125 13.0625 64.515625 
Q 19.53125 74.21875 31.78125 74.21875 
z
" id="DejaVuSans-30"/>
     <path d="M 10.796875 72.90625 
L 49.515625 72.90625 
L 49.515625 64.59375 
L 19.828125 64.59375 
L 19.828125 46.734375 
Q 21.96875 47.46875 24.109375 47.828125 
Q 26.265625 48.1875 28.421875 48.1875 
Q 40.625 48.1875 47.75 41.5 
Q 54.890625 34.8125 54.890625 23.390625 
Q 54.890625 11.625 47.5625 5.09375 
Q 40.234375 -1.421875 26.90625 -1.421875 
Q 22.3125 -1.421875 17.546875 -0.640625 
Q 12.796875 0.140625 7.71875 1.703125 
L 7.71875 11.625 
Q 12.109375 9.234375 16.796875 8.0625 
Q 21.484375 6.890625 26.703125 6.890625 
Q 35.15625 6.890625 40.078125 11.328125 
Q 45.015625 15.765625 45.015625 23.390625 
Q 45.015625 31 40.078125 35.4375 
Q 35.15625 39.890625 26.703125 39.890625 
Q 22.75 39.890625 18.8125 39.015625 
Q 14.890625 38.140625 10.796875 36.28125 
z
" id="DejaVuSans-35"/>
     <path d="M 28.609375 0 
L 0.78125 72.90625 
L 11.078125 72.90625 
L 34.1875 11.53125 
L 57.328125 72.90625 
L 67.578125 72.90625 
L 39.796875 0 
z
" id="DejaVuSans-56"/>
     <path d="M 34.1875 63.1875 
L 14.15625 8.203125 
L 54.25 8.203125 
z
M 0.78125 0 
L 28.609375 72.90625 
L 39.796875 72.90625 
L 67.578125 0 
z
" id="DejaVuSans-394"/>
     <path d="M 9.8125 72.90625 
L 55.90625 72.90625 
L 55.90625 64.59375 
L 19.671875 64.59375 
L 19.671875 43.015625 
L 54.390625 43.015625 
L 54.390625 34.71875 
L 19.671875 34.71875 
L 19.671875 8.296875 
L 56.78125 8.296875 
L 56.78125 0 
L 9.8125 0 
z
" id="DejaVuSans-45"/>
    </defs>
    <g transform="translate(65.388 35.472)scale(0.12 -0.12)">
     <use transform="translate(0 0.78125)" xlink:href="#DejaVuSans-53"/>
     <use transform="translate(63.476562 0.78125)" xlink:href="#DejaVuSans-74"/>
     <use transform="translate(102.685547 0.78125)" xlink:href="#DejaVuSans-72"/>
     <use transform="translate(143.798828 0.78125)" xlink:href="#DejaVuSans-75"/>
     <use transform="translate(207.177734 0.78125)" xlink:href="#DejaVuSans-63"/>
     <use transform="translate(262.158203 0.78125)" xlink:href="#DejaVuSans-74"/>
     <use transform="translate(301.367188 0.78125)" xlink:href="#DejaVuSans-75"/>
     <use transform="translate(364.746094 0.78125)" xlink:href="#DejaVuSans-72"/>
     <use transform="translate(405.859375 0.78125)" xlink:href="#DejaVuSans-65"/>
     <use transform="translate(467.382812 0.78125)" xlink:href="#DejaVuSans-20"/>
     <use transform="translate(499.169922 0.78125)" xlink:href="#DejaVuSans-23"/>
     <use transform="translate(582.958984 0.78125)" xlink:href="#DejaVuSans-37"/>
     <use transform="translate(646.566406 0.78125)" xlink:href="#DejaVuSans-37"/>
     <use transform="translate(710.173828 0.78125)" xlink:href="#DejaVuSans-37"/>
     <use transform="translate(773.78125 0.78125)" xlink:href="#DejaVuSans-37"/>
     <use transform="translate(837.404297 0.78125)" xlink:href="#DejaVuSans-2c"/>
     <use transform="translate(869.191406 0.78125)" xlink:href="#DejaVuSans-20"/>
     <use transform="translate(900.978516 0.78125)" xlink:href="#DejaVuSans-Oblique-45"/>
     <use transform="translate(964.162109 -15.625)scale(0.7)" xlink:href="#DejaVuSans-Oblique-4e"/>
     <use transform="translate(1019.259766 0.78125)" xlink:href="#DejaVuSans-3d"/>
     <use transform="translate(1103.048828 0.78125)" xlink:href="#DejaVuSans-2d"/>
     <use transform="translate(1139.132812 0.78125)" xlink:href="#DejaVuSans-31"/>
     <use transform="translate(1202.755859 0.78125)" xlink:href="#DejaVuSans-37"/>
     <use transform="translate(1266.378906 0.78125)" xlink:href="#DejaVuSans-38"/>
     <use transform="translate(1330.001953 0.78125)" xlink:href="#DejaVuSans-2e"/>
     <use transform="translate(1361.789062 0.78125)" xlink:href="#DejaVuSans-30"/>
     <use transform="translate(1425.412109 0.78125)" xlink:href="#DejaVuSans-35"/>
     <use transform="translate(1489.035156 0.78125)" xlink:href="#DejaVuSans-65"/>
     <use transform="translate(1550.558594 0.78125)" xlink:href="#DejaVuSans-56"/>
     <use transform="translate(1618.966797 0.78125)" xlink:href="#DejaVuSans-2c"/>
     <use transform="translate(1650.753906 0.78125)" xlink:href="#DejaVuSans-20"/>
     <use transform="translate(1682.541016 0.78125)" xlink:href="#DejaVuSans-394"/>
     <use transform="translate(1750.949219 0.78125)" xlink:href="#DejaVuSans-45"/>
     <use transform="translate(1814.132812 0.78125)" xlink:href="#DejaVuSans-3d"/>
     <use transform="translate(1897.921875 0.78125)" xlink:href="#DejaVuSans-30"/>
     <use transform="translate(1961.544922 0.78125)" xlink:href="#DejaVuSans-2e"/>
     <use transform="translate(1993.222656 0.78125)" xlink:href="#DejaVuSans-37"/>
     <use transform="translate(2056.845703 0.78125)" xlink:href="#DejaVuSans-30"/>
     <use transform="translate(2120.46875 0.78125)" xlink:href="#DejaVuSans-65"/>
     <use transform="translate(2181.992188 0.78125)" xlink:href="#DejaVuSans-56"/>
    </g>
   </g>
  </g>
  <g id="axes_2">
   <g id="patch_2">
    <path clip-path="url(#p2677f7864a)" d="M 361.152 307.584 
L 361.152 306.5445 
L 361.152 42.5115 
L 361.152 41.472 
L 374.4576 41.472 
L 374.4576 42.5115 
L 374.4576 306.5445 
L 374.4576 307.584 
z
" style="fill:#ffffff;stroke:#ffffff;stroke-linejoin:miter;stroke-width:0.01;"/>
   </g>
   <image height="265.68" id="image6379645be5" transform="scale(1 -1)translate(0 -265.68)" width="12.96" x="361.44" xlink:href="data:image/png;base64,
iVBORw0KGgoAAAANSUhEUgAAABIAAAFxCAYAAAB+2fgXAAAABHNCSVQICAgIfAhkiAAAAeVJREFUeJztncmNw0AQA2ckheYQNv9QLIfQ8ygsCgQ7AEI8+jAs2Puz/94F1LP2ReCsZ18bAWIeZ5XaGRBE7VnbptG+KI101FYyNSiQG2oRITXKNaX9uclOdi2XWjftVE32CZCO2ou5Bj1TcCBr/1zB9ge7Fq0Rg2NM9pvbtG+ua1QgsRYhDy0ISEiNc40BEibbSI0Coj5CBGtkpFbXJiAjNZlrwhuSOv2M1DjXbEdEciBt1JSDDQKKpmZr2rr2j0DBGpXaWEJq3bQzEPIS26r9J+Wzv9Tm8o3aajRXqc3VUXsApKNWjeZq0x4ABVNbm7lrszVigDqP5vIl2+eaT2yfRkL7g+dRcNPqjohkjaCvRVBq0H2U3LQrOJCx9kdTg4B8oxZzzTdqdYHEngjUCAPyUctN9sVRq2sTECW2UKNLd2jVtRmo1A6AhMmWaSRcR8nUdIHUuVb75zJS218EyEitro1At69pIdeSk30Lkw0FktNImGyZRhy1O5galmxd03LUsHWk06jUZiCq+5Wb1kZNN4+wJxJuWt8RAW5am2sYNZ9rYCBzZ3buPKJ2P5Yj4Toy3keyIyJbIxs1rml1byCA84gpch5RQNB7Q0qNMGq2Hy4BXdNR41yz/cEEJfZzUz96r9PoB0okjeQ8y9TkAAAAAElFTkSuQmCC" y="-41.76"/>
   <g id="matplotlib.axis_1"/>
   <g id="matplotlib.axis_2">
    <g id="ytick_1">
     <g id="line2d_1">
      <defs>
       <path d="M 0 0 
L 3.5 0 
" id="m3b11f6f3e6" style="stroke:#000000;stroke-width:0.8;"/>
      </defs>
      <g>
       <use style="stroke:#000000;stroke-width:0.8;" x="374.4576" xlink:href="#m3b11f6f3e6" y="284.058529"/>
      </g>
     </g>
     <g id="text_2">
      <!-- −8.5 -->
      <defs>
       <path d="M 10.59375 35.5 
L 73.1875 35.5 
L 73.1875 27.203125 
L 10.59375 27.203125 
z
" id="DejaVuSans-2212"/>
      </defs>
      <g transform="translate(381.4576 287.857748)scale(0.1 -0.1)">
       <use xlink:href="#DejaVuSans-2212"/>
       <use x="83.789062" xlink:href="#DejaVuSans-38"/>
       <use x="147.412109" xlink:href="#DejaVuSans-2e"/>
       <use x="179.199219" xlink:href="#DejaVuSans-35"/>
      </g>
     </g>
    </g>
    <g id="ytick_2">
     <g id="line2d_2">
      <g>
       <use style="stroke:#000000;stroke-width:0.8;" x="374.4576" xlink:href="#m3b11f6f3e6" y="236.999329"/>
      </g>
     </g>
     <g id="text_3">
      <!-- −8.0 -->
      <g transform="translate(381.4576 240.798547)scale(0.1 -0.1)">
       <use xlink:href="#DejaVuSans-2212"/>
       <use x="83.789062" xlink:href="#DejaVuSans-38"/>
       <use x="147.412109" xlink:href="#DejaVuSans-2e"/>
       <use x="179.199219" xlink:href="#DejaVuSans-30"/>
      </g>
     </g>
    </g>
    <g id="ytick_3">
     <g id="line2d_3">
      <g>
       <use style="stroke:#000000;stroke-width:0.8;" x="374.4576" xlink:href="#m3b11f6f3e6" y="189.940129"/>
      </g>
     </g>
     <g id="text_4">
      <!-- −7.5 -->
      <g transform="translate(381.4576 193.739347)scale(0.1 -0.1)">
       <use xlink:href="#DejaVuSans-2212"/>
       <use x="83.789062" xlink:href="#DejaVuSans-37"/>
       <use x="147.412109" xlink:href="#DejaVuSans-2e"/>
       <use x="179.199219" xlink:href="#DejaVuSans-35"/>
      </g>
     </g>
    </g>
    <g id="ytick_4">
     <g id="line2d_4">
      <g>
       <use style="stroke:#000000;stroke-width:0.8;" x="374.4576" xlink:href="#m3b11f6f3e6" y="142.880928"/>
      </g>
     </g>
     <g id="text_5">
      <!-- −7.0 -->
      <g transform="translate(381.4576 146.680147)scale(0.1 -0.1)">
       <use xlink:href="#DejaVuSans-2212"/>
       <use x="83.789062" xlink:href="#DejaVuSans-37"/>
       <use x="147.412109" xlink:href="#DejaVuSans-2e"/>
       <use x="179.199219" xlink:href="#DejaVuSans-30"/>
      </g>
     </g>
    </g>
    <g id="ytick_5">
     <g id="line2d_5">
      <g>
       <use style="stroke:#000000;stroke-width:0.8;" x="374.4576" xlink:href="#m3b11f6f3e6" y="95.821728"/>
      </g>
     </g>
     <g id="text_6">
      <!-- −6.5 -->
      <defs>
       <path d="M 33.015625 40.375 
Q 26.375 40.375 22.484375 35.828125 
Q 18.609375 31.296875 18.609375 23.390625 
Q 18.609375 15.53125 22.484375 10.953125 
Q 26.375 6.390625 33.015625 6.390625 
Q 39.65625 6.390625 43.53125 10.953125 
Q 47.40625 15.53125 47.40625 23.390625 
Q 47.40625 31.296875 43.53125 35.828125 
Q 39.65625 40.375 33.015625 40.375 
z
M 52.59375 71.296875 
L 52.59375 62.3125 
Q 48.875 64.0625 45.09375 64.984375 
Q 41.3125 65.921875 37.59375 65.921875 
Q 27.828125 65.921875 22.671875 59.328125 
Q 17.53125 52.734375 16.796875 39.40625 
Q 19.671875 43.65625 24.015625 45.921875 
Q 28.375 48.1875 33.59375 48.1875 
Q 44.578125 48.1875 50.953125 41.515625 
Q 57.328125 34.859375 57.328125 23.390625 
Q 57.328125 12.15625 50.6875 5.359375 
Q 44.046875 -1.421875 33.015625 -1.421875 
Q 20.359375 -1.421875 13.671875 8.265625 
Q 6.984375 17.96875 6.984375 36.375 
Q 6.984375 53.65625 15.1875 63.9375 
Q 23.390625 74.21875 37.203125 74.21875 
Q 40.921875 74.21875 44.703125 73.484375 
Q 48.484375 72.75 52.59375 71.296875 
z
" id="DejaVuSans-36"/>
      </defs>
      <g transform="translate(381.4576 99.620947)scale(0.1 -0.1)">
       <use xlink:href="#DejaVuSans-2212"/>
       <use x="83.789062" xlink:href="#DejaVuSans-36"/>
       <use x="147.412109" xlink:href="#DejaVuSans-2e"/>
       <use x="179.199219" xlink:href="#DejaVuSans-35"/>
      </g>
     </g>
    </g>
    <g id="ytick_6">
     <g id="line2d_6">
      <g>
       <use style="stroke:#000000;stroke-width:0.8;" x="374.4576" xlink:href="#m3b11f6f3e6" y="48.762528"/>
      </g>
     </g>
     <g id="text_7">
      <!-- −6.0 -->
      <g transform="translate(381.4576 52.561747)scale(0.1 -0.1)">
       <use xlink:href="#DejaVuSans-2212"/>
       <use x="83.789062" xlink:href="#DejaVuSans-36"/>
       <use x="147.412109" xlink:href="#DejaVuSans-2e"/>
       <use x="179.199219" xlink:href="#DejaVuSans-30"/>
      </g>
     </g>
    </g>
    <g id="text_8">
     <!-- Energy [eV] -->
     <defs>
      <path d="M 54.890625 33.015625 
L 54.890625 0 
L 45.90625 0 
L 45.90625 32.71875 
Q 45.90625 40.484375 42.875 44.328125 
Q 39.84375 48.1875 33.796875 48.1875 
Q 26.515625 48.1875 22.3125 43.546875 
Q 18.109375 38.921875 18.109375 30.90625 
L 18.109375 0 
L 9.078125 0 
L 9.078125 54.6875 
L 18.109375 54.6875 
L 18.109375 46.1875 
Q 21.34375 51.125 25.703125 53.5625 
Q 30.078125 56 35.796875 56 
Q 45.21875 56 50.046875 50.171875 
Q 54.890625 44.34375 54.890625 33.015625 
z
" id="DejaVuSans-6e"/>
      <path d="M 45.40625 27.984375 
Q 45.40625 37.75 41.375 43.109375 
Q 37.359375 48.484375 30.078125 48.484375 
Q 22.859375 48.484375 18.828125 43.109375 
Q 14.796875 37.75 14.796875 27.984375 
Q 14.796875 18.265625 18.828125 12.890625 
Q 22.859375 7.515625 30.078125 7.515625 
Q 37.359375 7.515625 41.375 12.890625 
Q 45.40625 18.265625 45.40625 27.984375 
z
M 54.390625 6.78125 
Q 54.390625 -7.171875 48.1875 -13.984375 
Q 42 -20.796875 29.203125 -20.796875 
Q 24.46875 -20.796875 20.265625 -20.09375 
Q 16.0625 -19.390625 12.109375 -17.921875 
L 12.109375 -9.1875 
Q 16.0625 -11.328125 19.921875 -12.34375 
Q 23.78125 -13.375 27.78125 -13.375 
Q 36.625 -13.375 41.015625 -8.765625 
Q 45.40625 -4.15625 45.40625 5.171875 
L 45.40625 9.625 
Q 42.625 4.78125 38.28125 2.390625 
Q 33.9375 0 27.875 0 
Q 17.828125 0 11.671875 7.65625 
Q 5.515625 15.328125 5.515625 27.984375 
Q 5.515625 40.671875 11.671875 48.328125 
Q 17.828125 56 27.875 56 
Q 33.9375 56 38.28125 53.609375 
Q 42.625 51.21875 45.40625 46.390625 
L 45.40625 54.6875 
L 54.390625 54.6875 
z
" id="DejaVuSans-67"/>
      <path d="M 32.171875 -5.078125 
Q 28.375 -14.84375 24.75 -17.8125 
Q 21.140625 -20.796875 15.09375 -20.796875 
L 7.90625 -20.796875 
L 7.90625 -13.28125 
L 13.1875 -13.28125 
Q 16.890625 -13.28125 18.9375 -11.515625 
Q 21 -9.765625 23.484375 -3.21875 
L 25.09375 0.875 
L 2.984375 54.6875 
L 12.5 54.6875 
L 29.59375 11.921875 
L 46.6875 54.6875 
L 56.203125 54.6875 
z
" id="DejaVuSans-79"/>
      <path d="M 8.59375 75.984375 
L 29.296875 75.984375 
L 29.296875 69 
L 17.578125 69 
L 17.578125 -6.203125 
L 29.296875 -6.203125 
L 29.296875 -13.1875 
L 8.59375 -13.1875 
z
" id="DejaVuSans-5b"/>
      <path d="M 30.421875 75.984375 
L 30.421875 -13.1875 
L 9.71875 -13.1875 
L 9.71875 -6.203125 
L 21.390625 -6.203125 
L 21.390625 69 
L 9.71875 69 
L 9.71875 75.984375 
z
" id="DejaVuSans-5d"/>
     </defs>
     <g transform="translate(417.33885 204.108469)rotate(-90)scale(0.1 -0.1)">
      <use xlink:href="#DejaVuSans-45"/>
      <use x="63.183594" xlink:href="#DejaVuSans-6e"/>
      <use x="126.5625" xlink:href="#DejaVuSans-65"/>
      <use x="188.085938" xlink:href="#DejaVuSans-72"/>
      <use x="229.183594" xlink:href="#DejaVuSans-67"/>
      <use x="292.660156" xlink:href="#DejaVuSans-79"/>
      <use x="351.839844" xlink:href="#DejaVuSans-20"/>
      <use x="383.626953" xlink:href="#DejaVuSans-5b"/>
      <use x="422.640625" xlink:href="#DejaVuSans-65"/>
      <use x="484.164062" xlink:href="#DejaVuSans-56"/>
      <use x="552.572266" xlink:href="#DejaVuSans-5d"/>
     </g>
    </g>
   </g>
   <g id="patch_3">
    <path d="M 361.152 307.584 
L 361.152 306.5445 
L 361.152 42.5115 
L 361.152 41.472 
L 374.4576 41.472 
L 374.4576 42.5115 
L 374.4576 306.5445 
L 374.4576 307.584 
z
" style="fill:none;stroke:#000000;stroke-linejoin:miter;stroke-width:0.8;"/>
   </g>
  </g>
 </g>
 <defs>
  <clipPath id="p1e459bd543">
   <rect height="266.112" width="285.696" x="57.6" y="41.472"/>
  </clipPath>
  <clipPath id="p2677f7864a">
   <rect height="266.112" width="13.3056" x="361.152" y="41.472"/>
  </clipPath>
 </defs>
</svg>
