<?xml version="1.0" encoding="utf-8" standalone="no"?>
<!DOCTYPE svg PUBLIC "-//W3C//DTD SVG 1.1//EN"
  "http://www.w3.org/Graphics/SVG/1.1/DTD/svg11.dtd">
<!-- Created with matplotlib (http://matplotlib.org/) -->
<svg height="345.6pt" version="1.1" viewBox="0 0 460.8 345.6" width="460.8pt" xmlns="http://www.w3.org/2000/svg" xmlns:xlink="http://www.w3.org/1999/xlink">
 <defs>
  <style type="text/css">
*{stroke-linecap:butt;stroke-linejoin:round;}
  </style>
 </defs>
 <g id="figure_1">
  <g id="patch_1">
   <path d="M 0 345.6 
L 460.8 345.6 
L 460.8 0 
L 0 0 
z
" style="fill:#ffffff;"/>
  </g>
  <g id="axes_1">
   <g id="CircleCollection_1">
    <path clip-path="url(#p850eaa708f)" d="M 323.429401 181.615086 
C 325.230609 181.615086 326.958286 180.899459 328.231933 179.625812 
C 329.505579 178.352166 330.221207 176.624488 330.221207 174.82328 
C 330.221207 173.022072 329.505579 171.294394 328.231933 170.020748 
C 326.958286 168.747101 325.230609 168.031474 323.429401 168.031474 
C 321.628192 168.031474 319.900515 168.747101 318.626868 170.020748 
C 317.353222 171.294394 316.637594 173.022072 316.637594 174.82328 
C 316.637594 176.624488 317.353222 178.352166 318.626868 179.625812 
C 319.900515 180.899459 321.628192 181.615086 323.429401 181.615086 
z
" style="fill:#2e6e8e;"/>
    <path clip-path="url(#p850eaa708f)" d="M 219.467775 162.535536 
C 221.247838 162.535536 222.955234 161.82831 224.213928 160.569615 
C 225.472623 159.310921 226.17985 157.603525 226.17985 155.823462 
C 226.17985 154.043399 225.472623 152.336003 224.213928 151.077308 
C 222.955234 149.818613 221.247838 149.111387 219.467775 149.111387 
C 217.687712 149.111387 215.980316 149.818613 214.721621 151.077308 
C 213.462927 152.336003 212.7557 154.043399 212.7557 155.823462 
C 212.7557 157.603525 213.462927 159.310921 214.721621 160.569615 
C 215.980316 161.82831 217.687712 162.535536 219.467775 162.535536 
z
" style="fill:#3d4e8a;"/>
    <path clip-path="url(#p850eaa708f)" d="M 299.699179 92.133178 
C 301.481262 92.133178 303.190596 91.425149 304.450719 90.165025 
C 305.710842 88.904902 306.418872 87.195568 306.418872 85.413485 
C 306.418872 83.631401 305.710842 81.922067 304.450719 80.661944 
C 303.190596 79.401821 301.481262 78.693792 299.699179 78.693792 
C 297.917095 78.693792 296.207761 79.401821 294.947638 80.661944 
C 293.687515 81.922067 292.979486 83.631401 292.979486 85.413485 
C 292.979486 87.195568 293.687515 88.904902 294.947638 90.165025 
C 296.207761 91.425149 297.917095 92.133178 299.699179 92.133178 
z
" style="fill:#24878e;"/>
    <path clip-path="url(#p850eaa708f)" d="M 299.015587 301.917118 
C 300.836814 301.917118 302.583694 301.193537 303.871495 299.905735 
C 305.159297 298.617934 305.882878 296.871054 305.882878 295.049827 
C 305.882878 293.228601 305.159297 291.481721 303.871495 290.19392 
C 302.583694 288.906118 300.836814 288.182537 299.015587 288.182537 
C 297.194361 288.182537 295.447481 288.906118 294.15968 290.19392 
C 292.871878 291.481721 292.148297 293.228601 292.148297 295.049827 
C 292.148297 296.871054 292.871878 298.617934 294.15968 299.905735 
C 295.447481 301.193537 297.194361 301.917118 299.015587 301.917118 
z
" style="fill:#fde725;"/>
    <path clip-path="url(#p850eaa708f)" d="M 138.30503 86.219297 
C 140.063367 86.219297 141.749925 85.520702 142.993257 84.277369 
C 144.236589 83.034037 144.935184 81.34748 144.935184 79.589142 
C 144.935184 77.830805 144.236589 76.144247 142.993257 74.900915 
C 141.749925 73.657583 140.063367 72.958988 138.30503 72.958988 
C 136.546693 72.958988 134.860135 73.657583 133.616803 74.900915 
C 132.373471 76.144247 131.674876 77.830805 131.674876 79.589142 
C 131.674876 81.34748 132.373471 83.034037 133.616803 84.277369 
C 134.860135 85.520702 136.546693 86.219297 138.30503 86.219297 
z
" style="fill:#481d6f;"/>
    <path clip-path="url(#p850eaa708f)" d="M 153.200699 119.376661 
C 154.96312 119.376661 156.653595 118.676443 157.899815 117.430223 
C 159.146035 116.184003 159.846252 114.493529 159.846252 112.731107 
C 159.846252 110.968686 159.146035 109.278212 157.899815 108.031992 
C 156.653595 106.785771 154.96312 106.085554 153.200699 106.085554 
C 151.438277 106.085554 149.747803 106.785771 148.501583 108.031992 
C 147.255363 109.278212 146.555145 110.968686 146.555145 112.731107 
C 146.555145 114.493529 147.255363 116.184003 148.501583 117.430223 
C 149.747803 118.676443 151.438277 119.376661 153.200699 119.376661 
z
" style="fill:#481b6d;"/>
    <path clip-path="url(#p850eaa708f)" d="M 287.766989 272.671698 
C 289.581849 272.671698 291.322621 271.950647 292.605921 270.667347 
C 293.889221 269.384047 294.610273 267.643274 294.610273 265.828414 
C 294.610273 264.013554 293.889221 262.272781 292.605921 260.989481 
C 291.322621 259.706182 289.581849 258.98513 287.766989 258.98513 
C 285.952128 258.98513 284.211356 259.706182 282.928056 260.989481 
C 281.644756 262.272781 280.923704 264.013554 280.923704 265.828414 
C 280.923704 267.643274 281.644756 269.384047 282.928056 270.667347 
C 284.211356 271.950647 285.952128 272.671698 287.766989 272.671698 
z
" style="fill:#375a8c;"/>
    <path clip-path="url(#p850eaa708f)" d="M 221.453955 60.655853 
C 223.220932 60.655853 224.915777 59.953826 226.165218 58.704384 
C 227.41466 57.454942 228.116688 55.760098 228.116688 53.993121 
C 228.116688 52.226143 227.41466 50.531299 226.165218 49.281857 
C 224.915777 48.032415 223.220932 47.330388 221.453955 47.330388 
C 219.686977 47.330388 217.992133 48.032415 216.742691 49.281857 
C 215.493249 50.531299 214.791222 52.226143 214.791222 53.993121 
C 214.791222 55.760098 215.493249 57.454942 216.742691 58.704384 
C 217.992133 59.953826 219.686977 60.655853 221.453955 60.655853 
z
" style="fill:#33628d;"/>
    <path clip-path="url(#p850eaa708f)" d="M 205.006887 194.470614 
C 206.794814 194.470614 208.509753 193.760263 209.774008 192.496007 
C 211.038263 191.231752 211.748614 189.516813 211.748614 187.728886 
C 211.748614 185.940959 211.038263 184.22602 209.774008 182.961765 
C 208.509753 181.697509 206.794814 180.987158 205.006887 180.987158 
C 203.21896 180.987158 201.504021 181.697509 200.239765 182.961765 
C 198.97551 184.22602 198.265159 185.940959 198.265159 187.728886 
C 198.265159 189.516813 198.97551 191.231752 200.239765 192.496007 
C 201.504021 193.760263 203.21896 194.470614 205.006887 194.470614 
z
" style="fill:#440154;"/>
    <path clip-path="url(#p850eaa708f)" d="M 85.620771 88.819944 
C 87.378091 88.819944 89.063672 88.121753 90.306285 86.87914 
C 91.548898 85.636528 92.247088 83.950946 92.247088 82.193627 
C 92.247088 80.436307 91.548898 78.750726 90.306285 77.508113 
C 89.063672 76.2655 87.378091 75.56731 85.620771 75.56731 
C 83.863452 75.56731 82.17787 76.2655 80.935258 77.508113 
C 79.692645 78.750726 78.994454 80.436307 78.994454 82.193627 
C 78.994454 83.950946 79.692645 85.636528 80.935258 86.87914 
C 82.17787 88.121753 83.863452 88.819944 85.620771 88.819944 
z
" style="fill:#27ad81;"/>
    <path clip-path="url(#p850eaa708f)" d="M 250.096941 136.505715 
C 251.874375 136.505715 253.57925 135.799533 254.836087 134.542697 
C 256.092923 133.28586 256.799105 131.580985 256.799105 129.803551 
C 256.799105 128.026116 256.092923 126.321241 254.836087 125.064405 
C 253.57925 123.807569 251.874375 123.101386 250.096941 123.101386 
C 248.319506 123.101386 246.614631 123.807569 245.357795 125.064405 
C 244.100959 126.321241 243.394776 128.026116 243.394776 129.803551 
C 243.394776 131.580985 244.100959 133.28586 245.357795 134.542697 
C 246.614631 135.799533 248.319506 136.505715 250.096941 136.505715 
z
" style="fill:#39558c;"/>
    <path clip-path="url(#p850eaa708f)" d="M 329.815663 152.253024 
C 331.611696 152.253024 333.33441 151.539452 334.604397 150.269465 
C 335.874384 148.999478 336.587956 147.276763 336.587956 145.48073 
C 336.587956 143.684697 335.874384 141.961983 334.604397 140.691996 
C 333.33441 139.422009 331.611696 138.708437 329.815663 138.708437 
C 328.01963 138.708437 326.296915 139.422009 325.026928 140.691996 
C 323.756941 141.961983 323.043369 143.684697 323.043369 145.48073 
C 323.043369 147.276763 323.756941 148.999478 325.026928 150.269465 
C 326.296915 151.539452 328.01963 152.253024 329.815663 152.253024 
z
" style="fill:#26818e;"/>
    <path clip-path="url(#p850eaa708f)" d="M 267.103021 70.764143 
C 268.878153 70.764143 270.58082 70.058876 271.836028 68.803668 
C 273.091236 67.54846 273.796503 65.845794 273.796503 64.070661 
C 273.796503 62.295529 273.091236 60.592863 271.836028 59.337655 
C 270.58082 58.082447 268.878153 57.377179 267.103021 57.377179 
C 265.327889 57.377179 263.625223 58.082447 262.370015 59.337655 
C 261.114807 60.592863 260.409539 62.295529 260.409539 64.070661 
C 260.409539 65.845794 261.114807 67.54846 262.370015 68.803668 
C 263.625223 70.058876 265.327889 70.764143 267.103021 70.764143 
z
" style="fill:#32658e;"/>
    <path clip-path="url(#p850eaa708f)" d="M 110.376426 140.05234 
C 112.141836 140.05234 113.835177 139.350935 115.083511 138.102602 
C 116.331844 136.854268 117.033249 135.160927 117.033249 133.395517 
C 117.033249 131.630106 116.331844 129.936765 115.083511 128.688431 
C 113.835177 127.440098 112.141836 126.738693 110.376426 126.738693 
C 108.611015 126.738693 106.917674 127.440098 105.66934 128.688431 
C 104.421007 129.936765 103.719602 131.630106 103.719602 133.395517 
C 103.719602 135.160927 104.421007 136.854268 105.66934 138.102602 
C 106.917674 139.350935 108.611015 140.05234 110.376426 140.05234 
z
" style="fill:#482878;"/>
    <path clip-path="url(#p850eaa708f)" d="M 245.633017 215.224116 
C 247.431914 215.224116 249.157375 214.509407 250.429388 213.237394 
C 251.7014 211.965382 252.41611 210.239921 252.41611 208.441024 
C 252.41611 206.642127 251.7014 204.916666 250.429388 203.644653 
C 249.157375 202.372641 247.431914 201.657932 245.633017 201.657932 
C 243.83412 201.657932 242.108659 202.372641 240.836647 203.644653 
C 239.564634 204.916666 238.849925 206.642127 238.849925 208.441024 
C 238.849925 210.239921 239.564634 211.965382 240.836647 213.237394 
C 242.108659 214.509407 243.83412 215.224116 245.633017 215.224116 
z
" style="fill:#30698e;"/>
    <path clip-path="url(#p850eaa708f)" d="M 153.283754 196.486965 
C 155.06458 196.486965 156.772708 195.779435 158.031943 194.520201 
C 159.291177 193.260966 159.998707 191.552839 159.998707 189.772012 
C 159.998707 187.991186 159.291177 186.283058 158.031943 185.023824 
C 156.772708 183.76459 155.06458 183.05706 153.283754 183.05706 
C 151.502928 183.05706 149.7948 183.76459 148.535566 185.023824 
C 147.276332 186.283058 146.568802 187.991186 146.568802 189.772012 
C 146.568802 191.552839 147.276332 193.260966 148.535566 194.520201 
C 149.7948 195.779435 151.502928 196.486965 153.283754 196.486965 
z
" style="fill:#31688e;"/>
    <path clip-path="url(#p850eaa708f)" d="M 278.756307 241.001743 
C 280.563796 241.001743 282.297498 240.28362 283.575586 239.005532 
C 284.853673 237.727445 285.571796 235.993742 285.571796 234.186253 
C 285.571796 232.378764 284.853673 230.645062 283.575586 229.366974 
C 282.297498 228.088887 280.563796 227.370764 278.756307 227.370764 
C 276.948818 227.370764 275.215115 228.088887 273.937028 229.366974 
C 272.65894 230.645062 271.940817 232.378764 271.940817 234.186253 
C 271.940817 235.993742 272.65894 237.727445 273.937028 239.005532 
C 275.215115 240.28362 276.948818 241.001743 278.756307 241.001743 
z
" style="fill:#3b528b;"/>
    <path clip-path="url(#p850eaa708f)" d="M 199.652403 132.120288 
C 201.422054 132.120288 203.119464 131.417198 204.370796 130.165865 
C 205.622129 128.914533 206.325219 127.217123 206.325219 125.447472 
C 206.325219 123.67782 205.622129 121.980411 204.370796 120.729078 
C 203.119464 119.477746 201.422054 118.774656 199.652403 118.774656 
C 197.882751 118.774656 196.185342 119.477746 194.934009 120.729078 
C 193.682677 121.980411 192.979587 123.67782 192.979587 125.447472 
C 192.979587 127.217123 193.682677 128.914533 194.934009 130.165865 
C 196.185342 131.417198 197.882751 132.120288 199.652403 132.120288 
z
" style="fill:#3e4989;"/>
    <path clip-path="url(#p850eaa708f)" d="M 115.767969 173.6543 
C 117.5396 173.6543 119.238909 172.950424 120.491641 171.697692 
C 121.744373 170.444959 122.44825 168.745651 122.44825 166.97402 
C 122.44825 165.202389 121.744373 163.503081 120.491641 162.250349 
C 119.238909 160.997616 117.5396 160.29374 115.767969 160.29374 
C 113.996338 160.29374 112.29703 160.997616 111.044298 162.250349 
C 109.791566 163.503081 109.087689 165.202389 109.087689 166.97402 
C 109.087689 168.745651 109.791566 170.444959 111.044298 171.697692 
C 112.29703 172.950424 113.996338 173.6543 115.767969 173.6543 
z
" style="fill:#31668e;"/>
    <path clip-path="url(#p850eaa708f)" d="M 296.320568 209.32539 
C 298.12412 209.32539 299.854046 208.608831 301.12935 207.333527 
C 302.404654 206.058222 303.121213 204.328296 303.121213 202.524744 
C 303.121213 200.721191 302.404654 198.991265 301.12935 197.715961 
C 299.854046 196.440657 298.12412 195.724098 296.320568 195.724098 
C 294.517015 195.724098 292.787089 196.440657 291.511785 197.715961 
C 290.236481 198.991265 289.519922 200.721191 289.519922 202.524744 
C 289.519922 204.328296 290.236481 206.058222 291.511785 207.333527 
C 292.787089 208.608831 294.517015 209.32539 296.320568 209.32539 
z
" style="fill:#365c8d;"/>
    <path clip-path="url(#p850eaa708f)" d="M 71.071101 117.474299 
C 72.833565 117.474299 74.524079 116.774065 75.770329 115.527815 
C 77.016579 114.281565 77.716814 112.59105 77.716814 110.828587 
C 77.716814 109.066123 77.016579 107.375608 75.770329 106.129358 
C 74.524079 104.883108 72.833565 104.182874 71.071101 104.182874 
C 69.308637 104.182874 67.618123 104.883108 66.371873 106.129358 
C 65.125623 107.375608 64.425389 109.066123 64.425389 110.828587 
C 64.425389 112.59105 65.125623 114.281565 66.371873 115.527815 
C 67.618123 116.774065 69.308637 117.474299 71.071101 117.474299 
z
" style="fill:#23a983;"/>
    <path clip-path="url(#p850eaa708f)" d="M 175.650921 64.157604 
C 177.411454 64.157604 179.100116 63.458137 180.345001 62.213252 
C 181.589886 60.968368 182.289353 59.279705 182.289353 57.519172 
C 182.289353 55.758639 181.589886 54.069976 180.345001 52.825092 
C 179.100116 51.580207 177.411454 50.88074 175.650921 50.88074 
C 173.890388 50.88074 172.201725 51.580207 170.95684 52.825092 
C 169.711956 54.069976 169.012489 55.758639 169.012489 57.519172 
C 169.012489 59.279705 169.711956 60.968368 170.95684 62.213252 
C 172.201725 63.458137 173.890388 64.157604 175.650921 64.157604 
z
" style="fill:#27808e;"/>
    <path clip-path="url(#p850eaa708f)" d="M 299.023341 125.24024 
C 300.808598 125.24024 302.520977 124.530949 303.783345 123.268581 
C 305.045713 122.006214 305.755003 120.293835 305.755003 118.508577 
C 305.755003 116.723319 305.045713 115.010941 303.783345 113.748573 
C 302.520977 112.486205 300.808598 111.776915 299.023341 111.776915 
C 297.238083 111.776915 295.525704 112.486205 294.263336 113.748573 
C 293.000969 115.010941 292.291678 116.723319 292.291678 118.508577 
C 292.291678 120.293835 293.000969 122.006214 294.263336 123.268581 
C 295.525704 124.530949 297.238083 125.24024 299.023341 125.24024 
z
" style="fill:#440154;"/>
    <path clip-path="url(#p850eaa708f)" d="M 103.993046 206.458809 
C 105.762736 206.458809 107.460182 205.755704 108.711542 204.504344 
C 109.962902 203.252984 110.666007 201.555538 110.666007 199.785848 
C 110.666007 198.016158 109.962902 196.318712 108.711542 195.067352 
C 107.460182 193.815992 105.762736 193.112887 103.993046 193.112887 
C 102.223356 193.112887 100.525909 193.815992 99.27455 195.067352 
C 98.02319 196.318712 97.320085 198.016158 97.320085 199.785848 
C 97.320085 201.555538 98.02319 203.252984 99.27455 204.504344 
C 100.525909 205.755704 102.223356 206.458809 103.993046 206.458809 
z
" style="fill:#3bbb75;"/>
   </g>
   <g id="text_1">
    <!-- Structure #4157, $E_N$=-180.53eV, ΔE=0.32eV -->
    <defs>
     <path d="M 53.515625 70.515625 
L 53.515625 60.890625 
Q 47.90625 63.578125 42.921875 64.890625 
Q 37.9375 66.21875 33.296875 66.21875 
Q 25.25 66.21875 20.875 63.09375 
Q 16.5 59.96875 16.5 54.203125 
Q 16.5 49.359375 19.40625 46.890625 
Q 22.3125 44.4375 30.421875 42.921875 
L 36.375 41.703125 
Q 47.40625 39.59375 52.65625 34.296875 
Q 57.90625 29 57.90625 20.125 
Q 57.90625 9.515625 50.796875 4.046875 
Q 43.703125 -1.421875 29.984375 -1.421875 
Q 24.8125 -1.421875 18.96875 -0.25 
Q 13.140625 0.921875 6.890625 3.21875 
L 6.890625 13.375 
Q 12.890625 10.015625 18.65625 8.296875 
Q 24.421875 6.59375 29.984375 6.59375 
Q 38.421875 6.59375 43.015625 9.90625 
Q 47.609375 13.234375 47.609375 19.390625 
Q 47.609375 24.75 44.3125 27.78125 
Q 41.015625 30.8125 33.5 32.328125 
L 27.484375 33.5 
Q 16.453125 35.6875 11.515625 40.375 
Q 6.59375 45.0625 6.59375 53.421875 
Q 6.59375 63.09375 13.40625 68.65625 
Q 20.21875 74.21875 32.171875 74.21875 
Q 37.3125 74.21875 42.625 73.28125 
Q 47.953125 72.359375 53.515625 70.515625 
z
" id="DejaVuSans-53"/>
     <path d="M 18.3125 70.21875 
L 18.3125 54.6875 
L 36.8125 54.6875 
L 36.8125 47.703125 
L 18.3125 47.703125 
L 18.3125 18.015625 
Q 18.3125 11.328125 20.140625 9.421875 
Q 21.96875 7.515625 27.59375 7.515625 
L 36.8125 7.515625 
L 36.8125 0 
L 27.59375 0 
Q 17.1875 0 13.234375 3.875 
Q 9.28125 7.765625 9.28125 18.015625 
L 9.28125 47.703125 
L 2.6875 47.703125 
L 2.6875 54.6875 
L 9.28125 54.6875 
L 9.28125 70.21875 
z
" id="DejaVuSans-74"/>
     <path d="M 41.109375 46.296875 
Q 39.59375 47.171875 37.8125 47.578125 
Q 36.03125 48 33.890625 48 
Q 26.265625 48 22.1875 43.046875 
Q 18.109375 38.09375 18.109375 28.8125 
L 18.109375 0 
L 9.078125 0 
L 9.078125 54.6875 
L 18.109375 54.6875 
L 18.109375 46.1875 
Q 20.953125 51.171875 25.484375 53.578125 
Q 30.03125 56 36.53125 56 
Q 37.453125 56 38.578125 55.875 
Q 39.703125 55.765625 41.0625 55.515625 
z
" id="DejaVuSans-72"/>
     <path d="M 8.5 21.578125 
L 8.5 54.6875 
L 17.484375 54.6875 
L 17.484375 21.921875 
Q 17.484375 14.15625 20.5 10.265625 
Q 23.53125 6.390625 29.59375 6.390625 
Q 36.859375 6.390625 41.078125 11.03125 
Q 45.3125 15.671875 45.3125 23.6875 
L 45.3125 54.6875 
L 54.296875 54.6875 
L 54.296875 0 
L 45.3125 0 
L 45.3125 8.40625 
Q 42.046875 3.421875 37.71875 1 
Q 33.40625 -1.421875 27.6875 -1.421875 
Q 18.265625 -1.421875 13.375 4.4375 
Q 8.5 10.296875 8.5 21.578125 
z
M 31.109375 56 
z
" id="DejaVuSans-75"/>
     <path d="M 48.78125 52.59375 
L 48.78125 44.1875 
Q 44.96875 46.296875 41.140625 47.34375 
Q 37.3125 48.390625 33.40625 48.390625 
Q 24.65625 48.390625 19.8125 42.84375 
Q 14.984375 37.3125 14.984375 27.296875 
Q 14.984375 17.28125 19.8125 11.734375 
Q 24.65625 6.203125 33.40625 6.203125 
Q 37.3125 6.203125 41.140625 7.25 
Q 44.96875 8.296875 48.78125 10.40625 
L 48.78125 2.09375 
Q 45.015625 0.34375 40.984375 -0.53125 
Q 36.96875 -1.421875 32.421875 -1.421875 
Q 20.0625 -1.421875 12.78125 6.34375 
Q 5.515625 14.109375 5.515625 27.296875 
Q 5.515625 40.671875 12.859375 48.328125 
Q 20.21875 56 33.015625 56 
Q 37.15625 56 41.109375 55.140625 
Q 45.0625 54.296875 48.78125 52.59375 
z
" id="DejaVuSans-63"/>
     <path d="M 56.203125 29.59375 
L 56.203125 25.203125 
L 14.890625 25.203125 
Q 15.484375 15.921875 20.484375 11.0625 
Q 25.484375 6.203125 34.421875 6.203125 
Q 39.59375 6.203125 44.453125 7.46875 
Q 49.3125 8.734375 54.109375 11.28125 
L 54.109375 2.78125 
Q 49.265625 0.734375 44.1875 -0.34375 
Q 39.109375 -1.421875 33.890625 -1.421875 
Q 20.796875 -1.421875 13.15625 6.1875 
Q 5.515625 13.8125 5.515625 26.8125 
Q 5.515625 40.234375 12.765625 48.109375 
Q 20.015625 56 32.328125 56 
Q 43.359375 56 49.78125 48.890625 
Q 56.203125 41.796875 56.203125 29.59375 
z
M 47.21875 32.234375 
Q 47.125 39.59375 43.09375 43.984375 
Q 39.0625 48.390625 32.421875 48.390625 
Q 24.90625 48.390625 20.390625 44.140625 
Q 15.875 39.890625 15.1875 32.171875 
z
" id="DejaVuSans-65"/>
     <path id="DejaVuSans-20"/>
     <path d="M 51.125 44 
L 36.921875 44 
L 32.8125 27.6875 
L 47.125 27.6875 
z
M 43.796875 71.78125 
L 38.71875 51.515625 
L 52.984375 51.515625 
L 58.109375 71.78125 
L 65.921875 71.78125 
L 60.890625 51.515625 
L 76.125 51.515625 
L 76.125 44 
L 58.984375 44 
L 54.984375 27.6875 
L 70.515625 27.6875 
L 70.515625 20.21875 
L 53.078125 20.21875 
L 48 0 
L 40.1875 0 
L 45.21875 20.21875 
L 30.90625 20.21875 
L 25.875 0 
L 18.015625 0 
L 23.09375 20.21875 
L 7.71875 20.21875 
L 7.71875 27.6875 
L 24.90625 27.6875 
L 29 44 
L 13.28125 44 
L 13.28125 51.515625 
L 30.90625 51.515625 
L 35.890625 71.78125 
z
" id="DejaVuSans-23"/>
     <path d="M 37.796875 64.3125 
L 12.890625 25.390625 
L 37.796875 25.390625 
z
M 35.203125 72.90625 
L 47.609375 72.90625 
L 47.609375 25.390625 
L 58.015625 25.390625 
L 58.015625 17.1875 
L 47.609375 17.1875 
L 47.609375 0 
L 37.796875 0 
L 37.796875 17.1875 
L 4.890625 17.1875 
L 4.890625 26.703125 
z
" id="DejaVuSans-34"/>
     <path d="M 12.40625 8.296875 
L 28.515625 8.296875 
L 28.515625 63.921875 
L 10.984375 60.40625 
L 10.984375 69.390625 
L 28.421875 72.90625 
L 38.28125 72.90625 
L 38.28125 8.296875 
L 54.390625 8.296875 
L 54.390625 0 
L 12.40625 0 
z
" id="DejaVuSans-31"/>
     <path d="M 10.796875 72.90625 
L 49.515625 72.90625 
L 49.515625 64.59375 
L 19.828125 64.59375 
L 19.828125 46.734375 
Q 21.96875 47.46875 24.109375 47.828125 
Q 26.265625 48.1875 28.421875 48.1875 
Q 40.625 48.1875 47.75 41.5 
Q 54.890625 34.8125 54.890625 23.390625 
Q 54.890625 11.625 47.5625 5.09375 
Q 40.234375 -1.421875 26.90625 -1.421875 
Q 22.3125 -1.421875 17.546875 -0.640625 
Q 12.796875 0.140625 7.71875 1.703125 
L 7.71875 11.625 
Q 12.109375 9.234375 16.796875 8.0625 
Q 21.484375 6.890625 26.703125 6.890625 
Q 35.15625 6.890625 40.078125 11.328125 
Q 45.015625 15.765625 45.015625 23.390625 
Q 45.015625 31 40.078125 35.4375 
Q 35.15625 39.890625 26.703125 39.890625 
Q 22.75 39.890625 18.8125 39.015625 
Q 14.890625 38.140625 10.796875 36.28125 
z
" id="DejaVuSans-35"/>
     <path d="M 8.203125 72.90625 
L 55.078125 72.90625 
L 55.078125 68.703125 
L 28.609375 0 
L 18.3125 0 
L 43.21875 64.59375 
L 8.203125 64.59375 
z
" id="DejaVuSans-37"/>
     <path d="M 11.71875 12.40625 
L 22.015625 12.40625 
L 22.015625 4 
L 14.015625 -11.625 
L 7.71875 -11.625 
L 11.71875 4 
z
" id="DejaVuSans-2c"/>
     <path d="M 16.890625 72.90625 
L 62.984375 72.90625 
L 61.375 64.59375 
L 25.09375 64.59375 
L 20.90625 43.015625 
L 55.71875 43.015625 
L 54.109375 34.71875 
L 19.28125 34.71875 
L 14.203125 8.296875 
L 51.3125 8.296875 
L 49.703125 0 
L 2.6875 0 
z
" id="DejaVuSans-Oblique-45"/>
     <path d="M 16.890625 72.90625 
L 30.171875 72.90625 
L 50.296875 10.40625 
L 62.5 72.90625 
L 72.125 72.90625 
L 57.90625 0 
L 44.578125 0 
L 24.515625 62.890625 
L 12.3125 0 
L 2.6875 0 
z
" id="DejaVuSans-Oblique-4e"/>
     <path d="M 10.59375 45.40625 
L 73.1875 45.40625 
L 73.1875 37.203125 
L 10.59375 37.203125 
z
M 10.59375 25.484375 
L 73.1875 25.484375 
L 73.1875 17.1875 
L 10.59375 17.1875 
z
" id="DejaVuSans-3d"/>
     <path d="M 4.890625 31.390625 
L 31.203125 31.390625 
L 31.203125 23.390625 
L 4.890625 23.390625 
z
" id="DejaVuSans-2d"/>
     <path d="M 31.78125 34.625 
Q 24.75 34.625 20.71875 30.859375 
Q 16.703125 27.09375 16.703125 20.515625 
Q 16.703125 13.921875 20.71875 10.15625 
Q 24.75 6.390625 31.78125 6.390625 
Q 38.8125 6.390625 42.859375 10.171875 
Q 46.921875 13.96875 46.921875 20.515625 
Q 46.921875 27.09375 42.890625 30.859375 
Q 38.875 34.625 31.78125 34.625 
z
M 21.921875 38.8125 
Q 15.578125 40.375 12.03125 44.71875 
Q 8.5 49.078125 8.5 55.328125 
Q 8.5 64.0625 14.71875 69.140625 
Q 20.953125 74.21875 31.78125 74.21875 
Q 42.671875 74.21875 48.875 69.140625 
Q 55.078125 64.0625 55.078125 55.328125 
Q 55.078125 49.078125 51.53125 44.71875 
Q 48 40.375 41.703125 38.8125 
Q 48.828125 37.15625 52.796875 32.3125 
Q 56.78125 27.484375 56.78125 20.515625 
Q 56.78125 9.90625 50.3125 4.234375 
Q 43.84375 -1.421875 31.78125 -1.421875 
Q 19.734375 -1.421875 13.25 4.234375 
Q 6.78125 9.90625 6.78125 20.515625 
Q 6.78125 27.484375 10.78125 32.3125 
Q 14.796875 37.15625 21.921875 38.8125 
z
M 18.3125 54.390625 
Q 18.3125 48.734375 21.84375 45.5625 
Q 25.390625 42.390625 31.78125 42.390625 
Q 38.140625 42.390625 41.71875 45.5625 
Q 45.3125 48.734375 45.3125 54.390625 
Q 45.3125 60.0625 41.71875 63.234375 
Q 38.140625 66.40625 31.78125 66.40625 
Q 25.390625 66.40625 21.84375 63.234375 
Q 18.3125 60.0625 18.3125 54.390625 
z
" id="DejaVuSans-38"/>
     <path d="M 31.78125 66.40625 
Q 24.171875 66.40625 20.328125 58.90625 
Q 16.5 51.421875 16.5 36.375 
Q 16.5 21.390625 20.328125 13.890625 
Q 24.171875 6.390625 31.78125 6.390625 
Q 39.453125 6.390625 43.28125 13.890625 
Q 47.125 21.390625 47.125 36.375 
Q 47.125 51.421875 43.28125 58.90625 
Q 39.453125 66.40625 31.78125 66.40625 
z
M 31.78125 74.21875 
Q 44.046875 74.21875 50.515625 64.515625 
Q 56.984375 54.828125 56.984375 36.375 
Q 56.984375 17.96875 50.515625 8.265625 
Q 44.046875 -1.421875 31.78125 -1.421875 
Q 19.53125 -1.421875 13.0625 8.265625 
Q 6.59375 17.96875 6.59375 36.375 
Q 6.59375 54.828125 13.0625 64.515625 
Q 19.53125 74.21875 31.78125 74.21875 
z
" id="DejaVuSans-30"/>
     <path d="M 10.6875 12.40625 
L 21 12.40625 
L 21 0 
L 10.6875 0 
z
" id="DejaVuSans-2e"/>
     <path d="M 40.578125 39.3125 
Q 47.65625 37.796875 51.625 33 
Q 55.609375 28.21875 55.609375 21.1875 
Q 55.609375 10.40625 48.1875 4.484375 
Q 40.765625 -1.421875 27.09375 -1.421875 
Q 22.515625 -1.421875 17.65625 -0.515625 
Q 12.796875 0.390625 7.625 2.203125 
L 7.625 11.71875 
Q 11.71875 9.328125 16.59375 8.109375 
Q 21.484375 6.890625 26.8125 6.890625 
Q 36.078125 6.890625 40.9375 10.546875 
Q 45.796875 14.203125 45.796875 21.1875 
Q 45.796875 27.640625 41.28125 31.265625 
Q 36.765625 34.90625 28.71875 34.90625 
L 20.21875 34.90625 
L 20.21875 43.015625 
L 29.109375 43.015625 
Q 36.375 43.015625 40.234375 45.921875 
Q 44.09375 48.828125 44.09375 54.296875 
Q 44.09375 59.90625 40.109375 62.90625 
Q 36.140625 65.921875 28.71875 65.921875 
Q 24.65625 65.921875 20.015625 65.03125 
Q 15.375 64.15625 9.8125 62.3125 
L 9.8125 71.09375 
Q 15.4375 72.65625 20.34375 73.4375 
Q 25.25 74.21875 29.59375 74.21875 
Q 40.828125 74.21875 47.359375 69.109375 
Q 53.90625 64.015625 53.90625 55.328125 
Q 53.90625 49.265625 50.4375 45.09375 
Q 46.96875 40.921875 40.578125 39.3125 
z
" id="DejaVuSans-33"/>
     <path d="M 28.609375 0 
L 0.78125 72.90625 
L 11.078125 72.90625 
L 34.1875 11.53125 
L 57.328125 72.90625 
L 67.578125 72.90625 
L 39.796875 0 
z
" id="DejaVuSans-56"/>
     <path d="M 34.1875 63.1875 
L 14.15625 8.203125 
L 54.25 8.203125 
z
M 0.78125 0 
L 28.609375 72.90625 
L 39.796875 72.90625 
L 67.578125 0 
z
" id="DejaVuSans-394"/>
     <path d="M 9.8125 72.90625 
L 55.90625 72.90625 
L 55.90625 64.59375 
L 19.671875 64.59375 
L 19.671875 43.015625 
L 54.390625 43.015625 
L 54.390625 34.71875 
L 19.671875 34.71875 
L 19.671875 8.296875 
L 56.78125 8.296875 
L 56.78125 0 
L 9.8125 0 
z
" id="DejaVuSans-45"/>
     <path d="M 19.1875 8.296875 
L 53.609375 8.296875 
L 53.609375 0 
L 7.328125 0 
L 7.328125 8.296875 
Q 12.9375 14.109375 22.625 23.890625 
Q 32.328125 33.6875 34.8125 36.53125 
Q 39.546875 41.84375 41.421875 45.53125 
Q 43.3125 49.21875 43.3125 52.78125 
Q 43.3125 58.59375 39.234375 62.25 
Q 35.15625 65.921875 28.609375 65.921875 
Q 23.96875 65.921875 18.8125 64.3125 
Q 13.671875 62.703125 7.8125 59.421875 
L 7.8125 69.390625 
Q 13.765625 71.78125 18.9375 73 
Q 24.125 74.21875 28.421875 74.21875 
Q 39.75 74.21875 46.484375 68.546875 
Q 53.21875 62.890625 53.21875 53.421875 
Q 53.21875 48.921875 51.53125 44.890625 
Q 49.859375 40.875 45.40625 35.40625 
Q 44.1875 33.984375 37.640625 27.21875 
Q 31.109375 20.453125 19.1875 8.296875 
z
" id="DejaVuSans-32"/>
    </defs>
    <g transform="translate(65.388 35.472)scale(0.12 -0.12)">
     <use transform="translate(0 0.78125)" xlink:href="#DejaVuSans-53"/>
     <use transform="translate(63.476562 0.78125)" xlink:href="#DejaVuSans-74"/>
     <use transform="translate(102.685547 0.78125)" xlink:href="#DejaVuSans-72"/>
     <use transform="translate(143.798828 0.78125)" xlink:href="#DejaVuSans-75"/>
     <use transform="translate(207.177734 0.78125)" xlink:href="#DejaVuSans-63"/>
     <use transform="translate(262.158203 0.78125)" xlink:href="#DejaVuSans-74"/>
     <use transform="translate(301.367188 0.78125)" xlink:href="#DejaVuSans-75"/>
     <use transform="translate(364.746094 0.78125)" xlink:href="#DejaVuSans-72"/>
     <use transform="translate(405.859375 0.78125)" xlink:href="#DejaVuSans-65"/>
     <use transform="translate(467.382812 0.78125)" xlink:href="#DejaVuSans-20"/>
     <use transform="translate(499.169922 0.78125)" xlink:href="#DejaVuSans-23"/>
     <use transform="translate(582.958984 0.78125)" xlink:href="#DejaVuSans-34"/>
     <use transform="translate(646.582031 0.78125)" xlink:href="#DejaVuSans-31"/>
     <use transform="translate(710.205078 0.78125)" xlink:href="#DejaVuSans-35"/>
     <use transform="translate(773.71875 0.78125)" xlink:href="#DejaVuSans-37"/>
     <use transform="translate(837.341797 0.78125)" xlink:href="#DejaVuSans-2c"/>
     <use transform="translate(869.128906 0.78125)" xlink:href="#DejaVuSans-20"/>
     <use transform="translate(900.916016 0.78125)" xlink:href="#DejaVuSans-Oblique-45"/>
     <use transform="translate(964.099609 -15.625)scale(0.7)" xlink:href="#DejaVuSans-Oblique-4e"/>
     <use transform="translate(1019.197266 0.78125)" xlink:href="#DejaVuSans-3d"/>
     <use transform="translate(1102.986328 0.78125)" xlink:href="#DejaVuSans-2d"/>
     <use transform="translate(1139.070312 0.78125)" xlink:href="#DejaVuSans-31"/>
     <use transform="translate(1202.693359 0.78125)" xlink:href="#DejaVuSans-38"/>
     <use transform="translate(1266.316406 0.78125)" xlink:href="#DejaVuSans-30"/>
     <use transform="translate(1329.939453 0.78125)" xlink:href="#DejaVuSans-2e"/>
     <use transform="translate(1361.726562 0.78125)" xlink:href="#DejaVuSans-35"/>
     <use transform="translate(1425.349609 0.78125)" xlink:href="#DejaVuSans-33"/>
     <use transform="translate(1488.972656 0.78125)" xlink:href="#DejaVuSans-65"/>
     <use transform="translate(1550.496094 0.78125)" xlink:href="#DejaVuSans-56"/>
     <use transform="translate(1618.904297 0.78125)" xlink:href="#DejaVuSans-2c"/>
     <use transform="translate(1650.691406 0.78125)" xlink:href="#DejaVuSans-20"/>
     <use transform="translate(1682.478516 0.78125)" xlink:href="#DejaVuSans-394"/>
     <use transform="translate(1750.886719 0.78125)" xlink:href="#DejaVuSans-45"/>
     <use transform="translate(1814.070312 0.78125)" xlink:href="#DejaVuSans-3d"/>
     <use transform="translate(1897.859375 0.78125)" xlink:href="#DejaVuSans-30"/>
     <use transform="translate(1961.482422 0.78125)" xlink:href="#DejaVuSans-2e"/>
     <use transform="translate(1993.269531 0.78125)" xlink:href="#DejaVuSans-33"/>
     <use transform="translate(2056.892578 0.78125)" xlink:href="#DejaVuSans-32"/>
     <use transform="translate(2120.515625 0.78125)" xlink:href="#DejaVuSans-65"/>
     <use transform="translate(2182.039062 0.78125)" xlink:href="#DejaVuSans-56"/>
    </g>
   </g>
  </g>
  <g id="axes_2">
   <g id="patch_2">
    <path clip-path="url(#pd832388fec)" d="M 361.152 307.584 
L 361.152 306.5445 
L 361.152 42.5115 
L 361.152 41.472 
L 374.4576 41.472 
L 374.4576 42.5115 
L 374.4576 306.5445 
L 374.4576 307.584 
z
" style="fill:#ffffff;stroke:#ffffff;stroke-linejoin:miter;stroke-width:0.01;"/>
   </g>
   <image height="265.68" id="image51e8363c06" transform="scale(1 -1)translate(0 -265.68)" width="12.96" x="361.44" xlink:href="data:image/png;base64,
iVBORw0KGgoAAAANSUhEUgAAABIAAAFxCAYAAAB+2fgXAAAABHNCSVQICAgIfAhkiAAAAeVJREFUeJztncmNw0AQA2ckheYQNv9QLIfQ8ygsCgQ7AEI8+jAs2Puz/94F1LP2ReCsZ18bAWIeZ5XaGRBE7VnbptG+KI101FYyNSiQG2oRITXKNaX9uclOdi2XWjftVE32CZCO2ou5Bj1TcCBr/1zB9ge7Fq0Rg2NM9pvbtG+ua1QgsRYhDy0ISEiNc40BEibbSI0Coj5CBGtkpFbXJiAjNZlrwhuSOv2M1DjXbEdEciBt1JSDDQKKpmZr2rr2j0DBGpXaWEJq3bQzEPIS26r9J+Wzv9Tm8o3aajRXqc3VUXsApKNWjeZq0x4ABVNbm7lrszVigDqP5vIl2+eaT2yfRkL7g+dRcNPqjohkjaCvRVBq0H2U3LQrOJCx9kdTg4B8oxZzzTdqdYHEngjUCAPyUctN9sVRq2sTECW2UKNLd2jVtRmo1A6AhMmWaSRcR8nUdIHUuVb75zJS218EyEitro1At69pIdeSk30Lkw0FktNImGyZRhy1O5galmxd03LUsHWk06jUZiCq+5Wb1kZNN4+wJxJuWt8RAW5am2sYNZ9rYCBzZ3buPKJ2P5Yj4Toy3keyIyJbIxs1rml1byCA84gpch5RQNB7Q0qNMGq2Hy4BXdNR41yz/cEEJfZzUz96r9PoB0okjeQ8y9TkAAAAAElFTkSuQmCC" y="-41.76"/>
   <g id="matplotlib.axis_1"/>
   <g id="matplotlib.axis_2">
    <g id="ytick_1">
     <g id="line2d_1">
      <defs>
       <path d="M 0 0 
L 3.5 0 
" id="m3953f5f0bb" style="stroke:#000000;stroke-width:0.8;"/>
      </defs>
      <g>
       <use style="stroke:#000000;stroke-width:0.8;" x="374.4576" xlink:href="#m3953f5f0bb" y="282.64891"/>
      </g>
     </g>
     <g id="text_2">
      <!-- −8.5 -->
      <defs>
       <path d="M 10.59375 35.5 
L 73.1875 35.5 
L 73.1875 27.203125 
L 10.59375 27.203125 
z
" id="DejaVuSans-2212"/>
      </defs>
      <g transform="translate(381.4576 286.448129)scale(0.1 -0.1)">
       <use xlink:href="#DejaVuSans-2212"/>
       <use x="83.789062" xlink:href="#DejaVuSans-38"/>
       <use x="147.412109" xlink:href="#DejaVuSans-2e"/>
       <use x="179.199219" xlink:href="#DejaVuSans-35"/>
      </g>
     </g>
    </g>
    <g id="ytick_2">
     <g id="line2d_2">
      <g>
       <use style="stroke:#000000;stroke-width:0.8;" x="374.4576" xlink:href="#m3953f5f0bb" y="249.910006"/>
      </g>
     </g>
     <g id="text_3">
      <!-- −8.0 -->
      <g transform="translate(381.4576 253.709225)scale(0.1 -0.1)">
       <use xlink:href="#DejaVuSans-2212"/>
       <use x="83.789062" xlink:href="#DejaVuSans-38"/>
       <use x="147.412109" xlink:href="#DejaVuSans-2e"/>
       <use x="179.199219" xlink:href="#DejaVuSans-30"/>
      </g>
     </g>
    </g>
    <g id="ytick_3">
     <g id="line2d_3">
      <g>
       <use style="stroke:#000000;stroke-width:0.8;" x="374.4576" xlink:href="#m3953f5f0bb" y="217.171102"/>
      </g>
     </g>
     <g id="text_4">
      <!-- −7.5 -->
      <g transform="translate(381.4576 220.970321)scale(0.1 -0.1)">
       <use xlink:href="#DejaVuSans-2212"/>
       <use x="83.789062" xlink:href="#DejaVuSans-37"/>
       <use x="147.412109" xlink:href="#DejaVuSans-2e"/>
       <use x="179.199219" xlink:href="#DejaVuSans-35"/>
      </g>
     </g>
    </g>
    <g id="ytick_4">
     <g id="line2d_4">
      <g>
       <use style="stroke:#000000;stroke-width:0.8;" x="374.4576" xlink:href="#m3953f5f0bb" y="184.432198"/>
      </g>
     </g>
     <g id="text_5">
      <!-- −7.0 -->
      <g transform="translate(381.4576 188.231417)scale(0.1 -0.1)">
       <use xlink:href="#DejaVuSans-2212"/>
       <use x="83.789062" xlink:href="#DejaVuSans-37"/>
       <use x="147.412109" xlink:href="#DejaVuSans-2e"/>
       <use x="179.199219" xlink:href="#DejaVuSans-30"/>
      </g>
     </g>
    </g>
    <g id="ytick_5">
     <g id="line2d_5">
      <g>
       <use style="stroke:#000000;stroke-width:0.8;" x="374.4576" xlink:href="#m3953f5f0bb" y="151.693294"/>
      </g>
     </g>
     <g id="text_6">
      <!-- −6.5 -->
      <defs>
       <path d="M 33.015625 40.375 
Q 26.375 40.375 22.484375 35.828125 
Q 18.609375 31.296875 18.609375 23.390625 
Q 18.609375 15.53125 22.484375 10.953125 
Q 26.375 6.390625 33.015625 6.390625 
Q 39.65625 6.390625 43.53125 10.953125 
Q 47.40625 15.53125 47.40625 23.390625 
Q 47.40625 31.296875 43.53125 35.828125 
Q 39.65625 40.375 33.015625 40.375 
z
M 52.59375 71.296875 
L 52.59375 62.3125 
Q 48.875 64.0625 45.09375 64.984375 
Q 41.3125 65.921875 37.59375 65.921875 
Q 27.828125 65.921875 22.671875 59.328125 
Q 17.53125 52.734375 16.796875 39.40625 
Q 19.671875 43.65625 24.015625 45.921875 
Q 28.375 48.1875 33.59375 48.1875 
Q 44.578125 48.1875 50.953125 41.515625 
Q 57.328125 34.859375 57.328125 23.390625 
Q 57.328125 12.15625 50.6875 5.359375 
Q 44.046875 -1.421875 33.015625 -1.421875 
Q 20.359375 -1.421875 13.671875 8.265625 
Q 6.984375 17.96875 6.984375 36.375 
Q 6.984375 53.65625 15.1875 63.9375 
Q 23.390625 74.21875 37.203125 74.21875 
Q 40.921875 74.21875 44.703125 73.484375 
Q 48.484375 72.75 52.59375 71.296875 
z
" id="DejaVuSans-36"/>
      </defs>
      <g transform="translate(381.4576 155.492512)scale(0.1 -0.1)">
       <use xlink:href="#DejaVuSans-2212"/>
       <use x="83.789062" xlink:href="#DejaVuSans-36"/>
       <use x="147.412109" xlink:href="#DejaVuSans-2e"/>
       <use x="179.199219" xlink:href="#DejaVuSans-35"/>
      </g>
     </g>
    </g>
    <g id="ytick_6">
     <g id="line2d_6">
      <g>
       <use style="stroke:#000000;stroke-width:0.8;" x="374.4576" xlink:href="#m3953f5f0bb" y="118.95439"/>
      </g>
     </g>
     <g id="text_7">
      <!-- −6.0 -->
      <g transform="translate(381.4576 122.753608)scale(0.1 -0.1)">
       <use xlink:href="#DejaVuSans-2212"/>
       <use x="83.789062" xlink:href="#DejaVuSans-36"/>
       <use x="147.412109" xlink:href="#DejaVuSans-2e"/>
       <use x="179.199219" xlink:href="#DejaVuSans-30"/>
      </g>
     </g>
    </g>
    <g id="ytick_7">
     <g id="line2d_7">
      <g>
       <use style="stroke:#000000;stroke-width:0.8;" x="374.4576" xlink:href="#m3953f5f0bb" y="86.215485"/>
      </g>
     </g>
     <g id="text_8">
      <!-- −5.5 -->
      <g transform="translate(381.4576 90.014704)scale(0.1 -0.1)">
       <use xlink:href="#DejaVuSans-2212"/>
       <use x="83.789062" xlink:href="#DejaVuSans-35"/>
       <use x="147.412109" xlink:href="#DejaVuSans-2e"/>
       <use x="179.199219" xlink:href="#DejaVuSans-35"/>
      </g>
     </g>
    </g>
    <g id="ytick_8">
     <g id="line2d_8">
      <g>
       <use style="stroke:#000000;stroke-width:0.8;" x="374.4576" xlink:href="#m3953f5f0bb" y="53.476581"/>
      </g>
     </g>
     <g id="text_9">
      <!-- −5.0 -->
      <g transform="translate(381.4576 57.2758)scale(0.1 -0.1)">
       <use xlink:href="#DejaVuSans-2212"/>
       <use x="83.789062" xlink:href="#DejaVuSans-35"/>
       <use x="147.412109" xlink:href="#DejaVuSans-2e"/>
       <use x="179.199219" xlink:href="#DejaVuSans-30"/>
      </g>
     </g>
    </g>
    <g id="text_10">
     <!-- Energy [eV] -->
     <defs>
      <path d="M 54.890625 33.015625 
L 54.890625 0 
L 45.90625 0 
L 45.90625 32.71875 
Q 45.90625 40.484375 42.875 44.328125 
Q 39.84375 48.1875 33.796875 48.1875 
Q 26.515625 48.1875 22.3125 43.546875 
Q 18.109375 38.921875 18.109375 30.90625 
L 18.109375 0 
L 9.078125 0 
L 9.078125 54.6875 
L 18.109375 54.6875 
L 18.109375 46.1875 
Q 21.34375 51.125 25.703125 53.5625 
Q 30.078125 56 35.796875 56 
Q 45.21875 56 50.046875 50.171875 
Q 54.890625 44.34375 54.890625 33.015625 
z
" id="DejaVuSans-6e"/>
      <path d="M 45.40625 27.984375 
Q 45.40625 37.75 41.375 43.109375 
Q 37.359375 48.484375 30.078125 48.484375 
Q 22.859375 48.484375 18.828125 43.109375 
Q 14.796875 37.75 14.796875 27.984375 
Q 14.796875 18.265625 18.828125 12.890625 
Q 22.859375 7.515625 30.078125 7.515625 
Q 37.359375 7.515625 41.375 12.890625 
Q 45.40625 18.265625 45.40625 27.984375 
z
M 54.390625 6.78125 
Q 54.390625 -7.171875 48.1875 -13.984375 
Q 42 -20.796875 29.203125 -20.796875 
Q 24.46875 -20.796875 20.265625 -20.09375 
Q 16.0625 -19.390625 12.109375 -17.921875 
L 12.109375 -9.1875 
Q 16.0625 -11.328125 19.921875 -12.34375 
Q 23.78125 -13.375 27.78125 -13.375 
Q 36.625 -13.375 41.015625 -8.765625 
Q 45.40625 -4.15625 45.40625 5.171875 
L 45.40625 9.625 
Q 42.625 4.78125 38.28125 2.390625 
Q 33.9375 0 27.875 0 
Q 17.828125 0 11.671875 7.65625 
Q 5.515625 15.328125 5.515625 27.984375 
Q 5.515625 40.671875 11.671875 48.328125 
Q 17.828125 56 27.875 56 
Q 33.9375 56 38.28125 53.609375 
Q 42.625 51.21875 45.40625 46.390625 
L 45.40625 54.6875 
L 54.390625 54.6875 
z
" id="DejaVuSans-67"/>
      <path d="M 32.171875 -5.078125 
Q 28.375 -14.84375 24.75 -17.8125 
Q 21.140625 -20.796875 15.09375 -20.796875 
L 7.90625 -20.796875 
L 7.90625 -13.28125 
L 13.1875 -13.28125 
Q 16.890625 -13.28125 18.9375 -11.515625 
Q 21 -9.765625 23.484375 -3.21875 
L 25.09375 0.875 
L 2.984375 54.6875 
L 12.5 54.6875 
L 29.59375 11.921875 
L 46.6875 54.6875 
L 56.203125 54.6875 
z
" id="DejaVuSans-79"/>
      <path d="M 8.59375 75.984375 
L 29.296875 75.984375 
L 29.296875 69 
L 17.578125 69 
L 17.578125 -6.203125 
L 29.296875 -6.203125 
L 29.296875 -13.1875 
L 8.59375 -13.1875 
z
" id="DejaVuSans-5b"/>
      <path d="M 30.421875 75.984375 
L 30.421875 -13.1875 
L 9.71875 -13.1875 
L 9.71875 -6.203125 
L 21.390625 -6.203125 
L 21.390625 69 
L 9.71875 69 
L 9.71875 75.984375 
z
" id="DejaVuSans-5d"/>
     </defs>
     <g transform="translate(417.33885 204.108469)rotate(-90)scale(0.1 -0.1)">
      <use xlink:href="#DejaVuSans-45"/>
      <use x="63.183594" xlink:href="#DejaVuSans-6e"/>
      <use x="126.5625" xlink:href="#DejaVuSans-65"/>
      <use x="188.085938" xlink:href="#DejaVuSans-72"/>
      <use x="229.183594" xlink:href="#DejaVuSans-67"/>
      <use x="292.660156" xlink:href="#DejaVuSans-79"/>
      <use x="351.839844" xlink:href="#DejaVuSans-20"/>
      <use x="383.626953" xlink:href="#DejaVuSans-5b"/>
      <use x="422.640625" xlink:href="#DejaVuSans-65"/>
      <use x="484.164062" xlink:href="#DejaVuSans-56"/>
      <use x="552.572266" xlink:href="#DejaVuSans-5d"/>
     </g>
    </g>
   </g>
   <g id="patch_3">
    <path d="M 361.152 307.584 
L 361.152 306.5445 
L 361.152 42.5115 
L 361.152 41.472 
L 374.4576 41.472 
L 374.4576 42.5115 
L 374.4576 306.5445 
L 374.4576 307.584 
z
" style="fill:none;stroke:#000000;stroke-linejoin:miter;stroke-width:0.8;"/>
   </g>
  </g>
 </g>
 <defs>
  <clipPath id="p850eaa708f">
   <rect height="266.112" width="285.696" x="57.6" y="41.472"/>
  </clipPath>
  <clipPath id="pd832388fec">
   <rect height="266.112" width="13.3056" x="361.152" y="41.472"/>
  </clipPath>
 </defs>
</svg>
