<?xml version="1.0" encoding="utf-8" standalone="no"?>
<!DOCTYPE svg PUBLIC "-//W3C//DTD SVG 1.1//EN"
  "http://www.w3.org/Graphics/SVG/1.1/DTD/svg11.dtd">
<!-- Created with matplotlib (http://matplotlib.org/) -->
<svg height="345.6pt" version="1.1" viewBox="0 0 460.8 345.6" width="460.8pt" xmlns="http://www.w3.org/2000/svg" xmlns:xlink="http://www.w3.org/1999/xlink">
 <defs>
  <style type="text/css">
*{stroke-linecap:butt;stroke-linejoin:round;}
  </style>
 </defs>
 <g id="figure_1">
  <g id="patch_1">
   <path d="M 0 345.6 
L 460.8 345.6 
L 460.8 0 
L 0 0 
z
" style="fill:#ffffff;"/>
  </g>
  <g id="axes_1">
   <g id="CircleCollection_1">
    <path clip-path="url(#pa74482ceca)" d="M 172.233027 67.498347 
C 174.109093 67.498347 175.908572 66.752979 177.23515 65.4264 
C 178.561729 64.099822 179.307097 62.300343 179.307097 60.424277 
C 179.307097 58.548212 178.561729 56.748733 177.23515 55.422155 
C 175.908572 54.095576 174.109093 53.350207 172.233027 53.350207 
C 170.356962 53.350207 168.557483 54.095576 167.230905 55.422155 
C 165.904326 56.748733 165.158957 58.548212 165.158957 60.424277 
C 165.158957 62.300343 165.904326 64.099822 167.230905 65.4264 
C 168.557483 66.752979 170.356962 67.498347 172.233027 67.498347 
z
" style="fill:#481b6d;"/>
    <path clip-path="url(#pa74482ceca)" d="M 71.267463 221.380744 
C 73.228563 221.380744 75.109604 220.601591 76.496311 219.214884 
C 77.883018 217.828177 78.662171 215.947136 78.662171 213.986036 
C 78.662171 212.024937 77.883018 210.143895 76.496311 208.757189 
C 75.109604 207.370482 73.228563 206.591329 71.267463 206.591329 
C 69.306364 206.591329 67.425322 207.370482 66.038616 208.757189 
C 64.651909 210.143895 63.872756 212.024937 63.872756 213.986036 
C 63.872756 215.947136 64.651909 217.828177 66.038616 219.214884 
C 67.425322 220.601591 69.306364 221.380744 71.267463 221.380744 
z
" style="fill:#32b67a;"/>
    <path clip-path="url(#pa74482ceca)" d="M 295.210982 171.82337 
C 296.956673 171.82337 298.631099 171.1298 299.865489 169.89541 
C 301.099878 168.661021 301.793449 166.986594 301.793449 165.240904 
C 301.793449 163.495213 301.099878 161.820786 299.865489 160.586397 
C 298.631099 159.352007 296.956673 158.658437 295.210982 158.658437 
C 293.465292 158.658437 291.790865 159.352007 290.556475 160.586397 
C 289.322086 161.820786 288.628516 163.495213 288.628516 165.240904 
C 288.628516 166.986594 289.322086 168.661021 290.556475 169.89541 
C 291.790865 171.1298 293.465292 171.82337 295.210982 171.82337 
z
" style="fill:#1f978b;"/>
    <path clip-path="url(#pa74482ceca)" d="M 88.467549 118.439965 
C 90.414992 118.439965 92.282935 117.666238 93.659985 116.289188 
C 95.037035 114.912138 95.810762 113.044195 95.810762 111.096753 
C 95.810762 109.14931 95.037035 107.281367 93.659985 105.904317 
C 92.282935 104.527267 90.414992 103.75354 88.467549 103.75354 
C 86.520107 103.75354 84.652164 104.527267 83.275114 105.904317 
C 81.898064 107.281367 81.124337 109.14931 81.124337 111.096753 
C 81.124337 113.044195 81.898064 114.912138 83.275114 116.289188 
C 84.652164 117.666238 86.520107 118.439965 88.467549 118.439965 
z
" style="fill:#1e9b8a;"/>
    <path clip-path="url(#pa74482ceca)" d="M 171.236601 183.302056 
C 173.212081 183.302056 175.106915 182.51719 176.50379 181.120315 
C 177.900665 179.72344 178.685532 177.828605 178.685532 175.853126 
C 178.685532 173.877646 177.900665 171.982811 176.50379 170.585936 
C 175.106915 169.189062 173.212081 168.404195 171.236601 168.404195 
C 169.261122 168.404195 167.366287 169.189062 165.969412 170.585936 
C 164.572537 171.982811 163.78767 173.877646 163.78767 175.853126 
C 163.78767 177.828605 164.572537 179.72344 165.969412 181.120315 
C 167.366287 182.51719 169.261122 183.302056 171.236601 183.302056 
z
" style="fill:#46327e;"/>
    <path clip-path="url(#pa74482ceca)" d="M 218.731704 94.142862 
C 220.65578 94.142862 222.501309 93.378418 223.861837 92.017891 
C 225.222364 90.657364 225.986807 88.811834 225.986807 86.887758 
C 225.986807 84.963682 225.222364 83.118152 223.861837 81.757625 
C 222.501309 80.397098 220.65578 79.632655 218.731704 79.632655 
C 216.807628 79.632655 214.962098 80.397098 213.601571 81.757625 
C 212.241044 83.118152 211.4766 84.963682 211.4766 86.887758 
C 211.4766 88.811834 212.241044 90.657364 213.601571 92.017891 
C 214.962098 93.378418 216.807628 94.142862 218.731704 94.142862 
z
" style="fill:#3b518b;"/>
    <path clip-path="url(#pa74482ceca)" d="M 280.904109 214.503202 
C 282.786345 214.503202 284.591743 213.755381 285.922684 212.42444 
C 287.253626 211.093498 288.001447 209.2881 288.001447 207.405864 
C 288.001447 205.523628 287.253626 203.71823 285.922684 202.387288 
C 284.591743 201.056346 282.786345 200.308526 280.904109 200.308526 
C 279.021873 200.308526 277.216475 201.056346 275.885533 202.387288 
C 274.554591 203.71823 273.806771 205.523628 273.806771 207.405864 
C 273.806771 209.2881 274.554591 211.093498 275.885533 212.42444 
C 277.216475 213.755381 279.021873 214.503202 280.904109 214.503202 
z
" style="fill:#433d84;"/>
    <path clip-path="url(#pa74482ceca)" d="M 282.426695 162.456895 
C 284.351894 162.456895 286.198501 161.692005 287.559822 160.330684 
C 288.921143 158.969363 289.686033 157.122756 289.686033 155.197557 
C 289.686033 153.272358 288.921143 151.425751 287.559822 150.06443 
C 286.198501 148.703109 284.351894 147.938219 282.426695 147.938219 
C 280.501496 147.938219 278.654889 148.703109 277.293568 150.06443 
C 275.932247 151.425751 275.167357 153.272358 275.167357 155.197557 
C 275.167357 157.122756 275.932247 158.969363 277.293568 160.330684 
C 278.654889 161.692005 280.501496 162.456895 282.426695 162.456895 
z
" style="fill:#2d708e;"/>
    <path clip-path="url(#pa74482ceca)" d="M 190.995892 236.884609 
C 192.964896 236.884609 194.853519 236.102316 196.245815 234.71002 
C 197.638111 233.317725 198.420404 231.429101 198.420404 229.460098 
C 198.420404 227.491094 197.638111 225.602471 196.245815 224.210175 
C 194.853519 222.817879 192.964896 222.035586 190.995892 222.035586 
C 189.026889 222.035586 187.138266 222.817879 185.74597 224.210175 
C 184.353674 225.602471 183.571381 227.491094 183.571381 229.460098 
C 183.571381 231.429101 184.353674 233.317725 185.74597 234.71002 
C 187.138266 236.102316 189.026889 236.884609 190.995892 236.884609 
z
" style="fill:#424186;"/>
    <path clip-path="url(#pa74482ceca)" d="M 231.485605 301.564013 
C 233.293935 301.564013 235.028444 300.845555 236.307126 299.566873 
C 237.585809 298.28819 238.304266 296.553681 238.304266 294.745351 
C 238.304266 292.937021 237.585809 291.202512 236.307126 289.92383 
C 235.028444 288.645147 233.293935 287.92669 231.485605 287.92669 
C 229.677274 287.92669 227.942765 288.645147 226.664083 289.92383 
C 225.3854 291.202512 224.666943 292.937021 224.666943 294.745351 
C 224.666943 296.553681 225.3854 298.28819 226.664083 299.566873 
C 227.942765 300.845555 229.677274 301.564013 231.485605 301.564013 
z
" style="fill:#1f9f88;"/>
    <path clip-path="url(#pa74482ceca)" d="M 256.791726 80.282685 
C 258.588551 80.282685 260.312026 79.568799 261.582573 78.298251 
C 262.853121 77.027704 263.567007 75.30423 263.567007 73.507404 
C 263.567007 71.710578 262.853121 69.987104 261.582573 68.716557 
C 260.312026 67.446009 258.588551 66.732123 256.791726 66.732123 
C 254.9949 66.732123 253.271426 67.446009 252.000879 68.716557 
C 250.730331 69.987104 250.016445 71.710578 250.016445 73.507404 
C 250.016445 75.30423 250.730331 77.027704 252.000879 78.298251 
C 253.271426 79.568799 254.9949 80.282685 256.791726 80.282685 
z
" style="fill:#46327e;"/>
    <path clip-path="url(#pa74482ceca)" d="M 155.5799 281.318039 
C 157.518163 281.318039 159.3773 280.547959 160.747859 279.1774 
C 162.118418 277.806841 162.888498 275.947703 162.888498 274.00944 
C 162.888498 272.071177 162.118418 270.212039 160.747859 268.84148 
C 159.3773 267.470921 157.518163 266.700841 155.5799 266.700841 
C 153.641637 266.700841 151.782499 267.470921 150.41194 268.84148 
C 149.041381 270.212039 148.271301 272.071177 148.271301 274.00944 
C 148.271301 275.947703 149.041381 277.806841 150.41194 279.1774 
C 151.782499 280.547959 153.641637 281.318039 155.5799 281.318039 
z
" style="fill:#31688e;"/>
    <path clip-path="url(#pa74482ceca)" d="M 244.150909 251.829591 
C 246.072165 251.829591 247.91499 251.066268 249.273523 249.707735 
C 250.632056 248.349202 251.395379 246.506377 251.395379 244.585121 
C 251.395379 242.663865 250.632056 240.821041 249.273523 239.462507 
C 247.91499 238.103974 246.072165 237.340651 244.150909 237.340651 
C 242.229654 237.340651 240.386829 238.103974 239.028296 239.462507 
C 237.669763 240.821041 236.90644 242.663865 236.90644 244.585121 
C 236.90644 246.506377 237.669763 248.349202 239.028296 249.707735 
C 240.386829 251.066268 242.229654 251.829591 244.150909 251.829591 
z
" style="fill:#433e85;"/>
    <path clip-path="url(#pa74482ceca)" d="M 94.403142 266.45045 
C 96.343146 266.45045 98.203955 265.679678 99.575745 264.307887 
C 100.947536 262.936097 101.718308 261.075288 101.718308 259.135284 
C 101.718308 257.195279 100.947536 255.334471 99.575745 253.96268 
C 98.203955 252.59089 96.343146 251.820118 94.403142 251.820118 
C 92.463137 251.820118 90.602329 252.59089 89.230538 253.96268 
C 87.858748 255.334471 87.087976 257.195279 87.087976 259.135284 
C 87.087976 261.075288 87.858748 262.936097 89.230538 264.307887 
C 90.602329 265.679678 92.463137 266.45045 94.403142 266.45045 
z
" style="fill:#1f9f88;"/>
    <path clip-path="url(#pa74482ceca)" d="M 270.134986 272.529323 
C 271.902123 272.529323 273.59712 271.827233 274.846674 270.577678 
C 276.096229 269.328124 276.79832 267.633127 276.79832 265.86599 
C 276.79832 264.098854 276.096229 262.403857 274.846674 261.154302 
C 273.59712 259.904748 271.902123 259.202657 270.134986 259.202657 
C 268.36785 259.202657 266.672853 259.904748 265.423298 261.154302 
C 264.173744 262.403857 263.471653 264.098854 263.471653 265.86599 
C 263.471653 267.633127 264.173744 269.328124 265.423298 270.577678 
C 266.672853 271.827233 268.36785 272.529323 270.134986 272.529323 
z
" style="fill:#34b679;"/>
    <path clip-path="url(#pa74482ceca)" d="M 195.317524 61.070911 
C 197.111887 61.070911 198.833 60.358002 200.101807 59.089196 
C 201.370613 57.820389 202.083522 56.099276 202.083522 54.304913 
C 202.083522 52.510549 201.370613 50.789437 200.101807 49.52063 
C 198.833 48.251823 197.111887 47.538915 195.317524 47.538915 
C 193.52316 47.538915 191.802048 48.251823 190.533241 49.52063 
C 189.264434 50.789437 188.551526 52.510549 188.551526 54.304913 
C 188.551526 56.099276 189.264434 57.820389 190.533241 59.089196 
C 191.802048 60.358002 193.52316 61.070911 195.317524 61.070911 
z
" style="fill:#fde725;"/>
    <path clip-path="url(#pa74482ceca)" d="M 103.991187 172.458547 
C 105.957676 172.458547 107.843887 171.677253 109.234405 170.286735 
C 110.624922 168.896218 111.406216 167.010007 111.406216 165.043518 
C 111.406216 163.077029 110.624922 161.190818 109.234405 159.800301 
C 107.843887 158.409783 105.957676 157.628489 103.991187 157.628489 
C 102.024699 157.628489 100.138487 158.409783 98.74797 159.800301 
C 97.357452 161.190818 96.576158 163.077029 96.576158 165.043518 
C 96.576158 167.010007 97.357452 168.896218 98.74797 170.286735 
C 100.138487 171.677253 102.024699 172.458547 103.991187 172.458547 
z
" style="fill:#440154;"/>
    <path clip-path="url(#pa74482ceca)" d="M 280.225162 123.019926 
C 281.970811 123.019926 283.645198 122.326372 284.879558 121.092012 
C 286.113918 119.857652 286.807472 118.183266 286.807472 116.437617 
C 286.807472 114.691968 286.113918 113.017581 284.879558 111.783221 
C 283.645198 110.548861 281.970811 109.855307 280.225162 109.855307 
C 278.479513 109.855307 276.805127 110.548861 275.570767 111.783221 
C 274.336407 113.017581 273.642853 114.691968 273.642853 116.437617 
C 273.642853 118.183266 274.336407 119.857652 275.570767 121.092012 
C 276.805127 122.326372 278.479513 123.019926 280.225162 123.019926 
z
" style="fill:#1f9f88;"/>
    <path clip-path="url(#pa74482ceca)" d="M 280.067349 90.623599 
C 281.948901 90.623599 283.753642 89.876051 285.0841 88.545593 
C 286.414558 87.215135 287.162106 85.410394 287.162106 83.528842 
C 287.162106 81.647291 286.414558 79.842549 285.0841 78.512091 
C 283.753642 77.181633 281.948901 76.434085 280.067349 76.434085 
C 278.185798 76.434085 276.381056 77.181633 275.050598 78.512091 
C 273.72014 79.842549 272.972592 81.647291 272.972592 83.528842 
C 272.972592 85.410394 273.72014 87.215135 275.050598 88.545593 
C 276.381056 89.876051 278.185798 90.623599 280.067349 90.623599 
z
" style="fill:#365c8d;"/>
    <path clip-path="url(#pa74482ceca)" d="M 220.377686 145.241084 
C 222.335767 145.241084 224.213913 144.46313 225.598486 143.078558 
C 226.983058 141.693986 227.761012 139.815839 227.761012 137.857758 
C 227.761012 135.899677 226.983058 134.021531 225.598486 132.636959 
C 224.213913 131.252386 222.335767 130.474433 220.377686 130.474433 
C 218.419605 130.474433 216.541458 131.252386 215.156886 132.636959 
C 213.772314 134.021531 212.99436 135.899677 212.99436 137.857758 
C 212.99436 139.815839 213.772314 141.693986 215.156886 143.078558 
C 216.541458 144.46313 218.419605 145.241084 220.377686 145.241084 
z
" style="fill:#3b518b;"/>
    <path clip-path="url(#pa74482ceca)" d="M 329.647589 122.482563 
C 331.553845 122.482563 333.382282 121.725199 334.730209 120.377273 
C 336.078135 119.029346 336.835499 117.200909 336.835499 115.294653 
C 336.835499 113.388397 336.078135 111.55996 334.730209 110.212033 
C 333.382282 108.864107 331.553845 108.106743 329.647589 108.106743 
C 327.741333 108.106743 325.912896 108.864107 324.56497 110.212033 
C 323.217043 111.55996 322.45968 113.388397 322.45968 115.294653 
C 322.45968 117.200909 323.217043 119.029346 324.56497 120.377273 
C 325.912896 121.725199 327.741333 122.482563 329.647589 122.482563 
z
" style="fill:#b8de29;"/>
    <path clip-path="url(#pa74482ceca)" d="M 210.466005 296.842774 
C 212.353016 296.842774 214.162993 296.093056 215.497311 294.758738 
C 216.831629 293.42442 217.581347 291.614442 217.581347 289.727432 
C 217.581347 287.840421 216.831629 286.030443 215.497311 284.696125 
C 214.162993 283.361807 212.353016 282.61209 210.466005 282.61209 
C 208.578994 282.61209 206.769016 283.361807 205.434698 284.696125 
C 204.10038 286.030443 203.350663 287.840421 203.350663 289.727432 
C 203.350663 291.614442 204.10038 293.42442 205.434698 294.758738 
C 206.769016 296.093056 208.578994 296.842774 210.466005 296.842774 
z
" style="fill:#306a8e;"/>
    <path clip-path="url(#pa74482ceca)" d="M 114.790418 81.847646 
C 116.699369 81.847646 118.530391 81.089212 119.880222 79.73938 
C 121.230054 78.389548 121.988488 76.558527 121.988488 74.649576 
C 121.988488 72.740626 121.230054 70.909604 119.880222 69.559772 
C 118.530391 68.209941 116.699369 67.451506 114.790418 67.451506 
C 112.881468 67.451506 111.050446 68.209941 109.700615 69.559772 
C 108.350783 70.909604 107.592349 72.740626 107.592349 74.649576 
C 107.592349 76.558527 108.350783 78.389548 109.700615 79.73938 
C 111.050446 81.089212 112.881468 81.847646 114.790418 81.847646 
z
" style="fill:#1f9e89;"/>
    <path clip-path="url(#pa74482ceca)" d="M 289.561107 221.06556 
C 291.352975 221.06556 293.071695 220.353643 294.338737 219.086601 
C 295.605779 217.819559 296.317696 216.100839 296.317696 214.308971 
C 296.317696 212.517102 295.605779 210.798383 294.338737 209.531341 
C 293.071695 208.264298 291.352975 207.552382 289.561107 207.552382 
C 287.769238 207.552382 286.050519 208.264298 284.783477 209.531341 
C 283.516434 210.798383 282.804518 212.517102 282.804518 214.308971 
C 282.804518 216.100839 283.516434 217.819559 284.783477 219.086601 
C 286.050519 220.353643 287.769238 221.06556 289.561107 221.06556 
z
" style="fill:#440256;"/>
   </g>
   <g id="text_1">
    <!-- Structure #7756, $E_N$=-182.45eV, ΔE=0.14eV -->
    <defs>
     <path d="M 53.515625 70.515625 
L 53.515625 60.890625 
Q 47.90625 63.578125 42.921875 64.890625 
Q 37.9375 66.21875 33.296875 66.21875 
Q 25.25 66.21875 20.875 63.09375 
Q 16.5 59.96875 16.5 54.203125 
Q 16.5 49.359375 19.40625 46.890625 
Q 22.3125 44.4375 30.421875 42.921875 
L 36.375 41.703125 
Q 47.40625 39.59375 52.65625 34.296875 
Q 57.90625 29 57.90625 20.125 
Q 57.90625 9.515625 50.796875 4.046875 
Q 43.703125 -1.421875 29.984375 -1.421875 
Q 24.8125 -1.421875 18.96875 -0.25 
Q 13.140625 0.921875 6.890625 3.21875 
L 6.890625 13.375 
Q 12.890625 10.015625 18.65625 8.296875 
Q 24.421875 6.59375 29.984375 6.59375 
Q 38.421875 6.59375 43.015625 9.90625 
Q 47.609375 13.234375 47.609375 19.390625 
Q 47.609375 24.75 44.3125 27.78125 
Q 41.015625 30.8125 33.5 32.328125 
L 27.484375 33.5 
Q 16.453125 35.6875 11.515625 40.375 
Q 6.59375 45.0625 6.59375 53.421875 
Q 6.59375 63.09375 13.40625 68.65625 
Q 20.21875 74.21875 32.171875 74.21875 
Q 37.3125 74.21875 42.625 73.28125 
Q 47.953125 72.359375 53.515625 70.515625 
z
" id="DejaVuSans-53"/>
     <path d="M 18.3125 70.21875 
L 18.3125 54.6875 
L 36.8125 54.6875 
L 36.8125 47.703125 
L 18.3125 47.703125 
L 18.3125 18.015625 
Q 18.3125 11.328125 20.140625 9.421875 
Q 21.96875 7.515625 27.59375 7.515625 
L 36.8125 7.515625 
L 36.8125 0 
L 27.59375 0 
Q 17.1875 0 13.234375 3.875 
Q 9.28125 7.765625 9.28125 18.015625 
L 9.28125 47.703125 
L 2.6875 47.703125 
L 2.6875 54.6875 
L 9.28125 54.6875 
L 9.28125 70.21875 
z
" id="DejaVuSans-74"/>
     <path d="M 41.109375 46.296875 
Q 39.59375 47.171875 37.8125 47.578125 
Q 36.03125 48 33.890625 48 
Q 26.265625 48 22.1875 43.046875 
Q 18.109375 38.09375 18.109375 28.8125 
L 18.109375 0 
L 9.078125 0 
L 9.078125 54.6875 
L 18.109375 54.6875 
L 18.109375 46.1875 
Q 20.953125 51.171875 25.484375 53.578125 
Q 30.03125 56 36.53125 56 
Q 37.453125 56 38.578125 55.875 
Q 39.703125 55.765625 41.0625 55.515625 
z
" id="DejaVuSans-72"/>
     <path d="M 8.5 21.578125 
L 8.5 54.6875 
L 17.484375 54.6875 
L 17.484375 21.921875 
Q 17.484375 14.15625 20.5 10.265625 
Q 23.53125 6.390625 29.59375 6.390625 
Q 36.859375 6.390625 41.078125 11.03125 
Q 45.3125 15.671875 45.3125 23.6875 
L 45.3125 54.6875 
L 54.296875 54.6875 
L 54.296875 0 
L 45.3125 0 
L 45.3125 8.40625 
Q 42.046875 3.421875 37.71875 1 
Q 33.40625 -1.421875 27.6875 -1.421875 
Q 18.265625 -1.421875 13.375 4.4375 
Q 8.5 10.296875 8.5 21.578125 
z
M 31.109375 56 
z
" id="DejaVuSans-75"/>
     <path d="M 48.78125 52.59375 
L 48.78125 44.1875 
Q 44.96875 46.296875 41.140625 47.34375 
Q 37.3125 48.390625 33.40625 48.390625 
Q 24.65625 48.390625 19.8125 42.84375 
Q 14.984375 37.3125 14.984375 27.296875 
Q 14.984375 17.28125 19.8125 11.734375 
Q 24.65625 6.203125 33.40625 6.203125 
Q 37.3125 6.203125 41.140625 7.25 
Q 44.96875 8.296875 48.78125 10.40625 
L 48.78125 2.09375 
Q 45.015625 0.34375 40.984375 -0.53125 
Q 36.96875 -1.421875 32.421875 -1.421875 
Q 20.0625 -1.421875 12.78125 6.34375 
Q 5.515625 14.109375 5.515625 27.296875 
Q 5.515625 40.671875 12.859375 48.328125 
Q 20.21875 56 33.015625 56 
Q 37.15625 56 41.109375 55.140625 
Q 45.0625 54.296875 48.78125 52.59375 
z
" id="DejaVuSans-63"/>
     <path d="M 56.203125 29.59375 
L 56.203125 25.203125 
L 14.890625 25.203125 
Q 15.484375 15.921875 20.484375 11.0625 
Q 25.484375 6.203125 34.421875 6.203125 
Q 39.59375 6.203125 44.453125 7.46875 
Q 49.3125 8.734375 54.109375 11.28125 
L 54.109375 2.78125 
Q 49.265625 0.734375 44.1875 -0.34375 
Q 39.109375 -1.421875 33.890625 -1.421875 
Q 20.796875 -1.421875 13.15625 6.1875 
Q 5.515625 13.8125 5.515625 26.8125 
Q 5.515625 40.234375 12.765625 48.109375 
Q 20.015625 56 32.328125 56 
Q 43.359375 56 49.78125 48.890625 
Q 56.203125 41.796875 56.203125 29.59375 
z
M 47.21875 32.234375 
Q 47.125 39.59375 43.09375 43.984375 
Q 39.0625 48.390625 32.421875 48.390625 
Q 24.90625 48.390625 20.390625 44.140625 
Q 15.875 39.890625 15.1875 32.171875 
z
" id="DejaVuSans-65"/>
     <path id="DejaVuSans-20"/>
     <path d="M 51.125 44 
L 36.921875 44 
L 32.8125 27.6875 
L 47.125 27.6875 
z
M 43.796875 71.78125 
L 38.71875 51.515625 
L 52.984375 51.515625 
L 58.109375 71.78125 
L 65.921875 71.78125 
L 60.890625 51.515625 
L 76.125 51.515625 
L 76.125 44 
L 58.984375 44 
L 54.984375 27.6875 
L 70.515625 27.6875 
L 70.515625 20.21875 
L 53.078125 20.21875 
L 48 0 
L 40.1875 0 
L 45.21875 20.21875 
L 30.90625 20.21875 
L 25.875 0 
L 18.015625 0 
L 23.09375 20.21875 
L 7.71875 20.21875 
L 7.71875 27.6875 
L 24.90625 27.6875 
L 29 44 
L 13.28125 44 
L 13.28125 51.515625 
L 30.90625 51.515625 
L 35.890625 71.78125 
z
" id="DejaVuSans-23"/>
     <path d="M 8.203125 72.90625 
L 55.078125 72.90625 
L 55.078125 68.703125 
L 28.609375 0 
L 18.3125 0 
L 43.21875 64.59375 
L 8.203125 64.59375 
z
" id="DejaVuSans-37"/>
     <path d="M 10.796875 72.90625 
L 49.515625 72.90625 
L 49.515625 64.59375 
L 19.828125 64.59375 
L 19.828125 46.734375 
Q 21.96875 47.46875 24.109375 47.828125 
Q 26.265625 48.1875 28.421875 48.1875 
Q 40.625 48.1875 47.75 41.5 
Q 54.890625 34.8125 54.890625 23.390625 
Q 54.890625 11.625 47.5625 5.09375 
Q 40.234375 -1.421875 26.90625 -1.421875 
Q 22.3125 -1.421875 17.546875 -0.640625 
Q 12.796875 0.140625 7.71875 1.703125 
L 7.71875 11.625 
Q 12.109375 9.234375 16.796875 8.0625 
Q 21.484375 6.890625 26.703125 6.890625 
Q 35.15625 6.890625 40.078125 11.328125 
Q 45.015625 15.765625 45.015625 23.390625 
Q 45.015625 31 40.078125 35.4375 
Q 35.15625 39.890625 26.703125 39.890625 
Q 22.75 39.890625 18.8125 39.015625 
Q 14.890625 38.140625 10.796875 36.28125 
z
" id="DejaVuSans-35"/>
     <path d="M 33.015625 40.375 
Q 26.375 40.375 22.484375 35.828125 
Q 18.609375 31.296875 18.609375 23.390625 
Q 18.609375 15.53125 22.484375 10.953125 
Q 26.375 6.390625 33.015625 6.390625 
Q 39.65625 6.390625 43.53125 10.953125 
Q 47.40625 15.53125 47.40625 23.390625 
Q 47.40625 31.296875 43.53125 35.828125 
Q 39.65625 40.375 33.015625 40.375 
z
M 52.59375 71.296875 
L 52.59375 62.3125 
Q 48.875 64.0625 45.09375 64.984375 
Q 41.3125 65.921875 37.59375 65.921875 
Q 27.828125 65.921875 22.671875 59.328125 
Q 17.53125 52.734375 16.796875 39.40625 
Q 19.671875 43.65625 24.015625 45.921875 
Q 28.375 48.1875 33.59375 48.1875 
Q 44.578125 48.1875 50.953125 41.515625 
Q 57.328125 34.859375 57.328125 23.390625 
Q 57.328125 12.15625 50.6875 5.359375 
Q 44.046875 -1.421875 33.015625 -1.421875 
Q 20.359375 -1.421875 13.671875 8.265625 
Q 6.984375 17.96875 6.984375 36.375 
Q 6.984375 53.65625 15.1875 63.9375 
Q 23.390625 74.21875 37.203125 74.21875 
Q 40.921875 74.21875 44.703125 73.484375 
Q 48.484375 72.75 52.59375 71.296875 
z
" id="DejaVuSans-36"/>
     <path d="M 11.71875 12.40625 
L 22.015625 12.40625 
L 22.015625 4 
L 14.015625 -11.625 
L 7.71875 -11.625 
L 11.71875 4 
z
" id="DejaVuSans-2c"/>
     <path d="M 16.890625 72.90625 
L 62.984375 72.90625 
L 61.375 64.59375 
L 25.09375 64.59375 
L 20.90625 43.015625 
L 55.71875 43.015625 
L 54.109375 34.71875 
L 19.28125 34.71875 
L 14.203125 8.296875 
L 51.3125 8.296875 
L 49.703125 0 
L 2.6875 0 
z
" id="DejaVuSans-Oblique-45"/>
     <path d="M 16.890625 72.90625 
L 30.171875 72.90625 
L 50.296875 10.40625 
L 62.5 72.90625 
L 72.125 72.90625 
L 57.90625 0 
L 44.578125 0 
L 24.515625 62.890625 
L 12.3125 0 
L 2.6875 0 
z
" id="DejaVuSans-Oblique-4e"/>
     <path d="M 10.59375 45.40625 
L 73.1875 45.40625 
L 73.1875 37.203125 
L 10.59375 37.203125 
z
M 10.59375 25.484375 
L 73.1875 25.484375 
L 73.1875 17.1875 
L 10.59375 17.1875 
z
" id="DejaVuSans-3d"/>
     <path d="M 4.890625 31.390625 
L 31.203125 31.390625 
L 31.203125 23.390625 
L 4.890625 23.390625 
z
" id="DejaVuSans-2d"/>
     <path d="M 12.40625 8.296875 
L 28.515625 8.296875 
L 28.515625 63.921875 
L 10.984375 60.40625 
L 10.984375 69.390625 
L 28.421875 72.90625 
L 38.28125 72.90625 
L 38.28125 8.296875 
L 54.390625 8.296875 
L 54.390625 0 
L 12.40625 0 
z
" id="DejaVuSans-31"/>
     <path d="M 31.78125 34.625 
Q 24.75 34.625 20.71875 30.859375 
Q 16.703125 27.09375 16.703125 20.515625 
Q 16.703125 13.921875 20.71875 10.15625 
Q 24.75 6.390625 31.78125 6.390625 
Q 38.8125 6.390625 42.859375 10.171875 
Q 46.921875 13.96875 46.921875 20.515625 
Q 46.921875 27.09375 42.890625 30.859375 
Q 38.875 34.625 31.78125 34.625 
z
M 21.921875 38.8125 
Q 15.578125 40.375 12.03125 44.71875 
Q 8.5 49.078125 8.5 55.328125 
Q 8.5 64.0625 14.71875 69.140625 
Q 20.953125 74.21875 31.78125 74.21875 
Q 42.671875 74.21875 48.875 69.140625 
Q 55.078125 64.0625 55.078125 55.328125 
Q 55.078125 49.078125 51.53125 44.71875 
Q 48 40.375 41.703125 38.8125 
Q 48.828125 37.15625 52.796875 32.3125 
Q 56.78125 27.484375 56.78125 20.515625 
Q 56.78125 9.90625 50.3125 4.234375 
Q 43.84375 -1.421875 31.78125 -1.421875 
Q 19.734375 -1.421875 13.25 4.234375 
Q 6.78125 9.90625 6.78125 20.515625 
Q 6.78125 27.484375 10.78125 32.3125 
Q 14.796875 37.15625 21.921875 38.8125 
z
M 18.3125 54.390625 
Q 18.3125 48.734375 21.84375 45.5625 
Q 25.390625 42.390625 31.78125 42.390625 
Q 38.140625 42.390625 41.71875 45.5625 
Q 45.3125 48.734375 45.3125 54.390625 
Q 45.3125 60.0625 41.71875 63.234375 
Q 38.140625 66.40625 31.78125 66.40625 
Q 25.390625 66.40625 21.84375 63.234375 
Q 18.3125 60.0625 18.3125 54.390625 
z
" id="DejaVuSans-38"/>
     <path d="M 19.1875 8.296875 
L 53.609375 8.296875 
L 53.609375 0 
L 7.328125 0 
L 7.328125 8.296875 
Q 12.9375 14.109375 22.625 23.890625 
Q 32.328125 33.6875 34.8125 36.53125 
Q 39.546875 41.84375 41.421875 45.53125 
Q 43.3125 49.21875 43.3125 52.78125 
Q 43.3125 58.59375 39.234375 62.25 
Q 35.15625 65.921875 28.609375 65.921875 
Q 23.96875 65.921875 18.8125 64.3125 
Q 13.671875 62.703125 7.8125 59.421875 
L 7.8125 69.390625 
Q 13.765625 71.78125 18.9375 73 
Q 24.125 74.21875 28.421875 74.21875 
Q 39.75 74.21875 46.484375 68.546875 
Q 53.21875 62.890625 53.21875 53.421875 
Q 53.21875 48.921875 51.53125 44.890625 
Q 49.859375 40.875 45.40625 35.40625 
Q 44.1875 33.984375 37.640625 27.21875 
Q 31.109375 20.453125 19.1875 8.296875 
z
" id="DejaVuSans-32"/>
     <path d="M 10.6875 12.40625 
L 21 12.40625 
L 21 0 
L 10.6875 0 
z
" id="DejaVuSans-2e"/>
     <path d="M 37.796875 64.3125 
L 12.890625 25.390625 
L 37.796875 25.390625 
z
M 35.203125 72.90625 
L 47.609375 72.90625 
L 47.609375 25.390625 
L 58.015625 25.390625 
L 58.015625 17.1875 
L 47.609375 17.1875 
L 47.609375 0 
L 37.796875 0 
L 37.796875 17.1875 
L 4.890625 17.1875 
L 4.890625 26.703125 
z
" id="DejaVuSans-34"/>
     <path d="M 28.609375 0 
L 0.78125 72.90625 
L 11.078125 72.90625 
L 34.1875 11.53125 
L 57.328125 72.90625 
L 67.578125 72.90625 
L 39.796875 0 
z
" id="DejaVuSans-56"/>
     <path d="M 34.1875 63.1875 
L 14.15625 8.203125 
L 54.25 8.203125 
z
M 0.78125 0 
L 28.609375 72.90625 
L 39.796875 72.90625 
L 67.578125 0 
z
" id="DejaVuSans-394"/>
     <path d="M 9.8125 72.90625 
L 55.90625 72.90625 
L 55.90625 64.59375 
L 19.671875 64.59375 
L 19.671875 43.015625 
L 54.390625 43.015625 
L 54.390625 34.71875 
L 19.671875 34.71875 
L 19.671875 8.296875 
L 56.78125 8.296875 
L 56.78125 0 
L 9.8125 0 
z
" id="DejaVuSans-45"/>
     <path d="M 31.78125 66.40625 
Q 24.171875 66.40625 20.328125 58.90625 
Q 16.5 51.421875 16.5 36.375 
Q 16.5 21.390625 20.328125 13.890625 
Q 24.171875 6.390625 31.78125 6.390625 
Q 39.453125 6.390625 43.28125 13.890625 
Q 47.125 21.390625 47.125 36.375 
Q 47.125 51.421875 43.28125 58.90625 
Q 39.453125 66.40625 31.78125 66.40625 
z
M 31.78125 74.21875 
Q 44.046875 74.21875 50.515625 64.515625 
Q 56.984375 54.828125 56.984375 36.375 
Q 56.984375 17.96875 50.515625 8.265625 
Q 44.046875 -1.421875 31.78125 -1.421875 
Q 19.53125 -1.421875 13.0625 8.265625 
Q 6.59375 17.96875 6.59375 36.375 
Q 6.59375 54.828125 13.0625 64.515625 
Q 19.53125 74.21875 31.78125 74.21875 
z
" id="DejaVuSans-30"/>
    </defs>
    <g transform="translate(65.388 35.472)scale(0.12 -0.12)">
     <use transform="translate(0 0.78125)" xlink:href="#DejaVuSans-53"/>
     <use transform="translate(63.476562 0.78125)" xlink:href="#DejaVuSans-74"/>
     <use transform="translate(102.685547 0.78125)" xlink:href="#DejaVuSans-72"/>
     <use transform="translate(143.798828 0.78125)" xlink:href="#DejaVuSans-75"/>
     <use transform="translate(207.177734 0.78125)" xlink:href="#DejaVuSans-63"/>
     <use transform="translate(262.158203 0.78125)" xlink:href="#DejaVuSans-74"/>
     <use transform="translate(301.367188 0.78125)" xlink:href="#DejaVuSans-75"/>
     <use transform="translate(364.746094 0.78125)" xlink:href="#DejaVuSans-72"/>
     <use transform="translate(405.859375 0.78125)" xlink:href="#DejaVuSans-65"/>
     <use transform="translate(467.382812 0.78125)" xlink:href="#DejaVuSans-20"/>
     <use transform="translate(499.169922 0.78125)" xlink:href="#DejaVuSans-23"/>
     <use transform="translate(582.958984 0.78125)" xlink:href="#DejaVuSans-37"/>
     <use transform="translate(646.566406 0.78125)" xlink:href="#DejaVuSans-37"/>
     <use transform="translate(710.189453 0.78125)" xlink:href="#DejaVuSans-35"/>
     <use transform="translate(773.8125 0.78125)" xlink:href="#DejaVuSans-36"/>
     <use transform="translate(837.435547 0.78125)" xlink:href="#DejaVuSans-2c"/>
     <use transform="translate(869.222656 0.78125)" xlink:href="#DejaVuSans-20"/>
     <use transform="translate(901.009766 0.78125)" xlink:href="#DejaVuSans-Oblique-45"/>
     <use transform="translate(964.193359 -15.625)scale(0.7)" xlink:href="#DejaVuSans-Oblique-4e"/>
     <use transform="translate(1019.291016 0.78125)" xlink:href="#DejaVuSans-3d"/>
     <use transform="translate(1103.080078 0.78125)" xlink:href="#DejaVuSans-2d"/>
     <use transform="translate(1139.164062 0.78125)" xlink:href="#DejaVuSans-31"/>
     <use transform="translate(1202.787109 0.78125)" xlink:href="#DejaVuSans-38"/>
     <use transform="translate(1266.410156 0.78125)" xlink:href="#DejaVuSans-32"/>
     <use transform="translate(1330.033203 0.78125)" xlink:href="#DejaVuSans-2e"/>
     <use transform="translate(1361.820312 0.78125)" xlink:href="#DejaVuSans-34"/>
     <use transform="translate(1425.443359 0.78125)" xlink:href="#DejaVuSans-35"/>
     <use transform="translate(1489.066406 0.78125)" xlink:href="#DejaVuSans-65"/>
     <use transform="translate(1550.589844 0.78125)" xlink:href="#DejaVuSans-56"/>
     <use transform="translate(1618.998047 0.78125)" xlink:href="#DejaVuSans-2c"/>
     <use transform="translate(1650.785156 0.78125)" xlink:href="#DejaVuSans-20"/>
     <use transform="translate(1682.572266 0.78125)" xlink:href="#DejaVuSans-394"/>
     <use transform="translate(1750.980469 0.78125)" xlink:href="#DejaVuSans-45"/>
     <use transform="translate(1814.164062 0.78125)" xlink:href="#DejaVuSans-3d"/>
     <use transform="translate(1897.953125 0.78125)" xlink:href="#DejaVuSans-30"/>
     <use transform="translate(1961.576172 0.78125)" xlink:href="#DejaVuSans-2e"/>
     <use transform="translate(1993.363281 0.78125)" xlink:href="#DejaVuSans-31"/>
     <use transform="translate(2056.986328 0.78125)" xlink:href="#DejaVuSans-34"/>
     <use transform="translate(2120.609375 0.78125)" xlink:href="#DejaVuSans-65"/>
     <use transform="translate(2182.132812 0.78125)" xlink:href="#DejaVuSans-56"/>
    </g>
   </g>
  </g>
  <g id="axes_2">
   <g id="patch_2">
    <path clip-path="url(#pfd35414792)" d="M 361.152 307.584 
L 361.152 306.5445 
L 361.152 42.5115 
L 361.152 41.472 
L 374.4576 41.472 
L 374.4576 42.5115 
L 374.4576 306.5445 
L 374.4576 307.584 
z
" style="fill:#ffffff;stroke:#ffffff;stroke-linejoin:miter;stroke-width:0.01;"/>
   </g>
   <image height="265.68" id="image510a142d7c" transform="scale(1 -1)translate(0 -265.68)" width="12.96" x="361.44" xlink:href="data:image/png;base64,
iVBORw0KGgoAAAANSUhEUgAAABIAAAFxCAYAAAB+2fgXAAAABHNCSVQICAgIfAhkiAAAAeVJREFUeJztncmNw0AQA2ckheYQNv9QLIfQ8ygsCgQ7AEI8+jAs2Puz/94F1LP2ReCsZ18bAWIeZ5XaGRBE7VnbptG+KI101FYyNSiQG2oRITXKNaX9uclOdi2XWjftVE32CZCO2ou5Bj1TcCBr/1zB9ge7Fq0Rg2NM9pvbtG+ua1QgsRYhDy0ISEiNc40BEibbSI0Coj5CBGtkpFbXJiAjNZlrwhuSOv2M1DjXbEdEciBt1JSDDQKKpmZr2rr2j0DBGpXaWEJq3bQzEPIS26r9J+Wzv9Tm8o3aajRXqc3VUXsApKNWjeZq0x4ABVNbm7lrszVigDqP5vIl2+eaT2yfRkL7g+dRcNPqjohkjaCvRVBq0H2U3LQrOJCx9kdTg4B8oxZzzTdqdYHEngjUCAPyUctN9sVRq2sTECW2UKNLd2jVtRmo1A6AhMmWaSRcR8nUdIHUuVb75zJS218EyEitro1At69pIdeSk30Lkw0FktNImGyZRhy1O5galmxd03LUsHWk06jUZiCq+5Wb1kZNN4+wJxJuWt8RAW5am2sYNZ9rYCBzZ3buPKJ2P5Yj4Toy3keyIyJbIxs1rml1byCA84gpch5RQNB7Q0qNMGq2Hy4BXdNR41yz/cEEJfZzUz96r9PoB0okjeQ8y9TkAAAAAElFTkSuQmCC" y="-41.76"/>
   <g id="matplotlib.axis_1"/>
   <g id="matplotlib.axis_2">
    <g id="ytick_1">
     <g id="line2d_1">
      <defs>
       <path d="M 0 0 
L 3.5 0 
" id="md8963fd07f" style="stroke:#000000;stroke-width:0.8;"/>
      </defs>
      <g>
       <use style="stroke:#000000;stroke-width:0.8;" x="374.4576" xlink:href="#md8963fd07f" y="285.165934"/>
      </g>
     </g>
     <g id="text_2">
      <!-- −8.5 -->
      <defs>
       <path d="M 10.59375 35.5 
L 73.1875 35.5 
L 73.1875 27.203125 
L 10.59375 27.203125 
z
" id="DejaVuSans-2212"/>
      </defs>
      <g transform="translate(381.4576 288.965153)scale(0.1 -0.1)">
       <use xlink:href="#DejaVuSans-2212"/>
       <use x="83.789062" xlink:href="#DejaVuSans-38"/>
       <use x="147.412109" xlink:href="#DejaVuSans-2e"/>
       <use x="179.199219" xlink:href="#DejaVuSans-35"/>
      </g>
     </g>
    </g>
    <g id="ytick_2">
     <g id="line2d_2">
      <g>
       <use style="stroke:#000000;stroke-width:0.8;" x="374.4576" xlink:href="#md8963fd07f" y="240.358176"/>
      </g>
     </g>
     <g id="text_3">
      <!-- −8.0 -->
      <g transform="translate(381.4576 244.157394)scale(0.1 -0.1)">
       <use xlink:href="#DejaVuSans-2212"/>
       <use x="83.789062" xlink:href="#DejaVuSans-38"/>
       <use x="147.412109" xlink:href="#DejaVuSans-2e"/>
       <use x="179.199219" xlink:href="#DejaVuSans-30"/>
      </g>
     </g>
    </g>
    <g id="ytick_3">
     <g id="line2d_3">
      <g>
       <use style="stroke:#000000;stroke-width:0.8;" x="374.4576" xlink:href="#md8963fd07f" y="195.550417"/>
      </g>
     </g>
     <g id="text_4">
      <!-- −7.5 -->
      <g transform="translate(381.4576 199.349636)scale(0.1 -0.1)">
       <use xlink:href="#DejaVuSans-2212"/>
       <use x="83.789062" xlink:href="#DejaVuSans-37"/>
       <use x="147.412109" xlink:href="#DejaVuSans-2e"/>
       <use x="179.199219" xlink:href="#DejaVuSans-35"/>
      </g>
     </g>
    </g>
    <g id="ytick_4">
     <g id="line2d_4">
      <g>
       <use style="stroke:#000000;stroke-width:0.8;" x="374.4576" xlink:href="#md8963fd07f" y="150.742659"/>
      </g>
     </g>
     <g id="text_5">
      <!-- −7.0 -->
      <g transform="translate(381.4576 154.541878)scale(0.1 -0.1)">
       <use xlink:href="#DejaVuSans-2212"/>
       <use x="83.789062" xlink:href="#DejaVuSans-37"/>
       <use x="147.412109" xlink:href="#DejaVuSans-2e"/>
       <use x="179.199219" xlink:href="#DejaVuSans-30"/>
      </g>
     </g>
    </g>
    <g id="ytick_5">
     <g id="line2d_5">
      <g>
       <use style="stroke:#000000;stroke-width:0.8;" x="374.4576" xlink:href="#md8963fd07f" y="105.934901"/>
      </g>
     </g>
     <g id="text_6">
      <!-- −6.5 -->
      <g transform="translate(381.4576 109.73412)scale(0.1 -0.1)">
       <use xlink:href="#DejaVuSans-2212"/>
       <use x="83.789062" xlink:href="#DejaVuSans-36"/>
       <use x="147.412109" xlink:href="#DejaVuSans-2e"/>
       <use x="179.199219" xlink:href="#DejaVuSans-35"/>
      </g>
     </g>
    </g>
    <g id="ytick_6">
     <g id="line2d_6">
      <g>
       <use style="stroke:#000000;stroke-width:0.8;" x="374.4576" xlink:href="#md8963fd07f" y="61.127143"/>
      </g>
     </g>
     <g id="text_7">
      <!-- −6.0 -->
      <g transform="translate(381.4576 64.926361)scale(0.1 -0.1)">
       <use xlink:href="#DejaVuSans-2212"/>
       <use x="83.789062" xlink:href="#DejaVuSans-36"/>
       <use x="147.412109" xlink:href="#DejaVuSans-2e"/>
       <use x="179.199219" xlink:href="#DejaVuSans-30"/>
      </g>
     </g>
    </g>
    <g id="text_8">
     <!-- Energy [eV] -->
     <defs>
      <path d="M 54.890625 33.015625 
L 54.890625 0 
L 45.90625 0 
L 45.90625 32.71875 
Q 45.90625 40.484375 42.875 44.328125 
Q 39.84375 48.1875 33.796875 48.1875 
Q 26.515625 48.1875 22.3125 43.546875 
Q 18.109375 38.921875 18.109375 30.90625 
L 18.109375 0 
L 9.078125 0 
L 9.078125 54.6875 
L 18.109375 54.6875 
L 18.109375 46.1875 
Q 21.34375 51.125 25.703125 53.5625 
Q 30.078125 56 35.796875 56 
Q 45.21875 56 50.046875 50.171875 
Q 54.890625 44.34375 54.890625 33.015625 
z
" id="DejaVuSans-6e"/>
      <path d="M 45.40625 27.984375 
Q 45.40625 37.75 41.375 43.109375 
Q 37.359375 48.484375 30.078125 48.484375 
Q 22.859375 48.484375 18.828125 43.109375 
Q 14.796875 37.75 14.796875 27.984375 
Q 14.796875 18.265625 18.828125 12.890625 
Q 22.859375 7.515625 30.078125 7.515625 
Q 37.359375 7.515625 41.375 12.890625 
Q 45.40625 18.265625 45.40625 27.984375 
z
M 54.390625 6.78125 
Q 54.390625 -7.171875 48.1875 -13.984375 
Q 42 -20.796875 29.203125 -20.796875 
Q 24.46875 -20.796875 20.265625 -20.09375 
Q 16.0625 -19.390625 12.109375 -17.921875 
L 12.109375 -9.1875 
Q 16.0625 -11.328125 19.921875 -12.34375 
Q 23.78125 -13.375 27.78125 -13.375 
Q 36.625 -13.375 41.015625 -8.765625 
Q 45.40625 -4.15625 45.40625 5.171875 
L 45.40625 9.625 
Q 42.625 4.78125 38.28125 2.390625 
Q 33.9375 0 27.875 0 
Q 17.828125 0 11.671875 7.65625 
Q 5.515625 15.328125 5.515625 27.984375 
Q 5.515625 40.671875 11.671875 48.328125 
Q 17.828125 56 27.875 56 
Q 33.9375 56 38.28125 53.609375 
Q 42.625 51.21875 45.40625 46.390625 
L 45.40625 54.6875 
L 54.390625 54.6875 
z
" id="DejaVuSans-67"/>
      <path d="M 32.171875 -5.078125 
Q 28.375 -14.84375 24.75 -17.8125 
Q 21.140625 -20.796875 15.09375 -20.796875 
L 7.90625 -20.796875 
L 7.90625 -13.28125 
L 13.1875 -13.28125 
Q 16.890625 -13.28125 18.9375 -11.515625 
Q 21 -9.765625 23.484375 -3.21875 
L 25.09375 0.875 
L 2.984375 54.6875 
L 12.5 54.6875 
L 29.59375 11.921875 
L 46.6875 54.6875 
L 56.203125 54.6875 
z
" id="DejaVuSans-79"/>
      <path d="M 8.59375 75.984375 
L 29.296875 75.984375 
L 29.296875 69 
L 17.578125 69 
L 17.578125 -6.203125 
L 29.296875 -6.203125 
L 29.296875 -13.1875 
L 8.59375 -13.1875 
z
" id="DejaVuSans-5b"/>
      <path d="M 30.421875 75.984375 
L 30.421875 -13.1875 
L 9.71875 -13.1875 
L 9.71875 -6.203125 
L 21.390625 -6.203125 
L 21.390625 69 
L 9.71875 69 
L 9.71875 75.984375 
z
" id="DejaVuSans-5d"/>
     </defs>
     <g transform="translate(417.33885 204.108469)rotate(-90)scale(0.1 -0.1)">
      <use xlink:href="#DejaVuSans-45"/>
      <use x="63.183594" xlink:href="#DejaVuSans-6e"/>
      <use x="126.5625" xlink:href="#DejaVuSans-65"/>
      <use x="188.085938" xlink:href="#DejaVuSans-72"/>
      <use x="229.183594" xlink:href="#DejaVuSans-67"/>
      <use x="292.660156" xlink:href="#DejaVuSans-79"/>
      <use x="351.839844" xlink:href="#DejaVuSans-20"/>
      <use x="383.626953" xlink:href="#DejaVuSans-5b"/>
      <use x="422.640625" xlink:href="#DejaVuSans-65"/>
      <use x="484.164062" xlink:href="#DejaVuSans-56"/>
      <use x="552.572266" xlink:href="#DejaVuSans-5d"/>
     </g>
    </g>
   </g>
   <g id="patch_3">
    <path d="M 361.152 307.584 
L 361.152 306.5445 
L 361.152 42.5115 
L 361.152 41.472 
L 374.4576 41.472 
L 374.4576 42.5115 
L 374.4576 306.5445 
L 374.4576 307.584 
z
" style="fill:none;stroke:#000000;stroke-linejoin:miter;stroke-width:0.8;"/>
   </g>
  </g>
 </g>
 <defs>
  <clipPath id="pa74482ceca">
   <rect height="266.112" width="285.696" x="57.6" y="41.472"/>
  </clipPath>
  <clipPath id="pfd35414792">
   <rect height="266.112" width="13.3056" x="361.152" y="41.472"/>
  </clipPath>
 </defs>
</svg>
