<?xml version="1.0" encoding="utf-8" standalone="no"?>
<!DOCTYPE svg PUBLIC "-//W3C//DTD SVG 1.1//EN"
  "http://www.w3.org/Graphics/SVG/1.1/DTD/svg11.dtd">
<!-- Created with matplotlib (http://matplotlib.org/) -->
<svg height="345.6pt" version="1.1" viewBox="0 0 460.8 345.6" width="460.8pt" xmlns="http://www.w3.org/2000/svg" xmlns:xlink="http://www.w3.org/1999/xlink">
 <defs>
  <style type="text/css">
*{stroke-linecap:butt;stroke-linejoin:round;}
  </style>
 </defs>
 <g id="figure_1">
  <g id="patch_1">
   <path d="M 0 345.6 
L 460.8 345.6 
L 460.8 0 
L 0 0 
z
" style="fill:#ffffff;"/>
  </g>
  <g id="axes_1">
   <g id="CircleCollection_1">
    <path clip-path="url(#p01d5623c86)" d="M 291.316469 147.221548 
C 293.068293 147.221548 294.748603 146.525541 295.98733 145.286815 
C 297.226056 144.048088 297.922063 142.367778 297.922063 140.615954 
C 297.922063 138.86413 297.226056 137.18382 295.98733 135.945094 
C 294.748603 134.706367 293.068293 134.01036 291.316469 134.01036 
C 289.564645 134.01036 287.884335 134.706367 286.645608 135.945094 
C 285.406882 137.18382 284.710875 138.86413 284.710875 140.615954 
C 284.710875 142.367778 285.406882 144.048088 286.645608 145.286815 
C 287.884335 146.525541 289.564645 147.221548 291.316469 147.221548 
z
" style="fill:#29798e;"/>
    <path clip-path="url(#p01d5623c86)" d="M 329.84732 217.616201 
C 331.610316 217.616201 333.301342 216.915755 334.547968 215.669129 
C 335.794594 214.422502 336.49504 212.731477 336.49504 210.968481 
C 336.49504 209.205485 335.794594 207.514459 334.547968 206.267833 
C 333.301342 205.021206 331.610316 204.320761 329.84732 204.320761 
C 328.084324 204.320761 326.393298 205.021206 325.146672 206.267833 
C 323.900046 207.514459 323.1996 209.205485 323.1996 210.968481 
C 323.1996 212.731477 323.900046 214.422502 325.146672 215.669129 
C 326.393298 216.915755 328.084324 217.616201 329.84732 217.616201 
z
" style="fill:#9bd93c;"/>
    <path clip-path="url(#p01d5623c86)" d="M 159.468558 238.135857 
C 161.328603 238.135857 163.112715 237.396853 164.427966 236.081603 
C 165.743216 234.766353 166.482219 232.98224 166.482219 231.122195 
C 166.482219 229.26215 165.743216 227.478038 164.427966 226.162788 
C 163.112715 224.847537 161.328603 224.108534 159.468558 224.108534 
C 157.608513 224.108534 155.8244 224.847537 154.50915 226.162788 
C 153.1939 227.478038 152.454896 229.26215 152.454896 231.122195 
C 152.454896 232.98224 153.1939 234.766353 154.50915 236.081603 
C 155.8244 237.396853 157.608513 238.135857 159.468558 238.135857 
z
" style="fill:#46327e;"/>
    <path clip-path="url(#p01d5623c86)" d="M 174.104545 62.144303 
C 175.887822 62.144303 177.5983 61.4358 178.859268 60.174833 
C 180.120235 58.913865 180.828738 57.203387 180.828738 55.42011 
C 180.828738 53.636833 180.120235 51.926354 178.859268 50.665387 
C 177.5983 49.40442 175.887822 48.695917 174.104545 48.695917 
C 172.321268 48.695917 170.610789 49.40442 169.349822 50.665387 
C 168.088855 51.926354 167.380352 53.636833 167.380352 55.42011 
C 167.380352 57.203387 168.088855 58.913865 169.349822 60.174833 
C 170.610789 61.4358 172.321268 62.144303 174.104545 62.144303 
z
" style="fill:#23898e;"/>
    <path clip-path="url(#p01d5623c86)" d="M 134.875225 71.80333 
C 136.689929 71.80333 138.430551 71.082341 139.713741 69.799152 
C 140.99693 68.515962 141.71792 66.775339 141.71792 64.960636 
C 141.71792 63.145932 140.99693 61.405309 139.713741 60.12212 
C 138.430551 58.83893 136.689929 58.117941 134.875225 58.117941 
C 133.060521 58.117941 131.319898 58.83893 130.036709 60.12212 
C 128.753519 61.405309 128.03253 63.145932 128.03253 64.960636 
C 128.03253 66.775339 128.753519 68.515962 130.036709 69.799152 
C 131.319898 71.082341 133.060521 71.80333 134.875225 71.80333 
z
" style="fill:#277f8e;"/>
    <path clip-path="url(#p01d5623c86)" d="M 122.122923 211.683513 
C 124.001285 211.683513 125.802968 210.937232 127.131171 209.609029 
C 128.459374 208.280826 129.205655 206.479143 129.205655 204.600781 
C 129.205655 202.722418 128.459374 200.920735 127.131171 199.592532 
C 125.802968 198.26433 124.001285 197.518048 122.122923 197.518048 
C 120.24456 197.518048 118.442878 198.26433 117.114675 199.592532 
C 115.786472 200.920735 115.04019 202.722418 115.04019 204.600781 
C 115.04019 206.479143 115.786472 208.280826 117.114675 209.609029 
C 118.442878 210.937232 120.24456 211.683513 122.122923 211.683513 
z
" style="fill:#46337f;"/>
    <path clip-path="url(#p01d5623c86)" d="M 121.757227 106.026144 
C 123.597257 106.026144 125.362172 105.295093 126.663269 103.993995 
C 127.964367 102.692898 128.695418 100.927983 128.695418 99.087953 
C 128.695418 97.247923 127.964367 95.483009 126.663269 94.181911 
C 125.362172 92.880813 123.597257 92.149762 121.757227 92.149762 
C 119.917197 92.149762 118.152283 92.880813 116.851185 94.181911 
C 115.550088 95.483009 114.819036 97.247923 114.819036 99.087953 
C 114.819036 100.927983 115.550088 102.692898 116.851185 103.993995 
C 118.152283 105.295093 119.917197 106.026144 121.757227 106.026144 
z
" style="fill:#2b758e;"/>
    <path clip-path="url(#p01d5623c86)" d="M 241.049594 237.122877 
C 242.858307 237.122877 244.593184 236.404268 245.872137 235.125314 
C 247.151091 233.846361 247.8697 232.111484 247.8697 230.302771 
C 247.8697 228.494058 247.151091 226.759182 245.872137 225.480228 
C 244.593184 224.201275 242.858307 223.482666 241.049594 223.482666 
C 239.240881 223.482666 237.506005 224.201275 236.227051 225.480228 
C 234.948098 226.759182 234.229489 228.494058 234.229489 230.302771 
C 234.229489 232.111484 234.948098 233.846361 236.227051 235.125314 
C 237.506005 236.404268 239.240881 237.122877 241.049594 237.122877 
z
" style="fill:#46075a;"/>
    <path clip-path="url(#p01d5623c86)" d="M 156.110131 277.785787 
C 157.977256 277.785787 159.768161 277.04397 161.088418 275.723712 
C 162.408675 274.403455 163.150492 272.612551 163.150492 270.745425 
C 163.150492 268.878299 162.408675 267.087395 161.088418 265.767138 
C 159.768161 264.44688 157.977256 263.705063 156.110131 263.705063 
C 154.243005 263.705063 152.4521 264.44688 151.131843 265.767138 
C 149.811586 267.087395 149.069769 268.878299 149.069769 270.745425 
C 149.069769 272.612551 149.811586 274.403455 151.131843 275.723712 
C 152.4521 277.04397 154.243005 277.785787 156.110131 277.785787 
z
" style="fill:#440154;"/>
    <path clip-path="url(#p01d5623c86)" d="M 217.255669 60.683887 
C 219.010844 60.683887 220.694367 59.986549 221.935463 58.745453 
C 223.176559 57.504357 223.873897 55.820834 223.873897 54.065659 
C 223.873897 52.310484 223.176559 50.626961 221.935463 49.385865 
C 220.694367 48.144769 219.010844 47.44743 217.255669 47.44743 
C 215.500494 47.44743 213.816971 48.144769 212.575875 49.385865 
C 211.334779 50.626961 210.63744 52.310484 210.63744 54.065659 
C 210.63744 55.820834 211.334779 57.504357 212.575875 58.745453 
C 213.816971 59.986549 215.500494 60.683887 217.255669 60.683887 
z
" style="fill:#2c738e;"/>
    <path clip-path="url(#p01d5623c86)" d="M 198.370818 294.561137 
C 200.211236 294.561137 201.976523 293.829931 203.277895 292.528559 
C 204.579267 291.227188 205.310472 289.461901 205.310472 287.621483 
C 205.310472 285.781065 204.579267 284.015778 203.277895 282.714406 
C 201.976523 281.413034 200.211236 280.681829 198.370818 280.681829 
C 196.5304 280.681829 194.765114 281.413034 193.463742 282.714406 
C 192.16237 284.015778 191.431164 285.781065 191.431164 287.621483 
C 191.431164 289.461901 192.16237 291.227188 193.463742 292.528559 
C 194.765114 293.829931 196.5304 294.561137 198.370818 294.561137 
z
" style="fill:#27ad81;"/>
    <path clip-path="url(#p01d5623c86)" d="M 71.091758 302.208467 
C 73.018963 302.208467 74.867495 301.44278 76.230235 300.08004 
C 77.592975 298.717301 78.358661 296.868769 78.358661 294.941564 
C 78.358661 293.014359 77.592975 291.165827 76.230235 289.803087 
C 74.867495 288.440347 73.018963 287.674661 71.091758 287.674661 
C 69.164553 287.674661 67.316021 288.440347 65.953281 289.803087 
C 64.590542 291.165827 63.824855 293.014359 63.824855 294.941564 
C 63.824855 296.868769 64.590542 298.717301 65.953281 300.08004 
C 67.316021 301.44278 69.164553 302.208467 71.091758 302.208467 
z
" style="fill:#a0da39;"/>
    <path clip-path="url(#p01d5623c86)" d="M 75.782713 263.16793 
C 77.699367 263.16793 79.537778 262.406435 80.893058 261.051155 
C 82.248337 259.695876 83.009832 257.857465 83.009832 255.940811 
C 83.009832 254.024156 82.248337 252.185745 80.893058 250.830466 
C 79.537778 249.475186 77.699367 248.713691 75.782713 248.713691 
C 73.866058 248.713691 72.027647 249.475186 70.672368 250.830466 
C 69.317088 252.185745 68.555594 254.024156 68.555594 255.940811 
C 68.555594 257.857465 69.317088 259.695876 70.672368 261.051155 
C 72.027647 262.406435 73.866058 263.16793 75.782713 263.16793 
z
" style="fill:#2b758e;"/>
    <path clip-path="url(#p01d5623c86)" d="M 278.205554 113.396997 
C 279.948593 113.396997 281.620476 112.70448 282.85299 111.471966 
C 284.085505 110.239451 284.778021 108.567568 284.778021 106.82453 
C 284.778021 105.081491 284.085505 103.409608 282.85299 102.177093 
C 281.620476 100.944579 279.948593 100.252062 278.205554 100.252062 
C 276.462515 100.252062 274.790632 100.944579 273.558118 102.177093 
C 272.325603 103.409608 271.633086 105.081491 271.633086 106.82453 
C 271.633086 108.567568 272.325603 110.239451 273.558118 111.471966 
C 274.790632 112.70448 276.462515 113.396997 278.205554 113.396997 
z
" style="fill:#306a8e;"/>
    <path clip-path="url(#p01d5623c86)" d="M 301.392571 183.424999 
C 303.154576 183.424999 304.84465 182.724947 306.090576 181.479022 
C 307.336501 180.233097 308.036553 178.543022 308.036553 176.781018 
C 308.036553 175.019013 307.336501 173.328939 306.090576 172.083013 
C 304.84465 170.837088 303.154576 170.137036 301.392571 170.137036 
C 299.630567 170.137036 297.940492 170.837088 296.694567 172.083013 
C 295.448642 173.328939 294.74859 175.019013 294.74859 176.781018 
C 294.74859 178.543022 295.448642 180.233097 296.694567 181.479022 
C 297.940492 182.724947 299.630567 183.424999 301.392571 183.424999 
z
" style="fill:#2e6f8e;"/>
    <path clip-path="url(#p01d5623c86)" d="M 113.423357 290.543697 
C 115.320486 290.543697 117.140168 289.78996 118.48164 288.448488 
C 119.823113 287.107016 120.57685 285.287333 120.57685 283.390205 
C 120.57685 281.493077 119.823113 279.673394 118.48164 278.331922 
C 117.140168 276.99045 115.320486 276.236713 113.423357 276.236713 
C 111.526229 276.236713 109.706547 276.99045 108.365074 278.331922 
C 107.023602 279.673394 106.269865 281.493077 106.269865 283.390205 
C 106.269865 285.287333 107.023602 287.107016 108.365074 288.448488 
C 109.706547 289.78996 111.526229 290.543697 113.423357 290.543697 
z
" style="fill:#23888e;"/>
    <path clip-path="url(#p01d5623c86)" d="M 140.746322 174.609525 
C 142.604468 174.609525 144.38676 173.871276 145.700667 172.557368 
C 147.014575 171.24346 147.752824 169.461169 147.752824 167.603022 
C 147.752824 165.744876 147.014575 163.962585 145.700667 162.648677 
C 144.38676 161.334769 142.604468 160.59652 140.746322 160.59652 
C 138.888176 160.59652 137.105884 161.334769 135.791976 162.648677 
C 134.478069 163.962585 133.739819 165.744876 133.739819 167.603022 
C 133.739819 169.461169 134.478069 171.24346 135.791976 172.557368 
C 137.105884 173.871276 138.888176 174.609525 140.746322 174.609525 
z
" style="fill:#481668;"/>
    <path clip-path="url(#p01d5623c86)" d="M 187.259327 178.690783 
C 189.090054 178.690783 190.846045 177.963428 192.140564 176.668909 
C 193.435084 175.374389 194.162439 173.618398 194.162439 171.787672 
C 194.162439 169.956945 193.435084 168.200954 192.140564 166.906435 
C 190.846045 165.611916 189.090054 164.88456 187.259327 164.88456 
C 185.428601 164.88456 183.67261 165.611916 182.378091 166.906435 
C 181.083571 168.200954 180.356216 169.956945 180.356216 171.787672 
C 180.356216 173.618398 181.083571 175.374389 182.378091 176.668909 
C 183.67261 177.963428 185.428601 178.690783 187.259327 178.690783 
z
" style="fill:#fde725;"/>
    <path clip-path="url(#p01d5623c86)" d="M 249.981259 84.761499 
C 251.726782 84.761499 253.401048 84.067995 254.635319 82.833724 
C 255.86959 81.599453 256.563094 79.925187 256.563094 78.179664 
C 256.563094 76.434141 255.86959 74.759875 254.635319 73.525604 
C 253.401048 72.291332 251.726782 71.597829 249.981259 71.597829 
C 248.235736 71.597829 246.56147 72.291332 245.327199 73.525604 
C 244.092928 74.759875 243.399424 76.434141 243.399424 78.179664 
C 243.399424 79.925187 244.092928 81.599453 245.327199 82.833724 
C 246.56147 84.067995 248.235736 84.761499 249.981259 84.761499 
z
" style="fill:#297b8e;"/>
    <path clip-path="url(#p01d5623c86)" d="M 199.104879 217.889767 
C 200.936623 217.889767 202.69359 217.162008 203.988828 215.866769 
C 205.284067 214.571531 206.011826 212.814564 206.011826 210.98282 
C 206.011826 209.151076 205.284067 207.394109 203.988828 206.098871 
C 202.69359 204.803633 200.936623 204.075873 199.104879 204.075873 
C 197.273135 204.075873 195.516168 204.803633 194.22093 206.098871 
C 192.925691 207.394109 192.197932 209.151076 192.197932 210.98282 
C 192.197932 212.814564 192.925691 214.571531 194.22093 215.866769 
C 195.516168 217.162008 197.273135 217.889767 199.104879 217.889767 
z
" style="fill:#482979;"/>
    <path clip-path="url(#p01d5623c86)" d="M 282.425625 218.682477 
C 284.209168 218.682477 285.919902 217.973868 287.181058 216.712712 
C 288.442213 215.451557 289.150822 213.740823 289.150822 211.95728 
C 289.150822 210.173737 288.442213 208.463003 287.181058 207.201848 
C 285.919902 205.940692 284.209168 205.232083 282.425625 205.232083 
C 280.642082 205.232083 278.931348 205.940692 277.670193 207.201848 
C 276.409038 208.463003 275.700428 210.173737 275.700428 211.95728 
C 275.700428 213.740823 276.409038 215.451557 277.670193 216.712712 
C 278.931348 217.973868 280.642082 218.682477 282.425625 218.682477 
z
" style="fill:#2b748e;"/>
    <path clip-path="url(#p01d5623c86)" d="M 233.121132 276.314905 
C 234.93762 276.314905 236.679955 275.593206 237.964406 274.308755 
C 239.248858 273.024303 239.970556 271.281969 239.970556 269.46548 
C 239.970556 267.648992 239.248858 265.906657 237.964406 264.622206 
C 236.679955 263.337754 234.93762 262.616056 233.121132 262.616056 
C 231.304643 262.616056 229.562309 263.337754 228.277857 264.622206 
C 226.993406 265.906657 226.271707 267.648992 226.271707 269.46548 
C 226.271707 271.281969 226.993406 273.024303 228.277857 274.308755 
C 229.562309 275.593206 231.304643 276.314905 233.121132 276.314905 
z
" style="fill:#2db27d;"/>
    <path clip-path="url(#p01d5623c86)" d="M 117.895369 140.05356 
C 119.75455 140.05356 121.537835 139.314899 122.852475 138.000259 
C 124.167115 136.685619 124.905775 134.902335 124.905775 133.043153 
C 124.905775 131.183972 124.167115 129.400687 122.852475 128.086047 
C 121.537835 126.771408 119.75455 126.032747 117.895369 126.032747 
C 116.036187 126.032747 114.252903 126.771408 112.938263 128.086047 
C 111.623623 129.400687 110.884963 131.183972 110.884963 133.043153 
C 110.884963 134.902335 111.623623 136.685619 112.938263 138.000259 
C 114.252903 139.314899 116.036187 140.05356 117.895369 140.05356 
z
" style="fill:#1e9b8a;"/>
    <path clip-path="url(#p01d5623c86)" d="M 80.283808 226.147389 
C 82.190288 226.147389 84.018941 225.389936 85.367026 224.041851 
C 86.715112 222.693765 87.472565 220.865113 87.472565 218.958632 
C 87.472565 217.052151 86.715112 215.223499 85.367026 213.875413 
C 84.018941 212.527328 82.190288 211.769875 80.283808 211.769875 
C 78.377327 211.769875 76.548674 212.527328 75.200589 213.875413 
C 73.852504 215.223499 73.095051 217.052151 73.095051 218.958632 
C 73.095051 220.865113 73.852504 222.693765 75.200589 224.041851 
C 76.548674 225.389936 78.377327 226.147389 80.283808 226.147389 
z
" style="fill:#56c667;"/>
   </g>
   <g id="text_1">
    <!-- Structure #5475, $E_N$=-181.35eV, ΔE=-0.14eV -->
    <defs>
     <path d="M 53.515625 70.515625 
L 53.515625 60.890625 
Q 47.90625 63.578125 42.921875 64.890625 
Q 37.9375 66.21875 33.296875 66.21875 
Q 25.25 66.21875 20.875 63.09375 
Q 16.5 59.96875 16.5 54.203125 
Q 16.5 49.359375 19.40625 46.890625 
Q 22.3125 44.4375 30.421875 42.921875 
L 36.375 41.703125 
Q 47.40625 39.59375 52.65625 34.296875 
Q 57.90625 29 57.90625 20.125 
Q 57.90625 9.515625 50.796875 4.046875 
Q 43.703125 -1.421875 29.984375 -1.421875 
Q 24.8125 -1.421875 18.96875 -0.25 
Q 13.140625 0.921875 6.890625 3.21875 
L 6.890625 13.375 
Q 12.890625 10.015625 18.65625 8.296875 
Q 24.421875 6.59375 29.984375 6.59375 
Q 38.421875 6.59375 43.015625 9.90625 
Q 47.609375 13.234375 47.609375 19.390625 
Q 47.609375 24.75 44.3125 27.78125 
Q 41.015625 30.8125 33.5 32.328125 
L 27.484375 33.5 
Q 16.453125 35.6875 11.515625 40.375 
Q 6.59375 45.0625 6.59375 53.421875 
Q 6.59375 63.09375 13.40625 68.65625 
Q 20.21875 74.21875 32.171875 74.21875 
Q 37.3125 74.21875 42.625 73.28125 
Q 47.953125 72.359375 53.515625 70.515625 
z
" id="DejaVuSans-53"/>
     <path d="M 18.3125 70.21875 
L 18.3125 54.6875 
L 36.8125 54.6875 
L 36.8125 47.703125 
L 18.3125 47.703125 
L 18.3125 18.015625 
Q 18.3125 11.328125 20.140625 9.421875 
Q 21.96875 7.515625 27.59375 7.515625 
L 36.8125 7.515625 
L 36.8125 0 
L 27.59375 0 
Q 17.1875 0 13.234375 3.875 
Q 9.28125 7.765625 9.28125 18.015625 
L 9.28125 47.703125 
L 2.6875 47.703125 
L 2.6875 54.6875 
L 9.28125 54.6875 
L 9.28125 70.21875 
z
" id="DejaVuSans-74"/>
     <path d="M 41.109375 46.296875 
Q 39.59375 47.171875 37.8125 47.578125 
Q 36.03125 48 33.890625 48 
Q 26.265625 48 22.1875 43.046875 
Q 18.109375 38.09375 18.109375 28.8125 
L 18.109375 0 
L 9.078125 0 
L 9.078125 54.6875 
L 18.109375 54.6875 
L 18.109375 46.1875 
Q 20.953125 51.171875 25.484375 53.578125 
Q 30.03125 56 36.53125 56 
Q 37.453125 56 38.578125 55.875 
Q 39.703125 55.765625 41.0625 55.515625 
z
" id="DejaVuSans-72"/>
     <path d="M 8.5 21.578125 
L 8.5 54.6875 
L 17.484375 54.6875 
L 17.484375 21.921875 
Q 17.484375 14.15625 20.5 10.265625 
Q 23.53125 6.390625 29.59375 6.390625 
Q 36.859375 6.390625 41.078125 11.03125 
Q 45.3125 15.671875 45.3125 23.6875 
L 45.3125 54.6875 
L 54.296875 54.6875 
L 54.296875 0 
L 45.3125 0 
L 45.3125 8.40625 
Q 42.046875 3.421875 37.71875 1 
Q 33.40625 -1.421875 27.6875 -1.421875 
Q 18.265625 -1.421875 13.375 4.4375 
Q 8.5 10.296875 8.5 21.578125 
z
M 31.109375 56 
z
" id="DejaVuSans-75"/>
     <path d="M 48.78125 52.59375 
L 48.78125 44.1875 
Q 44.96875 46.296875 41.140625 47.34375 
Q 37.3125 48.390625 33.40625 48.390625 
Q 24.65625 48.390625 19.8125 42.84375 
Q 14.984375 37.3125 14.984375 27.296875 
Q 14.984375 17.28125 19.8125 11.734375 
Q 24.65625 6.203125 33.40625 6.203125 
Q 37.3125 6.203125 41.140625 7.25 
Q 44.96875 8.296875 48.78125 10.40625 
L 48.78125 2.09375 
Q 45.015625 0.34375 40.984375 -0.53125 
Q 36.96875 -1.421875 32.421875 -1.421875 
Q 20.0625 -1.421875 12.78125 6.34375 
Q 5.515625 14.109375 5.515625 27.296875 
Q 5.515625 40.671875 12.859375 48.328125 
Q 20.21875 56 33.015625 56 
Q 37.15625 56 41.109375 55.140625 
Q 45.0625 54.296875 48.78125 52.59375 
z
" id="DejaVuSans-63"/>
     <path d="M 56.203125 29.59375 
L 56.203125 25.203125 
L 14.890625 25.203125 
Q 15.484375 15.921875 20.484375 11.0625 
Q 25.484375 6.203125 34.421875 6.203125 
Q 39.59375 6.203125 44.453125 7.46875 
Q 49.3125 8.734375 54.109375 11.28125 
L 54.109375 2.78125 
Q 49.265625 0.734375 44.1875 -0.34375 
Q 39.109375 -1.421875 33.890625 -1.421875 
Q 20.796875 -1.421875 13.15625 6.1875 
Q 5.515625 13.8125 5.515625 26.8125 
Q 5.515625 40.234375 12.765625 48.109375 
Q 20.015625 56 32.328125 56 
Q 43.359375 56 49.78125 48.890625 
Q 56.203125 41.796875 56.203125 29.59375 
z
M 47.21875 32.234375 
Q 47.125 39.59375 43.09375 43.984375 
Q 39.0625 48.390625 32.421875 48.390625 
Q 24.90625 48.390625 20.390625 44.140625 
Q 15.875 39.890625 15.1875 32.171875 
z
" id="DejaVuSans-65"/>
     <path id="DejaVuSans-20"/>
     <path d="M 51.125 44 
L 36.921875 44 
L 32.8125 27.6875 
L 47.125 27.6875 
z
M 43.796875 71.78125 
L 38.71875 51.515625 
L 52.984375 51.515625 
L 58.109375 71.78125 
L 65.921875 71.78125 
L 60.890625 51.515625 
L 76.125 51.515625 
L 76.125 44 
L 58.984375 44 
L 54.984375 27.6875 
L 70.515625 27.6875 
L 70.515625 20.21875 
L 53.078125 20.21875 
L 48 0 
L 40.1875 0 
L 45.21875 20.21875 
L 30.90625 20.21875 
L 25.875 0 
L 18.015625 0 
L 23.09375 20.21875 
L 7.71875 20.21875 
L 7.71875 27.6875 
L 24.90625 27.6875 
L 29 44 
L 13.28125 44 
L 13.28125 51.515625 
L 30.90625 51.515625 
L 35.890625 71.78125 
z
" id="DejaVuSans-23"/>
     <path d="M 10.796875 72.90625 
L 49.515625 72.90625 
L 49.515625 64.59375 
L 19.828125 64.59375 
L 19.828125 46.734375 
Q 21.96875 47.46875 24.109375 47.828125 
Q 26.265625 48.1875 28.421875 48.1875 
Q 40.625 48.1875 47.75 41.5 
Q 54.890625 34.8125 54.890625 23.390625 
Q 54.890625 11.625 47.5625 5.09375 
Q 40.234375 -1.421875 26.90625 -1.421875 
Q 22.3125 -1.421875 17.546875 -0.640625 
Q 12.796875 0.140625 7.71875 1.703125 
L 7.71875 11.625 
Q 12.109375 9.234375 16.796875 8.0625 
Q 21.484375 6.890625 26.703125 6.890625 
Q 35.15625 6.890625 40.078125 11.328125 
Q 45.015625 15.765625 45.015625 23.390625 
Q 45.015625 31 40.078125 35.4375 
Q 35.15625 39.890625 26.703125 39.890625 
Q 22.75 39.890625 18.8125 39.015625 
Q 14.890625 38.140625 10.796875 36.28125 
z
" id="DejaVuSans-35"/>
     <path d="M 37.796875 64.3125 
L 12.890625 25.390625 
L 37.796875 25.390625 
z
M 35.203125 72.90625 
L 47.609375 72.90625 
L 47.609375 25.390625 
L 58.015625 25.390625 
L 58.015625 17.1875 
L 47.609375 17.1875 
L 47.609375 0 
L 37.796875 0 
L 37.796875 17.1875 
L 4.890625 17.1875 
L 4.890625 26.703125 
z
" id="DejaVuSans-34"/>
     <path d="M 8.203125 72.90625 
L 55.078125 72.90625 
L 55.078125 68.703125 
L 28.609375 0 
L 18.3125 0 
L 43.21875 64.59375 
L 8.203125 64.59375 
z
" id="DejaVuSans-37"/>
     <path d="M 11.71875 12.40625 
L 22.015625 12.40625 
L 22.015625 4 
L 14.015625 -11.625 
L 7.71875 -11.625 
L 11.71875 4 
z
" id="DejaVuSans-2c"/>
     <path d="M 16.890625 72.90625 
L 62.984375 72.90625 
L 61.375 64.59375 
L 25.09375 64.59375 
L 20.90625 43.015625 
L 55.71875 43.015625 
L 54.109375 34.71875 
L 19.28125 34.71875 
L 14.203125 8.296875 
L 51.3125 8.296875 
L 49.703125 0 
L 2.6875 0 
z
" id="DejaVuSans-Oblique-45"/>
     <path d="M 16.890625 72.90625 
L 30.171875 72.90625 
L 50.296875 10.40625 
L 62.5 72.90625 
L 72.125 72.90625 
L 57.90625 0 
L 44.578125 0 
L 24.515625 62.890625 
L 12.3125 0 
L 2.6875 0 
z
" id="DejaVuSans-Oblique-4e"/>
     <path d="M 10.59375 45.40625 
L 73.1875 45.40625 
L 73.1875 37.203125 
L 10.59375 37.203125 
z
M 10.59375 25.484375 
L 73.1875 25.484375 
L 73.1875 17.1875 
L 10.59375 17.1875 
z
" id="DejaVuSans-3d"/>
     <path d="M 4.890625 31.390625 
L 31.203125 31.390625 
L 31.203125 23.390625 
L 4.890625 23.390625 
z
" id="DejaVuSans-2d"/>
     <path d="M 12.40625 8.296875 
L 28.515625 8.296875 
L 28.515625 63.921875 
L 10.984375 60.40625 
L 10.984375 69.390625 
L 28.421875 72.90625 
L 38.28125 72.90625 
L 38.28125 8.296875 
L 54.390625 8.296875 
L 54.390625 0 
L 12.40625 0 
z
" id="DejaVuSans-31"/>
     <path d="M 31.78125 34.625 
Q 24.75 34.625 20.71875 30.859375 
Q 16.703125 27.09375 16.703125 20.515625 
Q 16.703125 13.921875 20.71875 10.15625 
Q 24.75 6.390625 31.78125 6.390625 
Q 38.8125 6.390625 42.859375 10.171875 
Q 46.921875 13.96875 46.921875 20.515625 
Q 46.921875 27.09375 42.890625 30.859375 
Q 38.875 34.625 31.78125 34.625 
z
M 21.921875 38.8125 
Q 15.578125 40.375 12.03125 44.71875 
Q 8.5 49.078125 8.5 55.328125 
Q 8.5 64.0625 14.71875 69.140625 
Q 20.953125 74.21875 31.78125 74.21875 
Q 42.671875 74.21875 48.875 69.140625 
Q 55.078125 64.0625 55.078125 55.328125 
Q 55.078125 49.078125 51.53125 44.71875 
Q 48 40.375 41.703125 38.8125 
Q 48.828125 37.15625 52.796875 32.3125 
Q 56.78125 27.484375 56.78125 20.515625 
Q 56.78125 9.90625 50.3125 4.234375 
Q 43.84375 -1.421875 31.78125 -1.421875 
Q 19.734375 -1.421875 13.25 4.234375 
Q 6.78125 9.90625 6.78125 20.515625 
Q 6.78125 27.484375 10.78125 32.3125 
Q 14.796875 37.15625 21.921875 38.8125 
z
M 18.3125 54.390625 
Q 18.3125 48.734375 21.84375 45.5625 
Q 25.390625 42.390625 31.78125 42.390625 
Q 38.140625 42.390625 41.71875 45.5625 
Q 45.3125 48.734375 45.3125 54.390625 
Q 45.3125 60.0625 41.71875 63.234375 
Q 38.140625 66.40625 31.78125 66.40625 
Q 25.390625 66.40625 21.84375 63.234375 
Q 18.3125 60.0625 18.3125 54.390625 
z
" id="DejaVuSans-38"/>
     <path d="M 10.6875 12.40625 
L 21 12.40625 
L 21 0 
L 10.6875 0 
z
" id="DejaVuSans-2e"/>
     <path d="M 40.578125 39.3125 
Q 47.65625 37.796875 51.625 33 
Q 55.609375 28.21875 55.609375 21.1875 
Q 55.609375 10.40625 48.1875 4.484375 
Q 40.765625 -1.421875 27.09375 -1.421875 
Q 22.515625 -1.421875 17.65625 -0.515625 
Q 12.796875 0.390625 7.625 2.203125 
L 7.625 11.71875 
Q 11.71875 9.328125 16.59375 8.109375 
Q 21.484375 6.890625 26.8125 6.890625 
Q 36.078125 6.890625 40.9375 10.546875 
Q 45.796875 14.203125 45.796875 21.1875 
Q 45.796875 27.640625 41.28125 31.265625 
Q 36.765625 34.90625 28.71875 34.90625 
L 20.21875 34.90625 
L 20.21875 43.015625 
L 29.109375 43.015625 
Q 36.375 43.015625 40.234375 45.921875 
Q 44.09375 48.828125 44.09375 54.296875 
Q 44.09375 59.90625 40.109375 62.90625 
Q 36.140625 65.921875 28.71875 65.921875 
Q 24.65625 65.921875 20.015625 65.03125 
Q 15.375 64.15625 9.8125 62.3125 
L 9.8125 71.09375 
Q 15.4375 72.65625 20.34375 73.4375 
Q 25.25 74.21875 29.59375 74.21875 
Q 40.828125 74.21875 47.359375 69.109375 
Q 53.90625 64.015625 53.90625 55.328125 
Q 53.90625 49.265625 50.4375 45.09375 
Q 46.96875 40.921875 40.578125 39.3125 
z
" id="DejaVuSans-33"/>
     <path d="M 28.609375 0 
L 0.78125 72.90625 
L 11.078125 72.90625 
L 34.1875 11.53125 
L 57.328125 72.90625 
L 67.578125 72.90625 
L 39.796875 0 
z
" id="DejaVuSans-56"/>
     <path d="M 34.1875 63.1875 
L 14.15625 8.203125 
L 54.25 8.203125 
z
M 0.78125 0 
L 28.609375 72.90625 
L 39.796875 72.90625 
L 67.578125 0 
z
" id="DejaVuSans-394"/>
     <path d="M 9.8125 72.90625 
L 55.90625 72.90625 
L 55.90625 64.59375 
L 19.671875 64.59375 
L 19.671875 43.015625 
L 54.390625 43.015625 
L 54.390625 34.71875 
L 19.671875 34.71875 
L 19.671875 8.296875 
L 56.78125 8.296875 
L 56.78125 0 
L 9.8125 0 
z
" id="DejaVuSans-45"/>
     <path d="M 31.78125 66.40625 
Q 24.171875 66.40625 20.328125 58.90625 
Q 16.5 51.421875 16.5 36.375 
Q 16.5 21.390625 20.328125 13.890625 
Q 24.171875 6.390625 31.78125 6.390625 
Q 39.453125 6.390625 43.28125 13.890625 
Q 47.125 21.390625 47.125 36.375 
Q 47.125 51.421875 43.28125 58.90625 
Q 39.453125 66.40625 31.78125 66.40625 
z
M 31.78125 74.21875 
Q 44.046875 74.21875 50.515625 64.515625 
Q 56.984375 54.828125 56.984375 36.375 
Q 56.984375 17.96875 50.515625 8.265625 
Q 44.046875 -1.421875 31.78125 -1.421875 
Q 19.53125 -1.421875 13.0625 8.265625 
Q 6.59375 17.96875 6.59375 36.375 
Q 6.59375 54.828125 13.0625 64.515625 
Q 19.53125 74.21875 31.78125 74.21875 
z
" id="DejaVuSans-30"/>
    </defs>
    <g transform="translate(63.228 35.472)scale(0.12 -0.12)">
     <use transform="translate(0 0.78125)" xlink:href="#DejaVuSans-53"/>
     <use transform="translate(63.476562 0.78125)" xlink:href="#DejaVuSans-74"/>
     <use transform="translate(102.685547 0.78125)" xlink:href="#DejaVuSans-72"/>
     <use transform="translate(143.798828 0.78125)" xlink:href="#DejaVuSans-75"/>
     <use transform="translate(207.177734 0.78125)" xlink:href="#DejaVuSans-63"/>
     <use transform="translate(262.158203 0.78125)" xlink:href="#DejaVuSans-74"/>
     <use transform="translate(301.367188 0.78125)" xlink:href="#DejaVuSans-75"/>
     <use transform="translate(364.746094 0.78125)" xlink:href="#DejaVuSans-72"/>
     <use transform="translate(405.859375 0.78125)" xlink:href="#DejaVuSans-65"/>
     <use transform="translate(467.382812 0.78125)" xlink:href="#DejaVuSans-20"/>
     <use transform="translate(499.169922 0.78125)" xlink:href="#DejaVuSans-23"/>
     <use transform="translate(582.958984 0.78125)" xlink:href="#DejaVuSans-35"/>
     <use transform="translate(646.582031 0.78125)" xlink:href="#DejaVuSans-34"/>
     <use transform="translate(710.205078 0.78125)" xlink:href="#DejaVuSans-37"/>
     <use transform="translate(773.828125 0.78125)" xlink:href="#DejaVuSans-35"/>
     <use transform="translate(837.451172 0.78125)" xlink:href="#DejaVuSans-2c"/>
     <use transform="translate(869.238281 0.78125)" xlink:href="#DejaVuSans-20"/>
     <use transform="translate(901.025391 0.78125)" xlink:href="#DejaVuSans-Oblique-45"/>
     <use transform="translate(964.208984 -15.625)scale(0.7)" xlink:href="#DejaVuSans-Oblique-4e"/>
     <use transform="translate(1019.306641 0.78125)" xlink:href="#DejaVuSans-3d"/>
     <use transform="translate(1103.095703 0.78125)" xlink:href="#DejaVuSans-2d"/>
     <use transform="translate(1139.179688 0.78125)" xlink:href="#DejaVuSans-31"/>
     <use transform="translate(1202.802734 0.78125)" xlink:href="#DejaVuSans-38"/>
     <use transform="translate(1266.425781 0.78125)" xlink:href="#DejaVuSans-31"/>
     <use transform="translate(1330.048828 0.78125)" xlink:href="#DejaVuSans-2e"/>
     <use transform="translate(1361.835938 0.78125)" xlink:href="#DejaVuSans-33"/>
     <use transform="translate(1425.458984 0.78125)" xlink:href="#DejaVuSans-35"/>
     <use transform="translate(1489.082031 0.78125)" xlink:href="#DejaVuSans-65"/>
     <use transform="translate(1550.605469 0.78125)" xlink:href="#DejaVuSans-56"/>
     <use transform="translate(1619.013672 0.78125)" xlink:href="#DejaVuSans-2c"/>
     <use transform="translate(1650.800781 0.78125)" xlink:href="#DejaVuSans-20"/>
     <use transform="translate(1682.587891 0.78125)" xlink:href="#DejaVuSans-394"/>
     <use transform="translate(1750.996094 0.78125)" xlink:href="#DejaVuSans-45"/>
     <use transform="translate(1814.179688 0.78125)" xlink:href="#DejaVuSans-3d"/>
     <use transform="translate(1897.96875 0.78125)" xlink:href="#DejaVuSans-2d"/>
     <use transform="translate(1934.052734 0.78125)" xlink:href="#DejaVuSans-30"/>
     <use transform="translate(1997.675781 0.78125)" xlink:href="#DejaVuSans-2e"/>
     <use transform="translate(2029.462891 0.78125)" xlink:href="#DejaVuSans-31"/>
     <use transform="translate(2093.085938 0.78125)" xlink:href="#DejaVuSans-34"/>
     <use transform="translate(2156.708984 0.78125)" xlink:href="#DejaVuSans-65"/>
     <use transform="translate(2218.232422 0.78125)" xlink:href="#DejaVuSans-56"/>
    </g>
   </g>
  </g>
  <g id="axes_2">
   <g id="patch_2">
    <path clip-path="url(#pf78799717b)" d="M 361.152 307.584 
L 361.152 306.5445 
L 361.152 42.5115 
L 361.152 41.472 
L 374.4576 41.472 
L 374.4576 42.5115 
L 374.4576 306.5445 
L 374.4576 307.584 
z
" style="fill:#ffffff;stroke:#ffffff;stroke-linejoin:miter;stroke-width:0.01;"/>
   </g>
   <image height="265.68" id="image9481dcbce9" transform="scale(1 -1)translate(0 -265.68)" width="12.96" x="361.44" xlink:href="data:image/png;base64,
iVBORw0KGgoAAAANSUhEUgAAABIAAAFxCAYAAAB+2fgXAAAABHNCSVQICAgIfAhkiAAAAeVJREFUeJztncmNw0AQA2ckheYQNv9QLIfQ8ygsCgQ7AEI8+jAs2Puz/94F1LP2ReCsZ18bAWIeZ5XaGRBE7VnbptG+KI101FYyNSiQG2oRITXKNaX9uclOdi2XWjftVE32CZCO2ou5Bj1TcCBr/1zB9ge7Fq0Rg2NM9pvbtG+ua1QgsRYhDy0ISEiNc40BEibbSI0Coj5CBGtkpFbXJiAjNZlrwhuSOv2M1DjXbEdEciBt1JSDDQKKpmZr2rr2j0DBGpXaWEJq3bQzEPIS26r9J+Wzv9Tm8o3aajRXqc3VUXsApKNWjeZq0x4ABVNbm7lrszVigDqP5vIl2+eaT2yfRkL7g+dRcNPqjohkjaCvRVBq0H2U3LQrOJCx9kdTg4B8oxZzzTdqdYHEngjUCAPyUctN9sVRq2sTECW2UKNLd2jVtRmo1A6AhMmWaSRcR8nUdIHUuVb75zJS218EyEitro1At69pIdeSk30Lkw0FktNImGyZRhy1O5galmxd03LUsHWk06jUZiCq+5Wb1kZNN4+wJxJuWt8RAW5am2sYNZ9rYCBzZ3buPKJ2P5Yj4Toy3keyIyJbIxs1rml1byCA84gpch5RQNB7Q0qNMGq2Hy4BXdNR41yz/cEEJfZzUz96r9PoB0okjeQ8y9TkAAAAAElFTkSuQmCC" y="-41.76"/>
   <g id="matplotlib.axis_1"/>
   <g id="matplotlib.axis_2">
    <g id="ytick_1">
     <g id="line2d_1">
      <defs>
       <path d="M 0 0 
L 3.5 0 
" id="m2d348d7afa" style="stroke:#000000;stroke-width:0.8;"/>
      </defs>
      <g>
       <use style="stroke:#000000;stroke-width:0.8;" x="374.4576" xlink:href="#m2d348d7afa" y="272.97599"/>
      </g>
     </g>
     <g id="text_2">
      <!-- −8.5 -->
      <defs>
       <path d="M 10.59375 35.5 
L 73.1875 35.5 
L 73.1875 27.203125 
L 10.59375 27.203125 
z
" id="DejaVuSans-2212"/>
      </defs>
      <g transform="translate(381.4576 276.775209)scale(0.1 -0.1)">
       <use xlink:href="#DejaVuSans-2212"/>
       <use x="83.789062" xlink:href="#DejaVuSans-38"/>
       <use x="147.412109" xlink:href="#DejaVuSans-2e"/>
       <use x="179.199219" xlink:href="#DejaVuSans-35"/>
      </g>
     </g>
    </g>
    <g id="ytick_2">
     <g id="line2d_2">
      <g>
       <use style="stroke:#000000;stroke-width:0.8;" x="374.4576" xlink:href="#m2d348d7afa" y="231.619916"/>
      </g>
     </g>
     <g id="text_3">
      <!-- −8.0 -->
      <g transform="translate(381.4576 235.419135)scale(0.1 -0.1)">
       <use xlink:href="#DejaVuSans-2212"/>
       <use x="83.789062" xlink:href="#DejaVuSans-38"/>
       <use x="147.412109" xlink:href="#DejaVuSans-2e"/>
       <use x="179.199219" xlink:href="#DejaVuSans-30"/>
      </g>
     </g>
    </g>
    <g id="ytick_3">
     <g id="line2d_3">
      <g>
       <use style="stroke:#000000;stroke-width:0.8;" x="374.4576" xlink:href="#m2d348d7afa" y="190.263842"/>
      </g>
     </g>
     <g id="text_4">
      <!-- −7.5 -->
      <g transform="translate(381.4576 194.06306)scale(0.1 -0.1)">
       <use xlink:href="#DejaVuSans-2212"/>
       <use x="83.789062" xlink:href="#DejaVuSans-37"/>
       <use x="147.412109" xlink:href="#DejaVuSans-2e"/>
       <use x="179.199219" xlink:href="#DejaVuSans-35"/>
      </g>
     </g>
    </g>
    <g id="ytick_4">
     <g id="line2d_4">
      <g>
       <use style="stroke:#000000;stroke-width:0.8;" x="374.4576" xlink:href="#m2d348d7afa" y="148.907767"/>
      </g>
     </g>
     <g id="text_5">
      <!-- −7.0 -->
      <g transform="translate(381.4576 152.706986)scale(0.1 -0.1)">
       <use xlink:href="#DejaVuSans-2212"/>
       <use x="83.789062" xlink:href="#DejaVuSans-37"/>
       <use x="147.412109" xlink:href="#DejaVuSans-2e"/>
       <use x="179.199219" xlink:href="#DejaVuSans-30"/>
      </g>
     </g>
    </g>
    <g id="ytick_5">
     <g id="line2d_5">
      <g>
       <use style="stroke:#000000;stroke-width:0.8;" x="374.4576" xlink:href="#m2d348d7afa" y="107.551693"/>
      </g>
     </g>
     <g id="text_6">
      <!-- −6.5 -->
      <defs>
       <path d="M 33.015625 40.375 
Q 26.375 40.375 22.484375 35.828125 
Q 18.609375 31.296875 18.609375 23.390625 
Q 18.609375 15.53125 22.484375 10.953125 
Q 26.375 6.390625 33.015625 6.390625 
Q 39.65625 6.390625 43.53125 10.953125 
Q 47.40625 15.53125 47.40625 23.390625 
Q 47.40625 31.296875 43.53125 35.828125 
Q 39.65625 40.375 33.015625 40.375 
z
M 52.59375 71.296875 
L 52.59375 62.3125 
Q 48.875 64.0625 45.09375 64.984375 
Q 41.3125 65.921875 37.59375 65.921875 
Q 27.828125 65.921875 22.671875 59.328125 
Q 17.53125 52.734375 16.796875 39.40625 
Q 19.671875 43.65625 24.015625 45.921875 
Q 28.375 48.1875 33.59375 48.1875 
Q 44.578125 48.1875 50.953125 41.515625 
Q 57.328125 34.859375 57.328125 23.390625 
Q 57.328125 12.15625 50.6875 5.359375 
Q 44.046875 -1.421875 33.015625 -1.421875 
Q 20.359375 -1.421875 13.671875 8.265625 
Q 6.984375 17.96875 6.984375 36.375 
Q 6.984375 53.65625 15.1875 63.9375 
Q 23.390625 74.21875 37.203125 74.21875 
Q 40.921875 74.21875 44.703125 73.484375 
Q 48.484375 72.75 52.59375 71.296875 
z
" id="DejaVuSans-36"/>
      </defs>
      <g transform="translate(381.4576 111.350912)scale(0.1 -0.1)">
       <use xlink:href="#DejaVuSans-2212"/>
       <use x="83.789062" xlink:href="#DejaVuSans-36"/>
       <use x="147.412109" xlink:href="#DejaVuSans-2e"/>
       <use x="179.199219" xlink:href="#DejaVuSans-35"/>
      </g>
     </g>
    </g>
    <g id="ytick_6">
     <g id="line2d_6">
      <g>
       <use style="stroke:#000000;stroke-width:0.8;" x="374.4576" xlink:href="#m2d348d7afa" y="66.195618"/>
      </g>
     </g>
     <g id="text_7">
      <!-- −6.0 -->
      <g transform="translate(381.4576 69.994837)scale(0.1 -0.1)">
       <use xlink:href="#DejaVuSans-2212"/>
       <use x="83.789062" xlink:href="#DejaVuSans-36"/>
       <use x="147.412109" xlink:href="#DejaVuSans-2e"/>
       <use x="179.199219" xlink:href="#DejaVuSans-30"/>
      </g>
     </g>
    </g>
    <g id="text_8">
     <!-- Energy [eV] -->
     <defs>
      <path d="M 54.890625 33.015625 
L 54.890625 0 
L 45.90625 0 
L 45.90625 32.71875 
Q 45.90625 40.484375 42.875 44.328125 
Q 39.84375 48.1875 33.796875 48.1875 
Q 26.515625 48.1875 22.3125 43.546875 
Q 18.109375 38.921875 18.109375 30.90625 
L 18.109375 0 
L 9.078125 0 
L 9.078125 54.6875 
L 18.109375 54.6875 
L 18.109375 46.1875 
Q 21.34375 51.125 25.703125 53.5625 
Q 30.078125 56 35.796875 56 
Q 45.21875 56 50.046875 50.171875 
Q 54.890625 44.34375 54.890625 33.015625 
z
" id="DejaVuSans-6e"/>
      <path d="M 45.40625 27.984375 
Q 45.40625 37.75 41.375 43.109375 
Q 37.359375 48.484375 30.078125 48.484375 
Q 22.859375 48.484375 18.828125 43.109375 
Q 14.796875 37.75 14.796875 27.984375 
Q 14.796875 18.265625 18.828125 12.890625 
Q 22.859375 7.515625 30.078125 7.515625 
Q 37.359375 7.515625 41.375 12.890625 
Q 45.40625 18.265625 45.40625 27.984375 
z
M 54.390625 6.78125 
Q 54.390625 -7.171875 48.1875 -13.984375 
Q 42 -20.796875 29.203125 -20.796875 
Q 24.46875 -20.796875 20.265625 -20.09375 
Q 16.0625 -19.390625 12.109375 -17.921875 
L 12.109375 -9.1875 
Q 16.0625 -11.328125 19.921875 -12.34375 
Q 23.78125 -13.375 27.78125 -13.375 
Q 36.625 -13.375 41.015625 -8.765625 
Q 45.40625 -4.15625 45.40625 5.171875 
L 45.40625 9.625 
Q 42.625 4.78125 38.28125 2.390625 
Q 33.9375 0 27.875 0 
Q 17.828125 0 11.671875 7.65625 
Q 5.515625 15.328125 5.515625 27.984375 
Q 5.515625 40.671875 11.671875 48.328125 
Q 17.828125 56 27.875 56 
Q 33.9375 56 38.28125 53.609375 
Q 42.625 51.21875 45.40625 46.390625 
L 45.40625 54.6875 
L 54.390625 54.6875 
z
" id="DejaVuSans-67"/>
      <path d="M 32.171875 -5.078125 
Q 28.375 -14.84375 24.75 -17.8125 
Q 21.140625 -20.796875 15.09375 -20.796875 
L 7.90625 -20.796875 
L 7.90625 -13.28125 
L 13.1875 -13.28125 
Q 16.890625 -13.28125 18.9375 -11.515625 
Q 21 -9.765625 23.484375 -3.21875 
L 25.09375 0.875 
L 2.984375 54.6875 
L 12.5 54.6875 
L 29.59375 11.921875 
L 46.6875 54.6875 
L 56.203125 54.6875 
z
" id="DejaVuSans-79"/>
      <path d="M 8.59375 75.984375 
L 29.296875 75.984375 
L 29.296875 69 
L 17.578125 69 
L 17.578125 -6.203125 
L 29.296875 -6.203125 
L 29.296875 -13.1875 
L 8.59375 -13.1875 
z
" id="DejaVuSans-5b"/>
      <path d="M 30.421875 75.984375 
L 30.421875 -13.1875 
L 9.71875 -13.1875 
L 9.71875 -6.203125 
L 21.390625 -6.203125 
L 21.390625 69 
L 9.71875 69 
L 9.71875 75.984375 
z
" id="DejaVuSans-5d"/>
     </defs>
     <g transform="translate(417.33885 204.108469)rotate(-90)scale(0.1 -0.1)">
      <use xlink:href="#DejaVuSans-45"/>
      <use x="63.183594" xlink:href="#DejaVuSans-6e"/>
      <use x="126.5625" xlink:href="#DejaVuSans-65"/>
      <use x="188.085938" xlink:href="#DejaVuSans-72"/>
      <use x="229.183594" xlink:href="#DejaVuSans-67"/>
      <use x="292.660156" xlink:href="#DejaVuSans-79"/>
      <use x="351.839844" xlink:href="#DejaVuSans-20"/>
      <use x="383.626953" xlink:href="#DejaVuSans-5b"/>
      <use x="422.640625" xlink:href="#DejaVuSans-65"/>
      <use x="484.164062" xlink:href="#DejaVuSans-56"/>
      <use x="552.572266" xlink:href="#DejaVuSans-5d"/>
     </g>
    </g>
   </g>
   <g id="patch_3">
    <path d="M 361.152 307.584 
L 361.152 306.5445 
L 361.152 42.5115 
L 361.152 41.472 
L 374.4576 41.472 
L 374.4576 42.5115 
L 374.4576 306.5445 
L 374.4576 307.584 
z
" style="fill:none;stroke:#000000;stroke-linejoin:miter;stroke-width:0.8;"/>
   </g>
  </g>
 </g>
 <defs>
  <clipPath id="p01d5623c86">
   <rect height="266.112" width="285.696" x="57.6" y="41.472"/>
  </clipPath>
  <clipPath id="pf78799717b">
   <rect height="266.112" width="13.3056" x="361.152" y="41.472"/>
  </clipPath>
 </defs>
</svg>
