<?xml version="1.0" encoding="utf-8" standalone="no"?>
<!DOCTYPE svg PUBLIC "-//W3C//DTD SVG 1.1//EN"
  "http://www.w3.org/Graphics/SVG/1.1/DTD/svg11.dtd">
<!-- Created with matplotlib (http://matplotlib.org/) -->
<svg height="345.6pt" version="1.1" viewBox="0 0 460.8 345.6" width="460.8pt" xmlns="http://www.w3.org/2000/svg" xmlns:xlink="http://www.w3.org/1999/xlink">
 <defs>
  <style type="text/css">
*{stroke-linecap:butt;stroke-linejoin:round;}
  </style>
 </defs>
 <g id="figure_1">
  <g id="patch_1">
   <path d="M 0 345.6 
L 460.8 345.6 
L 460.8 0 
L 0 0 
z
" style="fill:#ffffff;"/>
  </g>
  <g id="axes_1">
   <g id="CircleCollection_1">
    <path clip-path="url(#pb90eb544fb)" d="M 185.377412 178.370115 
C 187.158303 178.370115 188.866493 177.662559 190.125773 176.403279 
C 191.385054 175.143999 192.092609 173.435809 192.092609 171.654917 
C 192.092609 169.874026 191.385054 168.165836 190.125773 166.906556 
C 188.866493 165.647275 187.158303 164.93972 185.377412 164.93972 
C 183.596521 164.93972 181.88833 165.647275 180.62905 166.906556 
C 179.36977 168.165836 178.662214 169.874026 178.662214 171.654917 
C 178.662214 173.435809 179.36977 175.143999 180.62905 176.403279 
C 181.88833 177.662559 183.596521 178.370115 185.377412 178.370115 
z
" style="fill:#3c4f8a;"/>
    <path clip-path="url(#pb90eb544fb)" d="M 286.468497 181.753171 
C 288.18266 181.753171 289.826846 181.072127 291.038942 179.860031 
C 292.251038 178.647935 292.932082 177.003749 292.932082 175.289587 
C 292.932082 173.575424 292.251038 171.931238 291.038942 170.719142 
C 289.826846 169.507046 288.18266 168.826002 286.468497 168.826002 
C 284.754334 168.826002 283.110148 169.507046 281.898052 170.719142 
C 280.685956 171.931238 280.004912 173.575424 280.004912 175.289587 
C 280.004912 177.003749 280.685956 178.647935 281.898052 179.860031 
C 283.110148 181.072127 284.754334 181.753171 286.468497 181.753171 
z
" style="fill:#2b748e;"/>
    <path clip-path="url(#pb90eb544fb)" d="M 300.924102 75.564949 
C 302.645893 75.564949 304.297396 74.880874 305.514886 73.663384 
C 306.732376 72.445894 307.416451 70.794391 307.416451 69.0726 
C 307.416451 67.350809 306.732376 65.699306 305.514886 64.481816 
C 304.297396 63.264326 302.645893 62.580251 300.924102 62.580251 
C 299.202311 62.580251 297.550808 63.264326 296.333318 64.481816 
C 295.115828 65.699306 294.431753 67.350809 294.431753 69.0726 
C 294.431753 70.794391 295.115828 72.445894 296.333318 73.663384 
C 297.550808 74.880874 299.202311 75.564949 300.924102 75.564949 
z
" style="fill:#32648e;"/>
    <path clip-path="url(#pb90eb544fb)" d="M 323.442158 109.906528 
C 325.157511 109.906528 326.802838 109.225011 328.015775 108.012074 
C 329.228712 106.799137 329.910229 105.15381 329.910229 103.438457 
C 329.910229 101.723105 329.228712 100.077778 328.015775 98.864841 
C 326.802838 97.651903 325.157511 96.970386 323.442158 96.970386 
C 321.726806 96.970386 320.081479 97.651903 318.868541 98.864841 
C 317.655604 100.077778 316.974087 101.723105 316.974087 103.438457 
C 316.974087 105.15381 317.655604 106.799137 318.868541 108.012074 
C 320.081479 109.225011 321.726806 109.906528 323.442158 109.906528 
z
" style="fill:#21908d;"/>
    <path clip-path="url(#pb90eb544fb)" d="M 279.311143 221.108783 
C 281.089319 221.108783 282.794905 220.402306 284.052266 219.144946 
C 285.309626 217.887585 286.016103 216.181999 286.016103 214.403823 
C 286.016103 212.625647 285.309626 210.920061 284.052266 209.6627 
C 282.794905 208.40534 281.089319 207.698863 279.311143 207.698863 
C 277.532967 207.698863 275.827381 208.40534 274.57002 209.6627 
C 273.31266 210.920061 272.606183 212.625647 272.606183 214.403823 
C 272.606183 216.181999 273.31266 217.887585 274.57002 219.144946 
C 275.827381 220.402306 277.532967 221.108783 279.311143 221.108783 
z
" style="fill:#306a8e;"/>
    <path clip-path="url(#pb90eb544fb)" d="M 263.977443 190.310087 
C 265.82175 190.310087 267.590768 189.577336 268.89489 188.273214 
C 270.199013 186.969091 270.931764 185.200074 270.931764 183.355766 
C 270.931764 181.511459 270.199013 179.742441 268.89489 178.438319 
C 267.590768 177.134196 265.82175 176.401445 263.977443 176.401445 
C 262.133135 176.401445 260.364118 177.134196 259.059995 178.438319 
C 257.755873 179.742441 257.023122 181.511459 257.023122 183.355766 
C 257.023122 185.200074 257.755873 186.969091 259.059995 188.273214 
C 260.364118 189.577336 262.133135 190.310087 263.977443 190.310087 
z
" style="fill:#26828e;"/>
    <path clip-path="url(#pb90eb544fb)" d="M 257.799507 263.978837 
C 259.55769 263.978837 261.244099 263.280303 262.487323 262.03708 
C 263.730546 260.793857 264.429079 259.107448 264.429079 257.349265 
C 264.429079 255.591082 263.730546 253.904673 262.487323 252.66145 
C 261.244099 251.418227 259.55769 250.719693 257.799507 250.719693 
C 256.041324 250.719693 254.354915 251.418227 253.111692 252.66145 
C 251.868469 253.904673 251.169935 255.591082 251.169935 257.349265 
C 251.169935 259.107448 251.868469 260.793857 253.111692 262.03708 
C 254.354915 263.280303 256.041324 263.978837 257.799507 263.978837 
z
" style="fill:#3e4c8a;"/>
    <path clip-path="url(#pb90eb544fb)" d="M 106.236825 172.280544 
C 108.040651 172.280544 109.77084 171.563877 111.046337 170.288379 
C 112.321835 169.012881 113.038502 167.282693 113.038502 165.478867 
C 113.038502 163.675041 112.321835 161.944852 111.046337 160.669354 
C 109.77084 159.393857 108.040651 158.677189 106.236825 158.677189 
C 104.432999 158.677189 102.70281 159.393857 101.427312 160.669354 
C 100.151815 161.944852 99.435147 163.675041 99.435147 165.478867 
C 99.435147 167.282693 100.151815 169.012881 101.427312 170.288379 
C 102.70281 171.563877 104.432999 172.280544 106.236825 172.280544 
z
" style="fill:#2b758e;"/>
    <path clip-path="url(#pb90eb544fb)" d="M 320.524469 151.944133 
C 322.267694 151.944133 323.939757 151.251542 325.172404 150.018895 
C 326.40505 148.786248 327.097641 147.114186 327.097641 145.37096 
C 327.097641 143.627734 326.40505 141.955672 325.172404 140.723025 
C 323.939757 139.490378 322.267694 138.797787 320.524469 138.797787 
C 318.781243 138.797787 317.10918 139.490378 315.876534 140.723025 
C 314.643887 141.955672 313.951296 143.627734 313.951296 145.37096 
C 313.951296 147.114186 314.643887 148.786248 315.876534 150.018895 
C 317.10918 151.251542 318.781243 151.944133 320.524469 151.944133 
z
" style="fill:#2e6d8e;"/>
    <path clip-path="url(#pb90eb544fb)" d="M 188.361656 84.705467 
C 190.156927 84.705467 191.878911 83.992198 193.148359 82.72275 
C 194.417808 81.453301 195.131076 79.731318 195.131076 77.936046 
C 195.131076 76.140775 194.417808 74.418792 193.148359 73.149343 
C 191.878911 71.879895 190.156927 71.166626 188.361656 71.166626 
C 186.566384 71.166626 184.844401 71.879895 183.574953 73.149343 
C 182.305504 74.418792 181.592235 76.140775 181.592235 77.936046 
C 181.592235 79.731318 182.305504 81.453301 183.574953 82.72275 
C 184.844401 83.992198 186.566384 84.705467 188.361656 84.705467 
z
" style="fill:#2a778e;"/>
    <path clip-path="url(#pb90eb544fb)" d="M 329.883019 245.485172 
C 331.687386 245.485172 333.418093 244.768289 334.693973 243.492409 
C 335.969853 242.21653 336.686735 240.485822 336.686735 238.681456 
C 336.686735 236.877089 335.969853 235.146382 334.693973 233.870502 
C 333.418093 232.594622 331.687386 231.877739 329.883019 231.877739 
C 328.078653 231.877739 326.347945 232.594622 325.072065 233.870502 
C 323.796186 235.146382 323.079303 236.877089 323.079303 238.681456 
C 323.079303 240.485822 323.796186 242.21653 325.072065 243.492409 
C 326.347945 244.768289 328.078653 245.485172 329.883019 245.485172 
z
" style="fill:#cde11d;"/>
    <path clip-path="url(#pb90eb544fb)" d="M 207.219842 179.611831 
C 208.925396 179.611831 210.561325 178.934207 211.767333 177.728199 
C 212.973342 176.52219 213.650966 174.886261 213.650966 173.180707 
C 213.650966 171.475153 212.973342 169.839224 211.767333 168.633215 
C 210.561325 167.427207 208.925396 166.749583 207.219842 166.749583 
C 205.514288 166.749583 203.878359 167.427207 202.67235 168.633215 
C 201.466341 169.839224 200.788718 171.475153 200.788718 173.180707 
C 200.788718 174.886261 201.466341 176.52219 202.67235 177.728199 
C 203.878359 178.934207 205.514288 179.611831 207.219842 179.611831 
z
" style="fill:#3bbb75;"/>
    <path clip-path="url(#pb90eb544fb)" d="M 300.34697 270.932652 
C 302.12068 270.932652 303.821983 270.227949 305.076186 268.973747 
C 306.330388 267.719544 307.035091 266.018241 307.035091 264.244531 
C 307.035091 262.47082 306.330388 260.769517 305.076186 259.515315 
C 303.821983 258.261112 302.12068 257.556409 300.34697 257.556409 
C 298.573259 257.556409 296.871956 258.261112 295.617754 259.515315 
C 294.363551 260.769517 293.658848 262.47082 293.658848 264.244531 
C 293.658848 266.018241 294.363551 267.719544 295.617754 268.973747 
C 296.871956 270.227949 298.573259 270.932652 300.34697 270.932652 
z
" style="fill:#228b8d;"/>
    <path clip-path="url(#pb90eb544fb)" d="M 246.370804 131.070806 
C 248.150901 131.070806 249.858329 130.363566 251.117047 129.104847 
C 252.375766 127.846129 253.083006 126.138701 253.083006 124.358604 
C 253.083006 122.578507 252.375766 120.871079 251.117047 119.612361 
C 249.858329 118.353642 248.150901 117.646403 246.370804 117.646403 
C 244.590707 117.646403 242.883279 118.353642 241.624561 119.612361 
C 240.365843 120.871079 239.658603 122.578507 239.658603 124.358604 
C 239.658603 126.138701 240.365843 127.846129 241.624561 129.104847 
C 242.883279 130.363566 244.590707 131.070806 246.370804 131.070806 
z
" style="fill:#3e4989;"/>
    <path clip-path="url(#pb90eb544fb)" d="M 184.118648 301.53889 
C 185.8759 301.53889 187.561416 300.840726 188.80398 299.598161 
C 190.046545 298.355597 190.744709 296.670081 190.744709 294.912829 
C 190.744709 293.155577 190.046545 291.470061 188.80398 290.227496 
C 187.561416 288.984932 185.8759 288.286768 184.118648 288.286768 
C 182.361396 288.286768 180.67588 288.984932 179.433315 290.227496 
C 178.190751 291.470061 177.492587 293.155577 177.492587 294.912829 
C 177.492587 296.670081 178.190751 298.355597 179.433315 299.598161 
C 180.67588 300.840726 182.361396 301.53889 184.118648 301.53889 
z
" style="fill:#fde725;"/>
    <path clip-path="url(#pb90eb544fb)" d="M 231.797134 84.998644 
C 233.576 84.998644 235.282247 84.291893 236.540095 83.034046 
C 237.797942 81.776198 238.504693 80.069951 238.504693 78.291085 
C 238.504693 76.51222 237.797942 74.805973 236.540095 73.548125 
C 235.282247 72.290278 233.576 71.583527 231.797134 71.583527 
C 230.018269 71.583527 228.312022 72.290278 227.054174 73.548125 
C 225.796326 74.805973 225.089576 76.51222 225.089576 78.291085 
C 225.089576 80.069951 225.796326 81.776198 227.054174 83.034046 
C 228.312022 84.291893 230.018269 84.998644 231.797134 84.998644 
z
" style="fill:#46075a;"/>
    <path clip-path="url(#pb90eb544fb)" d="M 220.271759 282.460354 
C 222.021753 282.460354 223.700307 281.765074 224.937739 280.527642 
C 226.175171 279.29021 226.870451 277.611656 226.870451 275.861662 
C 226.870451 274.111668 226.175171 272.433115 224.937739 271.195682 
C 223.700307 269.95825 222.021753 269.26297 220.271759 269.26297 
C 218.521765 269.26297 216.843212 269.95825 215.605779 271.195682 
C 214.368347 272.433115 213.673067 274.111668 213.673067 275.861662 
C 213.673067 277.611656 214.368347 279.29021 215.605779 280.527642 
C 216.843212 281.765074 218.521765 282.460354 220.271759 282.460354 
z
" style="fill:#34618d;"/>
    <path clip-path="url(#pb90eb544fb)" d="M 287.106832 152.784116 
C 288.91387 152.784116 290.64714 152.066172 291.924909 150.788403 
C 293.202678 149.510634 293.920622 147.777365 293.920622 145.970326 
C 293.920622 144.163288 293.202678 142.430018 291.924909 141.152249 
C 290.64714 139.874481 288.91387 139.156537 287.106832 139.156537 
C 285.299794 139.156537 283.566524 139.874481 282.288755 141.152249 
C 281.010986 142.430018 280.293042 144.163288 280.293042 145.970326 
C 280.293042 147.777365 281.010986 149.510634 282.288755 150.788403 
C 283.566524 152.066172 285.299794 152.784116 287.106832 152.784116 
z
" style="fill:#32658e;"/>
    <path clip-path="url(#pb90eb544fb)" d="M 71.015912 192.125195 
C 72.832672 192.125195 74.575266 191.403389 75.85991 190.118745 
C 77.144553 188.834102 77.866359 187.091508 77.866359 185.274748 
C 77.866359 183.457988 77.144553 181.715394 75.85991 180.430751 
C 74.575266 179.146108 72.832672 178.424301 71.015912 178.424301 
C 69.199153 178.424301 67.456558 179.146108 66.171915 180.430751 
C 64.887272 181.715394 64.165465 183.457988 64.165465 185.274748 
C 64.165465 187.091508 64.887272 188.834102 66.171915 190.118745 
C 67.456558 191.403389 69.199153 192.125195 71.015912 192.125195 
z
" style="fill:#fbe723;"/>
    <path clip-path="url(#pb90eb544fb)" d="M 264.9625 60.74226 
C 266.71317 60.74226 268.392373 60.046711 269.630284 58.8088 
C 270.868194 57.57089 271.563743 55.891687 271.563743 54.141017 
C 271.563743 52.390347 270.868194 50.711144 269.630284 49.473233 
C 268.392373 48.235323 266.71317 47.539774 264.9625 47.539774 
C 263.21183 47.539774 261.532627 48.235323 260.294717 49.473233 
C 259.056806 50.711144 258.361257 52.390347 258.361257 54.141017 
C 258.361257 55.891687 259.056806 57.57089 260.294717 58.8088 
C 261.532627 60.046711 263.21183 60.74226 264.9625 60.74226 
z
" style="fill:#1f978b;"/>
    <path clip-path="url(#pb90eb544fb)" d="M 224.661708 169.679672 
C 226.491632 169.679672 228.246854 168.952636 229.540805 167.658684 
C 230.834757 166.364732 231.561794 164.609511 231.561794 162.779586 
C 231.561794 160.949662 230.834757 159.194441 229.540805 157.900489 
C 228.246854 156.606537 226.491632 155.879501 224.661708 155.879501 
C 222.831784 155.879501 221.076562 156.606537 219.782611 157.900489 
C 218.488659 159.194441 217.761622 160.949662 217.761622 162.779586 
C 217.761622 164.609511 218.488659 166.364732 219.782611 167.658684 
C 221.076562 168.952636 222.831784 169.679672 224.661708 169.679672 
z
" style="fill:#287d8e;"/>
    <path clip-path="url(#pb90eb544fb)" d="M 245.389915 159.66873 
C 247.085886 159.66873 248.712623 158.994913 249.911856 157.79568 
C 251.111088 156.596448 251.784905 154.969711 251.784905 153.27374 
C 251.784905 151.577769 251.111088 149.951032 249.911856 148.751799 
C 248.712623 147.552566 247.085886 146.87875 245.389915 146.87875 
C 243.693944 146.87875 242.067207 147.552566 240.867974 148.751799 
C 239.668742 149.951032 238.994925 151.577769 238.994925 153.27374 
C 238.994925 154.969711 239.668742 156.596448 240.867974 157.79568 
C 242.067207 158.994913 243.693944 159.66873 245.389915 159.66873 
z
" style="fill:#297a8e;"/>
    <path clip-path="url(#pb90eb544fb)" d="M 145.054907 155.085624 
C 146.852764 155.085624 148.577227 154.371328 149.848504 153.100051 
C 151.119781 151.828774 151.834078 150.104311 151.834078 148.306454 
C 151.834078 146.508597 151.119781 144.784133 149.848504 143.512856 
C 148.577227 142.241579 146.852764 141.527283 145.054907 141.527283 
C 143.25705 141.527283 141.532586 142.241579 140.261309 143.512856 
C 138.990032 144.784133 138.275736 146.508597 138.275736 148.306454 
C 138.275736 150.104311 138.990032 151.828774 140.261309 153.100051 
C 141.532586 154.371328 143.25705 155.085624 145.054907 155.085624 
z
" style="fill:#440154;"/>
    <path clip-path="url(#pb90eb544fb)" d="M 159.157626 111.481529 
C 160.959402 111.481529 162.687625 110.765675 163.961673 109.491627 
C 165.235722 108.217579 165.951575 106.489356 165.951575 104.68758 
C 165.951575 102.885804 165.235722 101.157581 163.961673 99.883533 
C 162.687625 98.609485 160.959402 97.893631 159.157626 97.893631 
C 157.35585 97.893631 155.627627 98.609485 154.353579 99.883533 
C 153.079531 101.157581 152.363677 102.885804 152.363677 104.68758 
C 152.363677 106.489356 153.079531 108.217579 154.353579 109.491627 
C 155.627627 110.765675 157.35585 111.481529 159.157626 111.481529 
z
" style="fill:#24878e;"/>
   </g>
   <g id="text_1">
    <!-- Structure #9694, $E_N$=-171.29eV, ΔE=-0.23eV -->
    <defs>
     <path d="M 53.515625 70.515625 
L 53.515625 60.890625 
Q 47.90625 63.578125 42.921875 64.890625 
Q 37.9375 66.21875 33.296875 66.21875 
Q 25.25 66.21875 20.875 63.09375 
Q 16.5 59.96875 16.5 54.203125 
Q 16.5 49.359375 19.40625 46.890625 
Q 22.3125 44.4375 30.421875 42.921875 
L 36.375 41.703125 
Q 47.40625 39.59375 52.65625 34.296875 
Q 57.90625 29 57.90625 20.125 
Q 57.90625 9.515625 50.796875 4.046875 
Q 43.703125 -1.421875 29.984375 -1.421875 
Q 24.8125 -1.421875 18.96875 -0.25 
Q 13.140625 0.921875 6.890625 3.21875 
L 6.890625 13.375 
Q 12.890625 10.015625 18.65625 8.296875 
Q 24.421875 6.59375 29.984375 6.59375 
Q 38.421875 6.59375 43.015625 9.90625 
Q 47.609375 13.234375 47.609375 19.390625 
Q 47.609375 24.75 44.3125 27.78125 
Q 41.015625 30.8125 33.5 32.328125 
L 27.484375 33.5 
Q 16.453125 35.6875 11.515625 40.375 
Q 6.59375 45.0625 6.59375 53.421875 
Q 6.59375 63.09375 13.40625 68.65625 
Q 20.21875 74.21875 32.171875 74.21875 
Q 37.3125 74.21875 42.625 73.28125 
Q 47.953125 72.359375 53.515625 70.515625 
z
" id="DejaVuSans-53"/>
     <path d="M 18.3125 70.21875 
L 18.3125 54.6875 
L 36.8125 54.6875 
L 36.8125 47.703125 
L 18.3125 47.703125 
L 18.3125 18.015625 
Q 18.3125 11.328125 20.140625 9.421875 
Q 21.96875 7.515625 27.59375 7.515625 
L 36.8125 7.515625 
L 36.8125 0 
L 27.59375 0 
Q 17.1875 0 13.234375 3.875 
Q 9.28125 7.765625 9.28125 18.015625 
L 9.28125 47.703125 
L 2.6875 47.703125 
L 2.6875 54.6875 
L 9.28125 54.6875 
L 9.28125 70.21875 
z
" id="DejaVuSans-74"/>
     <path d="M 41.109375 46.296875 
Q 39.59375 47.171875 37.8125 47.578125 
Q 36.03125 48 33.890625 48 
Q 26.265625 48 22.1875 43.046875 
Q 18.109375 38.09375 18.109375 28.8125 
L 18.109375 0 
L 9.078125 0 
L 9.078125 54.6875 
L 18.109375 54.6875 
L 18.109375 46.1875 
Q 20.953125 51.171875 25.484375 53.578125 
Q 30.03125 56 36.53125 56 
Q 37.453125 56 38.578125 55.875 
Q 39.703125 55.765625 41.0625 55.515625 
z
" id="DejaVuSans-72"/>
     <path d="M 8.5 21.578125 
L 8.5 54.6875 
L 17.484375 54.6875 
L 17.484375 21.921875 
Q 17.484375 14.15625 20.5 10.265625 
Q 23.53125 6.390625 29.59375 6.390625 
Q 36.859375 6.390625 41.078125 11.03125 
Q 45.3125 15.671875 45.3125 23.6875 
L 45.3125 54.6875 
L 54.296875 54.6875 
L 54.296875 0 
L 45.3125 0 
L 45.3125 8.40625 
Q 42.046875 3.421875 37.71875 1 
Q 33.40625 -1.421875 27.6875 -1.421875 
Q 18.265625 -1.421875 13.375 4.4375 
Q 8.5 10.296875 8.5 21.578125 
z
M 31.109375 56 
z
" id="DejaVuSans-75"/>
     <path d="M 48.78125 52.59375 
L 48.78125 44.1875 
Q 44.96875 46.296875 41.140625 47.34375 
Q 37.3125 48.390625 33.40625 48.390625 
Q 24.65625 48.390625 19.8125 42.84375 
Q 14.984375 37.3125 14.984375 27.296875 
Q 14.984375 17.28125 19.8125 11.734375 
Q 24.65625 6.203125 33.40625 6.203125 
Q 37.3125 6.203125 41.140625 7.25 
Q 44.96875 8.296875 48.78125 10.40625 
L 48.78125 2.09375 
Q 45.015625 0.34375 40.984375 -0.53125 
Q 36.96875 -1.421875 32.421875 -1.421875 
Q 20.0625 -1.421875 12.78125 6.34375 
Q 5.515625 14.109375 5.515625 27.296875 
Q 5.515625 40.671875 12.859375 48.328125 
Q 20.21875 56 33.015625 56 
Q 37.15625 56 41.109375 55.140625 
Q 45.0625 54.296875 48.78125 52.59375 
z
" id="DejaVuSans-63"/>
     <path d="M 56.203125 29.59375 
L 56.203125 25.203125 
L 14.890625 25.203125 
Q 15.484375 15.921875 20.484375 11.0625 
Q 25.484375 6.203125 34.421875 6.203125 
Q 39.59375 6.203125 44.453125 7.46875 
Q 49.3125 8.734375 54.109375 11.28125 
L 54.109375 2.78125 
Q 49.265625 0.734375 44.1875 -0.34375 
Q 39.109375 -1.421875 33.890625 -1.421875 
Q 20.796875 -1.421875 13.15625 6.1875 
Q 5.515625 13.8125 5.515625 26.8125 
Q 5.515625 40.234375 12.765625 48.109375 
Q 20.015625 56 32.328125 56 
Q 43.359375 56 49.78125 48.890625 
Q 56.203125 41.796875 56.203125 29.59375 
z
M 47.21875 32.234375 
Q 47.125 39.59375 43.09375 43.984375 
Q 39.0625 48.390625 32.421875 48.390625 
Q 24.90625 48.390625 20.390625 44.140625 
Q 15.875 39.890625 15.1875 32.171875 
z
" id="DejaVuSans-65"/>
     <path id="DejaVuSans-20"/>
     <path d="M 51.125 44 
L 36.921875 44 
L 32.8125 27.6875 
L 47.125 27.6875 
z
M 43.796875 71.78125 
L 38.71875 51.515625 
L 52.984375 51.515625 
L 58.109375 71.78125 
L 65.921875 71.78125 
L 60.890625 51.515625 
L 76.125 51.515625 
L 76.125 44 
L 58.984375 44 
L 54.984375 27.6875 
L 70.515625 27.6875 
L 70.515625 20.21875 
L 53.078125 20.21875 
L 48 0 
L 40.1875 0 
L 45.21875 20.21875 
L 30.90625 20.21875 
L 25.875 0 
L 18.015625 0 
L 23.09375 20.21875 
L 7.71875 20.21875 
L 7.71875 27.6875 
L 24.90625 27.6875 
L 29 44 
L 13.28125 44 
L 13.28125 51.515625 
L 30.90625 51.515625 
L 35.890625 71.78125 
z
" id="DejaVuSans-23"/>
     <path d="M 10.984375 1.515625 
L 10.984375 10.5 
Q 14.703125 8.734375 18.5 7.8125 
Q 22.3125 6.890625 25.984375 6.890625 
Q 35.75 6.890625 40.890625 13.453125 
Q 46.046875 20.015625 46.78125 33.40625 
Q 43.953125 29.203125 39.59375 26.953125 
Q 35.25 24.703125 29.984375 24.703125 
Q 19.046875 24.703125 12.671875 31.3125 
Q 6.296875 37.9375 6.296875 49.421875 
Q 6.296875 60.640625 12.9375 67.421875 
Q 19.578125 74.21875 30.609375 74.21875 
Q 43.265625 74.21875 49.921875 64.515625 
Q 56.59375 54.828125 56.59375 36.375 
Q 56.59375 19.140625 48.40625 8.859375 
Q 40.234375 -1.421875 26.421875 -1.421875 
Q 22.703125 -1.421875 18.890625 -0.6875 
Q 15.09375 0.046875 10.984375 1.515625 
z
M 30.609375 32.421875 
Q 37.25 32.421875 41.125 36.953125 
Q 45.015625 41.5 45.015625 49.421875 
Q 45.015625 57.28125 41.125 61.84375 
Q 37.25 66.40625 30.609375 66.40625 
Q 23.96875 66.40625 20.09375 61.84375 
Q 16.21875 57.28125 16.21875 49.421875 
Q 16.21875 41.5 20.09375 36.953125 
Q 23.96875 32.421875 30.609375 32.421875 
z
" id="DejaVuSans-39"/>
     <path d="M 33.015625 40.375 
Q 26.375 40.375 22.484375 35.828125 
Q 18.609375 31.296875 18.609375 23.390625 
Q 18.609375 15.53125 22.484375 10.953125 
Q 26.375 6.390625 33.015625 6.390625 
Q 39.65625 6.390625 43.53125 10.953125 
Q 47.40625 15.53125 47.40625 23.390625 
Q 47.40625 31.296875 43.53125 35.828125 
Q 39.65625 40.375 33.015625 40.375 
z
M 52.59375 71.296875 
L 52.59375 62.3125 
Q 48.875 64.0625 45.09375 64.984375 
Q 41.3125 65.921875 37.59375 65.921875 
Q 27.828125 65.921875 22.671875 59.328125 
Q 17.53125 52.734375 16.796875 39.40625 
Q 19.671875 43.65625 24.015625 45.921875 
Q 28.375 48.1875 33.59375 48.1875 
Q 44.578125 48.1875 50.953125 41.515625 
Q 57.328125 34.859375 57.328125 23.390625 
Q 57.328125 12.15625 50.6875 5.359375 
Q 44.046875 -1.421875 33.015625 -1.421875 
Q 20.359375 -1.421875 13.671875 8.265625 
Q 6.984375 17.96875 6.984375 36.375 
Q 6.984375 53.65625 15.1875 63.9375 
Q 23.390625 74.21875 37.203125 74.21875 
Q 40.921875 74.21875 44.703125 73.484375 
Q 48.484375 72.75 52.59375 71.296875 
z
" id="DejaVuSans-36"/>
     <path d="M 37.796875 64.3125 
L 12.890625 25.390625 
L 37.796875 25.390625 
z
M 35.203125 72.90625 
L 47.609375 72.90625 
L 47.609375 25.390625 
L 58.015625 25.390625 
L 58.015625 17.1875 
L 47.609375 17.1875 
L 47.609375 0 
L 37.796875 0 
L 37.796875 17.1875 
L 4.890625 17.1875 
L 4.890625 26.703125 
z
" id="DejaVuSans-34"/>
     <path d="M 11.71875 12.40625 
L 22.015625 12.40625 
L 22.015625 4 
L 14.015625 -11.625 
L 7.71875 -11.625 
L 11.71875 4 
z
" id="DejaVuSans-2c"/>
     <path d="M 16.890625 72.90625 
L 62.984375 72.90625 
L 61.375 64.59375 
L 25.09375 64.59375 
L 20.90625 43.015625 
L 55.71875 43.015625 
L 54.109375 34.71875 
L 19.28125 34.71875 
L 14.203125 8.296875 
L 51.3125 8.296875 
L 49.703125 0 
L 2.6875 0 
z
" id="DejaVuSans-Oblique-45"/>
     <path d="M 16.890625 72.90625 
L 30.171875 72.90625 
L 50.296875 10.40625 
L 62.5 72.90625 
L 72.125 72.90625 
L 57.90625 0 
L 44.578125 0 
L 24.515625 62.890625 
L 12.3125 0 
L 2.6875 0 
z
" id="DejaVuSans-Oblique-4e"/>
     <path d="M 10.59375 45.40625 
L 73.1875 45.40625 
L 73.1875 37.203125 
L 10.59375 37.203125 
z
M 10.59375 25.484375 
L 73.1875 25.484375 
L 73.1875 17.1875 
L 10.59375 17.1875 
z
" id="DejaVuSans-3d"/>
     <path d="M 4.890625 31.390625 
L 31.203125 31.390625 
L 31.203125 23.390625 
L 4.890625 23.390625 
z
" id="DejaVuSans-2d"/>
     <path d="M 12.40625 8.296875 
L 28.515625 8.296875 
L 28.515625 63.921875 
L 10.984375 60.40625 
L 10.984375 69.390625 
L 28.421875 72.90625 
L 38.28125 72.90625 
L 38.28125 8.296875 
L 54.390625 8.296875 
L 54.390625 0 
L 12.40625 0 
z
" id="DejaVuSans-31"/>
     <path d="M 8.203125 72.90625 
L 55.078125 72.90625 
L 55.078125 68.703125 
L 28.609375 0 
L 18.3125 0 
L 43.21875 64.59375 
L 8.203125 64.59375 
z
" id="DejaVuSans-37"/>
     <path d="M 10.6875 12.40625 
L 21 12.40625 
L 21 0 
L 10.6875 0 
z
" id="DejaVuSans-2e"/>
     <path d="M 19.1875 8.296875 
L 53.609375 8.296875 
L 53.609375 0 
L 7.328125 0 
L 7.328125 8.296875 
Q 12.9375 14.109375 22.625 23.890625 
Q 32.328125 33.6875 34.8125 36.53125 
Q 39.546875 41.84375 41.421875 45.53125 
Q 43.3125 49.21875 43.3125 52.78125 
Q 43.3125 58.59375 39.234375 62.25 
Q 35.15625 65.921875 28.609375 65.921875 
Q 23.96875 65.921875 18.8125 64.3125 
Q 13.671875 62.703125 7.8125 59.421875 
L 7.8125 69.390625 
Q 13.765625 71.78125 18.9375 73 
Q 24.125 74.21875 28.421875 74.21875 
Q 39.75 74.21875 46.484375 68.546875 
Q 53.21875 62.890625 53.21875 53.421875 
Q 53.21875 48.921875 51.53125 44.890625 
Q 49.859375 40.875 45.40625 35.40625 
Q 44.1875 33.984375 37.640625 27.21875 
Q 31.109375 20.453125 19.1875 8.296875 
z
" id="DejaVuSans-32"/>
     <path d="M 28.609375 0 
L 0.78125 72.90625 
L 11.078125 72.90625 
L 34.1875 11.53125 
L 57.328125 72.90625 
L 67.578125 72.90625 
L 39.796875 0 
z
" id="DejaVuSans-56"/>
     <path d="M 34.1875 63.1875 
L 14.15625 8.203125 
L 54.25 8.203125 
z
M 0.78125 0 
L 28.609375 72.90625 
L 39.796875 72.90625 
L 67.578125 0 
z
" id="DejaVuSans-394"/>
     <path d="M 9.8125 72.90625 
L 55.90625 72.90625 
L 55.90625 64.59375 
L 19.671875 64.59375 
L 19.671875 43.015625 
L 54.390625 43.015625 
L 54.390625 34.71875 
L 19.671875 34.71875 
L 19.671875 8.296875 
L 56.78125 8.296875 
L 56.78125 0 
L 9.8125 0 
z
" id="DejaVuSans-45"/>
     <path d="M 31.78125 66.40625 
Q 24.171875 66.40625 20.328125 58.90625 
Q 16.5 51.421875 16.5 36.375 
Q 16.5 21.390625 20.328125 13.890625 
Q 24.171875 6.390625 31.78125 6.390625 
Q 39.453125 6.390625 43.28125 13.890625 
Q 47.125 21.390625 47.125 36.375 
Q 47.125 51.421875 43.28125 58.90625 
Q 39.453125 66.40625 31.78125 66.40625 
z
M 31.78125 74.21875 
Q 44.046875 74.21875 50.515625 64.515625 
Q 56.984375 54.828125 56.984375 36.375 
Q 56.984375 17.96875 50.515625 8.265625 
Q 44.046875 -1.421875 31.78125 -1.421875 
Q 19.53125 -1.421875 13.0625 8.265625 
Q 6.59375 17.96875 6.59375 36.375 
Q 6.59375 54.828125 13.0625 64.515625 
Q 19.53125 74.21875 31.78125 74.21875 
z
" id="DejaVuSans-30"/>
     <path d="M 40.578125 39.3125 
Q 47.65625 37.796875 51.625 33 
Q 55.609375 28.21875 55.609375 21.1875 
Q 55.609375 10.40625 48.1875 4.484375 
Q 40.765625 -1.421875 27.09375 -1.421875 
Q 22.515625 -1.421875 17.65625 -0.515625 
Q 12.796875 0.390625 7.625 2.203125 
L 7.625 11.71875 
Q 11.71875 9.328125 16.59375 8.109375 
Q 21.484375 6.890625 26.8125 6.890625 
Q 36.078125 6.890625 40.9375 10.546875 
Q 45.796875 14.203125 45.796875 21.1875 
Q 45.796875 27.640625 41.28125 31.265625 
Q 36.765625 34.90625 28.71875 34.90625 
L 20.21875 34.90625 
L 20.21875 43.015625 
L 29.109375 43.015625 
Q 36.375 43.015625 40.234375 45.921875 
Q 44.09375 48.828125 44.09375 54.296875 
Q 44.09375 59.90625 40.109375 62.90625 
Q 36.140625 65.921875 28.71875 65.921875 
Q 24.65625 65.921875 20.015625 65.03125 
Q 15.375 64.15625 9.8125 62.3125 
L 9.8125 71.09375 
Q 15.4375 72.65625 20.34375 73.4375 
Q 25.25 74.21875 29.59375 74.21875 
Q 40.828125 74.21875 47.359375 69.109375 
Q 53.90625 64.015625 53.90625 55.328125 
Q 53.90625 49.265625 50.4375 45.09375 
Q 46.96875 40.921875 40.578125 39.3125 
z
" id="DejaVuSans-33"/>
    </defs>
    <g transform="translate(63.228 35.472)scale(0.12 -0.12)">
     <use transform="translate(0 0.78125)" xlink:href="#DejaVuSans-53"/>
     <use transform="translate(63.476562 0.78125)" xlink:href="#DejaVuSans-74"/>
     <use transform="translate(102.685547 0.78125)" xlink:href="#DejaVuSans-72"/>
     <use transform="translate(143.798828 0.78125)" xlink:href="#DejaVuSans-75"/>
     <use transform="translate(207.177734 0.78125)" xlink:href="#DejaVuSans-63"/>
     <use transform="translate(262.158203 0.78125)" xlink:href="#DejaVuSans-74"/>
     <use transform="translate(301.367188 0.78125)" xlink:href="#DejaVuSans-75"/>
     <use transform="translate(364.746094 0.78125)" xlink:href="#DejaVuSans-72"/>
     <use transform="translate(405.859375 0.78125)" xlink:href="#DejaVuSans-65"/>
     <use transform="translate(467.382812 0.78125)" xlink:href="#DejaVuSans-20"/>
     <use transform="translate(499.169922 0.78125)" xlink:href="#DejaVuSans-23"/>
     <use transform="translate(582.958984 0.78125)" xlink:href="#DejaVuSans-39"/>
     <use transform="translate(646.582031 0.78125)" xlink:href="#DejaVuSans-36"/>
     <use transform="translate(710.205078 0.78125)" xlink:href="#DejaVuSans-39"/>
     <use transform="translate(773.828125 0.78125)" xlink:href="#DejaVuSans-34"/>
     <use transform="translate(837.451172 0.78125)" xlink:href="#DejaVuSans-2c"/>
     <use transform="translate(869.238281 0.78125)" xlink:href="#DejaVuSans-20"/>
     <use transform="translate(901.025391 0.78125)" xlink:href="#DejaVuSans-Oblique-45"/>
     <use transform="translate(964.208984 -15.625)scale(0.7)" xlink:href="#DejaVuSans-Oblique-4e"/>
     <use transform="translate(1019.306641 0.78125)" xlink:href="#DejaVuSans-3d"/>
     <use transform="translate(1103.095703 0.78125)" xlink:href="#DejaVuSans-2d"/>
     <use transform="translate(1139.179688 0.78125)" xlink:href="#DejaVuSans-31"/>
     <use transform="translate(1202.802734 0.78125)" xlink:href="#DejaVuSans-37"/>
     <use transform="translate(1266.425781 0.78125)" xlink:href="#DejaVuSans-31"/>
     <use transform="translate(1330.048828 0.78125)" xlink:href="#DejaVuSans-2e"/>
     <use transform="translate(1361.757812 0.78125)" xlink:href="#DejaVuSans-32"/>
     <use transform="translate(1425.365234 0.78125)" xlink:href="#DejaVuSans-39"/>
     <use transform="translate(1488.988281 0.78125)" xlink:href="#DejaVuSans-65"/>
     <use transform="translate(1550.511719 0.78125)" xlink:href="#DejaVuSans-56"/>
     <use transform="translate(1618.919922 0.78125)" xlink:href="#DejaVuSans-2c"/>
     <use transform="translate(1650.707031 0.78125)" xlink:href="#DejaVuSans-20"/>
     <use transform="translate(1682.494141 0.78125)" xlink:href="#DejaVuSans-394"/>
     <use transform="translate(1750.902344 0.78125)" xlink:href="#DejaVuSans-45"/>
     <use transform="translate(1814.085938 0.78125)" xlink:href="#DejaVuSans-3d"/>
     <use transform="translate(1897.875 0.78125)" xlink:href="#DejaVuSans-2d"/>
     <use transform="translate(1933.958984 0.78125)" xlink:href="#DejaVuSans-30"/>
     <use transform="translate(1997.582031 0.78125)" xlink:href="#DejaVuSans-2e"/>
     <use transform="translate(2029.291016 0.78125)" xlink:href="#DejaVuSans-32"/>
     <use transform="translate(2092.914062 0.78125)" xlink:href="#DejaVuSans-33"/>
     <use transform="translate(2156.537109 0.78125)" xlink:href="#DejaVuSans-65"/>
     <use transform="translate(2218.060547 0.78125)" xlink:href="#DejaVuSans-56"/>
    </g>
   </g>
  </g>
  <g id="axes_2">
   <g id="patch_2">
    <path clip-path="url(#pec38fdd915)" d="M 361.152 307.584 
L 361.152 306.5445 
L 361.152 42.5115 
L 361.152 41.472 
L 374.4576 41.472 
L 374.4576 42.5115 
L 374.4576 306.5445 
L 374.4576 307.584 
z
" style="fill:#ffffff;stroke:#ffffff;stroke-linejoin:miter;stroke-width:0.01;"/>
   </g>
   <image height="265.68" id="image000ed3617c" transform="scale(1 -1)translate(0 -265.68)" width="12.96" x="361.44" xlink:href="data:image/png;base64,
iVBORw0KGgoAAAANSUhEUgAAABIAAAFxCAYAAAB+2fgXAAAABHNCSVQICAgIfAhkiAAAAeVJREFUeJztncmNw0AQA2ckheYQNv9QLIfQ8ygsCgQ7AEI8+jAs2Puz/94F1LP2ReCsZ18bAWIeZ5XaGRBE7VnbptG+KI101FYyNSiQG2oRITXKNaX9uclOdi2XWjftVE32CZCO2ou5Bj1TcCBr/1zB9ge7Fq0Rg2NM9pvbtG+ua1QgsRYhDy0ISEiNc40BEibbSI0Coj5CBGtkpFbXJiAjNZlrwhuSOv2M1DjXbEdEciBt1JSDDQKKpmZr2rr2j0DBGpXaWEJq3bQzEPIS26r9J+Wzv9Tm8o3aajRXqc3VUXsApKNWjeZq0x4ABVNbm7lrszVigDqP5vIl2+eaT2yfRkL7g+dRcNPqjohkjaCvRVBq0H2U3LQrOJCx9kdTg4B8oxZzzTdqdYHEngjUCAPyUctN9sVRq2sTECW2UKNLd2jVtRmo1A6AhMmWaSRcR8nUdIHUuVb75zJS218EyEitro1At69pIdeSk30Lkw0FktNImGyZRhy1O5galmxd03LUsHWk06jUZiCq+5Wb1kZNN4+wJxJuWt8RAW5am2sYNZ9rYCBzZ3buPKJ2P5Yj4Toy3keyIyJbIxs1rml1byCA84gpch5RQNB7Q0qNMGq2Hy4BXdNR41yz/cEEJfZzUz96r9PoB0okjeQ8y9TkAAAAAElFTkSuQmCC" y="-41.76"/>
   <g id="matplotlib.axis_1"/>
   <g id="matplotlib.axis_2">
    <g id="ytick_1">
     <g id="line2d_1">
      <defs>
       <path d="M 0 0 
L 3.5 0 
" id="m2112f45a1c" style="stroke:#000000;stroke-width:0.8;"/>
      </defs>
      <g>
       <use style="stroke:#000000;stroke-width:0.8;" x="374.4576" xlink:href="#m2112f45a1c" y="292.530424"/>
      </g>
     </g>
     <g id="text_2">
      <!-- −8.5 -->
      <defs>
       <path d="M 10.59375 35.5 
L 73.1875 35.5 
L 73.1875 27.203125 
L 10.59375 27.203125 
z
" id="DejaVuSans-2212"/>
       <path d="M 31.78125 34.625 
Q 24.75 34.625 20.71875 30.859375 
Q 16.703125 27.09375 16.703125 20.515625 
Q 16.703125 13.921875 20.71875 10.15625 
Q 24.75 6.390625 31.78125 6.390625 
Q 38.8125 6.390625 42.859375 10.171875 
Q 46.921875 13.96875 46.921875 20.515625 
Q 46.921875 27.09375 42.890625 30.859375 
Q 38.875 34.625 31.78125 34.625 
z
M 21.921875 38.8125 
Q 15.578125 40.375 12.03125 44.71875 
Q 8.5 49.078125 8.5 55.328125 
Q 8.5 64.0625 14.71875 69.140625 
Q 20.953125 74.21875 31.78125 74.21875 
Q 42.671875 74.21875 48.875 69.140625 
Q 55.078125 64.0625 55.078125 55.328125 
Q 55.078125 49.078125 51.53125 44.71875 
Q 48 40.375 41.703125 38.8125 
Q 48.828125 37.15625 52.796875 32.3125 
Q 56.78125 27.484375 56.78125 20.515625 
Q 56.78125 9.90625 50.3125 4.234375 
Q 43.84375 -1.421875 31.78125 -1.421875 
Q 19.734375 -1.421875 13.25 4.234375 
Q 6.78125 9.90625 6.78125 20.515625 
Q 6.78125 27.484375 10.78125 32.3125 
Q 14.796875 37.15625 21.921875 38.8125 
z
M 18.3125 54.390625 
Q 18.3125 48.734375 21.84375 45.5625 
Q 25.390625 42.390625 31.78125 42.390625 
Q 38.140625 42.390625 41.71875 45.5625 
Q 45.3125 48.734375 45.3125 54.390625 
Q 45.3125 60.0625 41.71875 63.234375 
Q 38.140625 66.40625 31.78125 66.40625 
Q 25.390625 66.40625 21.84375 63.234375 
Q 18.3125 60.0625 18.3125 54.390625 
z
" id="DejaVuSans-38"/>
       <path d="M 10.796875 72.90625 
L 49.515625 72.90625 
L 49.515625 64.59375 
L 19.828125 64.59375 
L 19.828125 46.734375 
Q 21.96875 47.46875 24.109375 47.828125 
Q 26.265625 48.1875 28.421875 48.1875 
Q 40.625 48.1875 47.75 41.5 
Q 54.890625 34.8125 54.890625 23.390625 
Q 54.890625 11.625 47.5625 5.09375 
Q 40.234375 -1.421875 26.90625 -1.421875 
Q 22.3125 -1.421875 17.546875 -0.640625 
Q 12.796875 0.140625 7.71875 1.703125 
L 7.71875 11.625 
Q 12.109375 9.234375 16.796875 8.0625 
Q 21.484375 6.890625 26.703125 6.890625 
Q 35.15625 6.890625 40.078125 11.328125 
Q 45.015625 15.765625 45.015625 23.390625 
Q 45.015625 31 40.078125 35.4375 
Q 35.15625 39.890625 26.703125 39.890625 
Q 22.75 39.890625 18.8125 39.015625 
Q 14.890625 38.140625 10.796875 36.28125 
z
" id="DejaVuSans-35"/>
      </defs>
      <g transform="translate(381.4576 296.329643)scale(0.1 -0.1)">
       <use xlink:href="#DejaVuSans-2212"/>
       <use x="83.789062" xlink:href="#DejaVuSans-38"/>
       <use x="147.412109" xlink:href="#DejaVuSans-2e"/>
       <use x="179.199219" xlink:href="#DejaVuSans-35"/>
      </g>
     </g>
    </g>
    <g id="ytick_2">
     <g id="line2d_2">
      <g>
       <use style="stroke:#000000;stroke-width:0.8;" x="374.4576" xlink:href="#m2112f45a1c" y="255.919797"/>
      </g>
     </g>
     <g id="text_3">
      <!-- −8.0 -->
      <g transform="translate(381.4576 259.719016)scale(0.1 -0.1)">
       <use xlink:href="#DejaVuSans-2212"/>
       <use x="83.789062" xlink:href="#DejaVuSans-38"/>
       <use x="147.412109" xlink:href="#DejaVuSans-2e"/>
       <use x="179.199219" xlink:href="#DejaVuSans-30"/>
      </g>
     </g>
    </g>
    <g id="ytick_3">
     <g id="line2d_3">
      <g>
       <use style="stroke:#000000;stroke-width:0.8;" x="374.4576" xlink:href="#m2112f45a1c" y="219.30917"/>
      </g>
     </g>
     <g id="text_4">
      <!-- −7.5 -->
      <g transform="translate(381.4576 223.108389)scale(0.1 -0.1)">
       <use xlink:href="#DejaVuSans-2212"/>
       <use x="83.789062" xlink:href="#DejaVuSans-37"/>
       <use x="147.412109" xlink:href="#DejaVuSans-2e"/>
       <use x="179.199219" xlink:href="#DejaVuSans-35"/>
      </g>
     </g>
    </g>
    <g id="ytick_4">
     <g id="line2d_4">
      <g>
       <use style="stroke:#000000;stroke-width:0.8;" x="374.4576" xlink:href="#m2112f45a1c" y="182.698544"/>
      </g>
     </g>
     <g id="text_5">
      <!-- −7.0 -->
      <g transform="translate(381.4576 186.497762)scale(0.1 -0.1)">
       <use xlink:href="#DejaVuSans-2212"/>
       <use x="83.789062" xlink:href="#DejaVuSans-37"/>
       <use x="147.412109" xlink:href="#DejaVuSans-2e"/>
       <use x="179.199219" xlink:href="#DejaVuSans-30"/>
      </g>
     </g>
    </g>
    <g id="ytick_5">
     <g id="line2d_5">
      <g>
       <use style="stroke:#000000;stroke-width:0.8;" x="374.4576" xlink:href="#m2112f45a1c" y="146.087917"/>
      </g>
     </g>
     <g id="text_6">
      <!-- −6.5 -->
      <g transform="translate(381.4576 149.887135)scale(0.1 -0.1)">
       <use xlink:href="#DejaVuSans-2212"/>
       <use x="83.789062" xlink:href="#DejaVuSans-36"/>
       <use x="147.412109" xlink:href="#DejaVuSans-2e"/>
       <use x="179.199219" xlink:href="#DejaVuSans-35"/>
      </g>
     </g>
    </g>
    <g id="ytick_6">
     <g id="line2d_6">
      <g>
       <use style="stroke:#000000;stroke-width:0.8;" x="374.4576" xlink:href="#m2112f45a1c" y="109.47729"/>
      </g>
     </g>
     <g id="text_7">
      <!-- −6.0 -->
      <g transform="translate(381.4576 113.276508)scale(0.1 -0.1)">
       <use xlink:href="#DejaVuSans-2212"/>
       <use x="83.789062" xlink:href="#DejaVuSans-36"/>
       <use x="147.412109" xlink:href="#DejaVuSans-2e"/>
       <use x="179.199219" xlink:href="#DejaVuSans-30"/>
      </g>
     </g>
    </g>
    <g id="ytick_7">
     <g id="line2d_7">
      <g>
       <use style="stroke:#000000;stroke-width:0.8;" x="374.4576" xlink:href="#m2112f45a1c" y="72.866663"/>
      </g>
     </g>
     <g id="text_8">
      <!-- −5.5 -->
      <g transform="translate(381.4576 76.665882)scale(0.1 -0.1)">
       <use xlink:href="#DejaVuSans-2212"/>
       <use x="83.789062" xlink:href="#DejaVuSans-35"/>
       <use x="147.412109" xlink:href="#DejaVuSans-2e"/>
       <use x="179.199219" xlink:href="#DejaVuSans-35"/>
      </g>
     </g>
    </g>
    <g id="text_9">
     <!-- Energy [eV] -->
     <defs>
      <path d="M 54.890625 33.015625 
L 54.890625 0 
L 45.90625 0 
L 45.90625 32.71875 
Q 45.90625 40.484375 42.875 44.328125 
Q 39.84375 48.1875 33.796875 48.1875 
Q 26.515625 48.1875 22.3125 43.546875 
Q 18.109375 38.921875 18.109375 30.90625 
L 18.109375 0 
L 9.078125 0 
L 9.078125 54.6875 
L 18.109375 54.6875 
L 18.109375 46.1875 
Q 21.34375 51.125 25.703125 53.5625 
Q 30.078125 56 35.796875 56 
Q 45.21875 56 50.046875 50.171875 
Q 54.890625 44.34375 54.890625 33.015625 
z
" id="DejaVuSans-6e"/>
      <path d="M 45.40625 27.984375 
Q 45.40625 37.75 41.375 43.109375 
Q 37.359375 48.484375 30.078125 48.484375 
Q 22.859375 48.484375 18.828125 43.109375 
Q 14.796875 37.75 14.796875 27.984375 
Q 14.796875 18.265625 18.828125 12.890625 
Q 22.859375 7.515625 30.078125 7.515625 
Q 37.359375 7.515625 41.375 12.890625 
Q 45.40625 18.265625 45.40625 27.984375 
z
M 54.390625 6.78125 
Q 54.390625 -7.171875 48.1875 -13.984375 
Q 42 -20.796875 29.203125 -20.796875 
Q 24.46875 -20.796875 20.265625 -20.09375 
Q 16.0625 -19.390625 12.109375 -17.921875 
L 12.109375 -9.1875 
Q 16.0625 -11.328125 19.921875 -12.34375 
Q 23.78125 -13.375 27.78125 -13.375 
Q 36.625 -13.375 41.015625 -8.765625 
Q 45.40625 -4.15625 45.40625 5.171875 
L 45.40625 9.625 
Q 42.625 4.78125 38.28125 2.390625 
Q 33.9375 0 27.875 0 
Q 17.828125 0 11.671875 7.65625 
Q 5.515625 15.328125 5.515625 27.984375 
Q 5.515625 40.671875 11.671875 48.328125 
Q 17.828125 56 27.875 56 
Q 33.9375 56 38.28125 53.609375 
Q 42.625 51.21875 45.40625 46.390625 
L 45.40625 54.6875 
L 54.390625 54.6875 
z
" id="DejaVuSans-67"/>
      <path d="M 32.171875 -5.078125 
Q 28.375 -14.84375 24.75 -17.8125 
Q 21.140625 -20.796875 15.09375 -20.796875 
L 7.90625 -20.796875 
L 7.90625 -13.28125 
L 13.1875 -13.28125 
Q 16.890625 -13.28125 18.9375 -11.515625 
Q 21 -9.765625 23.484375 -3.21875 
L 25.09375 0.875 
L 2.984375 54.6875 
L 12.5 54.6875 
L 29.59375 11.921875 
L 46.6875 54.6875 
L 56.203125 54.6875 
z
" id="DejaVuSans-79"/>
      <path d="M 8.59375 75.984375 
L 29.296875 75.984375 
L 29.296875 69 
L 17.578125 69 
L 17.578125 -6.203125 
L 29.296875 -6.203125 
L 29.296875 -13.1875 
L 8.59375 -13.1875 
z
" id="DejaVuSans-5b"/>
      <path d="M 30.421875 75.984375 
L 30.421875 -13.1875 
L 9.71875 -13.1875 
L 9.71875 -6.203125 
L 21.390625 -6.203125 
L 21.390625 69 
L 9.71875 69 
L 9.71875 75.984375 
z
" id="DejaVuSans-5d"/>
     </defs>
     <g transform="translate(417.33885 204.108469)rotate(-90)scale(0.1 -0.1)">
      <use xlink:href="#DejaVuSans-45"/>
      <use x="63.183594" xlink:href="#DejaVuSans-6e"/>
      <use x="126.5625" xlink:href="#DejaVuSans-65"/>
      <use x="188.085938" xlink:href="#DejaVuSans-72"/>
      <use x="229.183594" xlink:href="#DejaVuSans-67"/>
      <use x="292.660156" xlink:href="#DejaVuSans-79"/>
      <use x="351.839844" xlink:href="#DejaVuSans-20"/>
      <use x="383.626953" xlink:href="#DejaVuSans-5b"/>
      <use x="422.640625" xlink:href="#DejaVuSans-65"/>
      <use x="484.164062" xlink:href="#DejaVuSans-56"/>
      <use x="552.572266" xlink:href="#DejaVuSans-5d"/>
     </g>
    </g>
   </g>
   <g id="patch_3">
    <path d="M 361.152 307.584 
L 361.152 306.5445 
L 361.152 42.5115 
L 361.152 41.472 
L 374.4576 41.472 
L 374.4576 42.5115 
L 374.4576 306.5445 
L 374.4576 307.584 
z
" style="fill:none;stroke:#000000;stroke-linejoin:miter;stroke-width:0.8;"/>
   </g>
  </g>
 </g>
 <defs>
  <clipPath id="pb90eb544fb">
   <rect height="266.112" width="285.696" x="57.6" y="41.472"/>
  </clipPath>
  <clipPath id="pec38fdd915">
   <rect height="266.112" width="13.3056" x="361.152" y="41.472"/>
  </clipPath>
 </defs>
</svg>
