<?xml version="1.0" encoding="utf-8" standalone="no"?>
<!DOCTYPE svg PUBLIC "-//W3C//DTD SVG 1.1//EN"
  "http://www.w3.org/Graphics/SVG/1.1/DTD/svg11.dtd">
<!-- Created with matplotlib (http://matplotlib.org/) -->
<svg height="345.6pt" version="1.1" viewBox="0 0 460.8 345.6" width="460.8pt" xmlns="http://www.w3.org/2000/svg" xmlns:xlink="http://www.w3.org/1999/xlink">
 <defs>
  <style type="text/css">
*{stroke-linecap:butt;stroke-linejoin:round;}
  </style>
 </defs>
 <g id="figure_1">
  <g id="patch_1">
   <path d="M 0 345.6 
L 460.8 345.6 
L 460.8 0 
L 0 0 
z
" style="fill:#ffffff;"/>
  </g>
  <g id="axes_1">
   <g id="CircleCollection_1">
    <path clip-path="url(#pb2cbde6b4b)" d="M 204.797289 170.96424 
C 206.565483 170.96424 208.261494 170.261729 209.511795 169.011428 
C 210.762097 167.761126 211.464608 166.065115 211.464608 164.296922 
C 211.464608 162.528728 210.762097 160.832717 209.511795 159.582415 
C 208.261494 158.332114 206.565483 157.629603 204.797289 157.629603 
C 203.029096 157.629603 201.333085 158.332114 200.082783 159.582415 
C 198.832481 160.832717 198.129971 162.528728 198.129971 164.296922 
C 198.129971 166.065115 198.832481 167.761126 200.082783 169.011428 
C 201.333085 170.261729 203.029096 170.96424 204.797289 170.96424 
z
" style="fill:#32648e;"/>
    <path clip-path="url(#pb2cbde6b4b)" d="M 86.443494 186.993299 
C 88.149193 186.993299 89.78526 186.315617 90.991371 185.109506 
C 92.197483 183.903395 92.875164 182.267327 92.875164 180.561628 
C 92.875164 178.855929 92.197483 177.219862 90.991371 176.013751 
C 89.78526 174.807639 88.149193 174.129958 86.443494 174.129958 
C 84.737795 174.129958 83.101727 174.807639 81.895616 176.013751 
C 80.689505 177.219862 80.011824 178.855929 80.011824 180.561628 
C 80.011824 182.267327 80.689505 183.903395 81.895616 185.109506 
C 83.101727 186.315617 84.737795 186.993299 86.443494 186.993299 
z
" style="fill:#2b748e;"/>
    <path clip-path="url(#pb2cbde6b4b)" d="M 162.771385 205.56767 
C 164.487863 205.56767 166.13427 204.885706 167.348003 203.671973 
C 168.561736 202.45824 169.2437 200.811833 169.2437 199.095355 
C 169.2437 197.378877 168.561736 195.732471 167.348003 194.518738 
C 166.13427 193.305004 164.487863 192.623041 162.771385 192.623041 
C 161.054907 192.623041 159.408501 193.305004 158.194768 194.518738 
C 156.981034 195.732471 156.299071 197.378877 156.299071 199.095355 
C 156.299071 200.811833 156.981034 202.45824 158.194768 203.671973 
C 159.408501 204.885706 161.054907 205.56767 162.771385 205.56767 
z
" style="fill:#2f6c8e;"/>
    <path clip-path="url(#pb2cbde6b4b)" d="M 222.408774 91.805572 
C 224.255152 91.805572 226.026155 91.071999 227.331741 89.766413 
C 228.637327 88.460826 229.370901 86.689823 229.370901 84.843446 
C 229.370901 82.997068 228.637327 81.226065 227.331741 79.920479 
C 226.026155 78.614893 224.255152 77.881319 222.408774 77.881319 
C 220.562396 77.881319 218.791393 78.614893 217.485807 79.920479 
C 216.180221 81.226065 215.446647 82.997068 215.446647 84.843446 
C 215.446647 86.689823 216.180221 88.460826 217.485807 89.766413 
C 218.791393 91.071999 220.562396 91.805572 222.408774 91.805572 
z
" style="fill:#21918c;"/>
    <path clip-path="url(#pb2cbde6b4b)" d="M 109.471859 205.212907 
C 111.167223 205.212907 112.793376 204.539332 113.992179 203.34053 
C 115.190982 202.141727 115.864557 200.515573 115.864557 198.82021 
C 115.864557 197.124846 115.190982 195.498693 113.992179 194.29989 
C 112.793376 193.101087 111.167223 192.427512 109.471859 192.427512 
C 107.776496 192.427512 106.150342 193.101087 104.951539 194.29989 
C 103.752737 195.498693 103.079162 197.124846 103.079162 198.82021 
C 103.079162 200.515573 103.752737 202.141727 104.951539 203.34053 
C 106.150342 204.539332 107.776496 205.212907 109.471859 205.212907 
z
" style="fill:#2c728e;"/>
    <path clip-path="url(#pb2cbde6b4b)" d="M 322.904973 271.478634 
C 324.704079 271.478634 326.429742 270.763841 327.701902 269.491681 
C 328.974063 268.21952 329.688855 266.493858 329.688855 264.694751 
C 329.688855 262.895645 328.974063 261.169983 327.701902 259.897822 
C 326.429742 258.625662 324.704079 257.910869 322.904973 257.910869 
C 321.105866 257.910869 319.380204 258.625662 318.108043 259.897822 
C 316.835883 261.169983 316.12109 262.895645 316.12109 264.694751 
C 316.12109 266.493858 316.835883 268.21952 318.108043 269.491681 
C 319.380204 270.763841 321.105866 271.478634 322.904973 271.478634 
z
" style="fill:#2e6f8e;"/>
    <path clip-path="url(#pb2cbde6b4b)" d="M 147.568591 60.963429 
C 149.408857 60.963429 151.173997 60.232284 152.475262 58.93102 
C 153.776526 57.629756 154.507671 55.864615 154.507671 54.024349 
C 154.507671 52.184084 153.776526 50.418943 152.475262 49.117679 
C 151.173997 47.816415 149.408857 47.08527 147.568591 47.08527 
C 145.728326 47.08527 143.963185 47.816415 142.661921 49.117679 
C 141.360657 50.418943 140.629511 52.184084 140.629511 54.024349 
C 140.629511 55.864615 141.360657 57.629756 142.661921 58.93102 
C 143.963185 60.232284 145.728326 60.963429 147.568591 60.963429 
z
" style="fill:#2f6c8e;"/>
    <path clip-path="url(#pb2cbde6b4b)" d="M 185.237906 191.723636 
C 186.977752 191.723636 188.646573 191.032388 189.87683 189.802131 
C 191.107087 188.571874 191.798335 186.903053 191.798335 185.163207 
C 191.798335 183.423361 191.107087 181.75454 189.87683 180.524283 
C 188.646573 179.294026 186.977752 178.602778 185.237906 178.602778 
C 183.49806 178.602778 181.829239 179.294026 180.598982 180.524283 
C 179.368725 181.75454 178.677477 183.423361 178.677477 185.163207 
C 178.677477 186.903053 179.368725 188.571874 180.598982 189.802131 
C 181.829239 191.032388 183.49806 191.723636 185.237906 191.723636 
z
" style="fill:#2e6e8e;"/>
    <path clip-path="url(#pb2cbde6b4b)" d="M 70.866454 130.912931 
C 72.622032 130.912931 74.305942 130.215432 75.547323 128.974051 
C 76.788704 127.73267 77.486203 126.04876 77.486203 124.293182 
C 77.486203 122.537604 76.788704 120.853694 75.547323 119.612313 
C 74.305942 118.370932 72.622032 117.673434 70.866454 117.673434 
C 69.110877 117.673434 67.426966 118.370932 66.185585 119.612313 
C 64.944204 120.853694 64.246706 122.537604 64.246706 124.293182 
C 64.246706 126.04876 64.944204 127.73267 66.185585 128.974051 
C 67.426966 130.215432 69.110877 130.912931 70.866454 130.912931 
z
" style="fill:#2c718e;"/>
    <path clip-path="url(#pb2cbde6b4b)" d="M 73.309922 161.239586 
C 75.036418 161.239586 76.692434 160.553642 77.913251 159.332824 
C 79.134068 158.112007 79.820012 156.455991 79.820012 154.729495 
C 79.820012 153.002999 79.134068 151.346983 77.913251 150.126166 
C 76.692434 148.905349 75.036418 148.219405 73.309922 148.219405 
C 71.583426 148.219405 69.92741 148.905349 68.706593 150.126166 
C 67.485776 151.346983 66.799831 153.002999 66.799831 154.729495 
C 66.799831 156.455991 67.485776 158.112007 68.706593 159.332824 
C 69.92741 160.553642 71.583426 161.239586 73.309922 161.239586 
z
" style="fill:#2c728e;"/>
    <path clip-path="url(#pb2cbde6b4b)" d="M 120.261958 66.395974 
C 122.088933 66.395974 123.841326 65.670109 125.133193 64.378242 
C 126.425059 63.086375 127.150924 61.333982 127.150924 59.507007 
C 127.150924 57.680032 126.425059 55.927639 125.133193 54.635772 
C 123.841326 53.343906 122.088933 52.618041 120.261958 52.618041 
C 118.434982 52.618041 116.682589 53.343906 115.390723 54.635772 
C 114.098856 55.927639 113.372991 57.680032 113.372991 59.507007 
C 113.372991 61.333982 114.098856 63.086375 115.390723 64.378242 
C 116.682589 65.670109 118.434982 66.395974 120.261958 66.395974 
z
" style="fill:#2e6f8e;"/>
    <path clip-path="url(#pb2cbde6b4b)" d="M 235.344475 122.054588 
C 237.17407 122.054588 238.928976 121.327682 240.222695 120.033963 
C 241.516415 118.740244 242.24332 116.985338 242.24332 115.155742 
C 242.24332 113.326147 241.516415 111.571241 240.222695 110.277522 
C 238.928976 108.983803 237.17407 108.256897 235.344475 108.256897 
C 233.51488 108.256897 231.759974 108.983803 230.466254 110.277522 
C 229.172535 111.571241 228.445629 113.326147 228.445629 115.155742 
C 228.445629 116.985338 229.172535 118.740244 230.466254 120.033963 
C 231.759974 121.327682 233.51488 122.054588 235.344475 122.054588 
z
" style="fill:#440154;"/>
    <path clip-path="url(#pb2cbde6b4b)" d="M 174.01095 62.683791 
C 175.859083 62.683791 177.63177 61.94952 178.938597 60.642693 
C 180.245425 59.335865 180.979696 57.563178 180.979696 55.715045 
C 180.979696 53.866912 180.245425 52.094225 178.938597 50.787397 
C 177.63177 49.48057 175.859083 48.746299 174.01095 48.746299 
C 172.162817 48.746299 170.39013 49.48057 169.083302 50.787397 
C 167.776475 52.094225 167.042204 53.866912 167.042204 55.715045 
C 167.042204 57.563178 167.776475 59.335865 169.083302 60.642693 
C 170.39013 61.94952 172.162817 62.683791 174.01095 62.683791 
z
" style="fill:#2d718e;"/>
    <path clip-path="url(#pb2cbde6b4b)" d="M 218.504239 147.404589 
C 220.30096 147.404589 222.024334 146.690744 223.294808 145.420271 
C 224.565281 144.149797 225.279126 142.426423 225.279126 140.629702 
C 225.279126 138.832981 224.565281 137.109607 223.294808 135.839133 
C 222.024334 134.56866 220.30096 133.854815 218.504239 133.854815 
C 216.707518 133.854815 214.984144 134.56866 213.71367 135.839133 
C 212.443197 137.109607 211.729352 138.832981 211.729352 140.629702 
C 211.729352 142.426423 212.443197 144.149797 213.71367 145.420271 
C 214.984144 146.690744 216.707518 147.404589 218.504239 147.404589 
z
" style="fill:#20938c;"/>
    <path clip-path="url(#pb2cbde6b4b)" d="M 295.594757 183.566542 
C 297.430643 183.566542 299.191582 182.837137 300.489749 181.53897 
C 301.787917 180.240803 302.517322 178.479863 302.517322 176.643978 
C 302.517322 174.808092 301.787917 173.047153 300.489749 171.748985 
C 299.191582 170.450818 297.430643 169.721413 295.594757 169.721413 
C 293.758872 169.721413 291.997932 170.450818 290.699765 171.748985 
C 289.401598 173.047153 288.672193 174.808092 288.672193 176.643978 
C 288.672193 178.479863 289.401598 180.240803 290.699765 181.53897 
C 291.997932 182.837137 293.758872 183.566542 295.594757 183.566542 
z
" style="fill:#2f6c8e;"/>
    <path clip-path="url(#pb2cbde6b4b)" d="M 315.169705 241.437202 
C 316.983285 241.437202 318.72283 240.716659 320.005225 239.434264 
C 321.28762 238.151869 322.008163 236.412324 322.008163 234.598743 
C 322.008163 232.785163 321.28762 231.045618 320.005225 229.763223 
C 318.72283 228.480828 316.983285 227.760285 315.169705 227.760285 
C 313.356125 227.760285 311.61658 228.480828 310.334185 229.763223 
C 309.05179 231.045618 308.331247 232.785163 308.331247 234.598743 
C 308.331247 236.412324 309.05179 238.151869 310.334185 239.434264 
C 311.61658 240.716659 313.356125 241.437202 315.169705 241.437202 
z
" style="fill:#306a8e;"/>
    <path clip-path="url(#pb2cbde6b4b)" d="M 97.668544 81.088223 
C 99.477119 81.088223 101.211863 80.369668 102.490719 79.090812 
C 103.769574 77.811956 104.488129 76.077212 104.488129 74.268637 
C 104.488129 72.460062 103.769574 70.725318 102.490719 69.446462 
C 101.211863 68.167607 99.477119 67.449052 97.668544 67.449052 
C 95.859968 67.449052 94.125224 68.167607 92.846369 69.446462 
C 91.567513 70.725318 90.848958 72.460062 90.848958 74.268637 
C 90.848958 76.077212 91.567513 77.811956 92.846369 79.090812 
C 94.125224 80.369668 95.859968 81.088223 97.668544 81.088223 
z
" style="fill:#2e6e8e;"/>
    <path clip-path="url(#pb2cbde6b4b)" d="M 306.670862 211.991552 
C 308.497004 211.991552 310.248598 211.266018 311.539876 209.97474 
C 312.831154 208.683462 313.556688 206.931868 313.556688 205.105726 
C 313.556688 203.279583 312.831154 201.527989 311.539876 200.236712 
C 310.248598 198.945434 308.497004 198.2199 306.670862 198.2199 
C 304.844719 198.2199 303.093125 198.945434 301.801847 200.236712 
C 300.51057 201.527989 299.785036 203.279583 299.785036 205.105726 
C 299.785036 206.931868 300.51057 208.683462 301.801847 209.97474 
C 303.093125 211.266018 304.844719 211.991552 306.670862 211.991552 
z
" style="fill:#31668e;"/>
    <path clip-path="url(#pb2cbde6b4b)" d="M 200.072729 75.366086 
C 201.920845 75.366086 203.693516 74.631822 205.000331 73.325007 
C 206.307147 72.018191 207.041411 70.245521 207.041411 68.397405 
C 207.041411 66.549289 206.307147 64.776618 205.000331 63.469802 
C 203.693516 62.162987 201.920845 61.428723 200.072729 61.428723 
C 198.224613 61.428723 196.451942 62.162987 195.145127 63.469802 
C 193.838312 64.776618 193.104047 66.549289 193.104047 68.397405 
C 193.104047 70.245521 193.838312 72.018191 195.145127 73.325007 
C 196.451942 74.631822 198.224613 75.366086 200.072729 75.366086 
z
" style="fill:#306a8e;"/>
    <path clip-path="url(#pb2cbde6b4b)" d="M 280.759497 156.94528 
C 282.600355 156.94528 284.366063 156.2139 285.667746 154.912217 
C 286.969429 153.610535 287.700809 151.844826 287.700809 150.003969 
C 287.700809 148.163111 286.969429 146.397403 285.667746 145.09572 
C 284.366063 143.794037 282.600355 143.062657 280.759497 143.062657 
C 278.91864 143.062657 277.152931 143.794037 275.851249 145.09572 
C 274.549566 146.397403 273.818185 148.163111 273.818185 150.003969 
C 273.818185 151.844826 274.549566 153.610535 275.851249 154.912217 
C 277.152931 156.2139 278.91864 156.94528 280.759497 156.94528 
z
" style="fill:#32648e;"/>
    <path clip-path="url(#pb2cbde6b4b)" d="M 262.159628 134.414736 
C 264.001243 134.414736 265.767678 133.683054 267.069897 132.380836 
C 268.372115 131.078617 269.103797 129.312182 269.103797 127.470567 
C 269.103797 125.628952 268.372115 123.862517 267.069897 122.560298 
C 265.767678 121.25808 264.001243 120.526398 262.159628 120.526398 
C 260.318013 120.526398 258.551578 121.25808 257.249359 122.560298 
C 255.947141 123.862517 255.21546 125.628952 255.21546 127.470567 
C 255.21546 129.312182 255.947141 131.078617 257.249359 132.380836 
C 258.551578 133.683054 260.318013 134.414736 262.159628 134.414736 
z
" style="fill:#20928c;"/>
    <path clip-path="url(#pb2cbde6b4b)" d="M 135.627403 211.261344 
C 137.327701 211.261344 138.958589 210.585808 140.160882 209.383516 
C 141.363174 208.181223 142.03871 206.550336 142.03871 204.850037 
C 142.03871 203.149739 141.363174 201.518851 140.160882 200.316559 
C 138.958589 199.114266 137.327701 198.43873 135.627403 198.43873 
C 133.927105 198.43873 132.296217 199.114266 131.093924 200.316559 
C 129.891632 201.518851 129.216096 203.149739 129.216096 204.850037 
C 129.216096 206.550336 129.891632 208.181223 131.093924 209.383516 
C 132.296217 210.585808 133.927105 211.261344 135.627403 211.261344 
z
" style="fill:#2c718e;"/>
    <path clip-path="url(#pb2cbde6b4b)" d="M 79.578056 103.750306 
C 81.361342 103.750306 83.07183 103.041799 84.332805 101.780825 
C 85.593779 100.51985 86.302286 98.809362 86.302286 97.026076 
C 86.302286 95.242789 85.593779 93.532301 84.332805 92.271327 
C 83.07183 91.010352 81.361342 90.301845 79.578056 90.301845 
C 77.794769 90.301845 76.084281 91.010352 74.823307 92.271327 
C 73.562332 93.532301 72.853825 95.242789 72.853825 97.026076 
C 72.853825 98.809362 73.562332 100.51985 74.823307 101.780825 
C 76.084281 103.041799 77.794769 103.750306 79.578056 103.750306 
z
" style="fill:#2d718e;"/>
    <path clip-path="url(#pb2cbde6b4b)" d="M 330.025064 301.771288 
C 331.808713 301.771288 333.519549 301.062637 334.78078 299.801406 
C 336.042011 298.540175 336.750662 296.82934 336.750662 295.04569 
C 336.750662 293.262041 336.042011 291.551205 334.78078 290.289974 
C 333.519549 289.028744 331.808713 288.320092 330.025064 288.320092 
C 328.241415 288.320092 326.530579 289.028744 325.269348 290.289974 
C 324.008118 291.551205 323.299466 293.262041 323.299466 295.04569 
C 323.299466 296.82934 324.008118 298.540175 325.269348 299.801406 
C 326.530579 301.062637 328.241415 301.771288 330.025064 301.771288 
z
" style="fill:#fde725;"/>
   </g>
   <g id="text_1">
    <!-- Structure #9934, $E_N$=-182.19eV, ΔE=0.29eV -->
    <defs>
     <path d="M 53.515625 70.515625 
L 53.515625 60.890625 
Q 47.90625 63.578125 42.921875 64.890625 
Q 37.9375 66.21875 33.296875 66.21875 
Q 25.25 66.21875 20.875 63.09375 
Q 16.5 59.96875 16.5 54.203125 
Q 16.5 49.359375 19.40625 46.890625 
Q 22.3125 44.4375 30.421875 42.921875 
L 36.375 41.703125 
Q 47.40625 39.59375 52.65625 34.296875 
Q 57.90625 29 57.90625 20.125 
Q 57.90625 9.515625 50.796875 4.046875 
Q 43.703125 -1.421875 29.984375 -1.421875 
Q 24.8125 -1.421875 18.96875 -0.25 
Q 13.140625 0.921875 6.890625 3.21875 
L 6.890625 13.375 
Q 12.890625 10.015625 18.65625 8.296875 
Q 24.421875 6.59375 29.984375 6.59375 
Q 38.421875 6.59375 43.015625 9.90625 
Q 47.609375 13.234375 47.609375 19.390625 
Q 47.609375 24.75 44.3125 27.78125 
Q 41.015625 30.8125 33.5 32.328125 
L 27.484375 33.5 
Q 16.453125 35.6875 11.515625 40.375 
Q 6.59375 45.0625 6.59375 53.421875 
Q 6.59375 63.09375 13.40625 68.65625 
Q 20.21875 74.21875 32.171875 74.21875 
Q 37.3125 74.21875 42.625 73.28125 
Q 47.953125 72.359375 53.515625 70.515625 
z
" id="DejaVuSans-53"/>
     <path d="M 18.3125 70.21875 
L 18.3125 54.6875 
L 36.8125 54.6875 
L 36.8125 47.703125 
L 18.3125 47.703125 
L 18.3125 18.015625 
Q 18.3125 11.328125 20.140625 9.421875 
Q 21.96875 7.515625 27.59375 7.515625 
L 36.8125 7.515625 
L 36.8125 0 
L 27.59375 0 
Q 17.1875 0 13.234375 3.875 
Q 9.28125 7.765625 9.28125 18.015625 
L 9.28125 47.703125 
L 2.6875 47.703125 
L 2.6875 54.6875 
L 9.28125 54.6875 
L 9.28125 70.21875 
z
" id="DejaVuSans-74"/>
     <path d="M 41.109375 46.296875 
Q 39.59375 47.171875 37.8125 47.578125 
Q 36.03125 48 33.890625 48 
Q 26.265625 48 22.1875 43.046875 
Q 18.109375 38.09375 18.109375 28.8125 
L 18.109375 0 
L 9.078125 0 
L 9.078125 54.6875 
L 18.109375 54.6875 
L 18.109375 46.1875 
Q 20.953125 51.171875 25.484375 53.578125 
Q 30.03125 56 36.53125 56 
Q 37.453125 56 38.578125 55.875 
Q 39.703125 55.765625 41.0625 55.515625 
z
" id="DejaVuSans-72"/>
     <path d="M 8.5 21.578125 
L 8.5 54.6875 
L 17.484375 54.6875 
L 17.484375 21.921875 
Q 17.484375 14.15625 20.5 10.265625 
Q 23.53125 6.390625 29.59375 6.390625 
Q 36.859375 6.390625 41.078125 11.03125 
Q 45.3125 15.671875 45.3125 23.6875 
L 45.3125 54.6875 
L 54.296875 54.6875 
L 54.296875 0 
L 45.3125 0 
L 45.3125 8.40625 
Q 42.046875 3.421875 37.71875 1 
Q 33.40625 -1.421875 27.6875 -1.421875 
Q 18.265625 -1.421875 13.375 4.4375 
Q 8.5 10.296875 8.5 21.578125 
z
M 31.109375 56 
z
" id="DejaVuSans-75"/>
     <path d="M 48.78125 52.59375 
L 48.78125 44.1875 
Q 44.96875 46.296875 41.140625 47.34375 
Q 37.3125 48.390625 33.40625 48.390625 
Q 24.65625 48.390625 19.8125 42.84375 
Q 14.984375 37.3125 14.984375 27.296875 
Q 14.984375 17.28125 19.8125 11.734375 
Q 24.65625 6.203125 33.40625 6.203125 
Q 37.3125 6.203125 41.140625 7.25 
Q 44.96875 8.296875 48.78125 10.40625 
L 48.78125 2.09375 
Q 45.015625 0.34375 40.984375 -0.53125 
Q 36.96875 -1.421875 32.421875 -1.421875 
Q 20.0625 -1.421875 12.78125 6.34375 
Q 5.515625 14.109375 5.515625 27.296875 
Q 5.515625 40.671875 12.859375 48.328125 
Q 20.21875 56 33.015625 56 
Q 37.15625 56 41.109375 55.140625 
Q 45.0625 54.296875 48.78125 52.59375 
z
" id="DejaVuSans-63"/>
     <path d="M 56.203125 29.59375 
L 56.203125 25.203125 
L 14.890625 25.203125 
Q 15.484375 15.921875 20.484375 11.0625 
Q 25.484375 6.203125 34.421875 6.203125 
Q 39.59375 6.203125 44.453125 7.46875 
Q 49.3125 8.734375 54.109375 11.28125 
L 54.109375 2.78125 
Q 49.265625 0.734375 44.1875 -0.34375 
Q 39.109375 -1.421875 33.890625 -1.421875 
Q 20.796875 -1.421875 13.15625 6.1875 
Q 5.515625 13.8125 5.515625 26.8125 
Q 5.515625 40.234375 12.765625 48.109375 
Q 20.015625 56 32.328125 56 
Q 43.359375 56 49.78125 48.890625 
Q 56.203125 41.796875 56.203125 29.59375 
z
M 47.21875 32.234375 
Q 47.125 39.59375 43.09375 43.984375 
Q 39.0625 48.390625 32.421875 48.390625 
Q 24.90625 48.390625 20.390625 44.140625 
Q 15.875 39.890625 15.1875 32.171875 
z
" id="DejaVuSans-65"/>
     <path id="DejaVuSans-20"/>
     <path d="M 51.125 44 
L 36.921875 44 
L 32.8125 27.6875 
L 47.125 27.6875 
z
M 43.796875 71.78125 
L 38.71875 51.515625 
L 52.984375 51.515625 
L 58.109375 71.78125 
L 65.921875 71.78125 
L 60.890625 51.515625 
L 76.125 51.515625 
L 76.125 44 
L 58.984375 44 
L 54.984375 27.6875 
L 70.515625 27.6875 
L 70.515625 20.21875 
L 53.078125 20.21875 
L 48 0 
L 40.1875 0 
L 45.21875 20.21875 
L 30.90625 20.21875 
L 25.875 0 
L 18.015625 0 
L 23.09375 20.21875 
L 7.71875 20.21875 
L 7.71875 27.6875 
L 24.90625 27.6875 
L 29 44 
L 13.28125 44 
L 13.28125 51.515625 
L 30.90625 51.515625 
L 35.890625 71.78125 
z
" id="DejaVuSans-23"/>
     <path d="M 10.984375 1.515625 
L 10.984375 10.5 
Q 14.703125 8.734375 18.5 7.8125 
Q 22.3125 6.890625 25.984375 6.890625 
Q 35.75 6.890625 40.890625 13.453125 
Q 46.046875 20.015625 46.78125 33.40625 
Q 43.953125 29.203125 39.59375 26.953125 
Q 35.25 24.703125 29.984375 24.703125 
Q 19.046875 24.703125 12.671875 31.3125 
Q 6.296875 37.9375 6.296875 49.421875 
Q 6.296875 60.640625 12.9375 67.421875 
Q 19.578125 74.21875 30.609375 74.21875 
Q 43.265625 74.21875 49.921875 64.515625 
Q 56.59375 54.828125 56.59375 36.375 
Q 56.59375 19.140625 48.40625 8.859375 
Q 40.234375 -1.421875 26.421875 -1.421875 
Q 22.703125 -1.421875 18.890625 -0.6875 
Q 15.09375 0.046875 10.984375 1.515625 
z
M 30.609375 32.421875 
Q 37.25 32.421875 41.125 36.953125 
Q 45.015625 41.5 45.015625 49.421875 
Q 45.015625 57.28125 41.125 61.84375 
Q 37.25 66.40625 30.609375 66.40625 
Q 23.96875 66.40625 20.09375 61.84375 
Q 16.21875 57.28125 16.21875 49.421875 
Q 16.21875 41.5 20.09375 36.953125 
Q 23.96875 32.421875 30.609375 32.421875 
z
" id="DejaVuSans-39"/>
     <path d="M 40.578125 39.3125 
Q 47.65625 37.796875 51.625 33 
Q 55.609375 28.21875 55.609375 21.1875 
Q 55.609375 10.40625 48.1875 4.484375 
Q 40.765625 -1.421875 27.09375 -1.421875 
Q 22.515625 -1.421875 17.65625 -0.515625 
Q 12.796875 0.390625 7.625 2.203125 
L 7.625 11.71875 
Q 11.71875 9.328125 16.59375 8.109375 
Q 21.484375 6.890625 26.8125 6.890625 
Q 36.078125 6.890625 40.9375 10.546875 
Q 45.796875 14.203125 45.796875 21.1875 
Q 45.796875 27.640625 41.28125 31.265625 
Q 36.765625 34.90625 28.71875 34.90625 
L 20.21875 34.90625 
L 20.21875 43.015625 
L 29.109375 43.015625 
Q 36.375 43.015625 40.234375 45.921875 
Q 44.09375 48.828125 44.09375 54.296875 
Q 44.09375 59.90625 40.109375 62.90625 
Q 36.140625 65.921875 28.71875 65.921875 
Q 24.65625 65.921875 20.015625 65.03125 
Q 15.375 64.15625 9.8125 62.3125 
L 9.8125 71.09375 
Q 15.4375 72.65625 20.34375 73.4375 
Q 25.25 74.21875 29.59375 74.21875 
Q 40.828125 74.21875 47.359375 69.109375 
Q 53.90625 64.015625 53.90625 55.328125 
Q 53.90625 49.265625 50.4375 45.09375 
Q 46.96875 40.921875 40.578125 39.3125 
z
" id="DejaVuSans-33"/>
     <path d="M 37.796875 64.3125 
L 12.890625 25.390625 
L 37.796875 25.390625 
z
M 35.203125 72.90625 
L 47.609375 72.90625 
L 47.609375 25.390625 
L 58.015625 25.390625 
L 58.015625 17.1875 
L 47.609375 17.1875 
L 47.609375 0 
L 37.796875 0 
L 37.796875 17.1875 
L 4.890625 17.1875 
L 4.890625 26.703125 
z
" id="DejaVuSans-34"/>
     <path d="M 11.71875 12.40625 
L 22.015625 12.40625 
L 22.015625 4 
L 14.015625 -11.625 
L 7.71875 -11.625 
L 11.71875 4 
z
" id="DejaVuSans-2c"/>
     <path d="M 16.890625 72.90625 
L 62.984375 72.90625 
L 61.375 64.59375 
L 25.09375 64.59375 
L 20.90625 43.015625 
L 55.71875 43.015625 
L 54.109375 34.71875 
L 19.28125 34.71875 
L 14.203125 8.296875 
L 51.3125 8.296875 
L 49.703125 0 
L 2.6875 0 
z
" id="DejaVuSans-Oblique-45"/>
     <path d="M 16.890625 72.90625 
L 30.171875 72.90625 
L 50.296875 10.40625 
L 62.5 72.90625 
L 72.125 72.90625 
L 57.90625 0 
L 44.578125 0 
L 24.515625 62.890625 
L 12.3125 0 
L 2.6875 0 
z
" id="DejaVuSans-Oblique-4e"/>
     <path d="M 10.59375 45.40625 
L 73.1875 45.40625 
L 73.1875 37.203125 
L 10.59375 37.203125 
z
M 10.59375 25.484375 
L 73.1875 25.484375 
L 73.1875 17.1875 
L 10.59375 17.1875 
z
" id="DejaVuSans-3d"/>
     <path d="M 4.890625 31.390625 
L 31.203125 31.390625 
L 31.203125 23.390625 
L 4.890625 23.390625 
z
" id="DejaVuSans-2d"/>
     <path d="M 12.40625 8.296875 
L 28.515625 8.296875 
L 28.515625 63.921875 
L 10.984375 60.40625 
L 10.984375 69.390625 
L 28.421875 72.90625 
L 38.28125 72.90625 
L 38.28125 8.296875 
L 54.390625 8.296875 
L 54.390625 0 
L 12.40625 0 
z
" id="DejaVuSans-31"/>
     <path d="M 31.78125 34.625 
Q 24.75 34.625 20.71875 30.859375 
Q 16.703125 27.09375 16.703125 20.515625 
Q 16.703125 13.921875 20.71875 10.15625 
Q 24.75 6.390625 31.78125 6.390625 
Q 38.8125 6.390625 42.859375 10.171875 
Q 46.921875 13.96875 46.921875 20.515625 
Q 46.921875 27.09375 42.890625 30.859375 
Q 38.875 34.625 31.78125 34.625 
z
M 21.921875 38.8125 
Q 15.578125 40.375 12.03125 44.71875 
Q 8.5 49.078125 8.5 55.328125 
Q 8.5 64.0625 14.71875 69.140625 
Q 20.953125 74.21875 31.78125 74.21875 
Q 42.671875 74.21875 48.875 69.140625 
Q 55.078125 64.0625 55.078125 55.328125 
Q 55.078125 49.078125 51.53125 44.71875 
Q 48 40.375 41.703125 38.8125 
Q 48.828125 37.15625 52.796875 32.3125 
Q 56.78125 27.484375 56.78125 20.515625 
Q 56.78125 9.90625 50.3125 4.234375 
Q 43.84375 -1.421875 31.78125 -1.421875 
Q 19.734375 -1.421875 13.25 4.234375 
Q 6.78125 9.90625 6.78125 20.515625 
Q 6.78125 27.484375 10.78125 32.3125 
Q 14.796875 37.15625 21.921875 38.8125 
z
M 18.3125 54.390625 
Q 18.3125 48.734375 21.84375 45.5625 
Q 25.390625 42.390625 31.78125 42.390625 
Q 38.140625 42.390625 41.71875 45.5625 
Q 45.3125 48.734375 45.3125 54.390625 
Q 45.3125 60.0625 41.71875 63.234375 
Q 38.140625 66.40625 31.78125 66.40625 
Q 25.390625 66.40625 21.84375 63.234375 
Q 18.3125 60.0625 18.3125 54.390625 
z
" id="DejaVuSans-38"/>
     <path d="M 19.1875 8.296875 
L 53.609375 8.296875 
L 53.609375 0 
L 7.328125 0 
L 7.328125 8.296875 
Q 12.9375 14.109375 22.625 23.890625 
Q 32.328125 33.6875 34.8125 36.53125 
Q 39.546875 41.84375 41.421875 45.53125 
Q 43.3125 49.21875 43.3125 52.78125 
Q 43.3125 58.59375 39.234375 62.25 
Q 35.15625 65.921875 28.609375 65.921875 
Q 23.96875 65.921875 18.8125 64.3125 
Q 13.671875 62.703125 7.8125 59.421875 
L 7.8125 69.390625 
Q 13.765625 71.78125 18.9375 73 
Q 24.125 74.21875 28.421875 74.21875 
Q 39.75 74.21875 46.484375 68.546875 
Q 53.21875 62.890625 53.21875 53.421875 
Q 53.21875 48.921875 51.53125 44.890625 
Q 49.859375 40.875 45.40625 35.40625 
Q 44.1875 33.984375 37.640625 27.21875 
Q 31.109375 20.453125 19.1875 8.296875 
z
" id="DejaVuSans-32"/>
     <path d="M 10.6875 12.40625 
L 21 12.40625 
L 21 0 
L 10.6875 0 
z
" id="DejaVuSans-2e"/>
     <path d="M 28.609375 0 
L 0.78125 72.90625 
L 11.078125 72.90625 
L 34.1875 11.53125 
L 57.328125 72.90625 
L 67.578125 72.90625 
L 39.796875 0 
z
" id="DejaVuSans-56"/>
     <path d="M 34.1875 63.1875 
L 14.15625 8.203125 
L 54.25 8.203125 
z
M 0.78125 0 
L 28.609375 72.90625 
L 39.796875 72.90625 
L 67.578125 0 
z
" id="DejaVuSans-394"/>
     <path d="M 9.8125 72.90625 
L 55.90625 72.90625 
L 55.90625 64.59375 
L 19.671875 64.59375 
L 19.671875 43.015625 
L 54.390625 43.015625 
L 54.390625 34.71875 
L 19.671875 34.71875 
L 19.671875 8.296875 
L 56.78125 8.296875 
L 56.78125 0 
L 9.8125 0 
z
" id="DejaVuSans-45"/>
     <path d="M 31.78125 66.40625 
Q 24.171875 66.40625 20.328125 58.90625 
Q 16.5 51.421875 16.5 36.375 
Q 16.5 21.390625 20.328125 13.890625 
Q 24.171875 6.390625 31.78125 6.390625 
Q 39.453125 6.390625 43.28125 13.890625 
Q 47.125 21.390625 47.125 36.375 
Q 47.125 51.421875 43.28125 58.90625 
Q 39.453125 66.40625 31.78125 66.40625 
z
M 31.78125 74.21875 
Q 44.046875 74.21875 50.515625 64.515625 
Q 56.984375 54.828125 56.984375 36.375 
Q 56.984375 17.96875 50.515625 8.265625 
Q 44.046875 -1.421875 31.78125 -1.421875 
Q 19.53125 -1.421875 13.0625 8.265625 
Q 6.59375 17.96875 6.59375 36.375 
Q 6.59375 54.828125 13.0625 64.515625 
Q 19.53125 74.21875 31.78125 74.21875 
z
" id="DejaVuSans-30"/>
    </defs>
    <g transform="translate(65.388 35.472)scale(0.12 -0.12)">
     <use transform="translate(0 0.78125)" xlink:href="#DejaVuSans-53"/>
     <use transform="translate(63.476562 0.78125)" xlink:href="#DejaVuSans-74"/>
     <use transform="translate(102.685547 0.78125)" xlink:href="#DejaVuSans-72"/>
     <use transform="translate(143.798828 0.78125)" xlink:href="#DejaVuSans-75"/>
     <use transform="translate(207.177734 0.78125)" xlink:href="#DejaVuSans-63"/>
     <use transform="translate(262.158203 0.78125)" xlink:href="#DejaVuSans-74"/>
     <use transform="translate(301.367188 0.78125)" xlink:href="#DejaVuSans-75"/>
     <use transform="translate(364.746094 0.78125)" xlink:href="#DejaVuSans-72"/>
     <use transform="translate(405.859375 0.78125)" xlink:href="#DejaVuSans-65"/>
     <use transform="translate(467.382812 0.78125)" xlink:href="#DejaVuSans-20"/>
     <use transform="translate(499.169922 0.78125)" xlink:href="#DejaVuSans-23"/>
     <use transform="translate(582.958984 0.78125)" xlink:href="#DejaVuSans-39"/>
     <use transform="translate(646.582031 0.78125)" xlink:href="#DejaVuSans-39"/>
     <use transform="translate(710.205078 0.78125)" xlink:href="#DejaVuSans-33"/>
     <use transform="translate(773.828125 0.78125)" xlink:href="#DejaVuSans-34"/>
     <use transform="translate(837.451172 0.78125)" xlink:href="#DejaVuSans-2c"/>
     <use transform="translate(869.238281 0.78125)" xlink:href="#DejaVuSans-20"/>
     <use transform="translate(901.025391 0.78125)" xlink:href="#DejaVuSans-Oblique-45"/>
     <use transform="translate(964.208984 -15.625)scale(0.7)" xlink:href="#DejaVuSans-Oblique-4e"/>
     <use transform="translate(1019.306641 0.78125)" xlink:href="#DejaVuSans-3d"/>
     <use transform="translate(1103.095703 0.78125)" xlink:href="#DejaVuSans-2d"/>
     <use transform="translate(1139.179688 0.78125)" xlink:href="#DejaVuSans-31"/>
     <use transform="translate(1202.802734 0.78125)" xlink:href="#DejaVuSans-38"/>
     <use transform="translate(1266.425781 0.78125)" xlink:href="#DejaVuSans-32"/>
     <use transform="translate(1330.048828 0.78125)" xlink:href="#DejaVuSans-2e"/>
     <use transform="translate(1361.835938 0.78125)" xlink:href="#DejaVuSans-31"/>
     <use transform="translate(1425.458984 0.78125)" xlink:href="#DejaVuSans-39"/>
     <use transform="translate(1489.082031 0.78125)" xlink:href="#DejaVuSans-65"/>
     <use transform="translate(1550.605469 0.78125)" xlink:href="#DejaVuSans-56"/>
     <use transform="translate(1619.013672 0.78125)" xlink:href="#DejaVuSans-2c"/>
     <use transform="translate(1650.800781 0.78125)" xlink:href="#DejaVuSans-20"/>
     <use transform="translate(1682.587891 0.78125)" xlink:href="#DejaVuSans-394"/>
     <use transform="translate(1750.996094 0.78125)" xlink:href="#DejaVuSans-45"/>
     <use transform="translate(1814.179688 0.78125)" xlink:href="#DejaVuSans-3d"/>
     <use transform="translate(1897.96875 0.78125)" xlink:href="#DejaVuSans-30"/>
     <use transform="translate(1961.591797 0.78125)" xlink:href="#DejaVuSans-2e"/>
     <use transform="translate(1993.300781 0.78125)" xlink:href="#DejaVuSans-32"/>
     <use transform="translate(2056.908203 0.78125)" xlink:href="#DejaVuSans-39"/>
     <use transform="translate(2120.53125 0.78125)" xlink:href="#DejaVuSans-65"/>
     <use transform="translate(2182.054688 0.78125)" xlink:href="#DejaVuSans-56"/>
    </g>
   </g>
  </g>
  <g id="axes_2">
   <g id="patch_2">
    <path clip-path="url(#p2204593733)" d="M 361.152 307.584 
L 361.152 306.5445 
L 361.152 42.5115 
L 361.152 41.472 
L 374.4576 41.472 
L 374.4576 42.5115 
L 374.4576 306.5445 
L 374.4576 307.584 
z
" style="fill:#ffffff;stroke:#ffffff;stroke-linejoin:miter;stroke-width:0.01;"/>
   </g>
   <image height="265.68" id="imageba447f9365" transform="scale(1 -1)translate(0 -265.68)" width="12.96" x="361.44" xlink:href="data:image/png;base64,
iVBORw0KGgoAAAANSUhEUgAAABIAAAFxCAYAAAB+2fgXAAAABHNCSVQICAgIfAhkiAAAAeVJREFUeJztncmNw0AQA2ckheYQNv9QLIfQ8ygsCgQ7AEI8+jAs2Puz/94F1LP2ReCsZ18bAWIeZ5XaGRBE7VnbptG+KI101FYyNSiQG2oRITXKNaX9uclOdi2XWjftVE32CZCO2ou5Bj1TcCBr/1zB9ge7Fq0Rg2NM9pvbtG+ua1QgsRYhDy0ISEiNc40BEibbSI0Coj5CBGtkpFbXJiAjNZlrwhuSOv2M1DjXbEdEciBt1JSDDQKKpmZr2rr2j0DBGpXaWEJq3bQzEPIS26r9J+Wzv9Tm8o3aajRXqc3VUXsApKNWjeZq0x4ABVNbm7lrszVigDqP5vIl2+eaT2yfRkL7g+dRcNPqjohkjaCvRVBq0H2U3LQrOJCx9kdTg4B8oxZzzTdqdYHEngjUCAPyUctN9sVRq2sTECW2UKNLd2jVtRmo1A6AhMmWaSRcR8nUdIHUuVb75zJS218EyEitro1At69pIdeSk30Lkw0FktNImGyZRhy1O5galmxd03LUsHWk06jUZiCq+5Wb1kZNN4+wJxJuWt8RAW5am2sYNZ9rYCBzZ3buPKJ2P5Yj4Toy3keyIyJbIxs1rml1byCA84gpch5RQNB7Q0qNMGq2Hy4BXdNR41yz/cEEJfZzUz96r9PoB0okjeQ8y9TkAAAAAElFTkSuQmCC" y="-41.76"/>
   <g id="matplotlib.axis_1"/>
   <g id="matplotlib.axis_2">
    <g id="ytick_1">
     <g id="line2d_1">
      <defs>
       <path d="M 0 0 
L 3.5 0 
" id="m0889682e98" style="stroke:#000000;stroke-width:0.8;"/>
      </defs>
      <g>
       <use style="stroke:#000000;stroke-width:0.8;" x="374.4576" xlink:href="#m0889682e98" y="293.480294"/>
      </g>
     </g>
     <g id="text_2">
      <!-- −9.0 -->
      <defs>
       <path d="M 10.59375 35.5 
L 73.1875 35.5 
L 73.1875 27.203125 
L 10.59375 27.203125 
z
" id="DejaVuSans-2212"/>
      </defs>
      <g transform="translate(381.4576 297.279513)scale(0.1 -0.1)">
       <use xlink:href="#DejaVuSans-2212"/>
       <use x="83.789062" xlink:href="#DejaVuSans-39"/>
       <use x="147.412109" xlink:href="#DejaVuSans-2e"/>
       <use x="179.199219" xlink:href="#DejaVuSans-30"/>
      </g>
     </g>
    </g>
    <g id="ytick_2">
     <g id="line2d_2">
      <g>
       <use style="stroke:#000000;stroke-width:0.8;" x="374.4576" xlink:href="#m0889682e98" y="261.945503"/>
      </g>
     </g>
     <g id="text_3">
      <!-- −8.5 -->
      <defs>
       <path d="M 10.796875 72.90625 
L 49.515625 72.90625 
L 49.515625 64.59375 
L 19.828125 64.59375 
L 19.828125 46.734375 
Q 21.96875 47.46875 24.109375 47.828125 
Q 26.265625 48.1875 28.421875 48.1875 
Q 40.625 48.1875 47.75 41.5 
Q 54.890625 34.8125 54.890625 23.390625 
Q 54.890625 11.625 47.5625 5.09375 
Q 40.234375 -1.421875 26.90625 -1.421875 
Q 22.3125 -1.421875 17.546875 -0.640625 
Q 12.796875 0.140625 7.71875 1.703125 
L 7.71875 11.625 
Q 12.109375 9.234375 16.796875 8.0625 
Q 21.484375 6.890625 26.703125 6.890625 
Q 35.15625 6.890625 40.078125 11.328125 
Q 45.015625 15.765625 45.015625 23.390625 
Q 45.015625 31 40.078125 35.4375 
Q 35.15625 39.890625 26.703125 39.890625 
Q 22.75 39.890625 18.8125 39.015625 
Q 14.890625 38.140625 10.796875 36.28125 
z
" id="DejaVuSans-35"/>
      </defs>
      <g transform="translate(381.4576 265.744722)scale(0.1 -0.1)">
       <use xlink:href="#DejaVuSans-2212"/>
       <use x="83.789062" xlink:href="#DejaVuSans-38"/>
       <use x="147.412109" xlink:href="#DejaVuSans-2e"/>
       <use x="179.199219" xlink:href="#DejaVuSans-35"/>
      </g>
     </g>
    </g>
    <g id="ytick_3">
     <g id="line2d_3">
      <g>
       <use style="stroke:#000000;stroke-width:0.8;" x="374.4576" xlink:href="#m0889682e98" y="230.410712"/>
      </g>
     </g>
     <g id="text_4">
      <!-- −8.0 -->
      <g transform="translate(381.4576 234.209931)scale(0.1 -0.1)">
       <use xlink:href="#DejaVuSans-2212"/>
       <use x="83.789062" xlink:href="#DejaVuSans-38"/>
       <use x="147.412109" xlink:href="#DejaVuSans-2e"/>
       <use x="179.199219" xlink:href="#DejaVuSans-30"/>
      </g>
     </g>
    </g>
    <g id="ytick_4">
     <g id="line2d_4">
      <g>
       <use style="stroke:#000000;stroke-width:0.8;" x="374.4576" xlink:href="#m0889682e98" y="198.875921"/>
      </g>
     </g>
     <g id="text_5">
      <!-- −7.5 -->
      <defs>
       <path d="M 8.203125 72.90625 
L 55.078125 72.90625 
L 55.078125 68.703125 
L 28.609375 0 
L 18.3125 0 
L 43.21875 64.59375 
L 8.203125 64.59375 
z
" id="DejaVuSans-37"/>
      </defs>
      <g transform="translate(381.4576 202.67514)scale(0.1 -0.1)">
       <use xlink:href="#DejaVuSans-2212"/>
       <use x="83.789062" xlink:href="#DejaVuSans-37"/>
       <use x="147.412109" xlink:href="#DejaVuSans-2e"/>
       <use x="179.199219" xlink:href="#DejaVuSans-35"/>
      </g>
     </g>
    </g>
    <g id="ytick_5">
     <g id="line2d_5">
      <g>
       <use style="stroke:#000000;stroke-width:0.8;" x="374.4576" xlink:href="#m0889682e98" y="167.34113"/>
      </g>
     </g>
     <g id="text_6">
      <!-- −7.0 -->
      <g transform="translate(381.4576 171.140349)scale(0.1 -0.1)">
       <use xlink:href="#DejaVuSans-2212"/>
       <use x="83.789062" xlink:href="#DejaVuSans-37"/>
       <use x="147.412109" xlink:href="#DejaVuSans-2e"/>
       <use x="179.199219" xlink:href="#DejaVuSans-30"/>
      </g>
     </g>
    </g>
    <g id="ytick_6">
     <g id="line2d_6">
      <g>
       <use style="stroke:#000000;stroke-width:0.8;" x="374.4576" xlink:href="#m0889682e98" y="135.806339"/>
      </g>
     </g>
     <g id="text_7">
      <!-- −6.5 -->
      <defs>
       <path d="M 33.015625 40.375 
Q 26.375 40.375 22.484375 35.828125 
Q 18.609375 31.296875 18.609375 23.390625 
Q 18.609375 15.53125 22.484375 10.953125 
Q 26.375 6.390625 33.015625 6.390625 
Q 39.65625 6.390625 43.53125 10.953125 
Q 47.40625 15.53125 47.40625 23.390625 
Q 47.40625 31.296875 43.53125 35.828125 
Q 39.65625 40.375 33.015625 40.375 
z
M 52.59375 71.296875 
L 52.59375 62.3125 
Q 48.875 64.0625 45.09375 64.984375 
Q 41.3125 65.921875 37.59375 65.921875 
Q 27.828125 65.921875 22.671875 59.328125 
Q 17.53125 52.734375 16.796875 39.40625 
Q 19.671875 43.65625 24.015625 45.921875 
Q 28.375 48.1875 33.59375 48.1875 
Q 44.578125 48.1875 50.953125 41.515625 
Q 57.328125 34.859375 57.328125 23.390625 
Q 57.328125 12.15625 50.6875 5.359375 
Q 44.046875 -1.421875 33.015625 -1.421875 
Q 20.359375 -1.421875 13.671875 8.265625 
Q 6.984375 17.96875 6.984375 36.375 
Q 6.984375 53.65625 15.1875 63.9375 
Q 23.390625 74.21875 37.203125 74.21875 
Q 40.921875 74.21875 44.703125 73.484375 
Q 48.484375 72.75 52.59375 71.296875 
z
" id="DejaVuSans-36"/>
      </defs>
      <g transform="translate(381.4576 139.605558)scale(0.1 -0.1)">
       <use xlink:href="#DejaVuSans-2212"/>
       <use x="83.789062" xlink:href="#DejaVuSans-36"/>
       <use x="147.412109" xlink:href="#DejaVuSans-2e"/>
       <use x="179.199219" xlink:href="#DejaVuSans-35"/>
      </g>
     </g>
    </g>
    <g id="ytick_7">
     <g id="line2d_7">
      <g>
       <use style="stroke:#000000;stroke-width:0.8;" x="374.4576" xlink:href="#m0889682e98" y="104.271548"/>
      </g>
     </g>
     <g id="text_8">
      <!-- −6.0 -->
      <g transform="translate(381.4576 108.070767)scale(0.1 -0.1)">
       <use xlink:href="#DejaVuSans-2212"/>
       <use x="83.789062" xlink:href="#DejaVuSans-36"/>
       <use x="147.412109" xlink:href="#DejaVuSans-2e"/>
       <use x="179.199219" xlink:href="#DejaVuSans-30"/>
      </g>
     </g>
    </g>
    <g id="ytick_8">
     <g id="line2d_8">
      <g>
       <use style="stroke:#000000;stroke-width:0.8;" x="374.4576" xlink:href="#m0889682e98" y="72.736757"/>
      </g>
     </g>
     <g id="text_9">
      <!-- −5.5 -->
      <g transform="translate(381.4576 76.535976)scale(0.1 -0.1)">
       <use xlink:href="#DejaVuSans-2212"/>
       <use x="83.789062" xlink:href="#DejaVuSans-35"/>
       <use x="147.412109" xlink:href="#DejaVuSans-2e"/>
       <use x="179.199219" xlink:href="#DejaVuSans-35"/>
      </g>
     </g>
    </g>
    <g id="text_10">
     <!-- Energy [eV] -->
     <defs>
      <path d="M 54.890625 33.015625 
L 54.890625 0 
L 45.90625 0 
L 45.90625 32.71875 
Q 45.90625 40.484375 42.875 44.328125 
Q 39.84375 48.1875 33.796875 48.1875 
Q 26.515625 48.1875 22.3125 43.546875 
Q 18.109375 38.921875 18.109375 30.90625 
L 18.109375 0 
L 9.078125 0 
L 9.078125 54.6875 
L 18.109375 54.6875 
L 18.109375 46.1875 
Q 21.34375 51.125 25.703125 53.5625 
Q 30.078125 56 35.796875 56 
Q 45.21875 56 50.046875 50.171875 
Q 54.890625 44.34375 54.890625 33.015625 
z
" id="DejaVuSans-6e"/>
      <path d="M 45.40625 27.984375 
Q 45.40625 37.75 41.375 43.109375 
Q 37.359375 48.484375 30.078125 48.484375 
Q 22.859375 48.484375 18.828125 43.109375 
Q 14.796875 37.75 14.796875 27.984375 
Q 14.796875 18.265625 18.828125 12.890625 
Q 22.859375 7.515625 30.078125 7.515625 
Q 37.359375 7.515625 41.375 12.890625 
Q 45.40625 18.265625 45.40625 27.984375 
z
M 54.390625 6.78125 
Q 54.390625 -7.171875 48.1875 -13.984375 
Q 42 -20.796875 29.203125 -20.796875 
Q 24.46875 -20.796875 20.265625 -20.09375 
Q 16.0625 -19.390625 12.109375 -17.921875 
L 12.109375 -9.1875 
Q 16.0625 -11.328125 19.921875 -12.34375 
Q 23.78125 -13.375 27.78125 -13.375 
Q 36.625 -13.375 41.015625 -8.765625 
Q 45.40625 -4.15625 45.40625 5.171875 
L 45.40625 9.625 
Q 42.625 4.78125 38.28125 2.390625 
Q 33.9375 0 27.875 0 
Q 17.828125 0 11.671875 7.65625 
Q 5.515625 15.328125 5.515625 27.984375 
Q 5.515625 40.671875 11.671875 48.328125 
Q 17.828125 56 27.875 56 
Q 33.9375 56 38.28125 53.609375 
Q 42.625 51.21875 45.40625 46.390625 
L 45.40625 54.6875 
L 54.390625 54.6875 
z
" id="DejaVuSans-67"/>
      <path d="M 32.171875 -5.078125 
Q 28.375 -14.84375 24.75 -17.8125 
Q 21.140625 -20.796875 15.09375 -20.796875 
L 7.90625 -20.796875 
L 7.90625 -13.28125 
L 13.1875 -13.28125 
Q 16.890625 -13.28125 18.9375 -11.515625 
Q 21 -9.765625 23.484375 -3.21875 
L 25.09375 0.875 
L 2.984375 54.6875 
L 12.5 54.6875 
L 29.59375 11.921875 
L 46.6875 54.6875 
L 56.203125 54.6875 
z
" id="DejaVuSans-79"/>
      <path d="M 8.59375 75.984375 
L 29.296875 75.984375 
L 29.296875 69 
L 17.578125 69 
L 17.578125 -6.203125 
L 29.296875 -6.203125 
L 29.296875 -13.1875 
L 8.59375 -13.1875 
z
" id="DejaVuSans-5b"/>
      <path d="M 30.421875 75.984375 
L 30.421875 -13.1875 
L 9.71875 -13.1875 
L 9.71875 -6.203125 
L 21.390625 -6.203125 
L 21.390625 69 
L 9.71875 69 
L 9.71875 75.984375 
z
" id="DejaVuSans-5d"/>
     </defs>
     <g transform="translate(417.33885 204.108469)rotate(-90)scale(0.1 -0.1)">
      <use xlink:href="#DejaVuSans-45"/>
      <use x="63.183594" xlink:href="#DejaVuSans-6e"/>
      <use x="126.5625" xlink:href="#DejaVuSans-65"/>
      <use x="188.085938" xlink:href="#DejaVuSans-72"/>
      <use x="229.183594" xlink:href="#DejaVuSans-67"/>
      <use x="292.660156" xlink:href="#DejaVuSans-79"/>
      <use x="351.839844" xlink:href="#DejaVuSans-20"/>
      <use x="383.626953" xlink:href="#DejaVuSans-5b"/>
      <use x="422.640625" xlink:href="#DejaVuSans-65"/>
      <use x="484.164062" xlink:href="#DejaVuSans-56"/>
      <use x="552.572266" xlink:href="#DejaVuSans-5d"/>
     </g>
    </g>
   </g>
   <g id="patch_3">
    <path d="M 361.152 307.584 
L 361.152 306.5445 
L 361.152 42.5115 
L 361.152 41.472 
L 374.4576 41.472 
L 374.4576 42.5115 
L 374.4576 306.5445 
L 374.4576 307.584 
z
" style="fill:none;stroke:#000000;stroke-linejoin:miter;stroke-width:0.8;"/>
   </g>
  </g>
 </g>
 <defs>
  <clipPath id="pb2cbde6b4b">
   <rect height="266.112" width="285.696" x="57.6" y="41.472"/>
  </clipPath>
  <clipPath id="p2204593733">
   <rect height="266.112" width="13.3056" x="361.152" y="41.472"/>
  </clipPath>
 </defs>
</svg>
