<?xml version="1.0" encoding="utf-8" standalone="no"?>
<!DOCTYPE svg PUBLIC "-//W3C//DTD SVG 1.1//EN"
  "http://www.w3.org/Graphics/SVG/1.1/DTD/svg11.dtd">
<!-- Created with matplotlib (http://matplotlib.org/) -->
<svg height="345.6pt" version="1.1" viewBox="0 0 460.8 345.6" width="460.8pt" xmlns="http://www.w3.org/2000/svg" xmlns:xlink="http://www.w3.org/1999/xlink">
 <defs>
  <style type="text/css">
*{stroke-linecap:butt;stroke-linejoin:round;}
  </style>
 </defs>
 <g id="figure_1">
  <g id="patch_1">
   <path d="M 0 345.6 
L 460.8 345.6 
L 460.8 0 
L 0 0 
z
" style="fill:#ffffff;"/>
  </g>
  <g id="axes_1">
   <g id="CircleCollection_1">
    <path clip-path="url(#p181ad63256)" d="M 234.748923 254.116051 
C 236.482895 254.116051 238.146081 253.427137 239.372184 252.201034 
C 240.598287 250.974931 241.287201 249.311745 241.287201 247.577774 
C 241.287201 245.843802 240.598287 244.180616 239.372184 242.954513 
C 238.146081 241.72841 236.482895 241.039496 234.748923 241.039496 
C 233.014952 241.039496 231.351766 241.72841 230.125663 242.954513 
C 228.89956 244.180616 228.210646 245.843802 228.210646 247.577774 
C 228.210646 249.311745 228.89956 250.974931 230.125663 252.201034 
C 231.351766 253.427137 233.014952 254.116051 234.748923 254.116051 
z
" style="fill:#440154;"/>
    <path clip-path="url(#p181ad63256)" d="M 275.195727 123.110604 
C 277.032321 123.110604 278.793941 122.380917 280.09261 121.082248 
C 281.391279 119.783579 282.120965 118.02196 282.120965 116.185365 
C 282.120965 114.34877 281.391279 112.58715 280.09261 111.288482 
C 278.793941 109.989813 277.032321 109.260126 275.195727 109.260126 
C 273.359132 109.260126 271.597512 109.989813 270.298843 111.288482 
C 269.000175 112.58715 268.270488 114.34877 268.270488 116.185365 
C 268.270488 118.02196 269.000175 119.783579 270.298843 121.082248 
C 271.597512 122.380917 273.359132 123.110604 275.195727 123.110604 
z
" style="fill:#48c16e;"/>
    <path clip-path="url(#p181ad63256)" d="M 327.301966 236.422466 
C 329.037289 236.422466 330.701771 235.733014 331.92883 234.505956 
C 333.155889 233.278897 333.84534 231.614415 333.84534 229.879092 
C 333.84534 228.143769 333.155889 226.479286 331.92883 225.252228 
C 330.701771 224.025169 329.037289 223.335718 327.301966 223.335718 
C 325.566643 223.335718 323.902161 224.025169 322.675102 225.252228 
C 321.448043 226.479286 320.758592 228.143769 320.758592 229.879092 
C 320.758592 231.614415 321.448043 233.278897 322.675102 234.505956 
C 323.902161 235.733014 325.566643 236.422466 327.301966 236.422466 
z
" style="fill:#2e6e8e;"/>
    <path clip-path="url(#p181ad63256)" d="M 89.285871 149.007755 
C 91.048801 149.007755 92.739764 148.307335 93.986344 147.060755 
C 95.232924 145.814176 95.933343 144.123213 95.933343 142.360283 
C 95.933343 140.597353 95.232924 138.90639 93.986344 137.65981 
C 92.739764 136.41323 91.048801 135.712811 89.285871 135.712811 
C 87.522941 135.712811 85.831978 136.41323 84.585398 137.65981 
C 83.338819 138.90639 82.638399 140.597353 82.638399 142.360283 
C 82.638399 144.123213 83.338819 145.814176 84.585398 147.060755 
C 85.831978 148.307335 87.522941 149.007755 89.285871 149.007755 
z
" style="fill:#31678e;"/>
    <path clip-path="url(#p181ad63256)" d="M 234.79926 218.162482 
C 236.565099 218.162482 238.258851 217.460907 239.507487 216.212271 
C 240.756123 214.963635 241.457698 213.269883 241.457698 211.504045 
C 241.457698 209.738206 240.756123 208.044455 239.507487 206.795818 
C 238.258851 205.547182 236.565099 204.845607 234.79926 204.845607 
C 233.033422 204.845607 231.33967 205.547182 230.091034 206.795818 
C 228.842398 208.044455 228.140823 209.738206 228.140823 211.504045 
C 228.140823 213.269883 228.842398 214.963635 230.091034 216.212271 
C 231.33967 217.460907 233.033422 218.162482 234.79926 218.162482 
z
" style="fill:#20928c;"/>
    <path clip-path="url(#p181ad63256)" d="M 267.546759 269.807911 
C 269.261843 269.807911 270.906913 269.126501 272.11966 267.913754 
C 273.332408 266.701006 274.013818 265.055937 274.013818 263.340853 
C 274.013818 261.625768 273.332408 259.980699 272.11966 258.767951 
C 270.906913 257.555204 269.261843 256.873794 267.546759 256.873794 
C 265.831675 256.873794 264.186605 257.555204 262.973858 258.767951 
C 261.76111 259.980699 261.0797 261.625768 261.0797 263.340853 
C 261.0797 265.055937 261.76111 266.701006 262.973858 267.913754 
C 264.186605 269.126501 265.831675 269.807911 267.546759 269.807911 
z
" style="fill:#1fa287;"/>
    <path clip-path="url(#p181ad63256)" d="M 201.452586 270.869562 
C 203.172602 270.869562 204.822402 270.186192 206.038637 268.969957 
C 207.254872 267.753722 207.938242 266.103922 207.938242 264.383906 
C 207.938242 262.66389 207.254872 261.01409 206.038637 259.797855 
C 204.822402 258.58162 203.172602 257.89825 201.452586 257.89825 
C 199.73257 257.89825 198.082769 258.58162 196.866534 259.797855 
C 195.650299 261.01409 194.96693 262.66389 194.96693 264.383906 
C 194.96693 266.103922 195.650299 267.753722 196.866534 268.969957 
C 198.082769 270.186192 199.73257 270.869562 201.452586 270.869562 
z
" style="fill:#31678e;"/>
    <path clip-path="url(#p181ad63256)" d="M 138.608986 60.989633 
C 140.442609 60.989633 142.201379 60.261127 143.497946 58.96456 
C 144.794513 57.667992 145.523019 55.909223 145.523019 54.0756 
C 145.523019 52.241977 144.794513 50.483207 143.497946 49.18664 
C 142.201379 47.890072 140.442609 47.161566 138.608986 47.161566 
C 136.775363 47.161566 135.016593 47.890072 133.720026 49.18664 
C 132.423459 50.483207 131.694952 52.241977 131.694952 54.0756 
C 131.694952 55.909223 132.423459 57.667992 133.720026 58.96456 
C 135.016593 60.261127 136.775363 60.989633 138.608986 60.989633 
z
" style="fill:#fde725;"/>
    <path clip-path="url(#p181ad63256)" d="M 147.09886 295.860462 
C 148.781052 295.860462 150.394572 295.19212 151.584061 294.002631 
C 152.77355 292.813141 153.441892 291.199621 153.441892 289.517429 
C 153.441892 287.835238 152.77355 286.221718 151.584061 285.032228 
C 150.394572 283.842739 148.781052 283.174397 147.09886 283.174397 
C 145.416668 283.174397 143.803148 283.842739 142.613659 285.032228 
C 141.424169 286.221718 140.755828 287.835238 140.755828 289.517429 
C 140.755828 291.199621 141.424169 292.813141 142.613659 294.002631 
C 143.803148 295.19212 145.416668 295.860462 147.09886 295.860462 
z
" style="fill:#2a768e;"/>
    <path clip-path="url(#p181ad63256)" d="M 166.412299 263.960205 
C 168.139528 263.960205 169.796246 263.27397 171.017581 262.052635 
C 172.238916 260.8313 172.925151 259.174582 172.925151 257.447354 
C 172.925151 255.720125 172.238916 254.063407 171.017581 252.842073 
C 169.796246 251.620738 168.139528 250.934503 166.412299 250.934503 
C 164.685071 250.934503 163.028353 251.620738 161.807018 252.842073 
C 160.585683 254.063407 159.899448 255.720125 159.899448 257.447354 
C 159.899448 259.174582 160.585683 260.8313 161.807018 262.052635 
C 163.028353 263.27397 164.685071 263.960205 166.412299 263.960205 
z
" style="fill:#37b878;"/>
    <path clip-path="url(#p181ad63256)" d="M 300.391499 148.852989 
C 302.201965 148.852989 303.938524 148.133683 305.218717 146.85349 
C 306.49891 145.573297 307.218216 143.836738 307.218216 142.026272 
C 307.218216 140.215805 306.49891 138.479247 305.218717 137.199054 
C 303.938524 135.91886 302.201965 135.199554 300.391499 135.199554 
C 298.581032 135.199554 296.844474 135.91886 295.564281 137.199054 
C 294.284087 138.479247 293.564781 140.215805 293.564781 142.026272 
C 293.564781 143.836738 294.284087 145.573297 295.564281 146.85349 
C 296.844474 148.133683 298.581032 148.852989 300.391499 148.852989 
z
" style="fill:#297a8e;"/>
    <path clip-path="url(#p181ad63256)" d="M 298.178098 255.19155 
C 299.90176 255.19155 301.555057 254.506732 302.77387 253.287918 
C 303.992684 252.069105 304.677502 250.415808 304.677502 248.692146 
C 304.677502 246.968484 303.992684 245.315186 302.77387 244.096373 
C 301.555057 242.87756 299.90176 242.192742 298.178098 242.192742 
C 296.454436 242.192742 294.801139 242.87756 293.582325 244.096373 
C 292.363512 245.315186 291.678694 246.968484 291.678694 248.692146 
C 291.678694 250.415808 292.363512 252.069105 293.582325 253.287918 
C 294.801139 254.506732 296.454436 255.19155 298.178098 255.19155 
z
" style="fill:#297a8e;"/>
    <path clip-path="url(#p181ad63256)" d="M 328.396238 169.439967 
C 330.185632 169.439967 331.901979 168.729033 333.167272 167.46374 
C 334.432565 166.198447 335.143499 164.4821 335.143499 162.692705 
C 335.143499 160.903311 334.432565 159.186964 333.167272 157.921671 
C 331.901979 156.656378 330.185632 155.945444 328.396238 155.945444 
C 326.606843 155.945444 324.890497 156.656378 323.625204 157.921671 
C 322.359911 159.186964 321.648977 160.903311 321.648977 162.692705 
C 321.648977 164.4821 322.359911 166.198447 323.625204 167.46374 
C 324.890497 168.729033 326.606843 169.439967 328.396238 169.439967 
z
" style="fill:#2b758e;"/>
    <path clip-path="url(#p181ad63256)" d="M 121.463562 90.21684 
C 123.274176 90.21684 125.010875 89.497476 126.291173 88.217179 
C 127.57147 86.936881 128.290834 85.200182 128.290834 83.389568 
C 128.290834 81.578954 127.57147 79.842255 126.291173 78.561957 
C 125.010875 77.28166 123.274176 76.562295 121.463562 76.562295 
C 119.652948 76.562295 117.916248 77.28166 116.635951 78.561957 
C 115.355654 79.842255 114.636289 81.578954 114.636289 83.389568 
C 114.636289 85.200182 115.355654 86.936881 116.635951 88.217179 
C 117.916248 89.497476 119.652948 90.21684 121.463562 90.21684 
z
" style="fill:#2b748e;"/>
    <path clip-path="url(#p181ad63256)" d="M 113.425942 300.79652 
C 115.081456 300.79652 116.669387 300.138777 117.840012 298.968153 
C 119.010637 297.797528 119.668379 296.209597 119.668379 294.554083 
C 119.668379 292.89857 119.010637 291.310639 117.840012 290.140014 
C 116.669387 288.969389 115.081456 288.311646 113.425942 288.311646 
C 111.770429 288.311646 110.182498 288.969389 109.011873 290.140014 
C 107.841248 291.310639 107.183506 292.89857 107.183506 294.554083 
C 107.183506 296.209597 107.841248 297.797528 109.011873 298.968153 
C 110.182498 300.138777 111.770429 300.79652 113.425942 300.79652 
z
" style="fill:#297a8e;"/>
    <path clip-path="url(#p181ad63256)" d="M 70.925851 212.4768 
C 72.634587 212.4768 74.273568 211.797911 75.481828 210.589652 
C 76.690087 209.381393 77.368975 207.742412 77.368975 206.033675 
C 77.368975 204.324939 76.690087 202.685958 75.481828 201.477699 
C 74.273568 200.269439 72.634587 199.590551 70.925851 199.590551 
C 69.217114 199.590551 67.578133 200.269439 66.369874 201.477699 
C 65.161615 202.685958 64.482727 204.324939 64.482727 206.033675 
C 64.482727 207.742412 65.161615 209.381393 66.369874 210.589652 
C 67.578133 211.797911 69.217114 212.4768 70.925851 212.4768 
z
" style="fill:#2e6e8e;"/>
    <path clip-path="url(#p181ad63256)" d="M 261.534561 156.69134 
C 263.345399 156.69134 265.082314 155.971886 266.36277 154.69143 
C 267.643226 153.410974 268.362679 151.674059 268.362679 149.863221 
C 268.362679 148.052382 267.643226 146.315468 266.36277 145.035012 
C 265.082314 143.754556 263.345399 143.035102 261.534561 143.035102 
C 259.723722 143.035102 257.986807 143.754556 256.706351 145.035012 
C 255.425895 146.315468 254.706442 148.052382 254.706442 149.863221 
C 254.706442 151.674059 255.425895 153.410974 256.706351 154.69143 
C 257.986807 155.971886 259.723722 156.69134 261.534561 156.69134 
z
" style="fill:#2b758e;"/>
    <path clip-path="url(#p181ad63256)" d="M 329.959442 202.805683 
C 331.722044 202.805683 333.412691 202.105394 334.659039 200.859046 
C 335.905387 199.612699 336.605676 197.922051 336.605676 196.159449 
C 336.605676 194.396847 335.905387 192.7062 334.659039 191.459852 
C 333.412691 190.213504 331.722044 189.513215 329.959442 189.513215 
C 328.19684 189.513215 326.506192 190.213504 325.259844 191.459852 
C 324.013497 192.7062 323.313207 194.396847 323.313207 196.159449 
C 323.313207 197.922051 324.013497 199.612699 325.259844 200.859046 
C 326.506192 202.105394 328.19684 202.805683 329.959442 202.805683 
z
" style="fill:#26818e;"/>
    <path clip-path="url(#p181ad63256)" d="M 182.881563 301.360162 
C 184.562269 301.360162 186.174364 300.692411 187.362803 299.503972 
C 188.551242 298.315533 189.218993 296.703438 189.218993 295.022732 
C 189.218993 293.342026 188.551242 291.729931 187.362803 290.541492 
C 186.174364 289.353053 184.562269 288.685302 182.881563 288.685302 
C 181.200857 288.685302 179.588762 289.353053 178.400323 290.541492 
C 177.211884 291.729931 176.544133 293.342026 176.544133 295.022732 
C 176.544133 296.703438 177.211884 298.315533 178.400323 299.503972 
C 179.588762 300.692411 181.200857 301.360162 182.881563 301.360162 
z
" style="fill:#24aa83;"/>
    <path clip-path="url(#p181ad63256)" d="M 243.166151 186.842367 
C 244.956083 186.842367 246.672944 186.13122 247.938617 184.865547 
C 249.20429 183.599874 249.915437 181.883013 249.915437 180.093081 
C 249.915437 178.30315 249.20429 176.586288 247.938617 175.320616 
C 246.672944 174.054943 244.956083 173.343796 243.166151 173.343796 
C 241.37622 173.343796 239.659358 174.054943 238.393686 175.320616 
C 237.128013 176.586288 236.416866 178.30315 236.416866 180.093081 
C 236.416866 181.883013 237.128013 183.599874 238.393686 184.865547 
C 239.659358 186.13122 241.37622 186.842367 243.166151 186.842367 
z
" style="fill:#31688e;"/>
    <path clip-path="url(#p181ad63256)" d="M 77.136626 179.930564 
C 78.872188 179.930564 80.5369 179.241018 81.764128 178.01379 
C 82.991356 176.786562 83.680902 175.12185 83.680902 173.386287 
C 83.680902 171.650725 82.991356 169.986013 81.764128 168.758785 
C 80.5369 167.531557 78.872188 166.842011 77.136626 166.842011 
C 75.401063 166.842011 73.736351 167.531557 72.509124 168.758785 
C 71.281896 169.986013 70.592349 171.650725 70.592349 173.386287 
C 70.592349 175.12185 71.281896 176.786562 72.509124 178.01379 
C 73.736351 179.241018 75.401063 179.930564 77.136626 179.930564 
z
" style="fill:#306a8e;"/>
    <path clip-path="url(#p181ad63256)" d="M 104.870377 119.782315 
C 106.657319 119.782315 108.371313 119.072355 109.634873 117.808796 
C 110.898432 116.545237 111.608391 114.831242 111.608391 113.0443 
C 111.608391 111.257358 110.898432 109.543363 109.634873 108.279804 
C 108.371313 107.016245 106.657319 106.306286 104.870377 106.306286 
C 103.083434 106.306286 101.36944 107.016245 100.105881 108.279804 
C 98.842322 109.543363 98.132362 111.257358 98.132362 113.0443 
C 98.132362 114.831242 98.842322 116.545237 100.105881 117.808796 
C 101.36944 119.072355 103.083434 119.782315 104.870377 119.782315 
z
" style="fill:#306a8e;"/>
    <path clip-path="url(#p181ad63256)" d="M 72.137455 246.035122 
C 73.819049 246.035122 75.431995 245.367018 76.621061 244.177951 
C 77.810128 242.988885 78.478232 241.375939 78.478232 239.694345 
C 78.478232 238.012752 77.810128 236.399805 76.621061 235.210739 
C 75.431995 234.021673 73.819049 233.353569 72.137455 233.353569 
C 70.455862 233.353569 68.842915 234.021673 67.653849 235.210739 
C 66.464783 236.399805 65.796679 238.012752 65.796679 239.694345 
C 65.796679 241.375939 66.464783 242.988885 67.653849 244.177951 
C 68.842915 245.367018 70.455862 246.035122 72.137455 246.035122 
z
" style="fill:#2e6f8e;"/>
    <path clip-path="url(#p181ad63256)" d="M 89.451517 275.877741 
C 91.120061 275.877741 92.720491 275.214822 93.900331 274.034982 
C 95.08017 272.855143 95.74309 271.254713 95.74309 269.586169 
C 95.74309 267.917624 95.08017 266.317194 93.900331 265.137355 
C 92.720491 263.957516 91.120061 263.294596 89.451517 263.294596 
C 87.782972 263.294596 86.182542 263.957516 85.002703 265.137355 
C 83.822864 266.317194 83.159944 267.917624 83.159944 269.586169 
C 83.159944 271.254713 83.822864 272.855143 85.002703 274.034982 
C 86.182542 275.214822 87.782972 275.877741 89.451517 275.877741 
z
" style="fill:#2a788e;"/>
   </g>
   <g id="text_1">
    <!-- Structure #9542, $E_N$=-177.44eV, ΔE=0.25eV -->
    <defs>
     <path d="M 53.515625 70.515625 
L 53.515625 60.890625 
Q 47.90625 63.578125 42.921875 64.890625 
Q 37.9375 66.21875 33.296875 66.21875 
Q 25.25 66.21875 20.875 63.09375 
Q 16.5 59.96875 16.5 54.203125 
Q 16.5 49.359375 19.40625 46.890625 
Q 22.3125 44.4375 30.421875 42.921875 
L 36.375 41.703125 
Q 47.40625 39.59375 52.65625 34.296875 
Q 57.90625 29 57.90625 20.125 
Q 57.90625 9.515625 50.796875 4.046875 
Q 43.703125 -1.421875 29.984375 -1.421875 
Q 24.8125 -1.421875 18.96875 -0.25 
Q 13.140625 0.921875 6.890625 3.21875 
L 6.890625 13.375 
Q 12.890625 10.015625 18.65625 8.296875 
Q 24.421875 6.59375 29.984375 6.59375 
Q 38.421875 6.59375 43.015625 9.90625 
Q 47.609375 13.234375 47.609375 19.390625 
Q 47.609375 24.75 44.3125 27.78125 
Q 41.015625 30.8125 33.5 32.328125 
L 27.484375 33.5 
Q 16.453125 35.6875 11.515625 40.375 
Q 6.59375 45.0625 6.59375 53.421875 
Q 6.59375 63.09375 13.40625 68.65625 
Q 20.21875 74.21875 32.171875 74.21875 
Q 37.3125 74.21875 42.625 73.28125 
Q 47.953125 72.359375 53.515625 70.515625 
z
" id="DejaVuSans-53"/>
     <path d="M 18.3125 70.21875 
L 18.3125 54.6875 
L 36.8125 54.6875 
L 36.8125 47.703125 
L 18.3125 47.703125 
L 18.3125 18.015625 
Q 18.3125 11.328125 20.140625 9.421875 
Q 21.96875 7.515625 27.59375 7.515625 
L 36.8125 7.515625 
L 36.8125 0 
L 27.59375 0 
Q 17.1875 0 13.234375 3.875 
Q 9.28125 7.765625 9.28125 18.015625 
L 9.28125 47.703125 
L 2.6875 47.703125 
L 2.6875 54.6875 
L 9.28125 54.6875 
L 9.28125 70.21875 
z
" id="DejaVuSans-74"/>
     <path d="M 41.109375 46.296875 
Q 39.59375 47.171875 37.8125 47.578125 
Q 36.03125 48 33.890625 48 
Q 26.265625 48 22.1875 43.046875 
Q 18.109375 38.09375 18.109375 28.8125 
L 18.109375 0 
L 9.078125 0 
L 9.078125 54.6875 
L 18.109375 54.6875 
L 18.109375 46.1875 
Q 20.953125 51.171875 25.484375 53.578125 
Q 30.03125 56 36.53125 56 
Q 37.453125 56 38.578125 55.875 
Q 39.703125 55.765625 41.0625 55.515625 
z
" id="DejaVuSans-72"/>
     <path d="M 8.5 21.578125 
L 8.5 54.6875 
L 17.484375 54.6875 
L 17.484375 21.921875 
Q 17.484375 14.15625 20.5 10.265625 
Q 23.53125 6.390625 29.59375 6.390625 
Q 36.859375 6.390625 41.078125 11.03125 
Q 45.3125 15.671875 45.3125 23.6875 
L 45.3125 54.6875 
L 54.296875 54.6875 
L 54.296875 0 
L 45.3125 0 
L 45.3125 8.40625 
Q 42.046875 3.421875 37.71875 1 
Q 33.40625 -1.421875 27.6875 -1.421875 
Q 18.265625 -1.421875 13.375 4.4375 
Q 8.5 10.296875 8.5 21.578125 
z
M 31.109375 56 
z
" id="DejaVuSans-75"/>
     <path d="M 48.78125 52.59375 
L 48.78125 44.1875 
Q 44.96875 46.296875 41.140625 47.34375 
Q 37.3125 48.390625 33.40625 48.390625 
Q 24.65625 48.390625 19.8125 42.84375 
Q 14.984375 37.3125 14.984375 27.296875 
Q 14.984375 17.28125 19.8125 11.734375 
Q 24.65625 6.203125 33.40625 6.203125 
Q 37.3125 6.203125 41.140625 7.25 
Q 44.96875 8.296875 48.78125 10.40625 
L 48.78125 2.09375 
Q 45.015625 0.34375 40.984375 -0.53125 
Q 36.96875 -1.421875 32.421875 -1.421875 
Q 20.0625 -1.421875 12.78125 6.34375 
Q 5.515625 14.109375 5.515625 27.296875 
Q 5.515625 40.671875 12.859375 48.328125 
Q 20.21875 56 33.015625 56 
Q 37.15625 56 41.109375 55.140625 
Q 45.0625 54.296875 48.78125 52.59375 
z
" id="DejaVuSans-63"/>
     <path d="M 56.203125 29.59375 
L 56.203125 25.203125 
L 14.890625 25.203125 
Q 15.484375 15.921875 20.484375 11.0625 
Q 25.484375 6.203125 34.421875 6.203125 
Q 39.59375 6.203125 44.453125 7.46875 
Q 49.3125 8.734375 54.109375 11.28125 
L 54.109375 2.78125 
Q 49.265625 0.734375 44.1875 -0.34375 
Q 39.109375 -1.421875 33.890625 -1.421875 
Q 20.796875 -1.421875 13.15625 6.1875 
Q 5.515625 13.8125 5.515625 26.8125 
Q 5.515625 40.234375 12.765625 48.109375 
Q 20.015625 56 32.328125 56 
Q 43.359375 56 49.78125 48.890625 
Q 56.203125 41.796875 56.203125 29.59375 
z
M 47.21875 32.234375 
Q 47.125 39.59375 43.09375 43.984375 
Q 39.0625 48.390625 32.421875 48.390625 
Q 24.90625 48.390625 20.390625 44.140625 
Q 15.875 39.890625 15.1875 32.171875 
z
" id="DejaVuSans-65"/>
     <path id="DejaVuSans-20"/>
     <path d="M 51.125 44 
L 36.921875 44 
L 32.8125 27.6875 
L 47.125 27.6875 
z
M 43.796875 71.78125 
L 38.71875 51.515625 
L 52.984375 51.515625 
L 58.109375 71.78125 
L 65.921875 71.78125 
L 60.890625 51.515625 
L 76.125 51.515625 
L 76.125 44 
L 58.984375 44 
L 54.984375 27.6875 
L 70.515625 27.6875 
L 70.515625 20.21875 
L 53.078125 20.21875 
L 48 0 
L 40.1875 0 
L 45.21875 20.21875 
L 30.90625 20.21875 
L 25.875 0 
L 18.015625 0 
L 23.09375 20.21875 
L 7.71875 20.21875 
L 7.71875 27.6875 
L 24.90625 27.6875 
L 29 44 
L 13.28125 44 
L 13.28125 51.515625 
L 30.90625 51.515625 
L 35.890625 71.78125 
z
" id="DejaVuSans-23"/>
     <path d="M 10.984375 1.515625 
L 10.984375 10.5 
Q 14.703125 8.734375 18.5 7.8125 
Q 22.3125 6.890625 25.984375 6.890625 
Q 35.75 6.890625 40.890625 13.453125 
Q 46.046875 20.015625 46.78125 33.40625 
Q 43.953125 29.203125 39.59375 26.953125 
Q 35.25 24.703125 29.984375 24.703125 
Q 19.046875 24.703125 12.671875 31.3125 
Q 6.296875 37.9375 6.296875 49.421875 
Q 6.296875 60.640625 12.9375 67.421875 
Q 19.578125 74.21875 30.609375 74.21875 
Q 43.265625 74.21875 49.921875 64.515625 
Q 56.59375 54.828125 56.59375 36.375 
Q 56.59375 19.140625 48.40625 8.859375 
Q 40.234375 -1.421875 26.421875 -1.421875 
Q 22.703125 -1.421875 18.890625 -0.6875 
Q 15.09375 0.046875 10.984375 1.515625 
z
M 30.609375 32.421875 
Q 37.25 32.421875 41.125 36.953125 
Q 45.015625 41.5 45.015625 49.421875 
Q 45.015625 57.28125 41.125 61.84375 
Q 37.25 66.40625 30.609375 66.40625 
Q 23.96875 66.40625 20.09375 61.84375 
Q 16.21875 57.28125 16.21875 49.421875 
Q 16.21875 41.5 20.09375 36.953125 
Q 23.96875 32.421875 30.609375 32.421875 
z
" id="DejaVuSans-39"/>
     <path d="M 10.796875 72.90625 
L 49.515625 72.90625 
L 49.515625 64.59375 
L 19.828125 64.59375 
L 19.828125 46.734375 
Q 21.96875 47.46875 24.109375 47.828125 
Q 26.265625 48.1875 28.421875 48.1875 
Q 40.625 48.1875 47.75 41.5 
Q 54.890625 34.8125 54.890625 23.390625 
Q 54.890625 11.625 47.5625 5.09375 
Q 40.234375 -1.421875 26.90625 -1.421875 
Q 22.3125 -1.421875 17.546875 -0.640625 
Q 12.796875 0.140625 7.71875 1.703125 
L 7.71875 11.625 
Q 12.109375 9.234375 16.796875 8.0625 
Q 21.484375 6.890625 26.703125 6.890625 
Q 35.15625 6.890625 40.078125 11.328125 
Q 45.015625 15.765625 45.015625 23.390625 
Q 45.015625 31 40.078125 35.4375 
Q 35.15625 39.890625 26.703125 39.890625 
Q 22.75 39.890625 18.8125 39.015625 
Q 14.890625 38.140625 10.796875 36.28125 
z
" id="DejaVuSans-35"/>
     <path d="M 37.796875 64.3125 
L 12.890625 25.390625 
L 37.796875 25.390625 
z
M 35.203125 72.90625 
L 47.609375 72.90625 
L 47.609375 25.390625 
L 58.015625 25.390625 
L 58.015625 17.1875 
L 47.609375 17.1875 
L 47.609375 0 
L 37.796875 0 
L 37.796875 17.1875 
L 4.890625 17.1875 
L 4.890625 26.703125 
z
" id="DejaVuSans-34"/>
     <path d="M 19.1875 8.296875 
L 53.609375 8.296875 
L 53.609375 0 
L 7.328125 0 
L 7.328125 8.296875 
Q 12.9375 14.109375 22.625 23.890625 
Q 32.328125 33.6875 34.8125 36.53125 
Q 39.546875 41.84375 41.421875 45.53125 
Q 43.3125 49.21875 43.3125 52.78125 
Q 43.3125 58.59375 39.234375 62.25 
Q 35.15625 65.921875 28.609375 65.921875 
Q 23.96875 65.921875 18.8125 64.3125 
Q 13.671875 62.703125 7.8125 59.421875 
L 7.8125 69.390625 
Q 13.765625 71.78125 18.9375 73 
Q 24.125 74.21875 28.421875 74.21875 
Q 39.75 74.21875 46.484375 68.546875 
Q 53.21875 62.890625 53.21875 53.421875 
Q 53.21875 48.921875 51.53125 44.890625 
Q 49.859375 40.875 45.40625 35.40625 
Q 44.1875 33.984375 37.640625 27.21875 
Q 31.109375 20.453125 19.1875 8.296875 
z
" id="DejaVuSans-32"/>
     <path d="M 11.71875 12.40625 
L 22.015625 12.40625 
L 22.015625 4 
L 14.015625 -11.625 
L 7.71875 -11.625 
L 11.71875 4 
z
" id="DejaVuSans-2c"/>
     <path d="M 16.890625 72.90625 
L 62.984375 72.90625 
L 61.375 64.59375 
L 25.09375 64.59375 
L 20.90625 43.015625 
L 55.71875 43.015625 
L 54.109375 34.71875 
L 19.28125 34.71875 
L 14.203125 8.296875 
L 51.3125 8.296875 
L 49.703125 0 
L 2.6875 0 
z
" id="DejaVuSans-Oblique-45"/>
     <path d="M 16.890625 72.90625 
L 30.171875 72.90625 
L 50.296875 10.40625 
L 62.5 72.90625 
L 72.125 72.90625 
L 57.90625 0 
L 44.578125 0 
L 24.515625 62.890625 
L 12.3125 0 
L 2.6875 0 
z
" id="DejaVuSans-Oblique-4e"/>
     <path d="M 10.59375 45.40625 
L 73.1875 45.40625 
L 73.1875 37.203125 
L 10.59375 37.203125 
z
M 10.59375 25.484375 
L 73.1875 25.484375 
L 73.1875 17.1875 
L 10.59375 17.1875 
z
" id="DejaVuSans-3d"/>
     <path d="M 4.890625 31.390625 
L 31.203125 31.390625 
L 31.203125 23.390625 
L 4.890625 23.390625 
z
" id="DejaVuSans-2d"/>
     <path d="M 12.40625 8.296875 
L 28.515625 8.296875 
L 28.515625 63.921875 
L 10.984375 60.40625 
L 10.984375 69.390625 
L 28.421875 72.90625 
L 38.28125 72.90625 
L 38.28125 8.296875 
L 54.390625 8.296875 
L 54.390625 0 
L 12.40625 0 
z
" id="DejaVuSans-31"/>
     <path d="M 8.203125 72.90625 
L 55.078125 72.90625 
L 55.078125 68.703125 
L 28.609375 0 
L 18.3125 0 
L 43.21875 64.59375 
L 8.203125 64.59375 
z
" id="DejaVuSans-37"/>
     <path d="M 10.6875 12.40625 
L 21 12.40625 
L 21 0 
L 10.6875 0 
z
" id="DejaVuSans-2e"/>
     <path d="M 28.609375 0 
L 0.78125 72.90625 
L 11.078125 72.90625 
L 34.1875 11.53125 
L 57.328125 72.90625 
L 67.578125 72.90625 
L 39.796875 0 
z
" id="DejaVuSans-56"/>
     <path d="M 34.1875 63.1875 
L 14.15625 8.203125 
L 54.25 8.203125 
z
M 0.78125 0 
L 28.609375 72.90625 
L 39.796875 72.90625 
L 67.578125 0 
z
" id="DejaVuSans-394"/>
     <path d="M 9.8125 72.90625 
L 55.90625 72.90625 
L 55.90625 64.59375 
L 19.671875 64.59375 
L 19.671875 43.015625 
L 54.390625 43.015625 
L 54.390625 34.71875 
L 19.671875 34.71875 
L 19.671875 8.296875 
L 56.78125 8.296875 
L 56.78125 0 
L 9.8125 0 
z
" id="DejaVuSans-45"/>
     <path d="M 31.78125 66.40625 
Q 24.171875 66.40625 20.328125 58.90625 
Q 16.5 51.421875 16.5 36.375 
Q 16.5 21.390625 20.328125 13.890625 
Q 24.171875 6.390625 31.78125 6.390625 
Q 39.453125 6.390625 43.28125 13.890625 
Q 47.125 21.390625 47.125 36.375 
Q 47.125 51.421875 43.28125 58.90625 
Q 39.453125 66.40625 31.78125 66.40625 
z
M 31.78125 74.21875 
Q 44.046875 74.21875 50.515625 64.515625 
Q 56.984375 54.828125 56.984375 36.375 
Q 56.984375 17.96875 50.515625 8.265625 
Q 44.046875 -1.421875 31.78125 -1.421875 
Q 19.53125 -1.421875 13.0625 8.265625 
Q 6.59375 17.96875 6.59375 36.375 
Q 6.59375 54.828125 13.0625 64.515625 
Q 19.53125 74.21875 31.78125 74.21875 
z
" id="DejaVuSans-30"/>
    </defs>
    <g transform="translate(65.388 35.472)scale(0.12 -0.12)">
     <use transform="translate(0 0.78125)" xlink:href="#DejaVuSans-53"/>
     <use transform="translate(63.476562 0.78125)" xlink:href="#DejaVuSans-74"/>
     <use transform="translate(102.685547 0.78125)" xlink:href="#DejaVuSans-72"/>
     <use transform="translate(143.798828 0.78125)" xlink:href="#DejaVuSans-75"/>
     <use transform="translate(207.177734 0.78125)" xlink:href="#DejaVuSans-63"/>
     <use transform="translate(262.158203 0.78125)" xlink:href="#DejaVuSans-74"/>
     <use transform="translate(301.367188 0.78125)" xlink:href="#DejaVuSans-75"/>
     <use transform="translate(364.746094 0.78125)" xlink:href="#DejaVuSans-72"/>
     <use transform="translate(405.859375 0.78125)" xlink:href="#DejaVuSans-65"/>
     <use transform="translate(467.382812 0.78125)" xlink:href="#DejaVuSans-20"/>
     <use transform="translate(499.169922 0.78125)" xlink:href="#DejaVuSans-23"/>
     <use transform="translate(582.958984 0.78125)" xlink:href="#DejaVuSans-39"/>
     <use transform="translate(646.582031 0.78125)" xlink:href="#DejaVuSans-35"/>
     <use transform="translate(710.205078 0.78125)" xlink:href="#DejaVuSans-34"/>
     <use transform="translate(773.828125 0.78125)" xlink:href="#DejaVuSans-32"/>
     <use transform="translate(837.451172 0.78125)" xlink:href="#DejaVuSans-2c"/>
     <use transform="translate(869.238281 0.78125)" xlink:href="#DejaVuSans-20"/>
     <use transform="translate(901.025391 0.78125)" xlink:href="#DejaVuSans-Oblique-45"/>
     <use transform="translate(964.208984 -15.625)scale(0.7)" xlink:href="#DejaVuSans-Oblique-4e"/>
     <use transform="translate(1019.306641 0.78125)" xlink:href="#DejaVuSans-3d"/>
     <use transform="translate(1103.095703 0.78125)" xlink:href="#DejaVuSans-2d"/>
     <use transform="translate(1139.179688 0.78125)" xlink:href="#DejaVuSans-31"/>
     <use transform="translate(1202.802734 0.78125)" xlink:href="#DejaVuSans-37"/>
     <use transform="translate(1266.410156 0.78125)" xlink:href="#DejaVuSans-37"/>
     <use transform="translate(1330.033203 0.78125)" xlink:href="#DejaVuSans-2e"/>
     <use transform="translate(1361.820312 0.78125)" xlink:href="#DejaVuSans-34"/>
     <use transform="translate(1425.443359 0.78125)" xlink:href="#DejaVuSans-34"/>
     <use transform="translate(1489.066406 0.78125)" xlink:href="#DejaVuSans-65"/>
     <use transform="translate(1550.589844 0.78125)" xlink:href="#DejaVuSans-56"/>
     <use transform="translate(1618.998047 0.78125)" xlink:href="#DejaVuSans-2c"/>
     <use transform="translate(1650.785156 0.78125)" xlink:href="#DejaVuSans-20"/>
     <use transform="translate(1682.572266 0.78125)" xlink:href="#DejaVuSans-394"/>
     <use transform="translate(1750.980469 0.78125)" xlink:href="#DejaVuSans-45"/>
     <use transform="translate(1814.164062 0.78125)" xlink:href="#DejaVuSans-3d"/>
     <use transform="translate(1897.953125 0.78125)" xlink:href="#DejaVuSans-30"/>
     <use transform="translate(1961.576172 0.78125)" xlink:href="#DejaVuSans-2e"/>
     <use transform="translate(1993.285156 0.78125)" xlink:href="#DejaVuSans-32"/>
     <use transform="translate(2056.908203 0.78125)" xlink:href="#DejaVuSans-35"/>
     <use transform="translate(2120.53125 0.78125)" xlink:href="#DejaVuSans-65"/>
     <use transform="translate(2182.054688 0.78125)" xlink:href="#DejaVuSans-56"/>
    </g>
   </g>
  </g>
  <g id="axes_2">
   <g id="patch_2">
    <path clip-path="url(#pb6e1e608a1)" d="M 361.152 307.584 
L 361.152 306.5445 
L 361.152 42.5115 
L 361.152 41.472 
L 374.4576 41.472 
L 374.4576 42.5115 
L 374.4576 306.5445 
L 374.4576 307.584 
z
" style="fill:#ffffff;stroke:#ffffff;stroke-linejoin:miter;stroke-width:0.01;"/>
   </g>
   <image height="265.68" id="imageae606f37b3" transform="scale(1 -1)translate(0 -265.68)" width="12.96" x="361.44" xlink:href="data:image/png;base64,
iVBORw0KGgoAAAANSUhEUgAAABIAAAFxCAYAAAB+2fgXAAAABHNCSVQICAgIfAhkiAAAAeVJREFUeJztncmNw0AQA2ckheYQNv9QLIfQ8ygsCgQ7AEI8+jAs2Puz/94F1LP2ReCsZ18bAWIeZ5XaGRBE7VnbptG+KI101FYyNSiQG2oRITXKNaX9uclOdi2XWjftVE32CZCO2ou5Bj1TcCBr/1zB9ge7Fq0Rg2NM9pvbtG+ua1QgsRYhDy0ISEiNc40BEibbSI0Coj5CBGtkpFbXJiAjNZlrwhuSOv2M1DjXbEdEciBt1JSDDQKKpmZr2rr2j0DBGpXaWEJq3bQzEPIS26r9J+Wzv9Tm8o3aajRXqc3VUXsApKNWjeZq0x4ABVNbm7lrszVigDqP5vIl2+eaT2yfRkL7g+dRcNPqjohkjaCvRVBq0H2U3LQrOJCx9kdTg4B8oxZzzTdqdYHEngjUCAPyUctN9sVRq2sTECW2UKNLd2jVtRmo1A6AhMmWaSRcR8nUdIHUuVb75zJS218EyEitro1At69pIdeSk30Lkw0FktNImGyZRhy1O5galmxd03LUsHWk06jUZiCq+5Wb1kZNN4+wJxJuWt8RAW5am2sYNZ9rYCBzZ3buPKJ2P5Yj4Toy3keyIyJbIxs1rml1byCA84gpch5RQNB7Q0qNMGq2Hy4BXdNR41yz/cEEJfZzUz96r9PoB0okjeQ8y9TkAAAAAElFTkSuQmCC" y="-41.76"/>
   <g id="matplotlib.axis_1"/>
   <g id="matplotlib.axis_2">
    <g id="ytick_1">
     <g id="line2d_1">
      <defs>
       <path d="M 0 0 
L 3.5 0 
" id="m699c30f18d" style="stroke:#000000;stroke-width:0.8;"/>
      </defs>
      <g>
       <use style="stroke:#000000;stroke-width:0.8;" x="374.4576" xlink:href="#m699c30f18d" y="293.091296"/>
      </g>
     </g>
     <g id="text_2">
      <!-- −9.0 -->
      <defs>
       <path d="M 10.59375 35.5 
L 73.1875 35.5 
L 73.1875 27.203125 
L 10.59375 27.203125 
z
" id="DejaVuSans-2212"/>
      </defs>
      <g transform="translate(381.4576 296.890515)scale(0.1 -0.1)">
       <use xlink:href="#DejaVuSans-2212"/>
       <use x="83.789062" xlink:href="#DejaVuSans-39"/>
       <use x="147.412109" xlink:href="#DejaVuSans-2e"/>
       <use x="179.199219" xlink:href="#DejaVuSans-30"/>
      </g>
     </g>
    </g>
    <g id="ytick_2">
     <g id="line2d_2">
      <g>
       <use style="stroke:#000000;stroke-width:0.8;" x="374.4576" xlink:href="#m699c30f18d" y="261.597109"/>
      </g>
     </g>
     <g id="text_3">
      <!-- −8.5 -->
      <defs>
       <path d="M 31.78125 34.625 
Q 24.75 34.625 20.71875 30.859375 
Q 16.703125 27.09375 16.703125 20.515625 
Q 16.703125 13.921875 20.71875 10.15625 
Q 24.75 6.390625 31.78125 6.390625 
Q 38.8125 6.390625 42.859375 10.171875 
Q 46.921875 13.96875 46.921875 20.515625 
Q 46.921875 27.09375 42.890625 30.859375 
Q 38.875 34.625 31.78125 34.625 
z
M 21.921875 38.8125 
Q 15.578125 40.375 12.03125 44.71875 
Q 8.5 49.078125 8.5 55.328125 
Q 8.5 64.0625 14.71875 69.140625 
Q 20.953125 74.21875 31.78125 74.21875 
Q 42.671875 74.21875 48.875 69.140625 
Q 55.078125 64.0625 55.078125 55.328125 
Q 55.078125 49.078125 51.53125 44.71875 
Q 48 40.375 41.703125 38.8125 
Q 48.828125 37.15625 52.796875 32.3125 
Q 56.78125 27.484375 56.78125 20.515625 
Q 56.78125 9.90625 50.3125 4.234375 
Q 43.84375 -1.421875 31.78125 -1.421875 
Q 19.734375 -1.421875 13.25 4.234375 
Q 6.78125 9.90625 6.78125 20.515625 
Q 6.78125 27.484375 10.78125 32.3125 
Q 14.796875 37.15625 21.921875 38.8125 
z
M 18.3125 54.390625 
Q 18.3125 48.734375 21.84375 45.5625 
Q 25.390625 42.390625 31.78125 42.390625 
Q 38.140625 42.390625 41.71875 45.5625 
Q 45.3125 48.734375 45.3125 54.390625 
Q 45.3125 60.0625 41.71875 63.234375 
Q 38.140625 66.40625 31.78125 66.40625 
Q 25.390625 66.40625 21.84375 63.234375 
Q 18.3125 60.0625 18.3125 54.390625 
z
" id="DejaVuSans-38"/>
      </defs>
      <g transform="translate(381.4576 265.396328)scale(0.1 -0.1)">
       <use xlink:href="#DejaVuSans-2212"/>
       <use x="83.789062" xlink:href="#DejaVuSans-38"/>
       <use x="147.412109" xlink:href="#DejaVuSans-2e"/>
       <use x="179.199219" xlink:href="#DejaVuSans-35"/>
      </g>
     </g>
    </g>
    <g id="ytick_3">
     <g id="line2d_3">
      <g>
       <use style="stroke:#000000;stroke-width:0.8;" x="374.4576" xlink:href="#m699c30f18d" y="230.102922"/>
      </g>
     </g>
     <g id="text_4">
      <!-- −8.0 -->
      <g transform="translate(381.4576 233.902141)scale(0.1 -0.1)">
       <use xlink:href="#DejaVuSans-2212"/>
       <use x="83.789062" xlink:href="#DejaVuSans-38"/>
       <use x="147.412109" xlink:href="#DejaVuSans-2e"/>
       <use x="179.199219" xlink:href="#DejaVuSans-30"/>
      </g>
     </g>
    </g>
    <g id="ytick_4">
     <g id="line2d_4">
      <g>
       <use style="stroke:#000000;stroke-width:0.8;" x="374.4576" xlink:href="#m699c30f18d" y="198.608735"/>
      </g>
     </g>
     <g id="text_5">
      <!-- −7.5 -->
      <g transform="translate(381.4576 202.407953)scale(0.1 -0.1)">
       <use xlink:href="#DejaVuSans-2212"/>
       <use x="83.789062" xlink:href="#DejaVuSans-37"/>
       <use x="147.412109" xlink:href="#DejaVuSans-2e"/>
       <use x="179.199219" xlink:href="#DejaVuSans-35"/>
      </g>
     </g>
    </g>
    <g id="ytick_5">
     <g id="line2d_5">
      <g>
       <use style="stroke:#000000;stroke-width:0.8;" x="374.4576" xlink:href="#m699c30f18d" y="167.114547"/>
      </g>
     </g>
     <g id="text_6">
      <!-- −7.0 -->
      <g transform="translate(381.4576 170.913766)scale(0.1 -0.1)">
       <use xlink:href="#DejaVuSans-2212"/>
       <use x="83.789062" xlink:href="#DejaVuSans-37"/>
       <use x="147.412109" xlink:href="#DejaVuSans-2e"/>
       <use x="179.199219" xlink:href="#DejaVuSans-30"/>
      </g>
     </g>
    </g>
    <g id="ytick_6">
     <g id="line2d_6">
      <g>
       <use style="stroke:#000000;stroke-width:0.8;" x="374.4576" xlink:href="#m699c30f18d" y="135.62036"/>
      </g>
     </g>
     <g id="text_7">
      <!-- −6.5 -->
      <defs>
       <path d="M 33.015625 40.375 
Q 26.375 40.375 22.484375 35.828125 
Q 18.609375 31.296875 18.609375 23.390625 
Q 18.609375 15.53125 22.484375 10.953125 
Q 26.375 6.390625 33.015625 6.390625 
Q 39.65625 6.390625 43.53125 10.953125 
Q 47.40625 15.53125 47.40625 23.390625 
Q 47.40625 31.296875 43.53125 35.828125 
Q 39.65625 40.375 33.015625 40.375 
z
M 52.59375 71.296875 
L 52.59375 62.3125 
Q 48.875 64.0625 45.09375 64.984375 
Q 41.3125 65.921875 37.59375 65.921875 
Q 27.828125 65.921875 22.671875 59.328125 
Q 17.53125 52.734375 16.796875 39.40625 
Q 19.671875 43.65625 24.015625 45.921875 
Q 28.375 48.1875 33.59375 48.1875 
Q 44.578125 48.1875 50.953125 41.515625 
Q 57.328125 34.859375 57.328125 23.390625 
Q 57.328125 12.15625 50.6875 5.359375 
Q 44.046875 -1.421875 33.015625 -1.421875 
Q 20.359375 -1.421875 13.671875 8.265625 
Q 6.984375 17.96875 6.984375 36.375 
Q 6.984375 53.65625 15.1875 63.9375 
Q 23.390625 74.21875 37.203125 74.21875 
Q 40.921875 74.21875 44.703125 73.484375 
Q 48.484375 72.75 52.59375 71.296875 
z
" id="DejaVuSans-36"/>
      </defs>
      <g transform="translate(381.4576 139.419579)scale(0.1 -0.1)">
       <use xlink:href="#DejaVuSans-2212"/>
       <use x="83.789062" xlink:href="#DejaVuSans-36"/>
       <use x="147.412109" xlink:href="#DejaVuSans-2e"/>
       <use x="179.199219" xlink:href="#DejaVuSans-35"/>
      </g>
     </g>
    </g>
    <g id="ytick_7">
     <g id="line2d_7">
      <g>
       <use style="stroke:#000000;stroke-width:0.8;" x="374.4576" xlink:href="#m699c30f18d" y="104.126173"/>
      </g>
     </g>
     <g id="text_8">
      <!-- −6.0 -->
      <g transform="translate(381.4576 107.925392)scale(0.1 -0.1)">
       <use xlink:href="#DejaVuSans-2212"/>
       <use x="83.789062" xlink:href="#DejaVuSans-36"/>
       <use x="147.412109" xlink:href="#DejaVuSans-2e"/>
       <use x="179.199219" xlink:href="#DejaVuSans-30"/>
      </g>
     </g>
    </g>
    <g id="ytick_8">
     <g id="line2d_8">
      <g>
       <use style="stroke:#000000;stroke-width:0.8;" x="374.4576" xlink:href="#m699c30f18d" y="72.631986"/>
      </g>
     </g>
     <g id="text_9">
      <!-- −5.5 -->
      <g transform="translate(381.4576 76.431204)scale(0.1 -0.1)">
       <use xlink:href="#DejaVuSans-2212"/>
       <use x="83.789062" xlink:href="#DejaVuSans-35"/>
       <use x="147.412109" xlink:href="#DejaVuSans-2e"/>
       <use x="179.199219" xlink:href="#DejaVuSans-35"/>
      </g>
     </g>
    </g>
    <g id="text_10">
     <!-- Energy [eV] -->
     <defs>
      <path d="M 54.890625 33.015625 
L 54.890625 0 
L 45.90625 0 
L 45.90625 32.71875 
Q 45.90625 40.484375 42.875 44.328125 
Q 39.84375 48.1875 33.796875 48.1875 
Q 26.515625 48.1875 22.3125 43.546875 
Q 18.109375 38.921875 18.109375 30.90625 
L 18.109375 0 
L 9.078125 0 
L 9.078125 54.6875 
L 18.109375 54.6875 
L 18.109375 46.1875 
Q 21.34375 51.125 25.703125 53.5625 
Q 30.078125 56 35.796875 56 
Q 45.21875 56 50.046875 50.171875 
Q 54.890625 44.34375 54.890625 33.015625 
z
" id="DejaVuSans-6e"/>
      <path d="M 45.40625 27.984375 
Q 45.40625 37.75 41.375 43.109375 
Q 37.359375 48.484375 30.078125 48.484375 
Q 22.859375 48.484375 18.828125 43.109375 
Q 14.796875 37.75 14.796875 27.984375 
Q 14.796875 18.265625 18.828125 12.890625 
Q 22.859375 7.515625 30.078125 7.515625 
Q 37.359375 7.515625 41.375 12.890625 
Q 45.40625 18.265625 45.40625 27.984375 
z
M 54.390625 6.78125 
Q 54.390625 -7.171875 48.1875 -13.984375 
Q 42 -20.796875 29.203125 -20.796875 
Q 24.46875 -20.796875 20.265625 -20.09375 
Q 16.0625 -19.390625 12.109375 -17.921875 
L 12.109375 -9.1875 
Q 16.0625 -11.328125 19.921875 -12.34375 
Q 23.78125 -13.375 27.78125 -13.375 
Q 36.625 -13.375 41.015625 -8.765625 
Q 45.40625 -4.15625 45.40625 5.171875 
L 45.40625 9.625 
Q 42.625 4.78125 38.28125 2.390625 
Q 33.9375 0 27.875 0 
Q 17.828125 0 11.671875 7.65625 
Q 5.515625 15.328125 5.515625 27.984375 
Q 5.515625 40.671875 11.671875 48.328125 
Q 17.828125 56 27.875 56 
Q 33.9375 56 38.28125 53.609375 
Q 42.625 51.21875 45.40625 46.390625 
L 45.40625 54.6875 
L 54.390625 54.6875 
z
" id="DejaVuSans-67"/>
      <path d="M 32.171875 -5.078125 
Q 28.375 -14.84375 24.75 -17.8125 
Q 21.140625 -20.796875 15.09375 -20.796875 
L 7.90625 -20.796875 
L 7.90625 -13.28125 
L 13.1875 -13.28125 
Q 16.890625 -13.28125 18.9375 -11.515625 
Q 21 -9.765625 23.484375 -3.21875 
L 25.09375 0.875 
L 2.984375 54.6875 
L 12.5 54.6875 
L 29.59375 11.921875 
L 46.6875 54.6875 
L 56.203125 54.6875 
z
" id="DejaVuSans-79"/>
      <path d="M 8.59375 75.984375 
L 29.296875 75.984375 
L 29.296875 69 
L 17.578125 69 
L 17.578125 -6.203125 
L 29.296875 -6.203125 
L 29.296875 -13.1875 
L 8.59375 -13.1875 
z
" id="DejaVuSans-5b"/>
      <path d="M 30.421875 75.984375 
L 30.421875 -13.1875 
L 9.71875 -13.1875 
L 9.71875 -6.203125 
L 21.390625 -6.203125 
L 21.390625 69 
L 9.71875 69 
L 9.71875 75.984375 
z
" id="DejaVuSans-5d"/>
     </defs>
     <g transform="translate(417.33885 204.108469)rotate(-90)scale(0.1 -0.1)">
      <use xlink:href="#DejaVuSans-45"/>
      <use x="63.183594" xlink:href="#DejaVuSans-6e"/>
      <use x="126.5625" xlink:href="#DejaVuSans-65"/>
      <use x="188.085938" xlink:href="#DejaVuSans-72"/>
      <use x="229.183594" xlink:href="#DejaVuSans-67"/>
      <use x="292.660156" xlink:href="#DejaVuSans-79"/>
      <use x="351.839844" xlink:href="#DejaVuSans-20"/>
      <use x="383.626953" xlink:href="#DejaVuSans-5b"/>
      <use x="422.640625" xlink:href="#DejaVuSans-65"/>
      <use x="484.164062" xlink:href="#DejaVuSans-56"/>
      <use x="552.572266" xlink:href="#DejaVuSans-5d"/>
     </g>
    </g>
   </g>
   <g id="patch_3">
    <path d="M 361.152 307.584 
L 361.152 306.5445 
L 361.152 42.5115 
L 361.152 41.472 
L 374.4576 41.472 
L 374.4576 42.5115 
L 374.4576 306.5445 
L 374.4576 307.584 
z
" style="fill:none;stroke:#000000;stroke-linejoin:miter;stroke-width:0.8;"/>
   </g>
  </g>
 </g>
 <defs>
  <clipPath id="p181ad63256">
   <rect height="266.112" width="285.696" x="57.6" y="41.472"/>
  </clipPath>
  <clipPath id="pb6e1e608a1">
   <rect height="266.112" width="13.3056" x="361.152" y="41.472"/>
  </clipPath>
 </defs>
</svg>
