<?xml version="1.0" encoding="utf-8" standalone="no"?>
<!DOCTYPE svg PUBLIC "-//W3C//DTD SVG 1.1//EN"
  "http://www.w3.org/Graphics/SVG/1.1/DTD/svg11.dtd">
<!-- Created with matplotlib (http://matplotlib.org/) -->
<svg height="345.6pt" version="1.1" viewBox="0 0 460.8 345.6" width="460.8pt" xmlns="http://www.w3.org/2000/svg" xmlns:xlink="http://www.w3.org/1999/xlink">
 <defs>
  <style type="text/css">
*{stroke-linecap:butt;stroke-linejoin:round;}
  </style>
 </defs>
 <g id="figure_1">
  <g id="patch_1">
   <path d="M 0 345.6 
L 460.8 345.6 
L 460.8 0 
L 0 0 
z
" style="fill:#ffffff;"/>
  </g>
  <g id="axes_1">
   <g id="CircleCollection_1">
    <path clip-path="url(#p8936714ffc)" d="M 171.393403 102.782681 
C 173.109916 102.782681 174.756356 102.100703 175.970114 100.886945 
C 177.183871 99.673187 177.865849 98.026748 177.865849 96.310235 
C 177.865849 94.593722 177.183871 92.947282 175.970114 91.733525 
C 174.756356 90.519767 173.109916 89.837789 171.393403 89.837789 
C 169.676891 89.837789 168.030451 90.519767 166.816693 91.733525 
C 165.602935 92.947282 164.920958 94.593722 164.920958 96.310235 
C 164.920958 98.026748 165.602935 99.673187 166.816693 100.886945 
C 168.030451 102.100703 169.676891 102.782681 171.393403 102.782681 
z
" style="fill:#423f85;"/>
    <path clip-path="url(#p8936714ffc)" d="M 329.97016 194.343731 
C 331.668692 194.343731 333.297886 193.668897 334.498929 192.467854 
C 335.699973 191.26681 336.374807 189.637617 336.374807 187.939084 
C 336.374807 186.240552 335.699973 184.611359 334.498929 183.410315 
C 333.297886 182.209271 331.668692 181.534437 329.97016 181.534437 
C 328.271628 181.534437 326.642434 182.209271 325.44139 183.410315 
C 324.240347 184.611359 323.565513 186.240552 323.565513 187.939084 
C 323.565513 189.637617 324.240347 191.26681 325.44139 192.467854 
C 326.642434 193.668897 328.271628 194.343731 329.97016 194.343731 
z
" style="fill:#fde725;"/>
    <path clip-path="url(#p8936714ffc)" d="M 306.956677 173.54009 
C 308.672658 173.54009 310.318588 172.858324 311.531971 171.644941 
C 312.745353 170.431559 313.427119 168.785629 313.427119 167.069647 
C 313.427119 165.353666 312.745353 163.707736 311.531971 162.494353 
C 310.318588 161.280971 308.672658 160.599205 306.956677 160.599205 
C 305.240695 160.599205 303.594765 161.280971 302.381383 162.494353 
C 301.168 163.707736 300.486234 165.353666 300.486234 167.069647 
C 300.486234 168.785629 301.168 170.431559 302.381383 171.644941 
C 303.594765 172.858324 305.240695 173.54009 306.956677 173.54009 
z
" style="fill:#39568c;"/>
    <path clip-path="url(#p8936714ffc)" d="M 167.064285 72.643108 
C 168.732426 72.643108 170.332468 71.980349 171.512022 70.800795 
C 172.691576 69.621241 173.354335 68.021199 173.354335 66.353058 
C 173.354335 64.684917 172.691576 63.084875 171.512022 61.905321 
C 170.332468 60.725767 168.732426 60.063008 167.064285 60.063008 
C 165.396144 60.063008 163.796102 60.725767 162.616548 61.905321 
C 161.436994 63.084875 160.774235 64.684917 160.774235 66.353058 
C 160.774235 68.021199 161.436994 69.621241 162.616548 70.800795 
C 163.796102 71.980349 165.396144 72.643108 167.064285 72.643108 
z
" style="fill:#440154;"/>
    <path clip-path="url(#p8936714ffc)" d="M 263.60532 124.134936 
C 265.335079 124.134936 266.994226 123.447695 268.21735 122.22457 
C 269.440475 121.001445 270.127716 119.342299 270.127716 117.612539 
C 270.127716 115.88278 269.440475 114.223633 268.21735 113.000509 
C 266.994226 111.777384 265.335079 111.090143 263.60532 111.090143 
C 261.87556 111.090143 260.216414 111.777384 258.993289 113.000509 
C 257.770164 114.223633 257.082923 115.88278 257.082923 117.612539 
C 257.082923 119.342299 257.770164 121.001445 258.993289 122.22457 
C 260.216414 123.447695 261.87556 124.134936 263.60532 124.134936 
z
" style="fill:#2a788e;"/>
    <path clip-path="url(#p8936714ffc)" d="M 171.87837 155.087802 
C 173.648392 155.087802 175.346156 154.384565 176.59775 153.132971 
C 177.849344 151.881376 178.552581 150.183612 178.552581 148.413591 
C 178.552581 146.643569 177.849344 144.945805 176.59775 143.694211 
C 175.346156 142.442617 173.648392 141.73938 171.87837 141.73938 
C 170.108349 141.73938 168.410585 142.442617 167.158991 143.694211 
C 165.907396 144.945805 165.204159 146.643569 165.204159 148.413591 
C 165.204159 150.183612 165.907396 151.881376 167.158991 153.132971 
C 168.410585 154.384565 170.108349 155.087802 171.87837 155.087802 
z
" style="fill:#450559;"/>
    <path clip-path="url(#p8936714ffc)" d="M 279.632963 154.123918 
C 281.367002 154.123918 283.030252 153.434977 284.256403 152.208826 
C 285.482553 150.982675 286.171494 149.319425 286.171494 147.585386 
C 286.171494 145.851347 285.482553 144.188097 284.256403 142.961946 
C 283.030252 141.735795 281.367002 141.046854 279.632963 141.046854 
C 277.898924 141.046854 276.235673 141.735795 275.009523 142.961946 
C 273.783372 144.188097 273.094431 145.851347 273.094431 147.585386 
C 273.094431 149.319425 273.783372 150.982675 275.009523 152.208826 
C 276.235673 153.434977 277.898924 154.123918 279.632963 154.123918 
z
" style="fill:#3c508b;"/>
    <path clip-path="url(#p8936714ffc)" d="M 142.795729 242.124883 
C 144.588527 242.124883 146.308137 241.412597 147.575837 240.144898 
C 148.843536 238.877199 149.555822 237.157588 149.555822 235.364791 
C 149.555822 233.571994 148.843536 231.852383 147.575837 230.584684 
C 146.308137 229.316985 144.588527 228.604699 142.795729 228.604699 
C 141.002932 228.604699 139.283322 229.316985 138.015622 230.584684 
C 136.747923 231.852383 136.035637 233.571994 136.035637 235.364791 
C 136.035637 237.157588 136.747923 238.877199 138.015622 240.144898 
C 139.283322 241.412597 141.002932 242.124883 142.795729 242.124883 
z
" style="fill:#39558c;"/>
    <path clip-path="url(#p8936714ffc)" d="M 151.02198 212.804516 
C 152.814881 212.804516 154.534591 212.092189 155.802363 210.824416 
C 157.070136 209.556644 157.782463 207.836934 157.782463 206.044033 
C 157.782463 204.251131 157.070136 202.531421 155.802363 201.263649 
C 154.534591 199.995876 152.814881 199.283549 151.02198 199.283549 
C 149.229079 199.283549 147.509369 199.995876 146.241596 201.263649 
C 144.973824 202.531421 144.261497 204.251131 144.261497 206.044033 
C 144.261497 207.836934 144.973824 209.556644 146.241596 210.824416 
C 147.509369 212.092189 149.229079 212.804516 151.02198 212.804516 
z
" style="fill:#3e4989;"/>
    <path clip-path="url(#p8936714ffc)" d="M 201.147018 60.19542 
C 202.801246 60.19542 204.387944 59.538188 205.55766 58.368472 
C 206.727376 57.198756 207.384608 55.612058 207.384608 53.95783 
C 207.384608 52.303602 206.727376 50.716904 205.55766 49.547188 
C 204.387944 48.377472 202.801246 47.72024 201.147018 47.72024 
C 199.49279 47.72024 197.906092 48.377472 196.736376 49.547188 
C 195.56666 50.716904 194.909428 52.303602 194.909428 53.95783 
C 194.909428 55.612058 195.56666 57.198756 196.736376 58.368472 
C 197.906092 59.538188 199.49279 60.19542 201.147018 60.19542 
z
" style="fill:#228d8d;"/>
    <path clip-path="url(#p8936714ffc)" d="M 205.588134 112.576954 
C 207.325532 112.576954 208.992004 111.886679 210.220529 110.658153 
C 211.449055 109.429628 212.13933 107.763155 212.13933 106.025758 
C 212.13933 104.28836 211.449055 102.621888 210.220529 101.393362 
C 208.992004 100.164837 207.325532 99.474561 205.588134 99.474561 
C 203.850736 99.474561 202.184264 100.164837 200.955739 101.393362 
C 199.727213 102.621888 199.036937 104.28836 199.036937 106.025758 
C 199.036937 107.763155 199.727213 109.429628 200.955739 110.658153 
C 202.184264 111.886679 203.850736 112.576954 205.588134 112.576954 
z
" style="fill:#471164;"/>
    <path clip-path="url(#p8936714ffc)" d="M 112.261923 132.418115 
C 113.988086 132.418115 115.643782 131.732303 116.864364 130.511722 
C 118.084946 129.29114 118.770757 127.635444 118.770757 125.909281 
C 118.770757 124.183118 118.084946 122.527422 116.864364 121.30684 
C 115.643782 120.086258 113.988086 119.400447 112.261923 119.400447 
C 110.53576 119.400447 108.880064 120.086258 107.659482 121.30684 
C 106.438901 122.527422 105.753089 124.183118 105.753089 125.909281 
C 105.753089 127.635444 106.438901 129.29114 107.659482 130.511722 
C 108.880064 131.732303 110.53576 132.418115 112.261923 132.418115 
z
" style="fill:#2a788e;"/>
    <path clip-path="url(#p8936714ffc)" d="M 131.550849 301.79015 
C 133.333616 301.79015 135.043605 301.081849 136.304212 299.821242 
C 137.564819 298.560636 138.27312 296.850646 138.27312 295.067879 
C 138.27312 293.285112 137.564819 291.575122 136.304212 290.314515 
C 135.043605 289.053909 133.333616 288.345608 131.550849 288.345608 
C 129.768081 288.345608 128.058092 289.053909 126.797485 290.314515 
C 125.536878 291.575122 124.828578 293.285112 124.828578 295.067879 
C 124.828578 296.850646 125.536878 298.560636 126.797485 299.821242 
C 128.058092 301.081849 129.768081 301.79015 131.550849 301.79015 
z
" style="fill:#fbe723;"/>
    <path clip-path="url(#p8936714ffc)" d="M 207.899409 143.836511 
C 209.667111 143.836511 211.36265 143.134195 212.612604 141.884242 
C 213.862558 140.634288 214.564874 138.938748 214.564874 137.171046 
C 214.564874 135.403345 213.862558 133.707805 212.612604 132.457851 
C 211.36265 131.207898 209.667111 130.505582 207.899409 130.505582 
C 206.131708 130.505582 204.436168 131.207898 203.186214 132.457851 
C 201.93626 133.707805 201.233945 135.403345 201.233945 137.171046 
C 201.233945 138.938748 201.93626 140.634288 203.186214 141.884242 
C 204.436168 143.134195 206.131708 143.836511 207.899409 143.836511 
z
" style="fill:#482374;"/>
    <path clip-path="url(#p8936714ffc)" d="M 133.549469 61.878366 
C 135.19006 61.878366 136.763677 61.226552 137.92375 60.06648 
C 139.083823 58.906407 139.735637 57.33279 139.735637 55.692199 
C 139.735637 54.051608 139.083823 52.477991 137.92375 51.317918 
C 136.763677 50.157845 135.19006 49.506032 133.549469 49.506032 
C 131.908879 49.506032 130.335262 50.157845 129.175189 51.317918 
C 128.015116 52.477991 127.363302 54.051608 127.363302 55.692199 
C 127.363302 57.33279 128.015116 58.906407 129.175189 60.06648 
C 130.335262 61.226552 131.908879 61.878366 133.549469 61.878366 
z
" style="fill:#287c8e;"/>
    <path clip-path="url(#p8936714ffc)" d="M 148.532487 129.730035 
C 150.271426 129.730035 151.939377 129.039147 153.168992 127.809532 
C 154.398608 126.579916 155.089496 124.911965 155.089496 123.173026 
C 155.089496 121.434087 154.398608 119.766136 153.168992 118.536521 
C 151.939377 117.306905 150.271426 116.616017 148.532487 116.616017 
C 146.793548 116.616017 145.125597 117.306905 143.895981 118.536521 
C 142.666366 119.766136 141.975478 121.434087 141.975478 123.173026 
C 141.975478 124.911965 142.666366 126.579916 143.895981 127.809532 
C 145.125597 129.039147 146.793548 129.730035 148.532487 129.730035 
z
" style="fill:#482374;"/>
    <path clip-path="url(#p8936714ffc)" d="M 244.231103 150.802802 
C 245.994353 150.802802 247.685623 150.102256 248.932429 148.855449 
C 250.179235 147.608643 250.879782 145.917374 250.879782 144.154123 
C 250.879782 142.390873 250.179235 140.699604 248.932429 139.452797 
C 247.685623 138.205991 245.994353 137.505444 244.231103 137.505444 
C 242.467853 137.505444 240.776583 138.205991 239.529777 139.452797 
C 238.282971 140.699604 237.582424 142.390873 237.582424 144.154123 
C 237.582424 145.917374 238.282971 147.608643 239.529777 148.855449 
C 240.776583 150.102256 242.467853 150.802802 244.231103 150.802802 
z
" style="fill:#2c728e;"/>
    <path clip-path="url(#p8936714ffc)" d="M 135.543659 271.524604 
C 137.333881 271.524604 139.051022 270.813341 140.3169 269.547462 
C 141.582779 268.281584 142.294042 266.564443 142.294042 264.774221 
C 142.294042 262.983998 141.582779 261.266858 140.3169 260.000979 
C 139.051022 258.735101 137.333881 258.023838 135.543659 258.023838 
C 133.753436 258.023838 132.036296 258.735101 130.770417 260.000979 
C 129.504539 261.266858 128.793276 262.983998 128.793276 264.774221 
C 128.793276 266.564443 129.504539 268.281584 130.770417 269.547462 
C 132.036296 270.813341 133.753436 271.524604 135.543659 271.524604 
z
" style="fill:#39568c;"/>
    <path clip-path="url(#p8936714ffc)" d="M 102.562593 73.630358 
C 104.206535 73.630358 105.783367 72.977212 106.94581 71.81477 
C 108.108252 70.652327 108.761397 69.075495 108.761397 67.431553 
C 108.761397 65.787611 108.108252 64.210779 106.94581 63.048336 
C 105.783367 61.885893 104.206535 61.232748 102.562593 61.232748 
C 100.91865 61.232748 99.341818 61.885893 98.179376 63.048336 
C 97.016933 64.210779 96.363788 65.787611 96.363788 67.431553 
C 96.363788 69.075495 97.016933 70.652327 98.179376 71.81477 
C 99.341818 72.977212 100.91865 73.630358 102.562593 73.630358 
z
" style="fill:#2f6c8e;"/>
    <path clip-path="url(#p8936714ffc)" d="M 239.501667 99.594933 
C 241.213125 99.594933 242.854715 98.914963 244.064899 97.70478 
C 245.275082 96.494597 245.955051 94.853006 245.955051 93.141549 
C 245.955051 91.430092 245.275082 89.788501 244.064899 88.578318 
C 242.854715 87.368134 241.213125 86.688165 239.501667 86.688165 
C 237.79021 86.688165 236.148619 87.368134 234.938436 88.578318 
C 233.728253 89.788501 233.048283 91.430092 233.048283 93.141549 
C 233.048283 94.853006 233.728253 96.494597 234.938436 97.70478 
C 236.148619 98.914963 237.79021 99.594933 239.501667 99.594933 
z
" style="fill:#481c6e;"/>
    <path clip-path="url(#p8936714ffc)" d="M 160.518305 184.631361 
C 162.302747 184.631361 164.014342 183.922395 165.276133 182.660605 
C 166.537923 181.398814 167.246889 179.687219 167.246889 177.902777 
C 167.246889 176.118336 166.537923 174.40674 165.276133 173.14495 
C 164.014342 171.883159 162.302747 171.174193 160.518305 171.174193 
C 158.733864 171.174193 157.022269 171.883159 155.760478 173.14495 
C 154.498687 174.40674 153.789721 176.118336 153.789721 177.902777 
C 153.789721 179.687219 154.498687 181.398814 155.760478 182.660605 
C 157.022269 183.922395 158.733864 184.631361 160.518305 184.631361 
z
" style="fill:#2d718e;"/>
    <path clip-path="url(#p8936714ffc)" d="M 231.685678 71.191144 
C 233.354734 71.191144 234.955655 70.528021 236.135856 69.34782 
C 237.316057 68.167619 237.97918 66.566699 237.97918 64.897643 
C 237.97918 63.228586 237.316057 61.627666 236.135856 60.447465 
C 234.955655 59.267264 233.354734 58.604141 231.685678 58.604141 
C 230.016622 58.604141 228.415701 59.267264 227.2355 60.447465 
C 226.055299 61.627666 225.392176 63.228586 225.392176 64.897643 
C 225.392176 66.566699 226.055299 68.167619 227.2355 69.34782 
C 228.415701 70.528021 230.016622 71.191144 231.685678 71.191144 
z
" style="fill:#26818e;"/>
    <path clip-path="url(#p8936714ffc)" d="M 90.660362 112.522388 
C 92.351603 112.522388 93.973802 111.850451 95.16969 110.654563 
C 96.365578 109.458676 97.037515 107.836476 97.037515 106.145235 
C 97.037515 104.453994 96.365578 102.831795 95.16969 101.635907 
C 93.973802 100.440019 92.351603 99.768082 90.660362 99.768082 
C 88.969121 99.768082 87.346922 100.440019 86.151034 101.635907 
C 84.955146 102.831795 84.283209 104.453994 84.283209 106.145235 
C 84.283209 107.836476 84.955146 109.458676 86.151034 110.654563 
C 87.346922 111.850451 88.969121 112.522388 90.660362 112.522388 
z
" style="fill:#2b748e;"/>
    <path clip-path="url(#p8936714ffc)" d="M 70.916339 89.745737 
C 72.567359 89.745737 74.150981 89.089779 75.318428 87.922332 
C 76.485876 86.754884 77.141833 85.171263 77.141833 83.520242 
C 77.141833 81.869222 76.485876 80.285601 75.318428 79.118153 
C 74.150981 77.950706 72.567359 77.294748 70.916339 77.294748 
C 69.265319 77.294748 67.681698 77.950706 66.51425 79.118153 
C 65.346802 80.285601 64.690845 81.869222 64.690845 83.520242 
C 64.690845 85.171263 65.346802 86.754884 66.51425 87.922332 
C 67.681698 89.089779 69.265319 89.745737 70.916339 89.745737 
z
" style="fill:#238a8d;"/>
   </g>
   <g id="text_1">
    <!-- Structure #2375, $E_N$=-179.91eV, ΔE=-0.08eV -->
    <defs>
     <path d="M 53.515625 70.515625 
L 53.515625 60.890625 
Q 47.90625 63.578125 42.921875 64.890625 
Q 37.9375 66.21875 33.296875 66.21875 
Q 25.25 66.21875 20.875 63.09375 
Q 16.5 59.96875 16.5 54.203125 
Q 16.5 49.359375 19.40625 46.890625 
Q 22.3125 44.4375 30.421875 42.921875 
L 36.375 41.703125 
Q 47.40625 39.59375 52.65625 34.296875 
Q 57.90625 29 57.90625 20.125 
Q 57.90625 9.515625 50.796875 4.046875 
Q 43.703125 -1.421875 29.984375 -1.421875 
Q 24.8125 -1.421875 18.96875 -0.25 
Q 13.140625 0.921875 6.890625 3.21875 
L 6.890625 13.375 
Q 12.890625 10.015625 18.65625 8.296875 
Q 24.421875 6.59375 29.984375 6.59375 
Q 38.421875 6.59375 43.015625 9.90625 
Q 47.609375 13.234375 47.609375 19.390625 
Q 47.609375 24.75 44.3125 27.78125 
Q 41.015625 30.8125 33.5 32.328125 
L 27.484375 33.5 
Q 16.453125 35.6875 11.515625 40.375 
Q 6.59375 45.0625 6.59375 53.421875 
Q 6.59375 63.09375 13.40625 68.65625 
Q 20.21875 74.21875 32.171875 74.21875 
Q 37.3125 74.21875 42.625 73.28125 
Q 47.953125 72.359375 53.515625 70.515625 
z
" id="DejaVuSans-53"/>
     <path d="M 18.3125 70.21875 
L 18.3125 54.6875 
L 36.8125 54.6875 
L 36.8125 47.703125 
L 18.3125 47.703125 
L 18.3125 18.015625 
Q 18.3125 11.328125 20.140625 9.421875 
Q 21.96875 7.515625 27.59375 7.515625 
L 36.8125 7.515625 
L 36.8125 0 
L 27.59375 0 
Q 17.1875 0 13.234375 3.875 
Q 9.28125 7.765625 9.28125 18.015625 
L 9.28125 47.703125 
L 2.6875 47.703125 
L 2.6875 54.6875 
L 9.28125 54.6875 
L 9.28125 70.21875 
z
" id="DejaVuSans-74"/>
     <path d="M 41.109375 46.296875 
Q 39.59375 47.171875 37.8125 47.578125 
Q 36.03125 48 33.890625 48 
Q 26.265625 48 22.1875 43.046875 
Q 18.109375 38.09375 18.109375 28.8125 
L 18.109375 0 
L 9.078125 0 
L 9.078125 54.6875 
L 18.109375 54.6875 
L 18.109375 46.1875 
Q 20.953125 51.171875 25.484375 53.578125 
Q 30.03125 56 36.53125 56 
Q 37.453125 56 38.578125 55.875 
Q 39.703125 55.765625 41.0625 55.515625 
z
" id="DejaVuSans-72"/>
     <path d="M 8.5 21.578125 
L 8.5 54.6875 
L 17.484375 54.6875 
L 17.484375 21.921875 
Q 17.484375 14.15625 20.5 10.265625 
Q 23.53125 6.390625 29.59375 6.390625 
Q 36.859375 6.390625 41.078125 11.03125 
Q 45.3125 15.671875 45.3125 23.6875 
L 45.3125 54.6875 
L 54.296875 54.6875 
L 54.296875 0 
L 45.3125 0 
L 45.3125 8.40625 
Q 42.046875 3.421875 37.71875 1 
Q 33.40625 -1.421875 27.6875 -1.421875 
Q 18.265625 -1.421875 13.375 4.4375 
Q 8.5 10.296875 8.5 21.578125 
z
M 31.109375 56 
z
" id="DejaVuSans-75"/>
     <path d="M 48.78125 52.59375 
L 48.78125 44.1875 
Q 44.96875 46.296875 41.140625 47.34375 
Q 37.3125 48.390625 33.40625 48.390625 
Q 24.65625 48.390625 19.8125 42.84375 
Q 14.984375 37.3125 14.984375 27.296875 
Q 14.984375 17.28125 19.8125 11.734375 
Q 24.65625 6.203125 33.40625 6.203125 
Q 37.3125 6.203125 41.140625 7.25 
Q 44.96875 8.296875 48.78125 10.40625 
L 48.78125 2.09375 
Q 45.015625 0.34375 40.984375 -0.53125 
Q 36.96875 -1.421875 32.421875 -1.421875 
Q 20.0625 -1.421875 12.78125 6.34375 
Q 5.515625 14.109375 5.515625 27.296875 
Q 5.515625 40.671875 12.859375 48.328125 
Q 20.21875 56 33.015625 56 
Q 37.15625 56 41.109375 55.140625 
Q 45.0625 54.296875 48.78125 52.59375 
z
" id="DejaVuSans-63"/>
     <path d="M 56.203125 29.59375 
L 56.203125 25.203125 
L 14.890625 25.203125 
Q 15.484375 15.921875 20.484375 11.0625 
Q 25.484375 6.203125 34.421875 6.203125 
Q 39.59375 6.203125 44.453125 7.46875 
Q 49.3125 8.734375 54.109375 11.28125 
L 54.109375 2.78125 
Q 49.265625 0.734375 44.1875 -0.34375 
Q 39.109375 -1.421875 33.890625 -1.421875 
Q 20.796875 -1.421875 13.15625 6.1875 
Q 5.515625 13.8125 5.515625 26.8125 
Q 5.515625 40.234375 12.765625 48.109375 
Q 20.015625 56 32.328125 56 
Q 43.359375 56 49.78125 48.890625 
Q 56.203125 41.796875 56.203125 29.59375 
z
M 47.21875 32.234375 
Q 47.125 39.59375 43.09375 43.984375 
Q 39.0625 48.390625 32.421875 48.390625 
Q 24.90625 48.390625 20.390625 44.140625 
Q 15.875 39.890625 15.1875 32.171875 
z
" id="DejaVuSans-65"/>
     <path id="DejaVuSans-20"/>
     <path d="M 51.125 44 
L 36.921875 44 
L 32.8125 27.6875 
L 47.125 27.6875 
z
M 43.796875 71.78125 
L 38.71875 51.515625 
L 52.984375 51.515625 
L 58.109375 71.78125 
L 65.921875 71.78125 
L 60.890625 51.515625 
L 76.125 51.515625 
L 76.125 44 
L 58.984375 44 
L 54.984375 27.6875 
L 70.515625 27.6875 
L 70.515625 20.21875 
L 53.078125 20.21875 
L 48 0 
L 40.1875 0 
L 45.21875 20.21875 
L 30.90625 20.21875 
L 25.875 0 
L 18.015625 0 
L 23.09375 20.21875 
L 7.71875 20.21875 
L 7.71875 27.6875 
L 24.90625 27.6875 
L 29 44 
L 13.28125 44 
L 13.28125 51.515625 
L 30.90625 51.515625 
L 35.890625 71.78125 
z
" id="DejaVuSans-23"/>
     <path d="M 19.1875 8.296875 
L 53.609375 8.296875 
L 53.609375 0 
L 7.328125 0 
L 7.328125 8.296875 
Q 12.9375 14.109375 22.625 23.890625 
Q 32.328125 33.6875 34.8125 36.53125 
Q 39.546875 41.84375 41.421875 45.53125 
Q 43.3125 49.21875 43.3125 52.78125 
Q 43.3125 58.59375 39.234375 62.25 
Q 35.15625 65.921875 28.609375 65.921875 
Q 23.96875 65.921875 18.8125 64.3125 
Q 13.671875 62.703125 7.8125 59.421875 
L 7.8125 69.390625 
Q 13.765625 71.78125 18.9375 73 
Q 24.125 74.21875 28.421875 74.21875 
Q 39.75 74.21875 46.484375 68.546875 
Q 53.21875 62.890625 53.21875 53.421875 
Q 53.21875 48.921875 51.53125 44.890625 
Q 49.859375 40.875 45.40625 35.40625 
Q 44.1875 33.984375 37.640625 27.21875 
Q 31.109375 20.453125 19.1875 8.296875 
z
" id="DejaVuSans-32"/>
     <path d="M 40.578125 39.3125 
Q 47.65625 37.796875 51.625 33 
Q 55.609375 28.21875 55.609375 21.1875 
Q 55.609375 10.40625 48.1875 4.484375 
Q 40.765625 -1.421875 27.09375 -1.421875 
Q 22.515625 -1.421875 17.65625 -0.515625 
Q 12.796875 0.390625 7.625 2.203125 
L 7.625 11.71875 
Q 11.71875 9.328125 16.59375 8.109375 
Q 21.484375 6.890625 26.8125 6.890625 
Q 36.078125 6.890625 40.9375 10.546875 
Q 45.796875 14.203125 45.796875 21.1875 
Q 45.796875 27.640625 41.28125 31.265625 
Q 36.765625 34.90625 28.71875 34.90625 
L 20.21875 34.90625 
L 20.21875 43.015625 
L 29.109375 43.015625 
Q 36.375 43.015625 40.234375 45.921875 
Q 44.09375 48.828125 44.09375 54.296875 
Q 44.09375 59.90625 40.109375 62.90625 
Q 36.140625 65.921875 28.71875 65.921875 
Q 24.65625 65.921875 20.015625 65.03125 
Q 15.375 64.15625 9.8125 62.3125 
L 9.8125 71.09375 
Q 15.4375 72.65625 20.34375 73.4375 
Q 25.25 74.21875 29.59375 74.21875 
Q 40.828125 74.21875 47.359375 69.109375 
Q 53.90625 64.015625 53.90625 55.328125 
Q 53.90625 49.265625 50.4375 45.09375 
Q 46.96875 40.921875 40.578125 39.3125 
z
" id="DejaVuSans-33"/>
     <path d="M 8.203125 72.90625 
L 55.078125 72.90625 
L 55.078125 68.703125 
L 28.609375 0 
L 18.3125 0 
L 43.21875 64.59375 
L 8.203125 64.59375 
z
" id="DejaVuSans-37"/>
     <path d="M 10.796875 72.90625 
L 49.515625 72.90625 
L 49.515625 64.59375 
L 19.828125 64.59375 
L 19.828125 46.734375 
Q 21.96875 47.46875 24.109375 47.828125 
Q 26.265625 48.1875 28.421875 48.1875 
Q 40.625 48.1875 47.75 41.5 
Q 54.890625 34.8125 54.890625 23.390625 
Q 54.890625 11.625 47.5625 5.09375 
Q 40.234375 -1.421875 26.90625 -1.421875 
Q 22.3125 -1.421875 17.546875 -0.640625 
Q 12.796875 0.140625 7.71875 1.703125 
L 7.71875 11.625 
Q 12.109375 9.234375 16.796875 8.0625 
Q 21.484375 6.890625 26.703125 6.890625 
Q 35.15625 6.890625 40.078125 11.328125 
Q 45.015625 15.765625 45.015625 23.390625 
Q 45.015625 31 40.078125 35.4375 
Q 35.15625 39.890625 26.703125 39.890625 
Q 22.75 39.890625 18.8125 39.015625 
Q 14.890625 38.140625 10.796875 36.28125 
z
" id="DejaVuSans-35"/>
     <path d="M 11.71875 12.40625 
L 22.015625 12.40625 
L 22.015625 4 
L 14.015625 -11.625 
L 7.71875 -11.625 
L 11.71875 4 
z
" id="DejaVuSans-2c"/>
     <path d="M 16.890625 72.90625 
L 62.984375 72.90625 
L 61.375 64.59375 
L 25.09375 64.59375 
L 20.90625 43.015625 
L 55.71875 43.015625 
L 54.109375 34.71875 
L 19.28125 34.71875 
L 14.203125 8.296875 
L 51.3125 8.296875 
L 49.703125 0 
L 2.6875 0 
z
" id="DejaVuSans-Oblique-45"/>
     <path d="M 16.890625 72.90625 
L 30.171875 72.90625 
L 50.296875 10.40625 
L 62.5 72.90625 
L 72.125 72.90625 
L 57.90625 0 
L 44.578125 0 
L 24.515625 62.890625 
L 12.3125 0 
L 2.6875 0 
z
" id="DejaVuSans-Oblique-4e"/>
     <path d="M 10.59375 45.40625 
L 73.1875 45.40625 
L 73.1875 37.203125 
L 10.59375 37.203125 
z
M 10.59375 25.484375 
L 73.1875 25.484375 
L 73.1875 17.1875 
L 10.59375 17.1875 
z
" id="DejaVuSans-3d"/>
     <path d="M 4.890625 31.390625 
L 31.203125 31.390625 
L 31.203125 23.390625 
L 4.890625 23.390625 
z
" id="DejaVuSans-2d"/>
     <path d="M 12.40625 8.296875 
L 28.515625 8.296875 
L 28.515625 63.921875 
L 10.984375 60.40625 
L 10.984375 69.390625 
L 28.421875 72.90625 
L 38.28125 72.90625 
L 38.28125 8.296875 
L 54.390625 8.296875 
L 54.390625 0 
L 12.40625 0 
z
" id="DejaVuSans-31"/>
     <path d="M 10.984375 1.515625 
L 10.984375 10.5 
Q 14.703125 8.734375 18.5 7.8125 
Q 22.3125 6.890625 25.984375 6.890625 
Q 35.75 6.890625 40.890625 13.453125 
Q 46.046875 20.015625 46.78125 33.40625 
Q 43.953125 29.203125 39.59375 26.953125 
Q 35.25 24.703125 29.984375 24.703125 
Q 19.046875 24.703125 12.671875 31.3125 
Q 6.296875 37.9375 6.296875 49.421875 
Q 6.296875 60.640625 12.9375 67.421875 
Q 19.578125 74.21875 30.609375 74.21875 
Q 43.265625 74.21875 49.921875 64.515625 
Q 56.59375 54.828125 56.59375 36.375 
Q 56.59375 19.140625 48.40625 8.859375 
Q 40.234375 -1.421875 26.421875 -1.421875 
Q 22.703125 -1.421875 18.890625 -0.6875 
Q 15.09375 0.046875 10.984375 1.515625 
z
M 30.609375 32.421875 
Q 37.25 32.421875 41.125 36.953125 
Q 45.015625 41.5 45.015625 49.421875 
Q 45.015625 57.28125 41.125 61.84375 
Q 37.25 66.40625 30.609375 66.40625 
Q 23.96875 66.40625 20.09375 61.84375 
Q 16.21875 57.28125 16.21875 49.421875 
Q 16.21875 41.5 20.09375 36.953125 
Q 23.96875 32.421875 30.609375 32.421875 
z
" id="DejaVuSans-39"/>
     <path d="M 10.6875 12.40625 
L 21 12.40625 
L 21 0 
L 10.6875 0 
z
" id="DejaVuSans-2e"/>
     <path d="M 28.609375 0 
L 0.78125 72.90625 
L 11.078125 72.90625 
L 34.1875 11.53125 
L 57.328125 72.90625 
L 67.578125 72.90625 
L 39.796875 0 
z
" id="DejaVuSans-56"/>
     <path d="M 34.1875 63.1875 
L 14.15625 8.203125 
L 54.25 8.203125 
z
M 0.78125 0 
L 28.609375 72.90625 
L 39.796875 72.90625 
L 67.578125 0 
z
" id="DejaVuSans-394"/>
     <path d="M 9.8125 72.90625 
L 55.90625 72.90625 
L 55.90625 64.59375 
L 19.671875 64.59375 
L 19.671875 43.015625 
L 54.390625 43.015625 
L 54.390625 34.71875 
L 19.671875 34.71875 
L 19.671875 8.296875 
L 56.78125 8.296875 
L 56.78125 0 
L 9.8125 0 
z
" id="DejaVuSans-45"/>
     <path d="M 31.78125 66.40625 
Q 24.171875 66.40625 20.328125 58.90625 
Q 16.5 51.421875 16.5 36.375 
Q 16.5 21.390625 20.328125 13.890625 
Q 24.171875 6.390625 31.78125 6.390625 
Q 39.453125 6.390625 43.28125 13.890625 
Q 47.125 21.390625 47.125 36.375 
Q 47.125 51.421875 43.28125 58.90625 
Q 39.453125 66.40625 31.78125 66.40625 
z
M 31.78125 74.21875 
Q 44.046875 74.21875 50.515625 64.515625 
Q 56.984375 54.828125 56.984375 36.375 
Q 56.984375 17.96875 50.515625 8.265625 
Q 44.046875 -1.421875 31.78125 -1.421875 
Q 19.53125 -1.421875 13.0625 8.265625 
Q 6.59375 17.96875 6.59375 36.375 
Q 6.59375 54.828125 13.0625 64.515625 
Q 19.53125 74.21875 31.78125 74.21875 
z
" id="DejaVuSans-30"/>
     <path d="M 31.78125 34.625 
Q 24.75 34.625 20.71875 30.859375 
Q 16.703125 27.09375 16.703125 20.515625 
Q 16.703125 13.921875 20.71875 10.15625 
Q 24.75 6.390625 31.78125 6.390625 
Q 38.8125 6.390625 42.859375 10.171875 
Q 46.921875 13.96875 46.921875 20.515625 
Q 46.921875 27.09375 42.890625 30.859375 
Q 38.875 34.625 31.78125 34.625 
z
M 21.921875 38.8125 
Q 15.578125 40.375 12.03125 44.71875 
Q 8.5 49.078125 8.5 55.328125 
Q 8.5 64.0625 14.71875 69.140625 
Q 20.953125 74.21875 31.78125 74.21875 
Q 42.671875 74.21875 48.875 69.140625 
Q 55.078125 64.0625 55.078125 55.328125 
Q 55.078125 49.078125 51.53125 44.71875 
Q 48 40.375 41.703125 38.8125 
Q 48.828125 37.15625 52.796875 32.3125 
Q 56.78125 27.484375 56.78125 20.515625 
Q 56.78125 9.90625 50.3125 4.234375 
Q 43.84375 -1.421875 31.78125 -1.421875 
Q 19.734375 -1.421875 13.25 4.234375 
Q 6.78125 9.90625 6.78125 20.515625 
Q 6.78125 27.484375 10.78125 32.3125 
Q 14.796875 37.15625 21.921875 38.8125 
z
M 18.3125 54.390625 
Q 18.3125 48.734375 21.84375 45.5625 
Q 25.390625 42.390625 31.78125 42.390625 
Q 38.140625 42.390625 41.71875 45.5625 
Q 45.3125 48.734375 45.3125 54.390625 
Q 45.3125 60.0625 41.71875 63.234375 
Q 38.140625 66.40625 31.78125 66.40625 
Q 25.390625 66.40625 21.84375 63.234375 
Q 18.3125 60.0625 18.3125 54.390625 
z
" id="DejaVuSans-38"/>
    </defs>
    <g transform="translate(63.228 35.472)scale(0.12 -0.12)">
     <use transform="translate(0 0.78125)" xlink:href="#DejaVuSans-53"/>
     <use transform="translate(63.476562 0.78125)" xlink:href="#DejaVuSans-74"/>
     <use transform="translate(102.685547 0.78125)" xlink:href="#DejaVuSans-72"/>
     <use transform="translate(143.798828 0.78125)" xlink:href="#DejaVuSans-75"/>
     <use transform="translate(207.177734 0.78125)" xlink:href="#DejaVuSans-63"/>
     <use transform="translate(262.158203 0.78125)" xlink:href="#DejaVuSans-74"/>
     <use transform="translate(301.367188 0.78125)" xlink:href="#DejaVuSans-75"/>
     <use transform="translate(364.746094 0.78125)" xlink:href="#DejaVuSans-72"/>
     <use transform="translate(405.859375 0.78125)" xlink:href="#DejaVuSans-65"/>
     <use transform="translate(467.382812 0.78125)" xlink:href="#DejaVuSans-20"/>
     <use transform="translate(499.169922 0.78125)" xlink:href="#DejaVuSans-23"/>
     <use transform="translate(582.958984 0.78125)" xlink:href="#DejaVuSans-32"/>
     <use transform="translate(646.582031 0.78125)" xlink:href="#DejaVuSans-33"/>
     <use transform="translate(710.205078 0.78125)" xlink:href="#DejaVuSans-37"/>
     <use transform="translate(773.828125 0.78125)" xlink:href="#DejaVuSans-35"/>
     <use transform="translate(837.451172 0.78125)" xlink:href="#DejaVuSans-2c"/>
     <use transform="translate(869.238281 0.78125)" xlink:href="#DejaVuSans-20"/>
     <use transform="translate(901.025391 0.78125)" xlink:href="#DejaVuSans-Oblique-45"/>
     <use transform="translate(964.208984 -15.625)scale(0.7)" xlink:href="#DejaVuSans-Oblique-4e"/>
     <use transform="translate(1019.306641 0.78125)" xlink:href="#DejaVuSans-3d"/>
     <use transform="translate(1103.095703 0.78125)" xlink:href="#DejaVuSans-2d"/>
     <use transform="translate(1139.179688 0.78125)" xlink:href="#DejaVuSans-31"/>
     <use transform="translate(1202.802734 0.78125)" xlink:href="#DejaVuSans-37"/>
     <use transform="translate(1266.425781 0.78125)" xlink:href="#DejaVuSans-39"/>
     <use transform="translate(1330.048828 0.78125)" xlink:href="#DejaVuSans-2e"/>
     <use transform="translate(1361.835938 0.78125)" xlink:href="#DejaVuSans-39"/>
     <use transform="translate(1425.458984 0.78125)" xlink:href="#DejaVuSans-31"/>
     <use transform="translate(1489.082031 0.78125)" xlink:href="#DejaVuSans-65"/>
     <use transform="translate(1550.605469 0.78125)" xlink:href="#DejaVuSans-56"/>
     <use transform="translate(1619.013672 0.78125)" xlink:href="#DejaVuSans-2c"/>
     <use transform="translate(1650.800781 0.78125)" xlink:href="#DejaVuSans-20"/>
     <use transform="translate(1682.587891 0.78125)" xlink:href="#DejaVuSans-394"/>
     <use transform="translate(1750.996094 0.78125)" xlink:href="#DejaVuSans-45"/>
     <use transform="translate(1814.179688 0.78125)" xlink:href="#DejaVuSans-3d"/>
     <use transform="translate(1897.96875 0.78125)" xlink:href="#DejaVuSans-2d"/>
     <use transform="translate(1934.052734 0.78125)" xlink:href="#DejaVuSans-30"/>
     <use transform="translate(1997.675781 0.78125)" xlink:href="#DejaVuSans-2e"/>
     <use transform="translate(2029.462891 0.78125)" xlink:href="#DejaVuSans-30"/>
     <use transform="translate(2093.085938 0.78125)" xlink:href="#DejaVuSans-38"/>
     <use transform="translate(2156.708984 0.78125)" xlink:href="#DejaVuSans-65"/>
     <use transform="translate(2218.232422 0.78125)" xlink:href="#DejaVuSans-56"/>
    </g>
   </g>
  </g>
  <g id="axes_2">
   <g id="patch_2">
    <path clip-path="url(#pc71a7e8943)" d="M 361.152 307.584 
L 361.152 306.5445 
L 361.152 42.5115 
L 361.152 41.472 
L 374.4576 41.472 
L 374.4576 42.5115 
L 374.4576 306.5445 
L 374.4576 307.584 
z
" style="fill:#ffffff;stroke:#ffffff;stroke-linejoin:miter;stroke-width:0.01;"/>
   </g>
   <image height="265.68" id="image427a253ef9" transform="scale(1 -1)translate(0 -265.68)" width="12.96" x="361.44" xlink:href="data:image/png;base64,
iVBORw0KGgoAAAANSUhEUgAAABIAAAFxCAYAAAB+2fgXAAAABHNCSVQICAgIfAhkiAAAAeVJREFUeJztncmNw0AQA2ckheYQNv9QLIfQ8ygsCgQ7AEI8+jAs2Puz/94F1LP2ReCsZ18bAWIeZ5XaGRBE7VnbptG+KI101FYyNSiQG2oRITXKNaX9uclOdi2XWjftVE32CZCO2ou5Bj1TcCBr/1zB9ge7Fq0Rg2NM9pvbtG+ua1QgsRYhDy0ISEiNc40BEibbSI0Coj5CBGtkpFbXJiAjNZlrwhuSOv2M1DjXbEdEciBt1JSDDQKKpmZr2rr2j0DBGpXaWEJq3bQzEPIS26r9J+Wzv9Tm8o3aajRXqc3VUXsApKNWjeZq0x4ABVNbm7lrszVigDqP5vIl2+eaT2yfRkL7g+dRcNPqjohkjaCvRVBq0H2U3LQrOJCx9kdTg4B8oxZzzTdqdYHEngjUCAPyUctN9sVRq2sTECW2UKNLd2jVtRmo1A6AhMmWaSRcR8nUdIHUuVb75zJS218EyEitro1At69pIdeSk30Lkw0FktNImGyZRhy1O5galmxd03LUsHWk06jUZiCq+5Wb1kZNN4+wJxJuWt8RAW5am2sYNZ9rYCBzZ3buPKJ2P5Yj4Toy3keyIyJbIxs1rml1byCA84gpch5RQNB7Q0qNMGq2Hy4BXdNR41yz/cEEJfZzUz96r9PoB0okjeQ8y9TkAAAAAElFTkSuQmCC" y="-41.76"/>
   <g id="matplotlib.axis_1"/>
   <g id="matplotlib.axis_2">
    <g id="ytick_1">
     <g id="line2d_1">
      <defs>
       <path d="M 0 0 
L 3.5 0 
" id="m6bcc8ea85b" style="stroke:#000000;stroke-width:0.8;"/>
      </defs>
      <g>
       <use style="stroke:#000000;stroke-width:0.8;" x="374.4576" xlink:href="#m6bcc8ea85b" y="288.600521"/>
      </g>
     </g>
     <g id="text_2">
      <!-- −8.5 -->
      <defs>
       <path d="M 10.59375 35.5 
L 73.1875 35.5 
L 73.1875 27.203125 
L 10.59375 27.203125 
z
" id="DejaVuSans-2212"/>
      </defs>
      <g transform="translate(381.4576 292.39974)scale(0.1 -0.1)">
       <use xlink:href="#DejaVuSans-2212"/>
       <use x="83.789062" xlink:href="#DejaVuSans-38"/>
       <use x="147.412109" xlink:href="#DejaVuSans-2e"/>
       <use x="179.199219" xlink:href="#DejaVuSans-35"/>
      </g>
     </g>
    </g>
    <g id="ytick_2">
     <g id="line2d_2">
      <g>
       <use style="stroke:#000000;stroke-width:0.8;" x="374.4576" xlink:href="#m6bcc8ea85b" y="254.621333"/>
      </g>
     </g>
     <g id="text_3">
      <!-- −8.0 -->
      <g transform="translate(381.4576 258.420552)scale(0.1 -0.1)">
       <use xlink:href="#DejaVuSans-2212"/>
       <use x="83.789062" xlink:href="#DejaVuSans-38"/>
       <use x="147.412109" xlink:href="#DejaVuSans-2e"/>
       <use x="179.199219" xlink:href="#DejaVuSans-30"/>
      </g>
     </g>
    </g>
    <g id="ytick_3">
     <g id="line2d_3">
      <g>
       <use style="stroke:#000000;stroke-width:0.8;" x="374.4576" xlink:href="#m6bcc8ea85b" y="220.642145"/>
      </g>
     </g>
     <g id="text_4">
      <!-- −7.5 -->
      <g transform="translate(381.4576 224.441364)scale(0.1 -0.1)">
       <use xlink:href="#DejaVuSans-2212"/>
       <use x="83.789062" xlink:href="#DejaVuSans-37"/>
       <use x="147.412109" xlink:href="#DejaVuSans-2e"/>
       <use x="179.199219" xlink:href="#DejaVuSans-35"/>
      </g>
     </g>
    </g>
    <g id="ytick_4">
     <g id="line2d_4">
      <g>
       <use style="stroke:#000000;stroke-width:0.8;" x="374.4576" xlink:href="#m6bcc8ea85b" y="186.662957"/>
      </g>
     </g>
     <g id="text_5">
      <!-- −7.0 -->
      <g transform="translate(381.4576 190.462176)scale(0.1 -0.1)">
       <use xlink:href="#DejaVuSans-2212"/>
       <use x="83.789062" xlink:href="#DejaVuSans-37"/>
       <use x="147.412109" xlink:href="#DejaVuSans-2e"/>
       <use x="179.199219" xlink:href="#DejaVuSans-30"/>
      </g>
     </g>
    </g>
    <g id="ytick_5">
     <g id="line2d_5">
      <g>
       <use style="stroke:#000000;stroke-width:0.8;" x="374.4576" xlink:href="#m6bcc8ea85b" y="152.683769"/>
      </g>
     </g>
     <g id="text_6">
      <!-- −6.5 -->
      <defs>
       <path d="M 33.015625 40.375 
Q 26.375 40.375 22.484375 35.828125 
Q 18.609375 31.296875 18.609375 23.390625 
Q 18.609375 15.53125 22.484375 10.953125 
Q 26.375 6.390625 33.015625 6.390625 
Q 39.65625 6.390625 43.53125 10.953125 
Q 47.40625 15.53125 47.40625 23.390625 
Q 47.40625 31.296875 43.53125 35.828125 
Q 39.65625 40.375 33.015625 40.375 
z
M 52.59375 71.296875 
L 52.59375 62.3125 
Q 48.875 64.0625 45.09375 64.984375 
Q 41.3125 65.921875 37.59375 65.921875 
Q 27.828125 65.921875 22.671875 59.328125 
Q 17.53125 52.734375 16.796875 39.40625 
Q 19.671875 43.65625 24.015625 45.921875 
Q 28.375 48.1875 33.59375 48.1875 
Q 44.578125 48.1875 50.953125 41.515625 
Q 57.328125 34.859375 57.328125 23.390625 
Q 57.328125 12.15625 50.6875 5.359375 
Q 44.046875 -1.421875 33.015625 -1.421875 
Q 20.359375 -1.421875 13.671875 8.265625 
Q 6.984375 17.96875 6.984375 36.375 
Q 6.984375 53.65625 15.1875 63.9375 
Q 23.390625 74.21875 37.203125 74.21875 
Q 40.921875 74.21875 44.703125 73.484375 
Q 48.484375 72.75 52.59375 71.296875 
z
" id="DejaVuSans-36"/>
      </defs>
      <g transform="translate(381.4576 156.482987)scale(0.1 -0.1)">
       <use xlink:href="#DejaVuSans-2212"/>
       <use x="83.789062" xlink:href="#DejaVuSans-36"/>
       <use x="147.412109" xlink:href="#DejaVuSans-2e"/>
       <use x="179.199219" xlink:href="#DejaVuSans-35"/>
      </g>
     </g>
    </g>
    <g id="ytick_6">
     <g id="line2d_6">
      <g>
       <use style="stroke:#000000;stroke-width:0.8;" x="374.4576" xlink:href="#m6bcc8ea85b" y="118.70458"/>
      </g>
     </g>
     <g id="text_7">
      <!-- −6.0 -->
      <g transform="translate(381.4576 122.503799)scale(0.1 -0.1)">
       <use xlink:href="#DejaVuSans-2212"/>
       <use x="83.789062" xlink:href="#DejaVuSans-36"/>
       <use x="147.412109" xlink:href="#DejaVuSans-2e"/>
       <use x="179.199219" xlink:href="#DejaVuSans-30"/>
      </g>
     </g>
    </g>
    <g id="ytick_7">
     <g id="line2d_7">
      <g>
       <use style="stroke:#000000;stroke-width:0.8;" x="374.4576" xlink:href="#m6bcc8ea85b" y="84.725392"/>
      </g>
     </g>
     <g id="text_8">
      <!-- −5.5 -->
      <g transform="translate(381.4576 88.524611)scale(0.1 -0.1)">
       <use xlink:href="#DejaVuSans-2212"/>
       <use x="83.789062" xlink:href="#DejaVuSans-35"/>
       <use x="147.412109" xlink:href="#DejaVuSans-2e"/>
       <use x="179.199219" xlink:href="#DejaVuSans-35"/>
      </g>
     </g>
    </g>
    <g id="ytick_8">
     <g id="line2d_8">
      <g>
       <use style="stroke:#000000;stroke-width:0.8;" x="374.4576" xlink:href="#m6bcc8ea85b" y="50.746204"/>
      </g>
     </g>
     <g id="text_9">
      <!-- −5.0 -->
      <g transform="translate(381.4576 54.545423)scale(0.1 -0.1)">
       <use xlink:href="#DejaVuSans-2212"/>
       <use x="83.789062" xlink:href="#DejaVuSans-35"/>
       <use x="147.412109" xlink:href="#DejaVuSans-2e"/>
       <use x="179.199219" xlink:href="#DejaVuSans-30"/>
      </g>
     </g>
    </g>
    <g id="text_10">
     <!-- Energy [eV] -->
     <defs>
      <path d="M 54.890625 33.015625 
L 54.890625 0 
L 45.90625 0 
L 45.90625 32.71875 
Q 45.90625 40.484375 42.875 44.328125 
Q 39.84375 48.1875 33.796875 48.1875 
Q 26.515625 48.1875 22.3125 43.546875 
Q 18.109375 38.921875 18.109375 30.90625 
L 18.109375 0 
L 9.078125 0 
L 9.078125 54.6875 
L 18.109375 54.6875 
L 18.109375 46.1875 
Q 21.34375 51.125 25.703125 53.5625 
Q 30.078125 56 35.796875 56 
Q 45.21875 56 50.046875 50.171875 
Q 54.890625 44.34375 54.890625 33.015625 
z
" id="DejaVuSans-6e"/>
      <path d="M 45.40625 27.984375 
Q 45.40625 37.75 41.375 43.109375 
Q 37.359375 48.484375 30.078125 48.484375 
Q 22.859375 48.484375 18.828125 43.109375 
Q 14.796875 37.75 14.796875 27.984375 
Q 14.796875 18.265625 18.828125 12.890625 
Q 22.859375 7.515625 30.078125 7.515625 
Q 37.359375 7.515625 41.375 12.890625 
Q 45.40625 18.265625 45.40625 27.984375 
z
M 54.390625 6.78125 
Q 54.390625 -7.171875 48.1875 -13.984375 
Q 42 -20.796875 29.203125 -20.796875 
Q 24.46875 -20.796875 20.265625 -20.09375 
Q 16.0625 -19.390625 12.109375 -17.921875 
L 12.109375 -9.1875 
Q 16.0625 -11.328125 19.921875 -12.34375 
Q 23.78125 -13.375 27.78125 -13.375 
Q 36.625 -13.375 41.015625 -8.765625 
Q 45.40625 -4.15625 45.40625 5.171875 
L 45.40625 9.625 
Q 42.625 4.78125 38.28125 2.390625 
Q 33.9375 0 27.875 0 
Q 17.828125 0 11.671875 7.65625 
Q 5.515625 15.328125 5.515625 27.984375 
Q 5.515625 40.671875 11.671875 48.328125 
Q 17.828125 56 27.875 56 
Q 33.9375 56 38.28125 53.609375 
Q 42.625 51.21875 45.40625 46.390625 
L 45.40625 54.6875 
L 54.390625 54.6875 
z
" id="DejaVuSans-67"/>
      <path d="M 32.171875 -5.078125 
Q 28.375 -14.84375 24.75 -17.8125 
Q 21.140625 -20.796875 15.09375 -20.796875 
L 7.90625 -20.796875 
L 7.90625 -13.28125 
L 13.1875 -13.28125 
Q 16.890625 -13.28125 18.9375 -11.515625 
Q 21 -9.765625 23.484375 -3.21875 
L 25.09375 0.875 
L 2.984375 54.6875 
L 12.5 54.6875 
L 29.59375 11.921875 
L 46.6875 54.6875 
L 56.203125 54.6875 
z
" id="DejaVuSans-79"/>
      <path d="M 8.59375 75.984375 
L 29.296875 75.984375 
L 29.296875 69 
L 17.578125 69 
L 17.578125 -6.203125 
L 29.296875 -6.203125 
L 29.296875 -13.1875 
L 8.59375 -13.1875 
z
" id="DejaVuSans-5b"/>
      <path d="M 30.421875 75.984375 
L 30.421875 -13.1875 
L 9.71875 -13.1875 
L 9.71875 -6.203125 
L 21.390625 -6.203125 
L 21.390625 69 
L 9.71875 69 
L 9.71875 75.984375 
z
" id="DejaVuSans-5d"/>
     </defs>
     <g transform="translate(417.33885 204.108469)rotate(-90)scale(0.1 -0.1)">
      <use xlink:href="#DejaVuSans-45"/>
      <use x="63.183594" xlink:href="#DejaVuSans-6e"/>
      <use x="126.5625" xlink:href="#DejaVuSans-65"/>
      <use x="188.085938" xlink:href="#DejaVuSans-72"/>
      <use x="229.183594" xlink:href="#DejaVuSans-67"/>
      <use x="292.660156" xlink:href="#DejaVuSans-79"/>
      <use x="351.839844" xlink:href="#DejaVuSans-20"/>
      <use x="383.626953" xlink:href="#DejaVuSans-5b"/>
      <use x="422.640625" xlink:href="#DejaVuSans-65"/>
      <use x="484.164062" xlink:href="#DejaVuSans-56"/>
      <use x="552.572266" xlink:href="#DejaVuSans-5d"/>
     </g>
    </g>
   </g>
   <g id="patch_3">
    <path d="M 361.152 307.584 
L 361.152 306.5445 
L 361.152 42.5115 
L 361.152 41.472 
L 374.4576 41.472 
L 374.4576 42.5115 
L 374.4576 306.5445 
L 374.4576 307.584 
z
" style="fill:none;stroke:#000000;stroke-linejoin:miter;stroke-width:0.8;"/>
   </g>
  </g>
 </g>
 <defs>
  <clipPath id="p8936714ffc">
   <rect height="266.112" width="285.696" x="57.6" y="41.472"/>
  </clipPath>
  <clipPath id="pc71a7e8943">
   <rect height="266.112" width="13.3056" x="361.152" y="41.472"/>
  </clipPath>
 </defs>
</svg>
