<?xml version="1.0" encoding="utf-8" standalone="no"?>
<!DOCTYPE svg PUBLIC "-//W3C//DTD SVG 1.1//EN"
  "http://www.w3.org/Graphics/SVG/1.1/DTD/svg11.dtd">
<!-- Created with matplotlib (http://matplotlib.org/) -->
<svg height="345.6pt" version="1.1" viewBox="0 0 460.8 345.6" width="460.8pt" xmlns="http://www.w3.org/2000/svg" xmlns:xlink="http://www.w3.org/1999/xlink">
 <defs>
  <style type="text/css">
*{stroke-linecap:butt;stroke-linejoin:round;}
  </style>
 </defs>
 <g id="figure_1">
  <g id="patch_1">
   <path d="M 0 345.6 
L 460.8 345.6 
L 460.8 0 
L 0 0 
z
" style="fill:#ffffff;"/>
  </g>
  <g id="axes_1">
   <g id="CircleCollection_1">
    <path clip-path="url(#p1b0de381b6)" d="M 155.672089 95.323788 
C 157.411005 95.323788 159.078934 94.632909 160.308533 93.40331 
C 161.538132 92.173711 162.22901 90.505782 162.22901 88.766867 
C 162.22901 87.027951 161.538132 85.360023 160.308533 84.130423 
C 159.078934 82.900824 157.411005 82.209946 155.672089 82.209946 
C 153.933174 82.209946 152.265245 82.900824 151.035646 84.130423 
C 149.806047 85.360023 149.115169 87.027951 149.115169 88.766867 
C 149.115169 90.505782 149.806047 92.173711 151.035646 93.40331 
C 152.265245 94.632909 153.933174 95.323788 155.672089 95.323788 
z
" style="fill:#31688e;"/>
    <path clip-path="url(#p1b0de381b6)" d="M 189.883535 129.286093 
C 191.582107 129.286093 193.211338 128.611243 194.41241 127.410172 
C 195.613481 126.2091 196.288331 124.579869 196.288331 122.881297 
C 196.288331 121.182726 195.613481 119.553494 194.41241 118.352423 
C 193.211338 117.151351 191.582107 116.476502 189.883535 116.476502 
C 188.184964 116.476502 186.555732 117.151351 185.354661 118.352423 
C 184.153589 119.553494 183.47874 121.182726 183.47874 122.881297 
C 183.47874 124.579869 184.153589 126.2091 185.354661 127.410172 
C 186.555732 128.611243 188.184964 129.286093 189.883535 129.286093 
z
" style="fill:#472f7d;"/>
    <path clip-path="url(#p1b0de381b6)" d="M 71.020163 163.717561 
C 72.741841 163.717561 74.393237 163.033531 75.610647 161.81612 
C 76.828058 160.59871 77.512088 158.947314 77.512088 157.225636 
C 77.512088 155.503957 76.828058 153.852562 75.610647 152.635151 
C 74.393237 151.41774 72.741841 150.73371 71.020163 150.73371 
C 69.298484 150.73371 67.647089 151.41774 66.429678 152.635151 
C 65.212267 153.852562 64.528237 155.503957 64.528237 157.225636 
C 64.528237 158.947314 65.212267 160.59871 66.429678 161.81612 
C 67.647089 163.033531 69.298484 163.717561 71.020163 163.717561 
z
" style="fill:#5ec962;"/>
    <path clip-path="url(#p1b0de381b6)" d="M 218.740634 281.845279 
C 220.521638 281.845279 222.229936 281.137679 223.489295 279.878319 
C 224.748655 278.61896 225.456256 276.910661 225.456256 275.129658 
C 225.456256 273.348654 224.748655 271.640356 223.489295 270.380996 
C 222.229936 269.121636 220.521638 268.414036 218.740634 268.414036 
C 216.95963 268.414036 215.251332 269.121636 213.991972 270.380996 
C 212.732612 271.640356 212.025012 273.348654 212.025012 275.129658 
C 212.025012 276.910661 212.732612 278.61896 213.991972 279.878319 
C 215.251332 281.137679 216.95963 281.845279 218.740634 281.845279 
z
" style="fill:#472c7a;"/>
    <path clip-path="url(#p1b0de381b6)" d="M 111.610421 234.619844 
C 113.409765 234.619844 115.135654 233.904957 116.407983 232.632629 
C 117.680311 231.360301 118.395198 229.634411 118.395198 227.835067 
C 118.395198 226.035723 117.680311 224.309833 116.407983 223.037505 
C 115.135654 221.765176 113.409765 221.05029 111.610421 221.05029 
C 109.811077 221.05029 108.085187 221.765176 106.812858 223.037505 
C 105.54053 224.309833 104.825643 226.035723 104.825643 227.835067 
C 104.825643 229.634411 105.54053 231.360301 106.812858 232.632629 
C 108.085187 233.904957 109.811077 234.619844 111.610421 234.619844 
z
" style="fill:#1f948c;"/>
    <path clip-path="url(#p1b0de381b6)" d="M 246.030369 194.159456 
C 247.76928 194.159456 249.437203 193.468579 250.666798 192.238984 
C 251.896393 191.009389 252.587269 189.341466 252.587269 187.602556 
C 252.587269 185.863645 251.896393 184.195722 250.666798 182.966127 
C 249.437203 181.736532 247.76928 181.045656 246.030369 181.045656 
C 244.291459 181.045656 242.623536 181.736532 241.393941 182.966127 
C 240.164346 184.195722 239.473469 185.863645 239.473469 187.602556 
C 239.473469 189.341466 240.164346 191.009389 241.393941 192.238984 
C 242.623536 193.468579 244.291459 194.159456 246.030369 194.159456 
z
" style="fill:#481c6e;"/>
    <path clip-path="url(#p1b0de381b6)" d="M 329.836502 136.160621 
C 331.714232 136.160621 333.515308 135.414591 334.843063 134.086836 
C 336.170819 132.75908 336.916849 130.958004 336.916849 129.080274 
C 336.916849 127.202544 336.170819 125.401468 334.843063 124.073713 
C 333.515308 122.745957 331.714232 121.999927 329.836502 121.999927 
C 327.958772 121.999927 326.157696 122.745957 324.82994 124.073713 
C 323.502185 125.401468 322.756155 127.202544 322.756155 129.080274 
C 322.756155 130.958004 323.502185 132.75908 324.82994 134.086836 
C 326.157696 135.414591 327.958772 136.160621 329.836502 136.160621 
z
" style="fill:#a8db34;"/>
    <path clip-path="url(#p1b0de381b6)" d="M 249.197749 100.324699 
C 250.999586 100.324699 252.727868 99.608821 254.00196 98.334729 
C 255.276051 97.060638 255.991929 95.332356 255.991929 93.530519 
C 255.991929 91.728681 255.276051 90.0004 254.00196 88.726308 
C 252.727868 87.452217 250.999586 86.736339 249.197749 86.736339 
C 247.395911 86.736339 245.66763 87.452217 244.393538 88.726308 
C 243.119447 90.0004 242.403569 91.728681 242.403569 93.530519 
C 242.403569 95.332356 243.119447 97.060638 244.393538 98.334729 
C 245.66763 99.608821 247.395911 100.324699 249.197749 100.324699 
z
" style="fill:#440154;"/>
    <path clip-path="url(#p1b0de381b6)" d="M 175.436971 61.641985 
C 177.234875 61.641985 178.959384 60.92767 180.230694 59.65636 
C 181.502005 58.38505 182.21632 56.660541 182.21632 54.862636 
C 182.21632 53.064732 181.502005 51.340223 180.230694 50.068913 
C 178.959384 48.797603 177.234875 48.083288 175.436971 48.083288 
C 173.639067 48.083288 171.914558 48.797603 170.643247 50.068913 
C 169.371937 51.340223 168.657622 53.064732 168.657622 54.862636 
C 168.657622 56.660541 169.371937 58.38505 170.643247 59.65636 
C 171.914558 60.92767 173.639067 61.641985 175.436971 61.641985 
z
" style="fill:#1f958b;"/>
    <path clip-path="url(#p1b0de381b6)" d="M 159.425016 171.730955 
C 161.101637 171.730955 162.709813 171.064827 163.895363 169.879277 
C 165.080913 168.693727 165.747042 167.08555 165.747042 165.408929 
C 165.747042 163.732309 165.080913 162.124132 163.895363 160.938582 
C 162.709813 159.753032 161.101637 159.086904 159.425016 159.086904 
C 157.748395 159.086904 156.140219 159.753032 154.954669 160.938582 
C 153.769119 162.124132 153.10299 163.732309 153.10299 165.408929 
C 153.10299 167.08555 153.769119 168.693727 154.954669 169.879277 
C 156.140219 171.064827 157.748395 171.730955 159.425016 171.730955 
z
" style="fill:#424186;"/>
    <path clip-path="url(#p1b0de381b6)" d="M 274.951005 217.619312 
C 276.756256 217.619312 278.487813 216.902078 279.764319 215.625572 
C 281.040824 214.349066 281.758059 212.61751 281.758059 210.812258 
C 281.758059 209.007006 281.040824 207.27545 279.764319 205.998944 
C 278.487813 204.722438 276.756256 204.005204 274.951005 204.005204 
C 273.145753 204.005204 271.414197 204.722438 270.137691 205.998944 
C 268.861185 207.27545 268.143951 209.007006 268.143951 210.812258 
C 268.143951 212.61751 268.861185 214.349066 270.137691 215.625572 
C 271.414197 216.902078 273.145753 217.619312 274.951005 217.619312 
z
" style="fill:#440256;"/>
    <path clip-path="url(#p1b0de381b6)" d="M 258.216394 269.456533 
C 260.043613 269.456533 261.796239 268.730571 263.088278 267.438533 
C 264.380316 266.146494 265.106278 264.393868 265.106278 262.566649 
C 265.106278 260.73943 264.380316 258.986804 263.088278 257.694765 
C 261.796239 256.402726 260.043613 255.676765 258.216394 255.676765 
C 256.389175 255.676765 254.636549 256.402726 253.34451 257.694765 
C 252.052471 258.986804 251.32651 260.73943 251.32651 262.566649 
C 251.32651 264.393868 252.052471 266.146494 253.34451 267.438533 
C 254.636549 268.730571 256.389175 269.456533 258.216394 269.456533 
z
" style="fill:#fde725;"/>
    <path clip-path="url(#p1b0de381b6)" d="M 122.450495 143.000947 
C 124.175923 143.000947 125.830915 142.315427 127.050977 141.095365 
C 128.271039 139.875303 128.956559 138.220311 128.956559 136.494883 
C 128.956559 134.769454 128.271039 133.114462 127.050977 131.8944 
C 125.830915 130.674338 124.175923 129.988818 122.450495 129.988818 
C 120.725066 129.988818 119.070074 130.674338 117.850012 131.8944 
C 116.62995 133.114462 115.94443 134.769454 115.94443 136.494883 
C 115.94443 138.220311 116.62995 139.875303 117.850012 141.095365 
C 119.070074 142.315427 120.725066 143.000947 122.450495 143.000947 
z
" style="fill:#32658e;"/>
    <path clip-path="url(#p1b0de381b6)" d="M 171.344702 225.972072 
C 173.034893 225.972072 174.656085 225.300552 175.85123 224.105407 
C 177.046376 222.910261 177.717896 221.289069 177.717896 219.598878 
C 177.717896 217.908688 177.046376 216.287495 175.85123 215.09235 
C 174.656085 213.897205 173.034893 213.225685 171.344702 213.225685 
C 169.654512 213.225685 168.033319 213.897205 166.838174 215.09235 
C 165.643029 216.287495 164.971509 217.908688 164.971509 219.598878 
C 164.971509 221.289069 165.643029 222.910261 166.838174 224.105407 
C 168.033319 225.300552 169.654512 225.972072 171.344702 225.972072 
z
" style="fill:#481b6d;"/>
    <path clip-path="url(#p1b0de381b6)" d="M 102.16938 177.330818 
C 103.962295 177.330818 105.682018 176.618486 106.949801 175.350703 
C 108.217583 174.082921 108.929916 172.363198 108.929916 170.570283 
C 108.929916 168.777367 108.217583 167.057644 106.949801 165.789862 
C 105.682018 164.522079 103.962295 163.809747 102.16938 163.809747 
C 100.376465 163.809747 98.656742 164.522079 97.388959 165.789862 
C 96.121177 167.057644 95.408844 168.777367 95.408844 170.570283 
C 95.408844 172.363198 96.121177 174.082921 97.388959 175.350703 
C 98.656742 176.618486 100.376465 177.330818 102.16938 177.330818 
z
" style="fill:#1e9b8a;"/>
    <path clip-path="url(#p1b0de381b6)" d="M 144.107885 264.920724 
C 145.852468 264.920724 147.525833 264.227593 148.759439 262.993987 
C 149.993046 261.76038 150.686176 260.087015 150.686176 258.342432 
C 150.686176 256.597849 149.993046 254.924484 148.759439 253.690878 
C 147.525833 252.457271 145.852468 251.764141 144.107885 251.764141 
C 142.363302 251.764141 140.689937 252.457271 139.456331 253.690878 
C 138.222724 254.924484 137.529594 256.597849 137.529594 258.342432 
C 137.529594 260.087015 138.222724 261.76038 139.456331 262.993987 
C 140.689937 264.227593 142.363302 264.920724 144.107885 264.920724 
z
" style="fill:#404688;"/>
    <path clip-path="url(#p1b0de381b6)" d="M 90.189687 268.938073 
C 91.925381 268.938073 93.590219 268.248474 94.81754 267.021153 
C 96.044861 265.793832 96.73446 264.128994 96.73446 262.3933 
C 96.73446 260.657606 96.044861 258.992768 94.81754 257.765447 
C 93.590219 256.538126 91.925381 255.848527 90.189687 255.848527 
C 88.453993 255.848527 86.789155 256.538126 85.561834 257.765447 
C 84.334513 258.992768 83.644914 260.657606 83.644914 262.3933 
C 83.644914 264.128994 84.334513 265.793832 85.561834 267.021153 
C 86.789155 268.248474 88.453993 268.938073 90.189687 268.938073 
z
" style="fill:#52c569;"/>
    <path clip-path="url(#p1b0de381b6)" d="M 74.972221 218.980803 
C 76.676421 218.980803 78.311051 218.303717 79.516103 217.098666 
C 80.721154 215.893614 81.39824 214.258984 81.39824 212.554784 
C 81.39824 210.850584 80.721154 209.215954 79.516103 208.010903 
C 78.311051 206.805851 76.676421 206.128765 74.972221 206.128765 
C 73.268021 206.128765 71.633391 206.805851 70.42834 208.010903 
C 69.223288 209.215954 68.546203 210.850584 68.546203 212.554784 
C 68.546203 214.258984 69.223288 215.893614 70.42834 217.098666 
C 71.633391 218.303717 73.268021 218.980803 74.972221 218.980803 
z
" style="fill:#90d743;"/>
    <path clip-path="url(#p1b0de381b6)" d="M 216.332607 61.186766 
C 218.152995 61.186766 219.89907 60.463518 221.186279 59.176309 
C 222.473487 57.8891 223.196735 56.143026 223.196735 54.322638 
C 223.196735 52.50225 222.473487 50.756175 221.186279 49.468966 
C 219.89907 48.181757 218.152995 47.45851 216.332607 47.45851 
C 214.512219 47.45851 212.766144 48.181757 211.478936 49.468966 
C 210.191727 50.756175 209.468479 52.50225 209.468479 54.322638 
C 209.468479 56.143026 210.191727 57.8891 211.478936 59.176309 
C 212.766144 60.463518 214.512219 61.186766 216.332607 61.186766 
z
" style="fill:#2db27d;"/>
    <path clip-path="url(#p1b0de381b6)" d="M 175.915178 301.494491 
C 177.704877 301.494491 179.421514 300.783436 180.687022 299.517928 
C 181.95253 298.252421 182.663584 296.535783 182.663584 294.746085 
C 182.663584 292.956387 181.95253 291.239749 180.687022 289.974241 
C 179.421514 288.708733 177.704877 287.997679 175.915178 287.997679 
C 174.12548 287.997679 172.408842 288.708733 171.143335 289.974241 
C 169.877827 291.239749 169.166772 292.956387 169.166772 294.746085 
C 169.166772 296.535783 169.877827 298.252421 171.143335 299.517928 
C 172.408842 300.783436 174.12548 301.494491 175.915178 301.494491 
z
" style="fill:#fde725;"/>
    <path clip-path="url(#p1b0de381b6)" d="M 300.862537 176.404081 
C 302.706453 176.404081 304.475094 175.671486 305.778939 174.367641 
C 307.082784 173.063796 307.815379 171.295155 307.815379 169.45124 
C 307.815379 167.607324 307.082784 165.838683 305.778939 164.534838 
C 304.475094 163.230993 302.706453 162.498398 300.862537 162.498398 
C 299.018622 162.498398 297.249981 163.230993 295.946136 164.534838 
C 294.642291 165.838683 293.909696 167.607324 293.909696 169.45124 
C 293.909696 171.295155 294.642291 173.063796 295.946136 174.367641 
C 297.249981 175.671486 299.018622 176.404081 300.862537 176.404081 
z
" style="fill:#2c738e;"/>
    <path clip-path="url(#p1b0de381b6)" d="M 288.117068 120.751788 
C 289.959074 120.751788 291.725883 120.019952 293.028378 118.717457 
C 294.330873 117.414962 295.062709 115.648152 295.062709 113.806147 
C 295.062709 111.964141 294.330873 110.197331 293.028378 108.894837 
C 291.725883 107.592342 289.959074 106.860505 288.117068 106.860505 
C 286.275062 106.860505 284.508252 107.592342 283.205758 108.894837 
C 281.903263 110.197331 281.171426 111.964141 281.171426 113.806147 
C 281.171426 115.648152 281.903263 117.414962 283.205758 118.717457 
C 284.508252 120.019952 286.275062 120.751788 288.117068 120.751788 
z
" style="fill:#2a778e;"/>
    <path clip-path="url(#p1b0de381b6)" d="M 232.776671 138.001609 
C 234.512384 138.001609 236.177239 137.312003 237.404573 136.084669 
C 238.631907 134.857335 239.321513 133.19248 239.321513 131.456767 
C 239.321513 129.721055 238.631907 128.056199 237.404573 126.828865 
C 236.177239 125.601531 234.512384 124.911925 232.776671 124.911925 
C 231.040959 124.911925 229.376103 125.601531 228.148769 126.828865 
C 226.921435 128.056199 226.231829 129.721055 226.231829 131.456767 
C 226.231829 133.19248 226.921435 134.857335 228.148769 136.084669 
C 229.376103 137.312003 231.040959 138.001609 232.776671 138.001609 
z
" style="fill:#471365;"/>
    <path clip-path="url(#p1b0de381b6)" d="M 215.648042 235.876572 
C 217.363861 235.876572 219.009635 235.19487 220.222902 233.981603 
C 221.436169 232.768336 222.117871 231.122561 222.117871 229.406743 
C 222.117871 227.690924 221.436169 226.045149 220.222902 224.831882 
C 219.009635 223.618615 217.363861 222.936913 215.648042 222.936913 
C 213.932223 222.936913 212.286448 223.618615 211.073181 224.831882 
C 209.859914 226.045149 209.178212 227.690924 209.178212 229.406743 
C 209.178212 231.122561 209.859914 232.768336 211.073181 233.981603 
C 212.286448 235.19487 213.932223 235.876572 215.648042 235.876572 
z
" style="fill:#472f7d;"/>
   </g>
   <g id="text_1">
    <!-- Structure #10321, $E_N$=-178.86eV, ΔE=-0.06eV -->
    <defs>
     <path d="M 53.515625 70.515625 
L 53.515625 60.890625 
Q 47.90625 63.578125 42.921875 64.890625 
Q 37.9375 66.21875 33.296875 66.21875 
Q 25.25 66.21875 20.875 63.09375 
Q 16.5 59.96875 16.5 54.203125 
Q 16.5 49.359375 19.40625 46.890625 
Q 22.3125 44.4375 30.421875 42.921875 
L 36.375 41.703125 
Q 47.40625 39.59375 52.65625 34.296875 
Q 57.90625 29 57.90625 20.125 
Q 57.90625 9.515625 50.796875 4.046875 
Q 43.703125 -1.421875 29.984375 -1.421875 
Q 24.8125 -1.421875 18.96875 -0.25 
Q 13.140625 0.921875 6.890625 3.21875 
L 6.890625 13.375 
Q 12.890625 10.015625 18.65625 8.296875 
Q 24.421875 6.59375 29.984375 6.59375 
Q 38.421875 6.59375 43.015625 9.90625 
Q 47.609375 13.234375 47.609375 19.390625 
Q 47.609375 24.75 44.3125 27.78125 
Q 41.015625 30.8125 33.5 32.328125 
L 27.484375 33.5 
Q 16.453125 35.6875 11.515625 40.375 
Q 6.59375 45.0625 6.59375 53.421875 
Q 6.59375 63.09375 13.40625 68.65625 
Q 20.21875 74.21875 32.171875 74.21875 
Q 37.3125 74.21875 42.625 73.28125 
Q 47.953125 72.359375 53.515625 70.515625 
z
" id="DejaVuSans-53"/>
     <path d="M 18.3125 70.21875 
L 18.3125 54.6875 
L 36.8125 54.6875 
L 36.8125 47.703125 
L 18.3125 47.703125 
L 18.3125 18.015625 
Q 18.3125 11.328125 20.140625 9.421875 
Q 21.96875 7.515625 27.59375 7.515625 
L 36.8125 7.515625 
L 36.8125 0 
L 27.59375 0 
Q 17.1875 0 13.234375 3.875 
Q 9.28125 7.765625 9.28125 18.015625 
L 9.28125 47.703125 
L 2.6875 47.703125 
L 2.6875 54.6875 
L 9.28125 54.6875 
L 9.28125 70.21875 
z
" id="DejaVuSans-74"/>
     <path d="M 41.109375 46.296875 
Q 39.59375 47.171875 37.8125 47.578125 
Q 36.03125 48 33.890625 48 
Q 26.265625 48 22.1875 43.046875 
Q 18.109375 38.09375 18.109375 28.8125 
L 18.109375 0 
L 9.078125 0 
L 9.078125 54.6875 
L 18.109375 54.6875 
L 18.109375 46.1875 
Q 20.953125 51.171875 25.484375 53.578125 
Q 30.03125 56 36.53125 56 
Q 37.453125 56 38.578125 55.875 
Q 39.703125 55.765625 41.0625 55.515625 
z
" id="DejaVuSans-72"/>
     <path d="M 8.5 21.578125 
L 8.5 54.6875 
L 17.484375 54.6875 
L 17.484375 21.921875 
Q 17.484375 14.15625 20.5 10.265625 
Q 23.53125 6.390625 29.59375 6.390625 
Q 36.859375 6.390625 41.078125 11.03125 
Q 45.3125 15.671875 45.3125 23.6875 
L 45.3125 54.6875 
L 54.296875 54.6875 
L 54.296875 0 
L 45.3125 0 
L 45.3125 8.40625 
Q 42.046875 3.421875 37.71875 1 
Q 33.40625 -1.421875 27.6875 -1.421875 
Q 18.265625 -1.421875 13.375 4.4375 
Q 8.5 10.296875 8.5 21.578125 
z
M 31.109375 56 
z
" id="DejaVuSans-75"/>
     <path d="M 48.78125 52.59375 
L 48.78125 44.1875 
Q 44.96875 46.296875 41.140625 47.34375 
Q 37.3125 48.390625 33.40625 48.390625 
Q 24.65625 48.390625 19.8125 42.84375 
Q 14.984375 37.3125 14.984375 27.296875 
Q 14.984375 17.28125 19.8125 11.734375 
Q 24.65625 6.203125 33.40625 6.203125 
Q 37.3125 6.203125 41.140625 7.25 
Q 44.96875 8.296875 48.78125 10.40625 
L 48.78125 2.09375 
Q 45.015625 0.34375 40.984375 -0.53125 
Q 36.96875 -1.421875 32.421875 -1.421875 
Q 20.0625 -1.421875 12.78125 6.34375 
Q 5.515625 14.109375 5.515625 27.296875 
Q 5.515625 40.671875 12.859375 48.328125 
Q 20.21875 56 33.015625 56 
Q 37.15625 56 41.109375 55.140625 
Q 45.0625 54.296875 48.78125 52.59375 
z
" id="DejaVuSans-63"/>
     <path d="M 56.203125 29.59375 
L 56.203125 25.203125 
L 14.890625 25.203125 
Q 15.484375 15.921875 20.484375 11.0625 
Q 25.484375 6.203125 34.421875 6.203125 
Q 39.59375 6.203125 44.453125 7.46875 
Q 49.3125 8.734375 54.109375 11.28125 
L 54.109375 2.78125 
Q 49.265625 0.734375 44.1875 -0.34375 
Q 39.109375 -1.421875 33.890625 -1.421875 
Q 20.796875 -1.421875 13.15625 6.1875 
Q 5.515625 13.8125 5.515625 26.8125 
Q 5.515625 40.234375 12.765625 48.109375 
Q 20.015625 56 32.328125 56 
Q 43.359375 56 49.78125 48.890625 
Q 56.203125 41.796875 56.203125 29.59375 
z
M 47.21875 32.234375 
Q 47.125 39.59375 43.09375 43.984375 
Q 39.0625 48.390625 32.421875 48.390625 
Q 24.90625 48.390625 20.390625 44.140625 
Q 15.875 39.890625 15.1875 32.171875 
z
" id="DejaVuSans-65"/>
     <path id="DejaVuSans-20"/>
     <path d="M 51.125 44 
L 36.921875 44 
L 32.8125 27.6875 
L 47.125 27.6875 
z
M 43.796875 71.78125 
L 38.71875 51.515625 
L 52.984375 51.515625 
L 58.109375 71.78125 
L 65.921875 71.78125 
L 60.890625 51.515625 
L 76.125 51.515625 
L 76.125 44 
L 58.984375 44 
L 54.984375 27.6875 
L 70.515625 27.6875 
L 70.515625 20.21875 
L 53.078125 20.21875 
L 48 0 
L 40.1875 0 
L 45.21875 20.21875 
L 30.90625 20.21875 
L 25.875 0 
L 18.015625 0 
L 23.09375 20.21875 
L 7.71875 20.21875 
L 7.71875 27.6875 
L 24.90625 27.6875 
L 29 44 
L 13.28125 44 
L 13.28125 51.515625 
L 30.90625 51.515625 
L 35.890625 71.78125 
z
" id="DejaVuSans-23"/>
     <path d="M 12.40625 8.296875 
L 28.515625 8.296875 
L 28.515625 63.921875 
L 10.984375 60.40625 
L 10.984375 69.390625 
L 28.421875 72.90625 
L 38.28125 72.90625 
L 38.28125 8.296875 
L 54.390625 8.296875 
L 54.390625 0 
L 12.40625 0 
z
" id="DejaVuSans-31"/>
     <path d="M 31.78125 66.40625 
Q 24.171875 66.40625 20.328125 58.90625 
Q 16.5 51.421875 16.5 36.375 
Q 16.5 21.390625 20.328125 13.890625 
Q 24.171875 6.390625 31.78125 6.390625 
Q 39.453125 6.390625 43.28125 13.890625 
Q 47.125 21.390625 47.125 36.375 
Q 47.125 51.421875 43.28125 58.90625 
Q 39.453125 66.40625 31.78125 66.40625 
z
M 31.78125 74.21875 
Q 44.046875 74.21875 50.515625 64.515625 
Q 56.984375 54.828125 56.984375 36.375 
Q 56.984375 17.96875 50.515625 8.265625 
Q 44.046875 -1.421875 31.78125 -1.421875 
Q 19.53125 -1.421875 13.0625 8.265625 
Q 6.59375 17.96875 6.59375 36.375 
Q 6.59375 54.828125 13.0625 64.515625 
Q 19.53125 74.21875 31.78125 74.21875 
z
" id="DejaVuSans-30"/>
     <path d="M 40.578125 39.3125 
Q 47.65625 37.796875 51.625 33 
Q 55.609375 28.21875 55.609375 21.1875 
Q 55.609375 10.40625 48.1875 4.484375 
Q 40.765625 -1.421875 27.09375 -1.421875 
Q 22.515625 -1.421875 17.65625 -0.515625 
Q 12.796875 0.390625 7.625 2.203125 
L 7.625 11.71875 
Q 11.71875 9.328125 16.59375 8.109375 
Q 21.484375 6.890625 26.8125 6.890625 
Q 36.078125 6.890625 40.9375 10.546875 
Q 45.796875 14.203125 45.796875 21.1875 
Q 45.796875 27.640625 41.28125 31.265625 
Q 36.765625 34.90625 28.71875 34.90625 
L 20.21875 34.90625 
L 20.21875 43.015625 
L 29.109375 43.015625 
Q 36.375 43.015625 40.234375 45.921875 
Q 44.09375 48.828125 44.09375 54.296875 
Q 44.09375 59.90625 40.109375 62.90625 
Q 36.140625 65.921875 28.71875 65.921875 
Q 24.65625 65.921875 20.015625 65.03125 
Q 15.375 64.15625 9.8125 62.3125 
L 9.8125 71.09375 
Q 15.4375 72.65625 20.34375 73.4375 
Q 25.25 74.21875 29.59375 74.21875 
Q 40.828125 74.21875 47.359375 69.109375 
Q 53.90625 64.015625 53.90625 55.328125 
Q 53.90625 49.265625 50.4375 45.09375 
Q 46.96875 40.921875 40.578125 39.3125 
z
" id="DejaVuSans-33"/>
     <path d="M 19.1875 8.296875 
L 53.609375 8.296875 
L 53.609375 0 
L 7.328125 0 
L 7.328125 8.296875 
Q 12.9375 14.109375 22.625 23.890625 
Q 32.328125 33.6875 34.8125 36.53125 
Q 39.546875 41.84375 41.421875 45.53125 
Q 43.3125 49.21875 43.3125 52.78125 
Q 43.3125 58.59375 39.234375 62.25 
Q 35.15625 65.921875 28.609375 65.921875 
Q 23.96875 65.921875 18.8125 64.3125 
Q 13.671875 62.703125 7.8125 59.421875 
L 7.8125 69.390625 
Q 13.765625 71.78125 18.9375 73 
Q 24.125 74.21875 28.421875 74.21875 
Q 39.75 74.21875 46.484375 68.546875 
Q 53.21875 62.890625 53.21875 53.421875 
Q 53.21875 48.921875 51.53125 44.890625 
Q 49.859375 40.875 45.40625 35.40625 
Q 44.1875 33.984375 37.640625 27.21875 
Q 31.109375 20.453125 19.1875 8.296875 
z
" id="DejaVuSans-32"/>
     <path d="M 11.71875 12.40625 
L 22.015625 12.40625 
L 22.015625 4 
L 14.015625 -11.625 
L 7.71875 -11.625 
L 11.71875 4 
z
" id="DejaVuSans-2c"/>
     <path d="M 16.890625 72.90625 
L 62.984375 72.90625 
L 61.375 64.59375 
L 25.09375 64.59375 
L 20.90625 43.015625 
L 55.71875 43.015625 
L 54.109375 34.71875 
L 19.28125 34.71875 
L 14.203125 8.296875 
L 51.3125 8.296875 
L 49.703125 0 
L 2.6875 0 
z
" id="DejaVuSans-Oblique-45"/>
     <path d="M 16.890625 72.90625 
L 30.171875 72.90625 
L 50.296875 10.40625 
L 62.5 72.90625 
L 72.125 72.90625 
L 57.90625 0 
L 44.578125 0 
L 24.515625 62.890625 
L 12.3125 0 
L 2.6875 0 
z
" id="DejaVuSans-Oblique-4e"/>
     <path d="M 10.59375 45.40625 
L 73.1875 45.40625 
L 73.1875 37.203125 
L 10.59375 37.203125 
z
M 10.59375 25.484375 
L 73.1875 25.484375 
L 73.1875 17.1875 
L 10.59375 17.1875 
z
" id="DejaVuSans-3d"/>
     <path d="M 4.890625 31.390625 
L 31.203125 31.390625 
L 31.203125 23.390625 
L 4.890625 23.390625 
z
" id="DejaVuSans-2d"/>
     <path d="M 8.203125 72.90625 
L 55.078125 72.90625 
L 55.078125 68.703125 
L 28.609375 0 
L 18.3125 0 
L 43.21875 64.59375 
L 8.203125 64.59375 
z
" id="DejaVuSans-37"/>
     <path d="M 31.78125 34.625 
Q 24.75 34.625 20.71875 30.859375 
Q 16.703125 27.09375 16.703125 20.515625 
Q 16.703125 13.921875 20.71875 10.15625 
Q 24.75 6.390625 31.78125 6.390625 
Q 38.8125 6.390625 42.859375 10.171875 
Q 46.921875 13.96875 46.921875 20.515625 
Q 46.921875 27.09375 42.890625 30.859375 
Q 38.875 34.625 31.78125 34.625 
z
M 21.921875 38.8125 
Q 15.578125 40.375 12.03125 44.71875 
Q 8.5 49.078125 8.5 55.328125 
Q 8.5 64.0625 14.71875 69.140625 
Q 20.953125 74.21875 31.78125 74.21875 
Q 42.671875 74.21875 48.875 69.140625 
Q 55.078125 64.0625 55.078125 55.328125 
Q 55.078125 49.078125 51.53125 44.71875 
Q 48 40.375 41.703125 38.8125 
Q 48.828125 37.15625 52.796875 32.3125 
Q 56.78125 27.484375 56.78125 20.515625 
Q 56.78125 9.90625 50.3125 4.234375 
Q 43.84375 -1.421875 31.78125 -1.421875 
Q 19.734375 -1.421875 13.25 4.234375 
Q 6.78125 9.90625 6.78125 20.515625 
Q 6.78125 27.484375 10.78125 32.3125 
Q 14.796875 37.15625 21.921875 38.8125 
z
M 18.3125 54.390625 
Q 18.3125 48.734375 21.84375 45.5625 
Q 25.390625 42.390625 31.78125 42.390625 
Q 38.140625 42.390625 41.71875 45.5625 
Q 45.3125 48.734375 45.3125 54.390625 
Q 45.3125 60.0625 41.71875 63.234375 
Q 38.140625 66.40625 31.78125 66.40625 
Q 25.390625 66.40625 21.84375 63.234375 
Q 18.3125 60.0625 18.3125 54.390625 
z
" id="DejaVuSans-38"/>
     <path d="M 10.6875 12.40625 
L 21 12.40625 
L 21 0 
L 10.6875 0 
z
" id="DejaVuSans-2e"/>
     <path d="M 33.015625 40.375 
Q 26.375 40.375 22.484375 35.828125 
Q 18.609375 31.296875 18.609375 23.390625 
Q 18.609375 15.53125 22.484375 10.953125 
Q 26.375 6.390625 33.015625 6.390625 
Q 39.65625 6.390625 43.53125 10.953125 
Q 47.40625 15.53125 47.40625 23.390625 
Q 47.40625 31.296875 43.53125 35.828125 
Q 39.65625 40.375 33.015625 40.375 
z
M 52.59375 71.296875 
L 52.59375 62.3125 
Q 48.875 64.0625 45.09375 64.984375 
Q 41.3125 65.921875 37.59375 65.921875 
Q 27.828125 65.921875 22.671875 59.328125 
Q 17.53125 52.734375 16.796875 39.40625 
Q 19.671875 43.65625 24.015625 45.921875 
Q 28.375 48.1875 33.59375 48.1875 
Q 44.578125 48.1875 50.953125 41.515625 
Q 57.328125 34.859375 57.328125 23.390625 
Q 57.328125 12.15625 50.6875 5.359375 
Q 44.046875 -1.421875 33.015625 -1.421875 
Q 20.359375 -1.421875 13.671875 8.265625 
Q 6.984375 17.96875 6.984375 36.375 
Q 6.984375 53.65625 15.1875 63.9375 
Q 23.390625 74.21875 37.203125 74.21875 
Q 40.921875 74.21875 44.703125 73.484375 
Q 48.484375 72.75 52.59375 71.296875 
z
" id="DejaVuSans-36"/>
     <path d="M 28.609375 0 
L 0.78125 72.90625 
L 11.078125 72.90625 
L 34.1875 11.53125 
L 57.328125 72.90625 
L 67.578125 72.90625 
L 39.796875 0 
z
" id="DejaVuSans-56"/>
     <path d="M 34.1875 63.1875 
L 14.15625 8.203125 
L 54.25 8.203125 
z
M 0.78125 0 
L 28.609375 72.90625 
L 39.796875 72.90625 
L 67.578125 0 
z
" id="DejaVuSans-394"/>
     <path d="M 9.8125 72.90625 
L 55.90625 72.90625 
L 55.90625 64.59375 
L 19.671875 64.59375 
L 19.671875 43.015625 
L 54.390625 43.015625 
L 54.390625 34.71875 
L 19.671875 34.71875 
L 19.671875 8.296875 
L 56.78125 8.296875 
L 56.78125 0 
L 9.8125 0 
z
" id="DejaVuSans-45"/>
    </defs>
    <g transform="translate(59.388 35.472)scale(0.12 -0.12)">
     <use transform="translate(0 0.78125)" xlink:href="#DejaVuSans-53"/>
     <use transform="translate(63.476562 0.78125)" xlink:href="#DejaVuSans-74"/>
     <use transform="translate(102.685547 0.78125)" xlink:href="#DejaVuSans-72"/>
     <use transform="translate(143.798828 0.78125)" xlink:href="#DejaVuSans-75"/>
     <use transform="translate(207.177734 0.78125)" xlink:href="#DejaVuSans-63"/>
     <use transform="translate(262.158203 0.78125)" xlink:href="#DejaVuSans-74"/>
     <use transform="translate(301.367188 0.78125)" xlink:href="#DejaVuSans-75"/>
     <use transform="translate(364.746094 0.78125)" xlink:href="#DejaVuSans-72"/>
     <use transform="translate(405.859375 0.78125)" xlink:href="#DejaVuSans-65"/>
     <use transform="translate(467.382812 0.78125)" xlink:href="#DejaVuSans-20"/>
     <use transform="translate(499.169922 0.78125)" xlink:href="#DejaVuSans-23"/>
     <use transform="translate(582.958984 0.78125)" xlink:href="#DejaVuSans-31"/>
     <use transform="translate(646.582031 0.78125)" xlink:href="#DejaVuSans-30"/>
     <use transform="translate(710.205078 0.78125)" xlink:href="#DejaVuSans-33"/>
     <use transform="translate(773.828125 0.78125)" xlink:href="#DejaVuSans-32"/>
     <use transform="translate(837.451172 0.78125)" xlink:href="#DejaVuSans-31"/>
     <use transform="translate(901.074219 0.78125)" xlink:href="#DejaVuSans-2c"/>
     <use transform="translate(932.861328 0.78125)" xlink:href="#DejaVuSans-20"/>
     <use transform="translate(964.648438 0.78125)" xlink:href="#DejaVuSans-Oblique-45"/>
     <use transform="translate(1027.832031 -15.625)scale(0.7)" xlink:href="#DejaVuSans-Oblique-4e"/>
     <use transform="translate(1082.929688 0.78125)" xlink:href="#DejaVuSans-3d"/>
     <use transform="translate(1166.71875 0.78125)" xlink:href="#DejaVuSans-2d"/>
     <use transform="translate(1202.802734 0.78125)" xlink:href="#DejaVuSans-31"/>
     <use transform="translate(1266.425781 0.78125)" xlink:href="#DejaVuSans-37"/>
     <use transform="translate(1330.048828 0.78125)" xlink:href="#DejaVuSans-38"/>
     <use transform="translate(1393.671875 0.78125)" xlink:href="#DejaVuSans-2e"/>
     <use transform="translate(1425.427734 0.78125)" xlink:href="#DejaVuSans-38"/>
     <use transform="translate(1489.050781 0.78125)" xlink:href="#DejaVuSans-36"/>
     <use transform="translate(1552.673828 0.78125)" xlink:href="#DejaVuSans-65"/>
     <use transform="translate(1614.197266 0.78125)" xlink:href="#DejaVuSans-56"/>
     <use transform="translate(1682.605469 0.78125)" xlink:href="#DejaVuSans-2c"/>
     <use transform="translate(1714.392578 0.78125)" xlink:href="#DejaVuSans-20"/>
     <use transform="translate(1746.179688 0.78125)" xlink:href="#DejaVuSans-394"/>
     <use transform="translate(1814.587891 0.78125)" xlink:href="#DejaVuSans-45"/>
     <use transform="translate(1877.771484 0.78125)" xlink:href="#DejaVuSans-3d"/>
     <use transform="translate(1961.560547 0.78125)" xlink:href="#DejaVuSans-2d"/>
     <use transform="translate(1997.644531 0.78125)" xlink:href="#DejaVuSans-30"/>
     <use transform="translate(2061.267578 0.78125)" xlink:href="#DejaVuSans-2e"/>
     <use transform="translate(2093.054688 0.78125)" xlink:href="#DejaVuSans-30"/>
     <use transform="translate(2156.677734 0.78125)" xlink:href="#DejaVuSans-36"/>
     <use transform="translate(2220.300781 0.78125)" xlink:href="#DejaVuSans-65"/>
     <use transform="translate(2281.824219 0.78125)" xlink:href="#DejaVuSans-56"/>
    </g>
   </g>
  </g>
  <g id="axes_2">
   <g id="patch_2">
    <path clip-path="url(#pebc739b716)" d="M 361.152 307.584 
L 361.152 306.5445 
L 361.152 42.5115 
L 361.152 41.472 
L 374.4576 41.472 
L 374.4576 42.5115 
L 374.4576 306.5445 
L 374.4576 307.584 
z
" style="fill:#ffffff;stroke:#ffffff;stroke-linejoin:miter;stroke-width:0.01;"/>
   </g>
   <image height="265.68" id="imaged02fe35ac7" transform="scale(1 -1)translate(0 -265.68)" width="12.96" x="361.44" xlink:href="data:image/png;base64,
iVBORw0KGgoAAAANSUhEUgAAABIAAAFxCAYAAAB+2fgXAAAABHNCSVQICAgIfAhkiAAAAeVJREFUeJztncmNw0AQA2ckheYQNv9QLIfQ8ygsCgQ7AEI8+jAs2Puz/94F1LP2ReCsZ18bAWIeZ5XaGRBE7VnbptG+KI101FYyNSiQG2oRITXKNaX9uclOdi2XWjftVE32CZCO2ou5Bj1TcCBr/1zB9ge7Fq0Rg2NM9pvbtG+ua1QgsRYhDy0ISEiNc40BEibbSI0Coj5CBGtkpFbXJiAjNZlrwhuSOv2M1DjXbEdEciBt1JSDDQKKpmZr2rr2j0DBGpXaWEJq3bQzEPIS26r9J+Wzv9Tm8o3aajRXqc3VUXsApKNWjeZq0x4ABVNbm7lrszVigDqP5vIl2+eaT2yfRkL7g+dRcNPqjohkjaCvRVBq0H2U3LQrOJCx9kdTg4B8oxZzzTdqdYHEngjUCAPyUctN9sVRq2sTECW2UKNLd2jVtRmo1A6AhMmWaSRcR8nUdIHUuVb75zJS218EyEitro1At69pIdeSk30Lkw0FktNImGyZRhy1O5galmxd03LUsHWk06jUZiCq+5Wb1kZNN4+wJxJuWt8RAW5am2sYNZ9rYCBzZ3buPKJ2P5Yj4Toy3keyIyJbIxs1rml1byCA84gpch5RQNB7Q0qNMGq2Hy4BXdNR41yz/cEEJfZzUz96r9PoB0okjeQ8y9TkAAAAAElFTkSuQmCC" y="-41.76"/>
   <g id="matplotlib.axis_1"/>
   <g id="matplotlib.axis_2">
    <g id="ytick_1">
     <g id="line2d_1">
      <defs>
       <path d="M 0 0 
L 3.5 0 
" id="m4e53397c18" style="stroke:#000000;stroke-width:0.8;"/>
      </defs>
      <g>
       <use style="stroke:#000000;stroke-width:0.8;" x="374.4576" xlink:href="#m4e53397c18" y="298.098531"/>
      </g>
     </g>
     <g id="text_2">
      <!-- −8.5 -->
      <defs>
       <path d="M 10.59375 35.5 
L 73.1875 35.5 
L 73.1875 27.203125 
L 10.59375 27.203125 
z
" id="DejaVuSans-2212"/>
       <path d="M 10.796875 72.90625 
L 49.515625 72.90625 
L 49.515625 64.59375 
L 19.828125 64.59375 
L 19.828125 46.734375 
Q 21.96875 47.46875 24.109375 47.828125 
Q 26.265625 48.1875 28.421875 48.1875 
Q 40.625 48.1875 47.75 41.5 
Q 54.890625 34.8125 54.890625 23.390625 
Q 54.890625 11.625 47.5625 5.09375 
Q 40.234375 -1.421875 26.90625 -1.421875 
Q 22.3125 -1.421875 17.546875 -0.640625 
Q 12.796875 0.140625 7.71875 1.703125 
L 7.71875 11.625 
Q 12.109375 9.234375 16.796875 8.0625 
Q 21.484375 6.890625 26.703125 6.890625 
Q 35.15625 6.890625 40.078125 11.328125 
Q 45.015625 15.765625 45.015625 23.390625 
Q 45.015625 31 40.078125 35.4375 
Q 35.15625 39.890625 26.703125 39.890625 
Q 22.75 39.890625 18.8125 39.015625 
Q 14.890625 38.140625 10.796875 36.28125 
z
" id="DejaVuSans-35"/>
      </defs>
      <g transform="translate(381.4576 301.897749)scale(0.1 -0.1)">
       <use xlink:href="#DejaVuSans-2212"/>
       <use x="83.789062" xlink:href="#DejaVuSans-38"/>
       <use x="147.412109" xlink:href="#DejaVuSans-2e"/>
       <use x="179.199219" xlink:href="#DejaVuSans-35"/>
      </g>
     </g>
    </g>
    <g id="ytick_2">
     <g id="line2d_2">
      <g>
       <use style="stroke:#000000;stroke-width:0.8;" x="374.4576" xlink:href="#m4e53397c18" y="250.55302"/>
      </g>
     </g>
     <g id="text_3">
      <!-- −8.0 -->
      <g transform="translate(381.4576 254.352239)scale(0.1 -0.1)">
       <use xlink:href="#DejaVuSans-2212"/>
       <use x="83.789062" xlink:href="#DejaVuSans-38"/>
       <use x="147.412109" xlink:href="#DejaVuSans-2e"/>
       <use x="179.199219" xlink:href="#DejaVuSans-30"/>
      </g>
     </g>
    </g>
    <g id="ytick_3">
     <g id="line2d_3">
      <g>
       <use style="stroke:#000000;stroke-width:0.8;" x="374.4576" xlink:href="#m4e53397c18" y="203.00751"/>
      </g>
     </g>
     <g id="text_4">
      <!-- −7.5 -->
      <g transform="translate(381.4576 206.806729)scale(0.1 -0.1)">
       <use xlink:href="#DejaVuSans-2212"/>
       <use x="83.789062" xlink:href="#DejaVuSans-37"/>
       <use x="147.412109" xlink:href="#DejaVuSans-2e"/>
       <use x="179.199219" xlink:href="#DejaVuSans-35"/>
      </g>
     </g>
    </g>
    <g id="ytick_4">
     <g id="line2d_4">
      <g>
       <use style="stroke:#000000;stroke-width:0.8;" x="374.4576" xlink:href="#m4e53397c18" y="155.462"/>
      </g>
     </g>
     <g id="text_5">
      <!-- −7.0 -->
      <g transform="translate(381.4576 159.261219)scale(0.1 -0.1)">
       <use xlink:href="#DejaVuSans-2212"/>
       <use x="83.789062" xlink:href="#DejaVuSans-37"/>
       <use x="147.412109" xlink:href="#DejaVuSans-2e"/>
       <use x="179.199219" xlink:href="#DejaVuSans-30"/>
      </g>
     </g>
    </g>
    <g id="ytick_5">
     <g id="line2d_5">
      <g>
       <use style="stroke:#000000;stroke-width:0.8;" x="374.4576" xlink:href="#m4e53397c18" y="107.91649"/>
      </g>
     </g>
     <g id="text_6">
      <!-- −6.5 -->
      <g transform="translate(381.4576 111.715708)scale(0.1 -0.1)">
       <use xlink:href="#DejaVuSans-2212"/>
       <use x="83.789062" xlink:href="#DejaVuSans-36"/>
       <use x="147.412109" xlink:href="#DejaVuSans-2e"/>
       <use x="179.199219" xlink:href="#DejaVuSans-35"/>
      </g>
     </g>
    </g>
    <g id="ytick_6">
     <g id="line2d_6">
      <g>
       <use style="stroke:#000000;stroke-width:0.8;" x="374.4576" xlink:href="#m4e53397c18" y="60.370979"/>
      </g>
     </g>
     <g id="text_7">
      <!-- −6.0 -->
      <g transform="translate(381.4576 64.170198)scale(0.1 -0.1)">
       <use xlink:href="#DejaVuSans-2212"/>
       <use x="83.789062" xlink:href="#DejaVuSans-36"/>
       <use x="147.412109" xlink:href="#DejaVuSans-2e"/>
       <use x="179.199219" xlink:href="#DejaVuSans-30"/>
      </g>
     </g>
    </g>
    <g id="text_8">
     <!-- Energy [eV] -->
     <defs>
      <path d="M 54.890625 33.015625 
L 54.890625 0 
L 45.90625 0 
L 45.90625 32.71875 
Q 45.90625 40.484375 42.875 44.328125 
Q 39.84375 48.1875 33.796875 48.1875 
Q 26.515625 48.1875 22.3125 43.546875 
Q 18.109375 38.921875 18.109375 30.90625 
L 18.109375 0 
L 9.078125 0 
L 9.078125 54.6875 
L 18.109375 54.6875 
L 18.109375 46.1875 
Q 21.34375 51.125 25.703125 53.5625 
Q 30.078125 56 35.796875 56 
Q 45.21875 56 50.046875 50.171875 
Q 54.890625 44.34375 54.890625 33.015625 
z
" id="DejaVuSans-6e"/>
      <path d="M 45.40625 27.984375 
Q 45.40625 37.75 41.375 43.109375 
Q 37.359375 48.484375 30.078125 48.484375 
Q 22.859375 48.484375 18.828125 43.109375 
Q 14.796875 37.75 14.796875 27.984375 
Q 14.796875 18.265625 18.828125 12.890625 
Q 22.859375 7.515625 30.078125 7.515625 
Q 37.359375 7.515625 41.375 12.890625 
Q 45.40625 18.265625 45.40625 27.984375 
z
M 54.390625 6.78125 
Q 54.390625 -7.171875 48.1875 -13.984375 
Q 42 -20.796875 29.203125 -20.796875 
Q 24.46875 -20.796875 20.265625 -20.09375 
Q 16.0625 -19.390625 12.109375 -17.921875 
L 12.109375 -9.1875 
Q 16.0625 -11.328125 19.921875 -12.34375 
Q 23.78125 -13.375 27.78125 -13.375 
Q 36.625 -13.375 41.015625 -8.765625 
Q 45.40625 -4.15625 45.40625 5.171875 
L 45.40625 9.625 
Q 42.625 4.78125 38.28125 2.390625 
Q 33.9375 0 27.875 0 
Q 17.828125 0 11.671875 7.65625 
Q 5.515625 15.328125 5.515625 27.984375 
Q 5.515625 40.671875 11.671875 48.328125 
Q 17.828125 56 27.875 56 
Q 33.9375 56 38.28125 53.609375 
Q 42.625 51.21875 45.40625 46.390625 
L 45.40625 54.6875 
L 54.390625 54.6875 
z
" id="DejaVuSans-67"/>
      <path d="M 32.171875 -5.078125 
Q 28.375 -14.84375 24.75 -17.8125 
Q 21.140625 -20.796875 15.09375 -20.796875 
L 7.90625 -20.796875 
L 7.90625 -13.28125 
L 13.1875 -13.28125 
Q 16.890625 -13.28125 18.9375 -11.515625 
Q 21 -9.765625 23.484375 -3.21875 
L 25.09375 0.875 
L 2.984375 54.6875 
L 12.5 54.6875 
L 29.59375 11.921875 
L 46.6875 54.6875 
L 56.203125 54.6875 
z
" id="DejaVuSans-79"/>
      <path d="M 8.59375 75.984375 
L 29.296875 75.984375 
L 29.296875 69 
L 17.578125 69 
L 17.578125 -6.203125 
L 29.296875 -6.203125 
L 29.296875 -13.1875 
L 8.59375 -13.1875 
z
" id="DejaVuSans-5b"/>
      <path d="M 30.421875 75.984375 
L 30.421875 -13.1875 
L 9.71875 -13.1875 
L 9.71875 -6.203125 
L 21.390625 -6.203125 
L 21.390625 69 
L 9.71875 69 
L 9.71875 75.984375 
z
" id="DejaVuSans-5d"/>
     </defs>
     <g transform="translate(417.33885 204.108469)rotate(-90)scale(0.1 -0.1)">
      <use xlink:href="#DejaVuSans-45"/>
      <use x="63.183594" xlink:href="#DejaVuSans-6e"/>
      <use x="126.5625" xlink:href="#DejaVuSans-65"/>
      <use x="188.085938" xlink:href="#DejaVuSans-72"/>
      <use x="229.183594" xlink:href="#DejaVuSans-67"/>
      <use x="292.660156" xlink:href="#DejaVuSans-79"/>
      <use x="351.839844" xlink:href="#DejaVuSans-20"/>
      <use x="383.626953" xlink:href="#DejaVuSans-5b"/>
      <use x="422.640625" xlink:href="#DejaVuSans-65"/>
      <use x="484.164062" xlink:href="#DejaVuSans-56"/>
      <use x="552.572266" xlink:href="#DejaVuSans-5d"/>
     </g>
    </g>
   </g>
   <g id="patch_3">
    <path d="M 361.152 307.584 
L 361.152 306.5445 
L 361.152 42.5115 
L 361.152 41.472 
L 374.4576 41.472 
L 374.4576 42.5115 
L 374.4576 306.5445 
L 374.4576 307.584 
z
" style="fill:none;stroke:#000000;stroke-linejoin:miter;stroke-width:0.8;"/>
   </g>
  </g>
 </g>
 <defs>
  <clipPath id="p1b0de381b6">
   <rect height="266.112" width="285.696" x="57.6" y="41.472"/>
  </clipPath>
  <clipPath id="pebc739b716">
   <rect height="266.112" width="13.3056" x="361.152" y="41.472"/>
  </clipPath>
 </defs>
</svg>
