<?xml version="1.0" encoding="utf-8" standalone="no"?>
<!DOCTYPE svg PUBLIC "-//W3C//DTD SVG 1.1//EN"
  "http://www.w3.org/Graphics/SVG/1.1/DTD/svg11.dtd">
<!-- Created with matplotlib (http://matplotlib.org/) -->
<svg height="345.6pt" version="1.1" viewBox="0 0 460.8 345.6" width="460.8pt" xmlns="http://www.w3.org/2000/svg" xmlns:xlink="http://www.w3.org/1999/xlink">
 <defs>
  <style type="text/css">
*{stroke-linecap:butt;stroke-linejoin:round;}
  </style>
 </defs>
 <g id="figure_1">
  <g id="patch_1">
   <path d="M 0 345.6 
L 460.8 345.6 
L 460.8 0 
L 0 0 
z
" style="fill:#ffffff;"/>
  </g>
  <g id="axes_1">
   <g id="CircleCollection_1">
    <path clip-path="url(#pce3fb2aebc)" d="M 309.457186 214.784864 
C 311.217368 214.784864 312.905695 214.085536 314.150332 212.8409 
C 315.394969 211.596263 316.094296 209.907936 316.094296 208.147754 
C 316.094296 206.387572 315.394969 204.699245 314.150332 203.454608 
C 312.905695 202.209971 311.217368 201.510643 309.457186 201.510643 
C 307.697004 201.510643 306.008677 202.209971 304.76404 203.454608 
C 303.519403 204.699245 302.820075 206.387572 302.820075 208.147754 
C 302.820075 209.907936 303.519403 211.596263 304.76404 212.8409 
C 306.008677 214.085536 307.697004 214.784864 309.457186 214.784864 
z
" style="fill:#7cd250;"/>
    <path clip-path="url(#pce3fb2aebc)" d="M 312.143494 170.823381 
C 313.905433 170.823381 315.595444 170.123355 316.841323 168.877476 
C 318.087202 167.631597 318.787228 165.941585 318.787228 164.179646 
C 318.787228 162.417708 318.087202 160.727696 316.841323 159.481817 
C 315.595444 158.235938 313.905433 157.535912 312.143494 157.535912 
C 310.381555 157.535912 308.691543 158.235938 307.445665 159.481817 
C 306.199786 160.727696 305.49976 162.417708 305.49976 164.179646 
C 305.49976 165.941585 306.199786 167.631597 307.445665 168.877476 
C 308.691543 170.123355 310.381555 170.823381 312.143494 170.823381 
z
" style="fill:#375b8d;"/>
    <path clip-path="url(#pce3fb2aebc)" d="M 111.581932 273.131649 
C 113.326739 273.131649 115.000318 272.43843 116.234083 271.204665 
C 117.467848 269.9709 118.161067 268.297321 118.161067 266.552514 
C 118.161067 264.807707 117.467848 263.134127 116.234083 261.900363 
C 115.000318 260.666598 113.326739 259.973378 111.581932 259.973378 
C 109.837125 259.973378 108.163546 260.666598 106.929781 261.900363 
C 105.696016 263.134127 105.002797 264.807707 105.002797 266.552514 
C 105.002797 268.297321 105.696016 269.9709 106.929781 271.204665 
C 108.163546 272.43843 109.837125 273.131649 111.581932 273.131649 
z
" style="fill:#28ae80;"/>
    <path clip-path="url(#pce3fb2aebc)" d="M 261.351547 282.24767 
C 263.101139 282.24767 264.779308 281.55255 266.016457 280.315401 
C 267.253606 279.078252 267.948726 277.400083 267.948726 275.65049 
C 267.948726 273.900898 267.253606 272.222729 266.016457 270.98558 
C 264.779308 269.748431 263.101139 269.053311 261.351547 269.053311 
C 259.601954 269.053311 257.923785 269.748431 256.686636 270.98558 
C 255.449487 272.222729 254.754367 273.900898 254.754367 275.65049 
C 254.754367 277.400083 255.449487 279.078252 256.686636 280.315401 
C 257.923785 281.55255 259.601954 282.24767 261.351547 282.24767 
z
" style="fill:#27ad81;"/>
    <path clip-path="url(#pce3fb2aebc)" d="M 229.803678 212.187949 
C 231.567743 212.187949 233.259795 211.487078 234.507177 210.239695 
C 235.75456 208.992313 236.45543 207.300261 236.45543 205.536196 
C 236.45543 203.77213 235.75456 202.080079 234.507177 200.832696 
C 233.259795 199.585314 231.567743 198.884443 229.803678 198.884443 
C 228.039612 198.884443 226.347561 199.585314 225.100178 200.832696 
C 223.852795 202.080079 223.151925 203.77213 223.151925 205.536196 
C 223.151925 207.300261 223.852795 208.992313 225.100178 210.239695 
C 226.347561 211.487078 228.039612 212.187949 229.803678 212.187949 
z
" style="fill:#3f4788;"/>
    <path clip-path="url(#pce3fb2aebc)" d="M 185.907781 282.075192 
C 187.655538 282.075192 189.331947 281.3808 190.567798 280.144949 
C 191.803649 278.909098 192.49804 277.23269 192.49804 275.484932 
C 192.49804 273.737175 191.803649 272.060766 190.567798 270.824915 
C 189.331947 269.589065 187.655538 268.894673 185.907781 268.894673 
C 184.160024 268.894673 182.483615 269.589065 181.247764 270.824915 
C 180.011913 272.060766 179.317522 273.737175 179.317522 275.484932 
C 179.317522 277.23269 180.011913 278.909098 181.247764 280.144949 
C 182.483615 281.3808 184.160024 282.075192 185.907781 282.075192 
z
" style="fill:#440154;"/>
    <path clip-path="url(#pce3fb2aebc)" d="M 270.530129 237.223517 
C 272.287895 237.223517 273.973904 236.525149 275.216832 235.282221 
C 276.45976 234.039293 277.158128 232.353284 277.158128 230.595518 
C 277.158128 228.837752 276.45976 227.151743 275.216832 225.908815 
C 273.973904 224.665887 272.287895 223.967519 270.530129 223.967519 
C 268.772363 223.967519 267.086354 224.665887 265.843426 225.908815 
C 264.600498 227.151743 263.90213 228.837752 263.90213 230.595518 
C 263.90213 232.353284 264.600498 234.039293 265.843426 235.282221 
C 267.086354 236.525149 268.772363 237.223517 270.530129 237.223517 
z
" style="fill:#470d60;"/>
    <path clip-path="url(#pce3fb2aebc)" d="M 226.210893 301.482606 
C 227.955815 301.482606 229.629504 300.789342 230.86335 299.555495 
C 232.097197 298.321649 232.790462 296.64796 232.790462 294.903038 
C 232.790462 293.158116 232.097197 291.484426 230.86335 290.25058 
C 229.629504 289.016734 227.955815 288.323469 226.210893 288.323469 
C 224.465971 288.323469 222.792281 289.016734 221.558435 290.25058 
C 220.324589 291.484426 219.631324 293.158116 219.631324 294.903038 
C 219.631324 296.64796 220.324589 298.321649 221.558435 299.555495 
C 222.792281 300.789342 224.465971 301.482606 226.210893 301.482606 
z
" style="fill:#22a884;"/>
    <path clip-path="url(#pce3fb2aebc)" d="M 273.2079 60.893123 
C 274.991934 60.893123 276.703139 60.184319 277.964642 58.922816 
C 279.226145 57.661313 279.934949 55.950108 279.934949 54.166074 
C 279.934949 52.38204 279.226145 50.670835 277.964642 49.409332 
C 276.703139 48.147829 274.991934 47.439025 273.2079 47.439025 
C 271.423866 47.439025 269.712661 48.147829 268.451158 49.409332 
C 267.189655 50.670835 266.480851 52.38204 266.480851 54.166074 
C 266.480851 55.950108 267.189655 57.661313 268.451158 58.922816 
C 269.712661 60.184319 271.423866 60.893123 273.2079 60.893123 
z
" style="fill:#46c06f;"/>
    <path clip-path="url(#pce3fb2aebc)" d="M 150.207924 207.180878 
C 151.969604 207.180878 153.659367 206.480955 154.905063 205.235259 
C 156.150759 203.989564 156.850682 202.2998 156.850682 200.53812 
C 156.850682 198.77644 156.150759 197.086677 154.905063 195.840981 
C 153.659367 194.595285 151.969604 193.895362 150.207924 193.895362 
C 148.446244 193.895362 146.756481 194.595285 145.510785 195.840981 
C 144.265089 197.086677 143.565166 198.77644 143.565166 200.53812 
C 143.565166 202.2998 144.265089 203.989564 145.510785 205.235259 
C 146.756481 206.480955 148.446244 207.180878 150.207924 207.180878 
z
" style="fill:#3b528b;"/>
    <path clip-path="url(#pce3fb2aebc)" d="M 83.278256 158.511202 
C 85.045398 158.511202 86.740401 157.809108 87.98996 156.55955 
C 89.239518 155.309991 89.941612 153.614988 89.941612 151.847846 
C 89.941612 150.080703 89.239518 148.3857 87.98996 147.136142 
C 86.740401 145.886583 85.045398 145.18449 83.278256 145.18449 
C 81.511113 145.18449 79.81611 145.886583 78.566552 147.136142 
C 77.316993 148.3857 76.6149 150.080703 76.6149 151.847846 
C 76.6149 153.614988 77.316993 155.309991 78.566552 156.55955 
C 79.81611 157.809108 81.511113 158.511202 83.278256 158.511202 
z
" style="fill:#20928c;"/>
    <path clip-path="url(#pce3fb2aebc)" d="M 143.964472 297.056747 
C 145.706301 297.056747 147.377023 296.364711 148.608682 295.133052 
C 149.840341 293.901393 150.532376 292.230671 150.532376 290.488843 
C 150.532376 288.747014 149.840341 287.076292 148.608682 285.844633 
C 147.377023 284.612974 145.706301 283.920939 143.964472 283.920939 
C 142.222644 283.920939 140.551922 284.612974 139.320263 285.844633 
C 138.088604 287.076292 137.396568 288.747014 137.396568 290.488843 
C 137.396568 292.230671 138.088604 293.901393 139.320263 295.133052 
C 140.551922 296.364711 142.222644 297.056747 143.964472 297.056747 
z
" style="fill:#21a685;"/>
    <path clip-path="url(#pce3fb2aebc)" d="M 231.925272 164.980149 
C 233.696519 164.980149 235.395459 164.276425 236.64792 163.023964 
C 237.900381 161.771503 238.604104 160.072563 238.604104 158.301316 
C 238.604104 156.530069 237.900381 154.831129 236.64792 153.578669 
C 235.395459 152.326208 233.696519 151.622484 231.925272 151.622484 
C 230.154025 151.622484 228.455085 152.326208 227.202624 153.578669 
C 225.950164 154.831129 225.24644 156.530069 225.24644 158.301316 
C 225.24644 160.072563 225.950164 161.771503 227.202624 163.023964 
C 228.455085 164.276425 230.154025 164.980149 231.925272 164.980149 
z
" style="fill:#482374;"/>
    <path clip-path="url(#pce3fb2aebc)" d="M 116.099494 132.187703 
C 117.874677 132.187703 119.577391 131.482416 120.832635 130.227172 
C 122.087878 128.971928 122.793166 127.269214 122.793166 125.494032 
C 122.793166 123.718849 122.087878 122.016135 120.832635 120.760891 
C 119.577391 119.505647 117.874677 118.80036 116.099494 118.80036 
C 114.324312 118.80036 112.621597 119.505647 111.366354 120.760891 
C 110.11111 122.016135 109.405823 123.718849 109.405823 125.494032 
C 109.405823 127.269214 110.11111 128.971928 111.366354 130.227172 
C 112.621597 131.482416 114.324312 132.187703 116.099494 132.187703 
z
" style="fill:#90d743;"/>
    <path clip-path="url(#pce3fb2aebc)" d="M 107.185607 227.186676 
C 108.940093 227.186676 110.622956 226.489612 111.863565 225.249003 
C 113.104174 224.008394 113.801239 222.325531 113.801239 220.571045 
C 113.801239 218.816559 113.104174 217.133696 111.863565 215.893087 
C 110.622956 214.652478 108.940093 213.955413 107.185607 213.955413 
C 105.431121 213.955413 103.748258 214.652478 102.507649 215.893087 
C 101.26704 217.133696 100.569975 218.816559 100.569975 220.571045 
C 100.569975 222.325531 101.26704 224.008394 102.507649 225.249003 
C 103.748258 226.489612 105.431121 227.186676 107.185607 227.186676 
z
" style="fill:#471063;"/>
    <path clip-path="url(#pce3fb2aebc)" d="M 71.00894 199.316052 
C 72.767416 199.316052 74.454106 198.617402 75.697536 197.373972 
C 76.940966 196.130542 77.639616 194.443852 77.639616 192.685376 
C 77.639616 190.9269 76.940966 189.240211 75.697536 187.996781 
C 74.454106 186.75335 72.767416 186.054701 71.00894 186.054701 
C 69.250465 186.054701 67.563775 186.75335 66.320345 187.996781 
C 65.076915 189.240211 64.378265 190.9269 64.378265 192.685376 
C 64.378265 194.443852 65.076915 196.130542 66.320345 197.373972 
C 67.563775 198.617402 69.250465 199.316052 71.00894 199.316052 
z
" style="fill:#60ca60;"/>
    <path clip-path="url(#pce3fb2aebc)" d="M 196.296212 91.867893 
C 198.079195 91.867893 199.789392 91.159507 201.050151 89.898747 
C 202.310911 88.637988 203.019297 86.927791 203.019297 85.144808 
C 203.019297 83.361825 202.310911 81.651628 201.050151 80.390869 
C 199.789392 79.13011 198.079195 78.421723 196.296212 78.421723 
C 194.513229 78.421723 192.803032 79.13011 191.542273 80.390869 
C 190.281514 81.651628 189.573127 83.361825 189.573127 85.144808 
C 189.573127 86.927791 190.281514 88.637988 191.542273 89.898747 
C 192.803032 91.159507 194.513229 91.867893 196.296212 91.867893 
z
" style="fill:#3fbc73;"/>
    <path clip-path="url(#pce3fb2aebc)" d="M 329.879014 129.138974 
C 331.670957 129.138974 333.389747 128.427028 334.656842 127.159933 
C 335.923937 125.892838 336.635884 124.174047 336.635884 122.382104 
C 336.635884 120.590161 335.923937 118.87137 334.656842 117.604275 
C 333.389747 116.33718 331.670957 115.625234 329.879014 115.625234 
C 328.087071 115.625234 326.36828 116.33718 325.101185 117.604275 
C 323.83409 118.87137 323.122143 120.590161 323.122143 122.382104 
C 323.122143 124.174047 323.83409 125.892838 325.101185 127.159933 
C 326.36828 128.427028 328.087071 129.138974 329.879014 129.138974 
z
" style="fill:#fde725;"/>
    <path clip-path="url(#pce3fb2aebc)" d="M 292.491227 102.161453 
C 294.263111 102.161453 295.962661 101.457476 297.215572 100.204566 
C 298.468483 98.951655 299.17246 97.252104 299.17246 95.480221 
C 299.17246 93.708337 298.468483 92.008786 297.215572 90.755876 
C 295.962661 89.502965 294.263111 88.798988 292.491227 88.798988 
C 290.719343 88.798988 289.019793 89.502965 287.766882 90.755876 
C 286.513971 92.008786 285.809994 93.708337 285.809994 95.480221 
C 285.809994 97.252104 286.513971 98.951655 287.766882 100.204566 
C 289.019793 101.457476 290.719343 102.161453 292.491227 102.161453 
z
" style="fill:#375a8c;"/>
    <path clip-path="url(#pce3fb2aebc)" d="M 272.344344 144.69577 
C 274.106754 144.69577 275.797216 143.995558 277.043428 142.749346 
C 278.28964 141.503134 278.989852 139.812671 278.989852 138.050262 
C 278.989852 136.287853 278.28964 134.59739 277.043428 133.351178 
C 275.797216 132.104966 274.106754 131.404754 272.344344 131.404754 
C 270.581935 131.404754 268.891472 132.104966 267.64526 133.351178 
C 266.399049 134.59739 265.698836 136.287853 265.698836 138.050262 
C 265.698836 139.812671 266.399049 141.503134 267.64526 142.749346 
C 268.891472 143.995558 270.581935 144.69577 272.344344 144.69577 
z
" style="fill:#31668e;"/>
    <path clip-path="url(#pce3fb2aebc)" d="M 188.610631 233.368716 
C 190.369145 233.368716 192.055871 232.670051 193.299328 231.426594 
C 194.542785 230.183137 195.24145 228.496411 195.24145 226.737897 
C 195.24145 224.979383 194.542785 223.292657 193.299328 222.0492 
C 192.055871 220.805743 190.369145 220.107078 188.610631 220.107078 
C 186.852117 220.107078 185.165391 220.805743 183.921934 222.0492 
C 182.678477 223.292657 181.979812 224.979383 181.979812 226.737897 
C 181.979812 228.496411 182.678477 230.183137 183.921934 231.426594 
C 185.165391 232.670051 186.852117 233.368716 188.610631 233.368716 
z
" style="fill:#3e4989;"/>
    <path clip-path="url(#pce3fb2aebc)" d="M 231.685935 70.491812 
C 233.468874 70.491812 235.179029 69.783442 236.439757 68.522714 
C 237.700485 67.261986 238.408854 65.551831 238.408854 63.768892 
C 238.408854 61.985953 237.700485 60.275798 236.439757 59.01507 
C 235.179029 57.754341 233.468874 57.045972 231.685935 57.045972 
C 229.902996 57.045972 228.192841 57.754341 226.932113 59.01507 
C 225.671384 60.275798 224.963015 61.985953 224.963015 63.768892 
C 224.963015 65.551831 225.671384 67.261986 226.932113 68.522714 
C 228.192841 69.783442 229.902996 70.491812 231.685935 70.491812 
z
" style="fill:#228b8d;"/>
    <path clip-path="url(#pce3fb2aebc)" d="M 153.188729 159.581824 
C 154.960262 159.581824 156.659476 158.877987 157.91214 157.625323 
C 159.164803 156.37266 159.868641 154.673446 159.868641 152.901912 
C 159.868641 151.130379 159.164803 149.431165 157.91214 148.178502 
C 156.659476 146.925838 154.960262 146.222001 153.188729 146.222001 
C 151.417196 146.222001 149.717981 146.925838 148.465318 148.178502 
C 147.212655 149.431165 146.508817 151.130379 146.508817 152.901912 
C 146.508817 154.673446 147.212655 156.37266 148.465318 157.625323 
C 149.717981 158.877987 151.417196 159.581824 153.188729 159.581824 
z
" style="fill:#470d60;"/>
    <path clip-path="url(#pce3fb2aebc)" d="M 193.569774 138.432846 
C 195.345745 138.432846 197.049216 137.727245 198.305017 136.471444 
C 199.560818 135.215643 200.266419 133.512172 200.266419 131.736201 
C 200.266419 129.96023 199.560818 128.256759 198.305017 127.000958 
C 197.049216 125.745157 195.345745 125.039556 193.569774 125.039556 
C 191.793803 125.039556 190.090332 125.745157 188.834531 127.000958 
C 187.57873 128.256759 186.873129 129.96023 186.873129 131.736201 
C 186.873129 133.512172 187.57873 135.215643 188.834531 136.471444 
C 190.090332 137.727245 191.793803 138.432846 193.569774 138.432846 
z
" style="fill:#460b5e;"/>
   </g>
   <g id="text_1">
    <!-- Structure #6523, $E_N$=-183.82eV, ΔE=0.11eV -->
    <defs>
     <path d="M 53.515625 70.515625 
L 53.515625 60.890625 
Q 47.90625 63.578125 42.921875 64.890625 
Q 37.9375 66.21875 33.296875 66.21875 
Q 25.25 66.21875 20.875 63.09375 
Q 16.5 59.96875 16.5 54.203125 
Q 16.5 49.359375 19.40625 46.890625 
Q 22.3125 44.4375 30.421875 42.921875 
L 36.375 41.703125 
Q 47.40625 39.59375 52.65625 34.296875 
Q 57.90625 29 57.90625 20.125 
Q 57.90625 9.515625 50.796875 4.046875 
Q 43.703125 -1.421875 29.984375 -1.421875 
Q 24.8125 -1.421875 18.96875 -0.25 
Q 13.140625 0.921875 6.890625 3.21875 
L 6.890625 13.375 
Q 12.890625 10.015625 18.65625 8.296875 
Q 24.421875 6.59375 29.984375 6.59375 
Q 38.421875 6.59375 43.015625 9.90625 
Q 47.609375 13.234375 47.609375 19.390625 
Q 47.609375 24.75 44.3125 27.78125 
Q 41.015625 30.8125 33.5 32.328125 
L 27.484375 33.5 
Q 16.453125 35.6875 11.515625 40.375 
Q 6.59375 45.0625 6.59375 53.421875 
Q 6.59375 63.09375 13.40625 68.65625 
Q 20.21875 74.21875 32.171875 74.21875 
Q 37.3125 74.21875 42.625 73.28125 
Q 47.953125 72.359375 53.515625 70.515625 
z
" id="DejaVuSans-53"/>
     <path d="M 18.3125 70.21875 
L 18.3125 54.6875 
L 36.8125 54.6875 
L 36.8125 47.703125 
L 18.3125 47.703125 
L 18.3125 18.015625 
Q 18.3125 11.328125 20.140625 9.421875 
Q 21.96875 7.515625 27.59375 7.515625 
L 36.8125 7.515625 
L 36.8125 0 
L 27.59375 0 
Q 17.1875 0 13.234375 3.875 
Q 9.28125 7.765625 9.28125 18.015625 
L 9.28125 47.703125 
L 2.6875 47.703125 
L 2.6875 54.6875 
L 9.28125 54.6875 
L 9.28125 70.21875 
z
" id="DejaVuSans-74"/>
     <path d="M 41.109375 46.296875 
Q 39.59375 47.171875 37.8125 47.578125 
Q 36.03125 48 33.890625 48 
Q 26.265625 48 22.1875 43.046875 
Q 18.109375 38.09375 18.109375 28.8125 
L 18.109375 0 
L 9.078125 0 
L 9.078125 54.6875 
L 18.109375 54.6875 
L 18.109375 46.1875 
Q 20.953125 51.171875 25.484375 53.578125 
Q 30.03125 56 36.53125 56 
Q 37.453125 56 38.578125 55.875 
Q 39.703125 55.765625 41.0625 55.515625 
z
" id="DejaVuSans-72"/>
     <path d="M 8.5 21.578125 
L 8.5 54.6875 
L 17.484375 54.6875 
L 17.484375 21.921875 
Q 17.484375 14.15625 20.5 10.265625 
Q 23.53125 6.390625 29.59375 6.390625 
Q 36.859375 6.390625 41.078125 11.03125 
Q 45.3125 15.671875 45.3125 23.6875 
L 45.3125 54.6875 
L 54.296875 54.6875 
L 54.296875 0 
L 45.3125 0 
L 45.3125 8.40625 
Q 42.046875 3.421875 37.71875 1 
Q 33.40625 -1.421875 27.6875 -1.421875 
Q 18.265625 -1.421875 13.375 4.4375 
Q 8.5 10.296875 8.5 21.578125 
z
M 31.109375 56 
z
" id="DejaVuSans-75"/>
     <path d="M 48.78125 52.59375 
L 48.78125 44.1875 
Q 44.96875 46.296875 41.140625 47.34375 
Q 37.3125 48.390625 33.40625 48.390625 
Q 24.65625 48.390625 19.8125 42.84375 
Q 14.984375 37.3125 14.984375 27.296875 
Q 14.984375 17.28125 19.8125 11.734375 
Q 24.65625 6.203125 33.40625 6.203125 
Q 37.3125 6.203125 41.140625 7.25 
Q 44.96875 8.296875 48.78125 10.40625 
L 48.78125 2.09375 
Q 45.015625 0.34375 40.984375 -0.53125 
Q 36.96875 -1.421875 32.421875 -1.421875 
Q 20.0625 -1.421875 12.78125 6.34375 
Q 5.515625 14.109375 5.515625 27.296875 
Q 5.515625 40.671875 12.859375 48.328125 
Q 20.21875 56 33.015625 56 
Q 37.15625 56 41.109375 55.140625 
Q 45.0625 54.296875 48.78125 52.59375 
z
" id="DejaVuSans-63"/>
     <path d="M 56.203125 29.59375 
L 56.203125 25.203125 
L 14.890625 25.203125 
Q 15.484375 15.921875 20.484375 11.0625 
Q 25.484375 6.203125 34.421875 6.203125 
Q 39.59375 6.203125 44.453125 7.46875 
Q 49.3125 8.734375 54.109375 11.28125 
L 54.109375 2.78125 
Q 49.265625 0.734375 44.1875 -0.34375 
Q 39.109375 -1.421875 33.890625 -1.421875 
Q 20.796875 -1.421875 13.15625 6.1875 
Q 5.515625 13.8125 5.515625 26.8125 
Q 5.515625 40.234375 12.765625 48.109375 
Q 20.015625 56 32.328125 56 
Q 43.359375 56 49.78125 48.890625 
Q 56.203125 41.796875 56.203125 29.59375 
z
M 47.21875 32.234375 
Q 47.125 39.59375 43.09375 43.984375 
Q 39.0625 48.390625 32.421875 48.390625 
Q 24.90625 48.390625 20.390625 44.140625 
Q 15.875 39.890625 15.1875 32.171875 
z
" id="DejaVuSans-65"/>
     <path id="DejaVuSans-20"/>
     <path d="M 51.125 44 
L 36.921875 44 
L 32.8125 27.6875 
L 47.125 27.6875 
z
M 43.796875 71.78125 
L 38.71875 51.515625 
L 52.984375 51.515625 
L 58.109375 71.78125 
L 65.921875 71.78125 
L 60.890625 51.515625 
L 76.125 51.515625 
L 76.125 44 
L 58.984375 44 
L 54.984375 27.6875 
L 70.515625 27.6875 
L 70.515625 20.21875 
L 53.078125 20.21875 
L 48 0 
L 40.1875 0 
L 45.21875 20.21875 
L 30.90625 20.21875 
L 25.875 0 
L 18.015625 0 
L 23.09375 20.21875 
L 7.71875 20.21875 
L 7.71875 27.6875 
L 24.90625 27.6875 
L 29 44 
L 13.28125 44 
L 13.28125 51.515625 
L 30.90625 51.515625 
L 35.890625 71.78125 
z
" id="DejaVuSans-23"/>
     <path d="M 33.015625 40.375 
Q 26.375 40.375 22.484375 35.828125 
Q 18.609375 31.296875 18.609375 23.390625 
Q 18.609375 15.53125 22.484375 10.953125 
Q 26.375 6.390625 33.015625 6.390625 
Q 39.65625 6.390625 43.53125 10.953125 
Q 47.40625 15.53125 47.40625 23.390625 
Q 47.40625 31.296875 43.53125 35.828125 
Q 39.65625 40.375 33.015625 40.375 
z
M 52.59375 71.296875 
L 52.59375 62.3125 
Q 48.875 64.0625 45.09375 64.984375 
Q 41.3125 65.921875 37.59375 65.921875 
Q 27.828125 65.921875 22.671875 59.328125 
Q 17.53125 52.734375 16.796875 39.40625 
Q 19.671875 43.65625 24.015625 45.921875 
Q 28.375 48.1875 33.59375 48.1875 
Q 44.578125 48.1875 50.953125 41.515625 
Q 57.328125 34.859375 57.328125 23.390625 
Q 57.328125 12.15625 50.6875 5.359375 
Q 44.046875 -1.421875 33.015625 -1.421875 
Q 20.359375 -1.421875 13.671875 8.265625 
Q 6.984375 17.96875 6.984375 36.375 
Q 6.984375 53.65625 15.1875 63.9375 
Q 23.390625 74.21875 37.203125 74.21875 
Q 40.921875 74.21875 44.703125 73.484375 
Q 48.484375 72.75 52.59375 71.296875 
z
" id="DejaVuSans-36"/>
     <path d="M 10.796875 72.90625 
L 49.515625 72.90625 
L 49.515625 64.59375 
L 19.828125 64.59375 
L 19.828125 46.734375 
Q 21.96875 47.46875 24.109375 47.828125 
Q 26.265625 48.1875 28.421875 48.1875 
Q 40.625 48.1875 47.75 41.5 
Q 54.890625 34.8125 54.890625 23.390625 
Q 54.890625 11.625 47.5625 5.09375 
Q 40.234375 -1.421875 26.90625 -1.421875 
Q 22.3125 -1.421875 17.546875 -0.640625 
Q 12.796875 0.140625 7.71875 1.703125 
L 7.71875 11.625 
Q 12.109375 9.234375 16.796875 8.0625 
Q 21.484375 6.890625 26.703125 6.890625 
Q 35.15625 6.890625 40.078125 11.328125 
Q 45.015625 15.765625 45.015625 23.390625 
Q 45.015625 31 40.078125 35.4375 
Q 35.15625 39.890625 26.703125 39.890625 
Q 22.75 39.890625 18.8125 39.015625 
Q 14.890625 38.140625 10.796875 36.28125 
z
" id="DejaVuSans-35"/>
     <path d="M 19.1875 8.296875 
L 53.609375 8.296875 
L 53.609375 0 
L 7.328125 0 
L 7.328125 8.296875 
Q 12.9375 14.109375 22.625 23.890625 
Q 32.328125 33.6875 34.8125 36.53125 
Q 39.546875 41.84375 41.421875 45.53125 
Q 43.3125 49.21875 43.3125 52.78125 
Q 43.3125 58.59375 39.234375 62.25 
Q 35.15625 65.921875 28.609375 65.921875 
Q 23.96875 65.921875 18.8125 64.3125 
Q 13.671875 62.703125 7.8125 59.421875 
L 7.8125 69.390625 
Q 13.765625 71.78125 18.9375 73 
Q 24.125 74.21875 28.421875 74.21875 
Q 39.75 74.21875 46.484375 68.546875 
Q 53.21875 62.890625 53.21875 53.421875 
Q 53.21875 48.921875 51.53125 44.890625 
Q 49.859375 40.875 45.40625 35.40625 
Q 44.1875 33.984375 37.640625 27.21875 
Q 31.109375 20.453125 19.1875 8.296875 
z
" id="DejaVuSans-32"/>
     <path d="M 40.578125 39.3125 
Q 47.65625 37.796875 51.625 33 
Q 55.609375 28.21875 55.609375 21.1875 
Q 55.609375 10.40625 48.1875 4.484375 
Q 40.765625 -1.421875 27.09375 -1.421875 
Q 22.515625 -1.421875 17.65625 -0.515625 
Q 12.796875 0.390625 7.625 2.203125 
L 7.625 11.71875 
Q 11.71875 9.328125 16.59375 8.109375 
Q 21.484375 6.890625 26.8125 6.890625 
Q 36.078125 6.890625 40.9375 10.546875 
Q 45.796875 14.203125 45.796875 21.1875 
Q 45.796875 27.640625 41.28125 31.265625 
Q 36.765625 34.90625 28.71875 34.90625 
L 20.21875 34.90625 
L 20.21875 43.015625 
L 29.109375 43.015625 
Q 36.375 43.015625 40.234375 45.921875 
Q 44.09375 48.828125 44.09375 54.296875 
Q 44.09375 59.90625 40.109375 62.90625 
Q 36.140625 65.921875 28.71875 65.921875 
Q 24.65625 65.921875 20.015625 65.03125 
Q 15.375 64.15625 9.8125 62.3125 
L 9.8125 71.09375 
Q 15.4375 72.65625 20.34375 73.4375 
Q 25.25 74.21875 29.59375 74.21875 
Q 40.828125 74.21875 47.359375 69.109375 
Q 53.90625 64.015625 53.90625 55.328125 
Q 53.90625 49.265625 50.4375 45.09375 
Q 46.96875 40.921875 40.578125 39.3125 
z
" id="DejaVuSans-33"/>
     <path d="M 11.71875 12.40625 
L 22.015625 12.40625 
L 22.015625 4 
L 14.015625 -11.625 
L 7.71875 -11.625 
L 11.71875 4 
z
" id="DejaVuSans-2c"/>
     <path d="M 16.890625 72.90625 
L 62.984375 72.90625 
L 61.375 64.59375 
L 25.09375 64.59375 
L 20.90625 43.015625 
L 55.71875 43.015625 
L 54.109375 34.71875 
L 19.28125 34.71875 
L 14.203125 8.296875 
L 51.3125 8.296875 
L 49.703125 0 
L 2.6875 0 
z
" id="DejaVuSans-Oblique-45"/>
     <path d="M 16.890625 72.90625 
L 30.171875 72.90625 
L 50.296875 10.40625 
L 62.5 72.90625 
L 72.125 72.90625 
L 57.90625 0 
L 44.578125 0 
L 24.515625 62.890625 
L 12.3125 0 
L 2.6875 0 
z
" id="DejaVuSans-Oblique-4e"/>
     <path d="M 10.59375 45.40625 
L 73.1875 45.40625 
L 73.1875 37.203125 
L 10.59375 37.203125 
z
M 10.59375 25.484375 
L 73.1875 25.484375 
L 73.1875 17.1875 
L 10.59375 17.1875 
z
" id="DejaVuSans-3d"/>
     <path d="M 4.890625 31.390625 
L 31.203125 31.390625 
L 31.203125 23.390625 
L 4.890625 23.390625 
z
" id="DejaVuSans-2d"/>
     <path d="M 12.40625 8.296875 
L 28.515625 8.296875 
L 28.515625 63.921875 
L 10.984375 60.40625 
L 10.984375 69.390625 
L 28.421875 72.90625 
L 38.28125 72.90625 
L 38.28125 8.296875 
L 54.390625 8.296875 
L 54.390625 0 
L 12.40625 0 
z
" id="DejaVuSans-31"/>
     <path d="M 31.78125 34.625 
Q 24.75 34.625 20.71875 30.859375 
Q 16.703125 27.09375 16.703125 20.515625 
Q 16.703125 13.921875 20.71875 10.15625 
Q 24.75 6.390625 31.78125 6.390625 
Q 38.8125 6.390625 42.859375 10.171875 
Q 46.921875 13.96875 46.921875 20.515625 
Q 46.921875 27.09375 42.890625 30.859375 
Q 38.875 34.625 31.78125 34.625 
z
M 21.921875 38.8125 
Q 15.578125 40.375 12.03125 44.71875 
Q 8.5 49.078125 8.5 55.328125 
Q 8.5 64.0625 14.71875 69.140625 
Q 20.953125 74.21875 31.78125 74.21875 
Q 42.671875 74.21875 48.875 69.140625 
Q 55.078125 64.0625 55.078125 55.328125 
Q 55.078125 49.078125 51.53125 44.71875 
Q 48 40.375 41.703125 38.8125 
Q 48.828125 37.15625 52.796875 32.3125 
Q 56.78125 27.484375 56.78125 20.515625 
Q 56.78125 9.90625 50.3125 4.234375 
Q 43.84375 -1.421875 31.78125 -1.421875 
Q 19.734375 -1.421875 13.25 4.234375 
Q 6.78125 9.90625 6.78125 20.515625 
Q 6.78125 27.484375 10.78125 32.3125 
Q 14.796875 37.15625 21.921875 38.8125 
z
M 18.3125 54.390625 
Q 18.3125 48.734375 21.84375 45.5625 
Q 25.390625 42.390625 31.78125 42.390625 
Q 38.140625 42.390625 41.71875 45.5625 
Q 45.3125 48.734375 45.3125 54.390625 
Q 45.3125 60.0625 41.71875 63.234375 
Q 38.140625 66.40625 31.78125 66.40625 
Q 25.390625 66.40625 21.84375 63.234375 
Q 18.3125 60.0625 18.3125 54.390625 
z
" id="DejaVuSans-38"/>
     <path d="M 10.6875 12.40625 
L 21 12.40625 
L 21 0 
L 10.6875 0 
z
" id="DejaVuSans-2e"/>
     <path d="M 28.609375 0 
L 0.78125 72.90625 
L 11.078125 72.90625 
L 34.1875 11.53125 
L 57.328125 72.90625 
L 67.578125 72.90625 
L 39.796875 0 
z
" id="DejaVuSans-56"/>
     <path d="M 34.1875 63.1875 
L 14.15625 8.203125 
L 54.25 8.203125 
z
M 0.78125 0 
L 28.609375 72.90625 
L 39.796875 72.90625 
L 67.578125 0 
z
" id="DejaVuSans-394"/>
     <path d="M 9.8125 72.90625 
L 55.90625 72.90625 
L 55.90625 64.59375 
L 19.671875 64.59375 
L 19.671875 43.015625 
L 54.390625 43.015625 
L 54.390625 34.71875 
L 19.671875 34.71875 
L 19.671875 8.296875 
L 56.78125 8.296875 
L 56.78125 0 
L 9.8125 0 
z
" id="DejaVuSans-45"/>
     <path d="M 31.78125 66.40625 
Q 24.171875 66.40625 20.328125 58.90625 
Q 16.5 51.421875 16.5 36.375 
Q 16.5 21.390625 20.328125 13.890625 
Q 24.171875 6.390625 31.78125 6.390625 
Q 39.453125 6.390625 43.28125 13.890625 
Q 47.125 21.390625 47.125 36.375 
Q 47.125 51.421875 43.28125 58.90625 
Q 39.453125 66.40625 31.78125 66.40625 
z
M 31.78125 74.21875 
Q 44.046875 74.21875 50.515625 64.515625 
Q 56.984375 54.828125 56.984375 36.375 
Q 56.984375 17.96875 50.515625 8.265625 
Q 44.046875 -1.421875 31.78125 -1.421875 
Q 19.53125 -1.421875 13.0625 8.265625 
Q 6.59375 17.96875 6.59375 36.375 
Q 6.59375 54.828125 13.0625 64.515625 
Q 19.53125 74.21875 31.78125 74.21875 
z
" id="DejaVuSans-30"/>
    </defs>
    <g transform="translate(65.388 35.472)scale(0.12 -0.12)">
     <use transform="translate(0 0.78125)" xlink:href="#DejaVuSans-53"/>
     <use transform="translate(63.476562 0.78125)" xlink:href="#DejaVuSans-74"/>
     <use transform="translate(102.685547 0.78125)" xlink:href="#DejaVuSans-72"/>
     <use transform="translate(143.798828 0.78125)" xlink:href="#DejaVuSans-75"/>
     <use transform="translate(207.177734 0.78125)" xlink:href="#DejaVuSans-63"/>
     <use transform="translate(262.158203 0.78125)" xlink:href="#DejaVuSans-74"/>
     <use transform="translate(301.367188 0.78125)" xlink:href="#DejaVuSans-75"/>
     <use transform="translate(364.746094 0.78125)" xlink:href="#DejaVuSans-72"/>
     <use transform="translate(405.859375 0.78125)" xlink:href="#DejaVuSans-65"/>
     <use transform="translate(467.382812 0.78125)" xlink:href="#DejaVuSans-20"/>
     <use transform="translate(499.169922 0.78125)" xlink:href="#DejaVuSans-23"/>
     <use transform="translate(582.958984 0.78125)" xlink:href="#DejaVuSans-36"/>
     <use transform="translate(646.582031 0.78125)" xlink:href="#DejaVuSans-35"/>
     <use transform="translate(710.205078 0.78125)" xlink:href="#DejaVuSans-32"/>
     <use transform="translate(773.828125 0.78125)" xlink:href="#DejaVuSans-33"/>
     <use transform="translate(837.451172 0.78125)" xlink:href="#DejaVuSans-2c"/>
     <use transform="translate(869.238281 0.78125)" xlink:href="#DejaVuSans-20"/>
     <use transform="translate(901.025391 0.78125)" xlink:href="#DejaVuSans-Oblique-45"/>
     <use transform="translate(964.208984 -15.625)scale(0.7)" xlink:href="#DejaVuSans-Oblique-4e"/>
     <use transform="translate(1019.306641 0.78125)" xlink:href="#DejaVuSans-3d"/>
     <use transform="translate(1103.095703 0.78125)" xlink:href="#DejaVuSans-2d"/>
     <use transform="translate(1139.179688 0.78125)" xlink:href="#DejaVuSans-31"/>
     <use transform="translate(1202.802734 0.78125)" xlink:href="#DejaVuSans-38"/>
     <use transform="translate(1266.425781 0.78125)" xlink:href="#DejaVuSans-33"/>
     <use transform="translate(1330.048828 0.78125)" xlink:href="#DejaVuSans-2e"/>
     <use transform="translate(1361.804688 0.78125)" xlink:href="#DejaVuSans-38"/>
     <use transform="translate(1425.427734 0.78125)" xlink:href="#DejaVuSans-32"/>
     <use transform="translate(1489.050781 0.78125)" xlink:href="#DejaVuSans-65"/>
     <use transform="translate(1550.574219 0.78125)" xlink:href="#DejaVuSans-56"/>
     <use transform="translate(1618.982422 0.78125)" xlink:href="#DejaVuSans-2c"/>
     <use transform="translate(1650.769531 0.78125)" xlink:href="#DejaVuSans-20"/>
     <use transform="translate(1682.556641 0.78125)" xlink:href="#DejaVuSans-394"/>
     <use transform="translate(1750.964844 0.78125)" xlink:href="#DejaVuSans-45"/>
     <use transform="translate(1814.148438 0.78125)" xlink:href="#DejaVuSans-3d"/>
     <use transform="translate(1897.9375 0.78125)" xlink:href="#DejaVuSans-30"/>
     <use transform="translate(1961.560547 0.78125)" xlink:href="#DejaVuSans-2e"/>
     <use transform="translate(1993.347656 0.78125)" xlink:href="#DejaVuSans-31"/>
     <use transform="translate(2056.970703 0.78125)" xlink:href="#DejaVuSans-31"/>
     <use transform="translate(2120.59375 0.78125)" xlink:href="#DejaVuSans-65"/>
     <use transform="translate(2182.117188 0.78125)" xlink:href="#DejaVuSans-56"/>
    </g>
   </g>
  </g>
  <g id="axes_2">
   <g id="patch_2">
    <path clip-path="url(#pf74aa1f4d5)" d="M 361.152 307.584 
L 361.152 306.5445 
L 361.152 42.5115 
L 361.152 41.472 
L 374.4576 41.472 
L 374.4576 42.5115 
L 374.4576 306.5445 
L 374.4576 307.584 
z
" style="fill:#ffffff;stroke:#ffffff;stroke-linejoin:miter;stroke-width:0.01;"/>
   </g>
   <image height="265.68" id="image558ceae5eb" transform="scale(1 -1)translate(0 -265.68)" width="12.96" x="361.44" xlink:href="data:image/png;base64,
iVBORw0KGgoAAAANSUhEUgAAABIAAAFxCAYAAAB+2fgXAAAABHNCSVQICAgIfAhkiAAAAeVJREFUeJztncmNw0AQA2ckheYQNv9QLIfQ8ygsCgQ7AEI8+jAs2Puz/94F1LP2ReCsZ18bAWIeZ5XaGRBE7VnbptG+KI101FYyNSiQG2oRITXKNaX9uclOdi2XWjftVE32CZCO2ou5Bj1TcCBr/1zB9ge7Fq0Rg2NM9pvbtG+ua1QgsRYhDy0ISEiNc40BEibbSI0Coj5CBGtkpFbXJiAjNZlrwhuSOv2M1DjXbEdEciBt1JSDDQKKpmZr2rr2j0DBGpXaWEJq3bQzEPIS26r9J+Wzv9Tm8o3aajRXqc3VUXsApKNWjeZq0x4ABVNbm7lrszVigDqP5vIl2+eaT2yfRkL7g+dRcNPqjohkjaCvRVBq0H2U3LQrOJCx9kdTg4B8oxZzzTdqdYHEngjUCAPyUctN9sVRq2sTECW2UKNLd2jVtRmo1A6AhMmWaSRcR8nUdIHUuVb75zJS218EyEitro1At69pIdeSk30Lkw0FktNImGyZRhy1O5galmxd03LUsHWk06jUZiCq+5Wb1kZNN4+wJxJuWt8RAW5am2sYNZ9rYCBzZ3buPKJ2P5Yj4Toy3keyIyJbIxs1rml1byCA84gpch5RQNB7Q0qNMGq2Hy4BXdNR41yz/cEEJfZzUz96r9PoB0okjeQ8y9TkAAAAAElFTkSuQmCC" y="-41.76"/>
   <g id="matplotlib.axis_1"/>
   <g id="matplotlib.axis_2">
    <g id="ytick_1">
     <g id="line2d_1">
      <defs>
       <path d="M 0 0 
L 3.5 0 
" id="m48f1de2938" style="stroke:#000000;stroke-width:0.8;"/>
      </defs>
      <g>
       <use style="stroke:#000000;stroke-width:0.8;" x="374.4576" xlink:href="#m48f1de2938" y="267.236419"/>
      </g>
     </g>
     <g id="text_2">
      <!-- −8.5 -->
      <defs>
       <path d="M 10.59375 35.5 
L 73.1875 35.5 
L 73.1875 27.203125 
L 10.59375 27.203125 
z
" id="DejaVuSans-2212"/>
      </defs>
      <g transform="translate(381.4576 271.035638)scale(0.1 -0.1)">
       <use xlink:href="#DejaVuSans-2212"/>
       <use x="83.789062" xlink:href="#DejaVuSans-38"/>
       <use x="147.412109" xlink:href="#DejaVuSans-2e"/>
       <use x="179.199219" xlink:href="#DejaVuSans-35"/>
      </g>
     </g>
    </g>
    <g id="ytick_2">
     <g id="line2d_2">
      <g>
       <use style="stroke:#000000;stroke-width:0.8;" x="374.4576" xlink:href="#m48f1de2938" y="225.163177"/>
      </g>
     </g>
     <g id="text_3">
      <!-- −8.0 -->
      <g transform="translate(381.4576 228.962396)scale(0.1 -0.1)">
       <use xlink:href="#DejaVuSans-2212"/>
       <use x="83.789062" xlink:href="#DejaVuSans-38"/>
       <use x="147.412109" xlink:href="#DejaVuSans-2e"/>
       <use x="179.199219" xlink:href="#DejaVuSans-30"/>
      </g>
     </g>
    </g>
    <g id="ytick_3">
     <g id="line2d_3">
      <g>
       <use style="stroke:#000000;stroke-width:0.8;" x="374.4576" xlink:href="#m48f1de2938" y="183.089936"/>
      </g>
     </g>
     <g id="text_4">
      <!-- −7.5 -->
      <defs>
       <path d="M 8.203125 72.90625 
L 55.078125 72.90625 
L 55.078125 68.703125 
L 28.609375 0 
L 18.3125 0 
L 43.21875 64.59375 
L 8.203125 64.59375 
z
" id="DejaVuSans-37"/>
      </defs>
      <g transform="translate(381.4576 186.889155)scale(0.1 -0.1)">
       <use xlink:href="#DejaVuSans-2212"/>
       <use x="83.789062" xlink:href="#DejaVuSans-37"/>
       <use x="147.412109" xlink:href="#DejaVuSans-2e"/>
       <use x="179.199219" xlink:href="#DejaVuSans-35"/>
      </g>
     </g>
    </g>
    <g id="ytick_4">
     <g id="line2d_4">
      <g>
       <use style="stroke:#000000;stroke-width:0.8;" x="374.4576" xlink:href="#m48f1de2938" y="141.016695"/>
      </g>
     </g>
     <g id="text_5">
      <!-- −7.0 -->
      <g transform="translate(381.4576 144.815913)scale(0.1 -0.1)">
       <use xlink:href="#DejaVuSans-2212"/>
       <use x="83.789062" xlink:href="#DejaVuSans-37"/>
       <use x="147.412109" xlink:href="#DejaVuSans-2e"/>
       <use x="179.199219" xlink:href="#DejaVuSans-30"/>
      </g>
     </g>
    </g>
    <g id="ytick_5">
     <g id="line2d_5">
      <g>
       <use style="stroke:#000000;stroke-width:0.8;" x="374.4576" xlink:href="#m48f1de2938" y="98.943453"/>
      </g>
     </g>
     <g id="text_6">
      <!-- −6.5 -->
      <g transform="translate(381.4576 102.742672)scale(0.1 -0.1)">
       <use xlink:href="#DejaVuSans-2212"/>
       <use x="83.789062" xlink:href="#DejaVuSans-36"/>
       <use x="147.412109" xlink:href="#DejaVuSans-2e"/>
       <use x="179.199219" xlink:href="#DejaVuSans-35"/>
      </g>
     </g>
    </g>
    <g id="ytick_6">
     <g id="line2d_6">
      <g>
       <use style="stroke:#000000;stroke-width:0.8;" x="374.4576" xlink:href="#m48f1de2938" y="56.870212"/>
      </g>
     </g>
     <g id="text_7">
      <!-- −6.0 -->
      <g transform="translate(381.4576 60.669431)scale(0.1 -0.1)">
       <use xlink:href="#DejaVuSans-2212"/>
       <use x="83.789062" xlink:href="#DejaVuSans-36"/>
       <use x="147.412109" xlink:href="#DejaVuSans-2e"/>
       <use x="179.199219" xlink:href="#DejaVuSans-30"/>
      </g>
     </g>
    </g>
    <g id="text_8">
     <!-- Energy [eV] -->
     <defs>
      <path d="M 54.890625 33.015625 
L 54.890625 0 
L 45.90625 0 
L 45.90625 32.71875 
Q 45.90625 40.484375 42.875 44.328125 
Q 39.84375 48.1875 33.796875 48.1875 
Q 26.515625 48.1875 22.3125 43.546875 
Q 18.109375 38.921875 18.109375 30.90625 
L 18.109375 0 
L 9.078125 0 
L 9.078125 54.6875 
L 18.109375 54.6875 
L 18.109375 46.1875 
Q 21.34375 51.125 25.703125 53.5625 
Q 30.078125 56 35.796875 56 
Q 45.21875 56 50.046875 50.171875 
Q 54.890625 44.34375 54.890625 33.015625 
z
" id="DejaVuSans-6e"/>
      <path d="M 45.40625 27.984375 
Q 45.40625 37.75 41.375 43.109375 
Q 37.359375 48.484375 30.078125 48.484375 
Q 22.859375 48.484375 18.828125 43.109375 
Q 14.796875 37.75 14.796875 27.984375 
Q 14.796875 18.265625 18.828125 12.890625 
Q 22.859375 7.515625 30.078125 7.515625 
Q 37.359375 7.515625 41.375 12.890625 
Q 45.40625 18.265625 45.40625 27.984375 
z
M 54.390625 6.78125 
Q 54.390625 -7.171875 48.1875 -13.984375 
Q 42 -20.796875 29.203125 -20.796875 
Q 24.46875 -20.796875 20.265625 -20.09375 
Q 16.0625 -19.390625 12.109375 -17.921875 
L 12.109375 -9.1875 
Q 16.0625 -11.328125 19.921875 -12.34375 
Q 23.78125 -13.375 27.78125 -13.375 
Q 36.625 -13.375 41.015625 -8.765625 
Q 45.40625 -4.15625 45.40625 5.171875 
L 45.40625 9.625 
Q 42.625 4.78125 38.28125 2.390625 
Q 33.9375 0 27.875 0 
Q 17.828125 0 11.671875 7.65625 
Q 5.515625 15.328125 5.515625 27.984375 
Q 5.515625 40.671875 11.671875 48.328125 
Q 17.828125 56 27.875 56 
Q 33.9375 56 38.28125 53.609375 
Q 42.625 51.21875 45.40625 46.390625 
L 45.40625 54.6875 
L 54.390625 54.6875 
z
" id="DejaVuSans-67"/>
      <path d="M 32.171875 -5.078125 
Q 28.375 -14.84375 24.75 -17.8125 
Q 21.140625 -20.796875 15.09375 -20.796875 
L 7.90625 -20.796875 
L 7.90625 -13.28125 
L 13.1875 -13.28125 
Q 16.890625 -13.28125 18.9375 -11.515625 
Q 21 -9.765625 23.484375 -3.21875 
L 25.09375 0.875 
L 2.984375 54.6875 
L 12.5 54.6875 
L 29.59375 11.921875 
L 46.6875 54.6875 
L 56.203125 54.6875 
z
" id="DejaVuSans-79"/>
      <path d="M 8.59375 75.984375 
L 29.296875 75.984375 
L 29.296875 69 
L 17.578125 69 
L 17.578125 -6.203125 
L 29.296875 -6.203125 
L 29.296875 -13.1875 
L 8.59375 -13.1875 
z
" id="DejaVuSans-5b"/>
      <path d="M 30.421875 75.984375 
L 30.421875 -13.1875 
L 9.71875 -13.1875 
L 9.71875 -6.203125 
L 21.390625 -6.203125 
L 21.390625 69 
L 9.71875 69 
L 9.71875 75.984375 
z
" id="DejaVuSans-5d"/>
     </defs>
     <g transform="translate(417.33885 204.108469)rotate(-90)scale(0.1 -0.1)">
      <use xlink:href="#DejaVuSans-45"/>
      <use x="63.183594" xlink:href="#DejaVuSans-6e"/>
      <use x="126.5625" xlink:href="#DejaVuSans-65"/>
      <use x="188.085938" xlink:href="#DejaVuSans-72"/>
      <use x="229.183594" xlink:href="#DejaVuSans-67"/>
      <use x="292.660156" xlink:href="#DejaVuSans-79"/>
      <use x="351.839844" xlink:href="#DejaVuSans-20"/>
      <use x="383.626953" xlink:href="#DejaVuSans-5b"/>
      <use x="422.640625" xlink:href="#DejaVuSans-65"/>
      <use x="484.164062" xlink:href="#DejaVuSans-56"/>
      <use x="552.572266" xlink:href="#DejaVuSans-5d"/>
     </g>
    </g>
   </g>
   <g id="patch_3">
    <path d="M 361.152 307.584 
L 361.152 306.5445 
L 361.152 42.5115 
L 361.152 41.472 
L 374.4576 41.472 
L 374.4576 42.5115 
L 374.4576 306.5445 
L 374.4576 307.584 
z
" style="fill:none;stroke:#000000;stroke-linejoin:miter;stroke-width:0.8;"/>
   </g>
  </g>
 </g>
 <defs>
  <clipPath id="pce3fb2aebc">
   <rect height="266.112" width="285.696" x="57.6" y="41.472"/>
  </clipPath>
  <clipPath id="pf74aa1f4d5">
   <rect height="266.112" width="13.3056" x="361.152" y="41.472"/>
  </clipPath>
 </defs>
</svg>
