<?xml version="1.0" encoding="utf-8" standalone="no"?>
<!DOCTYPE svg PUBLIC "-//W3C//DTD SVG 1.1//EN"
  "http://www.w3.org/Graphics/SVG/1.1/DTD/svg11.dtd">
<!-- Created with matplotlib (http://matplotlib.org/) -->
<svg height="345.6pt" version="1.1" viewBox="0 0 460.8 345.6" width="460.8pt" xmlns="http://www.w3.org/2000/svg" xmlns:xlink="http://www.w3.org/1999/xlink">
 <defs>
  <style type="text/css">
*{stroke-linecap:butt;stroke-linejoin:round;}
  </style>
 </defs>
 <g id="figure_1">
  <g id="patch_1">
   <path d="M 0 345.6 
L 460.8 345.6 
L 460.8 0 
L 0 0 
z
" style="fill:#ffffff;"/>
  </g>
  <g id="axes_1">
   <g id="CircleCollection_1">
    <path clip-path="url(#p9b2792cabe)" d="M 146.095791 207.721428 
C 147.868189 207.721428 149.568233 207.017247 150.821508 205.763972 
C 152.074783 204.510697 152.778964 202.810653 152.778964 201.038255 
C 152.778964 199.265857 152.074783 197.565813 150.821508 196.312538 
C 149.568233 195.059263 147.868189 194.355082 146.095791 194.355082 
C 144.323393 194.355082 142.623349 195.059263 141.370074 196.312538 
C 140.116799 197.565813 139.412618 199.265857 139.412618 201.038255 
C 139.412618 202.810653 140.116799 204.510697 141.370074 205.763972 
C 142.623349 207.017247 144.323393 207.721428 146.095791 207.721428 
z
" style="fill:#297a8e;"/>
    <path clip-path="url(#p9b2792cabe)" d="M 152.680698 66.92571 
C 154.334818 66.92571 155.921413 66.268521 157.091053 65.098881 
C 158.260693 63.929241 158.917883 62.342646 158.917883 60.688525 
C 158.917883 59.034405 158.260693 57.44781 157.091053 56.27817 
C 155.921413 55.10853 154.334818 54.45134 152.680698 54.45134 
C 151.026577 54.45134 149.439982 55.10853 148.270342 56.27817 
C 147.100702 57.44781 146.443513 59.034405 146.443513 60.688525 
C 146.443513 62.342646 147.100702 63.929241 148.270342 65.098881 
C 149.439982 66.268521 151.026577 66.92571 152.680698 66.92571 
z
" style="fill:#32658e;"/>
    <path clip-path="url(#p9b2792cabe)" d="M 250.390122 301.280571 
C 252.103033 301.280571 253.746019 300.600025 254.95723 299.388813 
C 256.168441 298.177602 256.848988 296.534616 256.848988 294.821705 
C 256.848988 293.108794 256.168441 291.465808 254.95723 290.254597 
C 253.746019 289.043386 252.103033 288.362839 250.390122 288.362839 
C 248.677211 288.362839 247.034225 289.043386 245.823014 290.254597 
C 244.611802 291.465808 243.931256 293.108794 243.931256 294.821705 
C 243.931256 296.534616 244.611802 298.177602 245.823014 299.388813 
C 247.034225 300.600025 248.677211 301.280571 250.390122 301.280571 
z
" style="fill:#fde725;"/>
    <path clip-path="url(#p9b2792cabe)" d="M 243.68496 226.07499 
C 245.377081 226.07499 247.000125 225.402703 248.196635 224.206193 
C 249.393145 223.009682 250.065432 221.386639 250.065432 219.694518 
C 250.065432 218.002397 249.393145 216.379353 248.196635 215.182842 
C 247.000125 213.986332 245.377081 213.314046 243.68496 213.314046 
C 241.992839 213.314046 240.369795 213.986332 239.173285 215.182842 
C 237.976775 216.379353 237.304488 218.002397 237.304488 219.694518 
C 237.304488 221.386639 237.976775 223.009682 239.173285 224.206193 
C 240.369795 225.402703 241.992839 226.07499 243.68496 226.07499 
z
" style="fill:#453882;"/>
    <path clip-path="url(#p9b2792cabe)" d="M 117.976259 244.361851 
C 119.704191 244.361851 121.361584 243.675337 122.583416 242.453504 
C 123.805248 241.231672 124.491763 239.574279 124.491763 237.846347 
C 124.491763 236.118415 123.805248 234.461022 122.583416 233.23919 
C 121.361584 232.017358 119.704191 231.330843 117.976259 231.330843 
C 116.248327 231.330843 114.590934 232.017358 113.369102 233.23919 
C 112.147269 234.461022 111.460755 236.118415 111.460755 237.846347 
C 111.460755 239.574279 112.147269 241.231672 113.369102 242.453504 
C 114.590934 243.675337 116.248327 244.361851 117.976259 244.361851 
z
" style="fill:#2a778e;"/>
    <path clip-path="url(#p9b2792cabe)" d="M 293.568447 108.177856 
C 295.348249 108.177856 297.055395 107.470734 298.313905 106.212224 
C 299.572415 104.953713 300.279538 103.246568 300.279538 101.466766 
C 300.279538 99.686964 299.572415 97.979818 298.313905 96.721308 
C 297.055395 95.462798 295.348249 94.755675 293.568447 94.755675 
C 291.788645 94.755675 290.0815 95.462798 288.82299 96.721308 
C 287.56448 97.979818 286.857357 99.686964 286.857357 101.466766 
C 286.857357 103.246568 287.56448 104.953713 288.82299 106.212224 
C 290.0815 107.470734 291.788645 108.177856 293.568447 108.177856 
z
" style="fill:#1e9d89;"/>
    <path clip-path="url(#p9b2792cabe)" d="M 329.847453 191.095518 
C 331.619412 191.095518 333.319034 190.391511 334.571998 189.138547 
C 335.824962 187.885583 336.528969 186.185961 336.528969 184.414002 
C 336.528969 182.642043 335.824962 180.942421 334.571998 179.689457 
C 333.319034 178.436493 331.619412 177.732486 329.847453 177.732486 
C 328.075494 177.732486 326.375872 178.436493 325.122908 179.689457 
C 323.869944 180.942421 323.165937 182.642043 323.165937 184.414002 
C 323.165937 186.185961 323.869944 187.885583 325.122908 189.138547 
C 326.375872 190.391511 328.075494 191.095518 329.847453 191.095518 
z
" style="fill:#25838e;"/>
    <path clip-path="url(#p9b2792cabe)" d="M 210.885743 265.44047 
C 212.600603 265.44047 214.245459 264.759149 215.458048 263.546559 
C 216.670638 262.33397 217.351959 260.689114 217.351959 258.974254 
C 217.351959 257.259393 216.670638 255.614538 215.458048 254.401949 
C 214.245459 253.189359 212.600603 252.508038 210.885743 252.508038 
C 209.170882 252.508038 207.526027 253.189359 206.313438 254.401949 
C 205.100848 255.614538 204.419527 257.259393 204.419527 258.974254 
C 204.419527 260.689114 205.100848 262.33397 206.313438 263.546559 
C 207.526027 264.759149 209.170882 265.44047 210.885743 265.44047 
z
" style="fill:#3f4788;"/>
    <path clip-path="url(#p9b2792cabe)" d="M 175.334647 122.264307 
C 177.136287 122.264307 178.86438 121.548507 180.138332 120.274555 
C 181.412285 119.000603 182.128084 117.27251 182.128084 115.470869 
C 182.128084 113.669228 181.412285 111.941136 180.138332 110.667183 
C 178.86438 109.393231 177.136287 108.677431 175.334647 108.677431 
C 173.533006 108.677431 171.804913 109.393231 170.530961 110.667183 
C 169.257008 111.941136 168.541209 113.669228 168.541209 115.470869 
C 168.541209 117.27251 169.257008 119.000603 170.530961 120.274555 
C 171.804913 121.548507 173.533006 122.264307 175.334647 122.264307 
z
" style="fill:#23888e;"/>
    <path clip-path="url(#p9b2792cabe)" d="M 77.124684 223.170514 
C 78.820528 223.170514 80.447143 222.496748 81.646286 221.297606 
C 82.845428 220.098463 83.519194 218.471848 83.519194 216.776004 
C 83.519194 215.08016 82.845428 213.453545 81.646286 212.254403 
C 80.447143 211.05526 78.820528 210.381494 77.124684 210.381494 
C 75.42884 210.381494 73.802225 211.05526 72.603083 212.254403 
C 71.40394 213.453545 70.730174 215.08016 70.730174 216.776004 
C 70.730174 218.471848 71.40394 220.098463 72.603083 221.297606 
C 73.802225 222.496748 75.42884 223.170514 77.124684 223.170514 
z
" style="fill:#1f9e89;"/>
    <path clip-path="url(#p9b2792cabe)" d="M 140.363139 155.28601 
C 142.136624 155.28601 143.83771 154.581397 145.091753 153.327354 
C 146.345797 152.073311 147.05041 150.372224 147.05041 148.59874 
C 147.05041 146.825255 146.345797 145.124169 145.091753 143.870125 
C 143.83771 142.616082 142.136624 141.911469 140.363139 141.911469 
C 138.589655 141.911469 136.888568 142.616082 135.634525 143.870125 
C 134.380482 145.124169 133.675869 146.825255 133.675869 148.59874 
C 133.675869 150.372224 134.380482 152.073311 135.634525 153.327354 
C 136.888568 154.581397 138.589655 155.28601 140.363139 155.28601 
z
" style="fill:#440154;"/>
    <path clip-path="url(#p9b2792cabe)" d="M 165.111191 254.98292 
C 166.85184 254.98292 168.521431 254.291353 169.752255 253.060529 
C 170.983079 251.829704 171.674647 250.160114 171.674647 248.419465 
C 171.674647 246.678817 170.983079 245.009226 169.752255 243.778402 
C 168.521431 242.547577 166.85184 241.85601 165.111191 241.85601 
C 163.370543 241.85601 161.700952 242.547577 160.470128 243.778402 
C 159.239303 245.009226 158.547736 246.678817 158.547736 248.419465 
C 158.547736 250.160114 159.239303 251.829704 160.470128 253.060529 
C 161.700952 254.291353 163.370543 254.98292 165.111191 254.98292 
z
" style="fill:#2e6d8e;"/>
    <path clip-path="url(#p9b2792cabe)" d="M 113.818776 90.09938 
C 115.489091 90.09938 117.091219 89.435757 118.27231 88.254666 
C 119.453401 87.073575 120.117024 85.471447 120.117024 83.801132 
C 120.117024 82.130817 119.453401 80.528688 118.27231 79.347597 
C 117.091219 78.166506 115.489091 77.502883 113.818776 77.502883 
C 112.148461 77.502883 110.546333 78.166506 109.365242 79.347597 
C 108.184151 80.528688 107.520527 82.130817 107.520527 83.801132 
C 107.520527 85.471447 108.184151 87.073575 109.365242 88.254666 
C 110.546333 89.435757 112.148461 90.09938 113.818776 90.09938 
z
" style="fill:#25ac82;"/>
    <path clip-path="url(#p9b2792cabe)" d="M 281.531347 257.788358 
C 283.258499 257.788358 284.915143 257.102154 286.136424 255.880873 
C 287.357705 254.659592 288.04391 253.002947 288.04391 251.275795 
C 288.04391 249.548644 287.357705 247.891999 286.136424 246.670718 
C 284.915143 245.449437 283.258499 244.763232 281.531347 244.763232 
C 279.804195 244.763232 278.14755 245.449437 276.926269 246.670718 
C 275.704989 247.891999 275.018784 249.548644 275.018784 251.275795 
C 275.018784 253.002947 275.704989 254.659592 276.926269 255.880873 
C 278.14755 257.102154 279.804195 257.788358 281.531347 257.788358 
z
" style="fill:#3e4c8a;"/>
    <path clip-path="url(#p9b2792cabe)" d="M 211.774581 97.490166 
C 213.585132 97.490166 215.321772 96.770826 216.602025 95.490573 
C 217.882278 94.21032 218.601617 92.473681 218.601617 90.663129 
C 218.601617 88.852578 217.882278 87.115939 216.602025 85.835686 
C 215.321772 84.555432 213.585132 83.836093 211.774581 83.836093 
C 209.96403 83.836093 208.22739 84.555432 206.947137 85.835686 
C 205.666884 87.115939 204.947544 88.852578 204.947544 90.663129 
C 204.947544 92.473681 205.666884 94.21032 206.947137 95.490573 
C 208.22739 96.770826 209.96403 97.490166 211.774581 97.490166 
z
" style="fill:#1fa187;"/>
    <path clip-path="url(#p9b2792cabe)" d="M 196.239262 60.376342 
C 197.876009 60.376342 199.445939 59.726056 200.603294 58.568701 
C 201.760649 57.411346 202.410936 55.841415 202.410936 54.204668 
C 202.410936 52.567921 201.760649 50.997991 200.603294 49.840636 
C 199.445939 48.683281 197.876009 48.032994 196.239262 48.032994 
C 194.602515 48.032994 193.032585 48.683281 191.87523 49.840636 
C 190.717875 50.997991 190.067588 52.567921 190.067588 54.204668 
C 190.067588 55.841415 190.717875 57.411346 191.87523 58.568701 
C 193.032585 59.726056 194.602515 60.376342 196.239262 60.376342 
z
" style="fill:#29af7f;"/>
    <path clip-path="url(#p9b2792cabe)" d="M 244.737388 134.521762 
C 246.364286 134.521762 247.92477 133.875388 249.075161 132.724997 
C 250.225552 131.574606 250.871926 130.014122 250.871926 128.387224 
C 250.871926 126.760325 250.225552 125.199841 249.075161 124.04945 
C 247.92477 122.899059 246.364286 122.252686 244.737388 122.252686 
C 243.110489 122.252686 241.550005 122.899059 240.399614 124.04945 
C 239.249223 125.199841 238.60285 126.760325 238.60285 128.387224 
C 238.60285 130.014122 239.249223 131.574606 240.399614 132.724997 
C 241.550005 133.875388 243.110489 134.521762 244.737388 134.521762 
z
" style="fill:#1e9d89;"/>
    <path clip-path="url(#p9b2792cabe)" d="M 102.243741 135.245669 
C 103.956864 135.245669 105.600052 134.565038 106.811413 133.353678 
C 108.022774 132.142317 108.703405 130.499128 108.703405 128.786005 
C 108.703405 127.072882 108.022774 125.429693 106.811413 124.218333 
C 105.600052 123.006972 103.956864 122.326341 102.243741 122.326341 
C 100.530617 122.326341 98.887429 123.006972 97.676068 124.218333 
C 96.464707 125.429693 95.784076 127.072882 95.784076 128.786005 
C 95.784076 130.499128 96.464707 132.142317 97.676068 133.353678 
C 98.887429 134.565038 100.530617 135.245669 102.243741 135.245669 
z
" style="fill:#450457;"/>
    <path clip-path="url(#p9b2792cabe)" d="M 323.840176 238.80991 
C 325.595252 238.80991 327.278681 238.112611 328.519707 236.871584 
C 329.760734 235.630558 330.458033 233.947129 330.458033 232.192053 
C 330.458033 230.436977 329.760734 228.753548 328.519707 227.512521 
C 327.278681 226.271495 325.595252 225.574196 323.840176 225.574196 
C 322.0851 225.574196 320.401671 226.271495 319.160645 227.512521 
C 317.919618 228.753548 317.222319 230.436977 317.222319 232.192053 
C 317.222319 233.947129 317.919618 235.630558 319.160645 236.871584 
C 320.401671 238.112611 322.0851 238.80991 323.840176 238.80991 
z
" style="fill:#25858e;"/>
    <path clip-path="url(#p9b2792cabe)" d="M 326.572955 140.607321 
C 328.357652 140.607321 330.069493 139.898254 331.331464 138.636282 
C 332.593435 137.374311 333.302503 135.662471 333.302503 133.877774 
C 333.302503 132.093077 332.593435 130.381236 331.331464 129.119265 
C 330.069493 127.857294 328.357652 127.148226 326.572955 127.148226 
C 324.788259 127.148226 323.076418 127.857294 321.814447 129.119265 
C 320.552475 130.381236 319.843408 132.093077 319.843408 133.877774 
C 319.843408 135.662471 320.552475 137.374311 321.814447 138.636282 
C 323.076418 139.898254 324.788259 140.607321 326.572955 140.607321 
z
" style="fill:#355f8d;"/>
    <path clip-path="url(#p9b2792cabe)" d="M 244.253323 182.175881 
C 245.89233 182.175881 247.464429 181.524697 248.623382 180.365744 
C 249.782335 179.206791 250.433519 177.634692 250.433519 175.995685 
C 250.433519 174.356678 249.782335 172.78458 248.623382 171.625627 
C 247.464429 170.466674 245.89233 169.815489 244.253323 169.815489 
C 242.614316 169.815489 241.042218 170.466674 239.883264 171.625627 
C 238.724311 172.78458 238.073127 174.356678 238.073127 175.995685 
C 238.073127 177.634692 238.724311 179.206791 239.883264 180.365744 
C 241.042218 181.524697 242.614316 182.175881 244.253323 182.175881 
z
" style="fill:#297b8e;"/>
    <path clip-path="url(#p9b2792cabe)" d="M 252.075416 85.822384 
C 253.835707 85.822384 255.524137 85.123013 256.768851 83.8783 
C 258.013564 82.633586 258.712935 80.945156 258.712935 79.184865 
C 258.712935 77.424575 258.013564 75.736144 256.768851 74.491431 
C 255.524137 73.246717 253.835707 72.547347 252.075416 72.547347 
C 250.315126 72.547347 248.626695 73.246717 247.381982 74.491431 
C 246.137268 75.736144 245.437898 77.424575 245.437898 79.184865 
C 245.437898 80.945156 246.137268 82.633586 247.381982 83.8783 
C 248.626695 85.123013 250.315126 85.822384 252.075416 85.822384 
z
" style="fill:#48186a;"/>
    <path clip-path="url(#p9b2792cabe)" d="M 235.064332 86.237912 
C 236.730716 86.237912 238.329073 85.575851 239.507384 84.39754 
C 240.685694 83.219229 241.347756 81.620872 241.347756 79.954488 
C 241.347756 78.288105 240.685694 76.689748 239.507384 75.511437 
C 238.329073 74.333126 236.730716 73.671065 235.064332 73.671065 
C 233.397949 73.671065 231.799592 74.333126 230.621281 75.511437 
C 229.44297 76.689748 228.780909 78.288105 228.780909 79.954488 
C 228.780909 81.620872 229.44297 83.219229 230.621281 84.39754 
C 231.799592 85.575851 233.397949 86.237912 235.064332 86.237912 
z
" style="fill:#440154;"/>
    <path clip-path="url(#p9b2792cabe)" d="M 71.026454 174.76343 
C 72.713746 174.76343 74.332158 174.093062 75.525253 172.899966 
C 76.718349 171.706871 77.388717 170.088459 77.388717 168.401168 
C 77.388717 166.713876 76.718349 165.095464 75.525253 163.902369 
C 74.332158 162.709273 72.713746 162.038905 71.026454 162.038905 
C 69.339163 162.038905 67.720751 162.709273 66.527655 163.902369 
C 65.33456 165.095464 64.664192 166.713876 64.664192 168.401168 
C 64.664192 170.088459 65.33456 171.706871 66.527655 172.899966 
C 67.720751 174.093062 69.339163 174.76343 71.026454 174.76343 
z
" style="fill:#3bbb75;"/>
   </g>
   <g id="text_1">
    <!-- Structure #9451, $E_N$=-179.71eV, ΔE=0.62eV -->
    <defs>
     <path d="M 53.515625 70.515625 
L 53.515625 60.890625 
Q 47.90625 63.578125 42.921875 64.890625 
Q 37.9375 66.21875 33.296875 66.21875 
Q 25.25 66.21875 20.875 63.09375 
Q 16.5 59.96875 16.5 54.203125 
Q 16.5 49.359375 19.40625 46.890625 
Q 22.3125 44.4375 30.421875 42.921875 
L 36.375 41.703125 
Q 47.40625 39.59375 52.65625 34.296875 
Q 57.90625 29 57.90625 20.125 
Q 57.90625 9.515625 50.796875 4.046875 
Q 43.703125 -1.421875 29.984375 -1.421875 
Q 24.8125 -1.421875 18.96875 -0.25 
Q 13.140625 0.921875 6.890625 3.21875 
L 6.890625 13.375 
Q 12.890625 10.015625 18.65625 8.296875 
Q 24.421875 6.59375 29.984375 6.59375 
Q 38.421875 6.59375 43.015625 9.90625 
Q 47.609375 13.234375 47.609375 19.390625 
Q 47.609375 24.75 44.3125 27.78125 
Q 41.015625 30.8125 33.5 32.328125 
L 27.484375 33.5 
Q 16.453125 35.6875 11.515625 40.375 
Q 6.59375 45.0625 6.59375 53.421875 
Q 6.59375 63.09375 13.40625 68.65625 
Q 20.21875 74.21875 32.171875 74.21875 
Q 37.3125 74.21875 42.625 73.28125 
Q 47.953125 72.359375 53.515625 70.515625 
z
" id="DejaVuSans-53"/>
     <path d="M 18.3125 70.21875 
L 18.3125 54.6875 
L 36.8125 54.6875 
L 36.8125 47.703125 
L 18.3125 47.703125 
L 18.3125 18.015625 
Q 18.3125 11.328125 20.140625 9.421875 
Q 21.96875 7.515625 27.59375 7.515625 
L 36.8125 7.515625 
L 36.8125 0 
L 27.59375 0 
Q 17.1875 0 13.234375 3.875 
Q 9.28125 7.765625 9.28125 18.015625 
L 9.28125 47.703125 
L 2.6875 47.703125 
L 2.6875 54.6875 
L 9.28125 54.6875 
L 9.28125 70.21875 
z
" id="DejaVuSans-74"/>
     <path d="M 41.109375 46.296875 
Q 39.59375 47.171875 37.8125 47.578125 
Q 36.03125 48 33.890625 48 
Q 26.265625 48 22.1875 43.046875 
Q 18.109375 38.09375 18.109375 28.8125 
L 18.109375 0 
L 9.078125 0 
L 9.078125 54.6875 
L 18.109375 54.6875 
L 18.109375 46.1875 
Q 20.953125 51.171875 25.484375 53.578125 
Q 30.03125 56 36.53125 56 
Q 37.453125 56 38.578125 55.875 
Q 39.703125 55.765625 41.0625 55.515625 
z
" id="DejaVuSans-72"/>
     <path d="M 8.5 21.578125 
L 8.5 54.6875 
L 17.484375 54.6875 
L 17.484375 21.921875 
Q 17.484375 14.15625 20.5 10.265625 
Q 23.53125 6.390625 29.59375 6.390625 
Q 36.859375 6.390625 41.078125 11.03125 
Q 45.3125 15.671875 45.3125 23.6875 
L 45.3125 54.6875 
L 54.296875 54.6875 
L 54.296875 0 
L 45.3125 0 
L 45.3125 8.40625 
Q 42.046875 3.421875 37.71875 1 
Q 33.40625 -1.421875 27.6875 -1.421875 
Q 18.265625 -1.421875 13.375 4.4375 
Q 8.5 10.296875 8.5 21.578125 
z
M 31.109375 56 
z
" id="DejaVuSans-75"/>
     <path d="M 48.78125 52.59375 
L 48.78125 44.1875 
Q 44.96875 46.296875 41.140625 47.34375 
Q 37.3125 48.390625 33.40625 48.390625 
Q 24.65625 48.390625 19.8125 42.84375 
Q 14.984375 37.3125 14.984375 27.296875 
Q 14.984375 17.28125 19.8125 11.734375 
Q 24.65625 6.203125 33.40625 6.203125 
Q 37.3125 6.203125 41.140625 7.25 
Q 44.96875 8.296875 48.78125 10.40625 
L 48.78125 2.09375 
Q 45.015625 0.34375 40.984375 -0.53125 
Q 36.96875 -1.421875 32.421875 -1.421875 
Q 20.0625 -1.421875 12.78125 6.34375 
Q 5.515625 14.109375 5.515625 27.296875 
Q 5.515625 40.671875 12.859375 48.328125 
Q 20.21875 56 33.015625 56 
Q 37.15625 56 41.109375 55.140625 
Q 45.0625 54.296875 48.78125 52.59375 
z
" id="DejaVuSans-63"/>
     <path d="M 56.203125 29.59375 
L 56.203125 25.203125 
L 14.890625 25.203125 
Q 15.484375 15.921875 20.484375 11.0625 
Q 25.484375 6.203125 34.421875 6.203125 
Q 39.59375 6.203125 44.453125 7.46875 
Q 49.3125 8.734375 54.109375 11.28125 
L 54.109375 2.78125 
Q 49.265625 0.734375 44.1875 -0.34375 
Q 39.109375 -1.421875 33.890625 -1.421875 
Q 20.796875 -1.421875 13.15625 6.1875 
Q 5.515625 13.8125 5.515625 26.8125 
Q 5.515625 40.234375 12.765625 48.109375 
Q 20.015625 56 32.328125 56 
Q 43.359375 56 49.78125 48.890625 
Q 56.203125 41.796875 56.203125 29.59375 
z
M 47.21875 32.234375 
Q 47.125 39.59375 43.09375 43.984375 
Q 39.0625 48.390625 32.421875 48.390625 
Q 24.90625 48.390625 20.390625 44.140625 
Q 15.875 39.890625 15.1875 32.171875 
z
" id="DejaVuSans-65"/>
     <path id="DejaVuSans-20"/>
     <path d="M 51.125 44 
L 36.921875 44 
L 32.8125 27.6875 
L 47.125 27.6875 
z
M 43.796875 71.78125 
L 38.71875 51.515625 
L 52.984375 51.515625 
L 58.109375 71.78125 
L 65.921875 71.78125 
L 60.890625 51.515625 
L 76.125 51.515625 
L 76.125 44 
L 58.984375 44 
L 54.984375 27.6875 
L 70.515625 27.6875 
L 70.515625 20.21875 
L 53.078125 20.21875 
L 48 0 
L 40.1875 0 
L 45.21875 20.21875 
L 30.90625 20.21875 
L 25.875 0 
L 18.015625 0 
L 23.09375 20.21875 
L 7.71875 20.21875 
L 7.71875 27.6875 
L 24.90625 27.6875 
L 29 44 
L 13.28125 44 
L 13.28125 51.515625 
L 30.90625 51.515625 
L 35.890625 71.78125 
z
" id="DejaVuSans-23"/>
     <path d="M 10.984375 1.515625 
L 10.984375 10.5 
Q 14.703125 8.734375 18.5 7.8125 
Q 22.3125 6.890625 25.984375 6.890625 
Q 35.75 6.890625 40.890625 13.453125 
Q 46.046875 20.015625 46.78125 33.40625 
Q 43.953125 29.203125 39.59375 26.953125 
Q 35.25 24.703125 29.984375 24.703125 
Q 19.046875 24.703125 12.671875 31.3125 
Q 6.296875 37.9375 6.296875 49.421875 
Q 6.296875 60.640625 12.9375 67.421875 
Q 19.578125 74.21875 30.609375 74.21875 
Q 43.265625 74.21875 49.921875 64.515625 
Q 56.59375 54.828125 56.59375 36.375 
Q 56.59375 19.140625 48.40625 8.859375 
Q 40.234375 -1.421875 26.421875 -1.421875 
Q 22.703125 -1.421875 18.890625 -0.6875 
Q 15.09375 0.046875 10.984375 1.515625 
z
M 30.609375 32.421875 
Q 37.25 32.421875 41.125 36.953125 
Q 45.015625 41.5 45.015625 49.421875 
Q 45.015625 57.28125 41.125 61.84375 
Q 37.25 66.40625 30.609375 66.40625 
Q 23.96875 66.40625 20.09375 61.84375 
Q 16.21875 57.28125 16.21875 49.421875 
Q 16.21875 41.5 20.09375 36.953125 
Q 23.96875 32.421875 30.609375 32.421875 
z
" id="DejaVuSans-39"/>
     <path d="M 37.796875 64.3125 
L 12.890625 25.390625 
L 37.796875 25.390625 
z
M 35.203125 72.90625 
L 47.609375 72.90625 
L 47.609375 25.390625 
L 58.015625 25.390625 
L 58.015625 17.1875 
L 47.609375 17.1875 
L 47.609375 0 
L 37.796875 0 
L 37.796875 17.1875 
L 4.890625 17.1875 
L 4.890625 26.703125 
z
" id="DejaVuSans-34"/>
     <path d="M 10.796875 72.90625 
L 49.515625 72.90625 
L 49.515625 64.59375 
L 19.828125 64.59375 
L 19.828125 46.734375 
Q 21.96875 47.46875 24.109375 47.828125 
Q 26.265625 48.1875 28.421875 48.1875 
Q 40.625 48.1875 47.75 41.5 
Q 54.890625 34.8125 54.890625 23.390625 
Q 54.890625 11.625 47.5625 5.09375 
Q 40.234375 -1.421875 26.90625 -1.421875 
Q 22.3125 -1.421875 17.546875 -0.640625 
Q 12.796875 0.140625 7.71875 1.703125 
L 7.71875 11.625 
Q 12.109375 9.234375 16.796875 8.0625 
Q 21.484375 6.890625 26.703125 6.890625 
Q 35.15625 6.890625 40.078125 11.328125 
Q 45.015625 15.765625 45.015625 23.390625 
Q 45.015625 31 40.078125 35.4375 
Q 35.15625 39.890625 26.703125 39.890625 
Q 22.75 39.890625 18.8125 39.015625 
Q 14.890625 38.140625 10.796875 36.28125 
z
" id="DejaVuSans-35"/>
     <path d="M 12.40625 8.296875 
L 28.515625 8.296875 
L 28.515625 63.921875 
L 10.984375 60.40625 
L 10.984375 69.390625 
L 28.421875 72.90625 
L 38.28125 72.90625 
L 38.28125 8.296875 
L 54.390625 8.296875 
L 54.390625 0 
L 12.40625 0 
z
" id="DejaVuSans-31"/>
     <path d="M 11.71875 12.40625 
L 22.015625 12.40625 
L 22.015625 4 
L 14.015625 -11.625 
L 7.71875 -11.625 
L 11.71875 4 
z
" id="DejaVuSans-2c"/>
     <path d="M 16.890625 72.90625 
L 62.984375 72.90625 
L 61.375 64.59375 
L 25.09375 64.59375 
L 20.90625 43.015625 
L 55.71875 43.015625 
L 54.109375 34.71875 
L 19.28125 34.71875 
L 14.203125 8.296875 
L 51.3125 8.296875 
L 49.703125 0 
L 2.6875 0 
z
" id="DejaVuSans-Oblique-45"/>
     <path d="M 16.890625 72.90625 
L 30.171875 72.90625 
L 50.296875 10.40625 
L 62.5 72.90625 
L 72.125 72.90625 
L 57.90625 0 
L 44.578125 0 
L 24.515625 62.890625 
L 12.3125 0 
L 2.6875 0 
z
" id="DejaVuSans-Oblique-4e"/>
     <path d="M 10.59375 45.40625 
L 73.1875 45.40625 
L 73.1875 37.203125 
L 10.59375 37.203125 
z
M 10.59375 25.484375 
L 73.1875 25.484375 
L 73.1875 17.1875 
L 10.59375 17.1875 
z
" id="DejaVuSans-3d"/>
     <path d="M 4.890625 31.390625 
L 31.203125 31.390625 
L 31.203125 23.390625 
L 4.890625 23.390625 
z
" id="DejaVuSans-2d"/>
     <path d="M 8.203125 72.90625 
L 55.078125 72.90625 
L 55.078125 68.703125 
L 28.609375 0 
L 18.3125 0 
L 43.21875 64.59375 
L 8.203125 64.59375 
z
" id="DejaVuSans-37"/>
     <path d="M 10.6875 12.40625 
L 21 12.40625 
L 21 0 
L 10.6875 0 
z
" id="DejaVuSans-2e"/>
     <path d="M 28.609375 0 
L 0.78125 72.90625 
L 11.078125 72.90625 
L 34.1875 11.53125 
L 57.328125 72.90625 
L 67.578125 72.90625 
L 39.796875 0 
z
" id="DejaVuSans-56"/>
     <path d="M 34.1875 63.1875 
L 14.15625 8.203125 
L 54.25 8.203125 
z
M 0.78125 0 
L 28.609375 72.90625 
L 39.796875 72.90625 
L 67.578125 0 
z
" id="DejaVuSans-394"/>
     <path d="M 9.8125 72.90625 
L 55.90625 72.90625 
L 55.90625 64.59375 
L 19.671875 64.59375 
L 19.671875 43.015625 
L 54.390625 43.015625 
L 54.390625 34.71875 
L 19.671875 34.71875 
L 19.671875 8.296875 
L 56.78125 8.296875 
L 56.78125 0 
L 9.8125 0 
z
" id="DejaVuSans-45"/>
     <path d="M 31.78125 66.40625 
Q 24.171875 66.40625 20.328125 58.90625 
Q 16.5 51.421875 16.5 36.375 
Q 16.5 21.390625 20.328125 13.890625 
Q 24.171875 6.390625 31.78125 6.390625 
Q 39.453125 6.390625 43.28125 13.890625 
Q 47.125 21.390625 47.125 36.375 
Q 47.125 51.421875 43.28125 58.90625 
Q 39.453125 66.40625 31.78125 66.40625 
z
M 31.78125 74.21875 
Q 44.046875 74.21875 50.515625 64.515625 
Q 56.984375 54.828125 56.984375 36.375 
Q 56.984375 17.96875 50.515625 8.265625 
Q 44.046875 -1.421875 31.78125 -1.421875 
Q 19.53125 -1.421875 13.0625 8.265625 
Q 6.59375 17.96875 6.59375 36.375 
Q 6.59375 54.828125 13.0625 64.515625 
Q 19.53125 74.21875 31.78125 74.21875 
z
" id="DejaVuSans-30"/>
     <path d="M 33.015625 40.375 
Q 26.375 40.375 22.484375 35.828125 
Q 18.609375 31.296875 18.609375 23.390625 
Q 18.609375 15.53125 22.484375 10.953125 
Q 26.375 6.390625 33.015625 6.390625 
Q 39.65625 6.390625 43.53125 10.953125 
Q 47.40625 15.53125 47.40625 23.390625 
Q 47.40625 31.296875 43.53125 35.828125 
Q 39.65625 40.375 33.015625 40.375 
z
M 52.59375 71.296875 
L 52.59375 62.3125 
Q 48.875 64.0625 45.09375 64.984375 
Q 41.3125 65.921875 37.59375 65.921875 
Q 27.828125 65.921875 22.671875 59.328125 
Q 17.53125 52.734375 16.796875 39.40625 
Q 19.671875 43.65625 24.015625 45.921875 
Q 28.375 48.1875 33.59375 48.1875 
Q 44.578125 48.1875 50.953125 41.515625 
Q 57.328125 34.859375 57.328125 23.390625 
Q 57.328125 12.15625 50.6875 5.359375 
Q 44.046875 -1.421875 33.015625 -1.421875 
Q 20.359375 -1.421875 13.671875 8.265625 
Q 6.984375 17.96875 6.984375 36.375 
Q 6.984375 53.65625 15.1875 63.9375 
Q 23.390625 74.21875 37.203125 74.21875 
Q 40.921875 74.21875 44.703125 73.484375 
Q 48.484375 72.75 52.59375 71.296875 
z
" id="DejaVuSans-36"/>
     <path d="M 19.1875 8.296875 
L 53.609375 8.296875 
L 53.609375 0 
L 7.328125 0 
L 7.328125 8.296875 
Q 12.9375 14.109375 22.625 23.890625 
Q 32.328125 33.6875 34.8125 36.53125 
Q 39.546875 41.84375 41.421875 45.53125 
Q 43.3125 49.21875 43.3125 52.78125 
Q 43.3125 58.59375 39.234375 62.25 
Q 35.15625 65.921875 28.609375 65.921875 
Q 23.96875 65.921875 18.8125 64.3125 
Q 13.671875 62.703125 7.8125 59.421875 
L 7.8125 69.390625 
Q 13.765625 71.78125 18.9375 73 
Q 24.125 74.21875 28.421875 74.21875 
Q 39.75 74.21875 46.484375 68.546875 
Q 53.21875 62.890625 53.21875 53.421875 
Q 53.21875 48.921875 51.53125 44.890625 
Q 49.859375 40.875 45.40625 35.40625 
Q 44.1875 33.984375 37.640625 27.21875 
Q 31.109375 20.453125 19.1875 8.296875 
z
" id="DejaVuSans-32"/>
    </defs>
    <g transform="translate(65.388 35.472)scale(0.12 -0.12)">
     <use transform="translate(0 0.78125)" xlink:href="#DejaVuSans-53"/>
     <use transform="translate(63.476562 0.78125)" xlink:href="#DejaVuSans-74"/>
     <use transform="translate(102.685547 0.78125)" xlink:href="#DejaVuSans-72"/>
     <use transform="translate(143.798828 0.78125)" xlink:href="#DejaVuSans-75"/>
     <use transform="translate(207.177734 0.78125)" xlink:href="#DejaVuSans-63"/>
     <use transform="translate(262.158203 0.78125)" xlink:href="#DejaVuSans-74"/>
     <use transform="translate(301.367188 0.78125)" xlink:href="#DejaVuSans-75"/>
     <use transform="translate(364.746094 0.78125)" xlink:href="#DejaVuSans-72"/>
     <use transform="translate(405.859375 0.78125)" xlink:href="#DejaVuSans-65"/>
     <use transform="translate(467.382812 0.78125)" xlink:href="#DejaVuSans-20"/>
     <use transform="translate(499.169922 0.78125)" xlink:href="#DejaVuSans-23"/>
     <use transform="translate(582.958984 0.78125)" xlink:href="#DejaVuSans-39"/>
     <use transform="translate(646.582031 0.78125)" xlink:href="#DejaVuSans-34"/>
     <use transform="translate(710.205078 0.78125)" xlink:href="#DejaVuSans-35"/>
     <use transform="translate(773.828125 0.78125)" xlink:href="#DejaVuSans-31"/>
     <use transform="translate(837.451172 0.78125)" xlink:href="#DejaVuSans-2c"/>
     <use transform="translate(869.238281 0.78125)" xlink:href="#DejaVuSans-20"/>
     <use transform="translate(901.025391 0.78125)" xlink:href="#DejaVuSans-Oblique-45"/>
     <use transform="translate(964.208984 -15.625)scale(0.7)" xlink:href="#DejaVuSans-Oblique-4e"/>
     <use transform="translate(1019.306641 0.78125)" xlink:href="#DejaVuSans-3d"/>
     <use transform="translate(1103.095703 0.78125)" xlink:href="#DejaVuSans-2d"/>
     <use transform="translate(1139.179688 0.78125)" xlink:href="#DejaVuSans-31"/>
     <use transform="translate(1202.802734 0.78125)" xlink:href="#DejaVuSans-37"/>
     <use transform="translate(1266.425781 0.78125)" xlink:href="#DejaVuSans-39"/>
     <use transform="translate(1330.048828 0.78125)" xlink:href="#DejaVuSans-2e"/>
     <use transform="translate(1361.726562 0.78125)" xlink:href="#DejaVuSans-37"/>
     <use transform="translate(1425.349609 0.78125)" xlink:href="#DejaVuSans-31"/>
     <use transform="translate(1488.972656 0.78125)" xlink:href="#DejaVuSans-65"/>
     <use transform="translate(1550.496094 0.78125)" xlink:href="#DejaVuSans-56"/>
     <use transform="translate(1618.904297 0.78125)" xlink:href="#DejaVuSans-2c"/>
     <use transform="translate(1650.691406 0.78125)" xlink:href="#DejaVuSans-20"/>
     <use transform="translate(1682.478516 0.78125)" xlink:href="#DejaVuSans-394"/>
     <use transform="translate(1750.886719 0.78125)" xlink:href="#DejaVuSans-45"/>
     <use transform="translate(1814.070312 0.78125)" xlink:href="#DejaVuSans-3d"/>
     <use transform="translate(1897.859375 0.78125)" xlink:href="#DejaVuSans-30"/>
     <use transform="translate(1961.482422 0.78125)" xlink:href="#DejaVuSans-2e"/>
     <use transform="translate(1993.269531 0.78125)" xlink:href="#DejaVuSans-36"/>
     <use transform="translate(2056.892578 0.78125)" xlink:href="#DejaVuSans-32"/>
     <use transform="translate(2120.515625 0.78125)" xlink:href="#DejaVuSans-65"/>
     <use transform="translate(2182.039062 0.78125)" xlink:href="#DejaVuSans-56"/>
    </g>
   </g>
  </g>
  <g id="axes_2">
   <g id="patch_2">
    <path clip-path="url(#p707d66d4a3)" d="M 361.152 307.584 
L 361.152 306.5445 
L 361.152 42.5115 
L 361.152 41.472 
L 374.4576 41.472 
L 374.4576 42.5115 
L 374.4576 306.5445 
L 374.4576 307.584 
z
" style="fill:#ffffff;stroke:#ffffff;stroke-linejoin:miter;stroke-width:0.01;"/>
   </g>
   <image height="265.68" id="image9968441fcd" transform="scale(1 -1)translate(0 -265.68)" width="12.96" x="361.44" xlink:href="data:image/png;base64,
iVBORw0KGgoAAAANSUhEUgAAABIAAAFxCAYAAAB+2fgXAAAABHNCSVQICAgIfAhkiAAAAeVJREFUeJztncmNw0AQA2ckheYQNv9QLIfQ8ygsCgQ7AEI8+jAs2Puz/94F1LP2ReCsZ18bAWIeZ5XaGRBE7VnbptG+KI101FYyNSiQG2oRITXKNaX9uclOdi2XWjftVE32CZCO2ou5Bj1TcCBr/1zB9ge7Fq0Rg2NM9pvbtG+ua1QgsRYhDy0ISEiNc40BEibbSI0Coj5CBGtkpFbXJiAjNZlrwhuSOv2M1DjXbEdEciBt1JSDDQKKpmZr2rr2j0DBGpXaWEJq3bQzEPIS26r9J+Wzv9Tm8o3aajRXqc3VUXsApKNWjeZq0x4ABVNbm7lrszVigDqP5vIl2+eaT2yfRkL7g+dRcNPqjohkjaCvRVBq0H2U3LQrOJCx9kdTg4B8oxZzzTdqdYHEngjUCAPyUctN9sVRq2sTECW2UKNLd2jVtRmo1A6AhMmWaSRcR8nUdIHUuVb75zJS218EyEitro1At69pIdeSk30Lkw0FktNImGyZRhy1O5galmxd03LUsHWk06jUZiCq+5Wb1kZNN4+wJxJuWt8RAW5am2sYNZ9rYCBzZ3buPKJ2P5Yj4Toy3keyIyJbIxs1rml1byCA84gpch5RQNB7Q0qNMGq2Hy4BXdNR41yz/cEEJfZzUz96r9PoB0okjeQ8y9TkAAAAAElFTkSuQmCC" y="-41.76"/>
   <g id="matplotlib.axis_1"/>
   <g id="matplotlib.axis_2">
    <g id="ytick_1">
     <g id="line2d_1">
      <defs>
       <path d="M 0 0 
L 3.5 0 
" id="mae37088a73" style="stroke:#000000;stroke-width:0.8;"/>
      </defs>
      <g>
       <use style="stroke:#000000;stroke-width:0.8;" x="374.4576" xlink:href="#mae37088a73" y="300.457436"/>
      </g>
     </g>
     <g id="text_2">
      <!-- −8.5 -->
      <defs>
       <path d="M 10.59375 35.5 
L 73.1875 35.5 
L 73.1875 27.203125 
L 10.59375 27.203125 
z
" id="DejaVuSans-2212"/>
       <path d="M 31.78125 34.625 
Q 24.75 34.625 20.71875 30.859375 
Q 16.703125 27.09375 16.703125 20.515625 
Q 16.703125 13.921875 20.71875 10.15625 
Q 24.75 6.390625 31.78125 6.390625 
Q 38.8125 6.390625 42.859375 10.171875 
Q 46.921875 13.96875 46.921875 20.515625 
Q 46.921875 27.09375 42.890625 30.859375 
Q 38.875 34.625 31.78125 34.625 
z
M 21.921875 38.8125 
Q 15.578125 40.375 12.03125 44.71875 
Q 8.5 49.078125 8.5 55.328125 
Q 8.5 64.0625 14.71875 69.140625 
Q 20.953125 74.21875 31.78125 74.21875 
Q 42.671875 74.21875 48.875 69.140625 
Q 55.078125 64.0625 55.078125 55.328125 
Q 55.078125 49.078125 51.53125 44.71875 
Q 48 40.375 41.703125 38.8125 
Q 48.828125 37.15625 52.796875 32.3125 
Q 56.78125 27.484375 56.78125 20.515625 
Q 56.78125 9.90625 50.3125 4.234375 
Q 43.84375 -1.421875 31.78125 -1.421875 
Q 19.734375 -1.421875 13.25 4.234375 
Q 6.78125 9.90625 6.78125 20.515625 
Q 6.78125 27.484375 10.78125 32.3125 
Q 14.796875 37.15625 21.921875 38.8125 
z
M 18.3125 54.390625 
Q 18.3125 48.734375 21.84375 45.5625 
Q 25.390625 42.390625 31.78125 42.390625 
Q 38.140625 42.390625 41.71875 45.5625 
Q 45.3125 48.734375 45.3125 54.390625 
Q 45.3125 60.0625 41.71875 63.234375 
Q 38.140625 66.40625 31.78125 66.40625 
Q 25.390625 66.40625 21.84375 63.234375 
Q 18.3125 60.0625 18.3125 54.390625 
z
" id="DejaVuSans-38"/>
      </defs>
      <g transform="translate(381.4576 304.256655)scale(0.1 -0.1)">
       <use xlink:href="#DejaVuSans-2212"/>
       <use x="83.789062" xlink:href="#DejaVuSans-38"/>
       <use x="147.412109" xlink:href="#DejaVuSans-2e"/>
       <use x="179.199219" xlink:href="#DejaVuSans-35"/>
      </g>
     </g>
    </g>
    <g id="ytick_2">
     <g id="line2d_2">
      <g>
       <use style="stroke:#000000;stroke-width:0.8;" x="374.4576" xlink:href="#mae37088a73" y="252.488814"/>
      </g>
     </g>
     <g id="text_3">
      <!-- −8.0 -->
      <g transform="translate(381.4576 256.288033)scale(0.1 -0.1)">
       <use xlink:href="#DejaVuSans-2212"/>
       <use x="83.789062" xlink:href="#DejaVuSans-38"/>
       <use x="147.412109" xlink:href="#DejaVuSans-2e"/>
       <use x="179.199219" xlink:href="#DejaVuSans-30"/>
      </g>
     </g>
    </g>
    <g id="ytick_3">
     <g id="line2d_3">
      <g>
       <use style="stroke:#000000;stroke-width:0.8;" x="374.4576" xlink:href="#mae37088a73" y="204.520192"/>
      </g>
     </g>
     <g id="text_4">
      <!-- −7.5 -->
      <g transform="translate(381.4576 208.31941)scale(0.1 -0.1)">
       <use xlink:href="#DejaVuSans-2212"/>
       <use x="83.789062" xlink:href="#DejaVuSans-37"/>
       <use x="147.412109" xlink:href="#DejaVuSans-2e"/>
       <use x="179.199219" xlink:href="#DejaVuSans-35"/>
      </g>
     </g>
    </g>
    <g id="ytick_4">
     <g id="line2d_4">
      <g>
       <use style="stroke:#000000;stroke-width:0.8;" x="374.4576" xlink:href="#mae37088a73" y="156.551569"/>
      </g>
     </g>
     <g id="text_5">
      <!-- −7.0 -->
      <g transform="translate(381.4576 160.350788)scale(0.1 -0.1)">
       <use xlink:href="#DejaVuSans-2212"/>
       <use x="83.789062" xlink:href="#DejaVuSans-37"/>
       <use x="147.412109" xlink:href="#DejaVuSans-2e"/>
       <use x="179.199219" xlink:href="#DejaVuSans-30"/>
      </g>
     </g>
    </g>
    <g id="ytick_5">
     <g id="line2d_5">
      <g>
       <use style="stroke:#000000;stroke-width:0.8;" x="374.4576" xlink:href="#mae37088a73" y="108.582947"/>
      </g>
     </g>
     <g id="text_6">
      <!-- −6.5 -->
      <g transform="translate(381.4576 112.382166)scale(0.1 -0.1)">
       <use xlink:href="#DejaVuSans-2212"/>
       <use x="83.789062" xlink:href="#DejaVuSans-36"/>
       <use x="147.412109" xlink:href="#DejaVuSans-2e"/>
       <use x="179.199219" xlink:href="#DejaVuSans-35"/>
      </g>
     </g>
    </g>
    <g id="ytick_6">
     <g id="line2d_6">
      <g>
       <use style="stroke:#000000;stroke-width:0.8;" x="374.4576" xlink:href="#mae37088a73" y="60.614325"/>
      </g>
     </g>
     <g id="text_7">
      <!-- −6.0 -->
      <g transform="translate(381.4576 64.413543)scale(0.1 -0.1)">
       <use xlink:href="#DejaVuSans-2212"/>
       <use x="83.789062" xlink:href="#DejaVuSans-36"/>
       <use x="147.412109" xlink:href="#DejaVuSans-2e"/>
       <use x="179.199219" xlink:href="#DejaVuSans-30"/>
      </g>
     </g>
    </g>
    <g id="text_8">
     <!-- Energy [eV] -->
     <defs>
      <path d="M 54.890625 33.015625 
L 54.890625 0 
L 45.90625 0 
L 45.90625 32.71875 
Q 45.90625 40.484375 42.875 44.328125 
Q 39.84375 48.1875 33.796875 48.1875 
Q 26.515625 48.1875 22.3125 43.546875 
Q 18.109375 38.921875 18.109375 30.90625 
L 18.109375 0 
L 9.078125 0 
L 9.078125 54.6875 
L 18.109375 54.6875 
L 18.109375 46.1875 
Q 21.34375 51.125 25.703125 53.5625 
Q 30.078125 56 35.796875 56 
Q 45.21875 56 50.046875 50.171875 
Q 54.890625 44.34375 54.890625 33.015625 
z
" id="DejaVuSans-6e"/>
      <path d="M 45.40625 27.984375 
Q 45.40625 37.75 41.375 43.109375 
Q 37.359375 48.484375 30.078125 48.484375 
Q 22.859375 48.484375 18.828125 43.109375 
Q 14.796875 37.75 14.796875 27.984375 
Q 14.796875 18.265625 18.828125 12.890625 
Q 22.859375 7.515625 30.078125 7.515625 
Q 37.359375 7.515625 41.375 12.890625 
Q 45.40625 18.265625 45.40625 27.984375 
z
M 54.390625 6.78125 
Q 54.390625 -7.171875 48.1875 -13.984375 
Q 42 -20.796875 29.203125 -20.796875 
Q 24.46875 -20.796875 20.265625 -20.09375 
Q 16.0625 -19.390625 12.109375 -17.921875 
L 12.109375 -9.1875 
Q 16.0625 -11.328125 19.921875 -12.34375 
Q 23.78125 -13.375 27.78125 -13.375 
Q 36.625 -13.375 41.015625 -8.765625 
Q 45.40625 -4.15625 45.40625 5.171875 
L 45.40625 9.625 
Q 42.625 4.78125 38.28125 2.390625 
Q 33.9375 0 27.875 0 
Q 17.828125 0 11.671875 7.65625 
Q 5.515625 15.328125 5.515625 27.984375 
Q 5.515625 40.671875 11.671875 48.328125 
Q 17.828125 56 27.875 56 
Q 33.9375 56 38.28125 53.609375 
Q 42.625 51.21875 45.40625 46.390625 
L 45.40625 54.6875 
L 54.390625 54.6875 
z
" id="DejaVuSans-67"/>
      <path d="M 32.171875 -5.078125 
Q 28.375 -14.84375 24.75 -17.8125 
Q 21.140625 -20.796875 15.09375 -20.796875 
L 7.90625 -20.796875 
L 7.90625 -13.28125 
L 13.1875 -13.28125 
Q 16.890625 -13.28125 18.9375 -11.515625 
Q 21 -9.765625 23.484375 -3.21875 
L 25.09375 0.875 
L 2.984375 54.6875 
L 12.5 54.6875 
L 29.59375 11.921875 
L 46.6875 54.6875 
L 56.203125 54.6875 
z
" id="DejaVuSans-79"/>
      <path d="M 8.59375 75.984375 
L 29.296875 75.984375 
L 29.296875 69 
L 17.578125 69 
L 17.578125 -6.203125 
L 29.296875 -6.203125 
L 29.296875 -13.1875 
L 8.59375 -13.1875 
z
" id="DejaVuSans-5b"/>
      <path d="M 30.421875 75.984375 
L 30.421875 -13.1875 
L 9.71875 -13.1875 
L 9.71875 -6.203125 
L 21.390625 -6.203125 
L 21.390625 69 
L 9.71875 69 
L 9.71875 75.984375 
z
" id="DejaVuSans-5d"/>
     </defs>
     <g transform="translate(417.33885 204.108469)rotate(-90)scale(0.1 -0.1)">
      <use xlink:href="#DejaVuSans-45"/>
      <use x="63.183594" xlink:href="#DejaVuSans-6e"/>
      <use x="126.5625" xlink:href="#DejaVuSans-65"/>
      <use x="188.085938" xlink:href="#DejaVuSans-72"/>
      <use x="229.183594" xlink:href="#DejaVuSans-67"/>
      <use x="292.660156" xlink:href="#DejaVuSans-79"/>
      <use x="351.839844" xlink:href="#DejaVuSans-20"/>
      <use x="383.626953" xlink:href="#DejaVuSans-5b"/>
      <use x="422.640625" xlink:href="#DejaVuSans-65"/>
      <use x="484.164062" xlink:href="#DejaVuSans-56"/>
      <use x="552.572266" xlink:href="#DejaVuSans-5d"/>
     </g>
    </g>
   </g>
   <g id="patch_3">
    <path d="M 361.152 307.584 
L 361.152 306.5445 
L 361.152 42.5115 
L 361.152 41.472 
L 374.4576 41.472 
L 374.4576 42.5115 
L 374.4576 306.5445 
L 374.4576 307.584 
z
" style="fill:none;stroke:#000000;stroke-linejoin:miter;stroke-width:0.8;"/>
   </g>
  </g>
 </g>
 <defs>
  <clipPath id="p9b2792cabe">
   <rect height="266.112" width="285.696" x="57.6" y="41.472"/>
  </clipPath>
  <clipPath id="p707d66d4a3">
   <rect height="266.112" width="13.3056" x="361.152" y="41.472"/>
  </clipPath>
 </defs>
</svg>
