<?xml version="1.0" encoding="utf-8" standalone="no"?>
<!DOCTYPE svg PUBLIC "-//W3C//DTD SVG 1.1//EN"
  "http://www.w3.org/Graphics/SVG/1.1/DTD/svg11.dtd">
<!-- Created with matplotlib (http://matplotlib.org/) -->
<svg height="345.6pt" version="1.1" viewBox="0 0 460.8 345.6" width="460.8pt" xmlns="http://www.w3.org/2000/svg" xmlns:xlink="http://www.w3.org/1999/xlink">
 <defs>
  <style type="text/css">
*{stroke-linecap:butt;stroke-linejoin:round;}
  </style>
 </defs>
 <g id="figure_1">
  <g id="patch_1">
   <path d="M 0 345.6 
L 460.8 345.6 
L 460.8 0 
L 0 0 
z
" style="fill:#ffffff;"/>
  </g>
  <g id="axes_1">
   <g id="CircleCollection_1">
    <path clip-path="url(#pf351c21ef0)" d="M 205.978567 189.309134 
C 207.759539 189.309134 209.467807 188.601546 210.727144 187.342209 
C 211.986482 186.082871 212.69407 184.374603 212.69407 182.593631 
C 212.69407 180.812659 211.986482 179.104391 210.727144 177.845054 
C 209.467807 176.585716 207.759539 175.878128 205.978567 175.878128 
C 204.197595 175.878128 202.489327 176.585716 201.229989 177.845054 
C 199.970652 179.104391 199.263064 180.812659 199.263064 182.593631 
C 199.263064 184.374603 199.970652 186.082871 201.229989 187.342209 
C 202.489327 188.601546 204.197595 189.309134 205.978567 189.309134 
z
" style="fill:#375a8c;"/>
    <path clip-path="url(#pf351c21ef0)" d="M 242.709559 123.983932 
C 244.452309 123.983932 246.123916 123.29153 247.356227 122.059219 
C 248.588538 120.826908 249.28094 119.155302 249.28094 117.412551 
C 249.28094 115.6698 248.588538 113.998194 247.356227 112.765883 
C 246.123916 111.533572 244.452309 110.84117 242.709559 110.84117 
C 240.966808 110.84117 239.295201 111.533572 238.06289 112.765883 
C 236.83058 113.998194 236.138178 115.6698 236.138178 117.412551 
C 236.138178 119.155302 236.83058 120.826908 238.06289 122.059219 
C 239.295201 123.29153 240.966808 123.983932 242.709559 123.983932 
z
" style="fill:#440256;"/>
    <path clip-path="url(#pf351c21ef0)" d="M 75.737371 142.721065 
C 77.462062 142.721065 79.116345 142.035839 80.335885 140.816299 
C 81.555425 139.596758 82.240652 137.942475 82.240652 136.217785 
C 82.240652 134.493094 81.555425 132.838811 80.335885 131.619271 
C 79.116345 130.399731 77.462062 129.714504 75.737371 129.714504 
C 74.012681 129.714504 72.358398 130.399731 71.138857 131.619271 
C 69.919317 132.838811 69.234091 134.493094 69.234091 136.217785 
C 69.234091 137.942475 69.919317 139.596758 71.138857 140.816299 
C 72.358398 142.035839 74.012681 142.721065 75.737371 142.721065 
z
" style="fill:#3dbc74;"/>
    <path clip-path="url(#pf351c21ef0)" d="M 189.222199 282.951026 
C 191.054665 282.951026 192.812324 282.222979 194.108073 280.92723 
C 195.403822 279.631481 196.131868 277.873822 196.131868 276.041356 
C 196.131868 274.20889 195.403822 272.45123 194.108073 271.155481 
C 192.812324 269.859732 191.054665 269.131686 189.222199 269.131686 
C 187.389733 269.131686 185.632073 269.859732 184.336324 271.155481 
C 183.040575 272.45123 182.312529 274.20889 182.312529 276.041356 
C 182.312529 277.873822 183.040575 279.631481 184.336324 280.92723 
C 185.632073 282.222979 187.389733 282.951026 189.222199 282.951026 
z
" style="fill:#1fa088;"/>
    <path clip-path="url(#pf351c21ef0)" d="M 329.840475 146.150709 
C 331.627358 146.150709 333.341296 145.440773 334.604813 144.177255 
C 335.868331 142.913738 336.578267 141.1998 336.578267 139.412917 
C 336.578267 137.626033 335.868331 135.912096 334.604813 134.648578 
C 333.341296 133.385061 331.627358 132.675124 329.840475 132.675124 
C 328.053591 132.675124 326.339653 133.385061 325.076136 134.648578 
C 323.812619 135.912096 323.102682 137.626033 323.102682 139.412917 
C 323.102682 141.1998 323.812619 142.913738 325.076136 144.177255 
C 326.339653 145.440773 328.053591 146.150709 329.840475 146.150709 
z
" style="fill:#25ac82;"/>
    <path clip-path="url(#pf351c21ef0)" d="M 148.842058 301.845471 
C 150.678447 301.845471 152.43987 301.115866 153.738393 299.817342 
C 155.036916 298.518819 155.766522 296.757397 155.766522 294.921007 
C 155.766522 293.084618 155.036916 291.323196 153.738393 290.024672 
C 152.43987 288.726149 150.678447 287.996544 148.842058 287.996544 
C 147.005669 287.996544 145.244246 288.726149 143.945723 290.024672 
C 142.6472 291.323196 141.917595 293.084618 141.917595 294.921007 
C 141.917595 296.757397 142.6472 298.518819 143.945723 299.817342 
C 145.244246 301.115866 147.005669 301.845471 148.842058 301.845471 
z
" style="fill:#2c738e;"/>
    <path clip-path="url(#pf351c21ef0)" d="M 198.130303 106.615486 
C 199.847997 106.615486 201.49557 105.933039 202.710162 104.718446 
C 203.924755 103.503853 204.607202 101.856281 204.607202 100.138587 
C 204.607202 98.420893 203.924755 96.77332 202.710162 95.558728 
C 201.49557 94.344135 199.847997 93.661688 198.130303 93.661688 
C 196.412609 93.661688 194.765037 94.344135 193.550444 95.558728 
C 192.335851 96.77332 191.653404 98.420893 191.653404 100.138587 
C 191.653404 101.856281 192.335851 103.503853 193.550444 104.718446 
C 194.765037 105.933039 196.412609 106.615486 198.130303 106.615486 
z
" style="fill:#46307e;"/>
    <path clip-path="url(#pf351c21ef0)" d="M 325.404894 184.686978 
C 327.217696 184.686978 328.956494 183.966745 330.238338 182.6849 
C 331.520182 181.403056 332.240415 179.664259 332.240415 177.851457 
C 332.240415 176.038656 331.520182 174.299858 330.238338 173.018014 
C 328.956494 171.73617 327.217696 171.015936 325.404894 171.015936 
C 323.592093 171.015936 321.853295 171.73617 320.571451 173.018014 
C 319.289607 174.299858 318.569374 176.038656 318.569374 177.851457 
C 318.569374 179.664259 319.289607 181.403056 320.571451 182.6849 
C 321.853295 183.966745 323.592093 184.686978 325.404894 184.686978 
z
" style="fill:#8bd646;"/>
    <path clip-path="url(#pf351c21ef0)" d="M 71.06049 263.114425 
C 72.866276 263.114425 74.598345 262.396978 75.875229 261.120095 
C 77.152112 259.843211 77.869559 258.111142 77.869559 256.305356 
C 77.869559 254.49957 77.152112 252.767501 75.875229 251.490618 
C 74.598345 250.213734 72.866276 249.496288 71.06049 249.496288 
C 69.254704 249.496288 67.522635 250.213734 66.245752 251.490618 
C 64.968868 252.767501 64.251422 254.49957 64.251422 256.305356 
C 64.251422 258.111142 64.968868 259.843211 66.245752 261.120095 
C 67.522635 262.396978 69.254704 263.114425 71.06049 263.114425 
z
" style="fill:#1e9c89;"/>
    <path clip-path="url(#pf351c21ef0)" d="M 281.200417 95.165598 
C 282.93123 95.165598 284.591387 94.477939 285.815257 93.254069 
C 287.039127 92.030199 287.726786 90.370042 287.726786 88.639229 
C 287.726786 86.908415 287.039127 85.248259 285.815257 84.024389 
C 284.591387 82.800519 282.93123 82.112859 281.200417 82.112859 
C 279.469603 82.112859 277.809446 82.800519 276.585576 84.024389 
C 275.361707 85.248259 274.674047 86.908415 274.674047 88.639229 
C 274.674047 90.370042 275.361707 92.030199 276.585576 93.254069 
C 277.809446 94.477939 279.469603 95.165598 281.200417 95.165598 
z
" style="fill:#46307e;"/>
    <path clip-path="url(#pf351c21ef0)" d="M 277.64208 193.073985 
C 279.444195 193.073985 281.172743 192.357997 282.447031 191.083709 
C 283.72132 189.809421 284.437308 188.080873 284.437308 186.278757 
C 284.437308 184.476642 283.72132 182.748094 282.447031 181.473806 
C 281.172743 180.199518 279.444195 179.48353 277.64208 179.48353 
C 275.839964 179.48353 274.111416 180.199518 272.837128 181.473806 
C 271.56284 182.748094 270.846852 184.476642 270.846852 186.278757 
C 270.846852 188.080873 271.56284 189.809421 272.837128 191.083709 
C 274.111416 192.357997 275.839964 193.073985 277.64208 193.073985 
z
" style="fill:#2b758e;"/>
    <path clip-path="url(#pf351c21ef0)" d="M 120.033785 196.300983 
C 121.806233 196.300983 123.506324 195.596782 124.759634 194.343472 
C 126.012944 193.090162 126.717145 191.390071 126.717145 189.617623 
C 126.717145 187.845175 126.012944 186.145083 124.759634 184.891773 
C 123.506324 183.638463 121.806233 182.934262 120.033785 182.934262 
C 118.261337 182.934262 116.561245 183.638463 115.307935 184.891773 
C 114.054625 186.145083 113.350424 187.845175 113.350424 189.617623 
C 113.350424 191.390071 114.054625 193.090162 115.307935 194.343472 
C 116.561245 195.596782 118.261337 196.300983 120.033785 196.300983 
z
" style="fill:#21918c;"/>
    <path clip-path="url(#pf351c21ef0)" d="M 237.092343 223.121312 
C 238.901822 223.121312 240.637433 222.402398 241.916928 221.122903 
C 243.196422 219.843409 243.915336 218.107798 243.915336 216.298319 
C 243.915336 214.48884 243.196422 212.753229 241.916928 211.473735 
C 240.637433 210.19424 238.901822 209.475326 237.092343 209.475326 
C 235.282864 209.475326 233.547253 210.19424 232.267759 211.473735 
C 230.988264 212.753229 230.26935 214.48884 230.26935 216.298319 
C 230.26935 218.107798 230.988264 219.843409 232.267759 221.122903 
C 233.547253 222.402398 235.282864 223.121312 237.092343 223.121312 
z
" style="fill:#2d718e;"/>
    <path clip-path="url(#pf351c21ef0)" d="M 157.307157 130.149626 
C 159.035828 130.149626 160.693929 129.462818 161.916284 128.240463 
C 163.138639 127.018109 163.825447 125.360007 163.825447 123.631336 
C 163.825447 121.902666 163.138639 120.244564 161.916284 119.02221 
C 160.693929 117.799855 159.035828 117.113047 157.307157 117.113047 
C 155.578486 117.113047 153.920385 117.799855 152.69803 119.02221 
C 151.475675 120.244564 150.788867 121.902666 150.788867 123.631336 
C 150.788867 125.360007 151.475675 127.018109 152.69803 128.240463 
C 153.920385 129.462818 155.578486 130.149626 157.307157 130.149626 
z
" style="fill:#46327e;"/>
    <path clip-path="url(#pf351c21ef0)" d="M 73.925175 182.509795 
C 75.679793 182.509795 77.362783 181.812678 78.603486 180.571975 
C 79.844189 179.331272 80.541306 177.648282 80.541306 175.893664 
C 80.541306 174.139045 79.844189 172.456055 78.603486 171.215352 
C 77.362783 169.974649 75.679793 169.277532 73.925175 169.277532 
C 72.170556 169.277532 70.487566 169.974649 69.246863 171.215352 
C 68.00616 172.456055 67.309043 174.139045 67.309043 175.893664 
C 67.309043 177.648282 68.00616 179.331272 69.246863 180.571975 
C 70.487566 181.812678 72.170556 182.509795 73.925175 182.509795 
z
" style="fill:#1fa088;"/>
    <path clip-path="url(#pf351c21ef0)" d="M 81.544671 223.255079 
C 83.328387 223.255079 85.039286 222.546401 86.300564 221.285124 
C 87.561841 220.023846 88.270519 218.312947 88.270519 216.529231 
C 88.270519 214.745515 87.561841 213.034616 86.300564 211.773338 
C 85.039286 210.512061 83.328387 209.803383 81.544671 209.803383 
C 79.760955 209.803383 78.050056 210.512061 76.788778 211.773338 
C 75.527501 213.034616 74.818823 214.745515 74.818823 216.529231 
C 74.818823 218.312947 75.527501 220.023846 76.788778 221.285124 
C 78.050056 222.546401 79.760955 223.255079 81.544671 223.255079 
z
" style="fill:#25848e;"/>
    <path clip-path="url(#pf351c21ef0)" d="M 110.46531 119.603424 
C 112.177279 119.603424 113.819361 118.923252 115.029907 117.712706 
C 116.240452 116.502161 116.920625 114.860079 116.920625 113.148109 
C 116.920625 111.43614 116.240452 109.794058 115.029907 108.583513 
C 113.819361 107.372967 112.177279 106.692795 110.46531 106.692795 
C 108.75334 106.692795 107.111258 107.372967 105.900713 108.583513 
C 104.690168 109.794058 104.009995 111.43614 104.009995 113.148109 
C 104.009995 114.860079 104.690168 116.502161 105.900713 117.712706 
C 107.111258 118.923252 108.75334 119.603424 110.46531 119.603424 
z
" style="fill:#73d056;"/>
    <path clip-path="url(#pf351c21ef0)" d="M 227.791733 262.783399 
C 229.620569 262.783399 231.374747 262.056795 232.667929 260.763613 
C 233.961111 259.470431 234.687715 257.716253 234.687715 255.887417 
C 234.687715 254.058581 233.961111 252.304403 232.667929 251.011221 
C 231.374747 249.718039 229.620569 248.991435 227.791733 248.991435 
C 225.962897 248.991435 224.208719 249.718039 222.915537 251.011221 
C 221.622355 252.304403 220.895751 254.058581 220.895751 255.887417 
C 220.895751 257.716253 221.622355 259.470431 222.915537 260.763613 
C 224.208719 262.056795 225.962897 262.783399 227.791733 262.783399 
z
" style="fill:#1f978b;"/>
    <path clip-path="url(#pf351c21ef0)" d="M 161.274446 174.575366 
C 163.037486 174.575366 164.728555 173.874903 165.975213 172.628245 
C 167.221871 171.381587 167.922334 169.690518 167.922334 167.927478 
C 167.922334 166.164437 167.221871 164.473369 165.975213 163.226711 
C 164.728555 161.980053 163.037486 161.27959 161.274446 161.27959 
C 159.511405 161.27959 157.820337 161.980053 156.573679 163.226711 
C 155.327021 164.473369 154.626558 166.164437 154.626558 167.927478 
C 154.626558 169.690518 155.327021 171.381587 156.573679 172.628245 
C 157.820337 173.874903 159.511405 174.575366 161.274446 174.575366 
z
" style="fill:#482374;"/>
    <path clip-path="url(#pf351c21ef0)" d="M 324.481328 109.091626 
C 326.23808 109.091626 327.923117 108.393661 329.165328 107.15145 
C 330.407539 105.909238 331.105504 104.224202 331.105504 102.46745 
C 331.105504 100.710698 330.407539 99.025661 329.165328 97.78345 
C 327.923117 96.541239 326.23808 95.843274 324.481328 95.843274 
C 322.724576 95.843274 321.03954 96.541239 319.797328 97.78345 
C 318.555117 99.025661 317.857152 100.710698 317.857152 102.46745 
C 317.857152 104.224202 318.555117 105.909238 319.797328 107.15145 
C 321.03954 108.393661 322.724576 109.091626 324.481328 109.091626 
z
" style="fill:#40bd72;"/>
    <path clip-path="url(#pf351c21ef0)" d="M 244.873657 163.031592 
C 246.645673 163.031592 248.34535 162.327563 249.598354 161.074559 
C 250.851359 159.821554 251.555388 158.121877 251.555388 156.349861 
C 251.555388 154.577845 250.851359 152.878168 249.598354 151.625164 
C 248.34535 150.372159 246.645673 149.66813 244.873657 149.66813 
C 243.101641 149.66813 241.401964 150.372159 240.148959 151.625164 
C 238.895955 152.878168 238.191925 154.577845 238.191925 156.349861 
C 238.191925 158.121877 238.895955 159.821554 240.148959 161.074559 
C 241.401964 162.327563 243.101641 163.031592 244.873657 163.031592 
z
" style="fill:#440154;"/>
    <path clip-path="url(#pf351c21ef0)" d="M 108.654543 284.201787 
C 110.476675 284.201787 112.224422 283.477847 113.512863 282.189405 
C 114.801304 280.900964 115.525245 279.153217 115.525245 277.331086 
C 115.525245 275.508954 114.801304 273.761208 113.512863 272.472766 
C 112.224422 271.184325 110.476675 270.460384 108.654543 270.460384 
C 106.832412 270.460384 105.084665 271.184325 103.796224 272.472766 
C 102.507783 273.761208 101.783842 275.508954 101.783842 277.331086 
C 101.783842 279.153217 102.507783 280.900964 103.796224 282.189405 
C 105.084665 283.477847 106.832412 284.201787 108.654543 284.201787 
z
" style="fill:#2eb37c;"/>
    <path clip-path="url(#pf351c21ef0)" d="M 211.74505 66.187589 
C 213.432526 66.187589 215.051114 65.517148 216.24434 64.323922 
C 217.437565 63.130697 218.108006 61.512109 218.108006 59.824633 
C 218.108006 58.137157 217.437565 56.518569 216.24434 55.325343 
C 215.051114 54.132118 213.432526 53.461677 211.74505 53.461677 
C 210.057574 53.461677 208.438986 54.132118 207.24576 55.325343 
C 206.052535 56.518569 205.382094 58.137157 205.382094 59.824633 
C 205.382094 61.512109 206.052535 63.130697 207.24576 64.323922 
C 208.438986 65.517148 210.057574 66.187589 211.74505 66.187589 
z
" style="fill:#f6e620;"/>
    <path clip-path="url(#pf351c21ef0)" d="M 255.673183 60.476828 
C 257.366752 60.476828 258.991185 59.803966 260.188719 58.606432 
C 261.386253 57.408898 262.059115 55.784465 262.059115 54.090896 
C 262.059115 52.397327 261.386253 50.772895 260.188719 49.575361 
C 258.991185 48.377827 257.366752 47.704965 255.673183 47.704965 
C 253.979614 47.704965 252.355182 48.377827 251.157647 49.575361 
C 249.960113 50.772895 249.287251 52.397327 249.287251 54.090896 
C 249.287251 55.784465 249.960113 57.408898 251.157647 58.606432 
C 252.355182 59.803966 253.979614 60.476828 255.673183 60.476828 
z
" style="fill:#fde725;"/>
   </g>
   <g id="text_1">
    <!-- Structure #26, $E_N$=-182.61eV, ΔE=-0.29eV -->
    <defs>
     <path d="M 53.515625 70.515625 
L 53.515625 60.890625 
Q 47.90625 63.578125 42.921875 64.890625 
Q 37.9375 66.21875 33.296875 66.21875 
Q 25.25 66.21875 20.875 63.09375 
Q 16.5 59.96875 16.5 54.203125 
Q 16.5 49.359375 19.40625 46.890625 
Q 22.3125 44.4375 30.421875 42.921875 
L 36.375 41.703125 
Q 47.40625 39.59375 52.65625 34.296875 
Q 57.90625 29 57.90625 20.125 
Q 57.90625 9.515625 50.796875 4.046875 
Q 43.703125 -1.421875 29.984375 -1.421875 
Q 24.8125 -1.421875 18.96875 -0.25 
Q 13.140625 0.921875 6.890625 3.21875 
L 6.890625 13.375 
Q 12.890625 10.015625 18.65625 8.296875 
Q 24.421875 6.59375 29.984375 6.59375 
Q 38.421875 6.59375 43.015625 9.90625 
Q 47.609375 13.234375 47.609375 19.390625 
Q 47.609375 24.75 44.3125 27.78125 
Q 41.015625 30.8125 33.5 32.328125 
L 27.484375 33.5 
Q 16.453125 35.6875 11.515625 40.375 
Q 6.59375 45.0625 6.59375 53.421875 
Q 6.59375 63.09375 13.40625 68.65625 
Q 20.21875 74.21875 32.171875 74.21875 
Q 37.3125 74.21875 42.625 73.28125 
Q 47.953125 72.359375 53.515625 70.515625 
z
" id="DejaVuSans-53"/>
     <path d="M 18.3125 70.21875 
L 18.3125 54.6875 
L 36.8125 54.6875 
L 36.8125 47.703125 
L 18.3125 47.703125 
L 18.3125 18.015625 
Q 18.3125 11.328125 20.140625 9.421875 
Q 21.96875 7.515625 27.59375 7.515625 
L 36.8125 7.515625 
L 36.8125 0 
L 27.59375 0 
Q 17.1875 0 13.234375 3.875 
Q 9.28125 7.765625 9.28125 18.015625 
L 9.28125 47.703125 
L 2.6875 47.703125 
L 2.6875 54.6875 
L 9.28125 54.6875 
L 9.28125 70.21875 
z
" id="DejaVuSans-74"/>
     <path d="M 41.109375 46.296875 
Q 39.59375 47.171875 37.8125 47.578125 
Q 36.03125 48 33.890625 48 
Q 26.265625 48 22.1875 43.046875 
Q 18.109375 38.09375 18.109375 28.8125 
L 18.109375 0 
L 9.078125 0 
L 9.078125 54.6875 
L 18.109375 54.6875 
L 18.109375 46.1875 
Q 20.953125 51.171875 25.484375 53.578125 
Q 30.03125 56 36.53125 56 
Q 37.453125 56 38.578125 55.875 
Q 39.703125 55.765625 41.0625 55.515625 
z
" id="DejaVuSans-72"/>
     <path d="M 8.5 21.578125 
L 8.5 54.6875 
L 17.484375 54.6875 
L 17.484375 21.921875 
Q 17.484375 14.15625 20.5 10.265625 
Q 23.53125 6.390625 29.59375 6.390625 
Q 36.859375 6.390625 41.078125 11.03125 
Q 45.3125 15.671875 45.3125 23.6875 
L 45.3125 54.6875 
L 54.296875 54.6875 
L 54.296875 0 
L 45.3125 0 
L 45.3125 8.40625 
Q 42.046875 3.421875 37.71875 1 
Q 33.40625 -1.421875 27.6875 -1.421875 
Q 18.265625 -1.421875 13.375 4.4375 
Q 8.5 10.296875 8.5 21.578125 
z
M 31.109375 56 
z
" id="DejaVuSans-75"/>
     <path d="M 48.78125 52.59375 
L 48.78125 44.1875 
Q 44.96875 46.296875 41.140625 47.34375 
Q 37.3125 48.390625 33.40625 48.390625 
Q 24.65625 48.390625 19.8125 42.84375 
Q 14.984375 37.3125 14.984375 27.296875 
Q 14.984375 17.28125 19.8125 11.734375 
Q 24.65625 6.203125 33.40625 6.203125 
Q 37.3125 6.203125 41.140625 7.25 
Q 44.96875 8.296875 48.78125 10.40625 
L 48.78125 2.09375 
Q 45.015625 0.34375 40.984375 -0.53125 
Q 36.96875 -1.421875 32.421875 -1.421875 
Q 20.0625 -1.421875 12.78125 6.34375 
Q 5.515625 14.109375 5.515625 27.296875 
Q 5.515625 40.671875 12.859375 48.328125 
Q 20.21875 56 33.015625 56 
Q 37.15625 56 41.109375 55.140625 
Q 45.0625 54.296875 48.78125 52.59375 
z
" id="DejaVuSans-63"/>
     <path d="M 56.203125 29.59375 
L 56.203125 25.203125 
L 14.890625 25.203125 
Q 15.484375 15.921875 20.484375 11.0625 
Q 25.484375 6.203125 34.421875 6.203125 
Q 39.59375 6.203125 44.453125 7.46875 
Q 49.3125 8.734375 54.109375 11.28125 
L 54.109375 2.78125 
Q 49.265625 0.734375 44.1875 -0.34375 
Q 39.109375 -1.421875 33.890625 -1.421875 
Q 20.796875 -1.421875 13.15625 6.1875 
Q 5.515625 13.8125 5.515625 26.8125 
Q 5.515625 40.234375 12.765625 48.109375 
Q 20.015625 56 32.328125 56 
Q 43.359375 56 49.78125 48.890625 
Q 56.203125 41.796875 56.203125 29.59375 
z
M 47.21875 32.234375 
Q 47.125 39.59375 43.09375 43.984375 
Q 39.0625 48.390625 32.421875 48.390625 
Q 24.90625 48.390625 20.390625 44.140625 
Q 15.875 39.890625 15.1875 32.171875 
z
" id="DejaVuSans-65"/>
     <path id="DejaVuSans-20"/>
     <path d="M 51.125 44 
L 36.921875 44 
L 32.8125 27.6875 
L 47.125 27.6875 
z
M 43.796875 71.78125 
L 38.71875 51.515625 
L 52.984375 51.515625 
L 58.109375 71.78125 
L 65.921875 71.78125 
L 60.890625 51.515625 
L 76.125 51.515625 
L 76.125 44 
L 58.984375 44 
L 54.984375 27.6875 
L 70.515625 27.6875 
L 70.515625 20.21875 
L 53.078125 20.21875 
L 48 0 
L 40.1875 0 
L 45.21875 20.21875 
L 30.90625 20.21875 
L 25.875 0 
L 18.015625 0 
L 23.09375 20.21875 
L 7.71875 20.21875 
L 7.71875 27.6875 
L 24.90625 27.6875 
L 29 44 
L 13.28125 44 
L 13.28125 51.515625 
L 30.90625 51.515625 
L 35.890625 71.78125 
z
" id="DejaVuSans-23"/>
     <path d="M 19.1875 8.296875 
L 53.609375 8.296875 
L 53.609375 0 
L 7.328125 0 
L 7.328125 8.296875 
Q 12.9375 14.109375 22.625 23.890625 
Q 32.328125 33.6875 34.8125 36.53125 
Q 39.546875 41.84375 41.421875 45.53125 
Q 43.3125 49.21875 43.3125 52.78125 
Q 43.3125 58.59375 39.234375 62.25 
Q 35.15625 65.921875 28.609375 65.921875 
Q 23.96875 65.921875 18.8125 64.3125 
Q 13.671875 62.703125 7.8125 59.421875 
L 7.8125 69.390625 
Q 13.765625 71.78125 18.9375 73 
Q 24.125 74.21875 28.421875 74.21875 
Q 39.75 74.21875 46.484375 68.546875 
Q 53.21875 62.890625 53.21875 53.421875 
Q 53.21875 48.921875 51.53125 44.890625 
Q 49.859375 40.875 45.40625 35.40625 
Q 44.1875 33.984375 37.640625 27.21875 
Q 31.109375 20.453125 19.1875 8.296875 
z
" id="DejaVuSans-32"/>
     <path d="M 33.015625 40.375 
Q 26.375 40.375 22.484375 35.828125 
Q 18.609375 31.296875 18.609375 23.390625 
Q 18.609375 15.53125 22.484375 10.953125 
Q 26.375 6.390625 33.015625 6.390625 
Q 39.65625 6.390625 43.53125 10.953125 
Q 47.40625 15.53125 47.40625 23.390625 
Q 47.40625 31.296875 43.53125 35.828125 
Q 39.65625 40.375 33.015625 40.375 
z
M 52.59375 71.296875 
L 52.59375 62.3125 
Q 48.875 64.0625 45.09375 64.984375 
Q 41.3125 65.921875 37.59375 65.921875 
Q 27.828125 65.921875 22.671875 59.328125 
Q 17.53125 52.734375 16.796875 39.40625 
Q 19.671875 43.65625 24.015625 45.921875 
Q 28.375 48.1875 33.59375 48.1875 
Q 44.578125 48.1875 50.953125 41.515625 
Q 57.328125 34.859375 57.328125 23.390625 
Q 57.328125 12.15625 50.6875 5.359375 
Q 44.046875 -1.421875 33.015625 -1.421875 
Q 20.359375 -1.421875 13.671875 8.265625 
Q 6.984375 17.96875 6.984375 36.375 
Q 6.984375 53.65625 15.1875 63.9375 
Q 23.390625 74.21875 37.203125 74.21875 
Q 40.921875 74.21875 44.703125 73.484375 
Q 48.484375 72.75 52.59375 71.296875 
z
" id="DejaVuSans-36"/>
     <path d="M 11.71875 12.40625 
L 22.015625 12.40625 
L 22.015625 4 
L 14.015625 -11.625 
L 7.71875 -11.625 
L 11.71875 4 
z
" id="DejaVuSans-2c"/>
     <path d="M 16.890625 72.90625 
L 62.984375 72.90625 
L 61.375 64.59375 
L 25.09375 64.59375 
L 20.90625 43.015625 
L 55.71875 43.015625 
L 54.109375 34.71875 
L 19.28125 34.71875 
L 14.203125 8.296875 
L 51.3125 8.296875 
L 49.703125 0 
L 2.6875 0 
z
" id="DejaVuSans-Oblique-45"/>
     <path d="M 16.890625 72.90625 
L 30.171875 72.90625 
L 50.296875 10.40625 
L 62.5 72.90625 
L 72.125 72.90625 
L 57.90625 0 
L 44.578125 0 
L 24.515625 62.890625 
L 12.3125 0 
L 2.6875 0 
z
" id="DejaVuSans-Oblique-4e"/>
     <path d="M 10.59375 45.40625 
L 73.1875 45.40625 
L 73.1875 37.203125 
L 10.59375 37.203125 
z
M 10.59375 25.484375 
L 73.1875 25.484375 
L 73.1875 17.1875 
L 10.59375 17.1875 
z
" id="DejaVuSans-3d"/>
     <path d="M 4.890625 31.390625 
L 31.203125 31.390625 
L 31.203125 23.390625 
L 4.890625 23.390625 
z
" id="DejaVuSans-2d"/>
     <path d="M 12.40625 8.296875 
L 28.515625 8.296875 
L 28.515625 63.921875 
L 10.984375 60.40625 
L 10.984375 69.390625 
L 28.421875 72.90625 
L 38.28125 72.90625 
L 38.28125 8.296875 
L 54.390625 8.296875 
L 54.390625 0 
L 12.40625 0 
z
" id="DejaVuSans-31"/>
     <path d="M 31.78125 34.625 
Q 24.75 34.625 20.71875 30.859375 
Q 16.703125 27.09375 16.703125 20.515625 
Q 16.703125 13.921875 20.71875 10.15625 
Q 24.75 6.390625 31.78125 6.390625 
Q 38.8125 6.390625 42.859375 10.171875 
Q 46.921875 13.96875 46.921875 20.515625 
Q 46.921875 27.09375 42.890625 30.859375 
Q 38.875 34.625 31.78125 34.625 
z
M 21.921875 38.8125 
Q 15.578125 40.375 12.03125 44.71875 
Q 8.5 49.078125 8.5 55.328125 
Q 8.5 64.0625 14.71875 69.140625 
Q 20.953125 74.21875 31.78125 74.21875 
Q 42.671875 74.21875 48.875 69.140625 
Q 55.078125 64.0625 55.078125 55.328125 
Q 55.078125 49.078125 51.53125 44.71875 
Q 48 40.375 41.703125 38.8125 
Q 48.828125 37.15625 52.796875 32.3125 
Q 56.78125 27.484375 56.78125 20.515625 
Q 56.78125 9.90625 50.3125 4.234375 
Q 43.84375 -1.421875 31.78125 -1.421875 
Q 19.734375 -1.421875 13.25 4.234375 
Q 6.78125 9.90625 6.78125 20.515625 
Q 6.78125 27.484375 10.78125 32.3125 
Q 14.796875 37.15625 21.921875 38.8125 
z
M 18.3125 54.390625 
Q 18.3125 48.734375 21.84375 45.5625 
Q 25.390625 42.390625 31.78125 42.390625 
Q 38.140625 42.390625 41.71875 45.5625 
Q 45.3125 48.734375 45.3125 54.390625 
Q 45.3125 60.0625 41.71875 63.234375 
Q 38.140625 66.40625 31.78125 66.40625 
Q 25.390625 66.40625 21.84375 63.234375 
Q 18.3125 60.0625 18.3125 54.390625 
z
" id="DejaVuSans-38"/>
     <path d="M 10.6875 12.40625 
L 21 12.40625 
L 21 0 
L 10.6875 0 
z
" id="DejaVuSans-2e"/>
     <path d="M 28.609375 0 
L 0.78125 72.90625 
L 11.078125 72.90625 
L 34.1875 11.53125 
L 57.328125 72.90625 
L 67.578125 72.90625 
L 39.796875 0 
z
" id="DejaVuSans-56"/>
     <path d="M 34.1875 63.1875 
L 14.15625 8.203125 
L 54.25 8.203125 
z
M 0.78125 0 
L 28.609375 72.90625 
L 39.796875 72.90625 
L 67.578125 0 
z
" id="DejaVuSans-394"/>
     <path d="M 9.8125 72.90625 
L 55.90625 72.90625 
L 55.90625 64.59375 
L 19.671875 64.59375 
L 19.671875 43.015625 
L 54.390625 43.015625 
L 54.390625 34.71875 
L 19.671875 34.71875 
L 19.671875 8.296875 
L 56.78125 8.296875 
L 56.78125 0 
L 9.8125 0 
z
" id="DejaVuSans-45"/>
     <path d="M 31.78125 66.40625 
Q 24.171875 66.40625 20.328125 58.90625 
Q 16.5 51.421875 16.5 36.375 
Q 16.5 21.390625 20.328125 13.890625 
Q 24.171875 6.390625 31.78125 6.390625 
Q 39.453125 6.390625 43.28125 13.890625 
Q 47.125 21.390625 47.125 36.375 
Q 47.125 51.421875 43.28125 58.90625 
Q 39.453125 66.40625 31.78125 66.40625 
z
M 31.78125 74.21875 
Q 44.046875 74.21875 50.515625 64.515625 
Q 56.984375 54.828125 56.984375 36.375 
Q 56.984375 17.96875 50.515625 8.265625 
Q 44.046875 -1.421875 31.78125 -1.421875 
Q 19.53125 -1.421875 13.0625 8.265625 
Q 6.59375 17.96875 6.59375 36.375 
Q 6.59375 54.828125 13.0625 64.515625 
Q 19.53125 74.21875 31.78125 74.21875 
z
" id="DejaVuSans-30"/>
     <path d="M 10.984375 1.515625 
L 10.984375 10.5 
Q 14.703125 8.734375 18.5 7.8125 
Q 22.3125 6.890625 25.984375 6.890625 
Q 35.75 6.890625 40.890625 13.453125 
Q 46.046875 20.015625 46.78125 33.40625 
Q 43.953125 29.203125 39.59375 26.953125 
Q 35.25 24.703125 29.984375 24.703125 
Q 19.046875 24.703125 12.671875 31.3125 
Q 6.296875 37.9375 6.296875 49.421875 
Q 6.296875 60.640625 12.9375 67.421875 
Q 19.578125 74.21875 30.609375 74.21875 
Q 43.265625 74.21875 49.921875 64.515625 
Q 56.59375 54.828125 56.59375 36.375 
Q 56.59375 19.140625 48.40625 8.859375 
Q 40.234375 -1.421875 26.421875 -1.421875 
Q 22.703125 -1.421875 18.890625 -0.6875 
Q 15.09375 0.046875 10.984375 1.515625 
z
M 30.609375 32.421875 
Q 37.25 32.421875 41.125 36.953125 
Q 45.015625 41.5 45.015625 49.421875 
Q 45.015625 57.28125 41.125 61.84375 
Q 37.25 66.40625 30.609375 66.40625 
Q 23.96875 66.40625 20.09375 61.84375 
Q 16.21875 57.28125 16.21875 49.421875 
Q 16.21875 41.5 20.09375 36.953125 
Q 23.96875 32.421875 30.609375 32.421875 
z
" id="DejaVuSans-39"/>
    </defs>
    <g transform="translate(70.848 35.472)scale(0.12 -0.12)">
     <use transform="translate(0 0.78125)" xlink:href="#DejaVuSans-53"/>
     <use transform="translate(63.476562 0.78125)" xlink:href="#DejaVuSans-74"/>
     <use transform="translate(102.685547 0.78125)" xlink:href="#DejaVuSans-72"/>
     <use transform="translate(143.798828 0.78125)" xlink:href="#DejaVuSans-75"/>
     <use transform="translate(207.177734 0.78125)" xlink:href="#DejaVuSans-63"/>
     <use transform="translate(262.158203 0.78125)" xlink:href="#DejaVuSans-74"/>
     <use transform="translate(301.367188 0.78125)" xlink:href="#DejaVuSans-75"/>
     <use transform="translate(364.746094 0.78125)" xlink:href="#DejaVuSans-72"/>
     <use transform="translate(405.859375 0.78125)" xlink:href="#DejaVuSans-65"/>
     <use transform="translate(467.382812 0.78125)" xlink:href="#DejaVuSans-20"/>
     <use transform="translate(499.169922 0.78125)" xlink:href="#DejaVuSans-23"/>
     <use transform="translate(582.958984 0.78125)" xlink:href="#DejaVuSans-32"/>
     <use transform="translate(646.582031 0.78125)" xlink:href="#DejaVuSans-36"/>
     <use transform="translate(710.205078 0.78125)" xlink:href="#DejaVuSans-2c"/>
     <use transform="translate(741.992188 0.78125)" xlink:href="#DejaVuSans-20"/>
     <use transform="translate(773.779297 0.78125)" xlink:href="#DejaVuSans-Oblique-45"/>
     <use transform="translate(836.962891 -15.625)scale(0.7)" xlink:href="#DejaVuSans-Oblique-4e"/>
     <use transform="translate(892.060547 0.78125)" xlink:href="#DejaVuSans-3d"/>
     <use transform="translate(975.849609 0.78125)" xlink:href="#DejaVuSans-2d"/>
     <use transform="translate(1011.933594 0.78125)" xlink:href="#DejaVuSans-31"/>
     <use transform="translate(1075.556641 0.78125)" xlink:href="#DejaVuSans-38"/>
     <use transform="translate(1139.179688 0.78125)" xlink:href="#DejaVuSans-32"/>
     <use transform="translate(1202.802734 0.78125)" xlink:href="#DejaVuSans-2e"/>
     <use transform="translate(1234.589844 0.78125)" xlink:href="#DejaVuSans-36"/>
     <use transform="translate(1298.212891 0.78125)" xlink:href="#DejaVuSans-31"/>
     <use transform="translate(1361.835938 0.78125)" xlink:href="#DejaVuSans-65"/>
     <use transform="translate(1423.359375 0.78125)" xlink:href="#DejaVuSans-56"/>
     <use transform="translate(1491.767578 0.78125)" xlink:href="#DejaVuSans-2c"/>
     <use transform="translate(1523.554688 0.78125)" xlink:href="#DejaVuSans-20"/>
     <use transform="translate(1555.341797 0.78125)" xlink:href="#DejaVuSans-394"/>
     <use transform="translate(1623.75 0.78125)" xlink:href="#DejaVuSans-45"/>
     <use transform="translate(1686.933594 0.78125)" xlink:href="#DejaVuSans-3d"/>
     <use transform="translate(1770.722656 0.78125)" xlink:href="#DejaVuSans-2d"/>
     <use transform="translate(1806.806641 0.78125)" xlink:href="#DejaVuSans-30"/>
     <use transform="translate(1870.429688 0.78125)" xlink:href="#DejaVuSans-2e"/>
     <use transform="translate(1902.138672 0.78125)" xlink:href="#DejaVuSans-32"/>
     <use transform="translate(1965.746094 0.78125)" xlink:href="#DejaVuSans-39"/>
     <use transform="translate(2029.369141 0.78125)" xlink:href="#DejaVuSans-65"/>
     <use transform="translate(2090.892578 0.78125)" xlink:href="#DejaVuSans-56"/>
    </g>
   </g>
  </g>
  <g id="axes_2">
   <g id="patch_2">
    <path clip-path="url(#pb1b793a78a)" d="M 361.152 307.584 
L 361.152 306.5445 
L 361.152 42.5115 
L 361.152 41.472 
L 374.4576 41.472 
L 374.4576 42.5115 
L 374.4576 306.5445 
L 374.4576 307.584 
z
" style="fill:#ffffff;stroke:#ffffff;stroke-linejoin:miter;stroke-width:0.01;"/>
   </g>
   <image height="265.68" id="imagef8a756e604" transform="scale(1 -1)translate(0 -265.68)" width="12.96" x="361.44" xlink:href="data:image/png;base64,
iVBORw0KGgoAAAANSUhEUgAAABIAAAFxCAYAAAB+2fgXAAAABHNCSVQICAgIfAhkiAAAAeVJREFUeJztncmNw0AQA2ckheYQNv9QLIfQ8ygsCgQ7AEI8+jAs2Puz/94F1LP2ReCsZ18bAWIeZ5XaGRBE7VnbptG+KI101FYyNSiQG2oRITXKNaX9uclOdi2XWjftVE32CZCO2ou5Bj1TcCBr/1zB9ge7Fq0Rg2NM9pvbtG+ua1QgsRYhDy0ISEiNc40BEibbSI0Coj5CBGtkpFbXJiAjNZlrwhuSOv2M1DjXbEdEciBt1JSDDQKKpmZr2rr2j0DBGpXaWEJq3bQzEPIS26r9J+Wzv9Tm8o3aajRXqc3VUXsApKNWjeZq0x4ABVNbm7lrszVigDqP5vIl2+eaT2yfRkL7g+dRcNPqjohkjaCvRVBq0H2U3LQrOJCx9kdTg4B8oxZzzTdqdYHEngjUCAPyUctN9sVRq2sTECW2UKNLd2jVtRmo1A6AhMmWaSRcR8nUdIHUuVb75zJS218EyEitro1At69pIdeSk30Lkw0FktNImGyZRhy1O5galmxd03LUsHWk06jUZiCq+5Wb1kZNN4+wJxJuWt8RAW5am2sYNZ9rYCBzZ3buPKJ2P5Yj4Toy3keyIyJbIxs1rml1byCA84gpch5RQNB7Q0qNMGq2Hy4BXdNR41yz/cEEJfZzUz96r9PoB0okjeQ8y9TkAAAAAElFTkSuQmCC" y="-41.76"/>
   <g id="matplotlib.axis_1"/>
   <g id="matplotlib.axis_2">
    <g id="ytick_1">
     <g id="line2d_1">
      <defs>
       <path d="M 0 0 
L 3.5 0 
" id="m9624542283" style="stroke:#000000;stroke-width:0.8;"/>
      </defs>
      <g>
       <use style="stroke:#000000;stroke-width:0.8;" x="374.4576" xlink:href="#m9624542283" y="284.079105"/>
      </g>
     </g>
     <g id="text_2">
      <!-- −8.5 -->
      <defs>
       <path d="M 10.59375 35.5 
L 73.1875 35.5 
L 73.1875 27.203125 
L 10.59375 27.203125 
z
" id="DejaVuSans-2212"/>
       <path d="M 10.796875 72.90625 
L 49.515625 72.90625 
L 49.515625 64.59375 
L 19.828125 64.59375 
L 19.828125 46.734375 
Q 21.96875 47.46875 24.109375 47.828125 
Q 26.265625 48.1875 28.421875 48.1875 
Q 40.625 48.1875 47.75 41.5 
Q 54.890625 34.8125 54.890625 23.390625 
Q 54.890625 11.625 47.5625 5.09375 
Q 40.234375 -1.421875 26.90625 -1.421875 
Q 22.3125 -1.421875 17.546875 -0.640625 
Q 12.796875 0.140625 7.71875 1.703125 
L 7.71875 11.625 
Q 12.109375 9.234375 16.796875 8.0625 
Q 21.484375 6.890625 26.703125 6.890625 
Q 35.15625 6.890625 40.078125 11.328125 
Q 45.015625 15.765625 45.015625 23.390625 
Q 45.015625 31 40.078125 35.4375 
Q 35.15625 39.890625 26.703125 39.890625 
Q 22.75 39.890625 18.8125 39.015625 
Q 14.890625 38.140625 10.796875 36.28125 
z
" id="DejaVuSans-35"/>
      </defs>
      <g transform="translate(381.4576 287.878324)scale(0.1 -0.1)">
       <use xlink:href="#DejaVuSans-2212"/>
       <use x="83.789062" xlink:href="#DejaVuSans-38"/>
       <use x="147.412109" xlink:href="#DejaVuSans-2e"/>
       <use x="179.199219" xlink:href="#DejaVuSans-35"/>
      </g>
     </g>
    </g>
    <g id="ytick_2">
     <g id="line2d_2">
      <g>
       <use style="stroke:#000000;stroke-width:0.8;" x="374.4576" xlink:href="#m9624542283" y="226.776462"/>
      </g>
     </g>
     <g id="text_3">
      <!-- −8.0 -->
      <g transform="translate(381.4576 230.575681)scale(0.1 -0.1)">
       <use xlink:href="#DejaVuSans-2212"/>
       <use x="83.789062" xlink:href="#DejaVuSans-38"/>
       <use x="147.412109" xlink:href="#DejaVuSans-2e"/>
       <use x="179.199219" xlink:href="#DejaVuSans-30"/>
      </g>
     </g>
    </g>
    <g id="ytick_3">
     <g id="line2d_3">
      <g>
       <use style="stroke:#000000;stroke-width:0.8;" x="374.4576" xlink:href="#m9624542283" y="169.47382"/>
      </g>
     </g>
     <g id="text_4">
      <!-- −7.5 -->
      <defs>
       <path d="M 8.203125 72.90625 
L 55.078125 72.90625 
L 55.078125 68.703125 
L 28.609375 0 
L 18.3125 0 
L 43.21875 64.59375 
L 8.203125 64.59375 
z
" id="DejaVuSans-37"/>
      </defs>
      <g transform="translate(381.4576 173.273038)scale(0.1 -0.1)">
       <use xlink:href="#DejaVuSans-2212"/>
       <use x="83.789062" xlink:href="#DejaVuSans-37"/>
       <use x="147.412109" xlink:href="#DejaVuSans-2e"/>
       <use x="179.199219" xlink:href="#DejaVuSans-35"/>
      </g>
     </g>
    </g>
    <g id="ytick_4">
     <g id="line2d_4">
      <g>
       <use style="stroke:#000000;stroke-width:0.8;" x="374.4576" xlink:href="#m9624542283" y="112.171177"/>
      </g>
     </g>
     <g id="text_5">
      <!-- −7.0 -->
      <g transform="translate(381.4576 115.970396)scale(0.1 -0.1)">
       <use xlink:href="#DejaVuSans-2212"/>
       <use x="83.789062" xlink:href="#DejaVuSans-37"/>
       <use x="147.412109" xlink:href="#DejaVuSans-2e"/>
       <use x="179.199219" xlink:href="#DejaVuSans-30"/>
      </g>
     </g>
    </g>
    <g id="ytick_5">
     <g id="line2d_5">
      <g>
       <use style="stroke:#000000;stroke-width:0.8;" x="374.4576" xlink:href="#m9624542283" y="54.868534"/>
      </g>
     </g>
     <g id="text_6">
      <!-- −6.5 -->
      <g transform="translate(381.4576 58.667753)scale(0.1 -0.1)">
       <use xlink:href="#DejaVuSans-2212"/>
       <use x="83.789062" xlink:href="#DejaVuSans-36"/>
       <use x="147.412109" xlink:href="#DejaVuSans-2e"/>
       <use x="179.199219" xlink:href="#DejaVuSans-35"/>
      </g>
     </g>
    </g>
    <g id="text_7">
     <!-- Energy [eV] -->
     <defs>
      <path d="M 54.890625 33.015625 
L 54.890625 0 
L 45.90625 0 
L 45.90625 32.71875 
Q 45.90625 40.484375 42.875 44.328125 
Q 39.84375 48.1875 33.796875 48.1875 
Q 26.515625 48.1875 22.3125 43.546875 
Q 18.109375 38.921875 18.109375 30.90625 
L 18.109375 0 
L 9.078125 0 
L 9.078125 54.6875 
L 18.109375 54.6875 
L 18.109375 46.1875 
Q 21.34375 51.125 25.703125 53.5625 
Q 30.078125 56 35.796875 56 
Q 45.21875 56 50.046875 50.171875 
Q 54.890625 44.34375 54.890625 33.015625 
z
" id="DejaVuSans-6e"/>
      <path d="M 45.40625 27.984375 
Q 45.40625 37.75 41.375 43.109375 
Q 37.359375 48.484375 30.078125 48.484375 
Q 22.859375 48.484375 18.828125 43.109375 
Q 14.796875 37.75 14.796875 27.984375 
Q 14.796875 18.265625 18.828125 12.890625 
Q 22.859375 7.515625 30.078125 7.515625 
Q 37.359375 7.515625 41.375 12.890625 
Q 45.40625 18.265625 45.40625 27.984375 
z
M 54.390625 6.78125 
Q 54.390625 -7.171875 48.1875 -13.984375 
Q 42 -20.796875 29.203125 -20.796875 
Q 24.46875 -20.796875 20.265625 -20.09375 
Q 16.0625 -19.390625 12.109375 -17.921875 
L 12.109375 -9.1875 
Q 16.0625 -11.328125 19.921875 -12.34375 
Q 23.78125 -13.375 27.78125 -13.375 
Q 36.625 -13.375 41.015625 -8.765625 
Q 45.40625 -4.15625 45.40625 5.171875 
L 45.40625 9.625 
Q 42.625 4.78125 38.28125 2.390625 
Q 33.9375 0 27.875 0 
Q 17.828125 0 11.671875 7.65625 
Q 5.515625 15.328125 5.515625 27.984375 
Q 5.515625 40.671875 11.671875 48.328125 
Q 17.828125 56 27.875 56 
Q 33.9375 56 38.28125 53.609375 
Q 42.625 51.21875 45.40625 46.390625 
L 45.40625 54.6875 
L 54.390625 54.6875 
z
" id="DejaVuSans-67"/>
      <path d="M 32.171875 -5.078125 
Q 28.375 -14.84375 24.75 -17.8125 
Q 21.140625 -20.796875 15.09375 -20.796875 
L 7.90625 -20.796875 
L 7.90625 -13.28125 
L 13.1875 -13.28125 
Q 16.890625 -13.28125 18.9375 -11.515625 
Q 21 -9.765625 23.484375 -3.21875 
L 25.09375 0.875 
L 2.984375 54.6875 
L 12.5 54.6875 
L 29.59375 11.921875 
L 46.6875 54.6875 
L 56.203125 54.6875 
z
" id="DejaVuSans-79"/>
      <path d="M 8.59375 75.984375 
L 29.296875 75.984375 
L 29.296875 69 
L 17.578125 69 
L 17.578125 -6.203125 
L 29.296875 -6.203125 
L 29.296875 -13.1875 
L 8.59375 -13.1875 
z
" id="DejaVuSans-5b"/>
      <path d="M 30.421875 75.984375 
L 30.421875 -13.1875 
L 9.71875 -13.1875 
L 9.71875 -6.203125 
L 21.390625 -6.203125 
L 21.390625 69 
L 9.71875 69 
L 9.71875 75.984375 
z
" id="DejaVuSans-5d"/>
     </defs>
     <g transform="translate(417.33885 204.108469)rotate(-90)scale(0.1 -0.1)">
      <use xlink:href="#DejaVuSans-45"/>
      <use x="63.183594" xlink:href="#DejaVuSans-6e"/>
      <use x="126.5625" xlink:href="#DejaVuSans-65"/>
      <use x="188.085938" xlink:href="#DejaVuSans-72"/>
      <use x="229.183594" xlink:href="#DejaVuSans-67"/>
      <use x="292.660156" xlink:href="#DejaVuSans-79"/>
      <use x="351.839844" xlink:href="#DejaVuSans-20"/>
      <use x="383.626953" xlink:href="#DejaVuSans-5b"/>
      <use x="422.640625" xlink:href="#DejaVuSans-65"/>
      <use x="484.164062" xlink:href="#DejaVuSans-56"/>
      <use x="552.572266" xlink:href="#DejaVuSans-5d"/>
     </g>
    </g>
   </g>
   <g id="patch_3">
    <path d="M 361.152 307.584 
L 361.152 306.5445 
L 361.152 42.5115 
L 361.152 41.472 
L 374.4576 41.472 
L 374.4576 42.5115 
L 374.4576 306.5445 
L 374.4576 307.584 
z
" style="fill:none;stroke:#000000;stroke-linejoin:miter;stroke-width:0.8;"/>
   </g>
  </g>
 </g>
 <defs>
  <clipPath id="pf351c21ef0">
   <rect height="266.112" width="285.696" x="57.6" y="41.472"/>
  </clipPath>
  <clipPath id="pb1b793a78a">
   <rect height="266.112" width="13.3056" x="361.152" y="41.472"/>
  </clipPath>
 </defs>
</svg>
