<?xml version="1.0" encoding="utf-8" standalone="no"?>
<!DOCTYPE svg PUBLIC "-//W3C//DTD SVG 1.1//EN"
  "http://www.w3.org/Graphics/SVG/1.1/DTD/svg11.dtd">
<!-- Created with matplotlib (http://matplotlib.org/) -->
<svg height="345.6pt" version="1.1" viewBox="0 0 460.8 345.6" width="460.8pt" xmlns="http://www.w3.org/2000/svg" xmlns:xlink="http://www.w3.org/1999/xlink">
 <defs>
  <style type="text/css">
*{stroke-linecap:butt;stroke-linejoin:round;}
  </style>
 </defs>
 <g id="figure_1">
  <g id="patch_1">
   <path d="M 0 345.6 
L 460.8 345.6 
L 460.8 0 
L 0 0 
z
" style="fill:#ffffff;"/>
  </g>
  <g id="axes_1">
   <g id="CircleCollection_1">
    <path clip-path="url(#pa14ffd6c08)" d="M 330.024561 207.791674 
C 331.784113 207.791674 333.471836 207.092597 334.716028 205.848405 
C 335.960219 204.604213 336.659297 202.916491 336.659297 201.156938 
C 336.659297 199.397385 335.960219 197.709663 334.716028 196.465471 
C 333.471836 195.221279 331.784113 194.522202 330.024561 194.522202 
C 328.265008 194.522202 326.577285 195.221279 325.333093 196.465471 
C 324.088902 197.709663 323.389824 199.397385 323.389824 201.156938 
C 323.389824 202.916491 324.088902 204.604213 325.333093 205.848405 
C 326.577285 207.092597 328.265008 207.791674 330.024561 207.791674 
z
" style="fill:#365d8d;"/>
    <path clip-path="url(#pa14ffd6c08)" d="M 261.290913 251.196502 
C 263.03702 251.196502 264.711846 250.502767 265.94653 249.268083 
C 267.181214 248.033399 267.874949 246.358573 267.874949 244.612466 
C 267.874949 242.866359 267.181214 241.191534 265.94653 239.95685 
C 264.711846 238.722166 263.03702 238.02843 261.290913 238.02843 
C 259.544806 238.02843 257.869981 238.722166 256.635297 239.95685 
C 255.400613 241.191534 254.706877 242.866359 254.706877 244.612466 
C 254.706877 246.358573 255.400613 248.033399 256.635297 249.268083 
C 257.869981 250.502767 259.544806 251.196502 261.290913 251.196502 
z
" style="fill:#2a788e;"/>
    <path clip-path="url(#pa14ffd6c08)" d="M 118.947607 96.141847 
C 120.645327 96.141847 122.273741 95.467336 123.474211 94.266867 
C 124.67468 93.066398 125.349191 91.437983 125.349191 89.740263 
C 125.349191 88.042543 124.67468 86.414129 123.474211 85.213659 
C 122.273741 84.01319 120.645327 83.338679 118.947607 83.338679 
C 117.249887 83.338679 115.621472 84.01319 114.421003 85.213659 
C 113.220534 86.414129 112.546022 88.042543 112.546022 89.740263 
C 112.546022 91.437983 113.220534 93.066398 114.421003 94.266867 
C 115.621472 95.467336 117.249887 96.141847 118.947607 96.141847 
z
" style="fill:#3e4a89;"/>
    <path clip-path="url(#pa14ffd6c08)" d="M 94.784834 78.197208 
C 96.470816 78.197208 98.087972 77.52736 99.280141 76.335191 
C 100.47231 75.143022 101.142158 73.525866 101.142158 71.839884 
C 101.142158 70.153903 100.47231 68.536747 99.280141 67.344578 
C 98.087972 66.152409 96.470816 65.482561 94.784834 65.482561 
C 93.098852 65.482561 91.481697 66.152409 90.289528 67.344578 
C 89.097358 68.536747 88.427511 70.153903 88.427511 71.839884 
C 88.427511 73.525866 89.097358 75.143022 90.289528 76.335191 
C 91.481697 77.52736 93.098852 78.197208 94.784834 78.197208 
z
" style="fill:#34618d;"/>
    <path clip-path="url(#pa14ffd6c08)" d="M 142.317697 113.392273 
C 144.026798 113.392273 145.666129 112.71324 146.874646 111.504723 
C 148.083163 110.296206 148.762196 108.656875 148.762196 106.947773 
C 148.762196 105.238672 148.083163 103.599341 146.874646 102.390824 
C 145.666129 101.182307 144.026798 100.503274 142.317697 100.503274 
C 140.608595 100.503274 138.969264 101.182307 137.760747 102.390824 
C 136.55223 103.599341 135.873197 105.238672 135.873197 106.947773 
C 135.873197 108.656875 136.55223 110.296206 137.760747 111.504723 
C 138.969264 112.71324 140.608595 113.392273 142.317697 113.392273 
z
" style="fill:#3a538b;"/>
    <path clip-path="url(#pa14ffd6c08)" d="M 234.033775 237.84595 
C 235.772072 237.84595 237.439407 237.155317 238.668568 235.926156 
C 239.89773 234.696994 240.588362 233.02966 240.588362 231.291363 
C 240.588362 229.553066 239.89773 227.885731 238.668568 226.65657 
C 237.439407 225.427408 235.772072 224.736775 234.033775 224.736775 
C 232.295478 224.736775 230.628143 225.427408 229.398982 226.65657 
C 228.16982 227.885731 227.479188 229.553066 227.479188 231.291363 
C 227.479188 233.02966 228.16982 234.696994 229.398982 235.926156 
C 230.628143 237.155317 232.295478 237.84595 234.033775 237.84595 
z
" style="fill:#440154;"/>
    <path clip-path="url(#pa14ffd6c08)" d="M 319.615033 174.206155 
C 321.369906 174.206155 323.05314 173.508937 324.294022 172.268055 
C 325.534905 171.027172 326.232123 169.343938 326.232123 167.589065 
C 326.232123 165.834193 325.534905 164.150959 324.294022 162.910076 
C 323.05314 161.669194 321.369906 160.971975 319.615033 160.971975 
C 317.86016 160.971975 316.176926 161.669194 314.936044 162.910076 
C 313.695162 164.150959 312.997943 165.834193 312.997943 167.589065 
C 312.997943 169.343938 313.695162 171.027172 314.936044 172.268055 
C 316.176926 173.508937 317.86016 174.206155 319.615033 174.206155 
z
" style="fill:#27808e;"/>
    <path clip-path="url(#pa14ffd6c08)" d="M 271.816628 156.707442 
C 273.559552 156.707442 275.231324 156.014971 276.463757 154.782538 
C 277.69619 153.550105 278.388661 151.878332 278.388661 150.135409 
C 278.388661 148.392485 277.69619 146.720713 276.463757 145.48828 
C 275.231324 144.255847 273.559552 143.563376 271.816628 143.563376 
C 270.073705 143.563376 268.401932 144.255847 267.169499 145.48828 
C 265.937066 146.720713 265.244595 148.392485 265.244595 150.135409 
C 265.244595 151.878332 265.937066 153.550105 267.169499 154.782538 
C 268.401932 156.014971 270.073705 156.707442 271.816628 156.707442 
z
" style="fill:#375b8d;"/>
    <path clip-path="url(#pa14ffd6c08)" d="M 206.987407 257.434472 
C 208.720592 257.434472 210.383024 256.74587 211.608571 255.520323 
C 212.834118 254.294776 213.52272 252.632344 213.52272 250.899159 
C 213.52272 249.165974 212.834118 247.503542 211.608571 246.277995 
C 210.383024 245.052448 208.720592 244.363846 206.987407 244.363846 
C 205.254222 244.363846 203.59179 245.052448 202.366243 246.277995 
C 201.140696 247.503542 200.452094 249.165974 200.452094 250.899159 
C 200.452094 252.632344 201.140696 254.294776 202.366243 255.520323 
C 203.59179 256.74587 205.254222 257.434472 206.987407 257.434472 
z
" style="fill:#481f70;"/>
    <path clip-path="url(#pa14ffd6c08)" d="M 155.112272 242.732868 
C 156.843898 242.732868 158.504834 242.044886 159.729279 240.820441 
C 160.953723 239.595997 161.641706 237.93506 161.641706 236.203434 
C 161.641706 234.471808 160.953723 232.810872 159.729279 231.586428 
C 158.504834 230.361983 156.843898 229.674001 155.112272 229.674001 
C 153.380646 229.674001 151.71971 230.361983 150.495265 231.586428 
C 149.270821 232.810872 148.582838 234.471808 148.582838 236.203434 
C 148.582838 237.93506 149.270821 239.595997 150.495265 240.820441 
C 151.71971 242.044886 153.380646 242.732868 155.112272 242.732868 
z
" style="fill:#1f9f88;"/>
    <path clip-path="url(#pa14ffd6c08)" d="M 196.683027 194.745849 
C 198.415445 194.745849 200.077142 194.057552 201.302147 192.832547 
C 202.527152 191.607542 203.215449 189.945845 203.215449 188.213427 
C 203.215449 186.481008 202.527152 184.819311 201.302147 183.594306 
C 200.077142 182.369301 198.415445 181.681004 196.683027 181.681004 
C 194.950608 181.681004 193.288911 182.369301 192.063906 183.594306 
C 190.838901 184.819311 190.150604 186.481008 190.150604 188.213427 
C 190.150604 189.945845 190.838901 191.607542 192.063906 192.832547 
C 193.288911 194.057552 194.950608 194.745849 196.683027 194.745849 
z
" style="fill:#440154;"/>
    <path clip-path="url(#pa14ffd6c08)" d="M 187.168139 158.575608 
C 188.900109 158.575608 190.561375 157.887489 191.786062 156.662802 
C 193.01075 155.438114 193.698869 153.776848 193.698869 152.044878 
C 193.698869 150.312908 193.01075 148.651642 191.786062 147.426955 
C 190.561375 146.202267 188.900109 145.514148 187.168139 145.514148 
C 185.436169 145.514148 183.774903 146.202267 182.550215 147.426955 
C 181.325528 148.651642 180.637409 150.312908 180.637409 152.044878 
C 180.637409 153.776848 181.325528 155.438114 182.550215 156.662802 
C 183.774903 157.887489 185.436169 158.575608 187.168139 158.575608 
z
" style="fill:#3b528b;"/>
    <path clip-path="url(#pa14ffd6c08)" d="M 168.239903 127.756161 
C 169.962557 127.756161 171.614887 127.071744 172.832987 125.853644 
C 174.051087 124.635544 174.735505 122.983213 174.735505 121.26056 
C 174.735505 119.537906 174.051087 117.885576 172.832987 116.667476 
C 171.614887 115.449376 169.962557 114.764958 168.239903 114.764958 
C 166.517249 114.764958 164.864919 115.449376 163.646819 116.667476 
C 162.428719 117.885576 161.744301 119.537906 161.744301 121.26056 
C 161.744301 122.983213 162.428719 124.635544 163.646819 125.853644 
C 164.864919 127.071744 166.517249 127.756161 168.239903 127.756161 
z
" style="fill:#3b518b;"/>
    <path clip-path="url(#pa14ffd6c08)" d="M 183.204934 229.642106 
C 184.936472 229.642106 186.597323 228.954159 187.821705 227.729777 
C 189.046087 226.505395 189.734034 224.844544 189.734034 223.113006 
C 189.734034 221.381468 189.046087 219.720617 187.821705 218.496235 
C 186.597323 217.271853 184.936472 216.583906 183.204934 216.583906 
C 181.473396 216.583906 179.812545 217.271853 178.588163 218.496235 
C 177.363781 219.720617 176.675833 221.381468 176.675833 223.113006 
C 176.675833 224.844544 177.363781 226.505395 178.588163 227.729777 
C 179.812545 228.954159 181.473396 229.642106 183.204934 229.642106 
z
" style="fill:#481668;"/>
    <path clip-path="url(#pa14ffd6c08)" d="M 172.283113 301.54794 
C 174.017021 301.54794 175.680146 300.859051 176.906204 299.632993 
C 178.132262 298.406935 178.821151 296.74381 178.821151 295.009902 
C 178.821151 293.275994 178.132262 291.612869 176.906204 290.386811 
C 175.680146 289.160753 174.017021 288.471864 172.283113 288.471864 
C 170.549205 288.471864 168.88608 289.160753 167.660022 290.386811 
C 166.433964 291.612869 165.745075 293.275994 165.745075 295.009902 
C 165.745075 296.74381 166.433964 298.406935 167.660022 299.632993 
C 168.88608 300.859051 170.549205 301.54794 172.283113 301.54794 
z
" style="fill:#287c8e;"/>
    <path clip-path="url(#pa14ffd6c08)" d="M 199.400164 293.803912 
C 201.127628 293.803912 202.784572 293.117583 204.006073 291.896082 
C 205.227575 290.67458 205.913903 289.017636 205.913903 287.290172 
C 205.913903 285.562708 205.227575 283.905764 204.006073 282.684263 
C 202.784572 281.462761 201.127628 280.776433 199.400164 280.776433 
C 197.6727 280.776433 196.015756 281.462761 194.794254 282.684263 
C 193.572753 283.905764 192.886424 285.562708 192.886424 287.290172 
C 192.886424 289.017636 193.572753 290.67458 194.794254 291.896082 
C 196.015756 293.117583 197.6727 293.803912 199.400164 293.803912 
z
" style="fill:#1e9c89;"/>
    <path clip-path="url(#pa14ffd6c08)" d="M 288.333704 252.752383 
C 290.087276 252.752383 291.769262 252.055681 293.009225 250.815718 
C 294.249188 249.575756 294.945889 247.893769 294.945889 246.140197 
C 294.945889 244.386625 294.249188 242.704639 293.009225 241.464676 
C 291.769262 240.224713 290.087276 239.528012 288.333704 239.528012 
C 286.580132 239.528012 284.898146 240.224713 283.658183 241.464676 
C 282.41822 242.704639 281.721519 244.386625 281.721519 246.140197 
C 281.721519 247.893769 282.41822 249.575756 283.658183 250.815718 
C 284.898146 252.055681 286.580132 252.752383 288.333704 252.752383 
z
" style="fill:#3b518b;"/>
    <path clip-path="url(#pa14ffd6c08)" d="M 299.968152 149.883201 
C 301.716005 149.883201 303.392506 149.188772 304.628425 147.952853 
C 305.864344 146.716934 306.558773 145.040433 306.558773 143.29258 
C 306.558773 141.544727 305.864344 139.868226 304.628425 138.632307 
C 303.392506 137.396388 301.716005 136.701959 299.968152 136.701959 
C 298.220299 136.701959 296.543798 137.396388 295.307879 138.632307 
C 294.07196 139.868226 293.377531 141.544727 293.377531 143.29258 
C 293.377531 145.040433 294.07196 146.716934 295.307879 147.952853 
C 296.543798 149.188772 298.220299 149.883201 299.968152 149.883201 
z
" style="fill:#33628d;"/>
    <path clip-path="url(#pa14ffd6c08)" d="M 247.05394 170.60226 
C 248.792757 170.60226 250.460591 169.91142 251.69012 168.681891 
C 252.919649 167.452362 253.610488 165.784529 253.610488 164.045712 
C 253.610488 162.306895 252.919649 160.639062 251.69012 159.409533 
C 250.460591 158.180003 248.792757 157.489164 247.05394 157.489164 
C 245.315124 157.489164 243.64729 158.180003 242.417761 159.409533 
C 241.188232 160.639062 240.497393 162.306895 240.497393 164.045712 
C 240.497393 165.784529 241.188232 167.452362 242.417761 168.681891 
C 243.64729 169.91142 245.315124 170.60226 247.05394 170.60226 
z
" style="fill:#2b748e;"/>
    <path clip-path="url(#pa14ffd6c08)" d="M 313.037902 235.443425 
C 314.796198 235.443425 316.482716 234.744847 317.726019 233.501544 
C 318.969322 232.258241 319.6679 230.571723 319.6679 228.813427 
C 319.6679 227.055131 318.969322 225.368613 317.726019 224.12531 
C 316.482716 222.882007 314.796198 222.183429 313.037902 222.183429 
C 311.279606 222.183429 309.593088 222.882007 308.349785 224.12531 
C 307.106482 225.368613 306.407904 227.055131 306.407904 228.813427 
C 306.407904 230.571723 307.106482 232.258241 308.349785 233.501544 
C 309.593088 234.744847 311.279606 235.443425 313.037902 235.443425 
z
" style="fill:#2b748e;"/>
    <path clip-path="url(#pa14ffd6c08)" d="M 227.709322 198.856683 
C 229.445437 198.856683 231.110679 198.166918 232.338297 196.939299 
C 233.565916 195.711681 234.255682 194.046439 234.255682 192.310324 
C 234.255682 190.574209 233.565916 188.908967 232.338297 187.681349 
C 231.110679 186.45373 229.445437 185.763965 227.709322 185.763965 
C 225.973207 185.763965 224.307966 186.45373 223.080347 187.681349 
C 221.852728 188.908967 221.162963 190.574209 221.162963 192.310324 
C 221.162963 194.046439 221.852728 195.711681 223.080347 196.939299 
C 224.307966 198.166918 225.973207 198.856683 227.709322 198.856683 
z
" style="fill:#440256;"/>
    <path clip-path="url(#pa14ffd6c08)" d="M 151.616838 277.285381 
C 153.336384 277.285381 154.985734 276.602198 156.201636 275.386295 
C 157.417539 274.170393 158.100722 272.521043 158.100722 270.801498 
C 158.100722 269.081952 157.417539 267.432602 156.201636 266.2167 
C 154.985734 265.000797 153.336384 264.317614 151.616838 264.317614 
C 149.897293 264.317614 148.247943 265.000797 147.032041 266.2167 
C 145.816138 267.432602 145.132955 269.081952 145.132955 270.801498 
C 145.132955 272.521043 145.816138 274.170393 147.032041 275.386295 
C 148.247943 276.602198 149.897293 277.285381 151.616838 277.285381 
z
" style="fill:#297a8e;"/>
    <path clip-path="url(#pa14ffd6c08)" d="M 70.857497 60.33992 
C 72.531052 60.33992 74.136287 59.67501 75.319669 58.491628 
C 76.503051 57.308247 77.167961 55.703011 77.167961 54.029457 
C 77.167961 52.355902 76.503051 50.750667 75.319669 49.567285 
C 74.136287 48.383903 72.531052 47.718993 70.857497 47.718993 
C 69.183943 47.718993 67.578708 48.383903 66.395326 49.567285 
C 65.211944 50.750667 64.547034 52.355902 64.547034 54.029457 
C 64.547034 55.703011 65.211944 57.308247 66.395326 58.491628 
C 67.578708 59.67501 69.183943 60.33992 70.857497 60.33992 
z
" style="fill:#fde725;"/>
    <path clip-path="url(#pa14ffd6c08)" d="M 198.595432 124.066491 
C 200.335697 124.066491 202.004921 123.375077 203.235474 122.144523 
C 204.466028 120.913969 205.157443 119.244746 205.157443 117.50448 
C 205.157443 115.764214 204.466028 114.094991 203.235474 112.864437 
C 202.004921 111.633883 200.335697 110.942469 198.595432 110.942469 
C 196.855166 110.942469 195.185943 111.633883 193.955389 112.864437 
C 192.724835 114.094991 192.03342 115.764214 192.03342 117.50448 
C 192.03342 119.244746 192.724835 120.913969 193.955389 122.144523 
C 195.185943 123.375077 196.855166 124.066491 198.595432 124.066491 
z
" style="fill:#60ca60;"/>
   </g>
   <g id="text_1">
    <!-- Structure #5063, $E_N$=-179.61eV, ΔE=0.14eV -->
    <defs>
     <path d="M 53.515625 70.515625 
L 53.515625 60.890625 
Q 47.90625 63.578125 42.921875 64.890625 
Q 37.9375 66.21875 33.296875 66.21875 
Q 25.25 66.21875 20.875 63.09375 
Q 16.5 59.96875 16.5 54.203125 
Q 16.5 49.359375 19.40625 46.890625 
Q 22.3125 44.4375 30.421875 42.921875 
L 36.375 41.703125 
Q 47.40625 39.59375 52.65625 34.296875 
Q 57.90625 29 57.90625 20.125 
Q 57.90625 9.515625 50.796875 4.046875 
Q 43.703125 -1.421875 29.984375 -1.421875 
Q 24.8125 -1.421875 18.96875 -0.25 
Q 13.140625 0.921875 6.890625 3.21875 
L 6.890625 13.375 
Q 12.890625 10.015625 18.65625 8.296875 
Q 24.421875 6.59375 29.984375 6.59375 
Q 38.421875 6.59375 43.015625 9.90625 
Q 47.609375 13.234375 47.609375 19.390625 
Q 47.609375 24.75 44.3125 27.78125 
Q 41.015625 30.8125 33.5 32.328125 
L 27.484375 33.5 
Q 16.453125 35.6875 11.515625 40.375 
Q 6.59375 45.0625 6.59375 53.421875 
Q 6.59375 63.09375 13.40625 68.65625 
Q 20.21875 74.21875 32.171875 74.21875 
Q 37.3125 74.21875 42.625 73.28125 
Q 47.953125 72.359375 53.515625 70.515625 
z
" id="DejaVuSans-53"/>
     <path d="M 18.3125 70.21875 
L 18.3125 54.6875 
L 36.8125 54.6875 
L 36.8125 47.703125 
L 18.3125 47.703125 
L 18.3125 18.015625 
Q 18.3125 11.328125 20.140625 9.421875 
Q 21.96875 7.515625 27.59375 7.515625 
L 36.8125 7.515625 
L 36.8125 0 
L 27.59375 0 
Q 17.1875 0 13.234375 3.875 
Q 9.28125 7.765625 9.28125 18.015625 
L 9.28125 47.703125 
L 2.6875 47.703125 
L 2.6875 54.6875 
L 9.28125 54.6875 
L 9.28125 70.21875 
z
" id="DejaVuSans-74"/>
     <path d="M 41.109375 46.296875 
Q 39.59375 47.171875 37.8125 47.578125 
Q 36.03125 48 33.890625 48 
Q 26.265625 48 22.1875 43.046875 
Q 18.109375 38.09375 18.109375 28.8125 
L 18.109375 0 
L 9.078125 0 
L 9.078125 54.6875 
L 18.109375 54.6875 
L 18.109375 46.1875 
Q 20.953125 51.171875 25.484375 53.578125 
Q 30.03125 56 36.53125 56 
Q 37.453125 56 38.578125 55.875 
Q 39.703125 55.765625 41.0625 55.515625 
z
" id="DejaVuSans-72"/>
     <path d="M 8.5 21.578125 
L 8.5 54.6875 
L 17.484375 54.6875 
L 17.484375 21.921875 
Q 17.484375 14.15625 20.5 10.265625 
Q 23.53125 6.390625 29.59375 6.390625 
Q 36.859375 6.390625 41.078125 11.03125 
Q 45.3125 15.671875 45.3125 23.6875 
L 45.3125 54.6875 
L 54.296875 54.6875 
L 54.296875 0 
L 45.3125 0 
L 45.3125 8.40625 
Q 42.046875 3.421875 37.71875 1 
Q 33.40625 -1.421875 27.6875 -1.421875 
Q 18.265625 -1.421875 13.375 4.4375 
Q 8.5 10.296875 8.5 21.578125 
z
M 31.109375 56 
z
" id="DejaVuSans-75"/>
     <path d="M 48.78125 52.59375 
L 48.78125 44.1875 
Q 44.96875 46.296875 41.140625 47.34375 
Q 37.3125 48.390625 33.40625 48.390625 
Q 24.65625 48.390625 19.8125 42.84375 
Q 14.984375 37.3125 14.984375 27.296875 
Q 14.984375 17.28125 19.8125 11.734375 
Q 24.65625 6.203125 33.40625 6.203125 
Q 37.3125 6.203125 41.140625 7.25 
Q 44.96875 8.296875 48.78125 10.40625 
L 48.78125 2.09375 
Q 45.015625 0.34375 40.984375 -0.53125 
Q 36.96875 -1.421875 32.421875 -1.421875 
Q 20.0625 -1.421875 12.78125 6.34375 
Q 5.515625 14.109375 5.515625 27.296875 
Q 5.515625 40.671875 12.859375 48.328125 
Q 20.21875 56 33.015625 56 
Q 37.15625 56 41.109375 55.140625 
Q 45.0625 54.296875 48.78125 52.59375 
z
" id="DejaVuSans-63"/>
     <path d="M 56.203125 29.59375 
L 56.203125 25.203125 
L 14.890625 25.203125 
Q 15.484375 15.921875 20.484375 11.0625 
Q 25.484375 6.203125 34.421875 6.203125 
Q 39.59375 6.203125 44.453125 7.46875 
Q 49.3125 8.734375 54.109375 11.28125 
L 54.109375 2.78125 
Q 49.265625 0.734375 44.1875 -0.34375 
Q 39.109375 -1.421875 33.890625 -1.421875 
Q 20.796875 -1.421875 13.15625 6.1875 
Q 5.515625 13.8125 5.515625 26.8125 
Q 5.515625 40.234375 12.765625 48.109375 
Q 20.015625 56 32.328125 56 
Q 43.359375 56 49.78125 48.890625 
Q 56.203125 41.796875 56.203125 29.59375 
z
M 47.21875 32.234375 
Q 47.125 39.59375 43.09375 43.984375 
Q 39.0625 48.390625 32.421875 48.390625 
Q 24.90625 48.390625 20.390625 44.140625 
Q 15.875 39.890625 15.1875 32.171875 
z
" id="DejaVuSans-65"/>
     <path id="DejaVuSans-20"/>
     <path d="M 51.125 44 
L 36.921875 44 
L 32.8125 27.6875 
L 47.125 27.6875 
z
M 43.796875 71.78125 
L 38.71875 51.515625 
L 52.984375 51.515625 
L 58.109375 71.78125 
L 65.921875 71.78125 
L 60.890625 51.515625 
L 76.125 51.515625 
L 76.125 44 
L 58.984375 44 
L 54.984375 27.6875 
L 70.515625 27.6875 
L 70.515625 20.21875 
L 53.078125 20.21875 
L 48 0 
L 40.1875 0 
L 45.21875 20.21875 
L 30.90625 20.21875 
L 25.875 0 
L 18.015625 0 
L 23.09375 20.21875 
L 7.71875 20.21875 
L 7.71875 27.6875 
L 24.90625 27.6875 
L 29 44 
L 13.28125 44 
L 13.28125 51.515625 
L 30.90625 51.515625 
L 35.890625 71.78125 
z
" id="DejaVuSans-23"/>
     <path d="M 10.796875 72.90625 
L 49.515625 72.90625 
L 49.515625 64.59375 
L 19.828125 64.59375 
L 19.828125 46.734375 
Q 21.96875 47.46875 24.109375 47.828125 
Q 26.265625 48.1875 28.421875 48.1875 
Q 40.625 48.1875 47.75 41.5 
Q 54.890625 34.8125 54.890625 23.390625 
Q 54.890625 11.625 47.5625 5.09375 
Q 40.234375 -1.421875 26.90625 -1.421875 
Q 22.3125 -1.421875 17.546875 -0.640625 
Q 12.796875 0.140625 7.71875 1.703125 
L 7.71875 11.625 
Q 12.109375 9.234375 16.796875 8.0625 
Q 21.484375 6.890625 26.703125 6.890625 
Q 35.15625 6.890625 40.078125 11.328125 
Q 45.015625 15.765625 45.015625 23.390625 
Q 45.015625 31 40.078125 35.4375 
Q 35.15625 39.890625 26.703125 39.890625 
Q 22.75 39.890625 18.8125 39.015625 
Q 14.890625 38.140625 10.796875 36.28125 
z
" id="DejaVuSans-35"/>
     <path d="M 31.78125 66.40625 
Q 24.171875 66.40625 20.328125 58.90625 
Q 16.5 51.421875 16.5 36.375 
Q 16.5 21.390625 20.328125 13.890625 
Q 24.171875 6.390625 31.78125 6.390625 
Q 39.453125 6.390625 43.28125 13.890625 
Q 47.125 21.390625 47.125 36.375 
Q 47.125 51.421875 43.28125 58.90625 
Q 39.453125 66.40625 31.78125 66.40625 
z
M 31.78125 74.21875 
Q 44.046875 74.21875 50.515625 64.515625 
Q 56.984375 54.828125 56.984375 36.375 
Q 56.984375 17.96875 50.515625 8.265625 
Q 44.046875 -1.421875 31.78125 -1.421875 
Q 19.53125 -1.421875 13.0625 8.265625 
Q 6.59375 17.96875 6.59375 36.375 
Q 6.59375 54.828125 13.0625 64.515625 
Q 19.53125 74.21875 31.78125 74.21875 
z
" id="DejaVuSans-30"/>
     <path d="M 33.015625 40.375 
Q 26.375 40.375 22.484375 35.828125 
Q 18.609375 31.296875 18.609375 23.390625 
Q 18.609375 15.53125 22.484375 10.953125 
Q 26.375 6.390625 33.015625 6.390625 
Q 39.65625 6.390625 43.53125 10.953125 
Q 47.40625 15.53125 47.40625 23.390625 
Q 47.40625 31.296875 43.53125 35.828125 
Q 39.65625 40.375 33.015625 40.375 
z
M 52.59375 71.296875 
L 52.59375 62.3125 
Q 48.875 64.0625 45.09375 64.984375 
Q 41.3125 65.921875 37.59375 65.921875 
Q 27.828125 65.921875 22.671875 59.328125 
Q 17.53125 52.734375 16.796875 39.40625 
Q 19.671875 43.65625 24.015625 45.921875 
Q 28.375 48.1875 33.59375 48.1875 
Q 44.578125 48.1875 50.953125 41.515625 
Q 57.328125 34.859375 57.328125 23.390625 
Q 57.328125 12.15625 50.6875 5.359375 
Q 44.046875 -1.421875 33.015625 -1.421875 
Q 20.359375 -1.421875 13.671875 8.265625 
Q 6.984375 17.96875 6.984375 36.375 
Q 6.984375 53.65625 15.1875 63.9375 
Q 23.390625 74.21875 37.203125 74.21875 
Q 40.921875 74.21875 44.703125 73.484375 
Q 48.484375 72.75 52.59375 71.296875 
z
" id="DejaVuSans-36"/>
     <path d="M 40.578125 39.3125 
Q 47.65625 37.796875 51.625 33 
Q 55.609375 28.21875 55.609375 21.1875 
Q 55.609375 10.40625 48.1875 4.484375 
Q 40.765625 -1.421875 27.09375 -1.421875 
Q 22.515625 -1.421875 17.65625 -0.515625 
Q 12.796875 0.390625 7.625 2.203125 
L 7.625 11.71875 
Q 11.71875 9.328125 16.59375 8.109375 
Q 21.484375 6.890625 26.8125 6.890625 
Q 36.078125 6.890625 40.9375 10.546875 
Q 45.796875 14.203125 45.796875 21.1875 
Q 45.796875 27.640625 41.28125 31.265625 
Q 36.765625 34.90625 28.71875 34.90625 
L 20.21875 34.90625 
L 20.21875 43.015625 
L 29.109375 43.015625 
Q 36.375 43.015625 40.234375 45.921875 
Q 44.09375 48.828125 44.09375 54.296875 
Q 44.09375 59.90625 40.109375 62.90625 
Q 36.140625 65.921875 28.71875 65.921875 
Q 24.65625 65.921875 20.015625 65.03125 
Q 15.375 64.15625 9.8125 62.3125 
L 9.8125 71.09375 
Q 15.4375 72.65625 20.34375 73.4375 
Q 25.25 74.21875 29.59375 74.21875 
Q 40.828125 74.21875 47.359375 69.109375 
Q 53.90625 64.015625 53.90625 55.328125 
Q 53.90625 49.265625 50.4375 45.09375 
Q 46.96875 40.921875 40.578125 39.3125 
z
" id="DejaVuSans-33"/>
     <path d="M 11.71875 12.40625 
L 22.015625 12.40625 
L 22.015625 4 
L 14.015625 -11.625 
L 7.71875 -11.625 
L 11.71875 4 
z
" id="DejaVuSans-2c"/>
     <path d="M 16.890625 72.90625 
L 62.984375 72.90625 
L 61.375 64.59375 
L 25.09375 64.59375 
L 20.90625 43.015625 
L 55.71875 43.015625 
L 54.109375 34.71875 
L 19.28125 34.71875 
L 14.203125 8.296875 
L 51.3125 8.296875 
L 49.703125 0 
L 2.6875 0 
z
" id="DejaVuSans-Oblique-45"/>
     <path d="M 16.890625 72.90625 
L 30.171875 72.90625 
L 50.296875 10.40625 
L 62.5 72.90625 
L 72.125 72.90625 
L 57.90625 0 
L 44.578125 0 
L 24.515625 62.890625 
L 12.3125 0 
L 2.6875 0 
z
" id="DejaVuSans-Oblique-4e"/>
     <path d="M 10.59375 45.40625 
L 73.1875 45.40625 
L 73.1875 37.203125 
L 10.59375 37.203125 
z
M 10.59375 25.484375 
L 73.1875 25.484375 
L 73.1875 17.1875 
L 10.59375 17.1875 
z
" id="DejaVuSans-3d"/>
     <path d="M 4.890625 31.390625 
L 31.203125 31.390625 
L 31.203125 23.390625 
L 4.890625 23.390625 
z
" id="DejaVuSans-2d"/>
     <path d="M 12.40625 8.296875 
L 28.515625 8.296875 
L 28.515625 63.921875 
L 10.984375 60.40625 
L 10.984375 69.390625 
L 28.421875 72.90625 
L 38.28125 72.90625 
L 38.28125 8.296875 
L 54.390625 8.296875 
L 54.390625 0 
L 12.40625 0 
z
" id="DejaVuSans-31"/>
     <path d="M 8.203125 72.90625 
L 55.078125 72.90625 
L 55.078125 68.703125 
L 28.609375 0 
L 18.3125 0 
L 43.21875 64.59375 
L 8.203125 64.59375 
z
" id="DejaVuSans-37"/>
     <path d="M 10.984375 1.515625 
L 10.984375 10.5 
Q 14.703125 8.734375 18.5 7.8125 
Q 22.3125 6.890625 25.984375 6.890625 
Q 35.75 6.890625 40.890625 13.453125 
Q 46.046875 20.015625 46.78125 33.40625 
Q 43.953125 29.203125 39.59375 26.953125 
Q 35.25 24.703125 29.984375 24.703125 
Q 19.046875 24.703125 12.671875 31.3125 
Q 6.296875 37.9375 6.296875 49.421875 
Q 6.296875 60.640625 12.9375 67.421875 
Q 19.578125 74.21875 30.609375 74.21875 
Q 43.265625 74.21875 49.921875 64.515625 
Q 56.59375 54.828125 56.59375 36.375 
Q 56.59375 19.140625 48.40625 8.859375 
Q 40.234375 -1.421875 26.421875 -1.421875 
Q 22.703125 -1.421875 18.890625 -0.6875 
Q 15.09375 0.046875 10.984375 1.515625 
z
M 30.609375 32.421875 
Q 37.25 32.421875 41.125 36.953125 
Q 45.015625 41.5 45.015625 49.421875 
Q 45.015625 57.28125 41.125 61.84375 
Q 37.25 66.40625 30.609375 66.40625 
Q 23.96875 66.40625 20.09375 61.84375 
Q 16.21875 57.28125 16.21875 49.421875 
Q 16.21875 41.5 20.09375 36.953125 
Q 23.96875 32.421875 30.609375 32.421875 
z
" id="DejaVuSans-39"/>
     <path d="M 10.6875 12.40625 
L 21 12.40625 
L 21 0 
L 10.6875 0 
z
" id="DejaVuSans-2e"/>
     <path d="M 28.609375 0 
L 0.78125 72.90625 
L 11.078125 72.90625 
L 34.1875 11.53125 
L 57.328125 72.90625 
L 67.578125 72.90625 
L 39.796875 0 
z
" id="DejaVuSans-56"/>
     <path d="M 34.1875 63.1875 
L 14.15625 8.203125 
L 54.25 8.203125 
z
M 0.78125 0 
L 28.609375 72.90625 
L 39.796875 72.90625 
L 67.578125 0 
z
" id="DejaVuSans-394"/>
     <path d="M 9.8125 72.90625 
L 55.90625 72.90625 
L 55.90625 64.59375 
L 19.671875 64.59375 
L 19.671875 43.015625 
L 54.390625 43.015625 
L 54.390625 34.71875 
L 19.671875 34.71875 
L 19.671875 8.296875 
L 56.78125 8.296875 
L 56.78125 0 
L 9.8125 0 
z
" id="DejaVuSans-45"/>
     <path d="M 37.796875 64.3125 
L 12.890625 25.390625 
L 37.796875 25.390625 
z
M 35.203125 72.90625 
L 47.609375 72.90625 
L 47.609375 25.390625 
L 58.015625 25.390625 
L 58.015625 17.1875 
L 47.609375 17.1875 
L 47.609375 0 
L 37.796875 0 
L 37.796875 17.1875 
L 4.890625 17.1875 
L 4.890625 26.703125 
z
" id="DejaVuSans-34"/>
    </defs>
    <g transform="translate(65.388 35.472)scale(0.12 -0.12)">
     <use transform="translate(0 0.78125)" xlink:href="#DejaVuSans-53"/>
     <use transform="translate(63.476562 0.78125)" xlink:href="#DejaVuSans-74"/>
     <use transform="translate(102.685547 0.78125)" xlink:href="#DejaVuSans-72"/>
     <use transform="translate(143.798828 0.78125)" xlink:href="#DejaVuSans-75"/>
     <use transform="translate(207.177734 0.78125)" xlink:href="#DejaVuSans-63"/>
     <use transform="translate(262.158203 0.78125)" xlink:href="#DejaVuSans-74"/>
     <use transform="translate(301.367188 0.78125)" xlink:href="#DejaVuSans-75"/>
     <use transform="translate(364.746094 0.78125)" xlink:href="#DejaVuSans-72"/>
     <use transform="translate(405.859375 0.78125)" xlink:href="#DejaVuSans-65"/>
     <use transform="translate(467.382812 0.78125)" xlink:href="#DejaVuSans-20"/>
     <use transform="translate(499.169922 0.78125)" xlink:href="#DejaVuSans-23"/>
     <use transform="translate(582.958984 0.78125)" xlink:href="#DejaVuSans-35"/>
     <use transform="translate(646.582031 0.78125)" xlink:href="#DejaVuSans-30"/>
     <use transform="translate(710.205078 0.78125)" xlink:href="#DejaVuSans-36"/>
     <use transform="translate(773.828125 0.78125)" xlink:href="#DejaVuSans-33"/>
     <use transform="translate(837.451172 0.78125)" xlink:href="#DejaVuSans-2c"/>
     <use transform="translate(869.238281 0.78125)" xlink:href="#DejaVuSans-20"/>
     <use transform="translate(901.025391 0.78125)" xlink:href="#DejaVuSans-Oblique-45"/>
     <use transform="translate(964.208984 -15.625)scale(0.7)" xlink:href="#DejaVuSans-Oblique-4e"/>
     <use transform="translate(1019.306641 0.78125)" xlink:href="#DejaVuSans-3d"/>
     <use transform="translate(1103.095703 0.78125)" xlink:href="#DejaVuSans-2d"/>
     <use transform="translate(1139.179688 0.78125)" xlink:href="#DejaVuSans-31"/>
     <use transform="translate(1202.802734 0.78125)" xlink:href="#DejaVuSans-37"/>
     <use transform="translate(1266.425781 0.78125)" xlink:href="#DejaVuSans-39"/>
     <use transform="translate(1330.048828 0.78125)" xlink:href="#DejaVuSans-2e"/>
     <use transform="translate(1361.835938 0.78125)" xlink:href="#DejaVuSans-36"/>
     <use transform="translate(1425.458984 0.78125)" xlink:href="#DejaVuSans-31"/>
     <use transform="translate(1489.082031 0.78125)" xlink:href="#DejaVuSans-65"/>
     <use transform="translate(1550.605469 0.78125)" xlink:href="#DejaVuSans-56"/>
     <use transform="translate(1619.013672 0.78125)" xlink:href="#DejaVuSans-2c"/>
     <use transform="translate(1650.800781 0.78125)" xlink:href="#DejaVuSans-20"/>
     <use transform="translate(1682.587891 0.78125)" xlink:href="#DejaVuSans-394"/>
     <use transform="translate(1750.996094 0.78125)" xlink:href="#DejaVuSans-45"/>
     <use transform="translate(1814.179688 0.78125)" xlink:href="#DejaVuSans-3d"/>
     <use transform="translate(1897.96875 0.78125)" xlink:href="#DejaVuSans-30"/>
     <use transform="translate(1961.591797 0.78125)" xlink:href="#DejaVuSans-2e"/>
     <use transform="translate(1993.378906 0.78125)" xlink:href="#DejaVuSans-31"/>
     <use transform="translate(2057.001953 0.78125)" xlink:href="#DejaVuSans-34"/>
     <use transform="translate(2120.625 0.78125)" xlink:href="#DejaVuSans-65"/>
     <use transform="translate(2182.148438 0.78125)" xlink:href="#DejaVuSans-56"/>
    </g>
   </g>
  </g>
  <g id="axes_2">
   <g id="patch_2">
    <path clip-path="url(#p1ffa99c3b1)" d="M 361.152 307.584 
L 361.152 306.5445 
L 361.152 42.5115 
L 361.152 41.472 
L 374.4576 41.472 
L 374.4576 42.5115 
L 374.4576 306.5445 
L 374.4576 307.584 
z
" style="fill:#ffffff;stroke:#ffffff;stroke-linejoin:miter;stroke-width:0.01;"/>
   </g>
   <image height="265.68" id="image2791a528da" transform="scale(1 -1)translate(0 -265.68)" width="12.96" x="361.44" xlink:href="data:image/png;base64,
iVBORw0KGgoAAAANSUhEUgAAABIAAAFxCAYAAAB+2fgXAAAABHNCSVQICAgIfAhkiAAAAeVJREFUeJztncmNw0AQA2ckheYQNv9QLIfQ8ygsCgQ7AEI8+jAs2Puz/94F1LP2ReCsZ18bAWIeZ5XaGRBE7VnbptG+KI101FYyNSiQG2oRITXKNaX9uclOdi2XWjftVE32CZCO2ou5Bj1TcCBr/1zB9ge7Fq0Rg2NM9pvbtG+ua1QgsRYhDy0ISEiNc40BEibbSI0Coj5CBGtkpFbXJiAjNZlrwhuSOv2M1DjXbEdEciBt1JSDDQKKpmZr2rr2j0DBGpXaWEJq3bQzEPIS26r9J+Wzv9Tm8o3aajRXqc3VUXsApKNWjeZq0x4ABVNbm7lrszVigDqP5vIl2+eaT2yfRkL7g+dRcNPqjohkjaCvRVBq0H2U3LQrOJCx9kdTg4B8oxZzzTdqdYHEngjUCAPyUctN9sVRq2sTECW2UKNLd2jVtRmo1A6AhMmWaSRcR8nUdIHUuVb75zJS218EyEitro1At69pIdeSk30Lkw0FktNImGyZRhy1O5galmxd03LUsHWk06jUZiCq+5Wb1kZNN4+wJxJuWt8RAW5am2sYNZ9rYCBzZ3buPKJ2P5Yj4Toy3keyIyJbIxs1rml1byCA84gpch5RQNB7Q0qNMGq2Hy4BXdNR41yz/cEEJfZzUz96r9PoB0okjeQ8y9TkAAAAAElFTkSuQmCC" y="-41.76"/>
   <g id="matplotlib.axis_1"/>
   <g id="matplotlib.axis_2">
    <g id="ytick_1">
     <g id="line2d_1">
      <defs>
       <path d="M 0 0 
L 3.5 0 
" id="m89f045af7c" style="stroke:#000000;stroke-width:0.8;"/>
      </defs>
      <g>
       <use style="stroke:#000000;stroke-width:0.8;" x="374.4576" xlink:href="#m89f045af7c" y="294.826263"/>
      </g>
     </g>
     <g id="text_2">
      <!-- −8.5 -->
      <defs>
       <path d="M 10.59375 35.5 
L 73.1875 35.5 
L 73.1875 27.203125 
L 10.59375 27.203125 
z
" id="DejaVuSans-2212"/>
       <path d="M 31.78125 34.625 
Q 24.75 34.625 20.71875 30.859375 
Q 16.703125 27.09375 16.703125 20.515625 
Q 16.703125 13.921875 20.71875 10.15625 
Q 24.75 6.390625 31.78125 6.390625 
Q 38.8125 6.390625 42.859375 10.171875 
Q 46.921875 13.96875 46.921875 20.515625 
Q 46.921875 27.09375 42.890625 30.859375 
Q 38.875 34.625 31.78125 34.625 
z
M 21.921875 38.8125 
Q 15.578125 40.375 12.03125 44.71875 
Q 8.5 49.078125 8.5 55.328125 
Q 8.5 64.0625 14.71875 69.140625 
Q 20.953125 74.21875 31.78125 74.21875 
Q 42.671875 74.21875 48.875 69.140625 
Q 55.078125 64.0625 55.078125 55.328125 
Q 55.078125 49.078125 51.53125 44.71875 
Q 48 40.375 41.703125 38.8125 
Q 48.828125 37.15625 52.796875 32.3125 
Q 56.78125 27.484375 56.78125 20.515625 
Q 56.78125 9.90625 50.3125 4.234375 
Q 43.84375 -1.421875 31.78125 -1.421875 
Q 19.734375 -1.421875 13.25 4.234375 
Q 6.78125 9.90625 6.78125 20.515625 
Q 6.78125 27.484375 10.78125 32.3125 
Q 14.796875 37.15625 21.921875 38.8125 
z
M 18.3125 54.390625 
Q 18.3125 48.734375 21.84375 45.5625 
Q 25.390625 42.390625 31.78125 42.390625 
Q 38.140625 42.390625 41.71875 45.5625 
Q 45.3125 48.734375 45.3125 54.390625 
Q 45.3125 60.0625 41.71875 63.234375 
Q 38.140625 66.40625 31.78125 66.40625 
Q 25.390625 66.40625 21.84375 63.234375 
Q 18.3125 60.0625 18.3125 54.390625 
z
" id="DejaVuSans-38"/>
      </defs>
      <g transform="translate(381.4576 298.625482)scale(0.1 -0.1)">
       <use xlink:href="#DejaVuSans-2212"/>
       <use x="83.789062" xlink:href="#DejaVuSans-38"/>
       <use x="147.412109" xlink:href="#DejaVuSans-2e"/>
       <use x="179.199219" xlink:href="#DejaVuSans-35"/>
      </g>
     </g>
    </g>
    <g id="ytick_2">
     <g id="line2d_2">
      <g>
       <use style="stroke:#000000;stroke-width:0.8;" x="374.4576" xlink:href="#m89f045af7c" y="258.234245"/>
      </g>
     </g>
     <g id="text_3">
      <!-- −8.0 -->
      <g transform="translate(381.4576 262.033464)scale(0.1 -0.1)">
       <use xlink:href="#DejaVuSans-2212"/>
       <use x="83.789062" xlink:href="#DejaVuSans-38"/>
       <use x="147.412109" xlink:href="#DejaVuSans-2e"/>
       <use x="179.199219" xlink:href="#DejaVuSans-30"/>
      </g>
     </g>
    </g>
    <g id="ytick_3">
     <g id="line2d_3">
      <g>
       <use style="stroke:#000000;stroke-width:0.8;" x="374.4576" xlink:href="#m89f045af7c" y="221.642227"/>
      </g>
     </g>
     <g id="text_4">
      <!-- −7.5 -->
      <g transform="translate(381.4576 225.441445)scale(0.1 -0.1)">
       <use xlink:href="#DejaVuSans-2212"/>
       <use x="83.789062" xlink:href="#DejaVuSans-37"/>
       <use x="147.412109" xlink:href="#DejaVuSans-2e"/>
       <use x="179.199219" xlink:href="#DejaVuSans-35"/>
      </g>
     </g>
    </g>
    <g id="ytick_4">
     <g id="line2d_4">
      <g>
       <use style="stroke:#000000;stroke-width:0.8;" x="374.4576" xlink:href="#m89f045af7c" y="185.050208"/>
      </g>
     </g>
     <g id="text_5">
      <!-- −7.0 -->
      <g transform="translate(381.4576 188.849427)scale(0.1 -0.1)">
       <use xlink:href="#DejaVuSans-2212"/>
       <use x="83.789062" xlink:href="#DejaVuSans-37"/>
       <use x="147.412109" xlink:href="#DejaVuSans-2e"/>
       <use x="179.199219" xlink:href="#DejaVuSans-30"/>
      </g>
     </g>
    </g>
    <g id="ytick_5">
     <g id="line2d_5">
      <g>
       <use style="stroke:#000000;stroke-width:0.8;" x="374.4576" xlink:href="#m89f045af7c" y="148.45819"/>
      </g>
     </g>
     <g id="text_6">
      <!-- −6.5 -->
      <g transform="translate(381.4576 152.257409)scale(0.1 -0.1)">
       <use xlink:href="#DejaVuSans-2212"/>
       <use x="83.789062" xlink:href="#DejaVuSans-36"/>
       <use x="147.412109" xlink:href="#DejaVuSans-2e"/>
       <use x="179.199219" xlink:href="#DejaVuSans-35"/>
      </g>
     </g>
    </g>
    <g id="ytick_6">
     <g id="line2d_6">
      <g>
       <use style="stroke:#000000;stroke-width:0.8;" x="374.4576" xlink:href="#m89f045af7c" y="111.866172"/>
      </g>
     </g>
     <g id="text_7">
      <!-- −6.0 -->
      <g transform="translate(381.4576 115.66539)scale(0.1 -0.1)">
       <use xlink:href="#DejaVuSans-2212"/>
       <use x="83.789062" xlink:href="#DejaVuSans-36"/>
       <use x="147.412109" xlink:href="#DejaVuSans-2e"/>
       <use x="179.199219" xlink:href="#DejaVuSans-30"/>
      </g>
     </g>
    </g>
    <g id="ytick_7">
     <g id="line2d_7">
      <g>
       <use style="stroke:#000000;stroke-width:0.8;" x="374.4576" xlink:href="#m89f045af7c" y="75.274153"/>
      </g>
     </g>
     <g id="text_8">
      <!-- −5.5 -->
      <g transform="translate(381.4576 79.073372)scale(0.1 -0.1)">
       <use xlink:href="#DejaVuSans-2212"/>
       <use x="83.789062" xlink:href="#DejaVuSans-35"/>
       <use x="147.412109" xlink:href="#DejaVuSans-2e"/>
       <use x="179.199219" xlink:href="#DejaVuSans-35"/>
      </g>
     </g>
    </g>
    <g id="text_9">
     <!-- Energy [eV] -->
     <defs>
      <path d="M 54.890625 33.015625 
L 54.890625 0 
L 45.90625 0 
L 45.90625 32.71875 
Q 45.90625 40.484375 42.875 44.328125 
Q 39.84375 48.1875 33.796875 48.1875 
Q 26.515625 48.1875 22.3125 43.546875 
Q 18.109375 38.921875 18.109375 30.90625 
L 18.109375 0 
L 9.078125 0 
L 9.078125 54.6875 
L 18.109375 54.6875 
L 18.109375 46.1875 
Q 21.34375 51.125 25.703125 53.5625 
Q 30.078125 56 35.796875 56 
Q 45.21875 56 50.046875 50.171875 
Q 54.890625 44.34375 54.890625 33.015625 
z
" id="DejaVuSans-6e"/>
      <path d="M 45.40625 27.984375 
Q 45.40625 37.75 41.375 43.109375 
Q 37.359375 48.484375 30.078125 48.484375 
Q 22.859375 48.484375 18.828125 43.109375 
Q 14.796875 37.75 14.796875 27.984375 
Q 14.796875 18.265625 18.828125 12.890625 
Q 22.859375 7.515625 30.078125 7.515625 
Q 37.359375 7.515625 41.375 12.890625 
Q 45.40625 18.265625 45.40625 27.984375 
z
M 54.390625 6.78125 
Q 54.390625 -7.171875 48.1875 -13.984375 
Q 42 -20.796875 29.203125 -20.796875 
Q 24.46875 -20.796875 20.265625 -20.09375 
Q 16.0625 -19.390625 12.109375 -17.921875 
L 12.109375 -9.1875 
Q 16.0625 -11.328125 19.921875 -12.34375 
Q 23.78125 -13.375 27.78125 -13.375 
Q 36.625 -13.375 41.015625 -8.765625 
Q 45.40625 -4.15625 45.40625 5.171875 
L 45.40625 9.625 
Q 42.625 4.78125 38.28125 2.390625 
Q 33.9375 0 27.875 0 
Q 17.828125 0 11.671875 7.65625 
Q 5.515625 15.328125 5.515625 27.984375 
Q 5.515625 40.671875 11.671875 48.328125 
Q 17.828125 56 27.875 56 
Q 33.9375 56 38.28125 53.609375 
Q 42.625 51.21875 45.40625 46.390625 
L 45.40625 54.6875 
L 54.390625 54.6875 
z
" id="DejaVuSans-67"/>
      <path d="M 32.171875 -5.078125 
Q 28.375 -14.84375 24.75 -17.8125 
Q 21.140625 -20.796875 15.09375 -20.796875 
L 7.90625 -20.796875 
L 7.90625 -13.28125 
L 13.1875 -13.28125 
Q 16.890625 -13.28125 18.9375 -11.515625 
Q 21 -9.765625 23.484375 -3.21875 
L 25.09375 0.875 
L 2.984375 54.6875 
L 12.5 54.6875 
L 29.59375 11.921875 
L 46.6875 54.6875 
L 56.203125 54.6875 
z
" id="DejaVuSans-79"/>
      <path d="M 8.59375 75.984375 
L 29.296875 75.984375 
L 29.296875 69 
L 17.578125 69 
L 17.578125 -6.203125 
L 29.296875 -6.203125 
L 29.296875 -13.1875 
L 8.59375 -13.1875 
z
" id="DejaVuSans-5b"/>
      <path d="M 30.421875 75.984375 
L 30.421875 -13.1875 
L 9.71875 -13.1875 
L 9.71875 -6.203125 
L 21.390625 -6.203125 
L 21.390625 69 
L 9.71875 69 
L 9.71875 75.984375 
z
" id="DejaVuSans-5d"/>
     </defs>
     <g transform="translate(417.33885 204.108469)rotate(-90)scale(0.1 -0.1)">
      <use xlink:href="#DejaVuSans-45"/>
      <use x="63.183594" xlink:href="#DejaVuSans-6e"/>
      <use x="126.5625" xlink:href="#DejaVuSans-65"/>
      <use x="188.085938" xlink:href="#DejaVuSans-72"/>
      <use x="229.183594" xlink:href="#DejaVuSans-67"/>
      <use x="292.660156" xlink:href="#DejaVuSans-79"/>
      <use x="351.839844" xlink:href="#DejaVuSans-20"/>
      <use x="383.626953" xlink:href="#DejaVuSans-5b"/>
      <use x="422.640625" xlink:href="#DejaVuSans-65"/>
      <use x="484.164062" xlink:href="#DejaVuSans-56"/>
      <use x="552.572266" xlink:href="#DejaVuSans-5d"/>
     </g>
    </g>
   </g>
   <g id="patch_3">
    <path d="M 361.152 307.584 
L 361.152 306.5445 
L 361.152 42.5115 
L 361.152 41.472 
L 374.4576 41.472 
L 374.4576 42.5115 
L 374.4576 306.5445 
L 374.4576 307.584 
z
" style="fill:none;stroke:#000000;stroke-linejoin:miter;stroke-width:0.8;"/>
   </g>
  </g>
 </g>
 <defs>
  <clipPath id="pa14ffd6c08">
   <rect height="266.112" width="285.696" x="57.6" y="41.472"/>
  </clipPath>
  <clipPath id="p1ffa99c3b1">
   <rect height="266.112" width="13.3056" x="361.152" y="41.472"/>
  </clipPath>
 </defs>
</svg>
