<?xml version="1.0" encoding="utf-8" standalone="no"?>
<!DOCTYPE svg PUBLIC "-//W3C//DTD SVG 1.1//EN"
  "http://www.w3.org/Graphics/SVG/1.1/DTD/svg11.dtd">
<!-- Created with matplotlib (http://matplotlib.org/) -->
<svg height="345.6pt" version="1.1" viewBox="0 0 460.8 345.6" width="460.8pt" xmlns="http://www.w3.org/2000/svg" xmlns:xlink="http://www.w3.org/1999/xlink">
 <defs>
  <style type="text/css">
*{stroke-linecap:butt;stroke-linejoin:round;}
  </style>
 </defs>
 <g id="figure_1">
  <g id="patch_1">
   <path d="M 0 345.6 
L 460.8 345.6 
L 460.8 0 
L 0 0 
z
" style="fill:#ffffff;"/>
  </g>
  <g id="axes_1">
   <g id="CircleCollection_1">
    <path clip-path="url(#pd96d27e4d6)" d="M 144.06028 72.078358 
C 145.893832 72.078358 147.652533 71.34988 148.94905 70.053363 
C 150.245566 68.756846 150.974044 66.998145 150.974044 65.164594 
C 150.974044 63.331042 150.245566 61.572341 148.94905 60.275825 
C 147.652533 58.979308 145.893832 58.25083 144.06028 58.25083 
C 142.226729 58.25083 140.468028 58.979308 139.171511 60.275825 
C 137.874994 61.572341 137.146516 63.331042 137.146516 65.164594 
C 137.146516 66.998145 137.874994 68.756846 139.171511 70.053363 
C 140.468028 71.34988 142.226729 72.078358 144.06028 72.078358 
z
" style="fill:#3fbc73;"/>
    <path clip-path="url(#pd96d27e4d6)" d="M 129.097517 155.060475 
C 130.827998 155.060475 132.487836 154.372948 133.711472 153.149312 
C 134.935107 151.925677 135.622634 150.265839 135.622634 148.535358 
C 135.622634 146.804876 134.935107 145.145038 133.711472 143.921403 
C 132.487836 142.697768 130.827998 142.01024 129.097517 142.01024 
C 127.367035 142.01024 125.707197 142.697768 124.483562 143.921403 
C 123.259927 145.145038 122.572399 146.804876 122.572399 148.535358 
C 122.572399 150.265839 123.259927 151.925677 124.483562 153.149312 
C 125.707197 154.372948 127.367035 155.060475 129.097517 155.060475 
z
" style="fill:#32648e;"/>
    <path clip-path="url(#pd96d27e4d6)" d="M 212.909045 90.181313 
C 214.675451 90.181313 216.369748 89.479512 217.618785 88.230475 
C 218.867823 86.981437 219.569624 85.28714 219.569624 83.520734 
C 219.569624 81.754328 218.867823 80.060032 217.618785 78.810994 
C 216.369748 77.561956 214.675451 76.860155 212.909045 76.860155 
C 211.142639 76.860155 209.448342 77.561956 208.199305 78.810994 
C 206.950267 80.060032 206.248466 81.754328 206.248466 83.520734 
C 206.248466 85.28714 206.950267 86.981437 208.199305 88.230475 
C 209.448342 89.479512 211.142639 90.181313 212.909045 90.181313 
z
" style="fill:#2a778e;"/>
    <path clip-path="url(#pd96d27e4d6)" d="M 270.051068 134.977617 
C 271.819977 134.977617 273.516673 134.274822 274.76748 133.024015 
C 276.018287 131.773208 276.721082 130.076512 276.721082 128.307604 
C 276.721082 126.538695 276.018287 124.841999 274.76748 123.591192 
C 273.516673 122.340385 271.819977 121.63759 270.051068 121.63759 
C 268.28216 121.63759 266.585464 122.340385 265.334657 123.591192 
C 264.08385 124.841999 263.381055 126.538695 263.381055 128.307604 
C 263.381055 130.076512 264.08385 131.773208 265.334657 133.024015 
C 266.585464 134.274822 268.28216 134.977617 270.051068 134.977617 
z
" style="fill:#31678e;"/>
    <path clip-path="url(#pd96d27e4d6)" d="M 298.263336 220.519996 
C 300.040278 220.519996 301.74468 219.81401 303.001168 218.557522 
C 304.257656 217.301034 304.963643 215.596632 304.963643 213.81969 
C 304.963643 212.042747 304.257656 210.338345 303.001168 209.081857 
C 301.74468 207.82537 300.040278 207.119383 298.263336 207.119383 
C 296.486394 207.119383 294.781991 207.82537 293.525504 209.081857 
C 292.269016 210.338345 291.563029 212.042747 291.563029 213.81969 
C 291.563029 215.596632 292.269016 217.301034 293.525504 218.557522 
C 294.781991 219.81401 296.486394 220.519996 298.263336 220.519996 
z
" style="fill:#26828e;"/>
    <path clip-path="url(#pd96d27e4d6)" d="M 162.765766 169.558654 
C 164.496861 169.558654 166.157288 168.870883 167.381357 167.646814 
C 168.605426 166.422745 169.293197 164.762318 169.293197 163.031223 
C 169.293197 161.300128 168.605426 159.639701 167.381357 158.415632 
C 166.157288 157.191563 164.496861 156.503792 162.765766 156.503792 
C 161.034671 156.503792 159.374244 157.191563 158.150176 158.415632 
C 156.926107 159.639701 156.238335 161.300128 156.238335 163.031223 
C 156.238335 164.762318 156.926107 166.422745 158.150176 167.646814 
C 159.374244 168.870883 161.034671 169.558654 162.765766 169.558654 
z
" style="fill:#218f8d;"/>
    <path clip-path="url(#pd96d27e4d6)" d="M 205.457798 173.788398 
C 207.197635 173.788398 208.866448 173.097153 210.096699 171.866902 
C 211.326949 170.636651 212.018194 168.967839 212.018194 167.228001 
C 212.018194 165.488164 211.326949 163.819351 210.096699 162.5891 
C 208.866448 161.35885 207.197635 160.667605 205.457798 160.667605 
C 203.71796 160.667605 202.049148 161.35885 200.818897 162.5891 
C 199.588646 163.819351 198.897401 165.488164 198.897401 167.228001 
C 198.897401 168.967839 199.588646 170.636651 200.818897 171.866902 
C 202.049148 173.097153 203.71796 173.788398 205.457798 173.788398 
z
" style="fill:#440154;"/>
    <path clip-path="url(#pd96d27e4d6)" d="M 144.651591 60.490434 
C 146.382695 60.490434 148.043131 59.802659 149.267206 58.578583 
C 150.491282 57.354507 151.179057 55.694072 151.179057 53.962968 
C 151.179057 52.231863 150.491282 50.571428 149.267206 49.347352 
C 148.043131 48.123277 146.382695 47.435502 144.651591 47.435502 
C 142.920486 47.435502 141.260051 48.123277 140.035975 49.347352 
C 138.8119 50.571428 138.124125 52.231863 138.124125 53.962968 
C 138.124125 55.694072 138.8119 57.354507 140.035975 58.578583 
C 141.260051 59.802659 142.920486 60.490434 144.651591 60.490434 
z
" style="fill:#3aba76;"/>
    <path clip-path="url(#pd96d27e4d6)" d="M 189.072622 258.170767 
C 190.829964 258.170767 192.515566 257.472568 193.758194 256.229939 
C 195.000823 254.987311 195.699022 253.301709 195.699022 251.544367 
C 195.699022 249.787026 195.000823 248.101423 193.758194 246.858795 
C 192.515566 245.616167 190.829964 244.917968 189.072622 244.917968 
C 187.31528 244.917968 185.629678 245.616167 184.38705 246.858795 
C 183.144422 248.101423 182.446222 249.787026 182.446222 251.544367 
C 182.446222 253.301709 183.144422 254.987311 184.38705 256.229939 
C 185.629678 257.472568 187.31528 258.170767 189.072622 258.170767 
z
" style="fill:#2e6f8e;"/>
    <path clip-path="url(#pd96d27e4d6)" d="M 79.802914 113.008579 
C 81.55178 113.008579 83.229253 112.313747 84.465888 111.077112 
C 85.702524 109.840477 86.397356 108.163004 86.397356 106.414137 
C 86.397356 104.665271 85.702524 102.987798 84.465888 101.751163 
C 83.229253 100.514527 81.55178 99.819695 79.802914 99.819695 
C 78.054047 99.819695 76.376575 100.514527 75.139939 101.751163 
C 73.903304 102.987798 73.208472 104.665271 73.208472 106.414137 
C 73.208472 108.163004 73.903304 109.840477 75.139939 111.077112 
C 76.376575 112.313747 78.054047 113.008579 79.802914 113.008579 
z
" style="fill:#2a768e;"/>
    <path clip-path="url(#pd96d27e4d6)" d="M 215.053969 235.342246 
C 216.805965 235.342246 218.486441 234.64617 219.72529 233.407321 
C 220.964139 232.168473 221.660214 230.487997 221.660214 228.736 
C 221.660214 226.984003 220.964139 225.303528 219.72529 224.064679 
C 218.486441 222.82583 216.805965 222.129755 215.053969 222.129755 
C 213.301972 222.129755 211.621496 222.82583 210.382647 224.064679 
C 209.143799 225.303528 208.447723 226.984003 208.447723 228.736 
C 208.447723 230.487997 209.143799 232.168473 210.382647 233.407321 
C 211.621496 234.64617 213.301972 235.342246 215.053969 235.342246 
z
" style="fill:#2f6c8e;"/>
    <path clip-path="url(#pd96d27e4d6)" d="M 70.999939 84.701425 
C 72.767369 84.701425 74.462648 83.999217 75.71241 82.749455 
C 76.962172 81.499694 77.66438 79.804415 77.66438 78.036984 
C 77.66438 76.269554 76.962172 74.574275 75.71241 73.324513 
C 74.462648 72.074751 72.767369 71.372544 70.999939 71.372544 
C 69.232509 71.372544 67.53723 72.074751 66.287468 73.324513 
C 65.037706 74.574275 64.335499 76.269554 64.335499 78.036984 
C 64.335499 79.804415 65.037706 81.499694 66.287468 82.749455 
C 67.53723 83.999217 69.232509 84.701425 70.999939 84.701425 
z
" style="fill:#20938c;"/>
    <path clip-path="url(#pd96d27e4d6)" d="M 231.029167 147.985676 
C 232.779923 147.985676 234.459209 147.290093 235.69718 146.052121 
C 236.935152 144.81415 237.630735 143.134864 237.630735 141.384108 
C 237.630735 139.633352 236.935152 137.954066 235.69718 136.716095 
C 234.459209 135.478123 232.779923 134.782541 231.029167 134.782541 
C 229.278411 134.782541 227.599125 135.478123 226.361154 136.716095 
C 225.123182 137.954066 224.427599 139.633352 224.427599 141.384108 
C 224.427599 143.134864 225.123182 144.81415 226.361154 146.052121 
C 227.599125 147.290093 229.278411 147.985676 231.029167 147.985676 
z
" style="fill:#297a8e;"/>
    <path clip-path="url(#pd96d27e4d6)" d="M 323.337546 198.962647 
C 325.124469 198.962647 326.838445 198.252695 328.10199 196.98915 
C 329.365536 195.725605 330.075488 194.011629 330.075488 192.224706 
C 330.075488 190.437783 329.365536 188.723807 328.10199 187.460261 
C 326.838445 186.196716 325.124469 185.486764 323.337546 185.486764 
C 321.550623 185.486764 319.836647 186.196716 318.573102 187.460261 
C 317.309556 188.723807 316.599604 190.437783 316.599604 192.224706 
C 316.599604 194.011629 317.309556 195.725605 318.573102 196.98915 
C 319.836647 198.252695 321.550623 198.962647 323.337546 198.962647 
z
" style="fill:#29798e;"/>
    <path clip-path="url(#pd96d27e4d6)" d="M 234.364441 116.0704 
C 236.127223 116.0704 237.818043 115.370039 239.064519 114.123564 
C 240.310994 112.877089 241.011354 111.186268 241.011354 109.423486 
C 241.011354 107.660704 240.310994 105.969884 239.064519 104.723409 
C 237.818043 103.476933 236.127223 102.776573 234.364441 102.776573 
C 232.601659 102.776573 230.910838 103.476933 229.664363 104.723409 
C 228.417888 105.969884 227.717527 107.660704 227.717527 109.423486 
C 227.717527 111.186268 228.417888 112.877089 229.664363 114.123564 
C 230.910838 115.370039 232.601659 116.0704 234.364441 116.0704 
z
" style="fill:#33638d;"/>
    <path clip-path="url(#pd96d27e4d6)" d="M 329.890335 169.359179 
C 331.682223 169.359179 333.400962 168.647254 334.668018 167.380198 
C 335.935074 166.113142 336.646999 164.394403 336.646999 162.602515 
C 336.646999 160.810627 335.935074 159.091889 334.668018 157.824833 
C 333.400962 156.557776 331.682223 155.845852 329.890335 155.845852 
C 328.098447 155.845852 326.379709 156.557776 325.112653 157.824833 
C 323.845596 159.091889 323.133672 160.810627 323.133672 162.602515 
C 323.133672 164.394403 323.845596 166.113142 325.112653 167.380198 
C 326.379709 168.647254 328.098447 169.359179 329.890335 169.359179 
z
" style="fill:#2b758e;"/>
    <path clip-path="url(#pd96d27e4d6)" d="M 180.664629 73.560687 
C 182.441711 73.560687 184.146248 72.854645 185.402835 71.598058 
C 186.659422 70.341471 187.365464 68.636935 187.365464 66.859852 
C 187.365464 65.08277 186.659422 63.378234 185.402835 62.121647 
C 184.146248 60.86506 182.441711 60.159018 180.664629 60.159018 
C 178.887547 60.159018 177.18301 60.86506 175.926423 62.121647 
C 174.669837 63.378234 173.963794 65.08277 173.963794 66.859852 
C 173.963794 68.636935 174.669837 70.341471 175.926423 71.598058 
C 177.18301 72.854645 178.887547 73.560687 180.664629 73.560687 
z
" style="fill:#33638d;"/>
    <path clip-path="url(#pd96d27e4d6)" d="M 309.335916 145.284476 
C 311.120604 145.284476 312.832435 144.575412 314.0944 143.313447 
C 315.356364 142.051483 316.065428 140.339651 316.065428 138.554964 
C 316.065428 136.770277 315.356364 135.058445 314.0944 133.796481 
C 312.832435 132.534516 311.120604 131.825452 309.335916 131.825452 
C 307.551229 131.825452 305.839397 132.534516 304.577433 133.796481 
C 303.315468 135.058445 302.606405 136.770277 302.606405 138.554964 
C 302.606405 140.339651 303.315468 142.051483 304.577433 143.313447 
C 305.839397 144.575412 307.551229 145.284476 309.335916 145.284476 
z
" style="fill:#25838e;"/>
    <path clip-path="url(#pd96d27e4d6)" d="M 93.969281 139.715152 
C 95.704743 139.715152 97.369359 139.025646 98.596516 137.798489 
C 99.823673 136.571332 100.513179 134.906716 100.513179 133.171254 
C 100.513179 131.435791 99.823673 129.771176 98.596516 128.544019 
C 97.369359 127.316861 95.704743 126.627355 93.969281 126.627355 
C 92.233819 126.627355 90.569203 127.316861 89.342046 128.544019 
C 88.114888 129.771176 87.425382 131.435791 87.425382 133.171254 
C 87.425382 134.906716 88.114888 136.571332 89.342046 137.798489 
C 90.569203 139.025646 92.233819 139.715152 93.969281 139.715152 
z
" style="fill:#2c728e;"/>
    <path clip-path="url(#pd96d27e4d6)" d="M 256.499439 221.742038 
C 258.259156 221.742038 259.947036 221.042895 261.191343 219.798587 
C 262.435651 218.55428 263.134794 216.866399 263.134794 215.106683 
C 263.134794 213.346966 262.435651 211.659086 261.191343 210.414778 
C 259.947036 209.17047 258.259156 208.471327 256.499439 208.471327 
C 254.739722 208.471327 253.051842 209.17047 251.807534 210.414778 
C 250.563227 211.659086 249.864084 213.346966 249.864084 215.106683 
C 249.864084 216.866399 250.563227 218.55428 251.807534 219.798587 
C 253.051842 221.042895 254.739722 221.742038 256.499439 221.742038 
z
" style="fill:#2f6c8e;"/>
    <path clip-path="url(#pd96d27e4d6)" d="M 163.504223 280.550896 
C 165.270927 280.550896 166.965509 279.848977 168.214758 278.599728 
C 169.464006 277.35048 170.165925 275.655897 170.165925 273.889193 
C 170.165925 272.122489 169.464006 270.427907 168.214758 269.178658 
C 166.965509 267.92941 165.270927 267.227491 163.504223 267.227491 
C 161.737519 267.227491 160.042936 267.92941 158.793688 269.178658 
C 157.544439 270.427907 156.84252 272.122489 156.84252 273.889193 
C 156.84252 275.655897 157.544439 277.35048 158.793688 278.599728 
C 160.042936 279.848977 161.737519 280.550896 163.504223 280.550896 
z
" style="fill:#31668e;"/>
    <path clip-path="url(#pd96d27e4d6)" d="M 135.635432 301.785969 
C 137.413245 301.785969 139.118484 301.079636 140.375588 299.822532 
C 141.632692 298.565428 142.339025 296.860189 142.339025 295.082375 
C 142.339025 293.304561 141.632692 291.599323 140.375588 290.342219 
C 139.118484 289.085114 137.413245 288.378781 135.635432 288.378781 
C 133.857618 288.378781 132.152379 289.085114 130.895275 290.342219 
C 129.638171 291.599323 128.931838 293.304561 128.931838 295.082375 
C 128.931838 296.860189 129.638171 298.565428 130.895275 299.822532 
C 132.152379 301.079636 133.857618 301.785969 135.635432 301.785969 
z
" style="fill:#fde725;"/>
    <path clip-path="url(#pd96d27e4d6)" d="M 222.698808 203.43826 
C 224.443859 203.43826 226.117672 202.744943 227.351609 201.511006 
C 228.585547 200.277069 229.278863 198.603255 229.278863 196.858204 
C 229.278863 195.113153 228.585547 193.43934 227.351609 192.205403 
C 226.117672 190.971466 224.443859 190.278149 222.698808 190.278149 
C 220.953757 190.278149 219.279943 190.971466 218.046006 192.205403 
C 216.812069 193.43934 216.118753 195.113153 216.118753 196.858204 
C 216.118753 198.603255 216.812069 200.277069 218.046006 201.511006 
C 219.279943 202.744943 220.953757 203.43826 222.698808 203.43826 
z
" style="fill:#2c728e;"/>
    <path clip-path="url(#pd96d27e4d6)" d="M 110.12939 71.772512 
C 111.906672 71.772512 113.611401 71.06639 114.868129 69.809662 
C 116.124857 68.552934 116.830979 66.848205 116.830979 65.070923 
C 116.830979 63.293641 116.124857 61.588913 114.868129 60.332185 
C 113.611401 59.075456 111.906672 58.369335 110.12939 58.369335 
C 108.352108 58.369335 106.64738 59.075456 105.390652 60.332185 
C 104.133923 61.588913 103.427802 63.293641 103.427802 65.070923 
C 103.427802 66.848205 104.133923 68.552934 105.390652 69.809662 
C 106.64738 71.06639 108.352108 71.772512 110.12939 71.772512 
z
" style="fill:#375a8c;"/>
   </g>
   <g id="text_1">
    <!-- Structure #8307, $E_N$=-177.75eV, ΔE=0.23eV -->
    <defs>
     <path d="M 53.515625 70.515625 
L 53.515625 60.890625 
Q 47.90625 63.578125 42.921875 64.890625 
Q 37.9375 66.21875 33.296875 66.21875 
Q 25.25 66.21875 20.875 63.09375 
Q 16.5 59.96875 16.5 54.203125 
Q 16.5 49.359375 19.40625 46.890625 
Q 22.3125 44.4375 30.421875 42.921875 
L 36.375 41.703125 
Q 47.40625 39.59375 52.65625 34.296875 
Q 57.90625 29 57.90625 20.125 
Q 57.90625 9.515625 50.796875 4.046875 
Q 43.703125 -1.421875 29.984375 -1.421875 
Q 24.8125 -1.421875 18.96875 -0.25 
Q 13.140625 0.921875 6.890625 3.21875 
L 6.890625 13.375 
Q 12.890625 10.015625 18.65625 8.296875 
Q 24.421875 6.59375 29.984375 6.59375 
Q 38.421875 6.59375 43.015625 9.90625 
Q 47.609375 13.234375 47.609375 19.390625 
Q 47.609375 24.75 44.3125 27.78125 
Q 41.015625 30.8125 33.5 32.328125 
L 27.484375 33.5 
Q 16.453125 35.6875 11.515625 40.375 
Q 6.59375 45.0625 6.59375 53.421875 
Q 6.59375 63.09375 13.40625 68.65625 
Q 20.21875 74.21875 32.171875 74.21875 
Q 37.3125 74.21875 42.625 73.28125 
Q 47.953125 72.359375 53.515625 70.515625 
z
" id="DejaVuSans-53"/>
     <path d="M 18.3125 70.21875 
L 18.3125 54.6875 
L 36.8125 54.6875 
L 36.8125 47.703125 
L 18.3125 47.703125 
L 18.3125 18.015625 
Q 18.3125 11.328125 20.140625 9.421875 
Q 21.96875 7.515625 27.59375 7.515625 
L 36.8125 7.515625 
L 36.8125 0 
L 27.59375 0 
Q 17.1875 0 13.234375 3.875 
Q 9.28125 7.765625 9.28125 18.015625 
L 9.28125 47.703125 
L 2.6875 47.703125 
L 2.6875 54.6875 
L 9.28125 54.6875 
L 9.28125 70.21875 
z
" id="DejaVuSans-74"/>
     <path d="M 41.109375 46.296875 
Q 39.59375 47.171875 37.8125 47.578125 
Q 36.03125 48 33.890625 48 
Q 26.265625 48 22.1875 43.046875 
Q 18.109375 38.09375 18.109375 28.8125 
L 18.109375 0 
L 9.078125 0 
L 9.078125 54.6875 
L 18.109375 54.6875 
L 18.109375 46.1875 
Q 20.953125 51.171875 25.484375 53.578125 
Q 30.03125 56 36.53125 56 
Q 37.453125 56 38.578125 55.875 
Q 39.703125 55.765625 41.0625 55.515625 
z
" id="DejaVuSans-72"/>
     <path d="M 8.5 21.578125 
L 8.5 54.6875 
L 17.484375 54.6875 
L 17.484375 21.921875 
Q 17.484375 14.15625 20.5 10.265625 
Q 23.53125 6.390625 29.59375 6.390625 
Q 36.859375 6.390625 41.078125 11.03125 
Q 45.3125 15.671875 45.3125 23.6875 
L 45.3125 54.6875 
L 54.296875 54.6875 
L 54.296875 0 
L 45.3125 0 
L 45.3125 8.40625 
Q 42.046875 3.421875 37.71875 1 
Q 33.40625 -1.421875 27.6875 -1.421875 
Q 18.265625 -1.421875 13.375 4.4375 
Q 8.5 10.296875 8.5 21.578125 
z
M 31.109375 56 
z
" id="DejaVuSans-75"/>
     <path d="M 48.78125 52.59375 
L 48.78125 44.1875 
Q 44.96875 46.296875 41.140625 47.34375 
Q 37.3125 48.390625 33.40625 48.390625 
Q 24.65625 48.390625 19.8125 42.84375 
Q 14.984375 37.3125 14.984375 27.296875 
Q 14.984375 17.28125 19.8125 11.734375 
Q 24.65625 6.203125 33.40625 6.203125 
Q 37.3125 6.203125 41.140625 7.25 
Q 44.96875 8.296875 48.78125 10.40625 
L 48.78125 2.09375 
Q 45.015625 0.34375 40.984375 -0.53125 
Q 36.96875 -1.421875 32.421875 -1.421875 
Q 20.0625 -1.421875 12.78125 6.34375 
Q 5.515625 14.109375 5.515625 27.296875 
Q 5.515625 40.671875 12.859375 48.328125 
Q 20.21875 56 33.015625 56 
Q 37.15625 56 41.109375 55.140625 
Q 45.0625 54.296875 48.78125 52.59375 
z
" id="DejaVuSans-63"/>
     <path d="M 56.203125 29.59375 
L 56.203125 25.203125 
L 14.890625 25.203125 
Q 15.484375 15.921875 20.484375 11.0625 
Q 25.484375 6.203125 34.421875 6.203125 
Q 39.59375 6.203125 44.453125 7.46875 
Q 49.3125 8.734375 54.109375 11.28125 
L 54.109375 2.78125 
Q 49.265625 0.734375 44.1875 -0.34375 
Q 39.109375 -1.421875 33.890625 -1.421875 
Q 20.796875 -1.421875 13.15625 6.1875 
Q 5.515625 13.8125 5.515625 26.8125 
Q 5.515625 40.234375 12.765625 48.109375 
Q 20.015625 56 32.328125 56 
Q 43.359375 56 49.78125 48.890625 
Q 56.203125 41.796875 56.203125 29.59375 
z
M 47.21875 32.234375 
Q 47.125 39.59375 43.09375 43.984375 
Q 39.0625 48.390625 32.421875 48.390625 
Q 24.90625 48.390625 20.390625 44.140625 
Q 15.875 39.890625 15.1875 32.171875 
z
" id="DejaVuSans-65"/>
     <path id="DejaVuSans-20"/>
     <path d="M 51.125 44 
L 36.921875 44 
L 32.8125 27.6875 
L 47.125 27.6875 
z
M 43.796875 71.78125 
L 38.71875 51.515625 
L 52.984375 51.515625 
L 58.109375 71.78125 
L 65.921875 71.78125 
L 60.890625 51.515625 
L 76.125 51.515625 
L 76.125 44 
L 58.984375 44 
L 54.984375 27.6875 
L 70.515625 27.6875 
L 70.515625 20.21875 
L 53.078125 20.21875 
L 48 0 
L 40.1875 0 
L 45.21875 20.21875 
L 30.90625 20.21875 
L 25.875 0 
L 18.015625 0 
L 23.09375 20.21875 
L 7.71875 20.21875 
L 7.71875 27.6875 
L 24.90625 27.6875 
L 29 44 
L 13.28125 44 
L 13.28125 51.515625 
L 30.90625 51.515625 
L 35.890625 71.78125 
z
" id="DejaVuSans-23"/>
     <path d="M 31.78125 34.625 
Q 24.75 34.625 20.71875 30.859375 
Q 16.703125 27.09375 16.703125 20.515625 
Q 16.703125 13.921875 20.71875 10.15625 
Q 24.75 6.390625 31.78125 6.390625 
Q 38.8125 6.390625 42.859375 10.171875 
Q 46.921875 13.96875 46.921875 20.515625 
Q 46.921875 27.09375 42.890625 30.859375 
Q 38.875 34.625 31.78125 34.625 
z
M 21.921875 38.8125 
Q 15.578125 40.375 12.03125 44.71875 
Q 8.5 49.078125 8.5 55.328125 
Q 8.5 64.0625 14.71875 69.140625 
Q 20.953125 74.21875 31.78125 74.21875 
Q 42.671875 74.21875 48.875 69.140625 
Q 55.078125 64.0625 55.078125 55.328125 
Q 55.078125 49.078125 51.53125 44.71875 
Q 48 40.375 41.703125 38.8125 
Q 48.828125 37.15625 52.796875 32.3125 
Q 56.78125 27.484375 56.78125 20.515625 
Q 56.78125 9.90625 50.3125 4.234375 
Q 43.84375 -1.421875 31.78125 -1.421875 
Q 19.734375 -1.421875 13.25 4.234375 
Q 6.78125 9.90625 6.78125 20.515625 
Q 6.78125 27.484375 10.78125 32.3125 
Q 14.796875 37.15625 21.921875 38.8125 
z
M 18.3125 54.390625 
Q 18.3125 48.734375 21.84375 45.5625 
Q 25.390625 42.390625 31.78125 42.390625 
Q 38.140625 42.390625 41.71875 45.5625 
Q 45.3125 48.734375 45.3125 54.390625 
Q 45.3125 60.0625 41.71875 63.234375 
Q 38.140625 66.40625 31.78125 66.40625 
Q 25.390625 66.40625 21.84375 63.234375 
Q 18.3125 60.0625 18.3125 54.390625 
z
" id="DejaVuSans-38"/>
     <path d="M 40.578125 39.3125 
Q 47.65625 37.796875 51.625 33 
Q 55.609375 28.21875 55.609375 21.1875 
Q 55.609375 10.40625 48.1875 4.484375 
Q 40.765625 -1.421875 27.09375 -1.421875 
Q 22.515625 -1.421875 17.65625 -0.515625 
Q 12.796875 0.390625 7.625 2.203125 
L 7.625 11.71875 
Q 11.71875 9.328125 16.59375 8.109375 
Q 21.484375 6.890625 26.8125 6.890625 
Q 36.078125 6.890625 40.9375 10.546875 
Q 45.796875 14.203125 45.796875 21.1875 
Q 45.796875 27.640625 41.28125 31.265625 
Q 36.765625 34.90625 28.71875 34.90625 
L 20.21875 34.90625 
L 20.21875 43.015625 
L 29.109375 43.015625 
Q 36.375 43.015625 40.234375 45.921875 
Q 44.09375 48.828125 44.09375 54.296875 
Q 44.09375 59.90625 40.109375 62.90625 
Q 36.140625 65.921875 28.71875 65.921875 
Q 24.65625 65.921875 20.015625 65.03125 
Q 15.375 64.15625 9.8125 62.3125 
L 9.8125 71.09375 
Q 15.4375 72.65625 20.34375 73.4375 
Q 25.25 74.21875 29.59375 74.21875 
Q 40.828125 74.21875 47.359375 69.109375 
Q 53.90625 64.015625 53.90625 55.328125 
Q 53.90625 49.265625 50.4375 45.09375 
Q 46.96875 40.921875 40.578125 39.3125 
z
" id="DejaVuSans-33"/>
     <path d="M 31.78125 66.40625 
Q 24.171875 66.40625 20.328125 58.90625 
Q 16.5 51.421875 16.5 36.375 
Q 16.5 21.390625 20.328125 13.890625 
Q 24.171875 6.390625 31.78125 6.390625 
Q 39.453125 6.390625 43.28125 13.890625 
Q 47.125 21.390625 47.125 36.375 
Q 47.125 51.421875 43.28125 58.90625 
Q 39.453125 66.40625 31.78125 66.40625 
z
M 31.78125 74.21875 
Q 44.046875 74.21875 50.515625 64.515625 
Q 56.984375 54.828125 56.984375 36.375 
Q 56.984375 17.96875 50.515625 8.265625 
Q 44.046875 -1.421875 31.78125 -1.421875 
Q 19.53125 -1.421875 13.0625 8.265625 
Q 6.59375 17.96875 6.59375 36.375 
Q 6.59375 54.828125 13.0625 64.515625 
Q 19.53125 74.21875 31.78125 74.21875 
z
" id="DejaVuSans-30"/>
     <path d="M 8.203125 72.90625 
L 55.078125 72.90625 
L 55.078125 68.703125 
L 28.609375 0 
L 18.3125 0 
L 43.21875 64.59375 
L 8.203125 64.59375 
z
" id="DejaVuSans-37"/>
     <path d="M 11.71875 12.40625 
L 22.015625 12.40625 
L 22.015625 4 
L 14.015625 -11.625 
L 7.71875 -11.625 
L 11.71875 4 
z
" id="DejaVuSans-2c"/>
     <path d="M 16.890625 72.90625 
L 62.984375 72.90625 
L 61.375 64.59375 
L 25.09375 64.59375 
L 20.90625 43.015625 
L 55.71875 43.015625 
L 54.109375 34.71875 
L 19.28125 34.71875 
L 14.203125 8.296875 
L 51.3125 8.296875 
L 49.703125 0 
L 2.6875 0 
z
" id="DejaVuSans-Oblique-45"/>
     <path d="M 16.890625 72.90625 
L 30.171875 72.90625 
L 50.296875 10.40625 
L 62.5 72.90625 
L 72.125 72.90625 
L 57.90625 0 
L 44.578125 0 
L 24.515625 62.890625 
L 12.3125 0 
L 2.6875 0 
z
" id="DejaVuSans-Oblique-4e"/>
     <path d="M 10.59375 45.40625 
L 73.1875 45.40625 
L 73.1875 37.203125 
L 10.59375 37.203125 
z
M 10.59375 25.484375 
L 73.1875 25.484375 
L 73.1875 17.1875 
L 10.59375 17.1875 
z
" id="DejaVuSans-3d"/>
     <path d="M 4.890625 31.390625 
L 31.203125 31.390625 
L 31.203125 23.390625 
L 4.890625 23.390625 
z
" id="DejaVuSans-2d"/>
     <path d="M 12.40625 8.296875 
L 28.515625 8.296875 
L 28.515625 63.921875 
L 10.984375 60.40625 
L 10.984375 69.390625 
L 28.421875 72.90625 
L 38.28125 72.90625 
L 38.28125 8.296875 
L 54.390625 8.296875 
L 54.390625 0 
L 12.40625 0 
z
" id="DejaVuSans-31"/>
     <path d="M 10.6875 12.40625 
L 21 12.40625 
L 21 0 
L 10.6875 0 
z
" id="DejaVuSans-2e"/>
     <path d="M 10.796875 72.90625 
L 49.515625 72.90625 
L 49.515625 64.59375 
L 19.828125 64.59375 
L 19.828125 46.734375 
Q 21.96875 47.46875 24.109375 47.828125 
Q 26.265625 48.1875 28.421875 48.1875 
Q 40.625 48.1875 47.75 41.5 
Q 54.890625 34.8125 54.890625 23.390625 
Q 54.890625 11.625 47.5625 5.09375 
Q 40.234375 -1.421875 26.90625 -1.421875 
Q 22.3125 -1.421875 17.546875 -0.640625 
Q 12.796875 0.140625 7.71875 1.703125 
L 7.71875 11.625 
Q 12.109375 9.234375 16.796875 8.0625 
Q 21.484375 6.890625 26.703125 6.890625 
Q 35.15625 6.890625 40.078125 11.328125 
Q 45.015625 15.765625 45.015625 23.390625 
Q 45.015625 31 40.078125 35.4375 
Q 35.15625 39.890625 26.703125 39.890625 
Q 22.75 39.890625 18.8125 39.015625 
Q 14.890625 38.140625 10.796875 36.28125 
z
" id="DejaVuSans-35"/>
     <path d="M 28.609375 0 
L 0.78125 72.90625 
L 11.078125 72.90625 
L 34.1875 11.53125 
L 57.328125 72.90625 
L 67.578125 72.90625 
L 39.796875 0 
z
" id="DejaVuSans-56"/>
     <path d="M 34.1875 63.1875 
L 14.15625 8.203125 
L 54.25 8.203125 
z
M 0.78125 0 
L 28.609375 72.90625 
L 39.796875 72.90625 
L 67.578125 0 
z
" id="DejaVuSans-394"/>
     <path d="M 9.8125 72.90625 
L 55.90625 72.90625 
L 55.90625 64.59375 
L 19.671875 64.59375 
L 19.671875 43.015625 
L 54.390625 43.015625 
L 54.390625 34.71875 
L 19.671875 34.71875 
L 19.671875 8.296875 
L 56.78125 8.296875 
L 56.78125 0 
L 9.8125 0 
z
" id="DejaVuSans-45"/>
     <path d="M 19.1875 8.296875 
L 53.609375 8.296875 
L 53.609375 0 
L 7.328125 0 
L 7.328125 8.296875 
Q 12.9375 14.109375 22.625 23.890625 
Q 32.328125 33.6875 34.8125 36.53125 
Q 39.546875 41.84375 41.421875 45.53125 
Q 43.3125 49.21875 43.3125 52.78125 
Q 43.3125 58.59375 39.234375 62.25 
Q 35.15625 65.921875 28.609375 65.921875 
Q 23.96875 65.921875 18.8125 64.3125 
Q 13.671875 62.703125 7.8125 59.421875 
L 7.8125 69.390625 
Q 13.765625 71.78125 18.9375 73 
Q 24.125 74.21875 28.421875 74.21875 
Q 39.75 74.21875 46.484375 68.546875 
Q 53.21875 62.890625 53.21875 53.421875 
Q 53.21875 48.921875 51.53125 44.890625 
Q 49.859375 40.875 45.40625 35.40625 
Q 44.1875 33.984375 37.640625 27.21875 
Q 31.109375 20.453125 19.1875 8.296875 
z
" id="DejaVuSans-32"/>
    </defs>
    <g transform="translate(65.388 35.472)scale(0.12 -0.12)">
     <use transform="translate(0 0.78125)" xlink:href="#DejaVuSans-53"/>
     <use transform="translate(63.476562 0.78125)" xlink:href="#DejaVuSans-74"/>
     <use transform="translate(102.685547 0.78125)" xlink:href="#DejaVuSans-72"/>
     <use transform="translate(143.798828 0.78125)" xlink:href="#DejaVuSans-75"/>
     <use transform="translate(207.177734 0.78125)" xlink:href="#DejaVuSans-63"/>
     <use transform="translate(262.158203 0.78125)" xlink:href="#DejaVuSans-74"/>
     <use transform="translate(301.367188 0.78125)" xlink:href="#DejaVuSans-75"/>
     <use transform="translate(364.746094 0.78125)" xlink:href="#DejaVuSans-72"/>
     <use transform="translate(405.859375 0.78125)" xlink:href="#DejaVuSans-65"/>
     <use transform="translate(467.382812 0.78125)" xlink:href="#DejaVuSans-20"/>
     <use transform="translate(499.169922 0.78125)" xlink:href="#DejaVuSans-23"/>
     <use transform="translate(582.958984 0.78125)" xlink:href="#DejaVuSans-38"/>
     <use transform="translate(646.582031 0.78125)" xlink:href="#DejaVuSans-33"/>
     <use transform="translate(710.205078 0.78125)" xlink:href="#DejaVuSans-30"/>
     <use transform="translate(773.828125 0.78125)" xlink:href="#DejaVuSans-37"/>
     <use transform="translate(837.451172 0.78125)" xlink:href="#DejaVuSans-2c"/>
     <use transform="translate(869.238281 0.78125)" xlink:href="#DejaVuSans-20"/>
     <use transform="translate(901.025391 0.78125)" xlink:href="#DejaVuSans-Oblique-45"/>
     <use transform="translate(964.208984 -15.625)scale(0.7)" xlink:href="#DejaVuSans-Oblique-4e"/>
     <use transform="translate(1019.306641 0.78125)" xlink:href="#DejaVuSans-3d"/>
     <use transform="translate(1103.095703 0.78125)" xlink:href="#DejaVuSans-2d"/>
     <use transform="translate(1139.179688 0.78125)" xlink:href="#DejaVuSans-31"/>
     <use transform="translate(1202.802734 0.78125)" xlink:href="#DejaVuSans-37"/>
     <use transform="translate(1266.410156 0.78125)" xlink:href="#DejaVuSans-37"/>
     <use transform="translate(1330.033203 0.78125)" xlink:href="#DejaVuSans-2e"/>
     <use transform="translate(1361.710938 0.78125)" xlink:href="#DejaVuSans-37"/>
     <use transform="translate(1425.333984 0.78125)" xlink:href="#DejaVuSans-35"/>
     <use transform="translate(1488.957031 0.78125)" xlink:href="#DejaVuSans-65"/>
     <use transform="translate(1550.480469 0.78125)" xlink:href="#DejaVuSans-56"/>
     <use transform="translate(1618.888672 0.78125)" xlink:href="#DejaVuSans-2c"/>
     <use transform="translate(1650.675781 0.78125)" xlink:href="#DejaVuSans-20"/>
     <use transform="translate(1682.462891 0.78125)" xlink:href="#DejaVuSans-394"/>
     <use transform="translate(1750.871094 0.78125)" xlink:href="#DejaVuSans-45"/>
     <use transform="translate(1814.054688 0.78125)" xlink:href="#DejaVuSans-3d"/>
     <use transform="translate(1897.84375 0.78125)" xlink:href="#DejaVuSans-30"/>
     <use transform="translate(1961.466797 0.78125)" xlink:href="#DejaVuSans-2e"/>
     <use transform="translate(1993.175781 0.78125)" xlink:href="#DejaVuSans-32"/>
     <use transform="translate(2056.798828 0.78125)" xlink:href="#DejaVuSans-33"/>
     <use transform="translate(2120.421875 0.78125)" xlink:href="#DejaVuSans-65"/>
     <use transform="translate(2181.945312 0.78125)" xlink:href="#DejaVuSans-56"/>
    </g>
   </g>
  </g>
  <g id="axes_2">
   <g id="patch_2">
    <path clip-path="url(#p29911661ce)" d="M 361.152 307.584 
L 361.152 306.5445 
L 361.152 42.5115 
L 361.152 41.472 
L 374.4576 41.472 
L 374.4576 42.5115 
L 374.4576 306.5445 
L 374.4576 307.584 
z
" style="fill:#ffffff;stroke:#ffffff;stroke-linejoin:miter;stroke-width:0.01;"/>
   </g>
   <image height="265.68" id="image79b303681f" transform="scale(1 -1)translate(0 -265.68)" width="12.96" x="361.44" xlink:href="data:image/png;base64,
iVBORw0KGgoAAAANSUhEUgAAABIAAAFxCAYAAAB+2fgXAAAABHNCSVQICAgIfAhkiAAAAeVJREFUeJztncmNw0AQA2ckheYQNv9QLIfQ8ygsCgQ7AEI8+jAs2Puz/94F1LP2ReCsZ18bAWIeZ5XaGRBE7VnbptG+KI101FYyNSiQG2oRITXKNaX9uclOdi2XWjftVE32CZCO2ou5Bj1TcCBr/1zB9ge7Fq0Rg2NM9pvbtG+ua1QgsRYhDy0ISEiNc40BEibbSI0Coj5CBGtkpFbXJiAjNZlrwhuSOv2M1DjXbEdEciBt1JSDDQKKpmZr2rr2j0DBGpXaWEJq3bQzEPIS26r9J+Wzv9Tm8o3aajRXqc3VUXsApKNWjeZq0x4ABVNbm7lrszVigDqP5vIl2+eaT2yfRkL7g+dRcNPqjohkjaCvRVBq0H2U3LQrOJCx9kdTg4B8oxZzzTdqdYHEngjUCAPyUctN9sVRq2sTECW2UKNLd2jVtRmo1A6AhMmWaSRcR8nUdIHUuVb75zJS218EyEitro1At69pIdeSk30Lkw0FktNImGyZRhy1O5galmxd03LUsHWk06jUZiCq+5Wb1kZNN4+wJxJuWt8RAW5am2sYNZ9rYCBzZ3buPKJ2P5Yj4Toy3keyIyJbIxs1rml1byCA84gpch5RQNB7Q0qNMGq2Hy4BXdNR41yz/cEEJfZzUz96r9PoB0okjeQ8y9TkAAAAAElFTkSuQmCC" y="-41.76"/>
   <g id="matplotlib.axis_1"/>
   <g id="matplotlib.axis_2">
    <g id="ytick_1">
     <g id="line2d_1">
      <defs>
       <path d="M 0 0 
L 3.5 0 
" id="m0035cfbec6" style="stroke:#000000;stroke-width:0.8;"/>
      </defs>
      <g>
       <use style="stroke:#000000;stroke-width:0.8;" x="374.4576" xlink:href="#m0035cfbec6" y="297.992612"/>
      </g>
     </g>
     <g id="text_2">
      <!-- −9.0 -->
      <defs>
       <path d="M 10.59375 35.5 
L 73.1875 35.5 
L 73.1875 27.203125 
L 10.59375 27.203125 
z
" id="DejaVuSans-2212"/>
       <path d="M 10.984375 1.515625 
L 10.984375 10.5 
Q 14.703125 8.734375 18.5 7.8125 
Q 22.3125 6.890625 25.984375 6.890625 
Q 35.75 6.890625 40.890625 13.453125 
Q 46.046875 20.015625 46.78125 33.40625 
Q 43.953125 29.203125 39.59375 26.953125 
Q 35.25 24.703125 29.984375 24.703125 
Q 19.046875 24.703125 12.671875 31.3125 
Q 6.296875 37.9375 6.296875 49.421875 
Q 6.296875 60.640625 12.9375 67.421875 
Q 19.578125 74.21875 30.609375 74.21875 
Q 43.265625 74.21875 49.921875 64.515625 
Q 56.59375 54.828125 56.59375 36.375 
Q 56.59375 19.140625 48.40625 8.859375 
Q 40.234375 -1.421875 26.421875 -1.421875 
Q 22.703125 -1.421875 18.890625 -0.6875 
Q 15.09375 0.046875 10.984375 1.515625 
z
M 30.609375 32.421875 
Q 37.25 32.421875 41.125 36.953125 
Q 45.015625 41.5 45.015625 49.421875 
Q 45.015625 57.28125 41.125 61.84375 
Q 37.25 66.40625 30.609375 66.40625 
Q 23.96875 66.40625 20.09375 61.84375 
Q 16.21875 57.28125 16.21875 49.421875 
Q 16.21875 41.5 20.09375 36.953125 
Q 23.96875 32.421875 30.609375 32.421875 
z
" id="DejaVuSans-39"/>
      </defs>
      <g transform="translate(381.4576 301.791831)scale(0.1 -0.1)">
       <use xlink:href="#DejaVuSans-2212"/>
       <use x="83.789062" xlink:href="#DejaVuSans-39"/>
       <use x="147.412109" xlink:href="#DejaVuSans-2e"/>
       <use x="179.199219" xlink:href="#DejaVuSans-30"/>
      </g>
     </g>
    </g>
    <g id="ytick_2">
     <g id="line2d_2">
      <g>
       <use style="stroke:#000000;stroke-width:0.8;" x="374.4576" xlink:href="#m0035cfbec6" y="266.365488"/>
      </g>
     </g>
     <g id="text_3">
      <!-- −8.5 -->
      <g transform="translate(381.4576 270.164706)scale(0.1 -0.1)">
       <use xlink:href="#DejaVuSans-2212"/>
       <use x="83.789062" xlink:href="#DejaVuSans-38"/>
       <use x="147.412109" xlink:href="#DejaVuSans-2e"/>
       <use x="179.199219" xlink:href="#DejaVuSans-35"/>
      </g>
     </g>
    </g>
    <g id="ytick_3">
     <g id="line2d_3">
      <g>
       <use style="stroke:#000000;stroke-width:0.8;" x="374.4576" xlink:href="#m0035cfbec6" y="234.738363"/>
      </g>
     </g>
     <g id="text_4">
      <!-- −8.0 -->
      <g transform="translate(381.4576 238.537582)scale(0.1 -0.1)">
       <use xlink:href="#DejaVuSans-2212"/>
       <use x="83.789062" xlink:href="#DejaVuSans-38"/>
       <use x="147.412109" xlink:href="#DejaVuSans-2e"/>
       <use x="179.199219" xlink:href="#DejaVuSans-30"/>
      </g>
     </g>
    </g>
    <g id="ytick_4">
     <g id="line2d_4">
      <g>
       <use style="stroke:#000000;stroke-width:0.8;" x="374.4576" xlink:href="#m0035cfbec6" y="203.111238"/>
      </g>
     </g>
     <g id="text_5">
      <!-- −7.5 -->
      <g transform="translate(381.4576 206.910457)scale(0.1 -0.1)">
       <use xlink:href="#DejaVuSans-2212"/>
       <use x="83.789062" xlink:href="#DejaVuSans-37"/>
       <use x="147.412109" xlink:href="#DejaVuSans-2e"/>
       <use x="179.199219" xlink:href="#DejaVuSans-35"/>
      </g>
     </g>
    </g>
    <g id="ytick_5">
     <g id="line2d_5">
      <g>
       <use style="stroke:#000000;stroke-width:0.8;" x="374.4576" xlink:href="#m0035cfbec6" y="171.484114"/>
      </g>
     </g>
     <g id="text_6">
      <!-- −7.0 -->
      <g transform="translate(381.4576 175.283332)scale(0.1 -0.1)">
       <use xlink:href="#DejaVuSans-2212"/>
       <use x="83.789062" xlink:href="#DejaVuSans-37"/>
       <use x="147.412109" xlink:href="#DejaVuSans-2e"/>
       <use x="179.199219" xlink:href="#DejaVuSans-30"/>
      </g>
     </g>
    </g>
    <g id="ytick_6">
     <g id="line2d_6">
      <g>
       <use style="stroke:#000000;stroke-width:0.8;" x="374.4576" xlink:href="#m0035cfbec6" y="139.856989"/>
      </g>
     </g>
     <g id="text_7">
      <!-- −6.5 -->
      <defs>
       <path d="M 33.015625 40.375 
Q 26.375 40.375 22.484375 35.828125 
Q 18.609375 31.296875 18.609375 23.390625 
Q 18.609375 15.53125 22.484375 10.953125 
Q 26.375 6.390625 33.015625 6.390625 
Q 39.65625 6.390625 43.53125 10.953125 
Q 47.40625 15.53125 47.40625 23.390625 
Q 47.40625 31.296875 43.53125 35.828125 
Q 39.65625 40.375 33.015625 40.375 
z
M 52.59375 71.296875 
L 52.59375 62.3125 
Q 48.875 64.0625 45.09375 64.984375 
Q 41.3125 65.921875 37.59375 65.921875 
Q 27.828125 65.921875 22.671875 59.328125 
Q 17.53125 52.734375 16.796875 39.40625 
Q 19.671875 43.65625 24.015625 45.921875 
Q 28.375 48.1875 33.59375 48.1875 
Q 44.578125 48.1875 50.953125 41.515625 
Q 57.328125 34.859375 57.328125 23.390625 
Q 57.328125 12.15625 50.6875 5.359375 
Q 44.046875 -1.421875 33.015625 -1.421875 
Q 20.359375 -1.421875 13.671875 8.265625 
Q 6.984375 17.96875 6.984375 36.375 
Q 6.984375 53.65625 15.1875 63.9375 
Q 23.390625 74.21875 37.203125 74.21875 
Q 40.921875 74.21875 44.703125 73.484375 
Q 48.484375 72.75 52.59375 71.296875 
z
" id="DejaVuSans-36"/>
      </defs>
      <g transform="translate(381.4576 143.656208)scale(0.1 -0.1)">
       <use xlink:href="#DejaVuSans-2212"/>
       <use x="83.789062" xlink:href="#DejaVuSans-36"/>
       <use x="147.412109" xlink:href="#DejaVuSans-2e"/>
       <use x="179.199219" xlink:href="#DejaVuSans-35"/>
      </g>
     </g>
    </g>
    <g id="ytick_7">
     <g id="line2d_7">
      <g>
       <use style="stroke:#000000;stroke-width:0.8;" x="374.4576" xlink:href="#m0035cfbec6" y="108.229864"/>
      </g>
     </g>
     <g id="text_8">
      <!-- −6.0 -->
      <g transform="translate(381.4576 112.029083)scale(0.1 -0.1)">
       <use xlink:href="#DejaVuSans-2212"/>
       <use x="83.789062" xlink:href="#DejaVuSans-36"/>
       <use x="147.412109" xlink:href="#DejaVuSans-2e"/>
       <use x="179.199219" xlink:href="#DejaVuSans-30"/>
      </g>
     </g>
    </g>
    <g id="ytick_8">
     <g id="line2d_8">
      <g>
       <use style="stroke:#000000;stroke-width:0.8;" x="374.4576" xlink:href="#m0035cfbec6" y="76.60274"/>
      </g>
     </g>
     <g id="text_9">
      <!-- −5.5 -->
      <g transform="translate(381.4576 80.401959)scale(0.1 -0.1)">
       <use xlink:href="#DejaVuSans-2212"/>
       <use x="83.789062" xlink:href="#DejaVuSans-35"/>
       <use x="147.412109" xlink:href="#DejaVuSans-2e"/>
       <use x="179.199219" xlink:href="#DejaVuSans-35"/>
      </g>
     </g>
    </g>
    <g id="ytick_9">
     <g id="line2d_9">
      <g>
       <use style="stroke:#000000;stroke-width:0.8;" x="374.4576" xlink:href="#m0035cfbec6" y="44.975615"/>
      </g>
     </g>
     <g id="text_10">
      <!-- −5.0 -->
      <g transform="translate(381.4576 48.774834)scale(0.1 -0.1)">
       <use xlink:href="#DejaVuSans-2212"/>
       <use x="83.789062" xlink:href="#DejaVuSans-35"/>
       <use x="147.412109" xlink:href="#DejaVuSans-2e"/>
       <use x="179.199219" xlink:href="#DejaVuSans-30"/>
      </g>
     </g>
    </g>
    <g id="text_11">
     <!-- Energy [eV] -->
     <defs>
      <path d="M 54.890625 33.015625 
L 54.890625 0 
L 45.90625 0 
L 45.90625 32.71875 
Q 45.90625 40.484375 42.875 44.328125 
Q 39.84375 48.1875 33.796875 48.1875 
Q 26.515625 48.1875 22.3125 43.546875 
Q 18.109375 38.921875 18.109375 30.90625 
L 18.109375 0 
L 9.078125 0 
L 9.078125 54.6875 
L 18.109375 54.6875 
L 18.109375 46.1875 
Q 21.34375 51.125 25.703125 53.5625 
Q 30.078125 56 35.796875 56 
Q 45.21875 56 50.046875 50.171875 
Q 54.890625 44.34375 54.890625 33.015625 
z
" id="DejaVuSans-6e"/>
      <path d="M 45.40625 27.984375 
Q 45.40625 37.75 41.375 43.109375 
Q 37.359375 48.484375 30.078125 48.484375 
Q 22.859375 48.484375 18.828125 43.109375 
Q 14.796875 37.75 14.796875 27.984375 
Q 14.796875 18.265625 18.828125 12.890625 
Q 22.859375 7.515625 30.078125 7.515625 
Q 37.359375 7.515625 41.375 12.890625 
Q 45.40625 18.265625 45.40625 27.984375 
z
M 54.390625 6.78125 
Q 54.390625 -7.171875 48.1875 -13.984375 
Q 42 -20.796875 29.203125 -20.796875 
Q 24.46875 -20.796875 20.265625 -20.09375 
Q 16.0625 -19.390625 12.109375 -17.921875 
L 12.109375 -9.1875 
Q 16.0625 -11.328125 19.921875 -12.34375 
Q 23.78125 -13.375 27.78125 -13.375 
Q 36.625 -13.375 41.015625 -8.765625 
Q 45.40625 -4.15625 45.40625 5.171875 
L 45.40625 9.625 
Q 42.625 4.78125 38.28125 2.390625 
Q 33.9375 0 27.875 0 
Q 17.828125 0 11.671875 7.65625 
Q 5.515625 15.328125 5.515625 27.984375 
Q 5.515625 40.671875 11.671875 48.328125 
Q 17.828125 56 27.875 56 
Q 33.9375 56 38.28125 53.609375 
Q 42.625 51.21875 45.40625 46.390625 
L 45.40625 54.6875 
L 54.390625 54.6875 
z
" id="DejaVuSans-67"/>
      <path d="M 32.171875 -5.078125 
Q 28.375 -14.84375 24.75 -17.8125 
Q 21.140625 -20.796875 15.09375 -20.796875 
L 7.90625 -20.796875 
L 7.90625 -13.28125 
L 13.1875 -13.28125 
Q 16.890625 -13.28125 18.9375 -11.515625 
Q 21 -9.765625 23.484375 -3.21875 
L 25.09375 0.875 
L 2.984375 54.6875 
L 12.5 54.6875 
L 29.59375 11.921875 
L 46.6875 54.6875 
L 56.203125 54.6875 
z
" id="DejaVuSans-79"/>
      <path d="M 8.59375 75.984375 
L 29.296875 75.984375 
L 29.296875 69 
L 17.578125 69 
L 17.578125 -6.203125 
L 29.296875 -6.203125 
L 29.296875 -13.1875 
L 8.59375 -13.1875 
z
" id="DejaVuSans-5b"/>
      <path d="M 30.421875 75.984375 
L 30.421875 -13.1875 
L 9.71875 -13.1875 
L 9.71875 -6.203125 
L 21.390625 -6.203125 
L 21.390625 69 
L 9.71875 69 
L 9.71875 75.984375 
z
" id="DejaVuSans-5d"/>
     </defs>
     <g transform="translate(417.33885 204.108469)rotate(-90)scale(0.1 -0.1)">
      <use xlink:href="#DejaVuSans-45"/>
      <use x="63.183594" xlink:href="#DejaVuSans-6e"/>
      <use x="126.5625" xlink:href="#DejaVuSans-65"/>
      <use x="188.085938" xlink:href="#DejaVuSans-72"/>
      <use x="229.183594" xlink:href="#DejaVuSans-67"/>
      <use x="292.660156" xlink:href="#DejaVuSans-79"/>
      <use x="351.839844" xlink:href="#DejaVuSans-20"/>
      <use x="383.626953" xlink:href="#DejaVuSans-5b"/>
      <use x="422.640625" xlink:href="#DejaVuSans-65"/>
      <use x="484.164062" xlink:href="#DejaVuSans-56"/>
      <use x="552.572266" xlink:href="#DejaVuSans-5d"/>
     </g>
    </g>
   </g>
   <g id="patch_3">
    <path d="M 361.152 307.584 
L 361.152 306.5445 
L 361.152 42.5115 
L 361.152 41.472 
L 374.4576 41.472 
L 374.4576 42.5115 
L 374.4576 306.5445 
L 374.4576 307.584 
z
" style="fill:none;stroke:#000000;stroke-linejoin:miter;stroke-width:0.8;"/>
   </g>
  </g>
 </g>
 <defs>
  <clipPath id="pd96d27e4d6">
   <rect height="266.112" width="285.696" x="57.6" y="41.472"/>
  </clipPath>
  <clipPath id="p29911661ce">
   <rect height="266.112" width="13.3056" x="361.152" y="41.472"/>
  </clipPath>
 </defs>
</svg>
