<?xml version="1.0" encoding="utf-8" standalone="no"?>
<!DOCTYPE svg PUBLIC "-//W3C//DTD SVG 1.1//EN"
  "http://www.w3.org/Graphics/SVG/1.1/DTD/svg11.dtd">
<!-- Created with matplotlib (http://matplotlib.org/) -->
<svg height="345.6pt" version="1.1" viewBox="0 0 460.8 345.6" width="460.8pt" xmlns="http://www.w3.org/2000/svg" xmlns:xlink="http://www.w3.org/1999/xlink">
 <defs>
  <style type="text/css">
*{stroke-linecap:butt;stroke-linejoin:round;}
  </style>
 </defs>
 <g id="figure_1">
  <g id="patch_1">
   <path d="M 0 345.6 
L 460.8 345.6 
L 460.8 0 
L 0 0 
z
" style="fill:#ffffff;"/>
  </g>
  <g id="axes_1">
   <g id="CircleCollection_1">
    <path clip-path="url(#p3f01f43b2c)" d="M 136.736135 141.282029 
C 138.560713 141.282029 140.310806 140.557117 141.600977 139.266946 
C 142.891148 137.976775 143.61606 136.226682 143.61606 134.402104 
C 143.61606 132.577527 142.891148 130.827434 141.600977 129.537263 
C 140.310806 128.247092 138.560713 127.522179 136.736135 127.522179 
C 134.911558 127.522179 133.161465 128.247092 131.871294 129.537263 
C 130.581123 130.827434 129.85621 132.577527 129.85621 134.402104 
C 129.85621 136.226682 130.581123 137.976775 131.871294 139.266946 
C 133.161465 140.557117 134.911558 141.282029 136.736135 141.282029 
z
" style="fill:#463480;"/>
    <path clip-path="url(#p3f01f43b2c)" d="M 108.077091 208.510041 
C 109.849414 208.510041 111.549385 207.80589 112.802607 206.552669 
C 114.055828 205.299447 114.759979 203.599476 114.759979 201.827153 
C 114.759979 200.054831 114.055828 198.354859 112.802607 197.101638 
C 111.549385 195.848416 109.849414 195.144265 108.077091 195.144265 
C 106.304769 195.144265 104.604797 195.848416 103.351576 197.101638 
C 102.098355 198.354859 101.394203 200.054831 101.394203 201.827153 
C 101.394203 203.599476 102.098355 205.299447 103.351576 206.552669 
C 104.604797 207.80589 106.304769 208.510041 108.077091 208.510041 
z
" style="fill:#287c8e;"/>
    <path clip-path="url(#p3f01f43b2c)" d="M 215.216363 98.178078 
C 217.010726 98.178078 218.731838 97.465171 220.000644 96.196364 
C 221.26945 94.927558 221.982358 93.206446 221.982358 91.412083 
C 221.982358 89.617721 221.26945 87.896609 220.000644 86.627802 
C 218.731838 85.358996 217.010726 84.646088 215.216363 84.646088 
C 213.422 84.646088 211.700888 85.358996 210.432082 86.627802 
C 209.163276 87.896609 208.450368 89.617721 208.450368 91.412083 
C 208.450368 93.206446 209.163276 94.927558 210.432082 96.196364 
C 211.700888 97.465171 213.422 98.178078 215.216363 98.178078 
z
" style="fill:#24aa83;"/>
    <path clip-path="url(#p3f01f43b2c)" d="M 240.142305 79.747579 
C 241.885052 79.747579 243.556656 79.055178 244.788964 77.822869 
C 246.021273 76.590561 246.713674 74.918957 246.713674 73.176209 
C 246.713674 71.433462 246.021273 69.761858 244.788964 68.52955 
C 243.556656 67.297241 241.885052 66.60484 240.142305 66.60484 
C 238.399557 66.60484 236.727954 67.297241 235.495645 68.52955 
C 234.263336 69.761858 233.570936 71.433462 233.570936 73.176209 
C 233.570936 74.918957 234.263336 76.590561 235.495645 77.822869 
C 236.727954 79.055178 238.399557 79.747579 240.142305 79.747579 
z
" style="fill:#32658e;"/>
    <path clip-path="url(#p3f01f43b2c)" d="M 228.482518 259.245326 
C 230.268034 259.245326 231.98066 258.535933 233.243211 257.273383 
C 234.505761 256.010832 235.215154 254.298206 235.215154 252.51269 
C 235.215154 250.727174 234.505761 249.014547 233.243211 247.751997 
C 231.98066 246.489446 230.268034 245.780053 228.482518 245.780053 
C 226.697001 245.780053 224.984375 246.489446 223.721825 247.751997 
C 222.459274 249.014547 221.749881 250.727174 221.749881 252.51269 
C 221.749881 254.298206 222.459274 256.010832 223.721825 257.273383 
C 224.984375 258.535933 226.697001 259.245326 228.482518 259.245326 
z
" style="fill:#25ac82;"/>
    <path clip-path="url(#p3f01f43b2c)" d="M 198.938473 81.043452 
C 200.649332 81.043452 202.290348 80.363721 203.500107 79.153961 
C 204.709867 77.944202 205.389598 76.303186 205.389598 74.592327 
C 205.389598 72.881469 204.709867 71.240453 203.500107 70.030694 
C 202.290348 68.820934 200.649332 68.141203 198.938473 68.141203 
C 197.227615 68.141203 195.586599 68.820934 194.37684 70.030694 
C 193.16708 71.240453 192.487349 72.881469 192.487349 74.592327 
C 192.487349 76.303186 193.16708 77.944202 194.37684 79.153961 
C 195.586599 80.363721 197.227615 81.043452 198.938473 81.043452 
z
" style="fill:#24aa83;"/>
    <path clip-path="url(#p3f01f43b2c)" d="M 104.461107 113.700822 
C 106.175295 113.700822 107.819505 113.019768 109.031619 111.807654 
C 110.243733 110.59554 110.924787 108.95133 110.924787 107.237142 
C 110.924787 105.522953 110.243733 103.878743 109.031619 102.666629 
C 107.819505 101.454515 106.175295 100.773461 104.461107 100.773461 
C 102.746919 100.773461 101.102709 101.454515 99.890594 102.666629 
C 98.67848 103.878743 97.997426 105.522953 97.997426 107.237142 
C 97.997426 108.95133 98.67848 110.59554 99.890594 111.807654 
C 101.102709 113.019768 102.746919 113.700822 104.461107 113.700822 
z
" style="fill:#20a486;"/>
    <path clip-path="url(#p3f01f43b2c)" d="M 85.703609 183.106857 
C 87.485832 183.106857 89.1953 182.398772 90.455521 181.13855 
C 91.715743 179.878328 92.423828 178.168861 92.423828 176.386638 
C 92.423828 174.604415 91.715743 172.894947 90.455521 171.634725 
C 89.1953 170.374503 87.485832 169.666419 85.703609 169.666419 
C 83.921386 169.666419 82.211919 170.374503 80.951697 171.634725 
C 79.691475 172.894947 78.98339 174.604415 78.98339 176.386638 
C 78.98339 178.168861 79.691475 179.878328 80.951697 181.13855 
C 82.211919 182.398772 83.921386 183.106857 85.703609 183.106857 
z
" style="fill:#2c738e;"/>
    <path clip-path="url(#p3f01f43b2c)" d="M 74.945157 130.778654 
C 76.652325 130.778654 78.289801 130.100389 79.496951 128.893239 
C 80.704101 127.686089 81.382366 126.048613 81.382366 124.341445 
C 81.382366 122.634277 80.704101 120.996801 79.496951 119.789651 
C 78.289801 118.582501 76.652325 117.904236 74.945157 117.904236 
C 73.237989 117.904236 71.600513 118.582501 70.393363 119.789651 
C 69.186213 120.996801 68.507948 122.634277 68.507948 124.341445 
C 68.507948 126.048613 69.186213 127.686089 70.393363 128.893239 
C 71.600513 130.100389 73.237989 130.778654 74.945157 130.778654 
z
" style="fill:#218f8d;"/>
    <path clip-path="url(#p3f01f43b2c)" d="M 101.282964 157.263128 
C 103.104237 157.263128 104.851159 156.539529 106.138993 155.251695 
C 107.426827 153.963861 108.150426 152.216938 108.150426 150.395666 
C 108.150426 148.574394 107.426827 146.827471 106.138993 145.539637 
C 104.851159 144.251803 103.104237 143.528204 101.282964 143.528204 
C 99.461692 143.528204 97.714769 144.251803 96.426935 145.539637 
C 95.139101 146.827471 94.415502 148.574394 94.415502 150.395666 
C 94.415502 152.216938 95.139101 153.963861 96.426935 155.251695 
C 97.714769 156.539529 99.461692 157.263128 101.282964 157.263128 
z
" style="fill:#24868e;"/>
    <path clip-path="url(#p3f01f43b2c)" d="M 329.896124 301.880571 
C 331.695684 301.880571 333.421782 301.165598 334.694264 299.893116 
C 335.966746 298.620635 336.681719 296.894537 336.681719 295.094976 
C 336.681719 293.295415 335.966746 291.569317 334.694264 290.296835 
C 333.421782 289.024354 331.695684 288.309381 329.896124 288.309381 
C 328.096563 288.309381 326.370465 289.024354 325.097983 290.296835 
C 323.825501 291.569317 323.110528 293.295415 323.110528 295.094976 
C 323.110528 296.894537 323.825501 298.620635 325.097983 299.893116 
C 326.370465 301.165598 328.096563 301.880571 329.896124 301.880571 
z
" style="fill:#fde725;"/>
    <path clip-path="url(#p3f01f43b2c)" d="M 70.989636 156.530146 
C 72.744652 156.530146 74.428023 155.832871 75.669006 154.591888 
C 76.909989 153.350904 77.607264 151.667533 77.607264 149.912518 
C 77.607264 148.157502 76.909989 146.474131 75.669006 145.233148 
C 74.428023 143.992165 72.744652 143.29489 70.989636 143.29489 
C 69.234621 143.29489 67.55125 143.992165 66.310266 145.233148 
C 65.069283 146.474131 64.372008 148.157502 64.372008 149.912518 
C 64.372008 151.667533 65.069283 153.350904 66.310266 154.591888 
C 67.55125 155.832871 69.234621 156.530146 70.989636 156.530146 
z
" style="fill:#277e8e;"/>
    <path clip-path="url(#p3f01f43b2c)" d="M 277.527079 69.278937 
C 279.255125 69.278937 280.912627 68.592377 282.13454 67.370464 
C 283.356452 66.148551 284.043012 64.491049 284.043012 62.763004 
C 284.043012 61.034958 283.356452 59.377456 282.13454 58.155544 
C 280.912627 56.933631 279.255125 56.247071 277.527079 56.247071 
C 275.799034 56.247071 274.141532 56.933631 272.919619 58.155544 
C 271.697706 59.377456 271.011147 61.034958 271.011147 62.763004 
C 271.011147 64.491049 271.697706 66.148551 272.919619 67.370464 
C 274.141532 68.592377 275.799034 69.278937 277.527079 69.278937 
z
" style="fill:#2e6e8e;"/>
    <path clip-path="url(#p3f01f43b2c)" d="M 257.89413 235.500093 
C 259.72381 235.500093 261.478798 234.773153 262.772577 233.479374 
C 264.066356 232.185595 264.793296 230.430607 264.793296 228.600927 
C 264.793296 226.771246 264.066356 225.016259 262.772577 223.722479 
C 261.478798 222.4287 259.72381 221.70176 257.89413 221.70176 
C 256.064449 221.70176 254.309462 222.4287 253.015682 223.722479 
C 251.721903 225.016259 250.994963 226.771246 250.994963 228.600927 
C 250.994963 230.430607 251.721903 232.185595 253.015682 233.479374 
C 254.309462 234.773153 256.064449 235.500093 257.89413 235.500093 
z
" style="fill:#25ac82;"/>
    <path clip-path="url(#p3f01f43b2c)" d="M 271.051872 263.594054 
C 272.856342 263.594054 274.587148 262.877131 275.863101 261.601178 
C 277.139054 260.325225 277.855978 258.594418 277.855978 256.789948 
C 277.855978 254.985478 277.139054 253.254672 275.863101 251.978719 
C 274.587148 250.702766 272.856342 249.985842 271.051872 249.985842 
C 269.247402 249.985842 267.516595 250.702766 266.240642 251.978719 
C 264.96469 253.254672 264.247766 254.985478 264.247766 256.789948 
C 264.247766 258.594418 264.96469 260.325225 266.240642 261.601178 
C 267.516595 262.877131 269.247402 263.594054 271.051872 263.594054 
z
" style="fill:#32648e;"/>
    <path clip-path="url(#p3f01f43b2c)" d="M 301.951785 282.204464 
C 303.752453 282.204464 305.479613 281.489051 306.752878 280.215786 
C 308.026142 278.942522 308.741555 277.215362 308.741555 275.414694 
C 308.741555 273.614026 308.026142 271.886866 306.752878 270.613602 
C 305.479613 269.340337 303.752453 268.624924 301.951785 268.624924 
C 300.151117 268.624924 298.423958 269.340337 297.150693 270.613602 
C 295.877429 271.886866 295.162016 273.614026 295.162016 275.414694 
C 295.162016 277.215362 295.877429 278.942522 297.150693 280.215786 
C 298.423958 281.489051 300.151117 282.204464 301.951785 282.204464 
z
" style="fill:#2e6f8e;"/>
    <path clip-path="url(#p3f01f43b2c)" d="M 215.933224 231.53644 
C 217.74449 231.53644 219.481815 230.816816 220.762574 229.536058 
C 222.043332 228.255299 222.762956 226.517974 222.762956 224.706708 
C 222.762956 222.895442 222.043332 221.158117 220.762574 219.877358 
C 219.481815 218.5966 217.74449 217.876976 215.933224 217.876976 
C 214.121958 217.876976 212.384632 218.5966 211.103874 219.877358 
C 209.823115 221.158117 209.103492 222.895442 209.103492 224.706708 
C 209.103492 226.517974 209.823115 228.255299 211.103874 229.536058 
C 212.384632 230.816816 214.121958 231.53644 215.933224 231.53644 
z
" style="fill:#34618d;"/>
    <path clip-path="url(#p3f01f43b2c)" d="M 184.449012 212.290455 
C 186.265162 212.290455 188.007172 211.56889 189.291384 210.284678 
C 190.575596 209.000466 191.297161 207.258456 191.297161 205.442306 
C 191.297161 203.626156 190.575596 201.884146 189.291384 200.599934 
C 188.007172 199.315722 186.265162 198.594158 184.449012 198.594158 
C 182.632862 198.594158 180.890852 199.315722 179.60664 200.599934 
C 178.322428 201.884146 177.600864 203.626156 177.600864 205.442306 
C 177.600864 207.258456 178.322428 209.000466 179.60664 210.284678 
C 180.890852 211.56889 182.632862 212.290455 184.449012 212.290455 
z
" style="fill:#440154;"/>
    <path clip-path="url(#p3f01f43b2c)" d="M 169.33436 160.109939 
C 171.176229 160.109939 172.942907 159.378157 174.245304 158.07576 
C 175.547702 156.773362 176.279484 155.006684 176.279484 153.164815 
C 176.279484 151.322947 175.547702 149.556269 174.245304 148.253871 
C 172.942907 146.951474 171.176229 146.219692 169.33436 146.219692 
C 167.492492 146.219692 165.725814 146.951474 164.423416 148.253871 
C 163.121018 149.556269 162.389236 151.322947 162.389236 153.164815 
C 162.389236 155.006684 163.121018 156.773362 164.423416 158.07576 
C 165.725814 159.378157 167.492492 160.109939 169.33436 160.109939 
z
" style="fill:#238a8d;"/>
    <path clip-path="url(#p3f01f43b2c)" d="M 313.846667 60.390315 
C 315.556908 60.390315 317.197333 59.710829 318.406656 58.501506 
C 319.61598 57.292183 320.295466 55.651758 320.295466 53.941517 
C 320.295466 52.231275 319.61598 50.590851 318.406656 49.381528 
C 317.197333 48.172204 315.556908 47.492718 313.846667 47.492718 
C 312.136426 47.492718 310.496001 48.172204 309.286678 49.381528 
C 308.077355 50.590851 307.397868 52.231275 307.397868 53.941517 
C 307.397868 55.651758 308.077355 57.292183 309.286678 58.501506 
C 310.496001 59.710829 312.136426 60.390315 313.846667 60.390315 
z
" style="fill:#fde725;"/>
    <path clip-path="url(#p3f01f43b2c)" d="M 143.847563 216.47193 
C 145.633964 216.47193 147.347439 215.762186 148.610615 214.499009 
C 149.873791 213.235833 150.583536 211.522358 150.583536 209.735957 
C 150.583536 207.949556 149.873791 206.236081 148.610615 204.972905 
C 147.347439 203.709729 145.633964 202.999984 143.847563 202.999984 
C 142.061162 202.999984 140.347687 203.709729 139.084511 204.972905 
C 137.821335 206.236081 137.11159 207.949556 137.11159 209.735957 
C 137.11159 211.522358 137.821335 213.235833 139.084511 214.499009 
C 140.347687 215.762186 142.061162 216.47193 143.847563 216.47193 
z
" style="fill:#1e9d89;"/>
    <path clip-path="url(#p3f01f43b2c)" d="M 187.397773 183.668282 
C 189.245588 183.668282 191.01797 182.934137 192.324573 181.627534 
C 193.631176 180.320931 194.365321 178.548549 194.365321 176.700734 
C 194.365321 174.852919 193.631176 173.080536 192.324573 171.773934 
C 191.01797 170.467331 189.245588 169.733186 187.397773 169.733186 
C 185.549958 169.733186 183.777575 170.467331 182.470973 171.773934 
C 181.16437 173.080536 180.430225 174.852919 180.430225 176.700734 
C 180.430225 178.548549 181.16437 180.320931 182.470973 181.627534 
C 183.777575 182.934137 185.549958 183.668282 187.397773 183.668282 
z
" style="fill:#1f968b;"/>
    <path clip-path="url(#p3f01f43b2c)" d="M 139.087167 114.800785 
C 140.85711 114.800785 142.554799 114.097579 143.806338 112.846041 
C 145.057877 111.594502 145.761083 109.896812 145.761083 108.126869 
C 145.761083 106.356926 145.057877 104.659237 143.806338 103.407698 
C 142.554799 102.156159 140.85711 101.452953 139.087167 101.452953 
C 137.317223 101.452953 135.619534 102.156159 134.367995 103.407698 
C 133.116456 104.659237 132.41325 106.356926 132.41325 108.126869 
C 132.41325 109.896812 133.116456 111.594502 134.367995 112.846041 
C 135.619534 114.097579 137.317223 114.800785 139.087167 114.800785 
z
" style="fill:#482374;"/>
    <path clip-path="url(#p3f01f43b2c)" d="M 174.497744 99.451292 
C 176.26057 99.451292 177.951433 98.750913 179.19794 97.504407 
C 180.444446 96.2579 181.144825 94.567037 181.144825 92.804211 
C 181.144825 91.041384 180.444446 89.350521 179.19794 88.104015 
C 177.951433 86.857508 176.26057 86.15713 174.497744 86.15713 
C 172.734917 86.15713 171.044054 86.857508 169.797548 88.104015 
C 168.551041 89.350521 167.850663 91.041384 167.850663 92.804211 
C 167.850663 94.567037 168.551041 96.2579 169.797548 97.504407 
C 171.044054 98.750913 172.734917 99.451292 174.497744 99.451292 
z
" style="fill:#32648e;"/>
   </g>
   <g id="text_1">
    <!-- Structure #10749, $E_N$=-174.61eV, ΔE=0.49eV -->
    <defs>
     <path d="M 53.515625 70.515625 
L 53.515625 60.890625 
Q 47.90625 63.578125 42.921875 64.890625 
Q 37.9375 66.21875 33.296875 66.21875 
Q 25.25 66.21875 20.875 63.09375 
Q 16.5 59.96875 16.5 54.203125 
Q 16.5 49.359375 19.40625 46.890625 
Q 22.3125 44.4375 30.421875 42.921875 
L 36.375 41.703125 
Q 47.40625 39.59375 52.65625 34.296875 
Q 57.90625 29 57.90625 20.125 
Q 57.90625 9.515625 50.796875 4.046875 
Q 43.703125 -1.421875 29.984375 -1.421875 
Q 24.8125 -1.421875 18.96875 -0.25 
Q 13.140625 0.921875 6.890625 3.21875 
L 6.890625 13.375 
Q 12.890625 10.015625 18.65625 8.296875 
Q 24.421875 6.59375 29.984375 6.59375 
Q 38.421875 6.59375 43.015625 9.90625 
Q 47.609375 13.234375 47.609375 19.390625 
Q 47.609375 24.75 44.3125 27.78125 
Q 41.015625 30.8125 33.5 32.328125 
L 27.484375 33.5 
Q 16.453125 35.6875 11.515625 40.375 
Q 6.59375 45.0625 6.59375 53.421875 
Q 6.59375 63.09375 13.40625 68.65625 
Q 20.21875 74.21875 32.171875 74.21875 
Q 37.3125 74.21875 42.625 73.28125 
Q 47.953125 72.359375 53.515625 70.515625 
z
" id="DejaVuSans-53"/>
     <path d="M 18.3125 70.21875 
L 18.3125 54.6875 
L 36.8125 54.6875 
L 36.8125 47.703125 
L 18.3125 47.703125 
L 18.3125 18.015625 
Q 18.3125 11.328125 20.140625 9.421875 
Q 21.96875 7.515625 27.59375 7.515625 
L 36.8125 7.515625 
L 36.8125 0 
L 27.59375 0 
Q 17.1875 0 13.234375 3.875 
Q 9.28125 7.765625 9.28125 18.015625 
L 9.28125 47.703125 
L 2.6875 47.703125 
L 2.6875 54.6875 
L 9.28125 54.6875 
L 9.28125 70.21875 
z
" id="DejaVuSans-74"/>
     <path d="M 41.109375 46.296875 
Q 39.59375 47.171875 37.8125 47.578125 
Q 36.03125 48 33.890625 48 
Q 26.265625 48 22.1875 43.046875 
Q 18.109375 38.09375 18.109375 28.8125 
L 18.109375 0 
L 9.078125 0 
L 9.078125 54.6875 
L 18.109375 54.6875 
L 18.109375 46.1875 
Q 20.953125 51.171875 25.484375 53.578125 
Q 30.03125 56 36.53125 56 
Q 37.453125 56 38.578125 55.875 
Q 39.703125 55.765625 41.0625 55.515625 
z
" id="DejaVuSans-72"/>
     <path d="M 8.5 21.578125 
L 8.5 54.6875 
L 17.484375 54.6875 
L 17.484375 21.921875 
Q 17.484375 14.15625 20.5 10.265625 
Q 23.53125 6.390625 29.59375 6.390625 
Q 36.859375 6.390625 41.078125 11.03125 
Q 45.3125 15.671875 45.3125 23.6875 
L 45.3125 54.6875 
L 54.296875 54.6875 
L 54.296875 0 
L 45.3125 0 
L 45.3125 8.40625 
Q 42.046875 3.421875 37.71875 1 
Q 33.40625 -1.421875 27.6875 -1.421875 
Q 18.265625 -1.421875 13.375 4.4375 
Q 8.5 10.296875 8.5 21.578125 
z
M 31.109375 56 
z
" id="DejaVuSans-75"/>
     <path d="M 48.78125 52.59375 
L 48.78125 44.1875 
Q 44.96875 46.296875 41.140625 47.34375 
Q 37.3125 48.390625 33.40625 48.390625 
Q 24.65625 48.390625 19.8125 42.84375 
Q 14.984375 37.3125 14.984375 27.296875 
Q 14.984375 17.28125 19.8125 11.734375 
Q 24.65625 6.203125 33.40625 6.203125 
Q 37.3125 6.203125 41.140625 7.25 
Q 44.96875 8.296875 48.78125 10.40625 
L 48.78125 2.09375 
Q 45.015625 0.34375 40.984375 -0.53125 
Q 36.96875 -1.421875 32.421875 -1.421875 
Q 20.0625 -1.421875 12.78125 6.34375 
Q 5.515625 14.109375 5.515625 27.296875 
Q 5.515625 40.671875 12.859375 48.328125 
Q 20.21875 56 33.015625 56 
Q 37.15625 56 41.109375 55.140625 
Q 45.0625 54.296875 48.78125 52.59375 
z
" id="DejaVuSans-63"/>
     <path d="M 56.203125 29.59375 
L 56.203125 25.203125 
L 14.890625 25.203125 
Q 15.484375 15.921875 20.484375 11.0625 
Q 25.484375 6.203125 34.421875 6.203125 
Q 39.59375 6.203125 44.453125 7.46875 
Q 49.3125 8.734375 54.109375 11.28125 
L 54.109375 2.78125 
Q 49.265625 0.734375 44.1875 -0.34375 
Q 39.109375 -1.421875 33.890625 -1.421875 
Q 20.796875 -1.421875 13.15625 6.1875 
Q 5.515625 13.8125 5.515625 26.8125 
Q 5.515625 40.234375 12.765625 48.109375 
Q 20.015625 56 32.328125 56 
Q 43.359375 56 49.78125 48.890625 
Q 56.203125 41.796875 56.203125 29.59375 
z
M 47.21875 32.234375 
Q 47.125 39.59375 43.09375 43.984375 
Q 39.0625 48.390625 32.421875 48.390625 
Q 24.90625 48.390625 20.390625 44.140625 
Q 15.875 39.890625 15.1875 32.171875 
z
" id="DejaVuSans-65"/>
     <path id="DejaVuSans-20"/>
     <path d="M 51.125 44 
L 36.921875 44 
L 32.8125 27.6875 
L 47.125 27.6875 
z
M 43.796875 71.78125 
L 38.71875 51.515625 
L 52.984375 51.515625 
L 58.109375 71.78125 
L 65.921875 71.78125 
L 60.890625 51.515625 
L 76.125 51.515625 
L 76.125 44 
L 58.984375 44 
L 54.984375 27.6875 
L 70.515625 27.6875 
L 70.515625 20.21875 
L 53.078125 20.21875 
L 48 0 
L 40.1875 0 
L 45.21875 20.21875 
L 30.90625 20.21875 
L 25.875 0 
L 18.015625 0 
L 23.09375 20.21875 
L 7.71875 20.21875 
L 7.71875 27.6875 
L 24.90625 27.6875 
L 29 44 
L 13.28125 44 
L 13.28125 51.515625 
L 30.90625 51.515625 
L 35.890625 71.78125 
z
" id="DejaVuSans-23"/>
     <path d="M 12.40625 8.296875 
L 28.515625 8.296875 
L 28.515625 63.921875 
L 10.984375 60.40625 
L 10.984375 69.390625 
L 28.421875 72.90625 
L 38.28125 72.90625 
L 38.28125 8.296875 
L 54.390625 8.296875 
L 54.390625 0 
L 12.40625 0 
z
" id="DejaVuSans-31"/>
     <path d="M 31.78125 66.40625 
Q 24.171875 66.40625 20.328125 58.90625 
Q 16.5 51.421875 16.5 36.375 
Q 16.5 21.390625 20.328125 13.890625 
Q 24.171875 6.390625 31.78125 6.390625 
Q 39.453125 6.390625 43.28125 13.890625 
Q 47.125 21.390625 47.125 36.375 
Q 47.125 51.421875 43.28125 58.90625 
Q 39.453125 66.40625 31.78125 66.40625 
z
M 31.78125 74.21875 
Q 44.046875 74.21875 50.515625 64.515625 
Q 56.984375 54.828125 56.984375 36.375 
Q 56.984375 17.96875 50.515625 8.265625 
Q 44.046875 -1.421875 31.78125 -1.421875 
Q 19.53125 -1.421875 13.0625 8.265625 
Q 6.59375 17.96875 6.59375 36.375 
Q 6.59375 54.828125 13.0625 64.515625 
Q 19.53125 74.21875 31.78125 74.21875 
z
" id="DejaVuSans-30"/>
     <path d="M 8.203125 72.90625 
L 55.078125 72.90625 
L 55.078125 68.703125 
L 28.609375 0 
L 18.3125 0 
L 43.21875 64.59375 
L 8.203125 64.59375 
z
" id="DejaVuSans-37"/>
     <path d="M 37.796875 64.3125 
L 12.890625 25.390625 
L 37.796875 25.390625 
z
M 35.203125 72.90625 
L 47.609375 72.90625 
L 47.609375 25.390625 
L 58.015625 25.390625 
L 58.015625 17.1875 
L 47.609375 17.1875 
L 47.609375 0 
L 37.796875 0 
L 37.796875 17.1875 
L 4.890625 17.1875 
L 4.890625 26.703125 
z
" id="DejaVuSans-34"/>
     <path d="M 10.984375 1.515625 
L 10.984375 10.5 
Q 14.703125 8.734375 18.5 7.8125 
Q 22.3125 6.890625 25.984375 6.890625 
Q 35.75 6.890625 40.890625 13.453125 
Q 46.046875 20.015625 46.78125 33.40625 
Q 43.953125 29.203125 39.59375 26.953125 
Q 35.25 24.703125 29.984375 24.703125 
Q 19.046875 24.703125 12.671875 31.3125 
Q 6.296875 37.9375 6.296875 49.421875 
Q 6.296875 60.640625 12.9375 67.421875 
Q 19.578125 74.21875 30.609375 74.21875 
Q 43.265625 74.21875 49.921875 64.515625 
Q 56.59375 54.828125 56.59375 36.375 
Q 56.59375 19.140625 48.40625 8.859375 
Q 40.234375 -1.421875 26.421875 -1.421875 
Q 22.703125 -1.421875 18.890625 -0.6875 
Q 15.09375 0.046875 10.984375 1.515625 
z
M 30.609375 32.421875 
Q 37.25 32.421875 41.125 36.953125 
Q 45.015625 41.5 45.015625 49.421875 
Q 45.015625 57.28125 41.125 61.84375 
Q 37.25 66.40625 30.609375 66.40625 
Q 23.96875 66.40625 20.09375 61.84375 
Q 16.21875 57.28125 16.21875 49.421875 
Q 16.21875 41.5 20.09375 36.953125 
Q 23.96875 32.421875 30.609375 32.421875 
z
" id="DejaVuSans-39"/>
     <path d="M 11.71875 12.40625 
L 22.015625 12.40625 
L 22.015625 4 
L 14.015625 -11.625 
L 7.71875 -11.625 
L 11.71875 4 
z
" id="DejaVuSans-2c"/>
     <path d="M 16.890625 72.90625 
L 62.984375 72.90625 
L 61.375 64.59375 
L 25.09375 64.59375 
L 20.90625 43.015625 
L 55.71875 43.015625 
L 54.109375 34.71875 
L 19.28125 34.71875 
L 14.203125 8.296875 
L 51.3125 8.296875 
L 49.703125 0 
L 2.6875 0 
z
" id="DejaVuSans-Oblique-45"/>
     <path d="M 16.890625 72.90625 
L 30.171875 72.90625 
L 50.296875 10.40625 
L 62.5 72.90625 
L 72.125 72.90625 
L 57.90625 0 
L 44.578125 0 
L 24.515625 62.890625 
L 12.3125 0 
L 2.6875 0 
z
" id="DejaVuSans-Oblique-4e"/>
     <path d="M 10.59375 45.40625 
L 73.1875 45.40625 
L 73.1875 37.203125 
L 10.59375 37.203125 
z
M 10.59375 25.484375 
L 73.1875 25.484375 
L 73.1875 17.1875 
L 10.59375 17.1875 
z
" id="DejaVuSans-3d"/>
     <path d="M 4.890625 31.390625 
L 31.203125 31.390625 
L 31.203125 23.390625 
L 4.890625 23.390625 
z
" id="DejaVuSans-2d"/>
     <path d="M 10.6875 12.40625 
L 21 12.40625 
L 21 0 
L 10.6875 0 
z
" id="DejaVuSans-2e"/>
     <path d="M 33.015625 40.375 
Q 26.375 40.375 22.484375 35.828125 
Q 18.609375 31.296875 18.609375 23.390625 
Q 18.609375 15.53125 22.484375 10.953125 
Q 26.375 6.390625 33.015625 6.390625 
Q 39.65625 6.390625 43.53125 10.953125 
Q 47.40625 15.53125 47.40625 23.390625 
Q 47.40625 31.296875 43.53125 35.828125 
Q 39.65625 40.375 33.015625 40.375 
z
M 52.59375 71.296875 
L 52.59375 62.3125 
Q 48.875 64.0625 45.09375 64.984375 
Q 41.3125 65.921875 37.59375 65.921875 
Q 27.828125 65.921875 22.671875 59.328125 
Q 17.53125 52.734375 16.796875 39.40625 
Q 19.671875 43.65625 24.015625 45.921875 
Q 28.375 48.1875 33.59375 48.1875 
Q 44.578125 48.1875 50.953125 41.515625 
Q 57.328125 34.859375 57.328125 23.390625 
Q 57.328125 12.15625 50.6875 5.359375 
Q 44.046875 -1.421875 33.015625 -1.421875 
Q 20.359375 -1.421875 13.671875 8.265625 
Q 6.984375 17.96875 6.984375 36.375 
Q 6.984375 53.65625 15.1875 63.9375 
Q 23.390625 74.21875 37.203125 74.21875 
Q 40.921875 74.21875 44.703125 73.484375 
Q 48.484375 72.75 52.59375 71.296875 
z
" id="DejaVuSans-36"/>
     <path d="M 28.609375 0 
L 0.78125 72.90625 
L 11.078125 72.90625 
L 34.1875 11.53125 
L 57.328125 72.90625 
L 67.578125 72.90625 
L 39.796875 0 
z
" id="DejaVuSans-56"/>
     <path d="M 34.1875 63.1875 
L 14.15625 8.203125 
L 54.25 8.203125 
z
M 0.78125 0 
L 28.609375 72.90625 
L 39.796875 72.90625 
L 67.578125 0 
z
" id="DejaVuSans-394"/>
     <path d="M 9.8125 72.90625 
L 55.90625 72.90625 
L 55.90625 64.59375 
L 19.671875 64.59375 
L 19.671875 43.015625 
L 54.390625 43.015625 
L 54.390625 34.71875 
L 19.671875 34.71875 
L 19.671875 8.296875 
L 56.78125 8.296875 
L 56.78125 0 
L 9.8125 0 
z
" id="DejaVuSans-45"/>
    </defs>
    <g transform="translate(61.548 35.472)scale(0.12 -0.12)">
     <use transform="translate(0 0.78125)" xlink:href="#DejaVuSans-53"/>
     <use transform="translate(63.476562 0.78125)" xlink:href="#DejaVuSans-74"/>
     <use transform="translate(102.685547 0.78125)" xlink:href="#DejaVuSans-72"/>
     <use transform="translate(143.798828 0.78125)" xlink:href="#DejaVuSans-75"/>
     <use transform="translate(207.177734 0.78125)" xlink:href="#DejaVuSans-63"/>
     <use transform="translate(262.158203 0.78125)" xlink:href="#DejaVuSans-74"/>
     <use transform="translate(301.367188 0.78125)" xlink:href="#DejaVuSans-75"/>
     <use transform="translate(364.746094 0.78125)" xlink:href="#DejaVuSans-72"/>
     <use transform="translate(405.859375 0.78125)" xlink:href="#DejaVuSans-65"/>
     <use transform="translate(467.382812 0.78125)" xlink:href="#DejaVuSans-20"/>
     <use transform="translate(499.169922 0.78125)" xlink:href="#DejaVuSans-23"/>
     <use transform="translate(582.958984 0.78125)" xlink:href="#DejaVuSans-31"/>
     <use transform="translate(646.582031 0.78125)" xlink:href="#DejaVuSans-30"/>
     <use transform="translate(710.205078 0.78125)" xlink:href="#DejaVuSans-37"/>
     <use transform="translate(773.828125 0.78125)" xlink:href="#DejaVuSans-34"/>
     <use transform="translate(837.451172 0.78125)" xlink:href="#DejaVuSans-39"/>
     <use transform="translate(901.074219 0.78125)" xlink:href="#DejaVuSans-2c"/>
     <use transform="translate(932.861328 0.78125)" xlink:href="#DejaVuSans-20"/>
     <use transform="translate(964.648438 0.78125)" xlink:href="#DejaVuSans-Oblique-45"/>
     <use transform="translate(1027.832031 -15.625)scale(0.7)" xlink:href="#DejaVuSans-Oblique-4e"/>
     <use transform="translate(1082.929688 0.78125)" xlink:href="#DejaVuSans-3d"/>
     <use transform="translate(1166.71875 0.78125)" xlink:href="#DejaVuSans-2d"/>
     <use transform="translate(1202.802734 0.78125)" xlink:href="#DejaVuSans-31"/>
     <use transform="translate(1266.425781 0.78125)" xlink:href="#DejaVuSans-37"/>
     <use transform="translate(1330.048828 0.78125)" xlink:href="#DejaVuSans-34"/>
     <use transform="translate(1393.671875 0.78125)" xlink:href="#DejaVuSans-2e"/>
     <use transform="translate(1425.458984 0.78125)" xlink:href="#DejaVuSans-36"/>
     <use transform="translate(1489.082031 0.78125)" xlink:href="#DejaVuSans-31"/>
     <use transform="translate(1552.705078 0.78125)" xlink:href="#DejaVuSans-65"/>
     <use transform="translate(1614.228516 0.78125)" xlink:href="#DejaVuSans-56"/>
     <use transform="translate(1682.636719 0.78125)" xlink:href="#DejaVuSans-2c"/>
     <use transform="translate(1714.423828 0.78125)" xlink:href="#DejaVuSans-20"/>
     <use transform="translate(1746.210938 0.78125)" xlink:href="#DejaVuSans-394"/>
     <use transform="translate(1814.619141 0.78125)" xlink:href="#DejaVuSans-45"/>
     <use transform="translate(1877.802734 0.78125)" xlink:href="#DejaVuSans-3d"/>
     <use transform="translate(1961.591797 0.78125)" xlink:href="#DejaVuSans-30"/>
     <use transform="translate(2025.214844 0.78125)" xlink:href="#DejaVuSans-2e"/>
     <use transform="translate(2057.001953 0.78125)" xlink:href="#DejaVuSans-34"/>
     <use transform="translate(2120.625 0.78125)" xlink:href="#DejaVuSans-39"/>
     <use transform="translate(2184.248047 0.78125)" xlink:href="#DejaVuSans-65"/>
     <use transform="translate(2245.771484 0.78125)" xlink:href="#DejaVuSans-56"/>
    </g>
   </g>
  </g>
  <g id="axes_2">
   <g id="patch_2">
    <path clip-path="url(#p2ea5a83736)" d="M 361.152 307.584 
L 361.152 306.5445 
L 361.152 42.5115 
L 361.152 41.472 
L 374.4576 41.472 
L 374.4576 42.5115 
L 374.4576 306.5445 
L 374.4576 307.584 
z
" style="fill:#ffffff;stroke:#ffffff;stroke-linejoin:miter;stroke-width:0.01;"/>
   </g>
   <image height="265.68" id="imageca74332ef9" transform="scale(1 -1)translate(0 -265.68)" width="12.96" x="361.44" xlink:href="data:image/png;base64,
iVBORw0KGgoAAAANSUhEUgAAABIAAAFxCAYAAAB+2fgXAAAABHNCSVQICAgIfAhkiAAAAeVJREFUeJztncmNw0AQA2ckheYQNv9QLIfQ8ygsCgQ7AEI8+jAs2Puz/94F1LP2ReCsZ18bAWIeZ5XaGRBE7VnbptG+KI101FYyNSiQG2oRITXKNaX9uclOdi2XWjftVE32CZCO2ou5Bj1TcCBr/1zB9ge7Fq0Rg2NM9pvbtG+ua1QgsRYhDy0ISEiNc40BEibbSI0Coj5CBGtkpFbXJiAjNZlrwhuSOv2M1DjXbEdEciBt1JSDDQKKpmZr2rr2j0DBGpXaWEJq3bQzEPIS26r9J+Wzv9Tm8o3aajRXqc3VUXsApKNWjeZq0x4ABVNbm7lrszVigDqP5vIl2+eaT2yfRkL7g+dRcNPqjohkjaCvRVBq0H2U3LQrOJCx9kdTg4B8oxZzzTdqdYHEngjUCAPyUctN9sVRq2sTECW2UKNLd2jVtRmo1A6AhMmWaSRcR8nUdIHUuVb75zJS218EyEitro1At69pIdeSk30Lkw0FktNImGyZRhy1O5galmxd03LUsHWk06jUZiCq+5Wb1kZNN4+wJxJuWt8RAW5am2sYNZ9rYCBzZ3buPKJ2P5Yj4Toy3keyIyJbIxs1rml1byCA84gpch5RQNB7Q0qNMGq2Hy4BXdNR41yz/cEEJfZzUz96r9PoB0okjeQ8y9TkAAAAAElFTkSuQmCC" y="-41.76"/>
   <g id="matplotlib.axis_1"/>
   <g id="matplotlib.axis_2">
    <g id="ytick_1">
     <g id="line2d_1">
      <defs>
       <path d="M 0 0 
L 3.5 0 
" id="m9593d4afe0" style="stroke:#000000;stroke-width:0.8;"/>
      </defs>
      <g>
       <use style="stroke:#000000;stroke-width:0.8;" x="374.4576" xlink:href="#m9593d4afe0" y="299.410872"/>
      </g>
     </g>
     <g id="text_2">
      <!-- −9.0 -->
      <defs>
       <path d="M 10.59375 35.5 
L 73.1875 35.5 
L 73.1875 27.203125 
L 10.59375 27.203125 
z
" id="DejaVuSans-2212"/>
      </defs>
      <g transform="translate(381.4576 303.210091)scale(0.1 -0.1)">
       <use xlink:href="#DejaVuSans-2212"/>
       <use x="83.789062" xlink:href="#DejaVuSans-39"/>
       <use x="147.412109" xlink:href="#DejaVuSans-2e"/>
       <use x="179.199219" xlink:href="#DejaVuSans-30"/>
      </g>
     </g>
    </g>
    <g id="ytick_2">
     <g id="line2d_2">
      <g>
       <use style="stroke:#000000;stroke-width:0.8;" x="374.4576" xlink:href="#m9593d4afe0" y="266.468792"/>
      </g>
     </g>
     <g id="text_3">
      <!-- −8.5 -->
      <defs>
       <path d="M 31.78125 34.625 
Q 24.75 34.625 20.71875 30.859375 
Q 16.703125 27.09375 16.703125 20.515625 
Q 16.703125 13.921875 20.71875 10.15625 
Q 24.75 6.390625 31.78125 6.390625 
Q 38.8125 6.390625 42.859375 10.171875 
Q 46.921875 13.96875 46.921875 20.515625 
Q 46.921875 27.09375 42.890625 30.859375 
Q 38.875 34.625 31.78125 34.625 
z
M 21.921875 38.8125 
Q 15.578125 40.375 12.03125 44.71875 
Q 8.5 49.078125 8.5 55.328125 
Q 8.5 64.0625 14.71875 69.140625 
Q 20.953125 74.21875 31.78125 74.21875 
Q 42.671875 74.21875 48.875 69.140625 
Q 55.078125 64.0625 55.078125 55.328125 
Q 55.078125 49.078125 51.53125 44.71875 
Q 48 40.375 41.703125 38.8125 
Q 48.828125 37.15625 52.796875 32.3125 
Q 56.78125 27.484375 56.78125 20.515625 
Q 56.78125 9.90625 50.3125 4.234375 
Q 43.84375 -1.421875 31.78125 -1.421875 
Q 19.734375 -1.421875 13.25 4.234375 
Q 6.78125 9.90625 6.78125 20.515625 
Q 6.78125 27.484375 10.78125 32.3125 
Q 14.796875 37.15625 21.921875 38.8125 
z
M 18.3125 54.390625 
Q 18.3125 48.734375 21.84375 45.5625 
Q 25.390625 42.390625 31.78125 42.390625 
Q 38.140625 42.390625 41.71875 45.5625 
Q 45.3125 48.734375 45.3125 54.390625 
Q 45.3125 60.0625 41.71875 63.234375 
Q 38.140625 66.40625 31.78125 66.40625 
Q 25.390625 66.40625 21.84375 63.234375 
Q 18.3125 60.0625 18.3125 54.390625 
z
" id="DejaVuSans-38"/>
       <path d="M 10.796875 72.90625 
L 49.515625 72.90625 
L 49.515625 64.59375 
L 19.828125 64.59375 
L 19.828125 46.734375 
Q 21.96875 47.46875 24.109375 47.828125 
Q 26.265625 48.1875 28.421875 48.1875 
Q 40.625 48.1875 47.75 41.5 
Q 54.890625 34.8125 54.890625 23.390625 
Q 54.890625 11.625 47.5625 5.09375 
Q 40.234375 -1.421875 26.90625 -1.421875 
Q 22.3125 -1.421875 17.546875 -0.640625 
Q 12.796875 0.140625 7.71875 1.703125 
L 7.71875 11.625 
Q 12.109375 9.234375 16.796875 8.0625 
Q 21.484375 6.890625 26.703125 6.890625 
Q 35.15625 6.890625 40.078125 11.328125 
Q 45.015625 15.765625 45.015625 23.390625 
Q 45.015625 31 40.078125 35.4375 
Q 35.15625 39.890625 26.703125 39.890625 
Q 22.75 39.890625 18.8125 39.015625 
Q 14.890625 38.140625 10.796875 36.28125 
z
" id="DejaVuSans-35"/>
      </defs>
      <g transform="translate(381.4576 270.268011)scale(0.1 -0.1)">
       <use xlink:href="#DejaVuSans-2212"/>
       <use x="83.789062" xlink:href="#DejaVuSans-38"/>
       <use x="147.412109" xlink:href="#DejaVuSans-2e"/>
       <use x="179.199219" xlink:href="#DejaVuSans-35"/>
      </g>
     </g>
    </g>
    <g id="ytick_3">
     <g id="line2d_3">
      <g>
       <use style="stroke:#000000;stroke-width:0.8;" x="374.4576" xlink:href="#m9593d4afe0" y="233.526712"/>
      </g>
     </g>
     <g id="text_4">
      <!-- −8.0 -->
      <g transform="translate(381.4576 237.325931)scale(0.1 -0.1)">
       <use xlink:href="#DejaVuSans-2212"/>
       <use x="83.789062" xlink:href="#DejaVuSans-38"/>
       <use x="147.412109" xlink:href="#DejaVuSans-2e"/>
       <use x="179.199219" xlink:href="#DejaVuSans-30"/>
      </g>
     </g>
    </g>
    <g id="ytick_4">
     <g id="line2d_4">
      <g>
       <use style="stroke:#000000;stroke-width:0.8;" x="374.4576" xlink:href="#m9593d4afe0" y="200.584632"/>
      </g>
     </g>
     <g id="text_5">
      <!-- −7.5 -->
      <g transform="translate(381.4576 204.383851)scale(0.1 -0.1)">
       <use xlink:href="#DejaVuSans-2212"/>
       <use x="83.789062" xlink:href="#DejaVuSans-37"/>
       <use x="147.412109" xlink:href="#DejaVuSans-2e"/>
       <use x="179.199219" xlink:href="#DejaVuSans-35"/>
      </g>
     </g>
    </g>
    <g id="ytick_5">
     <g id="line2d_5">
      <g>
       <use style="stroke:#000000;stroke-width:0.8;" x="374.4576" xlink:href="#m9593d4afe0" y="167.642552"/>
      </g>
     </g>
     <g id="text_6">
      <!-- −7.0 -->
      <g transform="translate(381.4576 171.441771)scale(0.1 -0.1)">
       <use xlink:href="#DejaVuSans-2212"/>
       <use x="83.789062" xlink:href="#DejaVuSans-37"/>
       <use x="147.412109" xlink:href="#DejaVuSans-2e"/>
       <use x="179.199219" xlink:href="#DejaVuSans-30"/>
      </g>
     </g>
    </g>
    <g id="ytick_6">
     <g id="line2d_6">
      <g>
       <use style="stroke:#000000;stroke-width:0.8;" x="374.4576" xlink:href="#m9593d4afe0" y="134.700472"/>
      </g>
     </g>
     <g id="text_7">
      <!-- −6.5 -->
      <g transform="translate(381.4576 138.499691)scale(0.1 -0.1)">
       <use xlink:href="#DejaVuSans-2212"/>
       <use x="83.789062" xlink:href="#DejaVuSans-36"/>
       <use x="147.412109" xlink:href="#DejaVuSans-2e"/>
       <use x="179.199219" xlink:href="#DejaVuSans-35"/>
      </g>
     </g>
    </g>
    <g id="ytick_7">
     <g id="line2d_7">
      <g>
       <use style="stroke:#000000;stroke-width:0.8;" x="374.4576" xlink:href="#m9593d4afe0" y="101.758392"/>
      </g>
     </g>
     <g id="text_8">
      <!-- −6.0 -->
      <g transform="translate(381.4576 105.55761)scale(0.1 -0.1)">
       <use xlink:href="#DejaVuSans-2212"/>
       <use x="83.789062" xlink:href="#DejaVuSans-36"/>
       <use x="147.412109" xlink:href="#DejaVuSans-2e"/>
       <use x="179.199219" xlink:href="#DejaVuSans-30"/>
      </g>
     </g>
    </g>
    <g id="ytick_8">
     <g id="line2d_8">
      <g>
       <use style="stroke:#000000;stroke-width:0.8;" x="374.4576" xlink:href="#m9593d4afe0" y="68.816312"/>
      </g>
     </g>
     <g id="text_9">
      <!-- −5.5 -->
      <g transform="translate(381.4576 72.61553)scale(0.1 -0.1)">
       <use xlink:href="#DejaVuSans-2212"/>
       <use x="83.789062" xlink:href="#DejaVuSans-35"/>
       <use x="147.412109" xlink:href="#DejaVuSans-2e"/>
       <use x="179.199219" xlink:href="#DejaVuSans-35"/>
      </g>
     </g>
    </g>
    <g id="text_10">
     <!-- Energy [eV] -->
     <defs>
      <path d="M 54.890625 33.015625 
L 54.890625 0 
L 45.90625 0 
L 45.90625 32.71875 
Q 45.90625 40.484375 42.875 44.328125 
Q 39.84375 48.1875 33.796875 48.1875 
Q 26.515625 48.1875 22.3125 43.546875 
Q 18.109375 38.921875 18.109375 30.90625 
L 18.109375 0 
L 9.078125 0 
L 9.078125 54.6875 
L 18.109375 54.6875 
L 18.109375 46.1875 
Q 21.34375 51.125 25.703125 53.5625 
Q 30.078125 56 35.796875 56 
Q 45.21875 56 50.046875 50.171875 
Q 54.890625 44.34375 54.890625 33.015625 
z
" id="DejaVuSans-6e"/>
      <path d="M 45.40625 27.984375 
Q 45.40625 37.75 41.375 43.109375 
Q 37.359375 48.484375 30.078125 48.484375 
Q 22.859375 48.484375 18.828125 43.109375 
Q 14.796875 37.75 14.796875 27.984375 
Q 14.796875 18.265625 18.828125 12.890625 
Q 22.859375 7.515625 30.078125 7.515625 
Q 37.359375 7.515625 41.375 12.890625 
Q 45.40625 18.265625 45.40625 27.984375 
z
M 54.390625 6.78125 
Q 54.390625 -7.171875 48.1875 -13.984375 
Q 42 -20.796875 29.203125 -20.796875 
Q 24.46875 -20.796875 20.265625 -20.09375 
Q 16.0625 -19.390625 12.109375 -17.921875 
L 12.109375 -9.1875 
Q 16.0625 -11.328125 19.921875 -12.34375 
Q 23.78125 -13.375 27.78125 -13.375 
Q 36.625 -13.375 41.015625 -8.765625 
Q 45.40625 -4.15625 45.40625 5.171875 
L 45.40625 9.625 
Q 42.625 4.78125 38.28125 2.390625 
Q 33.9375 0 27.875 0 
Q 17.828125 0 11.671875 7.65625 
Q 5.515625 15.328125 5.515625 27.984375 
Q 5.515625 40.671875 11.671875 48.328125 
Q 17.828125 56 27.875 56 
Q 33.9375 56 38.28125 53.609375 
Q 42.625 51.21875 45.40625 46.390625 
L 45.40625 54.6875 
L 54.390625 54.6875 
z
" id="DejaVuSans-67"/>
      <path d="M 32.171875 -5.078125 
Q 28.375 -14.84375 24.75 -17.8125 
Q 21.140625 -20.796875 15.09375 -20.796875 
L 7.90625 -20.796875 
L 7.90625 -13.28125 
L 13.1875 -13.28125 
Q 16.890625 -13.28125 18.9375 -11.515625 
Q 21 -9.765625 23.484375 -3.21875 
L 25.09375 0.875 
L 2.984375 54.6875 
L 12.5 54.6875 
L 29.59375 11.921875 
L 46.6875 54.6875 
L 56.203125 54.6875 
z
" id="DejaVuSans-79"/>
      <path d="M 8.59375 75.984375 
L 29.296875 75.984375 
L 29.296875 69 
L 17.578125 69 
L 17.578125 -6.203125 
L 29.296875 -6.203125 
L 29.296875 -13.1875 
L 8.59375 -13.1875 
z
" id="DejaVuSans-5b"/>
      <path d="M 30.421875 75.984375 
L 30.421875 -13.1875 
L 9.71875 -13.1875 
L 9.71875 -6.203125 
L 21.390625 -6.203125 
L 21.390625 69 
L 9.71875 69 
L 9.71875 75.984375 
z
" id="DejaVuSans-5d"/>
     </defs>
     <g transform="translate(417.33885 204.108469)rotate(-90)scale(0.1 -0.1)">
      <use xlink:href="#DejaVuSans-45"/>
      <use x="63.183594" xlink:href="#DejaVuSans-6e"/>
      <use x="126.5625" xlink:href="#DejaVuSans-65"/>
      <use x="188.085938" xlink:href="#DejaVuSans-72"/>
      <use x="229.183594" xlink:href="#DejaVuSans-67"/>
      <use x="292.660156" xlink:href="#DejaVuSans-79"/>
      <use x="351.839844" xlink:href="#DejaVuSans-20"/>
      <use x="383.626953" xlink:href="#DejaVuSans-5b"/>
      <use x="422.640625" xlink:href="#DejaVuSans-65"/>
      <use x="484.164062" xlink:href="#DejaVuSans-56"/>
      <use x="552.572266" xlink:href="#DejaVuSans-5d"/>
     </g>
    </g>
   </g>
   <g id="patch_3">
    <path d="M 361.152 307.584 
L 361.152 306.5445 
L 361.152 42.5115 
L 361.152 41.472 
L 374.4576 41.472 
L 374.4576 42.5115 
L 374.4576 306.5445 
L 374.4576 307.584 
z
" style="fill:none;stroke:#000000;stroke-linejoin:miter;stroke-width:0.8;"/>
   </g>
  </g>
 </g>
 <defs>
  <clipPath id="p3f01f43b2c">
   <rect height="266.112" width="285.696" x="57.6" y="41.472"/>
  </clipPath>
  <clipPath id="p2ea5a83736">
   <rect height="266.112" width="13.3056" x="361.152" y="41.472"/>
  </clipPath>
 </defs>
</svg>
