<?xml version="1.0" encoding="utf-8" standalone="no"?>
<!DOCTYPE svg PUBLIC "-//W3C//DTD SVG 1.1//EN"
  "http://www.w3.org/Graphics/SVG/1.1/DTD/svg11.dtd">
<!-- Created with matplotlib (http://matplotlib.org/) -->
<svg height="345.6pt" version="1.1" viewBox="0 0 460.8 345.6" width="460.8pt" xmlns="http://www.w3.org/2000/svg" xmlns:xlink="http://www.w3.org/1999/xlink">
 <defs>
  <style type="text/css">
*{stroke-linecap:butt;stroke-linejoin:round;}
  </style>
 </defs>
 <g id="figure_1">
  <g id="patch_1">
   <path d="M 0 345.6 
L 460.8 345.6 
L 460.8 0 
L 0 0 
z
" style="fill:#ffffff;"/>
  </g>
  <g id="axes_1">
   <g id="CircleCollection_1">
    <path clip-path="url(#pd6b99fef73)" d="M 150.168639 116.256497 
C 151.967725 116.256497 153.693369 115.541712 154.965515 114.269566 
C 156.237662 112.997419 156.952447 111.271776 156.952447 109.472689 
C 156.952447 107.673602 156.237662 105.947959 154.965515 104.675812 
C 153.693369 103.403666 151.967725 102.688881 150.168639 102.688881 
C 148.369552 102.688881 146.643908 103.403666 145.371762 104.675812 
C 144.099615 105.947959 143.38483 107.673602 143.38483 109.472689 
C 143.38483 111.271776 144.099615 112.997419 145.371762 114.269566 
C 146.643908 115.541712 148.369552 116.256497 150.168639 116.256497 
z
" style="fill:#365d8d;"/>
    <path clip-path="url(#pd6b99fef73)" d="M 288.64713 153.46692 
C 290.44592 153.46692 292.171278 152.752253 293.443215 151.480316 
C 294.715152 150.208379 295.429819 148.48302 295.429819 146.68423 
C 295.429819 144.88544 294.715152 143.160081 293.443215 141.888144 
C 292.171278 140.616208 290.44592 139.901541 288.64713 139.901541 
C 286.848339 139.901541 285.122981 140.616208 283.851044 141.888144 
C 282.579107 143.160081 281.86444 144.88544 281.86444 146.68423 
C 281.86444 148.48302 282.579107 150.208379 283.851044 151.480316 
C 285.122981 152.752253 286.848339 153.46692 288.64713 153.46692 
z
" style="fill:#25838e;"/>
    <path clip-path="url(#pd6b99fef73)" d="M 148.089664 262.74311 
C 149.894849 262.74311 151.626342 262.025902 152.9028 260.749443 
C 154.179259 259.472985 154.896467 257.741492 154.896467 255.936307 
C 154.896467 254.131122 154.179259 252.399629 152.9028 251.12317 
C 151.626342 249.846712 149.894849 249.129504 148.089664 249.129504 
C 146.284479 249.129504 144.552986 249.846712 143.276527 251.12317 
C 142.000069 252.399629 141.282861 254.131122 141.282861 255.936307 
C 141.282861 257.741492 142.000069 259.472985 143.276527 260.749443 
C 144.552986 262.025902 146.284479 262.74311 148.089664 262.74311 
z
" style="fill:#3a538b;"/>
    <path clip-path="url(#pd6b99fef73)" d="M 101.139815 265.379295 
C 102.883528 265.379295 104.556058 264.686511 105.789049 263.453519 
C 107.022041 262.220528 107.714825 260.547998 107.714825 258.804285 
C 107.714825 257.060571 107.022041 255.388042 105.789049 254.15505 
C 104.556058 252.922059 102.883528 252.229274 101.139815 252.229274 
C 99.396101 252.229274 97.723571 252.922059 96.49058 254.15505 
C 95.257589 255.388042 94.564804 257.060571 94.564804 258.804285 
C 94.564804 260.547998 95.257589 262.220528 96.49058 263.453519 
C 97.723571 264.686511 99.396101 265.379295 101.139815 265.379295 
z
" style="fill:#482071;"/>
    <path clip-path="url(#pd6b99fef73)" d="M 167.496525 83.385553 
C 169.241518 83.385553 170.915276 82.69226 172.149173 81.458364 
C 173.383069 80.224467 174.076363 78.550709 174.076363 76.805716 
C 174.076363 75.060722 173.383069 73.386964 172.149173 72.153068 
C 170.915276 70.919171 169.241518 70.225878 167.496525 70.225878 
C 165.751531 70.225878 164.077773 70.919171 162.843877 72.153068 
C 161.60998 73.386964 160.916687 75.060722 160.916687 76.805716 
C 160.916687 78.550709 161.60998 80.224467 162.843877 81.458364 
C 164.077773 82.69226 165.751531 83.385553 167.496525 83.385553 
z
" style="fill:#1fa088;"/>
    <path clip-path="url(#pd6b99fef73)" d="M 206.421214 60.598976 
C 208.130258 60.598976 209.769534 59.919965 210.97801 58.711489 
C 212.186486 57.503013 212.865497 55.863737 212.865497 54.154693 
C 212.865497 52.44565 212.186486 50.806374 210.97801 49.597898 
C 209.769534 48.389421 208.130258 47.710411 206.421214 47.710411 
C 204.712171 47.710411 203.072895 48.389421 201.864419 49.597898 
C 200.655942 50.806374 199.976932 52.44565 199.976932 54.154693 
C 199.976932 55.863737 200.655942 57.503013 201.864419 58.711489 
C 203.072895 59.919965 204.712171 60.598976 206.421214 60.598976 
z
" style="fill:#2b758e;"/>
    <path clip-path="url(#pd6b99fef73)" d="M 258.872293 67.467607 
C 260.561314 67.467607 262.181384 66.796552 263.375703 65.602234 
C 264.570021 64.407916 265.241076 62.787846 265.241076 61.098825 
C 265.241076 59.409804 264.570021 57.789734 263.375703 56.595416 
C 262.181384 55.401098 260.561314 54.730043 258.872293 54.730043 
C 257.183273 54.730043 255.563202 55.401098 254.368884 56.595416 
C 253.174566 57.789734 252.503511 59.409804 252.503511 61.098825 
C 252.503511 62.787846 253.174566 64.407916 254.368884 65.602234 
C 255.563202 66.796552 257.183273 67.467607 258.872293 67.467607 
z
" style="fill:#21918c;"/>
    <path clip-path="url(#pd6b99fef73)" d="M 189.089084 145.980769 
C 190.93409 145.980769 192.703778 145.247741 194.008394 143.943124 
C 195.313011 142.638508 196.046039 140.86882 196.046039 139.023814 
C 196.046039 137.178808 195.313011 135.40912 194.008394 134.104503 
C 192.703778 132.799887 190.93409 132.066858 189.089084 132.066858 
C 187.244078 132.066858 185.47439 132.799887 184.169773 134.104503 
C 182.865157 135.40912 182.132128 137.178808 182.132128 139.023814 
C 182.132128 140.86882 182.865157 142.638508 184.169773 143.943124 
C 185.47439 145.247741 187.244078 145.980769 189.089084 145.980769 
z
" style="fill:#31678e;"/>
    <path clip-path="url(#pd6b99fef73)" d="M 240.128653 169.072058 
C 241.964479 169.072058 243.725362 168.342677 245.023488 167.044551 
C 246.321613 165.746426 247.050995 163.985543 247.050995 162.149716 
C 247.050995 160.31389 246.321613 158.553007 245.023488 157.254882 
C 243.725362 155.956756 241.964479 155.227375 240.128653 155.227375 
C 238.292826 155.227375 236.531943 155.956756 235.233818 157.254882 
C 233.935692 158.553007 233.206311 160.31389 233.206311 162.149716 
C 233.206311 163.985543 233.935692 165.746426 235.233818 167.044551 
C 236.531943 168.342677 238.292826 169.072058 240.128653 169.072058 
z
" style="fill:#481467;"/>
    <path clip-path="url(#pd6b99fef73)" d="M 167.1942 224.14767 
C 169.043885 224.14767 170.818061 223.412782 172.125987 222.104857 
C 173.433912 220.796932 174.1688 219.022755 174.1688 217.17307 
C 174.1688 215.323384 173.433912 213.549208 172.125987 212.241283 
C 170.818061 210.933357 169.043885 210.19847 167.1942 210.19847 
C 165.344514 210.19847 163.570338 210.933357 162.262412 212.241283 
C 160.954487 213.549208 160.219599 215.323384 160.219599 217.17307 
C 160.219599 219.022755 160.954487 220.796932 162.262412 222.104857 
C 163.570338 223.412782 165.344514 224.14767 167.1942 224.14767 
z
" style="fill:#440154;"/>
    <path clip-path="url(#pd6b99fef73)" d="M 73.362267 183.270841 
C 75.120873 183.270841 76.807687 182.57214 78.05121 181.328618 
C 79.294732 180.085095 79.993433 178.398281 79.993433 176.639675 
C 79.993433 174.881069 79.294732 173.194254 78.05121 171.950732 
C 76.807687 170.70721 75.120873 170.008508 73.362267 170.008508 
C 71.603661 170.008508 69.916846 170.70721 68.673324 171.950732 
C 67.429802 173.194254 66.7311 174.881069 66.7311 176.639675 
C 66.7311 178.398281 67.429802 180.085095 68.673324 181.328618 
C 69.916846 182.57214 71.603661 183.270841 73.362267 183.270841 
z
" style="fill:#21a585;"/>
    <path clip-path="url(#pd6b99fef73)" d="M 146.549464 180.216126 
C 148.402717 180.216126 150.180316 179.47982 151.490764 178.169372 
C 152.801212 176.858924 153.537517 175.081325 153.537517 173.228072 
C 153.537517 171.374818 152.801212 169.59722 151.490764 168.286772 
C 150.180316 166.976323 148.402717 166.240018 146.549464 166.240018 
C 144.69621 166.240018 142.918612 166.976323 141.608163 168.286772 
C 140.297715 169.59722 139.56141 171.374818 139.56141 173.228072 
C 139.56141 175.081325 140.297715 176.858924 141.608163 178.169372 
C 142.918612 179.47982 144.69621 180.216126 146.549464 180.216126 
z
" style="fill:#463480;"/>
    <path clip-path="url(#pd6b99fef73)" d="M 116.003896 301.254649 
C 117.686407 301.254649 119.300233 300.586181 120.489947 299.396466 
C 121.679662 298.206751 122.34813 296.592926 122.34813 294.910415 
C 122.34813 293.227905 121.679662 291.614079 120.489947 290.424364 
C 119.300233 289.23465 117.686407 288.566181 116.003896 288.566181 
C 114.321386 288.566181 112.70756 289.23465 111.517845 290.424364 
C 110.328131 291.614079 109.659662 293.227905 109.659662 294.910415 
C 109.659662 296.592926 110.328131 298.206751 111.517845 299.396466 
C 112.70756 300.586181 114.321386 301.254649 116.003896 301.254649 
z
" style="fill:#fde725;"/>
    <path clip-path="url(#pd6b99fef73)" d="M 108.313339 155.367807 
C 110.116744 155.367807 111.846528 154.651307 113.121728 153.376107 
C 114.396927 152.100908 115.113428 150.371123 115.113428 148.567718 
C 115.113428 146.764314 114.396927 145.034529 113.121728 143.759329 
C 111.846528 142.48413 110.116744 141.76763 108.313339 141.76763 
C 106.509934 141.76763 104.78015 142.48413 103.50495 143.759329 
C 102.22975 145.034529 101.51325 146.764314 101.51325 148.567718 
C 101.51325 150.371123 102.22975 152.100908 103.50495 153.376107 
C 104.78015 154.651307 106.509934 155.367807 108.313339 155.367807 
z
" style="fill:#33628d;"/>
    <path clip-path="url(#pd6b99fef73)" d="M 243.005621 255.679965 
C 244.790829 255.679965 246.50316 254.970694 247.765493 253.708362 
C 249.027825 252.446029 249.737096 250.733698 249.737096 248.94849 
C 249.737096 247.163282 249.027825 245.450951 247.765493 244.188619 
C 246.50316 242.926286 244.790829 242.217015 243.005621 242.217015 
C 241.220413 242.217015 239.508082 242.926286 238.24575 244.188619 
C 236.983417 245.450951 236.274146 247.163282 236.274146 248.94849 
C 236.274146 250.733698 236.983417 252.446029 238.24575 253.708362 
C 239.508082 254.970694 241.220413 255.679965 243.005621 255.679965 
z
" style="fill:#46085c;"/>
    <path clip-path="url(#pd6b99fef73)" d="M 293.09121 247.765564 
C 294.833355 247.765564 296.50438 247.073402 297.736262 245.84152 
C 298.968144 244.609638 299.660306 242.938613 299.660306 241.196468 
C 299.660306 239.454324 298.968144 237.783298 297.736262 236.551416 
C 296.50438 235.319534 294.833355 234.627372 293.09121 234.627372 
C 291.349066 234.627372 289.67804 235.319534 288.446158 236.551416 
C 287.214276 237.783298 286.522114 239.454324 286.522114 241.196468 
C 286.522114 242.938613 287.214276 244.609638 288.446158 245.84152 
C 289.67804 247.073402 291.349066 247.765564 293.09121 247.765564 
z
" style="fill:#25ac82;"/>
    <path clip-path="url(#pd6b99fef73)" d="M 329.764847 172.068663 
C 331.51178 172.068663 333.187398 171.374599 334.422666 170.139331 
C 335.657934 168.904063 336.351998 167.228445 336.351998 165.481512 
C 336.351998 163.734579 335.657934 162.058961 334.422666 160.823693 
C 333.187398 159.588425 331.51178 158.894361 329.764847 158.894361 
C 328.017915 158.894361 326.342297 159.588425 325.107028 160.823693 
C 323.87176 162.058961 323.177697 163.734579 323.177697 165.481512 
C 323.177697 167.228445 323.87176 168.904063 325.107028 170.139331 
C 326.342297 171.374599 328.017915 172.068663 329.764847 172.068663 
z
" style="fill:#2a788e;"/>
    <path clip-path="url(#pd6b99fef73)" d="M 317.988636 125.370031 
C 319.725146 125.370031 321.390767 124.680108 322.618665 123.45221 
C 323.846563 122.224312 324.536486 120.558691 324.536486 118.822181 
C 324.536486 117.085671 323.846563 115.42005 322.618665 114.192152 
C 321.390767 112.964254 319.725146 112.274331 317.988636 112.274331 
C 316.252126 112.274331 314.586505 112.964254 313.358607 114.192152 
C 312.130709 115.42005 311.440786 117.085671 311.440786 118.822181 
C 311.440786 120.558691 312.130709 122.224312 313.358607 123.45221 
C 314.586505 124.680108 316.252126 125.370031 317.988636 125.370031 
z
" style="fill:#287c8e;"/>
    <path clip-path="url(#pd6b99fef73)" d="M 225.840083 219.385274 
C 227.678988 219.385274 229.442823 218.654669 230.743126 217.354367 
C 232.043428 216.054065 232.774032 214.290229 232.774032 212.451324 
C 232.774032 210.612419 232.043428 208.848584 230.743126 207.548281 
C 229.442823 206.247979 227.678988 205.517375 225.840083 205.517375 
C 224.001178 205.517375 222.237342 206.247979 220.93704 207.548281 
C 219.636738 208.848584 218.906133 210.612419 218.906133 212.451324 
C 218.906133 214.290229 219.636738 216.054065 220.93704 217.354367 
C 222.237342 218.654669 224.001178 219.385274 225.840083 219.385274 
z
" style="fill:#2f6b8e;"/>
    <path clip-path="url(#pd6b99fef73)" d="M 169.15848 301.17018 
C 170.848243 301.17018 172.469025 300.49883 173.663867 299.303987 
C 174.85871 298.109145 175.53006 296.488363 175.53006 294.7986 
C 175.53006 293.108837 174.85871 291.488055 173.663867 290.293212 
C 172.469025 289.098369 170.848243 288.427019 169.15848 288.427019 
C 167.468717 288.427019 165.847935 289.098369 164.653092 290.293212 
C 163.458249 291.488055 162.7869 293.108837 162.7869 294.7986 
C 162.7869 296.488363 163.458249 298.109145 164.653092 299.303987 
C 165.847935 300.49883 167.468717 301.17018 169.15848 301.17018 
z
" style="fill:#cde11d;"/>
    <path clip-path="url(#pd6b99fef73)" d="M 328.975352 218.301014 
C 330.701642 218.301014 332.35746 217.615152 333.578131 216.394481 
C 334.798803 215.173809 335.484665 213.517991 335.484665 211.791701 
C 335.484665 210.065411 334.798803 208.409593 333.578131 207.188921 
C 332.35746 205.96825 330.701642 205.282387 328.975352 205.282387 
C 327.249061 205.282387 325.593243 205.96825 324.372572 207.188921 
C 323.1519 208.409593 322.466038 210.065411 322.466038 211.791701 
C 322.466038 213.517991 323.1519 215.173809 324.372572 216.394481 
C 325.593243 217.615152 327.249061 218.301014 328.975352 218.301014 
z
" style="fill:#1f9e89;"/>
    <path clip-path="url(#pd6b99fef73)" d="M 306.925429 85.651746 
C 308.618652 85.651746 310.242754 84.979021 311.440044 83.781731 
C 312.637334 82.584441 313.310059 80.96034 313.310059 79.267116 
C 313.310059 77.573892 312.637334 75.94979 311.440044 74.7525 
C 310.242754 73.55521 308.618652 72.882485 306.925429 72.882485 
C 305.232205 72.882485 303.608103 73.55521 302.410813 74.7525 
C 301.213523 75.94979 300.540798 77.573892 300.540798 79.267116 
C 300.540798 80.96034 301.213523 82.584441 302.410813 83.781731 
C 303.608103 84.979021 305.232205 85.651746 306.925429 85.651746 
z
" style="fill:#228b8d;"/>
    <path clip-path="url(#pd6b99fef73)" d="M 71.130032 225.579747 
C 72.873375 225.579747 74.545549 224.88711 75.778278 223.654381 
C 77.011007 222.421652 77.703645 220.749478 77.703645 219.006135 
C 77.703645 217.262793 77.011007 215.590619 75.778278 214.357889 
C 74.545549 213.12516 72.873375 212.432523 71.130032 212.432523 
C 69.38669 212.432523 67.714516 213.12516 66.481787 214.357889 
C 65.249058 215.590619 64.55642 217.262793 64.55642 219.006135 
C 64.55642 220.749478 65.249058 222.421652 66.481787 223.654381 
C 67.714516 224.88711 69.38669 225.579747 71.130032 225.579747 
z
" style="fill:#27ad81;"/>
    <path clip-path="url(#pd6b99fef73)" d="M 195.00066 284.159366 
C 196.766969 284.159366 198.461173 283.457604 199.710142 282.208635 
C 200.959111 280.959666 201.660873 279.265463 201.660873 277.499154 
C 201.660873 275.732845 200.959111 274.038641 199.710142 272.789672 
C 198.461173 271.540703 196.766969 270.838941 195.00066 270.838941 
C 193.234351 270.838941 191.540148 271.540703 190.291179 272.789672 
C 189.04221 274.038641 188.340448 275.732845 188.340448 277.499154 
C 188.340448 279.265463 189.04221 280.959666 190.291179 282.208635 
C 191.540148 283.457604 193.234351 284.159366 195.00066 284.159366 
z
" style="fill:#3f4889;"/>
   </g>
   <g id="text_1">
    <!-- Structure #287, $E_N$=-182.80eV, ΔE=-0.44eV -->
    <defs>
     <path d="M 53.515625 70.515625 
L 53.515625 60.890625 
Q 47.90625 63.578125 42.921875 64.890625 
Q 37.9375 66.21875 33.296875 66.21875 
Q 25.25 66.21875 20.875 63.09375 
Q 16.5 59.96875 16.5 54.203125 
Q 16.5 49.359375 19.40625 46.890625 
Q 22.3125 44.4375 30.421875 42.921875 
L 36.375 41.703125 
Q 47.40625 39.59375 52.65625 34.296875 
Q 57.90625 29 57.90625 20.125 
Q 57.90625 9.515625 50.796875 4.046875 
Q 43.703125 -1.421875 29.984375 -1.421875 
Q 24.8125 -1.421875 18.96875 -0.25 
Q 13.140625 0.921875 6.890625 3.21875 
L 6.890625 13.375 
Q 12.890625 10.015625 18.65625 8.296875 
Q 24.421875 6.59375 29.984375 6.59375 
Q 38.421875 6.59375 43.015625 9.90625 
Q 47.609375 13.234375 47.609375 19.390625 
Q 47.609375 24.75 44.3125 27.78125 
Q 41.015625 30.8125 33.5 32.328125 
L 27.484375 33.5 
Q 16.453125 35.6875 11.515625 40.375 
Q 6.59375 45.0625 6.59375 53.421875 
Q 6.59375 63.09375 13.40625 68.65625 
Q 20.21875 74.21875 32.171875 74.21875 
Q 37.3125 74.21875 42.625 73.28125 
Q 47.953125 72.359375 53.515625 70.515625 
z
" id="DejaVuSans-53"/>
     <path d="M 18.3125 70.21875 
L 18.3125 54.6875 
L 36.8125 54.6875 
L 36.8125 47.703125 
L 18.3125 47.703125 
L 18.3125 18.015625 
Q 18.3125 11.328125 20.140625 9.421875 
Q 21.96875 7.515625 27.59375 7.515625 
L 36.8125 7.515625 
L 36.8125 0 
L 27.59375 0 
Q 17.1875 0 13.234375 3.875 
Q 9.28125 7.765625 9.28125 18.015625 
L 9.28125 47.703125 
L 2.6875 47.703125 
L 2.6875 54.6875 
L 9.28125 54.6875 
L 9.28125 70.21875 
z
" id="DejaVuSans-74"/>
     <path d="M 41.109375 46.296875 
Q 39.59375 47.171875 37.8125 47.578125 
Q 36.03125 48 33.890625 48 
Q 26.265625 48 22.1875 43.046875 
Q 18.109375 38.09375 18.109375 28.8125 
L 18.109375 0 
L 9.078125 0 
L 9.078125 54.6875 
L 18.109375 54.6875 
L 18.109375 46.1875 
Q 20.953125 51.171875 25.484375 53.578125 
Q 30.03125 56 36.53125 56 
Q 37.453125 56 38.578125 55.875 
Q 39.703125 55.765625 41.0625 55.515625 
z
" id="DejaVuSans-72"/>
     <path d="M 8.5 21.578125 
L 8.5 54.6875 
L 17.484375 54.6875 
L 17.484375 21.921875 
Q 17.484375 14.15625 20.5 10.265625 
Q 23.53125 6.390625 29.59375 6.390625 
Q 36.859375 6.390625 41.078125 11.03125 
Q 45.3125 15.671875 45.3125 23.6875 
L 45.3125 54.6875 
L 54.296875 54.6875 
L 54.296875 0 
L 45.3125 0 
L 45.3125 8.40625 
Q 42.046875 3.421875 37.71875 1 
Q 33.40625 -1.421875 27.6875 -1.421875 
Q 18.265625 -1.421875 13.375 4.4375 
Q 8.5 10.296875 8.5 21.578125 
z
M 31.109375 56 
z
" id="DejaVuSans-75"/>
     <path d="M 48.78125 52.59375 
L 48.78125 44.1875 
Q 44.96875 46.296875 41.140625 47.34375 
Q 37.3125 48.390625 33.40625 48.390625 
Q 24.65625 48.390625 19.8125 42.84375 
Q 14.984375 37.3125 14.984375 27.296875 
Q 14.984375 17.28125 19.8125 11.734375 
Q 24.65625 6.203125 33.40625 6.203125 
Q 37.3125 6.203125 41.140625 7.25 
Q 44.96875 8.296875 48.78125 10.40625 
L 48.78125 2.09375 
Q 45.015625 0.34375 40.984375 -0.53125 
Q 36.96875 -1.421875 32.421875 -1.421875 
Q 20.0625 -1.421875 12.78125 6.34375 
Q 5.515625 14.109375 5.515625 27.296875 
Q 5.515625 40.671875 12.859375 48.328125 
Q 20.21875 56 33.015625 56 
Q 37.15625 56 41.109375 55.140625 
Q 45.0625 54.296875 48.78125 52.59375 
z
" id="DejaVuSans-63"/>
     <path d="M 56.203125 29.59375 
L 56.203125 25.203125 
L 14.890625 25.203125 
Q 15.484375 15.921875 20.484375 11.0625 
Q 25.484375 6.203125 34.421875 6.203125 
Q 39.59375 6.203125 44.453125 7.46875 
Q 49.3125 8.734375 54.109375 11.28125 
L 54.109375 2.78125 
Q 49.265625 0.734375 44.1875 -0.34375 
Q 39.109375 -1.421875 33.890625 -1.421875 
Q 20.796875 -1.421875 13.15625 6.1875 
Q 5.515625 13.8125 5.515625 26.8125 
Q 5.515625 40.234375 12.765625 48.109375 
Q 20.015625 56 32.328125 56 
Q 43.359375 56 49.78125 48.890625 
Q 56.203125 41.796875 56.203125 29.59375 
z
M 47.21875 32.234375 
Q 47.125 39.59375 43.09375 43.984375 
Q 39.0625 48.390625 32.421875 48.390625 
Q 24.90625 48.390625 20.390625 44.140625 
Q 15.875 39.890625 15.1875 32.171875 
z
" id="DejaVuSans-65"/>
     <path id="DejaVuSans-20"/>
     <path d="M 51.125 44 
L 36.921875 44 
L 32.8125 27.6875 
L 47.125 27.6875 
z
M 43.796875 71.78125 
L 38.71875 51.515625 
L 52.984375 51.515625 
L 58.109375 71.78125 
L 65.921875 71.78125 
L 60.890625 51.515625 
L 76.125 51.515625 
L 76.125 44 
L 58.984375 44 
L 54.984375 27.6875 
L 70.515625 27.6875 
L 70.515625 20.21875 
L 53.078125 20.21875 
L 48 0 
L 40.1875 0 
L 45.21875 20.21875 
L 30.90625 20.21875 
L 25.875 0 
L 18.015625 0 
L 23.09375 20.21875 
L 7.71875 20.21875 
L 7.71875 27.6875 
L 24.90625 27.6875 
L 29 44 
L 13.28125 44 
L 13.28125 51.515625 
L 30.90625 51.515625 
L 35.890625 71.78125 
z
" id="DejaVuSans-23"/>
     <path d="M 19.1875 8.296875 
L 53.609375 8.296875 
L 53.609375 0 
L 7.328125 0 
L 7.328125 8.296875 
Q 12.9375 14.109375 22.625 23.890625 
Q 32.328125 33.6875 34.8125 36.53125 
Q 39.546875 41.84375 41.421875 45.53125 
Q 43.3125 49.21875 43.3125 52.78125 
Q 43.3125 58.59375 39.234375 62.25 
Q 35.15625 65.921875 28.609375 65.921875 
Q 23.96875 65.921875 18.8125 64.3125 
Q 13.671875 62.703125 7.8125 59.421875 
L 7.8125 69.390625 
Q 13.765625 71.78125 18.9375 73 
Q 24.125 74.21875 28.421875 74.21875 
Q 39.75 74.21875 46.484375 68.546875 
Q 53.21875 62.890625 53.21875 53.421875 
Q 53.21875 48.921875 51.53125 44.890625 
Q 49.859375 40.875 45.40625 35.40625 
Q 44.1875 33.984375 37.640625 27.21875 
Q 31.109375 20.453125 19.1875 8.296875 
z
" id="DejaVuSans-32"/>
     <path d="M 31.78125 34.625 
Q 24.75 34.625 20.71875 30.859375 
Q 16.703125 27.09375 16.703125 20.515625 
Q 16.703125 13.921875 20.71875 10.15625 
Q 24.75 6.390625 31.78125 6.390625 
Q 38.8125 6.390625 42.859375 10.171875 
Q 46.921875 13.96875 46.921875 20.515625 
Q 46.921875 27.09375 42.890625 30.859375 
Q 38.875 34.625 31.78125 34.625 
z
M 21.921875 38.8125 
Q 15.578125 40.375 12.03125 44.71875 
Q 8.5 49.078125 8.5 55.328125 
Q 8.5 64.0625 14.71875 69.140625 
Q 20.953125 74.21875 31.78125 74.21875 
Q 42.671875 74.21875 48.875 69.140625 
Q 55.078125 64.0625 55.078125 55.328125 
Q 55.078125 49.078125 51.53125 44.71875 
Q 48 40.375 41.703125 38.8125 
Q 48.828125 37.15625 52.796875 32.3125 
Q 56.78125 27.484375 56.78125 20.515625 
Q 56.78125 9.90625 50.3125 4.234375 
Q 43.84375 -1.421875 31.78125 -1.421875 
Q 19.734375 -1.421875 13.25 4.234375 
Q 6.78125 9.90625 6.78125 20.515625 
Q 6.78125 27.484375 10.78125 32.3125 
Q 14.796875 37.15625 21.921875 38.8125 
z
M 18.3125 54.390625 
Q 18.3125 48.734375 21.84375 45.5625 
Q 25.390625 42.390625 31.78125 42.390625 
Q 38.140625 42.390625 41.71875 45.5625 
Q 45.3125 48.734375 45.3125 54.390625 
Q 45.3125 60.0625 41.71875 63.234375 
Q 38.140625 66.40625 31.78125 66.40625 
Q 25.390625 66.40625 21.84375 63.234375 
Q 18.3125 60.0625 18.3125 54.390625 
z
" id="DejaVuSans-38"/>
     <path d="M 8.203125 72.90625 
L 55.078125 72.90625 
L 55.078125 68.703125 
L 28.609375 0 
L 18.3125 0 
L 43.21875 64.59375 
L 8.203125 64.59375 
z
" id="DejaVuSans-37"/>
     <path d="M 11.71875 12.40625 
L 22.015625 12.40625 
L 22.015625 4 
L 14.015625 -11.625 
L 7.71875 -11.625 
L 11.71875 4 
z
" id="DejaVuSans-2c"/>
     <path d="M 16.890625 72.90625 
L 62.984375 72.90625 
L 61.375 64.59375 
L 25.09375 64.59375 
L 20.90625 43.015625 
L 55.71875 43.015625 
L 54.109375 34.71875 
L 19.28125 34.71875 
L 14.203125 8.296875 
L 51.3125 8.296875 
L 49.703125 0 
L 2.6875 0 
z
" id="DejaVuSans-Oblique-45"/>
     <path d="M 16.890625 72.90625 
L 30.171875 72.90625 
L 50.296875 10.40625 
L 62.5 72.90625 
L 72.125 72.90625 
L 57.90625 0 
L 44.578125 0 
L 24.515625 62.890625 
L 12.3125 0 
L 2.6875 0 
z
" id="DejaVuSans-Oblique-4e"/>
     <path d="M 10.59375 45.40625 
L 73.1875 45.40625 
L 73.1875 37.203125 
L 10.59375 37.203125 
z
M 10.59375 25.484375 
L 73.1875 25.484375 
L 73.1875 17.1875 
L 10.59375 17.1875 
z
" id="DejaVuSans-3d"/>
     <path d="M 4.890625 31.390625 
L 31.203125 31.390625 
L 31.203125 23.390625 
L 4.890625 23.390625 
z
" id="DejaVuSans-2d"/>
     <path d="M 12.40625 8.296875 
L 28.515625 8.296875 
L 28.515625 63.921875 
L 10.984375 60.40625 
L 10.984375 69.390625 
L 28.421875 72.90625 
L 38.28125 72.90625 
L 38.28125 8.296875 
L 54.390625 8.296875 
L 54.390625 0 
L 12.40625 0 
z
" id="DejaVuSans-31"/>
     <path d="M 10.6875 12.40625 
L 21 12.40625 
L 21 0 
L 10.6875 0 
z
" id="DejaVuSans-2e"/>
     <path d="M 31.78125 66.40625 
Q 24.171875 66.40625 20.328125 58.90625 
Q 16.5 51.421875 16.5 36.375 
Q 16.5 21.390625 20.328125 13.890625 
Q 24.171875 6.390625 31.78125 6.390625 
Q 39.453125 6.390625 43.28125 13.890625 
Q 47.125 21.390625 47.125 36.375 
Q 47.125 51.421875 43.28125 58.90625 
Q 39.453125 66.40625 31.78125 66.40625 
z
M 31.78125 74.21875 
Q 44.046875 74.21875 50.515625 64.515625 
Q 56.984375 54.828125 56.984375 36.375 
Q 56.984375 17.96875 50.515625 8.265625 
Q 44.046875 -1.421875 31.78125 -1.421875 
Q 19.53125 -1.421875 13.0625 8.265625 
Q 6.59375 17.96875 6.59375 36.375 
Q 6.59375 54.828125 13.0625 64.515625 
Q 19.53125 74.21875 31.78125 74.21875 
z
" id="DejaVuSans-30"/>
     <path d="M 28.609375 0 
L 0.78125 72.90625 
L 11.078125 72.90625 
L 34.1875 11.53125 
L 57.328125 72.90625 
L 67.578125 72.90625 
L 39.796875 0 
z
" id="DejaVuSans-56"/>
     <path d="M 34.1875 63.1875 
L 14.15625 8.203125 
L 54.25 8.203125 
z
M 0.78125 0 
L 28.609375 72.90625 
L 39.796875 72.90625 
L 67.578125 0 
z
" id="DejaVuSans-394"/>
     <path d="M 9.8125 72.90625 
L 55.90625 72.90625 
L 55.90625 64.59375 
L 19.671875 64.59375 
L 19.671875 43.015625 
L 54.390625 43.015625 
L 54.390625 34.71875 
L 19.671875 34.71875 
L 19.671875 8.296875 
L 56.78125 8.296875 
L 56.78125 0 
L 9.8125 0 
z
" id="DejaVuSans-45"/>
     <path d="M 37.796875 64.3125 
L 12.890625 25.390625 
L 37.796875 25.390625 
z
M 35.203125 72.90625 
L 47.609375 72.90625 
L 47.609375 25.390625 
L 58.015625 25.390625 
L 58.015625 17.1875 
L 47.609375 17.1875 
L 47.609375 0 
L 37.796875 0 
L 37.796875 17.1875 
L 4.890625 17.1875 
L 4.890625 26.703125 
z
" id="DejaVuSans-34"/>
    </defs>
    <g transform="translate(67.068 35.472)scale(0.12 -0.12)">
     <use transform="translate(0 0.78125)" xlink:href="#DejaVuSans-53"/>
     <use transform="translate(63.476562 0.78125)" xlink:href="#DejaVuSans-74"/>
     <use transform="translate(102.685547 0.78125)" xlink:href="#DejaVuSans-72"/>
     <use transform="translate(143.798828 0.78125)" xlink:href="#DejaVuSans-75"/>
     <use transform="translate(207.177734 0.78125)" xlink:href="#DejaVuSans-63"/>
     <use transform="translate(262.158203 0.78125)" xlink:href="#DejaVuSans-74"/>
     <use transform="translate(301.367188 0.78125)" xlink:href="#DejaVuSans-75"/>
     <use transform="translate(364.746094 0.78125)" xlink:href="#DejaVuSans-72"/>
     <use transform="translate(405.859375 0.78125)" xlink:href="#DejaVuSans-65"/>
     <use transform="translate(467.382812 0.78125)" xlink:href="#DejaVuSans-20"/>
     <use transform="translate(499.169922 0.78125)" xlink:href="#DejaVuSans-23"/>
     <use transform="translate(582.958984 0.78125)" xlink:href="#DejaVuSans-32"/>
     <use transform="translate(646.582031 0.78125)" xlink:href="#DejaVuSans-38"/>
     <use transform="translate(710.205078 0.78125)" xlink:href="#DejaVuSans-37"/>
     <use transform="translate(773.828125 0.78125)" xlink:href="#DejaVuSans-2c"/>
     <use transform="translate(805.615234 0.78125)" xlink:href="#DejaVuSans-20"/>
     <use transform="translate(837.402344 0.78125)" xlink:href="#DejaVuSans-Oblique-45"/>
     <use transform="translate(900.585938 -15.625)scale(0.7)" xlink:href="#DejaVuSans-Oblique-4e"/>
     <use transform="translate(955.683594 0.78125)" xlink:href="#DejaVuSans-3d"/>
     <use transform="translate(1039.472656 0.78125)" xlink:href="#DejaVuSans-2d"/>
     <use transform="translate(1075.556641 0.78125)" xlink:href="#DejaVuSans-31"/>
     <use transform="translate(1139.179688 0.78125)" xlink:href="#DejaVuSans-38"/>
     <use transform="translate(1202.802734 0.78125)" xlink:href="#DejaVuSans-32"/>
     <use transform="translate(1266.425781 0.78125)" xlink:href="#DejaVuSans-2e"/>
     <use transform="translate(1298.181641 0.78125)" xlink:href="#DejaVuSans-38"/>
     <use transform="translate(1361.804688 0.78125)" xlink:href="#DejaVuSans-30"/>
     <use transform="translate(1425.427734 0.78125)" xlink:href="#DejaVuSans-65"/>
     <use transform="translate(1486.951172 0.78125)" xlink:href="#DejaVuSans-56"/>
     <use transform="translate(1555.359375 0.78125)" xlink:href="#DejaVuSans-2c"/>
     <use transform="translate(1587.146484 0.78125)" xlink:href="#DejaVuSans-20"/>
     <use transform="translate(1618.933594 0.78125)" xlink:href="#DejaVuSans-394"/>
     <use transform="translate(1687.341797 0.78125)" xlink:href="#DejaVuSans-45"/>
     <use transform="translate(1750.525391 0.78125)" xlink:href="#DejaVuSans-3d"/>
     <use transform="translate(1834.314453 0.78125)" xlink:href="#DejaVuSans-2d"/>
     <use transform="translate(1870.398438 0.78125)" xlink:href="#DejaVuSans-30"/>
     <use transform="translate(1934.021484 0.78125)" xlink:href="#DejaVuSans-2e"/>
     <use transform="translate(1965.808594 0.78125)" xlink:href="#DejaVuSans-34"/>
     <use transform="translate(2029.431641 0.78125)" xlink:href="#DejaVuSans-34"/>
     <use transform="translate(2093.054688 0.78125)" xlink:href="#DejaVuSans-65"/>
     <use transform="translate(2154.578125 0.78125)" xlink:href="#DejaVuSans-56"/>
    </g>
   </g>
  </g>
  <g id="axes_2">
   <g id="patch_2">
    <path clip-path="url(#p0a1cc12051)" d="M 361.152 307.584 
L 361.152 306.5445 
L 361.152 42.5115 
L 361.152 41.472 
L 374.4576 41.472 
L 374.4576 42.5115 
L 374.4576 306.5445 
L 374.4576 307.584 
z
" style="fill:#ffffff;stroke:#ffffff;stroke-linejoin:miter;stroke-width:0.01;"/>
   </g>
   <image height="265.68" id="imagec4b65dd4e6" transform="scale(1 -1)translate(0 -265.68)" width="12.96" x="361.44" xlink:href="data:image/png;base64,
iVBORw0KGgoAAAANSUhEUgAAABIAAAFxCAYAAAB+2fgXAAAABHNCSVQICAgIfAhkiAAAAeVJREFUeJztncmNw0AQA2ckheYQNv9QLIfQ8ygsCgQ7AEI8+jAs2Puz/94F1LP2ReCsZ18bAWIeZ5XaGRBE7VnbptG+KI101FYyNSiQG2oRITXKNaX9uclOdi2XWjftVE32CZCO2ou5Bj1TcCBr/1zB9ge7Fq0Rg2NM9pvbtG+ua1QgsRYhDy0ISEiNc40BEibbSI0Coj5CBGtkpFbXJiAjNZlrwhuSOv2M1DjXbEdEciBt1JSDDQKKpmZr2rr2j0DBGpXaWEJq3bQzEPIS26r9J+Wzv9Tm8o3aajRXqc3VUXsApKNWjeZq0x4ABVNbm7lrszVigDqP5vIl2+eaT2yfRkL7g+dRcNPqjohkjaCvRVBq0H2U3LQrOJCx9kdTg4B8oxZzzTdqdYHEngjUCAPyUctN9sVRq2sTECW2UKNLd2jVtRmo1A6AhMmWaSRcR8nUdIHUuVb75zJS218EyEitro1At69pIdeSk30Lkw0FktNImGyZRhy1O5galmxd03LUsHWk06jUZiCq+5Wb1kZNN4+wJxJuWt8RAW5am2sYNZ9rYCBzZ3buPKJ2P5Yj4Toy3keyIyJbIxs1rml1byCA84gpch5RQNB7Q0qNMGq2Hy4BXdNR41yz/cEEJfZzUz96r9PoB0okjeQ8y9TkAAAAAElFTkSuQmCC" y="-41.76"/>
   <g id="matplotlib.axis_1"/>
   <g id="matplotlib.axis_2">
    <g id="ytick_1">
     <g id="line2d_1">
      <defs>
       <path d="M 0 0 
L 3.5 0 
" id="m5841db3bea" style="stroke:#000000;stroke-width:0.8;"/>
      </defs>
      <g>
       <use style="stroke:#000000;stroke-width:0.8;" x="374.4576" xlink:href="#m5841db3bea" y="301.050651"/>
      </g>
     </g>
     <g id="text_2">
      <!-- −8.5 -->
      <defs>
       <path d="M 10.59375 35.5 
L 73.1875 35.5 
L 73.1875 27.203125 
L 10.59375 27.203125 
z
" id="DejaVuSans-2212"/>
       <path d="M 10.796875 72.90625 
L 49.515625 72.90625 
L 49.515625 64.59375 
L 19.828125 64.59375 
L 19.828125 46.734375 
Q 21.96875 47.46875 24.109375 47.828125 
Q 26.265625 48.1875 28.421875 48.1875 
Q 40.625 48.1875 47.75 41.5 
Q 54.890625 34.8125 54.890625 23.390625 
Q 54.890625 11.625 47.5625 5.09375 
Q 40.234375 -1.421875 26.90625 -1.421875 
Q 22.3125 -1.421875 17.546875 -0.640625 
Q 12.796875 0.140625 7.71875 1.703125 
L 7.71875 11.625 
Q 12.109375 9.234375 16.796875 8.0625 
Q 21.484375 6.890625 26.703125 6.890625 
Q 35.15625 6.890625 40.078125 11.328125 
Q 45.015625 15.765625 45.015625 23.390625 
Q 45.015625 31 40.078125 35.4375 
Q 35.15625 39.890625 26.703125 39.890625 
Q 22.75 39.890625 18.8125 39.015625 
Q 14.890625 38.140625 10.796875 36.28125 
z
" id="DejaVuSans-35"/>
      </defs>
      <g transform="translate(381.4576 304.84987)scale(0.1 -0.1)">
       <use xlink:href="#DejaVuSans-2212"/>
       <use x="83.789062" xlink:href="#DejaVuSans-38"/>
       <use x="147.412109" xlink:href="#DejaVuSans-2e"/>
       <use x="179.199219" xlink:href="#DejaVuSans-35"/>
      </g>
     </g>
    </g>
    <g id="ytick_2">
     <g id="line2d_2">
      <g>
       <use style="stroke:#000000;stroke-width:0.8;" x="374.4576" xlink:href="#m5841db3bea" y="244.720889"/>
      </g>
     </g>
     <g id="text_3">
      <!-- −8.0 -->
      <g transform="translate(381.4576 248.520108)scale(0.1 -0.1)">
       <use xlink:href="#DejaVuSans-2212"/>
       <use x="83.789062" xlink:href="#DejaVuSans-38"/>
       <use x="147.412109" xlink:href="#DejaVuSans-2e"/>
       <use x="179.199219" xlink:href="#DejaVuSans-30"/>
      </g>
     </g>
    </g>
    <g id="ytick_3">
     <g id="line2d_3">
      <g>
       <use style="stroke:#000000;stroke-width:0.8;" x="374.4576" xlink:href="#m5841db3bea" y="188.391128"/>
      </g>
     </g>
     <g id="text_4">
      <!-- −7.5 -->
      <g transform="translate(381.4576 192.190346)scale(0.1 -0.1)">
       <use xlink:href="#DejaVuSans-2212"/>
       <use x="83.789062" xlink:href="#DejaVuSans-37"/>
       <use x="147.412109" xlink:href="#DejaVuSans-2e"/>
       <use x="179.199219" xlink:href="#DejaVuSans-35"/>
      </g>
     </g>
    </g>
    <g id="ytick_4">
     <g id="line2d_4">
      <g>
       <use style="stroke:#000000;stroke-width:0.8;" x="374.4576" xlink:href="#m5841db3bea" y="132.061366"/>
      </g>
     </g>
     <g id="text_5">
      <!-- −7.0 -->
      <g transform="translate(381.4576 135.860585)scale(0.1 -0.1)">
       <use xlink:href="#DejaVuSans-2212"/>
       <use x="83.789062" xlink:href="#DejaVuSans-37"/>
       <use x="147.412109" xlink:href="#DejaVuSans-2e"/>
       <use x="179.199219" xlink:href="#DejaVuSans-30"/>
      </g>
     </g>
    </g>
    <g id="ytick_5">
     <g id="line2d_5">
      <g>
       <use style="stroke:#000000;stroke-width:0.8;" x="374.4576" xlink:href="#m5841db3bea" y="75.731604"/>
      </g>
     </g>
     <g id="text_6">
      <!-- −6.5 -->
      <defs>
       <path d="M 33.015625 40.375 
Q 26.375 40.375 22.484375 35.828125 
Q 18.609375 31.296875 18.609375 23.390625 
Q 18.609375 15.53125 22.484375 10.953125 
Q 26.375 6.390625 33.015625 6.390625 
Q 39.65625 6.390625 43.53125 10.953125 
Q 47.40625 15.53125 47.40625 23.390625 
Q 47.40625 31.296875 43.53125 35.828125 
Q 39.65625 40.375 33.015625 40.375 
z
M 52.59375 71.296875 
L 52.59375 62.3125 
Q 48.875 64.0625 45.09375 64.984375 
Q 41.3125 65.921875 37.59375 65.921875 
Q 27.828125 65.921875 22.671875 59.328125 
Q 17.53125 52.734375 16.796875 39.40625 
Q 19.671875 43.65625 24.015625 45.921875 
Q 28.375 48.1875 33.59375 48.1875 
Q 44.578125 48.1875 50.953125 41.515625 
Q 57.328125 34.859375 57.328125 23.390625 
Q 57.328125 12.15625 50.6875 5.359375 
Q 44.046875 -1.421875 33.015625 -1.421875 
Q 20.359375 -1.421875 13.671875 8.265625 
Q 6.984375 17.96875 6.984375 36.375 
Q 6.984375 53.65625 15.1875 63.9375 
Q 23.390625 74.21875 37.203125 74.21875 
Q 40.921875 74.21875 44.703125 73.484375 
Q 48.484375 72.75 52.59375 71.296875 
z
" id="DejaVuSans-36"/>
      </defs>
      <g transform="translate(381.4576 79.530823)scale(0.1 -0.1)">
       <use xlink:href="#DejaVuSans-2212"/>
       <use x="83.789062" xlink:href="#DejaVuSans-36"/>
       <use x="147.412109" xlink:href="#DejaVuSans-2e"/>
       <use x="179.199219" xlink:href="#DejaVuSans-35"/>
      </g>
     </g>
    </g>
    <g id="text_7">
     <!-- Energy [eV] -->
     <defs>
      <path d="M 54.890625 33.015625 
L 54.890625 0 
L 45.90625 0 
L 45.90625 32.71875 
Q 45.90625 40.484375 42.875 44.328125 
Q 39.84375 48.1875 33.796875 48.1875 
Q 26.515625 48.1875 22.3125 43.546875 
Q 18.109375 38.921875 18.109375 30.90625 
L 18.109375 0 
L 9.078125 0 
L 9.078125 54.6875 
L 18.109375 54.6875 
L 18.109375 46.1875 
Q 21.34375 51.125 25.703125 53.5625 
Q 30.078125 56 35.796875 56 
Q 45.21875 56 50.046875 50.171875 
Q 54.890625 44.34375 54.890625 33.015625 
z
" id="DejaVuSans-6e"/>
      <path d="M 45.40625 27.984375 
Q 45.40625 37.75 41.375 43.109375 
Q 37.359375 48.484375 30.078125 48.484375 
Q 22.859375 48.484375 18.828125 43.109375 
Q 14.796875 37.75 14.796875 27.984375 
Q 14.796875 18.265625 18.828125 12.890625 
Q 22.859375 7.515625 30.078125 7.515625 
Q 37.359375 7.515625 41.375 12.890625 
Q 45.40625 18.265625 45.40625 27.984375 
z
M 54.390625 6.78125 
Q 54.390625 -7.171875 48.1875 -13.984375 
Q 42 -20.796875 29.203125 -20.796875 
Q 24.46875 -20.796875 20.265625 -20.09375 
Q 16.0625 -19.390625 12.109375 -17.921875 
L 12.109375 -9.1875 
Q 16.0625 -11.328125 19.921875 -12.34375 
Q 23.78125 -13.375 27.78125 -13.375 
Q 36.625 -13.375 41.015625 -8.765625 
Q 45.40625 -4.15625 45.40625 5.171875 
L 45.40625 9.625 
Q 42.625 4.78125 38.28125 2.390625 
Q 33.9375 0 27.875 0 
Q 17.828125 0 11.671875 7.65625 
Q 5.515625 15.328125 5.515625 27.984375 
Q 5.515625 40.671875 11.671875 48.328125 
Q 17.828125 56 27.875 56 
Q 33.9375 56 38.28125 53.609375 
Q 42.625 51.21875 45.40625 46.390625 
L 45.40625 54.6875 
L 54.390625 54.6875 
z
" id="DejaVuSans-67"/>
      <path d="M 32.171875 -5.078125 
Q 28.375 -14.84375 24.75 -17.8125 
Q 21.140625 -20.796875 15.09375 -20.796875 
L 7.90625 -20.796875 
L 7.90625 -13.28125 
L 13.1875 -13.28125 
Q 16.890625 -13.28125 18.9375 -11.515625 
Q 21 -9.765625 23.484375 -3.21875 
L 25.09375 0.875 
L 2.984375 54.6875 
L 12.5 54.6875 
L 29.59375 11.921875 
L 46.6875 54.6875 
L 56.203125 54.6875 
z
" id="DejaVuSans-79"/>
      <path d="M 8.59375 75.984375 
L 29.296875 75.984375 
L 29.296875 69 
L 17.578125 69 
L 17.578125 -6.203125 
L 29.296875 -6.203125 
L 29.296875 -13.1875 
L 8.59375 -13.1875 
z
" id="DejaVuSans-5b"/>
      <path d="M 30.421875 75.984375 
L 30.421875 -13.1875 
L 9.71875 -13.1875 
L 9.71875 -6.203125 
L 21.390625 -6.203125 
L 21.390625 69 
L 9.71875 69 
L 9.71875 75.984375 
z
" id="DejaVuSans-5d"/>
     </defs>
     <g transform="translate(417.33885 204.108469)rotate(-90)scale(0.1 -0.1)">
      <use xlink:href="#DejaVuSans-45"/>
      <use x="63.183594" xlink:href="#DejaVuSans-6e"/>
      <use x="126.5625" xlink:href="#DejaVuSans-65"/>
      <use x="188.085938" xlink:href="#DejaVuSans-72"/>
      <use x="229.183594" xlink:href="#DejaVuSans-67"/>
      <use x="292.660156" xlink:href="#DejaVuSans-79"/>
      <use x="351.839844" xlink:href="#DejaVuSans-20"/>
      <use x="383.626953" xlink:href="#DejaVuSans-5b"/>
      <use x="422.640625" xlink:href="#DejaVuSans-65"/>
      <use x="484.164062" xlink:href="#DejaVuSans-56"/>
      <use x="552.572266" xlink:href="#DejaVuSans-5d"/>
     </g>
    </g>
   </g>
   <g id="patch_3">
    <path d="M 361.152 307.584 
L 361.152 306.5445 
L 361.152 42.5115 
L 361.152 41.472 
L 374.4576 41.472 
L 374.4576 42.5115 
L 374.4576 306.5445 
L 374.4576 307.584 
z
" style="fill:none;stroke:#000000;stroke-linejoin:miter;stroke-width:0.8;"/>
   </g>
  </g>
 </g>
 <defs>
  <clipPath id="pd6b99fef73">
   <rect height="266.112" width="285.696" x="57.6" y="41.472"/>
  </clipPath>
  <clipPath id="p0a1cc12051">
   <rect height="266.112" width="13.3056" x="361.152" y="41.472"/>
  </clipPath>
 </defs>
</svg>
