<?xml version="1.0" encoding="utf-8" standalone="no"?>
<!DOCTYPE svg PUBLIC "-//W3C//DTD SVG 1.1//EN"
  "http://www.w3.org/Graphics/SVG/1.1/DTD/svg11.dtd">
<!-- Created with matplotlib (http://matplotlib.org/) -->
<svg height="345.6pt" version="1.1" viewBox="0 0 460.8 345.6" width="460.8pt" xmlns="http://www.w3.org/2000/svg" xmlns:xlink="http://www.w3.org/1999/xlink">
 <defs>
  <style type="text/css">
*{stroke-linecap:butt;stroke-linejoin:round;}
  </style>
 </defs>
 <g id="figure_1">
  <g id="patch_1">
   <path d="M 0 345.6 
L 460.8 345.6 
L 460.8 0 
L 0 0 
z
" style="fill:#ffffff;"/>
  </g>
  <g id="axes_1">
   <g id="CircleCollection_1">
    <path clip-path="url(#pc49d67640f)" d="M 131.675976 123.18829 
C 133.402932 123.18829 135.059389 122.502163 136.280531 121.281021 
C 137.501673 120.059879 138.1878 118.403422 138.1878 116.676466 
C 138.1878 114.949511 137.501673 113.293054 136.280531 112.071912 
C 135.059389 110.850769 133.402932 110.164643 131.675976 110.164643 
C 129.94902 110.164643 128.292564 110.850769 127.071421 112.071912 
C 125.850279 113.293054 125.164152 114.949511 125.164152 116.676466 
C 125.164152 118.403422 125.850279 120.059879 127.071421 121.281021 
C 128.292564 122.502163 129.94902 123.18829 131.675976 123.18829 
z
" style="fill:#fde725;"/>
    <path clip-path="url(#pc49d67640f)" d="M 304.550383 129.097316 
C 306.368919 129.097316 308.113219 128.374804 309.399118 127.088904 
C 310.685018 125.803004 311.407531 124.058705 311.407531 122.240168 
C 311.407531 120.421631 310.685018 118.677332 309.399118 117.391432 
C 308.113219 116.105533 306.368919 115.38302 304.550383 115.38302 
C 302.731846 115.38302 300.987547 116.105533 299.701647 117.391432 
C 298.415747 118.677332 297.693235 120.421631 297.693235 122.240168 
C 297.693235 124.058705 298.415747 125.803004 299.701647 127.088904 
C 300.987547 128.374804 302.731846 129.097316 304.550383 129.097316 
z
" style="fill:#481668;"/>
    <path clip-path="url(#pc49d67640f)" d="M 230.729097 108.847397 
C 232.450439 108.847397 234.101511 108.163501 235.318683 106.946329 
C 236.535856 105.729156 237.219752 104.078085 237.219752 102.356743 
C 237.219752 100.635401 236.535856 98.984329 235.318683 97.767157 
C 234.101511 96.549985 232.450439 95.866088 230.729097 95.866088 
C 229.007756 95.866088 227.356684 96.549985 226.139512 97.767157 
C 224.922339 98.984329 224.238443 100.635401 224.238443 102.356743 
C 224.238443 104.078085 224.922339 105.729156 226.139512 106.946329 
C 227.356684 108.163501 229.007756 108.847397 230.729097 108.847397 
z
" style="fill:#482173;"/>
    <path clip-path="url(#pc49d67640f)" d="M 280.01746 141.75489 
C 281.752085 141.75489 283.415898 141.065716 284.642463 139.839151 
C 285.869028 138.612585 286.558202 136.948773 286.558202 135.214147 
C 286.558202 133.479522 285.869028 131.81571 284.642463 130.589144 
C 283.415898 129.362579 281.752085 128.673405 280.01746 128.673405 
C 278.282835 128.673405 276.619022 129.362579 275.392457 130.589144 
C 274.165892 131.81571 273.476718 133.479522 273.476718 135.214147 
C 273.476718 136.948773 274.165892 138.612585 275.392457 139.839151 
C 276.619022 141.065716 278.282835 141.75489 280.01746 141.75489 
z
" style="fill:#481b6d;"/>
    <path clip-path="url(#pc49d67640f)" d="M 198.586909 301.328951 
C 200.335566 301.328951 202.012838 300.634202 203.249326 299.397715 
C 204.485813 298.161227 205.180562 296.483955 205.180562 294.735298 
C 205.180562 292.986641 204.485813 291.309369 203.249326 290.072881 
C 202.012838 288.836394 200.335566 288.141645 198.586909 288.141645 
C 196.838252 288.141645 195.16098 288.836394 193.924492 290.072881 
C 192.688005 291.309369 191.993256 292.986641 191.993256 294.735298 
C 191.993256 296.483955 192.688005 298.161227 193.924492 299.397715 
C 195.16098 300.634202 196.838252 301.328951 198.586909 301.328951 
z
" style="fill:#20928c;"/>
    <path clip-path="url(#pc49d67640f)" d="M 325.471244 228.478899 
C 327.296046 228.478899 329.046354 227.753897 330.336683 226.463568 
C 331.627013 225.173238 332.352014 223.422931 332.352014 221.598129 
C 332.352014 219.773328 331.627013 218.02302 330.336683 216.73269 
C 329.046354 215.442361 327.296046 214.717359 325.471244 214.717359 
C 323.646443 214.717359 321.896135 215.442361 320.605805 216.73269 
C 319.315476 218.02302 318.590475 219.773328 318.590475 221.598129 
C 318.590475 223.422931 319.315476 225.173238 320.605805 226.463568 
C 321.896135 227.753897 323.646443 228.478899 325.471244 228.478899 
z
" style="fill:#20938c;"/>
    <path clip-path="url(#pc49d67640f)" d="M 245.798971 275.454039 
C 247.522187 275.454039 249.175057 274.769398 250.393554 273.5509 
C 251.612052 272.332403 252.296693 270.679533 252.296693 268.956317 
C 252.296693 267.233101 251.612052 265.580231 250.393554 264.361733 
C 249.175057 263.143236 247.522187 262.458595 245.798971 262.458595 
C 244.075755 262.458595 242.422885 263.143236 241.204387 264.361733 
C 239.98589 265.580231 239.301249 267.233101 239.301249 268.956317 
C 239.301249 270.679533 239.98589 272.332403 241.204387 273.5509 
C 242.422885 274.769398 244.075755 275.454039 245.798971 275.454039 
z
" style="fill:#375b8d;"/>
    <path clip-path="url(#pc49d67640f)" d="M 91.951556 111.609837 
C 93.886706 111.609837 95.742858 110.840993 97.111216 109.472635 
C 98.479574 108.104277 99.248418 106.248125 99.248418 104.312975 
C 99.248418 102.377824 98.479574 100.521672 97.111216 99.153314 
C 95.742858 97.784956 93.886706 97.016112 91.951556 97.016112 
C 90.016405 97.016112 88.160253 97.784956 86.791895 99.153314 
C 85.423537 100.521672 84.654694 102.377824 84.654694 104.312975 
C 84.654694 106.248125 85.423537 108.104277 86.791895 109.472635 
C 88.160253 110.840993 90.016405 111.609837 91.951556 111.609837 
z
" style="fill:#33638d;"/>
    <path clip-path="url(#pc49d67640f)" d="M 185.445756 61.700034 
C 187.381429 61.700034 189.238082 60.930983 190.606809 59.562256 
C 191.975537 58.193528 192.744588 56.336875 192.744588 54.401202 
C 192.744588 52.465529 191.975537 50.608876 190.606809 49.240148 
C 189.238082 47.871421 187.381429 47.10237 185.445756 47.10237 
C 183.510083 47.10237 181.65343 47.871421 180.284702 49.240148 
C 178.915975 50.608876 178.146924 52.465529 178.146924 54.401202 
C 178.146924 56.336875 178.915975 58.193528 180.284702 59.562256 
C 181.65343 60.930983 183.510083 61.700034 185.445756 61.700034 
z
" style="fill:#2c728e;"/>
    <path clip-path="url(#pc49d67640f)" d="M 71.139008 181.249127 
C 72.957276 181.249127 74.701318 180.526721 75.987028 179.241011 
C 77.272738 177.955301 77.995143 176.211259 77.995143 174.392991 
C 77.995143 172.574723 77.272738 170.830681 75.987028 169.544971 
C 74.701318 168.259261 72.957276 167.536855 71.139008 167.536855 
C 69.320739 167.536855 67.576698 168.259261 66.290988 169.544971 
C 65.005278 170.830681 64.282872 172.574723 64.282872 174.392991 
C 64.282872 176.211259 65.005278 177.955301 66.290988 179.241011 
C 67.576698 180.526721 69.320739 181.249127 71.139008 181.249127 
z
" style="fill:#21a585;"/>
    <path clip-path="url(#pc49d67640f)" d="M 232.500037 68.474719 
C 234.290657 68.474719 236.008179 67.763299 237.274338 66.497139 
C 238.540498 65.23098 239.251918 63.513458 239.251918 61.722838 
C 239.251918 59.932218 238.540498 58.214697 237.274338 56.948537 
C 236.008179 55.682378 234.290657 54.970957 232.500037 54.970957 
C 230.709417 54.970957 228.991896 55.682378 227.725736 56.948537 
C 226.459577 58.214697 225.748156 59.932218 225.748156 61.722838 
C 225.748156 63.513458 226.459577 65.23098 227.725736 66.497139 
C 228.991896 67.763299 230.709417 68.474719 232.500037 68.474719 
z
" style="fill:#25838e;"/>
    <path clip-path="url(#pc49d67640f)" d="M 182.890664 136.365656 
C 184.581533 136.365656 186.203377 135.693866 187.399002 134.498241 
C 188.594628 133.302615 189.266417 131.680772 189.266417 129.989902 
C 189.266417 128.299032 188.594628 126.677189 187.399002 125.481563 
C 186.203377 124.285938 184.581533 123.614148 182.890664 123.614148 
C 181.199794 123.614148 179.57795 124.285938 178.382325 125.481563 
C 177.186699 126.677189 176.51491 128.299032 176.51491 129.989902 
C 176.51491 131.680772 177.186699 133.302615 178.382325 134.498241 
C 179.57795 135.693866 181.199794 136.365656 182.890664 136.365656 
z
" style="fill:#470d60;"/>
    <path clip-path="url(#pc49d67640f)" d="M 329.747371 177.447389 
C 331.597285 177.447389 333.371681 176.71241 334.679768 175.404323 
C 335.987855 174.096236 336.722834 172.32184 336.722834 170.471926 
C 336.722834 168.622011 335.987855 166.847615 334.679768 165.539528 
C 333.371681 164.231441 331.597285 163.496462 329.747371 163.496462 
C 327.897456 163.496462 326.12306 164.231441 324.814973 165.539528 
C 323.506886 166.847615 322.771907 168.622011 322.771907 170.471926 
C 322.771907 172.32184 323.506886 174.096236 324.814973 175.404323 
C 326.12306 176.71241 327.897456 177.447389 329.747371 177.447389 
z
" style="fill:#1fa188;"/>
    <path clip-path="url(#pc49d67640f)" d="M 75.832228 143.739392 
C 77.708469 143.739392 79.508117 142.993953 80.83482 141.66725 
C 82.161523 140.340547 82.906961 138.5409 82.906961 136.664658 
C 82.906961 134.788417 82.161523 132.988769 80.83482 131.662067 
C 79.508117 130.335364 77.708469 129.589925 75.832228 129.589925 
C 73.955987 129.589925 72.156339 130.335364 70.829636 131.662067 
C 69.502933 132.988769 68.757495 134.788417 68.757495 136.664658 
C 68.757495 138.5409 69.502933 140.340547 70.829636 141.66725 
C 72.156339 142.993953 73.955987 143.739392 75.832228 143.739392 
z
" style="fill:#277e8e;"/>
    <path clip-path="url(#pc49d67640f)" d="M 223.571151 62.451939 
C 225.447745 62.451939 227.247732 61.70636 228.574684 60.379407 
C 229.901637 59.052455 230.647216 57.252468 230.647216 55.375874 
C 230.647216 53.49928 229.901637 51.699293 228.574684 50.372341 
C 227.247732 49.045388 225.447745 48.299809 223.571151 48.299809 
C 221.694557 48.299809 219.89457 49.045388 218.567618 50.372341 
C 217.240665 51.699293 216.495086 53.49928 216.495086 55.375874 
C 216.495086 57.252468 217.240665 59.052455 218.567618 60.379407 
C 219.89457 61.70636 221.694557 62.451939 223.571151 62.451939 
z
" style="fill:#33628d;"/>
    <path clip-path="url(#pc49d67640f)" d="M 184.859911 197.230281 
C 186.527938 197.230281 188.127872 196.567566 189.307346 195.388093 
C 190.486819 194.208619 191.149534 192.608685 191.149534 190.940658 
C 191.149534 189.27263 190.486819 187.672696 189.307346 186.493222 
C 188.127872 185.313749 186.527938 184.651034 184.859911 184.651034 
C 183.191883 184.651034 181.591949 185.313749 180.412476 186.493222 
C 179.233002 187.672696 178.570288 189.27263 178.570288 190.940658 
C 178.570288 192.608685 179.233002 194.208619 180.412476 195.388093 
C 181.591949 196.567566 183.191883 197.230281 184.859911 197.230281 
z
" style="fill:#481b6d;"/>
    <path clip-path="url(#pc49d67640f)" d="M 234.015913 224.461891 
C 235.684569 224.461891 237.285106 223.798927 238.465023 222.61901 
C 239.644941 221.439092 240.307905 219.838555 240.307905 218.169899 
C 240.307905 216.501244 239.644941 214.900707 238.465023 213.720789 
C 237.285106 212.540871 235.684569 211.877908 234.015913 211.877908 
C 232.347258 211.877908 230.746721 212.540871 229.566803 213.720789 
C 228.386885 214.900707 227.723921 216.501244 227.723921 218.169899 
C 227.723921 219.838555 228.386885 221.439092 229.566803 222.61901 
C 230.746721 223.798927 232.347258 224.461891 234.015913 224.461891 
z
" style="fill:#472f7d;"/>
    <path clip-path="url(#pc49d67640f)" d="M 296.457787 246.356207 
C 298.213185 246.356207 299.896923 245.658779 301.138177 244.417525 
C 302.379431 243.176271 303.076859 241.492533 303.076859 239.737135 
C 303.076859 237.981737 302.379431 236.297999 301.138177 235.056745 
C 299.896923 233.815491 298.213185 233.118064 296.457787 233.118064 
C 294.702389 233.118064 293.018651 233.815491 291.777397 235.056745 
C 290.536143 236.297999 289.838716 237.981737 289.838716 239.737135 
C 289.838716 241.492533 290.536143 243.176271 291.777397 244.417525 
C 293.018651 245.658779 294.702389 246.356207 296.457787 246.356207 
z
" style="fill:#38598c;"/>
    <path clip-path="url(#pc49d67640f)" d="M 152.746359 276.798768 
C 154.484977 276.798768 156.152619 276.108008 157.382007 274.87862 
C 158.611396 273.649231 159.302156 271.981589 159.302156 270.242972 
C 159.302156 268.504354 158.611396 266.836712 157.382007 265.607323 
C 156.152619 264.377935 154.484977 263.687175 152.746359 263.687175 
C 151.007742 263.687175 149.340099 264.377935 148.110711 265.607323 
C 146.881323 266.836712 146.190563 268.504354 146.190563 270.242972 
C 146.190563 271.981589 146.881323 273.649231 148.110711 274.87862 
C 149.340099 276.108008 151.007742 276.798768 152.746359 276.798768 
z
" style="fill:#20a486;"/>
    <path clip-path="url(#pc49d67640f)" d="M 281.610797 196.739358 
C 283.313481 196.739358 284.946657 196.062874 286.150636 194.858894 
C 287.354616 193.654915 288.0311 192.021739 288.0311 190.319055 
C 288.0311 188.61637 287.354616 186.983194 286.150636 185.779215 
C 284.946657 184.575235 283.313481 183.898752 281.610797 183.898752 
C 279.908112 183.898752 278.274936 184.575235 277.070957 185.779215 
C 275.866977 186.983194 275.190494 188.61637 275.190494 190.319055 
C 275.190494 192.021739 275.866977 193.654915 277.070957 194.858894 
C 278.274936 196.062874 279.908112 196.739358 281.610797 196.739358 
z
" style="fill:#482878;"/>
    <path clip-path="url(#pc49d67640f)" d="M 137.307529 223.808984 
C 139.01704 223.808984 140.656764 223.129788 141.86557 221.920981 
C 143.074377 220.712174 143.753573 219.07245 143.753573 217.362939 
C 143.753573 215.653428 143.074377 214.013704 141.86557 212.804897 
C 140.656764 211.59609 139.01704 210.916894 137.307529 210.916894 
C 135.598017 210.916894 133.958293 211.59609 132.749487 212.804897 
C 131.54068 214.013704 130.861484 215.653428 130.861484 217.362939 
C 130.861484 219.07245 131.54068 220.712174 132.749487 221.920981 
C 133.958293 223.129788 135.598017 223.808984 137.307529 223.808984 
z
" style="fill:#472e7c;"/>
    <path clip-path="url(#pc49d67640f)" d="M 137.045173 81.390772 
C 138.978893 81.390772 140.833672 80.622498 142.201018 79.255152 
C 143.568364 77.887806 144.336639 76.033026 144.336639 74.099307 
C 144.336639 72.165587 143.568364 70.310808 142.201018 68.943462 
C 140.833672 67.576116 138.978893 66.807841 137.045173 66.807841 
C 135.111454 66.807841 133.256675 67.576116 131.889329 68.943462 
C 130.521983 70.310808 129.753708 72.165587 129.753708 74.099307 
C 129.753708 76.033026 130.521983 77.887806 131.889329 79.255152 
C 133.256675 80.622498 135.111454 81.390772 137.045173 81.390772 
z
" style="fill:#297b8e;"/>
    <path clip-path="url(#pc49d67640f)" d="M 106.165495 176.534368 
C 107.913779 176.534368 109.590694 175.839767 110.826918 174.603543 
C 112.063141 173.367319 112.757742 171.690405 112.757742 169.94212 
C 112.757742 168.193836 112.063141 166.516921 110.826918 165.280697 
C 109.590694 164.044473 107.913779 163.349872 106.165495 163.349872 
C 104.41721 163.349872 102.740295 164.044473 101.504072 165.280697 
C 100.267848 166.516921 99.573247 168.193836 99.573247 169.94212 
C 99.573247 171.690405 100.267848 173.367319 101.504072 174.603543 
C 102.740295 175.839767 104.41721 176.534368 106.165495 176.534368 
z
" style="fill:#440154;"/>
    <path clip-path="url(#pc49d67640f)" d="M 275.291726 80.529769 
C 277.138974 80.529769 278.910813 79.795849 280.217015 78.489647 
C 281.523217 77.183445 282.257137 75.411606 282.257137 73.564358 
C 282.257137 71.717109 281.523217 69.94527 280.217015 68.639068 
C 278.910813 67.332866 277.138974 66.598947 275.291726 66.598947 
C 273.444477 66.598947 271.672638 67.332866 270.366436 68.639068 
C 269.060234 69.94527 268.326315 71.717109 268.326315 73.564358 
C 268.326315 75.411606 269.060234 77.183445 270.366436 78.489647 
C 271.672638 79.795849 273.444477 80.529769 275.291726 80.529769 
z
" style="fill:#23898e;"/>
   </g>
   <g id="text_1">
    <!-- Structure #625, $E_N$=-182.43eV, ΔE=-0.13eV -->
    <defs>
     <path d="M 53.515625 70.515625 
L 53.515625 60.890625 
Q 47.90625 63.578125 42.921875 64.890625 
Q 37.9375 66.21875 33.296875 66.21875 
Q 25.25 66.21875 20.875 63.09375 
Q 16.5 59.96875 16.5 54.203125 
Q 16.5 49.359375 19.40625 46.890625 
Q 22.3125 44.4375 30.421875 42.921875 
L 36.375 41.703125 
Q 47.40625 39.59375 52.65625 34.296875 
Q 57.90625 29 57.90625 20.125 
Q 57.90625 9.515625 50.796875 4.046875 
Q 43.703125 -1.421875 29.984375 -1.421875 
Q 24.8125 -1.421875 18.96875 -0.25 
Q 13.140625 0.921875 6.890625 3.21875 
L 6.890625 13.375 
Q 12.890625 10.015625 18.65625 8.296875 
Q 24.421875 6.59375 29.984375 6.59375 
Q 38.421875 6.59375 43.015625 9.90625 
Q 47.609375 13.234375 47.609375 19.390625 
Q 47.609375 24.75 44.3125 27.78125 
Q 41.015625 30.8125 33.5 32.328125 
L 27.484375 33.5 
Q 16.453125 35.6875 11.515625 40.375 
Q 6.59375 45.0625 6.59375 53.421875 
Q 6.59375 63.09375 13.40625 68.65625 
Q 20.21875 74.21875 32.171875 74.21875 
Q 37.3125 74.21875 42.625 73.28125 
Q 47.953125 72.359375 53.515625 70.515625 
z
" id="DejaVuSans-53"/>
     <path d="M 18.3125 70.21875 
L 18.3125 54.6875 
L 36.8125 54.6875 
L 36.8125 47.703125 
L 18.3125 47.703125 
L 18.3125 18.015625 
Q 18.3125 11.328125 20.140625 9.421875 
Q 21.96875 7.515625 27.59375 7.515625 
L 36.8125 7.515625 
L 36.8125 0 
L 27.59375 0 
Q 17.1875 0 13.234375 3.875 
Q 9.28125 7.765625 9.28125 18.015625 
L 9.28125 47.703125 
L 2.6875 47.703125 
L 2.6875 54.6875 
L 9.28125 54.6875 
L 9.28125 70.21875 
z
" id="DejaVuSans-74"/>
     <path d="M 41.109375 46.296875 
Q 39.59375 47.171875 37.8125 47.578125 
Q 36.03125 48 33.890625 48 
Q 26.265625 48 22.1875 43.046875 
Q 18.109375 38.09375 18.109375 28.8125 
L 18.109375 0 
L 9.078125 0 
L 9.078125 54.6875 
L 18.109375 54.6875 
L 18.109375 46.1875 
Q 20.953125 51.171875 25.484375 53.578125 
Q 30.03125 56 36.53125 56 
Q 37.453125 56 38.578125 55.875 
Q 39.703125 55.765625 41.0625 55.515625 
z
" id="DejaVuSans-72"/>
     <path d="M 8.5 21.578125 
L 8.5 54.6875 
L 17.484375 54.6875 
L 17.484375 21.921875 
Q 17.484375 14.15625 20.5 10.265625 
Q 23.53125 6.390625 29.59375 6.390625 
Q 36.859375 6.390625 41.078125 11.03125 
Q 45.3125 15.671875 45.3125 23.6875 
L 45.3125 54.6875 
L 54.296875 54.6875 
L 54.296875 0 
L 45.3125 0 
L 45.3125 8.40625 
Q 42.046875 3.421875 37.71875 1 
Q 33.40625 -1.421875 27.6875 -1.421875 
Q 18.265625 -1.421875 13.375 4.4375 
Q 8.5 10.296875 8.5 21.578125 
z
M 31.109375 56 
z
" id="DejaVuSans-75"/>
     <path d="M 48.78125 52.59375 
L 48.78125 44.1875 
Q 44.96875 46.296875 41.140625 47.34375 
Q 37.3125 48.390625 33.40625 48.390625 
Q 24.65625 48.390625 19.8125 42.84375 
Q 14.984375 37.3125 14.984375 27.296875 
Q 14.984375 17.28125 19.8125 11.734375 
Q 24.65625 6.203125 33.40625 6.203125 
Q 37.3125 6.203125 41.140625 7.25 
Q 44.96875 8.296875 48.78125 10.40625 
L 48.78125 2.09375 
Q 45.015625 0.34375 40.984375 -0.53125 
Q 36.96875 -1.421875 32.421875 -1.421875 
Q 20.0625 -1.421875 12.78125 6.34375 
Q 5.515625 14.109375 5.515625 27.296875 
Q 5.515625 40.671875 12.859375 48.328125 
Q 20.21875 56 33.015625 56 
Q 37.15625 56 41.109375 55.140625 
Q 45.0625 54.296875 48.78125 52.59375 
z
" id="DejaVuSans-63"/>
     <path d="M 56.203125 29.59375 
L 56.203125 25.203125 
L 14.890625 25.203125 
Q 15.484375 15.921875 20.484375 11.0625 
Q 25.484375 6.203125 34.421875 6.203125 
Q 39.59375 6.203125 44.453125 7.46875 
Q 49.3125 8.734375 54.109375 11.28125 
L 54.109375 2.78125 
Q 49.265625 0.734375 44.1875 -0.34375 
Q 39.109375 -1.421875 33.890625 -1.421875 
Q 20.796875 -1.421875 13.15625 6.1875 
Q 5.515625 13.8125 5.515625 26.8125 
Q 5.515625 40.234375 12.765625 48.109375 
Q 20.015625 56 32.328125 56 
Q 43.359375 56 49.78125 48.890625 
Q 56.203125 41.796875 56.203125 29.59375 
z
M 47.21875 32.234375 
Q 47.125 39.59375 43.09375 43.984375 
Q 39.0625 48.390625 32.421875 48.390625 
Q 24.90625 48.390625 20.390625 44.140625 
Q 15.875 39.890625 15.1875 32.171875 
z
" id="DejaVuSans-65"/>
     <path id="DejaVuSans-20"/>
     <path d="M 51.125 44 
L 36.921875 44 
L 32.8125 27.6875 
L 47.125 27.6875 
z
M 43.796875 71.78125 
L 38.71875 51.515625 
L 52.984375 51.515625 
L 58.109375 71.78125 
L 65.921875 71.78125 
L 60.890625 51.515625 
L 76.125 51.515625 
L 76.125 44 
L 58.984375 44 
L 54.984375 27.6875 
L 70.515625 27.6875 
L 70.515625 20.21875 
L 53.078125 20.21875 
L 48 0 
L 40.1875 0 
L 45.21875 20.21875 
L 30.90625 20.21875 
L 25.875 0 
L 18.015625 0 
L 23.09375 20.21875 
L 7.71875 20.21875 
L 7.71875 27.6875 
L 24.90625 27.6875 
L 29 44 
L 13.28125 44 
L 13.28125 51.515625 
L 30.90625 51.515625 
L 35.890625 71.78125 
z
" id="DejaVuSans-23"/>
     <path d="M 33.015625 40.375 
Q 26.375 40.375 22.484375 35.828125 
Q 18.609375 31.296875 18.609375 23.390625 
Q 18.609375 15.53125 22.484375 10.953125 
Q 26.375 6.390625 33.015625 6.390625 
Q 39.65625 6.390625 43.53125 10.953125 
Q 47.40625 15.53125 47.40625 23.390625 
Q 47.40625 31.296875 43.53125 35.828125 
Q 39.65625 40.375 33.015625 40.375 
z
M 52.59375 71.296875 
L 52.59375 62.3125 
Q 48.875 64.0625 45.09375 64.984375 
Q 41.3125 65.921875 37.59375 65.921875 
Q 27.828125 65.921875 22.671875 59.328125 
Q 17.53125 52.734375 16.796875 39.40625 
Q 19.671875 43.65625 24.015625 45.921875 
Q 28.375 48.1875 33.59375 48.1875 
Q 44.578125 48.1875 50.953125 41.515625 
Q 57.328125 34.859375 57.328125 23.390625 
Q 57.328125 12.15625 50.6875 5.359375 
Q 44.046875 -1.421875 33.015625 -1.421875 
Q 20.359375 -1.421875 13.671875 8.265625 
Q 6.984375 17.96875 6.984375 36.375 
Q 6.984375 53.65625 15.1875 63.9375 
Q 23.390625 74.21875 37.203125 74.21875 
Q 40.921875 74.21875 44.703125 73.484375 
Q 48.484375 72.75 52.59375 71.296875 
z
" id="DejaVuSans-36"/>
     <path d="M 19.1875 8.296875 
L 53.609375 8.296875 
L 53.609375 0 
L 7.328125 0 
L 7.328125 8.296875 
Q 12.9375 14.109375 22.625 23.890625 
Q 32.328125 33.6875 34.8125 36.53125 
Q 39.546875 41.84375 41.421875 45.53125 
Q 43.3125 49.21875 43.3125 52.78125 
Q 43.3125 58.59375 39.234375 62.25 
Q 35.15625 65.921875 28.609375 65.921875 
Q 23.96875 65.921875 18.8125 64.3125 
Q 13.671875 62.703125 7.8125 59.421875 
L 7.8125 69.390625 
Q 13.765625 71.78125 18.9375 73 
Q 24.125 74.21875 28.421875 74.21875 
Q 39.75 74.21875 46.484375 68.546875 
Q 53.21875 62.890625 53.21875 53.421875 
Q 53.21875 48.921875 51.53125 44.890625 
Q 49.859375 40.875 45.40625 35.40625 
Q 44.1875 33.984375 37.640625 27.21875 
Q 31.109375 20.453125 19.1875 8.296875 
z
" id="DejaVuSans-32"/>
     <path d="M 10.796875 72.90625 
L 49.515625 72.90625 
L 49.515625 64.59375 
L 19.828125 64.59375 
L 19.828125 46.734375 
Q 21.96875 47.46875 24.109375 47.828125 
Q 26.265625 48.1875 28.421875 48.1875 
Q 40.625 48.1875 47.75 41.5 
Q 54.890625 34.8125 54.890625 23.390625 
Q 54.890625 11.625 47.5625 5.09375 
Q 40.234375 -1.421875 26.90625 -1.421875 
Q 22.3125 -1.421875 17.546875 -0.640625 
Q 12.796875 0.140625 7.71875 1.703125 
L 7.71875 11.625 
Q 12.109375 9.234375 16.796875 8.0625 
Q 21.484375 6.890625 26.703125 6.890625 
Q 35.15625 6.890625 40.078125 11.328125 
Q 45.015625 15.765625 45.015625 23.390625 
Q 45.015625 31 40.078125 35.4375 
Q 35.15625 39.890625 26.703125 39.890625 
Q 22.75 39.890625 18.8125 39.015625 
Q 14.890625 38.140625 10.796875 36.28125 
z
" id="DejaVuSans-35"/>
     <path d="M 11.71875 12.40625 
L 22.015625 12.40625 
L 22.015625 4 
L 14.015625 -11.625 
L 7.71875 -11.625 
L 11.71875 4 
z
" id="DejaVuSans-2c"/>
     <path d="M 16.890625 72.90625 
L 62.984375 72.90625 
L 61.375 64.59375 
L 25.09375 64.59375 
L 20.90625 43.015625 
L 55.71875 43.015625 
L 54.109375 34.71875 
L 19.28125 34.71875 
L 14.203125 8.296875 
L 51.3125 8.296875 
L 49.703125 0 
L 2.6875 0 
z
" id="DejaVuSans-Oblique-45"/>
     <path d="M 16.890625 72.90625 
L 30.171875 72.90625 
L 50.296875 10.40625 
L 62.5 72.90625 
L 72.125 72.90625 
L 57.90625 0 
L 44.578125 0 
L 24.515625 62.890625 
L 12.3125 0 
L 2.6875 0 
z
" id="DejaVuSans-Oblique-4e"/>
     <path d="M 10.59375 45.40625 
L 73.1875 45.40625 
L 73.1875 37.203125 
L 10.59375 37.203125 
z
M 10.59375 25.484375 
L 73.1875 25.484375 
L 73.1875 17.1875 
L 10.59375 17.1875 
z
" id="DejaVuSans-3d"/>
     <path d="M 4.890625 31.390625 
L 31.203125 31.390625 
L 31.203125 23.390625 
L 4.890625 23.390625 
z
" id="DejaVuSans-2d"/>
     <path d="M 12.40625 8.296875 
L 28.515625 8.296875 
L 28.515625 63.921875 
L 10.984375 60.40625 
L 10.984375 69.390625 
L 28.421875 72.90625 
L 38.28125 72.90625 
L 38.28125 8.296875 
L 54.390625 8.296875 
L 54.390625 0 
L 12.40625 0 
z
" id="DejaVuSans-31"/>
     <path d="M 31.78125 34.625 
Q 24.75 34.625 20.71875 30.859375 
Q 16.703125 27.09375 16.703125 20.515625 
Q 16.703125 13.921875 20.71875 10.15625 
Q 24.75 6.390625 31.78125 6.390625 
Q 38.8125 6.390625 42.859375 10.171875 
Q 46.921875 13.96875 46.921875 20.515625 
Q 46.921875 27.09375 42.890625 30.859375 
Q 38.875 34.625 31.78125 34.625 
z
M 21.921875 38.8125 
Q 15.578125 40.375 12.03125 44.71875 
Q 8.5 49.078125 8.5 55.328125 
Q 8.5 64.0625 14.71875 69.140625 
Q 20.953125 74.21875 31.78125 74.21875 
Q 42.671875 74.21875 48.875 69.140625 
Q 55.078125 64.0625 55.078125 55.328125 
Q 55.078125 49.078125 51.53125 44.71875 
Q 48 40.375 41.703125 38.8125 
Q 48.828125 37.15625 52.796875 32.3125 
Q 56.78125 27.484375 56.78125 20.515625 
Q 56.78125 9.90625 50.3125 4.234375 
Q 43.84375 -1.421875 31.78125 -1.421875 
Q 19.734375 -1.421875 13.25 4.234375 
Q 6.78125 9.90625 6.78125 20.515625 
Q 6.78125 27.484375 10.78125 32.3125 
Q 14.796875 37.15625 21.921875 38.8125 
z
M 18.3125 54.390625 
Q 18.3125 48.734375 21.84375 45.5625 
Q 25.390625 42.390625 31.78125 42.390625 
Q 38.140625 42.390625 41.71875 45.5625 
Q 45.3125 48.734375 45.3125 54.390625 
Q 45.3125 60.0625 41.71875 63.234375 
Q 38.140625 66.40625 31.78125 66.40625 
Q 25.390625 66.40625 21.84375 63.234375 
Q 18.3125 60.0625 18.3125 54.390625 
z
" id="DejaVuSans-38"/>
     <path d="M 10.6875 12.40625 
L 21 12.40625 
L 21 0 
L 10.6875 0 
z
" id="DejaVuSans-2e"/>
     <path d="M 37.796875 64.3125 
L 12.890625 25.390625 
L 37.796875 25.390625 
z
M 35.203125 72.90625 
L 47.609375 72.90625 
L 47.609375 25.390625 
L 58.015625 25.390625 
L 58.015625 17.1875 
L 47.609375 17.1875 
L 47.609375 0 
L 37.796875 0 
L 37.796875 17.1875 
L 4.890625 17.1875 
L 4.890625 26.703125 
z
" id="DejaVuSans-34"/>
     <path d="M 40.578125 39.3125 
Q 47.65625 37.796875 51.625 33 
Q 55.609375 28.21875 55.609375 21.1875 
Q 55.609375 10.40625 48.1875 4.484375 
Q 40.765625 -1.421875 27.09375 -1.421875 
Q 22.515625 -1.421875 17.65625 -0.515625 
Q 12.796875 0.390625 7.625 2.203125 
L 7.625 11.71875 
Q 11.71875 9.328125 16.59375 8.109375 
Q 21.484375 6.890625 26.8125 6.890625 
Q 36.078125 6.890625 40.9375 10.546875 
Q 45.796875 14.203125 45.796875 21.1875 
Q 45.796875 27.640625 41.28125 31.265625 
Q 36.765625 34.90625 28.71875 34.90625 
L 20.21875 34.90625 
L 20.21875 43.015625 
L 29.109375 43.015625 
Q 36.375 43.015625 40.234375 45.921875 
Q 44.09375 48.828125 44.09375 54.296875 
Q 44.09375 59.90625 40.109375 62.90625 
Q 36.140625 65.921875 28.71875 65.921875 
Q 24.65625 65.921875 20.015625 65.03125 
Q 15.375 64.15625 9.8125 62.3125 
L 9.8125 71.09375 
Q 15.4375 72.65625 20.34375 73.4375 
Q 25.25 74.21875 29.59375 74.21875 
Q 40.828125 74.21875 47.359375 69.109375 
Q 53.90625 64.015625 53.90625 55.328125 
Q 53.90625 49.265625 50.4375 45.09375 
Q 46.96875 40.921875 40.578125 39.3125 
z
" id="DejaVuSans-33"/>
     <path d="M 28.609375 0 
L 0.78125 72.90625 
L 11.078125 72.90625 
L 34.1875 11.53125 
L 57.328125 72.90625 
L 67.578125 72.90625 
L 39.796875 0 
z
" id="DejaVuSans-56"/>
     <path d="M 34.1875 63.1875 
L 14.15625 8.203125 
L 54.25 8.203125 
z
M 0.78125 0 
L 28.609375 72.90625 
L 39.796875 72.90625 
L 67.578125 0 
z
" id="DejaVuSans-394"/>
     <path d="M 9.8125 72.90625 
L 55.90625 72.90625 
L 55.90625 64.59375 
L 19.671875 64.59375 
L 19.671875 43.015625 
L 54.390625 43.015625 
L 54.390625 34.71875 
L 19.671875 34.71875 
L 19.671875 8.296875 
L 56.78125 8.296875 
L 56.78125 0 
L 9.8125 0 
z
" id="DejaVuSans-45"/>
     <path d="M 31.78125 66.40625 
Q 24.171875 66.40625 20.328125 58.90625 
Q 16.5 51.421875 16.5 36.375 
Q 16.5 21.390625 20.328125 13.890625 
Q 24.171875 6.390625 31.78125 6.390625 
Q 39.453125 6.390625 43.28125 13.890625 
Q 47.125 21.390625 47.125 36.375 
Q 47.125 51.421875 43.28125 58.90625 
Q 39.453125 66.40625 31.78125 66.40625 
z
M 31.78125 74.21875 
Q 44.046875 74.21875 50.515625 64.515625 
Q 56.984375 54.828125 56.984375 36.375 
Q 56.984375 17.96875 50.515625 8.265625 
Q 44.046875 -1.421875 31.78125 -1.421875 
Q 19.53125 -1.421875 13.0625 8.265625 
Q 6.59375 17.96875 6.59375 36.375 
Q 6.59375 54.828125 13.0625 64.515625 
Q 19.53125 74.21875 31.78125 74.21875 
z
" id="DejaVuSans-30"/>
    </defs>
    <g transform="translate(67.008 35.472)scale(0.12 -0.12)">
     <use transform="translate(0 0.78125)" xlink:href="#DejaVuSans-53"/>
     <use transform="translate(63.476562 0.78125)" xlink:href="#DejaVuSans-74"/>
     <use transform="translate(102.685547 0.78125)" xlink:href="#DejaVuSans-72"/>
     <use transform="translate(143.798828 0.78125)" xlink:href="#DejaVuSans-75"/>
     <use transform="translate(207.177734 0.78125)" xlink:href="#DejaVuSans-63"/>
     <use transform="translate(262.158203 0.78125)" xlink:href="#DejaVuSans-74"/>
     <use transform="translate(301.367188 0.78125)" xlink:href="#DejaVuSans-75"/>
     <use transform="translate(364.746094 0.78125)" xlink:href="#DejaVuSans-72"/>
     <use transform="translate(405.859375 0.78125)" xlink:href="#DejaVuSans-65"/>
     <use transform="translate(467.382812 0.78125)" xlink:href="#DejaVuSans-20"/>
     <use transform="translate(499.169922 0.78125)" xlink:href="#DejaVuSans-23"/>
     <use transform="translate(582.958984 0.78125)" xlink:href="#DejaVuSans-36"/>
     <use transform="translate(646.582031 0.78125)" xlink:href="#DejaVuSans-32"/>
     <use transform="translate(710.205078 0.78125)" xlink:href="#DejaVuSans-35"/>
     <use transform="translate(773.828125 0.78125)" xlink:href="#DejaVuSans-2c"/>
     <use transform="translate(805.615234 0.78125)" xlink:href="#DejaVuSans-20"/>
     <use transform="translate(837.402344 0.78125)" xlink:href="#DejaVuSans-Oblique-45"/>
     <use transform="translate(900.585938 -15.625)scale(0.7)" xlink:href="#DejaVuSans-Oblique-4e"/>
     <use transform="translate(955.683594 0.78125)" xlink:href="#DejaVuSans-3d"/>
     <use transform="translate(1039.472656 0.78125)" xlink:href="#DejaVuSans-2d"/>
     <use transform="translate(1075.556641 0.78125)" xlink:href="#DejaVuSans-31"/>
     <use transform="translate(1139.179688 0.78125)" xlink:href="#DejaVuSans-38"/>
     <use transform="translate(1202.802734 0.78125)" xlink:href="#DejaVuSans-32"/>
     <use transform="translate(1266.425781 0.78125)" xlink:href="#DejaVuSans-2e"/>
     <use transform="translate(1298.212891 0.78125)" xlink:href="#DejaVuSans-34"/>
     <use transform="translate(1361.835938 0.78125)" xlink:href="#DejaVuSans-33"/>
     <use transform="translate(1425.458984 0.78125)" xlink:href="#DejaVuSans-65"/>
     <use transform="translate(1486.982422 0.78125)" xlink:href="#DejaVuSans-56"/>
     <use transform="translate(1555.390625 0.78125)" xlink:href="#DejaVuSans-2c"/>
     <use transform="translate(1587.177734 0.78125)" xlink:href="#DejaVuSans-20"/>
     <use transform="translate(1618.964844 0.78125)" xlink:href="#DejaVuSans-394"/>
     <use transform="translate(1687.373047 0.78125)" xlink:href="#DejaVuSans-45"/>
     <use transform="translate(1750.556641 0.78125)" xlink:href="#DejaVuSans-3d"/>
     <use transform="translate(1834.345703 0.78125)" xlink:href="#DejaVuSans-2d"/>
     <use transform="translate(1870.429688 0.78125)" xlink:href="#DejaVuSans-30"/>
     <use transform="translate(1934.052734 0.78125)" xlink:href="#DejaVuSans-2e"/>
     <use transform="translate(1965.839844 0.78125)" xlink:href="#DejaVuSans-31"/>
     <use transform="translate(2029.462891 0.78125)" xlink:href="#DejaVuSans-33"/>
     <use transform="translate(2093.085938 0.78125)" xlink:href="#DejaVuSans-65"/>
     <use transform="translate(2154.609375 0.78125)" xlink:href="#DejaVuSans-56"/>
    </g>
   </g>
  </g>
  <g id="axes_2">
   <g id="patch_2">
    <path clip-path="url(#pd6c359f4db)" d="M 361.152 307.584 
L 361.152 306.5445 
L 361.152 42.5115 
L 361.152 41.472 
L 374.4576 41.472 
L 374.4576 42.5115 
L 374.4576 306.5445 
L 374.4576 307.584 
z
" style="fill:#ffffff;stroke:#ffffff;stroke-linejoin:miter;stroke-width:0.01;"/>
   </g>
   <image height="265.68" id="imaged1a1d322ae" transform="scale(1 -1)translate(0 -265.68)" width="12.96" x="361.44" xlink:href="data:image/png;base64,
iVBORw0KGgoAAAANSUhEUgAAABIAAAFxCAYAAAB+2fgXAAAABHNCSVQICAgIfAhkiAAAAeVJREFUeJztncmNw0AQA2ckheYQNv9QLIfQ8ygsCgQ7AEI8+jAs2Puz/94F1LP2ReCsZ18bAWIeZ5XaGRBE7VnbptG+KI101FYyNSiQG2oRITXKNaX9uclOdi2XWjftVE32CZCO2ou5Bj1TcCBr/1zB9ge7Fq0Rg2NM9pvbtG+ua1QgsRYhDy0ISEiNc40BEibbSI0Coj5CBGtkpFbXJiAjNZlrwhuSOv2M1DjXbEdEciBt1JSDDQKKpmZr2rr2j0DBGpXaWEJq3bQzEPIS26r9J+Wzv9Tm8o3aajRXqc3VUXsApKNWjeZq0x4ABVNbm7lrszVigDqP5vIl2+eaT2yfRkL7g+dRcNPqjohkjaCvRVBq0H2U3LQrOJCx9kdTg4B8oxZzzTdqdYHEngjUCAPyUctN9sVRq2sTECW2UKNLd2jVtRmo1A6AhMmWaSRcR8nUdIHUuVb75zJS218EyEitro1At69pIdeSk30Lkw0FktNImGyZRhy1O5galmxd03LUsHWk06jUZiCq+5Wb1kZNN4+wJxJuWt8RAW5am2sYNZ9rYCBzZ3buPKJ2P5Yj4Toy3keyIyJbIxs1rml1byCA84gpch5RQNB7Q0qNMGq2Hy4BXdNR41yz/cEEJfZzUz96r9PoB0okjeQ8y9TkAAAAAElFTkSuQmCC" y="-41.76"/>
   <g id="matplotlib.axis_1"/>
   <g id="matplotlib.axis_2">
    <g id="ytick_1">
     <g id="line2d_1">
      <defs>
       <path d="M 0 0 
L 3.5 0 
" id="m26118f53c7" style="stroke:#000000;stroke-width:0.8;"/>
      </defs>
      <g>
       <use style="stroke:#000000;stroke-width:0.8;" x="374.4576" xlink:href="#m26118f53c7" y="307.300737"/>
      </g>
     </g>
     <g id="text_2">
      <!-- −8.5 -->
      <defs>
       <path d="M 10.59375 35.5 
L 73.1875 35.5 
L 73.1875 27.203125 
L 10.59375 27.203125 
z
" id="DejaVuSans-2212"/>
      </defs>
      <g transform="translate(381.4576 311.099955)scale(0.1 -0.1)">
       <use xlink:href="#DejaVuSans-2212"/>
       <use x="83.789062" xlink:href="#DejaVuSans-38"/>
       <use x="147.412109" xlink:href="#DejaVuSans-2e"/>
       <use x="179.199219" xlink:href="#DejaVuSans-35"/>
      </g>
     </g>
    </g>
    <g id="ytick_2">
     <g id="line2d_2">
      <g>
       <use style="stroke:#000000;stroke-width:0.8;" x="374.4576" xlink:href="#m26118f53c7" y="259.532463"/>
      </g>
     </g>
     <g id="text_3">
      <!-- −8.0 -->
      <g transform="translate(381.4576 263.331682)scale(0.1 -0.1)">
       <use xlink:href="#DejaVuSans-2212"/>
       <use x="83.789062" xlink:href="#DejaVuSans-38"/>
       <use x="147.412109" xlink:href="#DejaVuSans-2e"/>
       <use x="179.199219" xlink:href="#DejaVuSans-30"/>
      </g>
     </g>
    </g>
    <g id="ytick_3">
     <g id="line2d_3">
      <g>
       <use style="stroke:#000000;stroke-width:0.8;" x="374.4576" xlink:href="#m26118f53c7" y="211.76419"/>
      </g>
     </g>
     <g id="text_4">
      <!-- −7.5 -->
      <defs>
       <path d="M 8.203125 72.90625 
L 55.078125 72.90625 
L 55.078125 68.703125 
L 28.609375 0 
L 18.3125 0 
L 43.21875 64.59375 
L 8.203125 64.59375 
z
" id="DejaVuSans-37"/>
      </defs>
      <g transform="translate(381.4576 215.563408)scale(0.1 -0.1)">
       <use xlink:href="#DejaVuSans-2212"/>
       <use x="83.789062" xlink:href="#DejaVuSans-37"/>
       <use x="147.412109" xlink:href="#DejaVuSans-2e"/>
       <use x="179.199219" xlink:href="#DejaVuSans-35"/>
      </g>
     </g>
    </g>
    <g id="ytick_4">
     <g id="line2d_4">
      <g>
       <use style="stroke:#000000;stroke-width:0.8;" x="374.4576" xlink:href="#m26118f53c7" y="163.995916"/>
      </g>
     </g>
     <g id="text_5">
      <!-- −7.0 -->
      <g transform="translate(381.4576 167.795135)scale(0.1 -0.1)">
       <use xlink:href="#DejaVuSans-2212"/>
       <use x="83.789062" xlink:href="#DejaVuSans-37"/>
       <use x="147.412109" xlink:href="#DejaVuSans-2e"/>
       <use x="179.199219" xlink:href="#DejaVuSans-30"/>
      </g>
     </g>
    </g>
    <g id="ytick_5">
     <g id="line2d_5">
      <g>
       <use style="stroke:#000000;stroke-width:0.8;" x="374.4576" xlink:href="#m26118f53c7" y="116.227643"/>
      </g>
     </g>
     <g id="text_6">
      <!-- −6.5 -->
      <g transform="translate(381.4576 120.026861)scale(0.1 -0.1)">
       <use xlink:href="#DejaVuSans-2212"/>
       <use x="83.789062" xlink:href="#DejaVuSans-36"/>
       <use x="147.412109" xlink:href="#DejaVuSans-2e"/>
       <use x="179.199219" xlink:href="#DejaVuSans-35"/>
      </g>
     </g>
    </g>
    <g id="ytick_6">
     <g id="line2d_6">
      <g>
       <use style="stroke:#000000;stroke-width:0.8;" x="374.4576" xlink:href="#m26118f53c7" y="68.459369"/>
      </g>
     </g>
     <g id="text_7">
      <!-- −6.0 -->
      <g transform="translate(381.4576 72.258588)scale(0.1 -0.1)">
       <use xlink:href="#DejaVuSans-2212"/>
       <use x="83.789062" xlink:href="#DejaVuSans-36"/>
       <use x="147.412109" xlink:href="#DejaVuSans-2e"/>
       <use x="179.199219" xlink:href="#DejaVuSans-30"/>
      </g>
     </g>
    </g>
    <g id="text_8">
     <!-- Energy [eV] -->
     <defs>
      <path d="M 54.890625 33.015625 
L 54.890625 0 
L 45.90625 0 
L 45.90625 32.71875 
Q 45.90625 40.484375 42.875 44.328125 
Q 39.84375 48.1875 33.796875 48.1875 
Q 26.515625 48.1875 22.3125 43.546875 
Q 18.109375 38.921875 18.109375 30.90625 
L 18.109375 0 
L 9.078125 0 
L 9.078125 54.6875 
L 18.109375 54.6875 
L 18.109375 46.1875 
Q 21.34375 51.125 25.703125 53.5625 
Q 30.078125 56 35.796875 56 
Q 45.21875 56 50.046875 50.171875 
Q 54.890625 44.34375 54.890625 33.015625 
z
" id="DejaVuSans-6e"/>
      <path d="M 45.40625 27.984375 
Q 45.40625 37.75 41.375 43.109375 
Q 37.359375 48.484375 30.078125 48.484375 
Q 22.859375 48.484375 18.828125 43.109375 
Q 14.796875 37.75 14.796875 27.984375 
Q 14.796875 18.265625 18.828125 12.890625 
Q 22.859375 7.515625 30.078125 7.515625 
Q 37.359375 7.515625 41.375 12.890625 
Q 45.40625 18.265625 45.40625 27.984375 
z
M 54.390625 6.78125 
Q 54.390625 -7.171875 48.1875 -13.984375 
Q 42 -20.796875 29.203125 -20.796875 
Q 24.46875 -20.796875 20.265625 -20.09375 
Q 16.0625 -19.390625 12.109375 -17.921875 
L 12.109375 -9.1875 
Q 16.0625 -11.328125 19.921875 -12.34375 
Q 23.78125 -13.375 27.78125 -13.375 
Q 36.625 -13.375 41.015625 -8.765625 
Q 45.40625 -4.15625 45.40625 5.171875 
L 45.40625 9.625 
Q 42.625 4.78125 38.28125 2.390625 
Q 33.9375 0 27.875 0 
Q 17.828125 0 11.671875 7.65625 
Q 5.515625 15.328125 5.515625 27.984375 
Q 5.515625 40.671875 11.671875 48.328125 
Q 17.828125 56 27.875 56 
Q 33.9375 56 38.28125 53.609375 
Q 42.625 51.21875 45.40625 46.390625 
L 45.40625 54.6875 
L 54.390625 54.6875 
z
" id="DejaVuSans-67"/>
      <path d="M 32.171875 -5.078125 
Q 28.375 -14.84375 24.75 -17.8125 
Q 21.140625 -20.796875 15.09375 -20.796875 
L 7.90625 -20.796875 
L 7.90625 -13.28125 
L 13.1875 -13.28125 
Q 16.890625 -13.28125 18.9375 -11.515625 
Q 21 -9.765625 23.484375 -3.21875 
L 25.09375 0.875 
L 2.984375 54.6875 
L 12.5 54.6875 
L 29.59375 11.921875 
L 46.6875 54.6875 
L 56.203125 54.6875 
z
" id="DejaVuSans-79"/>
      <path d="M 8.59375 75.984375 
L 29.296875 75.984375 
L 29.296875 69 
L 17.578125 69 
L 17.578125 -6.203125 
L 29.296875 -6.203125 
L 29.296875 -13.1875 
L 8.59375 -13.1875 
z
" id="DejaVuSans-5b"/>
      <path d="M 30.421875 75.984375 
L 30.421875 -13.1875 
L 9.71875 -13.1875 
L 9.71875 -6.203125 
L 21.390625 -6.203125 
L 21.390625 69 
L 9.71875 69 
L 9.71875 75.984375 
z
" id="DejaVuSans-5d"/>
     </defs>
     <g transform="translate(417.33885 204.108469)rotate(-90)scale(0.1 -0.1)">
      <use xlink:href="#DejaVuSans-45"/>
      <use x="63.183594" xlink:href="#DejaVuSans-6e"/>
      <use x="126.5625" xlink:href="#DejaVuSans-65"/>
      <use x="188.085938" xlink:href="#DejaVuSans-72"/>
      <use x="229.183594" xlink:href="#DejaVuSans-67"/>
      <use x="292.660156" xlink:href="#DejaVuSans-79"/>
      <use x="351.839844" xlink:href="#DejaVuSans-20"/>
      <use x="383.626953" xlink:href="#DejaVuSans-5b"/>
      <use x="422.640625" xlink:href="#DejaVuSans-65"/>
      <use x="484.164062" xlink:href="#DejaVuSans-56"/>
      <use x="552.572266" xlink:href="#DejaVuSans-5d"/>
     </g>
    </g>
   </g>
   <g id="patch_3">
    <path d="M 361.152 307.584 
L 361.152 306.5445 
L 361.152 42.5115 
L 361.152 41.472 
L 374.4576 41.472 
L 374.4576 42.5115 
L 374.4576 306.5445 
L 374.4576 307.584 
z
" style="fill:none;stroke:#000000;stroke-linejoin:miter;stroke-width:0.8;"/>
   </g>
  </g>
 </g>
 <defs>
  <clipPath id="pc49d67640f">
   <rect height="266.112" width="285.696" x="57.6" y="41.472"/>
  </clipPath>
  <clipPath id="pd6c359f4db">
   <rect height="266.112" width="13.3056" x="361.152" y="41.472"/>
  </clipPath>
 </defs>
</svg>
