<?xml version="1.0" encoding="utf-8" standalone="no"?>
<!DOCTYPE svg PUBLIC "-//W3C//DTD SVG 1.1//EN"
  "http://www.w3.org/Graphics/SVG/1.1/DTD/svg11.dtd">
<!-- Created with matplotlib (http://matplotlib.org/) -->
<svg height="345.6pt" version="1.1" viewBox="0 0 460.8 345.6" width="460.8pt" xmlns="http://www.w3.org/2000/svg" xmlns:xlink="http://www.w3.org/1999/xlink">
 <defs>
  <style type="text/css">
*{stroke-linecap:butt;stroke-linejoin:round;}
  </style>
 </defs>
 <g id="figure_1">
  <g id="patch_1">
   <path d="M 0 345.6 
L 460.8 345.6 
L 460.8 0 
L 0 0 
z
" style="fill:#ffffff;"/>
  </g>
  <g id="axes_1">
   <g id="CircleCollection_1">
    <path clip-path="url(#peff14a631f)" d="M 111.001216 268.508812 
C 112.798953 268.508812 114.523302 267.794564 115.794495 266.523371 
C 117.065687 265.252179 117.779936 263.52783 117.779936 261.730093 
C 117.779936 259.932355 117.065687 258.208006 115.794495 256.936814 
C 114.523302 255.665621 112.798953 254.951373 111.001216 254.951373 
C 109.203478 254.951373 107.47913 255.665621 106.207937 256.936814 
C 104.936745 258.208006 104.222496 259.932355 104.222496 261.730093 
C 104.222496 263.52783 104.936745 265.252179 106.207937 266.523371 
C 107.47913 267.794564 109.203478 268.508812 111.001216 268.508812 
z
" style="fill:#3a548c;"/>
    <path clip-path="url(#peff14a631f)" d="M 194.129232 286.70765 
C 195.919407 286.70765 197.636503 285.996406 198.902348 284.730561 
C 200.168193 283.464716 200.879437 281.74762 200.879437 279.957445 
C 200.879437 278.16727 200.168193 276.450174 198.902348 275.184329 
C 197.636503 273.918484 195.919407 273.20724 194.129232 273.20724 
C 192.339057 273.20724 190.621961 273.918484 189.356116 275.184329 
C 188.090271 276.450174 187.379027 278.16727 187.379027 279.957445 
C 187.379027 281.74762 188.090271 283.464716 189.356116 284.730561 
C 190.621961 285.996406 192.339057 286.70765 194.129232 286.70765 
z
" style="fill:#443983;"/>
    <path clip-path="url(#peff14a631f)" d="M 203.884807 241.538472 
C 205.655672 241.538472 207.354245 240.8349 208.606436 239.58271 
C 209.858626 238.330519 210.562198 236.631946 210.562198 234.861081 
C 210.562198 233.090217 209.858626 231.391644 208.606436 230.139453 
C 207.354245 228.887263 205.655672 228.183691 203.884807 228.183691 
C 202.113943 228.183691 200.41537 228.887263 199.163179 230.139453 
C 197.910989 231.391644 197.207417 233.090217 197.207417 234.861081 
C 197.207417 236.631946 197.910989 238.330519 199.163179 239.58271 
C 200.41537 240.8349 202.113943 241.538472 203.884807 241.538472 
z
" style="fill:#3b528b;"/>
    <path clip-path="url(#peff14a631f)" d="M 329.983672 131.450072 
C 331.78341 131.450072 333.509677 130.735029 334.782284 129.462422 
C 336.05489 128.189816 336.769934 126.463548 336.769934 124.663811 
C 336.769934 122.864073 336.05489 121.137806 334.782284 119.865199 
C 333.509677 118.592593 331.78341 117.87755 329.983672 117.87755 
C 328.183935 117.87755 326.457668 118.592593 325.185061 119.865199 
C 323.912454 121.137806 323.197411 122.864073 323.197411 124.663811 
C 323.197411 126.463548 323.912454 128.189816 325.185061 129.462422 
C 326.457668 130.735029 328.183935 131.450072 329.983672 131.450072 
z
" style="fill:#fde725;"/>
    <path clip-path="url(#peff14a631f)" d="M 135.536425 291.336315 
C 137.340744 291.336315 139.071406 290.619451 140.347252 289.343605 
C 141.623098 288.067759 142.339962 286.337097 142.339962 284.532778 
C 142.339962 282.728459 141.623098 280.997798 140.347252 279.721951 
C 139.071406 278.446105 137.340744 277.729242 135.536425 277.729242 
C 133.732106 277.729242 132.001445 278.446105 130.725599 279.721951 
C 129.449752 280.997798 128.732889 282.728459 128.732889 284.532778 
C 128.732889 286.337097 129.449752 288.067759 130.725599 289.343605 
C 132.001445 290.619451 133.732106 291.336315 135.536425 291.336315 
z
" style="fill:#423f85;"/>
    <path clip-path="url(#peff14a631f)" d="M 239.115266 153.224239 
C 240.882857 153.224239 242.57829 152.521968 243.828166 151.272092 
C 245.078042 150.022216 245.780313 148.326783 245.780313 146.559192 
C 245.780313 144.791601 245.078042 143.096168 243.828166 141.846292 
C 242.57829 140.596417 240.882857 139.894145 239.115266 139.894145 
C 237.347675 139.894145 235.652242 140.596417 234.402366 141.846292 
C 233.152491 143.096168 232.450219 144.791601 232.450219 146.559192 
C 232.450219 148.326783 233.152491 150.022216 234.402366 151.272092 
C 235.652242 152.521968 237.347675 153.224239 239.115266 153.224239 
z
" style="fill:#424186;"/>
    <path clip-path="url(#peff14a631f)" d="M 268.926732 146.432715 
C 270.70349 146.432715 272.407716 145.726802 273.664073 144.470444 
C 274.920431 143.214087 275.626345 141.509861 275.626345 139.733103 
C 275.626345 137.956345 274.920431 136.252119 273.664073 134.995762 
C 272.407716 133.739404 270.70349 133.033491 268.926732 133.033491 
C 267.149974 133.033491 265.445748 133.739404 264.189391 134.995762 
C 262.933033 136.252119 262.22712 137.956345 262.22712 139.733103 
C 262.22712 141.509861 262.933033 143.214087 264.189391 144.470444 
C 265.445748 145.726802 267.149974 146.432715 268.926732 146.432715 
z
" style="fill:#482878;"/>
    <path clip-path="url(#peff14a631f)" d="M 70.901218 162.216155 
C 72.639651 162.216155 74.307117 161.525469 75.536375 160.296211 
C 76.765633 159.066953 77.45632 157.399487 77.45632 155.661054 
C 77.45632 153.922621 76.765633 152.255155 75.536375 151.025897 
C 74.307117 149.79664 72.639651 149.105953 70.901218 149.105953 
C 69.162785 149.105953 67.49532 149.79664 66.266062 151.025897 
C 65.036804 152.255155 64.346117 153.922621 64.346117 155.661054 
C 64.346117 157.399487 65.036804 159.066953 66.266062 160.296211 
C 67.49532 161.525469 69.162785 162.216155 70.901218 162.216155 
z
" style="fill:#3d4d8a;"/>
    <path clip-path="url(#peff14a631f)" d="M 160.525983 182.356728 
C 162.286713 182.356728 163.975566 181.657183 165.22059 180.412158 
C 166.465614 179.167134 167.16516 177.478282 167.16516 175.717552 
C 167.16516 173.956822 166.465614 172.26797 165.22059 171.022945 
C 163.975566 169.777921 162.286713 169.078376 160.525983 169.078376 
C 158.765253 169.078376 157.076401 169.777921 155.831377 171.022945 
C 154.586353 172.26797 153.886807 173.956822 153.886807 175.717552 
C 153.886807 177.478282 154.586353 179.167134 155.831377 180.412158 
C 157.076401 181.657183 158.765253 182.356728 160.525983 182.356728 
z
" style="fill:#450457;"/>
    <path clip-path="url(#peff14a631f)" d="M 177.055257 143.020985 
C 178.809857 143.020985 180.49283 142.323875 181.73352 141.083185 
C 182.97421 139.842495 183.67132 138.159522 183.67132 136.404921 
C 183.67132 134.650321 182.97421 132.967348 181.73352 131.726658 
C 180.49283 130.485968 178.809857 129.788857 177.055257 129.788857 
C 175.300656 129.788857 173.617683 130.485968 172.376993 131.726658 
C 171.136303 132.967348 170.439193 134.650321 170.439193 136.404921 
C 170.439193 138.159522 171.136303 139.842495 172.376993 141.083185 
C 173.617683 142.323875 175.300656 143.020985 177.055257 143.020985 
z
" style="fill:#440154;"/>
    <path clip-path="url(#peff14a631f)" d="M 145.865381 72.370102 
C 147.598517 72.370102 149.260902 71.681519 150.486415 70.456007 
C 151.711927 69.230494 152.400509 67.56811 152.400509 65.834973 
C 152.400509 64.101837 151.711927 62.439452 150.486415 61.21394 
C 149.260902 59.988427 147.598517 59.299845 145.865381 59.299845 
C 144.132245 59.299845 142.46986 59.988427 141.244347 61.21394 
C 140.018835 62.439452 139.330253 64.101837 139.330253 65.834973 
C 139.330253 67.56811 140.018835 69.230494 141.244347 70.456007 
C 142.46986 71.681519 144.132245 72.370102 145.865381 72.370102 
z
" style="fill:#472f7d;"/>
    <path clip-path="url(#peff14a631f)" d="M 165.777626 301.745343 
C 167.583748 301.745343 169.316139 301.027763 170.59326 299.750642 
C 171.870381 298.473521 172.587961 296.74113 172.587961 294.935008 
C 172.587961 293.128886 171.870381 291.396495 170.59326 290.119374 
C 169.316139 288.842253 167.583748 288.124673 165.777626 288.124673 
C 163.971504 288.124673 162.239113 288.842253 160.961992 290.119374 
C 159.684871 291.396495 158.967291 293.128886 158.967291 294.935008 
C 158.967291 296.74113 159.684871 298.473521 160.961992 299.750642 
C 162.239113 301.027763 163.971504 301.745343 165.777626 301.745343 
z
" style="fill:#424086;"/>
    <path clip-path="url(#peff14a631f)" d="M 84.849288 86.204439 
C 86.56931 86.204439 88.219116 85.521067 89.435355 84.304828 
C 90.651594 83.088589 91.334966 81.438783 91.334966 79.718761 
C 91.334966 77.998739 90.651594 76.348934 89.435355 75.132695 
C 88.219116 73.916455 86.56931 73.233084 84.849288 73.233084 
C 83.129266 73.233084 81.479461 73.916455 80.263222 75.132695 
C 79.046982 76.348934 78.363611 77.998739 78.363611 79.718761 
C 78.363611 81.438783 79.046982 83.088589 80.263222 84.304828 
C 81.479461 85.521067 83.129266 86.204439 84.849288 86.204439 
z
" style="fill:#443983;"/>
    <path clip-path="url(#peff14a631f)" d="M 225.067441 273.041604 
C 226.840152 273.041604 228.540495 272.337299 229.793991 271.083804 
C 231.047486 269.830308 231.751791 268.129965 231.751791 266.357254 
C 231.751791 264.584544 231.047486 262.884201 229.793991 261.630705 
C 228.540495 260.37721 226.840152 259.672905 225.067441 259.672905 
C 223.294731 259.672905 221.594388 260.37721 220.340892 261.630705 
C 219.087397 262.884201 218.383092 264.584544 218.383092 266.357254 
C 218.383092 268.129965 219.087397 269.830308 220.340892 271.083804 
C 221.594388 272.337299 223.294731 273.041604 225.067441 273.041604 
z
" style="fill:#2ab07f;"/>
    <path clip-path="url(#peff14a631f)" d="M 299.626581 138.627158 
C 301.413431 138.627158 303.127337 137.917235 304.390831 136.653741 
C 305.654325 135.390247 306.364248 133.676341 306.364248 131.889491 
C 306.364248 130.102641 305.654325 128.388735 304.390831 127.125242 
C 303.127337 125.861748 301.413431 125.151825 299.626581 125.151825 
C 297.839731 125.151825 296.125825 125.861748 294.862331 127.125242 
C 293.598837 128.388735 292.888914 130.102641 292.888914 131.889491 
C 292.888914 133.676341 293.598837 135.390247 294.862331 136.653741 
C 296.125825 137.917235 297.839731 138.627158 299.626581 138.627158 
z
" style="fill:#414487;"/>
    <path clip-path="url(#peff14a631f)" d="M 107.336604 229.116732 
C 109.112179 229.116732 110.815271 228.411289 112.070793 227.155767 
C 113.326314 225.900245 114.031758 224.197154 114.031758 222.421578 
C 114.031758 220.646003 113.326314 218.942911 112.070793 217.687389 
C 110.815271 216.431868 109.112179 215.726424 107.336604 215.726424 
C 105.561028 215.726424 103.857937 216.431868 102.602415 217.687389 
C 101.346893 218.942911 100.64145 220.646003 100.64145 222.421578 
C 100.64145 224.197154 101.346893 225.900245 102.602415 227.155767 
C 103.857937 228.411289 105.561028 229.116732 107.336604 229.116732 
z
" style="fill:#46337f;"/>
    <path clip-path="url(#peff14a631f)" d="M 113.898074 73.885027 
C 115.622472 73.885027 117.276475 73.199916 118.495809 71.980583 
C 119.715142 70.761249 120.400253 69.107246 120.400253 67.382848 
C 120.400253 65.65845 119.715142 64.004447 118.495809 62.785113 
C 117.276475 61.565779 115.622472 60.880669 113.898074 60.880669 
C 112.173676 60.880669 110.519673 61.565779 109.300339 62.785113 
C 108.081005 64.004447 107.395895 65.65845 107.395895 67.382848 
C 107.395895 69.107246 108.081005 70.761249 109.300339 71.980583 
C 110.519673 73.199916 112.173676 73.885027 113.898074 73.885027 
z
" style="fill:#3b518b;"/>
    <path clip-path="url(#peff14a631f)" d="M 208.129589 163.822707 
C 209.891639 163.822707 211.581757 163.122637 212.827714 161.87668 
C 214.073671 160.630722 214.773741 158.940604 214.773741 157.178555 
C 214.773741 155.416505 214.073671 153.726387 212.827714 152.48043 
C 211.581757 151.234472 209.891639 150.534403 208.129589 150.534403 
C 206.367539 150.534403 204.677421 151.234472 203.431464 152.48043 
C 202.185507 153.726387 201.485437 155.416505 201.485437 157.178555 
C 201.485437 158.940604 202.185507 160.630722 203.431464 161.87668 
C 204.677421 163.122637 206.367539 163.822707 208.129589 163.822707 
z
" style="fill:#450457;"/>
    <path clip-path="url(#peff14a631f)" d="M 170.2541 102.50281 
C 171.999742 102.50281 173.674122 101.80926 174.908477 100.574904 
C 176.142832 99.340549 176.836383 97.666169 176.836383 95.920527 
C 176.836383 94.174885 176.142832 92.500505 174.908477 91.26615 
C 173.674122 90.031795 171.999742 89.338244 170.2541 89.338244 
C 168.508458 89.338244 166.834078 90.031795 165.599723 91.26615 
C 164.365368 92.500505 163.671817 94.174885 163.671817 95.920527 
C 163.671817 97.666169 164.365368 99.340549 165.599723 100.574904 
C 166.834078 101.80926 168.508458 102.50281 170.2541 102.50281 
z
" style="fill:#423f85;"/>
    <path clip-path="url(#peff14a631f)" d="M 190.931606 203.650144 
C 192.697656 203.650144 194.391611 202.948485 195.640397 201.699699 
C 196.889183 200.450913 197.590842 198.756959 197.590842 196.990909 
C 197.590842 195.224859 196.889183 193.530904 195.640397 192.282118 
C 194.391611 191.033333 192.697656 190.331673 190.931606 190.331673 
C 189.165556 190.331673 187.471602 191.033333 186.222816 192.282118 
C 184.97403 193.530904 184.272371 195.224859 184.272371 196.990909 
C 184.272371 198.756959 184.97403 200.450913 186.222816 201.699699 
C 187.471602 202.948485 189.165556 203.650144 190.931606 203.650144 
z
" style="fill:#440154;"/>
    <path clip-path="url(#peff14a631f)" d="M 74.949985 124.429165 
C 76.677682 124.429165 78.33485 123.742744 79.556517 122.521077 
C 80.778183 121.299411 81.464604 119.642243 81.464604 117.914546 
C 81.464604 116.186849 80.778183 114.529681 79.556517 113.308015 
C 78.33485 112.086348 76.677682 111.399927 74.949985 111.399927 
C 73.222288 111.399927 71.56512 112.086348 70.343454 113.308015 
C 69.121788 114.529681 68.435366 116.186849 68.435366 117.914546 
C 68.435366 119.642243 69.121788 121.299411 70.343454 122.521077 
C 71.56512 123.742744 73.222288 124.429165 74.949985 124.429165 
z
" style="fill:#3b518b;"/>
    <path clip-path="url(#peff14a631f)" d="M 94.913554 190.232629 
C 96.668803 190.232629 98.352397 189.535262 99.593545 188.294114 
C 100.834693 187.052966 101.53206 185.369371 101.53206 183.614123 
C 101.53206 181.858875 100.834693 180.17528 99.593545 178.934132 
C 98.352397 177.692984 96.668803 176.995617 94.913554 176.995617 
C 93.158306 176.995617 91.474712 177.692984 90.233564 178.934132 
C 88.992416 180.17528 88.295048 181.858875 88.295048 183.614123 
C 88.295048 185.369371 88.992416 187.052966 90.233564 188.294114 
C 91.474712 189.535262 93.158306 190.232629 94.913554 190.232629 
z
" style="fill:#443a83;"/>
    <path clip-path="url(#peff14a631f)" d="M 128.506118 195.393046 
C 130.268884 195.393046 131.959689 194.692692 133.206153 193.446228 
C 134.452617 192.199764 135.152972 190.508959 135.152972 188.746192 
C 135.152972 186.983426 134.452617 185.292621 133.206153 184.046157 
C 131.959689 182.799693 130.268884 182.099339 128.506118 182.099339 
C 126.743352 182.099339 125.052546 182.799693 123.806082 184.046157 
C 122.559619 185.292621 121.859264 186.983426 121.859264 188.746192 
C 121.859264 190.508959 122.559619 192.199764 123.806082 193.446228 
C 125.052546 194.692692 126.743352 195.393046 128.506118 195.393046 
z
" style="fill:#404588;"/>
    <path clip-path="url(#peff14a631f)" d="M 178.780428 60.663108 
C 180.52076 60.663108 182.190046 59.971667 183.420646 58.741067 
C 184.651246 57.510466 185.342688 55.84118 185.342688 54.100849 
C 185.342688 52.360517 184.651246 50.691231 183.420646 49.46063 
C 182.190046 48.23003 180.52076 47.538589 178.780428 47.538589 
C 177.040097 47.538589 175.37081 48.23003 174.14021 49.46063 
C 172.90961 50.691231 172.218169 52.360517 172.218169 54.100849 
C 172.218169 55.84118 172.90961 57.510466 174.14021 58.741067 
C 175.37081 59.971667 177.040097 60.663108 178.780428 60.663108 
z
" style="fill:#2ab07f;"/>
   </g>
   <g id="text_1">
    <!-- Structure #8986, $E_N$=-179.80eV, ΔE=0.14eV -->
    <defs>
     <path d="M 53.515625 70.515625 
L 53.515625 60.890625 
Q 47.90625 63.578125 42.921875 64.890625 
Q 37.9375 66.21875 33.296875 66.21875 
Q 25.25 66.21875 20.875 63.09375 
Q 16.5 59.96875 16.5 54.203125 
Q 16.5 49.359375 19.40625 46.890625 
Q 22.3125 44.4375 30.421875 42.921875 
L 36.375 41.703125 
Q 47.40625 39.59375 52.65625 34.296875 
Q 57.90625 29 57.90625 20.125 
Q 57.90625 9.515625 50.796875 4.046875 
Q 43.703125 -1.421875 29.984375 -1.421875 
Q 24.8125 -1.421875 18.96875 -0.25 
Q 13.140625 0.921875 6.890625 3.21875 
L 6.890625 13.375 
Q 12.890625 10.015625 18.65625 8.296875 
Q 24.421875 6.59375 29.984375 6.59375 
Q 38.421875 6.59375 43.015625 9.90625 
Q 47.609375 13.234375 47.609375 19.390625 
Q 47.609375 24.75 44.3125 27.78125 
Q 41.015625 30.8125 33.5 32.328125 
L 27.484375 33.5 
Q 16.453125 35.6875 11.515625 40.375 
Q 6.59375 45.0625 6.59375 53.421875 
Q 6.59375 63.09375 13.40625 68.65625 
Q 20.21875 74.21875 32.171875 74.21875 
Q 37.3125 74.21875 42.625 73.28125 
Q 47.953125 72.359375 53.515625 70.515625 
z
" id="DejaVuSans-53"/>
     <path d="M 18.3125 70.21875 
L 18.3125 54.6875 
L 36.8125 54.6875 
L 36.8125 47.703125 
L 18.3125 47.703125 
L 18.3125 18.015625 
Q 18.3125 11.328125 20.140625 9.421875 
Q 21.96875 7.515625 27.59375 7.515625 
L 36.8125 7.515625 
L 36.8125 0 
L 27.59375 0 
Q 17.1875 0 13.234375 3.875 
Q 9.28125 7.765625 9.28125 18.015625 
L 9.28125 47.703125 
L 2.6875 47.703125 
L 2.6875 54.6875 
L 9.28125 54.6875 
L 9.28125 70.21875 
z
" id="DejaVuSans-74"/>
     <path d="M 41.109375 46.296875 
Q 39.59375 47.171875 37.8125 47.578125 
Q 36.03125 48 33.890625 48 
Q 26.265625 48 22.1875 43.046875 
Q 18.109375 38.09375 18.109375 28.8125 
L 18.109375 0 
L 9.078125 0 
L 9.078125 54.6875 
L 18.109375 54.6875 
L 18.109375 46.1875 
Q 20.953125 51.171875 25.484375 53.578125 
Q 30.03125 56 36.53125 56 
Q 37.453125 56 38.578125 55.875 
Q 39.703125 55.765625 41.0625 55.515625 
z
" id="DejaVuSans-72"/>
     <path d="M 8.5 21.578125 
L 8.5 54.6875 
L 17.484375 54.6875 
L 17.484375 21.921875 
Q 17.484375 14.15625 20.5 10.265625 
Q 23.53125 6.390625 29.59375 6.390625 
Q 36.859375 6.390625 41.078125 11.03125 
Q 45.3125 15.671875 45.3125 23.6875 
L 45.3125 54.6875 
L 54.296875 54.6875 
L 54.296875 0 
L 45.3125 0 
L 45.3125 8.40625 
Q 42.046875 3.421875 37.71875 1 
Q 33.40625 -1.421875 27.6875 -1.421875 
Q 18.265625 -1.421875 13.375 4.4375 
Q 8.5 10.296875 8.5 21.578125 
z
M 31.109375 56 
z
" id="DejaVuSans-75"/>
     <path d="M 48.78125 52.59375 
L 48.78125 44.1875 
Q 44.96875 46.296875 41.140625 47.34375 
Q 37.3125 48.390625 33.40625 48.390625 
Q 24.65625 48.390625 19.8125 42.84375 
Q 14.984375 37.3125 14.984375 27.296875 
Q 14.984375 17.28125 19.8125 11.734375 
Q 24.65625 6.203125 33.40625 6.203125 
Q 37.3125 6.203125 41.140625 7.25 
Q 44.96875 8.296875 48.78125 10.40625 
L 48.78125 2.09375 
Q 45.015625 0.34375 40.984375 -0.53125 
Q 36.96875 -1.421875 32.421875 -1.421875 
Q 20.0625 -1.421875 12.78125 6.34375 
Q 5.515625 14.109375 5.515625 27.296875 
Q 5.515625 40.671875 12.859375 48.328125 
Q 20.21875 56 33.015625 56 
Q 37.15625 56 41.109375 55.140625 
Q 45.0625 54.296875 48.78125 52.59375 
z
" id="DejaVuSans-63"/>
     <path d="M 56.203125 29.59375 
L 56.203125 25.203125 
L 14.890625 25.203125 
Q 15.484375 15.921875 20.484375 11.0625 
Q 25.484375 6.203125 34.421875 6.203125 
Q 39.59375 6.203125 44.453125 7.46875 
Q 49.3125 8.734375 54.109375 11.28125 
L 54.109375 2.78125 
Q 49.265625 0.734375 44.1875 -0.34375 
Q 39.109375 -1.421875 33.890625 -1.421875 
Q 20.796875 -1.421875 13.15625 6.1875 
Q 5.515625 13.8125 5.515625 26.8125 
Q 5.515625 40.234375 12.765625 48.109375 
Q 20.015625 56 32.328125 56 
Q 43.359375 56 49.78125 48.890625 
Q 56.203125 41.796875 56.203125 29.59375 
z
M 47.21875 32.234375 
Q 47.125 39.59375 43.09375 43.984375 
Q 39.0625 48.390625 32.421875 48.390625 
Q 24.90625 48.390625 20.390625 44.140625 
Q 15.875 39.890625 15.1875 32.171875 
z
" id="DejaVuSans-65"/>
     <path id="DejaVuSans-20"/>
     <path d="M 51.125 44 
L 36.921875 44 
L 32.8125 27.6875 
L 47.125 27.6875 
z
M 43.796875 71.78125 
L 38.71875 51.515625 
L 52.984375 51.515625 
L 58.109375 71.78125 
L 65.921875 71.78125 
L 60.890625 51.515625 
L 76.125 51.515625 
L 76.125 44 
L 58.984375 44 
L 54.984375 27.6875 
L 70.515625 27.6875 
L 70.515625 20.21875 
L 53.078125 20.21875 
L 48 0 
L 40.1875 0 
L 45.21875 20.21875 
L 30.90625 20.21875 
L 25.875 0 
L 18.015625 0 
L 23.09375 20.21875 
L 7.71875 20.21875 
L 7.71875 27.6875 
L 24.90625 27.6875 
L 29 44 
L 13.28125 44 
L 13.28125 51.515625 
L 30.90625 51.515625 
L 35.890625 71.78125 
z
" id="DejaVuSans-23"/>
     <path d="M 31.78125 34.625 
Q 24.75 34.625 20.71875 30.859375 
Q 16.703125 27.09375 16.703125 20.515625 
Q 16.703125 13.921875 20.71875 10.15625 
Q 24.75 6.390625 31.78125 6.390625 
Q 38.8125 6.390625 42.859375 10.171875 
Q 46.921875 13.96875 46.921875 20.515625 
Q 46.921875 27.09375 42.890625 30.859375 
Q 38.875 34.625 31.78125 34.625 
z
M 21.921875 38.8125 
Q 15.578125 40.375 12.03125 44.71875 
Q 8.5 49.078125 8.5 55.328125 
Q 8.5 64.0625 14.71875 69.140625 
Q 20.953125 74.21875 31.78125 74.21875 
Q 42.671875 74.21875 48.875 69.140625 
Q 55.078125 64.0625 55.078125 55.328125 
Q 55.078125 49.078125 51.53125 44.71875 
Q 48 40.375 41.703125 38.8125 
Q 48.828125 37.15625 52.796875 32.3125 
Q 56.78125 27.484375 56.78125 20.515625 
Q 56.78125 9.90625 50.3125 4.234375 
Q 43.84375 -1.421875 31.78125 -1.421875 
Q 19.734375 -1.421875 13.25 4.234375 
Q 6.78125 9.90625 6.78125 20.515625 
Q 6.78125 27.484375 10.78125 32.3125 
Q 14.796875 37.15625 21.921875 38.8125 
z
M 18.3125 54.390625 
Q 18.3125 48.734375 21.84375 45.5625 
Q 25.390625 42.390625 31.78125 42.390625 
Q 38.140625 42.390625 41.71875 45.5625 
Q 45.3125 48.734375 45.3125 54.390625 
Q 45.3125 60.0625 41.71875 63.234375 
Q 38.140625 66.40625 31.78125 66.40625 
Q 25.390625 66.40625 21.84375 63.234375 
Q 18.3125 60.0625 18.3125 54.390625 
z
" id="DejaVuSans-38"/>
     <path d="M 10.984375 1.515625 
L 10.984375 10.5 
Q 14.703125 8.734375 18.5 7.8125 
Q 22.3125 6.890625 25.984375 6.890625 
Q 35.75 6.890625 40.890625 13.453125 
Q 46.046875 20.015625 46.78125 33.40625 
Q 43.953125 29.203125 39.59375 26.953125 
Q 35.25 24.703125 29.984375 24.703125 
Q 19.046875 24.703125 12.671875 31.3125 
Q 6.296875 37.9375 6.296875 49.421875 
Q 6.296875 60.640625 12.9375 67.421875 
Q 19.578125 74.21875 30.609375 74.21875 
Q 43.265625 74.21875 49.921875 64.515625 
Q 56.59375 54.828125 56.59375 36.375 
Q 56.59375 19.140625 48.40625 8.859375 
Q 40.234375 -1.421875 26.421875 -1.421875 
Q 22.703125 -1.421875 18.890625 -0.6875 
Q 15.09375 0.046875 10.984375 1.515625 
z
M 30.609375 32.421875 
Q 37.25 32.421875 41.125 36.953125 
Q 45.015625 41.5 45.015625 49.421875 
Q 45.015625 57.28125 41.125 61.84375 
Q 37.25 66.40625 30.609375 66.40625 
Q 23.96875 66.40625 20.09375 61.84375 
Q 16.21875 57.28125 16.21875 49.421875 
Q 16.21875 41.5 20.09375 36.953125 
Q 23.96875 32.421875 30.609375 32.421875 
z
" id="DejaVuSans-39"/>
     <path d="M 33.015625 40.375 
Q 26.375 40.375 22.484375 35.828125 
Q 18.609375 31.296875 18.609375 23.390625 
Q 18.609375 15.53125 22.484375 10.953125 
Q 26.375 6.390625 33.015625 6.390625 
Q 39.65625 6.390625 43.53125 10.953125 
Q 47.40625 15.53125 47.40625 23.390625 
Q 47.40625 31.296875 43.53125 35.828125 
Q 39.65625 40.375 33.015625 40.375 
z
M 52.59375 71.296875 
L 52.59375 62.3125 
Q 48.875 64.0625 45.09375 64.984375 
Q 41.3125 65.921875 37.59375 65.921875 
Q 27.828125 65.921875 22.671875 59.328125 
Q 17.53125 52.734375 16.796875 39.40625 
Q 19.671875 43.65625 24.015625 45.921875 
Q 28.375 48.1875 33.59375 48.1875 
Q 44.578125 48.1875 50.953125 41.515625 
Q 57.328125 34.859375 57.328125 23.390625 
Q 57.328125 12.15625 50.6875 5.359375 
Q 44.046875 -1.421875 33.015625 -1.421875 
Q 20.359375 -1.421875 13.671875 8.265625 
Q 6.984375 17.96875 6.984375 36.375 
Q 6.984375 53.65625 15.1875 63.9375 
Q 23.390625 74.21875 37.203125 74.21875 
Q 40.921875 74.21875 44.703125 73.484375 
Q 48.484375 72.75 52.59375 71.296875 
z
" id="DejaVuSans-36"/>
     <path d="M 11.71875 12.40625 
L 22.015625 12.40625 
L 22.015625 4 
L 14.015625 -11.625 
L 7.71875 -11.625 
L 11.71875 4 
z
" id="DejaVuSans-2c"/>
     <path d="M 16.890625 72.90625 
L 62.984375 72.90625 
L 61.375 64.59375 
L 25.09375 64.59375 
L 20.90625 43.015625 
L 55.71875 43.015625 
L 54.109375 34.71875 
L 19.28125 34.71875 
L 14.203125 8.296875 
L 51.3125 8.296875 
L 49.703125 0 
L 2.6875 0 
z
" id="DejaVuSans-Oblique-45"/>
     <path d="M 16.890625 72.90625 
L 30.171875 72.90625 
L 50.296875 10.40625 
L 62.5 72.90625 
L 72.125 72.90625 
L 57.90625 0 
L 44.578125 0 
L 24.515625 62.890625 
L 12.3125 0 
L 2.6875 0 
z
" id="DejaVuSans-Oblique-4e"/>
     <path d="M 10.59375 45.40625 
L 73.1875 45.40625 
L 73.1875 37.203125 
L 10.59375 37.203125 
z
M 10.59375 25.484375 
L 73.1875 25.484375 
L 73.1875 17.1875 
L 10.59375 17.1875 
z
" id="DejaVuSans-3d"/>
     <path d="M 4.890625 31.390625 
L 31.203125 31.390625 
L 31.203125 23.390625 
L 4.890625 23.390625 
z
" id="DejaVuSans-2d"/>
     <path d="M 12.40625 8.296875 
L 28.515625 8.296875 
L 28.515625 63.921875 
L 10.984375 60.40625 
L 10.984375 69.390625 
L 28.421875 72.90625 
L 38.28125 72.90625 
L 38.28125 8.296875 
L 54.390625 8.296875 
L 54.390625 0 
L 12.40625 0 
z
" id="DejaVuSans-31"/>
     <path d="M 8.203125 72.90625 
L 55.078125 72.90625 
L 55.078125 68.703125 
L 28.609375 0 
L 18.3125 0 
L 43.21875 64.59375 
L 8.203125 64.59375 
z
" id="DejaVuSans-37"/>
     <path d="M 10.6875 12.40625 
L 21 12.40625 
L 21 0 
L 10.6875 0 
z
" id="DejaVuSans-2e"/>
     <path d="M 31.78125 66.40625 
Q 24.171875 66.40625 20.328125 58.90625 
Q 16.5 51.421875 16.5 36.375 
Q 16.5 21.390625 20.328125 13.890625 
Q 24.171875 6.390625 31.78125 6.390625 
Q 39.453125 6.390625 43.28125 13.890625 
Q 47.125 21.390625 47.125 36.375 
Q 47.125 51.421875 43.28125 58.90625 
Q 39.453125 66.40625 31.78125 66.40625 
z
M 31.78125 74.21875 
Q 44.046875 74.21875 50.515625 64.515625 
Q 56.984375 54.828125 56.984375 36.375 
Q 56.984375 17.96875 50.515625 8.265625 
Q 44.046875 -1.421875 31.78125 -1.421875 
Q 19.53125 -1.421875 13.0625 8.265625 
Q 6.59375 17.96875 6.59375 36.375 
Q 6.59375 54.828125 13.0625 64.515625 
Q 19.53125 74.21875 31.78125 74.21875 
z
" id="DejaVuSans-30"/>
     <path d="M 28.609375 0 
L 0.78125 72.90625 
L 11.078125 72.90625 
L 34.1875 11.53125 
L 57.328125 72.90625 
L 67.578125 72.90625 
L 39.796875 0 
z
" id="DejaVuSans-56"/>
     <path d="M 34.1875 63.1875 
L 14.15625 8.203125 
L 54.25 8.203125 
z
M 0.78125 0 
L 28.609375 72.90625 
L 39.796875 72.90625 
L 67.578125 0 
z
" id="DejaVuSans-394"/>
     <path d="M 9.8125 72.90625 
L 55.90625 72.90625 
L 55.90625 64.59375 
L 19.671875 64.59375 
L 19.671875 43.015625 
L 54.390625 43.015625 
L 54.390625 34.71875 
L 19.671875 34.71875 
L 19.671875 8.296875 
L 56.78125 8.296875 
L 56.78125 0 
L 9.8125 0 
z
" id="DejaVuSans-45"/>
     <path d="M 37.796875 64.3125 
L 12.890625 25.390625 
L 37.796875 25.390625 
z
M 35.203125 72.90625 
L 47.609375 72.90625 
L 47.609375 25.390625 
L 58.015625 25.390625 
L 58.015625 17.1875 
L 47.609375 17.1875 
L 47.609375 0 
L 37.796875 0 
L 37.796875 17.1875 
L 4.890625 17.1875 
L 4.890625 26.703125 
z
" id="DejaVuSans-34"/>
    </defs>
    <g transform="translate(65.388 35.472)scale(0.12 -0.12)">
     <use transform="translate(0 0.78125)" xlink:href="#DejaVuSans-53"/>
     <use transform="translate(63.476562 0.78125)" xlink:href="#DejaVuSans-74"/>
     <use transform="translate(102.685547 0.78125)" xlink:href="#DejaVuSans-72"/>
     <use transform="translate(143.798828 0.78125)" xlink:href="#DejaVuSans-75"/>
     <use transform="translate(207.177734 0.78125)" xlink:href="#DejaVuSans-63"/>
     <use transform="translate(262.158203 0.78125)" xlink:href="#DejaVuSans-74"/>
     <use transform="translate(301.367188 0.78125)" xlink:href="#DejaVuSans-75"/>
     <use transform="translate(364.746094 0.78125)" xlink:href="#DejaVuSans-72"/>
     <use transform="translate(405.859375 0.78125)" xlink:href="#DejaVuSans-65"/>
     <use transform="translate(467.382812 0.78125)" xlink:href="#DejaVuSans-20"/>
     <use transform="translate(499.169922 0.78125)" xlink:href="#DejaVuSans-23"/>
     <use transform="translate(582.958984 0.78125)" xlink:href="#DejaVuSans-38"/>
     <use transform="translate(646.582031 0.78125)" xlink:href="#DejaVuSans-39"/>
     <use transform="translate(710.205078 0.78125)" xlink:href="#DejaVuSans-38"/>
     <use transform="translate(773.828125 0.78125)" xlink:href="#DejaVuSans-36"/>
     <use transform="translate(837.451172 0.78125)" xlink:href="#DejaVuSans-2c"/>
     <use transform="translate(869.238281 0.78125)" xlink:href="#DejaVuSans-20"/>
     <use transform="translate(901.025391 0.78125)" xlink:href="#DejaVuSans-Oblique-45"/>
     <use transform="translate(964.208984 -15.625)scale(0.7)" xlink:href="#DejaVuSans-Oblique-4e"/>
     <use transform="translate(1019.306641 0.78125)" xlink:href="#DejaVuSans-3d"/>
     <use transform="translate(1103.095703 0.78125)" xlink:href="#DejaVuSans-2d"/>
     <use transform="translate(1139.179688 0.78125)" xlink:href="#DejaVuSans-31"/>
     <use transform="translate(1202.802734 0.78125)" xlink:href="#DejaVuSans-37"/>
     <use transform="translate(1266.425781 0.78125)" xlink:href="#DejaVuSans-39"/>
     <use transform="translate(1330.048828 0.78125)" xlink:href="#DejaVuSans-2e"/>
     <use transform="translate(1361.804688 0.78125)" xlink:href="#DejaVuSans-38"/>
     <use transform="translate(1425.427734 0.78125)" xlink:href="#DejaVuSans-30"/>
     <use transform="translate(1489.050781 0.78125)" xlink:href="#DejaVuSans-65"/>
     <use transform="translate(1550.574219 0.78125)" xlink:href="#DejaVuSans-56"/>
     <use transform="translate(1618.982422 0.78125)" xlink:href="#DejaVuSans-2c"/>
     <use transform="translate(1650.769531 0.78125)" xlink:href="#DejaVuSans-20"/>
     <use transform="translate(1682.556641 0.78125)" xlink:href="#DejaVuSans-394"/>
     <use transform="translate(1750.964844 0.78125)" xlink:href="#DejaVuSans-45"/>
     <use transform="translate(1814.148438 0.78125)" xlink:href="#DejaVuSans-3d"/>
     <use transform="translate(1897.9375 0.78125)" xlink:href="#DejaVuSans-30"/>
     <use transform="translate(1961.560547 0.78125)" xlink:href="#DejaVuSans-2e"/>
     <use transform="translate(1993.347656 0.78125)" xlink:href="#DejaVuSans-31"/>
     <use transform="translate(2056.970703 0.78125)" xlink:href="#DejaVuSans-34"/>
     <use transform="translate(2120.59375 0.78125)" xlink:href="#DejaVuSans-65"/>
     <use transform="translate(2182.117188 0.78125)" xlink:href="#DejaVuSans-56"/>
    </g>
   </g>
  </g>
  <g id="axes_2">
   <g id="patch_2">
    <path clip-path="url(#pdd6534a92d)" d="M 361.152 307.584 
L 361.152 306.5445 
L 361.152 42.5115 
L 361.152 41.472 
L 374.4576 41.472 
L 374.4576 42.5115 
L 374.4576 306.5445 
L 374.4576 307.584 
z
" style="fill:#ffffff;stroke:#ffffff;stroke-linejoin:miter;stroke-width:0.01;"/>
   </g>
   <image height="265.68" id="image17ae7e8c58" transform="scale(1 -1)translate(0 -265.68)" width="12.96" x="361.44" xlink:href="data:image/png;base64,
iVBORw0KGgoAAAANSUhEUgAAABIAAAFxCAYAAAB+2fgXAAAABHNCSVQICAgIfAhkiAAAAeVJREFUeJztncmNw0AQA2ckheYQNv9QLIfQ8ygsCgQ7AEI8+jAs2Puz/94F1LP2ReCsZ18bAWIeZ5XaGRBE7VnbptG+KI101FYyNSiQG2oRITXKNaX9uclOdi2XWjftVE32CZCO2ou5Bj1TcCBr/1zB9ge7Fq0Rg2NM9pvbtG+ua1QgsRYhDy0ISEiNc40BEibbSI0Coj5CBGtkpFbXJiAjNZlrwhuSOv2M1DjXbEdEciBt1JSDDQKKpmZr2rr2j0DBGpXaWEJq3bQzEPIS26r9J+Wzv9Tm8o3aajRXqc3VUXsApKNWjeZq0x4ABVNbm7lrszVigDqP5vIl2+eaT2yfRkL7g+dRcNPqjohkjaCvRVBq0H2U3LQrOJCx9kdTg4B8oxZzzTdqdYHEngjUCAPyUctN9sVRq2sTECW2UKNLd2jVtRmo1A6AhMmWaSRcR8nUdIHUuVb75zJS218EyEitro1At69pIdeSk30Lkw0FktNImGyZRhy1O5galmxd03LUsHWk06jUZiCq+5Wb1kZNN4+wJxJuWt8RAW5am2sYNZ9rYCBzZ3buPKJ2P5Yj4Toy3keyIyJbIxs1rml1byCA84gpch5RQNB7Q0qNMGq2Hy4BXdNR41yz/cEEJfZzUz96r9PoB0okjeQ8y9TkAAAAAElFTkSuQmCC" y="-41.76"/>
   <g id="matplotlib.axis_1"/>
   <g id="matplotlib.axis_2">
    <g id="ytick_1">
     <g id="line2d_1">
      <defs>
       <path d="M 0 0 
L 3.5 0 
" id="ma72932063e" style="stroke:#000000;stroke-width:0.8;"/>
      </defs>
      <g>
       <use style="stroke:#000000;stroke-width:0.8;" x="374.4576" xlink:href="#ma72932063e" y="288.18635"/>
      </g>
     </g>
     <g id="text_2">
      <!-- −8.0 -->
      <defs>
       <path d="M 10.59375 35.5 
L 73.1875 35.5 
L 73.1875 27.203125 
L 10.59375 27.203125 
z
" id="DejaVuSans-2212"/>
      </defs>
      <g transform="translate(381.4576 291.985569)scale(0.1 -0.1)">
       <use xlink:href="#DejaVuSans-2212"/>
       <use x="83.789062" xlink:href="#DejaVuSans-38"/>
       <use x="147.412109" xlink:href="#DejaVuSans-2e"/>
       <use x="179.199219" xlink:href="#DejaVuSans-30"/>
      </g>
     </g>
    </g>
    <g id="ytick_2">
     <g id="line2d_2">
      <g>
       <use style="stroke:#000000;stroke-width:0.8;" x="374.4576" xlink:href="#ma72932063e" y="246.382681"/>
      </g>
     </g>
     <g id="text_3">
      <!-- −7.5 -->
      <defs>
       <path d="M 10.796875 72.90625 
L 49.515625 72.90625 
L 49.515625 64.59375 
L 19.828125 64.59375 
L 19.828125 46.734375 
Q 21.96875 47.46875 24.109375 47.828125 
Q 26.265625 48.1875 28.421875 48.1875 
Q 40.625 48.1875 47.75 41.5 
Q 54.890625 34.8125 54.890625 23.390625 
Q 54.890625 11.625 47.5625 5.09375 
Q 40.234375 -1.421875 26.90625 -1.421875 
Q 22.3125 -1.421875 17.546875 -0.640625 
Q 12.796875 0.140625 7.71875 1.703125 
L 7.71875 11.625 
Q 12.109375 9.234375 16.796875 8.0625 
Q 21.484375 6.890625 26.703125 6.890625 
Q 35.15625 6.890625 40.078125 11.328125 
Q 45.015625 15.765625 45.015625 23.390625 
Q 45.015625 31 40.078125 35.4375 
Q 35.15625 39.890625 26.703125 39.890625 
Q 22.75 39.890625 18.8125 39.015625 
Q 14.890625 38.140625 10.796875 36.28125 
z
" id="DejaVuSans-35"/>
      </defs>
      <g transform="translate(381.4576 250.1819)scale(0.1 -0.1)">
       <use xlink:href="#DejaVuSans-2212"/>
       <use x="83.789062" xlink:href="#DejaVuSans-37"/>
       <use x="147.412109" xlink:href="#DejaVuSans-2e"/>
       <use x="179.199219" xlink:href="#DejaVuSans-35"/>
      </g>
     </g>
    </g>
    <g id="ytick_3">
     <g id="line2d_3">
      <g>
       <use style="stroke:#000000;stroke-width:0.8;" x="374.4576" xlink:href="#ma72932063e" y="204.579012"/>
      </g>
     </g>
     <g id="text_4">
      <!-- −7.0 -->
      <g transform="translate(381.4576 208.378231)scale(0.1 -0.1)">
       <use xlink:href="#DejaVuSans-2212"/>
       <use x="83.789062" xlink:href="#DejaVuSans-37"/>
       <use x="147.412109" xlink:href="#DejaVuSans-2e"/>
       <use x="179.199219" xlink:href="#DejaVuSans-30"/>
      </g>
     </g>
    </g>
    <g id="ytick_4">
     <g id="line2d_4">
      <g>
       <use style="stroke:#000000;stroke-width:0.8;" x="374.4576" xlink:href="#ma72932063e" y="162.775343"/>
      </g>
     </g>
     <g id="text_5">
      <!-- −6.5 -->
      <g transform="translate(381.4576 166.574561)scale(0.1 -0.1)">
       <use xlink:href="#DejaVuSans-2212"/>
       <use x="83.789062" xlink:href="#DejaVuSans-36"/>
       <use x="147.412109" xlink:href="#DejaVuSans-2e"/>
       <use x="179.199219" xlink:href="#DejaVuSans-35"/>
      </g>
     </g>
    </g>
    <g id="ytick_5">
     <g id="line2d_5">
      <g>
       <use style="stroke:#000000;stroke-width:0.8;" x="374.4576" xlink:href="#ma72932063e" y="120.971673"/>
      </g>
     </g>
     <g id="text_6">
      <!-- −6.0 -->
      <g transform="translate(381.4576 124.770892)scale(0.1 -0.1)">
       <use xlink:href="#DejaVuSans-2212"/>
       <use x="83.789062" xlink:href="#DejaVuSans-36"/>
       <use x="147.412109" xlink:href="#DejaVuSans-2e"/>
       <use x="179.199219" xlink:href="#DejaVuSans-30"/>
      </g>
     </g>
    </g>
    <g id="ytick_6">
     <g id="line2d_6">
      <g>
       <use style="stroke:#000000;stroke-width:0.8;" x="374.4576" xlink:href="#ma72932063e" y="79.168004"/>
      </g>
     </g>
     <g id="text_7">
      <!-- −5.5 -->
      <g transform="translate(381.4576 82.967223)scale(0.1 -0.1)">
       <use xlink:href="#DejaVuSans-2212"/>
       <use x="83.789062" xlink:href="#DejaVuSans-35"/>
       <use x="147.412109" xlink:href="#DejaVuSans-2e"/>
       <use x="179.199219" xlink:href="#DejaVuSans-35"/>
      </g>
     </g>
    </g>
    <g id="text_8">
     <!-- Energy [eV] -->
     <defs>
      <path d="M 54.890625 33.015625 
L 54.890625 0 
L 45.90625 0 
L 45.90625 32.71875 
Q 45.90625 40.484375 42.875 44.328125 
Q 39.84375 48.1875 33.796875 48.1875 
Q 26.515625 48.1875 22.3125 43.546875 
Q 18.109375 38.921875 18.109375 30.90625 
L 18.109375 0 
L 9.078125 0 
L 9.078125 54.6875 
L 18.109375 54.6875 
L 18.109375 46.1875 
Q 21.34375 51.125 25.703125 53.5625 
Q 30.078125 56 35.796875 56 
Q 45.21875 56 50.046875 50.171875 
Q 54.890625 44.34375 54.890625 33.015625 
z
" id="DejaVuSans-6e"/>
      <path d="M 45.40625 27.984375 
Q 45.40625 37.75 41.375 43.109375 
Q 37.359375 48.484375 30.078125 48.484375 
Q 22.859375 48.484375 18.828125 43.109375 
Q 14.796875 37.75 14.796875 27.984375 
Q 14.796875 18.265625 18.828125 12.890625 
Q 22.859375 7.515625 30.078125 7.515625 
Q 37.359375 7.515625 41.375 12.890625 
Q 45.40625 18.265625 45.40625 27.984375 
z
M 54.390625 6.78125 
Q 54.390625 -7.171875 48.1875 -13.984375 
Q 42 -20.796875 29.203125 -20.796875 
Q 24.46875 -20.796875 20.265625 -20.09375 
Q 16.0625 -19.390625 12.109375 -17.921875 
L 12.109375 -9.1875 
Q 16.0625 -11.328125 19.921875 -12.34375 
Q 23.78125 -13.375 27.78125 -13.375 
Q 36.625 -13.375 41.015625 -8.765625 
Q 45.40625 -4.15625 45.40625 5.171875 
L 45.40625 9.625 
Q 42.625 4.78125 38.28125 2.390625 
Q 33.9375 0 27.875 0 
Q 17.828125 0 11.671875 7.65625 
Q 5.515625 15.328125 5.515625 27.984375 
Q 5.515625 40.671875 11.671875 48.328125 
Q 17.828125 56 27.875 56 
Q 33.9375 56 38.28125 53.609375 
Q 42.625 51.21875 45.40625 46.390625 
L 45.40625 54.6875 
L 54.390625 54.6875 
z
" id="DejaVuSans-67"/>
      <path d="M 32.171875 -5.078125 
Q 28.375 -14.84375 24.75 -17.8125 
Q 21.140625 -20.796875 15.09375 -20.796875 
L 7.90625 -20.796875 
L 7.90625 -13.28125 
L 13.1875 -13.28125 
Q 16.890625 -13.28125 18.9375 -11.515625 
Q 21 -9.765625 23.484375 -3.21875 
L 25.09375 0.875 
L 2.984375 54.6875 
L 12.5 54.6875 
L 29.59375 11.921875 
L 46.6875 54.6875 
L 56.203125 54.6875 
z
" id="DejaVuSans-79"/>
      <path d="M 8.59375 75.984375 
L 29.296875 75.984375 
L 29.296875 69 
L 17.578125 69 
L 17.578125 -6.203125 
L 29.296875 -6.203125 
L 29.296875 -13.1875 
L 8.59375 -13.1875 
z
" id="DejaVuSans-5b"/>
      <path d="M 30.421875 75.984375 
L 30.421875 -13.1875 
L 9.71875 -13.1875 
L 9.71875 -6.203125 
L 21.390625 -6.203125 
L 21.390625 69 
L 9.71875 69 
L 9.71875 75.984375 
z
" id="DejaVuSans-5d"/>
     </defs>
     <g transform="translate(417.33885 204.108469)rotate(-90)scale(0.1 -0.1)">
      <use xlink:href="#DejaVuSans-45"/>
      <use x="63.183594" xlink:href="#DejaVuSans-6e"/>
      <use x="126.5625" xlink:href="#DejaVuSans-65"/>
      <use x="188.085938" xlink:href="#DejaVuSans-72"/>
      <use x="229.183594" xlink:href="#DejaVuSans-67"/>
      <use x="292.660156" xlink:href="#DejaVuSans-79"/>
      <use x="351.839844" xlink:href="#DejaVuSans-20"/>
      <use x="383.626953" xlink:href="#DejaVuSans-5b"/>
      <use x="422.640625" xlink:href="#DejaVuSans-65"/>
      <use x="484.164062" xlink:href="#DejaVuSans-56"/>
      <use x="552.572266" xlink:href="#DejaVuSans-5d"/>
     </g>
    </g>
   </g>
   <g id="patch_3">
    <path d="M 361.152 307.584 
L 361.152 306.5445 
L 361.152 42.5115 
L 361.152 41.472 
L 374.4576 41.472 
L 374.4576 42.5115 
L 374.4576 306.5445 
L 374.4576 307.584 
z
" style="fill:none;stroke:#000000;stroke-linejoin:miter;stroke-width:0.8;"/>
   </g>
  </g>
 </g>
 <defs>
  <clipPath id="peff14a631f">
   <rect height="266.112" width="285.696" x="57.6" y="41.472"/>
  </clipPath>
  <clipPath id="pdd6534a92d">
   <rect height="266.112" width="13.3056" x="361.152" y="41.472"/>
  </clipPath>
 </defs>
</svg>
