<?xml version="1.0" encoding="utf-8" standalone="no"?>
<!DOCTYPE svg PUBLIC "-//W3C//DTD SVG 1.1//EN"
  "http://www.w3.org/Graphics/SVG/1.1/DTD/svg11.dtd">
<!-- Created with matplotlib (http://matplotlib.org/) -->
<svg height="345.6pt" version="1.1" viewBox="0 0 460.8 345.6" width="460.8pt" xmlns="http://www.w3.org/2000/svg" xmlns:xlink="http://www.w3.org/1999/xlink">
 <defs>
  <style type="text/css">
*{stroke-linecap:butt;stroke-linejoin:round;}
  </style>
 </defs>
 <g id="figure_1">
  <g id="patch_1">
   <path d="M 0 345.6 
L 460.8 345.6 
L 460.8 0 
L 0 0 
z
" style="fill:#ffffff;"/>
  </g>
  <g id="axes_1">
   <g id="CircleCollection_1">
    <path clip-path="url(#p077b18be2d)" d="M 299.579177 112.045036 
C 301.335584 112.045036 303.020289 111.347208 304.262256 110.105241 
C 305.504223 108.863274 306.202051 107.178569 306.202051 105.422162 
C 306.202051 103.665756 305.504223 101.981051 304.262256 100.739084 
C 303.020289 99.497117 301.335584 98.799289 299.579177 98.799289 
C 297.822771 98.799289 296.138066 99.497117 294.896099 100.739084 
C 293.654132 101.981051 292.956304 103.665756 292.956304 105.422162 
C 292.956304 107.178569 293.654132 108.863274 294.896099 110.105241 
C 296.138066 111.347208 297.822771 112.045036 299.579177 112.045036 
z
" style="fill:#2a768e;"/>
    <path clip-path="url(#p077b18be2d)" d="M 250.951292 208.863773 
C 252.718653 208.863773 254.413864 208.161593 255.663577 206.91188 
C 256.913289 205.662168 257.615469 203.966956 257.615469 202.199596 
C 257.615469 200.432236 256.913289 198.737024 255.663577 197.487311 
C 254.413864 196.237599 252.718653 195.535419 250.951292 195.535419 
C 249.183932 195.535419 247.48872 196.237599 246.239008 197.487311 
C 244.989295 198.737024 244.287116 200.432236 244.287116 202.199596 
C 244.287116 203.966956 244.989295 205.662168 246.239008 206.91188 
C 247.48872 208.161593 249.183932 208.863773 250.951292 208.863773 
z
" style="fill:#46337f;"/>
    <path clip-path="url(#p077b18be2d)" d="M 190.127393 273.278656 
C 191.898895 273.278656 193.59808 272.574831 194.850721 271.32219 
C 196.103362 270.069549 196.807187 268.370364 196.807187 266.598862 
C 196.807187 264.82736 196.103362 263.128176 194.850721 261.875535 
C 193.59808 260.622894 191.898895 259.919069 190.127393 259.919069 
C 188.355891 259.919069 186.656707 260.622894 185.404066 261.875535 
C 184.151425 263.128176 183.4476 264.82736 183.4476 266.598862 
C 183.4476 268.370364 184.151425 270.069549 185.404066 271.32219 
C 186.656707 272.574831 188.355891 273.278656 190.127393 273.278656 
z
" style="fill:#482576;"/>
    <path clip-path="url(#p077b18be2d)" d="M 225.240277 60.696424 
C 226.993856 60.696424 228.675848 59.99972 229.915816 58.759752 
C 231.155783 57.519785 231.852487 55.837792 231.852487 54.084214 
C 231.852487 52.330635 231.155783 50.648642 229.915816 49.408675 
C 228.675848 48.168708 226.993856 47.472004 225.240277 47.472004 
C 223.486699 47.472004 221.804706 48.168708 220.564739 49.408675 
C 219.324771 50.648642 218.628067 52.330635 218.628067 54.084214 
C 218.628067 55.837792 219.324771 57.519785 220.564739 58.759752 
C 221.804706 59.99972 223.486699 60.696424 225.240277 60.696424 
z
" style="fill:#22a785;"/>
    <path clip-path="url(#p077b18be2d)" d="M 152.557731 143.709336 
C 154.31412 143.709336 155.998809 143.011515 157.240764 141.76956 
C 158.482718 140.527605 159.180539 138.842916 159.180539 137.086527 
C 159.180539 135.330138 158.482718 133.645449 157.240764 132.403494 
C 155.998809 131.161539 154.31412 130.463719 152.557731 130.463719 
C 150.801341 130.463719 149.116653 131.161539 147.874698 132.403494 
C 146.632743 133.645449 145.934922 135.330138 145.934922 137.086527 
C 145.934922 138.842916 146.632743 140.527605 147.874698 141.76956 
C 149.116653 143.011515 150.801341 143.709336 152.557731 143.709336 
z
" style="fill:#39568c;"/>
    <path clip-path="url(#p077b18be2d)" d="M 269.055576 83.831209 
C 270.811465 83.831209 272.495673 83.133587 273.737274 81.891986 
C 274.978875 80.650386 275.676497 78.966177 275.676497 77.210289 
C 275.676497 75.4544 274.978875 73.770192 273.737274 72.528591 
C 272.495673 71.28699 270.811465 70.589368 269.055576 70.589368 
C 267.299688 70.589368 265.615479 71.28699 264.373878 72.528591 
C 263.132278 73.770192 262.434656 75.4544 262.434656 77.210289 
C 262.434656 78.966177 263.132278 80.650386 264.373878 81.891986 
C 265.615479 83.133587 267.299688 83.831209 269.055576 83.831209 
z
" style="fill:#414487;"/>
    <path clip-path="url(#p077b18be2d)" d="M 303.948743 217.08744 
C 305.70304 217.08744 307.385721 216.390451 308.626196 215.149976 
C 309.86667 213.909501 310.56366 212.22682 310.56366 210.472524 
C 310.56366 208.718228 309.86667 207.035547 308.626196 205.795072 
C 307.385721 204.554597 305.70304 203.857608 303.948743 203.857608 
C 302.194447 203.857608 300.511766 204.554597 299.271291 205.795072 
C 298.030816 207.035547 297.333827 208.718228 297.333827 210.472524 
C 297.333827 212.22682 298.030816 213.909501 299.271291 215.149976 
C 300.511766 216.390451 302.194447 217.08744 303.948743 217.08744 
z
" style="fill:#471164;"/>
    <path clip-path="url(#p077b18be2d)" d="M 96.776451 203.15137 
C 98.554359 203.15137 100.259689 202.444999 101.51686 201.187828 
C 102.774031 199.930657 103.480401 198.225327 103.480401 196.447419 
C 103.480401 194.669511 102.774031 192.964181 101.51686 191.70701 
C 100.259689 190.449839 98.554359 189.743468 96.776451 189.743468 
C 94.998542 189.743468 93.293213 190.449839 92.036042 191.70701 
C 90.778871 192.964181 90.0725 194.669511 90.0725 196.447419 
C 90.0725 198.225327 90.778871 199.930657 92.036042 201.187828 
C 93.293213 202.444999 94.998542 203.15137 96.776451 203.15137 
z
" style="fill:#471365;"/>
    <path clip-path="url(#p077b18be2d)" d="M 109.844521 126.224512 
C 111.565588 126.224512 113.216397 125.540725 114.433375 124.323747 
C 115.650353 123.106768 116.33414 121.45596 116.33414 119.734893 
C 116.33414 118.013826 115.650353 116.363017 114.433375 115.146039 
C 113.216397 113.929061 111.565588 113.245274 109.844521 113.245274 
C 108.123454 113.245274 106.472646 113.929061 105.255667 115.146039 
C 104.038689 116.363017 103.354902 118.013826 103.354902 119.734893 
C 103.354902 121.45596 104.038689 123.106768 105.255667 124.323747 
C 106.472646 125.540725 108.123454 126.224512 109.844521 126.224512 
z
" style="fill:#21a685;"/>
    <path clip-path="url(#p077b18be2d)" d="M 295.99499 152.240288 
C 297.751219 152.240288 299.435753 151.542531 300.677595 150.30069 
C 301.919436 149.058848 302.617193 147.374314 302.617193 145.618085 
C 302.617193 143.861856 301.919436 142.177321 300.677595 140.93548 
C 299.435753 139.693638 297.751219 138.995881 295.99499 138.995881 
C 294.238761 138.995881 292.554226 139.693638 291.312385 140.93548 
C 290.070543 142.177321 289.372786 143.861856 289.372786 145.618085 
C 289.372786 147.374314 290.070543 149.058848 291.312385 150.30069 
C 292.554226 151.542531 294.238761 152.240288 295.99499 152.240288 
z
" style="fill:#440256;"/>
    <path clip-path="url(#p077b18be2d)" d="M 225.321272 301.544642 
C 227.06353 301.544642 228.734664 300.852435 229.966626 299.620473 
C 231.198588 298.388511 231.890795 296.717377 231.890795 294.975119 
C 231.890795 293.232861 231.198588 291.561727 229.966626 290.329765 
C 228.734664 289.097802 227.06353 288.405596 225.321272 288.405596 
C 223.579014 288.405596 221.90788 289.097802 220.675918 290.329765 
C 219.443955 291.561727 218.751749 293.232861 218.751749 294.975119 
C 218.751749 296.717377 219.443955 298.388511 220.675918 299.620473 
C 221.90788 300.852435 223.579014 301.544642 225.321272 301.544642 
z
" style="fill:#34b679;"/>
    <path clip-path="url(#p077b18be2d)" d="M 244.199965 166.764352 
C 245.965449 166.764352 247.65886 166.062917 248.907246 164.814532 
C 250.155631 163.566147 250.857065 161.872735 250.857065 160.107251 
C 250.857065 158.341768 250.155631 156.648356 248.907246 155.399971 
C 247.65886 154.151585 245.965449 153.450151 244.199965 153.450151 
C 242.434481 153.450151 240.74107 154.151585 239.492684 155.399971 
C 238.244299 156.648356 237.542865 158.341768 237.542865 160.107251 
C 237.542865 161.872735 238.244299 163.566147 239.492684 164.814532 
C 240.74107 166.062917 242.434481 166.764352 244.199965 166.764352 
z
" style="fill:#453882;"/>
    <path clip-path="url(#p077b18be2d)" d="M 94.595833 267.445762 
C 96.341962 267.445762 98.016809 266.752018 99.251508 265.517318 
C 100.486208 264.282619 101.179952 262.607772 101.179952 260.861643 
C 101.179952 259.115514 100.486208 257.440667 99.251508 256.205967 
C 98.016809 254.971268 96.341962 254.277523 94.595833 254.277523 
C 92.849704 254.277523 91.174857 254.971268 89.940158 256.205967 
C 88.705458 257.440667 88.011714 259.115514 88.011714 260.861643 
C 88.011714 262.607772 88.705458 264.282619 89.940158 265.517318 
C 91.174857 266.752018 92.849704 267.445762 94.595833 267.445762 
z
" style="fill:#1f988b;"/>
    <path clip-path="url(#p077b18be2d)" d="M 266.769367 277.007244 
C 268.520343 277.007244 270.199841 276.311574 271.437968 275.073446 
C 272.676096 273.835319 273.371766 272.155822 273.371766 270.404845 
C 273.371766 268.653868 272.676096 266.974371 271.437968 265.736243 
C 270.199841 264.498115 268.520343 263.802445 266.769367 263.802445 
C 265.01839 263.802445 263.338893 264.498115 262.100765 265.736243 
C 260.862637 266.974371 260.166967 268.653868 260.166967 270.404845 
C 260.166967 272.155822 260.862637 273.835319 262.100765 275.073446 
C 263.338893 276.311574 265.01839 277.007244 266.769367 277.007244 
z
" style="fill:#424086;"/>
    <path clip-path="url(#p077b18be2d)" d="M 108.7572 164.342508 
C 110.515659 164.342508 112.202333 163.643864 113.445752 162.400446 
C 114.68917 161.157027 115.387814 159.470353 115.387814 157.711894 
C 115.387814 155.953435 114.68917 154.266761 113.445752 153.023342 
C 112.202333 151.779924 110.515659 151.08128 108.7572 151.08128 
C 106.998741 151.08128 105.312066 151.779924 104.068648 153.023342 
C 102.825229 154.266761 102.126586 155.953435 102.126586 157.711894 
C 102.126586 159.470353 102.825229 161.157027 104.068648 162.400446 
C 105.312066 163.643864 106.998741 164.342508 108.7572 164.342508 
z
" style="fill:#404688;"/>
    <path clip-path="url(#p077b18be2d)" d="M 329.830085 182.838239 
C 331.577368 182.838239 333.253323 182.144036 334.488838 180.90852 
C 335.724354 179.673004 336.418557 177.997049 336.418557 176.249766 
C 336.418557 174.502483 335.724354 172.826528 334.488838 171.591012 
C 333.253323 170.355496 331.577368 169.661293 329.830085 169.661293 
C 328.082801 169.661293 326.406847 170.355496 325.171331 171.591012 
C 323.935815 172.826528 323.241612 174.502483 323.241612 176.249766 
C 323.241612 177.997049 323.935815 179.673004 325.171331 180.90852 
C 326.406847 182.144036 328.082801 182.838239 329.830085 182.838239 
z
" style="fill:#24aa83;"/>
    <path clip-path="url(#p077b18be2d)" d="M 141.025911 262.165357 
C 142.808051 262.165357 144.517439 261.457305 145.777601 260.197143 
C 147.037764 258.93698 147.745816 257.227592 147.745816 255.445452 
C 147.745816 253.663313 147.037764 251.953925 145.777601 250.693762 
C 144.517439 249.433599 142.808051 248.725547 141.025911 248.725547 
C 139.243772 248.725547 137.534384 249.433599 136.274221 250.693762 
C 135.014058 251.953925 134.306006 253.663313 134.306006 255.445452 
C 134.306006 257.227592 135.014058 258.93698 136.274221 260.197143 
C 137.534384 261.457305 139.243772 262.165357 141.025911 262.165357 
z
" style="fill:#471365;"/>
    <path clip-path="url(#p077b18be2d)" d="M 228.615722 245.659951 
C 230.388437 245.659951 232.088784 244.955644 233.342283 243.702145 
C 234.595782 242.448646 235.300089 240.748299 235.300089 238.975584 
C 235.300089 237.202869 234.595782 235.502521 233.342283 234.249023 
C 232.088784 232.995524 230.388437 232.291217 228.615722 232.291217 
C 226.843007 232.291217 225.142659 232.995524 223.88916 234.249023 
C 222.635662 235.502521 221.931355 237.202869 221.931355 238.975584 
C 221.931355 240.748299 222.635662 242.448646 223.88916 243.702145 
C 225.142659 244.955644 226.843007 245.659951 228.615722 245.659951 
z
" style="fill:#404688;"/>
    <path clip-path="url(#p077b18be2d)" d="M 309.00103 258.18089 
C 310.746897 258.18089 312.421492 257.48725 313.656007 256.252736 
C 314.890521 255.018221 315.584161 253.343625 315.584161 251.597759 
C 315.584161 249.851892 314.890521 248.177296 313.656007 246.942781 
C 312.421492 245.708267 310.746897 245.014627 309.00103 245.014627 
C 307.255163 245.014627 305.580567 245.708267 304.346053 246.942781 
C 303.111538 248.177296 302.417898 249.851892 302.417898 251.597759 
C 302.417898 253.343625 303.111538 255.018221 304.346053 256.252736 
C 305.580567 257.48725 307.255163 258.18089 309.00103 258.18089 
z
" style="fill:#1f988b;"/>
    <path clip-path="url(#p077b18be2d)" d="M 71.064026 234.275273 
C 72.804431 234.275273 74.473787 233.583803 75.704439 232.353151 
C 76.935091 231.1225 77.62656 229.453143 77.62656 227.712739 
C 77.62656 225.972335 76.935091 224.302979 75.704439 223.072327 
C 74.473787 221.841675 72.804431 221.150205 71.064026 221.150205 
C 69.323622 221.150205 67.654266 221.841675 66.423614 223.072327 
C 65.192962 224.302979 64.501492 225.972335 64.501492 227.712739 
C 64.501492 229.453143 65.192962 231.1225 66.423614 232.353151 
C 67.654266 233.583803 69.323622 234.275273 71.064026 234.275273 
z
" style="fill:#1e9d89;"/>
    <path clip-path="url(#p077b18be2d)" d="M 138.861697 222.558941 
C 140.680544 222.558941 142.425141 221.836306 143.71126 220.550187 
C 144.99738 219.264067 145.720015 217.519471 145.720015 215.700623 
C 145.720015 213.881776 144.99738 212.137179 143.71126 210.85106 
C 142.425141 209.564941 140.680544 208.842305 138.861697 208.842305 
C 137.04285 208.842305 135.298253 209.564941 134.012134 210.85106 
C 132.726015 212.137179 132.003379 213.881776 132.003379 215.700623 
C 132.003379 217.519471 132.726015 219.264067 134.012134 220.550187 
C 135.298253 221.836306 137.04285 222.558941 138.861697 222.558941 
z
" style="fill:#470e61;"/>
    <path clip-path="url(#p077b18be2d)" d="M 217.981724 99.628336 
C 219.739711 99.628336 221.425932 98.929881 222.669017 97.686796 
C 223.912101 96.443712 224.610557 94.757491 224.610557 92.999504 
C 224.610557 91.241517 223.912101 89.555296 222.669017 88.312211 
C 221.425932 87.069127 219.739711 86.370671 217.981724 86.370671 
C 216.223738 86.370671 214.537517 87.069127 213.294432 88.312211 
C 212.051348 89.555296 211.352892 91.241517 211.352892 92.999504 
C 211.352892 94.757491 212.051348 96.443712 213.294432 97.686796 
C 214.537517 98.929881 216.223738 99.628336 217.981724 99.628336 
z
" style="fill:#355e8d;"/>
    <path clip-path="url(#p077b18be2d)" d="M 168.19662 202.855177 
C 170.066382 202.855177 171.859815 202.112312 173.181936 200.790191 
C 174.504057 199.46807 175.246921 197.674637 175.246921 195.804876 
C 175.246921 193.935114 174.504057 192.141681 173.181936 190.81956 
C 171.859815 189.497439 170.066382 188.754575 168.19662 188.754575 
C 166.326859 188.754575 164.533426 189.497439 163.211305 190.81956 
C 161.889183 192.141681 161.146319 193.935114 161.146319 195.804876 
C 161.146319 197.674637 161.889183 199.46807 163.211305 200.790191 
C 164.533426 202.112312 166.326859 202.855177 168.19662 202.855177 
z
" style="fill:#fde725;"/>
    <path clip-path="url(#p077b18be2d)" d="M 204.833233 139.414271 
C 206.595905 139.414271 208.28662 138.713954 209.533017 137.467556 
C 210.779415 136.221159 211.479732 134.530444 211.479732 132.767772 
C 211.479732 131.0051 210.779415 129.314385 209.533017 128.067988 
C 208.28662 126.82159 206.595905 126.121273 204.833233 126.121273 
C 203.070561 126.121273 201.379846 126.82159 200.133449 128.067988 
C 198.887051 129.314385 198.186734 131.0051 198.186734 132.767772 
C 198.186734 134.530444 198.887051 136.221159 200.133449 137.467556 
C 201.379846 138.713954 203.070561 139.414271 204.833233 139.414271 
z
" style="fill:#440154;"/>
   </g>
   <g id="text_1">
    <!-- Structure #6028, $E_N$=-175.43eV, ΔE=0.08eV -->
    <defs>
     <path d="M 53.515625 70.515625 
L 53.515625 60.890625 
Q 47.90625 63.578125 42.921875 64.890625 
Q 37.9375 66.21875 33.296875 66.21875 
Q 25.25 66.21875 20.875 63.09375 
Q 16.5 59.96875 16.5 54.203125 
Q 16.5 49.359375 19.40625 46.890625 
Q 22.3125 44.4375 30.421875 42.921875 
L 36.375 41.703125 
Q 47.40625 39.59375 52.65625 34.296875 
Q 57.90625 29 57.90625 20.125 
Q 57.90625 9.515625 50.796875 4.046875 
Q 43.703125 -1.421875 29.984375 -1.421875 
Q 24.8125 -1.421875 18.96875 -0.25 
Q 13.140625 0.921875 6.890625 3.21875 
L 6.890625 13.375 
Q 12.890625 10.015625 18.65625 8.296875 
Q 24.421875 6.59375 29.984375 6.59375 
Q 38.421875 6.59375 43.015625 9.90625 
Q 47.609375 13.234375 47.609375 19.390625 
Q 47.609375 24.75 44.3125 27.78125 
Q 41.015625 30.8125 33.5 32.328125 
L 27.484375 33.5 
Q 16.453125 35.6875 11.515625 40.375 
Q 6.59375 45.0625 6.59375 53.421875 
Q 6.59375 63.09375 13.40625 68.65625 
Q 20.21875 74.21875 32.171875 74.21875 
Q 37.3125 74.21875 42.625 73.28125 
Q 47.953125 72.359375 53.515625 70.515625 
z
" id="DejaVuSans-53"/>
     <path d="M 18.3125 70.21875 
L 18.3125 54.6875 
L 36.8125 54.6875 
L 36.8125 47.703125 
L 18.3125 47.703125 
L 18.3125 18.015625 
Q 18.3125 11.328125 20.140625 9.421875 
Q 21.96875 7.515625 27.59375 7.515625 
L 36.8125 7.515625 
L 36.8125 0 
L 27.59375 0 
Q 17.1875 0 13.234375 3.875 
Q 9.28125 7.765625 9.28125 18.015625 
L 9.28125 47.703125 
L 2.6875 47.703125 
L 2.6875 54.6875 
L 9.28125 54.6875 
L 9.28125 70.21875 
z
" id="DejaVuSans-74"/>
     <path d="M 41.109375 46.296875 
Q 39.59375 47.171875 37.8125 47.578125 
Q 36.03125 48 33.890625 48 
Q 26.265625 48 22.1875 43.046875 
Q 18.109375 38.09375 18.109375 28.8125 
L 18.109375 0 
L 9.078125 0 
L 9.078125 54.6875 
L 18.109375 54.6875 
L 18.109375 46.1875 
Q 20.953125 51.171875 25.484375 53.578125 
Q 30.03125 56 36.53125 56 
Q 37.453125 56 38.578125 55.875 
Q 39.703125 55.765625 41.0625 55.515625 
z
" id="DejaVuSans-72"/>
     <path d="M 8.5 21.578125 
L 8.5 54.6875 
L 17.484375 54.6875 
L 17.484375 21.921875 
Q 17.484375 14.15625 20.5 10.265625 
Q 23.53125 6.390625 29.59375 6.390625 
Q 36.859375 6.390625 41.078125 11.03125 
Q 45.3125 15.671875 45.3125 23.6875 
L 45.3125 54.6875 
L 54.296875 54.6875 
L 54.296875 0 
L 45.3125 0 
L 45.3125 8.40625 
Q 42.046875 3.421875 37.71875 1 
Q 33.40625 -1.421875 27.6875 -1.421875 
Q 18.265625 -1.421875 13.375 4.4375 
Q 8.5 10.296875 8.5 21.578125 
z
M 31.109375 56 
z
" id="DejaVuSans-75"/>
     <path d="M 48.78125 52.59375 
L 48.78125 44.1875 
Q 44.96875 46.296875 41.140625 47.34375 
Q 37.3125 48.390625 33.40625 48.390625 
Q 24.65625 48.390625 19.8125 42.84375 
Q 14.984375 37.3125 14.984375 27.296875 
Q 14.984375 17.28125 19.8125 11.734375 
Q 24.65625 6.203125 33.40625 6.203125 
Q 37.3125 6.203125 41.140625 7.25 
Q 44.96875 8.296875 48.78125 10.40625 
L 48.78125 2.09375 
Q 45.015625 0.34375 40.984375 -0.53125 
Q 36.96875 -1.421875 32.421875 -1.421875 
Q 20.0625 -1.421875 12.78125 6.34375 
Q 5.515625 14.109375 5.515625 27.296875 
Q 5.515625 40.671875 12.859375 48.328125 
Q 20.21875 56 33.015625 56 
Q 37.15625 56 41.109375 55.140625 
Q 45.0625 54.296875 48.78125 52.59375 
z
" id="DejaVuSans-63"/>
     <path d="M 56.203125 29.59375 
L 56.203125 25.203125 
L 14.890625 25.203125 
Q 15.484375 15.921875 20.484375 11.0625 
Q 25.484375 6.203125 34.421875 6.203125 
Q 39.59375 6.203125 44.453125 7.46875 
Q 49.3125 8.734375 54.109375 11.28125 
L 54.109375 2.78125 
Q 49.265625 0.734375 44.1875 -0.34375 
Q 39.109375 -1.421875 33.890625 -1.421875 
Q 20.796875 -1.421875 13.15625 6.1875 
Q 5.515625 13.8125 5.515625 26.8125 
Q 5.515625 40.234375 12.765625 48.109375 
Q 20.015625 56 32.328125 56 
Q 43.359375 56 49.78125 48.890625 
Q 56.203125 41.796875 56.203125 29.59375 
z
M 47.21875 32.234375 
Q 47.125 39.59375 43.09375 43.984375 
Q 39.0625 48.390625 32.421875 48.390625 
Q 24.90625 48.390625 20.390625 44.140625 
Q 15.875 39.890625 15.1875 32.171875 
z
" id="DejaVuSans-65"/>
     <path id="DejaVuSans-20"/>
     <path d="M 51.125 44 
L 36.921875 44 
L 32.8125 27.6875 
L 47.125 27.6875 
z
M 43.796875 71.78125 
L 38.71875 51.515625 
L 52.984375 51.515625 
L 58.109375 71.78125 
L 65.921875 71.78125 
L 60.890625 51.515625 
L 76.125 51.515625 
L 76.125 44 
L 58.984375 44 
L 54.984375 27.6875 
L 70.515625 27.6875 
L 70.515625 20.21875 
L 53.078125 20.21875 
L 48 0 
L 40.1875 0 
L 45.21875 20.21875 
L 30.90625 20.21875 
L 25.875 0 
L 18.015625 0 
L 23.09375 20.21875 
L 7.71875 20.21875 
L 7.71875 27.6875 
L 24.90625 27.6875 
L 29 44 
L 13.28125 44 
L 13.28125 51.515625 
L 30.90625 51.515625 
L 35.890625 71.78125 
z
" id="DejaVuSans-23"/>
     <path d="M 33.015625 40.375 
Q 26.375 40.375 22.484375 35.828125 
Q 18.609375 31.296875 18.609375 23.390625 
Q 18.609375 15.53125 22.484375 10.953125 
Q 26.375 6.390625 33.015625 6.390625 
Q 39.65625 6.390625 43.53125 10.953125 
Q 47.40625 15.53125 47.40625 23.390625 
Q 47.40625 31.296875 43.53125 35.828125 
Q 39.65625 40.375 33.015625 40.375 
z
M 52.59375 71.296875 
L 52.59375 62.3125 
Q 48.875 64.0625 45.09375 64.984375 
Q 41.3125 65.921875 37.59375 65.921875 
Q 27.828125 65.921875 22.671875 59.328125 
Q 17.53125 52.734375 16.796875 39.40625 
Q 19.671875 43.65625 24.015625 45.921875 
Q 28.375 48.1875 33.59375 48.1875 
Q 44.578125 48.1875 50.953125 41.515625 
Q 57.328125 34.859375 57.328125 23.390625 
Q 57.328125 12.15625 50.6875 5.359375 
Q 44.046875 -1.421875 33.015625 -1.421875 
Q 20.359375 -1.421875 13.671875 8.265625 
Q 6.984375 17.96875 6.984375 36.375 
Q 6.984375 53.65625 15.1875 63.9375 
Q 23.390625 74.21875 37.203125 74.21875 
Q 40.921875 74.21875 44.703125 73.484375 
Q 48.484375 72.75 52.59375 71.296875 
z
" id="DejaVuSans-36"/>
     <path d="M 31.78125 66.40625 
Q 24.171875 66.40625 20.328125 58.90625 
Q 16.5 51.421875 16.5 36.375 
Q 16.5 21.390625 20.328125 13.890625 
Q 24.171875 6.390625 31.78125 6.390625 
Q 39.453125 6.390625 43.28125 13.890625 
Q 47.125 21.390625 47.125 36.375 
Q 47.125 51.421875 43.28125 58.90625 
Q 39.453125 66.40625 31.78125 66.40625 
z
M 31.78125 74.21875 
Q 44.046875 74.21875 50.515625 64.515625 
Q 56.984375 54.828125 56.984375 36.375 
Q 56.984375 17.96875 50.515625 8.265625 
Q 44.046875 -1.421875 31.78125 -1.421875 
Q 19.53125 -1.421875 13.0625 8.265625 
Q 6.59375 17.96875 6.59375 36.375 
Q 6.59375 54.828125 13.0625 64.515625 
Q 19.53125 74.21875 31.78125 74.21875 
z
" id="DejaVuSans-30"/>
     <path d="M 19.1875 8.296875 
L 53.609375 8.296875 
L 53.609375 0 
L 7.328125 0 
L 7.328125 8.296875 
Q 12.9375 14.109375 22.625 23.890625 
Q 32.328125 33.6875 34.8125 36.53125 
Q 39.546875 41.84375 41.421875 45.53125 
Q 43.3125 49.21875 43.3125 52.78125 
Q 43.3125 58.59375 39.234375 62.25 
Q 35.15625 65.921875 28.609375 65.921875 
Q 23.96875 65.921875 18.8125 64.3125 
Q 13.671875 62.703125 7.8125 59.421875 
L 7.8125 69.390625 
Q 13.765625 71.78125 18.9375 73 
Q 24.125 74.21875 28.421875 74.21875 
Q 39.75 74.21875 46.484375 68.546875 
Q 53.21875 62.890625 53.21875 53.421875 
Q 53.21875 48.921875 51.53125 44.890625 
Q 49.859375 40.875 45.40625 35.40625 
Q 44.1875 33.984375 37.640625 27.21875 
Q 31.109375 20.453125 19.1875 8.296875 
z
" id="DejaVuSans-32"/>
     <path d="M 31.78125 34.625 
Q 24.75 34.625 20.71875 30.859375 
Q 16.703125 27.09375 16.703125 20.515625 
Q 16.703125 13.921875 20.71875 10.15625 
Q 24.75 6.390625 31.78125 6.390625 
Q 38.8125 6.390625 42.859375 10.171875 
Q 46.921875 13.96875 46.921875 20.515625 
Q 46.921875 27.09375 42.890625 30.859375 
Q 38.875 34.625 31.78125 34.625 
z
M 21.921875 38.8125 
Q 15.578125 40.375 12.03125 44.71875 
Q 8.5 49.078125 8.5 55.328125 
Q 8.5 64.0625 14.71875 69.140625 
Q 20.953125 74.21875 31.78125 74.21875 
Q 42.671875 74.21875 48.875 69.140625 
Q 55.078125 64.0625 55.078125 55.328125 
Q 55.078125 49.078125 51.53125 44.71875 
Q 48 40.375 41.703125 38.8125 
Q 48.828125 37.15625 52.796875 32.3125 
Q 56.78125 27.484375 56.78125 20.515625 
Q 56.78125 9.90625 50.3125 4.234375 
Q 43.84375 -1.421875 31.78125 -1.421875 
Q 19.734375 -1.421875 13.25 4.234375 
Q 6.78125 9.90625 6.78125 20.515625 
Q 6.78125 27.484375 10.78125 32.3125 
Q 14.796875 37.15625 21.921875 38.8125 
z
M 18.3125 54.390625 
Q 18.3125 48.734375 21.84375 45.5625 
Q 25.390625 42.390625 31.78125 42.390625 
Q 38.140625 42.390625 41.71875 45.5625 
Q 45.3125 48.734375 45.3125 54.390625 
Q 45.3125 60.0625 41.71875 63.234375 
Q 38.140625 66.40625 31.78125 66.40625 
Q 25.390625 66.40625 21.84375 63.234375 
Q 18.3125 60.0625 18.3125 54.390625 
z
" id="DejaVuSans-38"/>
     <path d="M 11.71875 12.40625 
L 22.015625 12.40625 
L 22.015625 4 
L 14.015625 -11.625 
L 7.71875 -11.625 
L 11.71875 4 
z
" id="DejaVuSans-2c"/>
     <path d="M 16.890625 72.90625 
L 62.984375 72.90625 
L 61.375 64.59375 
L 25.09375 64.59375 
L 20.90625 43.015625 
L 55.71875 43.015625 
L 54.109375 34.71875 
L 19.28125 34.71875 
L 14.203125 8.296875 
L 51.3125 8.296875 
L 49.703125 0 
L 2.6875 0 
z
" id="DejaVuSans-Oblique-45"/>
     <path d="M 16.890625 72.90625 
L 30.171875 72.90625 
L 50.296875 10.40625 
L 62.5 72.90625 
L 72.125 72.90625 
L 57.90625 0 
L 44.578125 0 
L 24.515625 62.890625 
L 12.3125 0 
L 2.6875 0 
z
" id="DejaVuSans-Oblique-4e"/>
     <path d="M 10.59375 45.40625 
L 73.1875 45.40625 
L 73.1875 37.203125 
L 10.59375 37.203125 
z
M 10.59375 25.484375 
L 73.1875 25.484375 
L 73.1875 17.1875 
L 10.59375 17.1875 
z
" id="DejaVuSans-3d"/>
     <path d="M 4.890625 31.390625 
L 31.203125 31.390625 
L 31.203125 23.390625 
L 4.890625 23.390625 
z
" id="DejaVuSans-2d"/>
     <path d="M 12.40625 8.296875 
L 28.515625 8.296875 
L 28.515625 63.921875 
L 10.984375 60.40625 
L 10.984375 69.390625 
L 28.421875 72.90625 
L 38.28125 72.90625 
L 38.28125 8.296875 
L 54.390625 8.296875 
L 54.390625 0 
L 12.40625 0 
z
" id="DejaVuSans-31"/>
     <path d="M 8.203125 72.90625 
L 55.078125 72.90625 
L 55.078125 68.703125 
L 28.609375 0 
L 18.3125 0 
L 43.21875 64.59375 
L 8.203125 64.59375 
z
" id="DejaVuSans-37"/>
     <path d="M 10.796875 72.90625 
L 49.515625 72.90625 
L 49.515625 64.59375 
L 19.828125 64.59375 
L 19.828125 46.734375 
Q 21.96875 47.46875 24.109375 47.828125 
Q 26.265625 48.1875 28.421875 48.1875 
Q 40.625 48.1875 47.75 41.5 
Q 54.890625 34.8125 54.890625 23.390625 
Q 54.890625 11.625 47.5625 5.09375 
Q 40.234375 -1.421875 26.90625 -1.421875 
Q 22.3125 -1.421875 17.546875 -0.640625 
Q 12.796875 0.140625 7.71875 1.703125 
L 7.71875 11.625 
Q 12.109375 9.234375 16.796875 8.0625 
Q 21.484375 6.890625 26.703125 6.890625 
Q 35.15625 6.890625 40.078125 11.328125 
Q 45.015625 15.765625 45.015625 23.390625 
Q 45.015625 31 40.078125 35.4375 
Q 35.15625 39.890625 26.703125 39.890625 
Q 22.75 39.890625 18.8125 39.015625 
Q 14.890625 38.140625 10.796875 36.28125 
z
" id="DejaVuSans-35"/>
     <path d="M 10.6875 12.40625 
L 21 12.40625 
L 21 0 
L 10.6875 0 
z
" id="DejaVuSans-2e"/>
     <path d="M 37.796875 64.3125 
L 12.890625 25.390625 
L 37.796875 25.390625 
z
M 35.203125 72.90625 
L 47.609375 72.90625 
L 47.609375 25.390625 
L 58.015625 25.390625 
L 58.015625 17.1875 
L 47.609375 17.1875 
L 47.609375 0 
L 37.796875 0 
L 37.796875 17.1875 
L 4.890625 17.1875 
L 4.890625 26.703125 
z
" id="DejaVuSans-34"/>
     <path d="M 40.578125 39.3125 
Q 47.65625 37.796875 51.625 33 
Q 55.609375 28.21875 55.609375 21.1875 
Q 55.609375 10.40625 48.1875 4.484375 
Q 40.765625 -1.421875 27.09375 -1.421875 
Q 22.515625 -1.421875 17.65625 -0.515625 
Q 12.796875 0.390625 7.625 2.203125 
L 7.625 11.71875 
Q 11.71875 9.328125 16.59375 8.109375 
Q 21.484375 6.890625 26.8125 6.890625 
Q 36.078125 6.890625 40.9375 10.546875 
Q 45.796875 14.203125 45.796875 21.1875 
Q 45.796875 27.640625 41.28125 31.265625 
Q 36.765625 34.90625 28.71875 34.90625 
L 20.21875 34.90625 
L 20.21875 43.015625 
L 29.109375 43.015625 
Q 36.375 43.015625 40.234375 45.921875 
Q 44.09375 48.828125 44.09375 54.296875 
Q 44.09375 59.90625 40.109375 62.90625 
Q 36.140625 65.921875 28.71875 65.921875 
Q 24.65625 65.921875 20.015625 65.03125 
Q 15.375 64.15625 9.8125 62.3125 
L 9.8125 71.09375 
Q 15.4375 72.65625 20.34375 73.4375 
Q 25.25 74.21875 29.59375 74.21875 
Q 40.828125 74.21875 47.359375 69.109375 
Q 53.90625 64.015625 53.90625 55.328125 
Q 53.90625 49.265625 50.4375 45.09375 
Q 46.96875 40.921875 40.578125 39.3125 
z
" id="DejaVuSans-33"/>
     <path d="M 28.609375 0 
L 0.78125 72.90625 
L 11.078125 72.90625 
L 34.1875 11.53125 
L 57.328125 72.90625 
L 67.578125 72.90625 
L 39.796875 0 
z
" id="DejaVuSans-56"/>
     <path d="M 34.1875 63.1875 
L 14.15625 8.203125 
L 54.25 8.203125 
z
M 0.78125 0 
L 28.609375 72.90625 
L 39.796875 72.90625 
L 67.578125 0 
z
" id="DejaVuSans-394"/>
     <path d="M 9.8125 72.90625 
L 55.90625 72.90625 
L 55.90625 64.59375 
L 19.671875 64.59375 
L 19.671875 43.015625 
L 54.390625 43.015625 
L 54.390625 34.71875 
L 19.671875 34.71875 
L 19.671875 8.296875 
L 56.78125 8.296875 
L 56.78125 0 
L 9.8125 0 
z
" id="DejaVuSans-45"/>
    </defs>
    <g transform="translate(65.388 35.472)scale(0.12 -0.12)">
     <use transform="translate(0 0.78125)" xlink:href="#DejaVuSans-53"/>
     <use transform="translate(63.476562 0.78125)" xlink:href="#DejaVuSans-74"/>
     <use transform="translate(102.685547 0.78125)" xlink:href="#DejaVuSans-72"/>
     <use transform="translate(143.798828 0.78125)" xlink:href="#DejaVuSans-75"/>
     <use transform="translate(207.177734 0.78125)" xlink:href="#DejaVuSans-63"/>
     <use transform="translate(262.158203 0.78125)" xlink:href="#DejaVuSans-74"/>
     <use transform="translate(301.367188 0.78125)" xlink:href="#DejaVuSans-75"/>
     <use transform="translate(364.746094 0.78125)" xlink:href="#DejaVuSans-72"/>
     <use transform="translate(405.859375 0.78125)" xlink:href="#DejaVuSans-65"/>
     <use transform="translate(467.382812 0.78125)" xlink:href="#DejaVuSans-20"/>
     <use transform="translate(499.169922 0.78125)" xlink:href="#DejaVuSans-23"/>
     <use transform="translate(582.958984 0.78125)" xlink:href="#DejaVuSans-36"/>
     <use transform="translate(646.582031 0.78125)" xlink:href="#DejaVuSans-30"/>
     <use transform="translate(710.205078 0.78125)" xlink:href="#DejaVuSans-32"/>
     <use transform="translate(773.828125 0.78125)" xlink:href="#DejaVuSans-38"/>
     <use transform="translate(837.451172 0.78125)" xlink:href="#DejaVuSans-2c"/>
     <use transform="translate(869.238281 0.78125)" xlink:href="#DejaVuSans-20"/>
     <use transform="translate(901.025391 0.78125)" xlink:href="#DejaVuSans-Oblique-45"/>
     <use transform="translate(964.208984 -15.625)scale(0.7)" xlink:href="#DejaVuSans-Oblique-4e"/>
     <use transform="translate(1019.306641 0.78125)" xlink:href="#DejaVuSans-3d"/>
     <use transform="translate(1103.095703 0.78125)" xlink:href="#DejaVuSans-2d"/>
     <use transform="translate(1139.179688 0.78125)" xlink:href="#DejaVuSans-31"/>
     <use transform="translate(1202.802734 0.78125)" xlink:href="#DejaVuSans-37"/>
     <use transform="translate(1266.425781 0.78125)" xlink:href="#DejaVuSans-35"/>
     <use transform="translate(1330.048828 0.78125)" xlink:href="#DejaVuSans-2e"/>
     <use transform="translate(1361.835938 0.78125)" xlink:href="#DejaVuSans-34"/>
     <use transform="translate(1425.458984 0.78125)" xlink:href="#DejaVuSans-33"/>
     <use transform="translate(1489.082031 0.78125)" xlink:href="#DejaVuSans-65"/>
     <use transform="translate(1550.605469 0.78125)" xlink:href="#DejaVuSans-56"/>
     <use transform="translate(1619.013672 0.78125)" xlink:href="#DejaVuSans-2c"/>
     <use transform="translate(1650.800781 0.78125)" xlink:href="#DejaVuSans-20"/>
     <use transform="translate(1682.587891 0.78125)" xlink:href="#DejaVuSans-394"/>
     <use transform="translate(1750.996094 0.78125)" xlink:href="#DejaVuSans-45"/>
     <use transform="translate(1814.179688 0.78125)" xlink:href="#DejaVuSans-3d"/>
     <use transform="translate(1897.96875 0.78125)" xlink:href="#DejaVuSans-30"/>
     <use transform="translate(1961.591797 0.78125)" xlink:href="#DejaVuSans-2e"/>
     <use transform="translate(1993.378906 0.78125)" xlink:href="#DejaVuSans-30"/>
     <use transform="translate(2057.001953 0.78125)" xlink:href="#DejaVuSans-38"/>
     <use transform="translate(2120.625 0.78125)" xlink:href="#DejaVuSans-65"/>
     <use transform="translate(2182.148438 0.78125)" xlink:href="#DejaVuSans-56"/>
    </g>
   </g>
  </g>
  <g id="axes_2">
   <g id="patch_2">
    <path clip-path="url(#pfda448647b)" d="M 361.152 307.584 
L 361.152 306.5445 
L 361.152 42.5115 
L 361.152 41.472 
L 374.4576 41.472 
L 374.4576 42.5115 
L 374.4576 306.5445 
L 374.4576 307.584 
z
" style="fill:#ffffff;stroke:#ffffff;stroke-linejoin:miter;stroke-width:0.01;"/>
   </g>
   <image height="265.68" id="imagef3ad3c0701" transform="scale(1 -1)translate(0 -265.68)" width="12.96" x="361.44" xlink:href="data:image/png;base64,
iVBORw0KGgoAAAANSUhEUgAAABIAAAFxCAYAAAB+2fgXAAAABHNCSVQICAgIfAhkiAAAAeVJREFUeJztncmNw0AQA2ckheYQNv9QLIfQ8ygsCgQ7AEI8+jAs2Puz/94F1LP2ReCsZ18bAWIeZ5XaGRBE7VnbptG+KI101FYyNSiQG2oRITXKNaX9uclOdi2XWjftVE32CZCO2ou5Bj1TcCBr/1zB9ge7Fq0Rg2NM9pvbtG+ua1QgsRYhDy0ISEiNc40BEibbSI0Coj5CBGtkpFbXJiAjNZlrwhuSOv2M1DjXbEdEciBt1JSDDQKKpmZr2rr2j0DBGpXaWEJq3bQzEPIS26r9J+Wzv9Tm8o3aajRXqc3VUXsApKNWjeZq0x4ABVNbm7lrszVigDqP5vIl2+eaT2yfRkL7g+dRcNPqjohkjaCvRVBq0H2U3LQrOJCx9kdTg4B8oxZzzTdqdYHEngjUCAPyUctN9sVRq2sTECW2UKNLd2jVtRmo1A6AhMmWaSRcR8nUdIHUuVb75zJS218EyEitro1At69pIdeSk30Lkw0FktNImGyZRhy1O5galmxd03LUsHWk06jUZiCq+5Wb1kZNN4+wJxJuWt8RAW5am2sYNZ9rYCBzZ3buPKJ2P5Yj4Toy3keyIyJbIxs1rml1byCA84gpch5RQNB7Q0qNMGq2Hy4BXdNR41yz/cEEJfZzUz96r9PoB0okjeQ8y9TkAAAAAElFTkSuQmCC" y="-41.76"/>
   <g id="matplotlib.axis_1"/>
   <g id="matplotlib.axis_2">
    <g id="ytick_1">
     <g id="line2d_1">
      <defs>
       <path d="M 0 0 
L 3.5 0 
" id="m97addf0de8" style="stroke:#000000;stroke-width:0.8;"/>
      </defs>
      <g>
       <use style="stroke:#000000;stroke-width:0.8;" x="374.4576" xlink:href="#m97addf0de8" y="299.255214"/>
      </g>
     </g>
     <g id="text_2">
      <!-- −8.5 -->
      <defs>
       <path d="M 10.59375 35.5 
L 73.1875 35.5 
L 73.1875 27.203125 
L 10.59375 27.203125 
z
" id="DejaVuSans-2212"/>
      </defs>
      <g transform="translate(381.4576 303.054433)scale(0.1 -0.1)">
       <use xlink:href="#DejaVuSans-2212"/>
       <use x="83.789062" xlink:href="#DejaVuSans-38"/>
       <use x="147.412109" xlink:href="#DejaVuSans-2e"/>
       <use x="179.199219" xlink:href="#DejaVuSans-35"/>
      </g>
     </g>
    </g>
    <g id="ytick_2">
     <g id="line2d_2">
      <g>
       <use style="stroke:#000000;stroke-width:0.8;" x="374.4576" xlink:href="#m97addf0de8" y="268.071083"/>
      </g>
     </g>
     <g id="text_3">
      <!-- −8.0 -->
      <g transform="translate(381.4576 271.870302)scale(0.1 -0.1)">
       <use xlink:href="#DejaVuSans-2212"/>
       <use x="83.789062" xlink:href="#DejaVuSans-38"/>
       <use x="147.412109" xlink:href="#DejaVuSans-2e"/>
       <use x="179.199219" xlink:href="#DejaVuSans-30"/>
      </g>
     </g>
    </g>
    <g id="ytick_3">
     <g id="line2d_3">
      <g>
       <use style="stroke:#000000;stroke-width:0.8;" x="374.4576" xlink:href="#m97addf0de8" y="236.886953"/>
      </g>
     </g>
     <g id="text_4">
      <!-- −7.5 -->
      <g transform="translate(381.4576 240.686171)scale(0.1 -0.1)">
       <use xlink:href="#DejaVuSans-2212"/>
       <use x="83.789062" xlink:href="#DejaVuSans-37"/>
       <use x="147.412109" xlink:href="#DejaVuSans-2e"/>
       <use x="179.199219" xlink:href="#DejaVuSans-35"/>
      </g>
     </g>
    </g>
    <g id="ytick_4">
     <g id="line2d_4">
      <g>
       <use style="stroke:#000000;stroke-width:0.8;" x="374.4576" xlink:href="#m97addf0de8" y="205.702822"/>
      </g>
     </g>
     <g id="text_5">
      <!-- −7.0 -->
      <g transform="translate(381.4576 209.502041)scale(0.1 -0.1)">
       <use xlink:href="#DejaVuSans-2212"/>
       <use x="83.789062" xlink:href="#DejaVuSans-37"/>
       <use x="147.412109" xlink:href="#DejaVuSans-2e"/>
       <use x="179.199219" xlink:href="#DejaVuSans-30"/>
      </g>
     </g>
    </g>
    <g id="ytick_5">
     <g id="line2d_5">
      <g>
       <use style="stroke:#000000;stroke-width:0.8;" x="374.4576" xlink:href="#m97addf0de8" y="174.518692"/>
      </g>
     </g>
     <g id="text_6">
      <!-- −6.5 -->
      <g transform="translate(381.4576 178.31791)scale(0.1 -0.1)">
       <use xlink:href="#DejaVuSans-2212"/>
       <use x="83.789062" xlink:href="#DejaVuSans-36"/>
       <use x="147.412109" xlink:href="#DejaVuSans-2e"/>
       <use x="179.199219" xlink:href="#DejaVuSans-35"/>
      </g>
     </g>
    </g>
    <g id="ytick_6">
     <g id="line2d_6">
      <g>
       <use style="stroke:#000000;stroke-width:0.8;" x="374.4576" xlink:href="#m97addf0de8" y="143.334561"/>
      </g>
     </g>
     <g id="text_7">
      <!-- −6.0 -->
      <g transform="translate(381.4576 147.13378)scale(0.1 -0.1)">
       <use xlink:href="#DejaVuSans-2212"/>
       <use x="83.789062" xlink:href="#DejaVuSans-36"/>
       <use x="147.412109" xlink:href="#DejaVuSans-2e"/>
       <use x="179.199219" xlink:href="#DejaVuSans-30"/>
      </g>
     </g>
    </g>
    <g id="ytick_7">
     <g id="line2d_7">
      <g>
       <use style="stroke:#000000;stroke-width:0.8;" x="374.4576" xlink:href="#m97addf0de8" y="112.15043"/>
      </g>
     </g>
     <g id="text_8">
      <!-- −5.5 -->
      <g transform="translate(381.4576 115.949649)scale(0.1 -0.1)">
       <use xlink:href="#DejaVuSans-2212"/>
       <use x="83.789062" xlink:href="#DejaVuSans-35"/>
       <use x="147.412109" xlink:href="#DejaVuSans-2e"/>
       <use x="179.199219" xlink:href="#DejaVuSans-35"/>
      </g>
     </g>
    </g>
    <g id="ytick_8">
     <g id="line2d_8">
      <g>
       <use style="stroke:#000000;stroke-width:0.8;" x="374.4576" xlink:href="#m97addf0de8" y="80.9663"/>
      </g>
     </g>
     <g id="text_9">
      <!-- −5.0 -->
      <g transform="translate(381.4576 84.765519)scale(0.1 -0.1)">
       <use xlink:href="#DejaVuSans-2212"/>
       <use x="83.789062" xlink:href="#DejaVuSans-35"/>
       <use x="147.412109" xlink:href="#DejaVuSans-2e"/>
       <use x="179.199219" xlink:href="#DejaVuSans-30"/>
      </g>
     </g>
    </g>
    <g id="ytick_9">
     <g id="line2d_9">
      <g>
       <use style="stroke:#000000;stroke-width:0.8;" x="374.4576" xlink:href="#m97addf0de8" y="49.782169"/>
      </g>
     </g>
     <g id="text_10">
      <!-- −4.5 -->
      <g transform="translate(381.4576 53.581388)scale(0.1 -0.1)">
       <use xlink:href="#DejaVuSans-2212"/>
       <use x="83.789062" xlink:href="#DejaVuSans-34"/>
       <use x="147.412109" xlink:href="#DejaVuSans-2e"/>
       <use x="179.199219" xlink:href="#DejaVuSans-35"/>
      </g>
     </g>
    </g>
    <g id="text_11">
     <!-- Energy [eV] -->
     <defs>
      <path d="M 54.890625 33.015625 
L 54.890625 0 
L 45.90625 0 
L 45.90625 32.71875 
Q 45.90625 40.484375 42.875 44.328125 
Q 39.84375 48.1875 33.796875 48.1875 
Q 26.515625 48.1875 22.3125 43.546875 
Q 18.109375 38.921875 18.109375 30.90625 
L 18.109375 0 
L 9.078125 0 
L 9.078125 54.6875 
L 18.109375 54.6875 
L 18.109375 46.1875 
Q 21.34375 51.125 25.703125 53.5625 
Q 30.078125 56 35.796875 56 
Q 45.21875 56 50.046875 50.171875 
Q 54.890625 44.34375 54.890625 33.015625 
z
" id="DejaVuSans-6e"/>
      <path d="M 45.40625 27.984375 
Q 45.40625 37.75 41.375 43.109375 
Q 37.359375 48.484375 30.078125 48.484375 
Q 22.859375 48.484375 18.828125 43.109375 
Q 14.796875 37.75 14.796875 27.984375 
Q 14.796875 18.265625 18.828125 12.890625 
Q 22.859375 7.515625 30.078125 7.515625 
Q 37.359375 7.515625 41.375 12.890625 
Q 45.40625 18.265625 45.40625 27.984375 
z
M 54.390625 6.78125 
Q 54.390625 -7.171875 48.1875 -13.984375 
Q 42 -20.796875 29.203125 -20.796875 
Q 24.46875 -20.796875 20.265625 -20.09375 
Q 16.0625 -19.390625 12.109375 -17.921875 
L 12.109375 -9.1875 
Q 16.0625 -11.328125 19.921875 -12.34375 
Q 23.78125 -13.375 27.78125 -13.375 
Q 36.625 -13.375 41.015625 -8.765625 
Q 45.40625 -4.15625 45.40625 5.171875 
L 45.40625 9.625 
Q 42.625 4.78125 38.28125 2.390625 
Q 33.9375 0 27.875 0 
Q 17.828125 0 11.671875 7.65625 
Q 5.515625 15.328125 5.515625 27.984375 
Q 5.515625 40.671875 11.671875 48.328125 
Q 17.828125 56 27.875 56 
Q 33.9375 56 38.28125 53.609375 
Q 42.625 51.21875 45.40625 46.390625 
L 45.40625 54.6875 
L 54.390625 54.6875 
z
" id="DejaVuSans-67"/>
      <path d="M 32.171875 -5.078125 
Q 28.375 -14.84375 24.75 -17.8125 
Q 21.140625 -20.796875 15.09375 -20.796875 
L 7.90625 -20.796875 
L 7.90625 -13.28125 
L 13.1875 -13.28125 
Q 16.890625 -13.28125 18.9375 -11.515625 
Q 21 -9.765625 23.484375 -3.21875 
L 25.09375 0.875 
L 2.984375 54.6875 
L 12.5 54.6875 
L 29.59375 11.921875 
L 46.6875 54.6875 
L 56.203125 54.6875 
z
" id="DejaVuSans-79"/>
      <path d="M 8.59375 75.984375 
L 29.296875 75.984375 
L 29.296875 69 
L 17.578125 69 
L 17.578125 -6.203125 
L 29.296875 -6.203125 
L 29.296875 -13.1875 
L 8.59375 -13.1875 
z
" id="DejaVuSans-5b"/>
      <path d="M 30.421875 75.984375 
L 30.421875 -13.1875 
L 9.71875 -13.1875 
L 9.71875 -6.203125 
L 21.390625 -6.203125 
L 21.390625 69 
L 9.71875 69 
L 9.71875 75.984375 
z
" id="DejaVuSans-5d"/>
     </defs>
     <g transform="translate(417.33885 204.108469)rotate(-90)scale(0.1 -0.1)">
      <use xlink:href="#DejaVuSans-45"/>
      <use x="63.183594" xlink:href="#DejaVuSans-6e"/>
      <use x="126.5625" xlink:href="#DejaVuSans-65"/>
      <use x="188.085938" xlink:href="#DejaVuSans-72"/>
      <use x="229.183594" xlink:href="#DejaVuSans-67"/>
      <use x="292.660156" xlink:href="#DejaVuSans-79"/>
      <use x="351.839844" xlink:href="#DejaVuSans-20"/>
      <use x="383.626953" xlink:href="#DejaVuSans-5b"/>
      <use x="422.640625" xlink:href="#DejaVuSans-65"/>
      <use x="484.164062" xlink:href="#DejaVuSans-56"/>
      <use x="552.572266" xlink:href="#DejaVuSans-5d"/>
     </g>
    </g>
   </g>
   <g id="patch_3">
    <path d="M 361.152 307.584 
L 361.152 306.5445 
L 361.152 42.5115 
L 361.152 41.472 
L 374.4576 41.472 
L 374.4576 42.5115 
L 374.4576 306.5445 
L 374.4576 307.584 
z
" style="fill:none;stroke:#000000;stroke-linejoin:miter;stroke-width:0.8;"/>
   </g>
  </g>
 </g>
 <defs>
  <clipPath id="p077b18be2d">
   <rect height="266.112" width="285.696" x="57.6" y="41.472"/>
  </clipPath>
  <clipPath id="pfda448647b">
   <rect height="266.112" width="13.3056" x="361.152" y="41.472"/>
  </clipPath>
 </defs>
</svg>
