<?xml version="1.0" encoding="utf-8" standalone="no"?>
<!DOCTYPE svg PUBLIC "-//W3C//DTD SVG 1.1//EN"
  "http://www.w3.org/Graphics/SVG/1.1/DTD/svg11.dtd">
<!-- Created with matplotlib (http://matplotlib.org/) -->
<svg height="345.6pt" version="1.1" viewBox="0 0 460.8 345.6" width="460.8pt" xmlns="http://www.w3.org/2000/svg" xmlns:xlink="http://www.w3.org/1999/xlink">
 <defs>
  <style type="text/css">
*{stroke-linecap:butt;stroke-linejoin:round;}
  </style>
 </defs>
 <g id="figure_1">
  <g id="patch_1">
   <path d="M 0 345.6 
L 460.8 345.6 
L 460.8 0 
L 0 0 
z
" style="fill:#ffffff;"/>
  </g>
  <g id="axes_1">
   <g id="CircleCollection_1">
    <path clip-path="url(#p91ff3647e8)" d="M 78.995334 169.077187 
C 80.781678 169.077187 82.495099 168.367465 83.758234 167.104329 
C 85.02137 165.841193 85.731092 164.127773 85.731092 162.341429 
C 85.731092 160.555085 85.02137 158.841665 83.758234 157.578529 
C 82.495099 156.315393 80.781678 155.605671 78.995334 155.605671 
C 77.20899 155.605671 75.49557 156.315393 74.232434 157.578529 
C 72.969298 158.841665 72.259576 160.555085 72.259576 162.341429 
C 72.259576 164.127773 72.969298 165.841193 74.232434 167.104329 
C 75.49557 168.367465 77.20899 169.077187 78.995334 169.077187 
z
" style="fill:#287d8e;"/>
    <path clip-path="url(#p91ff3647e8)" d="M 233.965683 279.720245 
C 235.738465 279.720245 237.438877 279.015912 238.692423 277.762366 
C 239.945969 276.50882 240.650303 274.808408 240.650303 273.035626 
C 240.650303 271.262844 239.945969 269.562432 238.692423 268.308886 
C 237.438877 267.05534 235.738465 266.351006 233.965683 266.351006 
C 232.192901 266.351006 230.492489 267.05534 229.238943 268.308886 
C 227.985397 269.562432 227.281063 271.262844 227.281063 273.035626 
C 227.281063 274.808408 227.985397 276.50882 229.238943 277.762366 
C 230.492489 279.015912 232.192901 279.720245 233.965683 279.720245 
z
" style="fill:#440154;"/>
    <path clip-path="url(#p91ff3647e8)" d="M 219.878544 60.833199 
C 221.665193 60.833199 223.378905 60.123356 224.642257 58.860004 
C 225.905608 57.596653 226.615451 55.88294 226.615451 54.096292 
C 226.615451 52.309643 225.905608 50.59593 224.642257 49.332579 
C 223.378905 48.069228 221.665193 47.359385 219.878544 47.359385 
C 218.091896 47.359385 216.378183 48.069228 215.114832 49.332579 
C 213.85148 50.59593 213.141637 52.309643 213.141637 54.096292 
C 213.141637 55.88294 213.85148 57.596653 215.114832 58.860004 
C 216.378183 60.123356 218.091896 60.833199 219.878544 60.833199 
z
" style="fill:#fde725;"/>
    <path clip-path="url(#p91ff3647e8)" d="M 125.750088 296.55048 
C 127.528715 296.55048 129.234734 295.843824 130.492414 294.586144 
C 131.750093 293.328465 132.456749 291.622446 132.456749 289.843818 
C 132.456749 288.065191 131.750093 286.359172 130.492414 285.101492 
C 129.234734 283.843813 127.528715 283.137157 125.750088 283.137157 
C 123.97146 283.137157 122.265441 283.843813 121.007762 285.101492 
C 119.750082 286.359172 119.043426 288.065191 119.043426 289.843818 
C 119.043426 291.622446 119.750082 293.328465 121.007762 294.586144 
C 122.265441 295.843824 123.97146 296.55048 125.750088 296.55048 
z
" style="fill:#2c728e;"/>
    <path clip-path="url(#p91ff3647e8)" d="M 116.848433 160.120455 
C 118.631962 160.120455 120.342683 159.411851 121.603829 158.150705 
C 122.864974 156.88956 123.573578 155.178839 123.573578 153.395309 
C 123.573578 151.61178 122.864974 149.901059 121.603829 148.639913 
C 120.342683 147.378768 118.631962 146.670164 116.848433 146.670164 
C 115.064903 146.670164 113.354182 147.378768 112.093037 148.639913 
C 110.831891 149.901059 110.123287 151.61178 110.123287 153.395309 
C 110.123287 155.178839 110.831891 156.88956 112.093037 158.150705 
C 113.354182 159.411851 115.064903 160.120455 116.848433 160.120455 
z
" style="fill:#2b758e;"/>
    <path clip-path="url(#p91ff3647e8)" d="M 232.74297 202.498569 
C 234.519292 202.498569 236.223099 201.792829 237.479148 200.53678 
C 238.735198 199.280731 239.440938 197.576924 239.440938 195.800602 
C 239.440938 194.02428 238.735198 192.320473 237.479148 191.064424 
C 236.223099 189.808375 234.519292 189.102634 232.74297 189.102634 
C 230.966649 189.102634 229.262841 189.808375 228.006792 191.064424 
C 226.750743 192.320473 226.045003 194.02428 226.045003 195.800602 
C 226.045003 197.576924 226.750743 199.280731 228.006792 200.53678 
C 229.262841 201.792829 230.966649 202.498569 232.74297 202.498569 
z
" style="fill:#277f8e;"/>
    <path clip-path="url(#p91ff3647e8)" d="M 231.22136 238.758323 
C 232.995849 238.758323 234.697898 238.053312 235.952651 236.798558 
C 237.207404 235.543805 237.912416 233.841756 237.912416 232.067268 
C 237.912416 230.292779 237.207404 228.59073 235.952651 227.335977 
C 234.697898 226.081224 232.995849 225.376212 231.22136 225.376212 
C 229.446872 225.376212 227.744822 226.081224 226.490069 227.335977 
C 225.235316 228.59073 224.530305 230.292779 224.530305 232.067268 
C 224.530305 233.841756 225.235316 235.543805 226.490069 236.798558 
C 227.744822 238.053312 229.446872 238.758323 231.22136 238.758323 
z
" style="fill:#23888e;"/>
    <path clip-path="url(#p91ff3647e8)" d="M 200.21664 301.651403 
C 201.990278 301.651403 203.691511 300.946729 204.945662 299.692578 
C 206.199813 298.438426 206.904487 296.737193 206.904487 294.963555 
C 206.904487 293.189918 206.199813 291.488684 204.945662 290.234533 
C 203.691511 288.980382 201.990278 288.275708 200.21664 288.275708 
C 198.443002 288.275708 196.741769 288.980382 195.487617 290.234533 
C 194.233466 291.488684 193.528792 293.189918 193.528792 294.963555 
C 193.528792 296.737193 194.233466 298.438426 195.487617 299.692578 
C 196.741769 300.946729 198.443002 301.651403 200.21664 301.651403 
z
" style="fill:#1f958b;"/>
    <path clip-path="url(#p91ff3647e8)" d="M 329.07688 243.540693 
C 330.846994 243.540693 332.544848 242.837419 333.796508 241.585759 
C 335.048168 240.334099 335.751442 238.636245 335.751442 236.866131 
C 335.751442 235.096017 335.048168 233.398163 333.796508 232.146503 
C 332.544848 230.894843 330.846994 230.191569 329.07688 230.191569 
C 327.306765 230.191569 325.608912 230.894843 324.357252 232.146503 
C 323.105592 233.398163 322.402318 235.096017 322.402318 236.866131 
C 322.402318 238.636245 323.105592 240.334099 324.357252 241.585759 
C 325.608912 242.837419 327.306765 243.540693 329.07688 243.540693 
z
" style="fill:#2a778e;"/>
    <path clip-path="url(#p91ff3647e8)" d="M 273.423918 291.049678 
C 275.1944 291.049678 276.892606 290.346258 278.144526 289.094338 
C 279.396446 287.842418 280.099867 286.144211 280.099867 284.373729 
C 280.099867 282.603247 279.396446 280.905041 278.144526 279.653121 
C 276.892606 278.401201 275.1944 277.697781 273.423918 277.697781 
C 271.653436 277.697781 269.95523 278.401201 268.70331 279.653121 
C 267.45139 280.905041 266.74797 282.603247 266.74797 284.373729 
C 266.74797 286.144211 267.45139 287.842418 268.70331 289.094338 
C 269.95523 290.346258 271.653436 291.049678 273.423918 291.049678 
z
" style="fill:#1f9f88;"/>
    <path clip-path="url(#p91ff3647e8)" d="M 152.662085 181.696839 
C 154.441253 181.696839 156.147791 180.989967 157.405854 179.731905 
C 158.663916 178.473843 159.370787 176.767305 159.370787 174.988136 
C 159.370787 173.208967 158.663916 171.502429 157.405854 170.244367 
C 156.147791 168.986305 154.441253 168.279433 152.662085 168.279433 
C 150.882916 168.279433 149.176378 168.986305 147.918315 170.244367 
C 146.660253 171.502429 145.953382 173.208967 145.953382 174.988136 
C 145.953382 176.767305 146.660253 178.473843 147.918315 179.731905 
C 149.176378 180.989967 150.882916 181.696839 152.662085 181.696839 
z
" style="fill:#27ad81;"/>
    <path clip-path="url(#p91ff3647e8)" d="M 314.873011 170.962221 
C 316.647405 170.962221 318.349363 170.257247 319.604049 169.002561 
C 320.858735 167.747875 321.563709 166.045917 321.563709 164.271524 
C 321.563709 162.49713 320.858735 160.795172 319.604049 159.540486 
C 318.349363 158.2858 316.647405 157.580826 314.873011 157.580826 
C 313.098618 157.580826 311.396659 158.2858 310.141974 159.540486 
C 308.887288 160.795172 308.182314 162.49713 308.182314 164.271524 
C 308.182314 166.045917 308.887288 167.747875 310.141974 169.002561 
C 311.396659 170.257247 313.098618 170.962221 314.873011 170.962221 
z
" style="fill:#30698e;"/>
    <path clip-path="url(#p91ff3647e8)" d="M 72.759535 207.136581 
C 74.54451 207.136581 76.256618 206.427403 77.518786 205.165234 
C 78.780954 203.903066 79.490132 202.190959 79.490132 200.405983 
C 79.490132 198.621008 78.780954 196.9089 77.518786 195.646732 
C 76.256618 194.384564 74.54451 193.675386 72.759535 193.675386 
C 70.974559 193.675386 69.262452 194.384564 68.000283 195.646732 
C 66.738115 196.9089 66.028937 198.621008 66.028937 200.405983 
C 66.028937 202.190959 66.738115 203.903066 68.000283 205.165234 
C 69.262452 206.427403 70.974559 207.136581 72.759535 207.136581 
z
" style="fill:#23888e;"/>
    <path clip-path="url(#p91ff3647e8)" d="M 70.973282 244.851053 
C 72.75736 244.851053 74.468607 244.142231 75.730141 242.880698 
C 76.991674 241.619164 77.700496 239.907917 77.700496 238.123839 
C 77.700496 236.339762 76.991674 234.628515 75.730141 233.366981 
C 74.468607 232.105448 72.75736 231.396626 70.973282 231.396626 
C 69.189205 231.396626 67.477958 232.105448 66.216424 233.366981 
C 64.954891 234.628515 64.246069 236.339762 64.246069 238.123839 
C 64.246069 239.907917 64.954891 241.619164 66.216424 242.880698 
C 67.477958 244.142231 69.189205 244.851053 70.973282 244.851053 
z
" style="fill:#2e6e8e;"/>
    <path clip-path="url(#p91ff3647e8)" d="M 149.394331 134.217238 
C 151.178332 134.217238 152.889506 133.508447 154.150985 132.246968 
C 155.412464 130.985489 156.121255 129.274316 156.121255 127.490315 
C 156.121255 125.706314 155.412464 123.995141 154.150985 122.733661 
C 152.889506 121.472182 151.178332 120.763391 149.394331 120.763391 
C 147.61033 120.763391 145.899157 121.472182 144.637678 122.733661 
C 143.376199 123.995141 142.667408 125.706314 142.667408 127.490315 
C 142.667408 129.274316 143.376199 130.985489 144.637678 132.246968 
C 145.899157 133.508447 147.61033 134.217238 149.394331 134.217238 
z
" style="fill:#25ab82;"/>
    <path clip-path="url(#p91ff3647e8)" d="M 252.256698 130.662042 
C 254.036829 130.662042 255.74429 129.954788 257.003033 128.696045 
C 258.261776 127.437303 258.969029 125.729841 258.969029 123.94971 
C 258.969029 122.169579 258.261776 120.462118 257.003033 119.203375 
C 255.74429 117.944632 254.036829 117.237379 252.256698 117.237379 
C 250.476567 117.237379 248.769106 117.944632 247.510363 119.203375 
C 246.25162 120.462118 245.544367 122.169579 245.544367 123.94971 
C 245.544367 125.729841 246.25162 127.437303 247.510363 128.696045 
C 248.769106 129.954788 250.476567 130.662042 252.256698 130.662042 
z
" style="fill:#481769;"/>
    <path clip-path="url(#p91ff3647e8)" d="M 290.441496 144.287262 
C 292.218846 144.287262 293.923641 143.581113 295.180417 142.324336 
C 296.437194 141.06756 297.143343 139.362765 297.143343 137.585415 
C 297.143343 135.808064 296.437194 134.10327 295.180417 132.846493 
C 293.923641 131.589716 292.218846 130.883568 290.441496 130.883568 
C 288.664145 130.883568 286.959351 131.589716 285.702574 132.846493 
C 284.445797 134.10327 283.739648 135.808064 283.739648 137.585415 
C 283.739648 139.362765 284.445797 141.06756 285.702574 142.324336 
C 286.959351 143.581113 288.664145 144.287262 290.441496 144.287262 
z
" style="fill:#20928c;"/>
    <path clip-path="url(#p91ff3647e8)" d="M 239.250869 92.880478 
C 241.034333 92.880478 242.744991 92.1719 244.00609 90.910801 
C 245.26719 89.649702 245.975767 87.939044 245.975767 86.15558 
C 245.975767 84.372116 245.26719 82.661458 244.00609 81.400359 
C 242.744991 80.13926 241.034333 79.430682 239.250869 79.430682 
C 237.467406 79.430682 235.756748 80.13926 234.495648 81.400359 
C 233.234549 82.661458 232.525971 84.372116 232.525971 86.15558 
C 232.525971 87.939044 233.234549 89.649702 234.495648 90.910801 
C 235.756748 92.1719 237.467406 92.880478 239.250869 92.880478 
z
" style="fill:#20928c;"/>
    <path clip-path="url(#p91ff3647e8)" d="M 97.963413 272.057132 
C 99.744816 272.057132 101.453497 271.349373 102.713139 270.089731 
C 103.972781 268.830089 104.68054 267.121408 104.68054 265.340005 
C 104.68054 263.558602 103.972781 261.849921 102.713139 260.590279 
C 101.453497 259.330637 99.744816 258.622878 97.963413 258.622878 
C 96.182011 258.622878 94.47333 259.330637 93.213688 260.590279 
C 91.954046 261.849921 91.246287 263.558602 91.246287 265.340005 
C 91.246287 267.121408 91.954046 268.830089 93.213688 270.089731 
C 94.47333 271.349373 96.182011 272.057132 97.963413 272.057132 
z
" style="fill:#287c8e;"/>
    <path clip-path="url(#p91ff3647e8)" d="M 163.803525 299.315298 
C 165.579393 299.315298 167.282766 298.609738 168.538495 297.354009 
C 169.794224 296.098281 170.499784 294.394908 170.499784 292.619039 
C 170.499784 290.84317 169.794224 289.139798 168.538495 287.884069 
C 167.282766 286.62834 165.579393 285.92278 163.803525 285.92278 
C 162.027656 285.92278 160.324283 286.62834 159.068554 287.884069 
C 157.812826 289.139798 157.107265 290.84317 157.107265 292.619039 
C 157.107265 294.394908 157.812826 296.098281 159.068554 297.354009 
C 160.324283 298.609738 162.027656 299.315298 163.803525 299.315298 
z
" style="fill:#2c718e;"/>
    <path clip-path="url(#p91ff3647e8)" d="M 305.536561 274.428139 
C 307.306214 274.428139 309.003625 273.725048 310.254958 272.473715 
C 311.506292 271.222381 312.209382 269.52497 312.209382 267.755318 
C 312.209382 265.985665 311.506292 264.288254 310.254958 263.036921 
C 309.003625 261.785587 307.306214 261.082497 305.536561 261.082497 
C 303.766908 261.082497 302.069498 261.785587 300.818164 263.036921 
C 299.566831 264.288254 298.86374 265.985665 298.86374 267.755318 
C 298.86374 269.52497 299.566831 271.222381 300.818164 272.473715 
C 302.069498 273.725048 303.766908 274.428139 305.536561 274.428139 
z
" style="fill:#2d708e;"/>
    <path clip-path="url(#p91ff3647e8)" d="M 329.925414 206.840047 
C 331.697066 206.840047 333.396394 206.136163 334.649141 204.883416 
C 335.901888 203.630668 336.605773 201.93134 336.605773 200.159688 
C 336.605773 198.388036 335.901888 196.688708 334.649141 195.435961 
C 333.396394 194.183214 331.697066 193.479329 329.925414 193.479329 
C 328.153762 193.479329 326.454433 194.183214 325.201686 195.435961 
C 323.948939 196.688708 323.245054 198.388036 323.245054 200.159688 
C 323.245054 201.93134 323.948939 203.630668 325.201686 204.883416 
C 326.454433 206.136163 328.153762 206.840047 329.925414 206.840047 
z
" style="fill:#2b758e;"/>
    <path clip-path="url(#p91ff3647e8)" d="M 223.816871 162.779259 
C 225.59583 162.779259 227.302166 162.072472 228.560079 160.814558 
C 229.817992 159.556645 230.52478 157.850309 230.52478 156.071351 
C 230.52478 154.292393 229.817992 152.586057 228.560079 151.328143 
C 227.302166 150.07023 225.59583 149.363442 223.816871 149.363442 
C 222.037913 149.363442 220.331577 150.07023 219.073664 151.328143 
C 217.815751 152.586057 217.108963 154.292393 217.108963 156.071351 
C 217.108963 157.850309 217.815751 159.556645 219.073664 160.814558 
C 220.331577 162.072472 222.037913 162.779259 223.816871 162.779259 
z
" style="fill:#482677;"/>
    <path clip-path="url(#p91ff3647e8)" d="M 183.904564 156.310218 
C 185.685039 156.310218 187.39283 155.602827 188.651816 154.343842 
C 189.910802 153.084856 190.618192 151.377065 190.618192 149.59659 
C 190.618192 147.816115 189.910802 146.108324 188.651816 144.849338 
C 187.39283 143.590353 185.685039 142.882963 183.904564 142.882963 
C 182.124089 142.882963 180.416299 143.590353 179.157313 144.849338 
C 177.898327 146.108324 177.190937 147.816115 177.190937 149.59659 
C 177.190937 151.377065 177.898327 153.084856 179.157313 154.343842 
C 180.416299 155.602827 182.124089 156.310218 183.904564 156.310218 
z
" style="fill:#31688e;"/>
   </g>
   <g id="text_1">
    <!-- Structure #2006, $E_N$=-179.33eV, ΔE=-0.53eV -->
    <defs>
     <path d="M 53.515625 70.515625 
L 53.515625 60.890625 
Q 47.90625 63.578125 42.921875 64.890625 
Q 37.9375 66.21875 33.296875 66.21875 
Q 25.25 66.21875 20.875 63.09375 
Q 16.5 59.96875 16.5 54.203125 
Q 16.5 49.359375 19.40625 46.890625 
Q 22.3125 44.4375 30.421875 42.921875 
L 36.375 41.703125 
Q 47.40625 39.59375 52.65625 34.296875 
Q 57.90625 29 57.90625 20.125 
Q 57.90625 9.515625 50.796875 4.046875 
Q 43.703125 -1.421875 29.984375 -1.421875 
Q 24.8125 -1.421875 18.96875 -0.25 
Q 13.140625 0.921875 6.890625 3.21875 
L 6.890625 13.375 
Q 12.890625 10.015625 18.65625 8.296875 
Q 24.421875 6.59375 29.984375 6.59375 
Q 38.421875 6.59375 43.015625 9.90625 
Q 47.609375 13.234375 47.609375 19.390625 
Q 47.609375 24.75 44.3125 27.78125 
Q 41.015625 30.8125 33.5 32.328125 
L 27.484375 33.5 
Q 16.453125 35.6875 11.515625 40.375 
Q 6.59375 45.0625 6.59375 53.421875 
Q 6.59375 63.09375 13.40625 68.65625 
Q 20.21875 74.21875 32.171875 74.21875 
Q 37.3125 74.21875 42.625 73.28125 
Q 47.953125 72.359375 53.515625 70.515625 
z
" id="DejaVuSans-53"/>
     <path d="M 18.3125 70.21875 
L 18.3125 54.6875 
L 36.8125 54.6875 
L 36.8125 47.703125 
L 18.3125 47.703125 
L 18.3125 18.015625 
Q 18.3125 11.328125 20.140625 9.421875 
Q 21.96875 7.515625 27.59375 7.515625 
L 36.8125 7.515625 
L 36.8125 0 
L 27.59375 0 
Q 17.1875 0 13.234375 3.875 
Q 9.28125 7.765625 9.28125 18.015625 
L 9.28125 47.703125 
L 2.6875 47.703125 
L 2.6875 54.6875 
L 9.28125 54.6875 
L 9.28125 70.21875 
z
" id="DejaVuSans-74"/>
     <path d="M 41.109375 46.296875 
Q 39.59375 47.171875 37.8125 47.578125 
Q 36.03125 48 33.890625 48 
Q 26.265625 48 22.1875 43.046875 
Q 18.109375 38.09375 18.109375 28.8125 
L 18.109375 0 
L 9.078125 0 
L 9.078125 54.6875 
L 18.109375 54.6875 
L 18.109375 46.1875 
Q 20.953125 51.171875 25.484375 53.578125 
Q 30.03125 56 36.53125 56 
Q 37.453125 56 38.578125 55.875 
Q 39.703125 55.765625 41.0625 55.515625 
z
" id="DejaVuSans-72"/>
     <path d="M 8.5 21.578125 
L 8.5 54.6875 
L 17.484375 54.6875 
L 17.484375 21.921875 
Q 17.484375 14.15625 20.5 10.265625 
Q 23.53125 6.390625 29.59375 6.390625 
Q 36.859375 6.390625 41.078125 11.03125 
Q 45.3125 15.671875 45.3125 23.6875 
L 45.3125 54.6875 
L 54.296875 54.6875 
L 54.296875 0 
L 45.3125 0 
L 45.3125 8.40625 
Q 42.046875 3.421875 37.71875 1 
Q 33.40625 -1.421875 27.6875 -1.421875 
Q 18.265625 -1.421875 13.375 4.4375 
Q 8.5 10.296875 8.5 21.578125 
z
M 31.109375 56 
z
" id="DejaVuSans-75"/>
     <path d="M 48.78125 52.59375 
L 48.78125 44.1875 
Q 44.96875 46.296875 41.140625 47.34375 
Q 37.3125 48.390625 33.40625 48.390625 
Q 24.65625 48.390625 19.8125 42.84375 
Q 14.984375 37.3125 14.984375 27.296875 
Q 14.984375 17.28125 19.8125 11.734375 
Q 24.65625 6.203125 33.40625 6.203125 
Q 37.3125 6.203125 41.140625 7.25 
Q 44.96875 8.296875 48.78125 10.40625 
L 48.78125 2.09375 
Q 45.015625 0.34375 40.984375 -0.53125 
Q 36.96875 -1.421875 32.421875 -1.421875 
Q 20.0625 -1.421875 12.78125 6.34375 
Q 5.515625 14.109375 5.515625 27.296875 
Q 5.515625 40.671875 12.859375 48.328125 
Q 20.21875 56 33.015625 56 
Q 37.15625 56 41.109375 55.140625 
Q 45.0625 54.296875 48.78125 52.59375 
z
" id="DejaVuSans-63"/>
     <path d="M 56.203125 29.59375 
L 56.203125 25.203125 
L 14.890625 25.203125 
Q 15.484375 15.921875 20.484375 11.0625 
Q 25.484375 6.203125 34.421875 6.203125 
Q 39.59375 6.203125 44.453125 7.46875 
Q 49.3125 8.734375 54.109375 11.28125 
L 54.109375 2.78125 
Q 49.265625 0.734375 44.1875 -0.34375 
Q 39.109375 -1.421875 33.890625 -1.421875 
Q 20.796875 -1.421875 13.15625 6.1875 
Q 5.515625 13.8125 5.515625 26.8125 
Q 5.515625 40.234375 12.765625 48.109375 
Q 20.015625 56 32.328125 56 
Q 43.359375 56 49.78125 48.890625 
Q 56.203125 41.796875 56.203125 29.59375 
z
M 47.21875 32.234375 
Q 47.125 39.59375 43.09375 43.984375 
Q 39.0625 48.390625 32.421875 48.390625 
Q 24.90625 48.390625 20.390625 44.140625 
Q 15.875 39.890625 15.1875 32.171875 
z
" id="DejaVuSans-65"/>
     <path id="DejaVuSans-20"/>
     <path d="M 51.125 44 
L 36.921875 44 
L 32.8125 27.6875 
L 47.125 27.6875 
z
M 43.796875 71.78125 
L 38.71875 51.515625 
L 52.984375 51.515625 
L 58.109375 71.78125 
L 65.921875 71.78125 
L 60.890625 51.515625 
L 76.125 51.515625 
L 76.125 44 
L 58.984375 44 
L 54.984375 27.6875 
L 70.515625 27.6875 
L 70.515625 20.21875 
L 53.078125 20.21875 
L 48 0 
L 40.1875 0 
L 45.21875 20.21875 
L 30.90625 20.21875 
L 25.875 0 
L 18.015625 0 
L 23.09375 20.21875 
L 7.71875 20.21875 
L 7.71875 27.6875 
L 24.90625 27.6875 
L 29 44 
L 13.28125 44 
L 13.28125 51.515625 
L 30.90625 51.515625 
L 35.890625 71.78125 
z
" id="DejaVuSans-23"/>
     <path d="M 19.1875 8.296875 
L 53.609375 8.296875 
L 53.609375 0 
L 7.328125 0 
L 7.328125 8.296875 
Q 12.9375 14.109375 22.625 23.890625 
Q 32.328125 33.6875 34.8125 36.53125 
Q 39.546875 41.84375 41.421875 45.53125 
Q 43.3125 49.21875 43.3125 52.78125 
Q 43.3125 58.59375 39.234375 62.25 
Q 35.15625 65.921875 28.609375 65.921875 
Q 23.96875 65.921875 18.8125 64.3125 
Q 13.671875 62.703125 7.8125 59.421875 
L 7.8125 69.390625 
Q 13.765625 71.78125 18.9375 73 
Q 24.125 74.21875 28.421875 74.21875 
Q 39.75 74.21875 46.484375 68.546875 
Q 53.21875 62.890625 53.21875 53.421875 
Q 53.21875 48.921875 51.53125 44.890625 
Q 49.859375 40.875 45.40625 35.40625 
Q 44.1875 33.984375 37.640625 27.21875 
Q 31.109375 20.453125 19.1875 8.296875 
z
" id="DejaVuSans-32"/>
     <path d="M 31.78125 66.40625 
Q 24.171875 66.40625 20.328125 58.90625 
Q 16.5 51.421875 16.5 36.375 
Q 16.5 21.390625 20.328125 13.890625 
Q 24.171875 6.390625 31.78125 6.390625 
Q 39.453125 6.390625 43.28125 13.890625 
Q 47.125 21.390625 47.125 36.375 
Q 47.125 51.421875 43.28125 58.90625 
Q 39.453125 66.40625 31.78125 66.40625 
z
M 31.78125 74.21875 
Q 44.046875 74.21875 50.515625 64.515625 
Q 56.984375 54.828125 56.984375 36.375 
Q 56.984375 17.96875 50.515625 8.265625 
Q 44.046875 -1.421875 31.78125 -1.421875 
Q 19.53125 -1.421875 13.0625 8.265625 
Q 6.59375 17.96875 6.59375 36.375 
Q 6.59375 54.828125 13.0625 64.515625 
Q 19.53125 74.21875 31.78125 74.21875 
z
" id="DejaVuSans-30"/>
     <path d="M 33.015625 40.375 
Q 26.375 40.375 22.484375 35.828125 
Q 18.609375 31.296875 18.609375 23.390625 
Q 18.609375 15.53125 22.484375 10.953125 
Q 26.375 6.390625 33.015625 6.390625 
Q 39.65625 6.390625 43.53125 10.953125 
Q 47.40625 15.53125 47.40625 23.390625 
Q 47.40625 31.296875 43.53125 35.828125 
Q 39.65625 40.375 33.015625 40.375 
z
M 52.59375 71.296875 
L 52.59375 62.3125 
Q 48.875 64.0625 45.09375 64.984375 
Q 41.3125 65.921875 37.59375 65.921875 
Q 27.828125 65.921875 22.671875 59.328125 
Q 17.53125 52.734375 16.796875 39.40625 
Q 19.671875 43.65625 24.015625 45.921875 
Q 28.375 48.1875 33.59375 48.1875 
Q 44.578125 48.1875 50.953125 41.515625 
Q 57.328125 34.859375 57.328125 23.390625 
Q 57.328125 12.15625 50.6875 5.359375 
Q 44.046875 -1.421875 33.015625 -1.421875 
Q 20.359375 -1.421875 13.671875 8.265625 
Q 6.984375 17.96875 6.984375 36.375 
Q 6.984375 53.65625 15.1875 63.9375 
Q 23.390625 74.21875 37.203125 74.21875 
Q 40.921875 74.21875 44.703125 73.484375 
Q 48.484375 72.75 52.59375 71.296875 
z
" id="DejaVuSans-36"/>
     <path d="M 11.71875 12.40625 
L 22.015625 12.40625 
L 22.015625 4 
L 14.015625 -11.625 
L 7.71875 -11.625 
L 11.71875 4 
z
" id="DejaVuSans-2c"/>
     <path d="M 16.890625 72.90625 
L 62.984375 72.90625 
L 61.375 64.59375 
L 25.09375 64.59375 
L 20.90625 43.015625 
L 55.71875 43.015625 
L 54.109375 34.71875 
L 19.28125 34.71875 
L 14.203125 8.296875 
L 51.3125 8.296875 
L 49.703125 0 
L 2.6875 0 
z
" id="DejaVuSans-Oblique-45"/>
     <path d="M 16.890625 72.90625 
L 30.171875 72.90625 
L 50.296875 10.40625 
L 62.5 72.90625 
L 72.125 72.90625 
L 57.90625 0 
L 44.578125 0 
L 24.515625 62.890625 
L 12.3125 0 
L 2.6875 0 
z
" id="DejaVuSans-Oblique-4e"/>
     <path d="M 10.59375 45.40625 
L 73.1875 45.40625 
L 73.1875 37.203125 
L 10.59375 37.203125 
z
M 10.59375 25.484375 
L 73.1875 25.484375 
L 73.1875 17.1875 
L 10.59375 17.1875 
z
" id="DejaVuSans-3d"/>
     <path d="M 4.890625 31.390625 
L 31.203125 31.390625 
L 31.203125 23.390625 
L 4.890625 23.390625 
z
" id="DejaVuSans-2d"/>
     <path d="M 12.40625 8.296875 
L 28.515625 8.296875 
L 28.515625 63.921875 
L 10.984375 60.40625 
L 10.984375 69.390625 
L 28.421875 72.90625 
L 38.28125 72.90625 
L 38.28125 8.296875 
L 54.390625 8.296875 
L 54.390625 0 
L 12.40625 0 
z
" id="DejaVuSans-31"/>
     <path d="M 8.203125 72.90625 
L 55.078125 72.90625 
L 55.078125 68.703125 
L 28.609375 0 
L 18.3125 0 
L 43.21875 64.59375 
L 8.203125 64.59375 
z
" id="DejaVuSans-37"/>
     <path d="M 10.984375 1.515625 
L 10.984375 10.5 
Q 14.703125 8.734375 18.5 7.8125 
Q 22.3125 6.890625 25.984375 6.890625 
Q 35.75 6.890625 40.890625 13.453125 
Q 46.046875 20.015625 46.78125 33.40625 
Q 43.953125 29.203125 39.59375 26.953125 
Q 35.25 24.703125 29.984375 24.703125 
Q 19.046875 24.703125 12.671875 31.3125 
Q 6.296875 37.9375 6.296875 49.421875 
Q 6.296875 60.640625 12.9375 67.421875 
Q 19.578125 74.21875 30.609375 74.21875 
Q 43.265625 74.21875 49.921875 64.515625 
Q 56.59375 54.828125 56.59375 36.375 
Q 56.59375 19.140625 48.40625 8.859375 
Q 40.234375 -1.421875 26.421875 -1.421875 
Q 22.703125 -1.421875 18.890625 -0.6875 
Q 15.09375 0.046875 10.984375 1.515625 
z
M 30.609375 32.421875 
Q 37.25 32.421875 41.125 36.953125 
Q 45.015625 41.5 45.015625 49.421875 
Q 45.015625 57.28125 41.125 61.84375 
Q 37.25 66.40625 30.609375 66.40625 
Q 23.96875 66.40625 20.09375 61.84375 
Q 16.21875 57.28125 16.21875 49.421875 
Q 16.21875 41.5 20.09375 36.953125 
Q 23.96875 32.421875 30.609375 32.421875 
z
" id="DejaVuSans-39"/>
     <path d="M 10.6875 12.40625 
L 21 12.40625 
L 21 0 
L 10.6875 0 
z
" id="DejaVuSans-2e"/>
     <path d="M 40.578125 39.3125 
Q 47.65625 37.796875 51.625 33 
Q 55.609375 28.21875 55.609375 21.1875 
Q 55.609375 10.40625 48.1875 4.484375 
Q 40.765625 -1.421875 27.09375 -1.421875 
Q 22.515625 -1.421875 17.65625 -0.515625 
Q 12.796875 0.390625 7.625 2.203125 
L 7.625 11.71875 
Q 11.71875 9.328125 16.59375 8.109375 
Q 21.484375 6.890625 26.8125 6.890625 
Q 36.078125 6.890625 40.9375 10.546875 
Q 45.796875 14.203125 45.796875 21.1875 
Q 45.796875 27.640625 41.28125 31.265625 
Q 36.765625 34.90625 28.71875 34.90625 
L 20.21875 34.90625 
L 20.21875 43.015625 
L 29.109375 43.015625 
Q 36.375 43.015625 40.234375 45.921875 
Q 44.09375 48.828125 44.09375 54.296875 
Q 44.09375 59.90625 40.109375 62.90625 
Q 36.140625 65.921875 28.71875 65.921875 
Q 24.65625 65.921875 20.015625 65.03125 
Q 15.375 64.15625 9.8125 62.3125 
L 9.8125 71.09375 
Q 15.4375 72.65625 20.34375 73.4375 
Q 25.25 74.21875 29.59375 74.21875 
Q 40.828125 74.21875 47.359375 69.109375 
Q 53.90625 64.015625 53.90625 55.328125 
Q 53.90625 49.265625 50.4375 45.09375 
Q 46.96875 40.921875 40.578125 39.3125 
z
" id="DejaVuSans-33"/>
     <path d="M 28.609375 0 
L 0.78125 72.90625 
L 11.078125 72.90625 
L 34.1875 11.53125 
L 57.328125 72.90625 
L 67.578125 72.90625 
L 39.796875 0 
z
" id="DejaVuSans-56"/>
     <path d="M 34.1875 63.1875 
L 14.15625 8.203125 
L 54.25 8.203125 
z
M 0.78125 0 
L 28.609375 72.90625 
L 39.796875 72.90625 
L 67.578125 0 
z
" id="DejaVuSans-394"/>
     <path d="M 9.8125 72.90625 
L 55.90625 72.90625 
L 55.90625 64.59375 
L 19.671875 64.59375 
L 19.671875 43.015625 
L 54.390625 43.015625 
L 54.390625 34.71875 
L 19.671875 34.71875 
L 19.671875 8.296875 
L 56.78125 8.296875 
L 56.78125 0 
L 9.8125 0 
z
" id="DejaVuSans-45"/>
     <path d="M 10.796875 72.90625 
L 49.515625 72.90625 
L 49.515625 64.59375 
L 19.828125 64.59375 
L 19.828125 46.734375 
Q 21.96875 47.46875 24.109375 47.828125 
Q 26.265625 48.1875 28.421875 48.1875 
Q 40.625 48.1875 47.75 41.5 
Q 54.890625 34.8125 54.890625 23.390625 
Q 54.890625 11.625 47.5625 5.09375 
Q 40.234375 -1.421875 26.90625 -1.421875 
Q 22.3125 -1.421875 17.546875 -0.640625 
Q 12.796875 0.140625 7.71875 1.703125 
L 7.71875 11.625 
Q 12.109375 9.234375 16.796875 8.0625 
Q 21.484375 6.890625 26.703125 6.890625 
Q 35.15625 6.890625 40.078125 11.328125 
Q 45.015625 15.765625 45.015625 23.390625 
Q 45.015625 31 40.078125 35.4375 
Q 35.15625 39.890625 26.703125 39.890625 
Q 22.75 39.890625 18.8125 39.015625 
Q 14.890625 38.140625 10.796875 36.28125 
z
" id="DejaVuSans-35"/>
    </defs>
    <g transform="translate(63.228 35.472)scale(0.12 -0.12)">
     <use transform="translate(0 0.78125)" xlink:href="#DejaVuSans-53"/>
     <use transform="translate(63.476562 0.78125)" xlink:href="#DejaVuSans-74"/>
     <use transform="translate(102.685547 0.78125)" xlink:href="#DejaVuSans-72"/>
     <use transform="translate(143.798828 0.78125)" xlink:href="#DejaVuSans-75"/>
     <use transform="translate(207.177734 0.78125)" xlink:href="#DejaVuSans-63"/>
     <use transform="translate(262.158203 0.78125)" xlink:href="#DejaVuSans-74"/>
     <use transform="translate(301.367188 0.78125)" xlink:href="#DejaVuSans-75"/>
     <use transform="translate(364.746094 0.78125)" xlink:href="#DejaVuSans-72"/>
     <use transform="translate(405.859375 0.78125)" xlink:href="#DejaVuSans-65"/>
     <use transform="translate(467.382812 0.78125)" xlink:href="#DejaVuSans-20"/>
     <use transform="translate(499.169922 0.78125)" xlink:href="#DejaVuSans-23"/>
     <use transform="translate(582.958984 0.78125)" xlink:href="#DejaVuSans-32"/>
     <use transform="translate(646.582031 0.78125)" xlink:href="#DejaVuSans-30"/>
     <use transform="translate(710.205078 0.78125)" xlink:href="#DejaVuSans-30"/>
     <use transform="translate(773.828125 0.78125)" xlink:href="#DejaVuSans-36"/>
     <use transform="translate(837.451172 0.78125)" xlink:href="#DejaVuSans-2c"/>
     <use transform="translate(869.238281 0.78125)" xlink:href="#DejaVuSans-20"/>
     <use transform="translate(901.025391 0.78125)" xlink:href="#DejaVuSans-Oblique-45"/>
     <use transform="translate(964.208984 -15.625)scale(0.7)" xlink:href="#DejaVuSans-Oblique-4e"/>
     <use transform="translate(1019.306641 0.78125)" xlink:href="#DejaVuSans-3d"/>
     <use transform="translate(1103.095703 0.78125)" xlink:href="#DejaVuSans-2d"/>
     <use transform="translate(1139.179688 0.78125)" xlink:href="#DejaVuSans-31"/>
     <use transform="translate(1202.802734 0.78125)" xlink:href="#DejaVuSans-37"/>
     <use transform="translate(1266.425781 0.78125)" xlink:href="#DejaVuSans-39"/>
     <use transform="translate(1330.048828 0.78125)" xlink:href="#DejaVuSans-2e"/>
     <use transform="translate(1361.835938 0.78125)" xlink:href="#DejaVuSans-33"/>
     <use transform="translate(1425.458984 0.78125)" xlink:href="#DejaVuSans-33"/>
     <use transform="translate(1489.082031 0.78125)" xlink:href="#DejaVuSans-65"/>
     <use transform="translate(1550.605469 0.78125)" xlink:href="#DejaVuSans-56"/>
     <use transform="translate(1619.013672 0.78125)" xlink:href="#DejaVuSans-2c"/>
     <use transform="translate(1650.800781 0.78125)" xlink:href="#DejaVuSans-20"/>
     <use transform="translate(1682.587891 0.78125)" xlink:href="#DejaVuSans-394"/>
     <use transform="translate(1750.996094 0.78125)" xlink:href="#DejaVuSans-45"/>
     <use transform="translate(1814.179688 0.78125)" xlink:href="#DejaVuSans-3d"/>
     <use transform="translate(1897.96875 0.78125)" xlink:href="#DejaVuSans-2d"/>
     <use transform="translate(1934.052734 0.78125)" xlink:href="#DejaVuSans-30"/>
     <use transform="translate(1997.675781 0.78125)" xlink:href="#DejaVuSans-2e"/>
     <use transform="translate(2029.462891 0.78125)" xlink:href="#DejaVuSans-35"/>
     <use transform="translate(2093.085938 0.78125)" xlink:href="#DejaVuSans-33"/>
     <use transform="translate(2156.708984 0.78125)" xlink:href="#DejaVuSans-65"/>
     <use transform="translate(2218.232422 0.78125)" xlink:href="#DejaVuSans-56"/>
    </g>
   </g>
  </g>
  <g id="axes_2">
   <g id="patch_2">
    <path clip-path="url(#p6e7e748dd1)" d="M 361.152 307.584 
L 361.152 306.5445 
L 361.152 42.5115 
L 361.152 41.472 
L 374.4576 41.472 
L 374.4576 42.5115 
L 374.4576 306.5445 
L 374.4576 307.584 
z
" style="fill:#ffffff;stroke:#ffffff;stroke-linejoin:miter;stroke-width:0.01;"/>
   </g>
   <image height="265.68" id="imaged68535257f" transform="scale(1 -1)translate(0 -265.68)" width="12.96" x="361.44" xlink:href="data:image/png;base64,
iVBORw0KGgoAAAANSUhEUgAAABIAAAFxCAYAAAB+2fgXAAAABHNCSVQICAgIfAhkiAAAAeVJREFUeJztncmNw0AQA2ckheYQNv9QLIfQ8ygsCgQ7AEI8+jAs2Puz/94F1LP2ReCsZ18bAWIeZ5XaGRBE7VnbptG+KI101FYyNSiQG2oRITXKNaX9uclOdi2XWjftVE32CZCO2ou5Bj1TcCBr/1zB9ge7Fq0Rg2NM9pvbtG+ua1QgsRYhDy0ISEiNc40BEibbSI0Coj5CBGtkpFbXJiAjNZlrwhuSOv2M1DjXbEdEciBt1JSDDQKKpmZr2rr2j0DBGpXaWEJq3bQzEPIS26r9J+Wzv9Tm8o3aajRXqc3VUXsApKNWjeZq0x4ABVNbm7lrszVigDqP5vIl2+eaT2yfRkL7g+dRcNPqjohkjaCvRVBq0H2U3LQrOJCx9kdTg4B8oxZzzTdqdYHEngjUCAPyUctN9sVRq2sTECW2UKNLd2jVtRmo1A6AhMmWaSRcR8nUdIHUuVb75zJS218EyEitro1At69pIdeSk30Lkw0FktNImGyZRhy1O5galmxd03LUsHWk06jUZiCq+5Wb1kZNN4+wJxJuWt8RAW5am2sYNZ9rYCBzZ3buPKJ2P5Yj4Toy3keyIyJbIxs1rml1byCA84gpch5RQNB7Q0qNMGq2Hy4BXdNR41yz/cEEJfZzUz96r9PoB0okjeQ8y9TkAAAAAElFTkSuQmCC" y="-41.76"/>
   <g id="matplotlib.axis_1"/>
   <g id="matplotlib.axis_2">
    <g id="ytick_1">
     <g id="line2d_1">
      <defs>
       <path d="M 0 0 
L 3.5 0 
" id="m70f5957226" style="stroke:#000000;stroke-width:0.8;"/>
      </defs>
      <g>
       <use style="stroke:#000000;stroke-width:0.8;" x="374.4576" xlink:href="#m70f5957226" y="296.764924"/>
      </g>
     </g>
     <g id="text_2">
      <!-- −9.0 -->
      <defs>
       <path d="M 10.59375 35.5 
L 73.1875 35.5 
L 73.1875 27.203125 
L 10.59375 27.203125 
z
" id="DejaVuSans-2212"/>
      </defs>
      <g transform="translate(381.4576 300.564143)scale(0.1 -0.1)">
       <use xlink:href="#DejaVuSans-2212"/>
       <use x="83.789062" xlink:href="#DejaVuSans-39"/>
       <use x="147.412109" xlink:href="#DejaVuSans-2e"/>
       <use x="179.199219" xlink:href="#DejaVuSans-30"/>
      </g>
     </g>
    </g>
    <g id="ytick_2">
     <g id="line2d_2">
      <g>
       <use style="stroke:#000000;stroke-width:0.8;" x="374.4576" xlink:href="#m70f5957226" y="263.983816"/>
      </g>
     </g>
     <g id="text_3">
      <!-- −8.5 -->
      <defs>
       <path d="M 31.78125 34.625 
Q 24.75 34.625 20.71875 30.859375 
Q 16.703125 27.09375 16.703125 20.515625 
Q 16.703125 13.921875 20.71875 10.15625 
Q 24.75 6.390625 31.78125 6.390625 
Q 38.8125 6.390625 42.859375 10.171875 
Q 46.921875 13.96875 46.921875 20.515625 
Q 46.921875 27.09375 42.890625 30.859375 
Q 38.875 34.625 31.78125 34.625 
z
M 21.921875 38.8125 
Q 15.578125 40.375 12.03125 44.71875 
Q 8.5 49.078125 8.5 55.328125 
Q 8.5 64.0625 14.71875 69.140625 
Q 20.953125 74.21875 31.78125 74.21875 
Q 42.671875 74.21875 48.875 69.140625 
Q 55.078125 64.0625 55.078125 55.328125 
Q 55.078125 49.078125 51.53125 44.71875 
Q 48 40.375 41.703125 38.8125 
Q 48.828125 37.15625 52.796875 32.3125 
Q 56.78125 27.484375 56.78125 20.515625 
Q 56.78125 9.90625 50.3125 4.234375 
Q 43.84375 -1.421875 31.78125 -1.421875 
Q 19.734375 -1.421875 13.25 4.234375 
Q 6.78125 9.90625 6.78125 20.515625 
Q 6.78125 27.484375 10.78125 32.3125 
Q 14.796875 37.15625 21.921875 38.8125 
z
M 18.3125 54.390625 
Q 18.3125 48.734375 21.84375 45.5625 
Q 25.390625 42.390625 31.78125 42.390625 
Q 38.140625 42.390625 41.71875 45.5625 
Q 45.3125 48.734375 45.3125 54.390625 
Q 45.3125 60.0625 41.71875 63.234375 
Q 38.140625 66.40625 31.78125 66.40625 
Q 25.390625 66.40625 21.84375 63.234375 
Q 18.3125 60.0625 18.3125 54.390625 
z
" id="DejaVuSans-38"/>
      </defs>
      <g transform="translate(381.4576 267.783035)scale(0.1 -0.1)">
       <use xlink:href="#DejaVuSans-2212"/>
       <use x="83.789062" xlink:href="#DejaVuSans-38"/>
       <use x="147.412109" xlink:href="#DejaVuSans-2e"/>
       <use x="179.199219" xlink:href="#DejaVuSans-35"/>
      </g>
     </g>
    </g>
    <g id="ytick_3">
     <g id="line2d_3">
      <g>
       <use style="stroke:#000000;stroke-width:0.8;" x="374.4576" xlink:href="#m70f5957226" y="231.202709"/>
      </g>
     </g>
     <g id="text_4">
      <!-- −8.0 -->
      <g transform="translate(381.4576 235.001927)scale(0.1 -0.1)">
       <use xlink:href="#DejaVuSans-2212"/>
       <use x="83.789062" xlink:href="#DejaVuSans-38"/>
       <use x="147.412109" xlink:href="#DejaVuSans-2e"/>
       <use x="179.199219" xlink:href="#DejaVuSans-30"/>
      </g>
     </g>
    </g>
    <g id="ytick_4">
     <g id="line2d_4">
      <g>
       <use style="stroke:#000000;stroke-width:0.8;" x="374.4576" xlink:href="#m70f5957226" y="198.421601"/>
      </g>
     </g>
     <g id="text_5">
      <!-- −7.5 -->
      <g transform="translate(381.4576 202.22082)scale(0.1 -0.1)">
       <use xlink:href="#DejaVuSans-2212"/>
       <use x="83.789062" xlink:href="#DejaVuSans-37"/>
       <use x="147.412109" xlink:href="#DejaVuSans-2e"/>
       <use x="179.199219" xlink:href="#DejaVuSans-35"/>
      </g>
     </g>
    </g>
    <g id="ytick_5">
     <g id="line2d_5">
      <g>
       <use style="stroke:#000000;stroke-width:0.8;" x="374.4576" xlink:href="#m70f5957226" y="165.640493"/>
      </g>
     </g>
     <g id="text_6">
      <!-- −7.0 -->
      <g transform="translate(381.4576 169.439712)scale(0.1 -0.1)">
       <use xlink:href="#DejaVuSans-2212"/>
       <use x="83.789062" xlink:href="#DejaVuSans-37"/>
       <use x="147.412109" xlink:href="#DejaVuSans-2e"/>
       <use x="179.199219" xlink:href="#DejaVuSans-30"/>
      </g>
     </g>
    </g>
    <g id="ytick_6">
     <g id="line2d_6">
      <g>
       <use style="stroke:#000000;stroke-width:0.8;" x="374.4576" xlink:href="#m70f5957226" y="132.859385"/>
      </g>
     </g>
     <g id="text_7">
      <!-- −6.5 -->
      <g transform="translate(381.4576 136.658604)scale(0.1 -0.1)">
       <use xlink:href="#DejaVuSans-2212"/>
       <use x="83.789062" xlink:href="#DejaVuSans-36"/>
       <use x="147.412109" xlink:href="#DejaVuSans-2e"/>
       <use x="179.199219" xlink:href="#DejaVuSans-35"/>
      </g>
     </g>
    </g>
    <g id="ytick_7">
     <g id="line2d_7">
      <g>
       <use style="stroke:#000000;stroke-width:0.8;" x="374.4576" xlink:href="#m70f5957226" y="100.078278"/>
      </g>
     </g>
     <g id="text_8">
      <!-- −6.0 -->
      <g transform="translate(381.4576 103.877497)scale(0.1 -0.1)">
       <use xlink:href="#DejaVuSans-2212"/>
       <use x="83.789062" xlink:href="#DejaVuSans-36"/>
       <use x="147.412109" xlink:href="#DejaVuSans-2e"/>
       <use x="179.199219" xlink:href="#DejaVuSans-30"/>
      </g>
     </g>
    </g>
    <g id="ytick_8">
     <g id="line2d_8">
      <g>
       <use style="stroke:#000000;stroke-width:0.8;" x="374.4576" xlink:href="#m70f5957226" y="67.29717"/>
      </g>
     </g>
     <g id="text_9">
      <!-- −5.5 -->
      <g transform="translate(381.4576 71.096389)scale(0.1 -0.1)">
       <use xlink:href="#DejaVuSans-2212"/>
       <use x="83.789062" xlink:href="#DejaVuSans-35"/>
       <use x="147.412109" xlink:href="#DejaVuSans-2e"/>
       <use x="179.199219" xlink:href="#DejaVuSans-35"/>
      </g>
     </g>
    </g>
    <g id="text_10">
     <!-- Energy [eV] -->
     <defs>
      <path d="M 54.890625 33.015625 
L 54.890625 0 
L 45.90625 0 
L 45.90625 32.71875 
Q 45.90625 40.484375 42.875 44.328125 
Q 39.84375 48.1875 33.796875 48.1875 
Q 26.515625 48.1875 22.3125 43.546875 
Q 18.109375 38.921875 18.109375 30.90625 
L 18.109375 0 
L 9.078125 0 
L 9.078125 54.6875 
L 18.109375 54.6875 
L 18.109375 46.1875 
Q 21.34375 51.125 25.703125 53.5625 
Q 30.078125 56 35.796875 56 
Q 45.21875 56 50.046875 50.171875 
Q 54.890625 44.34375 54.890625 33.015625 
z
" id="DejaVuSans-6e"/>
      <path d="M 45.40625 27.984375 
Q 45.40625 37.75 41.375 43.109375 
Q 37.359375 48.484375 30.078125 48.484375 
Q 22.859375 48.484375 18.828125 43.109375 
Q 14.796875 37.75 14.796875 27.984375 
Q 14.796875 18.265625 18.828125 12.890625 
Q 22.859375 7.515625 30.078125 7.515625 
Q 37.359375 7.515625 41.375 12.890625 
Q 45.40625 18.265625 45.40625 27.984375 
z
M 54.390625 6.78125 
Q 54.390625 -7.171875 48.1875 -13.984375 
Q 42 -20.796875 29.203125 -20.796875 
Q 24.46875 -20.796875 20.265625 -20.09375 
Q 16.0625 -19.390625 12.109375 -17.921875 
L 12.109375 -9.1875 
Q 16.0625 -11.328125 19.921875 -12.34375 
Q 23.78125 -13.375 27.78125 -13.375 
Q 36.625 -13.375 41.015625 -8.765625 
Q 45.40625 -4.15625 45.40625 5.171875 
L 45.40625 9.625 
Q 42.625 4.78125 38.28125 2.390625 
Q 33.9375 0 27.875 0 
Q 17.828125 0 11.671875 7.65625 
Q 5.515625 15.328125 5.515625 27.984375 
Q 5.515625 40.671875 11.671875 48.328125 
Q 17.828125 56 27.875 56 
Q 33.9375 56 38.28125 53.609375 
Q 42.625 51.21875 45.40625 46.390625 
L 45.40625 54.6875 
L 54.390625 54.6875 
z
" id="DejaVuSans-67"/>
      <path d="M 32.171875 -5.078125 
Q 28.375 -14.84375 24.75 -17.8125 
Q 21.140625 -20.796875 15.09375 -20.796875 
L 7.90625 -20.796875 
L 7.90625 -13.28125 
L 13.1875 -13.28125 
Q 16.890625 -13.28125 18.9375 -11.515625 
Q 21 -9.765625 23.484375 -3.21875 
L 25.09375 0.875 
L 2.984375 54.6875 
L 12.5 54.6875 
L 29.59375 11.921875 
L 46.6875 54.6875 
L 56.203125 54.6875 
z
" id="DejaVuSans-79"/>
      <path d="M 8.59375 75.984375 
L 29.296875 75.984375 
L 29.296875 69 
L 17.578125 69 
L 17.578125 -6.203125 
L 29.296875 -6.203125 
L 29.296875 -13.1875 
L 8.59375 -13.1875 
z
" id="DejaVuSans-5b"/>
      <path d="M 30.421875 75.984375 
L 30.421875 -13.1875 
L 9.71875 -13.1875 
L 9.71875 -6.203125 
L 21.390625 -6.203125 
L 21.390625 69 
L 9.71875 69 
L 9.71875 75.984375 
z
" id="DejaVuSans-5d"/>
     </defs>
     <g transform="translate(417.33885 204.108469)rotate(-90)scale(0.1 -0.1)">
      <use xlink:href="#DejaVuSans-45"/>
      <use x="63.183594" xlink:href="#DejaVuSans-6e"/>
      <use x="126.5625" xlink:href="#DejaVuSans-65"/>
      <use x="188.085938" xlink:href="#DejaVuSans-72"/>
      <use x="229.183594" xlink:href="#DejaVuSans-67"/>
      <use x="292.660156" xlink:href="#DejaVuSans-79"/>
      <use x="351.839844" xlink:href="#DejaVuSans-20"/>
      <use x="383.626953" xlink:href="#DejaVuSans-5b"/>
      <use x="422.640625" xlink:href="#DejaVuSans-65"/>
      <use x="484.164062" xlink:href="#DejaVuSans-56"/>
      <use x="552.572266" xlink:href="#DejaVuSans-5d"/>
     </g>
    </g>
   </g>
   <g id="patch_3">
    <path d="M 361.152 307.584 
L 361.152 306.5445 
L 361.152 42.5115 
L 361.152 41.472 
L 374.4576 41.472 
L 374.4576 42.5115 
L 374.4576 306.5445 
L 374.4576 307.584 
z
" style="fill:none;stroke:#000000;stroke-linejoin:miter;stroke-width:0.8;"/>
   </g>
  </g>
 </g>
 <defs>
  <clipPath id="p91ff3647e8">
   <rect height="266.112" width="285.696" x="57.6" y="41.472"/>
  </clipPath>
  <clipPath id="p6e7e748dd1">
   <rect height="266.112" width="13.3056" x="361.152" y="41.472"/>
  </clipPath>
 </defs>
</svg>
