<?xml version="1.0" encoding="utf-8" standalone="no"?>
<!DOCTYPE svg PUBLIC "-//W3C//DTD SVG 1.1//EN"
  "http://www.w3.org/Graphics/SVG/1.1/DTD/svg11.dtd">
<!-- Created with matplotlib (http://matplotlib.org/) -->
<svg height="345.6pt" version="1.1" viewBox="0 0 460.8 345.6" width="460.8pt" xmlns="http://www.w3.org/2000/svg" xmlns:xlink="http://www.w3.org/1999/xlink">
 <defs>
  <style type="text/css">
*{stroke-linecap:butt;stroke-linejoin:round;}
  </style>
 </defs>
 <g id="figure_1">
  <g id="patch_1">
   <path d="M 0 345.6 
L 460.8 345.6 
L 460.8 0 
L 0 0 
z
" style="fill:#ffffff;"/>
  </g>
  <g id="axes_1">
   <g id="CircleCollection_1">
    <path clip-path="url(#p70b91f90bd)" d="M 173.09303 229.132413 
C 174.81599 229.132413 176.468614 228.447873 177.686931 227.229557 
C 178.905247 226.01124 179.589787 224.358616 179.589787 222.635655 
C 179.589787 220.912695 178.905247 219.260071 177.686931 218.041754 
C 176.468614 216.823438 174.81599 216.138898 173.09303 216.138898 
C 171.370069 216.138898 169.717445 216.823438 168.499128 218.041754 
C 167.280812 219.260071 166.596272 220.912695 166.596272 222.635655 
C 166.596272 224.358616 167.280812 226.01124 168.499128 227.229557 
C 169.717445 228.447873 171.370069 229.132413 173.09303 229.132413 
z
" style="fill:#404588;"/>
    <path clip-path="url(#p70b91f90bd)" d="M 76.76147 271.104362 
C 78.31355 271.104362 79.80227 270.487714 80.899756 269.390228 
C 81.997242 268.292742 82.61389 266.804022 82.61389 265.251942 
C 82.61389 263.699862 81.997242 262.211142 80.899756 261.113656 
C 79.80227 260.01617 78.31355 259.399522 76.76147 259.399522 
C 75.20939 259.399522 73.72067 260.01617 72.623184 261.113656 
C 71.525697 262.211142 70.90905 263.699862 70.90905 265.251942 
C 70.90905 266.804022 71.525697 268.292742 72.623184 269.390228 
C 73.72067 270.487714 75.20939 271.104362 76.76147 271.104362 
z
" style="fill:#2e6e8e;"/>
    <path clip-path="url(#p70b91f90bd)" d="M 291.847167 65.860817 
C 293.548595 65.860817 295.180567 65.184832 296.383658 63.981741 
C 297.586749 62.778649 298.262734 61.146678 298.262734 59.44525 
C 298.262734 57.743822 297.586749 56.111851 296.383658 54.908759 
C 295.180567 53.705668 293.548595 53.029683 291.847167 53.029683 
C 290.145739 53.029683 288.513768 53.705668 287.310677 54.908759 
C 286.107585 56.111851 285.431601 57.743822 285.431601 59.44525 
C 285.431601 61.146678 286.107585 62.778649 287.310677 63.981741 
C 288.513768 65.184832 290.145739 65.860817 291.847167 65.860817 
z
" style="fill:#5ac864;"/>
    <path clip-path="url(#p70b91f90bd)" d="M 235.567666 236.385328 
C 237.501403 236.385328 239.356199 235.617046 240.723557 234.249688 
C 242.090916 232.88233 242.859197 231.027533 242.859197 229.093797 
C 242.859197 227.16006 242.090916 225.305264 240.723557 223.937906 
C 239.356199 222.570547 237.501403 221.802265 235.567666 221.802265 
C 233.633929 221.802265 231.779133 222.570547 230.411775 223.937906 
C 229.044416 225.305264 228.276135 227.16006 228.276135 229.093797 
C 228.276135 231.027533 229.044416 232.88233 230.411775 234.249688 
C 231.779133 235.617046 233.633929 236.385328 235.567666 236.385328 
z
" style="fill:#21918c;"/>
    <path clip-path="url(#p70b91f90bd)" d="M 186.502826 183.917847 
C 188.171117 183.917847 189.771304 183.255028 190.950964 182.075368 
C 192.130624 180.895708 192.793443 179.295521 192.793443 177.62723 
C 192.793443 175.958938 192.130624 174.358751 190.950964 173.179091 
C 189.771304 171.999431 188.171117 171.336612 186.502826 171.336612 
C 184.834535 171.336612 183.234348 171.999431 182.054688 173.179091 
C 180.875028 174.358751 180.212208 175.958938 180.212208 177.62723 
C 180.212208 179.295521 180.875028 180.895708 182.054688 182.075368 
C 183.234348 183.255028 184.834535 183.917847 186.502826 183.917847 
z
" style="fill:#481f70;"/>
    <path clip-path="url(#p70b91f90bd)" d="M 137.890532 301.54172 
C 139.674355 301.54172 141.385357 300.833 142.64671 299.571647 
C 143.908064 298.310293 144.616784 296.599291 144.616784 294.815468 
C 144.616784 293.031645 143.908064 291.320643 142.64671 290.05929 
C 141.385357 288.797936 139.674355 288.089216 137.890532 288.089216 
C 136.106709 288.089216 134.395707 288.797936 133.134353 290.05929 
C 131.873 291.320643 131.16428 293.031645 131.16428 294.815468 
C 131.16428 296.599291 131.873 298.310293 133.134353 299.571647 
C 134.395707 300.833 136.106709 301.54172 137.890532 301.54172 
z
" style="fill:#1f9a8a;"/>
    <path clip-path="url(#p70b91f90bd)" d="M 262.008443 195.555673 
C 263.940489 195.555673 265.793664 194.788063 267.159827 193.4219 
C 268.52599 192.055737 269.2936 190.202562 269.2936 188.270516 
C 269.2936 186.33847 268.52599 184.485295 267.159827 183.119132 
C 265.793664 181.752969 263.940489 180.985359 262.008443 180.985359 
C 260.076397 180.985359 258.223222 181.752969 256.857059 183.119132 
C 255.490896 184.485295 254.723286 186.33847 254.723286 188.270516 
C 254.723286 190.202562 255.490896 192.055737 256.857059 193.4219 
C 258.223222 194.788063 260.076397 195.555673 262.008443 195.555673 
z
" style="fill:#1f978b;"/>
    <path clip-path="url(#p70b91f90bd)" d="M 135.16997 271.432636 
C 136.879174 271.432636 138.518605 270.753562 139.727195 269.544972 
C 140.935785 268.336382 141.614859 266.696951 141.614859 264.987747 
C 141.614859 263.278542 140.935785 261.639112 139.727195 260.430522 
C 138.518605 259.221931 136.879174 258.542857 135.16997 258.542857 
C 133.460765 258.542857 131.821335 259.221931 130.612744 260.430522 
C 129.404154 261.639112 128.72508 263.278542 128.72508 264.987747 
C 128.72508 266.696951 129.404154 268.336382 130.612744 269.544972 
C 131.821335 270.753562 133.460765 271.432636 135.16997 271.432636 
z
" style="fill:#440154;"/>
    <path clip-path="url(#p70b91f90bd)" d="M 287.039796 89.517136 
C 288.82294 89.517136 290.533291 88.808685 291.794164 87.547812 
C 293.055037 86.286939 293.763488 84.576588 293.763488 82.793444 
C 293.763488 81.0103 293.055037 79.299948 291.794164 78.039075 
C 290.533291 76.778202 288.82294 76.069751 287.039796 76.069751 
C 285.256652 76.069751 283.5463 76.778202 282.285427 78.039075 
C 281.024554 79.299948 280.316103 81.0103 280.316103 82.793444 
C 280.316103 84.576588 281.024554 86.286939 282.285427 87.547812 
C 283.5463 88.808685 285.256652 89.517136 287.039796 89.517136 
z
" style="fill:#2c738e;"/>
    <path clip-path="url(#p70b91f90bd)" d="M 201.804738 257.427216 
C 203.676681 257.427216 205.472206 256.683485 206.795869 255.359822 
C 208.119533 254.036158 208.863264 252.240633 208.863264 250.368691 
C 208.863264 248.496748 208.119533 246.701223 206.795869 245.377559 
C 205.472206 244.053896 203.676681 243.310165 201.804738 243.310165 
C 199.932796 243.310165 198.137271 244.053896 196.813607 245.377559 
C 195.489944 246.701223 194.746213 248.496748 194.746213 250.368691 
C 194.746213 252.240633 195.489944 254.036158 196.813607 255.359822 
C 198.137271 256.683485 199.932796 257.427216 201.804738 257.427216 
z
" style="fill:#481467;"/>
    <path clip-path="url(#p70b91f90bd)" d="M 255.120414 108.750559 
C 256.833339 108.750559 258.476338 108.070007 259.687559 106.858786 
C 260.89878 105.647565 261.579332 104.004567 261.579332 102.291642 
C 261.579332 100.578717 260.89878 98.935718 259.687559 97.724497 
C 258.476338 96.513277 256.833339 95.832724 255.120414 95.832724 
C 253.407489 95.832724 251.764491 96.513277 250.55327 97.724497 
C 249.342049 98.935718 248.661497 100.578717 248.661497 102.291642 
C 248.661497 104.004567 249.342049 105.647565 250.55327 106.858786 
C 251.764491 108.070007 253.407489 108.750559 255.120414 108.750559 
z
" style="fill:#2e6f8e;"/>
    <path clip-path="url(#p70b91f90bd)" d="M 135.513041 174.587045 
C 137.015403 174.587045 138.456436 173.99015 139.518767 172.927819 
C 140.581098 171.865488 141.177993 170.424456 141.177993 168.922093 
C 141.177993 167.41973 140.581098 165.978698 139.518767 164.916367 
C 138.456436 163.854036 137.015403 163.257141 135.513041 163.257141 
C 134.010678 163.257141 132.569646 163.854036 131.507315 164.916367 
C 130.444984 165.978698 129.848089 167.41973 129.848089 168.922093 
C 129.848089 170.424456 130.444984 171.865488 131.507315 172.927819 
C 132.569646 173.99015 134.010678 174.587045 135.513041 174.587045 
z
" style="fill:#2c728e;"/>
    <path clip-path="url(#p70b91f90bd)" d="M 163.835711 174.036846 
C 165.416407 174.036846 166.932575 173.408828 168.050296 172.291107 
C 169.168018 171.173386 169.796035 169.657218 169.796035 168.076522 
C 169.796035 166.495825 169.168018 164.979657 168.050296 163.861936 
C 166.932575 162.744215 165.416407 162.116197 163.835711 162.116197 
C 162.255014 162.116197 160.738846 162.744215 159.621125 163.861936 
C 158.503404 164.979657 157.875387 166.495825 157.875387 168.076522 
C 157.875387 169.657218 158.503404 171.173386 159.621125 172.291107 
C 160.738846 173.408828 162.255014 174.036846 163.835711 174.036846 
z
" style="fill:#27808e;"/>
    <path clip-path="url(#p70b91f90bd)" d="M 329.6519 61.826512 
C 331.643001 61.826512 333.552819 61.03544 334.96074 59.627519 
C 336.368661 58.219598 337.159733 56.30978 337.159733 54.318679 
C 337.159733 52.327579 336.368661 50.41776 334.96074 49.00984 
C 333.552819 47.601919 331.643001 46.810846 329.6519 46.810846 
C 327.6608 46.810846 325.750981 47.601919 324.343061 49.00984 
C 322.93514 50.41776 322.144067 52.327579 322.144067 54.318679 
C 322.144067 56.30978 322.93514 58.219598 324.343061 59.627519 
C 325.750981 61.03544 327.6608 61.826512 329.6519 61.826512 
z
" style="fill:#fde725;"/>
    <path clip-path="url(#p70b91f90bd)" d="M 203.982962 224.200908 
C 205.78472 224.200908 207.512926 223.485062 208.786962 222.211026 
C 210.060997 220.936991 210.776843 219.208785 210.776843 217.407027 
C 210.776843 215.605268 210.060997 213.877063 208.786962 212.603027 
C 207.512926 211.328992 205.78472 210.613145 203.982962 210.613145 
C 202.181204 210.613145 200.452998 211.328992 199.178962 212.603027 
C 197.904927 213.877063 197.18908 215.605268 197.18908 217.407027 
C 197.18908 219.208785 197.904927 220.936991 199.178962 222.211026 
C 200.452998 223.485062 202.181204 224.200908 203.982962 224.200908 
z
" style="fill:#482071;"/>
    <path clip-path="url(#p70b91f90bd)" d="M 234.843248 178.612239 
C 236.644746 178.612239 238.372701 177.896496 239.646552 176.622645 
C 240.920404 175.348794 241.636146 173.620838 241.636146 171.819341 
C 241.636146 170.017843 240.920404 168.289888 239.646552 167.016036 
C 238.372701 165.742185 236.644746 165.026443 234.843248 165.026443 
C 233.041751 165.026443 231.313795 165.742185 230.039944 167.016036 
C 228.766093 168.289888 228.05035 170.017843 228.05035 171.819341 
C 228.05035 173.620838 228.766093 175.348794 230.039944 176.622645 
C 231.313795 177.896496 233.041751 178.612239 234.843248 178.612239 
z
" style="fill:#481b6d;"/>
    <path clip-path="url(#p70b91f90bd)" d="M 71.071673 241.584012 
C 72.540948 241.584012 73.950243 241.000263 74.989177 239.961329 
C 76.028111 238.922395 76.61186 237.513101 76.61186 236.043826 
C 76.61186 234.574551 76.028111 233.165256 74.989177 232.126322 
C 73.950243 231.087388 72.540948 230.503639 71.071673 230.503639 
C 69.602398 230.503639 68.193104 231.087388 67.15417 232.126322 
C 66.115236 233.165256 65.531487 234.574551 65.531487 236.043826 
C 65.531487 237.513101 66.115236 238.922395 67.15417 239.961329 
C 68.193104 241.000263 69.602398 241.584012 71.071673 241.584012 
z
" style="fill:#228d8d;"/>
    <path clip-path="url(#p70b91f90bd)" d="M 266.499983 159.771357 
C 268.369903 159.771357 270.163489 159.028429 271.485723 157.706195 
C 272.807957 156.383962 273.550884 154.590376 273.550884 152.720455 
C 273.550884 150.850534 272.807957 149.056949 271.485723 147.734715 
C 270.163489 146.412481 268.369903 145.669554 266.499983 145.669554 
C 264.630062 145.669554 262.836476 146.412481 261.514242 147.734715 
C 260.192008 149.056949 259.449081 150.850534 259.449081 152.720455 
C 259.449081 154.590376 260.192008 156.383962 261.514242 157.706195 
C 262.836476 159.028429 264.630062 159.771357 266.499983 159.771357 
z
" style="fill:#482173;"/>
    <path clip-path="url(#p70b91f90bd)" d="M 101.530279 277.008442 
C 103.160097 277.008442 104.723382 276.360908 105.875838 275.208452 
C 107.028293 274.055997 107.675827 272.492712 107.675827 270.862894 
C 107.675827 269.233075 107.028293 267.669791 105.875838 266.517335 
C 104.723382 265.364879 103.160097 264.717346 101.530279 264.717346 
C 99.900461 264.717346 98.337176 265.364879 97.18472 266.517335 
C 96.032265 267.669791 95.384731 269.233075 95.384731 270.862894 
C 95.384731 272.492712 96.032265 274.055997 97.18472 275.208452 
C 98.337176 276.360908 99.900461 277.008442 101.530279 277.008442 
z
" style="fill:#24868e;"/>
    <path clip-path="url(#p70b91f90bd)" d="M 165.028192 297.060529 
C 166.879507 297.060529 168.655246 296.324993 169.964323 295.015916 
C 171.273401 293.706838 172.008936 291.931099 172.008936 290.079784 
C 172.008936 288.228469 171.273401 286.45273 169.964323 285.143653 
C 168.655246 283.834575 166.879507 283.09904 165.028192 283.09904 
C 163.176876 283.09904 161.401137 283.834575 160.09206 285.143653 
C 158.782982 286.45273 158.047447 288.228469 158.047447 290.079784 
C 158.047447 291.931099 158.782982 293.706838 160.09206 295.015916 
C 161.401137 296.324993 163.176876 297.060529 165.028192 297.060529 
z
" style="fill:#228d8d;"/>
    <path clip-path="url(#p70b91f90bd)" d="M 311.798024 83.702668 
C 313.72744 83.702668 315.578091 82.936103 316.942394 81.5718 
C 318.306697 80.207497 319.073262 78.356846 319.073262 76.42743 
C 319.073262 74.498014 318.306697 72.647363 316.942394 71.28306 
C 315.578091 69.918757 313.72744 69.152192 311.798024 69.152192 
C 309.868608 69.152192 308.017957 69.918757 306.653654 71.28306 
C 305.289351 72.647363 304.522786 74.498014 304.522786 76.42743 
C 304.522786 78.356846 305.289351 80.207497 306.653654 81.5718 
C 308.017957 82.936103 309.868608 83.702668 311.798024 83.702668 
z
" style="fill:#218f8d;"/>
    <path clip-path="url(#p70b91f90bd)" d="M 95.291762 200.665397 
C 96.740093 200.665397 98.1293 200.089968 99.153425 199.065843 
C 100.17755 198.041718 100.752978 196.652512 100.752978 195.20418 
C 100.752978 193.755849 100.17755 192.366642 99.153425 191.342517 
C 98.1293 190.318392 96.740093 189.742964 95.291762 189.742964 
C 93.84343 189.742964 92.454224 190.318392 91.430098 191.342517 
C 90.405973 192.366642 89.830545 193.755849 89.830545 195.20418 
C 89.830545 196.652512 90.405973 198.041718 91.430098 199.065843 
C 92.454224 200.089968 93.84343 200.665397 95.291762 200.665397 
z
" style="fill:#23888e;"/>
    <path clip-path="url(#p70b91f90bd)" d="M 291.494246 110.13903 
C 293.359406 110.13903 295.148425 109.397994 296.467292 108.079127 
C 297.786159 106.76026 298.527195 104.971241 298.527195 103.106081 
C 298.527195 101.240922 297.786159 99.451903 296.467292 98.133036 
C 295.148425 96.814168 293.359406 96.073133 291.494246 96.073133 
C 289.629086 96.073133 287.840067 96.814168 286.5212 98.133036 
C 285.202333 99.451903 284.461297 101.240922 284.461297 103.106081 
C 284.461297 104.971241 285.202333 106.76026 286.5212 108.079127 
C 287.840067 109.397994 289.629086 110.13903 291.494246 110.13903 
z
" style="fill:#450457;"/>
    <path clip-path="url(#p70b91f90bd)" d="M 224.773294 154.024639 
C 226.49358 154.024639 228.143638 153.341162 229.360064 152.124737 
C 230.576489 150.908312 231.259966 149.258253 231.259966 147.537968 
C 231.259966 145.817682 230.576489 144.167624 229.360064 142.951198 
C 228.143638 141.734773 226.49358 141.051296 224.773294 141.051296 
C 223.053009 141.051296 221.40295 141.734773 220.186525 142.951198 
C 218.970099 144.167624 218.286623 145.817682 218.286623 147.537968 
C 218.286623 149.258253 218.970099 150.908312 220.186525 152.124737 
C 221.40295 153.341162 223.053009 154.024639 224.773294 154.024639 
z
" style="fill:#481b6d;"/>
   </g>
   <g id="text_1">
    <!-- Structure #2573, $E_N$=-182.92eV, ΔE=0.28eV -->
    <defs>
     <path d="M 53.515625 70.515625 
L 53.515625 60.890625 
Q 47.90625 63.578125 42.921875 64.890625 
Q 37.9375 66.21875 33.296875 66.21875 
Q 25.25 66.21875 20.875 63.09375 
Q 16.5 59.96875 16.5 54.203125 
Q 16.5 49.359375 19.40625 46.890625 
Q 22.3125 44.4375 30.421875 42.921875 
L 36.375 41.703125 
Q 47.40625 39.59375 52.65625 34.296875 
Q 57.90625 29 57.90625 20.125 
Q 57.90625 9.515625 50.796875 4.046875 
Q 43.703125 -1.421875 29.984375 -1.421875 
Q 24.8125 -1.421875 18.96875 -0.25 
Q 13.140625 0.921875 6.890625 3.21875 
L 6.890625 13.375 
Q 12.890625 10.015625 18.65625 8.296875 
Q 24.421875 6.59375 29.984375 6.59375 
Q 38.421875 6.59375 43.015625 9.90625 
Q 47.609375 13.234375 47.609375 19.390625 
Q 47.609375 24.75 44.3125 27.78125 
Q 41.015625 30.8125 33.5 32.328125 
L 27.484375 33.5 
Q 16.453125 35.6875 11.515625 40.375 
Q 6.59375 45.0625 6.59375 53.421875 
Q 6.59375 63.09375 13.40625 68.65625 
Q 20.21875 74.21875 32.171875 74.21875 
Q 37.3125 74.21875 42.625 73.28125 
Q 47.953125 72.359375 53.515625 70.515625 
z
" id="DejaVuSans-53"/>
     <path d="M 18.3125 70.21875 
L 18.3125 54.6875 
L 36.8125 54.6875 
L 36.8125 47.703125 
L 18.3125 47.703125 
L 18.3125 18.015625 
Q 18.3125 11.328125 20.140625 9.421875 
Q 21.96875 7.515625 27.59375 7.515625 
L 36.8125 7.515625 
L 36.8125 0 
L 27.59375 0 
Q 17.1875 0 13.234375 3.875 
Q 9.28125 7.765625 9.28125 18.015625 
L 9.28125 47.703125 
L 2.6875 47.703125 
L 2.6875 54.6875 
L 9.28125 54.6875 
L 9.28125 70.21875 
z
" id="DejaVuSans-74"/>
     <path d="M 41.109375 46.296875 
Q 39.59375 47.171875 37.8125 47.578125 
Q 36.03125 48 33.890625 48 
Q 26.265625 48 22.1875 43.046875 
Q 18.109375 38.09375 18.109375 28.8125 
L 18.109375 0 
L 9.078125 0 
L 9.078125 54.6875 
L 18.109375 54.6875 
L 18.109375 46.1875 
Q 20.953125 51.171875 25.484375 53.578125 
Q 30.03125 56 36.53125 56 
Q 37.453125 56 38.578125 55.875 
Q 39.703125 55.765625 41.0625 55.515625 
z
" id="DejaVuSans-72"/>
     <path d="M 8.5 21.578125 
L 8.5 54.6875 
L 17.484375 54.6875 
L 17.484375 21.921875 
Q 17.484375 14.15625 20.5 10.265625 
Q 23.53125 6.390625 29.59375 6.390625 
Q 36.859375 6.390625 41.078125 11.03125 
Q 45.3125 15.671875 45.3125 23.6875 
L 45.3125 54.6875 
L 54.296875 54.6875 
L 54.296875 0 
L 45.3125 0 
L 45.3125 8.40625 
Q 42.046875 3.421875 37.71875 1 
Q 33.40625 -1.421875 27.6875 -1.421875 
Q 18.265625 -1.421875 13.375 4.4375 
Q 8.5 10.296875 8.5 21.578125 
z
M 31.109375 56 
z
" id="DejaVuSans-75"/>
     <path d="M 48.78125 52.59375 
L 48.78125 44.1875 
Q 44.96875 46.296875 41.140625 47.34375 
Q 37.3125 48.390625 33.40625 48.390625 
Q 24.65625 48.390625 19.8125 42.84375 
Q 14.984375 37.3125 14.984375 27.296875 
Q 14.984375 17.28125 19.8125 11.734375 
Q 24.65625 6.203125 33.40625 6.203125 
Q 37.3125 6.203125 41.140625 7.25 
Q 44.96875 8.296875 48.78125 10.40625 
L 48.78125 2.09375 
Q 45.015625 0.34375 40.984375 -0.53125 
Q 36.96875 -1.421875 32.421875 -1.421875 
Q 20.0625 -1.421875 12.78125 6.34375 
Q 5.515625 14.109375 5.515625 27.296875 
Q 5.515625 40.671875 12.859375 48.328125 
Q 20.21875 56 33.015625 56 
Q 37.15625 56 41.109375 55.140625 
Q 45.0625 54.296875 48.78125 52.59375 
z
" id="DejaVuSans-63"/>
     <path d="M 56.203125 29.59375 
L 56.203125 25.203125 
L 14.890625 25.203125 
Q 15.484375 15.921875 20.484375 11.0625 
Q 25.484375 6.203125 34.421875 6.203125 
Q 39.59375 6.203125 44.453125 7.46875 
Q 49.3125 8.734375 54.109375 11.28125 
L 54.109375 2.78125 
Q 49.265625 0.734375 44.1875 -0.34375 
Q 39.109375 -1.421875 33.890625 -1.421875 
Q 20.796875 -1.421875 13.15625 6.1875 
Q 5.515625 13.8125 5.515625 26.8125 
Q 5.515625 40.234375 12.765625 48.109375 
Q 20.015625 56 32.328125 56 
Q 43.359375 56 49.78125 48.890625 
Q 56.203125 41.796875 56.203125 29.59375 
z
M 47.21875 32.234375 
Q 47.125 39.59375 43.09375 43.984375 
Q 39.0625 48.390625 32.421875 48.390625 
Q 24.90625 48.390625 20.390625 44.140625 
Q 15.875 39.890625 15.1875 32.171875 
z
" id="DejaVuSans-65"/>
     <path id="DejaVuSans-20"/>
     <path d="M 51.125 44 
L 36.921875 44 
L 32.8125 27.6875 
L 47.125 27.6875 
z
M 43.796875 71.78125 
L 38.71875 51.515625 
L 52.984375 51.515625 
L 58.109375 71.78125 
L 65.921875 71.78125 
L 60.890625 51.515625 
L 76.125 51.515625 
L 76.125 44 
L 58.984375 44 
L 54.984375 27.6875 
L 70.515625 27.6875 
L 70.515625 20.21875 
L 53.078125 20.21875 
L 48 0 
L 40.1875 0 
L 45.21875 20.21875 
L 30.90625 20.21875 
L 25.875 0 
L 18.015625 0 
L 23.09375 20.21875 
L 7.71875 20.21875 
L 7.71875 27.6875 
L 24.90625 27.6875 
L 29 44 
L 13.28125 44 
L 13.28125 51.515625 
L 30.90625 51.515625 
L 35.890625 71.78125 
z
" id="DejaVuSans-23"/>
     <path d="M 19.1875 8.296875 
L 53.609375 8.296875 
L 53.609375 0 
L 7.328125 0 
L 7.328125 8.296875 
Q 12.9375 14.109375 22.625 23.890625 
Q 32.328125 33.6875 34.8125 36.53125 
Q 39.546875 41.84375 41.421875 45.53125 
Q 43.3125 49.21875 43.3125 52.78125 
Q 43.3125 58.59375 39.234375 62.25 
Q 35.15625 65.921875 28.609375 65.921875 
Q 23.96875 65.921875 18.8125 64.3125 
Q 13.671875 62.703125 7.8125 59.421875 
L 7.8125 69.390625 
Q 13.765625 71.78125 18.9375 73 
Q 24.125 74.21875 28.421875 74.21875 
Q 39.75 74.21875 46.484375 68.546875 
Q 53.21875 62.890625 53.21875 53.421875 
Q 53.21875 48.921875 51.53125 44.890625 
Q 49.859375 40.875 45.40625 35.40625 
Q 44.1875 33.984375 37.640625 27.21875 
Q 31.109375 20.453125 19.1875 8.296875 
z
" id="DejaVuSans-32"/>
     <path d="M 10.796875 72.90625 
L 49.515625 72.90625 
L 49.515625 64.59375 
L 19.828125 64.59375 
L 19.828125 46.734375 
Q 21.96875 47.46875 24.109375 47.828125 
Q 26.265625 48.1875 28.421875 48.1875 
Q 40.625 48.1875 47.75 41.5 
Q 54.890625 34.8125 54.890625 23.390625 
Q 54.890625 11.625 47.5625 5.09375 
Q 40.234375 -1.421875 26.90625 -1.421875 
Q 22.3125 -1.421875 17.546875 -0.640625 
Q 12.796875 0.140625 7.71875 1.703125 
L 7.71875 11.625 
Q 12.109375 9.234375 16.796875 8.0625 
Q 21.484375 6.890625 26.703125 6.890625 
Q 35.15625 6.890625 40.078125 11.328125 
Q 45.015625 15.765625 45.015625 23.390625 
Q 45.015625 31 40.078125 35.4375 
Q 35.15625 39.890625 26.703125 39.890625 
Q 22.75 39.890625 18.8125 39.015625 
Q 14.890625 38.140625 10.796875 36.28125 
z
" id="DejaVuSans-35"/>
     <path d="M 8.203125 72.90625 
L 55.078125 72.90625 
L 55.078125 68.703125 
L 28.609375 0 
L 18.3125 0 
L 43.21875 64.59375 
L 8.203125 64.59375 
z
" id="DejaVuSans-37"/>
     <path d="M 40.578125 39.3125 
Q 47.65625 37.796875 51.625 33 
Q 55.609375 28.21875 55.609375 21.1875 
Q 55.609375 10.40625 48.1875 4.484375 
Q 40.765625 -1.421875 27.09375 -1.421875 
Q 22.515625 -1.421875 17.65625 -0.515625 
Q 12.796875 0.390625 7.625 2.203125 
L 7.625 11.71875 
Q 11.71875 9.328125 16.59375 8.109375 
Q 21.484375 6.890625 26.8125 6.890625 
Q 36.078125 6.890625 40.9375 10.546875 
Q 45.796875 14.203125 45.796875 21.1875 
Q 45.796875 27.640625 41.28125 31.265625 
Q 36.765625 34.90625 28.71875 34.90625 
L 20.21875 34.90625 
L 20.21875 43.015625 
L 29.109375 43.015625 
Q 36.375 43.015625 40.234375 45.921875 
Q 44.09375 48.828125 44.09375 54.296875 
Q 44.09375 59.90625 40.109375 62.90625 
Q 36.140625 65.921875 28.71875 65.921875 
Q 24.65625 65.921875 20.015625 65.03125 
Q 15.375 64.15625 9.8125 62.3125 
L 9.8125 71.09375 
Q 15.4375 72.65625 20.34375 73.4375 
Q 25.25 74.21875 29.59375 74.21875 
Q 40.828125 74.21875 47.359375 69.109375 
Q 53.90625 64.015625 53.90625 55.328125 
Q 53.90625 49.265625 50.4375 45.09375 
Q 46.96875 40.921875 40.578125 39.3125 
z
" id="DejaVuSans-33"/>
     <path d="M 11.71875 12.40625 
L 22.015625 12.40625 
L 22.015625 4 
L 14.015625 -11.625 
L 7.71875 -11.625 
L 11.71875 4 
z
" id="DejaVuSans-2c"/>
     <path d="M 16.890625 72.90625 
L 62.984375 72.90625 
L 61.375 64.59375 
L 25.09375 64.59375 
L 20.90625 43.015625 
L 55.71875 43.015625 
L 54.109375 34.71875 
L 19.28125 34.71875 
L 14.203125 8.296875 
L 51.3125 8.296875 
L 49.703125 0 
L 2.6875 0 
z
" id="DejaVuSans-Oblique-45"/>
     <path d="M 16.890625 72.90625 
L 30.171875 72.90625 
L 50.296875 10.40625 
L 62.5 72.90625 
L 72.125 72.90625 
L 57.90625 0 
L 44.578125 0 
L 24.515625 62.890625 
L 12.3125 0 
L 2.6875 0 
z
" id="DejaVuSans-Oblique-4e"/>
     <path d="M 10.59375 45.40625 
L 73.1875 45.40625 
L 73.1875 37.203125 
L 10.59375 37.203125 
z
M 10.59375 25.484375 
L 73.1875 25.484375 
L 73.1875 17.1875 
L 10.59375 17.1875 
z
" id="DejaVuSans-3d"/>
     <path d="M 4.890625 31.390625 
L 31.203125 31.390625 
L 31.203125 23.390625 
L 4.890625 23.390625 
z
" id="DejaVuSans-2d"/>
     <path d="M 12.40625 8.296875 
L 28.515625 8.296875 
L 28.515625 63.921875 
L 10.984375 60.40625 
L 10.984375 69.390625 
L 28.421875 72.90625 
L 38.28125 72.90625 
L 38.28125 8.296875 
L 54.390625 8.296875 
L 54.390625 0 
L 12.40625 0 
z
" id="DejaVuSans-31"/>
     <path d="M 31.78125 34.625 
Q 24.75 34.625 20.71875 30.859375 
Q 16.703125 27.09375 16.703125 20.515625 
Q 16.703125 13.921875 20.71875 10.15625 
Q 24.75 6.390625 31.78125 6.390625 
Q 38.8125 6.390625 42.859375 10.171875 
Q 46.921875 13.96875 46.921875 20.515625 
Q 46.921875 27.09375 42.890625 30.859375 
Q 38.875 34.625 31.78125 34.625 
z
M 21.921875 38.8125 
Q 15.578125 40.375 12.03125 44.71875 
Q 8.5 49.078125 8.5 55.328125 
Q 8.5 64.0625 14.71875 69.140625 
Q 20.953125 74.21875 31.78125 74.21875 
Q 42.671875 74.21875 48.875 69.140625 
Q 55.078125 64.0625 55.078125 55.328125 
Q 55.078125 49.078125 51.53125 44.71875 
Q 48 40.375 41.703125 38.8125 
Q 48.828125 37.15625 52.796875 32.3125 
Q 56.78125 27.484375 56.78125 20.515625 
Q 56.78125 9.90625 50.3125 4.234375 
Q 43.84375 -1.421875 31.78125 -1.421875 
Q 19.734375 -1.421875 13.25 4.234375 
Q 6.78125 9.90625 6.78125 20.515625 
Q 6.78125 27.484375 10.78125 32.3125 
Q 14.796875 37.15625 21.921875 38.8125 
z
M 18.3125 54.390625 
Q 18.3125 48.734375 21.84375 45.5625 
Q 25.390625 42.390625 31.78125 42.390625 
Q 38.140625 42.390625 41.71875 45.5625 
Q 45.3125 48.734375 45.3125 54.390625 
Q 45.3125 60.0625 41.71875 63.234375 
Q 38.140625 66.40625 31.78125 66.40625 
Q 25.390625 66.40625 21.84375 63.234375 
Q 18.3125 60.0625 18.3125 54.390625 
z
" id="DejaVuSans-38"/>
     <path d="M 10.6875 12.40625 
L 21 12.40625 
L 21 0 
L 10.6875 0 
z
" id="DejaVuSans-2e"/>
     <path d="M 10.984375 1.515625 
L 10.984375 10.5 
Q 14.703125 8.734375 18.5 7.8125 
Q 22.3125 6.890625 25.984375 6.890625 
Q 35.75 6.890625 40.890625 13.453125 
Q 46.046875 20.015625 46.78125 33.40625 
Q 43.953125 29.203125 39.59375 26.953125 
Q 35.25 24.703125 29.984375 24.703125 
Q 19.046875 24.703125 12.671875 31.3125 
Q 6.296875 37.9375 6.296875 49.421875 
Q 6.296875 60.640625 12.9375 67.421875 
Q 19.578125 74.21875 30.609375 74.21875 
Q 43.265625 74.21875 49.921875 64.515625 
Q 56.59375 54.828125 56.59375 36.375 
Q 56.59375 19.140625 48.40625 8.859375 
Q 40.234375 -1.421875 26.421875 -1.421875 
Q 22.703125 -1.421875 18.890625 -0.6875 
Q 15.09375 0.046875 10.984375 1.515625 
z
M 30.609375 32.421875 
Q 37.25 32.421875 41.125 36.953125 
Q 45.015625 41.5 45.015625 49.421875 
Q 45.015625 57.28125 41.125 61.84375 
Q 37.25 66.40625 30.609375 66.40625 
Q 23.96875 66.40625 20.09375 61.84375 
Q 16.21875 57.28125 16.21875 49.421875 
Q 16.21875 41.5 20.09375 36.953125 
Q 23.96875 32.421875 30.609375 32.421875 
z
" id="DejaVuSans-39"/>
     <path d="M 28.609375 0 
L 0.78125 72.90625 
L 11.078125 72.90625 
L 34.1875 11.53125 
L 57.328125 72.90625 
L 67.578125 72.90625 
L 39.796875 0 
z
" id="DejaVuSans-56"/>
     <path d="M 34.1875 63.1875 
L 14.15625 8.203125 
L 54.25 8.203125 
z
M 0.78125 0 
L 28.609375 72.90625 
L 39.796875 72.90625 
L 67.578125 0 
z
" id="DejaVuSans-394"/>
     <path d="M 9.8125 72.90625 
L 55.90625 72.90625 
L 55.90625 64.59375 
L 19.671875 64.59375 
L 19.671875 43.015625 
L 54.390625 43.015625 
L 54.390625 34.71875 
L 19.671875 34.71875 
L 19.671875 8.296875 
L 56.78125 8.296875 
L 56.78125 0 
L 9.8125 0 
z
" id="DejaVuSans-45"/>
     <path d="M 31.78125 66.40625 
Q 24.171875 66.40625 20.328125 58.90625 
Q 16.5 51.421875 16.5 36.375 
Q 16.5 21.390625 20.328125 13.890625 
Q 24.171875 6.390625 31.78125 6.390625 
Q 39.453125 6.390625 43.28125 13.890625 
Q 47.125 21.390625 47.125 36.375 
Q 47.125 51.421875 43.28125 58.90625 
Q 39.453125 66.40625 31.78125 66.40625 
z
M 31.78125 74.21875 
Q 44.046875 74.21875 50.515625 64.515625 
Q 56.984375 54.828125 56.984375 36.375 
Q 56.984375 17.96875 50.515625 8.265625 
Q 44.046875 -1.421875 31.78125 -1.421875 
Q 19.53125 -1.421875 13.0625 8.265625 
Q 6.59375 17.96875 6.59375 36.375 
Q 6.59375 54.828125 13.0625 64.515625 
Q 19.53125 74.21875 31.78125 74.21875 
z
" id="DejaVuSans-30"/>
    </defs>
    <g transform="translate(65.388 35.472)scale(0.12 -0.12)">
     <use transform="translate(0 0.78125)" xlink:href="#DejaVuSans-53"/>
     <use transform="translate(63.476562 0.78125)" xlink:href="#DejaVuSans-74"/>
     <use transform="translate(102.685547 0.78125)" xlink:href="#DejaVuSans-72"/>
     <use transform="translate(143.798828 0.78125)" xlink:href="#DejaVuSans-75"/>
     <use transform="translate(207.177734 0.78125)" xlink:href="#DejaVuSans-63"/>
     <use transform="translate(262.158203 0.78125)" xlink:href="#DejaVuSans-74"/>
     <use transform="translate(301.367188 0.78125)" xlink:href="#DejaVuSans-75"/>
     <use transform="translate(364.746094 0.78125)" xlink:href="#DejaVuSans-72"/>
     <use transform="translate(405.859375 0.78125)" xlink:href="#DejaVuSans-65"/>
     <use transform="translate(467.382812 0.78125)" xlink:href="#DejaVuSans-20"/>
     <use transform="translate(499.169922 0.78125)" xlink:href="#DejaVuSans-23"/>
     <use transform="translate(582.958984 0.78125)" xlink:href="#DejaVuSans-32"/>
     <use transform="translate(646.582031 0.78125)" xlink:href="#DejaVuSans-35"/>
     <use transform="translate(710.095703 0.78125)" xlink:href="#DejaVuSans-37"/>
     <use transform="translate(773.71875 0.78125)" xlink:href="#DejaVuSans-33"/>
     <use transform="translate(837.341797 0.78125)" xlink:href="#DejaVuSans-2c"/>
     <use transform="translate(869.128906 0.78125)" xlink:href="#DejaVuSans-20"/>
     <use transform="translate(900.916016 0.78125)" xlink:href="#DejaVuSans-Oblique-45"/>
     <use transform="translate(964.099609 -15.625)scale(0.7)" xlink:href="#DejaVuSans-Oblique-4e"/>
     <use transform="translate(1019.197266 0.78125)" xlink:href="#DejaVuSans-3d"/>
     <use transform="translate(1102.986328 0.78125)" xlink:href="#DejaVuSans-2d"/>
     <use transform="translate(1139.070312 0.78125)" xlink:href="#DejaVuSans-31"/>
     <use transform="translate(1202.693359 0.78125)" xlink:href="#DejaVuSans-38"/>
     <use transform="translate(1266.316406 0.78125)" xlink:href="#DejaVuSans-32"/>
     <use transform="translate(1329.939453 0.78125)" xlink:href="#DejaVuSans-2e"/>
     <use transform="translate(1361.726562 0.78125)" xlink:href="#DejaVuSans-39"/>
     <use transform="translate(1425.333984 0.78125)" xlink:href="#DejaVuSans-32"/>
     <use transform="translate(1488.957031 0.78125)" xlink:href="#DejaVuSans-65"/>
     <use transform="translate(1550.480469 0.78125)" xlink:href="#DejaVuSans-56"/>
     <use transform="translate(1618.888672 0.78125)" xlink:href="#DejaVuSans-2c"/>
     <use transform="translate(1650.675781 0.78125)" xlink:href="#DejaVuSans-20"/>
     <use transform="translate(1682.462891 0.78125)" xlink:href="#DejaVuSans-394"/>
     <use transform="translate(1750.871094 0.78125)" xlink:href="#DejaVuSans-45"/>
     <use transform="translate(1814.054688 0.78125)" xlink:href="#DejaVuSans-3d"/>
     <use transform="translate(1897.84375 0.78125)" xlink:href="#DejaVuSans-30"/>
     <use transform="translate(1961.466797 0.78125)" xlink:href="#DejaVuSans-2e"/>
     <use transform="translate(1993.175781 0.78125)" xlink:href="#DejaVuSans-32"/>
     <use transform="translate(2056.798828 0.78125)" xlink:href="#DejaVuSans-38"/>
     <use transform="translate(2120.421875 0.78125)" xlink:href="#DejaVuSans-65"/>
     <use transform="translate(2181.945312 0.78125)" xlink:href="#DejaVuSans-56"/>
    </g>
   </g>
  </g>
  <g id="axes_2">
   <g id="patch_2">
    <path clip-path="url(#p2ed5ed942b)" d="M 361.152 307.584 
L 361.152 306.5445 
L 361.152 42.5115 
L 361.152 41.472 
L 374.4576 41.472 
L 374.4576 42.5115 
L 374.4576 306.5445 
L 374.4576 307.584 
z
" style="fill:#ffffff;stroke:#ffffff;stroke-linejoin:miter;stroke-width:0.01;"/>
   </g>
   <image height="265.68" id="image1b370c967d" transform="scale(1 -1)translate(0 -265.68)" width="12.96" x="361.44" xlink:href="data:image/png;base64,
iVBORw0KGgoAAAANSUhEUgAAABIAAAFxCAYAAAB+2fgXAAAABHNCSVQICAgIfAhkiAAAAeVJREFUeJztncmNw0AQA2ckheYQNv9QLIfQ8ygsCgQ7AEI8+jAs2Puz/94F1LP2ReCsZ18bAWIeZ5XaGRBE7VnbptG+KI101FYyNSiQG2oRITXKNaX9uclOdi2XWjftVE32CZCO2ou5Bj1TcCBr/1zB9ge7Fq0Rg2NM9pvbtG+ua1QgsRYhDy0ISEiNc40BEibbSI0Coj5CBGtkpFbXJiAjNZlrwhuSOv2M1DjXbEdEciBt1JSDDQKKpmZr2rr2j0DBGpXaWEJq3bQzEPIS26r9J+Wzv9Tm8o3aajRXqc3VUXsApKNWjeZq0x4ABVNbm7lrszVigDqP5vIl2+eaT2yfRkL7g+dRcNPqjohkjaCvRVBq0H2U3LQrOJCx9kdTg4B8oxZzzTdqdYHEngjUCAPyUctN9sVRq2sTECW2UKNLd2jVtRmo1A6AhMmWaSRcR8nUdIHUuVb75zJS218EyEitro1At69pIdeSk30Lkw0FktNImGyZRhy1O5galmxd03LUsHWk06jUZiCq+5Wb1kZNN4+wJxJuWt8RAW5am2sYNZ9rYCBzZ3buPKJ2P5Yj4Toy3keyIyJbIxs1rml1byCA84gpch5RQNB7Q0qNMGq2Hy4BXdNR41yz/cEEJfZzUz96r9PoB0okjeQ8y9TkAAAAAElFTkSuQmCC" y="-41.76"/>
   <g id="matplotlib.axis_1"/>
   <g id="matplotlib.axis_2">
    <g id="ytick_1">
     <g id="line2d_1">
      <defs>
       <path d="M 0 0 
L 3.5 0 
" id="m3556b737e2" style="stroke:#000000;stroke-width:0.8;"/>
      </defs>
      <g>
       <use style="stroke:#000000;stroke-width:0.8;" x="374.4576" xlink:href="#m3556b737e2" y="276.843841"/>
      </g>
     </g>
     <g id="text_2">
      <!-- −8.5 -->
      <defs>
       <path d="M 10.59375 35.5 
L 73.1875 35.5 
L 73.1875 27.203125 
L 10.59375 27.203125 
z
" id="DejaVuSans-2212"/>
      </defs>
      <g transform="translate(381.4576 280.643059)scale(0.1 -0.1)">
       <use xlink:href="#DejaVuSans-2212"/>
       <use x="83.789062" xlink:href="#DejaVuSans-38"/>
       <use x="147.412109" xlink:href="#DejaVuSans-2e"/>
       <use x="179.199219" xlink:href="#DejaVuSans-35"/>
      </g>
     </g>
    </g>
    <g id="ytick_2">
     <g id="line2d_2">
      <g>
       <use style="stroke:#000000;stroke-width:0.8;" x="374.4576" xlink:href="#m3556b737e2" y="242.008528"/>
      </g>
     </g>
     <g id="text_3">
      <!-- −8.0 -->
      <g transform="translate(381.4576 245.807747)scale(0.1 -0.1)">
       <use xlink:href="#DejaVuSans-2212"/>
       <use x="83.789062" xlink:href="#DejaVuSans-38"/>
       <use x="147.412109" xlink:href="#DejaVuSans-2e"/>
       <use x="179.199219" xlink:href="#DejaVuSans-30"/>
      </g>
     </g>
    </g>
    <g id="ytick_3">
     <g id="line2d_3">
      <g>
       <use style="stroke:#000000;stroke-width:0.8;" x="374.4576" xlink:href="#m3556b737e2" y="207.173216"/>
      </g>
     </g>
     <g id="text_4">
      <!-- −7.5 -->
      <g transform="translate(381.4576 210.972434)scale(0.1 -0.1)">
       <use xlink:href="#DejaVuSans-2212"/>
       <use x="83.789062" xlink:href="#DejaVuSans-37"/>
       <use x="147.412109" xlink:href="#DejaVuSans-2e"/>
       <use x="179.199219" xlink:href="#DejaVuSans-35"/>
      </g>
     </g>
    </g>
    <g id="ytick_4">
     <g id="line2d_4">
      <g>
       <use style="stroke:#000000;stroke-width:0.8;" x="374.4576" xlink:href="#m3556b737e2" y="172.337903"/>
      </g>
     </g>
     <g id="text_5">
      <!-- −7.0 -->
      <g transform="translate(381.4576 176.137122)scale(0.1 -0.1)">
       <use xlink:href="#DejaVuSans-2212"/>
       <use x="83.789062" xlink:href="#DejaVuSans-37"/>
       <use x="147.412109" xlink:href="#DejaVuSans-2e"/>
       <use x="179.199219" xlink:href="#DejaVuSans-30"/>
      </g>
     </g>
    </g>
    <g id="ytick_5">
     <g id="line2d_5">
      <g>
       <use style="stroke:#000000;stroke-width:0.8;" x="374.4576" xlink:href="#m3556b737e2" y="137.50259"/>
      </g>
     </g>
     <g id="text_6">
      <!-- −6.5 -->
      <defs>
       <path d="M 33.015625 40.375 
Q 26.375 40.375 22.484375 35.828125 
Q 18.609375 31.296875 18.609375 23.390625 
Q 18.609375 15.53125 22.484375 10.953125 
Q 26.375 6.390625 33.015625 6.390625 
Q 39.65625 6.390625 43.53125 10.953125 
Q 47.40625 15.53125 47.40625 23.390625 
Q 47.40625 31.296875 43.53125 35.828125 
Q 39.65625 40.375 33.015625 40.375 
z
M 52.59375 71.296875 
L 52.59375 62.3125 
Q 48.875 64.0625 45.09375 64.984375 
Q 41.3125 65.921875 37.59375 65.921875 
Q 27.828125 65.921875 22.671875 59.328125 
Q 17.53125 52.734375 16.796875 39.40625 
Q 19.671875 43.65625 24.015625 45.921875 
Q 28.375 48.1875 33.59375 48.1875 
Q 44.578125 48.1875 50.953125 41.515625 
Q 57.328125 34.859375 57.328125 23.390625 
Q 57.328125 12.15625 50.6875 5.359375 
Q 44.046875 -1.421875 33.015625 -1.421875 
Q 20.359375 -1.421875 13.671875 8.265625 
Q 6.984375 17.96875 6.984375 36.375 
Q 6.984375 53.65625 15.1875 63.9375 
Q 23.390625 74.21875 37.203125 74.21875 
Q 40.921875 74.21875 44.703125 73.484375 
Q 48.484375 72.75 52.59375 71.296875 
z
" id="DejaVuSans-36"/>
      </defs>
      <g transform="translate(381.4576 141.301809)scale(0.1 -0.1)">
       <use xlink:href="#DejaVuSans-2212"/>
       <use x="83.789062" xlink:href="#DejaVuSans-36"/>
       <use x="147.412109" xlink:href="#DejaVuSans-2e"/>
       <use x="179.199219" xlink:href="#DejaVuSans-35"/>
      </g>
     </g>
    </g>
    <g id="ytick_6">
     <g id="line2d_6">
      <g>
       <use style="stroke:#000000;stroke-width:0.8;" x="374.4576" xlink:href="#m3556b737e2" y="102.667278"/>
      </g>
     </g>
     <g id="text_7">
      <!-- −6.0 -->
      <g transform="translate(381.4576 106.466497)scale(0.1 -0.1)">
       <use xlink:href="#DejaVuSans-2212"/>
       <use x="83.789062" xlink:href="#DejaVuSans-36"/>
       <use x="147.412109" xlink:href="#DejaVuSans-2e"/>
       <use x="179.199219" xlink:href="#DejaVuSans-30"/>
      </g>
     </g>
    </g>
    <g id="ytick_7">
     <g id="line2d_7">
      <g>
       <use style="stroke:#000000;stroke-width:0.8;" x="374.4576" xlink:href="#m3556b737e2" y="67.831965"/>
      </g>
     </g>
     <g id="text_8">
      <!-- −5.5 -->
      <g transform="translate(381.4576 71.631184)scale(0.1 -0.1)">
       <use xlink:href="#DejaVuSans-2212"/>
       <use x="83.789062" xlink:href="#DejaVuSans-35"/>
       <use x="147.412109" xlink:href="#DejaVuSans-2e"/>
       <use x="179.199219" xlink:href="#DejaVuSans-35"/>
      </g>
     </g>
    </g>
    <g id="text_9">
     <!-- Energy [eV] -->
     <defs>
      <path d="M 54.890625 33.015625 
L 54.890625 0 
L 45.90625 0 
L 45.90625 32.71875 
Q 45.90625 40.484375 42.875 44.328125 
Q 39.84375 48.1875 33.796875 48.1875 
Q 26.515625 48.1875 22.3125 43.546875 
Q 18.109375 38.921875 18.109375 30.90625 
L 18.109375 0 
L 9.078125 0 
L 9.078125 54.6875 
L 18.109375 54.6875 
L 18.109375 46.1875 
Q 21.34375 51.125 25.703125 53.5625 
Q 30.078125 56 35.796875 56 
Q 45.21875 56 50.046875 50.171875 
Q 54.890625 44.34375 54.890625 33.015625 
z
" id="DejaVuSans-6e"/>
      <path d="M 45.40625 27.984375 
Q 45.40625 37.75 41.375 43.109375 
Q 37.359375 48.484375 30.078125 48.484375 
Q 22.859375 48.484375 18.828125 43.109375 
Q 14.796875 37.75 14.796875 27.984375 
Q 14.796875 18.265625 18.828125 12.890625 
Q 22.859375 7.515625 30.078125 7.515625 
Q 37.359375 7.515625 41.375 12.890625 
Q 45.40625 18.265625 45.40625 27.984375 
z
M 54.390625 6.78125 
Q 54.390625 -7.171875 48.1875 -13.984375 
Q 42 -20.796875 29.203125 -20.796875 
Q 24.46875 -20.796875 20.265625 -20.09375 
Q 16.0625 -19.390625 12.109375 -17.921875 
L 12.109375 -9.1875 
Q 16.0625 -11.328125 19.921875 -12.34375 
Q 23.78125 -13.375 27.78125 -13.375 
Q 36.625 -13.375 41.015625 -8.765625 
Q 45.40625 -4.15625 45.40625 5.171875 
L 45.40625 9.625 
Q 42.625 4.78125 38.28125 2.390625 
Q 33.9375 0 27.875 0 
Q 17.828125 0 11.671875 7.65625 
Q 5.515625 15.328125 5.515625 27.984375 
Q 5.515625 40.671875 11.671875 48.328125 
Q 17.828125 56 27.875 56 
Q 33.9375 56 38.28125 53.609375 
Q 42.625 51.21875 45.40625 46.390625 
L 45.40625 54.6875 
L 54.390625 54.6875 
z
" id="DejaVuSans-67"/>
      <path d="M 32.171875 -5.078125 
Q 28.375 -14.84375 24.75 -17.8125 
Q 21.140625 -20.796875 15.09375 -20.796875 
L 7.90625 -20.796875 
L 7.90625 -13.28125 
L 13.1875 -13.28125 
Q 16.890625 -13.28125 18.9375 -11.515625 
Q 21 -9.765625 23.484375 -3.21875 
L 25.09375 0.875 
L 2.984375 54.6875 
L 12.5 54.6875 
L 29.59375 11.921875 
L 46.6875 54.6875 
L 56.203125 54.6875 
z
" id="DejaVuSans-79"/>
      <path d="M 8.59375 75.984375 
L 29.296875 75.984375 
L 29.296875 69 
L 17.578125 69 
L 17.578125 -6.203125 
L 29.296875 -6.203125 
L 29.296875 -13.1875 
L 8.59375 -13.1875 
z
" id="DejaVuSans-5b"/>
      <path d="M 30.421875 75.984375 
L 30.421875 -13.1875 
L 9.71875 -13.1875 
L 9.71875 -6.203125 
L 21.390625 -6.203125 
L 21.390625 69 
L 9.71875 69 
L 9.71875 75.984375 
z
" id="DejaVuSans-5d"/>
     </defs>
     <g transform="translate(417.33885 204.108469)rotate(-90)scale(0.1 -0.1)">
      <use xlink:href="#DejaVuSans-45"/>
      <use x="63.183594" xlink:href="#DejaVuSans-6e"/>
      <use x="126.5625" xlink:href="#DejaVuSans-65"/>
      <use x="188.085938" xlink:href="#DejaVuSans-72"/>
      <use x="229.183594" xlink:href="#DejaVuSans-67"/>
      <use x="292.660156" xlink:href="#DejaVuSans-79"/>
      <use x="351.839844" xlink:href="#DejaVuSans-20"/>
      <use x="383.626953" xlink:href="#DejaVuSans-5b"/>
      <use x="422.640625" xlink:href="#DejaVuSans-65"/>
      <use x="484.164062" xlink:href="#DejaVuSans-56"/>
      <use x="552.572266" xlink:href="#DejaVuSans-5d"/>
     </g>
    </g>
   </g>
   <g id="patch_3">
    <path d="M 361.152 307.584 
L 361.152 306.5445 
L 361.152 42.5115 
L 361.152 41.472 
L 374.4576 41.472 
L 374.4576 42.5115 
L 374.4576 306.5445 
L 374.4576 307.584 
z
" style="fill:none;stroke:#000000;stroke-linejoin:miter;stroke-width:0.8;"/>
   </g>
  </g>
 </g>
 <defs>
  <clipPath id="p70b91f90bd">
   <rect height="266.112" width="285.696" x="57.6" y="41.472"/>
  </clipPath>
  <clipPath id="p2ed5ed942b">
   <rect height="266.112" width="13.3056" x="361.152" y="41.472"/>
  </clipPath>
 </defs>
</svg>
