<?xml version="1.0" encoding="utf-8" standalone="no"?>
<!DOCTYPE svg PUBLIC "-//W3C//DTD SVG 1.1//EN"
  "http://www.w3.org/Graphics/SVG/1.1/DTD/svg11.dtd">
<!-- Created with matplotlib (http://matplotlib.org/) -->
<svg height="345.6pt" version="1.1" viewBox="0 0 460.8 345.6" width="460.8pt" xmlns="http://www.w3.org/2000/svg" xmlns:xlink="http://www.w3.org/1999/xlink">
 <defs>
  <style type="text/css">
*{stroke-linecap:butt;stroke-linejoin:round;}
  </style>
 </defs>
 <g id="figure_1">
  <g id="patch_1">
   <path d="M 0 345.6 
L 460.8 345.6 
L 460.8 0 
L 0 0 
z
" style="fill:#ffffff;"/>
  </g>
  <g id="axes_1">
   <g id="CircleCollection_1">
    <path clip-path="url(#paea16a5940)" d="M 84.805431 179.857833 
C 86.571454 179.857833 88.265382 179.156185 89.514149 177.907418 
C 90.762916 176.658652 91.464564 174.964723 91.464564 173.1987 
C 91.464564 171.432677 90.762916 169.738749 89.514149 168.489982 
C 88.265382 167.241215 86.571454 166.539567 84.805431 166.539567 
C 83.039408 166.539567 81.345479 167.241215 80.096713 168.489982 
C 78.847946 169.738749 78.146298 171.432677 78.146298 173.1987 
C 78.146298 174.964723 78.847946 176.658652 80.096713 177.907418 
C 81.345479 179.156185 83.039408 179.857833 84.805431 179.857833 
z
" style="fill:#54c568;"/>
    <path clip-path="url(#paea16a5940)" d="M 224.560953 60.685131 
C 226.333344 60.685131 228.033381 59.980952 229.286651 58.727683 
C 230.53992 57.474413 231.244098 55.774376 231.244098 54.001986 
C 231.244098 52.229595 230.53992 50.529558 229.286651 49.276288 
C 228.033381 48.023019 226.333344 47.318841 224.560953 47.318841 
C 222.788563 47.318841 221.088526 48.023019 219.835256 49.276288 
C 218.581987 50.529558 217.877809 52.229595 217.877809 54.001986 
C 217.877809 55.774376 218.581987 57.474413 219.835256 58.727683 
C 221.088526 59.980952 222.788563 60.685131 224.560953 60.685131 
z
" style="fill:#9dd93b;"/>
    <path clip-path="url(#paea16a5940)" d="M 79.703779 245.247169 
C 81.463055 245.247169 83.150513 244.548201 84.394509 243.304205 
C 85.638505 242.060209 86.337473 240.372751 86.337473 238.613475 
C 86.337473 236.854199 85.638505 235.166741 84.394509 233.922745 
C 83.150513 232.678749 81.463055 231.979781 79.703779 231.979781 
C 77.944503 231.979781 76.257045 232.678749 75.013049 233.922745 
C 73.769053 235.166741 73.070085 236.854199 73.070085 238.613475 
C 73.070085 240.372751 73.769053 242.060209 75.013049 243.304205 
C 76.257045 244.548201 77.944503 245.247169 79.703779 245.247169 
z
" style="fill:#73d056;"/>
    <path clip-path="url(#paea16a5940)" d="M 231.742182 301.699287 
C 233.503831 301.699287 235.193565 300.999377 236.43924 299.753702 
C 237.684914 298.508028 238.384825 296.818294 238.384825 295.056644 
C 238.384825 293.294995 237.684914 291.605261 236.43924 290.359587 
C 235.193565 289.113912 233.503831 288.414002 231.742182 288.414002 
C 229.980532 288.414002 228.290798 289.113912 227.045124 290.359587 
C 225.79945 291.605261 225.099539 293.294995 225.099539 295.056644 
C 225.099539 296.818294 225.79945 298.508028 227.045124 299.753702 
C 228.290798 300.999377 229.980532 301.699287 231.742182 301.699287 
z
" style="fill:#fde725;"/>
    <path clip-path="url(#paea16a5940)" d="M 329.679979 90.854406 
C 331.452149 90.854406 333.151974 90.150316 334.405087 88.897203 
C 335.6582 87.64409 336.36229 85.944265 336.36229 84.172096 
C 336.36229 82.399926 335.6582 80.700102 334.405087 79.446988 
C 333.151974 78.193875 331.452149 77.489785 329.679979 77.489785 
C 327.90781 77.489785 326.207985 78.193875 324.954872 79.446988 
C 323.701759 80.700102 322.997669 82.399926 322.997669 84.172096 
C 322.997669 85.944265 323.701759 87.64409 324.954872 88.897203 
C 326.207985 90.150316 327.90781 90.854406 329.679979 90.854406 
z
" style="fill:#a0da39;"/>
    <path clip-path="url(#paea16a5940)" d="M 190.249844 90.627407 
C 192.021892 90.627407 193.721599 89.923365 194.974626 88.670338 
C 196.227653 87.417311 196.931695 85.717603 196.931695 83.945556 
C 196.931695 82.173508 196.227653 80.473801 194.974626 79.220774 
C 193.721599 77.967747 192.021892 77.263705 190.249844 77.263705 
C 188.477797 77.263705 186.778089 77.967747 185.525062 79.220774 
C 184.272035 80.473801 183.567993 82.173508 183.567993 83.945556 
C 183.567993 85.717603 184.272035 87.417311 185.525062 88.670338 
C 186.778089 89.923365 188.477797 90.627407 190.249844 90.627407 
z
" style="fill:#470d60;"/>
    <path clip-path="url(#paea16a5940)" d="M 129.576489 156.117695 
C 131.3469 156.117695 133.045038 155.414303 134.296908 154.162433 
C 135.548777 152.910564 136.252169 151.212426 136.252169 149.442015 
C 136.252169 147.671604 135.548777 145.973466 134.296908 144.721596 
C 133.045038 143.469726 131.3469 142.766335 129.576489 142.766335 
C 127.806078 142.766335 126.10794 143.469726 124.85607 144.721596 
C 123.604201 145.973466 122.900809 147.671604 122.900809 149.442015 
C 122.900809 151.212426 123.604201 152.910564 124.85607 154.162433 
C 126.10794 155.414303 127.806078 156.117695 129.576489 156.117695 
z
" style="fill:#472e7c;"/>
    <path clip-path="url(#paea16a5940)" d="M 123.088147 93.470123 
C 124.858061 93.470123 126.555723 92.766929 127.807241 91.515411 
C 129.058759 90.263892 129.761953 88.566231 129.761953 86.796317 
C 129.761953 85.026403 129.058759 83.328742 127.807241 82.077224 
C 126.555723 80.825706 124.858061 80.122511 123.088147 80.122511 
C 121.318233 80.122511 119.620572 80.825706 118.369054 82.077224 
C 117.117536 83.328742 116.414342 85.026403 116.414342 86.796317 
C 116.414342 88.566231 117.117536 90.263892 118.369054 91.515411 
C 119.620572 92.766929 121.318233 93.470123 123.088147 93.470123 
z
" style="fill:#5cc863;"/>
    <path clip-path="url(#paea16a5940)" d="M 106.831014 213.021128 
C 108.594932 213.021128 110.286841 212.320317 111.534119 211.073039 
C 112.781397 209.825761 113.482209 208.133851 113.482209 206.369934 
C 113.482209 204.606016 112.781397 202.914107 111.534119 201.666829 
C 110.286841 200.419551 108.594932 199.718739 106.831014 199.718739 
C 105.067097 199.718739 103.375188 200.419551 102.12791 201.666829 
C 100.880632 202.914107 100.17982 204.606016 100.17982 206.369934 
C 100.17982 208.133851 100.880632 209.825761 102.12791 211.073039 
C 103.375188 212.320317 105.067097 213.021128 106.831014 213.021128 
z
" style="fill:#482475;"/>
    <path clip-path="url(#paea16a5940)" d="M 72.255926 109.069574 
C 74.022921 109.069574 75.717783 108.367539 76.967238 107.118084 
C 78.216693 105.86863 78.918727 104.173768 78.918727 102.406772 
C 78.918727 100.639776 78.216693 98.944914 76.967238 97.695459 
C 75.717783 96.446005 74.022921 95.74397 72.255926 95.74397 
C 70.48893 95.74397 68.794068 96.446005 67.544613 97.695459 
C 66.295158 98.944914 65.593124 100.639776 65.593124 102.406772 
C 65.593124 104.173768 66.295158 105.86863 67.544613 107.118084 
C 68.794068 108.367539 70.48893 109.069574 72.255926 109.069574 
z
" style="fill:#38b977;"/>
    <path clip-path="url(#paea16a5940)" d="M 172.381996 285.013738 
C 174.141 285.013738 175.828196 284.314878 177.071999 283.071075 
C 178.315803 281.827272 179.014662 280.140075 179.014662 278.381072 
C 179.014662 276.622068 178.315803 274.934872 177.071999 273.691069 
C 175.828196 272.447266 174.141 271.748406 172.381996 271.748406 
C 170.622993 271.748406 168.935797 272.447266 167.691994 273.691069 
C 166.44819 274.934872 165.749331 276.622068 165.749331 278.381072 
C 165.749331 280.140075 166.44819 281.827272 167.691994 283.071075 
C 168.935797 284.314878 170.622993 285.013738 172.381996 285.013738 
z
" style="fill:#287d8e;"/>
    <path clip-path="url(#paea16a5940)" d="M 71.214112 143.553621 
C 72.98091 143.553621 74.675583 142.851665 75.924898 141.60235 
C 77.174213 140.353035 77.876169 138.658362 77.876169 136.891564 
C 77.876169 135.124765 77.174213 133.430093 75.924898 132.180778 
C 74.675583 130.931462 72.98091 130.229506 71.214112 130.229506 
C 69.447313 130.229506 67.752641 130.931462 66.503326 132.180778 
C 65.254011 133.430093 64.552054 135.124765 64.552054 136.891564 
C 64.552054 138.658362 65.254011 140.353035 66.503326 141.60235 
C 67.752641 142.851665 69.447313 143.553621 71.214112 143.553621 
z
" style="fill:#5ec962;"/>
    <path clip-path="url(#paea16a5940)" d="M 232.101897 232.909342 
C 233.868493 232.909342 235.562971 232.207466 236.812142 230.958294 
C 238.061314 229.709123 238.763189 228.014645 238.763189 226.24805 
C 238.763189 224.481454 238.061314 222.786976 236.812142 221.537805 
C 235.562971 220.288633 233.868493 219.586757 232.101897 219.586757 
C 230.335302 219.586757 228.640824 220.288633 227.391653 221.537805 
C 226.142481 222.786976 225.440605 224.481454 225.440605 226.24805 
C 225.440605 228.014645 226.142481 229.709123 227.391653 230.958294 
C 228.640824 232.207466 230.335302 232.909342 232.101897 232.909342 
z
" style="fill:#2f6b8e;"/>
    <path clip-path="url(#paea16a5940)" d="M 195.113748 152.364035 
C 196.885652 152.364035 198.585222 151.66005 199.838148 150.407124 
C 201.091073 149.154199 201.795059 147.454629 201.795059 145.682724 
C 201.795059 143.91082 201.091073 142.211249 199.838148 140.958324 
C 198.585222 139.705398 196.885652 139.001413 195.113748 139.001413 
C 193.341843 139.001413 191.642273 139.705398 190.389347 140.958324 
C 189.136422 142.211249 188.432437 143.91082 188.432437 145.682724 
C 188.432437 147.454629 189.136422 149.154199 190.389347 150.407124 
C 191.642273 151.66005 193.341843 152.364035 195.113748 152.364035 
z
" style="fill:#440154;"/>
    <path clip-path="url(#paea16a5940)" d="M 115.267177 269.773999 
C 117.024718 269.773999 118.710512 269.075721 119.953282 267.832951 
C 121.196052 266.590181 121.894331 264.904387 121.894331 263.146845 
C 121.894331 261.389304 121.196052 259.70351 119.953282 258.46074 
C 118.710512 257.21797 117.024718 256.519691 115.267177 256.519691 
C 113.509635 256.519691 111.823841 257.21797 110.581071 258.46074 
C 109.338301 259.70351 108.640023 261.389304 108.640023 263.146845 
C 108.640023 264.904387 109.338301 266.590181 110.581071 267.832951 
C 111.823841 269.075721 113.509635 269.773999 115.267177 269.773999 
z
" style="fill:#1f9f88;"/>
    <path clip-path="url(#paea16a5940)" d="M 283.694348 69.694666 
C 285.466878 69.694666 287.167049 68.990432 288.420417 67.737064 
C 289.673785 66.483696 290.378018 64.783525 290.378018 63.010995 
C 290.378018 61.238465 289.673785 59.538295 288.420417 58.284927 
C 287.167049 57.031558 285.466878 56.327325 283.694348 56.327325 
C 281.921818 56.327325 280.221647 57.031558 278.968279 58.284927 
C 277.714911 59.538295 277.010678 61.238465 277.010678 63.010995 
C 277.010678 64.783525 277.714911 66.483696 278.968279 67.737064 
C 280.221647 68.990432 281.921818 69.694666 283.694348 69.694666 
z
" style="fill:#1e9c89;"/>
    <path clip-path="url(#paea16a5940)" d="M 270.441943 204.123643 
C 272.211346 204.123643 273.908518 203.420652 275.159676 202.169494 
C 276.410833 200.918337 277.113825 199.221165 277.113825 197.451761 
C 277.113825 195.682358 276.410833 193.985186 275.159676 192.734028 
C 273.908518 191.482871 272.211346 190.77988 270.441943 190.77988 
C 268.672539 190.77988 266.975367 191.482871 265.72421 192.734028 
C 264.473052 193.985186 263.770061 195.682358 263.770061 197.451761 
C 263.770061 199.221165 264.473052 200.918337 265.72421 202.169494 
C 266.975367 203.420652 268.672539 204.123643 270.441943 204.123643 
z
" style="fill:#31668e;"/>
    <path clip-path="url(#paea16a5940)" d="M 228.622762 266.809586 
C 230.386042 266.809586 232.077341 266.109027 233.324169 264.862199 
C 234.570997 263.615371 235.271556 261.924072 235.271556 260.160792 
C 235.271556 258.397511 234.570997 256.706212 233.324169 255.459384 
C 232.077341 254.212556 230.386042 253.511997 228.622762 253.511997 
C 226.859481 253.511997 225.168182 254.212556 223.921354 255.459384 
C 222.674526 256.706212 221.973967 258.397511 221.973967 260.160792 
C 221.973967 261.924072 222.674526 263.615371 223.921354 264.862199 
C 225.168182 266.109027 226.859481 266.809586 228.622762 266.809586 
z
" style="fill:#218e8d;"/>
    <path clip-path="url(#paea16a5940)" d="M 322.085043 182.87603 
C 323.854724 182.87603 325.552162 182.172928 326.803515 180.921575 
C 328.054869 179.670221 328.757971 177.972783 328.757971 176.203102 
C 328.757971 174.433421 328.054869 172.735983 326.803515 171.484629 
C 325.552162 170.233276 323.854724 169.530174 322.085043 169.530174 
C 320.315361 169.530174 318.617924 170.233276 317.36657 171.484629 
C 316.115216 172.735983 315.412115 174.433421 315.412115 176.203102 
C 315.412115 177.972783 316.115216 179.670221 317.36657 180.921575 
C 318.617924 182.172928 320.315361 182.87603 322.085043 182.87603 
z
" style="fill:#1fa088;"/>
    <path clip-path="url(#paea16a5940)" d="M 322.758568 152.501932 
C 324.529429 152.501932 326.227998 151.798362 327.480185 150.546174 
C 328.732373 149.293987 329.435943 147.595418 329.435943 145.824557 
C 329.435943 144.053696 328.732373 142.355127 327.480185 141.102939 
C 326.227998 139.850752 324.529429 139.147182 322.758568 139.147182 
C 320.987707 139.147182 319.289138 139.850752 318.03695 141.102939 
C 316.784763 142.355127 316.081192 144.053696 316.081192 145.824557 
C 316.081192 147.595418 316.784763 149.293987 318.03695 150.546174 
C 319.289138 151.798362 320.987707 152.501932 322.758568 152.501932 
z
" style="fill:#4ec36b;"/>
    <path clip-path="url(#paea16a5940)" d="M 226.476371 121.322383 
C 228.248614 121.322383 229.948509 120.618263 231.201675 119.365098 
C 232.45484 118.111933 233.15896 116.412037 233.15896 114.639794 
C 233.15896 112.867551 232.45484 111.167655 231.201675 109.91449 
C 229.948509 108.661325 228.248614 107.957205 226.476371 107.957205 
C 224.704128 107.957205 223.004232 108.661325 221.751067 109.91449 
C 220.497902 111.167655 219.793782 112.867551 219.793782 114.639794 
C 219.793782 116.412037 220.497902 118.111933 221.751067 119.365098 
C 223.004232 120.618263 224.704128 121.322383 226.476371 121.322383 
z
" style="fill:#34608d;"/>
    <path clip-path="url(#paea16a5940)" d="M 173.376775 211.69987 
C 175.143951 211.69987 176.838986 210.997764 178.088568 209.748181 
C 179.338151 208.498599 180.040257 206.803564 180.040257 205.036388 
C 180.040257 203.269212 179.338151 201.574176 178.088568 200.324594 
C 176.838986 199.075012 175.143951 198.372905 173.376775 198.372905 
C 171.609599 198.372905 169.914563 199.075012 168.664981 200.324594 
C 167.415399 201.574176 166.713292 203.269212 166.713292 205.036388 
C 166.713292 206.803564 167.415399 208.498599 168.664981 209.748181 
C 169.914563 210.997764 171.609599 211.69987 173.376775 211.69987 
z
" style="fill:#31678e;"/>
    <path clip-path="url(#paea16a5940)" d="M 213.494279 184.462491 
C 215.264935 184.462491 216.963307 183.759002 218.21535 182.506959 
C 219.467393 181.254917 220.170882 179.556544 220.170882 177.785888 
C 220.170882 176.015233 219.467393 174.31686 218.21535 173.064818 
C 216.963307 171.812775 215.264935 171.109286 213.494279 171.109286 
C 211.723624 171.109286 210.025251 171.812775 208.773208 173.064818 
C 207.521166 174.31686 206.817677 176.015233 206.817677 177.785888 
C 206.817677 179.556544 207.521166 181.254917 208.773208 182.506959 
C 210.025251 183.759002 211.723624 184.462491 213.494279 184.462491 
z
" style="fill:#482576;"/>
    <path clip-path="url(#paea16a5940)" d="M 295.936759 121.020968 
C 297.708747 121.020968 299.408397 120.316949 300.661382 119.063965 
C 301.914367 117.81098 302.618385 116.111329 302.618385 114.339341 
C 302.618385 112.567353 301.914367 110.867703 300.661382 109.614718 
C 299.408397 108.361733 297.708747 107.657715 295.936759 107.657715 
C 294.164771 107.657715 292.46512 108.361733 291.212135 109.614718 
C 289.959151 110.867703 289.255132 112.567353 289.255132 114.339341 
C 289.255132 116.111329 289.959151 117.81098 291.212135 119.063965 
C 292.46512 120.316949 294.164771 121.020968 295.936759 121.020968 
z
" style="fill:#450457;"/>
   </g>
   <g id="text_1">
    <!-- Structure #4673, $E_N$=-181.44eV, ΔE=0.14eV -->
    <defs>
     <path d="M 53.515625 70.515625 
L 53.515625 60.890625 
Q 47.90625 63.578125 42.921875 64.890625 
Q 37.9375 66.21875 33.296875 66.21875 
Q 25.25 66.21875 20.875 63.09375 
Q 16.5 59.96875 16.5 54.203125 
Q 16.5 49.359375 19.40625 46.890625 
Q 22.3125 44.4375 30.421875 42.921875 
L 36.375 41.703125 
Q 47.40625 39.59375 52.65625 34.296875 
Q 57.90625 29 57.90625 20.125 
Q 57.90625 9.515625 50.796875 4.046875 
Q 43.703125 -1.421875 29.984375 -1.421875 
Q 24.8125 -1.421875 18.96875 -0.25 
Q 13.140625 0.921875 6.890625 3.21875 
L 6.890625 13.375 
Q 12.890625 10.015625 18.65625 8.296875 
Q 24.421875 6.59375 29.984375 6.59375 
Q 38.421875 6.59375 43.015625 9.90625 
Q 47.609375 13.234375 47.609375 19.390625 
Q 47.609375 24.75 44.3125 27.78125 
Q 41.015625 30.8125 33.5 32.328125 
L 27.484375 33.5 
Q 16.453125 35.6875 11.515625 40.375 
Q 6.59375 45.0625 6.59375 53.421875 
Q 6.59375 63.09375 13.40625 68.65625 
Q 20.21875 74.21875 32.171875 74.21875 
Q 37.3125 74.21875 42.625 73.28125 
Q 47.953125 72.359375 53.515625 70.515625 
z
" id="DejaVuSans-53"/>
     <path d="M 18.3125 70.21875 
L 18.3125 54.6875 
L 36.8125 54.6875 
L 36.8125 47.703125 
L 18.3125 47.703125 
L 18.3125 18.015625 
Q 18.3125 11.328125 20.140625 9.421875 
Q 21.96875 7.515625 27.59375 7.515625 
L 36.8125 7.515625 
L 36.8125 0 
L 27.59375 0 
Q 17.1875 0 13.234375 3.875 
Q 9.28125 7.765625 9.28125 18.015625 
L 9.28125 47.703125 
L 2.6875 47.703125 
L 2.6875 54.6875 
L 9.28125 54.6875 
L 9.28125 70.21875 
z
" id="DejaVuSans-74"/>
     <path d="M 41.109375 46.296875 
Q 39.59375 47.171875 37.8125 47.578125 
Q 36.03125 48 33.890625 48 
Q 26.265625 48 22.1875 43.046875 
Q 18.109375 38.09375 18.109375 28.8125 
L 18.109375 0 
L 9.078125 0 
L 9.078125 54.6875 
L 18.109375 54.6875 
L 18.109375 46.1875 
Q 20.953125 51.171875 25.484375 53.578125 
Q 30.03125 56 36.53125 56 
Q 37.453125 56 38.578125 55.875 
Q 39.703125 55.765625 41.0625 55.515625 
z
" id="DejaVuSans-72"/>
     <path d="M 8.5 21.578125 
L 8.5 54.6875 
L 17.484375 54.6875 
L 17.484375 21.921875 
Q 17.484375 14.15625 20.5 10.265625 
Q 23.53125 6.390625 29.59375 6.390625 
Q 36.859375 6.390625 41.078125 11.03125 
Q 45.3125 15.671875 45.3125 23.6875 
L 45.3125 54.6875 
L 54.296875 54.6875 
L 54.296875 0 
L 45.3125 0 
L 45.3125 8.40625 
Q 42.046875 3.421875 37.71875 1 
Q 33.40625 -1.421875 27.6875 -1.421875 
Q 18.265625 -1.421875 13.375 4.4375 
Q 8.5 10.296875 8.5 21.578125 
z
M 31.109375 56 
z
" id="DejaVuSans-75"/>
     <path d="M 48.78125 52.59375 
L 48.78125 44.1875 
Q 44.96875 46.296875 41.140625 47.34375 
Q 37.3125 48.390625 33.40625 48.390625 
Q 24.65625 48.390625 19.8125 42.84375 
Q 14.984375 37.3125 14.984375 27.296875 
Q 14.984375 17.28125 19.8125 11.734375 
Q 24.65625 6.203125 33.40625 6.203125 
Q 37.3125 6.203125 41.140625 7.25 
Q 44.96875 8.296875 48.78125 10.40625 
L 48.78125 2.09375 
Q 45.015625 0.34375 40.984375 -0.53125 
Q 36.96875 -1.421875 32.421875 -1.421875 
Q 20.0625 -1.421875 12.78125 6.34375 
Q 5.515625 14.109375 5.515625 27.296875 
Q 5.515625 40.671875 12.859375 48.328125 
Q 20.21875 56 33.015625 56 
Q 37.15625 56 41.109375 55.140625 
Q 45.0625 54.296875 48.78125 52.59375 
z
" id="DejaVuSans-63"/>
     <path d="M 56.203125 29.59375 
L 56.203125 25.203125 
L 14.890625 25.203125 
Q 15.484375 15.921875 20.484375 11.0625 
Q 25.484375 6.203125 34.421875 6.203125 
Q 39.59375 6.203125 44.453125 7.46875 
Q 49.3125 8.734375 54.109375 11.28125 
L 54.109375 2.78125 
Q 49.265625 0.734375 44.1875 -0.34375 
Q 39.109375 -1.421875 33.890625 -1.421875 
Q 20.796875 -1.421875 13.15625 6.1875 
Q 5.515625 13.8125 5.515625 26.8125 
Q 5.515625 40.234375 12.765625 48.109375 
Q 20.015625 56 32.328125 56 
Q 43.359375 56 49.78125 48.890625 
Q 56.203125 41.796875 56.203125 29.59375 
z
M 47.21875 32.234375 
Q 47.125 39.59375 43.09375 43.984375 
Q 39.0625 48.390625 32.421875 48.390625 
Q 24.90625 48.390625 20.390625 44.140625 
Q 15.875 39.890625 15.1875 32.171875 
z
" id="DejaVuSans-65"/>
     <path id="DejaVuSans-20"/>
     <path d="M 51.125 44 
L 36.921875 44 
L 32.8125 27.6875 
L 47.125 27.6875 
z
M 43.796875 71.78125 
L 38.71875 51.515625 
L 52.984375 51.515625 
L 58.109375 71.78125 
L 65.921875 71.78125 
L 60.890625 51.515625 
L 76.125 51.515625 
L 76.125 44 
L 58.984375 44 
L 54.984375 27.6875 
L 70.515625 27.6875 
L 70.515625 20.21875 
L 53.078125 20.21875 
L 48 0 
L 40.1875 0 
L 45.21875 20.21875 
L 30.90625 20.21875 
L 25.875 0 
L 18.015625 0 
L 23.09375 20.21875 
L 7.71875 20.21875 
L 7.71875 27.6875 
L 24.90625 27.6875 
L 29 44 
L 13.28125 44 
L 13.28125 51.515625 
L 30.90625 51.515625 
L 35.890625 71.78125 
z
" id="DejaVuSans-23"/>
     <path d="M 37.796875 64.3125 
L 12.890625 25.390625 
L 37.796875 25.390625 
z
M 35.203125 72.90625 
L 47.609375 72.90625 
L 47.609375 25.390625 
L 58.015625 25.390625 
L 58.015625 17.1875 
L 47.609375 17.1875 
L 47.609375 0 
L 37.796875 0 
L 37.796875 17.1875 
L 4.890625 17.1875 
L 4.890625 26.703125 
z
" id="DejaVuSans-34"/>
     <path d="M 33.015625 40.375 
Q 26.375 40.375 22.484375 35.828125 
Q 18.609375 31.296875 18.609375 23.390625 
Q 18.609375 15.53125 22.484375 10.953125 
Q 26.375 6.390625 33.015625 6.390625 
Q 39.65625 6.390625 43.53125 10.953125 
Q 47.40625 15.53125 47.40625 23.390625 
Q 47.40625 31.296875 43.53125 35.828125 
Q 39.65625 40.375 33.015625 40.375 
z
M 52.59375 71.296875 
L 52.59375 62.3125 
Q 48.875 64.0625 45.09375 64.984375 
Q 41.3125 65.921875 37.59375 65.921875 
Q 27.828125 65.921875 22.671875 59.328125 
Q 17.53125 52.734375 16.796875 39.40625 
Q 19.671875 43.65625 24.015625 45.921875 
Q 28.375 48.1875 33.59375 48.1875 
Q 44.578125 48.1875 50.953125 41.515625 
Q 57.328125 34.859375 57.328125 23.390625 
Q 57.328125 12.15625 50.6875 5.359375 
Q 44.046875 -1.421875 33.015625 -1.421875 
Q 20.359375 -1.421875 13.671875 8.265625 
Q 6.984375 17.96875 6.984375 36.375 
Q 6.984375 53.65625 15.1875 63.9375 
Q 23.390625 74.21875 37.203125 74.21875 
Q 40.921875 74.21875 44.703125 73.484375 
Q 48.484375 72.75 52.59375 71.296875 
z
" id="DejaVuSans-36"/>
     <path d="M 8.203125 72.90625 
L 55.078125 72.90625 
L 55.078125 68.703125 
L 28.609375 0 
L 18.3125 0 
L 43.21875 64.59375 
L 8.203125 64.59375 
z
" id="DejaVuSans-37"/>
     <path d="M 40.578125 39.3125 
Q 47.65625 37.796875 51.625 33 
Q 55.609375 28.21875 55.609375 21.1875 
Q 55.609375 10.40625 48.1875 4.484375 
Q 40.765625 -1.421875 27.09375 -1.421875 
Q 22.515625 -1.421875 17.65625 -0.515625 
Q 12.796875 0.390625 7.625 2.203125 
L 7.625 11.71875 
Q 11.71875 9.328125 16.59375 8.109375 
Q 21.484375 6.890625 26.8125 6.890625 
Q 36.078125 6.890625 40.9375 10.546875 
Q 45.796875 14.203125 45.796875 21.1875 
Q 45.796875 27.640625 41.28125 31.265625 
Q 36.765625 34.90625 28.71875 34.90625 
L 20.21875 34.90625 
L 20.21875 43.015625 
L 29.109375 43.015625 
Q 36.375 43.015625 40.234375 45.921875 
Q 44.09375 48.828125 44.09375 54.296875 
Q 44.09375 59.90625 40.109375 62.90625 
Q 36.140625 65.921875 28.71875 65.921875 
Q 24.65625 65.921875 20.015625 65.03125 
Q 15.375 64.15625 9.8125 62.3125 
L 9.8125 71.09375 
Q 15.4375 72.65625 20.34375 73.4375 
Q 25.25 74.21875 29.59375 74.21875 
Q 40.828125 74.21875 47.359375 69.109375 
Q 53.90625 64.015625 53.90625 55.328125 
Q 53.90625 49.265625 50.4375 45.09375 
Q 46.96875 40.921875 40.578125 39.3125 
z
" id="DejaVuSans-33"/>
     <path d="M 11.71875 12.40625 
L 22.015625 12.40625 
L 22.015625 4 
L 14.015625 -11.625 
L 7.71875 -11.625 
L 11.71875 4 
z
" id="DejaVuSans-2c"/>
     <path d="M 16.890625 72.90625 
L 62.984375 72.90625 
L 61.375 64.59375 
L 25.09375 64.59375 
L 20.90625 43.015625 
L 55.71875 43.015625 
L 54.109375 34.71875 
L 19.28125 34.71875 
L 14.203125 8.296875 
L 51.3125 8.296875 
L 49.703125 0 
L 2.6875 0 
z
" id="DejaVuSans-Oblique-45"/>
     <path d="M 16.890625 72.90625 
L 30.171875 72.90625 
L 50.296875 10.40625 
L 62.5 72.90625 
L 72.125 72.90625 
L 57.90625 0 
L 44.578125 0 
L 24.515625 62.890625 
L 12.3125 0 
L 2.6875 0 
z
" id="DejaVuSans-Oblique-4e"/>
     <path d="M 10.59375 45.40625 
L 73.1875 45.40625 
L 73.1875 37.203125 
L 10.59375 37.203125 
z
M 10.59375 25.484375 
L 73.1875 25.484375 
L 73.1875 17.1875 
L 10.59375 17.1875 
z
" id="DejaVuSans-3d"/>
     <path d="M 4.890625 31.390625 
L 31.203125 31.390625 
L 31.203125 23.390625 
L 4.890625 23.390625 
z
" id="DejaVuSans-2d"/>
     <path d="M 12.40625 8.296875 
L 28.515625 8.296875 
L 28.515625 63.921875 
L 10.984375 60.40625 
L 10.984375 69.390625 
L 28.421875 72.90625 
L 38.28125 72.90625 
L 38.28125 8.296875 
L 54.390625 8.296875 
L 54.390625 0 
L 12.40625 0 
z
" id="DejaVuSans-31"/>
     <path d="M 31.78125 34.625 
Q 24.75 34.625 20.71875 30.859375 
Q 16.703125 27.09375 16.703125 20.515625 
Q 16.703125 13.921875 20.71875 10.15625 
Q 24.75 6.390625 31.78125 6.390625 
Q 38.8125 6.390625 42.859375 10.171875 
Q 46.921875 13.96875 46.921875 20.515625 
Q 46.921875 27.09375 42.890625 30.859375 
Q 38.875 34.625 31.78125 34.625 
z
M 21.921875 38.8125 
Q 15.578125 40.375 12.03125 44.71875 
Q 8.5 49.078125 8.5 55.328125 
Q 8.5 64.0625 14.71875 69.140625 
Q 20.953125 74.21875 31.78125 74.21875 
Q 42.671875 74.21875 48.875 69.140625 
Q 55.078125 64.0625 55.078125 55.328125 
Q 55.078125 49.078125 51.53125 44.71875 
Q 48 40.375 41.703125 38.8125 
Q 48.828125 37.15625 52.796875 32.3125 
Q 56.78125 27.484375 56.78125 20.515625 
Q 56.78125 9.90625 50.3125 4.234375 
Q 43.84375 -1.421875 31.78125 -1.421875 
Q 19.734375 -1.421875 13.25 4.234375 
Q 6.78125 9.90625 6.78125 20.515625 
Q 6.78125 27.484375 10.78125 32.3125 
Q 14.796875 37.15625 21.921875 38.8125 
z
M 18.3125 54.390625 
Q 18.3125 48.734375 21.84375 45.5625 
Q 25.390625 42.390625 31.78125 42.390625 
Q 38.140625 42.390625 41.71875 45.5625 
Q 45.3125 48.734375 45.3125 54.390625 
Q 45.3125 60.0625 41.71875 63.234375 
Q 38.140625 66.40625 31.78125 66.40625 
Q 25.390625 66.40625 21.84375 63.234375 
Q 18.3125 60.0625 18.3125 54.390625 
z
" id="DejaVuSans-38"/>
     <path d="M 10.6875 12.40625 
L 21 12.40625 
L 21 0 
L 10.6875 0 
z
" id="DejaVuSans-2e"/>
     <path d="M 28.609375 0 
L 0.78125 72.90625 
L 11.078125 72.90625 
L 34.1875 11.53125 
L 57.328125 72.90625 
L 67.578125 72.90625 
L 39.796875 0 
z
" id="DejaVuSans-56"/>
     <path d="M 34.1875 63.1875 
L 14.15625 8.203125 
L 54.25 8.203125 
z
M 0.78125 0 
L 28.609375 72.90625 
L 39.796875 72.90625 
L 67.578125 0 
z
" id="DejaVuSans-394"/>
     <path d="M 9.8125 72.90625 
L 55.90625 72.90625 
L 55.90625 64.59375 
L 19.671875 64.59375 
L 19.671875 43.015625 
L 54.390625 43.015625 
L 54.390625 34.71875 
L 19.671875 34.71875 
L 19.671875 8.296875 
L 56.78125 8.296875 
L 56.78125 0 
L 9.8125 0 
z
" id="DejaVuSans-45"/>
     <path d="M 31.78125 66.40625 
Q 24.171875 66.40625 20.328125 58.90625 
Q 16.5 51.421875 16.5 36.375 
Q 16.5 21.390625 20.328125 13.890625 
Q 24.171875 6.390625 31.78125 6.390625 
Q 39.453125 6.390625 43.28125 13.890625 
Q 47.125 21.390625 47.125 36.375 
Q 47.125 51.421875 43.28125 58.90625 
Q 39.453125 66.40625 31.78125 66.40625 
z
M 31.78125 74.21875 
Q 44.046875 74.21875 50.515625 64.515625 
Q 56.984375 54.828125 56.984375 36.375 
Q 56.984375 17.96875 50.515625 8.265625 
Q 44.046875 -1.421875 31.78125 -1.421875 
Q 19.53125 -1.421875 13.0625 8.265625 
Q 6.59375 17.96875 6.59375 36.375 
Q 6.59375 54.828125 13.0625 64.515625 
Q 19.53125 74.21875 31.78125 74.21875 
z
" id="DejaVuSans-30"/>
    </defs>
    <g transform="translate(65.388 35.472)scale(0.12 -0.12)">
     <use transform="translate(0 0.78125)" xlink:href="#DejaVuSans-53"/>
     <use transform="translate(63.476562 0.78125)" xlink:href="#DejaVuSans-74"/>
     <use transform="translate(102.685547 0.78125)" xlink:href="#DejaVuSans-72"/>
     <use transform="translate(143.798828 0.78125)" xlink:href="#DejaVuSans-75"/>
     <use transform="translate(207.177734 0.78125)" xlink:href="#DejaVuSans-63"/>
     <use transform="translate(262.158203 0.78125)" xlink:href="#DejaVuSans-74"/>
     <use transform="translate(301.367188 0.78125)" xlink:href="#DejaVuSans-75"/>
     <use transform="translate(364.746094 0.78125)" xlink:href="#DejaVuSans-72"/>
     <use transform="translate(405.859375 0.78125)" xlink:href="#DejaVuSans-65"/>
     <use transform="translate(467.382812 0.78125)" xlink:href="#DejaVuSans-20"/>
     <use transform="translate(499.169922 0.78125)" xlink:href="#DejaVuSans-23"/>
     <use transform="translate(582.958984 0.78125)" xlink:href="#DejaVuSans-34"/>
     <use transform="translate(646.582031 0.78125)" xlink:href="#DejaVuSans-36"/>
     <use transform="translate(710.205078 0.78125)" xlink:href="#DejaVuSans-37"/>
     <use transform="translate(773.828125 0.78125)" xlink:href="#DejaVuSans-33"/>
     <use transform="translate(837.451172 0.78125)" xlink:href="#DejaVuSans-2c"/>
     <use transform="translate(869.238281 0.78125)" xlink:href="#DejaVuSans-20"/>
     <use transform="translate(901.025391 0.78125)" xlink:href="#DejaVuSans-Oblique-45"/>
     <use transform="translate(964.208984 -15.625)scale(0.7)" xlink:href="#DejaVuSans-Oblique-4e"/>
     <use transform="translate(1019.306641 0.78125)" xlink:href="#DejaVuSans-3d"/>
     <use transform="translate(1103.095703 0.78125)" xlink:href="#DejaVuSans-2d"/>
     <use transform="translate(1139.179688 0.78125)" xlink:href="#DejaVuSans-31"/>
     <use transform="translate(1202.802734 0.78125)" xlink:href="#DejaVuSans-38"/>
     <use transform="translate(1266.425781 0.78125)" xlink:href="#DejaVuSans-31"/>
     <use transform="translate(1330.048828 0.78125)" xlink:href="#DejaVuSans-2e"/>
     <use transform="translate(1361.835938 0.78125)" xlink:href="#DejaVuSans-34"/>
     <use transform="translate(1425.458984 0.78125)" xlink:href="#DejaVuSans-34"/>
     <use transform="translate(1489.082031 0.78125)" xlink:href="#DejaVuSans-65"/>
     <use transform="translate(1550.605469 0.78125)" xlink:href="#DejaVuSans-56"/>
     <use transform="translate(1619.013672 0.78125)" xlink:href="#DejaVuSans-2c"/>
     <use transform="translate(1650.800781 0.78125)" xlink:href="#DejaVuSans-20"/>
     <use transform="translate(1682.587891 0.78125)" xlink:href="#DejaVuSans-394"/>
     <use transform="translate(1750.996094 0.78125)" xlink:href="#DejaVuSans-45"/>
     <use transform="translate(1814.179688 0.78125)" xlink:href="#DejaVuSans-3d"/>
     <use transform="translate(1897.96875 0.78125)" xlink:href="#DejaVuSans-30"/>
     <use transform="translate(1961.591797 0.78125)" xlink:href="#DejaVuSans-2e"/>
     <use transform="translate(1993.378906 0.78125)" xlink:href="#DejaVuSans-31"/>
     <use transform="translate(2057.001953 0.78125)" xlink:href="#DejaVuSans-34"/>
     <use transform="translate(2120.625 0.78125)" xlink:href="#DejaVuSans-65"/>
     <use transform="translate(2182.148438 0.78125)" xlink:href="#DejaVuSans-56"/>
    </g>
   </g>
  </g>
  <g id="axes_2">
   <g id="patch_2">
    <path clip-path="url(#pfaaefa92e9)" d="M 361.152 307.584 
L 361.152 306.5445 
L 361.152 42.5115 
L 361.152 41.472 
L 374.4576 41.472 
L 374.4576 42.5115 
L 374.4576 306.5445 
L 374.4576 307.584 
z
" style="fill:#ffffff;stroke:#ffffff;stroke-linejoin:miter;stroke-width:0.01;"/>
   </g>
   <image height="265.68" id="imageb003d469bf" transform="scale(1 -1)translate(0 -265.68)" width="12.96" x="361.44" xlink:href="data:image/png;base64,
iVBORw0KGgoAAAANSUhEUgAAABIAAAFxCAYAAAB+2fgXAAAABHNCSVQICAgIfAhkiAAAAeVJREFUeJztncmNw0AQA2ckheYQNv9QLIfQ8ygsCgQ7AEI8+jAs2Puz/94F1LP2ReCsZ18bAWIeZ5XaGRBE7VnbptG+KI101FYyNSiQG2oRITXKNaX9uclOdi2XWjftVE32CZCO2ou5Bj1TcCBr/1zB9ge7Fq0Rg2NM9pvbtG+ua1QgsRYhDy0ISEiNc40BEibbSI0Coj5CBGtkpFbXJiAjNZlrwhuSOv2M1DjXbEdEciBt1JSDDQKKpmZr2rr2j0DBGpXaWEJq3bQzEPIS26r9J+Wzv9Tm8o3aajRXqc3VUXsApKNWjeZq0x4ABVNbm7lrszVigDqP5vIl2+eaT2yfRkL7g+dRcNPqjohkjaCvRVBq0H2U3LQrOJCx9kdTg4B8oxZzzTdqdYHEngjUCAPyUctN9sVRq2sTECW2UKNLd2jVtRmo1A6AhMmWaSRcR8nUdIHUuVb75zJS218EyEitro1At69pIdeSk30Lkw0FktNImGyZRhy1O5galmxd03LUsHWk06jUZiCq+5Wb1kZNN4+wJxJuWt8RAW5am2sYNZ9rYCBzZ3buPKJ2P5Yj4Toy3keyIyJbIxs1rml1byCA84gpch5RQNB7Q0qNMGq2Hy4BXdNR41yz/cEEJfZzUz96r9PoB0okjeQ8y9TkAAAAAElFTkSuQmCC" y="-41.76"/>
   <g id="matplotlib.axis_1"/>
   <g id="matplotlib.axis_2">
    <g id="ytick_1">
     <g id="line2d_1">
      <defs>
       <path d="M 0 0 
L 3.5 0 
" id="mdc683b2205" style="stroke:#000000;stroke-width:0.8;"/>
      </defs>
      <g>
       <use style="stroke:#000000;stroke-width:0.8;" x="374.4576" xlink:href="#mdc683b2205" y="282.466812"/>
      </g>
     </g>
     <g id="text_2">
      <!-- −8.5 -->
      <defs>
       <path d="M 10.59375 35.5 
L 73.1875 35.5 
L 73.1875 27.203125 
L 10.59375 27.203125 
z
" id="DejaVuSans-2212"/>
       <path d="M 10.796875 72.90625 
L 49.515625 72.90625 
L 49.515625 64.59375 
L 19.828125 64.59375 
L 19.828125 46.734375 
Q 21.96875 47.46875 24.109375 47.828125 
Q 26.265625 48.1875 28.421875 48.1875 
Q 40.625 48.1875 47.75 41.5 
Q 54.890625 34.8125 54.890625 23.390625 
Q 54.890625 11.625 47.5625 5.09375 
Q 40.234375 -1.421875 26.90625 -1.421875 
Q 22.3125 -1.421875 17.546875 -0.640625 
Q 12.796875 0.140625 7.71875 1.703125 
L 7.71875 11.625 
Q 12.109375 9.234375 16.796875 8.0625 
Q 21.484375 6.890625 26.703125 6.890625 
Q 35.15625 6.890625 40.078125 11.328125 
Q 45.015625 15.765625 45.015625 23.390625 
Q 45.015625 31 40.078125 35.4375 
Q 35.15625 39.890625 26.703125 39.890625 
Q 22.75 39.890625 18.8125 39.015625 
Q 14.890625 38.140625 10.796875 36.28125 
z
" id="DejaVuSans-35"/>
      </defs>
      <g transform="translate(381.4576 286.266031)scale(0.1 -0.1)">
       <use xlink:href="#DejaVuSans-2212"/>
       <use x="83.789062" xlink:href="#DejaVuSans-38"/>
       <use x="147.412109" xlink:href="#DejaVuSans-2e"/>
       <use x="179.199219" xlink:href="#DejaVuSans-35"/>
      </g>
     </g>
    </g>
    <g id="ytick_2">
     <g id="line2d_2">
      <g>
       <use style="stroke:#000000;stroke-width:0.8;" x="374.4576" xlink:href="#mdc683b2205" y="228.637066"/>
      </g>
     </g>
     <g id="text_3">
      <!-- −8.0 -->
      <g transform="translate(381.4576 232.436285)scale(0.1 -0.1)">
       <use xlink:href="#DejaVuSans-2212"/>
       <use x="83.789062" xlink:href="#DejaVuSans-38"/>
       <use x="147.412109" xlink:href="#DejaVuSans-2e"/>
       <use x="179.199219" xlink:href="#DejaVuSans-30"/>
      </g>
     </g>
    </g>
    <g id="ytick_3">
     <g id="line2d_3">
      <g>
       <use style="stroke:#000000;stroke-width:0.8;" x="374.4576" xlink:href="#mdc683b2205" y="174.807319"/>
      </g>
     </g>
     <g id="text_4">
      <!-- −7.5 -->
      <g transform="translate(381.4576 178.606538)scale(0.1 -0.1)">
       <use xlink:href="#DejaVuSans-2212"/>
       <use x="83.789062" xlink:href="#DejaVuSans-37"/>
       <use x="147.412109" xlink:href="#DejaVuSans-2e"/>
       <use x="179.199219" xlink:href="#DejaVuSans-35"/>
      </g>
     </g>
    </g>
    <g id="ytick_4">
     <g id="line2d_4">
      <g>
       <use style="stroke:#000000;stroke-width:0.8;" x="374.4576" xlink:href="#mdc683b2205" y="120.977573"/>
      </g>
     </g>
     <g id="text_5">
      <!-- −7.0 -->
      <g transform="translate(381.4576 124.776792)scale(0.1 -0.1)">
       <use xlink:href="#DejaVuSans-2212"/>
       <use x="83.789062" xlink:href="#DejaVuSans-37"/>
       <use x="147.412109" xlink:href="#DejaVuSans-2e"/>
       <use x="179.199219" xlink:href="#DejaVuSans-30"/>
      </g>
     </g>
    </g>
    <g id="ytick_5">
     <g id="line2d_5">
      <g>
       <use style="stroke:#000000;stroke-width:0.8;" x="374.4576" xlink:href="#mdc683b2205" y="67.147826"/>
      </g>
     </g>
     <g id="text_6">
      <!-- −6.5 -->
      <g transform="translate(381.4576 70.947045)scale(0.1 -0.1)">
       <use xlink:href="#DejaVuSans-2212"/>
       <use x="83.789062" xlink:href="#DejaVuSans-36"/>
       <use x="147.412109" xlink:href="#DejaVuSans-2e"/>
       <use x="179.199219" xlink:href="#DejaVuSans-35"/>
      </g>
     </g>
    </g>
    <g id="text_7">
     <!-- Energy [eV] -->
     <defs>
      <path d="M 54.890625 33.015625 
L 54.890625 0 
L 45.90625 0 
L 45.90625 32.71875 
Q 45.90625 40.484375 42.875 44.328125 
Q 39.84375 48.1875 33.796875 48.1875 
Q 26.515625 48.1875 22.3125 43.546875 
Q 18.109375 38.921875 18.109375 30.90625 
L 18.109375 0 
L 9.078125 0 
L 9.078125 54.6875 
L 18.109375 54.6875 
L 18.109375 46.1875 
Q 21.34375 51.125 25.703125 53.5625 
Q 30.078125 56 35.796875 56 
Q 45.21875 56 50.046875 50.171875 
Q 54.890625 44.34375 54.890625 33.015625 
z
" id="DejaVuSans-6e"/>
      <path d="M 45.40625 27.984375 
Q 45.40625 37.75 41.375 43.109375 
Q 37.359375 48.484375 30.078125 48.484375 
Q 22.859375 48.484375 18.828125 43.109375 
Q 14.796875 37.75 14.796875 27.984375 
Q 14.796875 18.265625 18.828125 12.890625 
Q 22.859375 7.515625 30.078125 7.515625 
Q 37.359375 7.515625 41.375 12.890625 
Q 45.40625 18.265625 45.40625 27.984375 
z
M 54.390625 6.78125 
Q 54.390625 -7.171875 48.1875 -13.984375 
Q 42 -20.796875 29.203125 -20.796875 
Q 24.46875 -20.796875 20.265625 -20.09375 
Q 16.0625 -19.390625 12.109375 -17.921875 
L 12.109375 -9.1875 
Q 16.0625 -11.328125 19.921875 -12.34375 
Q 23.78125 -13.375 27.78125 -13.375 
Q 36.625 -13.375 41.015625 -8.765625 
Q 45.40625 -4.15625 45.40625 5.171875 
L 45.40625 9.625 
Q 42.625 4.78125 38.28125 2.390625 
Q 33.9375 0 27.875 0 
Q 17.828125 0 11.671875 7.65625 
Q 5.515625 15.328125 5.515625 27.984375 
Q 5.515625 40.671875 11.671875 48.328125 
Q 17.828125 56 27.875 56 
Q 33.9375 56 38.28125 53.609375 
Q 42.625 51.21875 45.40625 46.390625 
L 45.40625 54.6875 
L 54.390625 54.6875 
z
" id="DejaVuSans-67"/>
      <path d="M 32.171875 -5.078125 
Q 28.375 -14.84375 24.75 -17.8125 
Q 21.140625 -20.796875 15.09375 -20.796875 
L 7.90625 -20.796875 
L 7.90625 -13.28125 
L 13.1875 -13.28125 
Q 16.890625 -13.28125 18.9375 -11.515625 
Q 21 -9.765625 23.484375 -3.21875 
L 25.09375 0.875 
L 2.984375 54.6875 
L 12.5 54.6875 
L 29.59375 11.921875 
L 46.6875 54.6875 
L 56.203125 54.6875 
z
" id="DejaVuSans-79"/>
      <path d="M 8.59375 75.984375 
L 29.296875 75.984375 
L 29.296875 69 
L 17.578125 69 
L 17.578125 -6.203125 
L 29.296875 -6.203125 
L 29.296875 -13.1875 
L 8.59375 -13.1875 
z
" id="DejaVuSans-5b"/>
      <path d="M 30.421875 75.984375 
L 30.421875 -13.1875 
L 9.71875 -13.1875 
L 9.71875 -6.203125 
L 21.390625 -6.203125 
L 21.390625 69 
L 9.71875 69 
L 9.71875 75.984375 
z
" id="DejaVuSans-5d"/>
     </defs>
     <g transform="translate(417.33885 204.108469)rotate(-90)scale(0.1 -0.1)">
      <use xlink:href="#DejaVuSans-45"/>
      <use x="63.183594" xlink:href="#DejaVuSans-6e"/>
      <use x="126.5625" xlink:href="#DejaVuSans-65"/>
      <use x="188.085938" xlink:href="#DejaVuSans-72"/>
      <use x="229.183594" xlink:href="#DejaVuSans-67"/>
      <use x="292.660156" xlink:href="#DejaVuSans-79"/>
      <use x="351.839844" xlink:href="#DejaVuSans-20"/>
      <use x="383.626953" xlink:href="#DejaVuSans-5b"/>
      <use x="422.640625" xlink:href="#DejaVuSans-65"/>
      <use x="484.164062" xlink:href="#DejaVuSans-56"/>
      <use x="552.572266" xlink:href="#DejaVuSans-5d"/>
     </g>
    </g>
   </g>
   <g id="patch_3">
    <path d="M 361.152 307.584 
L 361.152 306.5445 
L 361.152 42.5115 
L 361.152 41.472 
L 374.4576 41.472 
L 374.4576 42.5115 
L 374.4576 306.5445 
L 374.4576 307.584 
z
" style="fill:none;stroke:#000000;stroke-linejoin:miter;stroke-width:0.8;"/>
   </g>
  </g>
 </g>
 <defs>
  <clipPath id="paea16a5940">
   <rect height="266.112" width="285.696" x="57.6" y="41.472"/>
  </clipPath>
  <clipPath id="pfaaefa92e9">
   <rect height="266.112" width="13.3056" x="361.152" y="41.472"/>
  </clipPath>
 </defs>
</svg>
