<?xml version="1.0" encoding="utf-8" standalone="no"?>
<!DOCTYPE svg PUBLIC "-//W3C//DTD SVG 1.1//EN"
  "http://www.w3.org/Graphics/SVG/1.1/DTD/svg11.dtd">
<!-- Created with matplotlib (http://matplotlib.org/) -->
<svg height="345.6pt" version="1.1" viewBox="0 0 460.8 345.6" width="460.8pt" xmlns="http://www.w3.org/2000/svg" xmlns:xlink="http://www.w3.org/1999/xlink">
 <defs>
  <style type="text/css">
*{stroke-linecap:butt;stroke-linejoin:round;}
  </style>
 </defs>
 <g id="figure_1">
  <g id="patch_1">
   <path d="M 0 345.6 
L 460.8 345.6 
L 460.8 0 
L 0 0 
z
" style="fill:#ffffff;"/>
  </g>
  <g id="axes_1">
   <g id="CircleCollection_1">
    <path clip-path="url(#p7300fbd0af)" d="M 214.570398 280.279772 
C 216.345142 280.279772 218.047436 279.574659 219.30237 278.319725 
C 220.557303 277.064792 221.262416 275.362498 221.262416 273.587754 
C 221.262416 271.81301 220.557303 270.110716 219.30237 268.855783 
C 218.047436 267.600849 216.345142 266.895736 214.570398 266.895736 
C 212.795654 266.895736 211.09336 267.600849 209.838427 268.855783 
C 208.583493 270.110716 207.87838 271.81301 207.87838 273.587754 
C 207.87838 275.362498 208.583493 277.064792 209.838427 278.319725 
C 211.09336 279.574659 212.795654 280.279772 214.570398 280.279772 
z
" style="fill:#2c728e;"/>
    <path clip-path="url(#p7300fbd0af)" d="M 94.475825 217.974332 
C 96.217095 217.974332 97.887282 217.282518 99.118545 216.051254 
C 100.349809 214.819991 101.041623 213.149804 101.041623 211.408535 
C 101.041623 209.667265 100.349809 207.997078 99.118545 206.765815 
C 97.887282 205.534551 96.217095 204.842737 94.475825 204.842737 
C 92.734556 204.842737 91.064369 205.534551 89.833106 206.765815 
C 88.601842 207.997078 87.910028 209.667265 87.910028 211.408535 
C 87.910028 213.149804 88.601842 214.819991 89.833106 216.051254 
C 91.064369 217.282518 92.734556 217.974332 94.475825 217.974332 
z
" style="fill:#423f85;"/>
    <path clip-path="url(#p7300fbd0af)" d="M 77.078301 123.107246 
C 78.862698 123.107246 80.57425 122.398298 81.836009 121.136539 
C 83.097767 119.874781 83.806716 118.163228 83.806716 116.378832 
C 83.806716 114.594436 83.097767 112.882883 81.836009 111.621125 
C 80.57425 110.359366 78.862698 109.650418 77.078301 109.650418 
C 75.293905 109.650418 73.582353 110.359366 72.320594 111.621125 
C 71.058835 112.882883 70.349887 114.594436 70.349887 116.378832 
C 70.349887 118.163228 71.058835 119.874781 72.320594 121.136539 
C 73.582353 122.398298 75.293905 123.107246 77.078301 123.107246 
z
" style="fill:#481f70;"/>
    <path clip-path="url(#p7300fbd0af)" d="M 304.548196 112.844735 
C 306.340386 112.844735 308.059415 112.13269 309.326685 110.86542 
C 310.593955 109.59815 311.306 107.879121 311.306 106.086931 
C 311.306 104.29474 310.593955 102.575712 309.326685 101.308441 
C 308.059415 100.041171 306.340386 99.329126 304.548196 99.329126 
C 302.756005 99.329126 301.036977 100.041171 299.769706 101.308441 
C 298.502436 102.575712 297.790391 104.29474 297.790391 106.086931 
C 297.790391 107.879121 298.502436 109.59815 299.769706 110.86542 
C 301.036977 112.13269 302.756005 112.844735 304.548196 112.844735 
z
" style="fill:#3b528b;"/>
    <path clip-path="url(#p7300fbd0af)" d="M 129.309817 301.648048 
C 131.15245 301.648048 132.919861 300.915963 134.222799 299.613024 
C 135.525738 298.310086 136.257824 296.542674 136.257824 294.700041 
C 136.257824 292.857408 135.525738 291.089997 134.222799 289.787058 
C 132.919861 288.48412 131.15245 287.752034 129.309817 287.752034 
C 127.467184 287.752034 125.699772 288.48412 124.396834 289.787058 
C 123.093895 291.089997 122.361809 292.857408 122.361809 294.700041 
C 122.361809 296.542674 123.093895 298.310086 124.396834 299.613024 
C 125.699772 300.915963 127.467184 301.648048 129.309817 301.648048 
z
" style="fill:#20a486;"/>
    <path clip-path="url(#p7300fbd0af)" d="M 105.27818 72.984677 
C 107.060624 72.984677 108.770303 72.276505 110.030681 71.016127 
C 111.291059 69.755749 111.999232 68.046069 111.999232 66.263626 
C 111.999232 64.481182 111.291059 62.771503 110.030681 61.511125 
C 108.770303 60.250747 107.060624 59.542574 105.27818 59.542574 
C 103.495737 59.542574 101.786057 60.250747 100.525679 61.511125 
C 99.265301 62.771503 98.557129 64.481182 98.557129 66.263626 
C 98.557129 68.046069 99.265301 69.755749 100.525679 71.016127 
C 101.786057 72.276505 103.495737 72.984677 105.27818 72.984677 
z
" style="fill:#24aa83;"/>
    <path clip-path="url(#p7300fbd0af)" d="M 329.793396 202.626937 
C 331.666802 202.626937 333.46373 201.882625 334.788429 200.557927 
C 336.113127 199.233229 336.857439 197.4363 336.857439 195.562894 
C 336.857439 193.689488 336.113127 191.89256 334.788429 190.567862 
C 333.46373 189.243164 331.666802 188.498852 329.793396 188.498852 
C 327.91999 188.498852 326.123062 189.243164 324.798364 190.567862 
C 323.473666 191.89256 322.729353 193.689488 322.729353 195.562894 
C 322.729353 197.4363 323.473666 199.233229 324.798364 200.557927 
C 326.123062 201.882625 327.91999 202.626937 329.793396 202.626937 
z
" style="fill:#355f8d;"/>
    <path clip-path="url(#p7300fbd0af)" d="M 92.866646 271.483455 
C 94.726466 271.483455 96.510362 270.744541 97.825453 269.42945 
C 99.140545 268.114359 99.879459 266.330462 99.879459 264.470643 
C 99.879459 262.610823 99.140545 260.826926 97.825453 259.511835 
C 96.510362 258.196744 94.726466 257.45783 92.866646 257.45783 
C 91.006826 257.45783 89.22293 258.196744 87.907839 259.511835 
C 86.592748 260.826926 85.853834 262.610823 85.853834 264.470643 
C 85.853834 266.330462 86.592748 268.114359 87.907839 269.42945 
C 89.22293 270.744541 91.006826 271.483455 92.866646 271.483455 
z
" style="fill:#20a386;"/>
    <path clip-path="url(#p7300fbd0af)" d="M 261.697416 262.828445 
C 263.506006 262.828445 265.240763 262.109885 266.519629 260.831019 
C 267.798495 259.552154 268.517055 257.817396 268.517055 256.008806 
C 268.517055 254.200217 267.798495 252.465459 266.519629 251.186593 
C 265.240763 249.907728 263.506006 249.189167 261.697416 249.189167 
C 259.888827 249.189167 258.154069 249.907728 256.875203 251.186593 
C 255.596338 252.465459 254.877777 254.200217 254.877777 256.008806 
C 254.877777 257.817396 255.596338 259.552154 256.875203 260.831019 
C 258.154069 262.109885 259.888827 262.828445 261.697416 262.828445 
z
" style="fill:#33628d;"/>
    <path clip-path="url(#p7300fbd0af)" d="M 71.095815 164.146943 
C 72.944593 164.146943 74.717898 163.412416 76.025182 162.105132 
C 77.332465 160.797849 78.066992 159.024543 78.066992 157.175765 
C 78.066992 155.326988 77.332465 153.553682 76.025182 152.246399 
C 74.717898 150.939115 72.944593 150.204588 71.095815 150.204588 
C 69.247037 150.204588 67.473731 150.939115 66.166448 152.246399 
C 64.859165 153.553682 64.124637 155.326988 64.124637 157.175765 
C 64.124637 159.024543 64.859165 160.797849 66.166448 162.105132 
C 67.473731 163.412416 69.247037 164.146943 71.095815 164.146943 
z
" style="fill:#fde725;"/>
    <path clip-path="url(#p7300fbd0af)" d="M 141.597508 147.623938 
C 143.274145 147.623938 144.882338 146.957803 146.067899 145.772241 
C 147.253461 144.58668 147.919596 142.978488 147.919596 141.30185 
C 147.919596 139.625213 147.253461 138.017021 146.067899 136.831459 
C 144.882338 135.645898 143.274145 134.979763 141.597508 134.979763 
C 139.920871 134.979763 138.312679 135.645898 137.127117 136.831459 
C 135.941556 138.017021 135.275421 139.625213 135.275421 141.30185 
C 135.275421 142.978488 135.941556 144.58668 137.127117 145.772241 
C 138.312679 146.957803 139.920871 147.623938 141.597508 147.623938 
z
" style="fill:#48186a;"/>
    <path clip-path="url(#p7300fbd0af)" d="M 145.821867 60.906887 
C 147.56992 60.906887 149.246613 60.212379 150.482672 58.976319 
C 151.718732 57.740259 152.413241 56.063566 152.413241 54.315514 
C 152.413241 52.567461 151.718732 50.890769 150.482672 49.654709 
C 149.246613 48.418649 147.56992 47.72414 145.821867 47.72414 
C 144.073815 47.72414 142.397122 48.418649 141.161062 49.654709 
C 139.925002 50.890769 139.230494 52.567461 139.230494 54.315514 
C 139.230494 56.063566 139.925002 57.740259 141.161062 58.976319 
C 142.397122 60.212379 144.073815 60.906887 145.821867 60.906887 
z
" style="fill:#20a386;"/>
    <path clip-path="url(#p7300fbd0af)" d="M 320.273611 152.263513 
C 322.117559 152.263513 323.886232 151.530904 325.1901 150.227036 
C 326.493968 148.923168 327.226577 147.154495 327.226577 145.310547 
C 327.226577 143.466599 326.493968 141.697926 325.1901 140.394058 
C 323.886232 139.09019 322.117559 138.357582 320.273611 138.357582 
C 318.429663 138.357582 316.66099 139.09019 315.357122 140.394058 
C 314.053254 141.697926 313.320646 143.466599 313.320646 145.310547 
C 313.320646 147.154495 314.053254 148.923168 315.357122 150.227036 
C 316.66099 151.530904 318.429663 152.263513 320.273611 152.263513 
z
" style="fill:#21a585;"/>
    <path clip-path="url(#p7300fbd0af)" d="M 217.861752 188.316529 
C 219.555546 188.316529 221.180195 187.643577 222.377889 186.445884 
C 223.575582 185.24819 224.248534 183.623541 224.248534 181.929747 
C 224.248534 180.235952 223.575582 178.611303 222.377889 177.413609 
C 221.180195 176.215916 219.555546 175.542964 217.861752 175.542964 
C 216.167957 175.542964 214.543308 176.215916 213.345614 177.413609 
C 212.147921 178.611303 211.474969 180.235952 211.474969 181.929747 
C 211.474969 183.623541 212.147921 185.24819 213.345614 186.445884 
C 214.543308 187.643577 216.167957 188.316529 217.861752 188.316529 
z
" style="fill:#482475;"/>
    <path clip-path="url(#p7300fbd0af)" d="M 95.438353 157.496643 
C 97.152684 157.496643 98.797032 156.815532 100.009247 155.603316 
C 101.221462 154.391101 101.902574 152.746753 101.902574 151.032422 
C 101.902574 149.318091 101.221462 147.673743 100.009247 146.461528 
C 98.797032 145.249312 97.152684 144.568201 95.438353 144.568201 
C 93.724021 144.568201 92.079674 145.249312 90.867458 146.461528 
C 89.655243 147.673743 88.974132 149.318091 88.974132 151.032422 
C 88.974132 152.746753 89.655243 154.391101 90.867458 155.603316 
C 92.079674 156.815532 93.724021 157.496643 95.438353 157.496643 
z
" style="fill:#433e85;"/>
    <path clip-path="url(#p7300fbd0af)" d="M 72.793988 222.152219 
C 74.617965 222.152219 76.367483 221.427545 77.65723 220.137798 
C 78.946976 218.848051 79.67165 217.098534 79.67165 215.274556 
C 79.67165 213.450579 78.946976 211.701061 77.65723 210.411315 
C 76.367483 209.121568 74.617965 208.396894 72.793988 208.396894 
C 70.97001 208.396894 69.220493 209.121568 67.930746 210.411315 
C 66.640999 211.701061 65.916325 213.450579 65.916325 215.274556 
C 65.916325 217.098534 66.640999 218.848051 67.930746 220.137798 
C 69.220493 221.427545 70.97001 222.152219 72.793988 222.152219 
z
" style="fill:#481b6d;"/>
    <path clip-path="url(#p7300fbd0af)" d="M 163.099927 284.425777 
C 164.879589 284.425777 166.586599 283.71871 167.84501 282.460299 
C 169.103421 281.201888 169.810488 279.494878 169.810488 277.715216 
C 169.810488 275.935555 169.103421 274.228544 167.84501 272.970133 
C 166.586599 271.711722 164.879589 271.004655 163.099927 271.004655 
C 161.320266 271.004655 159.613255 271.711722 158.354844 272.970133 
C 157.096433 274.228544 156.389366 275.935555 156.389366 277.715216 
C 156.389366 279.494878 157.096433 281.201888 158.354844 282.460299 
C 159.613255 283.71871 161.320266 284.425777 163.099927 284.425777 
z
" style="fill:#440154;"/>
    <path clip-path="url(#p7300fbd0af)" d="M 168.228867 199.941865 
C 169.906497 199.941865 171.515641 199.275335 172.701905 198.089071 
C 173.888169 196.902808 174.554698 195.293663 174.554698 193.616033 
C 174.554698 191.938403 173.888169 190.329258 172.701905 189.142995 
C 171.515641 187.956731 169.906497 187.290201 168.228867 187.290201 
C 166.551237 187.290201 164.942092 187.956731 163.755828 189.142995 
C 162.569565 190.329258 161.903035 191.938403 161.903035 193.616033 
C 161.903035 195.293663 162.569565 196.902808 163.755828 198.089071 
C 164.942092 199.275335 166.551237 199.941865 168.228867 199.941865 
z
" style="fill:#471365;"/>
    <path clip-path="url(#p7300fbd0af)" d="M 239.108549 235.255553 
C 240.844399 235.255553 242.509386 234.565893 243.736817 233.338462 
C 244.964249 232.11103 245.653909 230.446043 245.653909 228.710193 
C 245.653909 226.974343 244.964249 225.309356 243.736817 224.081925 
C 242.509386 222.854493 240.844399 222.164833 239.108549 222.164833 
C 237.372699 222.164833 235.707712 222.854493 234.48028 224.081925 
C 233.252849 225.309356 232.563189 226.974343 232.563189 228.710193 
C 232.563189 230.446043 233.252849 232.11103 234.48028 233.338462 
C 235.707712 234.565893 237.372699 235.255553 239.108549 235.255553 
z
" style="fill:#2b748e;"/>
    <path clip-path="url(#p7300fbd0af)" d="M 140.428341 243.46371 
C 142.149533 243.46371 143.800461 242.779874 145.017528 241.562807 
C 146.234594 240.345741 146.918431 238.694813 146.918431 236.973621 
C 146.918431 235.252429 146.234594 233.601501 145.017528 232.384434 
C 143.800461 231.167368 142.149533 230.483531 140.428341 230.483531 
C 138.707149 230.483531 137.056221 231.167368 135.839155 232.384434 
C 134.622088 233.601501 133.938252 235.252429 133.938252 236.973621 
C 133.938252 238.694813 134.622088 240.345741 135.839155 241.562807 
C 137.056221 242.779874 138.707149 243.46371 140.428341 243.46371 
z
" style="fill:#472d7b;"/>
    <path clip-path="url(#p7300fbd0af)" d="M 222.895064 126.155214 
C 224.603106 126.155214 226.241421 125.476602 227.449189 124.268834 
C 228.656957 123.061066 229.33557 121.422751 229.33557 119.714709 
C 229.33557 118.006667 228.656957 116.368352 227.449189 115.160583 
C 226.241421 113.952815 224.603106 113.274203 222.895064 113.274203 
C 221.187022 113.274203 219.548707 113.952815 218.340939 115.160583 
C 217.133171 116.368352 216.454559 118.006667 216.454559 119.714709 
C 216.454559 121.422751 217.133171 123.061066 218.340939 124.268834 
C 219.548707 125.476602 221.187022 126.155214 222.895064 126.155214 
z
" style="fill:#481668;"/>
    <path clip-path="url(#p7300fbd0af)" d="M 295.081724 239.317884 
C 296.938655 239.317884 298.719782 238.580117 300.032831 237.267068 
C 301.345879 235.954019 302.083646 234.172893 302.083646 232.315961 
C 302.083646 230.45903 301.345879 228.677904 300.032831 227.364855 
C 298.719782 226.051806 296.938655 225.314039 295.081724 225.314039 
C 293.224793 225.314039 291.443666 226.051806 290.130617 227.364855 
C 288.817569 228.677904 288.079802 230.45903 288.079802 232.315961 
C 288.079802 234.172893 288.817569 235.954019 290.130617 237.267068 
C 291.443666 238.580117 293.224793 239.317884 295.081724 239.317884 
z
" style="fill:#1f948c;"/>
    <path clip-path="url(#p7300fbd0af)" d="M 264.246931 109.773831 
C 265.997653 109.773831 267.676905 109.078262 268.914853 107.840314 
C 270.1528 106.602367 270.848369 104.923115 270.848369 103.172393 
C 270.848369 101.421671 270.1528 99.742418 268.914853 98.504471 
C 267.676905 97.266524 265.997653 96.570954 264.246931 96.570954 
C 262.496209 96.570954 260.816957 97.266524 259.579009 98.504471 
C 258.341062 99.742418 257.645493 101.421671 257.645493 103.172393 
C 257.645493 104.923115 258.341062 106.602367 259.579009 107.840314 
C 260.816957 109.078262 262.496209 109.773831 264.246931 109.773831 
z
" style="fill:#1f9a8a;"/>
    <path clip-path="url(#p7300fbd0af)" d="M 173.519995 102.76983 
C 175.223779 102.76983 176.858009 102.09291 178.062767 100.888153 
C 179.267524 99.683396 179.944444 98.049165 179.944444 96.345381 
C 179.944444 94.641597 179.267524 93.007367 178.062767 91.80261 
C 176.858009 90.597852 175.223779 89.920932 173.519995 89.920932 
C 171.816211 89.920932 170.181981 90.597852 168.977224 91.80261 
C 167.772466 93.007367 167.095546 94.641597 167.095546 96.345381 
C 167.095546 98.049165 167.772466 99.683396 168.977224 100.888153 
C 170.181981 102.09291 171.816211 102.76983 173.519995 102.76983 
z
" style="fill:#482677;"/>
   </g>
   <g id="text_1">
    <!-- Structure #10663, $E_N$=-184.01eV, ΔE=0.46eV -->
    <defs>
     <path d="M 53.515625 70.515625 
L 53.515625 60.890625 
Q 47.90625 63.578125 42.921875 64.890625 
Q 37.9375 66.21875 33.296875 66.21875 
Q 25.25 66.21875 20.875 63.09375 
Q 16.5 59.96875 16.5 54.203125 
Q 16.5 49.359375 19.40625 46.890625 
Q 22.3125 44.4375 30.421875 42.921875 
L 36.375 41.703125 
Q 47.40625 39.59375 52.65625 34.296875 
Q 57.90625 29 57.90625 20.125 
Q 57.90625 9.515625 50.796875 4.046875 
Q 43.703125 -1.421875 29.984375 -1.421875 
Q 24.8125 -1.421875 18.96875 -0.25 
Q 13.140625 0.921875 6.890625 3.21875 
L 6.890625 13.375 
Q 12.890625 10.015625 18.65625 8.296875 
Q 24.421875 6.59375 29.984375 6.59375 
Q 38.421875 6.59375 43.015625 9.90625 
Q 47.609375 13.234375 47.609375 19.390625 
Q 47.609375 24.75 44.3125 27.78125 
Q 41.015625 30.8125 33.5 32.328125 
L 27.484375 33.5 
Q 16.453125 35.6875 11.515625 40.375 
Q 6.59375 45.0625 6.59375 53.421875 
Q 6.59375 63.09375 13.40625 68.65625 
Q 20.21875 74.21875 32.171875 74.21875 
Q 37.3125 74.21875 42.625 73.28125 
Q 47.953125 72.359375 53.515625 70.515625 
z
" id="DejaVuSans-53"/>
     <path d="M 18.3125 70.21875 
L 18.3125 54.6875 
L 36.8125 54.6875 
L 36.8125 47.703125 
L 18.3125 47.703125 
L 18.3125 18.015625 
Q 18.3125 11.328125 20.140625 9.421875 
Q 21.96875 7.515625 27.59375 7.515625 
L 36.8125 7.515625 
L 36.8125 0 
L 27.59375 0 
Q 17.1875 0 13.234375 3.875 
Q 9.28125 7.765625 9.28125 18.015625 
L 9.28125 47.703125 
L 2.6875 47.703125 
L 2.6875 54.6875 
L 9.28125 54.6875 
L 9.28125 70.21875 
z
" id="DejaVuSans-74"/>
     <path d="M 41.109375 46.296875 
Q 39.59375 47.171875 37.8125 47.578125 
Q 36.03125 48 33.890625 48 
Q 26.265625 48 22.1875 43.046875 
Q 18.109375 38.09375 18.109375 28.8125 
L 18.109375 0 
L 9.078125 0 
L 9.078125 54.6875 
L 18.109375 54.6875 
L 18.109375 46.1875 
Q 20.953125 51.171875 25.484375 53.578125 
Q 30.03125 56 36.53125 56 
Q 37.453125 56 38.578125 55.875 
Q 39.703125 55.765625 41.0625 55.515625 
z
" id="DejaVuSans-72"/>
     <path d="M 8.5 21.578125 
L 8.5 54.6875 
L 17.484375 54.6875 
L 17.484375 21.921875 
Q 17.484375 14.15625 20.5 10.265625 
Q 23.53125 6.390625 29.59375 6.390625 
Q 36.859375 6.390625 41.078125 11.03125 
Q 45.3125 15.671875 45.3125 23.6875 
L 45.3125 54.6875 
L 54.296875 54.6875 
L 54.296875 0 
L 45.3125 0 
L 45.3125 8.40625 
Q 42.046875 3.421875 37.71875 1 
Q 33.40625 -1.421875 27.6875 -1.421875 
Q 18.265625 -1.421875 13.375 4.4375 
Q 8.5 10.296875 8.5 21.578125 
z
M 31.109375 56 
z
" id="DejaVuSans-75"/>
     <path d="M 48.78125 52.59375 
L 48.78125 44.1875 
Q 44.96875 46.296875 41.140625 47.34375 
Q 37.3125 48.390625 33.40625 48.390625 
Q 24.65625 48.390625 19.8125 42.84375 
Q 14.984375 37.3125 14.984375 27.296875 
Q 14.984375 17.28125 19.8125 11.734375 
Q 24.65625 6.203125 33.40625 6.203125 
Q 37.3125 6.203125 41.140625 7.25 
Q 44.96875 8.296875 48.78125 10.40625 
L 48.78125 2.09375 
Q 45.015625 0.34375 40.984375 -0.53125 
Q 36.96875 -1.421875 32.421875 -1.421875 
Q 20.0625 -1.421875 12.78125 6.34375 
Q 5.515625 14.109375 5.515625 27.296875 
Q 5.515625 40.671875 12.859375 48.328125 
Q 20.21875 56 33.015625 56 
Q 37.15625 56 41.109375 55.140625 
Q 45.0625 54.296875 48.78125 52.59375 
z
" id="DejaVuSans-63"/>
     <path d="M 56.203125 29.59375 
L 56.203125 25.203125 
L 14.890625 25.203125 
Q 15.484375 15.921875 20.484375 11.0625 
Q 25.484375 6.203125 34.421875 6.203125 
Q 39.59375 6.203125 44.453125 7.46875 
Q 49.3125 8.734375 54.109375 11.28125 
L 54.109375 2.78125 
Q 49.265625 0.734375 44.1875 -0.34375 
Q 39.109375 -1.421875 33.890625 -1.421875 
Q 20.796875 -1.421875 13.15625 6.1875 
Q 5.515625 13.8125 5.515625 26.8125 
Q 5.515625 40.234375 12.765625 48.109375 
Q 20.015625 56 32.328125 56 
Q 43.359375 56 49.78125 48.890625 
Q 56.203125 41.796875 56.203125 29.59375 
z
M 47.21875 32.234375 
Q 47.125 39.59375 43.09375 43.984375 
Q 39.0625 48.390625 32.421875 48.390625 
Q 24.90625 48.390625 20.390625 44.140625 
Q 15.875 39.890625 15.1875 32.171875 
z
" id="DejaVuSans-65"/>
     <path id="DejaVuSans-20"/>
     <path d="M 51.125 44 
L 36.921875 44 
L 32.8125 27.6875 
L 47.125 27.6875 
z
M 43.796875 71.78125 
L 38.71875 51.515625 
L 52.984375 51.515625 
L 58.109375 71.78125 
L 65.921875 71.78125 
L 60.890625 51.515625 
L 76.125 51.515625 
L 76.125 44 
L 58.984375 44 
L 54.984375 27.6875 
L 70.515625 27.6875 
L 70.515625 20.21875 
L 53.078125 20.21875 
L 48 0 
L 40.1875 0 
L 45.21875 20.21875 
L 30.90625 20.21875 
L 25.875 0 
L 18.015625 0 
L 23.09375 20.21875 
L 7.71875 20.21875 
L 7.71875 27.6875 
L 24.90625 27.6875 
L 29 44 
L 13.28125 44 
L 13.28125 51.515625 
L 30.90625 51.515625 
L 35.890625 71.78125 
z
" id="DejaVuSans-23"/>
     <path d="M 12.40625 8.296875 
L 28.515625 8.296875 
L 28.515625 63.921875 
L 10.984375 60.40625 
L 10.984375 69.390625 
L 28.421875 72.90625 
L 38.28125 72.90625 
L 38.28125 8.296875 
L 54.390625 8.296875 
L 54.390625 0 
L 12.40625 0 
z
" id="DejaVuSans-31"/>
     <path d="M 31.78125 66.40625 
Q 24.171875 66.40625 20.328125 58.90625 
Q 16.5 51.421875 16.5 36.375 
Q 16.5 21.390625 20.328125 13.890625 
Q 24.171875 6.390625 31.78125 6.390625 
Q 39.453125 6.390625 43.28125 13.890625 
Q 47.125 21.390625 47.125 36.375 
Q 47.125 51.421875 43.28125 58.90625 
Q 39.453125 66.40625 31.78125 66.40625 
z
M 31.78125 74.21875 
Q 44.046875 74.21875 50.515625 64.515625 
Q 56.984375 54.828125 56.984375 36.375 
Q 56.984375 17.96875 50.515625 8.265625 
Q 44.046875 -1.421875 31.78125 -1.421875 
Q 19.53125 -1.421875 13.0625 8.265625 
Q 6.59375 17.96875 6.59375 36.375 
Q 6.59375 54.828125 13.0625 64.515625 
Q 19.53125 74.21875 31.78125 74.21875 
z
" id="DejaVuSans-30"/>
     <path d="M 33.015625 40.375 
Q 26.375 40.375 22.484375 35.828125 
Q 18.609375 31.296875 18.609375 23.390625 
Q 18.609375 15.53125 22.484375 10.953125 
Q 26.375 6.390625 33.015625 6.390625 
Q 39.65625 6.390625 43.53125 10.953125 
Q 47.40625 15.53125 47.40625 23.390625 
Q 47.40625 31.296875 43.53125 35.828125 
Q 39.65625 40.375 33.015625 40.375 
z
M 52.59375 71.296875 
L 52.59375 62.3125 
Q 48.875 64.0625 45.09375 64.984375 
Q 41.3125 65.921875 37.59375 65.921875 
Q 27.828125 65.921875 22.671875 59.328125 
Q 17.53125 52.734375 16.796875 39.40625 
Q 19.671875 43.65625 24.015625 45.921875 
Q 28.375 48.1875 33.59375 48.1875 
Q 44.578125 48.1875 50.953125 41.515625 
Q 57.328125 34.859375 57.328125 23.390625 
Q 57.328125 12.15625 50.6875 5.359375 
Q 44.046875 -1.421875 33.015625 -1.421875 
Q 20.359375 -1.421875 13.671875 8.265625 
Q 6.984375 17.96875 6.984375 36.375 
Q 6.984375 53.65625 15.1875 63.9375 
Q 23.390625 74.21875 37.203125 74.21875 
Q 40.921875 74.21875 44.703125 73.484375 
Q 48.484375 72.75 52.59375 71.296875 
z
" id="DejaVuSans-36"/>
     <path d="M 40.578125 39.3125 
Q 47.65625 37.796875 51.625 33 
Q 55.609375 28.21875 55.609375 21.1875 
Q 55.609375 10.40625 48.1875 4.484375 
Q 40.765625 -1.421875 27.09375 -1.421875 
Q 22.515625 -1.421875 17.65625 -0.515625 
Q 12.796875 0.390625 7.625 2.203125 
L 7.625 11.71875 
Q 11.71875 9.328125 16.59375 8.109375 
Q 21.484375 6.890625 26.8125 6.890625 
Q 36.078125 6.890625 40.9375 10.546875 
Q 45.796875 14.203125 45.796875 21.1875 
Q 45.796875 27.640625 41.28125 31.265625 
Q 36.765625 34.90625 28.71875 34.90625 
L 20.21875 34.90625 
L 20.21875 43.015625 
L 29.109375 43.015625 
Q 36.375 43.015625 40.234375 45.921875 
Q 44.09375 48.828125 44.09375 54.296875 
Q 44.09375 59.90625 40.109375 62.90625 
Q 36.140625 65.921875 28.71875 65.921875 
Q 24.65625 65.921875 20.015625 65.03125 
Q 15.375 64.15625 9.8125 62.3125 
L 9.8125 71.09375 
Q 15.4375 72.65625 20.34375 73.4375 
Q 25.25 74.21875 29.59375 74.21875 
Q 40.828125 74.21875 47.359375 69.109375 
Q 53.90625 64.015625 53.90625 55.328125 
Q 53.90625 49.265625 50.4375 45.09375 
Q 46.96875 40.921875 40.578125 39.3125 
z
" id="DejaVuSans-33"/>
     <path d="M 11.71875 12.40625 
L 22.015625 12.40625 
L 22.015625 4 
L 14.015625 -11.625 
L 7.71875 -11.625 
L 11.71875 4 
z
" id="DejaVuSans-2c"/>
     <path d="M 16.890625 72.90625 
L 62.984375 72.90625 
L 61.375 64.59375 
L 25.09375 64.59375 
L 20.90625 43.015625 
L 55.71875 43.015625 
L 54.109375 34.71875 
L 19.28125 34.71875 
L 14.203125 8.296875 
L 51.3125 8.296875 
L 49.703125 0 
L 2.6875 0 
z
" id="DejaVuSans-Oblique-45"/>
     <path d="M 16.890625 72.90625 
L 30.171875 72.90625 
L 50.296875 10.40625 
L 62.5 72.90625 
L 72.125 72.90625 
L 57.90625 0 
L 44.578125 0 
L 24.515625 62.890625 
L 12.3125 0 
L 2.6875 0 
z
" id="DejaVuSans-Oblique-4e"/>
     <path d="M 10.59375 45.40625 
L 73.1875 45.40625 
L 73.1875 37.203125 
L 10.59375 37.203125 
z
M 10.59375 25.484375 
L 73.1875 25.484375 
L 73.1875 17.1875 
L 10.59375 17.1875 
z
" id="DejaVuSans-3d"/>
     <path d="M 4.890625 31.390625 
L 31.203125 31.390625 
L 31.203125 23.390625 
L 4.890625 23.390625 
z
" id="DejaVuSans-2d"/>
     <path d="M 31.78125 34.625 
Q 24.75 34.625 20.71875 30.859375 
Q 16.703125 27.09375 16.703125 20.515625 
Q 16.703125 13.921875 20.71875 10.15625 
Q 24.75 6.390625 31.78125 6.390625 
Q 38.8125 6.390625 42.859375 10.171875 
Q 46.921875 13.96875 46.921875 20.515625 
Q 46.921875 27.09375 42.890625 30.859375 
Q 38.875 34.625 31.78125 34.625 
z
M 21.921875 38.8125 
Q 15.578125 40.375 12.03125 44.71875 
Q 8.5 49.078125 8.5 55.328125 
Q 8.5 64.0625 14.71875 69.140625 
Q 20.953125 74.21875 31.78125 74.21875 
Q 42.671875 74.21875 48.875 69.140625 
Q 55.078125 64.0625 55.078125 55.328125 
Q 55.078125 49.078125 51.53125 44.71875 
Q 48 40.375 41.703125 38.8125 
Q 48.828125 37.15625 52.796875 32.3125 
Q 56.78125 27.484375 56.78125 20.515625 
Q 56.78125 9.90625 50.3125 4.234375 
Q 43.84375 -1.421875 31.78125 -1.421875 
Q 19.734375 -1.421875 13.25 4.234375 
Q 6.78125 9.90625 6.78125 20.515625 
Q 6.78125 27.484375 10.78125 32.3125 
Q 14.796875 37.15625 21.921875 38.8125 
z
M 18.3125 54.390625 
Q 18.3125 48.734375 21.84375 45.5625 
Q 25.390625 42.390625 31.78125 42.390625 
Q 38.140625 42.390625 41.71875 45.5625 
Q 45.3125 48.734375 45.3125 54.390625 
Q 45.3125 60.0625 41.71875 63.234375 
Q 38.140625 66.40625 31.78125 66.40625 
Q 25.390625 66.40625 21.84375 63.234375 
Q 18.3125 60.0625 18.3125 54.390625 
z
" id="DejaVuSans-38"/>
     <path d="M 37.796875 64.3125 
L 12.890625 25.390625 
L 37.796875 25.390625 
z
M 35.203125 72.90625 
L 47.609375 72.90625 
L 47.609375 25.390625 
L 58.015625 25.390625 
L 58.015625 17.1875 
L 47.609375 17.1875 
L 47.609375 0 
L 37.796875 0 
L 37.796875 17.1875 
L 4.890625 17.1875 
L 4.890625 26.703125 
z
" id="DejaVuSans-34"/>
     <path d="M 10.6875 12.40625 
L 21 12.40625 
L 21 0 
L 10.6875 0 
z
" id="DejaVuSans-2e"/>
     <path d="M 28.609375 0 
L 0.78125 72.90625 
L 11.078125 72.90625 
L 34.1875 11.53125 
L 57.328125 72.90625 
L 67.578125 72.90625 
L 39.796875 0 
z
" id="DejaVuSans-56"/>
     <path d="M 34.1875 63.1875 
L 14.15625 8.203125 
L 54.25 8.203125 
z
M 0.78125 0 
L 28.609375 72.90625 
L 39.796875 72.90625 
L 67.578125 0 
z
" id="DejaVuSans-394"/>
     <path d="M 9.8125 72.90625 
L 55.90625 72.90625 
L 55.90625 64.59375 
L 19.671875 64.59375 
L 19.671875 43.015625 
L 54.390625 43.015625 
L 54.390625 34.71875 
L 19.671875 34.71875 
L 19.671875 8.296875 
L 56.78125 8.296875 
L 56.78125 0 
L 9.8125 0 
z
" id="DejaVuSans-45"/>
    </defs>
    <g transform="translate(61.548 35.472)scale(0.12 -0.12)">
     <use transform="translate(0 0.78125)" xlink:href="#DejaVuSans-53"/>
     <use transform="translate(63.476562 0.78125)" xlink:href="#DejaVuSans-74"/>
     <use transform="translate(102.685547 0.78125)" xlink:href="#DejaVuSans-72"/>
     <use transform="translate(143.798828 0.78125)" xlink:href="#DejaVuSans-75"/>
     <use transform="translate(207.177734 0.78125)" xlink:href="#DejaVuSans-63"/>
     <use transform="translate(262.158203 0.78125)" xlink:href="#DejaVuSans-74"/>
     <use transform="translate(301.367188 0.78125)" xlink:href="#DejaVuSans-75"/>
     <use transform="translate(364.746094 0.78125)" xlink:href="#DejaVuSans-72"/>
     <use transform="translate(405.859375 0.78125)" xlink:href="#DejaVuSans-65"/>
     <use transform="translate(467.382812 0.78125)" xlink:href="#DejaVuSans-20"/>
     <use transform="translate(499.169922 0.78125)" xlink:href="#DejaVuSans-23"/>
     <use transform="translate(582.958984 0.78125)" xlink:href="#DejaVuSans-31"/>
     <use transform="translate(646.582031 0.78125)" xlink:href="#DejaVuSans-30"/>
     <use transform="translate(710.205078 0.78125)" xlink:href="#DejaVuSans-36"/>
     <use transform="translate(773.828125 0.78125)" xlink:href="#DejaVuSans-36"/>
     <use transform="translate(837.451172 0.78125)" xlink:href="#DejaVuSans-33"/>
     <use transform="translate(901.074219 0.78125)" xlink:href="#DejaVuSans-2c"/>
     <use transform="translate(932.861328 0.78125)" xlink:href="#DejaVuSans-20"/>
     <use transform="translate(964.648438 0.78125)" xlink:href="#DejaVuSans-Oblique-45"/>
     <use transform="translate(1027.832031 -15.625)scale(0.7)" xlink:href="#DejaVuSans-Oblique-4e"/>
     <use transform="translate(1082.929688 0.78125)" xlink:href="#DejaVuSans-3d"/>
     <use transform="translate(1166.71875 0.78125)" xlink:href="#DejaVuSans-2d"/>
     <use transform="translate(1202.802734 0.78125)" xlink:href="#DejaVuSans-31"/>
     <use transform="translate(1266.425781 0.78125)" xlink:href="#DejaVuSans-38"/>
     <use transform="translate(1330.048828 0.78125)" xlink:href="#DejaVuSans-34"/>
     <use transform="translate(1393.671875 0.78125)" xlink:href="#DejaVuSans-2e"/>
     <use transform="translate(1425.458984 0.78125)" xlink:href="#DejaVuSans-30"/>
     <use transform="translate(1489.082031 0.78125)" xlink:href="#DejaVuSans-31"/>
     <use transform="translate(1552.705078 0.78125)" xlink:href="#DejaVuSans-65"/>
     <use transform="translate(1614.228516 0.78125)" xlink:href="#DejaVuSans-56"/>
     <use transform="translate(1682.636719 0.78125)" xlink:href="#DejaVuSans-2c"/>
     <use transform="translate(1714.423828 0.78125)" xlink:href="#DejaVuSans-20"/>
     <use transform="translate(1746.210938 0.78125)" xlink:href="#DejaVuSans-394"/>
     <use transform="translate(1814.619141 0.78125)" xlink:href="#DejaVuSans-45"/>
     <use transform="translate(1877.802734 0.78125)" xlink:href="#DejaVuSans-3d"/>
     <use transform="translate(1961.591797 0.78125)" xlink:href="#DejaVuSans-30"/>
     <use transform="translate(2025.214844 0.78125)" xlink:href="#DejaVuSans-2e"/>
     <use transform="translate(2057.001953 0.78125)" xlink:href="#DejaVuSans-34"/>
     <use transform="translate(2120.625 0.78125)" xlink:href="#DejaVuSans-36"/>
     <use transform="translate(2184.248047 0.78125)" xlink:href="#DejaVuSans-65"/>
     <use transform="translate(2245.771484 0.78125)" xlink:href="#DejaVuSans-56"/>
    </g>
   </g>
  </g>
  <g id="axes_2">
   <g id="patch_2">
    <path clip-path="url(#pa24b6b07f0)" d="M 361.152 307.584 
L 361.152 306.5445 
L 361.152 42.5115 
L 361.152 41.472 
L 374.4576 41.472 
L 374.4576 42.5115 
L 374.4576 306.5445 
L 374.4576 307.584 
z
" style="fill:#ffffff;stroke:#ffffff;stroke-linejoin:miter;stroke-width:0.01;"/>
   </g>
   <image height="265.68" id="imageb45c262b56" transform="scale(1 -1)translate(0 -265.68)" width="12.96" x="361.44" xlink:href="data:image/png;base64,
iVBORw0KGgoAAAANSUhEUgAAABIAAAFxCAYAAAB+2fgXAAAABHNCSVQICAgIfAhkiAAAAeVJREFUeJztncmNw0AQA2ckheYQNv9QLIfQ8ygsCgQ7AEI8+jAs2Puz/94F1LP2ReCsZ18bAWIeZ5XaGRBE7VnbptG+KI101FYyNSiQG2oRITXKNaX9uclOdi2XWjftVE32CZCO2ou5Bj1TcCBr/1zB9ge7Fq0Rg2NM9pvbtG+ua1QgsRYhDy0ISEiNc40BEibbSI0Coj5CBGtkpFbXJiAjNZlrwhuSOv2M1DjXbEdEciBt1JSDDQKKpmZr2rr2j0DBGpXaWEJq3bQzEPIS26r9J+Wzv9Tm8o3aajRXqc3VUXsApKNWjeZq0x4ABVNbm7lrszVigDqP5vIl2+eaT2yfRkL7g+dRcNPqjohkjaCvRVBq0H2U3LQrOJCx9kdTg4B8oxZzzTdqdYHEngjUCAPyUctN9sVRq2sTECW2UKNLd2jVtRmo1A6AhMmWaSRcR8nUdIHUuVb75zJS218EyEitro1At69pIdeSk30Lkw0FktNImGyZRhy1O5galmxd03LUsHWk06jUZiCq+5Wb1kZNN4+wJxJuWt8RAW5am2sYNZ9rYCBzZ3buPKJ2P5Yj4Toy3keyIyJbIxs1rml1byCA84gpch5RQNB7Q0qNMGq2Hy4BXdNR41yz/cEEJfZzUz96r9PoB0okjeQ8y9TkAAAAAElFTkSuQmCC" y="-41.76"/>
   <g id="matplotlib.axis_1"/>
   <g id="matplotlib.axis_2">
    <g id="ytick_1">
     <g id="line2d_1">
      <defs>
       <path d="M 0 0 
L 3.5 0 
" id="md3687caeaf" style="stroke:#000000;stroke-width:0.8;"/>
      </defs>
      <g>
       <use style="stroke:#000000;stroke-width:0.8;" x="374.4576" xlink:href="#md3687caeaf" y="298.707485"/>
      </g>
     </g>
     <g id="text_2">
      <!-- −8.5 -->
      <defs>
       <path d="M 10.59375 35.5 
L 73.1875 35.5 
L 73.1875 27.203125 
L 10.59375 27.203125 
z
" id="DejaVuSans-2212"/>
       <path d="M 10.796875 72.90625 
L 49.515625 72.90625 
L 49.515625 64.59375 
L 19.828125 64.59375 
L 19.828125 46.734375 
Q 21.96875 47.46875 24.109375 47.828125 
Q 26.265625 48.1875 28.421875 48.1875 
Q 40.625 48.1875 47.75 41.5 
Q 54.890625 34.8125 54.890625 23.390625 
Q 54.890625 11.625 47.5625 5.09375 
Q 40.234375 -1.421875 26.90625 -1.421875 
Q 22.3125 -1.421875 17.546875 -0.640625 
Q 12.796875 0.140625 7.71875 1.703125 
L 7.71875 11.625 
Q 12.109375 9.234375 16.796875 8.0625 
Q 21.484375 6.890625 26.703125 6.890625 
Q 35.15625 6.890625 40.078125 11.328125 
Q 45.015625 15.765625 45.015625 23.390625 
Q 45.015625 31 40.078125 35.4375 
Q 35.15625 39.890625 26.703125 39.890625 
Q 22.75 39.890625 18.8125 39.015625 
Q 14.890625 38.140625 10.796875 36.28125 
z
" id="DejaVuSans-35"/>
      </defs>
      <g transform="translate(381.4576 302.506704)scale(0.1 -0.1)">
       <use xlink:href="#DejaVuSans-2212"/>
       <use x="83.789062" xlink:href="#DejaVuSans-38"/>
       <use x="147.412109" xlink:href="#DejaVuSans-2e"/>
       <use x="179.199219" xlink:href="#DejaVuSans-35"/>
      </g>
     </g>
    </g>
    <g id="ytick_2">
     <g id="line2d_2">
      <g>
       <use style="stroke:#000000;stroke-width:0.8;" x="374.4576" xlink:href="#md3687caeaf" y="253.112792"/>
      </g>
     </g>
     <g id="text_3">
      <!-- −8.0 -->
      <g transform="translate(381.4576 256.91201)scale(0.1 -0.1)">
       <use xlink:href="#DejaVuSans-2212"/>
       <use x="83.789062" xlink:href="#DejaVuSans-38"/>
       <use x="147.412109" xlink:href="#DejaVuSans-2e"/>
       <use x="179.199219" xlink:href="#DejaVuSans-30"/>
      </g>
     </g>
    </g>
    <g id="ytick_3">
     <g id="line2d_3">
      <g>
       <use style="stroke:#000000;stroke-width:0.8;" x="374.4576" xlink:href="#md3687caeaf" y="207.518098"/>
      </g>
     </g>
     <g id="text_4">
      <!-- −7.5 -->
      <defs>
       <path d="M 8.203125 72.90625 
L 55.078125 72.90625 
L 55.078125 68.703125 
L 28.609375 0 
L 18.3125 0 
L 43.21875 64.59375 
L 8.203125 64.59375 
z
" id="DejaVuSans-37"/>
      </defs>
      <g transform="translate(381.4576 211.317317)scale(0.1 -0.1)">
       <use xlink:href="#DejaVuSans-2212"/>
       <use x="83.789062" xlink:href="#DejaVuSans-37"/>
       <use x="147.412109" xlink:href="#DejaVuSans-2e"/>
       <use x="179.199219" xlink:href="#DejaVuSans-35"/>
      </g>
     </g>
    </g>
    <g id="ytick_4">
     <g id="line2d_4">
      <g>
       <use style="stroke:#000000;stroke-width:0.8;" x="374.4576" xlink:href="#md3687caeaf" y="161.923405"/>
      </g>
     </g>
     <g id="text_5">
      <!-- −7.0 -->
      <g transform="translate(381.4576 165.722624)scale(0.1 -0.1)">
       <use xlink:href="#DejaVuSans-2212"/>
       <use x="83.789062" xlink:href="#DejaVuSans-37"/>
       <use x="147.412109" xlink:href="#DejaVuSans-2e"/>
       <use x="179.199219" xlink:href="#DejaVuSans-30"/>
      </g>
     </g>
    </g>
    <g id="ytick_5">
     <g id="line2d_5">
      <g>
       <use style="stroke:#000000;stroke-width:0.8;" x="374.4576" xlink:href="#md3687caeaf" y="116.328712"/>
      </g>
     </g>
     <g id="text_6">
      <!-- −6.5 -->
      <g transform="translate(381.4576 120.127931)scale(0.1 -0.1)">
       <use xlink:href="#DejaVuSans-2212"/>
       <use x="83.789062" xlink:href="#DejaVuSans-36"/>
       <use x="147.412109" xlink:href="#DejaVuSans-2e"/>
       <use x="179.199219" xlink:href="#DejaVuSans-35"/>
      </g>
     </g>
    </g>
    <g id="ytick_6">
     <g id="line2d_6">
      <g>
       <use style="stroke:#000000;stroke-width:0.8;" x="374.4576" xlink:href="#md3687caeaf" y="70.734019"/>
      </g>
     </g>
     <g id="text_7">
      <!-- −6.0 -->
      <g transform="translate(381.4576 74.533237)scale(0.1 -0.1)">
       <use xlink:href="#DejaVuSans-2212"/>
       <use x="83.789062" xlink:href="#DejaVuSans-36"/>
       <use x="147.412109" xlink:href="#DejaVuSans-2e"/>
       <use x="179.199219" xlink:href="#DejaVuSans-30"/>
      </g>
     </g>
    </g>
    <g id="text_8">
     <!-- Energy [eV] -->
     <defs>
      <path d="M 54.890625 33.015625 
L 54.890625 0 
L 45.90625 0 
L 45.90625 32.71875 
Q 45.90625 40.484375 42.875 44.328125 
Q 39.84375 48.1875 33.796875 48.1875 
Q 26.515625 48.1875 22.3125 43.546875 
Q 18.109375 38.921875 18.109375 30.90625 
L 18.109375 0 
L 9.078125 0 
L 9.078125 54.6875 
L 18.109375 54.6875 
L 18.109375 46.1875 
Q 21.34375 51.125 25.703125 53.5625 
Q 30.078125 56 35.796875 56 
Q 45.21875 56 50.046875 50.171875 
Q 54.890625 44.34375 54.890625 33.015625 
z
" id="DejaVuSans-6e"/>
      <path d="M 45.40625 27.984375 
Q 45.40625 37.75 41.375 43.109375 
Q 37.359375 48.484375 30.078125 48.484375 
Q 22.859375 48.484375 18.828125 43.109375 
Q 14.796875 37.75 14.796875 27.984375 
Q 14.796875 18.265625 18.828125 12.890625 
Q 22.859375 7.515625 30.078125 7.515625 
Q 37.359375 7.515625 41.375 12.890625 
Q 45.40625 18.265625 45.40625 27.984375 
z
M 54.390625 6.78125 
Q 54.390625 -7.171875 48.1875 -13.984375 
Q 42 -20.796875 29.203125 -20.796875 
Q 24.46875 -20.796875 20.265625 -20.09375 
Q 16.0625 -19.390625 12.109375 -17.921875 
L 12.109375 -9.1875 
Q 16.0625 -11.328125 19.921875 -12.34375 
Q 23.78125 -13.375 27.78125 -13.375 
Q 36.625 -13.375 41.015625 -8.765625 
Q 45.40625 -4.15625 45.40625 5.171875 
L 45.40625 9.625 
Q 42.625 4.78125 38.28125 2.390625 
Q 33.9375 0 27.875 0 
Q 17.828125 0 11.671875 7.65625 
Q 5.515625 15.328125 5.515625 27.984375 
Q 5.515625 40.671875 11.671875 48.328125 
Q 17.828125 56 27.875 56 
Q 33.9375 56 38.28125 53.609375 
Q 42.625 51.21875 45.40625 46.390625 
L 45.40625 54.6875 
L 54.390625 54.6875 
z
" id="DejaVuSans-67"/>
      <path d="M 32.171875 -5.078125 
Q 28.375 -14.84375 24.75 -17.8125 
Q 21.140625 -20.796875 15.09375 -20.796875 
L 7.90625 -20.796875 
L 7.90625 -13.28125 
L 13.1875 -13.28125 
Q 16.890625 -13.28125 18.9375 -11.515625 
Q 21 -9.765625 23.484375 -3.21875 
L 25.09375 0.875 
L 2.984375 54.6875 
L 12.5 54.6875 
L 29.59375 11.921875 
L 46.6875 54.6875 
L 56.203125 54.6875 
z
" id="DejaVuSans-79"/>
      <path d="M 8.59375 75.984375 
L 29.296875 75.984375 
L 29.296875 69 
L 17.578125 69 
L 17.578125 -6.203125 
L 29.296875 -6.203125 
L 29.296875 -13.1875 
L 8.59375 -13.1875 
z
" id="DejaVuSans-5b"/>
      <path d="M 30.421875 75.984375 
L 30.421875 -13.1875 
L 9.71875 -13.1875 
L 9.71875 -6.203125 
L 21.390625 -6.203125 
L 21.390625 69 
L 9.71875 69 
L 9.71875 75.984375 
z
" id="DejaVuSans-5d"/>
     </defs>
     <g transform="translate(417.33885 204.108469)rotate(-90)scale(0.1 -0.1)">
      <use xlink:href="#DejaVuSans-45"/>
      <use x="63.183594" xlink:href="#DejaVuSans-6e"/>
      <use x="126.5625" xlink:href="#DejaVuSans-65"/>
      <use x="188.085938" xlink:href="#DejaVuSans-72"/>
      <use x="229.183594" xlink:href="#DejaVuSans-67"/>
      <use x="292.660156" xlink:href="#DejaVuSans-79"/>
      <use x="351.839844" xlink:href="#DejaVuSans-20"/>
      <use x="383.626953" xlink:href="#DejaVuSans-5b"/>
      <use x="422.640625" xlink:href="#DejaVuSans-65"/>
      <use x="484.164062" xlink:href="#DejaVuSans-56"/>
      <use x="552.572266" xlink:href="#DejaVuSans-5d"/>
     </g>
    </g>
   </g>
   <g id="patch_3">
    <path d="M 361.152 307.584 
L 361.152 306.5445 
L 361.152 42.5115 
L 361.152 41.472 
L 374.4576 41.472 
L 374.4576 42.5115 
L 374.4576 306.5445 
L 374.4576 307.584 
z
" style="fill:none;stroke:#000000;stroke-linejoin:miter;stroke-width:0.8;"/>
   </g>
  </g>
 </g>
 <defs>
  <clipPath id="p7300fbd0af">
   <rect height="266.112" width="285.696" x="57.6" y="41.472"/>
  </clipPath>
  <clipPath id="pa24b6b07f0">
   <rect height="266.112" width="13.3056" x="361.152" y="41.472"/>
  </clipPath>
 </defs>
</svg>
