<?xml version="1.0" encoding="utf-8" standalone="no"?>
<!DOCTYPE svg PUBLIC "-//W3C//DTD SVG 1.1//EN"
  "http://www.w3.org/Graphics/SVG/1.1/DTD/svg11.dtd">
<!-- Created with matplotlib (http://matplotlib.org/) -->
<svg height="345.6pt" version="1.1" viewBox="0 0 460.8 345.6" width="460.8pt" xmlns="http://www.w3.org/2000/svg" xmlns:xlink="http://www.w3.org/1999/xlink">
 <defs>
  <style type="text/css">
*{stroke-linecap:butt;stroke-linejoin:round;}
  </style>
 </defs>
 <g id="figure_1">
  <g id="patch_1">
   <path d="M 0 345.6 
L 460.8 345.6 
L 460.8 0 
L 0 0 
z
" style="fill:#ffffff;"/>
  </g>
  <g id="axes_1">
   <g id="CircleCollection_1">
    <path clip-path="url(#p563d139b59)" d="M 84.621208 248.746993 
C 86.550717 248.746993 88.401458 247.980391 89.765827 246.616022 
C 91.130197 245.251652 91.896799 243.400911 91.896799 241.471402 
C 91.896799 239.541892 91.130197 237.691151 89.765827 236.326782 
C 88.401458 234.962413 86.550717 234.195811 84.621208 234.195811 
C 82.691698 234.195811 80.840957 234.962413 79.476588 236.326782 
C 78.112219 237.691151 77.345617 239.541892 77.345617 241.471402 
C 77.345617 243.400911 78.112219 245.251652 79.476588 246.616022 
C 80.840957 247.980391 82.691698 248.746993 84.621208 248.746993 
z
" style="fill:#46337f;"/>
    <path clip-path="url(#p563d139b59)" d="M 329.659645 232.050843 
C 331.687459 232.050843 333.632493 231.245184 335.066375 229.811302 
C 336.500256 228.377421 337.305916 226.432387 337.305916 224.404572 
C 337.305916 222.376758 336.500256 220.431724 335.066375 218.997842 
C 333.632493 217.563961 331.687459 216.758301 329.659645 216.758301 
C 327.63183 216.758301 325.686796 217.563961 324.252915 218.997842 
C 322.819033 220.431724 322.013374 222.376758 322.013374 224.404572 
C 322.013374 226.432387 322.819033 228.377421 324.252915 229.811302 
C 325.686796 231.245184 327.63183 232.050843 329.659645 232.050843 
z
" style="fill:#443983;"/>
    <path clip-path="url(#p563d139b59)" d="M 222.154361 297.524162 
C 224.241547 297.524162 226.243528 296.694914 227.719391 295.219051 
C 229.195255 293.743188 230.024502 291.741207 230.024502 289.654021 
C 230.024502 287.566835 229.195255 285.564854 227.719391 284.08899 
C 226.243528 282.613127 224.241547 281.783879 222.154361 281.783879 
C 220.067175 281.783879 218.065194 282.613127 216.589331 284.08899 
C 215.113468 285.564854 214.28422 287.566835 214.28422 289.654021 
C 214.28422 291.741207 215.113468 293.743188 216.589331 295.219051 
C 218.065194 296.694914 220.067175 297.524162 222.154361 297.524162 
z
" style="fill:#424086;"/>
    <path clip-path="url(#p563d139b59)" d="M 86.589011 196.212574 
C 88.41263 196.212574 90.161804 195.488043 91.451297 194.198549 
C 92.740791 192.909056 93.465322 191.159882 93.465322 189.336263 
C 93.465322 187.512644 92.740791 185.76347 91.451297 184.473976 
C 90.161804 183.184483 88.41263 182.459951 86.589011 182.459951 
C 84.765391 182.459951 83.016218 183.184483 81.726724 184.473976 
C 80.437231 185.76347 79.712699 187.512644 79.712699 189.336263 
C 79.712699 191.159882 80.437231 192.909056 81.726724 194.198549 
C 83.016218 195.488043 84.765391 196.212574 86.589011 196.212574 
z
" style="fill:#443a83;"/>
    <path clip-path="url(#p563d139b59)" d="M 329.184891 204.365637 
C 331.162686 204.365637 333.059743 203.57985 334.458255 202.181338 
C 335.856768 200.782825 336.642554 198.885769 336.642554 196.907973 
C 336.642554 194.930178 335.856768 193.033121 334.458255 191.634609 
C 333.059743 190.236096 331.162686 189.450309 329.184891 189.450309 
C 327.207095 189.450309 325.310039 190.236096 323.911526 191.634609 
C 322.513014 193.033121 321.727227 194.930178 321.727227 196.907973 
C 321.727227 198.885769 322.513014 200.782825 323.911526 202.181338 
C 325.310039 203.57985 327.207095 204.365637 329.184891 204.365637 
z
" style="fill:#46337f;"/>
    <path clip-path="url(#p563d139b59)" d="M 307.987766 258.96358 
C 310.051517 258.96358 312.03102 258.143643 313.490313 256.68435 
C 314.949605 255.225058 315.769542 253.245555 315.769542 251.181804 
C 315.769542 249.118053 314.949605 247.138549 313.490313 245.679257 
C 312.03102 244.219964 310.051517 243.400027 307.987766 243.400027 
C 305.924015 243.400027 303.944512 244.219964 302.485219 245.679257 
C 301.025927 247.138549 300.20599 249.118053 300.20599 251.181804 
C 300.20599 253.245555 301.025927 255.225058 302.485219 256.68435 
C 303.944512 258.143643 305.924015 258.96358 307.987766 258.96358 
z
" style="fill:#433d84;"/>
    <path clip-path="url(#p563d139b59)" d="M 169.241733 80.696146 
C 170.815948 80.696146 172.3259 80.070704 173.439038 78.957566 
C 174.552176 77.844427 175.177619 76.334476 175.177619 74.760261 
C 175.177619 73.186046 174.552176 71.676094 173.439038 70.562956 
C 172.3259 69.449818 170.815948 68.824375 169.241733 68.824375 
C 167.667518 68.824375 166.157566 69.449818 165.044428 70.562956 
C 163.93129 71.676094 163.305847 73.186046 163.305847 74.760261 
C 163.305847 76.334476 163.93129 77.844427 165.044428 78.957566 
C 166.157566 80.070704 167.667518 80.696146 169.241733 80.696146 
z
" style="fill:#424186;"/>
    <path clip-path="url(#p563d139b59)" d="M 124.191611 59.254246 
C 125.594263 59.254246 126.939654 58.696967 127.931478 57.705143 
C 128.923303 56.713318 129.480582 55.367927 129.480582 53.965276 
C 129.480582 52.562624 128.923303 51.217233 127.931478 50.225409 
C 126.939654 49.233584 125.594263 48.676305 124.191611 48.676305 
C 122.78896 48.676305 121.443569 49.233584 120.451744 50.225409 
C 119.45992 51.217233 118.902641 52.562624 118.902641 53.965276 
C 118.902641 55.367927 119.45992 56.713318 120.451744 57.705143 
C 121.443569 58.696967 122.78896 59.254246 124.191611 59.254246 
z
" style="fill:#fde725;"/>
    <path clip-path="url(#p563d139b59)" d="M 293.536309 158.63635 
C 295.408041 158.63635 297.203364 157.892703 298.526879 156.569188 
C 299.850393 155.245674 300.594041 153.450351 300.594041 151.578618 
C 300.594041 149.706886 299.850393 147.911563 298.526879 146.588048 
C 297.203364 145.264533 295.408041 144.520886 293.536309 144.520886 
C 291.664576 144.520886 289.869253 145.264533 288.545738 146.588048 
C 287.222224 147.911563 286.478576 149.706886 286.478576 151.578618 
C 286.478576 153.450351 287.222224 155.245674 288.545738 156.569188 
C 289.869253 157.892703 291.664576 158.63635 293.536309 158.63635 
z
" style="fill:#482979;"/>
    <path clip-path="url(#p563d139b59)" d="M 147.420564 70.194708 
C 148.911254 70.194708 150.341089 69.602451 151.395166 68.548374 
C 152.449242 67.494298 153.0415 66.064462 153.0415 64.573773 
C 153.0415 63.083083 152.449242 61.653248 151.395166 60.599171 
C 150.341089 59.545095 148.911254 58.952837 147.420564 58.952837 
C 145.929875 58.952837 144.500039 59.545095 143.445963 60.599171 
C 142.391886 61.653248 141.799629 63.083083 141.799629 64.573773 
C 141.799629 66.064462 142.391886 67.494298 143.445963 68.548374 
C 144.500039 69.602451 145.929875 70.194708 147.420564 70.194708 
z
" style="fill:#472c7a;"/>
    <path clip-path="url(#p563d139b59)" d="M 272.092636 284.209168 
C 274.182531 284.209168 276.187111 283.378843 277.664891 281.901064 
C 279.14267 280.423285 279.972994 278.418705 279.972994 276.32881 
C 279.972994 274.238914 279.14267 272.234334 277.664891 270.756555 
C 276.187111 269.278776 274.182531 268.448452 272.092636 268.448452 
C 270.002741 268.448452 267.998161 269.278776 266.520382 270.756555 
C 265.042602 272.234334 264.212278 274.238914 264.212278 276.32881 
C 264.212278 278.418705 265.042602 280.423285 266.520382 281.901064 
C 267.998161 283.378843 270.002741 284.209168 272.092636 284.209168 
z
" style="fill:#423f85;"/>
    <path clip-path="url(#p563d139b59)" d="M 168.252396 302.707419 
C 170.322502 302.707419 172.3081 301.884957 173.771886 300.421171 
C 175.235672 298.957385 176.058134 296.971786 176.058134 294.90168 
C 176.058134 292.831574 175.235672 290.845975 173.771886 289.382189 
C 172.3081 287.918403 170.322502 287.095941 168.252396 287.095941 
C 166.18229 287.095941 164.196691 287.918403 162.732905 289.382189 
C 161.269119 290.845975 160.446657 292.831574 160.446657 294.90168 
C 160.446657 296.971786 161.269119 298.957385 162.732905 300.421171 
C 164.196691 301.884957 166.18229 302.707419 168.252396 302.707419 
z
" style="fill:#433e85;"/>
    <path clip-path="url(#p563d139b59)" d="M 95.440887 273.042349 
C 97.422058 273.042349 99.322352 272.255221 100.723252 270.854322 
C 102.124151 269.453422 102.911279 267.553128 102.911279 265.571957 
C 102.911279 263.590786 102.124151 261.690492 100.723252 260.289592 
C 99.322352 258.888693 97.422058 258.101565 95.440887 258.101565 
C 93.459716 258.101565 91.559422 258.888693 90.158522 260.289592 
C 88.757623 261.690492 87.970495 263.590786 87.970495 265.571957 
C 87.970495 267.553128 88.757623 269.453422 90.158522 270.854322 
C 91.559422 272.255221 93.459716 273.042349 95.440887 273.042349 
z
" style="fill:#463480;"/>
    <path clip-path="url(#p563d139b59)" d="M 71.130972 143.344167 
C 72.830108 143.344167 74.459881 142.669093 75.661351 141.467622 
C 76.862822 140.266152 77.537896 138.636379 77.537896 136.937243 
C 77.537896 135.238107 76.862822 133.608334 75.661351 132.406863 
C 74.459881 131.205393 72.830108 130.530319 71.130972 130.530319 
C 69.431836 130.530319 67.802063 131.205393 66.600592 132.406863 
C 65.399122 133.608334 64.724048 135.238107 64.724048 136.937243 
C 64.724048 138.636379 65.399122 140.266152 66.600592 141.467622 
C 67.802063 142.669093 69.431836 143.344167 71.130972 143.344167 
z
" style="fill:#29af7f;"/>
    <path clip-path="url(#p563d139b59)" d="M 93.223782 168.170782 
C 94.991471 168.170782 96.686997 167.468472 97.936941 166.218528 
C 99.186886 164.968584 99.889196 163.273057 99.889196 161.505369 
C 99.889196 159.737681 99.186886 158.042155 97.936941 156.79221 
C 96.686997 155.542266 94.991471 154.839956 93.223782 154.839956 
C 91.456094 154.839956 89.760568 155.542266 88.510624 156.79221 
C 87.260679 158.042155 86.558369 159.737681 86.558369 161.505369 
C 86.558369 163.273057 87.260679 164.968584 88.510624 166.218528 
C 89.760568 167.468472 91.456094 168.170782 93.223782 168.170782 
z
" style="fill:#472f7d;"/>
    <path clip-path="url(#p563d139b59)" d="M 128.104111 141.357649 
C 129.832529 141.357649 131.490387 140.670942 132.712563 139.448766 
C 133.934739 138.22659 134.621447 136.568731 134.621447 134.840314 
C 134.621447 133.111896 133.934739 131.454037 132.712563 130.231861 
C 131.490387 129.009686 129.832529 128.322978 128.104111 128.322978 
C 126.375693 128.322978 124.717835 129.009686 123.495659 130.231861 
C 122.273483 131.454037 121.586775 133.111896 121.586775 134.840314 
C 121.586775 136.568731 122.273483 138.22659 123.495659 139.448766 
C 124.717835 140.670942 126.375693 141.357649 128.104111 141.357649 
z
" style="fill:#453882;"/>
    <path clip-path="url(#p563d139b59)" d="M 192.454663 93.772488 
C 194.106305 93.772488 195.690522 93.116284 196.85841 91.948397 
C 198.026297 90.780509 198.682501 89.196292 198.682501 87.544649 
C 198.682501 85.893007 198.026297 84.30879 196.85841 83.140902 
C 195.690522 81.973015 194.106305 81.316811 192.454663 81.316811 
C 190.80302 81.316811 189.218803 81.973015 188.050915 83.140902 
C 186.883028 84.30879 186.226824 85.893007 186.226824 87.544649 
C 186.226824 89.196292 186.883028 90.780509 188.050915 91.948397 
C 189.218803 93.116284 190.80302 93.772488 192.454663 93.772488 
z
" style="fill:#481467;"/>
    <path clip-path="url(#p563d139b59)" d="M 265.479809 140.280181 
C 267.299941 140.280181 269.045771 139.557035 270.332799 138.270007 
C 271.619827 136.982978 272.342974 135.237149 272.342974 133.417016 
C 272.342974 131.596883 271.619827 129.851054 270.332799 128.564026 
C 269.045771 127.276998 267.299941 126.553851 265.479809 126.553851 
C 263.659676 126.553851 261.913846 127.276998 260.626818 128.564026 
C 259.33979 129.851054 258.616644 131.596883 258.616644 133.417016 
C 258.616644 135.237149 259.33979 136.982978 260.626818 138.270007 
C 261.913846 139.557035 263.659676 140.280181 265.479809 140.280181 
z
" style="fill:#404588;"/>
    <path clip-path="url(#p563d139b59)" d="M 182.838371 126.711523 
C 184.549404 126.711523 186.190588 126.031722 187.400472 124.821839 
C 188.610355 123.611956 189.290156 121.970771 189.290156 120.259738 
C 189.290156 118.548705 188.610355 116.907521 187.400472 115.697637 
C 186.190588 114.487754 184.549404 113.807953 182.838371 113.807953 
C 181.127337 113.807953 179.486153 114.487754 178.27627 115.697637 
C 177.066387 116.907521 176.386586 118.548705 176.386586 120.259738 
C 176.386586 121.970771 177.066387 123.611956 178.27627 124.821839 
C 179.486153 126.031722 181.127337 126.711523 182.838371 126.711523 
z
" style="fill:#472a7a;"/>
    <path clip-path="url(#p563d139b59)" d="M 127.630595 291.079308 
C 129.660399 291.079308 131.60734 290.272858 133.042628 288.83757 
C 134.477916 287.402282 135.284365 285.455341 135.284365 283.425537 
C 135.284365 281.395734 134.477916 279.448793 133.042628 278.013505 
C 131.60734 276.578217 129.660399 275.771767 127.630595 275.771767 
C 125.600791 275.771767 123.65385 276.578217 122.218562 278.013505 
C 120.783274 279.448793 119.976825 281.395734 119.976825 283.425537 
C 119.976825 285.455341 120.783274 287.402282 122.218562 288.83757 
C 123.65385 290.272858 125.600791 291.079308 127.630595 291.079308 
z
" style="fill:#443b84;"/>
    <path clip-path="url(#p563d139b59)" d="M 235.104606 121.916341 
C 236.864131 121.916341 238.551827 121.217274 239.795999 119.973102 
C 241.04017 118.728931 241.739237 117.041235 241.739237 115.28171 
C 241.739237 113.522185 241.04017 111.834489 239.795999 110.590318 
C 238.551827 109.346146 236.864131 108.647079 235.104606 108.647079 
C 233.345082 108.647079 231.657386 109.346146 230.413214 110.590318 
C 229.169042 111.834489 228.469975 113.522185 228.469975 115.28171 
C 228.469975 117.041235 229.169042 118.728931 230.413214 119.973102 
C 231.657386 121.217274 233.345082 121.916341 235.104606 121.916341 
z
" style="fill:#440154;"/>
    <path clip-path="url(#p563d139b59)" d="M 317.388666 180.148935 
C 319.315606 180.148935 321.163882 179.383353 322.526434 178.020802 
C 323.888986 176.65825 324.654567 174.809973 324.654567 172.883034 
C 324.654567 170.956094 323.888986 169.107818 322.526434 167.745266 
C 321.163882 166.382714 319.315606 165.617133 317.388666 165.617133 
C 315.461727 165.617133 313.61345 166.382714 312.250898 167.745266 
C 310.888346 169.107818 310.122765 170.956094 310.122765 172.883034 
C 310.122765 174.809973 310.888346 176.65825 312.250898 178.020802 
C 313.61345 179.383353 315.461727 180.148935 317.388666 180.148935 
z
" style="fill:#46337f;"/>
    <path clip-path="url(#p563d139b59)" d="M 228.238422 83.79749 
C 229.967271 83.79749 231.625543 83.110611 232.848023 81.888131 
C 234.070504 80.66565 234.757382 79.007378 234.757382 77.27853 
C 234.757382 75.549681 234.070504 73.891409 232.848023 72.668929 
C 231.625543 71.446448 229.967271 70.759569 228.238422 70.759569 
C 226.509574 70.759569 224.851302 71.446448 223.628821 72.668929 
C 222.406341 73.891409 221.719462 75.549681 221.719462 77.27853 
C 221.719462 79.007378 222.406341 80.66565 223.628821 81.888131 
C 224.851302 83.110611 226.509574 83.79749 228.238422 83.79749 
z
" style="fill:#4ac16d;"/>
    <path clip-path="url(#p563d139b59)" d="M 80.946566 222.422864 
C 82.821414 222.422864 84.619725 221.677979 85.945442 220.352262 
C 87.27116 219.026544 88.016045 217.228233 88.016045 215.353386 
C 88.016045 213.478538 87.27116 211.680227 85.945442 210.35451 
C 84.619725 209.028792 82.821414 208.283908 80.946566 208.283908 
C 79.071719 208.283908 77.273408 209.028792 75.94769 210.35451 
C 74.621973 211.680227 73.877088 213.478538 73.877088 215.353386 
C 73.877088 217.228233 74.621973 219.026544 75.94769 220.352262 
C 77.273408 221.677979 79.071719 222.422864 80.946566 222.422864 
z
" style="fill:#482878;"/>
   </g>
   <g id="text_1">
    <!-- Structure #428, $E_N$=-179.97eV, ΔE=0.15eV -->
    <defs>
     <path d="M 53.515625 70.515625 
L 53.515625 60.890625 
Q 47.90625 63.578125 42.921875 64.890625 
Q 37.9375 66.21875 33.296875 66.21875 
Q 25.25 66.21875 20.875 63.09375 
Q 16.5 59.96875 16.5 54.203125 
Q 16.5 49.359375 19.40625 46.890625 
Q 22.3125 44.4375 30.421875 42.921875 
L 36.375 41.703125 
Q 47.40625 39.59375 52.65625 34.296875 
Q 57.90625 29 57.90625 20.125 
Q 57.90625 9.515625 50.796875 4.046875 
Q 43.703125 -1.421875 29.984375 -1.421875 
Q 24.8125 -1.421875 18.96875 -0.25 
Q 13.140625 0.921875 6.890625 3.21875 
L 6.890625 13.375 
Q 12.890625 10.015625 18.65625 8.296875 
Q 24.421875 6.59375 29.984375 6.59375 
Q 38.421875 6.59375 43.015625 9.90625 
Q 47.609375 13.234375 47.609375 19.390625 
Q 47.609375 24.75 44.3125 27.78125 
Q 41.015625 30.8125 33.5 32.328125 
L 27.484375 33.5 
Q 16.453125 35.6875 11.515625 40.375 
Q 6.59375 45.0625 6.59375 53.421875 
Q 6.59375 63.09375 13.40625 68.65625 
Q 20.21875 74.21875 32.171875 74.21875 
Q 37.3125 74.21875 42.625 73.28125 
Q 47.953125 72.359375 53.515625 70.515625 
z
" id="DejaVuSans-53"/>
     <path d="M 18.3125 70.21875 
L 18.3125 54.6875 
L 36.8125 54.6875 
L 36.8125 47.703125 
L 18.3125 47.703125 
L 18.3125 18.015625 
Q 18.3125 11.328125 20.140625 9.421875 
Q 21.96875 7.515625 27.59375 7.515625 
L 36.8125 7.515625 
L 36.8125 0 
L 27.59375 0 
Q 17.1875 0 13.234375 3.875 
Q 9.28125 7.765625 9.28125 18.015625 
L 9.28125 47.703125 
L 2.6875 47.703125 
L 2.6875 54.6875 
L 9.28125 54.6875 
L 9.28125 70.21875 
z
" id="DejaVuSans-74"/>
     <path d="M 41.109375 46.296875 
Q 39.59375 47.171875 37.8125 47.578125 
Q 36.03125 48 33.890625 48 
Q 26.265625 48 22.1875 43.046875 
Q 18.109375 38.09375 18.109375 28.8125 
L 18.109375 0 
L 9.078125 0 
L 9.078125 54.6875 
L 18.109375 54.6875 
L 18.109375 46.1875 
Q 20.953125 51.171875 25.484375 53.578125 
Q 30.03125 56 36.53125 56 
Q 37.453125 56 38.578125 55.875 
Q 39.703125 55.765625 41.0625 55.515625 
z
" id="DejaVuSans-72"/>
     <path d="M 8.5 21.578125 
L 8.5 54.6875 
L 17.484375 54.6875 
L 17.484375 21.921875 
Q 17.484375 14.15625 20.5 10.265625 
Q 23.53125 6.390625 29.59375 6.390625 
Q 36.859375 6.390625 41.078125 11.03125 
Q 45.3125 15.671875 45.3125 23.6875 
L 45.3125 54.6875 
L 54.296875 54.6875 
L 54.296875 0 
L 45.3125 0 
L 45.3125 8.40625 
Q 42.046875 3.421875 37.71875 1 
Q 33.40625 -1.421875 27.6875 -1.421875 
Q 18.265625 -1.421875 13.375 4.4375 
Q 8.5 10.296875 8.5 21.578125 
z
M 31.109375 56 
z
" id="DejaVuSans-75"/>
     <path d="M 48.78125 52.59375 
L 48.78125 44.1875 
Q 44.96875 46.296875 41.140625 47.34375 
Q 37.3125 48.390625 33.40625 48.390625 
Q 24.65625 48.390625 19.8125 42.84375 
Q 14.984375 37.3125 14.984375 27.296875 
Q 14.984375 17.28125 19.8125 11.734375 
Q 24.65625 6.203125 33.40625 6.203125 
Q 37.3125 6.203125 41.140625 7.25 
Q 44.96875 8.296875 48.78125 10.40625 
L 48.78125 2.09375 
Q 45.015625 0.34375 40.984375 -0.53125 
Q 36.96875 -1.421875 32.421875 -1.421875 
Q 20.0625 -1.421875 12.78125 6.34375 
Q 5.515625 14.109375 5.515625 27.296875 
Q 5.515625 40.671875 12.859375 48.328125 
Q 20.21875 56 33.015625 56 
Q 37.15625 56 41.109375 55.140625 
Q 45.0625 54.296875 48.78125 52.59375 
z
" id="DejaVuSans-63"/>
     <path d="M 56.203125 29.59375 
L 56.203125 25.203125 
L 14.890625 25.203125 
Q 15.484375 15.921875 20.484375 11.0625 
Q 25.484375 6.203125 34.421875 6.203125 
Q 39.59375 6.203125 44.453125 7.46875 
Q 49.3125 8.734375 54.109375 11.28125 
L 54.109375 2.78125 
Q 49.265625 0.734375 44.1875 -0.34375 
Q 39.109375 -1.421875 33.890625 -1.421875 
Q 20.796875 -1.421875 13.15625 6.1875 
Q 5.515625 13.8125 5.515625 26.8125 
Q 5.515625 40.234375 12.765625 48.109375 
Q 20.015625 56 32.328125 56 
Q 43.359375 56 49.78125 48.890625 
Q 56.203125 41.796875 56.203125 29.59375 
z
M 47.21875 32.234375 
Q 47.125 39.59375 43.09375 43.984375 
Q 39.0625 48.390625 32.421875 48.390625 
Q 24.90625 48.390625 20.390625 44.140625 
Q 15.875 39.890625 15.1875 32.171875 
z
" id="DejaVuSans-65"/>
     <path id="DejaVuSans-20"/>
     <path d="M 51.125 44 
L 36.921875 44 
L 32.8125 27.6875 
L 47.125 27.6875 
z
M 43.796875 71.78125 
L 38.71875 51.515625 
L 52.984375 51.515625 
L 58.109375 71.78125 
L 65.921875 71.78125 
L 60.890625 51.515625 
L 76.125 51.515625 
L 76.125 44 
L 58.984375 44 
L 54.984375 27.6875 
L 70.515625 27.6875 
L 70.515625 20.21875 
L 53.078125 20.21875 
L 48 0 
L 40.1875 0 
L 45.21875 20.21875 
L 30.90625 20.21875 
L 25.875 0 
L 18.015625 0 
L 23.09375 20.21875 
L 7.71875 20.21875 
L 7.71875 27.6875 
L 24.90625 27.6875 
L 29 44 
L 13.28125 44 
L 13.28125 51.515625 
L 30.90625 51.515625 
L 35.890625 71.78125 
z
" id="DejaVuSans-23"/>
     <path d="M 37.796875 64.3125 
L 12.890625 25.390625 
L 37.796875 25.390625 
z
M 35.203125 72.90625 
L 47.609375 72.90625 
L 47.609375 25.390625 
L 58.015625 25.390625 
L 58.015625 17.1875 
L 47.609375 17.1875 
L 47.609375 0 
L 37.796875 0 
L 37.796875 17.1875 
L 4.890625 17.1875 
L 4.890625 26.703125 
z
" id="DejaVuSans-34"/>
     <path d="M 19.1875 8.296875 
L 53.609375 8.296875 
L 53.609375 0 
L 7.328125 0 
L 7.328125 8.296875 
Q 12.9375 14.109375 22.625 23.890625 
Q 32.328125 33.6875 34.8125 36.53125 
Q 39.546875 41.84375 41.421875 45.53125 
Q 43.3125 49.21875 43.3125 52.78125 
Q 43.3125 58.59375 39.234375 62.25 
Q 35.15625 65.921875 28.609375 65.921875 
Q 23.96875 65.921875 18.8125 64.3125 
Q 13.671875 62.703125 7.8125 59.421875 
L 7.8125 69.390625 
Q 13.765625 71.78125 18.9375 73 
Q 24.125 74.21875 28.421875 74.21875 
Q 39.75 74.21875 46.484375 68.546875 
Q 53.21875 62.890625 53.21875 53.421875 
Q 53.21875 48.921875 51.53125 44.890625 
Q 49.859375 40.875 45.40625 35.40625 
Q 44.1875 33.984375 37.640625 27.21875 
Q 31.109375 20.453125 19.1875 8.296875 
z
" id="DejaVuSans-32"/>
     <path d="M 31.78125 34.625 
Q 24.75 34.625 20.71875 30.859375 
Q 16.703125 27.09375 16.703125 20.515625 
Q 16.703125 13.921875 20.71875 10.15625 
Q 24.75 6.390625 31.78125 6.390625 
Q 38.8125 6.390625 42.859375 10.171875 
Q 46.921875 13.96875 46.921875 20.515625 
Q 46.921875 27.09375 42.890625 30.859375 
Q 38.875 34.625 31.78125 34.625 
z
M 21.921875 38.8125 
Q 15.578125 40.375 12.03125 44.71875 
Q 8.5 49.078125 8.5 55.328125 
Q 8.5 64.0625 14.71875 69.140625 
Q 20.953125 74.21875 31.78125 74.21875 
Q 42.671875 74.21875 48.875 69.140625 
Q 55.078125 64.0625 55.078125 55.328125 
Q 55.078125 49.078125 51.53125 44.71875 
Q 48 40.375 41.703125 38.8125 
Q 48.828125 37.15625 52.796875 32.3125 
Q 56.78125 27.484375 56.78125 20.515625 
Q 56.78125 9.90625 50.3125 4.234375 
Q 43.84375 -1.421875 31.78125 -1.421875 
Q 19.734375 -1.421875 13.25 4.234375 
Q 6.78125 9.90625 6.78125 20.515625 
Q 6.78125 27.484375 10.78125 32.3125 
Q 14.796875 37.15625 21.921875 38.8125 
z
M 18.3125 54.390625 
Q 18.3125 48.734375 21.84375 45.5625 
Q 25.390625 42.390625 31.78125 42.390625 
Q 38.140625 42.390625 41.71875 45.5625 
Q 45.3125 48.734375 45.3125 54.390625 
Q 45.3125 60.0625 41.71875 63.234375 
Q 38.140625 66.40625 31.78125 66.40625 
Q 25.390625 66.40625 21.84375 63.234375 
Q 18.3125 60.0625 18.3125 54.390625 
z
" id="DejaVuSans-38"/>
     <path d="M 11.71875 12.40625 
L 22.015625 12.40625 
L 22.015625 4 
L 14.015625 -11.625 
L 7.71875 -11.625 
L 11.71875 4 
z
" id="DejaVuSans-2c"/>
     <path d="M 16.890625 72.90625 
L 62.984375 72.90625 
L 61.375 64.59375 
L 25.09375 64.59375 
L 20.90625 43.015625 
L 55.71875 43.015625 
L 54.109375 34.71875 
L 19.28125 34.71875 
L 14.203125 8.296875 
L 51.3125 8.296875 
L 49.703125 0 
L 2.6875 0 
z
" id="DejaVuSans-Oblique-45"/>
     <path d="M 16.890625 72.90625 
L 30.171875 72.90625 
L 50.296875 10.40625 
L 62.5 72.90625 
L 72.125 72.90625 
L 57.90625 0 
L 44.578125 0 
L 24.515625 62.890625 
L 12.3125 0 
L 2.6875 0 
z
" id="DejaVuSans-Oblique-4e"/>
     <path d="M 10.59375 45.40625 
L 73.1875 45.40625 
L 73.1875 37.203125 
L 10.59375 37.203125 
z
M 10.59375 25.484375 
L 73.1875 25.484375 
L 73.1875 17.1875 
L 10.59375 17.1875 
z
" id="DejaVuSans-3d"/>
     <path d="M 4.890625 31.390625 
L 31.203125 31.390625 
L 31.203125 23.390625 
L 4.890625 23.390625 
z
" id="DejaVuSans-2d"/>
     <path d="M 12.40625 8.296875 
L 28.515625 8.296875 
L 28.515625 63.921875 
L 10.984375 60.40625 
L 10.984375 69.390625 
L 28.421875 72.90625 
L 38.28125 72.90625 
L 38.28125 8.296875 
L 54.390625 8.296875 
L 54.390625 0 
L 12.40625 0 
z
" id="DejaVuSans-31"/>
     <path d="M 8.203125 72.90625 
L 55.078125 72.90625 
L 55.078125 68.703125 
L 28.609375 0 
L 18.3125 0 
L 43.21875 64.59375 
L 8.203125 64.59375 
z
" id="DejaVuSans-37"/>
     <path d="M 10.984375 1.515625 
L 10.984375 10.5 
Q 14.703125 8.734375 18.5 7.8125 
Q 22.3125 6.890625 25.984375 6.890625 
Q 35.75 6.890625 40.890625 13.453125 
Q 46.046875 20.015625 46.78125 33.40625 
Q 43.953125 29.203125 39.59375 26.953125 
Q 35.25 24.703125 29.984375 24.703125 
Q 19.046875 24.703125 12.671875 31.3125 
Q 6.296875 37.9375 6.296875 49.421875 
Q 6.296875 60.640625 12.9375 67.421875 
Q 19.578125 74.21875 30.609375 74.21875 
Q 43.265625 74.21875 49.921875 64.515625 
Q 56.59375 54.828125 56.59375 36.375 
Q 56.59375 19.140625 48.40625 8.859375 
Q 40.234375 -1.421875 26.421875 -1.421875 
Q 22.703125 -1.421875 18.890625 -0.6875 
Q 15.09375 0.046875 10.984375 1.515625 
z
M 30.609375 32.421875 
Q 37.25 32.421875 41.125 36.953125 
Q 45.015625 41.5 45.015625 49.421875 
Q 45.015625 57.28125 41.125 61.84375 
Q 37.25 66.40625 30.609375 66.40625 
Q 23.96875 66.40625 20.09375 61.84375 
Q 16.21875 57.28125 16.21875 49.421875 
Q 16.21875 41.5 20.09375 36.953125 
Q 23.96875 32.421875 30.609375 32.421875 
z
" id="DejaVuSans-39"/>
     <path d="M 10.6875 12.40625 
L 21 12.40625 
L 21 0 
L 10.6875 0 
z
" id="DejaVuSans-2e"/>
     <path d="M 28.609375 0 
L 0.78125 72.90625 
L 11.078125 72.90625 
L 34.1875 11.53125 
L 57.328125 72.90625 
L 67.578125 72.90625 
L 39.796875 0 
z
" id="DejaVuSans-56"/>
     <path d="M 34.1875 63.1875 
L 14.15625 8.203125 
L 54.25 8.203125 
z
M 0.78125 0 
L 28.609375 72.90625 
L 39.796875 72.90625 
L 67.578125 0 
z
" id="DejaVuSans-394"/>
     <path d="M 9.8125 72.90625 
L 55.90625 72.90625 
L 55.90625 64.59375 
L 19.671875 64.59375 
L 19.671875 43.015625 
L 54.390625 43.015625 
L 54.390625 34.71875 
L 19.671875 34.71875 
L 19.671875 8.296875 
L 56.78125 8.296875 
L 56.78125 0 
L 9.8125 0 
z
" id="DejaVuSans-45"/>
     <path d="M 31.78125 66.40625 
Q 24.171875 66.40625 20.328125 58.90625 
Q 16.5 51.421875 16.5 36.375 
Q 16.5 21.390625 20.328125 13.890625 
Q 24.171875 6.390625 31.78125 6.390625 
Q 39.453125 6.390625 43.28125 13.890625 
Q 47.125 21.390625 47.125 36.375 
Q 47.125 51.421875 43.28125 58.90625 
Q 39.453125 66.40625 31.78125 66.40625 
z
M 31.78125 74.21875 
Q 44.046875 74.21875 50.515625 64.515625 
Q 56.984375 54.828125 56.984375 36.375 
Q 56.984375 17.96875 50.515625 8.265625 
Q 44.046875 -1.421875 31.78125 -1.421875 
Q 19.53125 -1.421875 13.0625 8.265625 
Q 6.59375 17.96875 6.59375 36.375 
Q 6.59375 54.828125 13.0625 64.515625 
Q 19.53125 74.21875 31.78125 74.21875 
z
" id="DejaVuSans-30"/>
     <path d="M 10.796875 72.90625 
L 49.515625 72.90625 
L 49.515625 64.59375 
L 19.828125 64.59375 
L 19.828125 46.734375 
Q 21.96875 47.46875 24.109375 47.828125 
Q 26.265625 48.1875 28.421875 48.1875 
Q 40.625 48.1875 47.75 41.5 
Q 54.890625 34.8125 54.890625 23.390625 
Q 54.890625 11.625 47.5625 5.09375 
Q 40.234375 -1.421875 26.90625 -1.421875 
Q 22.3125 -1.421875 17.546875 -0.640625 
Q 12.796875 0.140625 7.71875 1.703125 
L 7.71875 11.625 
Q 12.109375 9.234375 16.796875 8.0625 
Q 21.484375 6.890625 26.703125 6.890625 
Q 35.15625 6.890625 40.078125 11.328125 
Q 45.015625 15.765625 45.015625 23.390625 
Q 45.015625 31 40.078125 35.4375 
Q 35.15625 39.890625 26.703125 39.890625 
Q 22.75 39.890625 18.8125 39.015625 
Q 14.890625 38.140625 10.796875 36.28125 
z
" id="DejaVuSans-35"/>
    </defs>
    <g transform="translate(69.228 35.472)scale(0.12 -0.12)">
     <use transform="translate(0 0.78125)" xlink:href="#DejaVuSans-53"/>
     <use transform="translate(63.476562 0.78125)" xlink:href="#DejaVuSans-74"/>
     <use transform="translate(102.685547 0.78125)" xlink:href="#DejaVuSans-72"/>
     <use transform="translate(143.798828 0.78125)" xlink:href="#DejaVuSans-75"/>
     <use transform="translate(207.177734 0.78125)" xlink:href="#DejaVuSans-63"/>
     <use transform="translate(262.158203 0.78125)" xlink:href="#DejaVuSans-74"/>
     <use transform="translate(301.367188 0.78125)" xlink:href="#DejaVuSans-75"/>
     <use transform="translate(364.746094 0.78125)" xlink:href="#DejaVuSans-72"/>
     <use transform="translate(405.859375 0.78125)" xlink:href="#DejaVuSans-65"/>
     <use transform="translate(467.382812 0.78125)" xlink:href="#DejaVuSans-20"/>
     <use transform="translate(499.169922 0.78125)" xlink:href="#DejaVuSans-23"/>
     <use transform="translate(582.958984 0.78125)" xlink:href="#DejaVuSans-34"/>
     <use transform="translate(646.582031 0.78125)" xlink:href="#DejaVuSans-32"/>
     <use transform="translate(710.205078 0.78125)" xlink:href="#DejaVuSans-38"/>
     <use transform="translate(773.828125 0.78125)" xlink:href="#DejaVuSans-2c"/>
     <use transform="translate(805.615234 0.78125)" xlink:href="#DejaVuSans-20"/>
     <use transform="translate(837.402344 0.78125)" xlink:href="#DejaVuSans-Oblique-45"/>
     <use transform="translate(900.585938 -15.625)scale(0.7)" xlink:href="#DejaVuSans-Oblique-4e"/>
     <use transform="translate(955.683594 0.78125)" xlink:href="#DejaVuSans-3d"/>
     <use transform="translate(1039.472656 0.78125)" xlink:href="#DejaVuSans-2d"/>
     <use transform="translate(1075.556641 0.78125)" xlink:href="#DejaVuSans-31"/>
     <use transform="translate(1139.179688 0.78125)" xlink:href="#DejaVuSans-37"/>
     <use transform="translate(1202.802734 0.78125)" xlink:href="#DejaVuSans-39"/>
     <use transform="translate(1266.425781 0.78125)" xlink:href="#DejaVuSans-2e"/>
     <use transform="translate(1298.212891 0.78125)" xlink:href="#DejaVuSans-39"/>
     <use transform="translate(1361.835938 0.78125)" xlink:href="#DejaVuSans-37"/>
     <use transform="translate(1425.458984 0.78125)" xlink:href="#DejaVuSans-65"/>
     <use transform="translate(1486.982422 0.78125)" xlink:href="#DejaVuSans-56"/>
     <use transform="translate(1555.390625 0.78125)" xlink:href="#DejaVuSans-2c"/>
     <use transform="translate(1587.177734 0.78125)" xlink:href="#DejaVuSans-20"/>
     <use transform="translate(1618.964844 0.78125)" xlink:href="#DejaVuSans-394"/>
     <use transform="translate(1687.373047 0.78125)" xlink:href="#DejaVuSans-45"/>
     <use transform="translate(1750.556641 0.78125)" xlink:href="#DejaVuSans-3d"/>
     <use transform="translate(1834.345703 0.78125)" xlink:href="#DejaVuSans-30"/>
     <use transform="translate(1897.96875 0.78125)" xlink:href="#DejaVuSans-2e"/>
     <use transform="translate(1929.755859 0.78125)" xlink:href="#DejaVuSans-31"/>
     <use transform="translate(1993.378906 0.78125)" xlink:href="#DejaVuSans-35"/>
     <use transform="translate(2057.001953 0.78125)" xlink:href="#DejaVuSans-65"/>
     <use transform="translate(2118.525391 0.78125)" xlink:href="#DejaVuSans-56"/>
    </g>
   </g>
  </g>
  <g id="axes_2">
   <g id="patch_2">
    <path clip-path="url(#p472146a5d9)" d="M 361.152 307.584 
L 361.152 306.5445 
L 361.152 42.5115 
L 361.152 41.472 
L 374.4576 41.472 
L 374.4576 42.5115 
L 374.4576 306.5445 
L 374.4576 307.584 
z
" style="fill:#ffffff;stroke:#ffffff;stroke-linejoin:miter;stroke-width:0.01;"/>
   </g>
   <image height="265.68" id="image63463e75c2" transform="scale(1 -1)translate(0 -265.68)" width="12.96" x="361.44" xlink:href="data:image/png;base64,
iVBORw0KGgoAAAANSUhEUgAAABIAAAFxCAYAAAB+2fgXAAAABHNCSVQICAgIfAhkiAAAAeVJREFUeJztncmNw0AQA2ckheYQNv9QLIfQ8ygsCgQ7AEI8+jAs2Puz/94F1LP2ReCsZ18bAWIeZ5XaGRBE7VnbptG+KI101FYyNSiQG2oRITXKNaX9uclOdi2XWjftVE32CZCO2ou5Bj1TcCBr/1zB9ge7Fq0Rg2NM9pvbtG+ua1QgsRYhDy0ISEiNc40BEibbSI0Coj5CBGtkpFbXJiAjNZlrwhuSOv2M1DjXbEdEciBt1JSDDQKKpmZr2rr2j0DBGpXaWEJq3bQzEPIS26r9J+Wzv9Tm8o3aajRXqc3VUXsApKNWjeZq0x4ABVNbm7lrszVigDqP5vIl2+eaT2yfRkL7g+dRcNPqjohkjaCvRVBq0H2U3LQrOJCx9kdTg4B8oxZzzTdqdYHEngjUCAPyUctN9sVRq2sTECW2UKNLd2jVtRmo1A6AhMmWaSRcR8nUdIHUuVb75zJS218EyEitro1At69pIdeSk30Lkw0FktNImGyZRhy1O5galmxd03LUsHWk06jUZiCq+5Wb1kZNN4+wJxJuWt8RAW5am2sYNZ9rYCBzZ3buPKJ2P5Yj4Toy3keyIyJbIxs1rml1byCA84gpch5RQNB7Q0qNMGq2Hy4BXdNR41yz/cEEJfZzUz96r9PoB0okjeQ8y9TkAAAAAElFTkSuQmCC" y="-41.76"/>
   <g id="matplotlib.axis_1"/>
   <g id="matplotlib.axis_2">
    <g id="ytick_1">
     <g id="line2d_1">
      <defs>
       <path d="M 0 0 
L 3.5 0 
" id="m4a946631e2" style="stroke:#000000;stroke-width:0.8;"/>
      </defs>
      <g>
       <use style="stroke:#000000;stroke-width:0.8;" x="374.4576" xlink:href="#m4a946631e2" y="288.889939"/>
      </g>
     </g>
     <g id="text_2">
      <!-- −8.0 -->
      <defs>
       <path d="M 10.59375 35.5 
L 73.1875 35.5 
L 73.1875 27.203125 
L 10.59375 27.203125 
z
" id="DejaVuSans-2212"/>
      </defs>
      <g transform="translate(381.4576 292.689158)scale(0.1 -0.1)">
       <use xlink:href="#DejaVuSans-2212"/>
       <use x="83.789062" xlink:href="#DejaVuSans-38"/>
       <use x="147.412109" xlink:href="#DejaVuSans-2e"/>
       <use x="179.199219" xlink:href="#DejaVuSans-30"/>
      </g>
     </g>
    </g>
    <g id="ytick_2">
     <g id="line2d_2">
      <g>
       <use style="stroke:#000000;stroke-width:0.8;" x="374.4576" xlink:href="#m4a946631e2" y="247.94962"/>
      </g>
     </g>
     <g id="text_3">
      <!-- −7.5 -->
      <g transform="translate(381.4576 251.748839)scale(0.1 -0.1)">
       <use xlink:href="#DejaVuSans-2212"/>
       <use x="83.789062" xlink:href="#DejaVuSans-37"/>
       <use x="147.412109" xlink:href="#DejaVuSans-2e"/>
       <use x="179.199219" xlink:href="#DejaVuSans-35"/>
      </g>
     </g>
    </g>
    <g id="ytick_3">
     <g id="line2d_3">
      <g>
       <use style="stroke:#000000;stroke-width:0.8;" x="374.4576" xlink:href="#m4a946631e2" y="207.0093"/>
      </g>
     </g>
     <g id="text_4">
      <!-- −7.0 -->
      <g transform="translate(381.4576 210.808519)scale(0.1 -0.1)">
       <use xlink:href="#DejaVuSans-2212"/>
       <use x="83.789062" xlink:href="#DejaVuSans-37"/>
       <use x="147.412109" xlink:href="#DejaVuSans-2e"/>
       <use x="179.199219" xlink:href="#DejaVuSans-30"/>
      </g>
     </g>
    </g>
    <g id="ytick_4">
     <g id="line2d_4">
      <g>
       <use style="stroke:#000000;stroke-width:0.8;" x="374.4576" xlink:href="#m4a946631e2" y="166.06898"/>
      </g>
     </g>
     <g id="text_5">
      <!-- −6.5 -->
      <defs>
       <path d="M 33.015625 40.375 
Q 26.375 40.375 22.484375 35.828125 
Q 18.609375 31.296875 18.609375 23.390625 
Q 18.609375 15.53125 22.484375 10.953125 
Q 26.375 6.390625 33.015625 6.390625 
Q 39.65625 6.390625 43.53125 10.953125 
Q 47.40625 15.53125 47.40625 23.390625 
Q 47.40625 31.296875 43.53125 35.828125 
Q 39.65625 40.375 33.015625 40.375 
z
M 52.59375 71.296875 
L 52.59375 62.3125 
Q 48.875 64.0625 45.09375 64.984375 
Q 41.3125 65.921875 37.59375 65.921875 
Q 27.828125 65.921875 22.671875 59.328125 
Q 17.53125 52.734375 16.796875 39.40625 
Q 19.671875 43.65625 24.015625 45.921875 
Q 28.375 48.1875 33.59375 48.1875 
Q 44.578125 48.1875 50.953125 41.515625 
Q 57.328125 34.859375 57.328125 23.390625 
Q 57.328125 12.15625 50.6875 5.359375 
Q 44.046875 -1.421875 33.015625 -1.421875 
Q 20.359375 -1.421875 13.671875 8.265625 
Q 6.984375 17.96875 6.984375 36.375 
Q 6.984375 53.65625 15.1875 63.9375 
Q 23.390625 74.21875 37.203125 74.21875 
Q 40.921875 74.21875 44.703125 73.484375 
Q 48.484375 72.75 52.59375 71.296875 
z
" id="DejaVuSans-36"/>
      </defs>
      <g transform="translate(381.4576 169.868199)scale(0.1 -0.1)">
       <use xlink:href="#DejaVuSans-2212"/>
       <use x="83.789062" xlink:href="#DejaVuSans-36"/>
       <use x="147.412109" xlink:href="#DejaVuSans-2e"/>
       <use x="179.199219" xlink:href="#DejaVuSans-35"/>
      </g>
     </g>
    </g>
    <g id="ytick_5">
     <g id="line2d_5">
      <g>
       <use style="stroke:#000000;stroke-width:0.8;" x="374.4576" xlink:href="#m4a946631e2" y="125.128661"/>
      </g>
     </g>
     <g id="text_6">
      <!-- −6.0 -->
      <g transform="translate(381.4576 128.927879)scale(0.1 -0.1)">
       <use xlink:href="#DejaVuSans-2212"/>
       <use x="83.789062" xlink:href="#DejaVuSans-36"/>
       <use x="147.412109" xlink:href="#DejaVuSans-2e"/>
       <use x="179.199219" xlink:href="#DejaVuSans-30"/>
      </g>
     </g>
    </g>
    <g id="ytick_6">
     <g id="line2d_6">
      <g>
       <use style="stroke:#000000;stroke-width:0.8;" x="374.4576" xlink:href="#m4a946631e2" y="84.188341"/>
      </g>
     </g>
     <g id="text_7">
      <!-- −5.5 -->
      <g transform="translate(381.4576 87.98756)scale(0.1 -0.1)">
       <use xlink:href="#DejaVuSans-2212"/>
       <use x="83.789062" xlink:href="#DejaVuSans-35"/>
       <use x="147.412109" xlink:href="#DejaVuSans-2e"/>
       <use x="179.199219" xlink:href="#DejaVuSans-35"/>
      </g>
     </g>
    </g>
    <g id="ytick_7">
     <g id="line2d_7">
      <g>
       <use style="stroke:#000000;stroke-width:0.8;" x="374.4576" xlink:href="#m4a946631e2" y="43.248021"/>
      </g>
     </g>
     <g id="text_8">
      <!-- −5.0 -->
      <g transform="translate(381.4576 47.04724)scale(0.1 -0.1)">
       <use xlink:href="#DejaVuSans-2212"/>
       <use x="83.789062" xlink:href="#DejaVuSans-35"/>
       <use x="147.412109" xlink:href="#DejaVuSans-2e"/>
       <use x="179.199219" xlink:href="#DejaVuSans-30"/>
      </g>
     </g>
    </g>
    <g id="text_9">
     <!-- Energy [eV] -->
     <defs>
      <path d="M 54.890625 33.015625 
L 54.890625 0 
L 45.90625 0 
L 45.90625 32.71875 
Q 45.90625 40.484375 42.875 44.328125 
Q 39.84375 48.1875 33.796875 48.1875 
Q 26.515625 48.1875 22.3125 43.546875 
Q 18.109375 38.921875 18.109375 30.90625 
L 18.109375 0 
L 9.078125 0 
L 9.078125 54.6875 
L 18.109375 54.6875 
L 18.109375 46.1875 
Q 21.34375 51.125 25.703125 53.5625 
Q 30.078125 56 35.796875 56 
Q 45.21875 56 50.046875 50.171875 
Q 54.890625 44.34375 54.890625 33.015625 
z
" id="DejaVuSans-6e"/>
      <path d="M 45.40625 27.984375 
Q 45.40625 37.75 41.375 43.109375 
Q 37.359375 48.484375 30.078125 48.484375 
Q 22.859375 48.484375 18.828125 43.109375 
Q 14.796875 37.75 14.796875 27.984375 
Q 14.796875 18.265625 18.828125 12.890625 
Q 22.859375 7.515625 30.078125 7.515625 
Q 37.359375 7.515625 41.375 12.890625 
Q 45.40625 18.265625 45.40625 27.984375 
z
M 54.390625 6.78125 
Q 54.390625 -7.171875 48.1875 -13.984375 
Q 42 -20.796875 29.203125 -20.796875 
Q 24.46875 -20.796875 20.265625 -20.09375 
Q 16.0625 -19.390625 12.109375 -17.921875 
L 12.109375 -9.1875 
Q 16.0625 -11.328125 19.921875 -12.34375 
Q 23.78125 -13.375 27.78125 -13.375 
Q 36.625 -13.375 41.015625 -8.765625 
Q 45.40625 -4.15625 45.40625 5.171875 
L 45.40625 9.625 
Q 42.625 4.78125 38.28125 2.390625 
Q 33.9375 0 27.875 0 
Q 17.828125 0 11.671875 7.65625 
Q 5.515625 15.328125 5.515625 27.984375 
Q 5.515625 40.671875 11.671875 48.328125 
Q 17.828125 56 27.875 56 
Q 33.9375 56 38.28125 53.609375 
Q 42.625 51.21875 45.40625 46.390625 
L 45.40625 54.6875 
L 54.390625 54.6875 
z
" id="DejaVuSans-67"/>
      <path d="M 32.171875 -5.078125 
Q 28.375 -14.84375 24.75 -17.8125 
Q 21.140625 -20.796875 15.09375 -20.796875 
L 7.90625 -20.796875 
L 7.90625 -13.28125 
L 13.1875 -13.28125 
Q 16.890625 -13.28125 18.9375 -11.515625 
Q 21 -9.765625 23.484375 -3.21875 
L 25.09375 0.875 
L 2.984375 54.6875 
L 12.5 54.6875 
L 29.59375 11.921875 
L 46.6875 54.6875 
L 56.203125 54.6875 
z
" id="DejaVuSans-79"/>
      <path d="M 8.59375 75.984375 
L 29.296875 75.984375 
L 29.296875 69 
L 17.578125 69 
L 17.578125 -6.203125 
L 29.296875 -6.203125 
L 29.296875 -13.1875 
L 8.59375 -13.1875 
z
" id="DejaVuSans-5b"/>
      <path d="M 30.421875 75.984375 
L 30.421875 -13.1875 
L 9.71875 -13.1875 
L 9.71875 -6.203125 
L 21.390625 -6.203125 
L 21.390625 69 
L 9.71875 69 
L 9.71875 75.984375 
z
" id="DejaVuSans-5d"/>
     </defs>
     <g transform="translate(417.33885 204.108469)rotate(-90)scale(0.1 -0.1)">
      <use xlink:href="#DejaVuSans-45"/>
      <use x="63.183594" xlink:href="#DejaVuSans-6e"/>
      <use x="126.5625" xlink:href="#DejaVuSans-65"/>
      <use x="188.085938" xlink:href="#DejaVuSans-72"/>
      <use x="229.183594" xlink:href="#DejaVuSans-67"/>
      <use x="292.660156" xlink:href="#DejaVuSans-79"/>
      <use x="351.839844" xlink:href="#DejaVuSans-20"/>
      <use x="383.626953" xlink:href="#DejaVuSans-5b"/>
      <use x="422.640625" xlink:href="#DejaVuSans-65"/>
      <use x="484.164062" xlink:href="#DejaVuSans-56"/>
      <use x="552.572266" xlink:href="#DejaVuSans-5d"/>
     </g>
    </g>
   </g>
   <g id="patch_3">
    <path d="M 361.152 307.584 
L 361.152 306.5445 
L 361.152 42.5115 
L 361.152 41.472 
L 374.4576 41.472 
L 374.4576 42.5115 
L 374.4576 306.5445 
L 374.4576 307.584 
z
" style="fill:none;stroke:#000000;stroke-linejoin:miter;stroke-width:0.8;"/>
   </g>
  </g>
 </g>
 <defs>
  <clipPath id="p563d139b59">
   <rect height="266.112" width="285.696" x="57.6" y="41.472"/>
  </clipPath>
  <clipPath id="p472146a5d9">
   <rect height="266.112" width="13.3056" x="361.152" y="41.472"/>
  </clipPath>
 </defs>
</svg>
