<?xml version="1.0" encoding="utf-8" standalone="no"?>
<!DOCTYPE svg PUBLIC "-//W3C//DTD SVG 1.1//EN"
  "http://www.w3.org/Graphics/SVG/1.1/DTD/svg11.dtd">
<!-- Created with matplotlib (http://matplotlib.org/) -->
<svg height="345.6pt" version="1.1" viewBox="0 0 460.8 345.6" width="460.8pt" xmlns="http://www.w3.org/2000/svg" xmlns:xlink="http://www.w3.org/1999/xlink">
 <defs>
  <style type="text/css">
*{stroke-linecap:butt;stroke-linejoin:round;}
  </style>
 </defs>
 <g id="figure_1">
  <g id="patch_1">
   <path d="M 0 345.6 
L 460.8 345.6 
L 460.8 0 
L 0 0 
z
" style="fill:#ffffff;"/>
  </g>
  <g id="axes_1">
   <g id="CircleCollection_1">
    <path clip-path="url(#pcf389859e9)" d="M 303.336644 247.397681 
C 305.183593 247.397681 306.955144 246.66388 308.261134 245.357891 
C 309.567124 244.051901 310.300924 242.28035 310.300924 240.433401 
C 310.300924 238.586453 309.567124 236.814902 308.261134 235.508912 
C 306.955144 234.202922 305.183593 233.469122 303.336644 233.469122 
C 301.489696 233.469122 299.718145 234.202922 298.412155 235.508912 
C 297.106165 236.814902 296.372365 238.586453 296.372365 240.433401 
C 296.372365 242.28035 297.106165 244.051901 298.412155 245.357891 
C 299.718145 246.66388 301.489696 247.397681 303.336644 247.397681 
z
" style="fill:#306a8e;"/>
    <path clip-path="url(#pcf389859e9)" d="M 290.470617 219.760313 
C 292.330656 219.760313 294.114762 219.021312 295.430008 217.706066 
C 296.745254 216.39082 297.484256 214.606713 297.484256 212.746674 
C 297.484256 210.886636 296.745254 209.102529 295.430008 207.787283 
C 294.114762 206.472037 292.330656 205.733036 290.470617 205.733036 
C 288.610578 205.733036 286.826472 206.472037 285.511226 207.787283 
C 284.19598 209.102529 283.456979 210.886636 283.456979 212.746674 
C 283.456979 214.606713 284.19598 216.39082 285.511226 217.706066 
C 286.826472 219.021312 288.610578 219.760313 290.470617 219.760313 
z
" style="fill:#34618d;"/>
    <path clip-path="url(#pcf389859e9)" d="M 197.300391 60.563136 
C 199.044867 60.563136 200.718128 59.870048 201.951659 58.636517 
C 203.18519 57.402986 203.878278 55.729725 203.878278 53.985249 
C 203.878278 52.240773 203.18519 50.567511 201.951659 49.333981 
C 200.718128 48.10045 199.044867 47.407362 197.300391 47.407362 
C 195.555915 47.407362 193.882653 48.10045 192.649123 49.333981 
C 191.415592 50.567511 190.722504 52.240773 190.722504 53.985249 
C 190.722504 55.729725 191.415592 57.402986 192.649123 58.636517 
C 193.882653 59.870048 195.555915 60.563136 197.300391 60.563136 
z
" style="fill:#30698e;"/>
    <path clip-path="url(#pcf389859e9)" d="M 255.447638 86.685838 
C 257.192989 86.685838 258.867089 85.992403 260.101239 84.758253 
C 261.335388 83.524104 262.028823 81.850003 262.028823 80.104653 
C 262.028823 78.359302 261.335388 76.685201 260.101239 75.451052 
C 258.867089 74.216902 257.192989 73.523467 255.447638 73.523467 
C 253.702287 73.523467 252.028186 74.216902 250.794037 75.451052 
C 249.559888 76.685201 248.866452 78.359302 248.866452 80.104653 
C 248.866452 81.850003 249.559888 83.524104 250.794037 84.758253 
C 252.028186 85.992403 253.702287 86.685838 255.447638 86.685838 
z
" style="fill:#2c718e;"/>
    <path clip-path="url(#pcf389859e9)" d="M 276.386383 138.026235 
C 278.200482 138.026235 279.940524 137.305486 281.223285 136.022725 
C 282.506046 134.739963 283.226795 132.999921 283.226795 131.185823 
C 283.226795 129.371724 282.506046 127.631682 281.223285 126.348921 
C 279.940524 125.066159 278.200482 124.34541 276.386383 124.34541 
C 274.572284 124.34541 272.832242 125.066159 271.549481 126.348921 
C 270.266719 127.631682 269.54597 129.371724 269.54597 131.185823 
C 269.54597 132.999921 270.266719 134.739963 271.549481 136.022725 
C 272.832242 137.305486 274.572284 138.026235 276.386383 138.026235 
z
" style="fill:#1f9a8a;"/>
    <path clip-path="url(#pcf389859e9)" d="M 329.959835 301.878827 
C 331.769492 301.878827 333.505275 301.159843 334.784896 299.880222 
C 336.064517 298.600601 336.783501 296.864818 336.783501 295.055161 
C 336.783501 293.245503 336.064517 291.509721 334.784896 290.2301 
C 333.505275 288.950479 331.769492 288.231494 329.959835 288.231494 
C 328.150177 288.231494 326.414395 288.950479 325.134774 290.2301 
C 323.855153 291.509721 323.136168 293.245503 323.136168 295.055161 
C 323.136168 296.864818 323.855153 298.600601 325.134774 299.880222 
C 326.414395 301.159843 328.150177 301.878827 329.959835 301.878827 
z
" style="fill:#fde725;"/>
    <path clip-path="url(#pcf389859e9)" d="M 70.932019 74.012597 
C 72.720238 74.012597 74.435457 73.30213 75.699919 72.037668 
C 76.964381 70.773206 77.674847 69.057987 77.674847 67.269768 
C 77.674847 65.481549 76.964381 63.76633 75.699919 62.501869 
C 74.435457 61.237407 72.720238 60.52694 70.932019 60.52694 
C 69.1438 60.52694 67.428581 61.237407 66.164119 62.501869 
C 64.899657 63.76633 64.18919 65.481549 64.18919 67.269768 
C 64.18919 69.057987 64.899657 70.773206 66.164119 72.037668 
C 67.428581 73.30213 69.1438 74.012597 70.932019 74.012597 
z
" style="fill:#4ac16d;"/>
    <path clip-path="url(#pcf389859e9)" d="M 263.126378 163.173247 
C 264.989845 163.173247 266.777239 162.432884 268.094909 161.115215 
C 269.412578 159.797545 270.152942 158.01015 270.152942 156.146684 
C 270.152942 154.283218 269.412578 152.495823 268.094909 151.178154 
C 266.777239 149.860484 264.989845 149.120121 263.126378 149.120121 
C 261.262912 149.120121 259.475518 149.860484 258.157848 151.178154 
C 256.840178 152.495823 256.099815 154.283218 256.099815 156.146684 
C 256.099815 158.01015 256.840178 159.797545 258.157848 161.115215 
C 259.475518 162.432884 261.262912 163.173247 263.126378 163.173247 
z
" style="fill:#440154;"/>
    <path clip-path="url(#pcf389859e9)" d="M 230.015457 68.902541 
C 231.749264 68.902541 233.412293 68.213692 234.63828 66.987705 
C 235.864267 65.761718 236.553115 64.098689 236.553115 62.364882 
C 236.553115 60.631074 235.864267 58.968046 234.63828 57.742059 
C 233.412293 56.516072 231.749264 55.827223 230.015457 55.827223 
C 228.281649 55.827223 226.618621 56.516072 225.392634 57.742059 
C 224.166647 58.968046 223.477798 60.631074 223.477798 62.364882 
C 223.477798 64.098689 224.166647 65.761718 225.392634 66.987705 
C 226.618621 68.213692 228.281649 68.902541 230.015457 68.902541 
z
" style="fill:#2d718e;"/>
    <path clip-path="url(#pcf389859e9)" d="M 97.213591 163.328206 
C 98.956273 163.328206 100.627814 162.635831 101.860076 161.403568 
C 103.092338 160.171306 103.784713 158.499765 103.784713 156.757083 
C 103.784713 155.014401 103.092338 153.34286 101.860076 152.110598 
C 100.627814 150.878335 98.956273 150.185961 97.213591 150.185961 
C 95.470908 150.185961 93.799368 150.878335 92.567105 152.110598 
C 91.334843 153.34286 90.642468 155.014401 90.642468 156.757083 
C 90.642468 158.499765 91.334843 160.171306 92.567105 161.403568 
C 93.799368 162.635831 95.470908 163.328206 97.213591 163.328206 
z
" style="fill:#32658e;"/>
    <path clip-path="url(#pcf389859e9)" d="M 177.976717 118.262524 
C 179.868434 118.262524 181.682926 117.510937 183.020571 116.173292 
C 184.358217 114.835646 185.109804 113.021154 185.109804 111.129438 
C 185.109804 109.237721 184.358217 107.423229 183.020571 106.085584 
C 181.682926 104.747938 179.868434 103.996351 177.976717 103.996351 
C 176.085001 103.996351 174.270509 104.747938 172.932864 106.085584 
C 171.595218 107.423229 170.843631 109.237721 170.843631 111.129438 
C 170.843631 113.021154 171.595218 114.835646 172.932864 116.173292 
C 174.270509 117.510937 176.085001 118.262524 177.976717 118.262524 
z
" style="fill:#31678e;"/>
    <path clip-path="url(#pcf389859e9)" d="M 230.980652 154.407372 
C 232.877284 154.407372 234.696489 153.653832 236.03761 152.312711 
C 237.378731 150.97159 238.132271 149.152384 238.132271 147.255753 
C 238.132271 145.359121 237.378731 143.539916 236.03761 142.198795 
C 234.696489 140.857674 232.877284 140.104134 230.980652 140.104134 
C 229.084021 140.104134 227.264815 140.857674 225.923694 142.198795 
C 224.582573 143.539916 223.829033 145.359121 223.829033 147.255753 
C 223.829033 149.152384 224.582573 150.97159 225.923694 152.312711 
C 227.264815 153.653832 229.084021 154.407372 230.980652 154.407372 
z
" style="fill:#20928c;"/>
    <path clip-path="url(#pcf389859e9)" d="M 140.725083 76.580152 
C 142.540384 76.580152 144.28158 75.858925 145.565192 74.575313 
C 146.848804 73.291701 147.570031 71.550506 147.570031 69.735204 
C 147.570031 67.919903 146.848804 66.178708 145.565192 64.895096 
C 144.28158 63.611484 142.540384 62.890257 140.725083 62.890257 
C 138.909782 62.890257 137.168586 63.611484 135.884974 64.895096 
C 134.601363 66.178708 133.880136 67.919903 133.880136 69.735204 
C 133.880136 71.550506 134.601363 73.291701 135.884974 74.575313 
C 137.168586 75.858925 138.909782 76.580152 140.725083 76.580152 
z
" style="fill:#440256;"/>
    <path clip-path="url(#pcf389859e9)" d="M 155.508694 99.325332 
C 157.37716 99.325332 159.169349 98.582983 160.490554 97.261778 
C 161.811759 95.940573 162.554109 94.148383 162.554109 92.279917 
C 162.554109 90.411451 161.811759 88.619261 160.490554 87.298056 
C 159.169349 85.976852 157.37716 85.234502 155.508694 85.234502 
C 153.640228 85.234502 151.848038 85.976852 150.526833 87.298056 
C 149.205628 88.619261 148.463279 90.411451 148.463279 92.279917 
C 148.463279 94.148383 149.205628 95.940573 150.526833 97.261778 
C 151.848038 98.582983 153.640228 99.325332 155.508694 99.325332 
z
" style="fill:#21918c;"/>
    <path clip-path="url(#pcf389859e9)" d="M 83.781844 104.475194 
C 85.549344 104.475194 87.244689 103.772959 88.4945 102.523148 
C 89.744311 101.273337 90.446546 99.577992 90.446546 97.810492 
C 90.446546 96.042993 89.744311 94.347647 88.4945 93.097837 
C 87.244689 91.848026 85.549344 91.145791 83.781844 91.145791 
C 82.014345 91.145791 80.318999 91.848026 79.069188 93.097837 
C 77.819377 94.347647 77.117142 96.042993 77.117142 97.810492 
C 77.117142 99.577992 77.819377 101.273337 79.069188 102.523148 
C 80.318999 103.772959 82.014345 104.475194 83.781844 104.475194 
z
" style="fill:#2d708e;"/>
    <path clip-path="url(#pcf389859e9)" d="M 277.276232 192.470452 
C 279.142113 192.470452 280.931823 191.729129 282.2512 190.409752 
C 283.570577 189.090375 284.311899 187.300665 284.311899 185.434784 
C 284.311899 183.568904 283.570577 181.779193 282.2512 180.459816 
C 280.931823 179.140439 279.142113 178.399117 277.276232 178.399117 
C 275.410351 178.399117 273.620641 179.140439 272.301264 180.459816 
C 270.981887 181.779193 270.240565 183.568904 270.240565 185.434784 
C 270.240565 187.300665 270.981887 189.090375 272.301264 190.409752 
C 273.620641 191.729129 275.410351 192.470452 277.276232 192.470452 
z
" style="fill:#25858e;"/>
    <path clip-path="url(#pcf389859e9)" d="M 166.484076 61.731518 
C 168.250811 61.731518 169.945424 61.029586 171.194694 59.780315 
C 172.443965 58.531045 173.145896 56.836432 173.145896 55.069697 
C 173.145896 53.302962 172.443965 51.608349 171.194694 50.359079 
C 169.945424 49.109808 168.250811 48.407877 166.484076 48.407877 
C 164.71734 48.407877 163.022728 49.109808 161.773457 50.359079 
C 160.524187 51.608349 159.822255 53.302962 159.822255 55.069697 
C 159.822255 56.836432 160.524187 58.531045 161.773457 59.780315 
C 163.022728 61.029586 164.71734 61.731518 166.484076 61.731518 
z
" style="fill:#20938c;"/>
    <path clip-path="url(#pcf389859e9)" d="M 115.473443 222.540337 
C 117.207519 222.540337 118.870806 221.851381 120.096983 220.625204 
C 121.32316 219.399027 122.012116 217.73574 122.012116 216.001663 
C 122.012116 214.267587 121.32316 212.6043 120.096983 211.378123 
C 118.870806 210.151946 117.207519 209.46299 115.473443 209.46299 
C 113.739366 209.46299 112.076079 210.151946 110.849902 211.378123 
C 109.623725 212.6043 108.934769 214.267587 108.934769 216.001663 
C 108.934769 217.73574 109.623725 219.399027 110.849902 220.625204 
C 112.076079 221.851381 113.739366 222.540337 115.473443 222.540337 
z
" style="fill:#f1e51d;"/>
    <path clip-path="url(#pcf389859e9)" d="M 316.398332 274.891998 
C 318.230094 274.891998 319.987077 274.164232 321.282328 272.868981 
C 322.577579 271.57373 323.305345 269.816747 323.305345 267.984986 
C 323.305345 266.153224 322.577579 264.396241 321.282328 263.10099 
C 319.987077 261.805739 318.230094 261.077973 316.398332 261.077973 
C 314.566571 261.077973 312.809588 261.805739 311.514337 263.10099 
C 310.219086 264.396241 309.49132 266.153224 309.49132 267.984986 
C 309.49132 269.816747 310.219086 271.57373 311.514337 272.868981 
C 312.809588 274.164232 314.566571 274.891998 316.398332 274.891998 
z
" style="fill:#2f6b8e;"/>
    <path clip-path="url(#pcf389859e9)" d="M 271.089168 112.258654 
C 272.866549 112.258654 274.571373 111.552493 275.828171 110.295694 
C 277.08497 109.038896 277.791131 107.334072 277.791131 105.556691 
C 277.791131 103.779309 277.08497 102.074485 275.828171 100.817687 
C 274.571373 99.560889 272.866549 98.854727 271.089168 98.854727 
C 269.311786 98.854727 267.606963 99.560889 266.350164 100.817687 
C 265.093366 102.074485 264.387205 103.779309 264.387205 105.556691 
C 264.387205 107.334072 265.093366 109.038896 266.350164 110.295694 
C 267.606963 111.552493 269.311786 112.258654 271.089168 112.258654 
z
" style="fill:#31678e;"/>
    <path clip-path="url(#pcf389859e9)" d="M 105.625563 77.167613 
C 107.4232 77.167613 109.147453 76.453404 110.418575 75.182283 
C 111.689696 73.911161 112.403905 72.186909 112.403905 70.389271 
C 112.403905 68.591634 111.689696 66.867382 110.418575 65.59626 
C 109.147453 64.325139 107.4232 63.61093 105.625563 63.61093 
C 103.827926 63.61093 102.103674 64.325139 100.832552 65.59626 
C 99.561431 66.867382 98.847222 68.591634 98.847222 70.389271 
C 98.847222 72.186909 99.561431 73.911161 100.832552 75.182283 
C 102.103674 76.453404 103.827926 77.167613 105.625563 77.167613 
z
" style="fill:#287c8e;"/>
    <path clip-path="url(#pcf389859e9)" d="M 105.742644 193.107783 
C 107.478538 193.107783 109.143568 192.418105 110.37103 191.190643 
C 111.598492 189.963181 112.28817 188.298151 112.28817 186.562257 
C 112.28817 184.826363 111.598492 183.161333 110.37103 181.93387 
C 109.143568 180.706408 107.478538 180.01673 105.742644 180.01673 
C 104.00675 180.01673 102.34172 180.706408 101.114257 181.93387 
C 99.886795 183.161333 99.197117 184.826363 99.197117 186.562257 
C 99.197117 188.298151 99.886795 189.963181 101.114257 191.190643 
C 102.34172 192.418105 104.00675 193.107783 105.742644 193.107783 
z
" style="fill:#2d708e;"/>
    <path clip-path="url(#pcf389859e9)" d="M 88.368058 134.447646 
C 90.117455 134.447646 91.795438 133.752603 93.032448 132.515592 
C 94.269459 131.278581 94.964502 129.600599 94.964502 127.851202 
C 94.964502 126.101805 94.269459 124.423823 93.032448 123.186812 
C 91.795438 121.949801 90.117455 121.254758 88.368058 121.254758 
C 86.618661 121.254758 84.940679 121.949801 83.703668 123.186812 
C 82.466657 124.423823 81.771615 126.101805 81.771615 127.851202 
C 81.771615 129.600599 82.466657 131.278581 83.703668 132.515592 
C 84.940679 133.752603 86.618661 134.447646 88.368058 134.447646 
z
" style="fill:#33638d;"/>
    <path clip-path="url(#pcf389859e9)" d="M 204.795621 137.712174 
C 206.697034 137.712174 208.520826 136.956734 209.865328 135.612232 
C 211.209829 134.267731 211.965269 132.443939 211.965269 130.542526 
C 211.965269 128.641113 211.209829 126.817321 209.865328 125.472819 
C 208.520826 124.128317 206.697034 123.372878 204.795621 123.372878 
C 202.894208 123.372878 201.070416 124.128317 199.725914 125.472819 
C 198.381412 126.817321 197.625973 128.641113 197.625973 130.542526 
C 197.625973 132.443939 198.381412 134.267731 199.725914 135.612232 
C 201.070416 136.956734 202.894208 137.712174 204.795621 137.712174 
z
" style="fill:#32658e;"/>
   </g>
   <g id="text_1">
    <!-- Structure #5160, $E_N$=-178.18eV, ΔE=0.14eV -->
    <defs>
     <path d="M 53.515625 70.515625 
L 53.515625 60.890625 
Q 47.90625 63.578125 42.921875 64.890625 
Q 37.9375 66.21875 33.296875 66.21875 
Q 25.25 66.21875 20.875 63.09375 
Q 16.5 59.96875 16.5 54.203125 
Q 16.5 49.359375 19.40625 46.890625 
Q 22.3125 44.4375 30.421875 42.921875 
L 36.375 41.703125 
Q 47.40625 39.59375 52.65625 34.296875 
Q 57.90625 29 57.90625 20.125 
Q 57.90625 9.515625 50.796875 4.046875 
Q 43.703125 -1.421875 29.984375 -1.421875 
Q 24.8125 -1.421875 18.96875 -0.25 
Q 13.140625 0.921875 6.890625 3.21875 
L 6.890625 13.375 
Q 12.890625 10.015625 18.65625 8.296875 
Q 24.421875 6.59375 29.984375 6.59375 
Q 38.421875 6.59375 43.015625 9.90625 
Q 47.609375 13.234375 47.609375 19.390625 
Q 47.609375 24.75 44.3125 27.78125 
Q 41.015625 30.8125 33.5 32.328125 
L 27.484375 33.5 
Q 16.453125 35.6875 11.515625 40.375 
Q 6.59375 45.0625 6.59375 53.421875 
Q 6.59375 63.09375 13.40625 68.65625 
Q 20.21875 74.21875 32.171875 74.21875 
Q 37.3125 74.21875 42.625 73.28125 
Q 47.953125 72.359375 53.515625 70.515625 
z
" id="DejaVuSans-53"/>
     <path d="M 18.3125 70.21875 
L 18.3125 54.6875 
L 36.8125 54.6875 
L 36.8125 47.703125 
L 18.3125 47.703125 
L 18.3125 18.015625 
Q 18.3125 11.328125 20.140625 9.421875 
Q 21.96875 7.515625 27.59375 7.515625 
L 36.8125 7.515625 
L 36.8125 0 
L 27.59375 0 
Q 17.1875 0 13.234375 3.875 
Q 9.28125 7.765625 9.28125 18.015625 
L 9.28125 47.703125 
L 2.6875 47.703125 
L 2.6875 54.6875 
L 9.28125 54.6875 
L 9.28125 70.21875 
z
" id="DejaVuSans-74"/>
     <path d="M 41.109375 46.296875 
Q 39.59375 47.171875 37.8125 47.578125 
Q 36.03125 48 33.890625 48 
Q 26.265625 48 22.1875 43.046875 
Q 18.109375 38.09375 18.109375 28.8125 
L 18.109375 0 
L 9.078125 0 
L 9.078125 54.6875 
L 18.109375 54.6875 
L 18.109375 46.1875 
Q 20.953125 51.171875 25.484375 53.578125 
Q 30.03125 56 36.53125 56 
Q 37.453125 56 38.578125 55.875 
Q 39.703125 55.765625 41.0625 55.515625 
z
" id="DejaVuSans-72"/>
     <path d="M 8.5 21.578125 
L 8.5 54.6875 
L 17.484375 54.6875 
L 17.484375 21.921875 
Q 17.484375 14.15625 20.5 10.265625 
Q 23.53125 6.390625 29.59375 6.390625 
Q 36.859375 6.390625 41.078125 11.03125 
Q 45.3125 15.671875 45.3125 23.6875 
L 45.3125 54.6875 
L 54.296875 54.6875 
L 54.296875 0 
L 45.3125 0 
L 45.3125 8.40625 
Q 42.046875 3.421875 37.71875 1 
Q 33.40625 -1.421875 27.6875 -1.421875 
Q 18.265625 -1.421875 13.375 4.4375 
Q 8.5 10.296875 8.5 21.578125 
z
M 31.109375 56 
z
" id="DejaVuSans-75"/>
     <path d="M 48.78125 52.59375 
L 48.78125 44.1875 
Q 44.96875 46.296875 41.140625 47.34375 
Q 37.3125 48.390625 33.40625 48.390625 
Q 24.65625 48.390625 19.8125 42.84375 
Q 14.984375 37.3125 14.984375 27.296875 
Q 14.984375 17.28125 19.8125 11.734375 
Q 24.65625 6.203125 33.40625 6.203125 
Q 37.3125 6.203125 41.140625 7.25 
Q 44.96875 8.296875 48.78125 10.40625 
L 48.78125 2.09375 
Q 45.015625 0.34375 40.984375 -0.53125 
Q 36.96875 -1.421875 32.421875 -1.421875 
Q 20.0625 -1.421875 12.78125 6.34375 
Q 5.515625 14.109375 5.515625 27.296875 
Q 5.515625 40.671875 12.859375 48.328125 
Q 20.21875 56 33.015625 56 
Q 37.15625 56 41.109375 55.140625 
Q 45.0625 54.296875 48.78125 52.59375 
z
" id="DejaVuSans-63"/>
     <path d="M 56.203125 29.59375 
L 56.203125 25.203125 
L 14.890625 25.203125 
Q 15.484375 15.921875 20.484375 11.0625 
Q 25.484375 6.203125 34.421875 6.203125 
Q 39.59375 6.203125 44.453125 7.46875 
Q 49.3125 8.734375 54.109375 11.28125 
L 54.109375 2.78125 
Q 49.265625 0.734375 44.1875 -0.34375 
Q 39.109375 -1.421875 33.890625 -1.421875 
Q 20.796875 -1.421875 13.15625 6.1875 
Q 5.515625 13.8125 5.515625 26.8125 
Q 5.515625 40.234375 12.765625 48.109375 
Q 20.015625 56 32.328125 56 
Q 43.359375 56 49.78125 48.890625 
Q 56.203125 41.796875 56.203125 29.59375 
z
M 47.21875 32.234375 
Q 47.125 39.59375 43.09375 43.984375 
Q 39.0625 48.390625 32.421875 48.390625 
Q 24.90625 48.390625 20.390625 44.140625 
Q 15.875 39.890625 15.1875 32.171875 
z
" id="DejaVuSans-65"/>
     <path id="DejaVuSans-20"/>
     <path d="M 51.125 44 
L 36.921875 44 
L 32.8125 27.6875 
L 47.125 27.6875 
z
M 43.796875 71.78125 
L 38.71875 51.515625 
L 52.984375 51.515625 
L 58.109375 71.78125 
L 65.921875 71.78125 
L 60.890625 51.515625 
L 76.125 51.515625 
L 76.125 44 
L 58.984375 44 
L 54.984375 27.6875 
L 70.515625 27.6875 
L 70.515625 20.21875 
L 53.078125 20.21875 
L 48 0 
L 40.1875 0 
L 45.21875 20.21875 
L 30.90625 20.21875 
L 25.875 0 
L 18.015625 0 
L 23.09375 20.21875 
L 7.71875 20.21875 
L 7.71875 27.6875 
L 24.90625 27.6875 
L 29 44 
L 13.28125 44 
L 13.28125 51.515625 
L 30.90625 51.515625 
L 35.890625 71.78125 
z
" id="DejaVuSans-23"/>
     <path d="M 10.796875 72.90625 
L 49.515625 72.90625 
L 49.515625 64.59375 
L 19.828125 64.59375 
L 19.828125 46.734375 
Q 21.96875 47.46875 24.109375 47.828125 
Q 26.265625 48.1875 28.421875 48.1875 
Q 40.625 48.1875 47.75 41.5 
Q 54.890625 34.8125 54.890625 23.390625 
Q 54.890625 11.625 47.5625 5.09375 
Q 40.234375 -1.421875 26.90625 -1.421875 
Q 22.3125 -1.421875 17.546875 -0.640625 
Q 12.796875 0.140625 7.71875 1.703125 
L 7.71875 11.625 
Q 12.109375 9.234375 16.796875 8.0625 
Q 21.484375 6.890625 26.703125 6.890625 
Q 35.15625 6.890625 40.078125 11.328125 
Q 45.015625 15.765625 45.015625 23.390625 
Q 45.015625 31 40.078125 35.4375 
Q 35.15625 39.890625 26.703125 39.890625 
Q 22.75 39.890625 18.8125 39.015625 
Q 14.890625 38.140625 10.796875 36.28125 
z
" id="DejaVuSans-35"/>
     <path d="M 12.40625 8.296875 
L 28.515625 8.296875 
L 28.515625 63.921875 
L 10.984375 60.40625 
L 10.984375 69.390625 
L 28.421875 72.90625 
L 38.28125 72.90625 
L 38.28125 8.296875 
L 54.390625 8.296875 
L 54.390625 0 
L 12.40625 0 
z
" id="DejaVuSans-31"/>
     <path d="M 33.015625 40.375 
Q 26.375 40.375 22.484375 35.828125 
Q 18.609375 31.296875 18.609375 23.390625 
Q 18.609375 15.53125 22.484375 10.953125 
Q 26.375 6.390625 33.015625 6.390625 
Q 39.65625 6.390625 43.53125 10.953125 
Q 47.40625 15.53125 47.40625 23.390625 
Q 47.40625 31.296875 43.53125 35.828125 
Q 39.65625 40.375 33.015625 40.375 
z
M 52.59375 71.296875 
L 52.59375 62.3125 
Q 48.875 64.0625 45.09375 64.984375 
Q 41.3125 65.921875 37.59375 65.921875 
Q 27.828125 65.921875 22.671875 59.328125 
Q 17.53125 52.734375 16.796875 39.40625 
Q 19.671875 43.65625 24.015625 45.921875 
Q 28.375 48.1875 33.59375 48.1875 
Q 44.578125 48.1875 50.953125 41.515625 
Q 57.328125 34.859375 57.328125 23.390625 
Q 57.328125 12.15625 50.6875 5.359375 
Q 44.046875 -1.421875 33.015625 -1.421875 
Q 20.359375 -1.421875 13.671875 8.265625 
Q 6.984375 17.96875 6.984375 36.375 
Q 6.984375 53.65625 15.1875 63.9375 
Q 23.390625 74.21875 37.203125 74.21875 
Q 40.921875 74.21875 44.703125 73.484375 
Q 48.484375 72.75 52.59375 71.296875 
z
" id="DejaVuSans-36"/>
     <path d="M 31.78125 66.40625 
Q 24.171875 66.40625 20.328125 58.90625 
Q 16.5 51.421875 16.5 36.375 
Q 16.5 21.390625 20.328125 13.890625 
Q 24.171875 6.390625 31.78125 6.390625 
Q 39.453125 6.390625 43.28125 13.890625 
Q 47.125 21.390625 47.125 36.375 
Q 47.125 51.421875 43.28125 58.90625 
Q 39.453125 66.40625 31.78125 66.40625 
z
M 31.78125 74.21875 
Q 44.046875 74.21875 50.515625 64.515625 
Q 56.984375 54.828125 56.984375 36.375 
Q 56.984375 17.96875 50.515625 8.265625 
Q 44.046875 -1.421875 31.78125 -1.421875 
Q 19.53125 -1.421875 13.0625 8.265625 
Q 6.59375 17.96875 6.59375 36.375 
Q 6.59375 54.828125 13.0625 64.515625 
Q 19.53125 74.21875 31.78125 74.21875 
z
" id="DejaVuSans-30"/>
     <path d="M 11.71875 12.40625 
L 22.015625 12.40625 
L 22.015625 4 
L 14.015625 -11.625 
L 7.71875 -11.625 
L 11.71875 4 
z
" id="DejaVuSans-2c"/>
     <path d="M 16.890625 72.90625 
L 62.984375 72.90625 
L 61.375 64.59375 
L 25.09375 64.59375 
L 20.90625 43.015625 
L 55.71875 43.015625 
L 54.109375 34.71875 
L 19.28125 34.71875 
L 14.203125 8.296875 
L 51.3125 8.296875 
L 49.703125 0 
L 2.6875 0 
z
" id="DejaVuSans-Oblique-45"/>
     <path d="M 16.890625 72.90625 
L 30.171875 72.90625 
L 50.296875 10.40625 
L 62.5 72.90625 
L 72.125 72.90625 
L 57.90625 0 
L 44.578125 0 
L 24.515625 62.890625 
L 12.3125 0 
L 2.6875 0 
z
" id="DejaVuSans-Oblique-4e"/>
     <path d="M 10.59375 45.40625 
L 73.1875 45.40625 
L 73.1875 37.203125 
L 10.59375 37.203125 
z
M 10.59375 25.484375 
L 73.1875 25.484375 
L 73.1875 17.1875 
L 10.59375 17.1875 
z
" id="DejaVuSans-3d"/>
     <path d="M 4.890625 31.390625 
L 31.203125 31.390625 
L 31.203125 23.390625 
L 4.890625 23.390625 
z
" id="DejaVuSans-2d"/>
     <path d="M 8.203125 72.90625 
L 55.078125 72.90625 
L 55.078125 68.703125 
L 28.609375 0 
L 18.3125 0 
L 43.21875 64.59375 
L 8.203125 64.59375 
z
" id="DejaVuSans-37"/>
     <path d="M 31.78125 34.625 
Q 24.75 34.625 20.71875 30.859375 
Q 16.703125 27.09375 16.703125 20.515625 
Q 16.703125 13.921875 20.71875 10.15625 
Q 24.75 6.390625 31.78125 6.390625 
Q 38.8125 6.390625 42.859375 10.171875 
Q 46.921875 13.96875 46.921875 20.515625 
Q 46.921875 27.09375 42.890625 30.859375 
Q 38.875 34.625 31.78125 34.625 
z
M 21.921875 38.8125 
Q 15.578125 40.375 12.03125 44.71875 
Q 8.5 49.078125 8.5 55.328125 
Q 8.5 64.0625 14.71875 69.140625 
Q 20.953125 74.21875 31.78125 74.21875 
Q 42.671875 74.21875 48.875 69.140625 
Q 55.078125 64.0625 55.078125 55.328125 
Q 55.078125 49.078125 51.53125 44.71875 
Q 48 40.375 41.703125 38.8125 
Q 48.828125 37.15625 52.796875 32.3125 
Q 56.78125 27.484375 56.78125 20.515625 
Q 56.78125 9.90625 50.3125 4.234375 
Q 43.84375 -1.421875 31.78125 -1.421875 
Q 19.734375 -1.421875 13.25 4.234375 
Q 6.78125 9.90625 6.78125 20.515625 
Q 6.78125 27.484375 10.78125 32.3125 
Q 14.796875 37.15625 21.921875 38.8125 
z
M 18.3125 54.390625 
Q 18.3125 48.734375 21.84375 45.5625 
Q 25.390625 42.390625 31.78125 42.390625 
Q 38.140625 42.390625 41.71875 45.5625 
Q 45.3125 48.734375 45.3125 54.390625 
Q 45.3125 60.0625 41.71875 63.234375 
Q 38.140625 66.40625 31.78125 66.40625 
Q 25.390625 66.40625 21.84375 63.234375 
Q 18.3125 60.0625 18.3125 54.390625 
z
" id="DejaVuSans-38"/>
     <path d="M 10.6875 12.40625 
L 21 12.40625 
L 21 0 
L 10.6875 0 
z
" id="DejaVuSans-2e"/>
     <path d="M 28.609375 0 
L 0.78125 72.90625 
L 11.078125 72.90625 
L 34.1875 11.53125 
L 57.328125 72.90625 
L 67.578125 72.90625 
L 39.796875 0 
z
" id="DejaVuSans-56"/>
     <path d="M 34.1875 63.1875 
L 14.15625 8.203125 
L 54.25 8.203125 
z
M 0.78125 0 
L 28.609375 72.90625 
L 39.796875 72.90625 
L 67.578125 0 
z
" id="DejaVuSans-394"/>
     <path d="M 9.8125 72.90625 
L 55.90625 72.90625 
L 55.90625 64.59375 
L 19.671875 64.59375 
L 19.671875 43.015625 
L 54.390625 43.015625 
L 54.390625 34.71875 
L 19.671875 34.71875 
L 19.671875 8.296875 
L 56.78125 8.296875 
L 56.78125 0 
L 9.8125 0 
z
" id="DejaVuSans-45"/>
     <path d="M 37.796875 64.3125 
L 12.890625 25.390625 
L 37.796875 25.390625 
z
M 35.203125 72.90625 
L 47.609375 72.90625 
L 47.609375 25.390625 
L 58.015625 25.390625 
L 58.015625 17.1875 
L 47.609375 17.1875 
L 47.609375 0 
L 37.796875 0 
L 37.796875 17.1875 
L 4.890625 17.1875 
L 4.890625 26.703125 
z
" id="DejaVuSans-34"/>
    </defs>
    <g transform="translate(65.388 35.472)scale(0.12 -0.12)">
     <use transform="translate(0 0.78125)" xlink:href="#DejaVuSans-53"/>
     <use transform="translate(63.476562 0.78125)" xlink:href="#DejaVuSans-74"/>
     <use transform="translate(102.685547 0.78125)" xlink:href="#DejaVuSans-72"/>
     <use transform="translate(143.798828 0.78125)" xlink:href="#DejaVuSans-75"/>
     <use transform="translate(207.177734 0.78125)" xlink:href="#DejaVuSans-63"/>
     <use transform="translate(262.158203 0.78125)" xlink:href="#DejaVuSans-74"/>
     <use transform="translate(301.367188 0.78125)" xlink:href="#DejaVuSans-75"/>
     <use transform="translate(364.746094 0.78125)" xlink:href="#DejaVuSans-72"/>
     <use transform="translate(405.859375 0.78125)" xlink:href="#DejaVuSans-65"/>
     <use transform="translate(467.382812 0.78125)" xlink:href="#DejaVuSans-20"/>
     <use transform="translate(499.169922 0.78125)" xlink:href="#DejaVuSans-23"/>
     <use transform="translate(582.958984 0.78125)" xlink:href="#DejaVuSans-35"/>
     <use transform="translate(646.582031 0.78125)" xlink:href="#DejaVuSans-31"/>
     <use transform="translate(710.205078 0.78125)" xlink:href="#DejaVuSans-36"/>
     <use transform="translate(773.828125 0.78125)" xlink:href="#DejaVuSans-30"/>
     <use transform="translate(837.451172 0.78125)" xlink:href="#DejaVuSans-2c"/>
     <use transform="translate(869.238281 0.78125)" xlink:href="#DejaVuSans-20"/>
     <use transform="translate(901.025391 0.78125)" xlink:href="#DejaVuSans-Oblique-45"/>
     <use transform="translate(964.208984 -15.625)scale(0.7)" xlink:href="#DejaVuSans-Oblique-4e"/>
     <use transform="translate(1019.306641 0.78125)" xlink:href="#DejaVuSans-3d"/>
     <use transform="translate(1103.095703 0.78125)" xlink:href="#DejaVuSans-2d"/>
     <use transform="translate(1139.179688 0.78125)" xlink:href="#DejaVuSans-31"/>
     <use transform="translate(1202.802734 0.78125)" xlink:href="#DejaVuSans-37"/>
     <use transform="translate(1266.425781 0.78125)" xlink:href="#DejaVuSans-38"/>
     <use transform="translate(1330.048828 0.78125)" xlink:href="#DejaVuSans-2e"/>
     <use transform="translate(1361.835938 0.78125)" xlink:href="#DejaVuSans-31"/>
     <use transform="translate(1425.458984 0.78125)" xlink:href="#DejaVuSans-38"/>
     <use transform="translate(1489.082031 0.78125)" xlink:href="#DejaVuSans-65"/>
     <use transform="translate(1550.605469 0.78125)" xlink:href="#DejaVuSans-56"/>
     <use transform="translate(1619.013672 0.78125)" xlink:href="#DejaVuSans-2c"/>
     <use transform="translate(1650.800781 0.78125)" xlink:href="#DejaVuSans-20"/>
     <use transform="translate(1682.587891 0.78125)" xlink:href="#DejaVuSans-394"/>
     <use transform="translate(1750.996094 0.78125)" xlink:href="#DejaVuSans-45"/>
     <use transform="translate(1814.179688 0.78125)" xlink:href="#DejaVuSans-3d"/>
     <use transform="translate(1897.96875 0.78125)" xlink:href="#DejaVuSans-30"/>
     <use transform="translate(1961.591797 0.78125)" xlink:href="#DejaVuSans-2e"/>
     <use transform="translate(1993.378906 0.78125)" xlink:href="#DejaVuSans-31"/>
     <use transform="translate(2057.001953 0.78125)" xlink:href="#DejaVuSans-34"/>
     <use transform="translate(2120.625 0.78125)" xlink:href="#DejaVuSans-65"/>
     <use transform="translate(2182.148438 0.78125)" xlink:href="#DejaVuSans-56"/>
    </g>
   </g>
  </g>
  <g id="axes_2">
   <g id="patch_2">
    <path clip-path="url(#p4910e47d6a)" d="M 361.152 307.584 
L 361.152 306.5445 
L 361.152 42.5115 
L 361.152 41.472 
L 374.4576 41.472 
L 374.4576 42.5115 
L 374.4576 306.5445 
L 374.4576 307.584 
z
" style="fill:#ffffff;stroke:#ffffff;stroke-linejoin:miter;stroke-width:0.01;"/>
   </g>
   <image height="265.68" id="image4e3703a84b" transform="scale(1 -1)translate(0 -265.68)" width="12.96" x="361.44" xlink:href="data:image/png;base64,
iVBORw0KGgoAAAANSUhEUgAAABIAAAFxCAYAAAB+2fgXAAAABHNCSVQICAgIfAhkiAAAAeVJREFUeJztncmNw0AQA2ckheYQNv9QLIfQ8ygsCgQ7AEI8+jAs2Puz/94F1LP2ReCsZ18bAWIeZ5XaGRBE7VnbptG+KI101FYyNSiQG2oRITXKNaX9uclOdi2XWjftVE32CZCO2ou5Bj1TcCBr/1zB9ge7Fq0Rg2NM9pvbtG+ua1QgsRYhDy0ISEiNc40BEibbSI0Coj5CBGtkpFbXJiAjNZlrwhuSOv2M1DjXbEdEciBt1JSDDQKKpmZr2rr2j0DBGpXaWEJq3bQzEPIS26r9J+Wzv9Tm8o3aajRXqc3VUXsApKNWjeZq0x4ABVNbm7lrszVigDqP5vIl2+eaT2yfRkL7g+dRcNPqjohkjaCvRVBq0H2U3LQrOJCx9kdTg4B8oxZzzTdqdYHEngjUCAPyUctN9sVRq2sTECW2UKNLd2jVtRmo1A6AhMmWaSRcR8nUdIHUuVb75zJS218EyEitro1At69pIdeSk30Lkw0FktNImGyZRhy1O5galmxd03LUsHWk06jUZiCq+5Wb1kZNN4+wJxJuWt8RAW5am2sYNZ9rYCBzZ3buPKJ2P5Yj4Toy3keyIyJbIxs1rml1byCA84gpch5RQNB7Q0qNMGq2Hy4BXdNR41yz/cEEJfZzUz96r9PoB0okjeQ8y9TkAAAAAElFTkSuQmCC" y="-41.76"/>
   <g id="matplotlib.axis_1"/>
   <g id="matplotlib.axis_2">
    <g id="ytick_1">
     <g id="line2d_1">
      <defs>
       <path d="M 0 0 
L 3.5 0 
" id="m4883be1cc0" style="stroke:#000000;stroke-width:0.8;"/>
      </defs>
      <g>
       <use style="stroke:#000000;stroke-width:0.8;" x="374.4576" xlink:href="#m4883be1cc0" y="294.578518"/>
      </g>
     </g>
     <g id="text_2">
      <!-- −9.0 -->
      <defs>
       <path d="M 10.59375 35.5 
L 73.1875 35.5 
L 73.1875 27.203125 
L 10.59375 27.203125 
z
" id="DejaVuSans-2212"/>
       <path d="M 10.984375 1.515625 
L 10.984375 10.5 
Q 14.703125 8.734375 18.5 7.8125 
Q 22.3125 6.890625 25.984375 6.890625 
Q 35.75 6.890625 40.890625 13.453125 
Q 46.046875 20.015625 46.78125 33.40625 
Q 43.953125 29.203125 39.59375 26.953125 
Q 35.25 24.703125 29.984375 24.703125 
Q 19.046875 24.703125 12.671875 31.3125 
Q 6.296875 37.9375 6.296875 49.421875 
Q 6.296875 60.640625 12.9375 67.421875 
Q 19.578125 74.21875 30.609375 74.21875 
Q 43.265625 74.21875 49.921875 64.515625 
Q 56.59375 54.828125 56.59375 36.375 
Q 56.59375 19.140625 48.40625 8.859375 
Q 40.234375 -1.421875 26.421875 -1.421875 
Q 22.703125 -1.421875 18.890625 -0.6875 
Q 15.09375 0.046875 10.984375 1.515625 
z
M 30.609375 32.421875 
Q 37.25 32.421875 41.125 36.953125 
Q 45.015625 41.5 45.015625 49.421875 
Q 45.015625 57.28125 41.125 61.84375 
Q 37.25 66.40625 30.609375 66.40625 
Q 23.96875 66.40625 20.09375 61.84375 
Q 16.21875 57.28125 16.21875 49.421875 
Q 16.21875 41.5 20.09375 36.953125 
Q 23.96875 32.421875 30.609375 32.421875 
z
" id="DejaVuSans-39"/>
      </defs>
      <g transform="translate(381.4576 298.377737)scale(0.1 -0.1)">
       <use xlink:href="#DejaVuSans-2212"/>
       <use x="83.789062" xlink:href="#DejaVuSans-39"/>
       <use x="147.412109" xlink:href="#DejaVuSans-2e"/>
       <use x="179.199219" xlink:href="#DejaVuSans-30"/>
      </g>
     </g>
    </g>
    <g id="ytick_2">
     <g id="line2d_2">
      <g>
       <use style="stroke:#000000;stroke-width:0.8;" x="374.4576" xlink:href="#m4883be1cc0" y="263.322819"/>
      </g>
     </g>
     <g id="text_3">
      <!-- −8.5 -->
      <g transform="translate(381.4576 267.122038)scale(0.1 -0.1)">
       <use xlink:href="#DejaVuSans-2212"/>
       <use x="83.789062" xlink:href="#DejaVuSans-38"/>
       <use x="147.412109" xlink:href="#DejaVuSans-2e"/>
       <use x="179.199219" xlink:href="#DejaVuSans-35"/>
      </g>
     </g>
    </g>
    <g id="ytick_3">
     <g id="line2d_3">
      <g>
       <use style="stroke:#000000;stroke-width:0.8;" x="374.4576" xlink:href="#m4883be1cc0" y="232.067121"/>
      </g>
     </g>
     <g id="text_4">
      <!-- −8.0 -->
      <g transform="translate(381.4576 235.866339)scale(0.1 -0.1)">
       <use xlink:href="#DejaVuSans-2212"/>
       <use x="83.789062" xlink:href="#DejaVuSans-38"/>
       <use x="147.412109" xlink:href="#DejaVuSans-2e"/>
       <use x="179.199219" xlink:href="#DejaVuSans-30"/>
      </g>
     </g>
    </g>
    <g id="ytick_4">
     <g id="line2d_4">
      <g>
       <use style="stroke:#000000;stroke-width:0.8;" x="374.4576" xlink:href="#m4883be1cc0" y="200.811422"/>
      </g>
     </g>
     <g id="text_5">
      <!-- −7.5 -->
      <g transform="translate(381.4576 204.610641)scale(0.1 -0.1)">
       <use xlink:href="#DejaVuSans-2212"/>
       <use x="83.789062" xlink:href="#DejaVuSans-37"/>
       <use x="147.412109" xlink:href="#DejaVuSans-2e"/>
       <use x="179.199219" xlink:href="#DejaVuSans-35"/>
      </g>
     </g>
    </g>
    <g id="ytick_5">
     <g id="line2d_5">
      <g>
       <use style="stroke:#000000;stroke-width:0.8;" x="374.4576" xlink:href="#m4883be1cc0" y="169.555723"/>
      </g>
     </g>
     <g id="text_6">
      <!-- −7.0 -->
      <g transform="translate(381.4576 173.354942)scale(0.1 -0.1)">
       <use xlink:href="#DejaVuSans-2212"/>
       <use x="83.789062" xlink:href="#DejaVuSans-37"/>
       <use x="147.412109" xlink:href="#DejaVuSans-2e"/>
       <use x="179.199219" xlink:href="#DejaVuSans-30"/>
      </g>
     </g>
    </g>
    <g id="ytick_6">
     <g id="line2d_6">
      <g>
       <use style="stroke:#000000;stroke-width:0.8;" x="374.4576" xlink:href="#m4883be1cc0" y="138.300025"/>
      </g>
     </g>
     <g id="text_7">
      <!-- −6.5 -->
      <g transform="translate(381.4576 142.099243)scale(0.1 -0.1)">
       <use xlink:href="#DejaVuSans-2212"/>
       <use x="83.789062" xlink:href="#DejaVuSans-36"/>
       <use x="147.412109" xlink:href="#DejaVuSans-2e"/>
       <use x="179.199219" xlink:href="#DejaVuSans-35"/>
      </g>
     </g>
    </g>
    <g id="ytick_7">
     <g id="line2d_7">
      <g>
       <use style="stroke:#000000;stroke-width:0.8;" x="374.4576" xlink:href="#m4883be1cc0" y="107.044326"/>
      </g>
     </g>
     <g id="text_8">
      <!-- −6.0 -->
      <g transform="translate(381.4576 110.843545)scale(0.1 -0.1)">
       <use xlink:href="#DejaVuSans-2212"/>
       <use x="83.789062" xlink:href="#DejaVuSans-36"/>
       <use x="147.412109" xlink:href="#DejaVuSans-2e"/>
       <use x="179.199219" xlink:href="#DejaVuSans-30"/>
      </g>
     </g>
    </g>
    <g id="ytick_8">
     <g id="line2d_8">
      <g>
       <use style="stroke:#000000;stroke-width:0.8;" x="374.4576" xlink:href="#m4883be1cc0" y="75.788627"/>
      </g>
     </g>
     <g id="text_9">
      <!-- −5.5 -->
      <g transform="translate(381.4576 79.587846)scale(0.1 -0.1)">
       <use xlink:href="#DejaVuSans-2212"/>
       <use x="83.789062" xlink:href="#DejaVuSans-35"/>
       <use x="147.412109" xlink:href="#DejaVuSans-2e"/>
       <use x="179.199219" xlink:href="#DejaVuSans-35"/>
      </g>
     </g>
    </g>
    <g id="ytick_9">
     <g id="line2d_9">
      <g>
       <use style="stroke:#000000;stroke-width:0.8;" x="374.4576" xlink:href="#m4883be1cc0" y="44.532929"/>
      </g>
     </g>
     <g id="text_10">
      <!-- −5.0 -->
      <g transform="translate(381.4576 48.332148)scale(0.1 -0.1)">
       <use xlink:href="#DejaVuSans-2212"/>
       <use x="83.789062" xlink:href="#DejaVuSans-35"/>
       <use x="147.412109" xlink:href="#DejaVuSans-2e"/>
       <use x="179.199219" xlink:href="#DejaVuSans-30"/>
      </g>
     </g>
    </g>
    <g id="text_11">
     <!-- Energy [eV] -->
     <defs>
      <path d="M 54.890625 33.015625 
L 54.890625 0 
L 45.90625 0 
L 45.90625 32.71875 
Q 45.90625 40.484375 42.875 44.328125 
Q 39.84375 48.1875 33.796875 48.1875 
Q 26.515625 48.1875 22.3125 43.546875 
Q 18.109375 38.921875 18.109375 30.90625 
L 18.109375 0 
L 9.078125 0 
L 9.078125 54.6875 
L 18.109375 54.6875 
L 18.109375 46.1875 
Q 21.34375 51.125 25.703125 53.5625 
Q 30.078125 56 35.796875 56 
Q 45.21875 56 50.046875 50.171875 
Q 54.890625 44.34375 54.890625 33.015625 
z
" id="DejaVuSans-6e"/>
      <path d="M 45.40625 27.984375 
Q 45.40625 37.75 41.375 43.109375 
Q 37.359375 48.484375 30.078125 48.484375 
Q 22.859375 48.484375 18.828125 43.109375 
Q 14.796875 37.75 14.796875 27.984375 
Q 14.796875 18.265625 18.828125 12.890625 
Q 22.859375 7.515625 30.078125 7.515625 
Q 37.359375 7.515625 41.375 12.890625 
Q 45.40625 18.265625 45.40625 27.984375 
z
M 54.390625 6.78125 
Q 54.390625 -7.171875 48.1875 -13.984375 
Q 42 -20.796875 29.203125 -20.796875 
Q 24.46875 -20.796875 20.265625 -20.09375 
Q 16.0625 -19.390625 12.109375 -17.921875 
L 12.109375 -9.1875 
Q 16.0625 -11.328125 19.921875 -12.34375 
Q 23.78125 -13.375 27.78125 -13.375 
Q 36.625 -13.375 41.015625 -8.765625 
Q 45.40625 -4.15625 45.40625 5.171875 
L 45.40625 9.625 
Q 42.625 4.78125 38.28125 2.390625 
Q 33.9375 0 27.875 0 
Q 17.828125 0 11.671875 7.65625 
Q 5.515625 15.328125 5.515625 27.984375 
Q 5.515625 40.671875 11.671875 48.328125 
Q 17.828125 56 27.875 56 
Q 33.9375 56 38.28125 53.609375 
Q 42.625 51.21875 45.40625 46.390625 
L 45.40625 54.6875 
L 54.390625 54.6875 
z
" id="DejaVuSans-67"/>
      <path d="M 32.171875 -5.078125 
Q 28.375 -14.84375 24.75 -17.8125 
Q 21.140625 -20.796875 15.09375 -20.796875 
L 7.90625 -20.796875 
L 7.90625 -13.28125 
L 13.1875 -13.28125 
Q 16.890625 -13.28125 18.9375 -11.515625 
Q 21 -9.765625 23.484375 -3.21875 
L 25.09375 0.875 
L 2.984375 54.6875 
L 12.5 54.6875 
L 29.59375 11.921875 
L 46.6875 54.6875 
L 56.203125 54.6875 
z
" id="DejaVuSans-79"/>
      <path d="M 8.59375 75.984375 
L 29.296875 75.984375 
L 29.296875 69 
L 17.578125 69 
L 17.578125 -6.203125 
L 29.296875 -6.203125 
L 29.296875 -13.1875 
L 8.59375 -13.1875 
z
" id="DejaVuSans-5b"/>
      <path d="M 30.421875 75.984375 
L 30.421875 -13.1875 
L 9.71875 -13.1875 
L 9.71875 -6.203125 
L 21.390625 -6.203125 
L 21.390625 69 
L 9.71875 69 
L 9.71875 75.984375 
z
" id="DejaVuSans-5d"/>
     </defs>
     <g transform="translate(417.33885 204.108469)rotate(-90)scale(0.1 -0.1)">
      <use xlink:href="#DejaVuSans-45"/>
      <use x="63.183594" xlink:href="#DejaVuSans-6e"/>
      <use x="126.5625" xlink:href="#DejaVuSans-65"/>
      <use x="188.085938" xlink:href="#DejaVuSans-72"/>
      <use x="229.183594" xlink:href="#DejaVuSans-67"/>
      <use x="292.660156" xlink:href="#DejaVuSans-79"/>
      <use x="351.839844" xlink:href="#DejaVuSans-20"/>
      <use x="383.626953" xlink:href="#DejaVuSans-5b"/>
      <use x="422.640625" xlink:href="#DejaVuSans-65"/>
      <use x="484.164062" xlink:href="#DejaVuSans-56"/>
      <use x="552.572266" xlink:href="#DejaVuSans-5d"/>
     </g>
    </g>
   </g>
   <g id="patch_3">
    <path d="M 361.152 307.584 
L 361.152 306.5445 
L 361.152 42.5115 
L 361.152 41.472 
L 374.4576 41.472 
L 374.4576 42.5115 
L 374.4576 306.5445 
L 374.4576 307.584 
z
" style="fill:none;stroke:#000000;stroke-linejoin:miter;stroke-width:0.8;"/>
   </g>
  </g>
 </g>
 <defs>
  <clipPath id="pcf389859e9">
   <rect height="266.112" width="285.696" x="57.6" y="41.472"/>
  </clipPath>
  <clipPath id="p4910e47d6a">
   <rect height="266.112" width="13.3056" x="361.152" y="41.472"/>
  </clipPath>
 </defs>
</svg>
