1.500000000000000000e+01 1.700000000000000000e+01 1.900000000000000000e+01 2.000000000000000000e+01 2.100000000000000000e+01 2.200000000000000000e+01 2.300000000000000000e+01 2.400000000000000000e+01 2.500000000000000000e+01 2.600000000000000000e+01 2.700000000000000000e+01 2.800000000000000000e+01 2.900000000000000000e+01 3.000000000000000000e+01 3.100000000000000000e+01 3.200000000000000000e+01 3.300000000000000000e+01 3.400000000000000000e+01 3.500000000000000000e+01 3.600000000000000000e+01 3.700000000000000000e+01 3.800000000000000000e+01 3.900000000000000000e+01 4.000000000000000000e+01 4.100000000000000000e+01 4.200000000000000000e+01 4.300000000000000000e+01 4.400000000000000000e+01 4.500000000000000000e+01 4.600000000000000000e+01 4.700000000000000000e+01 4.800000000000000000e+01 4.900000000000000000e+01 5.000000000000000000e+01 5.100000000000000000e+01
2.544039487838745117e-01 2.484622597694396973e-01 2.334407866001129150e-01 2.345025539398193359e-01 2.357992902398109436e-01 2.385482043027877808e-01 2.279203608632087708e-01 2.257337570190429688e-01 2.239349881807962961e-01 2.235972881317138672e-01 2.239038720726966858e-01 2.199196666479110718e-01 2.166986018419265747e-01 2.236893922090530396e-01 2.166070342063903809e-01 2.201378196477890015e-01 2.203705571591854095e-01 2.187399268150329590e-01 2.180246363083521433e-01 2.190626859664916992e-01 2.185568138957023621e-01 2.158787846565246582e-01 2.165643647313117981e-01 2.238333970308303833e-01 2.210469990968704224e-01 2.118349820375442505e-01 2.177253365516662598e-01 2.187335193157196045e-01 2.202472984790802002e-01 2.135235369205474854e-01 2.209810167551040649e-01 2.176311016082763672e-01 2.171185538172721863e-01 2.157353907823562622e-01 2.186611294746398926e-01
0.000000000000000000e+00 0.000000000000000000e+00 0.000000000000000000e+00 0.000000000000000000e+00 1.865006983280181885e-03 0.000000000000000000e+00 3.390088677406311035e-04 0.000000000000000000e+00 2.333500150099643289e-03 1.148834824562072754e-03 4.552606307096773199e-03 3.372728824615478516e-04 2.090912103327057306e-03 4.504099488258361816e-03 2.450700295969888021e-03 1.265779137611389160e-03 2.013367561796056138e-03 1.060858368873596191e-03 2.246717514227077658e-03 0.000000000000000000e+00 1.714684069156646729e-03 0.000000000000000000e+00 4.823334515094757080e-03 0.000000000000000000e+00 2.237945795059204102e-03 0.000000000000000000e+00 1.939177513122558594e-03 0.000000000000000000e+00 8.599162101745605469e-04 0.000000000000000000e+00 2.753734588623046875e-04 0.000000000000000000e+00 2.149119973182678223e-04 0.000000000000000000e+00 0.000000000000000000e+00
